{
    "hits": [
        {
            "id": "9da5650d-7f2a-4e2d-920a-e081546a1cc0",
            "nama_pse": "SHANTOU MARIA INVESTMENT CO., LTD.",
            "nama_se": "vdni.co.id@outlook.com.gr",
            "sektor": "Sektor Teknologi Informasi dan Komunikasi",
            "tanggal_terbit": "2024-12-05",
            "url_tdpse_detail": "https://pse.komdigi.go.id/tdpse-detail/21499",
            "website": "-"
        },
        {
            "id": "9da5650f-3099-424f-96a5-984ba3c403d6",
            "nama_pse": "SHANTOU MARIA INVESTMENT CO., LTD.",
            "nama_se": "jasamarga.co.id@hotmail.com",
            "sektor": "Sektor Teknologi Informasi dan Komunikasi",
            "tanggal_terbit": "2024-12-05",
            "url_tdpse_detail": "https://pse.komdigi.go.id/tdpse-detail/21500",
            "website": "-"
        },
        {
            "id": "9da56510-e7ae-4586-b88f-5acb06e87913",
            "nama_pse": "SHANTOU MARIA INVESTMENT CO., LTD.",
            "nama_se": "pgn,co.id@outlook.com.gr",
            "sektor": "Sektor Teknologi Informasi dan Komunikasi",
            "tanggal_terbit": "2024-12-05",
            "url_tdpse_detail": "https://pse.komdigi.go.id/tdpse-detail/21501",
            "website": "-"
        },
        {
            "id": "9da56512-9338-499b-b086-1049d159b965",
            "nama_pse": "SHANTOU MARIA INVESTMENT CO., LTD.",
            "nama_se": "musimmas.com@outlook.com.gr",
            "sektor": "Sektor Teknologi Informasi dan Komunikasi",
            "tanggal_terbit": "2024-12-05",
            "url_tdpse_detail": "https://pse.komdigi.go.id/tdpse-detail/21502",
            "website": "-"
        },
        {
            "id": "9da56515-deb7-42cd-9c34-538d1607955f",
            "nama_pse": "SHANTOU MARIA INVESTMENT CO., LTD.",
            "nama_se": "tamandayu.com@outlook.com.gr",
            "sektor": "Sektor Teknologi Informasi dan Komunikasi",
            "tanggal_terbit": "2024-12-05",
            "url_tdpse_detail": "https://pse.komdigi.go.id/tdpse-detail/21504",
            "website": "-"
        },
        {
            "id": "9da56519-2b8d-4acb-b494-9d226dd3b7ac",
            "nama_pse": "SHANTOU MARIA INVESTMENT CO., LTD.",
            "nama_se": "tekomsat.co.id@hotmail.com",
            "sektor": "Sektor Teknologi Informasi dan Komunikasi",
            "tanggal_terbit": "2024-12-05",
            "url_tdpse_detail": "https://pse.komdigi.go.id/tdpse-detail/21506",
            "website": "-"
        },
        {
            "id": "9da56517-7036-441a-938f-dad2914ba7ce",
            "nama_pse": "SHANTOU MARIA INVESTMENT CO., LTD.",
            "nama_se": "mabaindonesia.com@outlook.com.gr",
            "sektor": "Sektor Teknologi Informasi dan Komunikasi",
            "tanggal_terbit": "2024-12-05",
            "url_tdpse_detail": "https://pse.komdigi.go.id/tdpse-detail/21505",
            "website": "-"
        },
        {
            "id": "9da56514-3e42-4d4c-a872-26bb6715ffea",
            "nama_pse": "SHANTOU MARIA INVESTMENT CO., LTD.",
            "nama_se": "sampoernafoundation.org@hotmail.com",
            "sektor": "Sektor Teknologi Informasi dan Komunikasi",
            "tanggal_terbit": "2024-12-05",
            "url_tdpse_detail": "https://pse.komdigi.go.id/tdpse-detail/21503",
            "website": "-"
        },
        {
            "id": "9da57358-81af-4dd3-b527-c3af593d027d",
            "nama_pse": "SHANTOU MARIA INVESTMENT CO., LTD.",
            "nama_se": "shantoumariainvestment@tutanota.com",
            "sektor": "Sektor Teknologi Informasi dan Komunikasi",
            "tanggal_terbit": "2024-12-05",
            "url_tdpse_detail": "https://pse.komdigi.go.id/tdpse-detail/21507",
            "website": "-"
        },
        {
            "id": "9da5735a-4eb2-4bde-a654-d2fc9b4a4779",
            "nama_pse": "SHANTOU MARIA INVESTMENT CO., LTD.",
            "nama_se": "sunpropertyindonesia@outlook.co.id",
            "sektor": "Sektor Teknologi Informasi dan Komunikasi",
            "tanggal_terbit": "2024-12-05",
            "url_tdpse_detail": "https://pse.komdigi.go.id/tdpse-detail/21508",
            "website": "-"
        },
        {
            "id": "9da5735c-80da-411c-97ab-d1a899c13c4b",
            "nama_pse": "SHANTOU MARIA INVESTMENT CO., LTD.",
            "nama_se": "sbycentrin.net.id@hotmail.com",
            "sektor": "Sektor Teknologi Informasi dan Komunikasi",
            "tanggal_terbit": "2024-12-05",
            "url_tdpse_detail": "https://pse.komdigi.go.id/tdpse-detail/21509",
            "website": "-"
        },
        {
            "id": "9da5735e-3e71-472e-b5e8-7833d356459c",
            "nama_pse": "SHANTOU MARIA INVESTMENT CO., LTD.",
            "nama_se": "dnr.id@hotmail.com",
            "sektor": "Sektor Teknologi Informasi dan Komunikasi",
            "tanggal_terbit": "2024-12-05",
            "url_tdpse_detail": "https://pse.komdigi.go.id/tdpse-detail/21510",
            "website": "-"
        },
        {
            "id": "9da5735f-e1de-4b40-b9e8-4f98124c76c7",
            "nama_pse": "SHANTOU MARIA INVESTMENT CO., LTD.",
            "nama_se": "sun_and_moon_apartment@outlook.com.gr",
            "sektor": "Sektor Teknologi Informasi dan Komunikasi",
            "tanggal_terbit": "2024-12-05",
            "url_tdpse_detail": "https://pse.komdigi.go.id/tdpse-detail/21511",
            "website": "-"
        },
        {
            "id": "9da57361-8319-4b96-bd80-8bc573904144",
            "nama_pse": "SHANTOU MARIA INVESTMENT CO., LTD.",
            "nama_se": "alita.id@outlook.com.gr",
            "sektor": "Sektor Teknologi Informasi dan Komunikasi",
            "tanggal_terbit": "2024-12-05",
            "url_tdpse_detail": "https://pse.komdigi.go.id/tdpse-detail/21512",
            "website": "-"
        },
        {
            "id": "9da57363-31f8-44f9-a4fc-11e706deb6be",
            "nama_pse": "SHANTOU MARIA INVESTMENT CO., LTD.",
            "nama_se": "sun_and_moon_apartment@hotmail.com",
            "sektor": "Sektor Teknologi Informasi dan Komunikasi",
            "tanggal_terbit": "2024-12-05",
            "url_tdpse_detail": "https://pse.komdigi.go.id/tdpse-detail/21513",
            "website": "-"
        },
        {
            "id": "9da57364-e9da-4451-96d2-447290d3fd9f",
            "nama_pse": "SHANTOU MARIA INVESTMENT CO., LTD.",
            "nama_se": "eurokarsgroup@outlook.com.gr",
            "sektor": "Sektor Teknologi Informasi dan Komunikasi",
            "tanggal_terbit": "2024-12-05",
            "url_tdpse_detail": "https://pse.komdigi.go.id/tdpse-detail/21514",
            "website": "-"
        },
        {
            "id": "9da57366-9a0f-471d-a112-c98a7a91ba69",
            "nama_pse": "SHANTOU MARIA INVESTMENT CO., LTD.",
            "nama_se": "wisatabaharibej@outlook.com.gr",
            "sektor": "Sektor Teknologi Informasi dan Komunikasi",
            "tanggal_terbit": "2024-12-05",
            "url_tdpse_detail": "https://pse.komdigi.go.id/tdpse-detail/21515",
            "website": "-"
        },
        {
            "id": "9da57368-635c-4379-b009-9095b279973b",
            "nama_pse": "SHANTOU MARIA INVESTMENT CO., LTD.",
            "nama_se": "omya.com@hotmail.com",
            "sektor": "Sektor Teknologi Informasi dan Komunikasi",
            "tanggal_terbit": "2024-12-05",
            "url_tdpse_detail": "https://pse.komdigi.go.id/tdpse-detail/21516",
            "website": "-"
        },
        {
            "id": "9da57931-2123-4718-ad64-b80349321179",
            "nama_pse": "SHANTOU MARIA INVESTMENT CO., LTD.",
            "nama_se": "shantoumariainvestment@tutanota.com",
            "sektor": "Sektor Keuangan",
            "tanggal_terbit": "2024-12-05",
            "url_tdpse_detail": "https://pse.komdigi.go.id/tdpse-detail/21517",
            "website": "-"
        },
        {
            "id": "9da57932-fda9-4e0f-9c89-ee2d34e7d2be",
            "nama_pse": "SHANTOU MARIA INVESTMENT CO., LTD.",
            "nama_se": "jakartamrt.co.id@hotmail.com",
            "sektor": "Sektor Teknologi Informasi dan Komunikasi",
            "tanggal_terbit": "2024-12-05",
            "url_tdpse_detail": "https://pse.komdigi.go.id/tdpse-detail/21518",
            "website": "-"
        },
        {
            "id": "9da57934-b144-4950-babb-364b1cf8e6a9",
            "nama_pse": "SHANTOU MARIA INVESTMENT CO., LTD.",
            "nama_se": "agungpodomoroland.com@outlook.com",
            "sektor": "Sektor Teknologi Informasi dan Komunikasi",
            "tanggal_terbit": "2024-12-05",
            "url_tdpse_detail": "https://pse.komdigi.go.id/tdpse-detail/21519",
            "website": "-"
        },
        {
            "id": "9da57936-77aa-4ba6-bc51-0b0c6aa23434",
            "nama_pse": "SHANTOU MARIA INVESTMENT CO., LTD.",
            "nama_se": "susannamoorehead@outlook.co.id",
            "sektor": "Sektor Teknologi Informasi dan Komunikasi",
            "tanggal_terbit": "2024-12-05",
            "url_tdpse_detail": "https://pse.komdigi.go.id/tdpse-detail/21520",
            "website": "-"
        },
        {
            "id": "9da64034-1372-41f0-88a7-31c0786320a5",
            "nama_pse": "SHANTOU MARIA INVESTMENT CO., LTD.",
            "nama_se": "wiwih.wahyu.hidayat@proton.me",
            "sektor": "Sektor Teknologi Informasi dan Komunikasi",
            "tanggal_terbit": "2024-12-05",
            "url_tdpse_detail": "https://pse.komdigi.go.id/tdpse-detail/21530",
            "website": "-"
        },
        {
            "id": "9da64035-e89d-4554-9b95-60334c5b7e10",
            "nama_pse": "SHANTOU MARIA INVESTMENT CO., LTD.",
            "nama_se": "sondang.eka.rahmawati@proton.me",
            "sektor": "Sektor Teknologi Informasi dan Komunikasi",
            "tanggal_terbit": "2024-12-05",
            "url_tdpse_detail": "https://pse.komdigi.go.id/tdpse-detail/21531",
            "website": "-"
        },
        {
            "id": "9da64037-c3ee-4107-b4a6-87462e679f03",
            "nama_pse": "SHANTOU MARIA INVESTMENT CO., LTD.",
            "nama_se": "dede.nata.wijaya@proton.me",
            "sektor": "Sektor Teknologi Informasi dan Komunikasi",
            "tanggal_terbit": "2024-12-05",
            "url_tdpse_detail": "https://pse.komdigi.go.id/tdpse-detail/21532",
            "website": "-"
        },
        {
            "id": "9da64039-a117-47fb-8c12-95502a721716",
            "nama_pse": "SHANTOU MARIA INVESTMENT CO., LTD.",
            "nama_se": "daniel.wahyu.kalaiy@proton.me",
            "sektor": "Sektor Teknologi Informasi dan Komunikasi",
            "tanggal_terbit": "2024-12-05",
            "url_tdpse_detail": "https://pse.komdigi.go.id/tdpse-detail/21533",
            "website": "-"
        },
        {
            "id": "9da6403b-c5d6-47cd-8714-dc66fe47c906",
            "nama_pse": "SHANTOU MARIA INVESTMENT CO., LTD.",
            "nama_se": "mariakalaij.mariatiurma@proton.me",
            "sektor": "Sektor Teknologi Informasi dan Komunikasi",
            "tanggal_terbit": "2024-12-05",
            "url_tdpse_detail": "https://pse.komdigi.go.id/tdpse-detail/21534",
            "website": "-"
        },
        {
            "id": "9da6403d-5f6f-4d24-b811-298e63056ccc",
            "nama_pse": "SHANTOU MARIA INVESTMENT CO., LTD.",
            "nama_se": "shantoujinjiatrading@proton.me",
            "sektor": "Sektor Teknologi Informasi dan Komunikasi",
            "tanggal_terbit": "2024-12-05",
            "url_tdpse_detail": "https://pse.komdigi.go.id/tdpse-detail/21535",
            "website": "-"
        },
        {
            "id": "9da6403f-2b56-499c-be6d-cc508b5773b0",
            "nama_pse": "SHANTOU MARIA INVESTMENT CO., LTD.",
            "nama_se": "shantoumariainvestment@proton.me",
            "sektor": "Sektor Teknologi Informasi dan Komunikasi",
            "tanggal_terbit": "2024-12-05",
            "url_tdpse_detail": "https://pse.komdigi.go.id/tdpse-detail/21536",
            "website": "-"
        },
        {
            "id": "9da64044-5bd4-41d6-90ba-8e65467fb6ba",
            "nama_pse": "SHANTOU MARIA INVESTMENT CO., LTD.",
            "nama_se": "pt.brawijayacapital-investama@proton.me",
            "sektor": "Sektor Teknologi Informasi dan Komunikasi",
            "tanggal_terbit": "2024-12-05",
            "url_tdpse_detail": "https://pse.komdigi.go.id/tdpse-detail/21539",
            "website": "-"
        },
        {
            "id": "9da650b0-114a-42dd-9b53-15f2983b104a",
            "nama_pse": "SHANTOU MARIA INVESTMENT CO., LTD.",
            "nama_se": "multisiatenanjaya.paninkorp@zohomail.com",
            "sektor": "Sektor Teknologi Informasi dan Komunikasi",
            "tanggal_terbit": "2024-12-05",
            "url_tdpse_detail": "https://pse.komdigi.go.id/tdpse-detail/21548",
            "website": "-"
        },
        {
            "id": "9da650b1-e899-45aa-8311-cfd6e8610e60",
            "nama_pse": "SHANTOU MARIA INVESTMENT CO., LTD.",
            "nama_se": "liu522815@zohomail.com",
            "sektor": "Sektor Teknologi Informasi dan Komunikasi",
            "tanggal_terbit": "2024-12-05",
            "url_tdpse_detail": "https://pse.komdigi.go.id/tdpse-detail/21549",
            "website": "-"
        },
        {
            "id": "9da65064-d289-4278-9d49-60318ebe8ff8",
            "nama_pse": "SHANTOU MARIA INVESTMENT CO., LTD.",
            "nama_se": "multisiatenanjaya.paninkorp@zohomail.com",
            "sektor": "Sektor Teknologi Informasi dan Komunikasi",
            "tanggal_terbit": "2024-12-05",
            "url_tdpse_detail": "https://pse.kominfo.go.id/tdpse-detail/21541",
            "website": "-"
        },
        {
            "id": "9da65067-0afd-4547-8949-1ccd4490a1a6",
            "nama_pse": "SHANTOU MARIA INVESTMENT CO., LTD.",
            "nama_se": "liu522815@zohomail.com",
            "sektor": "Sektor Teknologi Informasi dan Komunikasi",
            "tanggal_terbit": "2024-12-05",
            "url_tdpse_detail": "https://pse.kominfo.go.id/tdpse-detail/21542",
            "website": "-"
        },
        {
            "id": "9da65068-d496-4709-a757-9d415fa93265",
            "nama_pse": "SHANTOU MARIA INVESTMENT CO., LTD.",
            "nama_se": "thekalaijfamilytrustfund@zohomail.com",
            "sektor": "Sektor Teknologi Informasi dan Komunikasi",
            "tanggal_terbit": "2024-12-05",
            "url_tdpse_detail": "https://pse.kominfo.go.id/tdpse-detail/21543",
            "website": "-"
        },
        {
            "id": "9da6506a-9e96-472a-9e0d-fb103065ac7f",
            "nama_pse": "SHANTOU MARIA INVESTMENT CO., LTD.",
            "nama_se": "shantoumariainvestment@zohomail.com",
            "sektor": "Sektor Teknologi Informasi dan Komunikasi",
            "tanggal_terbit": "2024-12-05",
            "url_tdpse_detail": "https://pse.kominfo.go.id/tdpse-detail/21544",
            "website": "-"
        },
        {
            "id": "9da6506c-a909-495b-aa51-7560693f6ce9",
            "nama_pse": "SHANTOU MARIA INVESTMENT CO., LTD.",
            "nama_se": "kalaijmaria@zohomail.com",
            "sektor": "Sektor Teknologi Informasi dan Komunikasi",
            "tanggal_terbit": "2024-12-05",
            "url_tdpse_detail": "https://pse.kominfo.go.id/tdpse-detail/21545",
            "website": "-"
        },
        {
            "id": "9da6506e-6b2b-4b09-ba74-55ff963cccda",
            "nama_pse": "SHANTOU MARIA INVESTMENT CO., LTD.",
            "nama_se": "maria.kalaij@zohomail.com",
            "sektor": "Sektor Teknologi Informasi dan Komunikasi",
            "tanggal_terbit": "2024-12-05",
            "url_tdpse_detail": "https://pse.kominfo.go.id/tdpse-detail/21546",
            "website": "-"
        },
        {
            "id": "9da65070-23b3-4da6-928a-d682e09cebfd",
            "nama_pse": "SHANTOU MARIA INVESTMENT CO., LTD.",
            "nama_se": "mariakalaij.corporation@zohomail.com",
            "sektor": "Sektor Teknologi Informasi dan Komunikasi",
            "tanggal_terbit": "2024-12-05",
            "url_tdpse_detail": "https://pse.kominfo.go.id/tdpse-detail/21547",
            "website": "-"
        },
        {
            "id": "9da650b5-68e6-45cc-b1a9-9fff3f7c7725",
            "nama_pse": "SHANTOU MARIA INVESTMENT CO., LTD.",
            "nama_se": "shantoumariainvestment@zohomail.com",
            "sektor": "Sektor Teknologi Informasi dan Komunikasi",
            "tanggal_terbit": "2024-12-05",
            "url_tdpse_detail": "https://pse.komdigi.go.id/tdpse-detail/21551",
            "website": "-"
        },
        {
            "id": "9da650b3-9f8c-4b13-8976-baf9afbdec5b",
            "nama_pse": "SHANTOU MARIA INVESTMENT CO., LTD.",
            "nama_se": "thekalaijfamilytrustfund@zohomail.com",
            "sektor": "Sektor Teknologi Informasi dan Komunikasi",
            "tanggal_terbit": "2024-12-05",
            "url_tdpse_detail": "https://pse.komdigi.go.id/tdpse-detail/21550",
            "website": "-"
        },
        {
            "id": "9da650b7-2d63-453e-996d-92064ecd5132",
            "nama_pse": "SHANTOU MARIA INVESTMENT CO., LTD.",
            "nama_se": "kalaijmaria@zohomail.com",
            "sektor": "Sektor Teknologi Informasi dan Komunikasi",
            "tanggal_terbit": "2024-12-05",
            "url_tdpse_detail": "https://pse.komdigi.go.id/tdpse-detail/21552",
            "website": "-"
        },
        {
            "id": "9da650b8-ea9e-45ed-b7c5-3e5845ec0d9e",
            "nama_pse": "SHANTOU MARIA INVESTMENT CO., LTD.",
            "nama_se": "maria.kalaij@zohomail.com",
            "sektor": "Sektor Teknologi Informasi dan Komunikasi",
            "tanggal_terbit": "2024-12-05",
            "url_tdpse_detail": "https://pse.komdigi.go.id/tdpse-detail/21553",
            "website": "-"
        },
        {
            "id": "9da650ba-f165-46e2-811d-8dd6f100aecb",
            "nama_pse": "SHANTOU MARIA INVESTMENT CO., LTD.",
            "nama_se": "mariakalaij.corporation@zohomail.com",
            "sektor": "Sektor Teknologi Informasi dan Komunikasi",
            "tanggal_terbit": "2024-12-05",
            "url_tdpse_detail": "https://pse.komdigi.go.id/tdpse-detail/21554",
            "website": "-"
        },
        {
            "id": "9da65bca-92bd-44bd-bbc5-180889207cd9",
            "nama_pse": "SHANTOU MARIA INVESTMENT CO., LTD.",
            "nama_se": "iyanpermana2019@tutamail.com",
            "sektor": "Sektor Teknologi Informasi dan Komunikasi",
            "tanggal_terbit": "2024-12-05",
            "url_tdpse_detail": "https://pse.komdigi.go.id/tdpse-detail/21557",
            "website": "-"
        },
        {
            "id": "9da65bc8-e754-43f2-b1e9-6aa2394a46eb",
            "nama_pse": "SHANTOU MARIA INVESTMENT CO., LTD.",
            "nama_se": "natigorkalaij@tutamail.com",
            "sektor": "Sektor Teknologi Informasi dan Komunikasi",
            "tanggal_terbit": "2024-12-05",
            "url_tdpse_detail": "https://pse.komdigi.go.id/tdpse-detail/21556",
            "website": "-"
        },
        {
            "id": "9da65bcc-3c41-4dea-9b2d-0ef1815bb581",
            "nama_pse": "SHANTOU MARIA INVESTMENT CO., LTD.",
            "nama_se": "thekalaijfamilytrustfund@tutamail.com",
            "sektor": "Sektor Teknologi Informasi dan Komunikasi",
            "tanggal_terbit": "2024-12-05",
            "url_tdpse_detail": "https://pse.komdigi.go.id/tdpse-detail/21558",
            "website": "-"
        },
        {
            "id": "9da65bc6-f936-406b-91bd-e75932d4663f",
            "nama_pse": "SHANTOU MARIA INVESTMENT CO., LTD.",
            "nama_se": "asiapacificfibers@tutamail.com",
            "sektor": "Sektor Teknologi Informasi dan Komunikasi",
            "tanggal_terbit": "2024-12-05",
            "url_tdpse_detail": "https://pse.komdigi.go.id/tdpse-detail/21555",
            "website": "-"
        },
        {
            "id": "9da65bcd-f85b-4b1e-814d-245dc339d3be",
            "nama_pse": "SHANTOU MARIA INVESTMENT CO., LTD.",
            "nama_se": "mathias.kalaij-manurung-sirait@tutamail.com",
            "sektor": "Sektor Teknologi Informasi dan Komunikasi",
            "tanggal_terbit": "2024-12-05",
            "url_tdpse_detail": "https://pse.komdigi.go.id/tdpse-detail/21559",
            "website": "-"
        },
        {
            "id": "9da65bcf-aab7-4f95-a49e-db2c0aa12ccb",
            "nama_pse": "SHANTOU MARIA INVESTMENT CO., LTD.",
            "nama_se": "ptwijayakusumarajawali@tutamail.com",
            "sektor": "Sektor Teknologi Informasi dan Komunikasi",
            "tanggal_terbit": "2024-12-05",
            "url_tdpse_detail": "https://pse.komdigi.go.id/tdpse-detail/21560",
            "website": "-"
        }
    ],
    "processingTimeMs": 6,
    "query": "",
    "totalHits": 1139,
    "hitsPerPage": 50,
    "page": 3,
    "totalPages": 23
}