{
    "hits": [
        {
            "id": "9cb1abf5-a7f1-40a8-8762-b7447851da9e",
            "nama_pse": "NEXON KOREA CORPORATION",
            "nama_se": "BNB M",
            "sektor": "Sektor Teknologi Informasi dan Komunikasi",
            "tanggal_terbit": "2022-07-28",
            "url_tdpse_detail": "https://pse.komdigi.go.id/tdpse-detail/9246",
            "website": "play.google.com/store/apps/details?id=com.nexon.bnb2\u0026hl=en\u0026gl=ES; apps.apple.com/kr/app/bnb-m/id1436939643?l=en"
        },
        {
            "id": "9cb1abd0-0ce2-4d3c-83b6-f54cd2437b99",
            "nama_pse": "NEXON KOREA CORPORATION",
            "nama_se": "GODZILLA DEFENSE FORCE",
            "sektor": "Sektor Teknologi Informasi dan Komunikasi",
            "tanggal_terbit": "2022-07-28",
            "url_tdpse_detail": "https://pse.komdigi.go.id/tdpse-detail/9247",
            "website": "play.google.com/store/apps/details?id=com.nexon.godzilla\u0026hl=en\u0026gl=ES; apps.apple.com/kr/app/godzilla-defense-force/id1445535620?l=en"
        },
        {
            "id": "9cb1abf5-aaed-4ba9-9669-c7b8355ce9ee",
            "nama_pse": "NEXON KOREA CORPORATION",
            "nama_se": "COUNTER-STRIKE NEXON: STUDIO",
            "sektor": "Sektor Teknologi Informasi dan Komunikasi",
            "tanggal_terbit": "2022-07-28",
            "url_tdpse_detail": "https://pse.komdigi.go.id/tdpse-detail/9248",
            "website": "store.steampowered.com/app/273110/CounterStrike_Nexon_Zombies"
        },
        {
            "id": "9cb1abf5-ae21-4fea-a5c9-49313518b308",
            "nama_pse": "ELECYBER INTERNATIONAL PTE. LTD.",
            "nama_se": "APKPURE",
            "sektor": "Sektor Teknologi Informasi dan Komunikasi",
            "tanggal_terbit": "2022-07-28",
            "url_tdpse_detail": "https://pse.komdigi.go.id/tdpse-detail/9249",
            "website": "apkpure.com"
        },
        {
            "id": "9cb1abf5-b1bf-4816-ac55-319018fc2586",
            "nama_pse": "INSPIRATION GROUP HONGKONG LIMITED",
            "nama_se": "MEETYOU",
            "sektor": "Sektor Teknologi Informasi dan Komunikasi",
            "tanggal_terbit": "2022-07-28",
            "url_tdpse_detail": "https://pse.komdigi.go.id/tdpse-detail/9250",
            "website": "play.google.com/store/apps/details?id=com.meetyou.intl"
        },
        {
            "id": "9cb1abcf-5a6b-4a4d-86f0-84463aee569c",
            "nama_pse": "QUYUE TECHNOLOGY PTE. LTD.",
            "nama_se": "UKI",
            "sektor": "Sektor Teknologi Informasi dan Komunikasi",
            "tanggal_terbit": "2022-07-28",
            "url_tdpse_detail": "https://pse.komdigi.go.id/tdpse-detail/9251",
            "website": "uki.booyah.cc"
        },
        {
            "id": "9cb1abd0-10e7-4c0c-a563-0cdb425b3a07",
            "nama_pse": "HONGKONG YOYOO TECHNOLOGY CO.,LIMITED",
            "nama_se": "NARUTO:SLUGFESTX",
            "sektor": "Sektor Perdagangan",
            "tanggal_terbit": "2022-07-28",
            "url_tdpse_detail": "https://pse.komdigi.go.id/tdpse-detail/9252",
            "website": "narutoslugfest.com"
        },
        {
            "id": "9cb1abcf-5da1-41b4-ba1c-6c23a8d03522",
            "nama_pse": "Topfun Domino Qiu Qiu",
            "nama_se": "DOMINO QIU QIU",
            "sektor": "Sektor Teknologi Informasi dan Komunikasi",
            "tanggal_terbit": "2022-07-28",
            "url_tdpse_detail": "https://pse.komdigi.go.id/tdpse-detail/9253",
            "website": "dodo.wetopfun.com/"
        },
        {
            "id": "9cb1abcf-635b-4bb8-9242-d31a16773e96",
            "nama_pse": "Topfun Domino Qiu Qiu",
            "nama_se": "TOPFUN",
            "sektor": "Sektor Teknologi Informasi dan Komunikasi",
            "tanggal_terbit": "2022-07-28",
            "url_tdpse_detail": "https://pse.komdigi.go.id/tdpse-detail/9254",
            "website": "mytopfun.com"
        },
        {
            "id": "9cb1abd0-14d6-483d-a605-3148d6e7f550",
            "nama_pse": "CONSTRUCT TECHNOLOGY PTE LTD",
            "nama_se": "LITMATCH",
            "sektor": "Sektor Teknologi Informasi dan Komunikasi",
            "tanggal_terbit": "2022-07-28",
            "url_tdpse_detail": "https://pse.komdigi.go.id/tdpse-detail/9255",
            "website": "litmatchapp.com"
        },
        {
            "id": "9cb1abf5-b516-441c-9be7-12cd3d430fce",
            "nama_pse": "PARAS DIGITAL PTE LTD",
            "nama_se": "PARAS.ID",
            "sektor": "Sektor Teknologi Informasi dan Komunikasi",
            "tanggal_terbit": "2022-07-28",
            "url_tdpse_detail": "https://pse.komdigi.go.id/tdpse-detail/9256",
            "website": "paras.id"
        },
        {
            "id": "9cb1abf5-c0b0-4013-9692-8ac35947fba1",
            "nama_pse": "PLANET NINE INNOVATION LIMITED",
            "nama_se": "SEAL LIVE",
            "sektor": "Sektor Teknologi Informasi dan Komunikasi",
            "tanggal_terbit": "2022-07-28",
            "url_tdpse_detail": "https://pse.komdigi.go.id/tdpse-detail/9257",
            "website": "seallive.app"
        },
        {
            "id": "9cb1abcf-6ac4-445f-8b5d-cc378aabcf6c",
            "nama_pse": "6ESTATES PTE. LTD.",
            "nama_se": "6ESTATES IDP",
            "sektor": "Sektor Teknologi Informasi dan Komunikasi",
            "tanggal_terbit": "2022-07-28",
            "url_tdpse_detail": "https://pse.komdigi.go.id/tdpse-detail/9258",
            "website": "idp-sea.6estates.com"
        },
        {
            "id": "9cb1abd0-1961-443b-8c0d-c67efa924ac3",
            "nama_pse": "FULIAO HONG KONG LIMITED",
            "nama_se": "CHAMET",
            "sektor": "Sektor Teknologi Informasi dan Komunikasi",
            "tanggal_terbit": "2022-07-28",
            "url_tdpse_detail": "https://pse.komdigi.go.id/tdpse-detail/9260",
            "website": "ichamet.com"
        },
        {
            "id": "9cb1abcf-71bc-4dea-b1ae-a93a643af7e0",
            "nama_pse": "Farlight Pte Ltd.",
            "nama_se": "FARLIGHT 84",
            "sektor": "Sektor Teknologi Informasi dan Komunikasi",
            "tanggal_terbit": "2022-07-28",
            "url_tdpse_detail": "https://pse.komdigi.go.id/tdpse-detail/9261",
            "website": "farlight84.farlightgames.com"
        },
        {
            "id": "9cb1abcf-7649-4aa3-bd4a-aad84d30b428",
            "nama_pse": "Farlight Pte Ltd.",
            "nama_se": "DISLYTE",
            "sektor": "Sektor Teknologi Informasi dan Komunikasi",
            "tanggal_terbit": "2022-07-28",
            "url_tdpse_detail": "https://pse.komdigi.go.id/tdpse-detail/9262",
            "website": "dislyte.farlightgames.com"
        },
        {
            "id": "9cb1abd0-1c4b-4069-8f9d-1edae04067a2",
            "nama_pse": "LIONSGATE PLAY LLP",
            "nama_se": "LIONSGATE PLAY",
            "sektor": "Sektor Teknologi Informasi dan Komunikasi",
            "tanggal_terbit": "2022-07-28",
            "url_tdpse_detail": "https://pse.komdigi.go.id/tdpse-detail/9263",
            "website": "lionsgateplay.com"
        },
        {
            "id": "9cb1abcf-7946-4405-921c-04521d099cb7",
            "nama_pse": "LILITH NETWORK HK LIMITED",
            "nama_se": "AFK ARENA",
            "sektor": "Sektor Teknologi Informasi dan Komunikasi",
            "tanggal_terbit": "2022-07-28",
            "url_tdpse_detail": "https://pse.komdigi.go.id/tdpse-detail/9264",
            "website": "afkarena.lilith.com"
        },
        {
            "id": "9cb1abd0-2052-4ca8-84b2-212cfc645d0d",
            "nama_pse": "LILITH NETWORK HK LIMITED",
            "nama_se": "ART OF CONQUEST",
            "sektor": "Sektor Teknologi Informasi dan Komunikasi",
            "tanggal_terbit": "2022-07-28",
            "url_tdpse_detail": "https://pse.komdigi.go.id/tdpse-detail/9265",
            "website": "aoc.lilith.com"
        },
        {
            "id": "9cb1abd0-24ac-42a2-a813-c8dac82c481f",
            "nama_pse": "LILITH NETWORK HK LIMITED",
            "nama_se": "RISE OF KINGDOMS",
            "sektor": "Sektor Teknologi Informasi dan Komunikasi",
            "tanggal_terbit": "2022-07-28",
            "url_tdpse_detail": "https://pse.komdigi.go.id/tdpse-detail/9266",
            "website": "roc.lilithgames.com"
        },
        {
            "id": "9cb1abd0-2b29-4539-951c-96ef9727a236",
            "nama_pse": "LILITH NETWORK HK LIMITED",
            "nama_se": "WARPATH",
            "sektor": "Sektor Teknologi Informasi dan Komunikasi",
            "tanggal_terbit": "2022-07-28",
            "url_tdpse_detail": "https://pse.komdigi.go.id/tdpse-detail/9267",
            "website": "warpath.lilith.com"
        },
        {
            "id": "9cb1abcf-7cab-4368-ae51-26e7833c76e5",
            "nama_pse": "MICROFUN LIMITED",
            "nama_se": "JELLIPOP MATCH APP",
            "sektor": "Sektor Teknologi Informasi dan Komunikasi",
            "tanggal_terbit": "2022-07-28",
            "url_tdpse_detail": "https://pse.komdigi.go.id/tdpse-detail/9268",
            "website": "play.google.com/store/apps/details?id=com.jellyblast.cmcm;https://apps.apple.com/us/app/jellipop-match/id1149330452"
        },
        {
            "id": "9cb1abd0-3001-4b0e-8158-641b8e0acfa4",
            "nama_pse": "MICROFUN LIMITED",
            "nama_se": "MERGE FABLES APP",
            "sektor": "Sektor Teknologi Informasi dan Komunikasi",
            "tanggal_terbit": "2022-07-28",
            "url_tdpse_detail": "https://pse.komdigi.go.id/tdpse-detail/9269",
            "website": "play.google.com/store/apps/details?id=com.mergegames.myth；https://apps.apple.com/us/app/merge-fables/id1564248355"
        },
        {
            "id": "9cb1abd0-33b6-417c-ac70-70fadcfaa90d",
            "nama_pse": "MICROFUN LIMITED",
            "nama_se": "MERGE COUNTY APP",
            "sektor": "Sektor Teknologi Informasi dan Komunikasi",
            "tanggal_terbit": "2022-07-28",
            "url_tdpse_detail": "https://pse.komdigi.go.id/tdpse-detail/9270",
            "website": "play.google.com/store/apps/details?id=com.mf.town；https://apps.apple.com/us/app/merge-county/id1586279379"
        },
        {
            "id": "9cb1abd0-377d-4673-8eeb-73af31ad0de6",
            "nama_pse": "MICROFUN LIMITED",
            "nama_se": "GOSSIP HARBOR",
            "sektor": "Sektor Teknologi Informasi dan Komunikasi",
            "tanggal_terbit": "2022-07-28",
            "url_tdpse_detail": "https://pse.komdigi.go.id/tdpse-detail/9271",
            "website": "play.google.com/store/apps/details?id=com.mergegames.cookie；https://apps.apple.com/gb/app/gossip-harbor-merge-game/id1623318294"
        },
        {
            "id": "9cb1abf5-c5a0-4a22-a48a-709f9cae897e",
            "nama_pse": "VNG SINGAPORE PTE. LTD.",
            "nama_se": "SHOP.VNG.GAMES",
            "sektor": "Sektor Teknologi Informasi dan Komunikasi",
            "tanggal_terbit": "2022-07-28",
            "url_tdpse_detail": "https://pse.komdigi.go.id/tdpse-detail/9272",
            "website": "shop.vng.games"
        },
        {
            "id": "9cb1abcf-d578-483b-a362-17b14d574705",
            "nama_pse": "NAVER Z CORPORATION",
            "nama_se": "ZEPETO",
            "sektor": "Sektor Teknologi Informasi dan Komunikasi",
            "tanggal_terbit": "2022-07-28",
            "url_tdpse_detail": "https://pse.komdigi.go.id/tdpse-detail/9333",
            "website": "zepeto.me"
        },
        {
            "id": "9cb1abd0-c595-47ce-9569-0d640592aceb",
            "nama_pse": "MAMBU ASIA PACIFIC PTE LTD",
            "nama_se": "MAMBU",
            "sektor": "Sektor Keuangan",
            "tanggal_terbit": "2022-07-28",
            "url_tdpse_detail": "https://pse.komdigi.go.id/tdpse-detail/9341",
            "website": "mambu.com"
        },
        {
            "id": "9cb1abbe-4125-4d19-a26e-c2172837072b",
            "nama_pse": "VNG SINGAPORE PTE., LTD.",
            "nama_se": "HEROES OF CROWN VNG",
            "sektor": "Sektor Teknologi Informasi dan Komunikasi",
            "tanggal_terbit": "2022-07-27",
            "url_tdpse_detail": "https://pse.komdigi.go.id/tdpse-detail/9147",
            "website": "hoc.vnggames.com"
        },
        {
            "id": "9cb1abce-c844-4113-b911-6d14cf9068a1",
            "nama_pse": "VNG SINGAPORE PTE., LTD.",
            "nama_se": "CLOUD SONG: SAGA OF SKYWALKERS",
            "sektor": "Sektor Teknologi Informasi dan Komunikasi",
            "tanggal_terbit": "2022-07-27",
            "url_tdpse_detail": "https://pse.komdigi.go.id/tdpse-detail/9148",
            "website": "cloudsong.vnggames.com"
        },
        {
            "id": "9cb1abbe-4414-4659-bbd0-137b3e824f30",
            "nama_pse": "VNG SINGAPORE PTE., LTD.",
            "nama_se": "DYNASTY WARRIORS: OVERLORDS",
            "sektor": "Sektor Teknologi Informasi dan Komunikasi",
            "tanggal_terbit": "2022-07-27",
            "url_tdpse_detail": "https://pse.komdigi.go.id/tdpse-detail/9149",
            "website": "dynastywarriors.vnggames.net"
        },
        {
            "id": "9cb1abbe-465d-480e-800a-a3cbcd0cbcd3",
            "nama_pse": "VNG SINGAPORE PTE., LTD.",
            "nama_se": "PERFECT WORLD VNG: FLY WITH ME",
            "sektor": "Sektor Teknologi Informasi dan Komunikasi",
            "tanggal_terbit": "2022-07-27",
            "url_tdpse_detail": "https://pse.komdigi.go.id/tdpse-detail/9150",
            "website": "perfectworld.vng.games"
        },
        {
            "id": "9cb1abbe-535f-486e-8395-3e1553d542bd",
            "nama_pse": "FAMOUSHEART",
            "nama_se": "DRAGON RAJA - SEA",
            "sektor": "Sektor Teknologi Informasi dan Komunikasi",
            "tanggal_terbit": "2022-07-27",
            "url_tdpse_detail": "https://pse.komdigi.go.id/tdpse-detail/9165",
            "website": "play.google.com/store/apps/details?id=com.archosaur.sea.dr.gp"
        },
        {
            "id": "9cb1abbe-55c4-498c-9895-8f736fbdd34b",
            "nama_pse": "FAMOUSHEART",
            "nama_se": "EPIC WAR: THRONES 1ST ANNIV.",
            "sektor": "Sektor Teknologi Informasi dan Komunikasi",
            "tanggal_terbit": "2022-07-27",
            "url_tdpse_detail": "https://pse.komdigi.go.id/tdpse-detail/9166",
            "website": "play.google.com/store/apps/details?id=com.archosaur.jp.sgzgc.gp"
        },
        {
            "id": "9cb1abce-da29-434e-acb5-4077e9c5dfbb",
            "nama_pse": "AKURA PTE. LTD.",
            "nama_se": "FUNNOVEL",
            "sektor": "Sektor Teknologi Informasi dan Komunikasi",
            "tanggal_terbit": "2022-07-27",
            "url_tdpse_detail": "https://pse.komdigi.go.id/tdpse-detail/9173",
            "website": "hitnovelvip.com"
        },
        {
            "id": "9cb1abbe-59dc-4843-ac0e-0b2f20dc7128",
            "nama_pse": "AKURA PTE. LTD.",
            "nama_se": "BACALAH",
            "sektor": "Sektor Teknologi Informasi dan Komunikasi",
            "tanggal_terbit": "2022-07-27",
            "url_tdpse_detail": "https://pse.komdigi.go.id/tdpse-detail/9174",
            "website": "watpadd668.com"
        },
        {
            "id": "9cb1abbe-5d88-461a-913d-d0173c00269f",
            "nama_pse": "OPERA NORWAY AS",
            "nama_se": "OPERA MINI",
            "sektor": "Sektor Teknologi Informasi dan Komunikasi",
            "tanggal_terbit": "2022-07-27",
            "url_tdpse_detail": "https://pse.komdigi.go.id/tdpse-detail/9175",
            "website": "opera.com"
        },
        {
            "id": "9cb1abce-dde4-4944-93e0-3f7930d9088a",
            "nama_pse": "OPERA NORWAY AS",
            "nama_se": "OPERA FOR ANDROID",
            "sektor": "Sektor Teknologi Informasi dan Komunikasi",
            "tanggal_terbit": "2022-07-27",
            "url_tdpse_detail": "https://pse.komdigi.go.id/tdpse-detail/9176",
            "website": "opera.com"
        },
        {
            "id": "9cb1abce-e186-4fce-8e08-f9eb07208376",
            "nama_pse": "OPERA NORWAY AS",
            "nama_se": "OPERA NEWS",
            "sektor": "Sektor Teknologi Informasi dan Komunikasi",
            "tanggal_terbit": "2022-07-27",
            "url_tdpse_detail": "https://pse.komdigi.go.id/tdpse-detail/9177",
            "website": "opera.com"
        },
        {
            "id": "9cb1abbe-606c-4021-a3b1-f54a20b0e72f",
            "nama_pse": "OPERA NORWAY AS",
            "nama_se": "OPERA MINI",
            "sektor": "Sektor Teknologi Informasi dan Komunikasi",
            "tanggal_terbit": "2022-07-27",
            "url_tdpse_detail": "https://pse.komdigi.go.id/tdpse-detail/9178",
            "website": "opera.com"
        },
        {
            "id": "9cb1abce-e5fd-4138-8457-81192b8fe0ff",
            "nama_pse": "OPERA NORWAY AS",
            "nama_se": "OPERA FOR ANDROID",
            "sektor": "Sektor Teknologi Informasi dan Komunikasi",
            "tanggal_terbit": "2022-07-27",
            "url_tdpse_detail": "https://pse.komdigi.go.id/tdpse-detail/9179",
            "website": "opera.com"
        },
        {
            "id": "9cb1abf5-2fca-453a-82fd-a03f51ead412",
            "nama_pse": "OPERA NORWAY AS",
            "nama_se": "OPERA NEWS",
            "sektor": "Sektor Teknologi Informasi dan Komunikasi",
            "tanggal_terbit": "2022-07-27",
            "url_tdpse_detail": "https://pse.komdigi.go.id/tdpse-detail/9180",
            "website": "opera.com"
        },
        {
            "id": "9cb1abbe-6966-42fe-afd7-b97b36939b01",
            "nama_pse": "ELECTRONIC SOUL INTERACTIVE TECHNOLOGY(HONG KONG) CO.,LIMITED",
            "nama_se": "E-SOUL GAME",
            "sektor": "Sektor Teknologi Informasi dan Komunikasi",
            "tanggal_terbit": "2022-07-27",
            "url_tdpse_detail": "https://pse.komdigi.go.id/tdpse-detail/9191",
            "website": "coco4game.com"
        },
        {
            "id": "9cb1abce-f99a-49ba-80d6-12e517ad4ae0",
            "nama_pse": "SENTBE PTE LTD",
            "nama_se": "SENTBE",
            "sektor": "Sektor Keuangan",
            "tanggal_terbit": "2022-07-27",
            "url_tdpse_detail": "https://pse.komdigi.go.id/tdpse-detail/9193",
            "website": "sentbe.com"
        },
        {
            "id": "9cb1abbe-7356-429e-94a6-e2f521609f99",
            "nama_pse": "ZHEJIANG TAOBAO NETWORK CO., LTD.",
            "nama_se": "TAOBAO",
            "sektor": "Sektor Perdagangan",
            "tanggal_terbit": "2022-07-27",
            "url_tdpse_detail": "https://pse.komdigi.go.id/tdpse-detail/9200",
            "website": "world.taobao.com"
        },
        {
            "id": "9cb1abbe-7946-4f5d-b61c-489eb0e8a4b7",
            "nama_pse": "ALIBABA.COM SINGAPORE E-COMMERCE PRIVATE LIMITED",
            "nama_se": "ALIBABA.COM",
            "sektor": "Sektor Perdagangan",
            "tanggal_terbit": "2022-07-27",
            "url_tdpse_detail": "https://pse.komdigi.go.id/tdpse-detail/9202",
            "website": "alibaba.com"
        },
        {
            "id": "9cb1abcf-0273-4ba7-a5df-5905cee13ace",
            "nama_pse": "ALIBABA.COM SINGAPORE E-COMMERCE PRIVATE LIMITED",
            "nama_se": "ALIEXPRESS",
            "sektor": "Sektor Perdagangan",
            "tanggal_terbit": "2022-07-27",
            "url_tdpse_detail": "https://pse.komdigi.go.id/tdpse-detail/9203",
            "website": "aliexpress.com"
        },
        {
            "id": "9cb1abcf-06a2-45d1-8318-68e259d30754",
            "nama_pse": "BRAVO UNICORN PTE. LTD.",
            "nama_se": "OPPO GAME CENTER",
            "sektor": "Sektor Teknologi Informasi dan Komunikasi",
            "tanggal_terbit": "2022-07-27",
            "url_tdpse_detail": "https://pse.komdigi.go.id/tdpse-detail/9205",
            "website": "developers.oppomobile.com"
        },
        {
            "id": "9cb1abbe-7caf-4b07-bd9f-9d1a0c240bd4",
            "nama_pse": "BRAVO UNICORN PTE. LTD.",
            "nama_se": "OPPO APP MARKET",
            "sektor": "Sektor Teknologi Informasi dan Komunikasi",
            "tanggal_terbit": "2022-07-27",
            "url_tdpse_detail": "https://pse.komdigi.go.id/tdpse-detail/9206",
            "website": "developers.oppomobile.com"
        },
        {
            "id": "9cb1abcf-0d9b-4470-98ca-17539994fdd3",
            "nama_pse": "BRAVO UNICORN PTE. LTD.",
            "nama_se": "HEYTAP CLOUD",
            "sektor": "Sektor Teknologi Informasi dan Komunikasi",
            "tanggal_terbit": "2022-07-27",
            "url_tdpse_detail": "https://pse.komdigi.go.id/tdpse-detail/9207",
            "website": "cloud.heytap.com"
        }
    ],
    "processingTimeMs": 8,
    "query": "",
    "totalHits": 1139,
    "hitsPerPage": 50,
    "page": 19,
    "totalPages": 23
}