{
    "hits": [
        {
            "id": "9cb1abee-7794-4c97-8c57-e197e92827a6",
            "nama_pse": "FUNPLUS INTERNATIONAL AG",
            "nama_se": "STATE OF SURVIVAL",
            "sektor": "Sektor Teknologi Informasi dan Komunikasi",
            "tanggal_terbit": "2022-07-20",
            "url_tdpse_detail": "https://pse.komdigi.go.id/tdpse-detail/8226",
            "website": "sos.kingsgroupgames.com; play.google.com/store/apps/details?id=com.kingsgroup.sos"
        },
        {
            "id": "9cb1abc8-9e91-4843-a24d-73fbc8096675",
            "nama_pse": "FUNPLUS INTERNATIONAL AG",
            "nama_se": "ES DAN API: KING OF AVALON",
            "sektor": "Sektor Teknologi Informasi dan Komunikasi",
            "tanggal_terbit": "2022-07-20",
            "url_tdpse_detail": "https://pse.komdigi.go.id/tdpse-detail/8227",
            "website": "koa.kingsgroupgames.com/; play.google.com/store/apps/details?id=com.funplus.kingofavalon"
        },
        {
            "id": "9cb1abba-d69e-42a6-a942-111c275a0e89",
            "nama_pse": "FUNPLUS INTERNATIONAL AG",
            "nama_se": "GUNS OF GLORY",
            "sektor": "Sektor Teknologi Informasi dan Komunikasi",
            "tanggal_terbit": "2022-07-20",
            "url_tdpse_detail": "https://pse.komdigi.go.id/tdpse-detail/8228",
            "website": "gog.kingsgroupgames.com/; play.google.com/store/apps/details?id=com.diandian.gog"
        },
        {
            "id": "9cb1abba-d997-4297-a9f6-aad7dc2f2f2f",
            "nama_pse": "FUNPLUS INTERNATIONAL AG",
            "nama_se": "CALL OF ANTIA: MATCH 3 RPG",
            "sektor": "Sektor Teknologi Informasi dan Komunikasi",
            "tanggal_terbit": "2022-07-20",
            "url_tdpse_detail": "https://pse.komdigi.go.id/tdpse-detail/8229",
            "website": "callofantia.com/; play.google.com/store/apps/details?id=com.funplus.coa"
        },
        {
            "id": "9cb1abba-de3c-4bef-b098-7dbadca73064",
            "nama_pse": "FUNPLUS INTERNATIONAL AG",
            "nama_se": "Z DAY: HEARTS OF HEROES",
            "sektor": "Sektor Teknologi Informasi dan Komunikasi",
            "tanggal_terbit": "2022-07-20",
            "url_tdpse_detail": "https://pse.komdigi.go.id/tdpse-detail/8230",
            "website": "play.google.com/store/apps/details?id=com.kingsgroup.ww2; apps.apple.com/us/app/z-day-hearts-of-heroes/id1374225046"
        },
        {
            "id": "9cb1abba-e0d9-4804-88e0-8d5f158448e5",
            "nama_pse": "MATCH GROUP, LLC.",
            "nama_se": "TINDER",
            "sektor": "Sektor Teknologi Informasi dan Komunikasi",
            "tanggal_terbit": "2022-07-20",
            "url_tdpse_detail": "https://pse.komdigi.go.id/tdpse-detail/8231",
            "website": "tinder.com"
        },
        {
            "id": "9cb1abee-814e-4392-a826-b8cb20b40a83",
            "nama_pse": "YANHAIGE2022",
            "nama_se": "RICHTHINKER",
            "sektor": "Sektor Teknologi Informasi dan Komunikasi",
            "tanggal_terbit": "2022-07-20",
            "url_tdpse_detail": "https://pse.komdigi.go.id/tdpse-detail/8232",
            "website": "com.bcacrfzx.richthinker"
        },
        {
            "id": "9cb1abee-852f-4a06-9cbd-3655c6411f24",
            "nama_pse": "WECHAT INTERNATIONAL PTE. LTD.",
            "nama_se": "WECHAT",
            "sektor": "Sektor Teknologi Informasi dan Komunikasi",
            "tanggal_terbit": "2022-07-20",
            "url_tdpse_detail": "https://pse.komdigi.go.id/tdpse-detail/8234",
            "website": "play.google.com/store/apps/details?id=com. tencent.mm\u0026hl=in\u0026gl=US"
        },
        {
            "id": "9cb1abba-e3c4-4036-afd8-e2cef6129d8b",
            "nama_pse": "RAZER ONLINE PTE LTD",
            "nama_se": "RAZER GOLD",
            "sektor": "Sektor Perdagangan",
            "tanggal_terbit": "2022-07-20",
            "url_tdpse_detail": "https://pse.komdigi.go.id/tdpse-detail/8235",
            "website": "gold.razer.com"
        },
        {
            "id": "9cb1abee-92d2-4ff6-bce7-29983ffb43b2",
            "nama_pse": "LUDIGAMES",
            "nama_se": "LUDIGAMES",
            "sektor": "Sektor Teknologi Informasi dan Komunikasi",
            "tanggal_terbit": "2022-07-20",
            "url_tdpse_detail": "https://pse.komdigi.go.id/tdpse-detail/8236",
            "website": "play.ludigames.com"
        },
        {
            "id": "9cb1abba-e67c-462c-b04c-c3d52dee637c",
            "nama_pse": "RIOT GAMES SERVICES PTE. LTD.",
            "nama_se": "LEGENDS OF RUNETERRA",
            "sektor": "Sektor Teknologi Informasi dan Komunikasi",
            "tanggal_terbit": "2022-07-20",
            "url_tdpse_detail": "https://pse.komdigi.go.id/tdpse-detail/8238",
            "website": "playruneterra.com/en-us/"
        },
        {
            "id": "9cb1abba-e8fc-4f00-b1b6-b72762733fd2",
            "nama_pse": "RIOT GAMES SERVICES PTE. LTD.",
            "nama_se": "VALORANT",
            "sektor": "Sektor Teknologi Informasi dan Komunikasi",
            "tanggal_terbit": "2022-07-20",
            "url_tdpse_detail": "https://pse.komdigi.go.id/tdpse-detail/8239",
            "website": "playvalorant.com/id-id/"
        },
        {
            "id": "9cb1abba-ebd4-40d2-8401-c8764c216585",
            "nama_pse": "RIOT GAMES SERVICES PTE. LTD.",
            "nama_se": "LEAGUE OF LEGENDS: WILD RIFT",
            "sektor": "Sektor Teknologi Informasi dan Komunikasi",
            "tanggal_terbit": "2022-07-20",
            "url_tdpse_detail": "https://pse.komdigi.go.id/tdpse-detail/8240",
            "website": "wildrift.leagueoflegends.com/id-id/"
        },
        {
            "id": "9cb1abc8-af08-40bb-8d37-7d592165ca06",
            "nama_pse": "YOSTAR (HONGKONG) LIMITED",
            "nama_se": "AZUR LANE",
            "sektor": "Sektor Teknologi Informasi dan Komunikasi",
            "tanggal_terbit": "2022-07-20",
            "url_tdpse_detail": "https://pse.komdigi.go.id/tdpse-detail/8242",
            "website": "play.google.com/store/apps/details?id=com.YoStarEN.AzurLane;apps.apple.com/us/app/azur-lane/id1411126549?l=zh\u0026ls=1"
        },
        {
            "id": "9cb1abba-ee63-42f9-b74a-78e08788a146",
            "nama_pse": "YOSTAR (HONGKONG) LIMITED",
            "nama_se": "MAHJONG SOUL",
            "sektor": "Sektor Teknologi Informasi dan Komunikasi",
            "tanggal_terbit": "2022-07-20",
            "url_tdpse_detail": "https://pse.komdigi.go.id/tdpse-detail/8243",
            "website": "play.google.com/store/apps/details?id=com.YoStarEN.MahjongSoul;apps.apple.com/us/app/id1464872167"
        },
        {
            "id": "9cb1abba-f118-4261-854f-df68fb7e892b",
            "nama_pse": "YOSTAR (HONGKONG) LIMITED",
            "nama_se": "ARKNIGHTS",
            "sektor": "Sektor Teknologi Informasi dan Komunikasi",
            "tanggal_terbit": "2022-07-20",
            "url_tdpse_detail": "https://pse.komdigi.go.id/tdpse-detail/8244",
            "website": "play.google.com/store/apps/details?id=com.YoStarEN.Arknights;apps.apple.com/us/app/id1464872022?mt=8"
        },
        {
            "id": "9cb1abee-9bde-4676-8833-0cfc902adb44",
            "nama_pse": "YOSTAR (HONGKONG) LIMITED",
            "nama_se": "REVIVED WITCH",
            "sektor": "Sektor Teknologi Informasi dan Komunikasi",
            "tanggal_terbit": "2022-07-20",
            "url_tdpse_detail": "https://pse.komdigi.go.id/tdpse-detail/8245",
            "website": "play.google.com/store/apps/details?id=com.YoStarEN.RevivedWitch\u0026hl=en\u0026gl=US;apps.apple.com/us/app/revived-witch/id1554968811"
        },
        {
            "id": "9cb1abba-f425-42c8-935c-c9cb9019eb51",
            "nama_pse": "PPLINGO PTE LTD",
            "nama_se": "LINGOACE",
            "sektor": "Sektor Teknologi Informasi dan Komunikasi",
            "tanggal_terbit": "2022-07-20",
            "url_tdpse_detail": "https://pse.komdigi.go.id/tdpse-detail/8246",
            "website": "lingoace.com/id/"
        },
        {
            "id": "9cb1abc8-b372-4156-8c52-7a7e5c97806c",
            "nama_pse": "IMAGE FUTURE INVESTMENT (HK) LIMITED",
            "nama_se": "WETV",
            "sektor": "Sektor Teknologi Informasi dan Komunikasi",
            "tanggal_terbit": "2022-07-20",
            "url_tdpse_detail": "https://pse.komdigi.go.id/tdpse-detail/8247",
            "website": "wetv.vip/id"
        },
        {
            "id": "9cb1abc8-c73c-4173-8522-e912239ef34c",
            "nama_pse": "HONG KONG GATHERING MEDIA LIMITED",
            "nama_se": "GAMELOOP",
            "sektor": "Sektor Teknologi Informasi dan Komunikasi",
            "tanggal_terbit": "2022-07-20",
            "url_tdpse_detail": "https://pse.komdigi.go.id/tdpse-detail/8250",
            "website": "gameloop.com/id/"
        },
        {
            "id": "9cb1abc8-caa0-42a2-af34-c01128e9380d",
            "nama_pse": "KRAFTON, INC.",
            "nama_se": "NEW STATE MOBILE",
            "sektor": "Sektor Teknologi Informasi dan Komunikasi",
            "tanggal_terbit": "2022-07-20",
            "url_tdpse_detail": "https://pse.komdigi.go.id/tdpse-detail/8251",
            "website": "krafton.com/en/"
        },
        {
            "id": "9cb1abee-a1ab-4f1a-a472-b967942b482a",
            "nama_pse": "KRAFTON, INC.",
            "nama_se": "PUBG: BATTLEGROUNDS",
            "sektor": "Sektor Teknologi Informasi dan Komunikasi",
            "tanggal_terbit": "2022-07-20",
            "url_tdpse_detail": "https://pse.komdigi.go.id/tdpse-detail/8252",
            "website": "krafton.com/en/"
        },
        {
            "id": "9cb1abc8-ce92-4942-8b96-8c823f6f3edf",
            "nama_pse": "ACEVILLE PTE. LTD.",
            "nama_se": "TENCENT CLOUD INTERNATIONAL",
            "sektor": "Sektor Teknologi Informasi dan Komunikasi",
            "tanggal_terbit": "2022-07-20",
            "url_tdpse_detail": "https://pse.komdigi.go.id/tdpse-detail/8253",
            "website": "tencentcloud.com/?lang=en\u0026pg="
        },
        {
            "id": "9cb1abba-fbf5-45dd-ac6f-34727d9b355b",
            "nama_pse": "Long Entertainment Company Limited",
            "nama_se": "AUTO CHESS",
            "sektor": "Sektor Teknologi Informasi dan Komunikasi",
            "tanggal_terbit": "2022-07-20",
            "url_tdpse_detail": "https://pse.komdigi.go.id/tdpse-detail/8257",
            "website": "zizouqi.com"
        },
        {
            "id": "9cb1abc8-d3a5-42ff-b05d-014f9b9667fd",
            "nama_pse": "HOOLAIGAME",
            "nama_se": "CHAMPIONS MANAGER MOBASAKA",
            "sektor": "Sektor Teknologi Informasi dan Komunikasi",
            "tanggal_terbit": "2022-07-20",
            "url_tdpse_detail": "https://pse.komdigi.go.id/tdpse-detail/8258",
            "website": "hoolaigames.com"
        },
        {
            "id": "9cb1abee-a4e8-4ec4-b3e3-8b6b1ca4f743",
            "nama_pse": "HOOLAIGAME",
            "nama_se": "ULTIMATE FOOTBALL CLUB",
            "sektor": "Sektor Teknologi Informasi dan Komunikasi",
            "tanggal_terbit": "2022-07-20",
            "url_tdpse_detail": "https://pse.komdigi.go.id/tdpse-detail/8259",
            "website": "hoolaigames.com"
        },
        {
            "id": "9cb1abba-fe8b-4137-86d1-1edbb1a0149f",
            "nama_pse": "HOOLAIGAME",
            "nama_se": "FUTURE FOOTBALL MANAGER",
            "sektor": "Sektor Teknologi Informasi dan Komunikasi",
            "tanggal_terbit": "2022-07-20",
            "url_tdpse_detail": "https://pse.komdigi.go.id/tdpse-detail/8260",
            "website": "global.wdyxgames.com"
        },
        {
            "id": "9cb1abee-a7fe-4dcb-98c3-fee43d7438a2",
            "nama_pse": "HOOLAIGAME",
            "nama_se": "TENSURA: KING OF MONSTERS",
            "sektor": "Sektor Teknologi Informasi dan Komunikasi",
            "tanggal_terbit": "2022-07-20",
            "url_tdpse_detail": "https://pse.komdigi.go.id/tdpse-detail/8261",
            "website": "global.wdyxgames.com"
        },
        {
            "id": "9cb1abee-abdc-412d-8cdd-1ca36cd30652",
            "nama_pse": "GUANGZHOU MAIJI INFORMATION TECHNOLOGY CO.,LTD",
            "nama_se": "IDLE MONSTER GO",
            "sektor": "Sektor Perdagangan",
            "tanggal_terbit": "2022-07-20",
            "url_tdpse_detail": "https://pse.komdigi.go.id/tdpse-detail/8262",
            "website": "mjhw.hnmaiji.com"
        },
        {
            "id": "9cb1abbb-05e0-456d-a4e9-0875bc5018f7",
            "nama_pse": "OLA PARTY PTE. LTD.",
            "nama_se": "PARTYING",
            "sektor": "Sektor Perdagangan",
            "tanggal_terbit": "2022-07-20",
            "url_tdpse_detail": "https://pse.komdigi.go.id/tdpse-detail/8266",
            "website": "partying.sg"
        },
        {
            "id": "9cb1abee-bc54-49b7-9258-05a58e817683",
            "nama_pse": "AUK INDUSTRIES PTE. LTD.",
            "nama_se": "AUK INDUSTRIES SYSTEM",
            "sektor": "Sektor Teknologi Informasi dan Komunikasi",
            "tanggal_terbit": "2022-07-20",
            "url_tdpse_detail": "https://pse.komdigi.go.id/tdpse-detail/8267",
            "website": "ops.auk.industries"
        },
        {
            "id": "9cb1abbb-08ba-49e0-89e2-bd1d551fc83c",
            "nama_pse": "AUK INDUSTRIES PTE. LTD.",
            "nama_se": "AUK INDUSTRIES",
            "sektor": "Sektor Teknologi Informasi dan Komunikasi",
            "tanggal_terbit": "2022-07-20",
            "url_tdpse_detail": "https://pse.komdigi.go.id/tdpse-detail/8268",
            "website": "auk.industries"
        },
        {
            "id": "9cb1abee-def0-4ae4-ae6d-b2561d3e956e",
            "nama_pse": "LINE CORPORATION",
            "nama_se": "LINE",
            "sektor": "Sektor Teknologi Informasi dan Komunikasi",
            "tanggal_terbit": "2022-07-20",
            "url_tdpse_detail": "https://pse.komdigi.go.id/tdpse-detail/8270",
            "website": "line.me/id/"
        },
        {
            "id": "9cb1abbb-0b91-4e53-a139-e9d14aad2b16",
            "nama_pse": "SNAPCHAT INC.",
            "nama_se": "SNAPCHAT",
            "sektor": "Sektor Teknologi Informasi dan Komunikasi",
            "tanggal_terbit": "2022-07-20",
            "url_tdpse_detail": "https://pse.komdigi.go.id/tdpse-detail/8277",
            "website": "snapchat.com"
        },
        {
            "id": "9cb1abbb-0f2d-47cc-89a3-a2f333a039b6",
            "nama_pse": "HELLO HEALTH GROUP PTE LTD",
            "nama_se": "HELLO SEHAT",
            "sektor": "Sektor Teknologi Informasi dan Komunikasi",
            "tanggal_terbit": "2022-07-20",
            "url_tdpse_detail": "https://pse.komdigi.go.id/tdpse-detail/8278",
            "website": "hellosehat.com"
        },
        {
            "id": "9cb1abc8-fbc1-442c-8c7a-ae093359267c",
            "nama_pse": "PT  Winner Interactive",
            "nama_se": "XSHOT",
            "sektor": "Sektor Teknologi Informasi dan Komunikasi",
            "tanggal_terbit": "2022-07-20",
            "url_tdpse_detail": "https://pse.komdigi.go.id/tdpse-detail/8279",
            "website": "winnerinter.co.id"
        },
        {
            "id": "9cb1abb5-28d5-46ad-9a9d-21af7ee511ad",
            "nama_pse": "NETFLIX PTE. LTD.",
            "nama_se": "NETFLIX",
            "sektor": "Sektor Perdagangan",
            "tanggal_terbit": "2022-07-19",
            "url_tdpse_detail": "https://pse.komdigi.go.id/tdpse-detail/6576",
            "website": "Netflix.com/id/"
        },
        {
            "id": "9cb1abb5-59ad-4f85-8f24-4130669d1aa1",
            "nama_pse": "OFFGAMERS",
            "nama_se": "OFFGAMERS GLOBAL PTE LTD",
            "sektor": "Sektor Perdagangan",
            "tanggal_terbit": "2022-07-19",
            "url_tdpse_detail": "https://pse.komdigi.go.id/tdpse-detail/6640",
            "website": "offgamers.com"
        },
        {
            "id": "9cb1abc0-19d8-4b7e-9f03-6e97b31600ae",
            "nama_pse": "MERIDIA LAND",
            "nama_se": "MERIDIA°COLLECT",
            "sektor": "Sektor Pangan",
            "tanggal_terbit": "2022-07-19",
            "url_tdpse_detail": "https://pse.komdigi.go.id/tdpse-detail/6644",
            "website": "refinery.meridia.land"
        },
        {
            "id": "9cb1abc0-1fb7-43cd-b4cb-bfebdc4d1592",
            "nama_pse": "HONG KONG NETEASE INTERACTIVE ENTERTAINMENT LIMITED",
            "nama_se": "UU BOOSTER",
            "sektor": "Sektor Teknologi Informasi dan Komunikasi",
            "tanggal_terbit": "2022-07-19",
            "url_tdpse_detail": "https://pse.komdigi.go.id/tdpse-detail/6648",
            "website": "uubooster.com"
        },
        {
            "id": "9cb1abc0-224e-4340-a93c-09eb19a51cf9",
            "nama_pse": "HONG KONG NETEASE INTERACTIVE ENTERTAINMENT LIMITED",
            "nama_se": "MUMU PLAYER",
            "sektor": "Sektor Teknologi Informasi dan Komunikasi",
            "tanggal_terbit": "2022-07-19",
            "url_tdpse_detail": "https://pse.komdigi.go.id/tdpse-detail/6649",
            "website": "mumuglobal.com"
        },
        {
            "id": "9cb1abe4-6e69-49c7-85e3-d8e966330f74",
            "nama_pse": "LEVEL 3 COMMUNICATIONS HONG KONG LIMITED",
            "nama_se": "EDGE COMPUTING SOLUTIONS",
            "sektor": "Sektor Teknologi Informasi dan Komunikasi",
            "tanggal_terbit": "2022-07-19",
            "url_tdpse_detail": "https://pse.komdigi.go.id/tdpse-detail/6650",
            "website": "lumen.com"
        },
        {
            "id": "9cb1abc0-27bc-4f7e-b1e1-5ab71615ac4a",
            "nama_pse": "NETEASE INTERACTIVE ENTERTAINMENT PTE. LTD.",
            "nama_se": "NARAKA",
            "sektor": "Sektor Teknologi Informasi dan Komunikasi",
            "tanggal_terbit": "2022-07-19",
            "url_tdpse_detail": "https://pse.komdigi.go.id/tdpse-detail/6653",
            "website": "narakathegame.com"
        },
        {
            "id": "9cb1abc0-2b5a-4af3-920e-6c13e5218949",
            "nama_pse": "NETEASE INTERACTIVE ENTERTAINMENT PTE. LTD.",
            "nama_se": "NETEASE GAME",
            "sektor": "Sektor Teknologi Informasi dan Komunikasi",
            "tanggal_terbit": "2022-07-19",
            "url_tdpse_detail": "https://pse.komdigi.go.id/tdpse-detail/6654",
            "website": "neteasegames.com"
        },
        {
            "id": "9cb1abe4-99e9-4989-a7e8-38248823f06b",
            "nama_pse": "NETDRAGON",
            "nama_se": "SHOPPINGMALL.99.COM",
            "sektor": "Sektor Perdagangan",
            "tanggal_terbit": "2022-07-19",
            "url_tdpse_detail": "https://pse.komdigi.go.id/tdpse-detail/6683",
            "website": "shoppingmall.99.com"
        },
        {
            "id": "9cb1abe4-9fcb-403a-93e9-3981120d4b99",
            "nama_pse": "NETDRAGON",
            "nama_se": "HTTP://HEPAYMENT.99.COM/INDEX.ASPX",
            "sektor": "Sektor Perdagangan",
            "tanggal_terbit": "2022-07-19",
            "url_tdpse_detail": "https://pse.komdigi.go.id/tdpse-detail/6684",
            "website": "hepayment.99.com/index.aspx"
        },
        {
            "id": "9cb1abb5-7bbd-4bac-87d9-2df4277871cd",
            "nama_pse": "MICO WORLD LIMITED",
            "nama_se": "MICO",
            "sektor": "Sektor Teknologi Informasi dan Komunikasi",
            "tanggal_terbit": "2022-07-19",
            "url_tdpse_detail": "https://pse.komdigi.go.id/tdpse-detail/6690",
            "website": "micous.com"
        },
        {
            "id": "9cb1abc0-e005-49e3-aebc-0a789ac009f9",
            "nama_pse": "FACEBOOK SINGAPORE PTE. LTD.",
            "nama_se": "FACEBOOK.COM",
            "sektor": "Sektor Teknologi Informasi dan Komunikasi",
            "tanggal_terbit": "2022-07-19",
            "url_tdpse_detail": "https://pse.komdigi.go.id/tdpse-detail/6797",
            "website": "facebook.com"
        },
        {
            "id": "9cb1abe5-5756-439a-9d59-e0cd710fe9fe",
            "nama_pse": "FACEBOOK SINGAPORE PTE. LTD.",
            "nama_se": "FACEBOOK",
            "sektor": "Sektor Teknologi Informasi dan Komunikasi",
            "tanggal_terbit": "2022-07-19",
            "url_tdpse_detail": "https://pse.komdigi.go.id/tdpse-detail/6798",
            "website": "apps.apple.com/au/app/facebook/id284882215"
        },
        {
            "id": "9cb1abb5-cdec-4505-9637-c81a93424a64",
            "nama_pse": "FACEBOOK SINGAPORE PTE. LTD.",
            "nama_se": "INSTAGRAM.COM",
            "sektor": "Sektor Teknologi Informasi dan Komunikasi",
            "tanggal_terbit": "2022-07-19",
            "url_tdpse_detail": "https://pse.komdigi.go.id/tdpse-detail/6799",
            "website": "instagram.com"
        }
    ],
    "processingTimeMs": 2,
    "query": "",
    "totalHits": 1139,
    "hitsPerPage": 50,
    "page": 21,
    "totalPages": 23
}