{
    "hits": [
        {
            "id": "9cb1ac1b-ec77-4642-a65e-2824e6f97cf1",
            "nama_pse": "GAMER EXCHANGE PTE. LTD.",
            "nama_se": "GAMER XCHANGE",
            "sektor": "Sektor Teknologi Informasi dan Komunikasi",
            "tanggal_terbit": "2023-02-09",
            "url_tdpse_detail": "https://pse.komdigi.go.id/tdpse-detail/13748",
            "website": "voucher-mgx.3tilabs.com"
        },
        {
            "id": "9cb1ac3d-37f6-4094-afea-d543d2193bbe",
            "nama_pse": "NETEASE INTERACTIVE ENTERTAINMENT PTE. LTD.",
            "nama_se": "NETEASE GAME",
            "sektor": "Sektor Teknologi Informasi dan Komunikasi",
            "tanggal_terbit": "2023-02-09",
            "url_tdpse_detail": "https://pse.komdigi.go.id/tdpse-detail/13749",
            "website": "neteasegames.com"
        },
        {
            "id": "9cb1ac3d-3b0d-45a1-90d1-e720b4dd934d",
            "nama_pse": "NETEASE INTERACTIVE ENTERTAINMENT PTE. LTD.",
            "nama_se": "NOVA FANTASY",
            "sektor": "Sektor Teknologi Informasi dan Komunikasi",
            "tanggal_terbit": "2023-02-09",
            "url_tdpse_detail": "https://pse.komdigi.go.id/tdpse-detail/13750",
            "website": "-"
        },
        {
            "id": "9cb1ac3d-3e68-422d-8de7-fd6a3b376f43",
            "nama_pse": "NETEASE INTERACTIVE ENTERTAINMENT PTE. LTD.",
            "nama_se": "GATE OF AGES: EON STRIFE",
            "sektor": "Sektor Teknologi Informasi dan Komunikasi",
            "tanggal_terbit": "2023-02-09",
            "url_tdpse_detail": "https://pse.komdigi.go.id/tdpse-detail/13751",
            "website": "gateofages.com"
        },
        {
            "id": "9cb1ac3d-4250-465d-9b52-883bf69ed4b0",
            "nama_pse": "NETEASE INTERACTIVE ENTERTAINMENT PTE. LTD.",
            "nama_se": "ZOZ: FINAL HOUR",
            "sektor": "Sektor Teknologi Informasi dan Komunikasi",
            "tanggal_terbit": "2023-02-09",
            "url_tdpse_detail": "https://pse.komdigi.go.id/tdpse-detail/13752",
            "website": "gamezoz.com"
        },
        {
            "id": "9cb1ac2e-0bab-46d1-902a-c66bbe439359",
            "nama_pse": "NETEASE INTERACTIVE ENTERTAINMENT PTE. LTD.",
            "nama_se": "LOST BLADE",
            "sektor": "Sektor Teknologi Informasi dan Komunikasi",
            "tanggal_terbit": "2023-02-09",
            "url_tdpse_detail": "https://pse.komdigi.go.id/tdpse-detail/13753",
            "website": "thelostblade.com"
        },
        {
            "id": "9cb1ac2e-0f03-4e63-8225-d39dd66b315e",
            "nama_pse": "NETEASE INTERACTIVE ENTERTAINMENT PTE. LTD.",
            "nama_se": "NARAKA",
            "sektor": "Sektor Teknologi Informasi dan Komunikasi",
            "tanggal_terbit": "2023-02-09",
            "url_tdpse_detail": "https://pse.komdigi.go.id/tdpse-detail/13754",
            "website": "-"
        },
        {
            "id": "9cb1ac2e-11f6-488b-85d3-243db91ef380",
            "nama_pse": "NETEASE INTERACTIVE ENTERTAINMENT PTE. LTD.",
            "nama_se": "CASTLE CAPER",
            "sektor": "Sektor Teknologi Informasi dan Komunikasi",
            "tanggal_terbit": "2023-02-09",
            "url_tdpse_detail": "https://pse.komdigi.go.id/tdpse-detail/13755",
            "website": "-"
        },
        {
            "id": "9cb1ac3d-458e-4c86-ba92-138e845deef5",
            "nama_pse": "NETEASE INTERACTIVE ENTERTAINMENT PTE. LTD.",
            "nama_se": "WESTWARD ADVENTURE",
            "sektor": "Sektor Teknologi Informasi dan Komunikasi",
            "tanggal_terbit": "2023-02-09",
            "url_tdpse_detail": "https://pse.komdigi.go.id/tdpse-detail/13756",
            "website": "westward-adventure.com"
        },
        {
            "id": "9cb1ac3d-4a4a-4384-b7ef-5214f5dde9a0",
            "nama_pse": "NETEASE INTERACTIVE ENTERTAINMENT PTE. LTD.",
            "nama_se": "ACE RACER",
            "sektor": "Sektor Teknologi Informasi dan Komunikasi",
            "tanggal_terbit": "2023-02-09",
            "url_tdpse_detail": "https://pse.komdigi.go.id/tdpse-detail/13757",
            "website": "aceracer-game.com"
        },
        {
            "id": "9cb1ac2d-ee47-4dc2-91fb-da90a747f4ff",
            "nama_pse": "JETBRAINS DISTRIBUTIONS S.R.O.",
            "nama_se": "JETBRAINS DISTRIBUTIONS",
            "sektor": "Sektor Perdagangan",
            "tanggal_terbit": "2023-02-08",
            "url_tdpse_detail": "https://pse.komdigi.go.id/tdpse-detail/13728",
            "website": "jetbrains.com"
        },
        {
            "id": "9cb1ac2d-b277-4029-9070-cf88f350968e",
            "nama_pse": "AZALP TECHNOLOGIES PRIVATE LIMITED",
            "nama_se": "RIGI/RIGI",
            "sektor": "Sektor Teknologi Informasi dan Komunikasi",
            "tanggal_terbit": "2023-02-06",
            "url_tdpse_detail": "https://pse.komdigi.go.id/tdpse-detail/13705",
            "website": "app.rigi.club"
        },
        {
            "id": "9cb1ac2d-bae5-41e4-b2ee-340369d4283c",
            "nama_pse": "AZALP TECHNOLOGIES PRIVATE LIMITED",
            "nama_se": "RIGI/RIGI",
            "sektor": "Sektor Teknologi Informasi dan Komunikasi",
            "tanggal_terbit": "2023-02-06",
            "url_tdpse_detail": "https://pse.komdigi.go.id/tdpse-detail/13706",
            "website": "app.rigi.club"
        },
        {
            "id": "9cb1ac2d-8ace-4e1d-ac62-9a71be804ac5",
            "nama_pse": "NEXON KOREA CORPORATION",
            "nama_se": "KARTRIDER: DRIFT",
            "sektor": "Sektor Teknologi Informasi dan Komunikasi",
            "tanggal_terbit": "2023-02-03",
            "url_tdpse_detail": "https://pse.komdigi.go.id/tdpse-detail/13675",
            "website": "-"
        },
        {
            "id": "9cb1ac2d-35e9-4ddb-8251-4149fce6a6e3",
            "nama_pse": "VIVO MOBILE COMMUNICATION CO., LTD.",
            "nama_se": "V-APPSTORE",
            "sektor": "Sektor Teknologi Informasi dan Komunikasi",
            "tanggal_terbit": "2023-01-30",
            "url_tdpse_detail": "https://pse.komdigi.go.id/tdpse-detail/13638",
            "website": "-"
        },
        {
            "id": "9cb1ac1b-5a30-4c02-a6d5-9a95f17e7fe4",
            "nama_pse": "VIVO MOBILE COMMUNICATION CO., LTD.",
            "nama_se": "V-APPSTORE",
            "sektor": "Sektor Teknologi Informasi dan Komunikasi",
            "tanggal_terbit": "2023-01-30",
            "url_tdpse_detail": "https://pse.komdigi.go.id/tdpse-detail/13639",
            "website": "-"
        },
        {
            "id": "9cb1ac2d-0a6b-41b9-b376-bf93fe02130d",
            "nama_pse": "MINOR HOTEL GROUP LIMITED",
            "nama_se": "AVANI (WEBSITE)",
            "sektor": "Sektor Perdagangan",
            "tanggal_terbit": "2023-01-25",
            "url_tdpse_detail": "https://pse.komdigi.go.id/tdpse-detail/13610",
            "website": "avanihotels.com"
        },
        {
            "id": "9cb1ac1b-3617-4ab7-97cf-281267efaf95",
            "nama_pse": "MINOR HOTEL GROUP LIMITED",
            "nama_se": "ANANTARA (WEBSITE)",
            "sektor": "Sektor Perdagangan",
            "tanggal_terbit": "2023-01-25",
            "url_tdpse_detail": "https://pse.komdigi.go.id/tdpse-detail/13611",
            "website": "anantara.com"
        },
        {
            "id": "9cb1ac1b-39dc-42db-8142-1a4c5e7ca088",
            "nama_pse": "MINOR HOTEL GROUP LIMITED",
            "nama_se": "ANANTARA (APLIKASI)",
            "sektor": "Sektor Perdagangan",
            "tanggal_terbit": "2023-01-25",
            "url_tdpse_detail": "https://pse.komdigi.go.id/tdpse-detail/13612",
            "website": "www.anantara.com/en/mobile-app"
        },
        {
            "id": "9cb1ac1b-3d61-4e87-8127-3cabeee44bba",
            "nama_pse": "MINOR HOTEL GROUP LIMITED",
            "nama_se": "AVANI (APLIKASI)",
            "sektor": "Sektor Perdagangan",
            "tanggal_terbit": "2023-01-25",
            "url_tdpse_detail": "https://pse.komdigi.go.id/tdpse-detail/13613",
            "website": "www.avanihotels.com/en/mobile-app"
        },
        {
            "id": "9cb1ac2d-0da3-44ed-aeeb-a04b4512abb2",
            "nama_pse": "MINOR HOTEL GROUP LIMITED",
            "nama_se": "MINOR HOTELS",
            "sektor": "Sektor Perdagangan",
            "tanggal_terbit": "2023-01-25",
            "url_tdpse_detail": "https://pse.komdigi.go.id/tdpse-detail/13614",
            "website": "secure.minorhotels.com"
        },
        {
            "id": "9cb1ac2c-a666-41a1-8b9b-665929fa24e3",
            "nama_pse": "GLANCE INMOBI PTE. LTD.",
            "nama_se": "ROPOSO",
            "sektor": "Sektor Teknologi Informasi dan Komunikasi",
            "tanggal_terbit": "2023-01-20",
            "url_tdpse_detail": "https://pse.komdigi.go.id/tdpse-detail/13565",
            "website": "roposo.com"
        },
        {
            "id": "9cb1ac1a-acc5-43da-903e-ffe99caae056",
            "nama_pse": "KETITIK PTE LTD",
            "nama_se": "KETITIK",
            "sektor": "Sektor Teknologi Informasi dan Komunikasi",
            "tanggal_terbit": "2023-01-17",
            "url_tdpse_detail": "https://pse.komdigi.go.id/tdpse-detail/13532",
            "website": "ketitik.app"
        },
        {
            "id": "9cb1ac3b-c88e-47ec-89fd-5d9e78fb438f",
            "nama_pse": "PAYONEER INC.",
            "nama_se": "PAYONEER INC.",
            "sektor": "Sektor Keuangan",
            "tanggal_terbit": "2023-01-12",
            "url_tdpse_detail": "https://pse.komdigi.go.id/tdpse-detail/13481",
            "website": "payoneer.com"
        },
        {
            "id": "9cb1ac3b-acd9-41be-b226-268061de9064",
            "nama_pse": "VIVO MOBILE COMMUNICATION CO., LTD.",
            "nama_se": "V APPSTORE",
            "sektor": "Sektor Teknologi Informasi dan Komunikasi",
            "tanggal_terbit": "2023-01-11",
            "url_tdpse_detail": "https://pse.komdigi.go.id/tdpse-detail/13463",
            "website": "-"
        },
        {
            "id": "9cb1ac2b-cf08-4421-b344-c3086e3c1c4d",
            "nama_pse": "VIVO MOBILE COMMUNICATION CO., LTD.",
            "nama_se": "V-APPSTORE",
            "sektor": "Sektor Teknologi Informasi dan Komunikasi",
            "tanggal_terbit": "2023-01-11",
            "url_tdpse_detail": "https://pse.komdigi.go.id/tdpse-detail/13464",
            "website": "-"
        },
        {
            "id": "9cb1ac1a-5aab-4812-a0b2-e512823ba168",
            "nama_pse": "ARK GAMES GLOBAL SDN. BHD.",
            "nama_se": "GODDESS: PRIMAL CHAOS",
            "sektor": "Sektor Teknologi Informasi dan Komunikasi",
            "tanggal_terbit": "2023-01-06",
            "url_tdpse_detail": "https://pse.komdigi.go.id/tdpse-detail/13440",
            "website": "goddess.koramgame.com"
        },
        {
            "id": "9cb1ac2b-8300-41b8-a6a9-13d998d8273c",
            "nama_pse": "ARK GAMES GLOBAL SDN. BHD.",
            "nama_se": "BLEACH MOBILE 3D",
            "sektor": "Sektor Teknologi Informasi dan Komunikasi",
            "tanggal_terbit": "2023-01-06",
            "url_tdpse_detail": "https://pse.komdigi.go.id/tdpse-detail/13441",
            "website": "bleach.arkgames.com"
        },
        {
            "id": "9cb1ac2b-5b52-455a-ae57-49c68f0d1664",
            "nama_pse": "DOCUSIGN, INC",
            "nama_se": "DOCUSIGN ESIGNATURE",
            "sektor": "Sektor Perdagangan",
            "tanggal_terbit": "2023-01-05",
            "url_tdpse_detail": "https://pse.komdigi.go.id/tdpse-detail/13423",
            "website": "docusign.com"
        },
        {
            "id": "9cb1ac2b-5e8b-4fc3-b66e-3ed39dc8c797",
            "nama_pse": "HUYA PTE. LTD.",
            "nama_se": "NIMO TV",
            "sektor": "Sektor Teknologi Informasi dan Komunikasi",
            "tanggal_terbit": "2023-01-05",
            "url_tdpse_detail": "https://pse.komdigi.go.id/tdpse-detail/13425",
            "website": "nimo.tv"
        },
        {
            "id": "9cb1ac18-978f-4067-a186-f083f9aa114b",
            "nama_pse": "IHERB LLC",
            "nama_se": "IHERB",
            "sektor": "Sektor Perdagangan",
            "tanggal_terbit": "2023-01-05",
            "url_tdpse_detail": "https://pse.komdigi.go.id/tdpse-detail/13428",
            "website": "iherb.com"
        },
        {
            "id": "9cb1ac18-3e90-4640-afa1-37b2dfc9ace3",
            "nama_pse": "VIVO MOBILE COMMUNICATION CO., LTD.",
            "nama_se": "V-APPSTORE",
            "sektor": "Sektor Teknologi Informasi dan Komunikasi",
            "tanggal_terbit": "2022-12-29",
            "url_tdpse_detail": "https://pse.komdigi.go.id/tdpse-detail/13361",
            "website": "-"
        },
        {
            "id": "9cb1ac2a-deee-4736-93aa-2d20c94174b4",
            "nama_pse": "VIVO MOBILE COMMUNICATION CO., LTD.",
            "nama_se": "V-APPSTORE",
            "sektor": "Sektor Teknologi Informasi dan Komunikasi",
            "tanggal_terbit": "2022-12-29",
            "url_tdpse_detail": "https://pse.komdigi.go.id/tdpse-detail/13362",
            "website": "-"
        },
        {
            "id": "9cb1ac2a-e34f-4a96-96ce-abf415973b65",
            "nama_pse": "VIVO MOBILE COMMUNICATION CO., LTD.",
            "nama_se": "V-APPSTORE",
            "sektor": "Sektor Teknologi Informasi dan Komunikasi",
            "tanggal_terbit": "2022-12-29",
            "url_tdpse_detail": "https://pse.komdigi.go.id/tdpse-detail/13363",
            "website": "-"
        },
        {
            "id": "9cb1ac19-eb85-4c10-b805-eee002acef1a",
            "nama_pse": "VIVO MOBILE COMMUNICATION CO., LTD.",
            "nama_se": "V-APPSTORE",
            "sektor": "Sektor Teknologi Informasi dan Komunikasi",
            "tanggal_terbit": "2022-12-29",
            "url_tdpse_detail": "https://pse.komdigi.go.id/tdpse-detail/13364",
            "website": "-"
        },
        {
            "id": "9cb1ac2a-b146-4d20-a4a1-6510e4934893",
            "nama_pse": "PROXIMA BETA PTE. LIMITED",
            "nama_se": "LUDO WORLD",
            "sektor": "Sektor Teknologi Informasi dan Komunikasi",
            "tanggal_terbit": "2022-12-23",
            "url_tdpse_detail": "https://pse.komdigi.go.id/tdpse-detail/13323",
            "website": "facebook.com/gaming/play/333219677162998/?source=www_homepage_shortcut"
        },
        {
            "id": "9cb1ac17-d08b-402c-b886-05040eaee022",
            "nama_pse": "MOENGAGE INC",
            "nama_se": "MOENGAGE INC",
            "sektor": "Sektor Teknologi Informasi dan Komunikasi",
            "tanggal_terbit": "2022-12-19",
            "url_tdpse_detail": "https://pse.komdigi.go.id/tdpse-detail/13152",
            "website": "MoEngage.com"
        },
        {
            "id": "9cb1ac80-9c15-4f1c-88e9-c24372557083",
            "nama_pse": "AIRBNB SINGAPORE PTE. LTD.",
            "nama_se": "AIRBNB",
            "sektor": "Sektor Perdagangan",
            "tanggal_terbit": "2022-12-19",
            "url_tdpse_detail": "https://pse.komdigi.go.id/tdpse-detail/18204",
            "website": "airbnb.com"
        },
        {
            "id": "9cb1ac2a-018b-4936-a7b4-5afc83e24c27",
            "nama_pse": "KRAFTON, INC.",
            "nama_se": "CALLISTO PROTOCOL",
            "sektor": "Sektor Teknologi Informasi dan Komunikasi",
            "tanggal_terbit": "2022-12-13",
            "url_tdpse_detail": "https://pse.komdigi.go.id/tdpse-detail/12846",
            "website": "krafton.com"
        },
        {
            "id": "9cb1ac2a-04e5-4959-887a-0627ae29a641",
            "nama_pse": "KRAFTON, INC.",
            "nama_se": "MOONBREAKER",
            "sektor": "Sektor Teknologi Informasi dan Komunikasi",
            "tanggal_terbit": "2022-12-13",
            "url_tdpse_detail": "https://pse.komdigi.go.id/tdpse-detail/12847",
            "website": "krafton.com"
        },
        {
            "id": "9cb1ac29-fc6e-4377-b74d-f5417ddd11ec",
            "nama_pse": "VNG CORPORATION",
            "nama_se": "REVELATION: INFINITE JOURNEY",
            "sektor": "Sektor Teknologi Informasi dan Komunikasi",
            "tanggal_terbit": "2022-12-12",
            "url_tdpse_detail": "https://pse.komdigi.go.id/tdpse-detail/12809",
            "website": "revelation.vnggames.net"
        },
        {
            "id": "9cb1ac29-fec3-4e43-8a6f-6f69a60fed41",
            "nama_pse": "VIVO MOBILE COMMUNICATION CO., LTD.",
            "nama_se": "V-APPSTORE",
            "sektor": "Sektor Teknologi Informasi dan Komunikasi",
            "tanggal_terbit": "2022-12-12",
            "url_tdpse_detail": "https://pse.komdigi.go.id/tdpse-detail/12821",
            "website": "-"
        },
        {
            "id": "9cb1ac19-1a52-40b4-9d35-30103b81a715",
            "nama_pse": "VIVO MOBILE COMMUNICATION CO., LTD.",
            "nama_se": "V-APPSTORE",
            "sektor": "Sektor Teknologi Informasi dan Komunikasi",
            "tanggal_terbit": "2022-12-09",
            "url_tdpse_detail": "https://pse.komdigi.go.id/tdpse-detail/12651",
            "website": "-"
        },
        {
            "id": "9cb1ac17-34bb-4efd-86f9-aba9b34baa69",
            "nama_pse": "VIVO MOBILE COMMUNICATION CO., LTD.",
            "nama_se": "V-APPSTORE",
            "sektor": "Sektor Teknologi Informasi dan Komunikasi",
            "tanggal_terbit": "2022-12-09",
            "url_tdpse_detail": "https://pse.komdigi.go.id/tdpse-detail/12652",
            "website": "-"
        },
        {
            "id": "9cb1ac17-3b3b-40d3-968a-e48bef6badfb",
            "nama_pse": "VIVO MOBILE COMMUNICATION CO., LTD.",
            "nama_se": "V-APPSTORE",
            "sektor": "Sektor Teknologi Informasi dan Komunikasi",
            "tanggal_terbit": "2022-12-09",
            "url_tdpse_detail": "https://pse.komdigi.go.id/tdpse-detail/12654",
            "website": "-"
        },
        {
            "id": "9cb1ac19-0643-4943-ab8d-8fc902e489f7",
            "nama_pse": "VIVO MOBILE COMMUNICATION CO., LTD.",
            "nama_se": "V-APPSTORE",
            "sektor": "Sektor Teknologi Informasi dan Komunikasi",
            "tanggal_terbit": "2022-12-08",
            "url_tdpse_detail": "https://pse.komdigi.go.id/tdpse-detail/12638",
            "website": "-"
        },
        {
            "id": "9cb1ac17-2d18-4195-bc3b-928e9da10062",
            "nama_pse": "VIVO MOBILE COMMUNICATION CO., LTD.",
            "nama_se": "V-APPSTORE",
            "sektor": "Sektor Teknologi Informasi dan Komunikasi",
            "tanggal_terbit": "2022-12-08",
            "url_tdpse_detail": "https://pse.komdigi.go.id/tdpse-detail/12639",
            "website": "-"
        },
        {
            "id": "9cb1ac19-0cf8-4342-a397-36143102daec",
            "nama_pse": "VIVO MOBILE COMMUNICATION CO., LTD.",
            "nama_se": "V-APPSTORE",
            "sektor": "Sektor Teknologi Informasi dan Komunikasi",
            "tanggal_terbit": "2022-12-08",
            "url_tdpse_detail": "https://pse.komdigi.go.id/tdpse-detail/12640",
            "website": "-"
        },
        {
            "id": "9cb1ac29-df86-4017-92da-3a00b2467cdc",
            "nama_pse": "VIVO MOBILE COMMUNICATION CO., LTD.",
            "nama_se": "V-APPSTORE",
            "sektor": "Sektor Teknologi Informasi dan Komunikasi",
            "tanggal_terbit": "2022-12-08",
            "url_tdpse_detail": "https://pse.komdigi.go.id/tdpse-detail/12641",
            "website": "-"
        },
        {
            "id": "9cb1ac19-1053-43e2-bb6e-3f91046cdc2c",
            "nama_pse": "VIVO MOBILE COMMUNICATION CO., LTD.",
            "nama_se": "V-APPSTORE",
            "sektor": "Sektor Teknologi Informasi dan Komunikasi",
            "tanggal_terbit": "2022-12-08",
            "url_tdpse_detail": "https://pse.komdigi.go.id/tdpse-detail/12642",
            "website": "-"
        }
    ],
    "processingTimeMs": 2,
    "query": "",
    "totalHits": 1139,
    "hitsPerPage": 50,
    "page": 13,
    "totalPages": 23
}