{
    "hits": [
        {
            "id": "9cb1ac0d-f7c3-4ed3-975e-1626bb8c7577",
            "nama_pse": "LEXIANG CO., LIMITED",
            "nama_se": "WEST GAME",
            "sektor": "Sektor Teknologi Informasi dan Komunikasi",
            "tanggal_terbit": "2022-08-25",
            "url_tdpse_detail": "https://pse.komdigi.go.id/tdpse-detail/10813",
            "website": "leyi-game.com"
        },
        {
            "id": "9cb1abff-02f3-4fc1-801f-be13dca2abef",
            "nama_pse": "LUCKY LIVE  LIMITED",
            "nama_se": "NIGO",
            "sektor": "Sektor Teknologi Informasi dan Komunikasi",
            "tanggal_terbit": "2022-08-24",
            "url_tdpse_detail": "https://pse.komdigi.go.id/tdpse-detail/10794",
            "website": "http://www.kdglobal.xyz/index.html"
        },
        {
            "id": "9cb1abd9-9293-4d2d-bb48-1392128b3dc8",
            "nama_pse": "Unity Technologies",
            "nama_se": "UNITY",
            "sektor": "Sektor Teknologi Informasi dan Komunikasi",
            "tanggal_terbit": "2022-08-24",
            "url_tdpse_detail": "https://pse.komdigi.go.id/tdpse-detail/10800",
            "website": "unity.com"
        },
        {
            "id": "9cb1abfe-bf3b-44ef-89c9-9d446c892860",
            "nama_pse": "AKURA PTE. LTD.",
            "nama_se": "NOVELAME",
            "sektor": "Sektor Teknologi Informasi dan Komunikasi",
            "tanggal_terbit": "2022-08-23",
            "url_tdpse_detail": "https://pse.komdigi.go.id/tdpse-detail/10707",
            "website": "novelame168.com"
        },
        {
            "id": "9cb1abd9-035d-40c6-9f68-beecd8601863",
            "nama_pse": "LEON LION",
            "nama_se": "LION",
            "sektor": "Sektor Teknologi Informasi dan Komunikasi",
            "tanggal_terbit": "2022-08-23",
            "url_tdpse_detail": "https://pse.komdigi.go.id/tdpse-detail/10708",
            "website": "-"
        },
        {
            "id": "9cb1ac0d-a378-4cff-9ac3-65e2dca28eaf",
            "nama_pse": "WISDOM ENTERTAINMENT ONLINE INTERNATIONAL LIMITED",
            "nama_se": "37GAMES.COM",
            "sektor": "Sektor Teknologi Informasi dan Komunikasi",
            "tanggal_terbit": "2022-08-23",
            "url_tdpse_detail": "https://pse.komdigi.go.id/tdpse-detail/10711",
            "website": "37games.com"
        },
        {
            "id": "9cb1abfe-cc1d-4337-a581-b20fad7d4202",
            "nama_pse": "SHANGHAI YUAN QU YU LE CO., LTD.",
            "nama_se": "ZERO-BASED WORLD",
            "sektor": "Sektor Teknologi Informasi dan Komunikasi",
            "tanggal_terbit": "2022-08-23",
            "url_tdpse_detail": "https://pse.komdigi.go.id/tdpse-detail/10726",
            "website": "zerogame.com"
        },
        {
            "id": "9cb1ac0d-c13b-46ca-90b6-4f1852d39e55",
            "nama_pse": "EXU (HK) LIMITED",
            "nama_se": "OMEGA - LIVE RANDOM VIDEO CHAT",
            "sektor": "Sektor Teknologi Informasi dan Komunikasi",
            "tanggal_terbit": "2022-08-23",
            "url_tdpse_detail": "https://pse.komdigi.go.id/tdpse-detail/10735",
            "website": "omega.app"
        },
        {
            "id": "9cb1ac0d-c4d6-4f1d-ade5-20b4897292bb",
            "nama_pse": "MITU INC LIMITED",
            "nama_se": "CAMSEA - LIVE VIDEO CHAT",
            "sektor": "Sektor Teknologi Informasi dan Komunikasi",
            "tanggal_terbit": "2022-08-23",
            "url_tdpse_detail": "https://pse.komdigi.go.id/tdpse-detail/10736",
            "website": "camsea.online"
        },
        {
            "id": "9cb1abd8-ea05-4ca6-b3e2-23acaa9486c7",
            "nama_pse": "GAMENOW TECHNOLOGY LIMITED",
            "nama_se": "MU ORIGIN 2",
            "sektor": "Sektor Teknologi Informasi dan Komunikasi",
            "tanggal_terbit": "2022-08-22",
            "url_tdpse_detail": "https://pse.komdigi.go.id/tdpse-detail/10681",
            "website": "id.mu2sea.com"
        },
        {
            "id": "9cb1abfe-96b7-44b0-8268-53b4c499a2d8",
            "nama_pse": "MONKEY, INC,",
            "nama_se": "MONKEY - LIVE VIDEO CHAT",
            "sektor": "Sektor Teknologi Informasi dan Komunikasi",
            "tanggal_terbit": "2022-08-22",
            "url_tdpse_detail": "https://pse.komdigi.go.id/tdpse-detail/10682",
            "website": "monkey.app"
        },
        {
            "id": "9cb1abfe-9a75-4058-b16f-c804ae4973ab",
            "nama_pse": "LONG TECH NETWORK LIMITED",
            "nama_se": "RISE OF EMPIRES",
            "sektor": "Sektor Teknologi Informasi dan Komunikasi",
            "tanggal_terbit": "2022-08-22",
            "url_tdpse_detail": "https://pse.komdigi.go.id/tdpse-detail/10683",
            "website": "longtech.hk"
        },
        {
            "id": "9cb1ac0d-8582-4e1e-99e5-a850d8df2402",
            "nama_pse": "HG VISION PTE.LTD.",
            "nama_se": "HAY - LIVE VIDEO CHAT",
            "sektor": "Sektor Teknologi Informasi dan Komunikasi",
            "tanggal_terbit": "2022-08-22",
            "url_tdpse_detail": "https://pse.komdigi.go.id/tdpse-detail/10685",
            "website": "hay.fun"
        },
        {
            "id": "9cb1abfe-6a07-495c-9788-24e08dd0715b",
            "nama_pse": "EASETREND TECHNOLOGY LIMITED",
            "nama_se": "PAYNICORN",
            "sektor": "Sektor Keuangan",
            "tanggal_terbit": "2022-08-20",
            "url_tdpse_detail": "https://pse.komdigi.go.id/tdpse-detail/10641",
            "website": "paynicorn.com/#/docs"
        },
        {
            "id": "9cb1abfe-53eb-4bf9-9732-77ceceddb838",
            "nama_pse": "MC OCEAN HOLDING SDN.BHD.",
            "nama_se": "MCOCEAN.COM",
            "sektor": "Sektor Perdagangan",
            "tanggal_terbit": "2022-08-19",
            "url_tdpse_detail": "https://pse.komdigi.go.id/tdpse-detail/10620",
            "website": "mcocean.com"
        },
        {
            "id": "9cb1abd8-7c7c-495a-816d-28ff8a2c5b69",
            "nama_pse": "ADMIN@TAPON.COM",
            "nama_se": "TAPON ANDROID",
            "sektor": "Sektor Teknologi Informasi dan Komunikasi",
            "tanggal_terbit": "2022-08-19",
            "url_tdpse_detail": "https://pse.komdigi.go.id/tdpse-detail/10621",
            "website": "tapon.com"
        },
        {
            "id": "9cb1abd8-7fdd-43a2-a483-211514fd3855",
            "nama_pse": "ADMIN@TAPON.COM",
            "nama_se": "TAPON IOS",
            "sektor": "Sektor Teknologi Informasi dan Komunikasi",
            "tanggal_terbit": "2022-08-19",
            "url_tdpse_detail": "https://pse.komdigi.go.id/tdpse-detail/10622",
            "website": "tapon.com"
        },
        {
            "id": "9cb1abd8-8415-4ebf-8c69-7c7623dc55f0",
            "nama_pse": "BELGACOM INTERNATIONAL CARRIER SERVICES SA",
            "nama_se": "MYNUMBERS",
            "sektor": "Sektor Teknologi Informasi dan Komunikasi",
            "tanggal_terbit": "2022-08-19",
            "url_tdpse_detail": "https://pse.komdigi.go.id/tdpse-detail/10623",
            "website": "my.bics.com"
        },
        {
            "id": "9cb1ac0d-2dea-42df-9801-66614cc1be0a",
            "nama_pse": "SHANGHAI XIAOCHUAN",
            "nama_se": "HI BROWSER",
            "sektor": "Sektor Teknologi Informasi dan Komunikasi",
            "tanggal_terbit": "2022-08-19",
            "url_tdpse_detail": "https://pse.komdigi.go.id/tdpse-detail/10624",
            "website": "https://play.google.com/store/apps/details?id=com.talpa.hibrowser"
        },
        {
            "id": "9cb1ac0d-30fa-493b-b641-bb34753a95bf",
            "nama_pse": "SHANGHAI XIAOCHUAN",
            "nama_se": "XSHARE",
            "sektor": "Sektor Teknologi Informasi dan Komunikasi",
            "tanggal_terbit": "2022-08-19",
            "url_tdpse_detail": "https://pse.komdigi.go.id/tdpse-detail/10625",
            "website": "https://play.google.com/store/apps/details?id=com.infinix.xshare"
        },
        {
            "id": "9cb1ac0d-340a-4ee4-bb55-5815a41c8865",
            "nama_pse": "SHANGHAI XIAOCHUAN",
            "nama_se": "HI TRANSLATE",
            "sektor": "Sektor Teknologi Informasi dan Komunikasi",
            "tanggal_terbit": "2022-08-19",
            "url_tdpse_detail": "https://pse.komdigi.go.id/tdpse-detail/10626",
            "website": "https://play.google.com/store/apps/details?id=com.zaz.translate"
        },
        {
            "id": "9cb1abd8-8864-4cf1-aa1f-51e7f3bcd40d",
            "nama_pse": "SHANGHAI XIAOCHUAN",
            "nama_se": "HI DICTIONARY",
            "sektor": "Sektor Teknologi Informasi dan Komunikasi",
            "tanggal_terbit": "2022-08-19",
            "url_tdpse_detail": "https://pse.komdigi.go.id/tdpse-detail/10627",
            "website": "https://play.google.com/store/apps/details?id=com.talpa.translate"
        },
        {
            "id": "9cb1ac0d-3a5a-4400-9454-33682c8dfe71",
            "nama_pse": "SHANGHAI XIAOCHUAN",
            "nama_se": "PHONE MASTER",
            "sektor": "Sektor Teknologi Informasi dan Komunikasi",
            "tanggal_terbit": "2022-08-19",
            "url_tdpse_detail": "https://pse.komdigi.go.id/tdpse-detail/10628",
            "website": "https://play.google.com/store/apps/details?id=com.transsion.phonemaster"
        },
        {
            "id": "9cb1ac0d-3d77-484c-bb73-c649a1fa7160",
            "nama_pse": "SCOOPER",
            "nama_se": "SCOOPER",
            "sektor": "Sektor Teknologi Informasi dan Komunikasi",
            "tanggal_terbit": "2022-08-19",
            "url_tdpse_detail": "https://pse.komdigi.go.id/tdpse-detail/10629",
            "website": "scoopernews.com"
        },
        {
            "id": "9cb1abd8-2dda-4922-a7dd-08b082a97ed8",
            "nama_pse": "NAVER WEBTOON LTD.",
            "nama_se": "LINE WEBTOON INDONESIA",
            "sektor": "Sektor Teknologi Informasi dan Komunikasi",
            "tanggal_terbit": "2022-08-18",
            "url_tdpse_detail": "https://pse.komdigi.go.id/tdpse-detail/10537",
            "website": "webtoons.com"
        },
        {
            "id": "9cb1abfe-08af-4a71-a392-f66ca265e16a",
            "nama_pse": "LINE PLUS CORPORATION",
            "nama_se": "LINE MESSENGER",
            "sektor": "Sektor Teknologi Informasi dan Komunikasi",
            "tanggal_terbit": "2022-08-18",
            "url_tdpse_detail": "https://pse.komdigi.go.id/tdpse-detail/10538",
            "website": "line.me"
        },
        {
            "id": "9cb1abfe-144f-45a1-8dfa-940ab3ac54ea",
            "nama_pse": "LINE PLUS CORPORATION",
            "nama_se": "LINE WEBSITE",
            "sektor": "Sektor Teknologi Informasi dan Komunikasi",
            "tanggal_terbit": "2022-08-18",
            "url_tdpse_detail": "https://pse.komdigi.go.id/tdpse-detail/10539",
            "website": "line.me"
        },
        {
            "id": "9cb1abfe-17b8-4fc1-be52-c8e94355d4ef",
            "nama_pse": "LINE PLUS CORPORATION",
            "nama_se": "LINE GAME",
            "sektor": "Sektor Teknologi Informasi dan Komunikasi",
            "tanggal_terbit": "2022-08-18",
            "url_tdpse_detail": "https://pse.komdigi.go.id/tdpse-detail/10540",
            "website": "line.me"
        },
        {
            "id": "9cb1abfe-1b5a-4013-8f67-1bbdd0d6e46f",
            "nama_pse": "LINE PLUS CORPORATION",
            "nama_se": "LINE STORE",
            "sektor": "Sektor Teknologi Informasi dan Komunikasi",
            "tanggal_terbit": "2022-08-18",
            "url_tdpse_detail": "https://pse.komdigi.go.id/tdpse-detail/10541",
            "website": "line.me"
        },
        {
            "id": "9cb1ac0c-e07e-46bb-8672-40abb7582225",
            "nama_pse": "LINE PLUS CORPORATION",
            "nama_se": "LINE POD",
            "sektor": "Sektor Teknologi Informasi dan Komunikasi",
            "tanggal_terbit": "2022-08-18",
            "url_tdpse_detail": "https://pse.komdigi.go.id/tdpse-detail/10542",
            "website": "line.me"
        },
        {
            "id": "9cb1abd8-31b5-4926-ad61-e4acf2d67ca1",
            "nama_pse": "ASCENTIS PTE LTD",
            "nama_se": "ASCENTIS CRM, ASCENTIS ECOMMERCE, ASCENTIS CX, ASCENTIS POS",
            "sektor": "Sektor Teknologi Informasi dan Komunikasi",
            "tanggal_terbit": "2022-08-18",
            "url_tdpse_detail": "https://pse.komdigi.go.id/tdpse-detail/10545",
            "website": "ascentis.com.sg"
        },
        {
            "id": "9cb1abd7-8bd4-4f88-9c4f-2024ee80e52e",
            "nama_pse": "YAHOO! SINGAPORE DIGITAL MARKETING PTE. LTD",
            "nama_se": "YAHOO INDONESIA",
            "sektor": "Sektor Teknologi Informasi dan Komunikasi",
            "tanggal_terbit": "2022-08-16",
            "url_tdpse_detail": "https://pse.komdigi.go.id/tdpse-detail/10422",
            "website": "id.search.yahoo.com"
        },
        {
            "id": "9cb1ac0c-4157-42e2-8eba-bfe175be5a22",
            "nama_pse": "YAHOO! SINGAPORE DIGITAL MARKETING PTE. LTD",
            "nama_se": "YAHOO INDONESIA",
            "sektor": "Sektor Teknologi Informasi dan Komunikasi",
            "tanggal_terbit": "2022-08-16",
            "url_tdpse_detail": "https://pse.komdigi.go.id/tdpse-detail/10423",
            "website": "id.mail.yahoo.com"
        },
        {
            "id": "9cb1abd7-a14e-467f-b3ab-80d17b6b5748",
            "nama_pse": "SHENZHEN LEYI NETWORK CO., LTD.",
            "nama_se": "BLAZE OF BATTLE",
            "sektor": "Sektor Teknologi Informasi dan Komunikasi",
            "tanggal_terbit": "2022-08-16",
            "url_tdpse_detail": "https://pse.komdigi.go.id/tdpse-detail/10443",
            "website": "leyi-game.com"
        },
        {
            "id": "9cb1abfd-77db-42d9-86e1-43180d1f9ee8",
            "nama_pse": "HOSTINGER INTERNATIONAL LIMITED",
            "nama_se": "HOSTINGER",
            "sektor": "Sektor Teknologi Informasi dan Komunikasi",
            "tanggal_terbit": "2022-08-16",
            "url_tdpse_detail": "https://pse.komdigi.go.id/tdpse-detail/10444",
            "website": "hostinger.com"
        },
        {
            "id": "9cb1abd7-0a4b-44f4-81cf-6c86702bd0bf",
            "nama_pse": "UNION READ LIMITED",
            "nama_se": "JOYREAD IOS",
            "sektor": "Sektor Teknologi Informasi dan Komunikasi",
            "tanggal_terbit": "2022-08-15",
            "url_tdpse_detail": "https://pse.komdigi.go.id/tdpse-detail/10352",
            "website": "joyread.com"
        },
        {
            "id": "9cb1abfc-f643-4dbe-ae4d-ada540179d27",
            "nama_pse": "UNION READ LIMITED",
            "nama_se": "JOYREAD ANDROID",
            "sektor": "Sektor Teknologi Informasi dan Komunikasi",
            "tanggal_terbit": "2022-08-15",
            "url_tdpse_detail": "https://pse.komdigi.go.id/tdpse-detail/10353",
            "website": "joyread.com"
        },
        {
            "id": "9cb1abfd-1db1-457c-afa5-0e0c348641fd",
            "nama_pse": "HISAVANA",
            "nama_se": "HISAVANA",
            "sektor": "Sektor Teknologi Informasi dan Komunikasi",
            "tanggal_terbit": "2022-08-15",
            "url_tdpse_detail": "https://pse.komdigi.go.id/tdpse-detail/10369",
            "website": "hisavana.com"
        },
        {
            "id": "9cb1abd7-343b-4a0d-a509-c45a809716ac",
            "nama_pse": "STAFFANY PRIVATE LIMITED",
            "nama_se": "STAFFANY",
            "sektor": "Sektor Perdagangan",
            "tanggal_terbit": "2022-08-15",
            "url_tdpse_detail": "https://pse.komdigi.go.id/tdpse-detail/10378",
            "website": "staffany.com"
        },
        {
            "id": "9cb1abd7-37d2-469d-9ee2-cbbb19a2da5e",
            "nama_pse": "AKURA PTE. LTD.",
            "nama_se": "FICNOVEL",
            "sektor": "Sektor Teknologi Informasi dan Komunikasi",
            "tanggal_terbit": "2022-08-15",
            "url_tdpse_detail": "https://pse.komdigi.go.id/tdpse-detail/10381",
            "website": "ficnovel.net"
        },
        {
            "id": "9cb1abd6-d1d0-4d92-94f1-ff26482723ba",
            "nama_pse": "LEGRAND FRANCE",
            "nama_se": "HOME+CONTROL",
            "sektor": "Sektor Teknologi Informasi dan Komunikasi",
            "tanggal_terbit": "2022-08-12",
            "url_tdpse_detail": "https://pse.komdigi.go.id/tdpse-detail/10280",
            "website": "home.netatmo.com"
        },
        {
            "id": "9cb1abd6-d635-4c77-b3ac-d0acf75cdecd",
            "nama_pse": "LEGRAND FRANCE",
            "nama_se": "HOME+SECURITY",
            "sektor": "Sektor Teknologi Informasi dan Komunikasi",
            "tanggal_terbit": "2022-08-12",
            "url_tdpse_detail": "https://pse.komdigi.go.id/tdpse-detail/10281",
            "website": "home.netatmo.com"
        },
        {
            "id": "9cb1abd6-d958-4769-ab7a-f548448508be",
            "nama_pse": "ALEF EDUCATION CONSULTANCY LLC",
            "nama_se": "ALEF EDUCATION PLATFORM",
            "sektor": "Sektor Teknologi Informasi dan Komunikasi",
            "tanggal_terbit": "2022-08-12",
            "url_tdpse_detail": "https://pse.komdigi.go.id/tdpse-detail/10285",
            "website": "alef.co.id"
        },
        {
            "id": "9cb1abfc-3f5d-428c-abae-26a622f78330",
            "nama_pse": "Valve Corporation",
            "nama_se": "STEAM",
            "sektor": "Sektor Teknologi Informasi dan Komunikasi",
            "tanggal_terbit": "2022-08-11",
            "url_tdpse_detail": "https://pse.komdigi.go.id/tdpse-detail/10208",
            "website": "Steampowered.com"
        },
        {
            "id": "9cb1abd6-40e9-402e-8494-7d8152b100ad",
            "nama_pse": "Valve Corporation",
            "nama_se": "COUNTER-STRIKE: GLOBAL OFFENSIVE (CS:GO)",
            "sektor": "Sektor Teknologi Informasi dan Komunikasi",
            "tanggal_terbit": "2022-08-11",
            "url_tdpse_detail": "https://pse.komdigi.go.id/tdpse-detail/10209",
            "website": "Counter-strike.net"
        },
        {
            "id": "9cb1ac0b-4e32-421d-be52-f301432ad0b6",
            "nama_pse": "Valve Corporation",
            "nama_se": "DOTA2",
            "sektor": "Sektor Teknologi Informasi dan Komunikasi",
            "tanggal_terbit": "2022-08-11",
            "url_tdpse_detail": "https://pse.komdigi.go.id/tdpse-detail/10210",
            "website": "dota2.com"
        },
        {
            "id": "9cb1abd6-43e8-4955-879d-f65ff61f42fb",
            "nama_pse": "HONG KONG TOUDA CO., LIMITED",
            "nama_se": "ORB MASTER",
            "sektor": "Sektor Teknologi Informasi dan Komunikasi",
            "tanggal_terbit": "2022-08-11",
            "url_tdpse_detail": "https://pse.komdigi.go.id/tdpse-detail/10211",
            "website": "-"
        },
        {
            "id": "9cb1abfc-4718-4fd5-9165-10612c00fc18",
            "nama_pse": "PLAYBSET LIMITED",
            "nama_se": "DYNASTY HEROES: ROMANCE SAMKOK",
            "sektor": "Sektor Teknologi Informasi dan Komunikasi",
            "tanggal_terbit": "2022-08-11",
            "url_tdpse_detail": "https://pse.komdigi.go.id/tdpse-detail/10215",
            "website": "romancesamkok.com"
        },
        {
            "id": "9cb1ac0b-63fc-4ea8-875e-e066509a9d8c",
            "nama_pse": "Rivergame Limited",
            "nama_se": "TOP WAR: BATTLE GAME",
            "sektor": "Sektor Teknologi Informasi dan Komunikasi",
            "tanggal_terbit": "2022-08-11",
            "url_tdpse_detail": "https://pse.komdigi.go.id/tdpse-detail/10224",
            "website": "rivergame.net"
        },
        {
            "id": "9cb1ac0b-67b9-4d2d-b1ca-870f34271684",
            "nama_pse": "BATTUTA TECHNOLOGY PTE.LTD.",
            "nama_se": "LITA - MEET GAMER FRIENDS",
            "sektor": "Sektor Teknologi Informasi dan Komunikasi",
            "tanggal_terbit": "2022-08-11",
            "url_tdpse_detail": "https://pse.komdigi.go.id/tdpse-detail/10231",
            "website": "lita.gg"
        }
    ],
    "processingTimeMs": 2,
    "query": "",
    "totalHits": 1139,
    "hitsPerPage": 50,
    "page": 17,
    "totalPages": 23
}