{
    "hits": [
        {
            "id": "9cb1abf5-61ae-4f86-831f-65c25304c2c1",
            "nama_pse": "BRAVO UNICORN PTE. LTD.",
            "nama_se": "OPPO THEMESTORE",
            "sektor": "Sektor Perdagangan",
            "tanggal_terbit": "2022-07-27",
            "url_tdpse_detail": "https://pse.komdigi.go.id/tdpse-detail/9208",
            "website": "developers.oppomobile.com"
        },
        {
            "id": "9cb1abbe-80e7-49f6-b829-b8c4986674a1",
            "nama_pse": "BRAVO UNICORN PTE. LTD.",
            "nama_se": "OPPO BROWSER",
            "sektor": "Sektor Teknologi Informasi dan Komunikasi",
            "tanggal_terbit": "2022-07-27",
            "url_tdpse_detail": "https://pse.komdigi.go.id/tdpse-detail/9209",
            "website": "developers.oppomobile.com"
        },
        {
            "id": "9cb1abf5-6552-4d13-882d-2241dad828cf",
            "nama_pse": "WINK TECHNOLOGY PTE. LTD.",
            "nama_se": "OMI APPLICATION",
            "sektor": "Sektor Teknologi Informasi dan Komunikasi",
            "tanggal_terbit": "2022-07-27",
            "url_tdpse_detail": "https://pse.komdigi.go.id/tdpse-detail/9210",
            "website": "omi.sg"
        },
        {
            "id": "9cb1abf5-6963-410e-b221-185b26be0538",
            "nama_pse": "VNG SINGAPORE PTE., LTD.",
            "nama_se": "[MUMSEA] MU Strongest - WEBZEN Officially Authorized",
            "sektor": "Sektor Teknologi Informasi dan Komunikasi",
            "tanggal_terbit": "2022-07-27",
            "url_tdpse_detail": "https://pse.komdigi.go.id/tdpse-detail/9211",
            "website": "mustrongestsea.vnggames.net"
        },
        {
            "id": "9cb1abbe-870e-4c53-a24b-da32484a7f33",
            "nama_pse": "VNG CORPORATION",
            "nama_se": "YS6 MOBILE VNG",
            "sektor": "Sektor Teknologi Informasi dan Komunikasi",
            "tanggal_terbit": "2022-07-27",
            "url_tdpse_detail": "https://pse.komdigi.go.id/tdpse-detail/9212",
            "website": "ys6.vnggames.com"
        },
        {
            "id": "9cb1abf5-6c8b-4f15-a389-830c50852888",
            "nama_pse": "ADRIAN ANAND AMBROSE",
            "nama_se": "FCS SOLUTIONS",
            "sektor": "Sektor Teknologi Informasi dan Komunikasi",
            "tanggal_terbit": "2022-07-27",
            "url_tdpse_detail": "https://pse.komdigi.go.id/tdpse-detail/9215",
            "website": "fcscs.com"
        },
        {
            "id": "9cb1abcc-98d2-4f48-a4a2-ba27443c7d05",
            "nama_pse": "ESKYFUN GAME",
            "nama_se": "ESKYFUN GAME",
            "sektor": "Sektor Teknologi Informasi dan Komunikasi",
            "tanggal_terbit": "2022-07-22",
            "url_tdpse_detail": "https://pse.komdigi.go.id/tdpse-detail/8768",
            "website": "forevergamehome.com"
        },
        {
            "id": "9cb1abcc-9bfa-45b4-9e46-172d8ec2025d",
            "nama_pse": "AKURA PTE. LTD.",
            "nama_se": "KUBACA",
            "sektor": "Sektor Teknologi Informasi dan Komunikasi",
            "tanggal_terbit": "2022-07-22",
            "url_tdpse_detail": "https://pse.komdigi.go.id/tdpse-detail/8769",
            "website": "play.google.com/store/apps/details?id=com.reader.kubaca"
        },
        {
            "id": "9cb1abbc-a3e6-41df-9a79-5c9b8c4dbd60",
            "nama_pse": "MIHCM ASIA",
            "nama_se": "MIHCM",
            "sektor": "Sektor Teknologi Informasi dan Komunikasi",
            "tanggal_terbit": "2022-07-22",
            "url_tdpse_detail": "https://pse.komdigi.go.id/tdpse-detail/8770",
            "website": "mihcm.com"
        },
        {
            "id": "9cb1abf2-57a7-4366-a2da-808c733a5e91",
            "nama_pse": "XD ENTERTAINMENT PTE. LTD.",
            "nama_se": "SAUSAGE MAN",
            "sektor": "Sektor Teknologi Informasi dan Komunikasi",
            "tanggal_terbit": "2022-07-22",
            "url_tdpse_detail": "https://pse.komdigi.go.id/tdpse-detail/8771",
            "website": "sausageman.xd.com; play.google.com/store/search?q=sausage+man\u0026c=apps; apps.apple.com/id/app/sausage-man/id1563750315?l=id; taptap.io/app/211926"
        },
        {
            "id": "9cb1abf2-5c6d-49d6-9735-422a6008ca65",
            "nama_pse": "XD ENTERTAINMENT PTE. LTD.",
            "nama_se": "T3 ARENA",
            "sektor": "Sektor Teknologi Informasi dan Komunikasi",
            "tanggal_terbit": "2022-07-22",
            "url_tdpse_detail": "https://pse.komdigi.go.id/tdpse-detail/8772",
            "website": "apps.apple.com/us/app/t3-arena/id1602814337; taptap.io/app/219804"
        },
        {
            "id": "9cb1abf2-60ff-4813-bfde-70463400f5d8",
            "nama_pse": "XD ENTERTAINMENT PTE. LTD.",
            "nama_se": "FLASH PARTY",
            "sektor": "Sektor Teknologi Informasi dan Komunikasi",
            "tanggal_terbit": "2022-07-22",
            "url_tdpse_detail": "https://pse.komdigi.go.id/tdpse-detail/8773",
            "website": "apps.apple.com/us/app/flash-party/id1579850555; taptap.io/app/211926"
        },
        {
            "id": "9cb1abca-5068-46ac-942d-8e752bc28fac",
            "nama_pse": "VIVO MOBILE COMMUNICATION CO., LTD.",
            "nama_se": "SHOP.VIVO.COM",
            "sektor": "Sektor Teknologi Informasi dan Komunikasi",
            "tanggal_terbit": "2022-07-21",
            "url_tdpse_detail": "https://pse.komdigi.go.id/tdpse-detail/8456",
            "website": "shop.vivo.com/id/"
        },
        {
            "id": "9cb1abca-5752-4703-9e44-6dbc26377147",
            "nama_pse": "VIVO MOBILE COMMUNICATION CO., LTD.",
            "nama_se": "VIVO.COM APPLICATION",
            "sektor": "Sektor Teknologi Informasi dan Komunikasi",
            "tanggal_terbit": "2022-07-21",
            "url_tdpse_detail": "https://pse.komdigi.go.id/tdpse-detail/8457",
            "website": "asia-expweb.vivo.com"
        },
        {
            "id": "9cb1abf0-4778-4ec7-8beb-492aaf553fea",
            "nama_pse": "VIVO MOBILE COMMUNICATION CO., LTD.",
            "nama_se": "VIVO BROWSER",
            "sektor": "Sektor Teknologi Informasi dan Komunikasi",
            "tanggal_terbit": "2022-07-21",
            "url_tdpse_detail": "https://pse.komdigi.go.id/tdpse-detail/8458",
            "website": "asia-browser.vivoglobal.com"
        },
        {
            "id": "9cb1abbb-a720-4f52-b5bc-cf80a8fceb21",
            "nama_pse": "VIVO MOBILE COMMUNICATION CO., LTD.",
            "nama_se": "VIVO BROWSER",
            "sektor": "Sektor Teknologi Informasi dan Komunikasi",
            "tanggal_terbit": "2022-07-21",
            "url_tdpse_detail": "https://pse.komdigi.go.id/tdpse-detail/8459",
            "website": "asia-browser.vivoglobal.com"
        },
        {
            "id": "9cb1abbb-a990-4dc1-a45d-9b7f7a54eb04",
            "nama_pse": "VIVO MOBILE COMMUNICATION CO., LTD.",
            "nama_se": "VIVO GAME CENTER",
            "sektor": "Sektor Teknologi Informasi dan Komunikasi",
            "tanggal_terbit": "2022-07-21",
            "url_tdpse_detail": "https://pse.komdigi.go.id/tdpse-detail/8460",
            "website": "pay.vivoglobal.com"
        },
        {
            "id": "9cb1abf0-4c8b-4e50-b17c-12e9be5dabf6",
            "nama_pse": "VIVO MOBILE COMMUNICATION CO., LTD.",
            "nama_se": "VIVO GAME CENTER",
            "sektor": "Sektor Teknologi Informasi dan Komunikasi",
            "tanggal_terbit": "2022-07-21",
            "url_tdpse_detail": "https://pse.komdigi.go.id/tdpse-detail/8461",
            "website": "asia-gamecenter.vivoglobal.com"
        },
        {
            "id": "9cb1abf0-4fb2-4356-9fca-5268fe0a844b",
            "nama_pse": "VIVO MOBILE COMMUNICATION CO., LTD.",
            "nama_se": "VIVO GAME CENTER",
            "sektor": "Sektor Teknologi Informasi dan Komunikasi",
            "tanggal_terbit": "2022-07-21",
            "url_tdpse_detail": "https://pse.komdigi.go.id/tdpse-detail/8462",
            "website": "payglobal.vivo.com"
        },
        {
            "id": "9cb1abf0-5b17-4832-810c-852f15a0a92a",
            "nama_pse": "VIVO MOBILE COMMUNICATION CO., LTD.",
            "nama_se": "VIVO GAME CENTER",
            "sektor": "Sektor Teknologi Informasi dan Komunikasi",
            "tanggal_terbit": "2022-07-21",
            "url_tdpse_detail": "https://pse.komdigi.go.id/tdpse-detail/8463",
            "website": "in-gamecenter.vivoglobal.com"
        },
        {
            "id": "9cb1abf0-5e2e-4fb0-b2cf-7deca69d93ef",
            "nama_pse": "VIVO MOBILE COMMUNICATION CO., LTD.",
            "nama_se": "VIVO.COM OFFICIAL WEBSITE",
            "sektor": "Sektor Teknologi Informasi dan Komunikasi",
            "tanggal_terbit": "2022-07-21",
            "url_tdpse_detail": "https://pse.komdigi.go.id/tdpse-detail/8464",
            "website": "vivo.com/id/"
        },
        {
            "id": "9cb1abca-5bb0-446c-9d48-2e79ac359bbc",
            "nama_pse": "VIVO MOBILE COMMUNICATION CO., LTD.",
            "nama_se": "VIVO.COM APPLICATION",
            "sektor": "Sektor Teknologi Informasi dan Komunikasi",
            "tanggal_terbit": "2022-07-21",
            "url_tdpse_detail": "https://pse.komdigi.go.id/tdpse-detail/8465",
            "website": "asia-expweb.vivo.com"
        },
        {
            "id": "9cb1abf0-623d-4756-90a7-cb046a7e1eec",
            "nama_pse": "VIVO MOBILE COMMUNICATION CO., LTD.",
            "nama_se": "VIVO BROWSER",
            "sektor": "Sektor Teknologi Informasi dan Komunikasi",
            "tanggal_terbit": "2022-07-21",
            "url_tdpse_detail": "https://pse.komdigi.go.id/tdpse-detail/8466",
            "website": "asia-browser.vivoglobal.com"
        },
        {
            "id": "9cb1abbb-ac29-409f-b5ec-f7e67e321db2",
            "nama_pse": "VIVO MOBILE COMMUNICATION CO., LTD.",
            "nama_se": "VIVO BROWSER",
            "sektor": "Sektor Teknologi Informasi dan Komunikasi",
            "tanggal_terbit": "2022-07-21",
            "url_tdpse_detail": "https://pse.komdigi.go.id/tdpse-detail/8467",
            "website": "asia-browser.vivoglobal.com"
        },
        {
            "id": "9cb1abbb-aee4-4c9f-8b4d-21842a2f1518",
            "nama_pse": "VIVO MOBILE COMMUNICATION CO., LTD.",
            "nama_se": "VIVO GAME CENTER",
            "sektor": "Sektor Teknologi Informasi dan Komunikasi",
            "tanggal_terbit": "2022-07-21",
            "url_tdpse_detail": "https://pse.komdigi.go.id/tdpse-detail/8468",
            "website": "payglobal.vivo.com"
        },
        {
            "id": "9cb1abf0-65c3-4d77-be64-2097f09202f5",
            "nama_pse": "VIVO MOBILE COMMUNICATION CO., LTD.",
            "nama_se": "VIVO.COM OFFICIAL WEBSITE",
            "sektor": "Sektor Teknologi Informasi dan Komunikasi",
            "tanggal_terbit": "2022-07-21",
            "url_tdpse_detail": "https://pse.komdigi.go.id/tdpse-detail/8469",
            "website": "vivo.com/id/"
        },
        {
            "id": "9cb1abf0-690e-4508-9bf8-a89e6474fe63",
            "nama_pse": "VIVO MOBILE COMMUNICATION CO., LTD.",
            "nama_se": "VIVO GAME CENTER",
            "sektor": "Sektor Teknologi Informasi dan Komunikasi",
            "tanggal_terbit": "2022-07-21",
            "url_tdpse_detail": "https://pse.komdigi.go.id/tdpse-detail/8470",
            "website": "in-gamecenter.vivoglobal.com"
        },
        {
            "id": "9cb1abf0-6c7d-4599-a86a-e31fa46d3638",
            "nama_pse": "VIVO MOBILE COMMUNICATION CO., LTD.",
            "nama_se": "VIVO OFFICIAL E-STORE",
            "sektor": "Sektor Teknologi Informasi dan Komunikasi",
            "tanggal_terbit": "2022-07-21",
            "url_tdpse_detail": "https://pse.komdigi.go.id/tdpse-detail/8471",
            "website": "shop.vivo.com/id/"
        },
        {
            "id": "9cb1abbb-b0e1-4f92-a5c1-2e930307b440",
            "nama_pse": "VIVO MOBILE COMMUNICATION CO., LTD.",
            "nama_se": "VIVO GAME CENTER",
            "sektor": "Sektor Teknologi Informasi dan Komunikasi",
            "tanggal_terbit": "2022-07-21",
            "url_tdpse_detail": "https://pse.komdigi.go.id/tdpse-detail/8472",
            "website": "asia-gamecenter.vivoglobal.com"
        },
        {
            "id": "9cb1abbb-b2d4-48f4-9405-a1f6edd20962",
            "nama_pse": "VIVO MOBILE COMMUNICATION CO., LTD.",
            "nama_se": "VIVO GAME CENTER",
            "sektor": "Sektor Teknologi Informasi dan Komunikasi",
            "tanggal_terbit": "2022-07-21",
            "url_tdpse_detail": "https://pse.komdigi.go.id/tdpse-detail/8473",
            "website": "pay.vivoglobal.com"
        },
        {
            "id": "9cb1abf0-7582-4953-a04c-4b187c5e6fd0",
            "nama_pse": "B.I.G TECHNOLOGY CO., LIMITED",
            "nama_se": "LUDO DREAM",
            "sektor": "Sektor Teknologi Informasi dan Komunikasi",
            "tanggal_terbit": "2022-07-21",
            "url_tdpse_detail": "https://pse.komdigi.go.id/tdpse-detail/8475",
            "website": "play.google.com/store/apps/details?id=com.neptune.ludo"
        },
        {
            "id": "9cb1abbb-b4c2-4120-94ed-abbba00d1f59",
            "nama_pse": "MANGODICKS, INC",
            "nama_se": "MANGODICKS, INC",
            "sektor": "Sektor Teknologi Informasi dan Komunikasi",
            "tanggal_terbit": "2022-07-21",
            "url_tdpse_detail": "https://pse.komdigi.go.id/tdpse-detail/8477",
            "website": "mangodicks.org"
        },
        {
            "id": "9cb1abbb-b6c2-4400-a1a9-390b674bbafe",
            "nama_pse": "WWF-WORLD WIDE FUND FOR NATURE (SINGAPORE) LIMITED",
            "nama_se": "HAMURNI APP",
            "sektor": "Sektor Teknologi Informasi dan Komunikasi",
            "tanggal_terbit": "2022-07-21",
            "url_tdpse_detail": "https://pse.komdigi.go.id/tdpse-detail/8480",
            "website": "hamurni.com"
        },
        {
            "id": "9cb1abeb-1cac-454d-b193-cefcc7bf1c21",
            "nama_pse": "TWITTER, INC.",
            "nama_se": "TWITTER",
            "sektor": "Sektor Teknologi Informasi dan Komunikasi",
            "tanggal_terbit": "2022-07-20",
            "url_tdpse_detail": "https://pse.komdigi.go.id/tdpse-detail/7663",
            "website": "twitter.com"
        },
        {
            "id": "9cb1abed-f9ac-44fb-8493-90e916f24b04",
            "nama_pse": "GETVERIFY LDA",
            "nama_se": "GETCONTACT",
            "sektor": "Sektor Teknologi Informasi dan Komunikasi",
            "tanggal_terbit": "2022-07-20",
            "url_tdpse_detail": "https://pse.komdigi.go.id/tdpse-detail/8133",
            "website": "getcontact.com"
        },
        {
            "id": "9cb1abc7-e56f-428b-a9ae-683bc646635a",
            "nama_pse": "PING PONG GLOBAL HOLDINGS LIMITED",
            "nama_se": "PINGPONG",
            "sektor": "Sektor Keuangan",
            "tanggal_terbit": "2022-07-20",
            "url_tdpse_detail": "https://pse.komdigi.go.id/tdpse-detail/8134",
            "website": "pingpongx.com"
        },
        {
            "id": "9cb1abee-090e-4159-acf5-cdfce3e107ed",
            "nama_pse": "GAMELOFT SE",
            "nama_se": "GAMELOFT",
            "sektor": "Sektor Teknologi Informasi dan Komunikasi",
            "tanggal_terbit": "2022-07-20",
            "url_tdpse_detail": "https://pse.komdigi.go.id/tdpse-detail/8139",
            "website": "gameloft.com"
        },
        {
            "id": "9cb1abc8-0567-42ce-85fb-3013ff255005",
            "nama_pse": "COOKPAD INC",
            "nama_se": "COOKPAD",
            "sektor": "Sektor Teknologi Informasi dan Komunikasi",
            "tanggal_terbit": "2022-07-20",
            "url_tdpse_detail": "https://pse.komdigi.go.id/tdpse-detail/8143",
            "website": "cookpad.com"
        },
        {
            "id": "9cb1abba-87b5-4d43-b9cd-c31733b6ebff",
            "nama_pse": "TIANJIN HAORANYOU LIMITED",
            "nama_se": "AUTOCHESS MOBA",
            "sektor": "Sektor Teknologi Informasi dan Komunikasi",
            "tanggal_terbit": "2022-07-20",
            "url_tdpse_detail": "https://pse.komdigi.go.id/tdpse-detail/8146",
            "website": "autochessmoba.com"
        },
        {
            "id": "9cb1abee-1041-43af-9ac1-71df3845b718",
            "nama_pse": "GMILLION",
            "nama_se": "GMILLION",
            "sektor": "Sektor Teknologi Informasi dan Komunikasi",
            "tanggal_terbit": "2022-07-20",
            "url_tdpse_detail": "https://pse.komdigi.go.id/tdpse-detail/8147",
            "website": "gmillion.io"
        },
        {
            "id": "9cb1abee-1482-4636-96e0-1a696ac0deb9",
            "nama_pse": "CLEVERBRIDGE AG",
            "nama_se": "GROW.CLEVERBRIDGE.COM",
            "sektor": "Sektor Keuangan",
            "tanggal_terbit": "2022-07-20",
            "url_tdpse_detail": "https://pse.komdigi.go.id/tdpse-detail/8148",
            "website": "store.cleverbridge.com"
        },
        {
            "id": "9cb1abee-1e3a-40aa-a770-b99a93ba3904",
            "nama_pse": "APPLE DISTRIBUTION INTERNATIONAL LIMITED",
            "nama_se": "ICLOUD",
            "sektor": "Sektor Teknologi Informasi dan Komunikasi",
            "tanggal_terbit": "2022-07-20",
            "url_tdpse_detail": "https://pse.komdigi.go.id/tdpse-detail/8149",
            "website": "icloud.com"
        },
        {
            "id": "9cb1abee-21f6-4fc9-be70-dffdc40c052d",
            "nama_pse": "APPLE DISTRIBUTION INTERNATIONAL LIMITED",
            "nama_se": "APPLE APP STORE",
            "sektor": "Sektor Teknologi Informasi dan Komunikasi",
            "tanggal_terbit": "2022-07-20",
            "url_tdpse_detail": "https://pse.komdigi.go.id/tdpse-detail/8150",
            "website": "apps.apple.com"
        },
        {
            "id": "9cb1abc8-14ce-43f0-8472-02c0721798b5",
            "nama_pse": "LOUVRE HOTELS GROUP",
            "nama_se": "WWW.KYRIAD.COM",
            "sektor": "Sektor Teknologi Informasi dan Komunikasi",
            "tanggal_terbit": "2022-07-20",
            "url_tdpse_detail": "https://pse.komdigi.go.id/tdpse-detail/8153",
            "website": "kyriad.com"
        },
        {
            "id": "9cb1abc8-186b-4107-b2be-d960ee45f8da",
            "nama_pse": "LOUVRE HOTELS GROUP",
            "nama_se": "WWW.GOLDENTULIP.COM",
            "sektor": "Sektor Teknologi Informasi dan Komunikasi",
            "tanggal_terbit": "2022-07-20",
            "url_tdpse_detail": "https://pse.komdigi.go.id/tdpse-detail/8154",
            "website": "goldentulip.com"
        },
        {
            "id": "9cb1abc8-2572-4d06-8ac6-a0e7eee57c7c",
            "nama_pse": "ZOOM VIDEO COMMUNICATIONS, INC.",
            "nama_se": "ZOOM.US",
            "sektor": "Sektor Teknologi Informasi dan Komunikasi",
            "tanggal_terbit": "2022-07-20",
            "url_tdpse_detail": "https://pse.komdigi.go.id/tdpse-detail/8157",
            "website": "zoom.us"
        },
        {
            "id": "9cb1abba-8c35-4128-b79f-7d0af1753322",
            "nama_pse": "ELEMENT INC.",
            "nama_se": "ELEMENT INC.",
            "sektor": "Sektor Teknologi Informasi dan Komunikasi",
            "tanggal_terbit": "2022-07-20",
            "url_tdpse_detail": "https://pse.komdigi.go.id/tdpse-detail/8159",
            "website": "discoverelement.com"
        },
        {
            "id": "9cb1abee-4592-4d5b-8aac-01f5a8468050",
            "nama_pse": "STARY PTE. LTD.",
            "nama_se": "INNOVEL",
            "sektor": "Sektor Teknologi Informasi dan Komunikasi",
            "tanggal_terbit": "2022-07-20",
            "url_tdpse_detail": "https://pse.komdigi.go.id/tdpse-detail/8192",
            "website": "play.google.com/store/apps/details?id=com.dreame.reader.indonesia\u0026hl=en_US\u0026gl=US; https://apps.apple.com/us/app/innovel/id1529082813"
        },
        {
            "id": "9cb1abee-4a35-4fd5-be7c-23dd3766c761",
            "nama_pse": "STARY PTE. LTD.",
            "nama_se": "DREAME",
            "sektor": "Sektor Teknologi Informasi dan Komunikasi",
            "tanggal_terbit": "2022-07-20",
            "url_tdpse_detail": "https://pse.komdigi.go.id/tdpse-detail/8193",
            "website": "play.google.com/store/apps/details?id=com.dreame.reader\u0026hl=en_US\u0026gl=US; https://apps.apple.com/au/app/dreame-read-best-romance/id1421091911"
        },
        {
            "id": "9cb1abc8-9067-4704-ad6d-010a13b020a9",
            "nama_pse": "HAPPY ELEMENTS LIMITED",
            "nama_se": "ENSEMBLE STARS MUSIC",
            "sektor": "Sektor Teknologi Informasi dan Komunikasi",
            "tanggal_terbit": "2022-07-20",
            "url_tdpse_detail": "https://pse.komdigi.go.id/tdpse-detail/8219",
            "website": "ensemblestars.com"
        }
    ],
    "processingTimeMs": 2,
    "query": "",
    "totalHits": 1139,
    "hitsPerPage": 50,
    "page": 20,
    "totalPages": 23
}