{
    "hits": [
        {
            "id": "9cb1ac38-2223-45ca-bbcc-c66c782dec83",
            "nama_pse": "EXPTIONAL PTE LTD",
            "nama_se": "EGGY PARTY",
            "sektor": "Sektor Teknologi Informasi dan Komunikasi",
            "tanggal_terbit": "2023-07-22",
            "url_tdpse_detail": "https://pse.komdigi.go.id/tdpse-detail/15370",
            "website": "eggyparty.com"
        },
        {
            "id": "9cb1ac38-247c-4f34-8998-4b164b28429e",
            "nama_pse": "EXPTIONAL PTE LTD",
            "nama_se": "TANK COMPANY",
            "sektor": "Sektor Teknologi Informasi dan Komunikasi",
            "tanggal_terbit": "2023-07-22",
            "url_tdpse_detail": "https://pse.komdigi.go.id/tdpse-detail/15371",
            "website": "tankcompany.game"
        },
        {
            "id": "9cb1ac47-f913-4136-81ff-09b7d85cea99",
            "nama_pse": "EXPTIONAL PTE LTD",
            "nama_se": "LOVEBRUSH CHRONICLES",
            "sektor": "Sektor Teknologi Informasi dan Komunikasi",
            "tanggal_terbit": "2023-07-22",
            "url_tdpse_detail": "https://pse.komdigi.go.id/tdpse-detail/15372",
            "website": "foralltime.jp"
        },
        {
            "id": "9cb1ac37-db50-44f0-ad86-a145c717d404",
            "nama_pse": "RIMINI STREET, INC.",
            "nama_se": "RIMINI STREET",
            "sektor": "Sektor Teknologi Informasi dan Komunikasi",
            "tanggal_terbit": "2023-07-21",
            "url_tdpse_detail": "https://pse.komdigi.go.id/tdpse-detail/15349",
            "website": "riministreet.com"
        },
        {
            "id": "9cb1ac37-e4f9-4530-8eba-a8b8ae8a4d98",
            "nama_pse": "PULSECRAFT PTE LTD",
            "nama_se": "HARRY POTTER: MAGIC AWAKENED",
            "sektor": "Sektor Teknologi Informasi dan Komunikasi",
            "tanggal_terbit": "2023-07-21",
            "url_tdpse_detail": "https://pse.komdigi.go.id/tdpse-detail/15353",
            "website": "harrypottermagicawakened.com"
        },
        {
            "id": "9cb1ac37-eb07-4eea-86ab-c18848bee2d7",
            "nama_pse": "LITING XU",
            "nama_se": "FINEASY",
            "sektor": "Sektor Keuangan",
            "tanggal_terbit": "2023-07-21",
            "url_tdpse_detail": "https://pse.komdigi.go.id/tdpse-detail/15354",
            "website": "finosfin.com"
        },
        {
            "id": "9cb1ac47-f35a-4cd6-b6ea-0c5786667077",
            "nama_pse": "YPISOFT ENTERTAINMENT PTE LTD",
            "nama_se": "PATH TO OCEAN KING",
            "sektor": "Sektor Teknologi Informasi dan Komunikasi",
            "tanggal_terbit": "2023-07-21",
            "url_tdpse_detail": "https://pse.komdigi.go.id/tdpse-detail/15365",
            "website": "ypigames.com"
        },
        {
            "id": "9cb1ac37-b740-4f9f-8b70-1d03b19cf580",
            "nama_pse": "NOVA NEXUS INDONESIA",
            "nama_se": "BELUM TERSEDIA",
            "sektor": "Sektor Teknologi Informasi dan Komunikasi",
            "tanggal_terbit": "2023-07-18",
            "url_tdpse_detail": "https://pse.komdigi.go.id/tdpse-detail/15320",
            "website": "-"
        },
        {
            "id": "9cb1ac37-b39f-47f0-877b-a2c106cf29b7",
            "nama_pse": "WE SONG (HONG KONG) LIMITED",
            "nama_se": "JOOX MUSIC",
            "sektor": "Sektor Teknologi Informasi dan Komunikasi",
            "tanggal_terbit": "2023-07-17",
            "url_tdpse_detail": "https://pse.komdigi.go.id/tdpse-detail/15318",
            "website": "joox.com"
        },
        {
            "id": "9cb1ac47-9a42-4653-8800-e4daba78c073",
            "nama_pse": "TWILIO Inc.",
            "nama_se": "TWILIO PROGRAMMABLE MESSAGING",
            "sektor": "Sektor Teknologi Informasi dan Komunikasi",
            "tanggal_terbit": "2023-07-17",
            "url_tdpse_detail": "https://pse.komdigi.go.id/tdpse-detail/15319",
            "website": "Twilio.com"
        },
        {
            "id": "9cb1ac25-5a91-4d32-9bc2-5d9674033168",
            "nama_pse": "FAMOUSHEART",
            "nama_se": "MADTALE: IDLE RPG",
            "sektor": "Sektor Teknologi Informasi dan Komunikasi",
            "tanggal_terbit": "2023-07-14",
            "url_tdpse_detail": "https://pse.komdigi.go.id/tdpse-detail/15316",
            "website": "madtale.archosaur.com"
        },
        {
            "id": "9cb1ac37-b00e-4727-b53b-0e08131bdcc5",
            "nama_pse": "FAMOUSHEART",
            "nama_se": "LIFE MAKEOVER",
            "sektor": "Sektor Teknologi Informasi dan Komunikasi",
            "tanggal_terbit": "2023-07-14",
            "url_tdpse_detail": "https://pse.komdigi.go.id/tdpse-detail/15317",
            "website": "lifemakeover.archosaur.com"
        },
        {
            "id": "9cb1ac47-7528-4114-bccb-c05d6855f000",
            "nama_pse": "GEARUP PORTAL PTE LTD",
            "nama_se": "GEARUP CONSOLE BOOSTER",
            "sektor": "Sektor Teknologi Informasi dan Komunikasi",
            "tanggal_terbit": "2023-07-13",
            "url_tdpse_detail": "https://pse.komdigi.go.id/tdpse-detail/15309",
            "website": "gearupbooster.com"
        },
        {
            "id": "9cb1ac47-5fc6-4593-8de4-0b8c096b57d8",
            "nama_pse": "YANDEX LLC",
            "nama_se": "YANDEX",
            "sektor": "Sektor Teknologi Informasi dan Komunikasi",
            "tanggal_terbit": "2023-07-12",
            "url_tdpse_detail": "https://pse.komdigi.go.id/tdpse-detail/15292",
            "website": "yandex.com"
        },
        {
            "id": "9cb1ac37-41d2-451d-b82e-67c020ba68ba",
            "nama_pse": "TIKTOK PTE. LTD.",
            "nama_se": "TIKTOK MUSIC",
            "sektor": "Sektor Teknologi Informasi dan Komunikasi",
            "tanggal_terbit": "2023-07-05",
            "url_tdpse_detail": "https://pse.komdigi.go.id/tdpse-detail/15218",
            "website": "music.tiktok.com"
        },
        {
            "id": "9cb1ac24-b847-4879-8ab4-4264d3f1a557",
            "nama_pse": "NUVERSE (HONG KONG) LIMITED",
            "nama_se": "MISSION EVO: SURVIVOR’S BATTLEGROUNDS",
            "sektor": "Sektor Teknologi Informasi dan Komunikasi",
            "tanggal_terbit": "2023-07-05",
            "url_tdpse_detail": "https://pse.komdigi.go.id/tdpse-detail/15219",
            "website": "missionevo.com"
        },
        {
            "id": "9cb1ac24-baae-4fc6-8125-9e11bbfa83b3",
            "nama_pse": "NUVERSE (HONG KONG) LIMITED",
            "nama_se": "花亦山心之月",
            "sektor": "Sektor Teknologi Informasi dan Komunikasi",
            "tanggal_terbit": "2023-07-05",
            "url_tdpse_detail": "https://pse.komdigi.go.id/tdpse-detail/15220",
            "website": "apps.apple.com/app/id1600234315; play.google.com/store/apps/details?id=com.hermes.global.ygame"
        },
        {
            "id": "9cb1ac24-bd56-46e0-b190-cd01ace9b101",
            "nama_pse": "NUVERSE (HONG KONG) LIMITED",
            "nama_se": "LAND OF EMPIRES",
            "sektor": "Sektor Teknologi Informasi dan Komunikasi",
            "tanggal_terbit": "2023-07-05",
            "url_tdpse_detail": "https://pse.komdigi.go.id/tdpse-detail/15221",
            "website": "land-of-empires.com"
        },
        {
            "id": "9cb1ac24-dcff-43a0-a145-10a4dceeb0eb",
            "nama_pse": "SEABASS TECHNOLOGY PTE LTD",
            "nama_se": "COIN ISLAND",
            "sektor": "Sektor Teknologi Informasi dan Komunikasi",
            "tanggal_terbit": "2023-07-05",
            "url_tdpse_detail": "https://pse.komdigi.go.id/tdpse-detail/15232",
            "website": "coinisland.net"
        },
        {
            "id": "9cb1ac24-4de8-4ceb-9eb0-94627023e640",
            "nama_pse": "TRADINGVIEW, INC",
            "nama_se": "TRADINGVIEW",
            "sektor": "Sektor Teknologi Informasi dan Komunikasi",
            "tanggal_terbit": "2023-06-28",
            "url_tdpse_detail": "https://pse.komdigi.go.id/tdpse-detail/15152",
            "website": "tradingview.com"
        },
        {
            "id": "9cb1ac23-ed4a-4bf5-ad71-2eee868a3938",
            "nama_pse": "EMPLIFI CZECH REPUBLIC A. S.",
            "nama_se": "EMPLIFI SUITE",
            "sektor": "Sektor Teknologi Informasi dan Komunikasi",
            "tanggal_terbit": "2023-06-21",
            "url_tdpse_detail": "https://pse.komdigi.go.id/tdpse-detail/15073",
            "website": "emplifi.io"
        },
        {
            "id": "9cb1ac23-f0a6-43bc-a485-a126e07f007b",
            "nama_pse": "MILK PARTNERS CO., LTD",
            "nama_se": "MIL.K",
            "sektor": "Sektor Teknologi Informasi dan Komunikasi",
            "tanggal_terbit": "2023-06-21",
            "url_tdpse_detail": "https://pse.komdigi.go.id/tdpse-detail/15074",
            "website": "milkplay.com"
        },
        {
            "id": "9cb1ac23-f98b-455f-b0eb-dda4b943692b",
            "nama_pse": "INFOCOM CORPORATION",
            "nama_se": "RXPERT DRUG INFORMATION SYSTEM",
            "sektor": "Sektor Kesehatan",
            "tanggal_terbit": "2023-06-21",
            "url_tdpse_detail": "https://pse.komdigi.go.id/tdpse-detail/15079",
            "website": "infocom-dis.com"
        },
        {
            "id": "9cb1ac36-572a-4782-9821-915a8ccb4670",
            "nama_pse": "ADRIAN RAINES",
            "nama_se": "BLOODBOUND",
            "sektor": "Sektor Teknologi Informasi dan Komunikasi",
            "tanggal_terbit": "2023-06-20",
            "url_tdpse_detail": "https://pse.komdigi.go.id/tdpse-detail/15071",
            "website": "-"
        },
        {
            "id": "9cb1ac45-fc67-4c09-a3d8-97b16c868a5f",
            "nama_pse": "ADRIAN RAINES",
            "nama_se": "WOLOLO",
            "sektor": "Sektor Teknologi Informasi dan Komunikasi",
            "tanggal_terbit": "2023-06-20",
            "url_tdpse_detail": "https://pse.komdigi.go.id/tdpse-detail/15072",
            "website": "-"
        },
        {
            "id": "9cb1ac35-ec2c-4ced-a435-7cb429937f84",
            "nama_pse": "STAR SHINE ENTERTAINMENT PTE.LTD.",
            "nama_se": "STARMAKER",
            "sektor": "Sektor Perdagangan",
            "tanggal_terbit": "2023-06-13",
            "url_tdpse_detail": "https://pse.komdigi.go.id/tdpse-detail/15003",
            "website": "m.starmakerstudios.com"
        },
        {
            "id": "9cb1ac35-f652-4de9-aa20-4d1d64f57be5",
            "nama_pse": "MEDRING CO., LTD.",
            "nama_se": "MEDI",
            "sektor": "Sektor Kesehatan",
            "tanggal_terbit": "2023-06-13",
            "url_tdpse_detail": "https://pse.komdigi.go.id/tdpse-detail/15010",
            "website": "medi-cloud.id"
        },
        {
            "id": "9cb1ac23-903f-483c-8092-cbb1007c664a",
            "nama_pse": "SEASUN GAMES PTE. LTD.",
            "nama_se": "SNOWBREAK: CONTAINMENT ZONE",
            "sektor": "Sektor Teknologi Informasi dan Komunikasi",
            "tanggal_terbit": "2023-06-12",
            "url_tdpse_detail": "https://pse.komdigi.go.id/tdpse-detail/14997",
            "website": "snowbreak.amazingseasun.com"
        },
        {
            "id": "9cb1ac23-496b-441f-8844-889fa9376733",
            "nama_pse": "SAMSUNG ELECTRONICS SINGAPORE PTE. LTD.",
            "nama_se": "SAMSUNG ADS NATIVE SMART TV ADS",
            "sektor": "Sektor Teknologi Informasi dan Komunikasi",
            "tanggal_terbit": "2023-06-07",
            "url_tdpse_detail": "https://pse.komdigi.go.id/tdpse-detail/14947",
            "website": "-"
        },
        {
            "id": "9cb1ac23-3319-4001-9ab2-9a3384897971",
            "nama_pse": "PTWING",
            "nama_se": "DUNIA POKER",
            "sektor": "Sektor Perdagangan",
            "tanggal_terbit": "2023-06-06",
            "url_tdpse_detail": "https://pse.komdigi.go.id/tdpse-detail/14941",
            "website": "-"
        },
        {
            "id": "9cb1ac44-ff66-4aa0-96cb-1818f107a28c",
            "nama_pse": "DYNAMIC ACE GLOBAL SDN. BHD.",
            "nama_se": "WEBSITE",
            "sektor": "Sektor Perdagangan",
            "tanggal_terbit": "2023-06-01",
            "url_tdpse_detail": "https://pse.komdigi.go.id/tdpse-detail/14924",
            "website": "dynaceglobal.com"
        },
        {
            "id": "9cb1ac44-f2ef-47d6-b27b-e56b23ddbf34",
            "nama_pse": "HATI INTERNATIONAL SDN BHD",
            "nama_se": "MEDCARE",
            "sektor": "Sektor Kesehatan",
            "tanggal_terbit": "2023-05-31",
            "url_tdpse_detail": "https://pse.komdigi.go.id/tdpse-detail/14917",
            "website": "hatiintl.com"
        },
        {
            "id": "9cb1ac35-616f-4692-9bed-960cb2cbb4c4",
            "nama_pse": "HATI INTERNATIONAL SDN BHD",
            "nama_se": "MYKARE 360",
            "sektor": "Sektor Kesehatan",
            "tanggal_terbit": "2023-05-31",
            "url_tdpse_detail": "https://pse.komdigi.go.id/tdpse-detail/14918",
            "website": "hatiintl.com"
        },
        {
            "id": "9cb1ac44-f584-4f74-a18b-56626709aa04",
            "nama_pse": "HATI INTERNATIONAL SDN BHD",
            "nama_se": "CLINICARE",
            "sektor": "Sektor Kesehatan",
            "tanggal_terbit": "2023-05-31",
            "url_tdpse_detail": "https://pse.komdigi.go.id/tdpse-detail/14919",
            "website": "hatiintl.com"
        },
        {
            "id": "9cb1ac44-f98d-412d-b772-92250b22f9e6",
            "nama_pse": "HATI INTERNATIONAL SDN BHD",
            "nama_se": "BICARE",
            "sektor": "Sektor Kesehatan",
            "tanggal_terbit": "2023-05-31",
            "url_tdpse_detail": "https://pse.komdigi.go.id/tdpse-detail/14920",
            "website": "hatiintl.com"
        },
        {
            "id": "9cb1ac44-ea39-4c3e-8fef-6045753f5509",
            "nama_pse": "VNG SINGAPORE PTE., LTD.",
            "nama_se": "REVELATION: INFINITE JOURNEY",
            "sektor": "Sektor Teknologi Informasi dan Komunikasi",
            "tanggal_terbit": "2023-05-30",
            "url_tdpse_detail": "https://pse.komdigi.go.id/tdpse-detail/14911",
            "website": "revelation.vnggames.net"
        },
        {
            "id": "9cb1ac44-ed16-4d0f-9582-42dd203de2a4",
            "nama_pse": "VNG SINGAPORE PTE., LTD.",
            "nama_se": "PANILLA SAGA",
            "sektor": "Sektor Teknologi Informasi dan Komunikasi",
            "tanggal_terbit": "2023-05-30",
            "url_tdpse_detail": "https://pse.komdigi.go.id/tdpse-detail/14912",
            "website": "panillasaga.vnggames.net"
        },
        {
            "id": "9cb1ac22-fe0a-45e7-9ee3-0ccd14828f28",
            "nama_pse": "MUFG Bank, Ltd. Cabang Jakarta",
            "nama_se": "COMSUITE FOREX (CFX)",
            "sektor": "Sektor Keuangan",
            "tanggal_terbit": "2023-05-30",
            "url_tdpse_detail": "https://pse.komdigi.go.id/tdpse-detail/14913",
            "website": "ebusiness.bk.mufg.jp"
        },
        {
            "id": "9cb1ac35-4003-46ff-876c-a72f67e33ec6",
            "nama_pse": "NABITU TEKNOLOGI ISLAMI",
            "nama_se": "NABITU",
            "sektor": "Sektor Keuangan",
            "tanggal_terbit": "2023-05-29",
            "url_tdpse_detail": "https://pse.komdigi.go.id/tdpse-detail/14901",
            "website": "nabitu.id"
        },
        {
            "id": "9cb1ac44-af91-47d4-801b-d80364ea5a5a",
            "nama_pse": "SHANTOU JINJIA TRADING CO., LTD.",
            "nama_se": "MARIAKALAIJ BLOCKCHAIN SYSTEM",
            "sektor": "Sektor Keuangan",
            "tanggal_terbit": "2023-05-26",
            "url_tdpse_detail": "https://pse.komdigi.go.id/tdpse-detail/14879",
            "website": "qq.com"
        },
        {
            "id": "9cb1ac44-8105-4178-826b-e8f1208984a8",
            "nama_pse": "SHANTOU MARIA INVESTMENT CO., LTD.",
            "nama_se": "MARIAKALAIJ BLOCKCHAIN SYSTEM",
            "sektor": "Sektor Keuangan",
            "tanggal_terbit": "2023-05-25",
            "url_tdpse_detail": "https://pse.komdigi.go.id/tdpse-detail/14851",
            "website": "qq.com"
        },
        {
            "id": "9cb1ac34-af65-4a50-bd63-4b9ebb44c0cc",
            "nama_pse": "SHANTOU JINJIA TRADING CO., LTD.",
            "nama_se": "MARIAKALAIJ BLOCKCHAIN SYSTEM",
            "sektor": "Sektor Keuangan",
            "tanggal_terbit": "2023-05-22",
            "url_tdpse_detail": "https://pse.komdigi.go.id/tdpse-detail/14797",
            "website": "qq.com"
        },
        {
            "id": "9cb1ac34-9649-4649-a2c4-e5e03e27d3ad",
            "nama_pse": "SHANTOU JINJIA TRADING CO., LTD.",
            "nama_se": "MARIAKALAIJ BLOCKCHAIN SYSTEM",
            "sektor": "Sektor Keuangan",
            "tanggal_terbit": "2023-05-22",
            "url_tdpse_detail": "https://pse.komdigi.go.id/tdpse-detail/14784",
            "website": "qq.com"
        },
        {
            "id": "9cb1ac44-29b4-42d4-a649-6af568f6a1ff",
            "nama_pse": "PT DIRGANTARA AVIATION ENGINEERING",
            "nama_se": "REPINDO RESOURCES AUSTRALIA",
            "sektor": "Sektor Perdagangan",
            "tanggal_terbit": "2023-05-22",
            "url_tdpse_detail": "https://pse.komdigi.go.id/tdpse-detail/14792",
            "website": "repindoresources.com.au"
        },
        {
            "id": "9cb1ac44-2f56-4535-b1d0-e772ba4ca3e6",
            "nama_pse": "MPY GLOBAL SDN BHD",
            "nama_se": "MARIAKALAIJ BLOCKCHAIN SYSTEM",
            "sektor": "Sektor Keuangan",
            "tanggal_terbit": "2023-05-22",
            "url_tdpse_detail": "https://pse.komdigi.go.id/tdpse-detail/14796",
            "website": "qq.com"
        },
        {
            "id": "9cb1ac44-3949-44d5-964b-7527926b188a",
            "nama_pse": "GEARUP PORTAL PTE LTD",
            "nama_se": "GEARUP BOOSTER",
            "sektor": "Sektor Teknologi Informasi dan Komunikasi",
            "tanggal_terbit": "2023-05-22",
            "url_tdpse_detail": "https://pse.komdigi.go.id/tdpse-detail/14800",
            "website": "-"
        },
        {
            "id": "9cb1ac34-bb73-49dc-9eb4-5ee2156899b5",
            "nama_pse": "GEARUP PORTAL PTE LTD",
            "nama_se": "SAFESHELL VPN",
            "sektor": "Sektor Teknologi Informasi dan Komunikasi",
            "tanggal_terbit": "2023-05-22",
            "url_tdpse_detail": "https://pse.komdigi.go.id/tdpse-detail/14801",
            "website": "-"
        },
        {
            "id": "9cb1ac34-cc7a-40f5-b769-3d50e020b6e9",
            "nama_pse": "MPY GLOBAL (UK) LTD.",
            "nama_se": "MARIAKALAIJ BLOCKCHAIN SYSTEM",
            "sektor": "Sektor Keuangan",
            "tanggal_terbit": "2023-05-22",
            "url_tdpse_detail": "https://pse.komdigi.go.id/tdpse-detail/14814",
            "website": "qq.com"
        },
        {
            "id": "9cb1ac44-5ecc-4619-acbb-0ccb6716d028",
            "nama_pse": "SHANTOU MARIA INVESTMENT CO., LTD.",
            "nama_se": "MARIAKALAIJ BLOCKCHAIN SYSTEM",
            "sektor": "Sektor Keuangan",
            "tanggal_terbit": "2023-05-22",
            "url_tdpse_detail": "https://pse.komdigi.go.id/tdpse-detail/14817",
            "website": "qq.com"
        },
        {
            "id": "9cb1ac22-4e07-4ce2-b7fb-46816171e461",
            "nama_pse": "SHANTOU JINJIA TRADING CO., LTD.",
            "nama_se": "THE ROYAL BEACH SEMINYAK",
            "sektor": "Sektor Perdagangan",
            "tanggal_terbit": "2023-05-21",
            "url_tdpse_detail": "https://pse.komdigi.go.id/tdpse-detail/14777",
            "website": "theroyalbeachseminyak.com"
        }
    ],
    "processingTimeMs": 28,
    "query": "",
    "totalHits": 1139,
    "hitsPerPage": 50,
    "page": 11,
    "totalPages": 23
}