{
    "hits": [
        {
            "id": "9dad6c06-ee9f-4ab9-90ad-ca72600d6d03",
            "nama_pse": "SHANTOU ZHONGFU ELECTRONIC TECHNOLOGY CO., LTD.",
            "nama_se": "3273120201650003@telin.net",
            "sektor": "Sektor Teknologi Informasi dan Komunikasi",
            "tanggal_terbit": "2024-12-09",
            "url_tdpse_detail": "https://pse.komdigi.go.id/tdpse-detail/21682",
            "website": "-"
        },
        {
            "id": "9dad6c08-c468-46f0-a160-76087a2e7b17",
            "nama_pse": "SHANTOU ZHONGFU ELECTRONIC TECHNOLOGY CO., LTD.",
            "nama_se": "KIK EBA DANAREKSA PLN",
            "sektor": "Sektor Teknologi Informasi dan Komunikasi",
            "tanggal_terbit": "2024-12-09",
            "url_tdpse_detail": "https://pse.komdigi.go.id/tdpse-detail/21683",
            "website": "bankmandirish.com"
        },
        {
            "id": "9dad78e4-10b1-4e7c-bb88-a195fdaa172a",
            "nama_pse": "SHANTOU MARIA INVESTMENT CO., LTD.",
            "nama_se": "yuliana46781232023h",
            "sektor": "Sektor Teknologi Informasi dan Komunikasi",
            "tanggal_terbit": "2024-12-09",
            "url_tdpse_detail": "https://pse.komdigi.go.id/tdpse-detail/21684",
            "website": "disotiv.com"
        },
        {
            "id": "9dad9347-fbf6-470e-a0ee-2c3be629435c",
            "nama_pse": "HONG DING PROPERTY (H.K.) LIMITED",
            "nama_se": "ir.21902132023u",
            "sektor": "Sektor Keuangan",
            "tanggal_terbit": "2024-12-09",
            "url_tdpse_detail": "https://pse.komdigi.go.id/tdpse-detail/21685",
            "website": "-"
        },
        {
            "id": "9dad9349-dee0-46a2-b4aa-64438dfd8c23",
            "nama_pse": "HONG DING PROPERTY (H.K.) LIMITED",
            "nama_se": "540155265@qq.com",
            "sektor": "Sektor Keuangan",
            "tanggal_terbit": "2024-12-09",
            "url_tdpse_detail": "https://pse.komdigi.go.id/tdpse-detail/21686",
            "website": "-"
        },
        {
            "id": "9dabfe4d-9e61-458f-92d6-941886fb2b8c",
            "nama_pse": "SHANTOU MARIA INVESTMENT CO., LTD.",
            "nama_se": "MULTIMEDIA NUSANTARA",
            "sektor": "Sektor Teknologi Informasi dan Komunikasi",
            "tanggal_terbit": "2024-12-08",
            "url_tdpse_detail": "https://pse.komdigi.go.id/tdpse-detail/21640",
            "website": "-"
        },
        {
            "id": "9dacb3a7-e8b8-494d-9929-26fb32d29a14",
            "nama_pse": "SHANTOU ZHONG ELECTRONIC TECHNOLOGY CO., LTD.",
            "nama_se": "SEKOLAH TUNAS INDONESIA",
            "sektor": "Sektor Teknologi Informasi dan Komunikasi",
            "tanggal_terbit": "2024-12-08",
            "url_tdpse_detail": "https://pse.komdigi.go.id/tdpse-detail/21645",
            "website": "-"
        },
        {
            "id": "9dacb3ab-2735-4c63-ac81-9a583e6897d0",
            "nama_pse": "SHANTOU ZHONG ELECTRONIC TECHNOLOGY CO., LTD.",
            "nama_se": "https://magangphr.id/",
            "sektor": "Sektor Teknologi Informasi dan Komunikasi",
            "tanggal_terbit": "2024-12-08",
            "url_tdpse_detail": "https://pse.komdigi.go.id/tdpse-detail/21646",
            "website": "pertaminanre.com"
        },
        {
            "id": "9dac089f-4357-4509-a411-956925139e90",
            "nama_pse": "SHANTOU MARIA INVESTMENT CO., LTD.",
            "nama_se": "MAGANG PERTAMINA",
            "sektor": "Sektor Teknologi Informasi dan Komunikasi",
            "tanggal_terbit": "2024-12-08",
            "url_tdpse_detail": "https://pse.kominfo.go.id/tdpse-detail/21641",
            "website": "-"
        },
        {
            "id": "9dacb3ad-10e0-4713-8b82-074d8cc1eb66",
            "nama_pse": "SHANTOU ZHONG ELECTRONIC TECHNOLOGY CO., LTD.",
            "nama_se": "https://magangphr.id/",
            "sektor": "Sektor Teknologi Informasi dan Komunikasi",
            "tanggal_terbit": "2024-12-08",
            "url_tdpse_detail": "https://pse.komdigi.go.id/tdpse-detail/21647",
            "website": "pertagas.pertamina.com"
        },
        {
            "id": "9dacb3ae-f100-42e7-9710-a6d4588d83bb",
            "nama_pse": "SHANTOU ZHONG ELECTRONIC TECHNOLOGY CO., LTD.",
            "nama_se": "https://magangphr.id/",
            "sektor": "Sektor Teknologi Informasi dan Komunikasi",
            "tanggal_terbit": "2024-12-08",
            "url_tdpse_detail": "https://pse.komdigi.go.id/tdpse-detail/21648",
            "website": "phe.pertamina.com"
        },
        {
            "id": "9dacb3b0-c969-4cfe-8a40-de4eada552a6",
            "nama_pse": "SHANTOU ZHONG ELECTRONIC TECHNOLOGY CO., LTD.",
            "nama_se": "https://beasiswalpdp.kemenkeu.go.id/",
            "sektor": "Sektor Teknologi Informasi dan Komunikasi",
            "tanggal_terbit": "2024-12-08",
            "url_tdpse_detail": "https://pse.komdigi.go.id/tdpse-detail/21649",
            "website": "lpdp.kemenkeu.go.id"
        },
        {
            "id": "9dacb3b2-5fbb-4282-86a9-af178fc260c8",
            "nama_pse": "SHANTOU ZHONG ELECTRONIC TECHNOLOGY CO., LTD.",
            "nama_se": "https://matagaruda.org/",
            "sektor": "Sektor Teknologi Informasi dan Komunikasi",
            "tanggal_terbit": "2024-12-08",
            "url_tdpse_detail": "https://pse.komdigi.go.id/tdpse-detail/21650",
            "website": "matagaruda.org"
        },
        {
            "id": "9dacb3b3-d5e8-41c0-a798-ae29bfb021f4",
            "nama_pse": "SHANTOU ZHONG ELECTRONIC TECHNOLOGY CO., LTD.",
            "nama_se": "https://yayasanmusikjakarta.org",
            "sektor": "Sektor Teknologi Informasi dan Komunikasi",
            "tanggal_terbit": "2024-12-08",
            "url_tdpse_detail": "https://pse.komdigi.go.id/tdpse-detail/21651",
            "website": "yayasanmusikjakarta.org"
        },
        {
            "id": "9dacb3b7-36ad-494e-8725-6125aac64514",
            "nama_pse": "SHANTOU ZHONG ELECTRONIC TECHNOLOGY CO., LTD.",
            "nama_se": "PKBM SEKOLAH TUNAS INDONESIA",
            "sektor": "Sektor Teknologi Informasi dan Komunikasi",
            "tanggal_terbit": "2024-12-08",
            "url_tdpse_detail": "https://pse.komdigi.go.id/tdpse-detail/21653",
            "website": "-"
        },
        {
            "id": "9dacb3b5-9165-48ad-9d9d-2d284ba608a9",
            "nama_pse": "SHANTOU ZHONG ELECTRONIC TECHNOLOGY CO., LTD.",
            "nama_se": "https://one.uph.edu/",
            "sektor": "Sektor Teknologi Informasi dan Komunikasi",
            "tanggal_terbit": "2024-12-08",
            "url_tdpse_detail": "https://pse.komdigi.go.id/tdpse-detail/21652",
            "website": "-"
        },
        {
            "id": "9dacb3b8-c2a1-49bd-83d3-3fff279616ca",
            "nama_pse": "SHANTOU ZHONG ELECTRONIC TECHNOLOGY CO., LTD.",
            "nama_se": "https://magangphr.id/",
            "sektor": "Sektor Teknologi Informasi dan Komunikasi",
            "tanggal_terbit": "2024-12-08",
            "url_tdpse_detail": "https://pse.komdigi.go.id/tdpse-detail/21654",
            "website": "yakespertamina.com"
        },
        {
            "id": "9dacb3ba-42c3-4638-b93f-ab7ef010fa36",
            "nama_pse": "SHANTOU ZHONG ELECTRONIC TECHNOLOGY CO., LTD.",
            "nama_se": "https://test.umn.ac.id",
            "sektor": "Sektor Teknologi Informasi dan Komunikasi",
            "tanggal_terbit": "2024-12-08",
            "url_tdpse_detail": "https://pse.komdigi.go.id/tdpse-detail/21655",
            "website": "-"
        },
        {
            "id": "9dacb6ed-950b-4d4a-bb25-699a4db5c341",
            "nama_pse": "SHANTOU ZHONG ELECTRONIC TECHNOLOGY CO., LTD.",
            "nama_se": "PKBM SEKOLAH TUNAS INDONESIA (SEV PROGRAM)",
            "sektor": "Sektor Teknologi Informasi dan Komunikasi",
            "tanggal_terbit": "2024-12-08",
            "url_tdpse_detail": "https://pse.komdigi.go.id/tdpse-detail/21656",
            "website": "-"
        },
        {
            "id": "9dacc82c-baca-413e-a32b-baa4a4353261",
            "nama_pse": "SHANTOU MARIA INVESTMENT CO., LTD.",
            "nama_se": "theroyalbeachseminyakbali.com@gmx.fr",
            "sektor": "Sektor Keuangan",
            "tanggal_terbit": "2024-12-08",
            "url_tdpse_detail": "https://pse.komdigi.go.id/tdpse-detail/21657",
            "website": "-"
        },
        {
            "id": "9dacc82e-f3da-4b4e-b709-f66ceb600496",
            "nama_pse": "SHANTOU MARIA INVESTMENT CO., LTD.",
            "nama_se": "YUSKITAMA LESTARI (HTTPS://WWW.HILTON.COM/EN/HOTELS/BDOHIHI-HILTON-BANDUNG)",
            "sektor": "Sektor Keuangan",
            "tanggal_terbit": "2024-12-08",
            "url_tdpse_detail": "https://pse.komdigi.go.id/tdpse-detail/21658",
            "website": "-"
        },
        {
            "id": "9dacc830-9999-45d0-afbd-f7daa31427ac",
            "nama_pse": "SHANTOU MARIA INVESTMENT CO., LTD.",
            "nama_se": "theroyalbeachseminyakmgallerycollection@gmx.us",
            "sektor": "Sektor Keuangan",
            "tanggal_terbit": "2024-12-08",
            "url_tdpse_detail": "https://pse.komdigi.go.id/tdpse-detail/21659",
            "website": "-"
        },
        {
            "id": "9dacc832-177f-47d0-a4e3-429d1128a3fb",
            "nama_pse": "SHANTOU MARIA INVESTMENT CO., LTD.",
            "nama_se": "LEMBANG ASRI VISTA ADHI",
            "sektor": "Sektor Keuangan",
            "tanggal_terbit": "2024-12-08",
            "url_tdpse_detail": "https://pse.komdigi.go.id/tdpse-detail/21660",
            "website": "-"
        },
        {
            "id": "9dacc833-a4f9-446a-b556-6f59c76ccf09",
            "nama_pse": "SHANTOU MARIA INVESTMENT CO., LTD.",
            "nama_se": "theroyalbeachseminyakbali.com@gmx.co.uk",
            "sektor": "Sektor Keuangan",
            "tanggal_terbit": "2024-12-08",
            "url_tdpse_detail": "https://pse.komdigi.go.id/tdpse-detail/21661",
            "website": "-"
        },
        {
            "id": "9dacc835-2284-4e7a-981b-f5187581d3de",
            "nama_pse": "SHANTOU MARIA INVESTMENT CO., LTD.",
            "nama_se": "https://test.umn.ac.id/",
            "sektor": "Sektor Teknologi Informasi dan Komunikasi",
            "tanggal_terbit": "2024-12-08",
            "url_tdpse_detail": "https://pse.komdigi.go.id/tdpse-detail/21662",
            "website": "-"
        },
        {
            "id": "9dacd954-aafb-44f5-823f-c32999d5a55d",
            "nama_pse": "SHANTOU ZHONGFU ELECTRONIC TECHNOLOGY CO., LTD.",
            "nama_se": "yuliana.setiadi@partaiparsindo.com",
            "sektor": "Sektor Keuangan",
            "tanggal_terbit": "2024-12-08",
            "url_tdpse_detail": "https://pse.komdigi.go.id/tdpse-detail/21663",
            "website": "-"
        },
        {
            "id": "9dacd957-6ef1-4f3e-ae74-7a04dae46206",
            "nama_pse": "SHANTOU ZHONGFU ELECTRONIC TECHNOLOGY CO., LTD.",
            "nama_se": "https://ypsd.or.id/web/",
            "sektor": "Sektor Keuangan",
            "tanggal_terbit": "2024-12-08",
            "url_tdpse_detail": "https://pse.komdigi.go.id/tdpse-detail/21664",
            "website": "-"
        },
        {
            "id": "9dacd959-b19e-4763-9b55-163f6926cace",
            "nama_pse": "SHANTOU ZHONGFU ELECTRONIC TECHNOLOGY CO., LTD.",
            "nama_se": "https://ypsd.or.id/web/",
            "sektor": "Sektor Keuangan",
            "tanggal_terbit": "2024-12-08",
            "url_tdpse_detail": "https://pse.komdigi.go.id/tdpse-detail/21665",
            "website": "-"
        },
        {
            "id": "9dacd95c-664f-4f39-a442-bb8c08f2fc20",
            "nama_pse": "SHANTOU ZHONGFU ELECTRONIC TECHNOLOGY CO., LTD.",
            "nama_se": "https://ypsd.or.id/web/",
            "sektor": "Sektor Keuangan",
            "tanggal_terbit": "2024-12-08",
            "url_tdpse_detail": "https://pse.komdigi.go.id/tdpse-detail/21666",
            "website": "-"
        },
        {
            "id": "9dacd95e-3e3c-43fb-aec4-88c04c897f99",
            "nama_pse": "SHANTOU ZHONGFU ELECTRONIC TECHNOLOGY CO., LTD.",
            "nama_se": "https://ypsd.or.id/web/",
            "sektor": "Sektor Keuangan",
            "tanggal_terbit": "2024-12-08",
            "url_tdpse_detail": "https://pse.komdigi.go.id/tdpse-detail/21667",
            "website": "ypsd.or.id"
        },
        {
            "id": "9dacd95f-ce54-4a8b-a21c-82ffaaf35311",
            "nama_pse": "SHANTOU ZHONGFU ELECTRONIC TECHNOLOGY CO., LTD.",
            "nama_se": "JOHN LOPULISA",
            "sektor": "Sektor Teknologi Informasi dan Komunikasi",
            "tanggal_terbit": "2024-12-08",
            "url_tdpse_detail": "https://pse.komdigi.go.id/tdpse-detail/21668",
            "website": "-"
        },
        {
            "id": "9dacee39-baa0-4f28-89d7-c64ccbc37cda",
            "nama_pse": "SHANTOU MARIA INVESTMENT CO., LTD.",
            "nama_se": "14713840@qq.com / mariacorpchonghing@yahoo.com",
            "sektor": "Sektor Keuangan",
            "tanggal_terbit": "2024-12-08",
            "url_tdpse_detail": "https://pse.komdigi.go.id/tdpse-detail/21669",
            "website": "-"
        },
        {
            "id": "9dacee3c-49d5-4457-a99b-d3ddff57d0a9",
            "nama_pse": "SHANTOU MARIA INVESTMENT CO., LTD.",
            "nama_se": "1123796173@qq.com/mpyglobal.kencanaputrakendari@gmail.com",
            "sektor": "Sektor Keuangan",
            "tanggal_terbit": "2024-12-08",
            "url_tdpse_detail": "https://pse.komdigi.go.id/tdpse-detail/21670",
            "website": "-"
        },
        {
            "id": "9dacee3f-2507-4b3d-aded-120c0475648f",
            "nama_pse": "SHANTOU MARIA INVESTMENT CO., LTD.",
            "nama_se": "agentpauljr@gmail.com",
            "sektor": "Sektor Keuangan",
            "tanggal_terbit": "2024-12-08",
            "url_tdpse_detail": "https://pse.komdigi.go.id/tdpse-detail/21671",
            "website": "-"
        },
        {
            "id": "9dacee41-d356-4f2f-9043-c2d93be42bc8",
            "nama_pse": "SHANTOU MARIA INVESTMENT CO., LTD.",
            "nama_se": "un.high@outlook.com",
            "sektor": "Sektor Keuangan",
            "tanggal_terbit": "2024-12-08",
            "url_tdpse_detail": "https://pse.komdigi.go.id/tdpse-detail/21672",
            "website": "-"
        },
        {
            "id": "9dacee43-773c-46ac-8da4-c2f406307e8b",
            "nama_pse": "SHANTOU MARIA INVESTMENT CO., LTD.",
            "nama_se": "barristerthomas.richard9@gmail.com",
            "sektor": "Sektor Keuangan",
            "tanggal_terbit": "2024-12-08",
            "url_tdpse_detail": "https://pse.komdigi.go.id/tdpse-detail/21673",
            "website": "-"
        },
        {
            "id": "9dacee45-056b-425c-ad95-c0f4ae99511d",
            "nama_pse": "SHANTOU MARIA INVESTMENT CO., LTD.",
            "nama_se": "bankofamerican256@gmail.com",
            "sektor": "Sektor Keuangan",
            "tanggal_terbit": "2024-12-08",
            "url_tdpse_detail": "https://pse.komdigi.go.id/tdpse-detail/21674",
            "website": "-"
        },
        {
            "id": "9dacee46-ce85-4890-b537-c0c374c46390",
            "nama_pse": "SHANTOU MARIA INVESTMENT CO., LTD.",
            "nama_se": "mr.will_smith1@yahoo.ca",
            "sektor": "Sektor Keuangan",
            "tanggal_terbit": "2024-12-08",
            "url_tdpse_detail": "https://pse.komdigi.go.id/tdpse-detail/21675",
            "website": "-"
        },
        {
            "id": "9dacee48-9409-47d5-9ce3-d5fef8dba6fe",
            "nama_pse": "SHANTOU MARIA INVESTMENT CO., LTD.",
            "nama_se": "standardbank207@gmail.com",
            "sektor": "Sektor Keuangan",
            "tanggal_terbit": "2024-12-08",
            "url_tdpse_detail": "https://pse.komdigi.go.id/tdpse-detail/21676",
            "website": "-"
        },
        {
            "id": "9dacee4a-e12d-4792-b509-0fa8cf9af46d",
            "nama_pse": "SHANTOU MARIA INVESTMENT CO., LTD.",
            "nama_se": "MWILLIAMRAY01@OUTLOOK.COM",
            "sektor": "Sektor Keuangan",
            "tanggal_terbit": "2024-12-08",
            "url_tdpse_detail": "https://pse.komdigi.go.id/tdpse-detail/21677",
            "website": "-"
        },
        {
            "id": "9dacee4c-9ce6-4eec-aa66-e86345841fa4",
            "nama_pse": "SHANTOU MARIA INVESTMENT CO., LTD.",
            "nama_se": "hsbcoffice8@gmail.com",
            "sektor": "Sektor Keuangan",
            "tanggal_terbit": "2024-12-08",
            "url_tdpse_detail": "https://pse.komdigi.go.id/tdpse-detail/21678",
            "website": "-"
        },
        {
            "id": "9da74a51-6859-40c4-b740-65b14749de8c",
            "nama_pse": "SHANTOU MARIA INVESTMENT CO., LTD.",
            "nama_se": "SINARMAS SEKURITAS",
            "sektor": "Sektor Keuangan",
            "tanggal_terbit": "2024-12-06",
            "url_tdpse_detail": "https://pse.komdigi.go.id/tdpse-detail/21612",
            "website": "-"
        },
        {
            "id": "9da74a53-41be-4838-91d4-0f31b1742ab0",
            "nama_pse": "SHANTOU MARIA INVESTMENT CO., LTD.",
            "nama_se": "MARIA FORBIS",
            "sektor": "Sektor Teknologi Informasi dan Komunikasi",
            "tanggal_terbit": "2024-12-06",
            "url_tdpse_detail": "https://pse.komdigi.go.id/tdpse-detail/21613",
            "website": "-"
        },
        {
            "id": "9da89eaf-6ece-4428-89e2-9866b86974bd",
            "nama_pse": "LOTUS DIGITAL TECH LIMITED",
            "nama_se": "REELBUZZ",
            "sektor": "Sektor Teknologi Informasi dan Komunikasi",
            "tanggal_terbit": "2024-12-06",
            "url_tdpse_detail": "https://pse.komdigi.go.id/tdpse-detail/21632",
            "website": "reelbuzztv.com"
        },
        {
            "id": "9da64042-b2cf-4d29-b020-108599d78fc5",
            "nama_pse": "SHANTOU MARIA INVESTMENT CO., LTD.",
            "nama_se": "kencanaputrakendari@proton.me",
            "sektor": "Sektor Teknologi Informasi dan Komunikasi",
            "tanggal_terbit": "2024-12-05",
            "url_tdpse_detail": "https://pse.komdigi.go.id/tdpse-detail/21538",
            "website": "-"
        },
        {
            "id": "9da64040-f87e-4237-9f52-52509fd9f2e3",
            "nama_pse": "SHANTOU MARIA INVESTMENT CO., LTD.",
            "nama_se": "kencanaputra.sulawesi_holding@proton.me",
            "sektor": "Sektor Teknologi Informasi dan Komunikasi",
            "tanggal_terbit": "2024-12-05",
            "url_tdpse_detail": "https://pse.komdigi.go.id/tdpse-detail/21537",
            "website": "-"
        },
        {
            "id": "9da556f0-1392-40b5-b7cb-d887e73b668e",
            "nama_pse": "SHANTOU MARIA INVESTMENT CO., LTD.",
            "nama_se": "SHANTOU MARIA INVESTMENT",
            "sektor": "Sektor Keuangan",
            "tanggal_terbit": "2024-12-05",
            "url_tdpse_detail": "https://pse.komdigi.go.id/tdpse-detail/21495",
            "website": "-"
        },
        {
            "id": "9da55b07-3624-4bb7-8c8f-5509e10c9aaf",
            "nama_pse": "SHANTOU MARIA INVESTMENT CO., LTD.",
            "nama_se": "SHANTOU MARIA INVESTMENT",
            "sektor": "Sektor Keuangan",
            "tanggal_terbit": "2024-12-05",
            "url_tdpse_detail": "https://pse.komdigi.go.id/tdpse-detail/21496",
            "website": "-"
        },
        {
            "id": "9da56509-93c7-4889-a68e-a2ba70b87a91",
            "nama_pse": "SHANTOU MARIA INVESTMENT CO., LTD.",
            "nama_se": "SHANTOU MARIA INVESTMENT",
            "sektor": "Sektor Keuangan",
            "tanggal_terbit": "2024-12-05",
            "url_tdpse_detail": "https://pse.komdigi.go.id/tdpse-detail/21497",
            "website": "-"
        },
        {
            "id": "9da5650b-a9c3-4640-9d64-e9770185e98e",
            "nama_pse": "SHANTOU MARIA INVESTMENT CO., LTD.",
            "nama_se": "bogorraya.co.id@outlook.com.gr",
            "sektor": "Sektor Teknologi Informasi dan Komunikasi",
            "tanggal_terbit": "2024-12-05",
            "url_tdpse_detail": "https://pse.komdigi.go.id/tdpse-detail/21498",
            "website": "-"
        }
    ],
    "processingTimeMs": 1,
    "query": "",
    "totalHits": 1139,
    "hitsPerPage": 50,
    "page": 2,
    "totalPages": 23
}