{
    "hits": [
        {
            "id": "9cb1abe2-a6a4-4a44-9814-6f806dad3d5e",
            "nama_pse": "MPY GLOBAL SDN BHD",
            "nama_se": "REJEKI MULTI CEMERLANG",
            "sektor": "Sektor Keuangan",
            "tanggal_terbit": "2022-11-15",
            "url_tdpse_detail": "https://pse.komdigi.go.id/tdpse-detail/12314",
            "website": "banbanten.co.id"
        },
        {
            "id": "9cb1ac07-4169-45d4-9f1a-e2e7884ca090",
            "nama_pse": "PT DIRGANTARA AVIATION ENGINEERING",
            "nama_se": "DIRGANTARA AVIATION ENGINEERING",
            "sektor": "Sektor Perdagangan",
            "tanggal_terbit": "2022-11-15",
            "url_tdpse_detail": "https://pse.komdigi.go.id/tdpse-detail/12308",
            "website": "bniventures.com"
        },
        {
            "id": "9cb1ac15-84b7-4247-8a02-5da0ae96528a",
            "nama_pse": "SHANTOU JINJIA TRADING CO., LTD.",
            "nama_se": "BANK MANDIRI SHANGHAI",
            "sektor": "Sektor Keuangan",
            "tanggal_terbit": "2022-11-15",
            "url_tdpse_detail": "https://pse.komdigi.go.id/tdpse-detail/12309",
            "website": "bankmandirish.com"
        },
        {
            "id": "9cb1ac15-9785-42c8-bef3-da992d084b2a",
            "nama_pse": "SHANTOU JINJIA TRADING CO., LTD.",
            "nama_se": "BRI DANAREKSA SEKURITAS (BRIGHTS) D/H DANAREKSA SEKURITAS (D'ONE)",
            "sektor": "Sektor Keuangan",
            "tanggal_terbit": "2022-11-15",
            "url_tdpse_detail": "https://pse.komdigi.go.id/tdpse-detail/12315",
            "website": "bridanareksasekuritas.co.id"
        },
        {
            "id": "9cb1ac06-f844-463f-8d42-dfa2b98bf7ff",
            "nama_pse": "SHANTOU MARIA INVESTMENT CO., LTD.",
            "nama_se": "PERTAMINA PEDEVE INDONESIA",
            "sektor": "Sektor Keuangan",
            "tanggal_terbit": "2022-11-14",
            "url_tdpse_detail": "https://pse.komdigi.go.id/tdpse-detail/12270",
            "website": "pdv.co,id"
        },
        {
            "id": "9cb1abe2-5ef1-45aa-a351-62ae4d24e1ad",
            "nama_pse": "SHANTOU MARIA INVESTMENT CO., LTD.",
            "nama_se": "PANIN DAI-ICHI LIFE",
            "sektor": "Sektor Keuangan",
            "tanggal_terbit": "2022-11-14",
            "url_tdpse_detail": "https://pse.komdigi.go.id/tdpse-detail/12271",
            "website": "panindai-ichilife.co.id"
        },
        {
            "id": "9cb1abe2-667c-46d2-9a6f-cc65560ed99c",
            "nama_pse": "SHANTOU MARIA INVESTMENT CO., LTD.",
            "nama_se": "YKPN",
            "sektor": "Sektor Teknologi Informasi dan Komunikasi",
            "tanggal_terbit": "2022-11-14",
            "url_tdpse_detail": "https://pse.komdigi.go.id/tdpse-detail/12275",
            "website": "stieykpn.ac.id"
        },
        {
            "id": "9cb1abe2-22b2-42c2-a50f-36b93643d16a",
            "nama_pse": "BUT. STANDARD CHARTERED BANK",
            "nama_se": "BCA FINANCE LIMITED",
            "sektor": "Sektor Keuangan",
            "tanggal_terbit": "2022-11-12",
            "url_tdpse_detail": "https://pse.komdigi.go.id/tdpse-detail/12252",
            "website": "hsbc.com.hk"
        },
        {
            "id": "9cb1ac15-4e2c-4e5a-b4b7-a26970fed7a4",
            "nama_pse": "BUT. STANDARD CHARTERED BANK",
            "nama_se": "D \u0026 K FINANCE LIMITED",
            "sektor": "Sektor Keuangan",
            "tanggal_terbit": "2022-11-12",
            "url_tdpse_detail": "https://pse.komdigi.go.id/tdpse-detail/12253",
            "website": "dkfinance.in"
        },
        {
            "id": "9cb1abe2-30a4-4ac9-9289-e10c4432534d",
            "nama_pse": "BUT. STANDARD CHARTERED BANK",
            "nama_se": "THE ROYAL  HOSPITALITY GROUP MANAGEMENT",
            "sektor": "Sektor Keuangan",
            "tanggal_terbit": "2022-11-12",
            "url_tdpse_detail": "https://pse.komdigi.go.id/tdpse-detail/12254",
            "website": "theroyalbeachseminyak.com"
        },
        {
            "id": "9cb1ac06-d8bd-407e-a999-6aa731e4243f",
            "nama_pse": "FUJIAN TANGZHONG INTERNATIONAL TRADING CO., LTD.",
            "nama_se": "GUANGXI XIN WEI HOTEL MANAGEMENT",
            "sektor": "Sektor Perdagangan",
            "tanggal_terbit": "2022-11-11",
            "url_tdpse_detail": "https://pse.komdigi.go.id/tdpse-detail/12243",
            "website": "langhamhotels.com"
        },
        {
            "id": "9cb1abe2-17b3-412a-abde-c8e3988424fa",
            "nama_pse": "FUJIAN TANGZHONG INTERNATIONAL TRADING CO., LTD.",
            "nama_se": "GRAHA VENTURA MILENIAL GROUP OF MARIA KALAIJ CORPORATION",
            "sektor": "Sektor Perdagangan",
            "tanggal_terbit": "2022-11-11",
            "url_tdpse_detail": "https://pse.komdigi.go.id/tdpse-detail/12244",
            "website": "royalambarukmo.com"
        },
        {
            "id": "9cb1ac06-dc48-4fa1-9ab0-3e139221134c",
            "nama_pse": "FUJIAN TANGZHONG INTERNATIONAL TRADING CO., LTD.",
            "nama_se": "GOLDEN KNIGHT INTERNATIONAL LIMITED",
            "sektor": "Sektor Keuangan",
            "tanggal_terbit": "2022-11-11",
            "url_tdpse_detail": "https://pse.komdigi.go.id/tdpse-detail/12245",
            "website": "triyasa.co.id"
        },
        {
            "id": "9cb1abe2-1e2d-4dce-99a5-ef50eb43df37",
            "nama_pse": "FUJIAN TANGZHONG INTERNATIONAL TRADING CO., LTD.",
            "nama_se": "GUANGXI PINGXIANG HUIER IMPORT AND EXPORT TRADING CO., LTD.",
            "sektor": "Sektor Perdagangan",
            "tanggal_terbit": "2022-11-11",
            "url_tdpse_detail": "https://pse.komdigi.go.id/tdpse-detail/12246",
            "website": "prestigecars.com"
        },
        {
            "id": "9cb1ac06-dfb4-4254-b0a7-9106672a1061",
            "nama_pse": "FUJIAN TANGZHONG INTERNATIONAL TRADING CO., LTD.",
            "nama_se": "WUHAN HUAJING TIANDI AGRICULTURAL TECHNOLOGY DEVELOPMENT CO., LTD",
            "sektor": "Sektor Teknologi Informasi dan Komunikasi",
            "tanggal_terbit": "2022-11-11",
            "url_tdpse_detail": "https://pse.komdigi.go.id/tdpse-detail/12247",
            "website": "magnesiumgosari.co.id"
        },
        {
            "id": "9cb1ac15-457c-47b8-8405-44558082b67a",
            "nama_pse": "FUJIAN TANGZHONG INTERNATIONAL TRADING CO., LTD.",
            "nama_se": "MULTISIA TENAN JAYA OF MARIA KALAIJ CORPORATION",
            "sektor": "Sektor Perdagangan",
            "tanggal_terbit": "2022-11-11",
            "url_tdpse_detail": "https://pse.komdigi.go.id/tdpse-detail/12248",
            "website": "merlynnparkhotel.com"
        },
        {
            "id": "9cb1ac15-4963-4d3d-8cfa-f80ce3315c80",
            "nama_pse": "SHENZHEN AIRLINES SHIPENG (QINGDAO) HOLDINGS CO., LTD.",
            "nama_se": "NANJING SINAR MAS \u0026 ZIJIN VENTURE CAPITAL MANAGEMENT CO., LIMITED",
            "sektor": "Sektor Keuangan",
            "tanggal_terbit": "2022-11-11",
            "url_tdpse_detail": "https://pse.komdigi.go.id/tdpse-detail/12249",
            "website": "corp.bri.co.id"
        },
        {
            "id": "9cb1ac06-e287-4329-8b2c-abffe65acd3c",
            "nama_pse": "SHENZHEN AIRLINES SHIPENG (QINGDAO) HOLDINGS CO., LTD.",
            "nama_se": "VIER CORPORATION LIMITED",
            "sektor": "Sektor Keuangan",
            "tanggal_terbit": "2022-11-11",
            "url_tdpse_detail": "https://pse.komdigi.go.id/tdpse-detail/12250",
            "website": "viercorp.com"
        },
        {
            "id": "9cb1ac06-e580-4723-91d6-b62c69ef47af",
            "nama_pse": "SHENZHEN AIRLINES SHIPENG (QINGDAO) HOLDINGS CO., LTD.",
            "nama_se": "FLAMMING MOUNTAINS PTE. LTD.",
            "sektor": "Sektor Keuangan",
            "tanggal_terbit": "2022-11-11",
            "url_tdpse_detail": "https://pse.komdigi.go.id/tdpse-detail/12251",
            "website": "grandpangandaran.co.id"
        },
        {
            "id": "9cb1abe1-bc05-49b1-9d55-1bc31c0334e1",
            "nama_pse": "SPECIAL OLYMPICS INDONESIA",
            "nama_se": "SPECIAL OLYMPICS INDONESIA",
            "sektor": "Sektor Teknologi Informasi dan Komunikasi",
            "tanggal_terbit": "2022-11-06",
            "url_tdpse_detail": "https://pse.komdigi.go.id/tdpse-detail/12139",
            "website": "specialolympics.org"
        },
        {
            "id": "9cb1ac06-1e2d-429b-9b77-d94d5b1a3cd4",
            "nama_pse": "SHANTOU MARIA INVESTMENT CO., LTD.",
            "nama_se": "RANSENTERTAINMENT.CO.ID",
            "sektor": "Sektor Perdagangan",
            "tanggal_terbit": "2022-11-06",
            "url_tdpse_detail": "https://pse.komdigi.go.id/tdpse-detail/12141",
            "website": "ransentertainment.co.id"
        },
        {
            "id": "9cb1ac06-2187-4755-b76c-17a7782c1df6",
            "nama_pse": "SHANTOU MARIA INVESTMENT CO., LTD.",
            "nama_se": "PTNFC.COM",
            "sektor": "Sektor Perdagangan",
            "tanggal_terbit": "2022-11-06",
            "url_tdpse_detail": "https://pse.komdigi.go.id/tdpse-detail/12142",
            "website": "ptnfc.com"
        },
        {
            "id": "9cb1ac14-9ffe-4a56-a052-6fe12fd05cef",
            "nama_pse": "SHANTOU MARIA INVESTMENT CO., LTD.",
            "nama_se": "DMMGROUP.ID",
            "sektor": "Sektor Perdagangan",
            "tanggal_terbit": "2022-11-06",
            "url_tdpse_detail": "https://pse.komdigi.go.id/tdpse-detail/12143",
            "website": "dmmgroup.id"
        },
        {
            "id": "9cb1ac03-e2ec-4eaf-8c09-3585a1d09a0f",
            "nama_pse": "GLOBAL TRUST CHAMBER",
            "nama_se": "YUANTA SECURITIES KOREA",
            "sektor": "Sektor Keuangan",
            "tanggal_terbit": "2022-10-12",
            "url_tdpse_detail": "https://pse.komdigi.go.id/tdpse-detail/11767",
            "website": "yuantakorea.com"
        },
        {
            "id": "9cb1ac12-a0e8-4da4-8b64-8f6d1955ab60",
            "nama_pse": "GLOBAL TRUST CHAMBER",
            "nama_se": "BAYAN RESOURCES",
            "sektor": "Sektor Perdagangan",
            "tanggal_terbit": "2022-10-12",
            "url_tdpse_detail": "https://pse.komdigi.go.id/tdpse-detail/11768",
            "website": "bayan.com.sg"
        },
        {
            "id": "9cb1ac03-e6c7-49ca-bd5e-5cc179797cba",
            "nama_pse": "GLOBAL TRUST CHAMBER",
            "nama_se": "REPINDO RESOURCES",
            "sektor": "Sektor Perdagangan",
            "tanggal_terbit": "2022-10-12",
            "url_tdpse_detail": "https://pse.komdigi.go.id/tdpse-detail/11769",
            "website": "repindoresources.com.au"
        },
        {
            "id": "9cb1ac03-ea9a-4e8f-9976-534cd3aa122b",
            "nama_pse": "GLOBAL TRUST CHAMBER",
            "nama_se": "THE ROYAL BEACH SEMINYAK",
            "sektor": "Sektor Perdagangan",
            "tanggal_terbit": "2022-10-12",
            "url_tdpse_detail": "https://pse.komdigi.go.id/tdpse-detail/11770",
            "website": "theroyalbeachseminyak.com"
        },
        {
            "id": "9cb1abdf-b433-4616-a080-20de3f36ace6",
            "nama_pse": "REPINDO RESOURCES PTY. LTD.",
            "nama_se": "YUANTA SEKURITAS KOREA",
            "sektor": "Sektor Keuangan",
            "tanggal_terbit": "2022-10-11",
            "url_tdpse_detail": "https://pse.komdigi.go.id/tdpse-detail/11760",
            "website": "yuantakorea.com"
        },
        {
            "id": "9cb1abdf-bca9-4d6c-82e3-7612420ad787",
            "nama_pse": "REPINDO RESOURCES PTY. LTD.",
            "nama_se": "REPINDO RESOURCES",
            "sektor": "Sektor Perdagangan",
            "tanggal_terbit": "2022-10-11",
            "url_tdpse_detail": "https://pse.komdigi.go.id/tdpse-detail/11761",
            "website": "repindoresources.com.au"
        },
        {
            "id": "9cb1ac03-d36a-408f-85da-d46bcc627627",
            "nama_pse": "REPINDO RESOURCES PTY. LTD.",
            "nama_se": "MACH ENERGY",
            "sektor": "Sektor Perdagangan",
            "tanggal_terbit": "2022-10-11",
            "url_tdpse_detail": "https://pse.komdigi.go.id/tdpse-detail/11762",
            "website": "machenergy.com"
        },
        {
            "id": "9cb1abdf-c2e6-4ea4-81f1-50419fb8b920",
            "nama_pse": "REPINDO RESOURCES PTY. LTD.",
            "nama_se": "THE ROYAL BEACH SEMINYAK",
            "sektor": "Sektor Perdagangan",
            "tanggal_terbit": "2022-10-11",
            "url_tdpse_detail": "https://pse.komdigi.go.id/tdpse-detail/11763",
            "website": "theroyalbeachseminyak.com"
        },
        {
            "id": "9cb1ac03-deee-42f6-9a12-4a264188f439",
            "nama_pse": "COMMERCE KAPITAL",
            "nama_se": "THE ROYAL BEACH SEMINYAK",
            "sektor": "Sektor Perdagangan",
            "tanggal_terbit": "2022-10-11",
            "url_tdpse_detail": "https://pse.komdigi.go.id/tdpse-detail/11764",
            "website": "theroyalbeachseminyak.com"
        },
        {
            "id": "9cb1ac12-992c-4824-bdd5-ca63069893f2",
            "nama_pse": "COMMERCE KAPITAL",
            "nama_se": "REPINDO RESOURCES PTY. LTD.",
            "sektor": "Sektor Perdagangan",
            "tanggal_terbit": "2022-10-11",
            "url_tdpse_detail": "https://pse.komdigi.go.id/tdpse-detail/11765",
            "website": "repindoresources.com.au"
        },
        {
            "id": "9cb1ac12-7a5c-4014-bf2b-8f06407732fa",
            "nama_pse": "MAHIR MUDA PRATAMA",
            "nama_se": "MPY GLOBAL (UK) LITD.",
            "sektor": "Sektor Keuangan",
            "tanggal_terbit": "2022-10-10",
            "url_tdpse_detail": "https://pse.komdigi.go.id/tdpse-detail/11728",
            "website": "btinternet.com"
        },
        {
            "id": "9cb1ac03-ae1b-422e-8979-b30de5863ebf",
            "nama_pse": "MAHIR MUDA PRATAMA",
            "nama_se": "REPINDO RESOURCES",
            "sektor": "Sektor Perdagangan",
            "tanggal_terbit": "2022-10-10",
            "url_tdpse_detail": "https://pse.komdigi.go.id/tdpse-detail/11729",
            "website": "repindoresources.com.au"
        },
        {
            "id": "9cb1abdf-6f51-45ec-8afd-479556c6d6fb",
            "nama_pse": "AVI ENERGI INDONESIA",
            "nama_se": "UOB INTERNATIONAL INVESTMENT PRIVATE LIMITED",
            "sektor": "Sektor Keuangan",
            "tanggal_terbit": "2022-10-10",
            "url_tdpse_detail": "https://pse.komdigi.go.id/tdpse-detail/11730",
            "website": "uobgroup.com"
        },
        {
            "id": "9cb1ac03-b24e-4b16-9e7d-1021ae1d6ea9",
            "nama_pse": "AVI ENERGI INDONESIA",
            "nama_se": "UOB ASSET MANAGEMENT (D/H PG ASSET MANAGEMENT )",
            "sektor": "Sektor Keuangan",
            "tanggal_terbit": "2022-10-10",
            "url_tdpse_detail": "https://pse.komdigi.go.id/tdpse-detail/11731",
            "website": "pg-am.com"
        },
        {
            "id": "9cb1abdf-76c8-4329-b5ee-b4cf69472435",
            "nama_pse": "AVI ENERGI INDONESIA",
            "nama_se": "MANDIRI INVESTASI",
            "sektor": "Sektor Keuangan",
            "tanggal_terbit": "2022-10-10",
            "url_tdpse_detail": "https://pse.komdigi.go.id/tdpse-detail/11732",
            "website": "mandiri-investasi.co.id"
        },
        {
            "id": "9cb1ac03-b57d-4dcb-8557-e2909d5cac51",
            "nama_pse": "AVI ENERGI INDONESIA",
            "nama_se": "REPINDO RESOURCES",
            "sektor": "Sektor Perdagangan",
            "tanggal_terbit": "2022-10-10",
            "url_tdpse_detail": "https://pse.komdigi.go.id/tdpse-detail/11733",
            "website": "repindoresources.com.au"
        },
        {
            "id": "9cb1ac03-b932-4c09-bbf3-eb252ebdd84a",
            "nama_pse": "AVI ENERGI INDONESIA",
            "nama_se": "BANK MANDIRI HONG KONG",
            "sektor": "Sektor Keuangan",
            "tanggal_terbit": "2022-10-10",
            "url_tdpse_detail": "https://pse.komdigi.go.id/tdpse-detail/11734",
            "website": "bankmandirihk.com"
        },
        {
            "id": "9cb1ac11-d11c-4f83-a2fb-3c6ca24a04f5",
            "nama_pse": "SHANTOU JINJIA TRADING CO., LTD.",
            "nama_se": "BNI MODAL VENTURA",
            "sektor": "Sektor Keuangan",
            "tanggal_terbit": "2022-10-09",
            "url_tdpse_detail": "https://pse.komdigi.go.id/tdpse-detail/11634",
            "website": "repindoresources.com.au"
        },
        {
            "id": "9cb1abde-f35c-44b5-8e56-a5042f5b4046",
            "nama_pse": "SHANTOU JINJIA TRADING CO., LTD.",
            "nama_se": "BRI VENTURA INVESTAMA",
            "sektor": "Sektor Keuangan",
            "tanggal_terbit": "2022-10-09",
            "url_tdpse_detail": "https://pse.komdigi.go.id/tdpse-detail/11635",
            "website": "theroyalbeachseminyak.com"
        },
        {
            "id": "9cb1abde-f821-49a3-aabe-6a11c8e7408c",
            "nama_pse": "SHANTOU JINJIA TRADING CO., LTD.",
            "nama_se": "PANORAMA TOUR",
            "sektor": "Sektor Perdagangan",
            "tanggal_terbit": "2022-10-09",
            "url_tdpse_detail": "https://pse.komdigi.go.id/tdpse-detail/11636",
            "website": "panorama-jtb.com"
        },
        {
            "id": "9cb1ac03-36c9-44a5-9885-5578600b1173",
            "nama_pse": "SHANTOU JINJIA TRADING CO., LTD.",
            "nama_se": "THE ROYAL BEACH SEMINYAK",
            "sektor": "Sektor Perdagangan",
            "tanggal_terbit": "2022-10-09",
            "url_tdpse_detail": "https://pse.komdigi.go.id/tdpse-detail/11637",
            "website": "theroyalbeachseminyak.com"
        },
        {
            "id": "9cb1abde-fb6d-44d3-858d-01babc3b6918",
            "nama_pse": "SHANTOU JINJIA TRADING CO., LTD.",
            "nama_se": "REPINDO RESOURCES",
            "sektor": "Sektor Perdagangan",
            "tanggal_terbit": "2022-10-09",
            "url_tdpse_detail": "https://pse.komdigi.go.id/tdpse-detail/11638",
            "website": "repindoresources.com.au"
        },
        {
            "id": "9cb1ac11-d45b-4e58-9795-896fc0fe358f",
            "nama_pse": "SHANTOU JINJIA TRADING CO., LTD.",
            "nama_se": "BRI HONG KONG REMMITANCE",
            "sektor": "Sektor Keuangan",
            "tanggal_terbit": "2022-10-09",
            "url_tdpse_detail": "https://pse.komdigi.go.id/tdpse-detail/11639",
            "website": "brihongkong.com"
        },
        {
            "id": "9cb1ac11-d8f6-4738-9afb-23f8f5d18ab4",
            "nama_pse": "SHANTOU JINJIA TRADING CO., LTD.",
            "nama_se": "BRI NEW YORK AGENCY",
            "sektor": "Sektor Keuangan",
            "tanggal_terbit": "2022-10-09",
            "url_tdpse_detail": "https://pse.komdigi.go.id/tdpse-detail/11640",
            "website": "brinya.com"
        },
        {
            "id": "9cb1abde-feae-48c4-9376-0aa800f9c47f",
            "nama_pse": "SHANTOU JINJIA TRADING CO., LTD.",
            "nama_se": "BRI REMITTANCE CO. LTD",
            "sektor": "Sektor Keuangan",
            "tanggal_terbit": "2022-10-09",
            "url_tdpse_detail": "https://pse.komdigi.go.id/tdpse-detail/11641",
            "website": "brchk.com"
        },
        {
            "id": "9cb1ac11-dc78-468c-a884-a428c0032abf",
            "nama_pse": "SHANTOU JINJIA TRADING CO., LTD.",
            "nama_se": "REPINDO RESOURCES",
            "sektor": "Sektor Perdagangan",
            "tanggal_terbit": "2022-10-09",
            "url_tdpse_detail": "https://pse.komdigi.go.id/tdpse-detail/11642",
            "website": "repindoresources.com.au"
        },
        {
            "id": "9cb1ac03-39bf-4c97-9ea4-207135b231cd",
            "nama_pse": "SHANTOU JINJIA TRADING CO., LTD.",
            "nama_se": "ROYAL BEACH SEMINYAK",
            "sektor": "Sektor Perdagangan",
            "tanggal_terbit": "2022-10-09",
            "url_tdpse_detail": "https://pse.komdigi.go.id/tdpse-detail/11643",
            "website": "theroyalbeachseminyak.com"
        }
    ],
    "processingTimeMs": 0,
    "query": "",
    "totalHits": 352,
    "hitsPerPage": 50,
    "page": 3,
    "totalPages": 8
}