{
    "hits": [
        {
            "id": "9cb1ac02-0a49-4e0a-9d22-31b15e5ed369",
            "nama_pse": "MICHAEL MU \u0026 MARIA TIURMA",
            "nama_se": "CITI PAYMENT LINK",
            "sektor": "Sektor Keuangan",
            "tanggal_terbit": "2022-09-27",
            "url_tdpse_detail": "https://pse.komdigi.go.id/tdpse-detail/11373",
            "website": "owenpetrobitumen.com"
        },
        {
            "id": "9cb1ac10-9215-4e5b-8988-af54e71fd9c7",
            "nama_pse": "MARIA TIURMA (ICBC WEALTH MANAGEMENT CO., LTD. - THE BANK OF NEW YORK DEPOSITORY (NOMINEES) LIMITED)",
            "nama_se": "HSBC.COM.CN",
            "sektor": "Sektor Keuangan",
            "tanggal_terbit": "2022-09-26",
            "url_tdpse_detail": "https://pse.komdigi.go.id/tdpse-detail/11358",
            "website": "hsbc.com.cn"
        },
        {
            "id": "9cb1ac10-9578-44f2-80d0-75c902d2b2fd",
            "nama_pse": "MARIA TIURMA (ICBC WEALTH MANAGEMENT CO., LTD. - THE BANK OF NEW YORK DEPOSITORY (NOMINEES) LIMITED)",
            "nama_se": "MARIA TIURMA",
            "sektor": "Sektor Keuangan",
            "tanggal_terbit": "2022-09-26",
            "url_tdpse_detail": "https://pse.komdigi.go.id/tdpse-detail/11359",
            "website": "shantou.gov.cn"
        },
        {
            "id": "9cb1ac01-e69d-4371-a561-e4734e85d08f",
            "nama_pse": "MARIA TIURMA (ICBC WEALTH MANAGEMENT CO., LTD. - THE BANK OF NEW YORK DEPOSITORY (NOMINEES) LIMITED)",
            "nama_se": "SAMUEL.CO.ID / E-SAMUEL.COM",
            "sektor": "Sektor Keuangan",
            "tanggal_terbit": "2022-09-26",
            "url_tdpse_detail": "https://pse.komdigi.go.id/tdpse-detail/11360",
            "website": "e-samuel.com"
        },
        {
            "id": "9cb1ac01-f16c-403c-815c-767b3d293aac",
            "nama_pse": "MARIA TIURMA (ICBC WEALTH MANAGEMENT CO., LTD. - THE BANK OF NEW YORK DEPOSITORY (NOMINEES) LIMITED)",
            "nama_se": "TUTANOTA.COM",
            "sektor": "Sektor Keuangan",
            "tanggal_terbit": "2022-09-26",
            "url_tdpse_detail": "https://pse.komdigi.go.id/tdpse-detail/11361",
            "website": "tutanota.com"
        },
        {
            "id": "9cb1ac01-f4a0-49bb-b7fc-1bbb4ce7c030",
            "nama_pse": "MARIA TIURMA (ICBC WEALTH MANAGEMENT CO., LTD. - THE BANK OF NEW YORK DEPOSITORY (NOMINEES) LIMITED)",
            "nama_se": "MARIA TIURMA",
            "sektor": "Sektor Keuangan",
            "tanggal_terbit": "2022-09-26",
            "url_tdpse_detail": "https://pse.komdigi.go.id/tdpse-detail/11362",
            "website": "pans.co.id"
        },
        {
            "id": "9cb1ac10-986e-4763-8ad0-966049fb260c",
            "nama_pse": "MARIA TIURMA (ICBC WEALTH MANAGEMENT CO., LTD. - THE BANK OF NEW YORK DEPOSITORY (NOMINEES) LIMITED)",
            "nama_se": "CORP.BRI.CO.ID",
            "sektor": "Sektor Keuangan",
            "tanggal_terbit": "2022-09-26",
            "url_tdpse_detail": "https://pse.komdigi.go.id/tdpse-detail/11363",
            "website": "corp.bri.co.id"
        },
        {
            "id": "9cb1abdd-27c4-44b1-8f8a-f1b855345da8",
            "nama_pse": "MARIA TIURMA (ICBC WEALTH MANAGEMENT CO., LTD. - THE BANK OF NEW YORK DEPOSITORY (NOMINEES) LIMITED)",
            "nama_se": "PROTON.ME",
            "sektor": "Sektor Keuangan",
            "tanggal_terbit": "2022-09-26",
            "url_tdpse_detail": "https://pse.komdigi.go.id/tdpse-detail/11364",
            "website": "proton.me"
        },
        {
            "id": "9cb1ac10-9b8f-400c-9797-558a2dfdc32f",
            "nama_pse": "MARIA TIURMA (ICBC WEALTH MANAGEMENT CO., LTD. - THE BANK OF NEW YORK DEPOSITORY (NOMINEES) LIMITED)",
            "nama_se": "SHANTOUMARIAINVESTMENT.COM",
            "sektor": "Sektor Keuangan",
            "tanggal_terbit": "2022-09-26",
            "url_tdpse_detail": "https://pse.komdigi.go.id/tdpse-detail/11365",
            "website": "boc.cn"
        },
        {
            "id": "9cb1ac02-00dd-425d-9318-b911f1fc4cd8",
            "nama_pse": "MARIA TIURMA (ICBC WEALTH MANAGEMENT CO., LTD. - THE BANK OF NEW YORK DEPOSITORY (NOMINEES) LIMITED)",
            "nama_se": "MAYBANK.COM.HK",
            "sektor": "Sektor Keuangan",
            "tanggal_terbit": "2022-09-26",
            "url_tdpse_detail": "https://pse.komdigi.go.id/tdpse-detail/11366",
            "website": "maybank.com.hk"
        },
        {
            "id": "9cb1abdd-2b55-4d04-afc8-9d467250dd7c",
            "nama_pse": "MARIA TIURMA (ICBC WEALTH MANAGEMENT CO., LTD. - THE BANK OF NEW YORK DEPOSITORY (NOMINEES) LIMITED)",
            "nama_se": "MARIA TIURMA",
            "sektor": "Sektor Keuangan",
            "tanggal_terbit": "2022-09-26",
            "url_tdpse_detail": "https://pse.komdigi.go.id/tdpse-detail/11367",
            "website": "psbc.com"
        },
        {
            "id": "9cb1ac00-d9c8-4b84-a808-36828fafaa1c",
            "nama_pse": "MPY GLOBAL SDN BHD",
            "nama_se": "MPY GLOBAL SDN BHD",
            "sektor": "Sektor Keuangan",
            "tanggal_terbit": "2022-09-12",
            "url_tdpse_detail": "https://pse.komdigi.go.id/tdpse-detail/11147",
            "website": "-"
        },
        {
            "id": "9cb1ac00-9c45-48eb-bd6e-8a71d37300c2",
            "nama_pse": "HONG DING PROPERTY (H.K.) LIMITED",
            "nama_se": "MARIA TIURMA",
            "sektor": "Sektor Keuangan",
            "tanggal_terbit": "2022-09-08",
            "url_tdpse_detail": "https://pse.komdigi.go.id/tdpse-detail/11097",
            "website": "gsxt.gov.cn"
        },
        {
            "id": "9cb1ac00-a005-4858-b448-d07f19d29f50",
            "nama_pse": "HONG DING PROPERTY (H.K.) LIMITED",
            "nama_se": "MARIA TIURMA",
            "sektor": "Sektor Keuangan",
            "tanggal_terbit": "2022-09-08",
            "url_tdpse_detail": "https://pse.komdigi.go.id/tdpse-detail/11098",
            "website": "sc.com"
        },
        {
            "id": "9cb1ac00-22ec-41e8-8fc8-c6cfd9866ed6",
            "nama_pse": "HONG DING PROPERTY (H.K.) LIMITED",
            "nama_se": "MARIA TIURMA",
            "sektor": "Sektor Keuangan",
            "tanggal_terbit": "2022-09-05",
            "url_tdpse_detail": "https://pse.komdigi.go.id/tdpse-detail/11011",
            "website": "owenpetrobitumen.com"
        },
        {
            "id": "9cb1ac0e-e6ac-41f3-b118-34b1cb9c5c25",
            "nama_pse": "HONG DING PROPERTY (H.K.) LIMITED",
            "nama_se": "MARIA TIURMA",
            "sektor": "Sektor Keuangan",
            "tanggal_terbit": "2022-09-05",
            "url_tdpse_detail": "https://pse.komdigi.go.id/tdpse-detail/11014",
            "website": "owenpetro.com"
        },
        {
            "id": "9cb1abda-a793-4cd0-a9ca-293fe3723e2a",
            "nama_pse": "BRAWIJAYA CAPITAL INVESTAMA",
            "nama_se": "MARIA TIURMA",
            "sektor": "Sektor Keuangan",
            "tanggal_terbit": "2022-09-05",
            "url_tdpse_detail": "https://pse.komdigi.go.id/tdpse-detail/11015",
            "website": "-"
        },
        {
            "id": "9cb1ac00-2ba2-41f4-9199-fd898797dc47",
            "nama_pse": "KENCANA PUTRA KENDARI",
            "nama_se": "BANK MANDIRI CABANG MASJID AGUNG KENDARI",
            "sektor": "Sektor Keuangan",
            "tanggal_terbit": "2022-09-05",
            "url_tdpse_detail": "https://pse.komdigi.go.id/tdpse-detail/11016",
            "website": "avienergi.co.id"
        },
        {
            "id": "9cb1ac00-3835-4067-9c6f-92fe24867a4b",
            "nama_pse": "DEVA TRADE SERVICES PTE. LTD. (d/h Pedro Pte. Ltd.)",
            "nama_se": "THE HONGKONG AND SHANGHAI BANKING CORPORATION LIMITED",
            "sektor": "Sektor Keuangan",
            "tanggal_terbit": "2022-09-05",
            "url_tdpse_detail": "https://pse.komdigi.go.id/tdpse-detail/11021",
            "website": "hsbc.com.cn"
        },
        {
            "id": "9cb1ac00-3b33-485c-bf58-6f97f97f0ac0",
            "nama_pse": "BRAWIJAYA CAPITAL INVESTAMA (d/h RUMICORP (PTY) LIMITED LONDON)",
            "nama_se": "MARIA TIURMA",
            "sektor": "Sektor Keuangan",
            "tanggal_terbit": "2022-09-05",
            "url_tdpse_detail": "https://pse.komdigi.go.id/tdpse-detail/11022",
            "website": "bankbni.co.uk"
        },
        {
            "id": "9cb1ac00-3489-4fd2-a730-0b926ce6d390",
            "nama_pse": "SHANTOU JINJIA TRADING CO., LTD.",
            "nama_se": "MARIA TIURMA (ICBC WEALTH MANAGEMENT CO., LTD. - THE BANK OF NEW YORK DEPOSITORY (NOMINEES) LIMITED)",
            "sektor": "Sektor Keuangan",
            "tanggal_terbit": "2022-09-05",
            "url_tdpse_detail": "https://pse.komdigi.go.id/tdpse-detail/11019",
            "website": "owenstrategikmedia.com"
        },
        {
            "id": "9cb1abd9-3772-4c7f-9fcb-e61cfb75f757",
            "nama_pse": "SEMANGAT",
            "nama_se": "SEMANGAT",
            "sektor": "Sektor Keuangan",
            "tanggal_terbit": "2022-08-23",
            "url_tdpse_detail": "https://pse.komdigi.go.id/tdpse-detail/10737",
            "website": "-"
        },
        {
            "id": "9cb1abd6-fd59-4eaf-9e74-7d7ad4062759",
            "nama_pse": "BRAWIJAYA CAPITAL INVESTAMA (d/h RUMICORP (PTY) LIMITED LONDON)",
            "nama_se": "MARIA TIURMA KALAIJ",
            "sektor": "Sektor Keuangan",
            "tanggal_terbit": "2022-08-13",
            "url_tdpse_detail": "https://pse.komdigi.go.id/tdpse-detail/10299",
            "website": "bnisekuritas.co.id"
        },
        {
            "id": "9cb1abf9-cd70-4823-a012-48bca21bf58a",
            "nama_pse": "SHENZHEN ULOVE CREATIVE TECHNOLOGY CO., LTD",
            "nama_se": "DOMINO QIUQIU 99",
            "sektor": "Sektor Teknologi Informasi dan Komunikasi",
            "tanggal_terbit": "2022-08-02",
            "url_tdpse_detail": "https://pse.komdigi.go.id/tdpse-detail/9724",
            "website": "api.cobrasoft.xyz; api.scude.xyz; api.aircraftco.xyz"
        },
        {
            "id": "9cb1abcf-6eba-4fd1-b5a6-09291b3a7ec4",
            "nama_pse": "ESO FOREIGN LTD",
            "nama_se": "ABCD",
            "sektor": "Sektor Keuangan",
            "tanggal_terbit": "2022-07-28",
            "url_tdpse_detail": "https://pse.komdigi.go.id/tdpse-detail/9259",
            "website": "ABCD.com"
        },
        {
            "id": "9cb1abc8-0e5c-4e95-9e13-7d40648f2b5c",
            "nama_pse": "LIMEI GAO",
            "nama_se": "PICMA - PENAMBAH FOTO AI",
            "sektor": "Sektor Teknologi Informasi dan Komunikasi",
            "tanggal_terbit": "2022-07-20",
            "url_tdpse_detail": "https://pse.komdigi.go.id/tdpse-detail/8145",
            "website": "imperial-vision.com/en"
        },
        {
            "id": "9cb1abee-6650-4145-8d64-4e203ac3eb37",
            "nama_pse": "SHENZHEN ULOVE CREATIVE TECHNOLOGY CO., LTD",
            "nama_se": "POP BIG2",
            "sektor": "Sektor Teknologi Informasi dan Komunikasi",
            "tanggal_terbit": "2022-07-20",
            "url_tdpse_detail": "https://pse.komdigi.go.id/tdpse-detail/8220",
            "website": "play.google.com/store/apps/details?id=com.seagames.big2"
        },
        {
            "id": "9cb1abba-cee8-4311-a4f4-540164621010",
            "nama_pse": "SHENZHEN ULOVE CREATIVE TECHNOLOGY CO., LTD",
            "nama_se": "POP DOMINO",
            "sektor": "Sektor Teknologi Informasi dan Komunikasi",
            "tanggal_terbit": "2022-07-20",
            "url_tdpse_detail": "https://pse.komdigi.go.id/tdpse-detail/8221",
            "website": "play.google.com/store/apps/details?id=com.seagames.dominoqq\u0026hl=en\u0026gl=US; ttp://gamespic.uloveplay.com/; http://oss-ap-southeast-1.aliyuncs.com/; id.sunnymars.com"
        },
        {
            "id": "9cb1abee-6bd4-455a-b298-fc6094099126",
            "nama_pse": "SHENZHEN ULOVE CREATIVE TECHNOLOGY CO., LTD",
            "nama_se": "POP POKER",
            "sektor": "Sektor Teknologi Informasi dan Komunikasi",
            "tanggal_terbit": "2022-07-20",
            "url_tdpse_detail": "https://pse.komdigi.go.id/tdpse-detail/8222",
            "website": "play.google.com/store/apps/details?id=com.seagames.texas\u0026hl=en\u0026gl=US"
        },
        {
            "id": "9cb1abc8-9978-4889-bfd3-04af3d5f58ed",
            "nama_pse": "SHENZHEN ULOVE CREATIVE TECHNOLOGY CO., LTD",
            "nama_se": "POP GAPLE",
            "sektor": "Sektor Teknologi Informasi dan Komunikasi",
            "tanggal_terbit": "2022-07-20",
            "url_tdpse_detail": "https://pse.komdigi.go.id/tdpse-detail/8223",
            "website": "play.google.com/store/apps/details?id=com.popgames.gaple"
        },
        {
            "id": "9cb1abee-726a-4825-b9b3-e8ae72af5e54",
            "nama_pse": "SHENZHEN ULOVE CREATIVE TECHNOLOGY CO., LTD",
            "nama_se": "MVP DOMINO",
            "sektor": "Sektor Teknologi Informasi dan Komunikasi",
            "tanggal_terbit": "2022-07-20",
            "url_tdpse_detail": "https://pse.komdigi.go.id/tdpse-detail/8224",
            "website": "play.google.com/store/apps/details?id=com.ipoker.domino\u0026hl=en\u0026gl=US"
        },
        {
            "id": "9cb1abc8-e1a9-48b0-be5e-728dae8876bf",
            "nama_pse": "LINE CORPORATION",
            "nama_se": "LINE MESSENGER",
            "sektor": "Sektor Teknologi Informasi dan Komunikasi",
            "tanggal_terbit": "2022-07-20",
            "url_tdpse_detail": "https://pse.komdigi.go.id/tdpse-detail/8271",
            "website": "line.me/id/"
        },
        {
            "id": "9cb1abee-e6a5-4bb2-af75-428cb881e967",
            "nama_pse": "LINE CORPORATION",
            "nama_se": "WEBTOON",
            "sektor": "Sektor Teknologi Informasi dan Komunikasi",
            "tanggal_terbit": "2022-07-20",
            "url_tdpse_detail": "https://pse.komdigi.go.id/tdpse-detail/8272",
            "website": "webtoons.com/id"
        },
        {
            "id": "9cb1abee-eda1-48f4-a788-289dccdb4ac0",
            "nama_pse": "LINE CORPORATION",
            "nama_se": "LINE STORE",
            "sektor": "Sektor Perdagangan",
            "tanggal_terbit": "2022-07-20",
            "url_tdpse_detail": "https://pse.komdigi.go.id/tdpse-detail/8273",
            "website": "store.line.me/home/id"
        },
        {
            "id": "9cb1abee-f37c-4f01-9654-7a957ce76cd2",
            "nama_pse": "LINE CORPORATION",
            "nama_se": "LINE GAMES",
            "sektor": "Sektor Teknologi Informasi dan Komunikasi",
            "tanggal_terbit": "2022-07-20",
            "url_tdpse_detail": "https://pse.komdigi.go.id/tdpse-detail/8274",
            "website": "line.me/en/?game#allProduct"
        },
        {
            "id": "9cb1abee-f95b-4113-bf29-4f58b5e20c3c",
            "nama_pse": "TWITTER INC",
            "nama_se": "TWITTER",
            "sektor": "Sektor Teknologi Informasi dan Komunikasi",
            "tanggal_terbit": "2022-07-20",
            "url_tdpse_detail": "https://pse.komdigi.go.id/tdpse-detail/8275",
            "website": "twitter.com"
        },
        {
            "id": "9cb1abc0-52c5-405e-bd76-0034230687c4",
            "nama_pse": "DISCORD INC.",
            "nama_se": "DISCORD",
            "sektor": "Sektor Teknologi Informasi dan Komunikasi",
            "tanggal_terbit": "2022-07-19",
            "url_tdpse_detail": "https://pse.komdigi.go.id/tdpse-detail/6681",
            "website": "discord.com"
        },
        {
            "id": "9cb1abbf-1e49-4722-99f0-835f0d856cc8",
            "nama_pse": "RUOCHENG",
            "nama_se": "TEST YI XIA",
            "sektor": "Sektor Teknologi Informasi dan Komunikasi",
            "tanggal_terbit": "2022-07-18",
            "url_tdpse_detail": "https://pse.komdigi.go.id/tdpse-detail/6400",
            "website": "guanmutong.com"
        },
        {
            "id": "9cb1ab9a-c270-4f75-9f47-518f4e1e3e19",
            "nama_pse": "HYPNOTHERAPY PTE LTD",
            "nama_se": "YANG INI HYPNO TEST",
            "sektor": "Sektor Kesehatan",
            "tanggal_terbit": "2022-07-11",
            "url_tdpse_detail": "https://pse.komdigi.go.id/tdpse-detail/5281",
            "website": "yanginihypnotest.com"
        },
        {
            "id": "9cb1aba4-48e3-483f-bf64-bd786cfbbcd3",
            "nama_pse": "DAZN LIMITED",
            "nama_se": "DAZN",
            "sektor": "Sektor Perdagangan",
            "tanggal_terbit": "2022-06-28",
            "url_tdpse_detail": "https://pse.komdigi.go.id/tdpse-detail/4886",
            "website": "dazn.com"
        },
        {
            "id": "9cb1ab99-0223-4bc8-a072-868784a79a07",
            "nama_pse": "BRAWIJAYA CAPITAL INVESTAMA",
            "nama_se": "MARIA TIURMA",
            "sektor": "Sektor Keuangan",
            "tanggal_terbit": "2022-06-28",
            "url_tdpse_detail": "https://pse.komdigi.go.id/tdpse-detail/4887",
            "website": "transpeninsular.wordpress.com"
        },
        {
            "id": "9cb1abae-1ef9-488d-971e-c043ad1b4571",
            "nama_pse": "BANK RAKYAT INDONESIA",
            "nama_se": "MARIA TIURMA",
            "sektor": "Sektor Keuangan",
            "tanggal_terbit": "2022-06-28",
            "url_tdpse_detail": "https://pse.komdigi.go.id/tdpse-detail/4888",
            "website": "transpeninsular.wordpress.com"
        },
        {
            "id": "9cb1aba3-ea18-4d0f-b0a3-6162d5e9aee2",
            "nama_pse": "NABITU TEKNOLOGI ISLAMI",
            "nama_se": "NABITU",
            "sektor": "Sektor Keuangan",
            "tanggal_terbit": "2022-06-23",
            "url_tdpse_detail": "https://pse.komdigi.go.id/tdpse-detail/4677",
            "website": "nabitu.id"
        },
        {
            "id": "9cb1abad-d24d-4cc7-9102-5aaa764678a9",
            "nama_pse": "BRAWIJAYA CAPITAL INVESTAMA (d/h RUMICORP (PTY) LIMITED LONDON)",
            "nama_se": "MARIA TIURMA KALAIJ",
            "sektor": "Sektor Keuangan",
            "tanggal_terbit": "2022-06-23",
            "url_tdpse_detail": "https://pse.komdigi.go.id/tdpse-detail/4680",
            "website": "owenpetrobitumen.com"
        },
        {
            "id": "9cb1ab98-8290-48da-8272-f4a73c5c6d03",
            "nama_pse": "SHANTOU JINJIA TRADING CO., LTD.",
            "nama_se": "91440500055332846K",
            "sektor": "Sektor Keuangan",
            "tanggal_terbit": "2022-06-23",
            "url_tdpse_detail": "https://pse.komdigi.go.id/tdpse-detail/4678",
            "website": "owenpetrobitumen.com"
        },
        {
            "id": "9cb1abac-1926-48e3-a566-8a73f5e788ab",
            "nama_pse": "HONG DING PROPERTY (H.K.) LIMITED",
            "nama_se": "MARIA TIURMA",
            "sektor": "Sektor Keuangan",
            "tanggal_terbit": "2022-05-23",
            "url_tdpse_detail": "https://pse.komdigi.go.id/tdpse-detail/4059",
            "website": "qq.com"
        },
        {
            "id": "9cb1abac-1cbd-48ba-b351-77fa86f3051c",
            "nama_pse": "BANK RAKYAT INDONESIA",
            "nama_se": "BANK RAKYAT INDONESIA",
            "sektor": "Sektor Keuangan",
            "tanggal_terbit": "2022-05-23",
            "url_tdpse_detail": "https://pse.komdigi.go.id/tdpse-detail/4067",
            "website": "belumada.com"
        },
        {
            "id": "9cb1ab95-76ef-4d51-ba25-0ae20440e28e",
            "nama_pse": "DEVA TRADE SERVICES PTE. LTD. (d/h Pedro Pte. Ltd.)",
            "nama_se": "MARIA TIURMA",
            "sektor": "Sektor Keuangan",
            "tanggal_terbit": "2022-05-23",
            "url_tdpse_detail": "https://pse.komdigi.go.id/tdpse-detail/4068",
            "website": "avienergi.com"
        },
        {
            "id": "9cb1abac-1ec2-45e9-aabb-59fbee31aeaf",
            "nama_pse": "KENCANA PUTRA KENDARI",
            "nama_se": "BANK MANDIRI SHANGHAI",
            "sektor": "Sektor Keuangan",
            "tanggal_terbit": "2022-05-23",
            "url_tdpse_detail": "https://pse.komdigi.go.id/tdpse-detail/4077",
            "website": "bankmandirish.com"
        },
        {
            "id": "9cb1aba1-a608-418e-8198-d5ee838b7512",
            "nama_pse": "HONG DING PROPERTY (H.K.) LIMITED",
            "nama_se": "MARIA TIURMA",
            "sektor": "Sektor Keuangan",
            "tanggal_terbit": "2022-05-23",
            "url_tdpse_detail": "https://pse.komdigi.go.id/tdpse-detail/4078",
            "website": "bankmandirish.com"
        }
    ],
    "processingTimeMs": 1,
    "query": "",
    "totalHits": 352,
    "hitsPerPage": 50,
    "page": 7,
    "totalPages": 8
}