{
    "hits": [
        {
            "id": "9cb1ac21-9cf0-4ba6-94f5-4daf1af560ab",
            "nama_pse": "HONG DING PROPERTY (H.K.) LIMITED",
            "nama_se": "DMMX-RANS",
            "sektor": "Sektor Keuangan",
            "tanggal_terbit": "2023-05-14",
            "url_tdpse_detail": "https://pse.komdigi.go.id/tdpse-detail/14663",
            "website": "ransdigital.id"
        },
        {
            "id": "9cb1ac43-94f6-426e-bae4-a13a089d9d88",
            "nama_pse": "HONG DING PROPERTY (H.K.) LIMITED",
            "nama_se": "ETF-CONRAD BALI",
            "sektor": "Sektor Keuangan",
            "tanggal_terbit": "2023-05-14",
            "url_tdpse_detail": "https://pse.komdigi.go.id/tdpse-detail/14664",
            "website": "hilton.com"
        },
        {
            "id": "9cb1ac43-97ae-4450-af6c-c04ac620edc5",
            "nama_pse": "HONG DING PROPERTY (H.K.) LIMITED",
            "nama_se": "ETF-PRESTIGE",
            "sektor": "Sektor Keuangan",
            "tanggal_terbit": "2023-05-14",
            "url_tdpse_detail": "https://pse.komdigi.go.id/tdpse-detail/14665",
            "website": "prestigecorp.co.id"
        },
        {
            "id": "9cb1ac21-a0bb-49b1-8a3a-0c0956f1ece9",
            "nama_pse": "HONG DING PROPERTY (H.K.) LIMITED",
            "nama_se": "ETF-GREENANDARA",
            "sektor": "Sektor Keuangan",
            "tanggal_terbit": "2023-05-14",
            "url_tdpse_detail": "https://pse.komdigi.go.id/tdpse-detail/14666",
            "website": "greenandara.id"
        },
        {
            "id": "9cb1ac21-a3a5-47a1-9035-96bbacbe1685",
            "nama_pse": "SHANTOU JINJIA TRADING CO., LTD.",
            "nama_se": "ETF-SHANTOU I-5",
            "sektor": "Sektor Keuangan",
            "tanggal_terbit": "2023-05-14",
            "url_tdpse_detail": "https://pse.komdigi.go.id/tdpse-detail/14667",
            "website": "margopp.co.id"
        },
        {
            "id": "9cb1ac43-9ae3-4b85-935e-810a86945f94",
            "nama_pse": "SHANTOU JINJIA TRADING CO., LTD.",
            "nama_se": "EBA-BTN (1-5)",
            "sektor": "Sektor Keuangan",
            "tanggal_terbit": "2023-05-14",
            "url_tdpse_detail": "https://pse.komdigi.go.id/tdpse-detail/14668",
            "website": "danareksa.co.id"
        },
        {
            "id": "9cb1ac21-a6ed-45b5-9a93-f50a3f160486",
            "nama_pse": "SHANTOU JINJIA TRADING CO., LTD.",
            "nama_se": "KIK EBA - INDONESIA POWER",
            "sektor": "Sektor Keuangan",
            "tanggal_terbit": "2023-05-14",
            "url_tdpse_detail": "https://pse.komdigi.go.id/tdpse-detail/14669",
            "website": "bridanareksasekurtas.co.id"
        },
        {
            "id": "9cb1ac33-c960-494a-ae20-babcdd5f88fc",
            "nama_pse": "SHANTOU JINJIA TRADING CO., LTD.",
            "nama_se": "DANA PENSIUN PERKEBUNAN",
            "sektor": "Sektor Keuangan",
            "tanggal_terbit": "2023-05-14",
            "url_tdpse_detail": "https://pse.komdigi.go.id/tdpse-detail/14670",
            "website": "dapenbun.co.id"
        },
        {
            "id": "9cb1ac33-cd57-4835-9efe-9aa60e1d020a",
            "nama_pse": "SHANTOU JINJIA TRADING CO., LTD.",
            "nama_se": "KIK EBA-PLN (PIUTANG USAHA)",
            "sektor": "Sektor Keuangan",
            "tanggal_terbit": "2023-05-14",
            "url_tdpse_detail": "https://pse.komdigi.go.id/tdpse-detail/14671",
            "website": "bridanareksasekuritas.co.id"
        },
        {
            "id": "9cb1ac21-aaba-4acc-9dbf-6970f5452e29",
            "nama_pse": "SHANTOU JINJIA TRADING CO., LTD.",
            "nama_se": "RDPT DANAREKSA JS FLEKSI I",
            "sektor": "Sektor Keuangan",
            "tanggal_terbit": "2023-05-14",
            "url_tdpse_detail": "https://pse.komdigi.go.id/tdpse-detail/14672",
            "website": "danareksa.co.id"
        },
        {
            "id": "9cb1ac21-adfa-4d1a-baf6-f27b752a6de5",
            "nama_pse": "SHANTOU JINJIA TRADING CO., LTD.",
            "nama_se": "RDPT BRAWIJAYA (IDN000381407)",
            "sektor": "Sektor Keuangan",
            "tanggal_terbit": "2023-05-14",
            "url_tdpse_detail": "https://pse.komdigi.go.id/tdpse-detail/14673",
            "website": "danareksa.co.id"
        },
        {
            "id": "9cb1ac21-b23f-4d6d-b31d-be91573525b3",
            "nama_pse": "SHANTOU MARIA INVESTMENT CO., LTD.",
            "nama_se": "BNI-AM NUSANTARA ETF MSCI INDONESIA (XBNI)",
            "sektor": "Sektor Keuangan",
            "tanggal_terbit": "2023-05-14",
            "url_tdpse_detail": "https://pse.komdigi.go.id/tdpse-detail/14674",
            "website": "bni-am.co.id"
        },
        {
            "id": "9cb1ac43-9de2-43ee-aecc-c42eaf85ab86",
            "nama_pse": "SHANTOU MARIA INVESTMENT CO., LTD.",
            "nama_se": "NCDUSD-BBNI08XXNCD",
            "sektor": "Sektor Keuangan",
            "tanggal_terbit": "2023-05-14",
            "url_tdpse_detail": "https://pse.komdigi.go.id/tdpse-detail/14675",
            "website": "bnisekuritas.co,id"
        },
        {
            "id": "9cb1ac33-d261-4363-8842-89c8c20ee85e",
            "nama_pse": "SHANTOU MARIA INVESTMENT CO., LTD.",
            "nama_se": "BNISSYARIAH",
            "sektor": "Sektor Keuangan",
            "tanggal_terbit": "2023-05-14",
            "url_tdpse_detail": "https://pse.komdigi.go.id/tdpse-detail/14676",
            "website": "bni-am.co,id"
        },
        {
            "id": "9cb1ac43-a270-45c1-b84e-83a5ceb2c4b9",
            "nama_pse": "SHANTOU MARIA INVESTMENT CO., LTD.",
            "nama_se": "DFIN01XXMF",
            "sektor": "Sektor Keuangan",
            "tanggal_terbit": "2023-05-14",
            "url_tdpse_detail": "https://pse.komdigi.go.id/tdpse-detail/14677",
            "website": "danareksa.co.id"
        },
        {
            "id": "9cb1ac21-b613-4877-83e1-103e41ca98b4",
            "nama_pse": "SEKOLAH TUNAS INDONESIA",
            "nama_se": "YAYASAN MATALESOGE",
            "sektor": "Sektor Keuangan",
            "tanggal_terbit": "2023-05-14",
            "url_tdpse_detail": "https://pse.komdigi.go.id/tdpse-detail/14678",
            "website": "artotelgroup.com"
        },
        {
            "id": "9cb1ac33-d689-42f2-acc0-6726bddc3482",
            "nama_pse": "SEKOLAH TUNAS INDONESIA",
            "nama_se": "ANADI SARANA TATA HUSADA",
            "sektor": "Sektor Keuangan",
            "tanggal_terbit": "2023-05-14",
            "url_tdpse_detail": "https://pse.komdigi.go.id/tdpse-detail/14679",
            "website": "rspuricinere.id"
        },
        {
            "id": "9cb1ac43-a543-4a33-ae69-75678d7d7c85",
            "nama_pse": "SEKOLAH TUNAS INDONESIA",
            "nama_se": "SEKOLAH TUNAS INDONESIA",
            "sektor": "Sektor Keuangan",
            "tanggal_terbit": "2023-05-14",
            "url_tdpse_detail": "https://pse.komdigi.go.id/tdpse-detail/14680",
            "website": "hangyunjiaren.com"
        },
        {
            "id": "9cb1ac33-d9be-43cf-9255-12dfa99fa8be",
            "nama_pse": "SEKOLAH TUNAS INDONESIA",
            "nama_se": "ETF-BENTOEL INVESTAMA (UBS AG)",
            "sektor": "Sektor Keuangan",
            "tanggal_terbit": "2023-05-14",
            "url_tdpse_detail": "https://pse.komdigi.go.id/tdpse-detail/14681",
            "website": "danareksa.co.id"
        },
        {
            "id": "9cb1ac43-a86b-48a0-94e5-63c0443c7bd2",
            "nama_pse": "SEKOLAH TUNAS INDONESIA",
            "nama_se": "SEKOLAH OLAHRAGA PEMBANGUNAN JAYA",
            "sektor": "Sektor Keuangan",
            "tanggal_terbit": "2023-05-14",
            "url_tdpse_detail": "https://pse.komdigi.go.id/tdpse-detail/14682",
            "website": "tigerbitumen.com"
        },
        {
            "id": "9cb1ac21-bafc-4b58-91bc-083501c3844b",
            "nama_pse": "SEKOLAH TUNAS INDONESIA",
            "nama_se": "SEKOLAH TUNAS INDONESIA (SEV)",
            "sektor": "Sektor Keuangan",
            "tanggal_terbit": "2023-05-14",
            "url_tdpse_detail": "https://pse.komdigi.go.id/tdpse-detail/14683",
            "website": "sti-jakarta.com"
        },
        {
            "id": "9cb1ac21-bf2a-4c0e-98bc-93e3ec340fb6",
            "nama_pse": "SEKOLAH TUNAS INDONESIA",
            "nama_se": "YAYASAN TUNAS INDONESIA JAYA",
            "sektor": "Sektor Keuangan",
            "tanggal_terbit": "2023-05-14",
            "url_tdpse_detail": "https://pse.komdigi.go.id/tdpse-detail/14684",
            "website": "hangyunjiaren.com"
        },
        {
            "id": "9cb1ac21-c4b4-43f7-a089-30341e2754c4",
            "nama_pse": "SHANTOU MARIA INVESTMENT CO., LTD.",
            "nama_se": "PEMBANGUNAN JAYA",
            "sektor": "Sektor Keuangan",
            "tanggal_terbit": "2023-05-14",
            "url_tdpse_detail": "https://pse.komdigi.go.id/tdpse-detail/14685",
            "website": "tigerbitumen.com"
        },
        {
            "id": "9cb1ac43-80ba-46a3-a3af-b3b2994c6dbf",
            "nama_pse": "GOLDEN KNIGHT INTERNATIONAL LIMITED",
            "nama_se": "YUANTA - SID SHANTOU \u0026 JULIUS",
            "sektor": "Sektor Keuangan",
            "tanggal_terbit": "2023-05-13",
            "url_tdpse_detail": "https://pse.komdigi.go.id/tdpse-detail/14649",
            "website": "margopp.co.id"
        },
        {
            "id": "9cb1ac43-84a2-4bee-8995-4aa490220a71",
            "nama_pse": "GOLDEN KNIGHT INTERNATIONAL LIMITED",
            "nama_se": "TUNAS INDONESIA (SID. SHANTOU-BRIDANAREKSA)",
            "sektor": "Sektor Keuangan",
            "tanggal_terbit": "2023-05-13",
            "url_tdpse_detail": "https://pse.komdigi.go.id/tdpse-detail/14650",
            "website": "sekolahtunasindonesia.com"
        },
        {
            "id": "9cb1ac43-8753-4d0e-9df2-15948d17f142",
            "nama_pse": "GOLDEN KNIGHT INTERNATIONAL LIMITED",
            "nama_se": "TUNAS INDONESIA (SID. SHANTOU - BRIDANAREKSA)",
            "sektor": "Sektor Keuangan",
            "tanggal_terbit": "2023-05-13",
            "url_tdpse_detail": "https://pse.komdigi.go.id/tdpse-detail/14651",
            "website": "sti-jakarta.com"
        },
        {
            "id": "9cb1ac21-8cb6-4c2e-8be3-87b9f080acda",
            "nama_pse": "GOLDEN KNIGHT INTERNATIONAL LIMITED",
            "nama_se": "EBA-ROYAL BEACH SEMINYAK",
            "sektor": "Sektor Keuangan",
            "tanggal_terbit": "2023-05-13",
            "url_tdpse_detail": "https://pse.komdigi.go.id/tdpse-detail/14652",
            "website": "hrme.co.id"
        },
        {
            "id": "9cb1ac33-a6e5-4a10-951d-37000e910788",
            "nama_pse": "GOLDEN KNIGHT INTERNATIONAL LIMITED",
            "nama_se": "EBA-CONRAD BALI",
            "sektor": "Sektor Keuangan",
            "tanggal_terbit": "2023-05-13",
            "url_tdpse_detail": "https://pse.komdigi.go.id/tdpse-detail/14653",
            "website": "sti-jakarta.com"
        },
        {
            "id": "9cb1ac21-90be-4e42-aae9-455622326349",
            "nama_pse": "GOLDEN KNIGHT INTERNATIONAL LIMITED",
            "nama_se": "SPECIAL EDUCATION \u0026 VOCATIONAL PROGRAM",
            "sektor": "Sektor Keuangan",
            "tanggal_terbit": "2023-05-13",
            "url_tdpse_detail": "https://pse.komdigi.go.id/tdpse-detail/14654",
            "website": "sekolahtunasindonesia.com"
        },
        {
            "id": "9cb1ac43-89b2-4326-b605-3c8cef5b4d0a",
            "nama_pse": "VIER CORPORATION LIMITED",
            "nama_se": "ETF UBS AG BRITSH AMERICAN TOBACCO (RMBA-IDX)",
            "sektor": "Sektor Keuangan",
            "tanggal_terbit": "2023-05-13",
            "url_tdpse_detail": "https://pse.komdigi.go.id/tdpse-detail/14655",
            "website": "mandiri-capital.co.id"
        },
        {
            "id": "9cb1ac21-93f7-4e02-806a-592158cd13c9",
            "nama_pse": "VIER CORPORATION LIMITED",
            "nama_se": "MANTAP BANK / SUPER BANK",
            "sektor": "Sektor Keuangan",
            "tanggal_terbit": "2023-05-13",
            "url_tdpse_detail": "https://pse.komdigi.go.id/tdpse-detail/14656",
            "website": "bankmandiritaspen.co.id"
        },
        {
            "id": "9cb1ac43-8c6d-4765-abb5-4b6473dfb113",
            "nama_pse": "VIER CORPORATION LIMITED",
            "nama_se": "ETF TUNAS RIDEAN",
            "sektor": "Sektor Keuangan",
            "tanggal_terbit": "2023-05-13",
            "url_tdpse_detail": "https://pse.komdigi.go.id/tdpse-detail/14657",
            "website": "mtf.co.id"
        },
        {
            "id": "9cb1ac42-f929-488d-ac5a-9f7c1568d662",
            "nama_pse": "HSBC TRINKAUS \u0026 BURKHARDT (INTERNATIONAL) S.A.",
            "nama_se": "RUMICORP",
            "sektor": "Sektor Keuangan",
            "tanggal_terbit": "2023-05-05",
            "url_tdpse_detail": "https://pse.komdigi.go.id/tdpse-detail/14558",
            "website": "-"
        },
        {
            "id": "9cb1ac42-fc6d-45fa-9955-c2646061b477",
            "nama_pse": "HSBC TRINKAUS \u0026 BURKHARDT (INTERNATIONAL) S.A.",
            "nama_se": "VIERLINES",
            "sektor": "Sektor Keuangan",
            "tanggal_terbit": "2023-05-05",
            "url_tdpse_detail": "https://pse.komdigi.go.id/tdpse-detail/14559",
            "website": "-"
        },
        {
            "id": "9cb1ac33-00d2-4220-a298-39c528845165",
            "nama_pse": "HSBC TRINKAUS \u0026 BURKHARDT (INTERNATIONAL) S.A.",
            "nama_se": "SPECIAL OLYMPICS",
            "sektor": "Sektor Keuangan",
            "tanggal_terbit": "2023-05-05",
            "url_tdpse_detail": "https://pse.komdigi.go.id/tdpse-detail/14560",
            "website": "-"
        },
        {
            "id": "9cb1ac20-ce55-4047-8af9-cab7ade6ba01",
            "nama_pse": "HSBC TRINKAUS \u0026 BURKHARDT (INTERNATIONAL) S.A.",
            "nama_se": "LEMBAGA PENGELOLA DANA PENDIDIKAN",
            "sektor": "Sektor Keuangan",
            "tanggal_terbit": "2023-05-05",
            "url_tdpse_detail": "https://pse.komdigi.go.id/tdpse-detail/14561",
            "website": "-"
        },
        {
            "id": "9cb1ac33-03ee-4d48-8a5e-cdd1715fdbe8",
            "nama_pse": "HSBC TRINKAUS \u0026 BURKHARDT (INTERNATIONAL) S.A.",
            "nama_se": "MPYGLOBAL",
            "sektor": "Sektor Keuangan",
            "tanggal_terbit": "2023-05-05",
            "url_tdpse_detail": "https://pse.komdigi.go.id/tdpse-detail/14562",
            "website": "-"
        },
        {
            "id": "9cb1ac33-081d-49f7-b2da-3ac5f2302689",
            "nama_pse": "HSBC TRINKAUS \u0026 BURKHARDT (INTERNATIONAL) S.A.",
            "nama_se": "MATHIAS SPORT ACADEMY",
            "sektor": "Sektor Keuangan",
            "tanggal_terbit": "2023-05-05",
            "url_tdpse_detail": "https://pse.komdigi.go.id/tdpse-detail/14563",
            "website": "-"
        },
        {
            "id": "9cb1ac20-c046-4d92-b1ad-e734e4d9b012",
            "nama_pse": "Indonesian Bank Mandiri Co., Ltd.",
            "nama_se": "WUHAN.CAIDIAN-91420114303777386G",
            "sektor": "Sektor Keuangan",
            "tanggal_terbit": "2023-05-04",
            "url_tdpse_detail": "https://pse.komdigi.go.id/tdpse-detail/14544",
            "website": "-"
        },
        {
            "id": "9cb1ac42-da4b-4241-b03b-8cf4308742ac",
            "nama_pse": "Indonesian Bank Mandiri Co., Ltd.",
            "nama_se": "JANTRA JAGAT PRAWIRA PATIWIRI",
            "sektor": "Sektor Keuangan",
            "tanggal_terbit": "2023-05-04",
            "url_tdpse_detail": "https://pse.komdigi.go.id/tdpse-detail/14545",
            "website": "-"
        },
        {
            "id": "9cb1ac42-dd6b-4ff0-b196-fde901fce547",
            "nama_pse": "Indonesian Bank Mandiri Co., Ltd.",
            "nama_se": "SHANGHAI-913100005820803454",
            "sektor": "Sektor Keuangan",
            "tanggal_terbit": "2023-05-04",
            "url_tdpse_detail": "https://pse.komdigi.go.id/tdpse-detail/14546",
            "website": "-"
        },
        {
            "id": "9cb1ac32-e932-416e-8aa8-3e4529ec7461",
            "nama_pse": "GUANGXI XIN WEI HOTEL MANAGEMENT CO. LTD.",
            "nama_se": "GUANGXI-91450100695386770X",
            "sektor": "Sektor Keuangan",
            "tanggal_terbit": "2023-05-03",
            "url_tdpse_detail": "https://pse.komdigi.go.id/tdpse-detail/14539",
            "website": "-"
        },
        {
            "id": "9cb1ac42-bd30-47d9-8b63-2315fa7889dc",
            "nama_pse": "SHANTOU JINJIA TRADING CO., LTD.",
            "nama_se": "REPO SAHAM BANK NEGARA INDONESIA (BBNI-IDX)",
            "sektor": "Sektor Keuangan",
            "tanggal_terbit": "2023-05-03",
            "url_tdpse_detail": "https://pse.komdigi.go.id/tdpse-detail/14523",
            "website": "-"
        },
        {
            "id": "9cb1ac32-d1b9-49aa-acc9-07f263fb8add",
            "nama_pse": "SHANTOU JINJIA TRADING CO., LTD.",
            "nama_se": "REPO SAHAM BANK RAKYAT INDONESIA (BBRI-IDX)",
            "sektor": "Sektor Keuangan",
            "tanggal_terbit": "2023-05-03",
            "url_tdpse_detail": "https://pse.komdigi.go.id/tdpse-detail/14524",
            "website": "-"
        },
        {
            "id": "9cb1ac20-ae30-4062-a8d4-c1552a0be59b",
            "nama_pse": "SHANTOU JINJIA TRADING CO., LTD.",
            "nama_se": "SMIC TRADING",
            "sektor": "Sektor Keuangan",
            "tanggal_terbit": "2023-05-03",
            "url_tdpse_detail": "https://pse.kominfo.go.id/tdpse-detail/14526",
            "website": "-"
        },
        {
            "id": "9cb1ac07-6993-4eeb-876b-42427e691ad0",
            "nama_pse": "PT DIRGANTARA AVIATION ENGINEERING",
            "nama_se": "DIRGANTARA AVIATION",
            "sektor": "Sektor Perdagangan",
            "tanggal_terbit": "2022-11-17",
            "url_tdpse_detail": "https://pse.komdigi.go.id/tdpse-detail/12348",
            "website": "-"
        },
        {
            "id": "9cb1abe2-b655-45f7-bb92-6ea65361c255",
            "nama_pse": "MPY GLOBAL SDN BHD",
            "nama_se": "GOLDEN KNIGHT INTERNATIONAL LIMITED",
            "sektor": "Sektor Keuangan",
            "tanggal_terbit": "2022-11-16",
            "url_tdpse_detail": "https://pse.komdigi.go.id/tdpse-detail/12321",
            "website": "-"
        },
        {
            "id": "9cb1abe2-ba20-47ab-8895-829413a4a7f9",
            "nama_pse": "SHANTOU JINJIA TRADING CO., LTD.",
            "nama_se": "SHANTOU JINJIA TRADING CO., LTD (SMIC - MARIAKALAIJ CORP)",
            "sektor": "Sektor Keuangan",
            "tanggal_terbit": "2022-11-16",
            "url_tdpse_detail": "https://pse.komdigi.go.id/tdpse-detail/12323",
            "website": "-"
        },
        {
            "id": "9cb1ac07-4b69-4a1e-9c8d-29057270bd2a",
            "nama_pse": "KOPERASI PERIKANAN PEREMPANGAN SAONANTO (KOPPERSON)",
            "nama_se": "KOPERASI SOANANTO (D'COINS)",
            "sektor": "Sektor Keuangan",
            "tanggal_terbit": "2022-11-15",
            "url_tdpse_detail": "https://pse.komdigi.go.id/tdpse-detail/12318",
            "website": "dwac-ca.com"
        },
        {
            "id": "9cb1abe2-aa37-43bd-ab7f-2a7676343a97",
            "nama_pse": "KOPPERSON",
            "nama_se": "KOPERASI SOANANTO",
            "sektor": "Sektor Keuangan",
            "tanggal_terbit": "2022-11-15",
            "url_tdpse_detail": "https://pse.komdigi.go.id/tdpse-detail/12316",
            "website": "banksultra.co.id"
        }
    ],
    "processingTimeMs": 1,
    "query": "",
    "totalHits": 352,
    "hitsPerPage": 50,
    "page": 2,
    "totalPages": 8
}