{
    "hits": [
        {
            "id": "9da36fa7-8a33-493e-abc5-2456f1faba85",
            "nama_pse": "SHANTOU ZHONGBIN HETAI IMPORT \u0026 EXPORT TRADE CO., LTD.",
            "nama_se": "OWEN STRATEGIK MEDIA",
            "sektor": "Sektor Teknologi Informasi dan Komunikasi",
            "tanggal_terbit": "2024-12-04",
            "url_tdpse_detail": "https://pse.komdigi.go.id/tdpse-detail/21438",
            "website": "-"
        },
        {
            "id": "9da372d9-25b2-4d9e-bc29-4d24280227ce",
            "nama_pse": "SHANTOU ZHONGBIN HETAI IMPORT \u0026 EXPORT TRADE CO., LTD.",
            "nama_se": "MAHIR MUDA PRATAMA",
            "sektor": "Sektor Keuangan",
            "tanggal_terbit": "2024-12-04",
            "url_tdpse_detail": "https://pse.komdigi.go.id/tdpse-detail/21439",
            "website": "-"
        },
        {
            "id": "9da376cb-8919-469f-9726-337854f9657d",
            "nama_pse": "SHANTOU HIGH-TECH INDUSTRIAL DEVELOPMENT ZONE LIQIAO ELECTRONIC EQUIPMENT CO., LTD.",
            "nama_se": "OWEN PETRO BITUMEN",
            "sektor": "Sektor Keuangan",
            "tanggal_terbit": "2024-12-04",
            "url_tdpse_detail": "https://pse.komdigi.go.id/tdpse-detail/21440",
            "website": "-"
        },
        {
            "id": "9da380f5-0c25-456f-8622-61fcff3e3fff",
            "nama_pse": "SHANTOU HIGH-TECH INDUSTRIAL DEVELOPMENT ZONE LIQIAO ELECTRONIC EQUIPMENT CO., LTD.",
            "nama_se": "FUJIAN TAN ZHONG INTERNATIONAL TRADING",
            "sektor": "Sektor Teknologi Informasi dan Komunikasi",
            "tanggal_terbit": "2024-12-04",
            "url_tdpse_detail": "https://pse.komdigi.go.id/tdpse-detail/21441",
            "website": "-"
        },
        {
            "id": "9da45082-9295-49ec-b2e5-5d177a3dd255",
            "nama_pse": "SHANTOU ZHONGBIN HETAI IMPORT AND EXPORT TRADE CO., LTD.",
            "nama_se": "SHANTOU ZHONGFU ELECTRONIC TECHNOLOGY",
            "sektor": "Sektor Keuangan",
            "tanggal_terbit": "2024-12-04",
            "url_tdpse_detail": "https://pse.komdigi.go.id/tdpse-detail/21446",
            "website": "-"
        },
        {
            "id": "9da456ea-dd8e-4fbb-8f3f-29aa2ca62ae3",
            "nama_pse": "FUJIAN TANGZHONG INTERNATIONAL TRADE CO., LTD.",
            "nama_se": "SHANTOU MARIA INVESTMENT",
            "sektor": "Sektor Keuangan",
            "tanggal_terbit": "2024-12-04",
            "url_tdpse_detail": "https://pse.komdigi.go.id/tdpse-detail/21447",
            "website": "-"
        },
        {
            "id": "9da45f9a-f7a8-40d5-bc1d-d6ce65b91b56",
            "nama_pse": "BAOTOU TUOLITUO TECHNOLOGY CO., LTD.",
            "nama_se": "SHANTOU MARIA INVESTMENT",
            "sektor": "Sektor Keuangan",
            "tanggal_terbit": "2024-12-04",
            "url_tdpse_detail": "https://pse.komdigi.go.id/tdpse-detail/21448",
            "website": "-"
        },
        {
            "id": "9da46084-6c11-496f-b1be-37b2eb2129f7",
            "nama_pse": "Shantou Zhongbin Hetai Import And Export Trade Co., Ltd.",
            "nama_se": "SHANTOU MARIA INVESTMENT",
            "sektor": "Sektor Keuangan",
            "tanggal_terbit": "2024-12-04",
            "url_tdpse_detail": "https://pse.komdigi.go.id/tdpse-detail/21449",
            "website": "-"
        },
        {
            "id": "9da46fbd-6fcd-4c95-8256-c5fea13e4b85",
            "nama_pse": "Shantou Zhongbin Hetai Import And Export Trade Co., Ltd.",
            "nama_se": "SHANTOU MARIA INVESTMENT",
            "sektor": "Sektor Keuangan",
            "tanggal_terbit": "2024-12-04",
            "url_tdpse_detail": "https://pse.komdigi.go.id/tdpse-detail/21451",
            "website": "-"
        },
        {
            "id": "9da473b0-da7d-43eb-8435-23fb71d2f8e1",
            "nama_pse": "Shantou Zhongfu Electronic Technology Co., Ltd.",
            "nama_se": "SHANTOU MARIA INVESTMENT",
            "sektor": "Sektor Keuangan",
            "tanggal_terbit": "2024-12-04",
            "url_tdpse_detail": "https://pse.komdigi.go.id/tdpse-detail/21452",
            "website": "-"
        },
        {
            "id": "9da477c3-6937-46a2-a048-5701a389d362",
            "nama_pse": "Shantou Zhongfu Electronic Technology Co., Ltd.",
            "nama_se": "SHANTOU MARIA INVESTMENT",
            "sektor": "Sektor Keuangan",
            "tanggal_terbit": "2024-12-04",
            "url_tdpse_detail": "https://pse.komdigi.go.id/tdpse-detail/21453",
            "website": "-"
        },
        {
            "id": "9da47e6c-e80c-4fa4-8564-15d127ae6ff6",
            "nama_pse": "SHANTOU MARIA INVESTMENT CO., LTD.",
            "nama_se": "SHANTOU MARIA INVESTMENT",
            "sektor": "Sektor Keuangan",
            "tanggal_terbit": "2024-12-04",
            "url_tdpse_detail": "https://pse.komdigi.go.id/tdpse-detail/21455",
            "website": "-"
        },
        {
            "id": "9da48746-26bc-4af3-a0dd-16ae81914fd0",
            "nama_pse": "SHANTOU JINJIA TRADING CO., LTD.",
            "nama_se": "SHANTOU MARIA INVESTMENT",
            "sektor": "Sektor Keuangan",
            "tanggal_terbit": "2024-12-04",
            "url_tdpse_detail": "https://pse.komdigi.go.id/tdpse-detail/21456",
            "website": "-"
        },
        {
            "id": "9da49ae5-a95c-4671-82f9-f16477b00f33",
            "nama_pse": "Shantou Zhongbin Hetai Import And Export Trade Co., Ltd.",
            "nama_se": "SHANTOU MARIA INVESTMENT CO., LTD.",
            "sektor": "Sektor Keuangan",
            "tanggal_terbit": "2024-12-04",
            "url_tdpse_detail": "https://pse.komdigi.go.id/tdpse-detail/21459",
            "website": "-"
        },
        {
            "id": "9da4a06d-dda3-4f16-8904-31e3e5c4a9d8",
            "nama_pse": "SHANTOU MARIA INVESTMENT CO., LTD.",
            "nama_se": "SHANTOU MARIA INVESTMENT",
            "sektor": "Sektor Keuangan",
            "tanggal_terbit": "2024-12-04",
            "url_tdpse_detail": "https://pse.komdigi.go.id/tdpse-detail/21460",
            "website": "-"
        },
        {
            "id": "9da4a3e9-8c9c-4a9d-a552-d74c3bc5b565",
            "nama_pse": "SHANTOU MARIA INVESTMENT CO., LTD.",
            "nama_se": "SHANTOU MARIA INVESTMENT",
            "sektor": "Sektor Keuangan",
            "tanggal_terbit": "2024-12-04",
            "url_tdpse_detail": "https://pse.komdigi.go.id/tdpse-detail/21461",
            "website": "-"
        },
        {
            "id": "9da4ab1e-3adf-49be-93a8-172beddfb979",
            "nama_pse": "SHANTOU MARIA INVESTMENT CO., LTD.",
            "nama_se": "SHANTOU MARIA INVESTMENT",
            "sektor": "Sektor Keuangan",
            "tanggal_terbit": "2024-12-04",
            "url_tdpse_detail": "https://pse.komdigi.go.id/tdpse-detail/21462",
            "website": "-"
        },
        {
            "id": "9da4b6a9-50a7-4898-a357-9df88feca00b",
            "nama_pse": "SHANTOU MARIA INVESTMENT CO., LTD.",
            "nama_se": "SHANTOU MARIA INVESTMENT",
            "sektor": "Sektor Keuangan",
            "tanggal_terbit": "2024-12-04",
            "url_tdpse_detail": "https://pse.komdigi.go.id/tdpse-detail/21464",
            "website": "-"
        },
        {
            "id": "9da4b6e0-5452-47e8-9d42-ccdbe313b7dc",
            "nama_pse": "SHANTOU MARIA INVESTMENT CO., LTD.",
            "nama_se": "SHANTOU MARIA INVESTMENT",
            "sektor": "Sektor Keuangan",
            "tanggal_terbit": "2024-12-04",
            "url_tdpse_detail": "https://pse.komdigi.go.id/tdpse-detail/21465",
            "website": "-"
        },
        {
            "id": "9da4b3af-93d0-43c6-ba0b-db0463bbe36c",
            "nama_pse": "SHANTOU MARIA INVESTMENT CO., LTD.",
            "nama_se": "SHANTOU MARIA INVESTMENT",
            "sektor": "Sektor Keuangan",
            "tanggal_terbit": "2024-12-04",
            "url_tdpse_detail": "https://pse.komdigi.go.id/tdpse-detail/21463",
            "website": "-"
        },
        {
            "id": "9da4bafe-9fbd-4d80-b5e9-9e935acbf6d1",
            "nama_pse": "SHANTOU MARIA INVESTMENT CO., LTD.",
            "nama_se": "SHANTOU MARIA INVESTMENT",
            "sektor": "Sektor Keuangan",
            "tanggal_terbit": "2024-12-04",
            "url_tdpse_detail": "https://pse.komdigi.go.id/tdpse-detail/21466",
            "website": "-"
        },
        {
            "id": "9da4be88-3ebf-4570-96f7-20160c679676",
            "nama_pse": "SHANTOU MARIA INVESTMENT CO., LTD.",
            "nama_se": "SHANTOU MARIA INVESTMENT",
            "sektor": "Sektor Keuangan",
            "tanggal_terbit": "2024-12-04",
            "url_tdpse_detail": "https://pse.komdigi.go.id/tdpse-detail/21467",
            "website": "-"
        },
        {
            "id": "9da4c5e6-3a0e-4245-8179-51b0905d7715",
            "nama_pse": "SHANTOU MARIA INVESTMENT CO., LTD.",
            "nama_se": "SHANTOU MARIA INVESTMENT",
            "sektor": "Sektor Keuangan",
            "tanggal_terbit": "2024-12-04",
            "url_tdpse_detail": "https://pse.komdigi.go.id/tdpse-detail/21468",
            "website": "-"
        },
        {
            "id": "9da4cc04-b0bf-4644-8019-1265b51760b5",
            "nama_pse": "SHANTOU MARIA INVESTMENT CO., LTD.",
            "nama_se": "SHANTOU MARIA INVESTMENT",
            "sektor": "Sektor Keuangan",
            "tanggal_terbit": "2024-12-04",
            "url_tdpse_detail": "https://pse.komdigi.go.id/tdpse-detail/21469",
            "website": "-"
        },
        {
            "id": "9da4d096-34d0-4975-9e10-a8fdc61e05e9",
            "nama_pse": "SHANTOU MARIA INVESTMENT CO., LTD.",
            "nama_se": "SHANTOU MARIA INVESTMENT",
            "sektor": "Sektor Keuangan",
            "tanggal_terbit": "2024-12-04",
            "url_tdpse_detail": "https://pse.komdigi.go.id/tdpse-detail/21470",
            "website": "-"
        },
        {
            "id": "9da4d62a-7dda-4f31-b754-36709f4833eb",
            "nama_pse": "SHANTOU MARIA INVESTMENT CO., LTD.",
            "nama_se": "SHANTOU MARIA INVESTMENT",
            "sektor": "Sektor Keuangan",
            "tanggal_terbit": "2024-12-04",
            "url_tdpse_detail": "https://pse.komdigi.go.id/tdpse-detail/21471",
            "website": "-"
        },
        {
            "id": "9da4da47-a2db-46f7-aa1b-a05f4b6ee1cb",
            "nama_pse": "SHANTOU MARIA INVESTMENT CO., LTD.",
            "nama_se": "SHANTOU MARIA INVESTMENT",
            "sektor": "Sektor Keuangan",
            "tanggal_terbit": "2024-12-04",
            "url_tdpse_detail": "https://pse.komdigi.go.id/tdpse-detail/21472",
            "website": "-"
        },
        {
            "id": "9da4e19c-cf3f-4456-9012-d1cfc22568dd",
            "nama_pse": "SHANTOU MARIA INVESTMENT CO., LTD.",
            "nama_se": "SHANTOU MARIA INVESTMENT",
            "sektor": "Sektor Keuangan",
            "tanggal_terbit": "2024-12-04",
            "url_tdpse_detail": "https://pse.komdigi.go.id/tdpse-detail/21473",
            "website": "-"
        },
        {
            "id": "9da4e46f-2f27-4a9b-92a7-3553a43b145f",
            "nama_pse": "Shantou Zhongfu Electronic Technology Co., Ltd.",
            "nama_se": "SHANTOU MARIA INVESTMENT",
            "sektor": "Sektor Keuangan",
            "tanggal_terbit": "2024-12-04",
            "url_tdpse_detail": "https://pse.komdigi.go.id/tdpse-detail/21474",
            "website": "-"
        },
        {
            "id": "9da4e724-bf8b-412b-9ca7-41bf5816c693",
            "nama_pse": "SHANTOU MARIA INVESTMENT CO., LTD.",
            "nama_se": "SHANTOU MARIA INVESTMENT",
            "sektor": "Sektor Keuangan",
            "tanggal_terbit": "2024-12-04",
            "url_tdpse_detail": "https://pse.komdigi.go.id/tdpse-detail/21475",
            "website": "-"
        },
        {
            "id": "9da4edec-2af8-4af4-b498-9f278320b5f5",
            "nama_pse": "SHANTOU MARIA INVESTMENT CO., LTD.",
            "nama_se": "SHANTOU MARIA INVESTMENT",
            "sektor": "Sektor Keuangan",
            "tanggal_terbit": "2024-12-04",
            "url_tdpse_detail": "https://pse.komdigi.go.id/tdpse-detail/21476",
            "website": "-"
        },
        {
            "id": "9da4f0d8-c31b-4145-a593-163d5a71b6e9",
            "nama_pse": "SHANTOU MARIA INVESTMENT CO., LTD.",
            "nama_se": "SHANTOU MARIA INVESTMENT",
            "sektor": "Sektor Keuangan",
            "tanggal_terbit": "2024-12-04",
            "url_tdpse_detail": "https://pse.komdigi.go.id/tdpse-detail/21477",
            "website": "-"
        },
        {
            "id": "9da4f6e2-149d-44de-b692-0de585f14ac0",
            "nama_pse": "SHANTOU MARIA INVESTMENT CO., LTD.",
            "nama_se": "SHANTOU MARIA INVESTMENT",
            "sektor": "Sektor Keuangan",
            "tanggal_terbit": "2024-12-04",
            "url_tdpse_detail": "https://pse.komdigi.go.id/tdpse-detail/21479",
            "website": "-"
        },
        {
            "id": "9da4fa99-9108-4747-b087-d8e8fee3a29a",
            "nama_pse": "SHANTOU MARIA INVESTMENT CO., LTD.",
            "nama_se": "SHANTOU MARIA INVESTMENT",
            "sektor": "Sektor Keuangan",
            "tanggal_terbit": "2024-12-04",
            "url_tdpse_detail": "https://pse.komdigi.go.id/tdpse-detail/21480",
            "website": "-"
        },
        {
            "id": "9da4ff7d-ea15-48b7-8a22-6e55118d6cfd",
            "nama_pse": "SHANTOU MARIA INVESTMENT CO., LTD.",
            "nama_se": "SHANTOU MARIA INVESTMENT",
            "sektor": "Sektor Keuangan",
            "tanggal_terbit": "2024-12-04",
            "url_tdpse_detail": "https://pse.komdigi.go.id/tdpse-detail/21481",
            "website": "-"
        },
        {
            "id": "9da503f2-6e8b-4ac6-b6cb-6b18877a45d0",
            "nama_pse": "SHANTOU MARIA INVESTMENT CO., LTD.",
            "nama_se": "SHANTOU MARIA INVESTMENT",
            "sektor": "Sektor Keuangan",
            "tanggal_terbit": "2024-12-04",
            "url_tdpse_detail": "https://pse.komdigi.go.id/tdpse-detail/21482",
            "website": "-"
        },
        {
            "id": "9da509d5-db85-4569-873b-0b884024fb70",
            "nama_pse": "SHANTOU MARIA INVESTMENT CO., LTD.",
            "nama_se": "SHANTOU MARIA INVESTMENT",
            "sektor": "Sektor Keuangan",
            "tanggal_terbit": "2024-12-04",
            "url_tdpse_detail": "https://pse.komdigi.go.id/tdpse-detail/21483",
            "website": "-"
        },
        {
            "id": "9da5148b-207d-4355-988f-4840139c8c2c",
            "nama_pse": "SHANTOU MARIA INVESTMENT CO., LTD.",
            "nama_se": "SHANTOU MARIA INVESTMENT CO., LTD.",
            "sektor": "Sektor Keuangan",
            "tanggal_terbit": "2024-12-04",
            "url_tdpse_detail": "https://pse.komdigi.go.id/tdpse-detail/21484",
            "website": "-"
        },
        {
            "id": "9da52869-9811-4842-acb9-7a2bdb75093c",
            "nama_pse": "SHANTOU ZHONGBIN HETAI IMPORT AND EXPORT TRADE CO., LTD.",
            "nama_se": "MAARTEN LUTHER SAPULETE",
            "sektor": "Sektor Keuangan",
            "tanggal_terbit": "2024-12-04",
            "url_tdpse_detail": "https://pse.komdigi.go.id/tdpse-detail/21486",
            "website": "-"
        },
        {
            "id": "9da5151a-7203-49c7-974a-ab1c95f041c2",
            "nama_pse": "MPY GLOBAL (UK) LTD",
            "nama_se": "SHANTOU MARIA INVESTMENT CO., LTD.",
            "sektor": "Sektor Keuangan",
            "tanggal_terbit": "2024-12-04",
            "url_tdpse_detail": "https://pse.kominfo.go.id/tdpse-detail/21485",
            "website": "-"
        },
        {
            "id": "9da542e1-9964-4565-874d-d26a8032d375",
            "nama_pse": "SHANTOU MARIA INVESTMENT CO., LTD.",
            "nama_se": "SHANTOU MARIA INVESTMENT",
            "sektor": "Sektor Keuangan",
            "tanggal_terbit": "2024-12-04",
            "url_tdpse_detail": "https://pse.komdigi.go.id/tdpse-detail/21491",
            "website": "-"
        },
        {
            "id": "9da542f2-7412-4b4d-b455-e094c9c3cb75",
            "nama_pse": "SHANTOU MARIA INVESTMENT CO., LTD.",
            "nama_se": "SHANTOU MARIA INVESTMENT",
            "sektor": "Sektor Keuangan",
            "tanggal_terbit": "2024-12-04",
            "url_tdpse_detail": "https://pse.komdigi.go.id/tdpse-detail/21492",
            "website": "-"
        },
        {
            "id": "9da54308-cce4-4142-b6d2-5c6138925a92",
            "nama_pse": "SHANTOU MARIA INVESTMENT CO., LTD.",
            "nama_se": "SHANTOU MARIA INVESTMENT CO., LTD.",
            "sektor": "Sektor Keuangan",
            "tanggal_terbit": "2024-12-04",
            "url_tdpse_detail": "https://pse.komdigi.go.id/tdpse-detail/21493",
            "website": "-"
        },
        {
            "id": "9da54647-3711-4d2a-a294-cb0df1977f90",
            "nama_pse": "SHANTOU MARIA INVESTMENT CO., LTD.",
            "nama_se": "SHANTOU MARIA INVESTMENT",
            "sektor": "Sektor Keuangan",
            "tanggal_terbit": "2024-12-04",
            "url_tdpse_detail": "https://pse.komdigi.go.id/tdpse-detail/21494",
            "website": "-"
        },
        {
            "id": "9da2be6c-a26c-4a5f-8a60-02bb3d53f095",
            "nama_pse": "SHANTOU ZHONGFU ELECTRONIC TECHNOLOGY CO., LTD.",
            "nama_se": "MARIAKALAIJ BLOCKCHAIN TECHNOLOGY SYSTEM",
            "sektor": "Sektor Keuangan",
            "tanggal_terbit": "2024-12-03",
            "url_tdpse_detail": "https://pse.komdigi.go.id/tdpse-detail/21415",
            "website": "-"
        },
        {
            "id": "9da2dcf7-24d6-4689-aac6-eda735a55396",
            "nama_pse": "SHANTOU ZHONGBIN HETAI IMPORT AND EXPORT TRADE CO., LTD.",
            "nama_se": "MARIAKALAIJ BLOCKCHAIN TECHNOLOGY SYSTEM",
            "sektor": "Sektor Keuangan",
            "tanggal_terbit": "2024-12-03",
            "url_tdpse_detail": "https://pse.komdigi.go.id/tdpse-detail/21416",
            "website": "-"
        },
        {
            "id": "9da2deb1-8ece-4ef5-a4ab-3157c565686b",
            "nama_pse": "SHANTOU MARIA INVESTMENT CO., LTD.",
            "nama_se": "MARIAKALAIJ BLOCKCHAIN TECHNOLOGY SYSTEM",
            "sektor": "Sektor Keuangan",
            "tanggal_terbit": "2024-12-03",
            "url_tdpse_detail": "https://pse.komdigi.go.id/tdpse-detail/21417",
            "website": "-"
        },
        {
            "id": "9da2df00-8200-4cd4-b41e-ccfeef394172",
            "nama_pse": "SHANTOU ZHONGFU ELECTRONIC TECHNOLOGY CO., LTD.",
            "nama_se": "MARIAKALAIJ BLOCKCHAIN TECHNOLOGY SYSTEM",
            "sektor": "Sektor Keuangan",
            "tanggal_terbit": "2024-12-03",
            "url_tdpse_detail": "https://pse.komdigi.go.id/tdpse-detail/21418",
            "website": "-"
        },
        {
            "id": "9da2f21a-c709-4432-bdb8-5778963411db",
            "nama_pse": "HONG DING PROPERTY (H.K.) LIMITED",
            "nama_se": "MARIAKALAIJ BLOCKCHAIN SYSTEM",
            "sektor": "Sektor Keuangan",
            "tanggal_terbit": "2024-12-03",
            "url_tdpse_detail": "https://pse.komdigi.go.id/tdpse-detail/21419",
            "website": "-"
        },
        {
            "id": "9da2f60a-a300-4a9b-b921-3b5072a06020",
            "nama_pse": "Shantou Zhongfu Electronic Technology Co., Ltd.",
            "nama_se": "MARIAKALAIJ BLOCKCHAIN TECHNOLOGY SYSTEM",
            "sektor": "Sektor Keuangan",
            "tanggal_terbit": "2024-12-03",
            "url_tdpse_detail": "https://pse.komdigi.go.id/tdpse-detail/21421",
            "website": "-"
        }
    ],
    "processingTimeMs": 1,
    "query": "",
    "totalHits": 1139,
    "hitsPerPage": 50,
    "page": 5,
    "totalPages": 23
}