{
    "hits": [
        {
            "id": "9da2fcd8-c6ed-4c71-921b-f791fd005631",
            "nama_pse": "Shantou Zhongbin Hetai Import And Export Trade Co., Ltd.",
            "nama_se": "OWEN STRATEGIK MEDIA",
            "sektor": "Sektor Keuangan",
            "tanggal_terbit": "2024-12-03",
            "url_tdpse_detail": "https://pse.komdigi.go.id/tdpse-detail/21422",
            "website": "-"
        },
        {
            "id": "9da3028e-02aa-4d61-8e6b-a0ce3cadb2b4",
            "nama_pse": "Shantou Zhongfu Electronic Technology Co., Ltd.",
            "nama_se": "TUNAS INDONESIA JAYA",
            "sektor": "Sektor Keuangan",
            "tanggal_terbit": "2024-12-03",
            "url_tdpse_detail": "https://pse.komdigi.go.id/tdpse-detail/21423",
            "website": "-"
        },
        {
            "id": "9da305f0-3034-4116-b528-af1469e64083",
            "nama_pse": "Shantou Zhongfu Electronic Technology Co., Ltd.",
            "nama_se": "INDAH AGUNG MANDIRI",
            "sektor": "Sektor Keuangan",
            "tanggal_terbit": "2024-12-03",
            "url_tdpse_detail": "https://pse.komdigi.go.id/tdpse-detail/21424",
            "website": "-"
        },
        {
            "id": "9da30983-792c-4f9c-bedd-f5c5f7d29550",
            "nama_pse": "Shantou Zhongfu Electronic Technology Co., Ltd.",
            "nama_se": "MUARA SEJAGAT ABADI",
            "sektor": "Sektor Keuangan",
            "tanggal_terbit": "2024-12-03",
            "url_tdpse_detail": "https://pse.komdigi.go.id/tdpse-detail/21425",
            "website": "-"
        },
        {
            "id": "9da30a3e-821c-4cbf-b608-a87844d47292",
            "nama_pse": "Shantou Zhongbin Hetai Import And Export Trade Co., Ltd.",
            "nama_se": "MARIA FORBIS INTERNASIONAL",
            "sektor": "Sektor Keuangan",
            "tanggal_terbit": "2024-12-03",
            "url_tdpse_detail": "https://pse.komdigi.go.id/tdpse-detail/21426",
            "website": "-"
        },
        {
            "id": "9da30d18-1f01-40e9-9ed9-89d6e294714d",
            "nama_pse": "Shantou Zhongfu Electronic Technology Co., Ltd.",
            "nama_se": "KENCANA PUTRA KENDARI",
            "sektor": "Sektor Keuangan",
            "tanggal_terbit": "2024-12-03",
            "url_tdpse_detail": "https://pse.komdigi.go.id/tdpse-detail/21427",
            "website": "-"
        },
        {
            "id": "9da346e7-bb74-4b5f-9bba-29d9ffa74620",
            "nama_pse": "SHANTOU ZHONGFU ELECTRONIC TECHNOLOGY CO., LTD.",
            "nama_se": "MUTIARA PASUNDAN ANJANI",
            "sektor": "Sektor Keuangan",
            "tanggal_terbit": "2024-12-03",
            "url_tdpse_detail": "https://pse.komdigi.go.id/tdpse-detail/21430",
            "website": "-"
        },
        {
            "id": "9da34702-a78d-4414-aa7c-b7bb32e5f905",
            "nama_pse": "Shantou Zhongfu Electronic Technology Co., Ltd.",
            "nama_se": "MUTIARA PASUNDAN ANJANI",
            "sektor": "Sektor Keuangan",
            "tanggal_terbit": "2024-12-03",
            "url_tdpse_detail": "https://pse.kominfo.go.id/tdpse-detail/21431",
            "website": "-"
        },
        {
            "id": "9dae4f20-5f8d-4eb4-b218-83a245d11158",
            "nama_pse": "FUNFLY PTE. LTD.",
            "nama_se": "LAST WAR: SURVIVAL GAME",
            "sektor": "Sektor Teknologi Informasi dan Komunikasi",
            "tanggal_terbit": "2024-12-03",
            "url_tdpse_detail": "https://pse.komdigi.go.id/tdpse-detail/21691",
            "website": "lastwar.com"
        },
        {
            "id": "9d9aab52-1732-4a60-aef8-386be567ebac",
            "nama_pse": "FUNI. PTE. LTD.",
            "nama_se": "HIYA",
            "sektor": "Sektor Teknologi Informasi dan Komunikasi",
            "tanggal_terbit": "2024-11-29",
            "url_tdpse_detail": "https://pse.komdigi.go.id/tdpse-detail/21374",
            "website": "mehiya.com"
        },
        {
            "id": "9d966bfe-f58e-4713-8f76-d0b247ac92c9",
            "nama_pse": "B.I.G TECHNOLOGY CO., LIMITED",
            "nama_se": "HIGGS GAMES",
            "sektor": "Sektor Teknologi Informasi dan Komunikasi",
            "tanggal_terbit": "2024-11-27",
            "url_tdpse_detail": "https://pse.komdigi.go.id/tdpse-detail/21361",
            "website": "i.topbos.com"
        },
        {
            "id": "9d967100-1b2e-4215-9778-e650c290a4e6",
            "nama_pse": "B.I.G TECHNOLOGY CO., LIMITED",
            "nama_se": "HIGGS GAMES",
            "sektor": "Sektor Teknologi Informasi dan Komunikasi",
            "tanggal_terbit": "2024-11-27",
            "url_tdpse_detail": "https://pse.komdigi.go.id/tdpse-detail/21362",
            "website": "update.higgsgames.com"
        },
        {
            "id": "9d967160-3822-4e51-9812-5736b972bbd3",
            "nama_pse": "B.I.G TECHNOLOGY CO., LIMITED",
            "nama_se": "HIGGS GAMES",
            "sektor": "Sektor Teknologi Informasi dan Komunikasi",
            "tanggal_terbit": "2024-11-27",
            "url_tdpse_detail": "https://pse.komdigi.go.id/tdpse-detail/21363",
            "website": "static.higgsgames.com"
        },
        {
            "id": "9d96721d-6e12-40af-b422-ccac4f6b6ae9",
            "nama_pse": "B.I.G TECHNOLOGY CO., LIMITED",
            "nama_se": "HIGGS GAMES",
            "sektor": "Sektor Teknologi Informasi dan Komunikasi",
            "tanggal_terbit": "2024-11-27",
            "url_tdpse_detail": "https://pse.komdigi.go.id/tdpse-detail/21364",
            "website": "update.topbos.com"
        },
        {
            "id": "9d967329-fa0b-49d2-952e-d73bb5429c54",
            "nama_pse": "B.I.G TECHNOLOGY CO., LIMITED",
            "nama_se": "HIGGS GAMES",
            "sektor": "Sektor Teknologi Informasi dan Komunikasi",
            "tanggal_terbit": "2024-11-27",
            "url_tdpse_detail": "https://pse.komdigi.go.id/tdpse-detail/21365",
            "website": "static.topbos.com"
        },
        {
            "id": "9d9695ae-fa3c-47b0-ab70-f996499f536e",
            "nama_pse": "B.I.G TECHNOLOGY CO., LIMITED",
            "nama_se": "HIGGS GAMES",
            "sektor": "Sektor Teknologi Informasi dan Komunikasi",
            "tanggal_terbit": "2024-11-27",
            "url_tdpse_detail": "https://pse.komdigi.go.id/tdpse-detail/21366",
            "website": "in.higgsgames.com"
        },
        {
            "id": "9d96abd4-0d1d-45e2-8b85-9756167cfe05",
            "nama_pse": "B.I.G TECHNOLOGY CO., LIMITED",
            "nama_se": "HIGGS GAMES",
            "sektor": "Sektor Teknologi Informasi dan Komunikasi",
            "tanggal_terbit": "2024-11-27",
            "url_tdpse_detail": "https://pse.komdigi.go.id/tdpse-detail/21367",
            "website": "ii.higgsgames.com"
        },
        {
            "id": "9d8ad81b-65b6-4ebe-b380-dd48d3f22b78",
            "nama_pse": "POLIGON PTE. LTD.",
            "nama_se": "MELOLO",
            "sektor": "Sektor Teknologi Informasi dan Komunikasi",
            "tanggal_terbit": "2024-11-21",
            "url_tdpse_detail": "https://pse.komdigi.go.id/tdpse-detail/21304",
            "website": "-"
        },
        {
            "id": "9d88939d-bb30-4c56-a978-3bd8370f92f8",
            "nama_pse": "MALAYSIA AIRLINES BERHAD",
            "nama_se": "JOURNIFY",
            "sektor": "Sektor Perdagangan",
            "tanggal_terbit": "2024-11-20",
            "url_tdpse_detail": "https://pse.komdigi.go.id/tdpse-detail/21285",
            "website": "myjournify.com"
        },
        {
            "id": "9d866efa-0e64-496a-8517-1e3c08916241",
            "nama_pse": "CONCUR HOLDINGS (NETHERLANDS) B.V.",
            "nama_se": "SAP CONCUR",
            "sektor": "Sektor Teknologi Informasi dan Komunikasi",
            "tanggal_terbit": "2024-11-19",
            "url_tdpse_detail": "https://pse.komdigi.go.id/tdpse-detail/21274",
            "website": "concursolutions.com"
        },
        {
            "id": "9d86e57c-945b-45bf-90a5-93bb829a53ab",
            "nama_pse": "ELEANOR SYKES",
            "nama_se": "BLINK PLATFORM",
            "sektor": "Sektor Teknologi Informasi dan Komunikasi",
            "tanggal_terbit": "2024-11-19",
            "url_tdpse_detail": "https://pse.komdigi.go.id/tdpse-detail/21276",
            "website": "flyeasy.zurich.co.id"
        },
        {
            "id": "9d7e2607-8918-4b59-a805-bacaf8b394d3",
            "nama_pse": "MALAYSIA AIRLINES BERHAD",
            "nama_se": "ENRICH",
            "sektor": "Sektor Perdagangan",
            "tanggal_terbit": "2024-11-15",
            "url_tdpse_detail": "https://pse.komdigi.go.id/tdpse-detail/21222",
            "website": "enrich.malaysiaairlines.com"
        },
        {
            "id": "9d7e2b34-77f7-4f0f-93f4-5749a3910cb6",
            "nama_pse": "MALAYSIA AIRLINES BERHAD",
            "nama_se": "MALAYSIA AIRLINES",
            "sektor": "Sektor Transportasi",
            "tanggal_terbit": "2024-11-15",
            "url_tdpse_detail": "https://pse.komdigi.go.id/tdpse-detail/21223",
            "website": "malaysiaairlines.com"
        },
        {
            "id": "9d7803fd-bb8d-4f8e-a42f-51eb8ca7f55b",
            "nama_pse": "B.I.G TECHNOLOGY CO., LIMITED",
            "nama_se": "HIGGS GAMES",
            "sektor": "Sektor Teknologi Informasi dan Komunikasi",
            "tanggal_terbit": "2024-11-12",
            "url_tdpse_detail": "https://pse.komdigi.go.id/tdpse-detail/21161",
            "website": "hgimitra.top"
        },
        {
            "id": "9d780404-6d87-4922-a7c9-fb1aa576481c",
            "nama_pse": "B.I.G TECHNOLOGY CO., LIMITED",
            "nama_se": "HIGGS GAMES",
            "sektor": "Sektor Teknologi Informasi dan Komunikasi",
            "tanggal_terbit": "2024-11-12",
            "url_tdpse_detail": "https://pse.komdigi.go.id/tdpse-detail/21164",
            "website": "higgsmitra.com"
        },
        {
            "id": "9d780406-2e9c-4a2c-9e97-05816cde5d68",
            "nama_pse": "B.I.G TECHNOLOGY CO., LIMITED",
            "nama_se": "HIGGS GAMES",
            "sektor": "Sektor Teknologi Informasi dan Komunikasi",
            "tanggal_terbit": "2024-11-12",
            "url_tdpse_detail": "https://pse.komdigi.go.id/tdpse-detail/21165",
            "website": "mitrahgi.com"
        },
        {
            "id": "9d780407-dcec-45f0-815b-9134ba079524",
            "nama_pse": "B.I.G TECHNOLOGY CO., LIMITED",
            "nama_se": "HIGGS GAMES",
            "sektor": "Sektor Teknologi Informasi dan Komunikasi",
            "tanggal_terbit": "2024-11-12",
            "url_tdpse_detail": "https://pse.komdigi.go.id/tdpse-detail/21166",
            "website": "mitrahdi.com"
        },
        {
            "id": "9d78040a-635e-4899-9f9a-6fce5a330c3a",
            "nama_pse": "B.I.G TECHNOLOGY CO., LIMITED",
            "nama_se": "HIGGS GAMES",
            "sektor": "Sektor Teknologi Informasi dan Komunikasi",
            "tanggal_terbit": "2024-11-12",
            "url_tdpse_detail": "https://pse.komdigi.go.id/tdpse-detail/21167",
            "website": "higgsofficial.com"
        },
        {
            "id": "9d78040c-60a9-4c4b-9693-593a0fc98815",
            "nama_pse": "B.I.G TECHNOLOGY CO., LIMITED",
            "nama_se": "HIGGS GAMES",
            "sektor": "Sektor Teknologi Informasi dan Komunikasi",
            "tanggal_terbit": "2024-11-12",
            "url_tdpse_detail": "https://pse.komdigi.go.id/tdpse-detail/21168",
            "website": "hgimitra.com"
        },
        {
            "id": "9d6fd72f-2e2b-4888-a553-bf38526e9c7f",
            "nama_pse": "TIKTOK PTE. LTD.",
            "nama_se": "TIKTOK LITE",
            "sektor": "Sektor Teknologi Informasi dan Komunikasi",
            "tanggal_terbit": "2024-11-08",
            "url_tdpse_detail": "https://pse.komdigi.go.id/tdpse-detail/21102",
            "website": "-"
        },
        {
            "id": "9d692870-cbe5-411c-83ae-136bb1cd856a",
            "nama_pse": "TIKTOK PTE. LTD.",
            "nama_se": "SISTEM TRANSISI TIKTOK LITE",
            "sektor": "Sektor Perdagangan",
            "tanggal_terbit": "2024-11-05",
            "url_tdpse_detail": "https://pse.komdigi.go.id/tdpse-detail/21048",
            "website": "-"
        },
        {
            "id": "9d686148-ad96-40eb-b899-773daab50f08",
            "nama_pse": "REFINITIV LIMITED",
            "nama_se": "WORLDCHECK",
            "sektor": "Sektor Teknologi Informasi dan Komunikasi",
            "tanggal_terbit": "2024-11-04",
            "url_tdpse_detail": "https://pse.komdigi.go.id/tdpse-detail/21040",
            "website": "lseg.com"
        },
        {
            "id": "9d68614a-a326-49db-9cc9-89964cf68d2d",
            "nama_pse": "REFINITIV LIMITED",
            "nama_se": "WORLDCHECK",
            "sektor": "Sektor Teknologi Informasi dan Komunikasi",
            "tanggal_terbit": "2024-11-04",
            "url_tdpse_detail": "https://pse.komdigi.go.id/tdpse-detail/21041",
            "website": "lseg.com"
        },
        {
            "id": "9d663c3a-c63f-4a93-87e5-1abb15be8288",
            "nama_pse": "DIRECT CURSUS TECHNOLOGY L.L.C.",
            "nama_se": "MAPPABLE",
            "sektor": "Sektor Teknologi Informasi dan Komunikasi",
            "tanggal_terbit": "2024-11-02",
            "url_tdpse_detail": "https://pse.komdigi.go.id/tdpse-detail/21021",
            "website": "mappable.world"
        },
        {
            "id": "9d54b6f1-8503-4abf-b121-11b70506c8d0",
            "nama_pse": "SEEK PASS PTY LTD",
            "nama_se": "SEEK PASS",
            "sektor": "Sektor Teknologi Informasi dan Komunikasi",
            "tanggal_terbit": "2024-10-25",
            "url_tdpse_detail": "https://pse.komdigi.go.id/tdpse-detail/20911",
            "website": "seekpass.co"
        },
        {
            "id": "9d50e761-8190-43ca-b182-92000b25a1ec",
            "nama_pse": "NEXGEN GAMING HOLDING LIMITED",
            "nama_se": "KA LE",
            "sektor": "Sektor Teknologi Informasi dan Komunikasi",
            "tanggal_terbit": "2024-10-23",
            "url_tdpse_detail": "https://pse.komdigi.go.id/tdpse-detail/20883",
            "website": "kalebooster.com"
        },
        {
            "id": "9d4c3791-26dd-48d8-a7e5-2b1f811eed26",
            "nama_pse": "EXPTIONAL PTE LTD",
            "nama_se": "DEADLY DUDES",
            "sektor": "Sektor Teknologi Informasi dan Komunikasi",
            "tanggal_terbit": "2024-10-21",
            "url_tdpse_detail": "https://pse.komdigi.go.id/tdpse-detail/20861",
            "website": "-"
        },
        {
            "id": "9d43f68d-f328-4cb3-8014-2cdcaf9d73af",
            "nama_pse": "SPORT HEROES",
            "nama_se": "API - *.RUNNINGHEROES.COM",
            "sektor": "Sektor Teknologi Informasi dan Komunikasi",
            "tanggal_terbit": "2024-10-17",
            "url_tdpse_detail": "https://pse.komdigi.go.id/tdpse-detail/20817",
            "website": "-"
        },
        {
            "id": "9d43f690-076b-4b86-89fb-c829c686a832",
            "nama_pse": "SPORT HEROES",
            "nama_se": "API - *.SPORTHEROESGROUP.COM",
            "sektor": "Sektor Teknologi Informasi dan Komunikasi",
            "tanggal_terbit": "2024-10-17",
            "url_tdpse_detail": "https://pse.komdigi.go.id/tdpse-detail/20818",
            "website": "-"
        },
        {
            "id": "9d43f692-0a47-45cb-8f18-c0dcbced24f2",
            "nama_pse": "SPORT HEROES",
            "nama_se": "API - *.SPORTHEROES.COM",
            "sektor": "Sektor Teknologi Informasi dan Komunikasi",
            "tanggal_terbit": "2024-10-17",
            "url_tdpse_detail": "https://pse.komdigi.go.id/tdpse-detail/20819",
            "website": "*.sportheroes.com"
        },
        {
            "id": "9d44874f-75c9-4a2c-83ed-775b50d7a015",
            "nama_pse": "GRAVITY GAME HUB (GGH) PTE. LTD.",
            "nama_se": "RAGNAROK ORIGIN",
            "sektor": "Sektor Teknologi Informasi dan Komunikasi",
            "tanggal_terbit": "2024-10-17",
            "url_tdpse_detail": "https://pse.komdigi.go.id/tdpse-detail/20826",
            "website": "roglobal.com"
        },
        {
            "id": "9d41f325-48f1-42f3-b89e-b9b8f185ec76",
            "nama_pse": "MOBILE ALPHA LIMITED",
            "nama_se": "XENA LIVE",
            "sektor": "Sektor Teknologi Informasi dan Komunikasi",
            "tanggal_terbit": "2024-10-16",
            "url_tdpse_detail": "https://pse.kominfo.go.id/tdpse-detail/20794",
            "website": "xenalive.me"
        },
        {
            "id": "9d427c6b-fe4d-4c9c-b52b-ed2fc0555fa6",
            "nama_pse": "DOTING TECHNOLOGY CO.,LIMITED",
            "nama_se": "LEMON T",
            "sektor": "Sektor Teknologi Informasi dan Komunikasi",
            "tanggal_terbit": "2024-10-16",
            "url_tdpse_detail": "https://pse.komdigi.go.id/tdpse-detail/20801",
            "website": "-"
        },
        {
            "id": "9d33e2d5-78ba-4433-902e-9e524d9f945f",
            "nama_pse": "PROXIMA BETA PTE. LIMITED",
            "nama_se": "DRAGONHEIR: SILENTGODS",
            "sektor": "Sektor Teknologi Informasi dan Komunikasi",
            "tanggal_terbit": "2024-10-09",
            "url_tdpse_detail": "https://pse.komdigi.go.id/tdpse-detail/20700",
            "website": "dragonheir.nvsgames.com"
        },
        {
            "id": "9d780400-d0ef-4f68-9726-46ad59158726",
            "nama_pse": "B.I.G TECHNOLOGY CO., LIMITED",
            "nama_se": "HIGGS GAMES",
            "sektor": "Sektor Teknologi Informasi dan Komunikasi",
            "tanggal_terbit": "2024-10-08",
            "url_tdpse_detail": "https://pse.komdigi.go.id/tdpse-detail/21162",
            "website": "topbos.com"
        },
        {
            "id": "9d780402-8c23-4f6d-a104-3ad5e47ce782",
            "nama_pse": "B.I.G TECHNOLOGY CO., LIMITED",
            "nama_se": "HIGGS GAMES",
            "sektor": "Sektor Teknologi Informasi dan Komunikasi",
            "tanggal_terbit": "2024-10-08",
            "url_tdpse_detail": "https://pse.komdigi.go.id/tdpse-detail/21163",
            "website": "higgsgames.com"
        },
        {
            "id": "9d41a1d8-bb15-4b99-964d-15a68b506919",
            "nama_pse": "B.I.G TECHNOLOGY CO., LIMITED",
            "nama_se": "HIGGS GAMES",
            "sektor": "Sektor Teknologi Informasi dan Komunikasi",
            "tanggal_terbit": "2024-10-08",
            "url_tdpse_detail": "https://pse.kominfo.go.id/tdpse-detail/20789",
            "website": "topbos.com"
        },
        {
            "id": "9d41a1dc-bae3-4cb7-a349-40ff0d45e14b",
            "nama_pse": "B.I.G TECHNOLOGY CO., LIMITED",
            "nama_se": "HIGGS GAMES",
            "sektor": "Sektor Teknologi Informasi dan Komunikasi",
            "tanggal_terbit": "2024-10-08",
            "url_tdpse_detail": "https://pse.kominfo.go.id/tdpse-detail/20790",
            "website": "higgsgames.com"
        },
        {
            "id": "9d2991bf-3d22-4eb1-999e-7c2bac245806",
            "nama_pse": "AM HEALTHCARE MANAGEMENT CONSULTING SDN. BHD.",
            "nama_se": "PRUCARE ADVISOR",
            "sektor": "Sektor Kesehatan",
            "tanggal_terbit": "2024-10-04",
            "url_tdpse_detail": "https://pse.komdigi.go.id/tdpse-detail/20642",
            "website": "PRUCareAdvisor.id.teladochealthasia.com"
        },
        {
            "id": "9d26371d-f2cc-4580-8250-93475a4410e1",
            "nama_pse": "B.I.G TECHNOLOGY CO., LIMITED",
            "nama_se": "HIGGS GAMES ISLAND",
            "sektor": "Sektor Teknologi Informasi dan Komunikasi",
            "tanggal_terbit": "2024-10-02",
            "url_tdpse_detail": "https://pse.komdigi.go.id/tdpse-detail/20602",
            "website": "-"
        }
    ],
    "processingTimeMs": 1,
    "query": "",
    "totalHits": 1139,
    "hitsPerPage": 50,
    "page": 6,
    "totalPages": 23
}