{
    "hits": [
        {
            "id": "9cb1ac88-47b2-40e6-8689-6678352f55ab",
            "nama_pse": "EXPTIONAL PTE LTD",
            "nama_se": "PROJECT RUN",
            "sektor": "Sektor Teknologi Informasi dan Komunikasi",
            "tanggal_terbit": "2024-06-19",
            "url_tdpse_detail": "https://pse.komdigi.go.id/tdpse-detail/19308",
            "website": "-"
        },
        {
            "id": "9cb1ac88-4ad2-4381-b817-9f6a11f2a198",
            "nama_pse": "EXPTIONAL PTE LTD",
            "nama_se": "ONCE HUMAN",
            "sektor": "Sektor Teknologi Informasi dan Komunikasi",
            "tanggal_terbit": "2024-06-19",
            "url_tdpse_detail": "https://pse.komdigi.go.id/tdpse-detail/19309",
            "website": "oncehuman.game"
        },
        {
            "id": "9cb1ac72-45ce-4198-acd3-efdc9fa02a63",
            "nama_pse": "EXPTIONAL PTE LTD",
            "nama_se": "ONCE HUMAN",
            "sektor": "Sektor Teknologi Informasi dan Komunikasi",
            "tanggal_terbit": "2024-06-19",
            "url_tdpse_detail": "https://pse.komdigi.go.id/tdpse-detail/19310",
            "website": "-"
        },
        {
            "id": "9cb1ac72-19bb-46f2-a2ae-3cf9a42b828d",
            "nama_pse": "PT INDONESIA NETWORK AND SOLUTIONS",
            "nama_se": "PT. INDONESIA NETWORK AND SOLUTIONS",
            "sektor": "Sektor Teknologi Informasi dan Komunikasi",
            "tanggal_terbit": "2024-06-18",
            "url_tdpse_detail": "https://pse.komdigi.go.id/tdpse-detail/19287",
            "website": "-"
        },
        {
            "id": "9cb1ac5d-2fc9-406d-86fa-1b55c1381355",
            "nama_pse": "PT INDONESIA NETWORK AND SOLUTIONS",
            "nama_se": "PT. INDONESIA NETWORK AND SOLUTIONS",
            "sektor": "Sektor Teknologi Informasi dan Komunikasi",
            "tanggal_terbit": "2024-06-18",
            "url_tdpse_detail": "https://pse.komdigi.go.id/tdpse-detail/19288",
            "website": "-"
        },
        {
            "id": "9cb1ac72-1d67-46f8-a50b-aa43d5f2dd13",
            "nama_pse": "PT INDONESIA NETWORK AND SOLUTIONS",
            "nama_se": "PT. INDONESIA NETWORK AND SOLUTIONS",
            "sektor": "Sektor Teknologi Informasi dan Komunikasi",
            "tanggal_terbit": "2024-06-18",
            "url_tdpse_detail": "https://pse.komdigi.go.id/tdpse-detail/19289",
            "website": "-"
        },
        {
            "id": "9cb1ac88-2eeb-4012-ac13-8421833f4ceb",
            "nama_pse": "PT INDONESIA NETWORK AND SOLUTIONS",
            "nama_se": "PT. INDONESIA NETWORK AND SOLUTIONS",
            "sektor": "Sektor Teknologi Informasi dan Komunikasi",
            "tanggal_terbit": "2024-06-18",
            "url_tdpse_detail": "https://pse.komdigi.go.id/tdpse-detail/19290",
            "website": "-"
        },
        {
            "id": "9cb1ac72-20d2-4b40-9e8a-f62b74636ead",
            "nama_pse": "PT INDONESIA NETWORK AND SOLUTIONS",
            "nama_se": "PT. INDONESIA NETWORK AND SOLUTIONS",
            "sektor": "Sektor Pertahanan dan Keamanan",
            "tanggal_terbit": "2024-06-18",
            "url_tdpse_detail": "https://pse.komdigi.go.id/tdpse-detail/19291",
            "website": "-"
        },
        {
            "id": "9cb1ac5d-32c0-4343-9cd5-ad81001b7897",
            "nama_pse": "PT INDONESIA NETWORK AND SOLUTIONS",
            "nama_se": "PT. INDONESIA NETWORK AND SOLUTIONS",
            "sektor": "Sektor Teknologi Informasi dan Komunikasi",
            "tanggal_terbit": "2024-06-18",
            "url_tdpse_detail": "https://pse.komdigi.go.id/tdpse-detail/19292",
            "website": "-"
        },
        {
            "id": "9cb1ac72-0fb6-4f1d-b760-b0c398d54736",
            "nama_pse": "VIFUN LIVE CO., LIMITED",
            "nama_se": "TI.LIVE",
            "sektor": "Sektor Perdagangan",
            "tanggal_terbit": "2024-06-17",
            "url_tdpse_detail": "https://pse.komdigi.go.id/tdpse-detail/19282",
            "website": "ti.live"
        },
        {
            "id": "9cb1ac5d-2913-4763-8620-f8f1349c9ba8",
            "nama_pse": "VIFUN LIVE CO., LIMITED",
            "nama_se": "TI.LIVE",
            "sektor": "Sektor Perdagangan",
            "tanggal_terbit": "2024-06-17",
            "url_tdpse_detail": "https://pse.komdigi.go.id/tdpse-detail/19283",
            "website": "ti.live"
        },
        {
            "id": "9cb1ac5d-2cb8-4be0-889e-b78cc5c66f70",
            "nama_pse": "VNG SINGAPORE PTE., LTD.",
            "nama_se": "GHOST STORY: LOVE DESTINY",
            "sektor": "Sektor Teknologi Informasi dan Komunikasi",
            "tanggal_terbit": "2024-06-17",
            "url_tdpse_detail": "https://pse.komdigi.go.id/tdpse-detail/19284",
            "website": "ghoststory.vnggames.net"
        },
        {
            "id": "9cb1ac5d-158b-47b2-8ce5-f0eb213d8c31",
            "nama_pse": "PINTEREST, INC.",
            "nama_se": "PINTEREST",
            "sektor": "Sektor Teknologi Informasi dan Komunikasi",
            "tanggal_terbit": "2024-06-15",
            "url_tdpse_detail": "https://pse.komdigi.go.id/tdpse-detail/19269",
            "website": "id.pinterest.com"
        },
        {
            "id": "9cb1ac5c-a368-4948-a676-c29b2fac2934",
            "nama_pse": "SYNCHRONOSS SOFTWARE IRELAND LIMITED",
            "nama_se": "CAPSYL PORTAL",
            "sektor": "Sektor Teknologi Informasi dan Komunikasi",
            "tanggal_terbit": "2024-06-10",
            "url_tdpse_detail": "https://pse.komdigi.go.id/tdpse-detail/19201",
            "website": "synchronoss.service-now.com"
        },
        {
            "id": "9cb1ac87-97ba-4551-a533-533a2e082bbf",
            "nama_pse": "SYNCHRONOSS SOFTWARE IRELAND LIMITED",
            "nama_se": "CAPSYL",
            "sektor": "Sektor Teknologi Informasi dan Komunikasi",
            "tanggal_terbit": "2024-06-10",
            "url_tdpse_detail": "https://pse.komdigi.go.id/tdpse-detail/19202",
            "website": "capsyl.synchronoss.com"
        },
        {
            "id": "9cb1ac87-9b8c-4cf3-b39f-4c1ae931c481",
            "nama_pse": "SYNCHRONOSS SOFTWARE IRELAND LIMITED",
            "nama_se": "CAPSYL",
            "sektor": "Sektor Teknologi Informasi dan Komunikasi",
            "tanggal_terbit": "2024-06-10",
            "url_tdpse_detail": "https://pse.komdigi.go.id/tdpse-detail/19203",
            "website": "capsyl.com"
        },
        {
            "id": "9cb1ac5c-3e59-43e7-aac7-564f4c91d24c",
            "nama_pse": "Y SOFT ASIA PACIFIC PTE. LTD.",
            "nama_se": "YSOFT SAFEQ CLOUD",
            "sektor": "Sektor Teknologi Informasi dan Komunikasi",
            "tanggal_terbit": "2024-06-01",
            "url_tdpse_detail": "https://pse.komdigi.go.id/tdpse-detail/19105",
            "website": "safeq.com"
        },
        {
            "id": "9cb1ac86-b48e-4e91-994a-15bf63a4d626",
            "nama_pse": "U2OPIA MOBILE PTE LTD",
            "nama_se": "U2OPIA MOBILE",
            "sektor": "Sektor Teknologi Informasi dan Komunikasi",
            "tanggal_terbit": "2024-05-31",
            "url_tdpse_detail": "https://pse.komdigi.go.id/tdpse-detail/19099",
            "website": "u2opiamobile.com"
        },
        {
            "id": "9cb1ac86-9c6c-4eb3-94a8-2ca7a28c54f1",
            "nama_pse": "TIKTOK PTE. LTD.",
            "nama_se": "WHEE",
            "sektor": "Sektor Teknologi Informasi dan Komunikasi",
            "tanggal_terbit": "2024-05-30",
            "url_tdpse_detail": "https://pse.komdigi.go.id/tdpse-detail/19086",
            "website": "Whee.tiktok.com"
        },
        {
            "id": "9cb1ac86-165c-40d7-a469-09f968cd5d62",
            "nama_pse": "CORNERSTONE ONDEMAND LIMITED",
            "nama_se": "CORNERSTONE LEARNING MANAGEMENT",
            "sektor": "Sektor Teknologi Informasi dan Komunikasi",
            "tanggal_terbit": "2024-05-24",
            "url_tdpse_detail": "https://pse.komdigi.go.id/tdpse-detail/19017",
            "website": "cornerstoneondemand.com"
        },
        {
            "id": "9cb1ac85-f3e6-4d28-a81c-8d34f89b27cb",
            "nama_pse": "CARING UP PTE LTD",
            "nama_se": "CARINGUP",
            "sektor": "Sektor Kesehatan",
            "tanggal_terbit": "2024-05-21",
            "url_tdpse_detail": "https://pse.komdigi.go.id/tdpse-detail/18981",
            "website": "caringup.com"
        },
        {
            "id": "9cb1ac70-6777-4172-be57-6794a78cf522",
            "nama_pse": "ATHLETES' PERFORMANCE, INC.",
            "nama_se": "EXOS",
            "sektor": "Sektor Teknologi Informasi dan Komunikasi",
            "tanggal_terbit": "2024-05-21",
            "url_tdpse_detail": "https://pse.komdigi.go.id/tdpse-detail/18985",
            "website": "teamexos.com"
        },
        {
            "id": "9cb1ac5b-8be9-412e-9f1f-c6d749ab0ee1",
            "nama_pse": "CATALOG SERVICE LLC",
            "nama_se": "LESSY",
            "sektor": "Sektor Teknologi Informasi dan Komunikasi",
            "tanggal_terbit": "2024-05-20",
            "url_tdpse_detail": "https://pse.komdigi.go.id/tdpse-detail/18971",
            "website": "lessy.app"
        },
        {
            "id": "9cb1ac70-1ef3-40a7-8ba7-e54a6935ceb1",
            "nama_pse": "TENCENT CLOUD INTERNATIONAL PTE. LTD.",
            "nama_se": "TENCENT WAY",
            "sektor": "Sektor Teknologi Informasi dan Komunikasi",
            "tanggal_terbit": "2024-05-16",
            "url_tdpse_detail": "https://pse.komdigi.go.id/tdpse-detail/18941",
            "website": "sea-gw.tai.qq.com"
        },
        {
            "id": "9cb1ac5b-699e-469f-9669-ec3dce72b555",
            "nama_pse": "RESULTICKS GLOBAL COMPANIES PTE LIMITED",
            "nama_se": "HTTPS://RUN.RESULTICKS.COM/",
            "sektor": "Sektor Teknologi Informasi dan Komunikasi",
            "tanggal_terbit": "2024-05-16",
            "url_tdpse_detail": "https://pse.komdigi.go.id/tdpse-detail/18945",
            "website": "resulticks.com"
        },
        {
            "id": "9cb1ac5a-f853-4501-9065-e2cde711e5c6",
            "nama_pse": "GENOSCAPE PTE.LTD.",
            "nama_se": "BABYDNA",
            "sektor": "Sektor Perdagangan",
            "tanggal_terbit": "2024-05-08",
            "url_tdpse_detail": "https://pse.komdigi.go.id/tdpse-detail/18858",
            "website": "babydna.io"
        },
        {
            "id": "9cb1ac5a-c2d8-484c-aa37-a612cb17d642",
            "nama_pse": "TALKTIDE PTE. LTD.",
            "nama_se": "TALKTIDETECH",
            "sektor": "Sektor Teknologi Informasi dan Komunikasi",
            "tanggal_terbit": "2024-05-06",
            "url_tdpse_detail": "https://pse.komdigi.go.id/tdpse-detail/18826",
            "website": "talktidetech.com"
        },
        {
            "id": "9cb1ac5a-aae1-4ba3-99bc-6a7b4b9e778f",
            "nama_pse": "GD MIDEA AIR-CONDITIONING EQUIPMENT CO. LTD.",
            "nama_se": "MIDEA CLUB",
            "sektor": "Sektor Perdagangan",
            "tanggal_terbit": "2024-05-03",
            "url_tdpse_detail": "https://pse.komdigi.go.id/tdpse-detail/18808",
            "website": "mideaclub.midea.com"
        },
        {
            "id": "9dea7b47-fd0c-41a7-bf6b-f61193f8286f",
            "nama_pse": "FLYFIREFLY HOLIDAY SDN. BHD.",
            "nama_se": "FIREFLY",
            "sektor": "Sektor Perdagangan",
            "tanggal_terbit": "2024-04-25",
            "url_tdpse_detail": "https://pse.komdigi.go.id/tdpse-detail/22044",
            "website": "fireflyz.com.my"
        },
        {
            "id": "9dea7b4a-d383-4a16-b2da-289a2db7452c",
            "nama_pse": "FLYFIREFLY HOLIDAY SDN. BHD.",
            "nama_se": "JOURNIFY",
            "sektor": "Sektor Perdagangan",
            "tanggal_terbit": "2024-04-25",
            "url_tdpse_detail": "https://pse.komdigi.go.id/tdpse-detail/22045",
            "website": "holidays.myjournify.com"
        },
        {
            "id": "9cb1ac5a-21b5-444d-b42b-ed750793e602",
            "nama_pse": "explorance",
            "nama_se": "EXPLORANCE METRICS THAT MATTER - MTM",
            "sektor": "Sektor Teknologi Informasi dan Komunikasi",
            "tanggal_terbit": "2024-04-25",
            "url_tdpse_detail": "https://pse.komdigi.go.id/tdpse-detail/18713",
            "website": "metricsthatmatter.com"
        },
        {
            "id": "9cb1ac59-dcf1-4a4e-a774-39dc7fbfd796",
            "nama_pse": "VNG SINGAPORE PTE., LTD.",
            "nama_se": "MOONLIGHT BLADE M",
            "sektor": "Sektor Teknologi Informasi dan Komunikasi",
            "tanggal_terbit": "2024-04-19",
            "url_tdpse_detail": "https://pse.komdigi.go.id/tdpse-detail/18654",
            "website": "moonlightbladem.vnggames.com"
        },
        {
            "id": "9cb1ac6e-8e55-4d6d-ae01-69ff61e06030",
            "nama_pse": "JONDA HEALTH PTE LTD",
            "nama_se": "JONDAX",
            "sektor": "Sektor Teknologi Informasi dan Komunikasi",
            "tanggal_terbit": "2024-04-18",
            "url_tdpse_detail": "https://pse.komdigi.go.id/tdpse-detail/18645",
            "website": "jonda.health"
        },
        {
            "id": "9cb1ac6e-7577-4603-a090-4b80018a7e06",
            "nama_pse": "HONG KONG GATHERING MEDIA LIMITED",
            "nama_se": "NINI",
            "sektor": "Sektor Teknologi Informasi dan Komunikasi",
            "tanggal_terbit": "2024-04-17",
            "url_tdpse_detail": "https://pse.komdigi.go.id/tdpse-detail/18618",
            "website": "n2aiapp.com"
        },
        {
            "id": "9cb1ac59-763c-4a3b-9306-281a530d8c3f",
            "nama_pse": "IMPACT.COM",
            "nama_se": "IMPACT.COM",
            "sektor": "Sektor Teknologi Informasi dan Komunikasi",
            "tanggal_terbit": "2024-04-16",
            "url_tdpse_detail": "https://pse.komdigi.go.id/tdpse-detail/18613",
            "website": "impact.com"
        },
        {
            "id": "9cb1ac59-79e3-4f5a-ace2-2503f48d5f9c",
            "nama_pse": "ESO FOREIGN LTD",
            "nama_se": "AFGASGASDG.COM",
            "sektor": "Sektor Perdagangan",
            "tanggal_terbit": "2024-04-16",
            "url_tdpse_detail": "https://pse.kominfo.go.id/tdpse-detail/18615",
            "website": "ASGFSGD.COM"
        },
        {
            "id": "9cb1ac59-5e86-423d-89d7-e342966616cd",
            "nama_pse": "BRAZE, INC.",
            "nama_se": "BRAZE",
            "sektor": "Sektor Teknologi Informasi dan Komunikasi",
            "tanggal_terbit": "2024-04-09",
            "url_tdpse_detail": "https://pse.komdigi.go.id/tdpse-detail/18591",
            "website": "braze.com"
        },
        {
            "id": "9cb1ac83-2c37-45c3-b08f-35432a0622fa",
            "nama_pse": "VALOFE GLOBAL LIMITED",
            "nama_se": "HTTPS://VFUN.VALOFE.COM/",
            "sektor": "Sektor Teknologi Informasi dan Komunikasi",
            "tanggal_terbit": "2024-04-08",
            "url_tdpse_detail": "https://pse.komdigi.go.id/tdpse-detail/18586",
            "website": "ns.valofe.com"
        },
        {
            "id": "9cb1ac83-2565-45e6-ac2e-d45fa7898c2a",
            "nama_pse": "BANK NEGARA INDONESIA",
            "nama_se": "REITS -THE ROYAL BEACH SEMINYAK",
            "sektor": "Sektor Keuangan",
            "tanggal_terbit": "2024-04-08",
            "url_tdpse_detail": "https://pse.komdigi.go.id/tdpse-detail/18583",
            "website": "theroyalbeachseminyakbali.com"
        },
        {
            "id": "9cb1ac59-39ed-4c6c-9ef2-af43da9098fa",
            "nama_pse": "SHANTOU MARIA INVESTMENT CO., LTD..",
            "nama_se": "MARIAFORBIS",
            "sektor": "Sektor Keuangan",
            "tanggal_terbit": "2024-04-07",
            "url_tdpse_detail": "https://pse.komdigi.go.id/tdpse-detail/18572",
            "website": "uph.edu"
        },
        {
            "id": "9cb1ac6e-3de9-4999-871f-af9197b1c62d",
            "nama_pse": "SHANTOU MARIA INVESTMENT CO., LTD..",
            "nama_se": "MARIAFORBIS",
            "sektor": "Sektor Keuangan",
            "tanggal_terbit": "2024-04-07",
            "url_tdpse_detail": "https://pse.komdigi.go.id/tdpse-detail/18573",
            "website": "widjoyorahayudevelopment.com"
        },
        {
            "id": "9cb1ac59-3e0b-4be1-8c6e-b7764982c90d",
            "nama_pse": "SHANTOU MARIA INVESTMENT CO., LTD..",
            "nama_se": "MARIAFORBIS",
            "sektor": "Sektor Keuangan",
            "tanggal_terbit": "2024-04-07",
            "url_tdpse_detail": "https://pse.komdigi.go.id/tdpse-detail/18574",
            "website": "mandiri-capital.co.id"
        },
        {
            "id": "9cb1ac59-4299-4c02-9150-bf82b2f7d4cb",
            "nama_pse": "SHANTOU MARIA INVESTMENT CO., LTD..",
            "nama_se": "MARIAFORBIS",
            "sektor": "Sektor Keuangan",
            "tanggal_terbit": "2024-04-07",
            "url_tdpse_detail": "https://pse.komdigi.go.id/tdpse-detail/18575",
            "website": "adsbumdbojonegoro.com"
        },
        {
            "id": "9cb1ac59-46aa-4526-9514-4a9969a9484e",
            "nama_pse": "SHANTOU MARIA INVESTMENT CO., LTD..",
            "nama_se": "THE RESONANZ",
            "sektor": "Sektor Keuangan",
            "tanggal_terbit": "2024-04-07",
            "url_tdpse_detail": "https://pse.komdigi.go.id/tdpse-detail/18577",
            "website": "theresonanz.com"
        },
        {
            "id": "9cb1ac6e-42c4-4d2f-86ee-01b2bc4e675d",
            "nama_pse": "SHANTOU MARIA INVESTMENT CO., LTD..",
            "nama_se": "MARIAFORBIS - YAYASAN TUNAS INDONESIA",
            "sektor": "Sektor Keuangan",
            "tanggal_terbit": "2024-04-07",
            "url_tdpse_detail": "https://pse.komdigi.go.id/tdpse-detail/18578",
            "website": "sti.sch.id"
        },
        {
            "id": "9cb1ac59-4a24-4a28-87cc-d0c756390c3b",
            "nama_pse": "SHANTOU MARIA INVESTMENT CO., LTD..",
            "nama_se": "YAYASAN FILADELFIA",
            "sektor": "Sektor Teknologi Informasi dan Komunikasi",
            "tanggal_terbit": "2024-04-07",
            "url_tdpse_detail": "https://pse.komdigi.go.id/tdpse-detail/18579",
            "website": "filadelfia.banten.com"
        },
        {
            "id": "9cb1ac59-4d95-4806-b978-d6d3f457ccfe",
            "nama_pse": "SHANTOU MARIA INVESTMENT CO., LTD..",
            "nama_se": "MARIAFORBIS - BFI",
            "sektor": "Sektor Keuangan",
            "tanggal_terbit": "2024-04-07",
            "url_tdpse_detail": "https://pse.komdigi.go.id/tdpse-detail/18580",
            "website": "bfi.co.id"
        },
        {
            "id": "9cb1ac59-2ef3-4a91-9544-2c5345d94fb8",
            "nama_pse": "SHANTOU MARIA INVESTMENT CO., LTD..",
            "nama_se": "BNI-AM INDEKS IDX30",
            "sektor": "Sektor Keuangan",
            "tanggal_terbit": "2024-04-06",
            "url_tdpse_detail": "https://pse.komdigi.go.id/tdpse-detail/18565",
            "website": "bankbni.co.uk"
        },
        {
            "id": "9cb1ac83-052d-4b54-b185-0132dfb311b2",
            "nama_pse": "SHANTOU MARIA INVESTMENT CO., LTD..",
            "nama_se": "BNI-AM DANA LIKUID",
            "sektor": "Sektor Keuangan",
            "tanggal_terbit": "2024-04-06",
            "url_tdpse_detail": "https://pse.komdigi.go.id/tdpse-detail/18566",
            "website": "bankbni.co.uk"
        },
        {
            "id": "9cb1ac6e-3449-4602-a4b6-cc6231edcd3c",
            "nama_pse": "SHANTOU MARIA INVESTMENT CO., LTD..",
            "nama_se": "BNI-AM DANA PASAR UANG KEMILAU",
            "sektor": "Sektor Keuangan",
            "tanggal_terbit": "2024-04-06",
            "url_tdpse_detail": "https://pse.komdigi.go.id/tdpse-detail/18567",
            "website": "mariatiurma.163.com"
        }
    ],
    "processingTimeMs": 1,
    "query": "",
    "totalHits": 1139,
    "hitsPerPage": 50,
    "page": 8,
    "totalPages": 23
}