{
    "hits": [
        {
            "id": "9da65bd1-4b6b-4ccb-87dc-71f9b3c67f71",
            "nama_pse": "SHANTOU MARIA INVESTMENT CO., LTD.",
            "nama_se": "kencanaputrakendari.mariakalaij@tutamail.com",
            "sektor": "Sektor Teknologi Informasi dan Komunikasi",
            "tanggal_terbit": "2024-12-05",
            "url_tdpse_detail": "https://pse.komdigi.go.id/tdpse-detail/21561",
            "website": "-"
        },
        {
            "id": "9da674d3-ead0-408e-adac-e4d1644ca47a",
            "nama_pse": "SHANTOU MARIA INVESTMENT CO., LTD.",
            "nama_se": "AOFENG (SHANTOU) INVESTMENT CO., LTD.",
            "sektor": "Sektor Teknologi Informasi dan Komunikasi",
            "tanggal_terbit": "2024-12-05",
            "url_tdpse_detail": "https://pse.komdigi.go.id/tdpse-detail/21565",
            "website": "-"
        },
        {
            "id": "9da674d6-a28c-48b6-b30b-7b13b776cfad",
            "nama_pse": "SHANTOU MARIA INVESTMENT CO., LTD.",
            "nama_se": "SHENZHEN AIRLINES SHIPENG (QINGDAO) HOLDINGS CO.,LTD.",
            "sektor": "Sektor Teknologi Informasi dan Komunikasi",
            "tanggal_terbit": "2024-12-05",
            "url_tdpse_detail": "https://pse.komdigi.go.id/tdpse-detail/21566",
            "website": "-"
        },
        {
            "id": "9da682c9-7c77-4dbe-8095-202d47837802",
            "nama_pse": "SHANTOU MARIA INVESTMENT CO., LTD.",
            "nama_se": "SHANTOU MARIA INVESTMENT CO., LTD.",
            "sektor": "Sektor Keuangan",
            "tanggal_terbit": "2024-12-05",
            "url_tdpse_detail": "https://pse.komdigi.go.id/tdpse-detail/21569",
            "website": "-"
        },
        {
            "id": "9da68f70-2d6f-4a8a-acdf-519352f43e1d",
            "nama_pse": "SHANTOU MARIA INVESTMENT CO., LTD.",
            "nama_se": "SHANTOU MARIA INVESTMENT",
            "sektor": "Sektor Teknologi Informasi dan Komunikasi",
            "tanggal_terbit": "2024-12-05",
            "url_tdpse_detail": "https://pse.komdigi.go.id/tdpse-detail/21573",
            "website": "-"
        },
        {
            "id": "9da67deb-27d3-4464-9175-9c39fd7a6ef4",
            "nama_pse": "SHANTOU MARIA INVESTMENT CO., LTD.",
            "nama_se": "SHANTOU MARIA INVESTMENT",
            "sektor": "Sektor Keuangan",
            "tanggal_terbit": "2024-12-05",
            "url_tdpse_detail": "https://pse.komdigi.go.id/tdpse-detail/21567",
            "website": "-"
        },
        {
            "id": "9da692b0-2fae-488b-88cf-b1dc44fb90cd",
            "nama_pse": "SHANTOU MARIA INVESTMENT CO., LTD.",
            "nama_se": "SHANTOU MARIA INVESTMENT",
            "sektor": "Sektor Teknologi Informasi dan Komunikasi",
            "tanggal_terbit": "2024-12-05",
            "url_tdpse_detail": "https://pse.komdigi.go.id/tdpse-detail/21574",
            "website": "-"
        },
        {
            "id": "9da69432-a831-4266-9613-e6d09ad4adf6",
            "nama_pse": "SHANTOU MARIA INVESTMENT CO., LTD.",
            "nama_se": "D \u0026 K FINANCE LIMITED",
            "sektor": "Sektor Keuangan",
            "tanggal_terbit": "2024-12-05",
            "url_tdpse_detail": "https://pse.komdigi.go.id/tdpse-detail/21575",
            "website": "-"
        },
        {
            "id": "9da694c3-fa79-454c-88fb-644b758bbe08",
            "nama_pse": "SHANTOU MARIA INVESTMENT CO., LTD.",
            "nama_se": "SHANTOU MARIA INVESTMENT",
            "sektor": "Sektor Teknologi Informasi dan Komunikasi",
            "tanggal_terbit": "2024-12-05",
            "url_tdpse_detail": "https://pse.komdigi.go.id/tdpse-detail/21576",
            "website": "-"
        },
        {
            "id": "9da69e4c-c359-4277-921d-ed76badaf838",
            "nama_pse": "SHANTOU MARIA INVESTMENT CO., LTD.",
            "nama_se": "SHANTOU MARIA INVESTMENT",
            "sektor": "Sektor Teknologi Informasi dan Komunikasi",
            "tanggal_terbit": "2024-12-05",
            "url_tdpse_detail": "https://pse.komdigi.go.id/tdpse-detail/21577",
            "website": "-"
        },
        {
            "id": "9da6a84e-7a29-4a85-8571-09bd3b5b9c8b",
            "nama_pse": "HONG DING PROPERTY (H.K.) LIMITED",
            "nama_se": "BERKAH HIKMAH ENERGI",
            "sektor": "Sektor Teknologi Informasi dan Komunikasi",
            "tanggal_terbit": "2024-12-05",
            "url_tdpse_detail": "https://pse.komdigi.go.id/tdpse-detail/21579",
            "website": "-"
        },
        {
            "id": "9da6a0d8-4b98-44f9-bd62-fddce20a220b",
            "nama_pse": "AOFENG (SHANTOU) INVESTMENT CO., LTD.",
            "nama_se": "DIRGANTARA AVIATION ENGINEERING",
            "sektor": "Sektor Teknologi Informasi dan Komunikasi",
            "tanggal_terbit": "2024-12-05",
            "url_tdpse_detail": "https://pse.komdigi.go.id/tdpse-detail/21578",
            "website": "-"
        },
        {
            "id": "9da6ab63-4839-4844-a7cb-8e8b1b5b33e1",
            "nama_pse": "DIRGANTARA AVIATION ENGINEERING",
            "nama_se": "SHENZHEN AIRLINES SHIPENG (QINGDAO) HOLDINGS CO.,LTD.",
            "sektor": "Sektor Teknologi Informasi dan Komunikasi",
            "tanggal_terbit": "2024-12-05",
            "url_tdpse_detail": "https://pse.komdigi.go.id/tdpse-detail/21580",
            "website": "-"
        },
        {
            "id": "9da6bc0a-e3ac-4bde-81b7-941169fdc471",
            "nama_pse": "SHANTOU MARIA INVESTMENT CO., LTD.",
            "nama_se": "MARIA FORBIS INTERNASIONAL",
            "sektor": "Sektor Teknologi Informasi dan Komunikasi",
            "tanggal_terbit": "2024-12-05",
            "url_tdpse_detail": "https://pse.komdigi.go.id/tdpse-detail/21583",
            "website": "-"
        },
        {
            "id": "9da6b704-6eef-4d83-8dbb-6da23edd744f",
            "nama_pse": "SHENZHEN AIRLINES SHIPENG (QINGDAO) HOLDINGS CO.,LTD.",
            "nama_se": "SHANTOU JINJIA TRADING",
            "sektor": "Sektor Teknologi Informasi dan Komunikasi",
            "tanggal_terbit": "2024-12-05",
            "url_tdpse_detail": "https://pse.komdigi.go.id/tdpse-detail/21582",
            "website": "-"
        },
        {
            "id": "9da6c233-5808-4b56-a23d-366d2283299f",
            "nama_pse": "SIGMA CIPTA CARAKA",
            "nama_se": "AURA SAKTI",
            "sektor": "Sektor Teknologi Informasi dan Komunikasi",
            "tanggal_terbit": "2024-12-05",
            "url_tdpse_detail": "https://pse.komdigi.go.id/tdpse-detail/21584",
            "website": "-"
        },
        {
            "id": "9da6c99c-9e9a-4639-be0e-521b7a7dd1e4",
            "nama_pse": "AOFENG (SHANTOU) INVESTMENT CO., LTD.",
            "nama_se": "MARIA FORBIS",
            "sektor": "Sektor Teknologi Informasi dan Komunikasi",
            "tanggal_terbit": "2024-12-05",
            "url_tdpse_detail": "https://pse.komdigi.go.id/tdpse-detail/21586",
            "website": "-"
        },
        {
            "id": "9da6cefb-ec22-4bbf-b180-36b3be971bf1",
            "nama_pse": "AOFENG (SHANTOU) INVESTMENT CO., LTD.",
            "nama_se": "MARIA FORBIS",
            "sektor": "Sektor Teknologi Informasi dan Komunikasi",
            "tanggal_terbit": "2024-12-05",
            "url_tdpse_detail": "https://pse.komdigi.go.id/tdpse-detail/21587",
            "website": "-"
        },
        {
            "id": "9da6d338-dcea-42be-a5a2-8ed34d933148",
            "nama_pse": "AOFENG (SHANTOU) INVESTMENT CO., LTD.",
            "nama_se": "MARIA FORBIS",
            "sektor": "Sektor Teknologi Informasi dan Komunikasi",
            "tanggal_terbit": "2024-12-05",
            "url_tdpse_detail": "https://pse.komdigi.go.id/tdpse-detail/21588",
            "website": "-"
        },
        {
            "id": "9da6deaf-e5fb-4a88-8bf4-3820c9b3a39f",
            "nama_pse": "HONG DING PROPERTY (H.K.) LIMITED",
            "nama_se": "MARIA FORBIS",
            "sektor": "Sektor Teknologi Informasi dan Komunikasi",
            "tanggal_terbit": "2024-12-05",
            "url_tdpse_detail": "https://pse.komdigi.go.id/tdpse-detail/21589",
            "website": "-"
        },
        {
            "id": "9da6e24f-10a5-4ec6-bd6c-e83b974c5580",
            "nama_pse": "HONG DING PROPERTY (H.K.) LIMITED",
            "nama_se": "MARIA FORBIS",
            "sektor": "Sektor Teknologi Informasi dan Komunikasi",
            "tanggal_terbit": "2024-12-05",
            "url_tdpse_detail": "https://pse.komdigi.go.id/tdpse-detail/21591",
            "website": "-"
        },
        {
            "id": "9da6e5d2-ff6e-4178-9010-36542a7c5a7b",
            "nama_pse": "HONG DING PROPERTY (H.K.) LIMITED",
            "nama_se": "MARIA FORBIS",
            "sektor": "Sektor Teknologi Informasi dan Komunikasi",
            "tanggal_terbit": "2024-12-05",
            "url_tdpse_detail": "https://pse.komdigi.go.id/tdpse-detail/21592",
            "website": "-"
        },
        {
            "id": "9da6ec76-2053-40c8-85c4-2767ef98c2bc",
            "nama_pse": "HONG DING PROPERTY (H.K.) LIMITED",
            "nama_se": "MARIA FORBIS",
            "sektor": "Sektor Teknologi Informasi dan Komunikasi",
            "tanggal_terbit": "2024-12-05",
            "url_tdpse_detail": "https://pse.komdigi.go.id/tdpse-detail/21593",
            "website": "-"
        },
        {
            "id": "9da6f45a-2548-4197-9fcd-655fff2191bd",
            "nama_pse": "HONG DING PROPERTY (H.K.) LIMITED",
            "nama_se": "MARIA FORBIS",
            "sektor": "Sektor Teknologi Informasi dan Komunikasi",
            "tanggal_terbit": "2024-12-05",
            "url_tdpse_detail": "https://pse.komdigi.go.id/tdpse-detail/21595",
            "website": "-"
        },
        {
            "id": "9da6fc6d-446e-4218-bddd-7db8fde4a270",
            "nama_pse": "SHANTOU MARIA INVESTMENT CO., LTD.",
            "nama_se": "MARIA FORBIS",
            "sektor": "Sektor Teknologi Informasi dan Komunikasi",
            "tanggal_terbit": "2024-12-05",
            "url_tdpse_detail": "https://pse.komdigi.go.id/tdpse-detail/21597",
            "website": "-"
        },
        {
            "id": "9da70828-c79e-48e5-8bc6-130c80f0e416",
            "nama_pse": "SHANTOU MARIA INVESTMENT CO., LTD.",
            "nama_se": "deliveryagent289@gmail.com",
            "sektor": "Sektor Keuangan",
            "tanggal_terbit": "2024-12-05",
            "url_tdpse_detail": "https://pse.komdigi.go.id/tdpse-detail/21599",
            "website": "-"
        },
        {
            "id": "9da7082a-c79b-41e6-9549-6c9409b2d247",
            "nama_pse": "SHANTOU MARIA INVESTMENT CO., LTD.",
            "nama_se": "un.high@outlook.com",
            "sektor": "Sektor Keuangan",
            "tanggal_terbit": "2024-12-05",
            "url_tdpse_detail": "https://pse.komdigi.go.id/tdpse-detail/21600",
            "website": "-"
        },
        {
            "id": "9da7082c-8184-4462-98eb-7c3261bded7c",
            "nama_pse": "SHANTOU MARIA INVESTMENT CO., LTD.",
            "nama_se": "MARIA FORBIS",
            "sektor": "Sektor Teknologi Informasi dan Komunikasi",
            "tanggal_terbit": "2024-12-05",
            "url_tdpse_detail": "https://pse.komdigi.go.id/tdpse-detail/21601",
            "website": "-"
        },
        {
            "id": "9da710c2-d860-427a-9e25-22f3f6eba15d",
            "nama_pse": "SHANTOU ZHONGBIN HETAI IMPORT AND EXPORT TRADE CO., LTD.",
            "nama_se": "MARIA FORBIS",
            "sektor": "Sektor Teknologi Informasi dan Komunikasi",
            "tanggal_terbit": "2024-12-05",
            "url_tdpse_detail": "https://pse.komdigi.go.id/tdpse-detail/21602",
            "website": "-"
        },
        {
            "id": "9da71d13-04f9-4593-972e-410a97854a3d",
            "nama_pse": "HONG DING PROPERTY (H.K.) LIMITED",
            "nama_se": "OWEN PETRO BITUMEN",
            "sektor": "Sektor Teknologi Informasi dan Komunikasi",
            "tanggal_terbit": "2024-12-05",
            "url_tdpse_detail": "https://pse.komdigi.go.id/tdpse-detail/21603",
            "website": "-"
        },
        {
            "id": "9da72435-b97a-4138-9e17-ba85ee3a0dc5",
            "nama_pse": "SHANTOU MARIA INVESTMENT CO., LTD.",
            "nama_se": "maria@owenstrategikmedia.com",
            "sektor": "Sektor Teknologi Informasi dan Komunikasi",
            "tanggal_terbit": "2024-12-05",
            "url_tdpse_detail": "https://pse.komdigi.go.id/tdpse-detail/21604",
            "website": "-"
        },
        {
            "id": "9da72439-621a-4984-9167-3f3e08e8bfe4",
            "nama_pse": "SHANTOU MARIA INVESTMENT CO., LTD.",
            "nama_se": "MARIA FORBIS",
            "sektor": "Sektor Teknologi Informasi dan Komunikasi",
            "tanggal_terbit": "2024-12-05",
            "url_tdpse_detail": "https://pse.komdigi.go.id/tdpse-detail/21606",
            "website": "-"
        },
        {
            "id": "9da72437-a4f8-4164-82b9-ff3462bcca4f",
            "nama_pse": "SHANTOU MARIA INVESTMENT CO., LTD.",
            "nama_se": "maria.kalaij@owenpetrobitumen.com",
            "sektor": "Sektor Teknologi Informasi dan Komunikasi",
            "tanggal_terbit": "2024-12-05",
            "url_tdpse_detail": "https://pse.komdigi.go.id/tdpse-detail/21605",
            "website": "-"
        },
        {
            "id": "9da736b3-ef85-4132-817c-6841f5f89e94",
            "nama_pse": "HONG DING PROPERTY (H.K.) LIMITED",
            "nama_se": "MARIA FORBIS",
            "sektor": "Sektor Teknologi Informasi dan Komunikasi",
            "tanggal_terbit": "2024-12-05",
            "url_tdpse_detail": "https://pse.komdigi.go.id/tdpse-detail/21608",
            "website": "-"
        },
        {
            "id": "9da741c6-850c-4a8d-898b-c7ee0bbb35a7",
            "nama_pse": "SHANTOU MARIA INVESTMENT CO., LTD.",
            "nama_se": "SHANTOU ZHONGFU ELECTRONIC TECHNOLOGY",
            "sektor": "Sektor Keuangan",
            "tanggal_terbit": "2024-12-05",
            "url_tdpse_detail": "https://pse.komdigi.go.id/tdpse-detail/21609",
            "website": "-"
        },
        {
            "id": "9da72fa6-d25c-4c20-8ad2-78bd4255bd67",
            "nama_pse": "SHANTOU MARIA INVESTMENT CO., LTD.",
            "nama_se": "MARIA FORBIS",
            "sektor": "Sektor Teknologi Informasi dan Komunikasi",
            "tanggal_terbit": "2024-12-05",
            "url_tdpse_detail": "https://pse.kominfo.go.id/tdpse-detail/21607",
            "website": "-"
        },
        {
            "id": "9da741c8-368e-4751-b46e-4db82f93cc9c",
            "nama_pse": "SHANTOU MARIA INVESTMENT CO., LTD.",
            "nama_se": "GRAHA VENTURA MILENIAL GROUP",
            "sektor": "Sektor Teknologi Informasi dan Komunikasi",
            "tanggal_terbit": "2024-12-05",
            "url_tdpse_detail": "https://pse.komdigi.go.id/tdpse-detail/21610",
            "website": "-"
        },
        {
            "id": "9da741c9-cbf9-4c10-bb1d-cabef680ad0a",
            "nama_pse": "SHANTOU MARIA INVESTMENT CO., LTD.",
            "nama_se": "HONG DING PROPERTY (H.K.) LIMITED",
            "sektor": "Sektor Teknologi Informasi dan Komunikasi",
            "tanggal_terbit": "2024-12-05",
            "url_tdpse_detail": "https://pse.komdigi.go.id/tdpse-detail/21611",
            "website": "-"
        },
        {
            "id": "9da74a54-ee5d-4825-a035-1096d01d4706",
            "nama_pse": "SHANTOU MARIA INVESTMENT CO., LTD.",
            "nama_se": "SINAR MAS CAKRAWALA",
            "sektor": "Sektor Teknologi Informasi dan Komunikasi",
            "tanggal_terbit": "2024-12-05",
            "url_tdpse_detail": "https://pse.komdigi.go.id/tdpse-detail/21614",
            "website": "-"
        },
        {
            "id": "9da74a56-904a-49ad-aba4-408de196deed",
            "nama_pse": "SHANTOU MARIA INVESTMENT CO., LTD.",
            "nama_se": "SINARMAS ASSET MANAGEMENT",
            "sektor": "Sektor Teknologi Informasi dan Komunikasi",
            "tanggal_terbit": "2024-12-05",
            "url_tdpse_detail": "https://pse.komdigi.go.id/tdpse-detail/21615",
            "website": "-"
        },
        {
            "id": "9da74a58-4aad-4606-9bc6-d093d8ac0d3d",
            "nama_pse": "SHANTOU MARIA INVESTMENT CO., LTD.",
            "nama_se": "BUMI SERPONG DAMAI",
            "sektor": "Sektor Teknologi Informasi dan Komunikasi",
            "tanggal_terbit": "2024-12-05",
            "url_tdpse_detail": "https://pse.komdigi.go.id/tdpse-detail/21616",
            "website": "-"
        },
        {
            "id": "9da48bba-1ea8-4d14-abee-eb0d2af5ff00",
            "nama_pse": "SHANTOU JINJIA TRADING CO., LTD.",
            "nama_se": "SHANTOU MARIA INVESTMENT",
            "sektor": "Sektor Keuangan",
            "tanggal_terbit": "2024-12-04",
            "url_tdpse_detail": "https://pse.komdigi.go.id/tdpse-detail/21457",
            "website": "-"
        },
        {
            "id": "9da49650-88fb-419d-8f12-640da6c9eb81",
            "nama_pse": "SHANTOU JINJIA TRADING CO., LTD.",
            "nama_se": "SHANTOU MARIA INVESTMENT",
            "sektor": "Sektor Keuangan",
            "tanggal_terbit": "2024-12-04",
            "url_tdpse_detail": "https://pse.komdigi.go.id/tdpse-detail/21458",
            "website": "-"
        },
        {
            "id": "9da34628-be1d-4dc4-a1c6-9a65c0ec6226",
            "nama_pse": "HONG DING PROPERTY (H.K.) LIMITED",
            "nama_se": "MUTIARA PASUNDAN ANJANI",
            "sektor": "Sektor Keuangan",
            "tanggal_terbit": "2024-12-04",
            "url_tdpse_detail": "https://pse.komdigi.go.id/tdpse-detail/21429",
            "website": "-"
        },
        {
            "id": "9da35051-4b95-4aaa-bc44-5bed690b52d3",
            "nama_pse": "Shantou Zhongbin Hetai Import And Export Trade Co., Ltd.",
            "nama_se": "WIJAYA KUSUMA RAJAWALI",
            "sektor": "Sektor Keuangan",
            "tanggal_terbit": "2024-12-04",
            "url_tdpse_detail": "https://pse.komdigi.go.id/tdpse-detail/21432",
            "website": "-"
        },
        {
            "id": "9da353c6-918b-4c10-b48d-a1da123fd8c6",
            "nama_pse": "Shantou Zhongbin Hetai Import And Export Trade Co., Ltd.",
            "nama_se": "HONG DING PROPERTY (H.K) LIMITED",
            "sektor": "Sektor Keuangan",
            "tanggal_terbit": "2024-12-04",
            "url_tdpse_detail": "https://pse.komdigi.go.id/tdpse-detail/21433",
            "website": "-"
        },
        {
            "id": "9da35ca8-909c-4d65-8101-7a2d43af9ed4",
            "nama_pse": "Shantou Zhongbin Hetai Import And Export Trade Co., Ltd.",
            "nama_se": "MAKMUR JAYA MEDIA",
            "sektor": "Sektor Keuangan",
            "tanggal_terbit": "2024-12-04",
            "url_tdpse_detail": "https://pse.komdigi.go.id/tdpse-detail/21434",
            "website": "-"
        },
        {
            "id": "9da3623d-6bd6-458a-95a4-db41fff3d6b4",
            "nama_pse": "SHANTOU ZHONGBIN HETAI IMPORT \u0026 EXPORT TRADE CO., LTD.",
            "nama_se": "WIJAYA KUSUMA RAJAWALI",
            "sektor": "Sektor Keuangan",
            "tanggal_terbit": "2024-12-04",
            "url_tdpse_detail": "https://pse.komdigi.go.id/tdpse-detail/21435",
            "website": "-"
        },
        {
            "id": "9da36491-c037-41f2-9e55-6970ebe94001",
            "nama_pse": "SHANTOU ZHONGBIN HETAI IMPORT \u0026 EXPORT TRADE CO., LTD.",
            "nama_se": "MUTIARA PASUNDAN ANJANI",
            "sektor": "Sektor Keuangan",
            "tanggal_terbit": "2024-12-04",
            "url_tdpse_detail": "https://pse.komdigi.go.id/tdpse-detail/21436",
            "website": "-"
        },
        {
            "id": "9da367c8-c800-4312-b043-dbeb85109f25",
            "nama_pse": "SHANTOU ZHONGBIN HETAI IMPORT \u0026 EXPORT TRADE CO., LTD.",
            "nama_se": "MARGO PRATAMA PERKASA",
            "sektor": "Sektor Keuangan",
            "tanggal_terbit": "2024-12-04",
            "url_tdpse_detail": "https://pse.komdigi.go.id/tdpse-detail/21437",
            "website": "-"
        }
    ],
    "processingTimeMs": 3,
    "query": "",
    "totalHits": 1139,
    "hitsPerPage": 50,
    "page": 4,
    "totalPages": 23
}