{
    "hits": [
        {
            "id": "9cb1ac29-e31d-48f8-af87-fa89d83b76bf",
            "nama_pse": "VIVO MOBILE COMMUNICATION CO., LTD.",
            "nama_se": "V-APPSTORE",
            "sektor": "Sektor Teknologi Informasi dan Komunikasi",
            "tanggal_terbit": "2022-12-08",
            "url_tdpse_detail": "https://pse.komdigi.go.id/tdpse-detail/12643",
            "website": "-"
        },
        {
            "id": "9cb1ac17-3149-4516-ae7b-148f2e005e81",
            "nama_pse": "VIVO MOBILE COMMUNICATION CO., LTD.",
            "nama_se": "V-APPSTORE",
            "sektor": "Sektor Teknologi Informasi dan Komunikasi",
            "tanggal_terbit": "2022-12-08",
            "url_tdpse_detail": "https://pse.komdigi.go.id/tdpse-detail/12644",
            "website": "-"
        },
        {
            "id": "9cb1ac2a-2841-4dd7-a80d-c61994ce6fea",
            "nama_pse": "E3 BUSINESS INC",
            "nama_se": "E3 BUSINESS",
            "sektor": "Sektor Teknologi Informasi dan Komunikasi",
            "tanggal_terbit": "2022-12-08",
            "url_tdpse_detail": "https://pse.komdigi.go.id/tdpse-detail/12936",
            "website": "E3-business.com"
        },
        {
            "id": "9cb1ac17-78c2-4a89-93fd-697ab04ff889",
            "nama_pse": "NUVERSE PTE. LTD.",
            "nama_se": "DARKNESS \u0026 DIVINITY",
            "sektor": "Sektor Teknologi Informasi dan Komunikasi",
            "tanggal_terbit": "2022-12-08",
            "url_tdpse_detail": "https://pse.komdigi.go.id/tdpse-detail/12938",
            "website": "play.google.com/store/apps/details?id=com.game.nova"
        },
        {
            "id": "9cb1ac15-e8da-41d4-a7d1-0294bdc7f531",
            "nama_pse": "MPY GLOBAL (UK) LTD.",
            "nama_se": "LELANG AGUNAN BNI",
            "sektor": "Sektor Keuangan",
            "tanggal_terbit": "2022-11-17",
            "url_tdpse_detail": "https://pse.komdigi.go.id/tdpse-detail/12371",
            "website": "lelangagunan.bni.co.id"
        },
        {
            "id": "9cb1abe2-b2f2-4720-bace-9d059047127b",
            "nama_pse": "SHANTOU MARIA INVESTMENT CO., LTD.",
            "nama_se": "NANJING SINAR MAS \u0026 ZIJIN VENTURE CAPITAL",
            "sektor": "Sektor Keuangan",
            "tanggal_terbit": "2022-11-16",
            "url_tdpse_detail": "https://pse.komdigi.go.id/tdpse-detail/12320",
            "website": "theroyalbeachseminyak.com"
        },
        {
            "id": "9cb1abe2-cc6e-4318-9b73-56b3d7aa2c97",
            "nama_pse": "SIDEWALK ENTERTAINMENT",
            "nama_se": "STEPIN - KPOP DANCE",
            "sektor": "Sektor Transportasi",
            "tanggal_terbit": "2022-11-16",
            "url_tdpse_detail": "https://pse.komdigi.go.id/tdpse-detail/12329",
            "website": "stepin.ai"
        },
        {
            "id": "9cb1ac07-54a3-49e9-8e77-f2f2b6fdab1b",
            "nama_pse": "SOCIOS SERVICES BALTICS UAB",
            "nama_se": "SOCIOS.COM",
            "sektor": "Sektor Teknologi Informasi dan Komunikasi",
            "tanggal_terbit": "2022-11-16",
            "url_tdpse_detail": "https://pse.komdigi.go.id/tdpse-detail/12330",
            "website": "socios.com"
        },
        {
            "id": "9cb1ac07-3d76-4aa2-b3ae-0fba15a8e904",
            "nama_pse": "STANDARD CHARTERED",
            "nama_se": "STANDARD CHARTERED FOUNDATION",
            "sektor": "Sektor Teknologi Informasi dan Komunikasi",
            "tanggal_terbit": "2022-11-15",
            "url_tdpse_detail": "https://pse.komdigi.go.id/tdpse-detail/12307",
            "website": "bankbni.co.uk"
        },
        {
            "id": "9cb1ac15-9129-478f-8af4-895556060c40",
            "nama_pse": "STANDARD CHARTERED FOUNDATION",
            "nama_se": "SC FOUNDATION",
            "sektor": "Sektor Keuangan",
            "tanggal_terbit": "2022-11-15",
            "url_tdpse_detail": "https://pse.komdigi.go.id/tdpse-detail/12310",
            "website": "sc.com"
        },
        {
            "id": "9cb1abe2-a2ea-43ac-a7d9-a4716045da61",
            "nama_pse": "SHANTOU MARIA INVESTMENT CO., LTD.",
            "nama_se": "INDUSTRIAL \u0026 COMMERCIAL BANK OF CHINA (GLOBAL ACCOUNT)",
            "sektor": "Sektor Keuangan",
            "tanggal_terbit": "2022-11-15",
            "url_tdpse_detail": "https://pse.komdigi.go.id/tdpse-detail/12312",
            "website": "gl.icbc.com"
        },
        {
            "id": "9cb1abe2-aff8-42e5-9fbf-f3c39bb98888",
            "nama_pse": "ADOBE SYSTEMS SOFTWARE IRELAND LIMITED",
            "nama_se": "ADOBE.COM",
            "sektor": "Sektor Perdagangan",
            "tanggal_terbit": "2022-11-15",
            "url_tdpse_detail": "https://pse.komdigi.go.id/tdpse-detail/12317",
            "website": "adobe.com"
        },
        {
            "id": "9cb1ac15-9b1b-4433-a093-e9df84f59b15",
            "nama_pse": "NEXON KOREA CORPORATION",
            "nama_se": "CIVILIZATION: REIGN OF POWER",
            "sektor": "Sektor Teknologi Informasi dan Komunikasi",
            "tanggal_terbit": "2022-11-15",
            "url_tdpse_detail": "https://pse.komdigi.go.id/tdpse-detail/12319",
            "website": "-"
        },
        {
            "id": "9cb1abe2-5310-4ea0-b4c8-0b1a17fad94c",
            "nama_pse": "NEXON KOREA CORPORATION",
            "nama_se": "CIVILIZATION: REIGN OF POWER",
            "sektor": "Sektor Teknologi Informasi dan Komunikasi",
            "tanggal_terbit": "2022-11-14",
            "url_tdpse_detail": "https://pse.komdigi.go.id/tdpse-detail/12265",
            "website": "-"
        },
        {
            "id": "9cb1ac06-f4af-47b5-b5a1-bd682604e095",
            "nama_pse": "NEXON KOREA CORPORATION",
            "nama_se": "CIVILIZATION: REIGN OF POWER",
            "sektor": "Sektor Teknologi Informasi dan Komunikasi",
            "tanggal_terbit": "2022-11-14",
            "url_tdpse_detail": "https://pse.komdigi.go.id/tdpse-detail/12269",
            "website": "-"
        },
        {
            "id": "9cb1ac06-fb5d-4ed7-8ba1-af8532aecea0",
            "nama_pse": "SHANTOU MARIA INVESTMENT CO., LTD.",
            "nama_se": "MIRALIFE",
            "sektor": "Sektor Keuangan",
            "tanggal_terbit": "2022-11-14",
            "url_tdpse_detail": "https://pse.komdigi.go.id/tdpse-detail/12272",
            "website": "kresnalife.com"
        },
        {
            "id": "9cb1ac15-5a0e-4506-9fb2-45e154f741e4",
            "nama_pse": "SHANTOU MARIA INVESTMENT CO., LTD.",
            "nama_se": "YKPN",
            "sektor": "Sektor Teknologi Informasi dan Komunikasi",
            "tanggal_terbit": "2022-11-14",
            "url_tdpse_detail": "https://pse.komdigi.go.id/tdpse-detail/12274",
            "website": "poltekykpn.ac.id"
        },
        {
            "id": "9cb1abe2-793c-4d6b-967a-27562f8772bd",
            "nama_pse": "NUVERSE (HONG KONG) LIMITED",
            "nama_se": "MARVEL SNAP",
            "sektor": "Sektor Teknologi Informasi dan Komunikasi",
            "tanggal_terbit": "2022-11-14",
            "url_tdpse_detail": "https://pse.komdigi.go.id/tdpse-detail/12276",
            "website": "marvelsnap.com"
        },
        {
            "id": "9cb1ac15-6b61-4683-9731-dc8429e6fb0f",
            "nama_pse": "HONGKONG DUGA HOLDINGS LIMITED",
            "nama_se": "TOP MECH: FUTURE WARS",
            "sektor": "Sektor Teknologi Informasi dan Komunikasi",
            "tanggal_terbit": "2022-11-14",
            "url_tdpse_detail": "https://pse.komdigi.go.id/tdpse-detail/12282",
            "website": "tm.dugagame.com"
        },
        {
            "id": "9cb1ac15-55a3-42e0-a546-b5547a62ad19",
            "nama_pse": "WEJOY PTE. LTD.",
            "nama_se": "FUN",
            "sektor": "Sektor Teknologi Informasi dan Komunikasi",
            "tanggal_terbit": "2022-11-13",
            "url_tdpse_detail": "https://pse.komdigi.go.id/tdpse-detail/12260",
            "website": "livechatgo.com"
        },
        {
            "id": "9cb1ac15-29c6-4719-89c6-942f866cbbe7",
            "nama_pse": "ARK GAMES GLOBAL PTE. LTD.",
            "nama_se": "THE LEGEND OF NEVERLAND",
            "sektor": "Sektor Teknologi Informasi dan Komunikasi",
            "tanggal_terbit": "2022-11-11",
            "url_tdpse_detail": "https://pse.komdigi.go.id/tdpse-detail/12225",
            "website": "neverland.game-ark.com"
        },
        {
            "id": "9cb1ac14-fdb6-4ae3-a41f-52aa2aacbc01",
            "nama_pse": "RINCOS",
            "nama_se": "RINCOS",
            "sektor": "Sektor Transportasi",
            "tanggal_terbit": "2022-11-10",
            "url_tdpse_detail": "https://pse.komdigi.go.id/tdpse-detail/12203",
            "website": "rincos.asia"
        },
        {
            "id": "9cb1abe1-eaa2-49ea-ab96-23badee98366",
            "nama_pse": "RINCOS",
            "nama_se": "RINCOS",
            "sektor": "Sektor Transportasi",
            "tanggal_terbit": "2022-11-10",
            "url_tdpse_detail": "https://pse.komdigi.go.id/tdpse-detail/12204",
            "website": "Rincos.asia"
        },
        {
            "id": "9cb1ac06-972c-4ad7-b9ef-36f75d0051e7",
            "nama_pse": "RINCOS",
            "nama_se": "RINCOS",
            "sektor": "Sektor Transportasi",
            "tanggal_terbit": "2022-11-10",
            "url_tdpse_detail": "https://pse.komdigi.go.id/tdpse-detail/12205",
            "website": "rincos.co.kr"
        },
        {
            "id": "9cb1ac15-026c-4cfb-8bd6-a89b06bf4459",
            "nama_pse": "RINCOS",
            "nama_se": "RINCOS",
            "sektor": "Sektor Transportasi",
            "tanggal_terbit": "2022-11-10",
            "url_tdpse_detail": "https://pse.komdigi.go.id/tdpse-detail/12206",
            "website": "rincos.asia"
        },
        {
            "id": "9cb1abe1-d465-4df0-878e-d88b7a23e6a8",
            "nama_pse": "WHOLE EARTH FOUNDATION",
            "nama_se": "WEF",
            "sektor": "Sektor Teknologi Informasi dan Komunikasi",
            "tanggal_terbit": "2022-11-08",
            "url_tdpse_detail": "https://pse.komdigi.go.id/tdpse-detail/12174",
            "website": "wholeearthfoundation.org"
        },
        {
            "id": "9cb1ac14-d3c4-4c9a-a72b-855217392725",
            "nama_pse": "WHOLE EARTH FOUNDATION",
            "nama_se": "WEF",
            "sektor": "Sektor Teknologi Informasi dan Komunikasi",
            "tanggal_terbit": "2022-11-08",
            "url_tdpse_detail": "https://pse.komdigi.go.id/tdpse-detail/12175",
            "website": "tekkon.com"
        },
        {
            "id": "9cb1ac14-d774-4b72-9f25-f73fc8b08700",
            "nama_pse": "SNOWFLAKE COMPUTING NETHERLANDS B.V.",
            "nama_se": "SNOWFLAKE DATA CLOUD PLATFORM",
            "sektor": "Sektor Teknologi Informasi dan Komunikasi",
            "tanggal_terbit": "2022-11-08",
            "url_tdpse_detail": "https://pse.komdigi.go.id/tdpse-detail/12176",
            "website": "snowflake.com"
        },
        {
            "id": "9cb1ac14-9b8b-4a28-be17-66151839398f",
            "nama_pse": "SHANTOU MARIA INVESTMENT CO., LTD.",
            "nama_se": "SURYA INDONESIA SATU PROPERTY",
            "sektor": "Sektor Teknologi Informasi dan Komunikasi",
            "tanggal_terbit": "2022-11-06",
            "url_tdpse_detail": "https://pse.komdigi.go.id/tdpse-detail/12140",
            "website": "binkei-indo.com"
        },
        {
            "id": "9cb1ac14-8f0d-496c-a641-cdb80c6b6e6c",
            "nama_pse": "PANDADA GAMES LIMITED",
            "nama_se": "NINJA MUST DIE",
            "sektor": "Sektor Perdagangan",
            "tanggal_terbit": "2022-11-04",
            "url_tdpse_detail": "https://pse.komdigi.go.id/tdpse-detail/12129",
            "website": "pandadagames.com"
        },
        {
            "id": "9cb1abe1-8fe9-4fd7-b0af-af44436adfe6",
            "nama_pse": "NETEASE INTERACTIVE ENTERTAINMENT PTE. LTD.",
            "nama_se": "ACE RACER",
            "sektor": "Sektor Teknologi Informasi dan Komunikasi",
            "tanggal_terbit": "2022-11-03",
            "url_tdpse_detail": "https://pse.komdigi.go.id/tdpse-detail/12109",
            "website": "aceracer-game.com"
        },
        {
            "id": "9cb1ac14-7846-413f-9f3d-662d39f3c673",
            "nama_pse": "AKURA PTE. LTD.",
            "nama_se": "BOOKWORM",
            "sektor": "Sektor Teknologi Informasi dan Komunikasi",
            "tanggal_terbit": "2022-11-03",
            "url_tdpse_detail": "https://pse.komdigi.go.id/tdpse-detail/12113",
            "website": "bookwormfic.com"
        },
        {
            "id": "9cb1ac14-7b82-43ca-8776-32a78268fc83",
            "nama_pse": "AKURA PTE. LTD.",
            "nama_se": "BOOKISH",
            "sektor": "Sektor Teknologi Informasi dan Komunikasi",
            "tanggal_terbit": "2022-11-03",
            "url_tdpse_detail": "https://pse.komdigi.go.id/tdpse-detail/12114",
            "website": "bookishread.com"
        },
        {
            "id": "9cb1abe1-9a46-4416-9565-237628280b95",
            "nama_pse": "AKURA PTE. LTD.",
            "nama_se": "NOVELITA",
            "sektor": "Sektor Teknologi Informasi dan Komunikasi",
            "tanggal_terbit": "2022-11-03",
            "url_tdpse_detail": "https://pse.komdigi.go.id/tdpse-detail/12115",
            "website": "novecinta.com"
        },
        {
            "id": "9cb1ac14-7f13-4364-b548-9c17f8955fe5",
            "nama_pse": "AKURA PTE. LTD.",
            "nama_se": "NOVELLIST",
            "sektor": "Sektor Teknologi Informasi dan Komunikasi",
            "tanggal_terbit": "2022-11-03",
            "url_tdpse_detail": "https://pse.komdigi.go.id/tdpse-detail/12116",
            "website": "watpadd.net"
        },
        {
            "id": "9cb1ac14-8270-4396-9cd3-b8460a873999",
            "nama_pse": "AKURA PTE. LTD.",
            "nama_se": "NOVELAH",
            "sektor": "Sektor Teknologi Informasi dan Komunikasi",
            "tanggal_terbit": "2022-11-03",
            "url_tdpse_detail": "https://pse.komdigi.go.id/tdpse-detail/12117",
            "website": "novelah668.com"
        },
        {
            "id": "9cb1abe1-9f30-409e-918d-1a6c10bcafa6",
            "nama_pse": "AKURA PTE. LTD.",
            "nama_se": "BACANOVEL",
            "sektor": "Sektor Teknologi Informasi dan Komunikasi",
            "tanggal_terbit": "2022-11-03",
            "url_tdpse_detail": "https://pse.komdigi.go.id/tdpse-detail/12118",
            "website": "bacanovel108.net"
        },
        {
            "id": "9cb1abe1-a34a-4fe2-86c6-3a45d1a0cbf7",
            "nama_pse": "AKURA PTE. LTD.",
            "nama_se": "NOVELKU",
            "sektor": "Sektor Teknologi Informasi dan Komunikasi",
            "tanggal_terbit": "2022-11-03",
            "url_tdpse_detail": "https://pse.komdigi.go.id/tdpse-detail/12119",
            "website": "novelkuapp.com"
        },
        {
            "id": "9cb1abe1-7314-424f-b9e9-12505f93e4d4",
            "nama_pse": "WEBZEN INC.",
            "nama_se": "MU ARCHANGEL",
            "sektor": "Sektor Teknologi Informasi dan Komunikasi",
            "tanggal_terbit": "2022-11-01",
            "url_tdpse_detail": "https://pse.komdigi.go.id/tdpse-detail/12072",
            "website": "muarchangel.webzen.com"
        },
        {
            "id": "9cb1ac05-b9ef-4281-9ce7-55bf20064348",
            "nama_pse": "WEBZEN INC.",
            "nama_se": "WEBZEN.COM",
            "sektor": "Sektor Teknologi Informasi dan Komunikasi",
            "tanggal_terbit": "2022-11-01",
            "url_tdpse_detail": "https://pse.komdigi.go.id/tdpse-detail/12073",
            "website": "webzen.com"
        },
        {
            "id": "9cb1ac14-4349-4863-82a6-a08a7991d705",
            "nama_pse": "WEBZEN INC.",
            "nama_se": "MU ONLINE",
            "sektor": "Sektor Teknologi Informasi dan Komunikasi",
            "tanggal_terbit": "2022-11-01",
            "url_tdpse_detail": "https://pse.komdigi.go.id/tdpse-detail/12074",
            "website": "muonline.webzen.com"
        },
        {
            "id": "9cb1ac14-0985-4fb6-be89-6a8b07eaad4c",
            "nama_pse": "IGG SINGAPORE PTE. LTD.",
            "nama_se": "CONQUERORS: ZAMAN KEEMASAN",
            "sektor": "Sektor Teknologi Informasi dan Komunikasi",
            "tanggal_terbit": "2022-10-31",
            "url_tdpse_detail": "https://pse.komdigi.go.id/tdpse-detail/12023",
            "website": "cq.igg.com"
        },
        {
            "id": "9cb1ac05-5f17-427a-8ca5-175bf45033ef",
            "nama_pse": "IGG SINGAPORE PTE. LTD.",
            "nama_se": "CONQUERORS: ZAMAN KEEMASAN",
            "sektor": "Sektor Teknologi Informasi dan Komunikasi",
            "tanggal_terbit": "2022-10-31",
            "url_tdpse_detail": "https://pse.komdigi.go.id/tdpse-detail/12024",
            "website": "cq.igg.com"
        },
        {
            "id": "9cb1ac05-62b6-49bb-98e1-493378cde49e",
            "nama_pse": "IGG SINGAPORE PTE. LTD.",
            "nama_se": "CONQUERORS: ZAMAN KEEMASAN",
            "sektor": "Sektor Teknologi Informasi dan Komunikasi",
            "tanggal_terbit": "2022-10-31",
            "url_tdpse_detail": "https://pse.komdigi.go.id/tdpse-detail/12025",
            "website": "cq.igg.com"
        },
        {
            "id": "9cb1ac14-0dc3-44b2-86b1-e5dcf618cbaf",
            "nama_pse": "IGG SINGAPORE PTE. LTD.",
            "nama_se": "CONQUERORS: ZAMAN KEEMASAN",
            "sektor": "Sektor Teknologi Informasi dan Komunikasi",
            "tanggal_terbit": "2022-10-31",
            "url_tdpse_detail": "https://pse.komdigi.go.id/tdpse-detail/12026",
            "website": "cq.igg.com"
        },
        {
            "id": "9cb1ac05-664b-4b83-9a5f-16810059f144",
            "nama_pse": "IGG SINGAPORE PTE. LTD.",
            "nama_se": "CONQUERORS: ZAMAN KEEMASAN",
            "sektor": "Sektor Teknologi Informasi dan Komunikasi",
            "tanggal_terbit": "2022-10-31",
            "url_tdpse_detail": "https://pse.komdigi.go.id/tdpse-detail/12027",
            "website": "cq.igg.com"
        },
        {
            "id": "9cb1ac14-10f0-4663-b6ed-18766bc26bd3",
            "nama_pse": "IGG SINGAPORE PTE. LTD.",
            "nama_se": "IGG.COM",
            "sektor": "Sektor Teknologi Informasi dan Komunikasi",
            "tanggal_terbit": "2022-10-31",
            "url_tdpse_detail": "https://pse.komdigi.go.id/tdpse-detail/12028",
            "website": "igg.com"
        },
        {
            "id": "9cb1ac05-6940-41a7-b393-d6aa480a44bf",
            "nama_pse": "IGG SINGAPORE PTE. LTD.",
            "nama_se": "CONQUERORS: ZAMAN KEEMASAN",
            "sektor": "Sektor Teknologi Informasi dan Komunikasi",
            "tanggal_terbit": "2022-10-31",
            "url_tdpse_detail": "https://pse.komdigi.go.id/tdpse-detail/12029",
            "website": "cq.igg.com"
        },
        {
            "id": "9cb1ac05-6ca4-4478-b254-5afd7c040400",
            "nama_pse": "IGG SINGAPORE PTE. LTD.",
            "nama_se": "SCRIPTS: ROMANCE EPISODE",
            "sektor": "Sektor Teknologi Informasi dan Komunikasi",
            "tanggal_terbit": "2022-10-31",
            "url_tdpse_detail": "https://pse.komdigi.go.id/tdpse-detail/12030",
            "website": "sus.igg.com"
        },
        {
            "id": "9cb1ac14-1440-4870-b0a4-66e8b4af7de3",
            "nama_pse": "IGG SINGAPORE PTE. LTD.",
            "nama_se": "TIME PRINCESS",
            "sektor": "Sektor Teknologi Informasi dan Komunikasi",
            "tanggal_terbit": "2022-10-31",
            "url_tdpse_detail": "https://pse.komdigi.go.id/tdpse-detail/12031",
            "website": "tp.igg.com"
        }
    ],
    "processingTimeMs": 2,
    "query": "",
    "totalHits": 1139,
    "hitsPerPage": 50,
    "page": 14,
    "totalPages": 23
}