{
    "hits": [
        {
            "id": "9cb1abe1-51be-4c58-85b2-0ef9e41bcfb0",
            "nama_pse": "IGG SINGAPORE PTE. LTD.",
            "nama_se": "CONQUERORS: ZAMAN KEEMASAN",
            "sektor": "Sektor Teknologi Informasi dan Komunikasi",
            "tanggal_terbit": "2022-10-31",
            "url_tdpse_detail": "https://pse.komdigi.go.id/tdpse-detail/12032",
            "website": "cq.igg.com"
        },
        {
            "id": "9cb1ac14-174f-4585-997e-d88c81cd9355",
            "nama_pse": "IGG SINGAPORE PTE. LTD.",
            "nama_se": "CONQUERORS: ZAMAN KEEMASAN",
            "sektor": "Sektor Teknologi Informasi dan Komunikasi",
            "tanggal_terbit": "2022-10-31",
            "url_tdpse_detail": "https://pse.komdigi.go.id/tdpse-detail/12033",
            "website": "cq.igg.com"
        },
        {
            "id": "9cb1abe1-54c5-4c50-bc33-19a93ada33cf",
            "nama_pse": "IGG SINGAPORE PTE. LTD.",
            "nama_se": "WAR OF SURVIVORS",
            "sektor": "Sektor Teknologi Informasi dan Komunikasi",
            "tanggal_terbit": "2022-10-31",
            "url_tdpse_detail": "https://pse.komdigi.go.id/tdpse-detail/12034",
            "website": "wos.igg.com"
        },
        {
            "id": "9cb1ac14-1a9f-4a61-b2b5-e0ad58472bdb",
            "nama_pse": "IGG SINGAPORE PTE. LTD.",
            "nama_se": "CASTLE CLASH: WORLD RULER",
            "sektor": "Sektor Teknologi Informasi dan Komunikasi",
            "tanggal_terbit": "2022-10-31",
            "url_tdpse_detail": "https://pse.komdigi.go.id/tdpse-detail/12035",
            "website": "castleclash.igg.com"
        },
        {
            "id": "9cb1ac05-6ff3-471b-a0b0-f6b43fb99198",
            "nama_pse": "IGG SINGAPORE PTE. LTD.",
            "nama_se": "CONQUERORS: ZAMAN KEEMASAN",
            "sektor": "Sektor Teknologi Informasi dan Komunikasi",
            "tanggal_terbit": "2022-10-31",
            "url_tdpse_detail": "https://pse.komdigi.go.id/tdpse-detail/12036",
            "website": "cq.igg.com"
        },
        {
            "id": "9cb1ac05-7300-4f4d-afb0-7b129188ebb7",
            "nama_pse": "IGG SINGAPORE PTE. LTD.",
            "nama_se": "MYTHIC HEROES",
            "sektor": "Sektor Teknologi Informasi dan Komunikasi",
            "tanggal_terbit": "2022-10-31",
            "url_tdpse_detail": "https://pse.komdigi.go.id/tdpse-detail/12037",
            "website": "mythicheroes.com"
        },
        {
            "id": "9cb1ac05-75f5-464f-8b3e-f4a54c3d01e7",
            "nama_pse": "IGG SINGAPORE PTE. LTD.",
            "nama_se": "RAGE OF DESTINY",
            "sektor": "Sektor Teknologi Informasi dan Komunikasi",
            "tanggal_terbit": "2022-10-31",
            "url_tdpse_detail": "https://pse.komdigi.go.id/tdpse-detail/12038",
            "website": "rod.igg.com"
        },
        {
            "id": "9cb1ac14-1df8-45d0-8962-011a0771a54d",
            "nama_pse": "IGG SINGAPORE PTE. LTD.",
            "nama_se": "IGG.COM",
            "sektor": "Sektor Teknologi Informasi dan Komunikasi",
            "tanggal_terbit": "2022-10-31",
            "url_tdpse_detail": "https://pse.komdigi.go.id/tdpse-detail/12039",
            "website": "igg.com"
        },
        {
            "id": "9cb1ac05-7928-4ef6-8f51-a0856cc0792b",
            "nama_pse": "IGG SINGAPORE PTE. LTD.",
            "nama_se": "DOOMSDAY: LAST SURVIVORS",
            "sektor": "Sektor Teknologi Informasi dan Komunikasi",
            "tanggal_terbit": "2022-10-31",
            "url_tdpse_detail": "https://pse.komdigi.go.id/tdpse-detail/12040",
            "website": "dls.igg.com"
        },
        {
            "id": "9cb1ac05-7ced-48d7-9523-e4da768ed9ed",
            "nama_pse": "IGG SINGAPORE PTE. LTD.",
            "nama_se": "CONQUERORS: ZAMAN KEEMASAN",
            "sektor": "Sektor Teknologi Informasi dan Komunikasi",
            "tanggal_terbit": "2022-10-31",
            "url_tdpse_detail": "https://pse.komdigi.go.id/tdpse-detail/12041",
            "website": "cq.igg.com"
        },
        {
            "id": "9cb1ac05-806d-48fd-954a-1da8f8273a7f",
            "nama_pse": "IGG SINGAPORE PTE. LTD.",
            "nama_se": "CONQUERORS: ZAMAN KEEMASAN",
            "sektor": "Sektor Teknologi Informasi dan Komunikasi",
            "tanggal_terbit": "2022-10-31",
            "url_tdpse_detail": "https://pse.komdigi.go.id/tdpse-detail/12042",
            "website": "cq.igg.com"
        },
        {
            "id": "9cb1ac14-215d-4cbf-9ff4-ca8fb4a0ffff",
            "nama_pse": "IGG SINGAPORE PTE. LTD.",
            "nama_se": "CONQUERORS: ZAMAN KEEMASAN",
            "sektor": "Sektor Teknologi Informasi dan Komunikasi",
            "tanggal_terbit": "2022-10-31",
            "url_tdpse_detail": "https://pse.komdigi.go.id/tdpse-detail/12043",
            "website": "cq.igg.com"
        },
        {
            "id": "9cb1ac05-83f2-41f6-bcd9-ae8c9e9ae7f2",
            "nama_pse": "IGG SINGAPORE PTE. LTD.",
            "nama_se": "MOBILE ROYALE",
            "sektor": "Sektor Teknologi Informasi dan Komunikasi",
            "tanggal_terbit": "2022-10-31",
            "url_tdpse_detail": "https://pse.komdigi.go.id/tdpse-detail/12044",
            "website": "mobileroyale.igg.com"
        },
        {
            "id": "9cb1abe1-5ea8-42c8-807c-2c44684094f5",
            "nama_pse": "NEXON KOREA CORPORATION",
            "nama_se": "DAVE THE DIVER",
            "sektor": "Sektor Teknologi Informasi dan Komunikasi",
            "tanggal_terbit": "2022-10-31",
            "url_tdpse_detail": "https://pse.komdigi.go.id/tdpse-detail/12052",
            "website": "store.steampowered.com"
        },
        {
            "id": "9cb1ac05-8ead-4447-8d4f-e349d0fa1003",
            "nama_pse": "XANDR INC.",
            "nama_se": "XANDR.COM",
            "sektor": "Sektor Teknologi Informasi dan Komunikasi",
            "tanggal_terbit": "2022-10-31",
            "url_tdpse_detail": "https://pse.komdigi.go.id/tdpse-detail/12055",
            "website": "xandr.com"
        },
        {
            "id": "9cb1ac05-91da-4354-a111-41ac7ad0aeca",
            "nama_pse": "XANDR INC.",
            "nama_se": "ADNXS.COM",
            "sektor": "Sektor Teknologi Informasi dan Komunikasi",
            "tanggal_terbit": "2022-10-31",
            "url_tdpse_detail": "https://pse.komdigi.go.id/tdpse-detail/12056",
            "website": "adnxs.com"
        },
        {
            "id": "9cb1ac13-f697-4cf9-a7ac-93cb0dc622fc",
            "nama_pse": "NEXON KOREA CORPORATION",
            "nama_se": "DAVE THE DIVER",
            "sektor": "Sektor Teknologi Informasi dan Komunikasi",
            "tanggal_terbit": "2022-10-28",
            "url_tdpse_detail": "https://pse.komdigi.go.id/tdpse-detail/12009",
            "website": "store.steampowered.com"
        },
        {
            "id": "9cb1ac05-4a43-4255-9598-87c631364c75",
            "nama_pse": "NEXON KOREA CORPORATION",
            "nama_se": "DAVE THE DIVER",
            "sektor": "Sektor Teknologi Informasi dan Komunikasi",
            "tanggal_terbit": "2022-10-28",
            "url_tdpse_detail": "https://pse.komdigi.go.id/tdpse-detail/12010",
            "website": "store.steampowered.com"
        },
        {
            "id": "9cb1ac13-f998-443e-b0f2-eb81b44804e8",
            "nama_pse": "NEXON KOREA CORPORATION",
            "nama_se": "DAVE THE DIVER",
            "sektor": "Sektor Teknologi Informasi dan Komunikasi",
            "tanggal_terbit": "2022-10-28",
            "url_tdpse_detail": "https://pse.komdigi.go.id/tdpse-detail/12011",
            "website": "store.steampowered.com"
        },
        {
            "id": "9cb1ac13-fca8-4716-a648-14d0fbaa8987",
            "nama_pse": "NEXON KOREA CORPORATION",
            "nama_se": "DAVE THE DIVER",
            "sektor": "Sektor Teknologi Informasi dan Komunikasi",
            "tanggal_terbit": "2022-10-28",
            "url_tdpse_detail": "https://pse.komdigi.go.id/tdpse-detail/12012",
            "website": "store.steampowered.com"
        },
        {
            "id": "9cb1ac13-ffaa-48e3-bb48-24b77ef91727",
            "nama_pse": "NEXON KOREA CORPORATION",
            "nama_se": "DAVE THE DIVER",
            "sektor": "Sektor Teknologi Informasi dan Komunikasi",
            "tanggal_terbit": "2022-10-28",
            "url_tdpse_detail": "https://pse.komdigi.go.id/tdpse-detail/12015",
            "website": "store.steampowered.com"
        },
        {
            "id": "9cb1ac13-c80c-4799-b873-0e5586c58e50",
            "nama_pse": "NIGO2020",
            "nama_se": "NIGO",
            "sektor": "Sektor Teknologi Informasi dan Komunikasi",
            "tanggal_terbit": "2022-10-27",
            "url_tdpse_detail": "https://pse.komdigi.go.id/tdpse-detail/11976",
            "website": "http:kdliverebo.com"
        },
        {
            "id": "9cb1ac05-2cbc-4a5d-9f31-57385ea29fbe",
            "nama_pse": "MATTEL163 LIMITED",
            "nama_se": "UNO !",
            "sektor": "Sektor Teknologi Informasi dan Komunikasi",
            "tanggal_terbit": "2022-10-27",
            "url_tdpse_detail": "https://pse.komdigi.go.id/tdpse-detail/11986",
            "website": "-"
        },
        {
            "id": "9cb1abe1-23a2-4f81-a1d1-8e4ba5afe20f",
            "nama_pse": "MATTEL163 LIMITED",
            "nama_se": "SKIP-BO",
            "sektor": "Sektor Teknologi Informasi dan Komunikasi",
            "tanggal_terbit": "2022-10-27",
            "url_tdpse_detail": "https://pse.komdigi.go.id/tdpse-detail/11987",
            "website": "-"
        },
        {
            "id": "9cb1ac13-ce49-4611-ac00-194c97f1dbdb",
            "nama_pse": "MATTEL163 LIMITED",
            "nama_se": "PHASE 10: WORLD TOUR",
            "sektor": "Sektor Teknologi Informasi dan Komunikasi",
            "tanggal_terbit": "2022-10-27",
            "url_tdpse_detail": "https://pse.komdigi.go.id/tdpse-detail/11988",
            "website": "-"
        },
        {
            "id": "9cb1ac05-0922-4c40-9809-850dc6d40b56",
            "nama_pse": "MATTEL163 LIMITED",
            "nama_se": "MATTEL163",
            "sektor": "Sektor Teknologi Informasi dan Komunikasi",
            "tanggal_terbit": "2022-10-25",
            "url_tdpse_detail": "https://pse.komdigi.go.id/tdpse-detail/11957",
            "website": "mattel163.com"
        },
        {
            "id": "9cb1abe0-b93e-4921-9e60-b3befd20b78f",
            "nama_pse": "Truecaller International LLP",
            "nama_se": "TRUECALLER",
            "sektor": "Sektor Teknologi Informasi dan Komunikasi",
            "tanggal_terbit": "2022-10-23",
            "url_tdpse_detail": "https://pse.komdigi.go.id/tdpse-detail/11929",
            "website": "truecaller.com"
        },
        {
            "id": "9cb1ac13-56ca-443c-9e19-c0b291371273",
            "nama_pse": "WEWORK COMPANIES LLC",
            "nama_se": "WEWORK",
            "sektor": "Sektor Perdagangan",
            "tanggal_terbit": "2022-10-21",
            "url_tdpse_detail": "https://pse.komdigi.go.id/tdpse-detail/11909",
            "website": "wework.com"
        },
        {
            "id": "9cb1ac13-5a1c-4a21-91f6-34c2b53b98a3",
            "nama_pse": "WEWORK COMPANIES LLC",
            "nama_se": "WEWORK",
            "sektor": "Sektor Perdagangan",
            "tanggal_terbit": "2022-10-21",
            "url_tdpse_detail": "https://pse.komdigi.go.id/tdpse-detail/11910",
            "website": "wework.com"
        },
        {
            "id": "9cb1abe0-b164-41ab-96da-37a53fc3807f",
            "nama_pse": "NEXON KOREA CORPORATION",
            "nama_se": "GODSOME: CLASH OF GODS",
            "sektor": "Sektor Teknologi Informasi dan Komunikasi",
            "tanggal_terbit": "2022-10-21",
            "url_tdpse_detail": "https://pse.komdigi.go.id/tdpse-detail/11916",
            "website": "godsome.nexon.com"
        },
        {
            "id": "9cb1ac04-a044-4a69-a9be-c7826884e667",
            "nama_pse": "NETEASE INTERACTIVE ENTERTAINMENT PTE. LTD.",
            "nama_se": "CASTLE CAPER",
            "sektor": "Sektor Teknologi Informasi dan Komunikasi",
            "tanggal_terbit": "2022-10-19",
            "url_tdpse_detail": "https://pse.komdigi.go.id/tdpse-detail/11874",
            "website": "-"
        },
        {
            "id": "9cb1abe0-5c1a-4b48-80d2-493b0d06cd50",
            "nama_pse": "DATADOG, INC.",
            "nama_se": "DATADOG SAAS PLATFORM",
            "sektor": "Sektor Teknologi Informasi dan Komunikasi",
            "tanggal_terbit": "2022-10-19",
            "url_tdpse_detail": "https://pse.komdigi.go.id/tdpse-detail/11875",
            "website": "datadoghq.com"
        },
        {
            "id": "9cb1abe0-3324-4ecd-884c-3a4f1200751b",
            "nama_pse": "WELOVESUPERMOM PTE LTD",
            "nama_se": "WELOVESUPERMOM.COM",
            "sektor": "Sektor Perdagangan",
            "tanggal_terbit": "2022-10-18",
            "url_tdpse_detail": "https://pse.komdigi.go.id/tdpse-detail/11848",
            "website": "welovesupermom.com"
        },
        {
            "id": "9cb1ac04-42c9-45e9-ab75-c2dc3622f8bf",
            "nama_pse": "KSATRIA MEDICAL SYSTEMS PTY LTD",
            "nama_se": "SIMRS KSATRIA EHOSPITAL",
            "sektor": "Sektor Kesehatan",
            "tanggal_terbit": "2022-10-14",
            "url_tdpse_detail": "https://pse.komdigi.go.id/tdpse-detail/11810",
            "website": "ksatria.io"
        },
        {
            "id": "9cb1ac04-086e-4bac-88a6-2d6ae186a52c",
            "nama_pse": "OUR HAPPY COMPANY PTE LTD",
            "nama_se": "OURSONG",
            "sektor": "Sektor Teknologi Informasi dan Komunikasi",
            "tanggal_terbit": "2022-10-13",
            "url_tdpse_detail": "https://pse.komdigi.go.id/tdpse-detail/11791",
            "website": "oursong.com"
        },
        {
            "id": "9cb1abdf-c683-4999-a17f-89a96bfed738",
            "nama_pse": "AKURA PTE. LTD.",
            "nama_se": "NOVELTY",
            "sektor": "Sektor Teknologi Informasi dan Komunikasi",
            "tanggal_terbit": "2022-10-12",
            "url_tdpse_detail": "https://pse.komdigi.go.id/tdpse-detail/11773",
            "website": "noveltysroty.com"
        },
        {
            "id": "9cb1ac03-c7ba-49be-ae52-44ab6ad1cb31",
            "nama_pse": "AKURA PTE. LTD.",
            "nama_se": "CERITAKU",
            "sektor": "Sektor Teknologi Informasi dan Komunikasi",
            "tanggal_terbit": "2022-10-11",
            "url_tdpse_detail": "https://pse.komdigi.go.id/tdpse-detail/11756",
            "website": "iceritaku.com"
        },
        {
            "id": "9cb1ac12-7e3a-48f8-9359-38ccee4a821e",
            "nama_pse": "HK FOREVER9 TECHNOLOGY CO., LIMITED",
            "nama_se": "ISLAND KING PRO",
            "sektor": "Sektor Teknologi Informasi dan Komunikasi",
            "tanggal_terbit": "2022-10-10",
            "url_tdpse_detail": "https://pse.komdigi.go.id/tdpse-detail/11735",
            "website": "forevernine.com"
        },
        {
            "id": "9cb1ac03-21e9-4d8c-b331-3c9b03b4476d",
            "nama_pse": "IVALUA INC.",
            "nama_se": "IVALUA",
            "sektor": "Sektor Teknologi Informasi dan Komunikasi",
            "tanggal_terbit": "2022-10-08",
            "url_tdpse_detail": "https://pse.komdigi.go.id/tdpse-detail/11623",
            "website": "ivalua.com"
        },
        {
            "id": "9cb1abde-df0b-4ecb-95a4-609ad1d69e94",
            "nama_pse": "3RADICAL",
            "nama_se": "VOCO",
            "sektor": "Sektor Teknologi Informasi dan Komunikasi",
            "tanggal_terbit": "2022-10-08",
            "url_tdpse_detail": "https://pse.komdigi.go.id/tdpse-detail/11624",
            "website": "3radical.com"
        },
        {
            "id": "9cb1ac03-24e1-457f-98ef-3efa89a374c3",
            "nama_pse": "Padi Asia Pacific Pty Limited",
            "nama_se": "WWW.PADI.COM",
            "sektor": "Sektor Perdagangan",
            "tanggal_terbit": "2022-10-08",
            "url_tdpse_detail": "https://pse.komdigi.go.id/tdpse-detail/11625",
            "website": "padi.com"
        },
        {
            "id": "9cb1ac02-f906-4f86-b75b-c4fbadc68520",
            "nama_pse": "WARGAMING GROUP LIMITED",
            "nama_se": "WARGAMING GAME CENTRE",
            "sektor": "Sektor Teknologi Informasi dan Komunikasi",
            "tanggal_terbit": "2022-10-07",
            "url_tdpse_detail": "https://pse.komdigi.go.id/tdpse-detail/11597",
            "website": "asia.wargamingnet"
        },
        {
            "id": "9cb1abde-d2cb-44e5-abdf-bfbc93f929d5",
            "nama_pse": "SHANTOU MARIA INVESTMENT CO., LTD..",
            "nama_se": "BNI AM UGM PROGRESSIVE BALANCED",
            "sektor": "Sektor Keuangan",
            "tanggal_terbit": "2022-10-07",
            "url_tdpse_detail": "https://pse.komdigi.go.id/tdpse-detail/11612",
            "website": "bankbni.co.uk"
        },
        {
            "id": "9cb1ac03-1100-48e4-b017-d30a4a655148",
            "nama_pse": "SHANTOU MARIA INVESTMENT CO., LTD..",
            "nama_se": "ITB HARMONI BNI-AM",
            "sektor": "Sektor Keuangan",
            "tanggal_terbit": "2022-10-07",
            "url_tdpse_detail": "https://pse.komdigi.go.id/tdpse-detail/11613",
            "website": "bnisecurities.com.sg"
        },
        {
            "id": "9cb1ac03-152b-46e7-8dc9-3d683f796565",
            "nama_pse": "SHANTOU MARIA INVESTMENT CO., LTD..",
            "nama_se": "MARIAFORBIS",
            "sektor": "Sektor Keuangan",
            "tanggal_terbit": "2022-10-07",
            "url_tdpse_detail": "https://pse.komdigi.go.id/tdpse-detail/11614",
            "website": "bni-am.co.id"
        },
        {
            "id": "9cb1abde-ae67-4d16-b545-dce95410b8da",
            "nama_pse": "BEIN SPORTS ASIA PTE LIMITED",
            "nama_se": "BEIN SPORTS CONNECT",
            "sektor": "Sektor Teknologi Informasi dan Komunikasi",
            "tanggal_terbit": "2022-10-06",
            "url_tdpse_detail": "https://pse.komdigi.go.id/tdpse-detail/11582",
            "website": "connect-id.beinsports.com"
        },
        {
            "id": "9cb1ac02-8ee5-4bc0-aeb5-4b617a9e7f54",
            "nama_pse": "SHANTOU MARIA INVESTMENT CO.., LTD.",
            "nama_se": "SHENZHEN AIRLINES SHIPENG (QINGDAO) HOLDINGS CO., LTD",
            "sektor": "Sektor Perdagangan",
            "tanggal_terbit": "2022-10-05",
            "url_tdpse_detail": "https://pse.komdigi.go.id/tdpse-detail/11512",
            "website": "owenpetrobitumen.coom"
        },
        {
            "id": "9cb1abde-5dee-4b29-8cb1-bac45e29770a",
            "nama_pse": "HUIYOU",
            "nama_se": "LYCORIS RECOIL",
            "sektor": "Sektor Perdagangan",
            "tanggal_terbit": "2022-10-05",
            "url_tdpse_detail": "https://pse.komdigi.go.id/tdpse-detail/11532",
            "website": "lycoris recoil.com"
        },
        {
            "id": "9cb1ac11-7bb1-4cfe-94a3-37c58066e8c0",
            "nama_pse": "BILIBILI COMICS PTE. LTD.",
            "nama_se": "BILIBILI COMICS",
            "sektor": "Sektor Teknologi Informasi dan Komunikasi",
            "tanggal_terbit": "2022-10-05",
            "url_tdpse_detail": "https://pse.komdigi.go.id/tdpse-detail/11570",
            "website": "bilibilicomics.com"
        },
        {
            "id": "9cb1abde-966f-46b9-9b67-90a66d086af7",
            "nama_pse": "SINCH SWEDEN AB",
            "nama_se": "NOVA",
            "sektor": "Sektor Teknologi Informasi dan Komunikasi",
            "tanggal_terbit": "2022-10-05",
            "url_tdpse_detail": "https://pse.komdigi.go.id/tdpse-detail/11571",
            "website": "sinch.com"
        }
    ],
    "processingTimeMs": 2,
    "query": "",
    "totalHits": 1139,
    "hitsPerPage": 50,
    "page": 15,
    "totalPages": 23
}