{
    "hits": [
        {
            "id": "9cb1aba1-e57b-4280-a50d-1128d52c5cba",
            "nama_pse": "BYTEDANCE PTE. LTD.",
            "nama_se": "FACEU",
            "sektor": "Sektor Teknologi Informasi dan Komunikasi",
            "tanggal_terbit": "2022-05-25",
            "url_tdpse_detail": "https://pse.komdigi.go.id/tdpse-detail/4139",
            "website": "play.google.com/store/apps/details?id=com.lemon.faceu.oversea\u0026hl=en_US\u0026gl=US"
        },
        {
            "id": "9cb1ab95-cf03-4df0-b5dd-eda16c85132b",
            "nama_pse": "BYTEDANCE PTE. LTD.",
            "nama_se": "PANGLE",
            "sektor": "Sektor Teknologi Informasi dan Komunikasi",
            "tanggal_terbit": "2022-05-25",
            "url_tdpse_detail": "https://pse.komdigi.go.id/tdpse-detail/4140",
            "website": "pangleglobal.com"
        },
        {
            "id": "9cb1aba1-e7e1-4eca-8807-ed50904684bd",
            "nama_pse": "BYTEDANCE PTE. LTD.",
            "nama_se": "CAPCUT",
            "sektor": "Sektor Teknologi Informasi dan Komunikasi",
            "tanggal_terbit": "2022-05-25",
            "url_tdpse_detail": "https://pse.komdigi.go.id/tdpse-detail/4141",
            "website": "capcut.net; play.google.com/store/apps/details?id=com.lemon.lvoverseas\u0026hl=en_US\u0026gl=US; apps.apple.com/us/app/capcut-video-editor/id1500855883"
        },
        {
            "id": "9cb1aba1-c2b8-42d5-b44a-d1ecc9aff01b",
            "nama_pse": "TIKTOK PTE. LTD.",
            "nama_se": "SISTEM TRANSISI",
            "sektor": "Sektor Perdagangan",
            "tanggal_terbit": "2022-05-24",
            "url_tdpse_detail": "https://pse.komdigi.go.id/tdpse-detail/4109",
            "website": "tiktok.com"
        },
        {
            "id": "9cb1abac-349d-4b57-8353-651b7d325c53",
            "nama_pse": "TIKTOK PTE. LTD.",
            "nama_se": "TIKTOK",
            "sektor": "Sektor Teknologi Informasi dan Komunikasi",
            "tanggal_terbit": "2022-05-24",
            "url_tdpse_detail": "https://pse.komdigi.go.id/tdpse-detail/4110",
            "website": "tiktok.com"
        },
        {
            "id": "9cb1abac-368e-407e-bb98-2f909a11a88f",
            "nama_pse": "TIKTOK PTE. LTD.",
            "nama_se": "TT4B (TIKTOK FOR BUSINESS)",
            "sektor": "Sektor Teknologi Informasi dan Komunikasi",
            "tanggal_terbit": "2022-05-24",
            "url_tdpse_detail": "https://pse.komdigi.go.id/tdpse-detail/4111",
            "website": "tiktok.com/business/en"
        },
        {
            "id": "9cb1abac-3a5d-4585-b9ac-9769604d05ad",
            "nama_pse": "TIKTOK PTE. LTD.",
            "nama_se": "SOUNDON",
            "sektor": "Sektor Teknologi Informasi dan Komunikasi",
            "tanggal_terbit": "2022-05-24",
            "url_tdpse_detail": "https://pse.komdigi.go.id/tdpse-detail/4112",
            "website": "soundon.global"
        },
        {
            "id": "9cb1aba1-c4cf-40b5-9687-232ef1c46cbc",
            "nama_pse": "DAILYMOTION S.A.",
            "nama_se": "DAILYMOTION S.A.",
            "sektor": "Sektor Teknologi Informasi dan Komunikasi",
            "tanggal_terbit": "2022-05-24",
            "url_tdpse_detail": "https://pse.komdigi.go.id/tdpse-detail/4113",
            "website": "dailymotion.com"
        },
        {
            "id": "9cb1aba1-c6fe-4859-98e8-b7daf96efc7b",
            "nama_pse": "POLIGON PTE. LTD.",
            "nama_se": "FIZZO",
            "sektor": "Sektor Teknologi Informasi dan Komunikasi",
            "tanggal_terbit": "2022-05-24",
            "url_tdpse_detail": "https://pse.komdigi.go.id/tdpse-detail/4114",
            "website": "fizzo.org"
        },
        {
            "id": "9cb1aba1-cc2f-4fec-b0f0-cce329c9a6f1",
            "nama_pse": "POLIGON PTE. LTD.",
            "nama_se": "FIZZOTOON",
            "sektor": "Sektor Teknologi Informasi dan Komunikasi",
            "tanggal_terbit": "2022-05-24",
            "url_tdpse_detail": "https://pse.komdigi.go.id/tdpse-detail/4117",
            "website": "fizzotoon.com"
        },
        {
            "id": "9cb1abac-174e-4aa1-94e6-8f4f76cc6699",
            "nama_pse": "Zurich LiveWell Services and Solutions Ltd.",
            "nama_se": "LIVEWELL APP AND WEB PORTAL",
            "sektor": "Sektor Kesehatan",
            "tanggal_terbit": "2022-05-23",
            "url_tdpse_detail": "https://pse.komdigi.go.id/tdpse-detail/4055",
            "website": "livewell-portal.zurich.com"
        },
        {
            "id": "9cb1ab95-722e-4ebd-968a-57e7257f2d6e",
            "nama_pse": "BOTTOMLINE TECHNOLOGIES PTE. LTD.",
            "nama_se": "SWIFT SERVICE BUREAU",
            "sektor": "Sektor Teknologi Informasi dan Komunikasi",
            "tanggal_terbit": "2022-05-23",
            "url_tdpse_detail": "https://pse.komdigi.go.id/tdpse-detail/4056",
            "website": "bottomline.com/apac"
        },
        {
            "id": "9cb1aba1-8f9a-4552-972d-d30502d84914",
            "nama_pse": "GLOBAL SERVICE OMEGA L.L.C-FZ",
            "nama_se": "OMEGA: LAYANAN TAKSI",
            "sektor": "Sektor Transportasi",
            "tanggal_terbit": "2022-05-23",
            "url_tdpse_detail": "https://pse.komdigi.go.id/tdpse-detail/4060",
            "website": "taxiomega.id"
        },
        {
            "id": "9cb1aba1-9233-4838-8ca0-03d86c5aa9e8",
            "nama_pse": "BIOMARK PTE LTD",
            "nama_se": "BIOMARK DOCTOR PLATFORM",
            "sektor": "Sektor Kesehatan",
            "tanggal_terbit": "2022-05-23",
            "url_tdpse_detail": "https://pse.komdigi.go.id/tdpse-detail/4061",
            "website": "biomarking.com"
        },
        {
            "id": "9cb1aba1-94b3-480e-8808-3b9f157bd104",
            "nama_pse": "BIOMARK PTE LTD",
            "nama_se": "BIOMARK MOBILE APPLICATION",
            "sektor": "Sektor Kesehatan",
            "tanggal_terbit": "2022-05-23",
            "url_tdpse_detail": "https://pse.komdigi.go.id/tdpse-detail/4062",
            "website": "biomarking.com"
        },
        {
            "id": "9cb1abac-1ae2-470b-9cbf-ebfecc31a3e4",
            "nama_pse": "BIOMARK PTE LTD",
            "nama_se": "BIOMARK LABORATORY PLATFORM",
            "sektor": "Sektor Kesehatan",
            "tanggal_terbit": "2022-05-23",
            "url_tdpse_detail": "https://pse.komdigi.go.id/tdpse-detail/4063",
            "website": "biomarking.com"
        },
        {
            "id": "9cb1ab95-74a9-4cec-a86f-b6df02879658",
            "nama_pse": "BIOMARK PTE LTD",
            "nama_se": "BIOMARK LABORATORY PLATFORM",
            "sektor": "Sektor Kesehatan",
            "tanggal_terbit": "2022-05-23",
            "url_tdpse_detail": "https://pse.komdigi.go.id/tdpse-detail/4064",
            "website": "biomarking.com"
        },
        {
            "id": "9cb1aba1-9787-43d5-a3c1-f61ffaa9d7d4",
            "nama_pse": "BIOMARK PTE LTD",
            "nama_se": "BIOMARK DOCTOR PLATFORM",
            "sektor": "Sektor Kesehatan",
            "tanggal_terbit": "2022-05-23",
            "url_tdpse_detail": "https://pse.komdigi.go.id/tdpse-detail/4065",
            "website": "biomarking.com"
        },
        {
            "id": "9cb1aba1-9a13-4830-b6ab-25247fe6c9e0",
            "nama_pse": "BIOMARK PTE LTD",
            "nama_se": "BIOMARK MOBILE APPLICATION",
            "sektor": "Sektor Kesehatan",
            "tanggal_terbit": "2022-05-23",
            "url_tdpse_detail": "https://pse.komdigi.go.id/tdpse-detail/4066",
            "website": "biomarking.com"
        },
        {
            "id": "9cb1ab95-83a5-4d46-9a7a-eda8ee9b3103",
            "nama_pse": "BIOMARK PTE LTD",
            "nama_se": "BIOMARK MOBILE APPLICATION",
            "sektor": "Sektor Kesehatan",
            "tanggal_terbit": "2022-05-23",
            "url_tdpse_detail": "https://pse.komdigi.go.id/tdpse-detail/4081",
            "website": "13.227.254.72"
        },
        {
            "id": "9cb1ab95-8736-41a0-8ecf-194af44a816a",
            "nama_pse": "BIOMARK PTE LTD",
            "nama_se": "BIOMARK LABORATORY PLATFORM",
            "sektor": "Sektor Kesehatan",
            "tanggal_terbit": "2022-05-23",
            "url_tdpse_detail": "https://pse.komdigi.go.id/tdpse-detail/4082",
            "website": "13.227.254.60"
        },
        {
            "id": "9cb1aba1-ab6f-4138-a8b8-b96afe1510a5",
            "nama_pse": "SIDEN INC",
            "nama_se": "SIDEN",
            "sektor": "Sektor Teknologi Informasi dan Komunikasi",
            "tanggal_terbit": "2022-05-23",
            "url_tdpse_detail": "https://pse.komdigi.go.id/tdpse-detail/4083",
            "website": "siden.io"
        },
        {
            "id": "9cb1abac-20b5-48ac-b9f0-f786ad9564cd",
            "nama_pse": "SPOTIFY AB",
            "nama_se": "SPOTIFY",
            "sektor": "Sektor Teknologi Informasi dan Komunikasi",
            "tanggal_terbit": "2022-05-23",
            "url_tdpse_detail": "https://pse.komdigi.go.id/tdpse-detail/4084",
            "website": "spotify.com"
        },
        {
            "id": "9cb1abac-2268-491a-94b5-147ecbacb873",
            "nama_pse": "M\u0026M MEDIA, INC",
            "nama_se": "TREBEL",
            "sektor": "Sektor Perdagangan",
            "tanggal_terbit": "2022-05-23",
            "url_tdpse_detail": "https://pse.komdigi.go.id/tdpse-detail/4085",
            "website": "trebel.io"
        },
        {
            "id": "9cb1abac-242a-4712-b0f0-d3e331ffe925",
            "nama_pse": "CHANGE.ORG, PBC",
            "nama_se": "CHANGE.ORG",
            "sektor": "Sektor Teknologi Informasi dan Komunikasi",
            "tanggal_terbit": "2022-05-23",
            "url_tdpse_detail": "https://pse.komdigi.go.id/tdpse-detail/4086",
            "website": "change.org"
        },
        {
            "id": "9cb1aba1-ad68-48e9-85f7-9e5a7c80b83c",
            "nama_pse": "SMARTER HEALTH PTE LTD",
            "nama_se": "SMARTER HEALTH PLATFORM",
            "sektor": "Sektor Teknologi Informasi dan Komunikasi",
            "tanggal_terbit": "2022-05-23",
            "url_tdpse_detail": "https://pse.komdigi.go.id/tdpse-detail/4087",
            "website": "smarterhealth.sg"
        },
        {
            "id": "9cb1aba1-af8d-4e5c-bf9f-2b6bc5eea8de",
            "nama_pse": "LINKTREE PTY LTD",
            "nama_se": "LINKTREE",
            "sektor": "Sektor Teknologi Informasi dan Komunikasi",
            "tanggal_terbit": "2022-05-23",
            "url_tdpse_detail": "https://pse.komdigi.go.id/tdpse-detail/4088",
            "website": "linktr.ee"
        },
        {
            "id": "9cb1aba1-b23d-4334-aea4-1a81021110e4",
            "nama_pse": "MANKIND MEDIA PTE LTD",
            "nama_se": "MCB",
            "sektor": "Sektor Perdagangan",
            "tanggal_terbit": "2022-05-23",
            "url_tdpse_detail": "https://pse.komdigi.go.id/tdpse-detail/4089",
            "website": "mycashback.co"
        },
        {
            "id": "9cb1ab95-89d5-4cfd-92d6-b8d378c513a1",
            "nama_pse": "REACH52 PTE LTD",
            "nama_se": "REACH52 ACCESS",
            "sektor": "Sektor Kesehatan",
            "tanggal_terbit": "2022-05-23",
            "url_tdpse_detail": "https://pse.komdigi.go.id/tdpse-detail/4090",
            "website": "reach52.com"
        },
        {
            "id": "9cb1abac-2642-44f6-8745-964b2ad1f735",
            "nama_pse": "PULSE ECOSYSTEMS PTE. LTD.",
            "nama_se": "PULSE",
            "sektor": "Sektor Perdagangan",
            "tanggal_terbit": "2022-05-23",
            "url_tdpse_detail": "https://pse.komdigi.go.id/tdpse-detail/4091",
            "website": "wedopulse.com/id/"
        },
        {
            "id": "9cb1abac-281c-41fe-b9f3-942fd999033a",
            "nama_pse": "SMART MEDIA4U TECHNOLOGY PTE. LTD.",
            "nama_se": "SHAREIT LITE",
            "sektor": "Sektor Teknologi Informasi dan Komunikasi",
            "tanggal_terbit": "2022-05-23",
            "url_tdpse_detail": "https://pse.komdigi.go.id/tdpse-detail/4092",
            "website": "114.119.168.60"
        },
        {
            "id": "9cb1ab95-8c98-4910-9814-f62ead6013ce",
            "nama_pse": "SMART MEDIA4U TECHNOLOGY PTE. LTD.",
            "nama_se": "SHAREIT",
            "sektor": "Sektor Teknologi Informasi dan Komunikasi",
            "tanggal_terbit": "2022-05-23",
            "url_tdpse_detail": "https://pse.komdigi.go.id/tdpse-detail/4093",
            "website": "114.119.168.60"
        },
        {
            "id": "9cb1ab95-8fc0-4dd0-a3ab-bb9529254e35",
            "nama_pse": "SMART MEDIA4U TECHNOLOGY PTE. LTD.",
            "nama_se": "CLEANIT",
            "sektor": "Sektor Teknologi Informasi dan Komunikasi",
            "tanggal_terbit": "2022-05-23",
            "url_tdpse_detail": "https://pse.komdigi.go.id/tdpse-detail/4094",
            "website": "114.119.185.13"
        },
        {
            "id": "9cb1aba1-b531-4e28-8fa6-7206bcc8f9bd",
            "nama_pse": "SMART MEDIA4U TECHNOLOGY PTE. LTD.",
            "nama_se": "CLOCKIT",
            "sektor": "Sektor Teknologi Informasi dan Komunikasi",
            "tanggal_terbit": "2022-05-23",
            "url_tdpse_detail": "https://pse.komdigi.go.id/tdpse-detail/4095",
            "website": "114.119.185.13"
        },
        {
            "id": "9cb1aba1-b747-4e23-be19-ad8815cafc3d",
            "nama_pse": "SMART MEDIA4U TECHNOLOGY PTE. LTD.",
            "nama_se": "LISTENIT",
            "sektor": "Sektor Teknologi Informasi dan Komunikasi",
            "tanggal_terbit": "2022-05-23",
            "url_tdpse_detail": "https://pse.komdigi.go.id/tdpse-detail/4096",
            "website": "114.119.185.13"
        },
        {
            "id": "9cb1abac-29e6-4bab-86de-09b40f308ad4",
            "nama_pse": "SMART MEDIA4U TECHNOLOGY PTE. LTD.",
            "nama_se": "PLAYIT",
            "sektor": "Sektor Teknologi Informasi dan Komunikasi",
            "tanggal_terbit": "2022-05-23",
            "url_tdpse_detail": "https://pse.komdigi.go.id/tdpse-detail/4098",
            "website": "114.119.185.13"
        },
        {
            "id": "9cb1aba1-b93c-461d-8eae-9d9307be7e3b",
            "nama_pse": "CYBERSHELL TECHNOLOGY LIMITED",
            "nama_se": "WWW.JOLLYMAX.COM",
            "sektor": "Sektor Teknologi Informasi dan Komunikasi",
            "tanggal_terbit": "2022-05-23",
            "url_tdpse_detail": "https://pse.komdigi.go.id/tdpse-detail/4099",
            "website": "13.228.204.118"
        },
        {
            "id": "9cb1abac-2c07-496a-8f10-bb2f633c5598",
            "nama_pse": "CYBERSHELL TECHNOLOGY LIMITED",
            "nama_se": "WWW.SHOPLAY365.COM",
            "sektor": "Sektor Teknologi Informasi dan Komunikasi",
            "tanggal_terbit": "2022-05-23",
            "url_tdpse_detail": "https://pse.komdigi.go.id/tdpse-detail/4100",
            "website": "13.228.204.118"
        },
        {
            "id": "9cb1ab95-9552-4d57-9182-ffe4258694a7",
            "nama_pse": "WEWATCH PTE. LTD.",
            "nama_se": "WEWATCH",
            "sektor": "Sektor Teknologi Informasi dan Komunikasi",
            "tanggal_terbit": "2022-05-23",
            "url_tdpse_detail": "https://pse.komdigi.go.id/tdpse-detail/4101",
            "website": "wewatch.asia"
        }
    ],
    "processingTimeMs": 3,
    "query": "",
    "totalHits": 1139,
    "hitsPerPage": 50,
    "page": 23,
    "totalPages": 23
}