{
    "hits": [
        {
            "id": "9da5291d-5744-447d-9744-7a7ff7fb24eb",
            "nama_pse": "SHANTOU ZHONGBIN HETAI IMPORT AND EXPORT TRADE CO., LTD.",
            "nama_se": "AVI ENERGI",
            "sektor": "Sektor Keuangan",
            "tanggal_terbit": "2024-12-04",
            "url_tdpse_detail": "https://pse.komdigi.go.id/tdpse-detail/21487",
            "website": "-"
        },
        {
            "id": "9da5291f-1e13-45e1-a2cf-c5e6e80eb57a",
            "nama_pse": "SHANTOU ZHONGBIN HETAI IMPORT AND EXPORT TRADE CO., LTD.",
            "nama_se": "SHANTOU MARIA INVESTMENT CO., LTD.",
            "sektor": "Sektor Keuangan",
            "tanggal_terbit": "2024-12-04",
            "url_tdpse_detail": "https://pse.komdigi.go.id/tdpse-detail/21488",
            "website": "-"
        },
        {
            "id": "9da53366-eaf4-4c50-894a-4db66f7dcbe3",
            "nama_pse": "SHANTOU ZHONGBIN HETAI IMPORT AND EXPORT TRADE CO., LTD.",
            "nama_se": "SHANTOU MARIA INVESTMENT CO., LTD.",
            "sektor": "Sektor Keuangan",
            "tanggal_terbit": "2024-12-04",
            "url_tdpse_detail": "https://pse.komdigi.go.id/tdpse-detail/21489",
            "website": "-"
        },
        {
            "id": "9da539be-4527-4e3c-993f-2764b25c4cf5",
            "nama_pse": "SHANTOU ZHONGBIN HETAI IMPORT AND EXPORT TRADE CO., LTD.",
            "nama_se": "SHANTOU MARIA INVESTMENT",
            "sektor": "Sektor Keuangan",
            "tanggal_terbit": "2024-12-04",
            "url_tdpse_detail": "https://pse.komdigi.go.id/tdpse-detail/21490",
            "website": "-"
        },
        {
            "id": "9d34b7ea-d7ee-4588-84f3-7b94586dbd5f",
            "nama_pse": "TYPINGA",
            "nama_se": "DUMMY TEMPMAIL",
            "sektor": "Sektor Teknologi Informasi dan Komunikasi",
            "tanggal_terbit": "2024-10-10",
            "url_tdpse_detail": "https://pse.komdigi.go.id/tdpse-detail/20709",
            "website": "temp-mail.org"
        },
        {
            "id": "9cd35802-754f-48ff-9160-3d5e56c00b78",
            "nama_pse": "SHANTOU JINJIA TRADING CO., LTD.",
            "nama_se": "YAYASAN TUNAS INDONESIA JAYA",
            "sektor": "Sektor Keuangan",
            "tanggal_terbit": "2024-08-17",
            "url_tdpse_detail": "https://pse.komdigi.go.id/tdpse-detail/19966",
            "website": "fk-pkbm-tangsel.org"
        },
        {
            "id": "9cd35802-7902-4fbc-9306-fd661ec30f14",
            "nama_pse": "SHANTOU JINJIA TRADING CO., LTD.",
            "nama_se": "BRI VENTURA INVESTAMA",
            "sektor": "Sektor Keuangan",
            "tanggal_terbit": "2024-08-17",
            "url_tdpse_detail": "https://pse.komdigi.go.id/tdpse-detail/19967",
            "website": "briventures.id"
        },
        {
            "id": "9cd35802-7f74-4685-ac22-0dfb1c61f088",
            "nama_pse": "SHANTOU JINJIA TRADING CO., LTD.",
            "nama_se": "BNI MODAL VENTURA",
            "sektor": "Sektor Keuangan",
            "tanggal_terbit": "2024-08-17",
            "url_tdpse_detail": "https://pse.komdigi.go.id/tdpse-detail/19968",
            "website": "bniventures.co.id"
        },
        {
            "id": "9cc9c71c-0db3-40e6-80d6-b61133c2cd62",
            "nama_pse": "SHANTOU MARIA INVESTMENT CO., LTD.",
            "nama_se": "bkmandiri.co.uk",
            "sektor": "Sektor Keuangan",
            "tanggal_terbit": "2024-08-17",
            "url_tdpse_detail": "https://pse.komdigi.go.id/tdpse-detail/19976",
            "website": "bkmandiri.co.uk"
        },
        {
            "id": "9cc9d91e-e2fa-44d0-ae07-3d09fac7e52b",
            "nama_pse": "STANDARD CHARTERED",
            "nama_se": "brihongkong.com",
            "sektor": "Sektor Keuangan",
            "tanggal_terbit": "2024-08-17",
            "url_tdpse_detail": "https://pse.komdigi.go.id/tdpse-detail/19982",
            "website": "sc.com"
        },
        {
            "id": "9cb1ac73-e0b7-4f38-840a-4edfa2c9e1fd",
            "nama_pse": "ESO FOREIGN LTD",
            "nama_se": "BUHEFBBCJKD",
            "sektor": "Sektor Transportasi",
            "tanggal_terbit": "2024-07-22",
            "url_tdpse_detail": "https://pse.komdigi.go.id/tdpse-detail/19555",
            "website": "-"
        },
        {
            "id": "9cb1ac6e-4c74-4a04-bbb2-c5a882e6cddd",
            "nama_pse": "SHANTOU MARIA INVESTMENT CO., LTD..",
            "nama_se": "AMMI HOTEL",
            "sektor": "Sektor Keuangan",
            "tanggal_terbit": "2024-04-07",
            "url_tdpse_detail": "https://pse.komdigi.go.id/tdpse-detail/18581",
            "website": "samalihotels.co.id"
        },
        {
            "id": "9cb1ac83-1306-4dae-aa16-6da41c8d6f1c",
            "nama_pse": "SHANTOU MARIA INVESTMENT CO., LTD..",
            "nama_se": "PELITA HARAPAN MUSIC SCHOOL",
            "sektor": "Sektor Keuangan",
            "tanggal_terbit": "2024-04-07",
            "url_tdpse_detail": "https://pse.komdigi.go.id/tdpse-detail/18576",
            "website": "one.uph.edu"
        },
        {
            "id": "9cb1ac83-081c-45ba-9758-c22a60de2b56",
            "nama_pse": "SHANTOU MARIA INVESTMENT CO., LTD..",
            "nama_se": "MARIAFORBIS",
            "sektor": "Sektor Keuangan",
            "tanggal_terbit": "2024-04-06",
            "url_tdpse_detail": "https://pse.komdigi.go.id/tdpse-detail/18568",
            "website": "bni-am.co.id"
        },
        {
            "id": "9cb1ac22-57d4-4659-a72d-a623f68a796e",
            "nama_pse": "SHANTOU JINJIA TRADING CO., LTD.",
            "nama_se": "SHANTOU EDUCATION FUND",
            "sektor": "Sektor Keuangan",
            "tanggal_terbit": "2023-05-22",
            "url_tdpse_detail": "https://pse.komdigi.go.id/tdpse-detail/14782",
            "website": "dartington.org"
        },
        {
            "id": "9cb1ac22-5aa2-4cd8-9049-b1a8b63d14e4",
            "nama_pse": "SHANTOU JINJIA TRADING CO., LTD.",
            "nama_se": "EDUCATION ENDOWMENT FUND",
            "sektor": "Sektor Keuangan",
            "tanggal_terbit": "2023-05-22",
            "url_tdpse_detail": "https://pse.komdigi.go.id/tdpse-detail/14783",
            "website": "qq.com"
        },
        {
            "id": "9cb1ac44-273a-4243-afb5-a93dee73a786",
            "nama_pse": "SHANTOU JINJIA TRADING CO., LTD.",
            "nama_se": "SHANTOU EDUCATION FUND",
            "sektor": "Sektor Keuangan",
            "tanggal_terbit": "2023-05-22",
            "url_tdpse_detail": "https://pse.komdigi.go.id/tdpse-detail/14785",
            "website": "st-andrews.ac.uk"
        },
        {
            "id": "9cb1ac22-5dd2-4b90-b5f5-93a59d234f8a",
            "nama_pse": "SHANTOU JINJIA TRADING CO., LTD.",
            "nama_se": "SHANTOU EDUCATION FUND FOR DISABLE PERSON",
            "sektor": "Sektor Keuangan",
            "tanggal_terbit": "2023-05-22",
            "url_tdpse_detail": "https://pse.komdigi.go.id/tdpse-detail/14786",
            "website": "snowdowntrust.org"
        },
        {
            "id": "9cb1ac34-99ee-41e2-8f33-ad5273b2f0c5",
            "nama_pse": "SHANTOU MARIA INVESTMENT CO., LTD.",
            "nama_se": "SHANTOU EDUCATION FUND",
            "sektor": "Sektor Keuangan",
            "tanggal_terbit": "2023-05-22",
            "url_tdpse_detail": "https://pse.komdigi.go.id/tdpse-detail/14788",
            "website": "qq.com"
        },
        {
            "id": "9cb1ac34-9d47-44e1-9d71-b0e4b4e91826",
            "nama_pse": "PT DIRGANTARA AVIATION ENGINEERING",
            "nama_se": "THE ROYAL BEACH SEMINYAK",
            "sektor": "Sektor Perdagangan",
            "tanggal_terbit": "2023-05-22",
            "url_tdpse_detail": "https://pse.komdigi.go.id/tdpse-detail/14789",
            "website": "theroyalbeachseminyak.com"
        },
        {
            "id": "9cb1ac34-9ff4-44c4-96e0-b2df488c35f3",
            "nama_pse": "PT DIRGANTARA AVIATION ENGINEERING",
            "nama_se": "BSI MASLAHAT",
            "sektor": "Sektor Keuangan",
            "tanggal_terbit": "2023-05-22",
            "url_tdpse_detail": "https://pse.komdigi.go.id/tdpse-detail/14790",
            "website": "bsimaslahat.org"
        },
        {
            "id": "9cb1ac34-a382-43fa-b8c5-9ea9ddb2c9aa",
            "nama_pse": "PT DIRGANTARA AVIATION ENGINEERING",
            "nama_se": "PANORAMA TOURS",
            "sektor": "Sektor Perdagangan",
            "tanggal_terbit": "2023-05-22",
            "url_tdpse_detail": "https://pse.komdigi.go.id/tdpse-detail/14791",
            "website": "panorama-jtb.com"
        },
        {
            "id": "9cb1ac34-a7a3-4179-8d5a-1b69fd50399a",
            "nama_pse": "PT DIRGANTARA AVIATION ENGINEERING",
            "nama_se": "SHANTOU EDUCATION FUND",
            "sektor": "Sektor Keuangan",
            "tanggal_terbit": "2023-05-22",
            "url_tdpse_detail": "https://pse.komdigi.go.id/tdpse-detail/14793",
            "website": "qq.com"
        },
        {
            "id": "9cb1ac34-abe5-4426-b155-982661245878",
            "nama_pse": "PT DIRGANTARA AVIATION ENGINEERING",
            "nama_se": "MARIAKALAIJ BLOCKCHAIN SYSTEM",
            "sektor": "Sektor Keuangan",
            "tanggal_terbit": "2023-05-22",
            "url_tdpse_detail": "https://pse.komdigi.go.id/tdpse-detail/14794",
            "website": "qq.com"
        },
        {
            "id": "9cb1ac44-2c89-47f5-85f8-f1c9ad4cdfcb",
            "nama_pse": "PT DIRGANTARA AVIATION ENGINEERING",
            "nama_se": "MPY GLOBAL (UK) LTD./ BRAWIJAYA CAPITAL INVESTAMA / RUMICORP (PTY) LIMITED",
            "sektor": "Sektor Perdagangan",
            "tanggal_terbit": "2023-05-22",
            "url_tdpse_detail": "https://pse.komdigi.go.id/tdpse-detail/14795",
            "website": "btinternet.com"
        },
        {
            "id": "9cb1ac34-b20d-4977-b732-d45d6d3e38de",
            "nama_pse": "SHANTOU JINJIA TRADING CO., LTD.",
            "nama_se": "MARIAKALAIJ BLOCKCHAIN SYSTEM",
            "sektor": "Sektor Keuangan",
            "tanggal_terbit": "2023-05-22",
            "url_tdpse_detail": "https://pse.komdigi.go.id/tdpse-detail/14798",
            "website": "qq.com"
        },
        {
            "id": "9cb1ac22-64ed-434e-a0e6-9ed472959738",
            "nama_pse": "SHANTOU JINJIA TRADING CO., LTD.",
            "nama_se": "SHANTOU EDUCATION FUND",
            "sektor": "Sektor Keuangan",
            "tanggal_terbit": "2023-05-22",
            "url_tdpse_detail": "https://pse.komdigi.go.id/tdpse-detail/14799",
            "website": "qq.com"
        },
        {
            "id": "9cb1ac44-551f-426e-8b1b-3fa9c3718502",
            "nama_pse": "MPY GLOBAL (UK) LTD.",
            "nama_se": "MPY GLOBAL EDUCATION FUND",
            "sektor": "Sektor Keuangan",
            "tanggal_terbit": "2023-05-22",
            "url_tdpse_detail": "https://pse.komdigi.go.id/tdpse-detail/14815",
            "website": "163.com"
        },
        {
            "id": "9cb1ac44-1d80-437f-a250-d82b392c253b",
            "nama_pse": "SHANTOU JINJIA TRADING CO., LTD.",
            "nama_se": "PANORAMA TOURS",
            "sektor": "Sektor Perdagangan",
            "tanggal_terbit": "2023-05-21",
            "url_tdpse_detail": "https://pse.komdigi.go.id/tdpse-detail/14776",
            "website": "panorama-jtb.com"
        },
        {
            "id": "9cb1ac44-2065-48e9-be7c-01dff64f4121",
            "nama_pse": "SHANTOU JINJIA TRADING CO., LTD.",
            "nama_se": "MPY GLOBAL (UK) LTD.",
            "sektor": "Sektor Keuangan",
            "tanggal_terbit": "2023-05-21",
            "url_tdpse_detail": "https://pse.komdigi.go.id/tdpse-detail/14778",
            "website": "btinternet.com"
        },
        {
            "id": "9cb1ac22-4642-4521-9395-e95ac1f1b336",
            "nama_pse": "HONG DING PROPERTY (H.K.) LIMITED",
            "nama_se": "MARIAKALAIJ BLOCKCHAIN SYSTEM",
            "sektor": "Sektor Keuangan",
            "tanggal_terbit": "2023-05-20",
            "url_tdpse_detail": "https://pse.komdigi.go.id/tdpse-detail/14770",
            "website": "qq.com"
        },
        {
            "id": "9cb1ac22-494b-4a7f-a4a5-db03eacb8ec2",
            "nama_pse": "MPY GLOBAL SDN BHD",
            "nama_se": "MARIAKALAIJ BLOCKCHAIN SYSTEM",
            "sektor": "Sektor Keuangan",
            "tanggal_terbit": "2023-05-20",
            "url_tdpse_detail": "https://pse.komdigi.go.id/tdpse-detail/14771",
            "website": "qq.com"
        },
        {
            "id": "9cb1ac44-1ac2-4543-bdc2-030d6400b8cc",
            "nama_pse": "DIRGANTARA AVIATION ENGINEERING",
            "nama_se": "MARIAKALAIJ BLOCKCHAIN SYSTEM",
            "sektor": "Sektor Keuangan",
            "tanggal_terbit": "2023-05-20",
            "url_tdpse_detail": "https://pse.komdigi.go.id/tdpse-detail/14772",
            "website": "qq.com"
        },
        {
            "id": "9cb1ac34-1617-426a-868b-a6e514758734",
            "nama_pse": "BNI SECURITIES PTE. LTD.",
            "nama_se": "BIONS",
            "sektor": "Sektor Keuangan",
            "tanggal_terbit": "2023-05-16",
            "url_tdpse_detail": "https://pse.komdigi.go.id/tdpse-detail/14714",
            "website": "bnisecurities.com.sg"
        },
        {
            "id": "9cb1ac21-ecfa-4b45-bd3d-9ab67d3bcf00",
            "nama_pse": "SBIホールディングス株式会社",
            "nama_se": "BRIGHTS",
            "sektor": "Sektor Keuangan",
            "tanggal_terbit": "2023-05-16",
            "url_tdpse_detail": "https://pse.komdigi.go.id/tdpse-detail/14716",
            "website": "danareksa.co.id"
        },
        {
            "id": "9cb1ac34-2407-42bb-8771-04e2484dbb2c",
            "nama_pse": "P.T. BANK RAKYAT INDONESIA (PERSERO) TBK. NEW YORK AGENCY",
            "nama_se": "BRI REMMITANCE",
            "sektor": "Sektor Keuangan",
            "tanggal_terbit": "2023-05-16",
            "url_tdpse_detail": "https://pse.komdigi.go.id/tdpse-detail/14717",
            "website": "qq.com"
        },
        {
            "id": "9cb1ac21-c90d-46ce-9454-fa06c1399f04",
            "nama_pse": "BANK RAKYAT INDONESIA",
            "nama_se": "MICEWORK",
            "sektor": "Sektor Keuangan",
            "tanggal_terbit": "2023-05-15",
            "url_tdpse_detail": "https://pse.komdigi.go.id/tdpse-detail/14687",
            "website": "margopp.co.id"
        },
        {
            "id": "9cb1ac33-e666-474e-bb95-eb5e76b4323d",
            "nama_pse": "MPY GLOBAL (UK) LTD.",
            "nama_se": "MICEWORK",
            "sektor": "Sektor Keuangan",
            "tanggal_terbit": "2023-05-15",
            "url_tdpse_detail": "https://pse.komdigi.go.id/tdpse-detail/14688",
            "website": "margopp.co.id"
        },
        {
            "id": "9cb1ac33-eaae-4437-aefb-29f86ddc982f",
            "nama_pse": "SHANTOU MARIA INVESTMENT CO., LTD.",
            "nama_se": "MARIA KALAIJ BLOCKCHAIN TECHNOLOGY SYSTEM",
            "sektor": "Sektor Keuangan",
            "tanggal_terbit": "2023-05-15",
            "url_tdpse_detail": "https://pse.komdigi.go.id/tdpse-detail/14690",
            "website": "shantoumariainvestment.com"
        },
        {
            "id": "9cb1ac21-ccab-4474-b0ce-962e3f606c6f",
            "nama_pse": "MPY GLOBAL (UK) LTD.",
            "nama_se": "MARIAKALAIJ BLOCKCHAIN SYSTEM",
            "sektor": "Sektor Keuangan",
            "tanggal_terbit": "2023-05-15",
            "url_tdpse_detail": "https://pse.komdigi.go.id/tdpse-detail/14691",
            "website": "mariakalaij.qq.com"
        },
        {
            "id": "9cb1ac33-ee5d-4377-8519-d9e105c58122",
            "nama_pse": "DIRGANTARA AVIATION ENGINEERING",
            "nama_se": "MARIAKALAIJ BLOCKCHAIN SYSTEM",
            "sektor": "Sektor Keuangan",
            "tanggal_terbit": "2023-05-15",
            "url_tdpse_detail": "https://pse.komdigi.go.id/tdpse-detail/14693",
            "website": "mariakalaij.qq.com"
        },
        {
            "id": "9cb1ac33-f130-4b39-82ed-32740ad9b64d",
            "nama_pse": "MUFG Bank, Ltd. Cabang Jakarta",
            "nama_se": "TEST",
            "sektor": "Sektor Keuangan",
            "tanggal_terbit": "2023-05-15",
            "url_tdpse_detail": "https://pse.komdigi.go.id/tdpse-detail/14700",
            "website": "-"
        },
        {
            "id": "9cb1ac34-0c76-4e5e-82ee-01cabae1c112",
            "nama_pse": "BANK RAKYAT INDONESIA",
            "nama_se": "MARIAKALAIJ BLOCKCHAIN SYSTEM",
            "sektor": "Sektor Keuangan",
            "tanggal_terbit": "2023-05-15",
            "url_tdpse_detail": "https://pse.komdigi.go.id/tdpse-detail/14710",
            "website": "qq.com"
        },
        {
            "id": "9cb1ac21-e5d4-4354-be95-f5279725083a",
            "nama_pse": "SHANTOU MARIA INVESTMENT CO., LTD.",
            "nama_se": "MARIAKALAIJ BLOCKCHAIN SYSTMEN",
            "sektor": "Sektor Keuangan",
            "tanggal_terbit": "2023-05-15",
            "url_tdpse_detail": "https://pse.komdigi.go.id/tdpse-detail/14711",
            "website": "qq.com"
        },
        {
            "id": "9cb1ac43-b1db-4281-b59c-531e7ed07797",
            "nama_pse": "MPY GLOBAL (UK) LTD.",
            "nama_se": "MARIAKALAIJ BLOCKCHAIN SYSTEM",
            "sektor": "Sektor Keuangan",
            "tanggal_terbit": "2023-05-15",
            "url_tdpse_detail": "https://pse.komdigi.go.id/tdpse-detail/14692",
            "website": "mariakalaij.qq.com"
        },
        {
            "id": "9cb1ac43-8f73-484b-9e48-3aca26f2f7fe",
            "nama_pse": "SHANTOU JINJIA TRADING CO., LTD.",
            "nama_se": "OWENPETRO",
            "sektor": "Sektor Keuangan",
            "tanggal_terbit": "2023-05-14",
            "url_tdpse_detail": "https://pse.komdigi.go.id/tdpse-detail/14658",
            "website": "parking365.tistory.com"
        },
        {
            "id": "9cb1ac33-aac3-4881-8d0d-249360c4d7f1",
            "nama_pse": "SHANTOU JINJIA TRADING CO., LTD.",
            "nama_se": "PLN NUSANTARA POWER (SID. OWEN PETRO BITUMEN)",
            "sektor": "Sektor Keuangan",
            "tanggal_terbit": "2023-05-14",
            "url_tdpse_detail": "https://pse.komdigi.go.id/tdpse-detail/14659",
            "website": "plnnusantarapower.co.id"
        },
        {
            "id": "9cb1ac33-b3ca-4c2d-be1a-c29352c5225a",
            "nama_pse": "SHANTOU JINJIA TRADING CO., LTD.",
            "nama_se": "OWEN-TIGERBITUMEN",
            "sektor": "Sektor Keuangan",
            "tanggal_terbit": "2023-05-14",
            "url_tdpse_detail": "https://pse.komdigi.go.id/tdpse-detail/14660",
            "website": "aljabalglobal.com"
        },
        {
            "id": "9cb1ac43-922d-49c3-80a5-a9ea848b6f33",
            "nama_pse": "SHANTOU JINJIA TRADING CO., LTD.",
            "nama_se": "OWENSTRATEGIKMEDIA",
            "sektor": "Sektor Keuangan",
            "tanggal_terbit": "2023-05-14",
            "url_tdpse_detail": "https://pse.komdigi.go.id/tdpse-detail/14661",
            "website": "tigerbitumen.com"
        },
        {
            "id": "9cb1ac21-97e2-4de7-8888-b4de7c7ac83f",
            "nama_pse": "SHANTOU MARIA INVESTMENT CO., LTD.",
            "nama_se": "BNI PONTIANAK (A/C. PT INDAH AGUNG MANDIRI)",
            "sektor": "Sektor Keuangan",
            "tanggal_terbit": "2023-05-14",
            "url_tdpse_detail": "https://pse.komdigi.go.id/tdpse-detail/14662",
            "website": "bni-am.co.id"
        }
    ],
    "processingTimeMs": 85,
    "query": "",
    "totalHits": 352,
    "hitsPerPage": 50,
    "page": 1,
    "totalPages": 8
}