{
    "hits": [
        {
            "id": "9cb1ac03-0d4c-46f9-8654-21b41b8b40aa",
            "nama_pse": "SHANTOU JINJIA TRADING CO., LTD.",
            "nama_se": "MARGO PUTRA PRATAMA",
            "sektor": "Sektor Perdagangan",
            "tanggal_terbit": "2022-10-07",
            "url_tdpse_detail": "https://pse.komdigi.go.id/tdpse-detail/11607",
            "website": "margopp.co.id"
        },
        {
            "id": "9cb1ac11-c615-4833-a8ba-79d22215b61b",
            "nama_pse": "BCA FINANCE LIMITED",
            "nama_se": "BCA FINANCE LIMITED",
            "sektor": "Sektor Keuangan",
            "tanggal_terbit": "2022-10-07",
            "url_tdpse_detail": "https://pse.komdigi.go.id/tdpse-detail/11610",
            "website": "bcafinance.co.id"
        },
        {
            "id": "9cb1ac11-c9ab-43d0-a421-7cd03f799286",
            "nama_pse": "BCA FINANCE LIMITED",
            "nama_se": "BANK CENTRAL ASIA",
            "sektor": "Sektor Keuangan",
            "tanggal_terbit": "2022-10-07",
            "url_tdpse_detail": "https://pse.komdigi.go.id/tdpse-detail/11611",
            "website": "-"
        },
        {
            "id": "9cb1abde-c722-4e0d-b7d4-1fd5db094f48",
            "nama_pse": "SHANTOU JINJIA TRADING CO., LTD.",
            "nama_se": "SHANTOU JINJIA TRADING",
            "sektor": "Sektor Perdagangan",
            "tanggal_terbit": "2022-10-07",
            "url_tdpse_detail": "https://pse.komdigi.go.id/tdpse-detail/11604",
            "website": "-"
        },
        {
            "id": "9cb1ac11-8d29-4f60-9214-efa89589840c",
            "nama_pse": "SHANTOU JINJIA TRADING CO., LTD.",
            "nama_se": "BRI DANAREKSA SEKURITAS",
            "sektor": "Sektor Keuangan",
            "tanggal_terbit": "2022-10-06",
            "url_tdpse_detail": "https://pse.komdigi.go.id/tdpse-detail/11586",
            "website": "bridanareksasekuritas"
        },
        {
            "id": "9cb1ac11-59d8-41b1-91ba-e337586dc49a",
            "nama_pse": "BRAWIJAYA CAPITAL INVESTAMA",
            "nama_se": "QINGDAO SHENGYU PETROCHEMICAL CO., LTD.",
            "sektor": "Sektor Energi dan Sumber Daya Mineral",
            "tanggal_terbit": "2022-10-05",
            "url_tdpse_detail": "https://pse.komdigi.go.id/tdpse-detail/11505",
            "website": "qq.com"
        },
        {
            "id": "9cb1abde-1d0f-4e3d-b6a0-2aabd157e238",
            "nama_pse": "BRAWIJAYA CAPITAL INVESTAMA",
            "nama_se": "CHIFENG MENGTANG CONSTRUCTION LABOR SERVICE CO., LTD.",
            "sektor": "Sektor Keuangan",
            "tanggal_terbit": "2022-10-05",
            "url_tdpse_detail": "https://pse.komdigi.go.id/tdpse-detail/11506",
            "website": "qq.com"
        },
        {
            "id": "9cb1abde-2166-4ac3-b944-7b212ba21850",
            "nama_pse": "BRAWIJAYA CAPITAL INVESTAMA",
            "nama_se": "SHANTOU HAIYI INVESTMENT (GROUP) CO., LTD.",
            "sektor": "Sektor Keuangan",
            "tanggal_terbit": "2022-10-05",
            "url_tdpse_detail": "https://pse.komdigi.go.id/tdpse-detail/11507",
            "website": "qq.com"
        },
        {
            "id": "9cb1ac02-8219-417e-8b05-6504d4f7be77",
            "nama_pse": "BRAWIJAYA CAPITAL INVESTAMA",
            "nama_se": "MARIA TIURMA (ICBC WEALTH MANAGEMENT CO., LTD. - THE BANK OF NEW YORK DEPOSITORY (NOMINEES) LIMITED)",
            "sektor": "Sektor Keuangan",
            "tanggal_terbit": "2022-10-05",
            "url_tdpse_detail": "https://pse.komdigi.go.id/tdpse-detail/11508",
            "website": "owenpetrobitumen.com"
        },
        {
            "id": "9cb1ac02-85da-4f1f-b561-71cecd7246c1",
            "nama_pse": "BRAWIJAYA CAPITAL INVESTAMA",
            "nama_se": "QINGDAO ZHONGXINYU INVESTMENT CO., LTD.",
            "sektor": "Sektor Keuangan",
            "tanggal_terbit": "2022-10-05",
            "url_tdpse_detail": "https://pse.komdigi.go.id/tdpse-detail/11509",
            "website": "qq.com"
        },
        {
            "id": "9cb1ac11-5d34-4249-8d52-cb7405f2c786",
            "nama_pse": "BRAWIJAYA CAPITAL INVESTAMA",
            "nama_se": "SHANTOU HAIYI INVESTMENT (GROUP) CO., LTD.",
            "sektor": "Sektor Keuangan",
            "tanggal_terbit": "2022-10-05",
            "url_tdpse_detail": "https://pse.komdigi.go.id/tdpse-detail/11510",
            "website": "qq.com"
        },
        {
            "id": "9cb1ac02-89f8-4b51-bd57-49ae4e432e0d",
            "nama_pse": "BRAWIJAYA CAPITAL INVESTAMA",
            "nama_se": "ZHUHAI QIXIA ENERGY TECHNOLOGY CO., LTD.",
            "sektor": "Sektor Keuangan",
            "tanggal_terbit": "2022-10-05",
            "url_tdpse_detail": "https://pse.komdigi.go.id/tdpse-detail/11511",
            "website": "qq.com"
        },
        {
            "id": "9cb1ac02-923e-4da7-a4e8-87995cece125",
            "nama_pse": "SHANTOU MARIA INVESTMENT CO.., LTD.",
            "nama_se": "440500000138099",
            "sektor": "Sektor Perdagangan",
            "tanggal_terbit": "2022-10-05",
            "url_tdpse_detail": "https://pse.komdigi.go.id/tdpse-detail/11513",
            "website": "163.com"
        },
        {
            "id": "9cb1ac02-95a8-4da1-8866-55dc98aad437",
            "nama_pse": "SHANTOU MARIA INVESTMENT CO.., LTD.",
            "nama_se": "440500000138099",
            "sektor": "Sektor Keuangan",
            "tanggal_terbit": "2022-10-05",
            "url_tdpse_detail": "https://pse.komdigi.go.id/tdpse-detail/11514",
            "website": "shantou.gov.cn"
        },
        {
            "id": "9cb1ac11-603f-4a9b-84d3-51f929dc44ad",
            "nama_pse": "SHANTOU MARIA INVESTMENT CO.., LTD.",
            "nama_se": "440500000138099",
            "sektor": "Sektor Keuangan",
            "tanggal_terbit": "2022-10-05",
            "url_tdpse_detail": "https://pse.komdigi.go.id/tdpse-detail/11515",
            "website": "english.shantou.gov.cn"
        },
        {
            "id": "9cb1abde-2e45-4630-9c88-11005180498a",
            "nama_pse": "SHANTOU MARIA INVESTMENT CO.., LTD.",
            "nama_se": "SHANTOU JINJIA TRADING CO., LTD.",
            "sektor": "Sektor Keuangan",
            "tanggal_terbit": "2022-10-05",
            "url_tdpse_detail": "https://pse.komdigi.go.id/tdpse-detail/11516",
            "website": "owenpetrobitumen.com"
        },
        {
            "id": "9cb1ac02-98b4-4029-8bb8-c9c8a73804c7",
            "nama_pse": "SHANTOU MARIA INVESTMENT CO.., LTD.",
            "nama_se": "440500000138099",
            "sektor": "Sektor Keuangan",
            "tanggal_terbit": "2022-10-05",
            "url_tdpse_detail": "https://pse.komdigi.go.id/tdpse-detail/11517",
            "website": "english.shantou.gov.cn"
        },
        {
            "id": "9cb1ac11-6346-4854-ab0d-1f331718558a",
            "nama_pse": "SHANTOU MARIA INVESTMENT CO.., LTD.",
            "nama_se": "440500000138099",
            "sektor": "Sektor Keuangan",
            "tanggal_terbit": "2022-10-05",
            "url_tdpse_detail": "https://pse.komdigi.go.id/tdpse-detail/11518",
            "website": "english.shantou.gov.cn"
        },
        {
            "id": "9cb1ac02-9bd3-468a-b9ee-9d54bd84ed40",
            "nama_pse": "SHANTOU MARIA INVESTMENT CO.., LTD.",
            "nama_se": "440500000138099",
            "sektor": "Sektor Keuangan",
            "tanggal_terbit": "2022-10-05",
            "url_tdpse_detail": "https://pse.komdigi.go.id/tdpse-detail/11519",
            "website": "english.shantou.gov.cn"
        },
        {
            "id": "9cb1ac02-a111-400a-8a6b-982859cc05fa",
            "nama_pse": "SHANTOU MARIA INVESTMENT CO.., LTD.",
            "nama_se": "440500000138099",
            "sektor": "Sektor Keuangan",
            "tanggal_terbit": "2022-10-05",
            "url_tdpse_detail": "https://pse.komdigi.go.id/tdpse-detail/11520",
            "website": "english.shantou.gov.cn"
        },
        {
            "id": "9cb1abde-3999-44b0-b13a-0c992776c3eb",
            "nama_pse": "SHANTOU MARIA INVESTMENT CO.., LTD.",
            "nama_se": "440500000138099",
            "sektor": "Sektor Keuangan",
            "tanggal_terbit": "2022-10-05",
            "url_tdpse_detail": "https://pse.komdigi.go.id/tdpse-detail/11521",
            "website": "english.shantou.gov.cn"
        },
        {
            "id": "9cb1abde-4047-4a17-bece-26e866af7cd9",
            "nama_pse": "BRAWIJAYA CAPITAL INVESTAMA (d/h RUMICORP (PTY) LIMITED LONDON)",
            "nama_se": "MARIA TIURMA KALAIJ / BNI SECURITIES",
            "sektor": "Sektor Keuangan",
            "tanggal_terbit": "2022-10-05",
            "url_tdpse_detail": "https://pse.komdigi.go.id/tdpse-detail/11522",
            "website": "bnisecurities.com.sg"
        },
        {
            "id": "9cb1abde-45b6-409a-9a99-67196257ea98",
            "nama_pse": "BRAWIJAYA CAPITAL INVESTAMA (d/h RUMICORP (PTY) LIMITED LONDON)",
            "nama_se": "SHANTOU INVESTMENTS LIMITED",
            "sektor": "Sektor Keuangan",
            "tanggal_terbit": "2022-10-05",
            "url_tdpse_detail": "https://pse.komdigi.go.id/tdpse-detail/11523",
            "website": "owenstrategikmedia.com"
        },
        {
            "id": "9cb1ac02-aaaf-4394-91f7-b7d633823714",
            "nama_pse": "BRAWIJAYA CAPITAL INVESTAMA (d/h RUMICORP (PTY) LIMITED LONDON)",
            "nama_se": "MARIA TIURMA KALAIJ / BANK RAKYAT INDONESIA",
            "sektor": "Sektor Keuangan",
            "tanggal_terbit": "2022-10-05",
            "url_tdpse_detail": "https://pse.komdigi.go.id/tdpse-detail/11524",
            "website": "lelangagunan.bni.co.id"
        },
        {
            "id": "9cb1abde-4ac4-42ee-ba5c-f9929062d70c",
            "nama_pse": "BRAWIJAYA CAPITAL INVESTAMA (d/h RUMICORP (PTY) LIMITED LONDON)",
            "nama_se": "MARIA TIURMA KALAIJ",
            "sektor": "Sektor Keuangan",
            "tanggal_terbit": "2022-10-05",
            "url_tdpse_detail": "https://pse.komdigi.go.id/tdpse-detail/11525",
            "website": "aurasakti-engineering.com"
        },
        {
            "id": "9cb1abde-537b-4261-bc3a-54fa5ccc838d",
            "nama_pse": "BRAWIJAYA CAPITAL INVESTAMA (d/h RUMICORP (PTY) LIMITED LONDON)",
            "nama_se": "MARIA TIURMA KALAIJ",
            "sektor": "Sektor Keuangan",
            "tanggal_terbit": "2022-10-05",
            "url_tdpse_detail": "https://pse.komdigi.go.id/tdpse-detail/11526",
            "website": "bnisyariah.co.id"
        },
        {
            "id": "9cb1ac11-6635-4ae5-a8c6-bfe2d933fa53",
            "nama_pse": "HONG DING PROPERTY (H.K.) LIMITED",
            "nama_se": "GUANGDONG HUAXING BANK",
            "sektor": "Sektor Keuangan",
            "tanggal_terbit": "2022-10-05",
            "url_tdpse_detail": "https://pse.komdigi.go.id/tdpse-detail/11527",
            "website": "ghbank.com.cn"
        },
        {
            "id": "9cb1ac11-690f-4f75-91a1-6cc1625a221c",
            "nama_pse": "HONG DING PROPERTY (H.K.) LIMITED",
            "nama_se": "MARIA TIURMA",
            "sektor": "Sektor Keuangan",
            "tanggal_terbit": "2022-10-05",
            "url_tdpse_detail": "https://pse.komdigi.go.id/tdpse-detail/11528",
            "website": "hsbc.com.cn"
        },
        {
            "id": "9cb1abde-56e5-4087-a043-bf562329afc7",
            "nama_pse": "HONG DING PROPERTY (H.K.) LIMITED",
            "nama_se": "MARIA TIURMA",
            "sektor": "Sektor Keuangan",
            "tanggal_terbit": "2022-10-05",
            "url_tdpse_detail": "https://pse.komdigi.go.id/tdpse-detail/11529",
            "website": "shantou.gov.cn"
        },
        {
            "id": "9cb1abde-5ae1-4fa1-add7-6b45df1a909a",
            "nama_pse": "HONG DING PROPERTY (H.K.) LIMITED",
            "nama_se": "MARIA TIURMA",
            "sektor": "Sektor Keuangan",
            "tanggal_terbit": "2022-10-05",
            "url_tdpse_detail": "https://pse.komdigi.go.id/tdpse-detail/11530",
            "website": "icbc.co.id"
        },
        {
            "id": "9cb1ac02-ae68-4a1c-b837-a85b5708ec8d",
            "nama_pse": "DEVA TRADE SERVICES PTE. LTD. (d/h Pedro Pte. Ltd.)",
            "nama_se": "DEVA TRADE SERVICES PTE. LTD. (D/H PEDRO PTE. LTD.)",
            "sektor": "Sektor Keuangan",
            "tanggal_terbit": "2022-10-05",
            "url_tdpse_detail": "https://pse.komdigi.go.id/tdpse-detail/11531",
            "website": "aurasakti-engineering.com"
        },
        {
            "id": "9cb1ac02-49ca-41ee-a50e-3e58bb99d9c6",
            "nama_pse": "SHANTOU JINJIA TRADING CO., LTD.",
            "nama_se": "SHANTOU JINJIA TRADE CO LTD",
            "sektor": "Sektor Keuangan",
            "tanggal_terbit": "2022-09-30",
            "url_tdpse_detail": "https://pse.komdigi.go.id/tdpse-detail/11439",
            "website": "owenpetrobitumen.com"
        },
        {
            "id": "9cb1abdd-99d9-40f8-b5cf-678b0db55180",
            "nama_pse": "KENCANA PUTRA KENDARI",
            "nama_se": "BANK MANDIRI SHANGHAI",
            "sektor": "Sektor Keuangan",
            "tanggal_terbit": "2022-09-30",
            "url_tdpse_detail": "https://pse.komdigi.go.id/tdpse-detail/11442",
            "website": "bankmandirsh.com"
        },
        {
            "id": "9cb1ac11-0413-4ee0-96e2-91cbcf193435",
            "nama_pse": "KENCANA PUTRA KENDARI",
            "nama_se": "BANK MANDIRI (PERSERO) TBK / ADR NEW YORK",
            "sektor": "Sektor Keuangan",
            "tanggal_terbit": "2022-09-30",
            "url_tdpse_detail": "https://pse.komdigi.go.id/tdpse-detail/11443",
            "website": "shantoumariainvestment.com"
        },
        {
            "id": "9cb1ac11-0730-4632-b55c-62ea437a0b76",
            "nama_pse": "KENCANA PUTRA KENDARI",
            "nama_se": "BANK MANDIRI (EUROPE) LTD",
            "sektor": "Sektor Keuangan",
            "tanggal_terbit": "2022-09-30",
            "url_tdpse_detail": "https://pse.komdigi.go.id/tdpse-detail/11444",
            "website": "dkfinanceltd.co.uk"
        },
        {
            "id": "9cb1abdd-a0c7-494c-ba0e-bace3be0eb29",
            "nama_pse": "KENCANA PUTRA KENDARI",
            "nama_se": "OWENPETROBITUMEN.COM",
            "sektor": "Sektor Keuangan",
            "tanggal_terbit": "2022-09-30",
            "url_tdpse_detail": "https://pse.komdigi.go.id/tdpse-detail/11445",
            "website": "owenpetrobitumen.com"
        },
        {
            "id": "9cb1ac11-0a25-4504-9591-71e46caeb776",
            "nama_pse": "KENCANA PUTRA KENDARI",
            "nama_se": "BANK MANDIRI (PERSERO) TBK, HONG KONG BRANCH",
            "sektor": "Sektor Keuangan",
            "tanggal_terbit": "2022-09-30",
            "url_tdpse_detail": "https://pse.komdigi.go.id/tdpse-detail/11446",
            "website": "bankmandirihk.com"
        },
        {
            "id": "9cb1abdd-a52e-4011-82b2-201c65e3c109",
            "nama_pse": "KENCANA PUTRA KENDARI",
            "nama_se": "SHANTOUMARIAINVESTMENT.COM",
            "sektor": "Sektor Keuangan",
            "tanggal_terbit": "2022-09-30",
            "url_tdpse_detail": "https://pse.komdigi.go.id/tdpse-detail/11447",
            "website": "shantoumariainvestment.com"
        },
        {
            "id": "9cb1ac02-508a-41e6-b056-61343a74f5b6",
            "nama_pse": "KENCANA PUTRA KENDARI",
            "nama_se": "PT BANK MANDIRI (PERSERO) TBK / ADR",
            "sektor": "Sektor Keuangan",
            "tanggal_terbit": "2022-09-30",
            "url_tdpse_detail": "https://pse.komdigi.go.id/tdpse-detail/11448",
            "website": "shantoumariainvestment.com"
        },
        {
            "id": "9cb1ac02-5363-4803-9840-caf0908b1ca8",
            "nama_pse": "KENCANA PUTRA KENDARI",
            "nama_se": "PT BANK MANDIRI (PERSERO) TBK / ADR",
            "sektor": "Sektor Keuangan",
            "tanggal_terbit": "2022-09-30",
            "url_tdpse_detail": "https://pse.komdigi.go.id/tdpse-detail/11449",
            "website": "shantoumariainvestment.com"
        },
        {
            "id": "9cb1ac11-0f50-410e-8894-896145187177",
            "nama_pse": "BANK RAKYAT INDONESIA",
            "nama_se": "BANK RAKYAT INDONESIA",
            "sektor": "Sektor Keuangan",
            "tanggal_terbit": "2022-09-30",
            "url_tdpse_detail": "https://pse.komdigi.go.id/tdpse-detail/11450",
            "website": "-"
        },
        {
            "id": "9cb1abdd-9022-4da2-a4e6-88575082c2b0",
            "nama_pse": "SHANTOU JINJIA TRADING CO., LTD.",
            "nama_se": "91440500055332846K",
            "sektor": "Sektor Keuangan",
            "tanggal_terbit": "2022-09-30",
            "url_tdpse_detail": "https://pse.komdigi.go.id/tdpse-detail/11434",
            "website": "owenstrategikmedia.com"
        },
        {
            "id": "9cb1ac10-fd38-4662-9c27-bee1e8919e76",
            "nama_pse": "SHANTOU JINJIA TRADING CO., LTD.",
            "nama_se": "91440500055332846K",
            "sektor": "Sektor Keuangan",
            "tanggal_terbit": "2022-09-30",
            "url_tdpse_detail": "https://pse.komdigi.go.id/tdpse-detail/11435",
            "website": "owenstrategikmedia.com"
        },
        {
            "id": "9cb1ac02-420a-49c3-8c70-a42354720ca6",
            "nama_pse": "SHANTOU JINJIA TRADING CO., LTD.",
            "nama_se": "MARIA TIURMA",
            "sektor": "Sektor Keuangan",
            "tanggal_terbit": "2022-09-30",
            "url_tdpse_detail": "https://pse.komdigi.go.id/tdpse-detail/11436",
            "website": "owenstrategikmedia.com"
        },
        {
            "id": "9cb1ac02-45c2-4826-bc94-1e7364f3a968",
            "nama_pse": "SHANTOU JINJIA TRADING CO., LTD.",
            "nama_se": "MARIA TIURMA",
            "sektor": "Sektor Keuangan",
            "tanggal_terbit": "2022-09-30",
            "url_tdpse_detail": "https://pse.komdigi.go.id/tdpse-detail/11437",
            "website": "owenstrategikmedia.com"
        },
        {
            "id": "9cb1abdd-94e4-443a-8b1e-4de3c8b3660e",
            "nama_pse": "SHANTOU JINJIA TRADING CO., LTD.",
            "nama_se": "91440500055332846K",
            "sektor": "Sektor Keuangan",
            "tanggal_terbit": "2022-09-30",
            "url_tdpse_detail": "https://pse.komdigi.go.id/tdpse-detail/11438",
            "website": "owenstrategikmedia.com"
        },
        {
            "id": "9cb1ac11-00ac-43d1-802e-463f15eac6b7",
            "nama_pse": "SHANTOU JINJIA TRADING CO., LTD.",
            "nama_se": "MARIA TIURMA",
            "sektor": "Sektor Keuangan",
            "tanggal_terbit": "2022-09-30",
            "url_tdpse_detail": "https://pse.komdigi.go.id/tdpse-detail/11440",
            "website": "owenstrategikmedia.com"
        },
        {
            "id": "9cb1ac02-4ce3-4e16-ba6f-a7aa609b5a92",
            "nama_pse": "SHANTOU JINJIA TRADING CO., LTD.",
            "nama_se": "MARIA TIURMA",
            "sektor": "Sektor Keuangan",
            "tanggal_terbit": "2022-09-30",
            "url_tdpse_detail": "https://pse.komdigi.go.id/tdpse-detail/11441",
            "website": "owenstrategikmedia.com"
        },
        {
            "id": "9cb1ac02-040d-4638-8505-4255f3833011",
            "nama_pse": "SHANTOU JINJIA TRADING CO., LTD.",
            "nama_se": "SMIC PAYMENT GATEWAY",
            "sektor": "Sektor Keuangan",
            "tanggal_terbit": "2022-09-27",
            "url_tdpse_detail": "https://pse.komdigi.go.id/tdpse-detail/11371",
            "website": "shantoumariainvestment.com"
        },
        {
            "id": "9cb1ac02-0739-4314-99af-697d8e492007",
            "nama_pse": "HONG DING PROPERTY (H.K.) LIMITED",
            "nama_se": "ETF-RUMAH LUWIH GIANYAR",
            "sektor": "Sektor Keuangan",
            "tanggal_terbit": "2022-09-27",
            "url_tdpse_detail": "https://pse.komdigi.go.id/tdpse-detail/11372",
            "website": "rumahluwih.com"
        }
    ],
    "processingTimeMs": 0,
    "query": "",
    "totalHits": 352,
    "hitsPerPage": 50,
    "page": 6,
    "totalPages": 8
}