{
    "hits": [
        {
            "id": "9cb1ac0b-8c9b-40b8-926d-66f506a7846b",
            "nama_pse": "MOBILE ALPHA LIMITED",
            "nama_se": "SUGO",
            "sektor": "Sektor Teknologi Informasi dan Komunikasi",
            "tanggal_terbit": "2022-08-11",
            "url_tdpse_detail": "https://pse.komdigi.go.id/tdpse-detail/10243",
            "website": "voicemaker.media"
        },
        {
            "id": "9cb1abfc-753d-43a2-ac9e-2936fcd6511a",
            "nama_pse": "CANVA PTY LTD",
            "nama_se": "CANVA",
            "sektor": "Sektor Teknologi Informasi dan Komunikasi",
            "tanggal_terbit": "2022-08-11",
            "url_tdpse_detail": "https://pse.komdigi.go.id/tdpse-detail/10246",
            "website": "canva.com"
        },
        {
            "id": "9cb1ac0b-16d3-4558-887b-9c75184dcbb4",
            "nama_pse": "PLAYBSET LIMITED",
            "nama_se": "MONKEY KING: ARENA OF HEROES",
            "sektor": "Sektor Teknologi Informasi dan Komunikasi",
            "tanggal_terbit": "2022-08-10",
            "url_tdpse_detail": "https://pse.komdigi.go.id/tdpse-detail/10159",
            "website": "monkeykingaoh.com"
        },
        {
            "id": "9cb1abfc-270f-4f28-a383-ec002cda502f",
            "nama_pse": "Farlight Pte Ltd.",
            "nama_se": "DISLYTE",
            "sektor": "Sektor Teknologi Informasi dan Komunikasi",
            "tanggal_terbit": "2022-08-10",
            "url_tdpse_detail": "https://pse.komdigi.go.id/tdpse-detail/10190",
            "website": "dislyte.farlightgames.com"
        },
        {
            "id": "9cb1abd6-2c44-4e88-a1e3-61b93dbc81a4",
            "nama_pse": "Farlight Pte Ltd.",
            "nama_se": "FARLIGHT 84",
            "sektor": "Sektor Teknologi Informasi dan Komunikasi",
            "tanggal_terbit": "2022-08-10",
            "url_tdpse_detail": "https://pse.komdigi.go.id/tdpse-detail/10191",
            "website": "farlight84.farlightgames.com"
        },
        {
            "id": "9cb1ac0a-fdc6-4153-b8ed-071aa05df128",
            "nama_pse": "FINGERFUN (HK) LIMITED",
            "nama_se": "MU ORIGIN 3",
            "sektor": "Sektor Teknologi Informasi dan Komunikasi",
            "tanggal_terbit": "2022-08-09",
            "url_tdpse_detail": "https://pse.komdigi.go.id/tdpse-detail/10140",
            "website": "id-mu3.fingerfun.com"
        },
        {
            "id": "9cb1abd5-fa13-4180-8996-6fe9990c95ea",
            "nama_pse": "FINGERFUN (HK) LIMITED",
            "nama_se": "ONE PUNCH MAN : THE STRONGEST",
            "sektor": "Sektor Teknologi Informasi dan Komunikasi",
            "tanggal_terbit": "2022-08-09",
            "url_tdpse_detail": "https://pse.komdigi.go.id/tdpse-detail/10141",
            "website": "id-onepunchman.fingerfun.com"
        },
        {
            "id": "9cb1ac0b-0740-4be1-abdf-240f249b0968",
            "nama_pse": "EPIC GAMES INTERNATIONAL S.A R.L., BERTRANGE, ROOT BRANCH",
            "nama_se": "EPIC GAMES STORE",
            "sektor": "Sektor Teknologi Informasi dan Komunikasi",
            "tanggal_terbit": "2022-08-09",
            "url_tdpse_detail": "https://pse.komdigi.go.id/tdpse-detail/10146",
            "website": "store.epicgames.com"
        },
        {
            "id": "9cb1abfa-a612-473a-ace2-163b4a193362",
            "nama_pse": "AKURA PTE. LTD.",
            "nama_se": "SPARKAL",
            "sektor": "Sektor Teknologi Informasi dan Komunikasi",
            "tanggal_terbit": "2022-08-05",
            "url_tdpse_detail": "https://pse.komdigi.go.id/tdpse-detail/9917",
            "website": "play.google.com/store/apps/details?id=com.sparkal.novel\u0026hl=id\u0026gl=id"
        },
        {
            "id": "9cb1abd4-bf4c-41bf-b8fa-aa797431b1f0",
            "nama_pse": "FYXTECH TECHNOLOGY PTE. LTD.",
            "nama_se": "YALLA DOMINO",
            "sektor": "Sektor Teknologi Informasi dan Komunikasi",
            "tanggal_terbit": "2022-08-05",
            "url_tdpse_detail": "https://pse.komdigi.go.id/tdpse-detail/9974",
            "website": "yalladomino.com"
        },
        {
            "id": "9cb1ac09-1511-4910-9672-bb6ac0a15f4c",
            "nama_pse": "ELECTRONIC SOUL INTERACTIVE TECHNOLOGY(HONG KONG) CO.,LIMITED",
            "nama_se": "ELECTRONIC SOUL GAME",
            "sektor": "Sektor Teknologi Informasi dan Komunikasi",
            "tanggal_terbit": "2022-08-04",
            "url_tdpse_detail": "https://pse.komdigi.go.id/tdpse-detail/9840",
            "website": "coco4game.com"
        },
        {
            "id": "9cb1ac09-5e87-472b-a4f7-90bd9cb69e85",
            "nama_pse": "ELECTRONIC SOUL INTERACTIVE TECHNOLOGY(HONG KONG) CO.,LIMITED",
            "nama_se": "ELECTRONIC SOUL GAME",
            "sektor": "Sektor Teknologi Informasi dan Komunikasi",
            "tanggal_terbit": "2022-08-04",
            "url_tdpse_detail": "https://pse.komdigi.go.id/tdpse-detail/9878",
            "website": "coco4game.com"
        },
        {
            "id": "9cb1abfa-88ac-446b-912e-142e5f9e5bf5",
            "nama_pse": "BLIZZARD ENTERTAINMENT, INC",
            "nama_se": "BATTLE.NET",
            "sektor": "Sektor Teknologi Informasi dan Komunikasi",
            "tanggal_terbit": "2022-08-04",
            "url_tdpse_detail": "https://pse.komdigi.go.id/tdpse-detail/9884",
            "website": "apps.apple.com/id/app/battle-net/id1241040030"
        },
        {
            "id": "9cb1abd4-2f8b-4bbf-8ef1-a48c797c6854",
            "nama_pse": "BLIZZARD ENTERTAINMENT, INC",
            "nama_se": "BATTLE.NET",
            "sektor": "Sektor Teknologi Informasi dan Komunikasi",
            "tanggal_terbit": "2022-08-04",
            "url_tdpse_detail": "https://pse.komdigi.go.id/tdpse-detail/9885",
            "website": "play.google.com/store/apps/details?id=com.blizzard.messenger"
        },
        {
            "id": "9cb1abfa-8c1b-4223-9888-def601a78fac",
            "nama_pse": "IGG SINGAPORE PTE. LTD.",
            "nama_se": "LORDS MOBILE",
            "sektor": "Sektor Teknologi Informasi dan Komunikasi",
            "tanggal_terbit": "2022-08-04",
            "url_tdpse_detail": "https://pse.komdigi.go.id/tdpse-detail/9887",
            "website": "lordsmobile.igg.com"
        },
        {
            "id": "9cb1ac09-6ecb-44b0-9699-2ff0fd77efe6",
            "nama_pse": "ALOHA",
            "nama_se": "SUPER IDOL",
            "sektor": "Sektor Teknologi Informasi dan Komunikasi",
            "tanggal_terbit": "2022-08-04",
            "url_tdpse_detail": "https://pse.komdigi.go.id/tdpse-detail/9896",
            "website": "superidol.com"
        },
        {
            "id": "9cb1abd4-60a4-4282-a840-45f6acc6c68c",
            "nama_pse": "NUADU",
            "nama_se": "NUADU",
            "sektor": "Sektor Teknologi Informasi dan Komunikasi",
            "tanggal_terbit": "2022-08-04",
            "url_tdpse_detail": "https://pse.komdigi.go.id/tdpse-detail/9911",
            "website": "nuadu.com"
        },
        {
            "id": "9cb1ac08-51cc-4f94-88aa-4e0bdc5794dc",
            "nama_pse": "Amazon.com Services LLC",
            "nama_se": "AMAZON.COM",
            "sektor": "Sektor Teknologi Informasi dan Komunikasi",
            "tanggal_terbit": "2022-08-03",
            "url_tdpse_detail": "https://pse.komdigi.go.id/tdpse-detail/9727",
            "website": "amazon.com"
        },
        {
            "id": "9cb1abf9-d0ab-4b1d-9300-eae7759a2757",
            "nama_pse": "Amazon.com Services LLC",
            "nama_se": "PRIME VIDEO",
            "sektor": "Sektor Teknologi Informasi dan Komunikasi",
            "tanggal_terbit": "2022-08-03",
            "url_tdpse_detail": "https://pse.komdigi.go.id/tdpse-detail/9728",
            "website": "primevideo.com"
        },
        {
            "id": "9cb1abd3-77d9-4a5a-94d6-aea4e33a1cae",
            "nama_pse": "PAYPAL PTE LTD",
            "nama_se": "PAYPAL",
            "sektor": "Sektor Keuangan",
            "tanggal_terbit": "2022-08-03",
            "url_tdpse_detail": "https://pse.komdigi.go.id/tdpse-detail/9778",
            "website": "paypal.com"
        },
        {
            "id": "9cb1abfa-0cf2-4066-91da-10c18946d7a4",
            "nama_pse": "SONY INTERACTIVE ENTERTAINMENT INC.",
            "nama_se": "PLAYSTATION STORE",
            "sektor": "Sektor Perdagangan",
            "tanggal_terbit": "2022-08-03",
            "url_tdpse_detail": "https://pse.komdigi.go.id/tdpse-detail/9786",
            "website": "store.playstation.com/en-id/"
        },
        {
            "id": "9cb1ac08-b7c4-403a-b742-314887a1fc33",
            "nama_pse": "WHIMSICAL INC",
            "nama_se": "WHIMSICAL",
            "sektor": "Sektor Teknologi Informasi dan Komunikasi",
            "tanggal_terbit": "2022-08-03",
            "url_tdpse_detail": "https://pse.komdigi.go.id/tdpse-detail/9790",
            "website": "whimsical.com"
        },
        {
            "id": "9cb1ac08-da03-4305-a7d4-5ea086eaa6eb",
            "nama_pse": "Hong Kong GAE Information Technology Co., Limited",
            "nama_se": "THREE KINGDOMS: EPIC WAR",
            "sektor": "Sektor Perdagangan",
            "tanggal_terbit": "2022-08-03",
            "url_tdpse_detail": "https://pse.komdigi.go.id/tdpse-detail/9797",
            "website": "three.hrgame.com.hk"
        },
        {
            "id": "9cb1abfa-13aa-4d93-8504-93e61f3a2ded",
            "nama_pse": "EA SWISS SARL",
            "nama_se": "ORIGIN",
            "sektor": "Sektor Teknologi Informasi dan Komunikasi",
            "tanggal_terbit": "2022-08-03",
            "url_tdpse_detail": "https://pse.komdigi.go.id/tdpse-detail/9799",
            "website": "origin.com"
        },
        {
            "id": "9cb1abfa-19e5-46e1-83ee-92a00e288a57",
            "nama_pse": "BINAMANDIRI",
            "nama_se": "BINAMANDIRI",
            "sektor": "Sektor Teknologi Informasi dan Komunikasi",
            "tanggal_terbit": "2022-08-03",
            "url_tdpse_detail": "https://pse.komdigi.go.id/tdpse-detail/9810",
            "website": "binamandiri.sg"
        },
        {
            "id": "9cb1abd3-bee8-4916-9a86-467cf4c7ccf5",
            "nama_pse": "DAN WORLD, LTD",
            "nama_se": "WEBSITE",
            "sektor": "Sektor Kesehatan",
            "tanggal_terbit": "2022-08-03",
            "url_tdpse_detail": "https://pse.komdigi.go.id/tdpse-detail/9829",
            "website": "world.dan.org"
        },
        {
            "id": "9cb1abd3-c1cb-4cbb-8820-3a73c63b584e",
            "nama_pse": "DAN WORLD, LTD",
            "nama_se": "E-APP FOR SHORT TIME DIVE ACCIDENT INSURANCE",
            "sektor": "Sektor Keuangan",
            "tanggal_terbit": "2022-08-03",
            "url_tdpse_detail": "https://pse.komdigi.go.id/tdpse-detail/9830",
            "website": "apps.dan.org/short-term-prepay/"
        },
        {
            "id": "9cb1abf9-9de9-4a50-87d6-66fe93280ad7",
            "nama_pse": "VORWERK INTERNATIONAL \u0026 CO. KMG",
            "nama_se": "THERMOMIX® RECIPE PLATFORM, COOKIDOO®",
            "sektor": "Sektor Teknologi Informasi dan Komunikasi",
            "tanggal_terbit": "2022-08-02",
            "url_tdpse_detail": "https://pse.komdigi.go.id/tdpse-detail/9695",
            "website": "cookidoo.international/foundation/en"
        },
        {
            "id": "9cb1abd3-0777-498a-9737-4d7c0a39cb3e",
            "nama_pse": "ODOO S.A.",
            "nama_se": "ODOO ENTERPRISE",
            "sektor": "Sektor Teknologi Informasi dan Komunikasi",
            "tanggal_terbit": "2022-08-02",
            "url_tdpse_detail": "https://pse.komdigi.go.id/tdpse-detail/9699",
            "website": "odoo.com"
        },
        {
            "id": "9cb1abd3-1e5d-4e19-8a0b-ba5be9941699",
            "nama_pse": "Topfun Domino Qiu Qiu",
            "nama_se": "TOPFUN DOMINO QIU QIU",
            "sektor": "Sektor Teknologi Informasi dan Komunikasi",
            "tanggal_terbit": "2022-08-02",
            "url_tdpse_detail": "https://pse.komdigi.go.id/tdpse-detail/9718",
            "website": "dodo.wetopfun.com/"
        },
        {
            "id": "9cb1abd1-ea8c-4ee9-bdda-d0d04b3cc839",
            "nama_pse": "AKURA PTE. LTD.",
            "nama_se": "UNINOVEL",
            "sektor": "Sektor Teknologi Informasi dan Komunikasi",
            "tanggal_terbit": "2022-08-01",
            "url_tdpse_detail": "https://pse.komdigi.go.id/tdpse-detail/9491",
            "website": "play.google.com/store/apps/details?id=com.uninovel.novel"
        },
        {
            "id": "9cb1abd2-74f9-4816-949f-eb88bd0fd37f",
            "nama_pse": "THATGAMECOMPANY, INC.",
            "nama_se": "SKY: CHILDREN OF THE LIGHT",
            "sektor": "Sektor Teknologi Informasi dan Komunikasi",
            "tanggal_terbit": "2022-08-01",
            "url_tdpse_detail": "https://pse.komdigi.go.id/tdpse-detail/9570",
            "website": "thatskygame.com"
        },
        {
            "id": "9cb1abf7-a95a-4b25-93bb-8067f74c224d",
            "nama_pse": "GITLAB INC",
            "nama_se": "GITLAB.COM",
            "sektor": "Sektor Teknologi Informasi dan Komunikasi",
            "tanggal_terbit": "2022-08-01",
            "url_tdpse_detail": "https://pse.komdigi.go.id/tdpse-detail/9602",
            "website": "Gitlab.com"
        },
        {
            "id": "9cb1abd2-af72-49c8-9f27-298a73d9e19f",
            "nama_pse": "BALABOOM PTE. LTD.",
            "nama_se": "BSTATION",
            "sektor": "Sektor Teknologi Informasi dan Komunikasi",
            "tanggal_terbit": "2022-08-01",
            "url_tdpse_detail": "https://pse.komdigi.go.id/tdpse-detail/9612",
            "website": "bilibili.tv"
        },
        {
            "id": "9cb1abf6-fdab-4149-a1db-ed7f65dc6c17",
            "nama_pse": "READ LASTING LIMITED",
            "nama_se": "NOVELAKU",
            "sektor": "Sektor Teknologi Informasi dan Komunikasi",
            "tanggal_terbit": "2022-07-30",
            "url_tdpse_detail": "https://pse.komdigi.go.id/tdpse-detail/9436",
            "website": "novelaku.id"
        },
        {
            "id": "9cb1abcf-f705-4a65-99f4-b5fbb8e64b21",
            "nama_pse": "SOFTWARE AKTIENGESELLSCHAFT",
            "nama_se": "SOFTWARE AG CLOUD",
            "sektor": "Sektor Teknologi Informasi dan Komunikasi",
            "tanggal_terbit": "2022-07-29",
            "url_tdpse_detail": "https://pse.komdigi.go.id/tdpse-detail/9356",
            "website": "softwareag.cloud"
        },
        {
            "id": "9cb1abd0-ffb3-45b9-a060-aa5cbabb5789",
            "nama_pse": "Comunitee HK Limited",
            "nama_se": "KEPO",
            "sektor": "Sektor Teknologi Informasi dan Komunikasi",
            "tanggal_terbit": "2022-07-29",
            "url_tdpse_detail": "https://pse.komdigi.go.id/tdpse-detail/9366",
            "website": "kepo.life"
        },
        {
            "id": "9cb1abf6-b0a1-41be-ba99-9f263f249fa4",
            "nama_pse": "BLIZZARD ENTERTAINMENT, INC",
            "nama_se": "BATTLE.NET",
            "sektor": "Sektor Perdagangan",
            "tanggal_terbit": "2022-07-29",
            "url_tdpse_detail": "https://pse.komdigi.go.id/tdpse-detail/9386",
            "website": "battle.net"
        },
        {
            "id": "9cb1abf6-c80f-4fdd-a738-51e50d610a79",
            "nama_pse": "MICROSOFT CORPORATION",
            "nama_se": "MICROSOFT BING",
            "sektor": "Sektor Teknologi Informasi dan Komunikasi",
            "tanggal_terbit": "2022-07-29",
            "url_tdpse_detail": "https://pse.komdigi.go.id/tdpse-detail/9410",
            "website": "bing.com"
        },
        {
            "id": "9cb1abf8-2674-4e00-9e2b-efb7fef0d2a8",
            "nama_pse": "ACEVILLE PTE. LTD.",
            "nama_se": "VOOV",
            "sektor": "Sektor Teknologi Informasi dan Komunikasi",
            "tanggal_terbit": "2022-07-29",
            "url_tdpse_detail": "https://pse.komdigi.go.id/tdpse-detail/9411",
            "website": "voovmeeting.com/index.html"
        },
        {
            "id": "9cb1abd1-6187-4c81-b2cc-360a2ed83223",
            "nama_pse": "GRAVITY INTERACTIVE, INC.",
            "nama_se": "RAGNAROK M: ETERNAL LOVE",
            "sektor": "Sektor Teknologi Informasi dan Komunikasi",
            "tanggal_terbit": "2022-07-29",
            "url_tdpse_detail": "https://pse.komdigi.go.id/tdpse-detail/9413",
            "website": "sea.ragnaroketernallove.com/id"
        },
        {
            "id": "9cb1abcf-40b6-451f-83bc-65d10446e03a",
            "nama_pse": "LINKEDIN CORPORATION",
            "nama_se": "LINKEDIN CORPORATION",
            "sektor": "Sektor Teknologi Informasi dan Komunikasi",
            "tanggal_terbit": "2022-07-28",
            "url_tdpse_detail": "https://pse.komdigi.go.id/tdpse-detail/9233",
            "website": "linkedin.com"
        },
        {
            "id": "9cb1abf5-989c-4596-88ba-0e0e1631b014",
            "nama_pse": "SOULGAME LIMITED",
            "nama_se": "PHANTOM BLADE: EXECUTIONERS",
            "sektor": "Sektor Teknologi Informasi dan Komunikasi",
            "tanggal_terbit": "2022-07-28",
            "url_tdpse_detail": "https://pse.komdigi.go.id/tdpse-detail/9237",
            "website": "s-game.choobest.com"
        },
        {
            "id": "9cb1abcf-5095-434b-89df-7093cf6e356a",
            "nama_pse": "JUSTAR HK LIMITED",
            "nama_se": "GEMGALA",
            "sektor": "Sektor Teknologi Informasi dan Komunikasi",
            "tanggal_terbit": "2022-07-28",
            "url_tdpse_detail": "https://pse.komdigi.go.id/tdpse-detail/9239",
            "website": "igemgala.com"
        },
        {
            "id": "9cb1abcf-53ed-44ab-bc60-ee5786b3d321",
            "nama_pse": "NEXON KOREA CORPORATION",
            "nama_se": "BLUE ARCHIVE",
            "sektor": "Sektor Teknologi Informasi dan Komunikasi",
            "tanggal_terbit": "2022-07-28",
            "url_tdpse_detail": "https://pse.komdigi.go.id/tdpse-detail/9240",
            "website": "play.google.com/store/apps/details?id=com.nexon.bluearchive\u0026hl=en\u0026gl=ES; apps.apple.com/us/app/blue-archive/id1571873795"
        },
        {
            "id": "9cb1abbe-b562-46fd-aad9-41f6fd626602",
            "nama_pse": "NEXON KOREA CORPORATION",
            "nama_se": "MAPLESTORY M: FANTASY MMORPG",
            "sektor": "Sektor Teknologi Informasi dan Komunikasi",
            "tanggal_terbit": "2022-07-28",
            "url_tdpse_detail": "https://pse.komdigi.go.id/tdpse-detail/9241",
            "website": "play.google.com/store/apps/details?id=com.nexon.maplem.global\u0026hl=en\u0026gl=ES; apps.apple.com/us/app/maplestory-m-fantasy-mmorpg/id1290086677"
        },
        {
            "id": "9cb1abbe-b854-47f9-82d3-14d6cbeac71d",
            "nama_pse": "NEXON KOREA CORPORATION",
            "nama_se": "KARTRIDER RUSH+",
            "sektor": "Sektor Teknologi Informasi dan Komunikasi",
            "tanggal_terbit": "2022-07-28",
            "url_tdpse_detail": "https://pse.komdigi.go.id/tdpse-detail/9242",
            "website": "play.google.com/store/apps/details?id=com.nexon.kart\u0026hl=en\u0026gl=ES; apps.apple.com/us/app/kartrider-rush/id1466736988"
        },
        {
            "id": "9cb1abd0-050e-4a0f-b51d-85b03516ae30",
            "nama_pse": "NEXON KOREA CORPORATION",
            "nama_se": "KONOSUBA: FANTASTIC DAYS",
            "sektor": "Sektor Teknologi Informasi dan Komunikasi",
            "tanggal_terbit": "2022-07-28",
            "url_tdpse_detail": "https://pse.komdigi.go.id/tdpse-detail/9243",
            "website": "play.google.com/store/apps/details?id=com.nexon.konosuba\u0026hl=en\u0026gl=ES; apps.apple.com/au/app/konosuba-fantastic-days/id1521793564"
        },
        {
            "id": "9cb1abd0-086b-4230-9e70-414d5d307550",
            "nama_pse": "NEXON KOREA CORPORATION",
            "nama_se": "V4",
            "sektor": "Sektor Teknologi Informasi dan Komunikasi",
            "tanggal_terbit": "2022-07-28",
            "url_tdpse_detail": "https://pse.komdigi.go.id/tdpse-detail/9244",
            "website": "play.google.com/store/apps/details?id=com.nexon.v4gb\u0026hl=en\u0026gl=ES; apps.apple.com/us/app/v4/id1501655572"
        },
        {
            "id": "9cb1abcf-5769-4df9-beac-abcdaaf8ab3f",
            "nama_pse": "NEXON KOREA CORPORATION",
            "nama_se": "DARKNESS RISES: ADVENTURE RPG",
            "sektor": "Sektor Teknologi Informasi dan Komunikasi",
            "tanggal_terbit": "2022-07-28",
            "url_tdpse_detail": "https://pse.komdigi.go.id/tdpse-detail/9245",
            "website": "play.google.com/store/apps/details?id=com.nexon.da3.global\u0026hl=en\u0026gl=ES; apps.apple.com/us/app/darkness-rises-adventure-rpg/id1321309284"
        }
    ],
    "processingTimeMs": 4,
    "query": "",
    "totalHits": 1139,
    "hitsPerPage": 50,
    "page": 18,
    "totalPages": 23
}