{
    "hits": [
        {
            "id": "9d224aec-0610-4445-aee0-d1d9f969c285",
            "nama_pse": "EMBED FINANCIAL GROUP HOLDINGS PTE. LIMITED",
            "nama_se": "SMESURE",
            "sektor": "Sektor Keuangan",
            "tanggal_terbit": "2024-09-27",
            "url_tdpse_detail": "https://pse.kominfo.go.id/tdpse-detail/20558",
            "website": "smesure.global"
        },
        {
            "id": "9d224b1c-2645-4f04-b230-ed9df5614ccb",
            "nama_pse": "EMBED FINANCIAL GROUP HOLDINGS PTE. LIMITED",
            "nama_se": "SMESURE",
            "sektor": "Sektor Keuangan",
            "tanggal_terbit": "2024-09-27",
            "url_tdpse_detail": "https://pse.kominfo.go.id/tdpse-detail/20559",
            "website": "smesure.global"
        },
        {
            "id": "9d275916-795d-44e6-acd8-38a228e40251",
            "nama_pse": "Lingxi Interactive Entertainment Holding Limited",
            "nama_se": "TREE OF SAVIOR: NEVERLAND",
            "sektor": "Sektor Teknologi Informasi dan Komunikasi",
            "tanggal_terbit": "2024-09-23",
            "url_tdpse_detail": "https://pse.komdigi.go.id/tdpse-detail/20607",
            "website": "-"
        },
        {
            "id": "9d0d9df3-0c80-48e3-8650-afdce52d56dd",
            "nama_pse": "CNHI INTERNATIONAL SA",
            "nama_se": "NEW HOLLAND FIELDOPS",
            "sektor": "Sektor Pangan",
            "tanggal_terbit": "2024-09-20",
            "url_tdpse_detail": "https://pse.komdigi.go.id/tdpse-detail/20484",
            "website": "fieldops.newholland.com"
        },
        {
            "id": "9d0da090-91ec-4bb7-8ef5-881ba268c4d4",
            "nama_pse": "CNHI INTERNATIONAL SA",
            "nama_se": "CASE IH FIELDOPS",
            "sektor": "Sektor Pangan",
            "tanggal_terbit": "2024-09-20",
            "url_tdpse_detail": "https://pse.komdigi.go.id/tdpse-detail/20485",
            "website": "fieldops.caseih.com"
        },
        {
            "id": "9d0d67f7-f54c-4fcc-9c08-6da85c2c4351",
            "nama_pse": "HEYTAP PTE. LTD.",
            "nama_se": "HEYTAP VIDEO",
            "sektor": "Sektor Teknologi Informasi dan Komunikasi",
            "tanggal_terbit": "2024-09-18",
            "url_tdpse_detail": "https://pse.komdigi.go.id/tdpse-detail/20442",
            "website": "-"
        },
        {
            "id": "9d0d67f7-b070-4e5d-981c-5732c232e243",
            "nama_pse": "NOCTUA GAMES INTERNATIONAL PTE. LTD.",
            "nama_se": "HALAMAN INFORMASI APLIKASI GAMES",
            "sektor": "Sektor Teknologi Informasi dan Komunikasi",
            "tanggal_terbit": "2024-09-18",
            "url_tdpse_detail": "https://pse.komdigi.go.id/tdpse-detail/20454",
            "website": "noctua.gg"
        },
        {
            "id": "9d2466b5-35c3-42ed-8d3c-4ceaccd4d5f4",
            "nama_pse": "PROGRESS RAIL LOCOMOTIVE INC.",
            "nama_se": "PROGRESS RAIL UPTIME",
            "sektor": "Sektor Teknologi Informasi dan Komunikasi",
            "tanggal_terbit": "2024-09-12",
            "url_tdpse_detail": "https://pse.komdigi.go.id/tdpse-detail/20595",
            "website": "uptime.progressraildigital.com"
        },
        {
            "id": "9d0d67f8-0c9c-4c61-9738-47772a16b3d3",
            "nama_pse": "GUESTPOINT MOTELIER PTY LTD",
            "nama_se": "SECURE STORAGE",
            "sektor": "Sektor Teknologi Informasi dan Komunikasi",
            "tanggal_terbit": "2024-09-11",
            "url_tdpse_detail": "https://pse.komdigi.go.id/tdpse-detail/20340",
            "website": "-"
        },
        {
            "id": "9d0d67f7-d62a-496f-bc69-d1364d747e1d",
            "nama_pse": "GUESTPOINT MOTELIER PTY LTD",
            "nama_se": "SECURE STORAGE",
            "sektor": "Sektor Teknologi Informasi dan Komunikasi",
            "tanggal_terbit": "2024-09-11",
            "url_tdpse_detail": "https://pse.komdigi.go.id/tdpse-detail/20341",
            "website": "-"
        },
        {
            "id": "9d0d67f7-d8d2-4ae3-af10-b35b7c6d9a38",
            "nama_pse": "GUESTPOINT MOTELIER PTY LTD",
            "nama_se": "GUESTPOINT PMS",
            "sektor": "Sektor Teknologi Informasi dan Komunikasi",
            "tanggal_terbit": "2024-09-11",
            "url_tdpse_detail": "https://pse.komdigi.go.id/tdpse-detail/20342",
            "website": "-"
        },
        {
            "id": "9d0d67f8-1094-4650-8053-d40ec5714df9",
            "nama_pse": "GUESTPOINT MOTELIER PTY LTD",
            "nama_se": "GUESTPOINT PMS",
            "sektor": "Sektor Teknologi Informasi dan Komunikasi",
            "tanggal_terbit": "2024-09-11",
            "url_tdpse_detail": "https://pse.komdigi.go.id/tdpse-detail/20343",
            "website": "-"
        },
        {
            "id": "9d0d67f7-db5b-4056-a54f-4d0eb0ac30ce",
            "nama_pse": "APP CHASM LTD",
            "nama_se": "APPS",
            "sektor": "Sektor Teknologi Informasi dan Komunikasi",
            "tanggal_terbit": "2024-09-11",
            "url_tdpse_detail": "https://pse.komdigi.go.id/tdpse-detail/20349",
            "website": "appchasm.blogspot.com/2024/08/app-chasm.html"
        },
        {
            "id": "9d0d67f8-0a62-46a5-8b97-6c9cde489c45",
            "nama_pse": "ROBERT BOSCH MANUFACTURING SOLUTIONS GMBH",
            "nama_se": "NEXEED DEVICE PORTAL",
            "sektor": "Sektor Perdagangan",
            "tanggal_terbit": "2024-09-10",
            "url_tdpse_detail": "https://pse.komdigi.go.id/tdpse-detail/20332",
            "website": "portal.bosch-nexeed.com"
        },
        {
            "id": "9ced6015-0dca-4a30-9577-d7c52ad2ce72",
            "nama_pse": "BLAGOL TECHNOLOGY CO., LIMITED",
            "nama_se": "WEEKA",
            "sektor": "Sektor Teknologi Informasi dan Komunikasi",
            "tanggal_terbit": "2024-09-04",
            "url_tdpse_detail": "https://pse.komdigi.go.id/tdpse-detail/20227",
            "website": "play.google.com/store/apps/details?id=com.voicechat.weeka\u0026hl=id"
        },
        {
            "id": "9ced6014-bb96-4d5a-818c-394626beb1ec",
            "nama_pse": "SPORT HEROES",
            "nama_se": "UNITED HEROES",
            "sektor": "Sektor Teknologi Informasi dan Komunikasi",
            "tanggal_terbit": "2024-09-03",
            "url_tdpse_detail": "https://pse.komdigi.go.id/tdpse-detail/20219",
            "website": "united-heroes.com"
        },
        {
            "id": "9ced6014-a697-4922-a206-1f1c9a323729",
            "nama_pse": "AGUNG INSANI RAYA RESOURCES",
            "nama_se": "AGUNG INSANI RAYA RESOURCES",
            "sektor": "Sektor Energi dan Sumber Daya Mineral",
            "tanggal_terbit": "2024-08-29",
            "url_tdpse_detail": "https://pse.komdigi.go.id/tdpse-detail/20168",
            "website": "-"
        },
        {
            "id": "9ced6014-d5e2-4483-b175-1f826cc88f97",
            "nama_pse": "ROBERT BOSCH GMBH",
            "nama_se": "SINGLEKEY ID",
            "sektor": "Sektor Perdagangan",
            "tanggal_terbit": "2024-08-27",
            "url_tdpse_detail": "https://pse.komdigi.go.id/tdpse-detail/20144",
            "website": "singlekey-id.com"
        },
        {
            "id": "9ced6014-a1d0-4cad-9069-6969590bdccd",
            "nama_pse": "Robert Bosch GmbH",
            "nama_se": "BOSCH IOT INSIGHTS",
            "sektor": "Sektor Perdagangan",
            "tanggal_terbit": "2024-08-26",
            "url_tdpse_detail": "https://pse.komdigi.go.id/tdpse-detail/20125",
            "website": "bosch-iot-insights.com"
        },
        {
            "id": "9ced6014-41ba-4059-9038-3ebcd4697da5",
            "nama_pse": "ONWARD HEALTH RESEARCH",
            "nama_se": "ONWARDACCESS",
            "sektor": "Sektor Kesehatan",
            "tanggal_terbit": "2024-08-23",
            "url_tdpse_detail": "https://pse.komdigi.go.id/tdpse-detail/20091",
            "website": "onwardhealthresearch.com"
        },
        {
            "id": "9cd35802-bcff-42e1-adac-4ceee589f4d3",
            "nama_pse": "JAMF SOFTWARE, LLC",
            "nama_se": "JAMF SERVICES",
            "sektor": "Sektor Teknologi Informasi dan Komunikasi",
            "tanggal_terbit": "2024-08-20",
            "url_tdpse_detail": "https://pse.komdigi.go.id/tdpse-detail/20034",
            "website": "jamf.com"
        },
        {
            "id": "9cd35802-8d9c-4825-a13a-f8a5b5f59f35",
            "nama_pse": "COOLITA TECHNOLOGY PTE. LTD.",
            "nama_se": "COOLITA OS",
            "sektor": "Sektor Teknologi Informasi dan Komunikasi",
            "tanggal_terbit": "2024-08-19",
            "url_tdpse_detail": "https://pse.komdigi.go.id/tdpse-detail/20039",
            "website": "coolita.com"
        },
        {
            "id": "9cc99fb5-9261-48e3-9d04-a37423c75391",
            "nama_pse": "SHANTOU JINJIA TRADING CO., LTD.",
            "nama_se": "YAYASAN TUNAS INDONESIA JAYA",
            "sektor": "Sektor Keuangan",
            "tanggal_terbit": "2024-08-17",
            "url_tdpse_detail": "https://pse.komdigi.go.id/tdpse-detail/19969",
            "website": "fk-pkbm-tangsel.org"
        },
        {
            "id": "9cc9c716-be62-4d13-b9f3-7d3aff100430",
            "nama_pse": "SHANTOU MARIA INVESTMENT CO., LTD.",
            "nama_se": "mandiri-capital.co.id",
            "sektor": "Sektor Keuangan",
            "tanggal_terbit": "2024-08-17",
            "url_tdpse_detail": "https://pse.komdigi.go.id/tdpse-detail/19970",
            "website": "mandiri-capital.co.id"
        },
        {
            "id": "9cc9c717-fbd8-4410-b41e-57ae0f461e5a",
            "nama_pse": "SHANTOU MARIA INVESTMENT CO., LTD.",
            "nama_se": "wondr.bni.co.id",
            "sektor": "Sektor Keuangan",
            "tanggal_terbit": "2024-08-17",
            "url_tdpse_detail": "https://pse.komdigi.go.id/tdpse-detail/19971",
            "website": "wondr.bni.co.id"
        },
        {
            "id": "9cc9c718-d336-4b61-b0c7-23700f0e035b",
            "nama_pse": "SHANTOU MARIA INVESTMENT CO., LTD.",
            "nama_se": "bnilondon.com",
            "sektor": "Sektor Keuangan",
            "tanggal_terbit": "2024-08-17",
            "url_tdpse_detail": "https://pse.komdigi.go.id/tdpse-detail/19972",
            "website": "bankbni.co.uk"
        },
        {
            "id": "9cc9c719-981f-4167-92f7-b664f3a00697",
            "nama_pse": "SHANTOU MARIA INVESTMENT CO., LTD.",
            "nama_se": "ptbni.co.jp",
            "sektor": "Sektor Keuangan",
            "tanggal_terbit": "2024-08-17",
            "url_tdpse_detail": "https://pse.komdigi.go.id/tdpse-detail/19973",
            "website": "ptbni.co.jp"
        },
        {
            "id": "9cc9c71a-6a60-40ae-b268-2b488fb2d1f0",
            "nama_pse": "SHANTOU MARIA INVESTMENT CO., LTD.",
            "nama_se": "brinya.com",
            "sektor": "Sektor Keuangan",
            "tanggal_terbit": "2024-08-17",
            "url_tdpse_detail": "https://pse.komdigi.go.id/tdpse-detail/19974",
            "website": "brinya.com"
        },
        {
            "id": "9cc9c71b-4256-44ba-b33e-ec01c810335c",
            "nama_pse": "SHANTOU MARIA INVESTMENT CO., LTD.",
            "nama_se": "most.co.id",
            "sektor": "Sektor Keuangan",
            "tanggal_terbit": "2024-08-17",
            "url_tdpse_detail": "https://pse.komdigi.go.id/tdpse-detail/19975",
            "website": "most.co.id"
        },
        {
            "id": "9cc9c71c-e49c-4243-a543-41090be00492",
            "nama_pse": "SHANTOU MARIA INVESTMENT CO., LTD.",
            "nama_se": "bankmandirish.com",
            "sektor": "Sektor Keuangan",
            "tanggal_terbit": "2024-08-17",
            "url_tdpse_detail": "https://pse.komdigi.go.id/tdpse-detail/19977",
            "website": "bankmandirish.com"
        },
        {
            "id": "9cc9d91d-e0a0-4d82-90f0-e79a59443ce3",
            "nama_pse": "STANDARD CHARTERED",
            "nama_se": "brinya.com",
            "sektor": "Sektor Keuangan",
            "tanggal_terbit": "2024-08-17",
            "url_tdpse_detail": "https://pse.komdigi.go.id/tdpse-detail/19981",
            "website": "brinya.com"
        },
        {
            "id": "9cb1ac74-d71b-4f2e-b300-fcece988c9ab",
            "nama_pse": "VNG SINGAPORE PTE., LTD.",
            "nama_se": "FORSAKEN WORLD 2",
            "sektor": "Sektor Teknologi Informasi dan Komunikasi",
            "tanggal_terbit": "2024-08-05",
            "url_tdpse_detail": "https://pse.komdigi.go.id/tdpse-detail/19740",
            "website": "fw2.vnggames.com"
        },
        {
            "id": "9cb1ac74-fbdd-491c-b573-8100462e1a1e",
            "nama_pse": "COGNOSPHERE PTE. LTD.",
            "nama_se": "HONKAI: STAR RAIL",
            "sektor": "Sektor Teknologi Informasi dan Komunikasi",
            "tanggal_terbit": "2024-08-05",
            "url_tdpse_detail": "https://pse.komdigi.go.id/tdpse-detail/19765",
            "website": "hsr.hoyoverse.com"
        },
        {
            "id": "9cb1ac8b-a579-48e8-a2bc-827f5ba63099",
            "nama_pse": "COGNOSPHERE PTE. LTD.",
            "nama_se": "GENSHIN IMPACT · CLOUD",
            "sektor": "Sektor Teknologi Informasi dan Komunikasi",
            "tanggal_terbit": "2024-08-05",
            "url_tdpse_detail": "https://pse.komdigi.go.id/tdpse-detail/19766",
            "website": "cloudgenshin.hoyoverse.com"
        },
        {
            "id": "9cb1ac8b-aa1e-4bff-b63e-d6163080f5ff",
            "nama_pse": "COGNOSPHERE PTE. LTD.",
            "nama_se": "HONKAI IMPACT 3",
            "sektor": "Sektor Teknologi Informasi dan Komunikasi",
            "tanggal_terbit": "2024-08-05",
            "url_tdpse_detail": "https://pse.komdigi.go.id/tdpse-detail/19767",
            "website": "honkaiimpact3.hoyoverse.com"
        },
        {
            "id": "9cb1ac5f-4a4a-4ec1-8bc4-22218fcf7594",
            "nama_pse": "COGNOSPHERE PTE. LTD.",
            "nama_se": "HOYOLAB",
            "sektor": "Sektor Teknologi Informasi dan Komunikasi",
            "tanggal_terbit": "2024-07-31",
            "url_tdpse_detail": "https://pse.komdigi.go.id/tdpse-detail/19708",
            "website": "hoyolab.com"
        },
        {
            "id": "9d0d67f8-1e4c-4b97-b171-f87a9c9a1630",
            "nama_pse": "SPOTV NOW",
            "nama_se": "SPOTV NOW",
            "sektor": "Sektor Teknologi Informasi dan Komunikasi",
            "tanggal_terbit": "2024-07-31",
            "url_tdpse_detail": "https://pse.komdigi.go.id/tdpse-detail/20462",
            "website": "spotvasia.com"
        },
        {
            "id": "9cb1ac74-87ff-4ca1-b911-fac98409b583",
            "nama_pse": "PROXIMA BETA PTE. LIMITED",
            "nama_se": "ARENA BREAKOUT: INFINITE",
            "sektor": "Sektor Teknologi Informasi dan Komunikasi",
            "tanggal_terbit": "2024-07-30",
            "url_tdpse_detail": "https://pse.komdigi.go.id/tdpse-detail/19681",
            "website": "arenabreakoutinfinite.com"
        },
        {
            "id": "9cb1ac74-9249-4f81-a2d1-8597de45d9b1",
            "nama_pse": "COGNOSPHERE PTE. LTD.",
            "nama_se": "TEARS OF THEMIS",
            "sektor": "Sektor Teknologi Informasi dan Komunikasi",
            "tanggal_terbit": "2024-07-30",
            "url_tdpse_detail": "https://pse.komdigi.go.id/tdpse-detail/19687",
            "website": "tot.hoyoverse.com"
        },
        {
            "id": "9cb1ac5f-2f6a-4532-a358-8c0f127604bb",
            "nama_pse": "COGNOSPHERE PTE. LTD.",
            "nama_se": "GENSHIN IMPACT",
            "sektor": "Sektor Teknologi Informasi dan Komunikasi",
            "tanggal_terbit": "2024-07-30",
            "url_tdpse_detail": "https://pse.komdigi.go.id/tdpse-detail/19688",
            "website": "genshin.hoyoverse.com"
        },
        {
            "id": "9cb1ac5f-3206-42a3-9932-57d97d3f2b23",
            "nama_pse": "COGNOSPHERE PTE. LTD.",
            "nama_se": "ZENLESS ZONE ZERO",
            "sektor": "Sektor Teknologi Informasi dan Komunikasi",
            "tanggal_terbit": "2024-07-30",
            "url_tdpse_detail": "https://pse.komdigi.go.id/tdpse-detail/19689",
            "website": "zenless.hoyoverse.com"
        },
        {
            "id": "9cb1ac8a-a37b-4959-868c-a5b9c1787ada",
            "nama_pse": "NEXON KOREA CORPORATION",
            "nama_se": "THE FIRST DESCENDANT",
            "sektor": "Sektor Teknologi Informasi dan Komunikasi",
            "tanggal_terbit": "2024-07-25",
            "url_tdpse_detail": "https://pse.komdigi.go.id/tdpse-detail/19607",
            "website": "tfd.nexon.com"
        },
        {
            "id": "9cb1ac74-3615-471d-8187-74851c042d35",
            "nama_pse": "RAJIV AZHAPILLI",
            "nama_se": "SAMSUNG CLASSROOM MANAGEMENT",
            "sektor": "Sektor Teknologi Informasi dan Komunikasi",
            "tanggal_terbit": "2024-07-25",
            "url_tdpse_detail": "https://pse.komdigi.go.id/tdpse-detail/19619",
            "website": "school.tabnova.com"
        },
        {
            "id": "9cb1ac74-249d-4570-b08e-2f869940fd87",
            "nama_pse": "BILL \u0026 MELINDA GATES MEDICAL RESEARCH INSTITUTE",
            "nama_se": "MEDIDATA RAVE",
            "sektor": "Sektor Kesehatan",
            "tanggal_terbit": "2024-07-24",
            "url_tdpse_detail": "https://pse.komdigi.go.id/tdpse-detail/19590",
            "website": "imedidata.com"
        },
        {
            "id": "9cb1ac5e-2b15-4e58-b61b-a420a88b0baf",
            "nama_pse": "PROMETHEUS GROUP ENTERPRISES LLC",
            "nama_se": "PROMETHEUS GROUP ENTERPRISES LLC",
            "sektor": "Sektor Energi dan Sumber Daya Mineral",
            "tanggal_terbit": "2024-07-15",
            "url_tdpse_detail": "https://pse.komdigi.go.id/tdpse-detail/19503",
            "website": "prometheusgroup.com"
        },
        {
            "id": "9cb1ac5d-5361-4695-ac53-22111b05d8b3",
            "nama_pse": "NAPIER HEALTHCARE",
            "nama_se": "HOSPITAL INFORMATION SYSTEM",
            "sektor": "Sektor Kesehatan",
            "tanggal_terbit": "2024-07-03",
            "url_tdpse_detail": "https://pse.komdigi.go.id/tdpse-detail/19337",
            "website": "napierhealthcare.com"
        },
        {
            "id": "9cb1ac72-4fae-4bb9-acd8-0fbfda0e66a5",
            "nama_pse": "PROXIMA BETA PTE. LIMITED",
            "nama_se": "HONOR OF KINGS",
            "sektor": "Sektor Teknologi Informasi dan Komunikasi",
            "tanggal_terbit": "2024-06-20",
            "url_tdpse_detail": "https://pse.komdigi.go.id/tdpse-detail/19317",
            "website": "honorofkings.com"
        },
        {
            "id": "9cb1ac72-3200-47df-8f26-4c97c0ef1103",
            "nama_pse": "EXOTEL TECHCOM PRIVATE LIMITED",
            "nama_se": "EXOTEL",
            "sektor": "Sektor Teknologi Informasi dan Komunikasi",
            "tanggal_terbit": "2024-06-19",
            "url_tdpse_detail": "https://pse.komdigi.go.id/tdpse-detail/19300",
            "website": "exotel.com"
        },
        {
            "id": "9cb1ac72-3ef4-41da-a28c-154a5a29f6d9",
            "nama_pse": "EXPTIONAL PTE LTD",
            "nama_se": "RACING MASTER",
            "sektor": "Sektor Teknologi Informasi dan Komunikasi",
            "tanggal_terbit": "2024-06-19",
            "url_tdpse_detail": "https://pse.komdigi.go.id/tdpse-detail/19306",
            "website": "-"
        },
        {
            "id": "9cb1ac5d-3feb-4dc5-9002-b943df99e506",
            "nama_pse": "EXPTIONAL PTE LTD",
            "nama_se": "RACING MASTER",
            "sektor": "Sektor Teknologi Informasi dan Komunikasi",
            "tanggal_terbit": "2024-06-19",
            "url_tdpse_detail": "https://pse.komdigi.go.id/tdpse-detail/19307",
            "website": "racingmaster.game"
        }
    ],
    "processingTimeMs": 21,
    "query": "",
    "totalHits": 1139,
    "hitsPerPage": 50,
    "page": 7,
    "totalPages": 23
}