{
    "hits": [
        {
            "id": "9cb1ac6e-370e-4492-a75a-dc56e9226690",
            "nama_pse": "SHANTOU MARIA INVESTMENT CO., LTD..",
            "nama_se": "MARIAFORBIS",
            "sektor": "Sektor Keuangan",
            "tanggal_terbit": "2024-04-06",
            "url_tdpse_detail": "https://pse.komdigi.go.id/tdpse-detail/18569",
            "website": "theroyalbeachseminyakbali.com"
        },
        {
            "id": "9cb1ac6e-3a3f-4c83-951d-eb0ea7743fce",
            "nama_pse": "SHANTOU MARIA INVESTMENT CO., LTD..",
            "nama_se": "MARIAFORBIS",
            "sektor": "Sektor Keuangan",
            "tanggal_terbit": "2024-04-06",
            "url_tdpse_detail": "https://pse.komdigi.go.id/tdpse-detail/18570",
            "website": "163.com"
        },
        {
            "id": "9cb1ac6e-098a-4c66-a1a9-1ce86901fc44",
            "nama_pse": "DISCOVERIC MARKETPLACE LTD",
            "nama_se": "DISCOVERMARKET",
            "sektor": "Sektor Keuangan",
            "tanggal_terbit": "2024-04-02",
            "url_tdpse_detail": "https://pse.komdigi.go.id/tdpse-detail/18507",
            "website": "discovermarket.com"
        },
        {
            "id": "9cb1ac6d-f6f3-4861-8dd7-8854a4fdb075",
            "nama_pse": "EXPEDIA",
            "nama_se": "HTTPS://WWW.EXPEDIA.CO.ID/ AND HTTPS://ID.HOTELS.COM/",
            "sektor": "Sektor Perdagangan",
            "tanggal_terbit": "2024-04-01",
            "url_tdpse_detail": "https://pse.komdigi.go.id/tdpse-detail/18497",
            "website": "expedia.co.id and id.hotels.com"
        },
        {
            "id": "9cb1ac6d-aa9e-4388-be2d-2a49782229ab",
            "nama_pse": "ION MOBILITY PTE. LTD.",
            "nama_se": "ION MOBILITY MOBILE APP (IOS)",
            "sektor": "Sektor Teknologi Informasi dan Komunikasi",
            "tanggal_terbit": "2024-03-28",
            "url_tdpse_detail": "https://pse.komdigi.go.id/tdpse-detail/18457",
            "website": "https://apps.apple.com/id/app/ion-mobility/id1614372239"
        },
        {
            "id": "9cb1ac6d-af50-469f-afd3-f4bcdb1b0c45",
            "nama_pse": "ION MOBILITY PTE. LTD.",
            "nama_se": "ION MOBILITY MOBILE APP (ANDROID)",
            "sektor": "Sektor Teknologi Informasi dan Komunikasi",
            "tanggal_terbit": "2024-03-28",
            "url_tdpse_detail": "https://pse.komdigi.go.id/tdpse-detail/18458",
            "website": "play.google.com/store/apps/details?id=com.ionmobility.rider\u0026hl=en\u0026gl=US"
        },
        {
            "id": "9cb1ac82-6d9b-4830-a27a-64b90011f715",
            "nama_pse": "ION MOBILITY PTE. LTD.",
            "nama_se": "ION MOBILITY WEBSITE",
            "sektor": "Sektor Teknologi Informasi dan Komunikasi",
            "tanggal_terbit": "2024-03-28",
            "url_tdpse_detail": "https://pse.komdigi.go.id/tdpse-detail/18459",
            "website": "ionmobility.com"
        },
        {
            "id": "9cb1ac6d-b667-4c96-b1ed-b03240c9c44f",
            "nama_pse": "ZENLAYER INC",
            "nama_se": "ZENLAYER INC",
            "sektor": "Sektor Teknologi Informasi dan Komunikasi",
            "tanggal_terbit": "2024-03-28",
            "url_tdpse_detail": "https://pse.komdigi.go.id/tdpse-detail/18461",
            "website": "console.zenlayer.com"
        },
        {
            "id": "9cb1ac82-6027-4389-accf-48fb1b9f109d",
            "nama_pse": "KLOOK TRAVEL TECHNOLOGY LIMITED",
            "nama_se": "KLOOK",
            "sektor": "Sektor Perdagangan",
            "tanggal_terbit": "2024-03-27",
            "url_tdpse_detail": "https://pse.komdigi.go.id/tdpse-detail/18439",
            "website": "klook.com"
        },
        {
            "id": "9cb1ac82-29f3-4255-bbca-877412d66efc",
            "nama_pse": "HK KURO GAMES LIMITED",
            "nama_se": "WUTHERING WAVES",
            "sektor": "Sektor Teknologi Informasi dan Komunikasi",
            "tanggal_terbit": "2024-03-26",
            "url_tdpse_detail": "https://pse.komdigi.go.id/tdpse-detail/18418",
            "website": "-"
        },
        {
            "id": "9cb1ac58-7034-41fa-9a8b-cf87721a90a6",
            "nama_pse": "HK KURO GAMES LIMITED",
            "nama_se": "WUTHERING WAVES",
            "sektor": "Sektor Teknologi Informasi dan Komunikasi",
            "tanggal_terbit": "2024-03-26",
            "url_tdpse_detail": "https://pse.komdigi.go.id/tdpse-detail/18419",
            "website": "-"
        },
        {
            "id": "9cb1ac6d-3706-4b49-8b88-b171e40ffd00",
            "nama_pse": "TRIVAGO N.V.",
            "nama_se": "TRIVAGO",
            "sektor": "Sektor Teknologi Informasi dan Komunikasi",
            "tanggal_terbit": "2024-03-23",
            "url_tdpse_detail": "https://pse.komdigi.go.id/tdpse-detail/18384",
            "website": "trivago.co.id"
        },
        {
            "id": "9cb1ac6c-bb90-4956-8ae0-f1f4161ae9da",
            "nama_pse": "HONG KONG GATHERING MEDIA LIMITED",
            "nama_se": "VIVI",
            "sektor": "Sektor Teknologi Informasi dan Komunikasi",
            "tanggal_terbit": "2024-03-17",
            "url_tdpse_detail": "https://pse.komdigi.go.id/tdpse-detail/18288",
            "website": "m8.group"
        },
        {
            "id": "9cb1ac6c-be4b-49bc-b96a-653c219f7371",
            "nama_pse": "HONG KONG GATHERING MEDIA LIMITED",
            "nama_se": "M8",
            "sektor": "Sektor Teknologi Informasi dan Komunikasi",
            "tanggal_terbit": "2024-03-17",
            "url_tdpse_detail": "https://pse.komdigi.go.id/tdpse-detail/18289",
            "website": "play.google.com/store/apps/details?id=com.hkgml.m8"
        },
        {
            "id": "9cb1ac81-71d0-4c91-b6dd-27662e45382e",
            "nama_pse": "PROXIMA BETA PTE. LIMITED",
            "nama_se": "AGE OF EMPIRES MOBILE",
            "sektor": "Sektor Teknologi Informasi dan Komunikasi",
            "tanggal_terbit": "2024-03-17",
            "url_tdpse_detail": "https://pse.komdigi.go.id/tdpse-detail/18290",
            "website": "aoemobile.com"
        },
        {
            "id": "9cb1ac6c-961f-46a2-9654-e5ad9034e3b8",
            "nama_pse": "BOOKING.COM B.V.",
            "nama_se": "BOOKING.COM",
            "sektor": "Sektor Perdagangan",
            "tanggal_terbit": "2024-03-15",
            "url_tdpse_detail": "https://pse.komdigi.go.id/tdpse-detail/18263",
            "website": "booking.com"
        },
        {
            "id": "9cb1ac6c-7188-4010-85b0-37219afd50f8",
            "nama_pse": "KUMO™",
            "nama_se": "KUMO™",
            "sektor": "Sektor Kesehatan",
            "tanggal_terbit": "2024-03-12",
            "url_tdpse_detail": "https://pse.komdigi.go.id/tdpse-detail/18232",
            "website": "kumoteam.co"
        },
        {
            "id": "9cb1ac6c-742a-4b92-a677-f0296128af6e",
            "nama_pse": "AGODA COMPANY PTE LTD.",
            "nama_se": "AGODA",
            "sektor": "Sektor Perdagangan",
            "tanggal_terbit": "2024-03-12",
            "url_tdpse_detail": "https://pse.komdigi.go.id/tdpse-detail/18236",
            "website": "agoda.com"
        },
        {
            "id": "9cb1ac57-5caf-4982-ba05-5c3215f589a8",
            "nama_pse": "QUIZIZZ INC.",
            "nama_se": "QUIZIZZ",
            "sektor": "Sektor Teknologi Informasi dan Komunikasi",
            "tanggal_terbit": "2024-03-10",
            "url_tdpse_detail": "https://pse.komdigi.go.id/tdpse-detail/18223",
            "website": "Quizizz.com"
        },
        {
            "id": "9cb1ac6c-5159-47da-8b9e-8b0c6d5b87e6",
            "nama_pse": "ROBERT BOSCH (SOUTH EAST ASIA) PTE. LTD",
            "nama_se": "BOSCH AUTOPARTS ECATALOGUE",
            "sektor": "Sektor Perdagangan",
            "tanggal_terbit": "2024-03-07",
            "url_tdpse_detail": "https://pse.komdigi.go.id/tdpse-detail/18194",
            "website": "ap-ecat.boschaftermarket.com"
        },
        {
            "id": "9cb1ac80-40f2-4313-b915-cb0018885edc",
            "nama_pse": "BRAVO UNICORN PTE. LTD.",
            "nama_se": "QPON MERCHANT",
            "sektor": "Sektor Perdagangan",
            "tanggal_terbit": "2024-03-01",
            "url_tdpse_detail": "https://pse.komdigi.go.id/tdpse-detail/18111",
            "website": "qponmobile.com"
        },
        {
            "id": "9cb1ac56-be05-4e49-98b7-7e53f452c3cf",
            "nama_pse": "B.I.G TECHNOLOGY CO., LIMITED",
            "nama_se": "BEARFISH SLOTS",
            "sektor": "Sektor Teknologi Informasi dan Komunikasi",
            "tanggal_terbit": "2024-02-27",
            "url_tdpse_detail": "https://pse.komdigi.go.id/tdpse-detail/18035",
            "website": "bearfishslots.com"
        },
        {
            "id": "9cb1ac7f-1363-4f4c-ace0-35863fb59307",
            "nama_pse": "CASIO COMPUTER CO., LTD.",
            "nama_se": "CLASSPAD.NET",
            "sektor": "Sektor Perdagangan",
            "tanggal_terbit": "2024-02-23",
            "url_tdpse_detail": "https://pse.komdigi.go.id/tdpse-detail/17939",
            "website": "classpad.net"
        },
        {
            "id": "9cb1ac7f-25d9-4b41-bc24-76f34bc3af02",
            "nama_pse": "PROXIMA BETA PTE. LIMITED",
            "nama_se": "GODDESS OF VICTORY: NIKKE",
            "sektor": "Sektor Teknologi Informasi dan Komunikasi",
            "tanggal_terbit": "2024-02-23",
            "url_tdpse_detail": "https://pse.komdigi.go.id/tdpse-detail/17950",
            "website": "play.google.com/store/apps/details?id=com.proximabeta.nikke"
        },
        {
            "id": "9cb1ac6b-2d71-4e35-861a-6eb39d9ded9e",
            "nama_pse": "PROXIMA BETA PTE. LIMITED",
            "nama_se": "COMMAND \u0026 CONQUER™: LEGIONS",
            "sektor": "Sektor Teknologi Informasi dan Komunikasi",
            "tanggal_terbit": "2024-02-23",
            "url_tdpse_detail": "https://pse.komdigi.go.id/tdpse-detail/17951",
            "website": "cnclegions.com"
        },
        {
            "id": "9cb1ac6b-3038-4945-8162-9c14c7e1da63",
            "nama_pse": "PROXIMA BETA PTE. LIMITED",
            "nama_se": "TARISLAND",
            "sektor": "Sektor Teknologi Informasi dan Komunikasi",
            "tanggal_terbit": "2024-02-23",
            "url_tdpse_detail": "https://pse.komdigi.go.id/tdpse-detail/17952",
            "website": "tarisglobal.com"
        },
        {
            "id": "9cb1ac7e-2f2d-4a0b-92b8-50528f501e7b",
            "nama_pse": "VNG SINGAPORE PTE., LTD.",
            "nama_se": "HELLO CAFE",
            "sektor": "Sektor Teknologi Informasi dan Komunikasi",
            "tanggal_terbit": "2024-02-19",
            "url_tdpse_detail": "https://pse.komdigi.go.id/tdpse-detail/17840",
            "website": "hellocafesea.vnggames.net"
        },
        {
            "id": "9cb1ac69-aac8-4122-a32d-e6fb5d6b9a2c",
            "nama_pse": "INFINITE RAINBOW",
            "nama_se": "SHANGRI-LA BOUTIQUE",
            "sektor": "Sektor Perdagangan",
            "tanggal_terbit": "2024-02-08",
            "url_tdpse_detail": "https://pse.komdigi.go.id/tdpse-detail/17713",
            "website": "boutique.shangri-la.com"
        },
        {
            "id": "9cb1ac7c-8197-4a45-86aa-b1e422f180c5",
            "nama_pse": "RASTAR GAMES (HK) CO., LIMITED",
            "nama_se": "MAPLESTORY R: EVOLUTION-ID",
            "sektor": "Sektor Teknologi Informasi dan Komunikasi",
            "tanggal_terbit": "2024-01-30",
            "url_tdpse_detail": "https://pse.komdigi.go.id/tdpse-detail/17579",
            "website": "msrsea.rastargames.com"
        },
        {
            "id": "9cb1ac54-9553-4142-b63c-b8bc2860a937",
            "nama_pse": "NEXON KOREA CORPORATION",
            "nama_se": "DAVE THE DIVER",
            "sektor": "Sektor Teknologi Informasi dan Komunikasi",
            "tanggal_terbit": "2024-01-29",
            "url_tdpse_detail": "https://pse.komdigi.go.id/tdpse-detail/17555",
            "website": "-"
        },
        {
            "id": "9cb1ac7c-57f5-4761-b05a-f916632ca382",
            "nama_pse": "NEXON KOREA CORPORATION",
            "nama_se": "GODSOME: CLASH OF GODS",
            "sektor": "Sektor Teknologi Informasi dan Komunikasi",
            "tanggal_terbit": "2024-01-29",
            "url_tdpse_detail": "https://pse.komdigi.go.id/tdpse-detail/17556",
            "website": "-"
        },
        {
            "id": "9cb1ac68-4e3c-417f-868f-08c37fe018aa",
            "nama_pse": "WORLDAPP",
            "nama_se": "FORM  OPX DATA COLLECTION PLATFORM",
            "sektor": "Sektor Teknologi Informasi dan Komunikasi",
            "tanggal_terbit": "2024-01-29",
            "url_tdpse_detail": "https://pse.komdigi.go.id/tdpse-detail/17563",
            "website": "form.com"
        },
        {
            "id": "9cb1ac54-758a-422f-b3fb-11c916868373",
            "nama_pse": "OCEAN EYES CO., LTD.",
            "nama_se": "FISHERSNAVI PRO",
            "sektor": "Sektor Teknologi Informasi dan Komunikasi",
            "tanggal_terbit": "2024-01-26",
            "url_tdpse_detail": "https://pse.komdigi.go.id/tdpse-detail/17530",
            "website": "oceaneyes.co.jp"
        },
        {
            "id": "9cb1ac67-c75b-458a-82eb-b22f3d67c71d",
            "nama_pse": "DOYU HONGKONG LIMITED",
            "nama_se": "NONOLIVE",
            "sektor": "Sektor Teknologi Informasi dan Komunikasi",
            "tanggal_terbit": "2024-01-24",
            "url_tdpse_detail": "https://pse.komdigi.go.id/tdpse-detail/17485",
            "website": "nonolive.com"
        },
        {
            "id": "9cb1ac7b-c0bc-4daf-be27-2cb05b6d1129",
            "nama_pse": "NEXON KOREA CORPORATION",
            "nama_se": "BLUE ARCHIVE",
            "sektor": "Sektor Teknologi Informasi dan Komunikasi",
            "tanggal_terbit": "2024-01-22",
            "url_tdpse_detail": "https://pse.komdigi.go.id/tdpse-detail/17437",
            "website": "-"
        },
        {
            "id": "9cb1ac54-0f4c-4eee-9c46-6fc603411c9b",
            "nama_pse": "NEXON KOREA CORPORATION",
            "nama_se": "MAPLESTORY M: FANTASY MMORPG",
            "sektor": "Sektor Teknologi Informasi dan Komunikasi",
            "tanggal_terbit": "2024-01-22",
            "url_tdpse_detail": "https://pse.komdigi.go.id/tdpse-detail/17438",
            "website": "-"
        },
        {
            "id": "9cb1ac67-7c7a-42ee-ae95-b0c0139201a9",
            "nama_pse": "NEXON KOREA CORPORATION",
            "nama_se": "V4",
            "sektor": "Sektor Teknologi Informasi dan Komunikasi",
            "tanggal_terbit": "2024-01-22",
            "url_tdpse_detail": "https://pse.komdigi.go.id/tdpse-detail/17441",
            "website": "-"
        },
        {
            "id": "9cb1ac67-7fb4-4393-8c91-9aceec477f58",
            "nama_pse": "NEXON KOREA CORPORATION",
            "nama_se": "GODZILLA DEFENSE FORCE",
            "sektor": "Sektor Teknologi Informasi dan Komunikasi",
            "tanggal_terbit": "2024-01-22",
            "url_tdpse_detail": "https://pse.komdigi.go.id/tdpse-detail/17442",
            "website": "-"
        },
        {
            "id": "9cb1ac67-8277-43dd-af25-8ac652026de6",
            "nama_pse": "NEXON KOREA CORPORATION",
            "nama_se": "COUNTER-STRIKE NEXON: STUDIO",
            "sektor": "Sektor Teknologi Informasi dan Komunikasi",
            "tanggal_terbit": "2024-01-22",
            "url_tdpse_detail": "https://pse.komdigi.go.id/tdpse-detail/17446",
            "website": "-"
        },
        {
            "id": "9cb1ac67-540b-4c45-a981-a6a968ea87f0",
            "nama_pse": "SALESFORCE.COM SINGAPORE PTE. LTD.",
            "nama_se": "SALESFORCE",
            "sektor": "Sektor Teknologi Informasi dan Komunikasi",
            "tanggal_terbit": "2024-01-20",
            "url_tdpse_detail": "https://pse.komdigi.go.id/tdpse-detail/17424",
            "website": "salesforce.com"
        },
        {
            "id": "9cb1ac53-efae-4deb-ac74-b3169451f3d9",
            "nama_pse": "NETFLIX PTE. LTD.",
            "nama_se": "NETFLIX",
            "sektor": "Sektor Perdagangan",
            "tanggal_terbit": "2024-01-19",
            "url_tdpse_detail": "https://pse.komdigi.go.id/tdpse-detail/17412",
            "website": "Netflix.com"
        },
        {
            "id": "9cb1ac7b-7367-417d-baf4-d883d66b0681",
            "nama_pse": "FLYWIRE (SINGAPORE) PTE. LTD.",
            "nama_se": "FLYWIRE",
            "sektor": "Sektor Keuangan",
            "tanggal_terbit": "2024-01-18",
            "url_tdpse_detail": "https://pse.komdigi.go.id/tdpse-detail/17385",
            "website": "flywire.com"
        },
        {
            "id": "9cb1ac53-2328-4f47-89dd-ad8271c8ced2",
            "nama_pse": "EXPTIONAL PTE LTD",
            "nama_se": "PROJECT OC",
            "sektor": "Sektor Teknologi Informasi dan Komunikasi",
            "tanggal_terbit": "2024-01-08",
            "url_tdpse_detail": "https://pse.komdigi.go.id/tdpse-detail/17271",
            "website": "-"
        },
        {
            "id": "9cb1ac66-84c2-4d8f-941d-3295fe55c356",
            "nama_pse": "TRUEXESS LTD",
            "nama_se": "TRUEXESS",
            "sektor": "Sektor Teknologi Informasi dan Komunikasi",
            "tanggal_terbit": "2024-01-07",
            "url_tdpse_detail": "https://pse.komdigi.go.id/tdpse-detail/17250",
            "website": "truexess.com"
        },
        {
            "id": "9cb1ac79-ecf3-4d15-bd3f-9430f7469549",
            "nama_pse": "VIVO MOBILE COMMUNICATION CO., LTD.",
            "nama_se": "I THEME",
            "sektor": "Sektor Teknologi Informasi dan Komunikasi",
            "tanggal_terbit": "2023-12-30",
            "url_tdpse_detail": "https://pse.komdigi.go.id/tdpse-detail/17119",
            "website": "-"
        },
        {
            "id": "9cb1ac52-7731-4cbe-ab0b-0e64b936c29a",
            "nama_pse": "VIVO MOBILE COMMUNICATION CO., LTD.",
            "nama_se": "V-APPSTORE",
            "sektor": "Sektor Teknologi Informasi dan Komunikasi",
            "tanggal_terbit": "2023-12-30",
            "url_tdpse_detail": "https://pse.komdigi.go.id/tdpse-detail/17120",
            "website": "-"
        },
        {
            "id": "9cb1ac79-c3d6-4907-bca1-884027a3fa63",
            "nama_pse": "ORIGIN INTEGRATED STUDIOS",
            "nama_se": "ELECTRONIC MEDICAL RECORD",
            "sektor": "Sektor Kesehatan",
            "tanggal_terbit": "2023-12-29",
            "url_tdpse_detail": "https://pse.komdigi.go.id/tdpse-detail/17097",
            "website": "originistudios.com"
        },
        {
            "id": "9cb1ac79-45ec-4b76-9984-382dc222386b",
            "nama_pse": "RIOT GAMES SERVICES PTE. LTD.",
            "nama_se": "TEAMFIGHT TACTICS MOBILE",
            "sektor": "Sektor Teknologi Informasi dan Komunikasi",
            "tanggal_terbit": "2023-12-21",
            "url_tdpse_detail": "https://pse.komdigi.go.id/tdpse-detail/16984",
            "website": "teamfighttactics.leagueoflegends.com"
        },
        {
            "id": "9cb1ac65-3cd6-4c3e-81d0-708371741583",
            "nama_pse": "Priday Co., Ltd.",
            "nama_se": "LUCUTOON",
            "sektor": "Sektor Teknologi Informasi dan Komunikasi",
            "tanggal_terbit": "2023-12-21",
            "url_tdpse_detail": "https://pse.komdigi.go.id/tdpse-detail/16990",
            "website": "lucutoon.id"
        },
        {
            "id": "9cb1ac78-a21b-45ee-a9f7-1d46d238524e",
            "nama_pse": "NEXON KOREA CORPORATION",
            "nama_se": "THE FINALS",
            "sektor": "Sektor Teknologi Informasi dan Komunikasi",
            "tanggal_terbit": "2023-12-15",
            "url_tdpse_detail": "https://pse.komdigi.go.id/tdpse-detail/16900",
            "website": "store.steampowered.com"
        }
    ],
    "processingTimeMs": 7,
    "query": "",
    "totalHits": 1139,
    "hitsPerPage": 50,
    "page": 9,
    "totalPages": 23
}