{
    "hits": [
        {
            "id": "9cb1ac49-12be-4afe-ae7e-48c3f44182fe",
            "nama_pse": "JAYA REAL PROPERTY",
            "nama_se": "APLIKASI MOBLE GRAHA RAYA",
            "sektor": "Sektor Perdagangan",
            "tanggal_terbit": "2023-08-15",
            "url_tdpse_detail": "https://pse.komdigi.go.id/tdpse-detail/15575",
            "website": "graharaya.com"
        },
        {
            "id": "9cb1ac26-f486-44d1-9e36-f6dc4e281816",
            "nama_pse": "AKTIF TRI JAYA",
            "nama_se": "FBS ACTIVEWEAR",
            "sektor": "Sektor Perdagangan",
            "tanggal_terbit": "2023-08-15",
            "url_tdpse_detail": "https://pse.komdigi.go.id/tdpse-detail/15576",
            "website": "fbsactivewear.com"
        },
        {
            "id": "9cb1ac38-bb90-458d-bc39-2554ea68d22a",
            "nama_pse": "MAJU LARIS BUGAR",
            "nama_se": "WEBSITE",
            "sektor": "Sektor Kesehatan",
            "tanggal_terbit": "2023-08-14",
            "url_tdpse_detail": "https://pse.komdigi.go.id/tdpse-detail/15557",
            "website": "steadfast.id"
        },
        {
            "id": "9cb1ac48-c2df-4924-a7f0-cd4fadc32286",
            "nama_pse": "RAJA MURAH PAYMENT",
            "nama_se": "RAJA MURAH PAYMENT",
            "sektor": "Sektor Teknologi Informasi dan Komunikasi",
            "tanggal_terbit": "2023-08-14",
            "url_tdpse_detail": "https://pse.komdigi.go.id/tdpse-detail/15550",
            "website": "id.rajamurahppob.id"
        },
        {
            "id": "9cb1ac48-ce75-4de8-976d-2159ee14141b",
            "nama_pse": "MEDIA CLOUD INDONESIA",
            "nama_se": "PT MEDIA CLOUD INDONESIA",
            "sektor": "Sektor Teknologi Informasi dan Komunikasi",
            "tanggal_terbit": "2023-08-14",
            "url_tdpse_detail": "https://pse.komdigi.go.id/tdpse-detail/15554",
            "website": "mediacloud.id"
        },
        {
            "id": "9cb1ac26-c289-4ffc-ba05-1992bc1aa884",
            "nama_pse": "LOGILINK GLOBAL UTAMA",
            "nama_se": "LOGILINK",
            "sektor": "Sektor Transportasi",
            "tanggal_terbit": "2023-08-14",
            "url_tdpse_detail": "https://pse.komdigi.go.id/tdpse-detail/15548",
            "website": "logilink.id"
        },
        {
            "id": "9cb1ac48-e3cc-49c2-bf7f-f919a999f013",
            "nama_pse": "RS MUHAMMADIYAH KALITIDU",
            "nama_se": "SIMRS KHANZA RSMKALITIDU",
            "sektor": "Sektor Kesehatan, Sektor Teknologi Informasi dan Komunikasi",
            "tanggal_terbit": "2023-08-14",
            "url_tdpse_detail": "https://pse.komdigi.go.id/tdpse-detail/15551",
            "website": "-"
        },
        {
            "id": "9cb1ac26-cf6b-4a4a-a2f6-e3f0a764fc91",
            "nama_pse": "RUMAH SAKIT UNIVERSITAS AIRLANGGA",
            "nama_se": "SIMRS UNAIR",
            "sektor": "Sektor Kesehatan",
            "tanggal_terbit": "2023-08-14",
            "url_tdpse_detail": "https://pse.komdigi.go.id/tdpse-detail/15552",
            "website": "sim-rs.unair.ac.id"
        },
        {
            "id": "9cb1ac39-3a69-4a90-a113-4aaadba281b1",
            "nama_pse": "KRIPTO INOVASI NUSANTARA",
            "nama_se": "COINXC",
            "sektor": "Sektor Perdagangan",
            "tanggal_terbit": "2023-08-14",
            "url_tdpse_detail": "https://pse.komdigi.go.id/tdpse-detail/15555",
            "website": "-"
        },
        {
            "id": "9cb1ac39-3d81-4d7b-9a06-ecb914898cd0",
            "nama_pse": "KERETA API PARIWISATA",
            "nama_se": "APLIKASI EPORTER",
            "sektor": "Sektor Transportasi",
            "tanggal_terbit": "2023-08-14",
            "url_tdpse_detail": "https://pse.komdigi.go.id/tdpse-detail/15553",
            "website": "kaiwisata.id"
        },
        {
            "id": "9cb1ac48-e6a3-4827-864e-a5132081970e",
            "nama_pse": "MERDEKA MEREK INDONESIA",
            "nama_se": "HMBL",
            "sektor": "Sektor Perdagangan",
            "tanggal_terbit": "2023-08-14",
            "url_tdpse_detail": "https://pse.komdigi.go.id/tdpse-detail/15556",
            "website": "hmbl.id"
        },
        {
            "id": "9cb1ac39-4ead-4a5d-bb55-45cf17831bf7",
            "nama_pse": "NITRASANATA DHARMA",
            "nama_se": "SEDNA",
            "sektor": "Sektor Kesehatan",
            "tanggal_terbit": "2023-08-14",
            "url_tdpse_detail": "https://pse.komdigi.go.id/tdpse-detail/15559",
            "website": "-"
        },
        {
            "id": "9cb1ac48-dd84-4a4e-8a81-e583b35a812b",
            "nama_pse": "AGUNG ISMAIL",
            "nama_se": "PARTNER PROMO INDONESIA",
            "sektor": "Sektor Perdagangan, Sektor Teknologi Informasi dan Komunikasi",
            "tanggal_terbit": "2023-08-13",
            "url_tdpse_detail": "https://pse.komdigi.go.id/tdpse-detail/15546",
            "website": "partnerpromo.id"
        },
        {
            "id": "9cb1ac39-35e7-46e1-be19-049ba7a28d2c",
            "nama_pse": "ARKE GLOBAL REKAYASA NUSANTARA",
            "nama_se": "ARKE GLORUS",
            "sektor": "Sektor Teknologi Informasi dan Komunikasi",
            "tanggal_terbit": "2023-08-13",
            "url_tdpse_detail": "https://pse.komdigi.go.id/tdpse-detail/15547",
            "website": "arkeglorus.com"
        },
        {
            "id": "9cb1ac48-d9fc-4d6a-afb5-f39a0948ab1f",
            "nama_pse": "FINSKOR TEKNOLOGI INDONESIA",
            "nama_se": "FINSKOR",
            "sektor": "Sektor Teknologi Informasi dan Komunikasi",
            "tanggal_terbit": "2023-08-12",
            "url_tdpse_detail": "https://pse.komdigi.go.id/tdpse-detail/15545",
            "website": "finskor.com"
        },
        {
            "id": "9cb1ac36-0d85-4dd6-8d16-b78378d1a1d9",
            "nama_pse": "WIDIA KARYA GLOBAL",
            "nama_se": "ISO CLINIC",
            "sektor": "Sektor Kesehatan",
            "tanggal_terbit": "2023-08-11",
            "url_tdpse_detail": "https://pse.komdigi.go.id/tdpse-detail/15530",
            "website": "iso-clinic.com"
        },
        {
            "id": "9cb1ac38-06c0-4486-bfb6-8de9e5d2f382",
            "nama_pse": "YAYASAN RUMAH SAKIT BAPTIS INDONESIA",
            "nama_se": "SIMRS BAPTIS KEDIRI",
            "sektor": "Sektor Kesehatan",
            "tanggal_terbit": "2023-08-11",
            "url_tdpse_detail": "https://pse.komdigi.go.id/tdpse-detail/15531",
            "website": "rsbaptiskdr.id"
        },
        {
            "id": "9cb1ac48-a56c-49ae-9d0e-e31802b69d3e",
            "nama_pse": "ALMA INDONESIA RAYA",
            "nama_se": "ALMAI",
            "sektor": "Sektor Perdagangan, Sektor Teknologi Informasi dan Komunikasi",
            "tanggal_terbit": "2023-08-11",
            "url_tdpse_detail": "https://pse.komdigi.go.id/tdpse-detail/15538",
            "website": "almai.id"
        },
        {
            "id": "9cb1ac48-a822-4445-a3eb-26088d66ed1e",
            "nama_pse": "COTTI COFFEE INDONESIA",
            "nama_se": "COTTI COFFEE",
            "sektor": "Sektor Perdagangan, Sektor Teknologi Informasi dan Komunikasi",
            "tanggal_terbit": "2023-08-11",
            "url_tdpse_detail": "https://pse.komdigi.go.id/tdpse-detail/15534",
            "website": "cotticoffee.com"
        },
        {
            "id": "9cb1ac26-8e4a-4416-8b11-ad16758166e9",
            "nama_pse": "ADIKARA SENTOSA",
            "nama_se": "SMART CLINIC \u0026 HOSPITAL",
            "sektor": "Sektor Kesehatan",
            "tanggal_terbit": "2023-08-11",
            "url_tdpse_detail": "https://pse.komdigi.go.id/tdpse-detail/15529",
            "website": "-"
        },
        {
            "id": "9cb1ac48-bc68-4532-8cc4-166e88b5ac3d",
            "nama_pse": "RUMAH SAKIT PKU MUHAMMADIYAH SURAKARTA",
            "nama_se": "SIMRS PKU SOLO",
            "sektor": "Sektor Kesehatan",
            "tanggal_terbit": "2023-08-11",
            "url_tdpse_detail": "https://pse.komdigi.go.id/tdpse-detail/15532",
            "website": "rspkusolo.com"
        },
        {
            "id": "9cb1ac48-bf34-4617-89e4-98b1a0211b5d",
            "nama_pse": "MEGAKARYA TEKNOLOGI NUSANTARA",
            "nama_se": "SLIMS (SOLUTION LABORATORY INFORMATION MANAGEMENT SYSTEM)",
            "sektor": "Sektor Kesehatan, Sektor Teknologi Informasi dan Komunikasi",
            "tanggal_terbit": "2023-08-11",
            "url_tdpse_detail": "https://pse.komdigi.go.id/tdpse-detail/15533",
            "website": "-"
        },
        {
            "id": "9cb1ac26-9a8e-4acd-b224-161bf101c90b",
            "nama_pse": "RSU PKU MUHAMMADIYAH BANTUL",
            "nama_se": "SIM SURYA DIGITAL",
            "sektor": "Sektor Kesehatan",
            "tanggal_terbit": "2023-08-11",
            "url_tdpse_detail": "https://pse.komdigi.go.id/tdpse-detail/15535",
            "website": "pkubantul.com"
        },
        {
            "id": "9cb1ac39-2030-48f1-b2bd-99cf265cda12",
            "nama_pse": "CAHAYA RIZ GROUP",
            "nama_se": "SAHABAT LEGALITAS",
            "sektor": "Sektor Teknologi Informasi dan Komunikasi",
            "tanggal_terbit": "2023-08-11",
            "url_tdpse_detail": "https://pse.komdigi.go.id/tdpse-detail/15536",
            "website": "sahabatlegalitas.com"
        },
        {
            "id": "9cb1ac39-2338-40aa-ac52-23599d684b00",
            "nama_pse": "BOXCOMMERCE SOFTWARE DISTRIBUTION",
            "nama_se": "BOXCOMMERCE",
            "sektor": "Sektor Perdagangan, Sektor Teknologi Informasi dan Komunikasi",
            "tanggal_terbit": "2023-08-11",
            "url_tdpse_detail": "https://pse.komdigi.go.id/tdpse-detail/15537",
            "website": "boxcommerce.com"
        },
        {
            "id": "9cb1ac48-ca23-46ce-acf4-5c599d41e8b7",
            "nama_pse": "INFO MEDIA DIGITAL",
            "nama_se": "TEMPO.CO",
            "sektor": "Sektor Teknologi Informasi dan Komunikasi",
            "tanggal_terbit": "2023-08-11",
            "url_tdpse_detail": "https://pse.komdigi.go.id/tdpse-detail/15542",
            "website": "tempo.co"
        },
        {
            "id": "9cb1ac39-26cb-4907-b91d-0d9fcfef9238",
            "nama_pse": "VIERTU CORP INDONESIA",
            "nama_se": "MITRA IZIN",
            "sektor": "Sektor Teknologi Informasi dan Komunikasi",
            "tanggal_terbit": "2023-08-11",
            "url_tdpse_detail": "https://pse.komdigi.go.id/tdpse-detail/15540",
            "website": "mitraizin.co.id"
        },
        {
            "id": "9cb1ac39-2b2e-46cd-9c50-22f50f5f796d",
            "nama_pse": "OZORA CIPTA SOLUSI",
            "nama_se": "SIMEDIS",
            "sektor": "Sektor Kesehatan, Sektor Teknologi Informasi dan Komunikasi",
            "tanggal_terbit": "2023-08-11",
            "url_tdpse_detail": "https://pse.komdigi.go.id/tdpse-detail/15539",
            "website": "simedis.id"
        },
        {
            "id": "9cb1ac26-af72-40c5-8de4-f6134f81210a",
            "nama_pse": "BINARA GUNA MEDIKTAMA",
            "nama_se": "RSPI DIGITAL",
            "sektor": "Sektor Kesehatan",
            "tanggal_terbit": "2023-08-11",
            "url_tdpse_detail": "https://pse.komdigi.go.id/tdpse-detail/15541",
            "website": "rspondokindah.co.id"
        },
        {
            "id": "9cb1ac26-bb65-4435-a3d2-3c61097debbf",
            "nama_pse": "DIGITAL DATA SOLUTION",
            "nama_se": "SIK ONLINE",
            "sektor": "Sektor Kesehatan",
            "tanggal_terbit": "2023-08-11",
            "url_tdpse_detail": "https://pse.komdigi.go.id/tdpse-detail/15543",
            "website": "-"
        },
        {
            "id": "9cb1ac39-3124-4cfc-846b-154fa8e42c06",
            "nama_pse": "MEDIA GATRA DAILY",
            "nama_se": "HARIANPUBLIK.NEWS",
            "sektor": "Sektor Teknologi Informasi dan Komunikasi",
            "tanggal_terbit": "2023-08-11",
            "url_tdpse_detail": "https://pse.komdigi.go.id/tdpse-detail/15544",
            "website": "Harianpublik.news"
        },
        {
            "id": "9cb1ac26-21c9-4a24-ba90-cc9683b3908f",
            "nama_pse": "MATAHARI GRAHA FANTASI",
            "nama_se": "TIMEZONE PLAY 'N' LEARN WEBSITE",
            "sektor": "Sektor Teknologi Informasi dan Komunikasi",
            "tanggal_terbit": "2023-08-10",
            "url_tdpse_detail": "https://pse.komdigi.go.id/tdpse-detail/15523",
            "website": "timezoneplaynlearn.com"
        },
        {
            "id": "9cb1ac48-9255-43bb-a152-c50329a8f4f5",
            "nama_pse": "PURWADHIKA KIRANA NUSANTARA",
            "nama_se": "PURWADHIKA.COM",
            "sektor": "Sektor Perdagangan, Sektor Teknologi Informasi dan Komunikasi",
            "tanggal_terbit": "2023-08-10",
            "url_tdpse_detail": "https://pse.komdigi.go.id/tdpse-detail/15520",
            "website": "purwadhika.com"
        },
        {
            "id": "9cb1ac48-98bc-4cec-bbe5-65444755c78a",
            "nama_pse": "META DIGITAL INDONESIA INC",
            "nama_se": "MEADS",
            "sektor": "Sektor Perdagangan",
            "tanggal_terbit": "2023-08-10",
            "url_tdpse_detail": "https://pse.komdigi.go.id/tdpse-detail/15515",
            "website": "meads.id"
        },
        {
            "id": "9cb1ac39-0837-4954-b20c-b8142917fceb",
            "nama_pse": "REINHART PREVIANO KOENTJORO",
            "nama_se": "PSEDB",
            "sektor": "Sektor Teknologi Informasi dan Komunikasi",
            "tanggal_terbit": "2023-08-10",
            "url_tdpse_detail": "https://pse.komdigi.go.id/tdpse-detail/15516",
            "website": "psedb.reinhart1010.id"
        },
        {
            "id": "9cb1ac48-9f03-4af5-898e-a1a451b311fe",
            "nama_pse": "WYBERT",
            "nama_se": "ENTERPRISECORP.ID",
            "sektor": "Sektor Perdagangan, Sektor Kesehatan, Sektor Teknologi Informasi dan Komunikasi",
            "tanggal_terbit": "2023-08-10",
            "url_tdpse_detail": "https://pse.komdigi.go.id/tdpse-detail/15517",
            "website": "-"
        },
        {
            "id": "9cb1ac39-0de0-4f18-8ca9-a8ccefb2f374",
            "nama_pse": "TASSINDO DIGITAL TRANS",
            "nama_se": "CYBERJEK",
            "sektor": "Sektor Teknologi Informasi dan Komunikasi",
            "tanggal_terbit": "2023-08-10",
            "url_tdpse_detail": "https://pse.komdigi.go.id/tdpse-detail/15518",
            "website": "-"
        },
        {
            "id": "9cb1ac48-a270-4686-8661-7e660c220750",
            "nama_pse": "VUCLIP DIGITAL INDONESIA",
            "nama_se": "GAMEVOUCHER.VIU.COM",
            "sektor": "Sektor Perdagangan",
            "tanggal_terbit": "2023-08-10",
            "url_tdpse_detail": "https://pse.komdigi.go.id/tdpse-detail/15519",
            "website": "gamevoucher.viu.com"
        },
        {
            "id": "9cb1ac39-1134-4d1e-b190-54812a5619a8",
            "nama_pse": "CAHAYA RIZKI SAHABAT ANREG",
            "nama_se": "TRIPLEAL",
            "sektor": "Sektor Perdagangan, Sektor Teknologi Informasi dan Komunikasi",
            "tanggal_terbit": "2023-08-10",
            "url_tdpse_detail": "https://pse.komdigi.go.id/tdpse-detail/15521",
            "website": "tripleal.com"
        },
        {
            "id": "9cb1ac26-9176-49f6-913a-8f33754f4e25",
            "nama_pse": "CAHAYA RARIYOSYA GRUP",
            "nama_se": "RUMAH LEGALITAS",
            "sektor": "Sektor Teknologi Informasi dan Komunikasi",
            "tanggal_terbit": "2023-08-10",
            "url_tdpse_detail": "https://pse.komdigi.go.id/tdpse-detail/15522",
            "website": "rumahlegalitas.com"
        },
        {
            "id": "9cb1ac39-1703-4555-aead-1ac15c038747",
            "nama_pse": "SEJAHTERA BERSAMA NANO",
            "nama_se": "NANO FINANCE",
            "sektor": "Sektor Perdagangan, Sektor Teknologi Informasi dan Komunikasi",
            "tanggal_terbit": "2023-08-10",
            "url_tdpse_detail": "https://pse.komdigi.go.id/tdpse-detail/15524",
            "website": "nanonano.finance"
        },
        {
            "id": "9cb1ac39-1a5f-4f39-a97f-15d6bdfa3ac6",
            "nama_pse": "DENY ULKHAQ",
            "nama_se": "PR LENTERA TERANG JAYA",
            "sektor": "Sektor Perdagangan",
            "tanggal_terbit": "2023-08-10",
            "url_tdpse_detail": "https://pse.komdigi.go.id/tdpse-detail/15525",
            "website": "rokoklenteraterangjaya.com"
        },
        {
            "id": "9cb1ac48-b13d-4b44-8d7b-d4e5c3c78173",
            "nama_pse": "CAHAYA RARIYOSYA GRUP",
            "nama_se": "MITRA LEGALITAS",
            "sektor": "Sektor Teknologi Informasi dan Komunikasi",
            "tanggal_terbit": "2023-08-10",
            "url_tdpse_detail": "https://pse.komdigi.go.id/tdpse-detail/15526",
            "website": "mitralegalitas.com"
        },
        {
            "id": "9cb1ac26-96fb-488b-8b20-bf019d33239c",
            "nama_pse": "OSTOCK PROFITAMA INDONESIA",
            "nama_se": "OSTOCK.ID",
            "sektor": "Sektor Perdagangan",
            "tanggal_terbit": "2023-08-10",
            "url_tdpse_detail": "https://pse.komdigi.go.id/tdpse-detail/15527",
            "website": "Ostock.id"
        },
        {
            "id": "9cb1ac48-b49d-4253-9ed5-1510c54eaa1b",
            "nama_pse": "SYAHRUL PURNAMA",
            "nama_se": "SYAHRUL DIGITAL",
            "sektor": "Sektor Perdagangan",
            "tanggal_terbit": "2023-08-10",
            "url_tdpse_detail": "https://pse.komdigi.go.id/tdpse-detail/15528",
            "website": "-"
        },
        {
            "id": "9cb1ac34-d612-4c89-a8e2-8bc13ceab776",
            "nama_pse": "RUMAH SAKIT UMUM DAERAH SULTAN FATAH KABUPATEN DEMAK",
            "nama_se": "SISTEM INFORMASI MANAJEMEN RUMAH SAKIT ( SIMRS ) RSUD SULTAN FATAH",
            "sektor": "Sektor Kesehatan, Sektor Teknologi Informasi dan Komunikasi",
            "tanggal_terbit": "2023-08-09",
            "url_tdpse_detail": "https://pse.komdigi.go.id/tdpse-detail/15506",
            "website": "-"
        },
        {
            "id": "9cb1ac48-68d4-4776-9591-d350509fdabb",
            "nama_pse": "HALLO INDONESIA TEKNOLOGI",
            "nama_se": "IPUSPLUS",
            "sektor": "Sektor Kesehatan",
            "tanggal_terbit": "2023-08-09",
            "url_tdpse_detail": "https://pse.komdigi.go.id/tdpse-detail/15508",
            "website": "halloindonesiateknologi.co.id"
        },
        {
            "id": "9cb1ac38-c194-4de8-8ad5-075971b767c5",
            "nama_pse": "INTERNATIONAL BUSINESS FUTURES",
            "nama_se": "IBF TRADER",
            "sektor": "Sektor Keuangan",
            "tanggal_terbit": "2023-08-09",
            "url_tdpse_detail": "https://pse.komdigi.go.id/tdpse-detail/15500",
            "website": "ibftrader.com"
        },
        {
            "id": "9cb1ac48-7cd6-41ad-8a38-9f24faceebe7",
            "nama_pse": "TEKNOLOGI PERDAGANGAN LILASIA",
            "nama_se": "LILASIA",
            "sektor": "Sektor Perdagangan",
            "tanggal_terbit": "2023-08-09",
            "url_tdpse_detail": "https://pse.komdigi.go.id/tdpse-detail/15510",
            "website": "lilasia.id"
        },
        {
            "id": "9cb1ac38-c6f9-4c9e-a0ac-0c6f5cae0dc7",
            "nama_pse": "PRIMA SOLUSI HEXA",
            "nama_se": "PRIMA CARE",
            "sektor": "Sektor Kesehatan",
            "tanggal_terbit": "2023-08-09",
            "url_tdpse_detail": "https://pse.komdigi.go.id/tdpse-detail/15492",
            "website": "-"
        }
    ],
    "processingTimeMs": 2,
    "query": "",
    "totalHits": 19131,
    "hitsPerPage": 50,
    "page": 127,
    "totalPages": 383
}