{
    "hits": [
        {
            "id": "9cb1abaa-833b-44dc-a8cd-4023c0f7d826",
            "nama_pse": "CPULSA PAY TEKNOLOGI",
            "nama_se": "CPULSA",
            "sektor": "Sektor Perdagangan, Sektor Perdagangan",
            "tanggal_terbit": "2022-03-26",
            "url_tdpse_detail": "https://pse.komdigi.go.id/tdpse-detail/3660",
            "website": "cpulsa.id"
        },
        {
            "id": "9cb1aba0-2046-499c-ae57-78cd8314a773",
            "nama_pse": "MULTI MANDIRI CENTER",
            "nama_se": "CRABB",
            "sektor": "Sektor Perdagangan, Sektor Perdagangan, Sektor Keuangan, Sektor Keuangan, Sektor Teknologi Informasi dan Komunikasi, Sektor Teknologi Informasi dan Komunikasi",
            "tanggal_terbit": "2022-03-26",
            "url_tdpse_detail": "https://pse.komdigi.go.id/tdpse-detail/3662",
            "website": "-"
        },
        {
            "id": "9cb1ab93-4873-4e5a-b476-887be2a3a245",
            "nama_pse": "BUSAM BUBUHAN SAMARINDA",
            "nama_se": "BUSAM BUBUHAN SAMARINDA #BUSAMKUNING",
            "sektor": "Sektor Perdagangan, Sektor Perdagangan, Sektor Keuangan, Sektor Keuangan, Sektor Teknologi Informasi dan Komunikasi, Sektor Teknologi Informasi dan Komunikasi",
            "tanggal_terbit": "2022-03-26",
            "url_tdpse_detail": "https://pse.komdigi.go.id/tdpse-detail/3656",
            "website": "-"
        },
        {
            "id": "9cb1aba9-e245-4c45-86c7-bdf2397ebf11",
            "nama_pse": "ASURANSI TUGU PRATAMA INDONESIA",
            "nama_se": "T DRIVE MOBILE APPLICATION",
            "sektor": "Sektor Keuangan, Sektor Keuangan, Sektor Keuangan",
            "tanggal_terbit": "2022-03-25",
            "url_tdpse_detail": "https://pse.komdigi.go.id/tdpse-detail/3654",
            "website": "tugudrive.com"
        },
        {
            "id": "9cb1ab92-df38-458b-8bf9-9345dc6e2c66",
            "nama_pse": "LINGKAR TAQWA VISION",
            "nama_se": "LINGKAR TV",
            "sektor": "Sektor Teknologi Informasi dan Komunikasi, Sektor Teknologi Informasi dan Komunikasi",
            "tanggal_terbit": "2022-03-25",
            "url_tdpse_detail": "https://pse.komdigi.go.id/tdpse-detail/3653",
            "website": "lingkartv.com"
        },
        {
            "id": "9cb1aba0-0e2e-4433-b03c-3e06d728209c",
            "nama_pse": "PERINTIS SEMPURNA BERSAMA",
            "nama_se": "WARESPAZE",
            "sektor": "Sektor Perdagangan, Sektor Perdagangan, Sektor Perdagangan, Sektor Teknologi Informasi dan Komunikasi, Sektor Teknologi Informasi dan Komunikasi, Sektor Teknologi Informasi dan Komunikasi",
            "tanggal_terbit": "2022-03-25",
            "url_tdpse_detail": "https://pse.komdigi.go.id/tdpse-detail/3650",
            "website": "warespaze.com"
        },
        {
            "id": "9cb1abaa-8fd6-4a44-89cb-afc8abc481fe",
            "nama_pse": "DHP DIGITAL TEKNOLOGI",
            "nama_se": "DHP DIGITAL",
            "sektor": "Sektor Teknologi Informasi dan Komunikasi, Sektor Teknologi Informasi dan Komunikasi",
            "tanggal_terbit": "2022-03-25",
            "url_tdpse_detail": "https://pse.komdigi.go.id/tdpse-detail/3651",
            "website": "dhp.co.id"
        },
        {
            "id": "9cb1abaa-958d-4d7b-8413-fb931ab8ac63",
            "nama_pse": "JELAP KARYA INDONESIA",
            "nama_se": "JELAP",
            "sektor": "Sektor Perdagangan, Sektor Perdagangan, Sektor Transportasi, Sektor Transportasi, Sektor Keuangan, Sektor Keuangan, Sektor Teknologi Informasi dan Komunikasi, Sektor Teknologi Informasi dan Komunikasi",
            "tanggal_terbit": "2022-03-25",
            "url_tdpse_detail": "https://pse.komdigi.go.id/tdpse-detail/3646",
            "website": "-"
        },
        {
            "id": "9cb1ab93-1eec-4e54-81d3-e422800d0694",
            "nama_pse": "ICE MESSENGER INDONESIA",
            "nama_se": "INDOCHAT OFFICIAL",
            "sektor": "Sektor Teknologi Informasi dan Komunikasi, Sektor Teknologi Informasi dan Komunikasi",
            "tanggal_terbit": "2022-03-25",
            "url_tdpse_detail": "https://pse.komdigi.go.id/tdpse-detail/3652",
            "website": "indochat.co.id"
        },
        {
            "id": "9cb1ab93-2e6f-4a79-a4d0-86cb51e728cd",
            "nama_pse": "AIDAN CONSULTANCY SERVICES",
            "nama_se": "ACS SOFT",
            "sektor": "Sektor Teknologi Informasi dan Komunikasi, Sektor Teknologi Informasi dan Komunikasi, Sektor Teknologi Informasi dan Komunikasi",
            "tanggal_terbit": "2022-03-25",
            "url_tdpse_detail": "https://pse.komdigi.go.id/tdpse-detail/3647",
            "website": "sipuhh.phpl.menlhk.go.id"
        },
        {
            "id": "9cb1ab93-344f-4c88-bb57-7f4c89aafb07",
            "nama_pse": "AIDAN CONSULTANCY SERVICES",
            "nama_se": "ACS ONLINE",
            "sektor": "Sektor Teknologi Informasi dan Komunikasi, Sektor Teknologi Informasi dan Komunikasi, Sektor Teknologi Informasi dan Komunikasi",
            "tanggal_terbit": "2022-03-25",
            "url_tdpse_detail": "https://pse.komdigi.go.id/tdpse-detail/3648",
            "website": "aidancs.id"
        },
        {
            "id": "9cb1ab93-455c-4ed8-917b-7c73f051cdfc",
            "nama_pse": "BUSAM BUBUHAN SAMARINDA",
            "nama_se": "BUSAM BUBUHAN SAMARINDA",
            "sektor": "Sektor Perdagangan, Sektor Perdagangan, Sektor Keuangan, Sektor Keuangan",
            "tanggal_terbit": "2022-03-25",
            "url_tdpse_detail": "https://pse.komdigi.go.id/tdpse-detail/3649",
            "website": "-"
        },
        {
            "id": "9cb1ab92-ca33-4722-a328-5a8de0768051",
            "nama_pse": "STARS OFFICIAL",
            "nama_se": "STARS OFFICIAL",
            "sektor": "Sektor Perdagangan, Sektor Perdagangan, Sektor Transportasi, Sektor Transportasi, Sektor Teknologi Informasi dan Komunikasi, Sektor Teknologi Informasi dan Komunikasi",
            "tanggal_terbit": "2022-03-24",
            "url_tdpse_detail": "https://pse.komdigi.go.id/tdpse-detail/3631",
            "website": "-"
        },
        {
            "id": "9cb1ab92-d1e1-4b2f-afdb-19ad5a8aa1bd",
            "nama_pse": "GOSYEN SOLUSI INDONESIA",
            "nama_se": "GSI",
            "sektor": "Sektor Perdagangan, Sektor Perdagangan",
            "tanggal_terbit": "2022-03-24",
            "url_tdpse_detail": "https://pse.komdigi.go.id/tdpse-detail/3639",
            "website": "gsicctv.co.id"
        },
        {
            "id": "9cb1abaa-6f9c-4be4-adcc-9345d6596f42",
            "nama_pse": "PRAWEDA SARANA INFORMATIKA",
            "nama_se": "SAMUDERA INDONESIA LOGISTICS SYSTEMS (SILOGS)",
            "sektor": "Sektor Perdagangan, Sektor Perdagangan",
            "tanggal_terbit": "2022-03-24",
            "url_tdpse_detail": "https://pse.komdigi.go.id/tdpse-detail/3641",
            "website": "silkargo.silogs.samudera.id"
        },
        {
            "id": "9cb1aba0-0779-4bfe-a79e-54d677eb21b5",
            "nama_pse": "KAWANIAGA GEMILANG SYARIAH",
            "nama_se": "NTBMALL.COM",
            "sektor": "Sektor Perdagangan, Sektor Perdagangan, Sektor Teknologi Informasi dan Komunikasi, Sektor Teknologi Informasi dan Komunikasi",
            "tanggal_terbit": "2022-03-24",
            "url_tdpse_detail": "https://pse.komdigi.go.id/tdpse-detail/3632",
            "website": "ntbmall.com/"
        },
        {
            "id": "9cb1abaa-80fe-4030-9be0-567357bac13a",
            "nama_pse": "DESMAN HARIANTO",
            "nama_se": "DHP",
            "sektor": "Sektor Teknologi Informasi dan Komunikasi, Sektor Teknologi Informasi dan Komunikasi",
            "tanggal_terbit": "2022-03-24",
            "url_tdpse_detail": "https://pse.komdigi.go.id/tdpse-detail/3633",
            "website": "dhp.co.id"
        },
        {
            "id": "9cb1ab92-f945-4f0c-8783-b816f16edbee",
            "nama_pse": "DHP DIGITAL TEKNOLOGI",
            "nama_se": "DHP",
            "sektor": "Sektor Teknologi Informasi dan Komunikasi, Sektor Teknologi Informasi dan Komunikasi",
            "tanggal_terbit": "2022-03-24",
            "url_tdpse_detail": "https://pse.komdigi.go.id/tdpse-detail/3634",
            "website": "dhp.co.id"
        },
        {
            "id": "9cb1aba0-1de4-4f56-82f3-e2f903c84183",
            "nama_pse": "SAHABAT MEDIA GROUP",
            "nama_se": "KABARJATIM.ID",
            "sektor": "Sektor Teknologi Informasi dan Komunikasi, Sektor Teknologi Informasi dan Komunikasi",
            "tanggal_terbit": "2022-03-24",
            "url_tdpse_detail": "https://pse.komdigi.go.id/tdpse-detail/3638",
            "website": "Kabarjatim.id"
        },
        {
            "id": "9cb1ab93-0688-4237-910e-cbd046e6356d",
            "nama_pse": "PROSA SOLUSI CERDAS",
            "nama_se": "SALYNS",
            "sektor": "Sektor Perdagangan, Sektor Perdagangan, Sektor Energi dan Sumber Daya Mineral, Sektor Energi dan Sumber Daya Mineral, Sektor Transportasi, Sektor Transportasi, Sektor Keuangan, Sektor Keuangan, Sektor Kesehatan, Sektor Kesehatan, Sektor Teknologi Informasi dan Komunikasi, Sektor Teknologi Informasi dan Komunikasi, Sektor Pertahanan dan Keamanan, Sektor Pertahanan dan Keamanan",
            "tanggal_terbit": "2022-03-24",
            "url_tdpse_detail": "https://pse.komdigi.go.id/tdpse-detail/3637",
            "website": "prosa.ai"
        },
        {
            "id": "9cb1abaa-ae5b-4dde-bd79-f7f92007bba9",
            "nama_pse": "PROSA SOLUSI CERDAS",
            "nama_se": "PROSA - TEXT TO SPEECH",
            "sektor": "Sektor Transportasi, Sektor Transportasi, Sektor Keuangan, Sektor Keuangan, Sektor Teknologi Informasi dan Komunikasi, Sektor Teknologi Informasi dan Komunikasi",
            "tanggal_terbit": "2022-03-24",
            "url_tdpse_detail": "https://pse.komdigi.go.id/tdpse-detail/3642",
            "website": "prosa.ai"
        },
        {
            "id": "9cb1ab93-08c3-4025-856e-7aa24c042347",
            "nama_pse": "PROSA SOLUSI CERDAS",
            "nama_se": "PROSA - NLP API",
            "sektor": "Sektor Perdagangan, Sektor Perdagangan, Sektor Keuangan, Sektor Keuangan, Sektor Teknologi Informasi dan Komunikasi, Sektor Teknologi Informasi dan Komunikasi, Sektor Pertahanan dan Keamanan, Sektor Pertahanan dan Keamanan",
            "tanggal_terbit": "2022-03-24",
            "url_tdpse_detail": "https://pse.komdigi.go.id/tdpse-detail/3643",
            "website": "prosa.ai"
        },
        {
            "id": "9cb1aba0-2846-43f6-9e18-e51944c17438",
            "nama_pse": "PROSA SOLUSI CERDAS",
            "nama_se": "PROSA - VOICE ID API",
            "sektor": "Sektor Energi dan Sumber Daya Mineral, Sektor Energi dan Sumber Daya Mineral, Sektor Transportasi, Sektor Transportasi, Sektor Keuangan, Sektor Keuangan, Sektor Kesehatan, Sektor Kesehatan, Sektor Teknologi Informasi dan Komunikasi, Sektor Teknologi Informasi dan Komunikasi, Sektor Pertahanan dan Keamanan, Sektor Pertahanan dan Keamanan",
            "tanggal_terbit": "2022-03-24",
            "url_tdpse_detail": "https://pse.komdigi.go.id/tdpse-detail/3644",
            "website": "console.prosa.ai"
        },
        {
            "id": "9cb1ab93-0f60-4c4d-9cdb-67767266ea03",
            "nama_pse": "PROSA SOLUSI CERDAS",
            "nama_se": "PROSA - SPEECH API",
            "sektor": "Sektor Perdagangan, Sektor Perdagangan, Sektor Transportasi, Sektor Transportasi, Sektor Keuangan, Sektor Keuangan, Sektor Kesehatan, Sektor Kesehatan, Sektor Teknologi Informasi dan Komunikasi, Sektor Teknologi Informasi dan Komunikasi, Sektor Pertahanan dan Keamanan, Sektor Pertahanan dan Keamanan",
            "tanggal_terbit": "2022-03-24",
            "url_tdpse_detail": "https://pse.komdigi.go.id/tdpse-detail/3645",
            "website": "console.prosa.ai"
        },
        {
            "id": "9cb1ab93-41f0-441f-8a99-1fd579935cb1",
            "nama_pse": "PRAWEDA CIPTAKARSA INFORMATIKA",
            "nama_se": "KOCEQU",
            "sektor": "Sektor Keuangan, Sektor Keuangan",
            "tanggal_terbit": "2022-03-24",
            "url_tdpse_detail": "https://pse.komdigi.go.id/tdpse-detail/3640",
            "website": "kocequ.id"
        },
        {
            "id": "9cb1ab93-5712-4a00-b179-8828d660059d",
            "nama_pse": "ASURANSI JIWA BCA",
            "nama_se": "VIRSA",
            "sektor": "Sektor Keuangan, Sektor Keuangan",
            "tanggal_terbit": "2022-03-24",
            "url_tdpse_detail": "https://pse.komdigi.go.id/tdpse-detail/3635",
            "website": "virsa.bcalife.co.id"
        },
        {
            "id": "9cb1ab93-88a1-4a23-aa38-61a5b65143d0",
            "nama_pse": "INTEKNO RAYA",
            "nama_se": "ALADINKU",
            "sektor": "Sektor Keuangan, Sektor Keuangan",
            "tanggal_terbit": "2022-03-24",
            "url_tdpse_detail": "https://pse.komdigi.go.id/tdpse-detail/3636",
            "website": "Aladinku.co.id"
        },
        {
            "id": "9cb1ab9f-d967-4ffe-a140-c0a6b6d9d2ed",
            "nama_pse": "KIMIA FARMA APOTEK",
            "nama_se": "APLIKASI KIMIA FARMA MOBILE",
            "sektor": "Sektor Kesehatan, Sektor Kesehatan",
            "tanggal_terbit": "2022-03-23",
            "url_tdpse_detail": "https://pse.komdigi.go.id/tdpse-detail/3627",
            "website": "kimiafarmaapotek.co.id"
        },
        {
            "id": "9cb1aba0-02d0-4fb0-9e84-bac223583acd",
            "nama_pse": "SENTRA ARTA MAXIMA",
            "nama_se": "METATRADER 5",
            "sektor": "Sektor Perdagangan, Sektor Perdagangan, Sektor Keuangan, Sektor Keuangan",
            "tanggal_terbit": "2022-03-23",
            "url_tdpse_detail": "https://pse.komdigi.go.id/tdpse-detail/3624",
            "website": "-"
        },
        {
            "id": "9cb1abaa-7c7e-4946-b689-20b28c2bb04f",
            "nama_pse": "KAWANIAGA GEMILANG SYARIAH",
            "nama_se": "NTB MALL",
            "sektor": "Sektor Perdagangan, Sektor Perdagangan, Sektor Teknologi Informasi dan Komunikasi, Sektor Teknologi Informasi dan Komunikasi",
            "tanggal_terbit": "2022-03-23",
            "url_tdpse_detail": "https://pse.komdigi.go.id/tdpse-detail/3620",
            "website": "ntbmall.com/"
        },
        {
            "id": "9cb1aba0-29fc-46db-a4f1-a426dcaa2c80",
            "nama_pse": "INDAH GOLDEN SIGNATURE",
            "nama_se": "TANAM EMAS",
            "sektor": "Sektor Perdagangan, Sektor Perdagangan",
            "tanggal_terbit": "2022-03-23",
            "url_tdpse_detail": "https://pse.komdigi.go.id/tdpse-detail/3626",
            "website": "TANAMEMAS.ID"
        },
        {
            "id": "9cb1ab93-11ec-499e-b254-c72ac76cbc2f",
            "nama_pse": "NOTTA KYC INDONESIA",
            "nama_se": "NOTTA",
            "sektor": "Sektor Teknologi Informasi dan Komunikasi, Sektor Teknologi Informasi dan Komunikasi",
            "tanggal_terbit": "2022-03-23",
            "url_tdpse_detail": "https://pse.komdigi.go.id/tdpse-detail/3629",
            "website": "-"
        },
        {
            "id": "9cb1abaa-b676-4a43-87b1-757dd85da319",
            "nama_pse": "ORBI TRADE BERJANGKA",
            "nama_se": "METATRADER",
            "sektor": "Sektor Perdagangan, Sektor Perdagangan, Sektor Keuangan, Sektor Keuangan",
            "tanggal_terbit": "2022-03-23",
            "url_tdpse_detail": "https://pse.komdigi.go.id/tdpse-detail/3628",
            "website": "pacific2000futures.co.id"
        },
        {
            "id": "9cb1ab93-3958-4987-affd-c56115874fc2",
            "nama_pse": "EKOSISTEM BISNIS NUSANTARA",
            "nama_se": "EKOSIS",
            "sektor": "Sektor Teknologi Informasi dan Komunikasi, Sektor Teknologi Informasi dan Komunikasi",
            "tanggal_terbit": "2022-03-23",
            "url_tdpse_detail": "https://pse.komdigi.go.id/tdpse-detail/3630",
            "website": "ekosis.id"
        },
        {
            "id": "9cb1aba9-dd4e-4340-85d9-b3aa1e01ba2c",
            "nama_pse": "SELALU SIAP SOLUSI",
            "nama_se": "APLIKASI KIRIMINAJA",
            "sektor": "Sektor Teknologi Informasi dan Komunikasi, Sektor Teknologi Informasi dan Komunikasi, Sektor Teknologi Informasi dan Komunikasi",
            "tanggal_terbit": "2022-03-22",
            "url_tdpse_detail": "https://pse.komdigi.go.id/tdpse-detail/3605",
            "website": "kiriminaja.com"
        },
        {
            "id": "9cb1ab9f-db6e-4e50-a8da-fd797c0df22f",
            "nama_pse": "MID SOLUSI NUSANTARA",
            "nama_se": "MEKARI FLEX",
            "sektor": "Sektor Perdagangan, Sektor Perdagangan, Sektor Perdagangan",
            "tanggal_terbit": "2022-03-22",
            "url_tdpse_detail": "https://pse.komdigi.go.id/tdpse-detail/3614",
            "website": "mekari.com/produk/mekari-flex/"
        },
        {
            "id": "9cb1ab92-c312-4b98-9986-89988a7d6350",
            "nama_pse": "ARCHIPELAGO INTERNATIONAL INDONESIA",
            "nama_se": "WWW.ARCHIPELAGOINTERNATIONAL.COM",
            "sektor": "Sektor Perdagangan, Sektor Perdagangan, Sektor Teknologi Informasi dan Komunikasi, Sektor Teknologi Informasi dan Komunikasi",
            "tanggal_terbit": "2022-03-22",
            "url_tdpse_detail": "https://pse.komdigi.go.id/tdpse-detail/3618",
            "website": "archipelagointernational.com"
        },
        {
            "id": "9cb1abaa-2abf-4f63-bb48-9683f0733c62",
            "nama_pse": "ZAHIR KAPITAL HUB",
            "nama_se": "ZAHIR CAPITAL HUB",
            "sektor": "Sektor Teknologi Informasi dan Komunikasi, Sektor Teknologi Informasi dan Komunikasi",
            "tanggal_terbit": "2022-03-22",
            "url_tdpse_detail": "https://pse.komdigi.go.id/tdpse-detail/3617",
            "website": "zahircapital.id"
        },
        {
            "id": "9cb1ab92-d4e9-4e71-996d-fa7a5cd8a8eb",
            "nama_pse": "JASA MULIA FOREXINDO",
            "nama_se": "METATRADER",
            "sektor": "Sektor Perdagangan, Sektor Perdagangan, Sektor Keuangan, Sektor Keuangan",
            "tanggal_terbit": "2022-03-22",
            "url_tdpse_detail": "https://pse.komdigi.go.id/tdpse-detail/3619",
            "website": "jasamuliaforexindo.co.id"
        },
        {
            "id": "9cb1ab92-d843-4dd2-969c-d9542a89d751",
            "nama_pse": "MITRA FASHINDO ABADI RITEL",
            "nama_se": "MANGO.COM",
            "sektor": "Sektor Perdagangan, Sektor Perdagangan",
            "tanggal_terbit": "2022-03-22",
            "url_tdpse_detail": "https://pse.komdigi.go.id/tdpse-detail/3615",
            "website": "mango.com"
        },
        {
            "id": "9cb1ab92-e11b-44dd-8036-38c105adf251",
            "nama_pse": "SKORTECH KARYA INDONESIA",
            "nama_se": "SKORLIFE",
            "sektor": "Sektor Teknologi Informasi dan Komunikasi, Sektor Teknologi Informasi dan Komunikasi",
            "tanggal_terbit": "2022-03-22",
            "url_tdpse_detail": "https://pse.komdigi.go.id/tdpse-detail/3604",
            "website": "skor.life"
        },
        {
            "id": "9cb1aba0-04d6-4633-94cd-99f28b7222d9",
            "nama_pse": "SYARIAH SAHAM INDONESIA",
            "nama_se": "SYARIAH SAHAM",
            "sektor": "Sektor Keuangan, Sektor Keuangan, Sektor Teknologi Informasi dan Komunikasi, Sektor Teknologi Informasi dan Komunikasi",
            "tanggal_terbit": "2022-03-22",
            "url_tdpse_detail": "https://pse.komdigi.go.id/tdpse-detail/3609",
            "website": "syariahsaham.id"
        },
        {
            "id": "9cb1ab92-ec73-4dd3-aed8-61576d5c2935",
            "nama_pse": "HABIBI",
            "nama_se": "PT.YASMIN MEKAR MANDIRI",
            "sektor": "Sektor Perdagangan, Sektor Perdagangan, Sektor Perdagangan, Sektor Pertahanan dan Keamanan, Sektor Pertahanan dan Keamanan, Sektor Pertahanan dan Keamanan",
            "tanggal_terbit": "2022-03-22",
            "url_tdpse_detail": "https://pse.komdigi.go.id/tdpse-detail/3608",
            "website": "yasminmekarmandiri.com"
        },
        {
            "id": "9cb1aba0-18f4-435e-86d5-4c0a6dc4ac51",
            "nama_pse": "PRIMA BUANA PERKASA RITEL",
            "nama_se": "PULLANDBEAR.COM",
            "sektor": "Sektor Perdagangan, Sektor Perdagangan",
            "tanggal_terbit": "2022-03-22",
            "url_tdpse_detail": "https://pse.komdigi.go.id/tdpse-detail/3610",
            "website": "pullandbear.com"
        },
        {
            "id": "9cb1ab92-f48e-4a76-88bb-d39fe389becd",
            "nama_pse": "SARIMODE FASHINDO ADIPERKASA RITEL",
            "nama_se": "ZARA.COM",
            "sektor": "Sektor Perdagangan, Sektor Perdagangan",
            "tanggal_terbit": "2022-03-22",
            "url_tdpse_detail": "https://pse.komdigi.go.id/tdpse-detail/3607",
            "website": "zara.com"
        },
        {
            "id": "9cb1abaa-8775-446a-a102-53483218965d",
            "nama_pse": "MITRAMODE DUTA FASHINDO RITEL",
            "nama_se": "MASSIMODUTTI.COM",
            "sektor": "Sektor Perdagangan, Sektor Perdagangan",
            "tanggal_terbit": "2022-03-22",
            "url_tdpse_detail": "https://pse.komdigi.go.id/tdpse-detail/3612",
            "website": "massimodutti.com"
        },
        {
            "id": "9cb1abaa-89bd-4f9d-bb26-fd99c2ba60cc",
            "nama_pse": "BERSAMA KARUNIA MANDIRI RITEL",
            "nama_se": "BERSHKA.COM",
            "sektor": "Sektor Perdagangan, Sektor Perdagangan",
            "tanggal_terbit": "2022-03-22",
            "url_tdpse_detail": "https://pse.komdigi.go.id/tdpse-detail/3616",
            "website": "bershka.com"
        },
        {
            "id": "9cb1aba0-1c42-417b-9b95-09b6edd4cf46",
            "nama_pse": "SUKSES DIVA MANDIRI RITEL",
            "nama_se": "STRADIVARIUS.COM",
            "sektor": "Sektor Perdagangan, Sektor Perdagangan",
            "tanggal_terbit": "2022-03-22",
            "url_tdpse_detail": "https://pse.komdigi.go.id/tdpse-detail/3611",
            "website": "stradivarius.com"
        },
        {
            "id": "9cb1abaa-8c9e-47f7-8522-13f29c55d38a",
            "nama_pse": "SARIMODE GRIYA RITEL",
            "nama_se": "ZARAHOME.COM",
            "sektor": "Sektor Perdagangan, Sektor Perdagangan",
            "tanggal_terbit": "2022-03-22",
            "url_tdpse_detail": "https://pse.komdigi.go.id/tdpse-detail/3613",
            "website": "zarahome.com"
        },
        {
            "id": "9cb1aba0-2f38-4b8a-bdf6-4c1ec1c1be1a",
            "nama_pse": "KOKATTO TEKNOLOGI GLOBAL",
            "nama_se": "KOALA APP",
            "sektor": "Sektor Teknologi Informasi dan Komunikasi, Sektor Teknologi Informasi dan Komunikasi",
            "tanggal_terbit": "2022-03-22",
            "url_tdpse_detail": "https://pse.komdigi.go.id/tdpse-detail/3606",
            "website": "koalaapp.id"
        }
    ],
    "processingTimeMs": 6,
    "query": "",
    "totalHits": 19121,
    "hitsPerPage": 50,
    "page": 314,
    "totalPages": 383
}