{
    "hits": [
        {
            "id": "9cb1abf1-c3e1-424c-b9ae-47acd78a5df1",
            "nama_pse": "BANK PERKREDITAN RAKYAT BANK DAERAH KARANGANYAR PERSERODA",
            "nama_se": "WEBSITE COMPANY PT. BPR BANK DAERAH KARANGANYAR (PERSERODA)",
            "sektor": "Sektor Keuangan",
            "tanggal_terbit": "2022-07-21",
            "url_tdpse_detail": "https://pse.komdigi.go.id/tdpse-detail/8673",
            "website": "bankdaerah.co.id"
        },
        {
            "id": "9cb1abf1-c748-47a7-9063-c0c77a489811",
            "nama_pse": "BANK PERKREDITAN RAKYAT BANK GIRI SUKA DANA WONOGIRI PERSERODA",
            "nama_se": "VA BANK GIRI SUKA DANA",
            "sektor": "Sektor Keuangan",
            "tanggal_terbit": "2022-07-21",
            "url_tdpse_detail": "https://pse.komdigi.go.id/tdpse-detail/8675",
            "website": "girisukadana.co.id"
        },
        {
            "id": "9cb1abf1-cd39-4c8e-8f53-362ed08b4d29",
            "nama_pse": "BANK PEREKONOMIAN RAKYAT DUTA PARAMARTA",
            "nama_se": "PT BANK PERKREDITAN RAKYAT DUTA PARAMARTA",
            "sektor": "Sektor Keuangan",
            "tanggal_terbit": "2022-07-21",
            "url_tdpse_detail": "https://pse.komdigi.go.id/tdpse-detail/8674",
            "website": "-"
        },
        {
            "id": "9cb1abcb-d3d4-4d63-9a6e-e87ae6c96bbc",
            "nama_pse": "WAHANA MEDITEK INDONESIA",
            "nama_se": "BACKOFFICE.PERIKSAIN.ID",
            "sektor": "Sektor Kesehatan",
            "tanggal_terbit": "2022-07-21",
            "url_tdpse_detail": "https://pse.komdigi.go.id/tdpse-detail/8677",
            "website": "backoffice.periksain.id"
        },
        {
            "id": "9cb1abcb-dcc9-4739-a7dd-5731c682406a",
            "nama_pse": "MEDIA MATA WAKTU",
            "nama_se": "MATAWAKTU.CO.ID",
            "sektor": "Sektor Teknologi Informasi dan Komunikasi",
            "tanggal_terbit": "2022-07-21",
            "url_tdpse_detail": "https://pse.komdigi.go.id/tdpse-detail/8679",
            "website": "matawaktu.co.id"
        },
        {
            "id": "9cb1abcb-e140-4742-8e1b-4d3373a827aa",
            "nama_pse": "WAHANA MEDITEK INDONESIA",
            "nama_se": "PARTNER.PERIKSAIN.ID",
            "sektor": "Sektor Kesehatan",
            "tanggal_terbit": "2022-07-21",
            "url_tdpse_detail": "https://pse.komdigi.go.id/tdpse-detail/8680",
            "website": "partner.periksain.id"
        },
        {
            "id": "9cb1abf1-d61b-419a-a1d1-78bb6fc7b273",
            "nama_pse": "WAHANA MEDITEK INDONESIA",
            "nama_se": "SERVICE.DEV.PERIKSAIN.ID",
            "sektor": "Sektor Kesehatan",
            "tanggal_terbit": "2022-07-21",
            "url_tdpse_detail": "https://pse.komdigi.go.id/tdpse-detail/8681",
            "website": "service.dev.periksain.id"
        },
        {
            "id": "9cb1abf1-e28b-44a2-8b77-94c114cff1f4",
            "nama_pse": "BANK PERKREDITAN RAKYAT BANK DAERAH KARANGANYAR PERSERODA",
            "nama_se": "BDK MOBILE PT. BPR BANK DAERAH KARANGANYAR (PERSERODA)",
            "sektor": "Sektor Keuangan",
            "tanggal_terbit": "2022-07-21",
            "url_tdpse_detail": "https://pse.komdigi.go.id/tdpse-detail/8682",
            "website": "-"
        },
        {
            "id": "9cb1abcb-e659-43bc-acd7-dff22a99fedb",
            "nama_pse": "WAHANA MEDITEK INDONESIA",
            "nama_se": "SERVICE.PERIKSAIN.ID",
            "sektor": "Sektor Kesehatan",
            "tanggal_terbit": "2022-07-21",
            "url_tdpse_detail": "https://pse.komdigi.go.id/tdpse-detail/8683",
            "website": "service.periksain.id"
        },
        {
            "id": "9cb1abbc-5202-4050-b17d-6eea92e6e525",
            "nama_pse": "PUNCAK AKSES FINANSIAL",
            "nama_se": "ISCORE",
            "sektor": "Sektor Keuangan",
            "tanggal_terbit": "2022-07-21",
            "url_tdpse_detail": "https://pse.komdigi.go.id/tdpse-detail/8685",
            "website": "-"
        },
        {
            "id": "9cb1abf1-e5be-4c8f-afb5-0b8df1999fc5",
            "nama_pse": "YOKULAK KREASI INDONESIA",
            "nama_se": "YO-KULAK",
            "sektor": "Sektor Perdagangan",
            "tanggal_terbit": "2022-07-21",
            "url_tdpse_detail": "https://pse.komdigi.go.id/tdpse-detail/8686",
            "website": "yo-kulak.com"
        },
        {
            "id": "9cb1abcb-ee8e-4eee-830c-84b1011c99d0",
            "nama_pse": "PRO SEHAT INDONESIA",
            "nama_se": "PROSEHAT",
            "sektor": "Sektor Perdagangan, Sektor Kesehatan",
            "tanggal_terbit": "2022-07-21",
            "url_tdpse_detail": "https://pse.komdigi.go.id/tdpse-detail/8687",
            "website": "prosehat.com"
        },
        {
            "id": "9cb1abf1-e923-4ce1-94fb-115f99df5dd0",
            "nama_pse": "KELOLA MITRA INVESTAMA",
            "nama_se": "KEOLA",
            "sektor": "Sektor Keuangan",
            "tanggal_terbit": "2022-07-21",
            "url_tdpse_detail": "https://pse.komdigi.go.id/tdpse-detail/8694",
            "website": "kelolaapp.com"
        },
        {
            "id": "9cb1abf1-f048-4e3e-a2cd-8fc8bba2d856",
            "nama_pse": "JIFRY SAPUTRA SKOM",
            "nama_se": "DONORKU",
            "sektor": "Sektor Kesehatan, Sektor Teknologi Informasi dan Komunikasi",
            "tanggal_terbit": "2022-07-21",
            "url_tdpse_detail": "https://pse.komdigi.go.id/tdpse-detail/8689",
            "website": "donordarahlampung.com"
        },
        {
            "id": "9cb1abf1-f87f-4088-baa3-db54506cebc1",
            "nama_pse": "ALFATRANS MULTI PAYMENT",
            "nama_se": "ALFATRANS PULSA",
            "sektor": "Sektor Perdagangan",
            "tanggal_terbit": "2022-07-21",
            "url_tdpse_detail": "https://pse.komdigi.go.id/tdpse-detail/8690",
            "website": "-"
        },
        {
            "id": "9cb1abbc-5657-4427-8efd-d9040279965c",
            "nama_pse": "ALFATRANS MULTI PAYMENT",
            "nama_se": "AP MOBILE TOPUP",
            "sektor": "Sektor Perdagangan",
            "tanggal_terbit": "2022-07-21",
            "url_tdpse_detail": "https://pse.komdigi.go.id/tdpse-detail/8691",
            "website": "-"
        },
        {
            "id": "9cb1abbc-5a1e-4df6-82fa-c3f73da8e4d7",
            "nama_pse": "KOLBY DZIKRULLAH AMBIYA",
            "nama_se": "MAKE NEW STORY",
            "sektor": "Sektor Perdagangan",
            "tanggal_terbit": "2022-07-21",
            "url_tdpse_detail": "https://pse.komdigi.go.id/tdpse-detail/8692",
            "website": "makenewstory.com"
        },
        {
            "id": "9cb1abcb-f3cd-48d0-acd7-0a95cd1472e9",
            "nama_pse": "NETMEDIA DIGITAL INDONESIA",
            "nama_se": "SENTRANIC.COM",
            "sektor": "Sektor Teknologi Informasi dan Komunikasi",
            "tanggal_terbit": "2022-07-21",
            "url_tdpse_detail": "https://pse.komdigi.go.id/tdpse-detail/8693",
            "website": "sentranic.com"
        },
        {
            "id": "9cb1abf1-fb7a-4200-9623-c27e127cb7be",
            "nama_pse": "NETMEDIA DIGITAL INDONESIA",
            "nama_se": "PERSEROAN",
            "sektor": "Sektor Teknologi Informasi dan Komunikasi",
            "tanggal_terbit": "2022-07-21",
            "url_tdpse_detail": "https://pse.komdigi.go.id/tdpse-detail/8695",
            "website": "perseroan.id"
        },
        {
            "id": "9cb1abbc-5c0e-446f-8a4b-6290afd4a29e",
            "nama_pse": "KELOLA MITRA INVESTAMA",
            "nama_se": "KELOLA",
            "sektor": "Sektor Keuangan",
            "tanggal_terbit": "2022-07-21",
            "url_tdpse_detail": "https://pse.komdigi.go.id/tdpse-detail/8696",
            "website": "kelolaapp.com"
        },
        {
            "id": "9cb1abcb-fb65-4983-bf23-7adcaa50700c",
            "nama_pse": "HOME CENTER INDONESIA RETAIL",
            "nama_se": "MOBILE APP SELMA",
            "sektor": "Sektor Perdagangan, Sektor Teknologi Informasi dan Komunikasi",
            "tanggal_terbit": "2022-07-21",
            "url_tdpse_detail": "https://pse.komdigi.go.id/tdpse-detail/8697",
            "website": "selma.co.id"
        },
        {
            "id": "9cb1abcc-0585-4cca-a197-ae8b941dd870",
            "nama_pse": "SETIA USAHA BERSAMA",
            "nama_se": "ROPEL ID",
            "sektor": "Sektor Teknologi Informasi dan Komunikasi",
            "tanggal_terbit": "2022-07-21",
            "url_tdpse_detail": "https://pse.komdigi.go.id/tdpse-detail/8698",
            "website": "ropel.id"
        },
        {
            "id": "9cb1abcc-0a3e-4e55-a0e3-9913dfdbc4d4",
            "nama_pse": "DINOMARKET",
            "nama_se": "PLUS BY BTN PRIORITAS",
            "sektor": "Sektor Perdagangan",
            "tanggal_terbit": "2022-07-21",
            "url_tdpse_detail": "https://pse.komdigi.go.id/tdpse-detail/8700",
            "website": "definingyourpriority.com"
        },
        {
            "id": "9cb1abbc-5f45-4831-bdfa-3b11c210e887",
            "nama_pse": "BEAUTY LANS INDONESIA",
            "nama_se": "BEAUTY BY LANS",
            "sektor": "Sektor Perdagangan",
            "tanggal_terbit": "2022-07-21",
            "url_tdpse_detail": "https://pse.komdigi.go.id/tdpse-detail/8699",
            "website": "beautybylans.com"
        },
        {
            "id": "9cb1abbc-6125-442c-bfac-d7c1cb7f18d9",
            "nama_pse": "ONKLAS PRIMA INDONESIA",
            "nama_se": "ONKLAS",
            "sektor": "Sektor Teknologi Informasi dan Komunikasi",
            "tanggal_terbit": "2022-07-21",
            "url_tdpse_detail": "https://pse.komdigi.go.id/tdpse-detail/8702",
            "website": "ONKLAS.ID"
        },
        {
            "id": "9cb1abbc-64d2-4389-8ae9-5dfc57d1181c",
            "nama_pse": "NOVITA TANTRI ROB'BIATIN",
            "nama_se": "BKIIOS",
            "sektor": "Sektor Perdagangan",
            "tanggal_terbit": "2022-07-21",
            "url_tdpse_detail": "https://pse.komdigi.go.id/tdpse-detail/8701",
            "website": "bkiios.com"
        },
        {
            "id": "9cb1abbc-6802-45dc-83ac-4dfde8e454d7",
            "nama_pse": "AKU CINTA INDONESIA RAYA",
            "nama_se": "ACI MART",
            "sektor": "Sektor Perdagangan, Sektor Teknologi Informasi dan Komunikasi",
            "tanggal_terbit": "2022-07-21",
            "url_tdpse_detail": "https://pse.komdigi.go.id/tdpse-detail/8703",
            "website": "acimart.id"
        },
        {
            "id": "9cb1abf1-feb6-4848-ad5e-b7a3c8e04574",
            "nama_pse": "UNIVERSAL HERBA TEKNOLOGI",
            "nama_se": "LOGINUNIVERSE.ID",
            "sektor": "Sektor Perdagangan, Sektor Kesehatan, Sektor Teknologi Informasi dan Komunikasi, Sektor Pangan",
            "tanggal_terbit": "2022-07-21",
            "url_tdpse_detail": "https://pse.komdigi.go.id/tdpse-detail/8704",
            "website": "loginuniverse.id"
        },
        {
            "id": "9cb1abbc-69fd-4b8c-8554-e2f21dd2c2c8",
            "nama_pse": "HANTORO ADI UTOMO",
            "nama_se": "WEBPORTAL MARKETING MOTOR",
            "sektor": "Sektor Teknologi Informasi dan Komunikasi",
            "tanggal_terbit": "2022-07-21",
            "url_tdpse_detail": "https://pse.komdigi.go.id/tdpse-detail/8705",
            "website": "marketing-motor.com"
        },
        {
            "id": "9cb1abcc-19ae-4078-a9ed-0920b3dcfe86",
            "nama_pse": "INOVASI FINANSIAL TEKNOLOGI",
            "nama_se": "MAKMUR",
            "sektor": "Sektor Keuangan",
            "tanggal_terbit": "2022-07-21",
            "url_tdpse_detail": "https://pse.komdigi.go.id/tdpse-detail/8707",
            "website": "makmur.id"
        },
        {
            "id": "9cb1abcc-2c16-42cb-82f2-95491e13a142",
            "nama_pse": "LEGION FLAZZ CELLULER",
            "nama_se": "LEGIONFC",
            "sektor": "Sektor Perdagangan, Sektor Teknologi Informasi dan Komunikasi",
            "tanggal_terbit": "2022-07-21",
            "url_tdpse_detail": "https://pse.komdigi.go.id/tdpse-detail/8708",
            "website": "legionfc.my.id"
        },
        {
            "id": "9cb1abcc-34e8-48da-be68-fa89be7c41b7",
            "nama_pse": "PIXEL TELEMEDIA",
            "nama_se": "KEMENTERIAN KUOTA",
            "sektor": "Sektor Perdagangan, Sektor Teknologi Informasi dan Komunikasi",
            "tanggal_terbit": "2022-07-21",
            "url_tdpse_detail": "https://pse.komdigi.go.id/tdpse-detail/8709",
            "website": "pixeltelemedia.com"
        },
        {
            "id": "9cb1abbc-76b8-4580-aab3-7ef989d1c1f2",
            "nama_pse": "BANK KB BUKOPIN",
            "nama_se": "KB BUKOPIN LEARNING MANAGEMENT SYSTEM",
            "sektor": "Sektor Keuangan",
            "tanggal_terbit": "2022-07-21",
            "url_tdpse_detail": "https://pse.komdigi.go.id/tdpse-detail/8710",
            "website": "learning.bukopin.co.id"
        },
        {
            "id": "9cb1abbc-79e4-4ca1-8140-5ba2348a1294",
            "nama_pse": "BANK KB BUKOPIN",
            "nama_se": "KB BUKOPIN B-PRIDE",
            "sektor": "Sektor Keuangan",
            "tanggal_terbit": "2022-07-21",
            "url_tdpse_detail": "https://pse.komdigi.go.id/tdpse-detail/8711",
            "website": "b-pride.com"
        },
        {
            "id": "9cb1abbc-7bec-49b1-b2d5-be4501693d94",
            "nama_pse": "FAHRI EKA JAYA",
            "nama_se": "DESAPOLITAN",
            "sektor": "Sektor Perdagangan, Sektor Keuangan, Sektor Teknologi Informasi dan Komunikasi",
            "tanggal_terbit": "2022-07-21",
            "url_tdpse_detail": "https://pse.komdigi.go.id/tdpse-detail/8712",
            "website": "-"
        },
        {
            "id": "9cb1abf2-01ef-4a0b-9692-905ddeceeda4",
            "nama_pse": "BANK PERKREDITAN RAKYAT ARTA KENCANA",
            "nama_se": "WEBSITE",
            "sektor": "Sektor Keuangan",
            "tanggal_terbit": "2022-07-21",
            "url_tdpse_detail": "https://pse.komdigi.go.id/tdpse-detail/8713",
            "website": "bankartakencana.co.id"
        },
        {
            "id": "9cb1abf0-2354-4332-acb3-c26e434a7939",
            "nama_pse": "DIGITAL MEDIA INTEGRA JAYA",
            "nama_se": "SIMRS DIGITAL MEDIA",
            "sektor": "Sektor Kesehatan",
            "tanggal_terbit": "2022-07-21",
            "url_tdpse_detail": "https://pse.komdigi.go.id/tdpse-detail/8429",
            "website": "-"
        },
        {
            "id": "9cb1abca-0d7e-487a-8366-10e4558655e8",
            "nama_pse": "ISTANA MITRA SENDANY",
            "nama_se": "HONDA MITRA GRESIK",
            "sektor": "Sektor Perdagangan",
            "tanggal_terbit": "2022-07-21",
            "url_tdpse_detail": "https://pse.komdigi.go.id/tdpse-detail/8426",
            "website": "hondamitragresik.com"
        },
        {
            "id": "9cb1abc4-3b4f-4a73-9698-7b1423eecf31",
            "nama_pse": "BANK PEREKONOMIAN RAKYAT MITRA BANARAN MANDIRI",
            "nama_se": "WEB BPR",
            "sektor": "Sektor Keuangan",
            "tanggal_terbit": "2022-07-20",
            "url_tdpse_detail": "https://pse.komdigi.go.id/tdpse-detail/7578",
            "website": "bprmitrabanaran.com"
        },
        {
            "id": "9cb1abb8-fe74-431e-853a-e88c9a049212",
            "nama_pse": "BANK PERKREDITAN RAKYAT UKABIMA NINDYA RAHARJA",
            "nama_se": "WEBSITE PT BPR UKABIMA NINDYA RAHARJA",
            "sektor": "Sektor Keuangan",
            "tanggal_terbit": "2022-07-20",
            "url_tdpse_detail": "https://pse.komdigi.go.id/tdpse-detail/7752",
            "website": "ukabima-nindya-raharja.co.id"
        },
        {
            "id": "9cb1abc3-7e04-47da-8a6d-cf99db6aea81",
            "nama_pse": "LOAN MARKET INDO",
            "nama_se": "LOAN MARKET",
            "sektor": "Sektor Keuangan",
            "tanggal_terbit": "2022-07-20",
            "url_tdpse_detail": "https://pse.komdigi.go.id/tdpse-detail/7408",
            "website": "loanmarket.co.id"
        },
        {
            "id": "9cb1abed-07d1-435b-8244-e2c3ec6cbbed",
            "nama_pse": "BANK PERKREDITAN RAKYAT PASAR BOJA",
            "nama_se": "BPR PASAR BOJA",
            "sektor": "Sektor Keuangan",
            "tanggal_terbit": "2022-07-20",
            "url_tdpse_detail": "https://pse.komdigi.go.id/tdpse-detail/7997",
            "website": "bprpasarboja.com"
        },
        {
            "id": "9cb1abeb-0fc9-4c47-b65e-9e60f1e41342",
            "nama_pse": "BANK PEREKONOMIAN RAKYAT DANAGUNG",
            "nama_se": "WEBSITE",
            "sektor": "Sektor Keuangan",
            "tanggal_terbit": "2022-07-20",
            "url_tdpse_detail": "https://pse.komdigi.go.id/tdpse-detail/7878",
            "website": "danagungramulti.co.id"
        },
        {
            "id": "9cb1abec-845f-4fdc-ad63-ca5b9399262a",
            "nama_pse": "BITS MILIARTHA",
            "nama_se": "BEE",
            "sektor": "Sektor Perdagangan",
            "tanggal_terbit": "2022-07-20",
            "url_tdpse_detail": "https://pse.komdigi.go.id/tdpse-detail/7920",
            "website": "bee.id"
        },
        {
            "id": "9cb1abb1-e9c5-440a-bd88-bfa3aacfd92d",
            "nama_pse": "BANK PEMBANGUNAN DAERAH SULAWESI UTARA GORONTALO",
            "nama_se": "MOBILE BANKING (BSGTOUCH)",
            "sektor": "Sektor Keuangan",
            "tanggal_terbit": "2022-07-20",
            "url_tdpse_detail": "https://pse.komdigi.go.id/tdpse-detail/7553",
            "website": "-"
        },
        {
            "id": "9cb1ab9d-5322-4e21-85a7-edfad17a6d33",
            "nama_pse": "BANK PEMBANGUNAN DAERAH SULAWESI UTARA GORONTALO",
            "nama_se": "INTERNET BANKING NON PERORANGAN (BSGDIRECT)",
            "sektor": "Sektor Keuangan",
            "tanggal_terbit": "2022-07-20",
            "url_tdpse_detail": "https://pse.komdigi.go.id/tdpse-detail/7552",
            "website": "-"
        },
        {
            "id": "9cb1ab9d-5659-4e0a-bb7f-244319622b13",
            "nama_pse": "BANK PEMBANGUNAN DAERAH SULAWESI UTARA GORONTALO",
            "nama_se": "KASDA ONLINE",
            "sektor": "Sektor Teknologi Informasi dan Komunikasi",
            "tanggal_terbit": "2022-07-20",
            "url_tdpse_detail": "https://pse.komdigi.go.id/tdpse-detail/7549",
            "website": "banksulutgo.co.id"
        },
        {
            "id": "9cb1abc1-d96f-4316-bd15-3daa12407ef1",
            "nama_pse": "BANK PEMBANGUNAN DAERAH KALIMANTAN TENGAH",
            "nama_se": "ACCOUNT OPENING",
            "sektor": "Sektor Keuangan",
            "tanggal_terbit": "2022-07-20",
            "url_tdpse_detail": "https://pse.komdigi.go.id/tdpse-detail/7322",
            "website": "open-account.bankkalteng.co.id"
        },
        {
            "id": "9cb1abb6-c664-4892-b17c-b8caee92688a",
            "nama_pse": "GRAVITY GAME LINK",
            "nama_se": "GRAVITY GAME LINK",
            "sektor": "Sektor Teknologi Informasi dan Komunikasi",
            "tanggal_terbit": "2022-07-20",
            "url_tdpse_detail": "https://pse.komdigi.go.id/tdpse-detail/7287",
            "website": "gnjoy.id"
        },
        {
            "id": "9cb1abb6-c81b-4c1d-aa5f-89f23b123481",
            "nama_pse": "SOLUSI KERJA VIRTUAL",
            "nama_se": "OFFICELY PLATFORM",
            "sektor": "Sektor Teknologi Informasi dan Komunikasi",
            "tanggal_terbit": "2022-07-20",
            "url_tdpse_detail": "https://pse.komdigi.go.id/tdpse-detail/7420",
            "website": "app.officely.id"
        }
    ],
    "processingTimeMs": 7,
    "query": "",
    "totalHits": 19131,
    "hitsPerPage": 50,
    "page": 232,
    "totalPages": 383
}