{
    "hits": [
        {
            "id": "9de8d53c-ccbe-4c07-8388-4fb3f5320d20",
            "nama_pse": "RSU PKU MUHAMMADIYAH PEDAN",
            "nama_se": "SIMRS PKU MUHAMMADIYAH PEDAN",
            "sektor": "Sektor Kesehatan",
            "tanggal_terbit": "2025-01-07",
            "url_tdpse_detail": "https://pse.komdigi.go.id/tdpse-detail/22038",
            "website": "-"
        },
        {
            "id": "9de8db33-e3b8-4de0-a526-ece460c88674",
            "nama_pse": "KUSUMA SAMPURNA MULIA",
            "nama_se": "KUSUMA STORE",
            "sektor": "Sektor Perdagangan",
            "tanggal_terbit": "2025-01-07",
            "url_tdpse_detail": "https://pse.komdigi.go.id/tdpse-detail/22040",
            "website": "kusumastore.id"
        },
        {
            "id": "9de7b86b-5615-4abd-b57a-ed435123d4e5",
            "nama_pse": "MITRA MOBILE PERSADA",
            "nama_se": "SAHABAT MOBILE",
            "sektor": "Sektor Teknologi Informasi dan Komunikasi",
            "tanggal_terbit": "2025-01-07",
            "url_tdpse_detail": "https://pse.komdigi.go.id/tdpse-detail/22031",
            "website": "sahabatmobile.com"
        },
        {
            "id": "9de860f9-19e4-4e97-96fa-0aa911da176c",
            "nama_pse": "URBAN MODA TECHNOLOGY",
            "nama_se": "URBAN MODA TECHNOLOGY",
            "sektor": "Sektor Perdagangan, Sektor Teknologi Informasi dan Komunikasi",
            "tanggal_terbit": "2025-01-07",
            "url_tdpse_detail": "https://pse.komdigi.go.id/tdpse-detail/22034",
            "website": "urbanmoda.id"
        },
        {
            "id": "9de886c1-735b-466a-8498-1641b6f57128",
            "nama_pse": "QPON DIGITAL INDONESIA",
            "nama_se": "QPON",
            "sektor": "Sektor Perdagangan",
            "tanggal_terbit": "2025-01-07",
            "url_tdpse_detail": "https://pse.komdigi.go.id/tdpse-detail/22035",
            "website": "qpon.id"
        },
        {
            "id": "9de8a6c3-b9f0-4c0a-a052-b4ba343e1d3c",
            "nama_pse": "SAMALA SEHAT MAKMUR",
            "nama_se": "99 Virtual Race",
            "sektor": "Sektor Teknologi Informasi dan Komunikasi",
            "tanggal_terbit": "2025-01-07",
            "url_tdpse_detail": "https://pse.komdigi.go.id/tdpse-detail/22037",
            "website": "99virtualrace.com"
        },
        {
            "id": "9de858aa-f707-4ee8-8ad9-8b2ad7e4d346",
            "nama_pse": "APRILIA SUKSES ABADI",
            "nama_se": "MULAICHAT",
            "sektor": "Sektor Teknologi Informasi dan Komunikasi",
            "tanggal_terbit": "2025-01-07",
            "url_tdpse_detail": "https://pse.komdigi.go.id/tdpse-detail/22033",
            "website": "mulai.chat"
        },
        {
            "id": "9de8dcdc-b397-45da-9f84-c1a430f356f7",
            "nama_pse": "ALGO GAPURA INFORMASI",
            "nama_se": "ALGO B2B",
            "sektor": "Sektor Teknologi Informasi dan Komunikasi",
            "tanggal_terbit": "2025-01-07",
            "url_tdpse_detail": "https://pse.komdigi.go.id/tdpse-detail/22041",
            "website": "b2b.algoku.tech"
        },
        {
            "id": "9de91ef5-b6e6-4612-b908-6bb9fb45b7a0",
            "nama_pse": "MEDIKO LEARNING INDONESIA",
            "nama_se": "MEDIKO.ID",
            "sektor": "Sektor Teknologi Informasi dan Komunikasi",
            "tanggal_terbit": "2025-01-07",
            "url_tdpse_detail": "https://pse.komdigi.go.id/tdpse-detail/22043",
            "website": "mediko.id"
        },
        {
            "id": "9de91667-cfa8-4d5c-8c61-e1b810ee25db",
            "nama_pse": "SETYOVA INOVASI TEKNOLOGI",
            "nama_se": "bimbing.me",
            "sektor": "Sektor Teknologi Informasi dan Komunikasi",
            "tanggal_terbit": "2025-01-07",
            "url_tdpse_detail": "https://pse.komdigi.go.id/tdpse-detail/22042",
            "website": "bimbing.me"
        },
        {
            "id": "9de6c892-8930-4661-89ee-70b84fc8dabb",
            "nama_pse": "MEDIA SOLUSI INFORMASI",
            "nama_se": "MASIFA DIGITAL",
            "sektor": "Sektor Transportasi, Sektor Kesehatan, Sektor Teknologi Informasi dan Komunikasi",
            "tanggal_terbit": "2025-01-06",
            "url_tdpse_detail": "https://pse.komdigi.go.id/tdpse-detail/22018",
            "website": "-"
        },
        {
            "id": "9de6ddd7-aca9-4e66-bc45-dada5cf0faec",
            "nama_pse": "PRIMA JASA DOKUMEN",
            "nama_se": "primadokumen.co.id  adalah salah satu website resmi penyedia layanan dokumen pemerintahan",
            "sektor": "Sektor Perdagangan, Sektor Teknologi Informasi dan Komunikasi",
            "tanggal_terbit": "2025-01-06",
            "url_tdpse_detail": "https://pse.komdigi.go.id/tdpse-detail/22021",
            "website": "primadokumen.co.id"
        },
        {
            "id": "9de6a94c-64e1-40d0-8aa3-568a8e07bb48",
            "nama_pse": "SENTRAL INOVASI RAYA",
            "nama_se": "JOB PORTAL DARING",
            "sektor": "Sektor Teknologi Informasi dan Komunikasi",
            "tanggal_terbit": "2025-01-06",
            "url_tdpse_detail": "https://pse.komdigi.go.id/tdpse-detail/22016",
            "website": "yes.co.id"
        },
        {
            "id": "9de6ee53-e7ca-43e8-b8f5-0e80a35b18d3",
            "nama_pse": "FAHMI IBRAHIM",
            "nama_se": "AZKA HOTSPOT",
            "sektor": "Sektor Teknologi Informasi dan Komunikasi",
            "tanggal_terbit": "2025-01-06",
            "url_tdpse_detail": "https://pse.komdigi.go.id/tdpse-detail/22023",
            "website": "-"
        },
        {
            "id": "9de6622b-0134-4e95-ad9a-037721783887",
            "nama_pse": "SUZUKI FINANCE INDONESIA",
            "nama_se": "WEBSITE MOBIL BEKAS",
            "sektor": "Sektor Keuangan",
            "tanggal_terbit": "2025-01-06",
            "url_tdpse_detail": "https://pse.komdigi.go.id/tdpse-detail/22009",
            "website": "bekasaja.com"
        },
        {
            "id": "9de662a8-2cd2-4430-86f0-a30d780f4a36",
            "nama_pse": "BANK PEMBANGUNAN DAERAH KALIMANTAN SELATAN PERSERODA",
            "nama_se": "LAKU PANDAI BANK KALSEL",
            "sektor": "Sektor Keuangan",
            "tanggal_terbit": "2025-01-06",
            "url_tdpse_detail": "https://pse.komdigi.go.id/tdpse-detail/22010",
            "website": "-"
        },
        {
            "id": "9de67cc4-a620-4410-aa8e-93bb5ae107e6",
            "nama_pse": "BEAUTE HAUL INDONESIA",
            "nama_se": "APP BEAUTYHAUL",
            "sektor": "Sektor Perdagangan, Sektor Kesehatan",
            "tanggal_terbit": "2025-01-06",
            "url_tdpse_detail": "https://pse.komdigi.go.id/tdpse-detail/22013",
            "website": "-"
        },
        {
            "id": "9de676d2-523b-4fcb-9789-75b3f5ddb0eb",
            "nama_pse": "IYUS",
            "nama_se": "LAYANAN INTERNET LOKAL ( RT RW NET )",
            "sektor": "Sektor Teknologi Informasi dan Komunikasi",
            "tanggal_terbit": "2025-01-06",
            "url_tdpse_detail": "https://pse.komdigi.go.id/tdpse-detail/22012",
            "website": "-"
        },
        {
            "id": "9de6a4c3-d80d-40ec-afce-b67d95f47fe3",
            "nama_pse": "SEMESTA ROTAN LESTARI",
            "nama_se": "RATTAN FORLIFE",
            "sektor": "Sektor Perdagangan, Sektor Teknologi Informasi dan Komunikasi",
            "tanggal_terbit": "2025-01-06",
            "url_tdpse_detail": "https://pse.komdigi.go.id/tdpse-detail/22015",
            "website": "rattanforlife.id"
        },
        {
            "id": "9de6c94f-eb18-4d7c-9ff1-72b30ac28f2d",
            "nama_pse": "I WAYAN ADNYANA",
            "nama_se": "ALMORI.ID",
            "sektor": "Sektor Perdagangan, Sektor Kesehatan, Sektor Teknologi Informasi dan Komunikasi",
            "tanggal_terbit": "2025-01-06",
            "url_tdpse_detail": "https://pse.komdigi.go.id/tdpse-detail/22019",
            "website": "almori.id"
        },
        {
            "id": "9de6cdc6-e923-4db8-bec4-99d71195ea36",
            "nama_pse": "BANGUN DAYA PERSADA",
            "nama_se": "GO LING",
            "sektor": "Sektor Perdagangan, Sektor Transportasi, Sektor Teknologi Informasi dan Komunikasi",
            "tanggal_terbit": "2025-01-06",
            "url_tdpse_detail": "https://pse.komdigi.go.id/tdpse-detail/22020",
            "website": "bangundayapersada.co.id"
        },
        {
            "id": "9de6ebf8-ec7c-46d9-a534-566e4b240a27",
            "nama_pse": "AGEN PINTAR INDONESIA",
            "nama_se": "AGENPINTAR",
            "sektor": "Sektor Perdagangan, Sektor Teknologi Informasi dan Komunikasi",
            "tanggal_terbit": "2025-01-06",
            "url_tdpse_detail": "https://pse.komdigi.go.id/tdpse-detail/22022",
            "website": "agenpintar.com"
        },
        {
            "id": "9de6f0dd-a2de-4704-b491-957d125e385a",
            "nama_pse": "XIAOMI COMMUNICATIONS INDONESIA",
            "nama_se": "XIAOMI COMMUNITY (NEW.C.MI.COM)",
            "sektor": "Sektor Teknologi Informasi dan Komunikasi",
            "tanggal_terbit": "2025-01-06",
            "url_tdpse_detail": "https://pse.komdigi.go.id/tdpse-detail/22024",
            "website": "new.c.mi.com"
        },
        {
            "id": "9de6f627-8e57-4d7e-a1d6-1ff1f645287c",
            "nama_pse": "XIAOMI COMMUNICATIONS INDONESIA",
            "nama_se": "XIAOMI COMMUNITY (APP)",
            "sektor": "Sektor Teknologi Informasi dan Komunikasi",
            "tanggal_terbit": "2025-01-06",
            "url_tdpse_detail": "https://pse.komdigi.go.id/tdpse-detail/22025",
            "website": "-"
        },
        {
            "id": "9de6f74f-abfc-44c0-abb1-90c294797a6e",
            "nama_pse": "YOSEFA FERDIANTO",
            "nama_se": "WY TOP UP",
            "sektor": "Sektor Teknologi Informasi dan Komunikasi",
            "tanggal_terbit": "2025-01-06",
            "url_tdpse_detail": "https://pse.komdigi.go.id/tdpse-detail/22026",
            "website": "wytopup.com"
        },
        {
            "id": "9de708a7-23dc-43cd-822a-031d47d3f8d4",
            "nama_pse": "BARAKARSA TEKNOLOGI INDONESIA",
            "nama_se": "BARAKARSATEKNOLOGIINDONESIA",
            "sektor": "Sektor Perdagangan",
            "tanggal_terbit": "2025-01-06",
            "url_tdpse_detail": "https://pse.komdigi.go.id/tdpse-detail/22027",
            "website": "barakarsa.com"
        },
        {
            "id": "9de77888-ffbf-4074-9084-814accd385b0",
            "nama_pse": "CANDRA DIGITALINDO",
            "nama_se": "SIREMEDIS",
            "sektor": "Sektor Kesehatan, Sektor Teknologi Informasi dan Komunikasi",
            "tanggal_terbit": "2025-01-06",
            "url_tdpse_detail": "https://pse.komdigi.go.id/tdpse-detail/22029",
            "website": "siremedis.com"
        },
        {
            "id": "9de798a5-783e-42b0-bffa-40583c3f2fb8",
            "nama_pse": "CEPAT DIGITAL TEKNOLOGI",
            "nama_se": "CEPAT DIGITAL TEKNOLOGI",
            "sektor": "Sektor Teknologi Informasi dan Komunikasi",
            "tanggal_terbit": "2025-01-06",
            "url_tdpse_detail": "https://pse.komdigi.go.id/tdpse-detail/22030",
            "website": "cepat.digital"
        },
        {
            "id": "9de7718e-d939-47be-a530-2fbd8dfefb76",
            "nama_pse": "DIGITAL STAR CODE",
            "nama_se": "FOODMA",
            "sektor": "Sektor Perdagangan, Sektor Transportasi",
            "tanggal_terbit": "2025-01-06",
            "url_tdpse_detail": "https://pse.komdigi.go.id/tdpse-detail/22028",
            "website": "foodma.digitalstarcode.com"
        },
        {
            "id": "9de6b9da-19b3-4e45-8350-1d7639ba1601",
            "nama_pse": "BIMINI LONGEVITY INDONESIA",
            "nama_se": "hdmall",
            "sektor": "Sektor Kesehatan",
            "tanggal_terbit": "2025-01-06",
            "url_tdpse_detail": "https://pse.komdigi.go.id/tdpse-detail/22017",
            "website": "-"
        },
        {
            "id": "9de676c7-bfa8-4f50-a4c8-198f4a5ac0f8",
            "nama_pse": "KOMUNIKASI PERKASA INTERNASIONAL",
            "nama_se": "KINTAKA",
            "sektor": "Sektor Teknologi Informasi dan Komunikasi",
            "tanggal_terbit": "2025-01-06",
            "url_tdpse_detail": "https://pse.komdigi.go.id/tdpse-detail/22011",
            "website": "kintaka.co.id"
        },
        {
            "id": "9de46745-8999-41fc-b6c0-f227d9427da5",
            "nama_pse": "FAQAH DEVELOP CREATIVITY",
            "nama_se": "FAQAH DEVELOP CREATIVITY",
            "sektor": "Sektor Teknologi Informasi dan Komunikasi",
            "tanggal_terbit": "2025-01-05",
            "url_tdpse_detail": "https://pse.komdigi.go.id/tdpse-detail/22006",
            "website": "faqahdevelopcreativity.co.id"
        },
        {
            "id": "9de4aea8-9f19-4ace-95c9-5bffd52b4574",
            "nama_pse": "BOSTAP MAKMUR BERKAT",
            "nama_se": "IZINBERES.COM",
            "sektor": "Sektor Perdagangan",
            "tanggal_terbit": "2025-01-05",
            "url_tdpse_detail": "https://pse.komdigi.go.id/tdpse-detail/22007",
            "website": "izinberes.com"
        },
        {
            "id": "9de582eb-36a4-487e-9ba8-5f26062fa158",
            "nama_pse": "REKXY SANJAYA PUTRA",
            "nama_se": "LAYANAN JASA PENGURUSAN PERIZINAN USAHA",
            "sektor": "Sektor Perdagangan",
            "tanggal_terbit": "2025-01-05",
            "url_tdpse_detail": "https://pse.komdigi.go.id/tdpse-detail/22008",
            "website": "consultantduaputra.com"
        },
        {
            "id": "9de38e96-ac14-43e6-81b3-c1b5017a51fe",
            "nama_pse": "GLOBAL SOLUTIONS INDONESIA",
            "nama_se": "GLOBAL SOLUTIONS INDONESIA",
            "sektor": "Sektor Teknologi Informasi dan Komunikasi",
            "tanggal_terbit": "2025-01-04",
            "url_tdpse_detail": "https://pse.komdigi.go.id/tdpse-detail/22004",
            "website": "ruangdigi.id"
        },
        {
            "id": "9de1a726-da24-4cd2-9aae-142c7eaa1e33",
            "nama_pse": "MARSELINO HERVAN FIRANDO",
            "nama_se": "pamadak net",
            "sektor": "Sektor Perdagangan, Sektor Teknologi Informasi dan Komunikasi",
            "tanggal_terbit": "2025-01-04",
            "url_tdpse_detail": "https://pse.komdigi.go.id/tdpse-detail/21996",
            "website": "pamadaknet.blogspot.co.id"
        },
        {
            "id": "9de1b432-6d51-4080-8a3a-4ef76db53648",
            "nama_pse": "ARIF SUNARKO",
            "nama_se": "arief-sunarko.blogspot.co.id",
            "sektor": "Sektor Perdagangan, Sektor Teknologi Informasi dan Komunikasi",
            "tanggal_terbit": "2025-01-04",
            "url_tdpse_detail": "https://pse.komdigi.go.id/tdpse-detail/21997",
            "website": "arief-sunarko.blogspot.co.id"
        },
        {
            "id": "9de2527e-9b5a-4491-9f03-018c8e75196d",
            "nama_pse": "SASIKIRANA KARYA WISATA",
            "nama_se": "SAKAWIS CONSULTANT",
            "sektor": "Sektor Perdagangan",
            "tanggal_terbit": "2025-01-04",
            "url_tdpse_detail": "https://pse.komdigi.go.id/tdpse-detail/21998",
            "website": "sakawis.com"
        },
        {
            "id": "9de25a1b-f35c-4c0b-8dba-2002e021b2be",
            "nama_pse": "BAGAS PRATAMA",
            "nama_se": "VEIROPAY INDONESIA",
            "sektor": "Sektor Perdagangan, Sektor Teknologi Informasi dan Komunikasi",
            "tanggal_terbit": "2025-01-04",
            "url_tdpse_detail": "https://pse.komdigi.go.id/tdpse-detail/21999",
            "website": "veiropay.com"
        },
        {
            "id": "9de29930-9f44-4f04-b48c-6d53a714aaf5",
            "nama_pse": "QN INTERNATIONAL INDONESIA",
            "nama_se": "QN INTERNATIONAL INDONESIA",
            "sektor": "Sektor Perdagangan",
            "tanggal_terbit": "2025-01-04",
            "url_tdpse_detail": "https://pse.komdigi.go.id/tdpse-detail/22001",
            "website": "qnet-indonesia.co.id"
        },
        {
            "id": "9de376e0-0836-4e96-98e5-8293b82abefb",
            "nama_pse": "DEEP DIGITAL DEVELOPMENT",
            "nama_se": "DIGITAL TIGA",
            "sektor": "Sektor Perdagangan",
            "tanggal_terbit": "2025-01-04",
            "url_tdpse_detail": "https://pse.komdigi.go.id/tdpse-detail/22003",
            "website": "digitaltiga.com"
        },
        {
            "id": "9de39629-3478-4583-b57f-51944ede18b9",
            "nama_pse": "NEWUS TEKNOLOGI",
            "nama_se": "SIMPUSKES",
            "sektor": "Sektor Kesehatan, Sektor Teknologi Informasi dan Komunikasi",
            "tanggal_terbit": "2025-01-04",
            "url_tdpse_detail": "https://pse.komdigi.go.id/tdpse-detail/22005",
            "website": "simpuskes.com"
        },
        {
            "id": "9de28fb8-c2a5-44ce-8c2b-ae235ed334cd",
            "nama_pse": "ASLI DIGITAL SOFTWARE",
            "nama_se": "ASLI DIGITAL SOFWARE",
            "sektor": "Sektor Perdagangan, Sektor Teknologi Informasi dan Komunikasi",
            "tanggal_terbit": "2025-01-04",
            "url_tdpse_detail": "https://pse.komdigi.go.id/tdpse-detail/22000",
            "website": "keppo.id"
        },
        {
            "id": "9de2d16e-a2c9-4120-812d-5c3fdef6e810",
            "nama_pse": "POPONG ISBUDAYA",
            "nama_se": "PT. ALASKA WARTA MEDIA",
            "sektor": "Sektor Teknologi Informasi dan Komunikasi",
            "tanggal_terbit": "2025-01-04",
            "url_tdpse_detail": "https://pse.komdigi.go.id/tdpse-detail/22002",
            "website": "wartajawatengah.com"
        },
        {
            "id": "9de10cd0-928d-4d28-bfbb-c499cd82c9ea",
            "nama_pse": "SISTEM ELEKTRONIKA ASIA",
            "nama_se": "JOB CITY MOBILE",
            "sektor": "Sektor Teknologi Informasi dan Komunikasi",
            "tanggal_terbit": "2025-01-03",
            "url_tdpse_detail": "https://pse.komdigi.go.id/tdpse-detail/21993",
            "website": "-"
        },
        {
            "id": "9de0c6fb-cee5-4f38-bcf5-9e2bc8c035df",
            "nama_pse": "HELIOS INFORMATIKA NUSANTARA",
            "nama_se": "HELIOS MOBILITY SUITE",
            "sektor": "Sektor Teknologi Informasi dan Komunikasi",
            "tanggal_terbit": "2025-01-03",
            "url_tdpse_detail": "https://pse.komdigi.go.id/tdpse-detail/21990",
            "website": "mobility.helios.id"
        },
        {
            "id": "9de07b84-bb59-4584-8e92-7c61cd3653b1",
            "nama_pse": "SISTEM ELEKTRONIKA ASIA",
            "nama_se": "JOB CITY",
            "sektor": "Sektor Teknologi Informasi dan Komunikasi",
            "tanggal_terbit": "2025-01-03",
            "url_tdpse_detail": "https://pse.komdigi.go.id/tdpse-detail/21984",
            "website": "jobcity.id"
        },
        {
            "id": "9de054bf-2b1c-4a40-a945-a52dc387140f",
            "nama_pse": "BANK BTPN SYARIAH",
            "nama_se": "SITEPAT",
            "sektor": "Sektor Keuangan",
            "tanggal_terbit": "2025-01-03",
            "url_tdpse_detail": "https://pse.komdigi.go.id/tdpse-detail/21982",
            "website": "-"
        },
        {
            "id": "9de0ff00-eca2-4981-b2e9-60ddfc32aff4",
            "nama_pse": "RAMERAME PERTIWI DIGITAL",
            "nama_se": "RAMERAME BY COOP PERTIWI",
            "sektor": "Sektor Teknologi Informasi dan Komunikasi",
            "tanggal_terbit": "2025-01-03",
            "url_tdpse_detail": "https://pse.komdigi.go.id/tdpse-detail/21992",
            "website": "ramerame.co.id"
        },
        {
            "id": "9de0b10e-05ab-4d6c-ab15-4d43b56c1f3e",
            "nama_pse": "CASCOM BERKAH MANDIRI",
            "nama_se": "AMATIPRO",
            "sektor": "Sektor Kesehatan, Sektor Teknologi Informasi dan Komunikasi",
            "tanggal_terbit": "2025-01-03",
            "url_tdpse_detail": "https://pse.komdigi.go.id/tdpse-detail/21987",
            "website": "amati.indoccom.co.id"
        }
    ],
    "processingTimeMs": 48,
    "query": "",
    "totalHits": 19131,
    "hitsPerPage": 50,
    "page": 14,
    "totalPages": 383
}