{
    "hits": [
        {
            "id": "9cb1ac85-b062-42b9-aa70-273c634fdea8",
            "nama_pse": "TEKNOLOGI PAMADYA ANALITIKA",
            "nama_se": "MEDITAP FOR PROVIDER",
            "sektor": "Sektor Kesehatan, Sektor Teknologi Informasi dan Komunikasi",
            "tanggal_terbit": "2024-05-15",
            "url_tdpse_detail": "https://pse.komdigi.go.id/tdpse-detail/18925",
            "website": "provider.meditap.id"
        },
        {
            "id": "9cb1ac70-032c-4610-b49b-13b9eb5dbf1c",
            "nama_pse": "NASANUERA GLOBAL SYNERGY",
            "nama_se": "NASANUERA",
            "sektor": "Sektor Perdagangan",
            "tanggal_terbit": "2024-05-15",
            "url_tdpse_detail": "https://pse.komdigi.go.id/tdpse-detail/18927",
            "website": "nasanuera.com"
        },
        {
            "id": "9cb1ac5b-5645-42a2-980e-1fddea2735ca",
            "nama_pse": "TEKNOLOGI PAMADYA ANALITIKA",
            "nama_se": "MEDITAP MOBILE",
            "sektor": "Sektor Kesehatan, Sektor Teknologi Informasi dan Komunikasi",
            "tanggal_terbit": "2024-05-15",
            "url_tdpse_detail": "https://pse.komdigi.go.id/tdpse-detail/18926",
            "website": "m.meditap.id"
        },
        {
            "id": "9cb1ac70-07b8-4279-bd8f-6ca8e09ff017",
            "nama_pse": "MULTIGUNA TUNAS ABADI",
            "nama_se": "PT. MULTIGUNA TUNAS ABADI",
            "sektor": "Sektor Perdagangan",
            "tanggal_terbit": "2024-05-15",
            "url_tdpse_detail": "https://pse.komdigi.go.id/tdpse-detail/18930",
            "website": "multigunatunasabadi.com"
        },
        {
            "id": "9cb1ac70-0b6f-4385-98a5-a992b1b5701c",
            "nama_pse": "BIRU LINTAS NUSANTARA",
            "nama_se": "NARATAMA RELOAD",
            "sektor": "Sektor Perdagangan",
            "tanggal_terbit": "2024-05-15",
            "url_tdpse_detail": "https://pse.komdigi.go.id/tdpse-detail/18931",
            "website": "-"
        },
        {
            "id": "9cb1ac5b-5940-4d91-bdac-86246233cd15",
            "nama_pse": "STARCOM TECHNOLOGY INDONESIA",
            "nama_se": "STARCOM",
            "sektor": "Sektor Teknologi Informasi dan Komunikasi",
            "tanggal_terbit": "2024-05-15",
            "url_tdpse_detail": "https://pse.komdigi.go.id/tdpse-detail/18932",
            "website": "starcomindo.com"
        },
        {
            "id": "9cb1ac5b-5c85-45d1-971a-870eb92ac688",
            "nama_pse": "EXXIS GLOBAL GROUP",
            "nama_se": "MITRAKAMU",
            "sektor": "Sektor Perdagangan",
            "tanggal_terbit": "2024-05-15",
            "url_tdpse_detail": "https://pse.komdigi.go.id/tdpse-detail/18933",
            "website": "mitrakamu.com"
        },
        {
            "id": "9cb1ac85-bc0e-42a5-819e-405c86695e71",
            "nama_pse": "GLOBAL PIRANTI TEKNOLOGI",
            "nama_se": "VIDEA SYSTEM MONITORING SCHOOL",
            "sektor": "Sektor Perdagangan, Sektor Teknologi Informasi dan Komunikasi",
            "tanggal_terbit": "2024-05-15",
            "url_tdpse_detail": "https://pse.komdigi.go.id/tdpse-detail/18934",
            "website": "videaclass.com"
        },
        {
            "id": "9cb1ac54-c0df-4831-92eb-a4aaeca906eb",
            "nama_pse": "SETIAWAN MOELJONO",
            "nama_se": "MEDIA SOLUSINDO",
            "sektor": "Sektor Teknologi Informasi dan Komunikasi",
            "tanggal_terbit": "2024-05-14",
            "url_tdpse_detail": "https://pse.komdigi.go.id/tdpse-detail/18913",
            "website": "-"
        },
        {
            "id": "9cb1ac6f-ed23-4528-a73a-eda5498020d5",
            "nama_pse": "RISELL MITRA ASIA",
            "nama_se": "BUYVELY",
            "sektor": "Sektor Perdagangan",
            "tanggal_terbit": "2024-05-14",
            "url_tdpse_detail": "https://pse.komdigi.go.id/tdpse-detail/18914",
            "website": "-"
        },
        {
            "id": "9cb1ac6f-f095-450a-bb7e-ca98f53edaa9",
            "nama_pse": "INDO DIGITAL SEJAHTERA",
            "nama_se": "BEEZA",
            "sektor": "Sektor Teknologi Informasi dan Komunikasi",
            "tanggal_terbit": "2024-05-14",
            "url_tdpse_detail": "https://pse.komdigi.go.id/tdpse-detail/18915",
            "website": "Beeza.id"
        },
        {
            "id": "9cb1ac6f-f464-47c1-a96e-d8591ae5314d",
            "nama_pse": "MEDIA TRANSFORMASI NESIA",
            "nama_se": "MTNCLOUD",
            "sektor": "Sektor Perdagangan, Sektor Teknologi Informasi dan Komunikasi",
            "tanggal_terbit": "2024-05-14",
            "url_tdpse_detail": "https://pse.komdigi.go.id/tdpse-detail/18916",
            "website": "mtncloud.id"
        },
        {
            "id": "9cb1ac6f-f846-4c96-a0db-f08cd7e4f167",
            "nama_pse": "APPLEDORE MGILANGJANUAR LAB",
            "nama_se": "LATERON.EMAIL",
            "sektor": "Sektor Teknologi Informasi dan Komunikasi",
            "tanggal_terbit": "2024-05-14",
            "url_tdpse_detail": "https://pse.komdigi.go.id/tdpse-detail/18917",
            "website": "lateron.email"
        },
        {
            "id": "9cb1ac6f-fbbb-45d6-aeeb-1129b54c01db",
            "nama_pse": "PEMBANTUKU SUKSES MAKMUR JAYA",
            "nama_se": "PT. PEMBANTUKU SUKSES MAKMUR JAYA",
            "sektor": "Sektor Perdagangan",
            "tanggal_terbit": "2024-05-14",
            "url_tdpse_detail": "https://pse.komdigi.go.id/tdpse-detail/18918",
            "website": "pembantuku.co.id"
        },
        {
            "id": "9cb1ac85-97da-4acd-862f-6281c777054f",
            "nama_pse": "APPLEDORE MGILANGJANUAR LAB",
            "nama_se": "BUSINESSWORTH.PRO",
            "sektor": "Sektor Teknologi Informasi dan Komunikasi",
            "tanggal_terbit": "2024-05-14",
            "url_tdpse_detail": "https://pse.komdigi.go.id/tdpse-detail/18919",
            "website": "BusinessWorth.pro"
        },
        {
            "id": "9cb1ac6f-ff53-422a-a3c1-b67c5b0017dc",
            "nama_pse": "APPLEDORE MGILANGJANUAR LAB",
            "nama_se": "LIVINGCOST",
            "sektor": "Sektor Teknologi Informasi dan Komunikasi",
            "tanggal_terbit": "2024-05-14",
            "url_tdpse_detail": "https://pse.komdigi.go.id/tdpse-detail/18920",
            "website": "www.livingcost.pro"
        },
        {
            "id": "9cb1ac85-a22c-4941-bf3a-a707a61996c6",
            "nama_pse": "LARIST MITRA LESTARI",
            "nama_se": "LARIST MITRA LESTARI",
            "sektor": "Sektor Teknologi Informasi dan Komunikasi",
            "tanggal_terbit": "2024-05-14",
            "url_tdpse_detail": "https://pse.komdigi.go.id/tdpse-detail/18921",
            "website": "-"
        },
        {
            "id": "9cb1ac85-a75b-4cab-9733-3dc097ec4513",
            "nama_pse": "BIKIN INOVASI TEKNOLOGI",
            "nama_se": "BIKINCV",
            "sektor": "Sektor Teknologi Informasi dan Komunikasi",
            "tanggal_terbit": "2024-05-14",
            "url_tdpse_detail": "https://pse.komdigi.go.id/tdpse-detail/18922",
            "website": "bikincv.com"
        },
        {
            "id": "9cb1ac5a-0579-41ba-8d65-936a72a0fd88",
            "nama_pse": "USADA KARYA",
            "nama_se": "SIMRS",
            "sektor": "Sektor Kesehatan",
            "tanggal_terbit": "2024-05-13",
            "url_tdpse_detail": "https://pse.komdigi.go.id/tdpse-detail/18903",
            "website": "-"
        },
        {
            "id": "9cb1ac85-3c4c-46a0-9ca2-5bdb56dd09d4",
            "nama_pse": "AKULAKU FINANCE INDONESIA",
            "nama_se": "AKULAKU FINANCE (APLIKASI DEALER)",
            "sektor": "Sektor Keuangan",
            "tanggal_terbit": "2024-05-13",
            "url_tdpse_detail": "https://pse.komdigi.go.id/tdpse-detail/18897",
            "website": "-"
        },
        {
            "id": "9cb1ac85-418a-4a3a-80a6-0864be32a962",
            "nama_pse": "AKULAKU FINANCE INDONESIA",
            "nama_se": "AKULAKU FINANCE (WEBSITE DEALER DASHBOARD)",
            "sektor": "Sektor Keuangan",
            "tanggal_terbit": "2024-05-13",
            "url_tdpse_detail": "https://pse.komdigi.go.id/tdpse-detail/18898",
            "website": "autoloan-vendor.akucredit.com"
        },
        {
            "id": "9cb1ac85-5b94-4f3e-9909-ade3f8bda438",
            "nama_pse": "INDOTAMA MAKMUR PERKASA",
            "nama_se": "INDOSERTIFIKASI",
            "sektor": "Sektor Perdagangan",
            "tanggal_terbit": "2024-05-13",
            "url_tdpse_detail": "https://pse.komdigi.go.id/tdpse-detail/18904",
            "website": "indosertifkasi.com"
        },
        {
            "id": "9cb1ac85-6d18-4dbc-8e53-4027a4cd1885",
            "nama_pse": "JACO NUSANTARA MANDIRI",
            "nama_se": "JACO TV SHOPPING",
            "sektor": "Sektor Perdagangan",
            "tanggal_terbit": "2024-05-13",
            "url_tdpse_detail": "https://pse.komdigi.go.id/tdpse-detail/18894",
            "website": "jaco.co.id"
        },
        {
            "id": "9cb1ac85-7ab1-45ab-b0b5-43ab95e24bf8",
            "nama_pse": "NOFRIJON",
            "nama_se": "SINDOTIMES.COM",
            "sektor": "Sektor Teknologi Informasi dan Komunikasi",
            "tanggal_terbit": "2024-05-13",
            "url_tdpse_detail": "https://pse.komdigi.go.id/tdpse-detail/18893",
            "website": "sindotimes.com"
        },
        {
            "id": "9cb1ac6f-c9f9-472c-8324-0b398249643f",
            "nama_pse": "AKSELERASI KECERDASAN BUATAN",
            "nama_se": "LOKAL.SO",
            "sektor": "Sektor Teknologi Informasi dan Komunikasi",
            "tanggal_terbit": "2024-05-13",
            "url_tdpse_detail": "https://pse.komdigi.go.id/tdpse-detail/18895",
            "website": "lokal.so"
        },
        {
            "id": "9cb1ac85-89c6-4505-ada2-b224ed6ff687",
            "nama_pse": "ASRUL HANAFI",
            "nama_se": "RESMUME",
            "sektor": "Sektor Teknologi Informasi dan Komunikasi",
            "tanggal_terbit": "2024-05-13",
            "url_tdpse_detail": "https://pse.komdigi.go.id/tdpse-detail/18896",
            "website": "resmume.com"
        },
        {
            "id": "9cb1ac6f-cd38-45fe-9af4-49355992d695",
            "nama_pse": "DIVERSIFIKASI POTENSI NUSANTARA",
            "nama_se": "DIVMEDIA",
            "sektor": "Sektor Teknologi Informasi dan Komunikasi",
            "tanggal_terbit": "2024-05-13",
            "url_tdpse_detail": "https://pse.komdigi.go.id/tdpse-detail/18899",
            "website": "-"
        },
        {
            "id": "9cb1ac6f-d3db-4140-8fdb-fdb5a9ce92eb",
            "nama_pse": "OSLE LEGAL SOLUTION",
            "nama_se": "WEBSITE OSLE INDONESIA",
            "sektor": "Sektor Perdagangan",
            "tanggal_terbit": "2024-05-13",
            "url_tdpse_detail": "https://pse.komdigi.go.id/tdpse-detail/18901",
            "website": "osleindonesia.com"
        },
        {
            "id": "9cb1ac5b-371a-4035-a9a3-305b5196cc50",
            "nama_pse": "MEDIA TRANSFORMASI NESIA",
            "nama_se": "YANWOGLOBAL",
            "sektor": "Sektor Perdagangan, Sektor Teknologi Informasi dan Komunikasi",
            "tanggal_terbit": "2024-05-13",
            "url_tdpse_detail": "https://pse.komdigi.go.id/tdpse-detail/18906",
            "website": "yanwoglobal.com"
        },
        {
            "id": "9cb1ac6f-d779-438b-928b-d6fc73981287",
            "nama_pse": "MEDIA GEMA TIPIKOR",
            "nama_se": "PT MEDIA GEMA TIPIKOR",
            "sektor": "Sektor Teknologi Informasi dan Komunikasi",
            "tanggal_terbit": "2024-05-13",
            "url_tdpse_detail": "https://pse.komdigi.go.id/tdpse-detail/18902",
            "website": "Gematipikor.com"
        },
        {
            "id": "9cb1ac6f-de90-4da0-b6dc-fe99e39c2d1b",
            "nama_pse": "IMPIAN ANAK INDONESIA",
            "nama_se": "BUKUMED",
            "sektor": "Sektor Kesehatan",
            "tanggal_terbit": "2024-05-13",
            "url_tdpse_detail": "https://pse.komdigi.go.id/tdpse-detail/18905",
            "website": "bukumed.com"
        },
        {
            "id": "9cb1ac5b-3d9b-4eaa-847b-fb783a2051e3",
            "nama_pse": "GLOBAL SUKSES DIGITAL",
            "nama_se": "DOSS.CO.ID \u0026 APLIKASI MOBILE DOSS",
            "sektor": "Sektor Perdagangan, Sektor Teknologi Informasi dan Komunikasi",
            "tanggal_terbit": "2024-05-13",
            "url_tdpse_detail": "https://pse.komdigi.go.id/tdpse-detail/18907",
            "website": "doss.co.id"
        },
        {
            "id": "9cb1ac5b-41cd-49b6-bfa7-dc433f48348b",
            "nama_pse": "RADNAS KENDAYU TAMA",
            "nama_se": "SIM MEDIC",
            "sektor": "Sektor Kesehatan",
            "tanggal_terbit": "2024-05-13",
            "url_tdpse_detail": "https://pse.komdigi.go.id/tdpse-detail/18908",
            "website": "-"
        },
        {
            "id": "9cb1ac6f-e227-4720-8526-8084b7c546f5",
            "nama_pse": "DENAYYA DIGITAL TEKNOLOGI",
            "nama_se": "DENAYYA DIGITAL TEKNOLOGI",
            "sektor": "Sektor Perdagangan",
            "tanggal_terbit": "2024-05-13",
            "url_tdpse_detail": "https://pse.komdigi.go.id/tdpse-detail/18909",
            "website": "-"
        },
        {
            "id": "9cb1ac6f-e62d-42af-a9ad-34b901cf7904",
            "nama_pse": "SOPHY KARYA ABADI",
            "nama_se": "SKA GROUP",
            "sektor": "Sektor Teknologi Informasi dan Komunikasi",
            "tanggal_terbit": "2024-05-13",
            "url_tdpse_detail": "https://pse.komdigi.go.id/tdpse-detail/18910",
            "website": "sophykaryaabadi.com"
        },
        {
            "id": "9cb1ac6f-e99e-43e3-847a-688647226b46",
            "nama_pse": "SYAHRUL MUHARROM",
            "nama_se": "MEDRECORDPRO",
            "sektor": "Sektor Kesehatan",
            "tanggal_terbit": "2024-05-13",
            "url_tdpse_detail": "https://pse.komdigi.go.id/tdpse-detail/18911",
            "website": "klinik-mmc.mulyagrup.com"
        },
        {
            "id": "9cb1ac5b-44fd-458b-a22e-da91d3ee4828",
            "nama_pse": "TRAH TECH SOLUTIONS",
            "nama_se": "TRAH MEDIC",
            "sektor": "Sektor Kesehatan",
            "tanggal_terbit": "2024-05-13",
            "url_tdpse_detail": "https://pse.komdigi.go.id/tdpse-detail/18912",
            "website": "trahtechindo.com"
        },
        {
            "id": "9cb1ac5b-2d15-4622-a501-e7200d2de9d3",
            "nama_pse": "JIRO SOLUTIONS CENTER",
            "nama_se": "JIRO SOLUTIONS CENTER",
            "sektor": "Sektor Teknologi Informasi dan Komunikasi",
            "tanggal_terbit": "2024-05-12",
            "url_tdpse_detail": "https://pse.komdigi.go.id/tdpse-detail/18892",
            "website": "jirosc.com"
        },
        {
            "id": "9cb1ac6f-c6c8-435e-8c9c-cd090e898927",
            "nama_pse": "MUHAMMAD AJI PANGESTU",
            "nama_se": "PORTAL SEMINAR NASIONAL JURNAL TEKNIK SIPIL POLNES",
            "sektor": "Sektor Teknologi Informasi dan Komunikasi",
            "tanggal_terbit": "2024-05-11",
            "url_tdpse_detail": "https://pse.komdigi.go.id/tdpse-detail/18887",
            "website": "semnas2023.jurteksip.polnes.ac.id"
        },
        {
            "id": "9cb1ac85-6a3b-4363-9715-cd3496011e69",
            "nama_pse": "BEDJO MULTI KREASI",
            "nama_se": "TIKET BERSAMA",
            "sektor": "Sektor Perdagangan",
            "tanggal_terbit": "2024-05-11",
            "url_tdpse_detail": "https://pse.komdigi.go.id/tdpse-detail/18888",
            "website": "tiketbersama.com"
        },
        {
            "id": "9cb1ac85-6ffd-4bef-b1c4-56418f9a4cb3",
            "nama_pse": "EPAYU DIGITAL KREATIF",
            "nama_se": "VIAPAYPAL.ID",
            "sektor": "Sektor Perdagangan",
            "tanggal_terbit": "2024-05-11",
            "url_tdpse_detail": "https://pse.komdigi.go.id/tdpse-detail/18889",
            "website": "viapaypal.id"
        },
        {
            "id": "9cb1ac85-72ee-4414-866c-368123582e9b",
            "nama_pse": "HAFIZ QADRIL",
            "nama_se": "TOPUP GO",
            "sektor": "Sektor Teknologi Informasi dan Komunikasi",
            "tanggal_terbit": "2024-05-11",
            "url_tdpse_detail": "https://pse.komdigi.go.id/tdpse-detail/18890",
            "website": "topupgo.id"
        },
        {
            "id": "9cb1ac85-761b-4e53-93bd-79c7546c3b5b",
            "nama_pse": "JAWA LAB",
            "nama_se": "REMIO",
            "sektor": "Sektor Kesehatan",
            "tanggal_terbit": "2024-05-11",
            "url_tdpse_detail": "https://pse.komdigi.go.id/tdpse-detail/18891",
            "website": "remio.jawalab.com"
        },
        {
            "id": "9cb1ac5a-b896-4038-943f-9aafa010d22e",
            "nama_pse": "MICRO BANK SOLUTION",
            "nama_se": "BPR HARTA MANDIRI LAPOR",
            "sektor": "Sektor Teknologi Informasi dan Komunikasi",
            "tanggal_terbit": "2024-05-10",
            "url_tdpse_detail": "https://pse.komdigi.go.id/tdpse-detail/18884",
            "website": "-"
        },
        {
            "id": "9cb1ac6f-b503-42e3-bbc9-c199d2d9fba7",
            "nama_pse": "TERRA CHARGE INDONESIA",
            "nama_se": "TERRA CHARGE",
            "sektor": "Sektor Perdagangan, Sektor Energi dan Sumber Daya Mineral, Sektor Teknologi Informasi dan Komunikasi",
            "tanggal_terbit": "2024-05-10",
            "url_tdpse_detail": "https://pse.komdigi.go.id/tdpse-detail/18880",
            "website": "terra-charge.co.id"
        },
        {
            "id": "9cb1ac5b-15e4-464b-92f8-1ba2f9333286",
            "nama_pse": "RISKA ABADI PERKASA",
            "nama_se": "METRO24.CO.ID",
            "sektor": "Sektor Teknologi Informasi dan Komunikasi",
            "tanggal_terbit": "2024-05-10",
            "url_tdpse_detail": "https://pse.komdigi.go.id/tdpse-detail/18881",
            "website": "Metro24.co.id"
        },
        {
            "id": "9cb1ac6f-c38c-442a-ac57-2064c1d92f17",
            "nama_pse": "FREYA JAYA NUSANTARA",
            "nama_se": "FREYA JAYA NUSANTARA",
            "sektor": "Sektor Perdagangan",
            "tanggal_terbit": "2024-05-10",
            "url_tdpse_detail": "https://pse.komdigi.go.id/tdpse-detail/18882",
            "website": "-"
        },
        {
            "id": "9cb1ac5b-18bc-47fd-ae70-a61262b96cf1",
            "nama_pse": "PANGLIMA ONLINE INDONESIA",
            "nama_se": "PANGLIMA ONLINE INDONESIA",
            "sektor": "Sektor Perdagangan",
            "tanggal_terbit": "2024-05-10",
            "url_tdpse_detail": "https://pse.komdigi.go.id/tdpse-detail/18883",
            "website": "panglima.online"
        },
        {
            "id": "9cb1ac5b-1bef-42ba-8db4-c69eba8800ac",
            "nama_pse": "KREDIT CERMAT TECHNOLOGY",
            "nama_se": "INTELLIGENT MANAGEMENT SYSTEM",
            "sektor": "Sektor Teknologi Informasi dan Komunikasi",
            "tanggal_terbit": "2024-05-10",
            "url_tdpse_detail": "https://pse.komdigi.go.id/tdpse-detail/18885",
            "website": "ptkreditcermat.com"
        },
        {
            "id": "9cb1ac5b-28b9-43d7-b33f-e5836fc4b0ed",
            "nama_pse": "WIFIKU INDONESIA",
            "nama_se": "OMNIA",
            "sektor": "Sektor Kesehatan, Sektor Teknologi Informasi dan Komunikasi",
            "tanggal_terbit": "2024-05-10",
            "url_tdpse_detail": "https://pse.komdigi.go.id/tdpse-detail/18886",
            "website": "wifiku.net"
        }
    ],
    "processingTimeMs": 2,
    "query": "",
    "totalHits": 19131,
    "hitsPerPage": 50,
    "page": 67,
    "totalPages": 383
}