{
    "hits": [
        {
            "id": "9cb1ab8a-9f79-4140-9b77-51f8b0fdfe68",
            "nama_pse": "M SYAMSUL HADI",
            "nama_se": "DANKEDEV WEB DEVELOPMENT",
            "sektor": "Sektor Perdagangan, Sektor Perdagangan, Sektor Perdagangan",
            "tanggal_terbit": "2022-02-13",
            "url_tdpse_detail": "https://pse.komdigi.go.id/tdpse-detail/3239",
            "website": "dankedev.com"
        },
        {
            "id": "9cb1ab7a-fcd3-4bb6-a12f-8734a46bc9ad",
            "nama_pse": "M SYAMSUL HADI",
            "nama_se": "DANKEDEV",
            "sektor": "Sektor Perdagangan, Sektor Perdagangan, Sektor Perdagangan, Sektor Teknologi Informasi dan Komunikasi, Sektor Teknologi Informasi dan Komunikasi, Sektor Teknologi Informasi dan Komunikasi",
            "tanggal_terbit": "2022-02-13",
            "url_tdpse_detail": "https://pse.komdigi.go.id/tdpse-detail/3240",
            "website": "dankedev.com"
        },
        {
            "id": "9cb1ab78-e5e4-4c98-a0c3-d2f4f6e166e8",
            "nama_pse": "KUMAJAYA",
            "nama_se": "EFRASNET",
            "sektor": "Sektor Perdagangan, Sektor Perdagangan, Sektor Teknologi Informasi dan Komunikasi, Sektor Teknologi Informasi dan Komunikasi",
            "tanggal_terbit": "2022-02-12",
            "url_tdpse_detail": "https://pse.komdigi.go.id/tdpse-detail/3238",
            "website": "-"
        },
        {
            "id": "9cb1ab6e-60ae-4eb3-8d90-5e12f59c669e",
            "nama_pse": "TERNAKNESIA FARM INNOVATION",
            "nama_se": "TERNAKNESIA",
            "sektor": "Sektor Perdagangan, Sektor Perdagangan",
            "tanggal_terbit": "2022-02-11",
            "url_tdpse_detail": "https://pse.komdigi.go.id/tdpse-detail/3228",
            "website": "Ternaknesia.com"
        },
        {
            "id": "9cb1ab6e-97f1-41c2-8040-6f14daeb4910",
            "nama_pse": "MAHAKARYA INTI TECHNOLOGY",
            "nama_se": "INAPEDIA",
            "sektor": "Sektor Perdagangan, Sektor Perdagangan, Sektor Perdagangan, Sektor Perdagangan, Sektor Kesehatan, Sektor Kesehatan, Sektor Kesehatan, Sektor Kesehatan, Sektor Teknologi Informasi dan Komunikasi, Sektor Teknologi Informasi dan Komunikasi, Sektor Teknologi Informasi dan Komunikasi, Sektor Teknologi Informasi dan Komunikasi, Sektor Pangan, Sektor Pangan, Sektor Pangan, Sektor Pangan",
            "tanggal_terbit": "2022-02-11",
            "url_tdpse_detail": "https://pse.komdigi.go.id/tdpse-detail/3230",
            "website": "inapedia.id"
        },
        {
            "id": "9cb1ab77-57bd-4e7b-8d37-76b0dc9153d4",
            "nama_pse": "MEDIA DIMENSI TEKNOLOGI INDONESIA",
            "nama_se": "EPAYPOS",
            "sektor": "Sektor Teknologi Informasi dan Komunikasi, Sektor Teknologi Informasi dan Komunikasi, Sektor Teknologi Informasi dan Komunikasi",
            "tanggal_terbit": "2022-02-11",
            "url_tdpse_detail": "https://pse.komdigi.go.id/tdpse-detail/3227",
            "website": "-"
        },
        {
            "id": "9cb1ab88-47eb-47cb-887e-e3c54cba583b",
            "nama_pse": "SMART FINTECH FOR YOU",
            "nama_se": "WWW.JOLLYMAXID.COM",
            "sektor": "Sektor Teknologi Informasi dan Komunikasi, Sektor Teknologi Informasi dan Komunikasi, Sektor Teknologi Informasi dan Komunikasi",
            "tanggal_terbit": "2022-02-11",
            "url_tdpse_detail": "https://pse.komdigi.go.id/tdpse-detail/3236",
            "website": "jollymaxid.com"
        },
        {
            "id": "9cb1ab81-5a70-4f06-8398-69b9546bc085",
            "nama_pse": "LINKNOW PUTELLA DIGITAL",
            "nama_se": "LINKNAU",
            "sektor": "Sektor Transportasi, Sektor Transportasi, Sektor Teknologi Informasi dan Komunikasi, Sektor Teknologi Informasi dan Komunikasi",
            "tanggal_terbit": "2022-02-11",
            "url_tdpse_detail": "https://pse.komdigi.go.id/tdpse-detail/3234",
            "website": "linknau.id"
        },
        {
            "id": "9cb1ab82-84ea-4d5f-b6ba-c47f7bc59228",
            "nama_pse": "ANOVA STREAMING STUDIO",
            "nama_se": "ANOVA STREAMING TV",
            "sektor": "Sektor Teknologi Informasi dan Komunikasi, Sektor Teknologi Informasi dan Komunikasi",
            "tanggal_terbit": "2022-02-11",
            "url_tdpse_detail": "https://pse.komdigi.go.id/tdpse-detail/3237",
            "website": "anovastreaming.com"
        },
        {
            "id": "9cb1ab8a-95ca-413b-a0bb-9f315736b4fc",
            "nama_pse": "NANOBIRU INTERNATIONAL INDONESIA",
            "nama_se": "-\tPT. NANOBIRU INTERNATIONAL INDONESIA",
            "sektor": "Sektor Perdagangan, Sektor Perdagangan, Sektor Keuangan, Sektor Keuangan, Sektor Teknologi Informasi dan Komunikasi, Sektor Teknologi Informasi dan Komunikasi",
            "tanggal_terbit": "2022-02-11",
            "url_tdpse_detail": "https://pse.komdigi.go.id/tdpse-detail/3225",
            "website": "http://www.nanobiru.id/"
        },
        {
            "id": "9cb1ab7a-ec01-4c35-9a5a-0280136f0292",
            "nama_pse": "NANOBIRU INTERNATIONAL INDONESIA",
            "nama_se": "NANOBIRU INTERNATIONAL INDONESIA",
            "sektor": "Sektor Perdagangan, Sektor Perdagangan",
            "tanggal_terbit": "2022-02-11",
            "url_tdpse_detail": "https://pse.komdigi.go.id/tdpse-detail/3226",
            "website": "http://www.nanobiru.id/"
        },
        {
            "id": "9cb1ab7a-edf9-4a57-a27c-08fe6e280925",
            "nama_pse": "SINERGI SENTRA SEMESTA",
            "nama_se": "VALKYRIE",
            "sektor": "Sektor Perdagangan, Sektor Perdagangan",
            "tanggal_terbit": "2022-02-11",
            "url_tdpse_detail": "https://pse.komdigi.go.id/tdpse-detail/3232",
            "website": "sss-universe.co.id"
        },
        {
            "id": "9cb1ab7a-f81b-43d7-8893-ca2a2bd724c8",
            "nama_pse": "RDH GEMILANG SUKSES",
            "nama_se": "WWW.JASACONNECT.COM",
            "sektor": "Sektor Perdagangan, Sektor Perdagangan, Sektor Transportasi, Sektor Transportasi, Sektor Kesehatan, Sektor Kesehatan",
            "tanggal_terbit": "2022-02-11",
            "url_tdpse_detail": "https://pse.komdigi.go.id/tdpse-detail/3233",
            "website": "pro.carijasa.co"
        },
        {
            "id": "9cb1ab85-45e8-4172-860b-c44ff7e1552e",
            "nama_pse": "BULLION ECOSYSTEM INTERNATIONAL",
            "nama_se": "METALBANK",
            "sektor": "Sektor Keuangan, Sektor Keuangan, Sektor Keuangan, Sektor Keuangan, Sektor Teknologi Informasi dan Komunikasi, Sektor Teknologi Informasi dan Komunikasi, Sektor Teknologi Informasi dan Komunikasi, Sektor Teknologi Informasi dan Komunikasi",
            "tanggal_terbit": "2022-02-11",
            "url_tdpse_detail": "https://pse.komdigi.go.id/tdpse-detail/3231",
            "website": "bullionecosystem.com/metalbank/"
        },
        {
            "id": "9cb1ab81-1353-4d20-8827-c49b8664757c",
            "nama_pse": "ELSA AURORA PERMATA DEWI",
            "nama_se": "ECOTROPI",
            "sektor": "Sektor Perdagangan, Sektor Perdagangan, Sektor Teknologi Informasi dan Komunikasi, Sektor Teknologi Informasi dan Komunikasi",
            "tanggal_terbit": "2022-02-10",
            "url_tdpse_detail": "https://pse.komdigi.go.id/tdpse-detail/3214",
            "website": "ecotropi.com"
        },
        {
            "id": "9cb1ab89-e55b-4378-a332-48525524003f",
            "nama_pse": "MMC TEKNOLOGI INDONESIA",
            "nama_se": "MMC MINERS",
            "sektor": "Sektor Teknologi Informasi dan Komunikasi, Sektor Teknologi Informasi dan Komunikasi",
            "tanggal_terbit": "2022-02-10",
            "url_tdpse_detail": "https://pse.komdigi.go.id/tdpse-detail/3222",
            "website": "MMCTI.COM"
        },
        {
            "id": "9cb1ab82-932d-4ed0-856c-ebc9343d5e4a",
            "nama_pse": "PELITA MEDIA NUSANTARA",
            "nama_se": "PELITAPEDIA.COM",
            "sektor": "Sektor Perdagangan, Sektor Perdagangan",
            "tanggal_terbit": "2022-02-10",
            "url_tdpse_detail": "https://pse.komdigi.go.id/tdpse-detail/3221",
            "website": "pelitapedia.com"
        },
        {
            "id": "9cb1ab82-a101-4259-975d-5143b6163860",
            "nama_pse": "BEU ABADI NUSANTARA",
            "nama_se": "BEUJEK",
            "sektor": "Sektor Perdagangan, Sektor Perdagangan, Sektor Perdagangan, Sektor Transportasi, Sektor Transportasi, Sektor Transportasi, Sektor Keuangan, Sektor Keuangan, Sektor Keuangan, Sektor Teknologi Informasi dan Komunikasi, Sektor Teknologi Informasi dan Komunikasi, Sektor Teknologi Informasi dan Komunikasi",
            "tanggal_terbit": "2022-02-10",
            "url_tdpse_detail": "https://pse.komdigi.go.id/tdpse-detail/3223",
            "website": "beujek.id"
        },
        {
            "id": "9cb1ab7d-4041-417a-9e5a-1be024e62e31",
            "nama_pse": "BULLION ECOSYSTEM INTERNATIONAL",
            "nama_se": "METALJEK",
            "sektor": "Sektor Transportasi, Sektor Transportasi, Sektor Transportasi, Sektor Transportasi, Sektor Teknologi Informasi dan Komunikasi, Sektor Teknologi Informasi dan Komunikasi, Sektor Teknologi Informasi dan Komunikasi, Sektor Teknologi Informasi dan Komunikasi",
            "tanggal_terbit": "2022-02-10",
            "url_tdpse_detail": "https://pse.komdigi.go.id/tdpse-detail/3219",
            "website": "metaljek.bullionecosystem.com/"
        },
        {
            "id": "9cb1ab8f-eff0-44c2-9b94-8992debec5db",
            "nama_pse": "HUKUM UNTUK MANUSIA",
            "nama_se": "HUKUM UNTUK MANUSIA",
            "sektor": "Sektor Perdagangan, Sektor Perdagangan, Sektor Keuangan, Sektor Keuangan",
            "tanggal_terbit": "2022-02-10",
            "url_tdpse_detail": "https://pse.komdigi.go.id/tdpse-detail/3215",
            "website": "human.co.id"
        },
        {
            "id": "9cb1ab90-bbf8-4052-9cd4-7a2ecd5b78a2",
            "nama_pse": "PAPADZUL SMM PANEL",
            "nama_se": "BELI SOSMED PPOB",
            "sektor": "Sektor Perdagangan, Sektor Perdagangan",
            "tanggal_terbit": "2022-02-10",
            "url_tdpse_detail": "https://pse.komdigi.go.id/tdpse-detail/3218",
            "website": "papadzul.co.id"
        },
        {
            "id": "9cb1ab9e-4ba5-4df0-b754-d6f459e7854a",
            "nama_pse": "DOKAT BERSAMA TEKNOLOGI",
            "nama_se": "DOKAT.ID",
            "sektor": "Sektor Perdagangan, Sektor Perdagangan, Sektor Teknologi Informasi dan Komunikasi, Sektor Teknologi Informasi dan Komunikasi",
            "tanggal_terbit": "2022-02-10",
            "url_tdpse_detail": "https://pse.komdigi.go.id/tdpse-detail/3224",
            "website": "dokat.id"
        },
        {
            "id": "9cb1ab9f-1c70-42db-a939-6dea63542539",
            "nama_pse": "AVRIST ASSURANCE",
            "nama_se": "AVRIST EAPP",
            "sektor": "Sektor Keuangan",
            "tanggal_terbit": "2022-02-10",
            "url_tdpse_detail": "https://pse.komdigi.go.id/tdpse-detail/3216",
            "website": "-"
        },
        {
            "id": "9cb1ab9f-1e71-45f2-9a73-c5e048522d78",
            "nama_pse": "AVRIST ASSURANCE",
            "nama_se": "AVRIST DIGITAL SIGNATURE",
            "sektor": "Sektor Keuangan",
            "tanggal_terbit": "2022-02-10",
            "url_tdpse_detail": "https://pse.komdigi.go.id/tdpse-detail/3217",
            "website": "eapps.avrist.com"
        },
        {
            "id": "9cb1ab69-e10f-406e-89bd-3f57776f33fb",
            "nama_pse": "LIKUID JAYA PRATAMA",
            "nama_se": "PENAWARAN EFEK MELALUI LAYANAN URUN DANA BERBASIS TEKNOLOGI INFORMASI (SECURITIES CROWDFUNDING)",
            "sektor": "Sektor Keuangan, Sektor Keuangan, Sektor Teknologi Informasi dan Komunikasi, Sektor Teknologi Informasi dan Komunikasi",
            "tanggal_terbit": "2022-02-10",
            "url_tdpse_detail": "https://pse.komdigi.go.id/tdpse-detail/3220",
            "website": "eku.id"
        },
        {
            "id": "9cb1ab6b-03a4-4490-a597-f655ada8b56a",
            "nama_pse": "DIGITAL NET ASET",
            "nama_se": "DNAPRO EVOLUTION EAST",
            "sektor": "Sektor Perdagangan, Sektor Perdagangan, Sektor Perdagangan",
            "tanggal_terbit": "2022-02-09",
            "url_tdpse_detail": "https://pse.komdigi.go.id/tdpse-detail/3211",
            "website": "digitalnetaset.com"
        },
        {
            "id": "9cb1ab67-71d0-4f76-b411-e35ad6d83551",
            "nama_pse": "MOKA TEKNOLOGI INDONESIA",
            "nama_se": "SELLY (LAYANAN MARKETPLACE)",
            "sektor": "Sektor Perdagangan, Sektor Perdagangan, Sektor Perdagangan",
            "tanggal_terbit": "2022-02-09",
            "url_tdpse_detail": "https://pse.komdigi.go.id/tdpse-detail/3200",
            "website": "selly.id"
        },
        {
            "id": "9cb1ab78-f1cd-437a-8609-45ab71598bf2",
            "nama_pse": "KREDIFAZZ DIGITAL INDONESIA",
            "nama_se": "KREDIFAZZ",
            "sektor": "Sektor Keuangan, Sektor Keuangan, Sektor Teknologi Informasi dan Komunikasi, Sektor Teknologi Informasi dan Komunikasi",
            "tanggal_terbit": "2022-02-09",
            "url_tdpse_detail": "https://pse.komdigi.go.id/tdpse-detail/3201",
            "website": "kredifazz.id"
        },
        {
            "id": "9cb1ab7a-1bb5-4a93-99a0-20a58f31a4b8",
            "nama_pse": "BERSAMA RAKYAT ONLINE",
            "nama_se": "BRO PAYDAY",
            "sektor": "Sektor Keuangan, Sektor Keuangan, Sektor Keuangan",
            "tanggal_terbit": "2022-02-09",
            "url_tdpse_detail": "https://pse.komdigi.go.id/tdpse-detail/3205",
            "website": "thebro.id"
        },
        {
            "id": "9cb1ab82-4781-40fb-8cbc-80aca47b0a4c",
            "nama_pse": "MICHA TEKNOLOGI INDONESIA BERSATU",
            "nama_se": "NANKAI",
            "sektor": "Sektor Perdagangan, Sektor Perdagangan",
            "tanggal_terbit": "2022-02-09",
            "url_tdpse_detail": "https://pse.komdigi.go.id/tdpse-detail/3208",
            "website": "nankai.co.id"
        },
        {
            "id": "9cb1ab82-4f4b-45db-bd95-2a191ed7d21e",
            "nama_pse": "ABBOTINDO BERKAT BERSAMA",
            "nama_se": "HTTPS://WWW.ABBOTFURNITURE.CO.ID/",
            "sektor": "Sektor Perdagangan, Sektor Perdagangan",
            "tanggal_terbit": "2022-02-09",
            "url_tdpse_detail": "https://pse.komdigi.go.id/tdpse-detail/3206",
            "website": "abbotfurniture.co.id/"
        },
        {
            "id": "9cb1ab8a-828b-47ed-ac11-120dcf26c43b",
            "nama_pse": "PER HAMAREN TECHNOLOGY INDONESIA",
            "nama_se": "PT PER HAMAREN TECHNOLOGY INDONESIA",
            "sektor": "Sektor Perdagangan, Sektor Perdagangan, Sektor Teknologi Informasi dan Komunikasi, Sektor Teknologi Informasi dan Komunikasi",
            "tanggal_terbit": "2022-02-09",
            "url_tdpse_detail": "https://pse.komdigi.go.id/tdpse-detail/3203",
            "website": "per-inc.com"
        },
        {
            "id": "9cb1ab7a-dd77-487d-9c58-9b43f3607e1a",
            "nama_pse": "CHANDRA KARYA PRAMUKA",
            "nama_se": "WWW.CHANDRAKARYA.COM",
            "sektor": "Sektor Perdagangan, Sektor Perdagangan",
            "tanggal_terbit": "2022-02-09",
            "url_tdpse_detail": "https://pse.komdigi.go.id/tdpse-detail/3204",
            "website": "chandrakarya.com"
        },
        {
            "id": "9cb1ab7a-ea01-4d7d-8797-61129448a0b0",
            "nama_pse": "DWIJAYA TEKNOLOGI INDONESIA",
            "nama_se": "TAOBAOPEDIA",
            "sektor": "Sektor Perdagangan, Sektor Perdagangan",
            "tanggal_terbit": "2022-02-09",
            "url_tdpse_detail": "https://pse.komdigi.go.id/tdpse-detail/3210",
            "website": "taobaopedia.com"
        },
        {
            "id": "9cb1ab8a-8e9b-4149-a6df-799cdca68a0a",
            "nama_pse": "MADANI GROUP NUSANTARA",
            "nama_se": "PT. MADANI GROUP NUSANTARA",
            "sektor": "Sektor Teknologi Informasi dan Komunikasi, Sektor Teknologi Informasi dan Komunikasi",
            "tanggal_terbit": "2022-02-09",
            "url_tdpse_detail": "https://pse.komdigi.go.id/tdpse-detail/3213",
            "website": "legalityservices.com"
        },
        {
            "id": "9cb1ab9e-46de-4c58-9a9b-cafe32a8fbe7",
            "nama_pse": "MITRA SOLUSI PINJAMAN",
            "nama_se": "RUPIAHMART",
            "sektor": "Sektor Keuangan, Sektor Keuangan, Sektor Keuangan, Sektor Keuangan, Sektor Keuangan, Sektor Teknologi Informasi dan Komunikasi, Sektor Teknologi Informasi dan Komunikasi, Sektor Teknologi Informasi dan Komunikasi, Sektor Teknologi Informasi dan Komunikasi, Sektor Teknologi Informasi dan Komunikasi",
            "tanggal_terbit": "2022-02-09",
            "url_tdpse_detail": "https://pse.komdigi.go.id/tdpse-detail/3207",
            "website": "rupiahmart.com"
        },
        {
            "id": "9cb1ab9e-4936-4c14-9c1b-1d7ba6f3b48f",
            "nama_pse": "HONG RUI",
            "nama_se": "ONLINE ORDER SYSTEM",
            "sektor": "Sektor Perdagangan, Sektor Perdagangan, Sektor Perdagangan",
            "tanggal_terbit": "2022-02-09",
            "url_tdpse_detail": "https://pse.komdigi.go.id/tdpse-detail/3209",
            "website": "admin.binghan.id"
        },
        {
            "id": "9cb1ab90-b8c0-4fce-bfce-1635c567a329",
            "nama_pse": "GOKOMODO UNITI INDONESIA",
            "nama_se": "GOKOMODO E-COMMERCE",
            "sektor": "Sektor Teknologi Informasi dan Komunikasi, Sektor Teknologi Informasi dan Komunikasi",
            "tanggal_terbit": "2022-02-09",
            "url_tdpse_detail": "https://pse.komdigi.go.id/tdpse-detail/3212",
            "website": "gokomodo.com"
        },
        {
            "id": "9cb1aba9-8f25-460e-acc0-a8db970a29a9",
            "nama_pse": "SELFINC RETAIL INDONESIA",
            "nama_se": "SISTERSEL",
            "sektor": "Sektor Perdagangan, Sektor Perdagangan, Sektor Perdagangan, Sektor Perdagangan",
            "tanggal_terbit": "2022-02-09",
            "url_tdpse_detail": "https://pse.komdigi.go.id/tdpse-detail/3202",
            "website": "sistersel.com"
        },
        {
            "id": "9cb1ab6a-4bb8-433c-8715-dda12c2bbb3a",
            "nama_pse": "EDRUS SAFTA ANUGERAH",
            "nama_se": "PROPERTY.CO.ID",
            "sektor": "Sektor Perdagangan, Sektor Perdagangan",
            "tanggal_terbit": "2022-02-08",
            "url_tdpse_detail": "https://pse.komdigi.go.id/tdpse-detail/3191",
            "website": "Property.co.id"
        },
        {
            "id": "9cb1ab8a-499d-4b9d-879e-45d71f6b70d3",
            "nama_pse": "BWL INDONESIA",
            "nama_se": "WWW.BWLGROUP.COM",
            "sektor": "Sektor Perdagangan, Sektor Perdagangan",
            "tanggal_terbit": "2022-02-08",
            "url_tdpse_detail": "https://pse.komdigi.go.id/tdpse-detail/3194",
            "website": "bwlgroup.com"
        },
        {
            "id": "9cb1ab7a-a9fa-4fbc-b7c3-c33fc96c4f3e",
            "nama_pse": "FAMINDO BURSA INDONESIA",
            "nama_se": "CRYPTOKUN",
            "sektor": "Sektor Perdagangan, Sektor Perdagangan, Sektor Keuangan, Sektor Keuangan",
            "tanggal_terbit": "2022-02-08",
            "url_tdpse_detail": "https://pse.komdigi.go.id/tdpse-detail/3196",
            "website": "cryptokun.com"
        },
        {
            "id": "9cb1ab8a-62b3-4ced-8a0d-84de3c9ada00",
            "nama_pse": "KARYA TEKNOLOGI ANDALAN",
            "nama_se": "KELOLAYUK",
            "sektor": "Sektor Teknologi Informasi dan Komunikasi, Sektor Teknologi Informasi dan Komunikasi",
            "tanggal_terbit": "2022-02-08",
            "url_tdpse_detail": "https://pse.komdigi.go.id/tdpse-detail/3192",
            "website": "Kelolayuk.com"
        },
        {
            "id": "9cb1ab7a-cd32-4dd5-abfe-c2d98b633d41",
            "nama_pse": "BINA ARTHA VENTURA",
            "nama_se": "BAVKU",
            "sektor": "Sektor Keuangan, Sektor Keuangan",
            "tanggal_terbit": "2022-02-08",
            "url_tdpse_detail": "https://pse.komdigi.go.id/tdpse-detail/3197",
            "website": "bina-artha.com"
        },
        {
            "id": "9cb1ab82-752b-45d9-af29-0fd89e257c6b",
            "nama_pse": "META INOVASI DIGITAL",
            "nama_se": "METAPRO",
            "sektor": "Sektor Perdagangan, Sektor Perdagangan",
            "tanggal_terbit": "2022-02-08",
            "url_tdpse_detail": "https://pse.komdigi.go.id/tdpse-detail/3193",
            "website": "-"
        },
        {
            "id": "9cb1ab82-7a29-4967-bf75-23981e771524",
            "nama_pse": "MONIT TEKNOLOGI INDONESIA",
            "nama_se": "MONIT",
            "sektor": "Sektor Teknologi Informasi dan Komunikasi, Sektor Teknologi Informasi dan Komunikasi",
            "tanggal_terbit": "2022-02-08",
            "url_tdpse_detail": "https://pse.komdigi.go.id/tdpse-detail/3198",
            "website": "monit.id"
        },
        {
            "id": "9cb1ab8a-848f-4579-8925-6f5346c6c4e6",
            "nama_pse": "SMART TANI SUBAK",
            "nama_se": "SUBAK TANI",
            "sektor": "Sektor Perdagangan, Sektor Perdagangan",
            "tanggal_terbit": "2022-02-08",
            "url_tdpse_detail": "https://pse.komdigi.go.id/tdpse-detail/3199",
            "website": "smarttanisubak.id"
        },
        {
            "id": "9cb1ab7a-c81c-446e-b63b-d4216b5f274e",
            "nama_pse": "GRAMEDIA ASRI MEDIA",
            "nama_se": "GRAMEDIA.COM",
            "sektor": "Sektor Perdagangan, Sektor Perdagangan",
            "tanggal_terbit": "2022-02-07",
            "url_tdpse_detail": "https://pse.komdigi.go.id/tdpse-detail/3178",
            "website": "gramedia.com"
        },
        {
            "id": "9cb1ab74-1f97-41ea-b0fb-7cbd42239b56",
            "nama_pse": "MOKA TEKNOLOGI INDONESIA",
            "nama_se": "MOKAPOS",
            "sektor": "Sektor Perdagangan, Sektor Perdagangan, Sektor Perdagangan",
            "tanggal_terbit": "2022-02-07",
            "url_tdpse_detail": "https://pse.komdigi.go.id/tdpse-detail/3184",
            "website": "mokapos.com"
        },
        {
            "id": "9cb1ab7a-8c48-45e5-99fc-00026df0ea1c",
            "nama_pse": "SOLUSI KREASI DIGITAL",
            "nama_se": "KENDALI",
            "sektor": "Sektor Teknologi Informasi dan Komunikasi, Sektor Teknologi Informasi dan Komunikasi",
            "tanggal_terbit": "2022-02-07",
            "url_tdpse_detail": "https://pse.komdigi.go.id/tdpse-detail/3188",
            "website": "web.kendali.app"
        }
    ],
    "processingTimeMs": 7,
    "query": "",
    "totalHits": 19121,
    "hitsPerPage": 50,
    "page": 322,
    "totalPages": 383
}