{
    "hits": [
        {
            "id": "9cb1ac5a-189f-4901-aa85-50d35fc4f989",
            "nama_pse": "BHUMI BINTANG BERSINAR BERSAMA",
            "nama_se": "CF",
            "sektor": "Sektor Perdagangan",
            "tanggal_terbit": "2024-04-25",
            "url_tdpse_detail": "https://pse.komdigi.go.id/tdpse-detail/18712",
            "website": "cfsuksess.id"
        },
        {
            "id": "9cb1ac6e-da55-47c5-9575-3d53a951e46f",
            "nama_pse": "MNBC MEDIA UTAMA",
            "nama_se": "DHANESANEWS",
            "sektor": "Sektor Teknologi Informasi dan Komunikasi",
            "tanggal_terbit": "2024-04-25",
            "url_tdpse_detail": "https://pse.komdigi.go.id/tdpse-detail/18700",
            "website": "dhanesanews.com"
        },
        {
            "id": "9cb1ac6e-e355-4e66-81c3-1b1bd257552e",
            "nama_pse": "BLUE INOVASI GLOBAL",
            "nama_se": "NEO PARTY",
            "sektor": "Sektor Teknologi Informasi dan Komunikasi",
            "tanggal_terbit": "2024-04-25",
            "url_tdpse_detail": "https://pse.komdigi.go.id/tdpse-detail/18703",
            "website": "-"
        },
        {
            "id": "9cb1ac6e-e6d7-4240-b084-3961560192f6",
            "nama_pse": "BATAVIA SATU INDONESIA",
            "nama_se": "BATAVIA EMR",
            "sektor": "Sektor Kesehatan",
            "tanggal_terbit": "2024-04-25",
            "url_tdpse_detail": "https://pse.komdigi.go.id/tdpse-detail/18704",
            "website": "-"
        },
        {
            "id": "9cb1ac84-26d4-4395-8a9e-4bd41761cd6e",
            "nama_pse": "GDC MULTI SARANA",
            "nama_se": "GDCPAY",
            "sektor": "Sektor Teknologi Informasi dan Komunikasi",
            "tanggal_terbit": "2024-04-25",
            "url_tdpse_detail": "https://pse.komdigi.go.id/tdpse-detail/18705",
            "website": "gdcpay.id"
        },
        {
            "id": "9cb1ac84-2a4f-42a5-b94a-8df63360e718",
            "nama_pse": "SEI HARA PRIMA",
            "nama_se": "EVERVIT",
            "sektor": "Sektor Perdagangan, Sektor Kesehatan, Sektor Teknologi Informasi dan Komunikasi",
            "tanggal_terbit": "2024-04-25",
            "url_tdpse_detail": "https://pse.komdigi.go.id/tdpse-detail/18708",
            "website": "evervit.id"
        },
        {
            "id": "9cb1ac6e-f001-4cd8-bd69-9855354636c6",
            "nama_pse": "VISION NETWORK TOUNA",
            "nama_se": "VISION NETWORK",
            "sektor": "Sektor Teknologi Informasi dan Komunikasi",
            "tanggal_terbit": "2024-04-25",
            "url_tdpse_detail": "https://pse.komdigi.go.id/tdpse-detail/18715",
            "website": "-"
        },
        {
            "id": "9cb1ac6e-d0a5-476a-9029-2b0b5d6571e9",
            "nama_pse": "PROGO PUNCAK GROUP",
            "nama_se": "PINJAMIN",
            "sektor": "Sektor Keuangan",
            "tanggal_terbit": "2024-04-25",
            "url_tdpse_detail": "https://pse.komdigi.go.id/tdpse-detail/18702",
            "website": "pinjamin.com"
        },
        {
            "id": "9cb1ac59-8627-4fe8-a5b4-2804debf7adf",
            "nama_pse": "AKUR ABADI TEKNIK",
            "nama_se": "AKURABADITOUR",
            "sektor": "Sektor Transportasi, Sektor Teknologi Informasi dan Komunikasi",
            "tanggal_terbit": "2024-04-24",
            "url_tdpse_detail": "https://pse.komdigi.go.id/tdpse-detail/18687",
            "website": "akurabaditour.com"
        },
        {
            "id": "9cb1ac5a-024d-430e-9f29-1475819df443",
            "nama_pse": "MIBER DIGITAL SOLUSINDO",
            "nama_se": "SISBRO - APLIKASI TAGIHAN PELANGGAN RTRW NET",
            "sektor": "Sektor Teknologi Informasi dan Komunikasi",
            "tanggal_terbit": "2024-04-24",
            "url_tdpse_detail": "https://pse.komdigi.go.id/tdpse-detail/18690",
            "website": "sisbro.id"
        },
        {
            "id": "9cb1ac59-d9ba-4552-bd81-f3ff8ea5b5ba",
            "nama_pse": "INSPIRASI TEKNOLOGI BANGSA",
            "nama_se": "KONSULTAN HUKUM LANDACK",
            "sektor": "Sektor Teknologi Informasi dan Komunikasi",
            "tanggal_terbit": "2024-04-24",
            "url_tdpse_detail": "https://pse.komdigi.go.id/tdpse-detail/18689",
            "website": "-"
        },
        {
            "id": "9cb1ac83-7281-4f73-b90d-c4947577c3ff",
            "nama_pse": "TRUST ASA MANDIRI NETWORK",
            "nama_se": "APLIKASI MLM ASANET",
            "sektor": "Sektor Perdagangan",
            "tanggal_terbit": "2024-04-24",
            "url_tdpse_detail": "https://pse.komdigi.go.id/tdpse-detail/18691",
            "website": "asanet.co.id"
        },
        {
            "id": "9cb1ac5a-08ab-42a7-9aec-759e972b4bd3",
            "nama_pse": "SEMESTA SELARAS TECHNOLOGY",
            "nama_se": "TOKOGAME",
            "sektor": "Sektor Teknologi Informasi dan Komunikasi",
            "tanggal_terbit": "2024-04-24",
            "url_tdpse_detail": "https://pse.komdigi.go.id/tdpse-detail/18694",
            "website": "tokogame.com"
        },
        {
            "id": "9cb1ac84-1157-4de3-b0a1-a6f6f34e545e",
            "nama_pse": "ZOCIAL TEKNOLOGI INDONESIA",
            "nama_se": "NUSANTARA",
            "sektor": "Sektor Perdagangan, Sektor Teknologi Informasi dan Komunikasi",
            "tanggal_terbit": "2024-04-24",
            "url_tdpse_detail": "https://pse.komdigi.go.id/tdpse-detail/18688",
            "website": "Zocial.io"
        },
        {
            "id": "9cb1ac6e-c4e5-4773-9b12-ea69e59ddda4",
            "nama_pse": "UNIVERSITAS RIAU SEKRETARIAT UTAMA KEMENTERIAN RISET, TEKNOLOGI DAN PENDIDIKAN TINGGI",
            "nama_se": "DIGITAL MEDIA INTEGRA JAYA",
            "sektor": "Sektor Kesehatan",
            "tanggal_terbit": "2024-04-24",
            "url_tdpse_detail": "https://pse.komdigi.go.id/tdpse-detail/18692",
            "website": "rsp.unri.ac.id"
        },
        {
            "id": "9cb1ac6e-c960-4213-a4a1-bcb0aaa225ca",
            "nama_pse": "LUVIO INTEGRA RAHARJA",
            "nama_se": "POS KUOTA (POSKUOTA.COM)",
            "sektor": "Sektor Perdagangan, Sektor Teknologi Informasi dan Komunikasi",
            "tanggal_terbit": "2024-04-24",
            "url_tdpse_detail": "https://pse.komdigi.go.id/tdpse-detail/18693",
            "website": "poskuota.com"
        },
        {
            "id": "9cb1ac6e-d3f6-4a46-963b-9a92fd1e9a51",
            "nama_pse": "UNIVERSAL PIN INDONESIA",
            "nama_se": "UNIVERSAL PIN INDONESIA (UNIPIN)",
            "sektor": "Sektor Perdagangan",
            "tanggal_terbit": "2024-04-24",
            "url_tdpse_detail": "https://pse.komdigi.go.id/tdpse-detail/18695",
            "website": "-"
        },
        {
            "id": "9cb1ac5a-0cdf-4f7b-b870-4c19a86aab17",
            "nama_pse": "PUSPA SIMANUNGKALIT",
            "nama_se": "PRAKTEK DOKTER GIGI PUSPA",
            "sektor": "Sektor Kesehatan",
            "tanggal_terbit": "2024-04-24",
            "url_tdpse_detail": "https://pse.komdigi.go.id/tdpse-detail/18696",
            "website": "-"
        },
        {
            "id": "9cb1ac84-174f-4c79-a7b7-93065cde3f08",
            "nama_pse": "FINSKOR TEKNOLOGI INDONESIA",
            "nama_se": "FINEKSI",
            "sektor": "Sektor Teknologi Informasi dan Komunikasi",
            "tanggal_terbit": "2024-04-24",
            "url_tdpse_detail": "https://pse.komdigi.go.id/tdpse-detail/18697",
            "website": "fineksi.com"
        },
        {
            "id": "9cb1ac5a-111d-4492-bb77-f242e92d7ad3",
            "nama_pse": "DIGIPOPO DIGITAL NIAGA",
            "nama_se": "DIGIPOPO",
            "sektor": "Sektor Teknologi Informasi dan Komunikasi",
            "tanggal_terbit": "2024-04-24",
            "url_tdpse_detail": "https://pse.komdigi.go.id/tdpse-detail/18698",
            "website": "digipopo.com"
        },
        {
            "id": "9cb1ac6e-d731-4843-a6e3-fcf18d0bbeb5",
            "nama_pse": "INIBAE TEKNOLOGI PINTAR",
            "nama_se": "PT INIBAE TEKNOLOGI PINTAR",
            "sektor": "Sektor Teknologi Informasi dan Komunikasi",
            "tanggal_terbit": "2024-04-24",
            "url_tdpse_detail": "https://pse.komdigi.go.id/tdpse-detail/18699",
            "website": "inibae.com"
        },
        {
            "id": "9cb1ac59-feaf-4e17-879a-a4a92ed180d5",
            "nama_pse": "AGRA BERKAH PERSADA",
            "nama_se": "ARTHAJAYA-RESTO \u0026 TOKO",
            "sektor": "Sektor Perdagangan, Sektor Teknologi Informasi dan Komunikasi",
            "tanggal_terbit": "2024-04-23",
            "url_tdpse_detail": "https://pse.komdigi.go.id/tdpse-detail/18685",
            "website": "-"
        },
        {
            "id": "9cb1ac6e-a4ea-4d7e-9821-8bfee4c8cde6",
            "nama_pse": "CITO PUTRA UTAMA",
            "nama_se": "SIM KLINIK",
            "sektor": "Sektor Kesehatan",
            "tanggal_terbit": "2024-04-23",
            "url_tdpse_detail": "https://pse.komdigi.go.id/tdpse-detail/18682",
            "website": "-"
        },
        {
            "id": "9cb1ac83-dd42-4ef2-a527-abca1a8dd4da",
            "nama_pse": "STARBIT BERKAH TEKNOLOGI",
            "nama_se": "STARBIT",
            "sektor": "Sektor Teknologi Informasi dan Komunikasi",
            "tanggal_terbit": "2024-04-23",
            "url_tdpse_detail": "https://pse.komdigi.go.id/tdpse-detail/18675",
            "website": "starbit.my.id"
        },
        {
            "id": "9cb1ac83-d834-4a88-a1df-900ee13a425e",
            "nama_pse": "AYO KASBON INDONESIA",
            "nama_se": "AYO KASBON INDONESIA",
            "sektor": "Sektor Teknologi Informasi dan Komunikasi",
            "tanggal_terbit": "2024-04-23",
            "url_tdpse_detail": "https://pse.komdigi.go.id/tdpse-detail/18674",
            "website": "ayokasbon.com"
        },
        {
            "id": "9cb1ac84-0493-4685-a6e5-101a8e753dcc",
            "nama_pse": "AGRA BERKAH PERSADA",
            "nama_se": "ARTHAJAYA - TRANSPORTASI",
            "sektor": "Sektor Perdagangan, Sektor Transportasi, Sektor Teknologi Informasi dan Komunikasi",
            "tanggal_terbit": "2024-04-23",
            "url_tdpse_detail": "https://pse.komdigi.go.id/tdpse-detail/18683",
            "website": "-"
        },
        {
            "id": "9cb1ac83-e17a-4a13-ad17-809bd63b2cae",
            "nama_pse": "HILMI FIRDAUS MUSLIAN",
            "nama_se": "EZYCOID",
            "sektor": "Sektor Teknologi Informasi dan Komunikasi",
            "tanggal_terbit": "2024-04-23",
            "url_tdpse_detail": "https://pse.komdigi.go.id/tdpse-detail/18676",
            "website": "ezy.co.id"
        },
        {
            "id": "9cb1ac6e-a877-4b08-b559-503a46dca51a",
            "nama_pse": "LADANG ARTHA RAYA",
            "nama_se": "SRAYA MALL",
            "sektor": "Sektor Perdagangan",
            "tanggal_terbit": "2024-04-23",
            "url_tdpse_detail": "https://pse.komdigi.go.id/tdpse-detail/18677",
            "website": "srayamall.com"
        },
        {
            "id": "9cb1ac59-f86d-4b2f-917d-98bf8237504b",
            "nama_pse": "BALI INTERAKTIF PERKASA",
            "nama_se": "PROJECTNOAH.ID",
            "sektor": "Sektor Teknologi Informasi dan Komunikasi",
            "tanggal_terbit": "2024-04-23",
            "url_tdpse_detail": "https://pse.komdigi.go.id/tdpse-detail/18679",
            "website": "baliinteraktifperkasa.com"
        },
        {
            "id": "9cb1ac6e-ae80-4aca-a4d0-b746fdc963a3",
            "nama_pse": "INSPIRASI MANDIRI INOVASI",
            "nama_se": "HATTA",
            "sektor": "Sektor Teknologi Informasi dan Komunikasi",
            "tanggal_terbit": "2024-04-23",
            "url_tdpse_detail": "https://pse.komdigi.go.id/tdpse-detail/18680",
            "website": "-"
        },
        {
            "id": "9cb1ac6e-b9eb-4eb9-adf7-864687424bf3",
            "nama_pse": "AGRA BERKAH PERSADA",
            "nama_se": "ARTHAJAYA-MITRA DRIVER",
            "sektor": "Sektor Perdagangan, Sektor Transportasi, Sektor Teknologi Informasi dan Komunikasi",
            "tanggal_terbit": "2024-04-23",
            "url_tdpse_detail": "https://pse.komdigi.go.id/tdpse-detail/18684",
            "website": "-"
        },
        {
            "id": "9cb1ac84-0ad6-4b6a-a519-e5a25f281e8d",
            "nama_pse": "MNBC MEDIA UTAMA",
            "nama_se": "KABAR NGETREN",
            "sektor": "Sektor Teknologi Informasi dan Komunikasi",
            "tanggal_terbit": "2024-04-23",
            "url_tdpse_detail": "https://pse.komdigi.go.id/tdpse-detail/18686",
            "website": "kabarngetren.com"
        },
        {
            "id": "9cb1ac59-ee57-41dc-aae5-5eec2fabc054",
            "nama_pse": "IMFEA SOFTWARE SOLUSINDO",
            "nama_se": "ISSO",
            "sektor": "Sektor Teknologi Informasi dan Komunikasi",
            "tanggal_terbit": "2024-04-22",
            "url_tdpse_detail": "https://pse.komdigi.go.id/tdpse-detail/18671",
            "website": "isso.co.id"
        },
        {
            "id": "9cb1ac83-c706-4f01-883e-e7538eee3710",
            "nama_pse": "KREASI MAKMUR DAYA",
            "nama_se": "ALIOT DIGITAL GROUP",
            "sektor": "Sektor Teknologi Informasi dan Komunikasi",
            "tanggal_terbit": "2024-04-22",
            "url_tdpse_detail": "https://pse.komdigi.go.id/tdpse-detail/18669",
            "website": "aliot.id"
        },
        {
            "id": "9cb1ac6e-9dcc-4351-9895-412d0500df69",
            "nama_pse": "MOH. FAJAR NUGRAHA",
            "nama_se": "LAYANAN INTERNET LOKAL (RT RW NET)",
            "sektor": "Sektor Teknologi Informasi dan Komunikasi",
            "tanggal_terbit": "2024-04-22",
            "url_tdpse_detail": "https://pse.komdigi.go.id/tdpse-detail/18668",
            "website": "-"
        },
        {
            "id": "9cb1ac83-d57a-4fac-9110-751639870e06",
            "nama_pse": "KATRA SYIRKAH ABADI",
            "nama_se": "APLIKASI SISTEM INFORMASI MANAJEMEN RUMAH SAKIT",
            "sektor": "Sektor Kesehatan, Sektor Teknologi Informasi dan Komunikasi",
            "tanggal_terbit": "2024-04-22",
            "url_tdpse_detail": "https://pse.komdigi.go.id/tdpse-detail/18673",
            "website": "-"
        },
        {
            "id": "9cb1ac6e-a12b-4587-a297-e3b6782879b0",
            "nama_pse": "AMERTA BUDAYA NUSANTARA",
            "nama_se": "EXPREZI",
            "sektor": "Sektor Perdagangan, Sektor Teknologi Informasi dan Komunikasi",
            "tanggal_terbit": "2024-04-22",
            "url_tdpse_detail": "https://pse.komdigi.go.id/tdpse-detail/18670",
            "website": "exprezi.id"
        },
        {
            "id": "9cb1ac59-e03f-4995-867c-96bc169a4202",
            "nama_pse": "PAPANDAYAN INDAH PERMAI",
            "nama_se": "NARITA HOTEL",
            "sektor": "Sektor Perdagangan",
            "tanggal_terbit": "2024-04-20",
            "url_tdpse_detail": "https://pse.komdigi.go.id/tdpse-detail/18659",
            "website": "naritahotel.co.id"
        },
        {
            "id": "9cb1ac83-a661-4957-a825-f6bd3a3f4d0a",
            "nama_pse": "GEMBONG SATRIA MAHARDHIKA",
            "nama_se": "VICTORY HEALTH CARE",
            "sektor": "Sektor Kesehatan",
            "tanggal_terbit": "2024-04-20",
            "url_tdpse_detail": "https://pse.komdigi.go.id/tdpse-detail/18657",
            "website": "-"
        },
        {
            "id": "9cb1ac83-b210-4745-82f3-a6fc74fb0a86",
            "nama_pse": "TIGA MEDIKA JAYA",
            "nama_se": "3M PLUS",
            "sektor": "Sektor Kesehatan",
            "tanggal_terbit": "2024-04-20",
            "url_tdpse_detail": "https://pse.komdigi.go.id/tdpse-detail/18658",
            "website": "rs3mplus.com"
        },
        {
            "id": "9cb1ac59-e52c-4619-a2ec-3859ad5251d6",
            "nama_pse": "RAYA KUTA",
            "nama_se": "ERMKRK",
            "sektor": "Sektor Kesehatan, Sektor Teknologi Informasi dan Komunikasi",
            "tanggal_terbit": "2024-04-20",
            "url_tdpse_detail": "https://pse.komdigi.go.id/tdpse-detail/18661",
            "website": "ermkrk.com"
        },
        {
            "id": "9cb1ac82-8316-4c47-9d63-bcef2fca451d",
            "nama_pse": "DARI HATI JAYA",
            "nama_se": "MEDISOLVE",
            "sektor": "Sektor Teknologi Informasi dan Komunikasi",
            "tanggal_terbit": "2024-04-19",
            "url_tdpse_detail": "https://pse.komdigi.go.id/tdpse-detail/18655",
            "website": "medisolve.id"
        },
        {
            "id": "9cb1ac83-6d31-46a4-8bb1-85cee898f627",
            "nama_pse": "EFRIZAL",
            "nama_se": "SIMRS",
            "sektor": "Sektor Kesehatan",
            "tanggal_terbit": "2024-04-19",
            "url_tdpse_detail": "https://pse.komdigi.go.id/tdpse-detail/18650",
            "website": "-"
        },
        {
            "id": "9cb1ac83-93d3-46b4-966f-bf23ee762986",
            "nama_pse": "SISTEM INFORMASI TRANSPORTASI OTOMATIS",
            "nama_se": "TAXSEE DRIVER",
            "sektor": "Sektor Perdagangan, Sektor Transportasi, Sektor Teknologi Informasi dan Komunikasi",
            "tanggal_terbit": "2024-04-19",
            "url_tdpse_detail": "https://pse.komdigi.go.id/tdpse-detail/18647",
            "website": "sito.id"
        },
        {
            "id": "9cb1ac6e-91ba-4f52-b1db-ba7b67f05c27",
            "nama_pse": "SSR DIGITAL INFORMATIKA",
            "nama_se": "RADBOOX",
            "sektor": "Sektor Teknologi Informasi dan Komunikasi",
            "tanggal_terbit": "2024-04-19",
            "url_tdpse_detail": "https://pse.komdigi.go.id/tdpse-detail/18646",
            "website": "radboox.com"
        },
        {
            "id": "9cb1ac83-90a7-405a-8e18-dd1af2a2189a",
            "nama_pse": "FAZZ CAPITAL FINANCE",
            "nama_se": "FAZZ CAPITAL FINANCE",
            "sektor": "Sektor Teknologi Informasi dan Komunikasi",
            "tanggal_terbit": "2024-04-19",
            "url_tdpse_detail": "https://pse.komdigi.go.id/tdpse-detail/18648",
            "website": "fazzfinance.id"
        },
        {
            "id": "9cb1ac83-9e71-4abe-bb38-b5e58c7f192b",
            "nama_pse": "SISTEM INFORMASI TRANSPORTASI OTOMATIS",
            "nama_se": "MAXIM",
            "sektor": "Sektor Perdagangan, Sektor Transportasi, Sektor Teknologi Informasi dan Komunikasi",
            "tanggal_terbit": "2024-04-19",
            "url_tdpse_detail": "https://pse.komdigi.go.id/tdpse-detail/18649",
            "website": "-"
        },
        {
            "id": "9cb1ac6e-950d-46aa-9d52-10dd192edf8e",
            "nama_pse": "INSPIRASI TEKNOLOGI BANGSA",
            "nama_se": "WEBSITE LANDACK",
            "sektor": "Sektor Teknologi Informasi dan Komunikasi",
            "tanggal_terbit": "2024-04-19",
            "url_tdpse_detail": "https://pse.komdigi.go.id/tdpse-detail/18651",
            "website": "Landack.id"
        },
        {
            "id": "9cb1ac6e-981e-4c73-be85-d7e541ed5f80",
            "nama_pse": "OPTIKAL PESSEL",
            "nama_se": "SIMRS KLINIK UTAMA MATA PESSEL",
            "sektor": "Sektor Kesehatan",
            "tanggal_terbit": "2024-04-19",
            "url_tdpse_detail": "https://pse.komdigi.go.id/tdpse-detail/18652",
            "website": "-"
        },
        {
            "id": "9cb1ac83-a1c4-4980-a1aa-74fce4747537",
            "nama_pse": "NEY MAKEUP ARTIST",
            "nama_se": "NEY MAKEUP ARTIST",
            "sektor": "Sektor Perdagangan, Sektor Teknologi Informasi dan Komunikasi",
            "tanggal_terbit": "2024-04-19",
            "url_tdpse_detail": "https://pse.komdigi.go.id/tdpse-detail/18653",
            "website": "neymakeup.id"
        }
    ],
    "processingTimeMs": 1,
    "query": "",
    "totalHits": 19121,
    "hitsPerPage": 50,
    "page": 71,
    "totalPages": 383
}