{
    "hits": [
        {
            "id": "9cb1ac78-7a75-4814-bdde-3eb7d66fbc41",
            "nama_pse": "CLOUD MEDIA NUSANTARA",
            "nama_se": "RUANGWEB",
            "sektor": "Sektor Teknologi Informasi dan Komunikasi",
            "tanggal_terbit": "2023-12-14",
            "url_tdpse_detail": "https://pse.komdigi.go.id/tdpse-detail/16878",
            "website": "ruangweb.co.id"
        },
        {
            "id": "9cb1ac78-7d81-451f-8df4-b4784ddeaa2a",
            "nama_pse": "ROCHE INDONESIA",
            "nama_se": "MYSUGR LOGBOOK",
            "sektor": "Sektor Kesehatan, Sektor Teknologi Informasi dan Komunikasi",
            "tanggal_terbit": "2023-12-14",
            "url_tdpse_detail": "https://pse.komdigi.go.id/tdpse-detail/16879",
            "website": "mysugr.com"
        },
        {
            "id": "9cb1ac51-3290-4345-b4b3-5a75fb897704",
            "nama_pse": "BANK PEMBANGUNAN DAERAH SULAWESI SELATAN DAN SULAWESI BARAT",
            "nama_se": "CSR-PUSAKA.BANKSULSELBAR.CO.ID",
            "sektor": "Sektor Keuangan, Sektor Teknologi Informasi dan Komunikasi",
            "tanggal_terbit": "2023-12-14",
            "url_tdpse_detail": "https://pse.komdigi.go.id/tdpse-detail/16883",
            "website": "csr-pusaka.banksulselbar.co.id"
        },
        {
            "id": "9cb1ac78-832b-4b7c-aa89-c3516253d834",
            "nama_pse": "SILOAM INTERNATIONAL HOSPITALS",
            "nama_se": "SPIRO",
            "sektor": "Sektor Kesehatan",
            "tanggal_terbit": "2023-12-14",
            "url_tdpse_detail": "https://pse.komdigi.go.id/tdpse-detail/16881",
            "website": "-"
        },
        {
            "id": "9cb1ac78-85ea-414f-9f03-0f84a1271c3f",
            "nama_pse": "PRIMA KARYA HUSADA",
            "nama_se": "RME RSRS (REKAM MEDIS ELEKTRONIK RUMAH SAKIT ROYAL SURABAYA)",
            "sektor": "Sektor Kesehatan",
            "tanggal_terbit": "2023-12-14",
            "url_tdpse_detail": "https://pse.komdigi.go.id/tdpse-detail/16884",
            "website": "rsroyalsurabaya.com"
        },
        {
            "id": "9cb1ac78-8e55-4608-911a-90aec06022b2",
            "nama_pse": "DIRGA INDRATAMA",
            "nama_se": "BRIGHTS SIMRS",
            "sektor": "Sektor Teknologi Informasi dan Komunikasi",
            "tanggal_terbit": "2023-12-14",
            "url_tdpse_detail": "https://pse.komdigi.go.id/tdpse-detail/16885",
            "website": "-"
        },
        {
            "id": "9cb1ac78-912e-43c1-a6ae-7b7daa9bc664",
            "nama_pse": "PUSAKA KIRANA JAYA",
            "nama_se": "2SECURE MOBILE PAYMENT PLATFORM",
            "sektor": "Sektor Perdagangan, Sektor Teknologi Informasi dan Komunikasi",
            "tanggal_terbit": "2023-12-14",
            "url_tdpse_detail": "https://pse.komdigi.go.id/tdpse-detail/16886",
            "website": "2secure.co.id"
        },
        {
            "id": "9cb1ac51-3613-40ec-a1f7-7cfc3fa15939",
            "nama_pse": "MUBAROKAH DIGITAL NUSANTARA",
            "nama_se": "NALAR AI",
            "sektor": "Sektor Teknologi Informasi dan Komunikasi",
            "tanggal_terbit": "2023-12-14",
            "url_tdpse_detail": "https://pse.komdigi.go.id/tdpse-detail/16887",
            "website": "nalar.net"
        },
        {
            "id": "9cb1ac78-9412-4e45-93ec-aa4c324b41a6",
            "nama_pse": "BUKA INVESTASI DIGITAL",
            "nama_se": "BMONEY APLIKASI",
            "sektor": "Sektor Teknologi Informasi dan Komunikasi",
            "tanggal_terbit": "2023-12-14",
            "url_tdpse_detail": "https://pse.komdigi.go.id/tdpse-detail/16888",
            "website": "-"
        },
        {
            "id": "9cb1ac64-c06d-4fcd-bcce-2747dd768007",
            "nama_pse": "VSHA INTAN NUSANTARA",
            "nama_se": "VSHAMART",
            "sektor": "Sektor Perdagangan",
            "tanggal_terbit": "2023-12-13",
            "url_tdpse_detail": "https://pse.komdigi.go.id/tdpse-detail/16870",
            "website": "Vshamart.asia"
        },
        {
            "id": "9cb1ac78-6622-40cf-874c-b3cb9b9dcfbd",
            "nama_pse": "INDOGIG HRTECH INDONESIA",
            "nama_se": "INDOGIG",
            "sektor": "Sektor Teknologi Informasi dan Komunikasi",
            "tanggal_terbit": "2023-12-13",
            "url_tdpse_detail": "https://pse.komdigi.go.id/tdpse-detail/16871",
            "website": "indogig.com"
        },
        {
            "id": "9cb1ac78-7470-4d86-afd6-96a5624b19ed",
            "nama_pse": "KUBISA INTI KARYA",
            "nama_se": "KUBIK",
            "sektor": "Sektor Perdagangan, Sektor Teknologi Informasi dan Komunikasi",
            "tanggal_terbit": "2023-12-13",
            "url_tdpse_detail": "https://pse.komdigi.go.id/tdpse-detail/16872",
            "website": "kubikaja.co.id"
        },
        {
            "id": "9cb1ac51-281d-4186-ab9f-3166271917b3",
            "nama_pse": "DWI LEGASI NUSANTARA",
            "nama_se": "DNM MOBILE APP",
            "sektor": "Sektor Perdagangan",
            "tanggal_terbit": "2023-12-13",
            "url_tdpse_detail": "https://pse.komdigi.go.id/tdpse-detail/16873",
            "website": "dnmmobile.com"
        },
        {
            "id": "9cb1ac51-2b95-4ed0-bf00-1176074c9454",
            "nama_pse": "LEMBAGA MULTI KOMPUTER",
            "nama_se": "KURSUS ONLINE JARAK JAUH LKPK  MULTI KOMPUTER",
            "sektor": "Sektor Teknologi Informasi dan Komunikasi",
            "tanggal_terbit": "2023-12-13",
            "url_tdpse_detail": "https://pse.komdigi.go.id/tdpse-detail/16874",
            "website": "lembagamultikomputer.biz.id"
        },
        {
            "id": "9cb1ac64-c4f4-4595-8903-3d5e7cdd7f28",
            "nama_pse": "DUNIA DIGI PERMATA",
            "nama_se": "SALDOGAME.COM",
            "sektor": "Sektor Perdagangan",
            "tanggal_terbit": "2023-12-13",
            "url_tdpse_detail": "https://pse.komdigi.go.id/tdpse-detail/16875",
            "website": "saldogame.com"
        },
        {
            "id": "9cb1ac51-2f10-4f6a-aad2-b63d7c363a91",
            "nama_pse": "ABATI TECHNOLOGY INDONESIA",
            "nama_se": "QRIVITI DIGITAL MENU QR CODE",
            "sektor": "Sektor Teknologi Informasi dan Komunikasi",
            "tanggal_terbit": "2023-12-13",
            "url_tdpse_detail": "https://pse.komdigi.go.id/tdpse-detail/16876",
            "website": "qriviti.id"
        },
        {
            "id": "9cb1ac78-775d-437a-a2b5-2b42b653930b",
            "nama_pse": "BINA NUSA INDONESIA",
            "nama_se": "KINGKONG WEBSITE",
            "sektor": "Sektor Teknologi Informasi dan Komunikasi",
            "tanggal_terbit": "2023-12-13",
            "url_tdpse_detail": "https://pse.komdigi.go.id/tdpse-detail/16877",
            "website": "kingkong.app"
        },
        {
            "id": "9cb1ac76-dade-4fed-a798-0978be1ca1d3",
            "nama_pse": "BINA PUTRA SADAYA",
            "nama_se": "SMILEPAY.ID",
            "sektor": "Sektor Keuangan",
            "tanggal_terbit": "2023-12-12",
            "url_tdpse_detail": "https://pse.komdigi.go.id/tdpse-detail/16855",
            "website": "smilepay.id"
        },
        {
            "id": "9cb1ac78-3096-4d1a-9e26-e93ca39c0154",
            "nama_pse": "MNC FINANCE",
            "nama_se": "MOTION CREDIT",
            "sektor": "Sektor Keuangan",
            "tanggal_terbit": "2023-12-12",
            "url_tdpse_detail": "https://pse.komdigi.go.id/tdpse-detail/16853",
            "website": "MotionCredit.id"
        },
        {
            "id": "9cb1ac64-9d70-4a07-84e2-849d92a40446",
            "nama_pse": "KALIFA MULTI PAYMENT",
            "nama_se": "KALIFA MULTI PAYMENT",
            "sektor": "Sektor Perdagangan",
            "tanggal_terbit": "2023-12-12",
            "url_tdpse_detail": "https://pse.komdigi.go.id/tdpse-detail/16849",
            "website": "-"
        },
        {
            "id": "9cb1ac78-3355-47cd-a3aa-e0b38f3b4f49",
            "nama_pse": "GLOBALINDO KARYA INDONESIA",
            "nama_se": "GLOBALINDOKARYA.COM",
            "sektor": "Sektor Perdagangan",
            "tanggal_terbit": "2023-12-12",
            "url_tdpse_detail": "https://pse.komdigi.go.id/tdpse-detail/16850",
            "website": "globalindokarya.com"
        },
        {
            "id": "9cb1ac64-a0b8-4741-abee-e68ab9144464",
            "nama_pse": "TIGA SOLUSI INDONESIA",
            "nama_se": "SBUJK-TSI.COM",
            "sektor": "Sektor Perdagangan",
            "tanggal_terbit": "2023-12-12",
            "url_tdpse_detail": "https://pse.komdigi.go.id/tdpse-detail/16851",
            "website": "sbujk-tsi.com"
        },
        {
            "id": "9cb1ac78-36c7-4b55-ad65-cd84d1cd13cc",
            "nama_pse": "BRISNETS INTERNATIONAL TECHNOLOGY",
            "nama_se": "BRISNETS INTERNATIONAL TECHNOLOGY",
            "sektor": "Sektor Teknologi Informasi dan Komunikasi",
            "tanggal_terbit": "2023-12-12",
            "url_tdpse_detail": "https://pse.komdigi.go.id/tdpse-detail/16862",
            "website": "brisnets.com"
        },
        {
            "id": "9cb1ac78-39db-4eb6-ada2-91eb84e58c4a",
            "nama_pse": "KAMAL (RS AGUNG)",
            "nama_se": "SIRAMA",
            "sektor": "Sektor Kesehatan",
            "tanggal_terbit": "2023-12-12",
            "url_tdpse_detail": "https://pse.komdigi.go.id/tdpse-detail/16852",
            "website": "-"
        },
        {
            "id": "9cb1ac78-3cfb-4ebf-a174-5d6b3a65d881",
            "nama_pse": "BANGUN ABADI TEKNOLOGI INDONESIA",
            "nama_se": "MYBATICLOUD",
            "sektor": "Sektor Teknologi Informasi dan Komunikasi",
            "tanggal_terbit": "2023-12-12",
            "url_tdpse_detail": "https://pse.komdigi.go.id/tdpse-detail/16854",
            "website": "MYBATICLOUD.COM"
        },
        {
            "id": "9cb1ac78-45ab-4575-83d7-d058ff98dbf3",
            "nama_pse": "MARKET AMERICA INDONESIA",
            "nama_se": "MASHOP.ID",
            "sektor": "Sektor Perdagangan",
            "tanggal_terbit": "2023-12-12",
            "url_tdpse_detail": "https://pse.komdigi.go.id/tdpse-detail/16856",
            "website": "mashop.id"
        },
        {
            "id": "9cb1ac64-a427-4ada-a88d-ebdfd006b2fe",
            "nama_pse": "MARKET AMERICA INDONESIA",
            "nama_se": "ID.UNFRANCHISE.COM",
            "sektor": "Sektor Perdagangan",
            "tanggal_terbit": "2023-12-12",
            "url_tdpse_detail": "https://pse.komdigi.go.id/tdpse-detail/16857",
            "website": "id.unfranchise.com"
        },
        {
            "id": "9cb1ac78-491f-49a9-ad63-8bc8baa70ab9",
            "nama_pse": "ALBERT PRATAMA PRAYOGO",
            "nama_se": "SISTEM INFORMASI PELAYANAN LABORATORIUM (SIMPEL)",
            "sektor": "Sektor Kesehatan",
            "tanggal_terbit": "2023-12-12",
            "url_tdpse_detail": "https://pse.komdigi.go.id/tdpse-detail/16858",
            "website": "-"
        },
        {
            "id": "9cb1ac64-a7fe-4bc9-b5dd-babcdb5ea5a6",
            "nama_pse": "ALBERT PRATAMA PRAYOGO",
            "nama_se": "SISTEM INFORMASI MANAJEMEN KLINIK (SIMKLINIK)",
            "sektor": "Sektor Kesehatan",
            "tanggal_terbit": "2023-12-12",
            "url_tdpse_detail": "https://pse.komdigi.go.id/tdpse-detail/16859",
            "website": "-"
        },
        {
            "id": "9cb1ac78-4c5b-4e1a-b19a-728d5fe8976b",
            "nama_pse": "PENA NUSANTARA MULTIMEDIA",
            "nama_se": "PENANUSANTARA.ID",
            "sektor": "Sektor Teknologi Informasi dan Komunikasi",
            "tanggal_terbit": "2023-12-12",
            "url_tdpse_detail": "https://pse.komdigi.go.id/tdpse-detail/16860",
            "website": "PenaNusantara.id"
        },
        {
            "id": "9cb1ac78-4fe5-4eef-83c4-e2d064238e36",
            "nama_pse": "INOVASI UNTUK BANGSA",
            "nama_se": "KEMEDIS.CO",
            "sektor": "Sektor Kesehatan",
            "tanggal_terbit": "2023-12-12",
            "url_tdpse_detail": "https://pse.komdigi.go.id/tdpse-detail/16861",
            "website": "-"
        },
        {
            "id": "9cb1ac78-5293-4870-af8c-0734367710a2",
            "nama_pse": "TRISAKA REKSA WALUYA",
            "nama_se": "SIMRS BIMC",
            "sektor": "Sektor Kesehatan",
            "tanggal_terbit": "2023-12-12",
            "url_tdpse_detail": "https://pse.komdigi.go.id/tdpse-detail/16863",
            "website": "-"
        },
        {
            "id": "9cb1ac78-5775-43f9-b1c5-705ee14de74e",
            "nama_pse": "AGRA BERKAH PERSADA",
            "nama_se": "AGRAJEK - MITRA",
            "sektor": "Sektor Perdagangan, Sektor Transportasi, Sektor Teknologi Informasi dan Komunikasi",
            "tanggal_terbit": "2023-12-12",
            "url_tdpse_detail": "https://pse.komdigi.go.id/tdpse-detail/16864",
            "website": "-"
        },
        {
            "id": "9cb1ac64-ae60-4f17-9dc6-d4c3b0dc723c",
            "nama_pse": "KITA MONSTER DIGITAL",
            "nama_se": "KASIR KITA",
            "sektor": "Sektor Teknologi Informasi dan Komunikasi",
            "tanggal_terbit": "2023-12-12",
            "url_tdpse_detail": "https://pse.komdigi.go.id/tdpse-detail/16865",
            "website": "-"
        },
        {
            "id": "9cb1ac78-5bc7-4a33-8d6d-b1894af94007",
            "nama_pse": "DIGITAL TEKNOLOGI INDONESIA",
            "nama_se": "SIMRS HOSSI",
            "sektor": "Sektor Kesehatan, Sektor Teknologi Informasi dan Komunikasi",
            "tanggal_terbit": "2023-12-12",
            "url_tdpse_detail": "https://pse.komdigi.go.id/tdpse-detail/16866",
            "website": "aksesdigti.com"
        },
        {
            "id": "9cb1ac64-b128-4e3a-a8b9-7440fdf7f625",
            "nama_pse": "ADHY MITRA PERMANA",
            "nama_se": "SIRUSPRO",
            "sektor": "Sektor Kesehatan, Sektor Teknologi Informasi dan Komunikasi",
            "tanggal_terbit": "2023-12-12",
            "url_tdpse_detail": "https://pse.komdigi.go.id/tdpse-detail/16867",
            "website": "blueboox.com"
        },
        {
            "id": "9cb1ac64-b496-437b-adea-93c7d2787631",
            "nama_pse": "BIKIN BISNIS BERMAKNA",
            "nama_se": "BIKINBISNIS.ID",
            "sektor": "Sektor Perdagangan, Sektor Teknologi Informasi dan Komunikasi",
            "tanggal_terbit": "2023-12-12",
            "url_tdpse_detail": "https://pse.komdigi.go.id/tdpse-detail/16868",
            "website": "bikinbisnis.id"
        },
        {
            "id": "9cb1ac64-b92b-4934-baf5-fc44da421128",
            "nama_pse": "KIRIM KEMANA SAJA",
            "nama_se": "SEAMLESS FINANCE",
            "sektor": "Sektor Teknologi Informasi dan Komunikasi",
            "tanggal_terbit": "2023-12-12",
            "url_tdpse_detail": "https://pse.komdigi.go.id/tdpse-detail/16869",
            "website": "seamless.finance"
        },
        {
            "id": "9cb1ac50-625c-4464-98ad-91e29a8bdb84",
            "nama_pse": "JONES LANG LASALLE",
            "nama_se": "CORRIGO.COM",
            "sektor": "Sektor Teknologi Informasi dan Komunikasi",
            "tanggal_terbit": "2023-12-11",
            "url_tdpse_detail": "https://pse.komdigi.go.id/tdpse-detail/16844",
            "website": "Corrigo.com"
        },
        {
            "id": "9cb1ac78-1cf3-48a0-a91c-17b59e770e10",
            "nama_pse": "DUNIA VOUCHER GAME",
            "nama_se": "GOGOGOY",
            "sektor": "Sektor Perdagangan",
            "tanggal_terbit": "2023-12-11",
            "url_tdpse_detail": "https://pse.komdigi.go.id/tdpse-detail/16839",
            "website": "gogogoy.id"
        },
        {
            "id": "9cb1ac78-2a74-470d-aedc-30d7e47ef0f3",
            "nama_pse": "ANDI GLOBAL SOFT",
            "nama_se": "AGS REKAM MEDIS",
            "sektor": "Sektor Kesehatan",
            "tanggal_terbit": "2023-12-11",
            "url_tdpse_detail": "https://pse.komdigi.go.id/tdpse-detail/16840",
            "website": "-"
        },
        {
            "id": "9cb1ac64-8e1e-4d49-9c64-7ae448a2cacc",
            "nama_pse": "MEDIA PANGLIMA BERSINAR",
            "nama_se": "WEB BERITA ONLINE DAN IKLAN",
            "sektor": "Sektor Teknologi Informasi dan Komunikasi",
            "tanggal_terbit": "2023-12-11",
            "url_tdpse_detail": "https://pse.komdigi.go.id/tdpse-detail/16841",
            "website": "SBINEWS.ID"
        },
        {
            "id": "9cb1ac51-180c-494e-befe-f79e63040b60",
            "nama_pse": "JABARSOFT TEKNOLOGI INDONESIA",
            "nama_se": "DIGITAL REKAM MEDIK SISTEM",
            "sektor": "Sektor Kesehatan, Sektor Teknologi Informasi dan Komunikasi",
            "tanggal_terbit": "2023-12-11",
            "url_tdpse_detail": "https://pse.komdigi.go.id/tdpse-detail/16842",
            "website": "-"
        },
        {
            "id": "9cb1ac78-2d6d-47d4-9113-959fc289d3c9",
            "nama_pse": "MULTI ECHO PRADANA",
            "nama_se": "MULTIECHOPRADANA",
            "sektor": "Sektor Perdagangan",
            "tanggal_terbit": "2023-12-11",
            "url_tdpse_detail": "https://pse.komdigi.go.id/tdpse-detail/16843",
            "website": "-"
        },
        {
            "id": "9cb1ac51-2050-4d47-bf2a-75dc6e70d2e5",
            "nama_pse": "JAYA PULSA INDONESIA",
            "nama_se": "LEMAVO",
            "sektor": "Sektor Perdagangan",
            "tanggal_terbit": "2023-12-11",
            "url_tdpse_detail": "https://pse.komdigi.go.id/tdpse-detail/16846",
            "website": "lemavo.id"
        },
        {
            "id": "9cb1ac51-23dd-4de2-8375-7dbdafb27fa1",
            "nama_pse": "YANUANGGA GALAHARTLAMBANG",
            "nama_se": "SMARTMEDIS MITRAINDO",
            "sektor": "Sektor Perdagangan, Sektor Kesehatan, Sektor Teknologi Informasi dan Komunikasi",
            "tanggal_terbit": "2023-12-11",
            "url_tdpse_detail": "https://pse.komdigi.go.id/tdpse-detail/16848",
            "website": "-"
        },
        {
            "id": "9cb1ac51-14c6-4ab8-8616-97c7aa9ebd01",
            "nama_pse": "CAFELIN NETWORK MANDIRI",
            "nama_se": "LAYANAN INTERNET LOKAL",
            "sektor": "Sektor Teknologi Informasi dan Komunikasi",
            "tanggal_terbit": "2023-12-10",
            "url_tdpse_detail": "https://pse.komdigi.go.id/tdpse-detail/16836",
            "website": "-"
        },
        {
            "id": "9cb1ac78-0fd3-41c7-881a-83c4cc94905b",
            "nama_pse": "TIGA TITIK MEDIA",
            "nama_se": "3TITIK.COM",
            "sektor": "Sektor Teknologi Informasi dan Komunikasi",
            "tanggal_terbit": "2023-12-10",
            "url_tdpse_detail": "https://pse.komdigi.go.id/tdpse-detail/16837",
            "website": "3titik.com"
        },
        {
            "id": "9cb1ac78-18cb-4a0f-b18b-4deb6977d932",
            "nama_pse": "RSUD KABUPATEN BULELENG",
            "nama_se": "SIMRS RSUD BULELENG",
            "sektor": "Sektor Kesehatan",
            "tanggal_terbit": "2023-12-10",
            "url_tdpse_detail": "https://pse.komdigi.go.id/tdpse-detail/16838",
            "website": "rsudbuleleng.id"
        },
        {
            "id": "9cb1ac64-8431-41b2-b1a6-ff10280c6378",
            "nama_pse": "ROSITA",
            "nama_se": "HALOROSITA.ID",
            "sektor": "Sektor Perdagangan",
            "tanggal_terbit": "2023-12-09",
            "url_tdpse_detail": "https://pse.komdigi.go.id/tdpse-detail/16830",
            "website": "halorosita.id"
        }
    ],
    "processingTimeMs": 5,
    "query": "",
    "totalHits": 19121,
    "hitsPerPage": 50,
    "page": 102,
    "totalPages": 383
}