{
    "hits": [
        {
            "id": "9cb1abc3-8b63-4e35-bb6b-fa8c402547bf",
            "nama_pse": "PUTRA SELULER MANDIRI",
            "nama_se": "PUTRA RELOAD",
            "sektor": "Sektor Perdagangan",
            "tanggal_terbit": "2022-07-20",
            "url_tdpse_detail": "https://pse.komdigi.go.id/tdpse-detail/7430",
            "website": "putrareload.com"
        },
        {
            "id": "9cb1abb8-0f27-4675-aba4-374b4b372bf9",
            "nama_pse": "MASYARAKAT INDUSTRI KREATIF TEKNOLOGI INFORMASI DAN KOMUNIKASI INDONESIA",
            "nama_se": "PORTAL MIKTI",
            "sektor": "Sektor Teknologi Informasi dan Komunikasi",
            "tanggal_terbit": "2022-07-20",
            "url_tdpse_detail": "https://pse.komdigi.go.id/tdpse-detail/7429",
            "website": "mikti.id"
        },
        {
            "id": "9cb1abb8-15ba-4c85-b7b0-b4aae46b4772",
            "nama_pse": "ASURANSI RELIANCE INDONESIA",
            "nama_se": "WEBSITE PT. ASURANSI RELIANCE INDONESIA",
            "sektor": "Sektor Keuangan",
            "tanggal_terbit": "2022-07-20",
            "url_tdpse_detail": "https://pse.komdigi.go.id/tdpse-detail/7516",
            "website": "asuransireliance.com"
        },
        {
            "id": "9cb1abb8-187d-45e5-a503-c964f4fd3689",
            "nama_pse": "BANK PEREKONOMIAN RAKYAT LESTARI BALI",
            "nama_se": "MANAGEMENT INFORMATION SYSTEM (MIS)",
            "sektor": "Sektor Keuangan",
            "tanggal_terbit": "2022-07-20",
            "url_tdpse_detail": "https://pse.komdigi.go.id/tdpse-detail/7433",
            "website": "mis-public.bprlestari.com"
        },
        {
            "id": "9cb1abe9-b75f-4b39-ac9b-128b2d8df39a",
            "nama_pse": "BANK PERKREDITAN RAKYAT SUKADANA",
            "nama_se": "BANK PERKREDITAN RAKYAT SUKADANA",
            "sektor": "Sektor Keuangan",
            "tanggal_terbit": "2022-07-20",
            "url_tdpse_detail": "https://pse.komdigi.go.id/tdpse-detail/7436",
            "website": "bprsukadana.co.id"
        },
        {
            "id": "9cb1abe9-c27f-4292-92e3-1557dc9713ab",
            "nama_pse": "BANK PEREKONOMIAN RAKYAT PANCA DANA",
            "nama_se": "SISTEM INFORMASI BERBASIS WEBSITE PADA BPR PANCA DANARAKYAT",
            "sektor": "Sektor Keuangan, Sektor Teknologi Informasi dan Komunikasi",
            "tanggal_terbit": "2022-07-20",
            "url_tdpse_detail": "https://pse.komdigi.go.id/tdpse-detail/7440",
            "website": "bprpdr.co.id"
        },
        {
            "id": "9cb1abc3-9076-4208-a767-1e8c4c803e61",
            "nama_pse": "BANK SMBC INDONESIA",
            "nama_se": "BTPN.COM",
            "sektor": "Sektor Keuangan",
            "tanggal_terbit": "2022-07-20",
            "url_tdpse_detail": "https://pse.komdigi.go.id/tdpse-detail/7486",
            "website": "btpn.com"
        },
        {
            "id": "9cb1abc3-9443-413f-b52d-0615824c4082",
            "nama_pse": "ENA ENA INDONESIA",
            "nama_se": "ENA HEALTH INFORMATION SYSTEM, ENA HIS, ENA PRIMER",
            "sektor": "Sektor Teknologi Informasi dan Komunikasi",
            "tanggal_terbit": "2022-07-20",
            "url_tdpse_detail": "https://pse.komdigi.go.id/tdpse-detail/7438",
            "website": "-"
        },
        {
            "id": "9cb1abb8-1b64-4559-84de-f7626a992cab",
            "nama_pse": "Yogitanto",
            "nama_se": "TOP SERVER",
            "sektor": "Sektor Perdagangan",
            "tanggal_terbit": "2022-07-20",
            "url_tdpse_detail": "https://pse.komdigi.go.id/tdpse-detail/7439",
            "website": "Mitratopserver.com"
        },
        {
            "id": "9cb1abc3-96f6-4c4e-a102-9aca0e5f9d70",
            "nama_pse": "ERASOFT TEKNOLOGI INDONESIA",
            "nama_se": "MASTER ONLINE",
            "sektor": "Sektor Teknologi Informasi dan Komunikasi",
            "tanggal_terbit": "2022-07-20",
            "url_tdpse_detail": "https://pse.komdigi.go.id/tdpse-detail/7443",
            "website": "masteronline.co.id"
        },
        {
            "id": "9cb1abb8-1de3-4c67-8a71-7c4bf55646ee",
            "nama_pse": "INDO HUMAN RESOURCE",
            "nama_se": "JALUR KERJA",
            "sektor": "Sektor Teknologi Informasi dan Komunikasi",
            "tanggal_terbit": "2022-07-20",
            "url_tdpse_detail": "https://pse.komdigi.go.id/tdpse-detail/7441",
            "website": "jalurkerja.com"
        },
        {
            "id": "9cb1abb8-20bd-4d5c-ab09-8c8fd1edcc65",
            "nama_pse": "BANK PEREKONOMIAN RAKYAT GANDA LATA",
            "nama_se": "TIDAK ADA",
            "sektor": "Sektor Keuangan",
            "tanggal_terbit": "2022-07-20",
            "url_tdpse_detail": "https://pse.komdigi.go.id/tdpse-detail/7453",
            "website": "-"
        },
        {
            "id": "9cb1abc3-99ee-4346-b025-7c9fb9f59802",
            "nama_pse": "BANK SYARIAH INDONESIA",
            "nama_se": "WAIS (WHOLESALE ALLIANCE INTEGRATED SYSTEM)",
            "sektor": "Sektor Keuangan",
            "tanggal_terbit": "2022-07-20",
            "url_tdpse_detail": "https://pse.komdigi.go.id/tdpse-detail/7442",
            "website": "wais.bankbsi.co.id"
        },
        {
            "id": "9cb1abc3-9d30-4f4f-a68e-10a5031a2d02",
            "nama_pse": "ASURANSI MSIG INDONESIA",
            "nama_se": "MSIG.CO.ID",
            "sektor": "Sektor Keuangan",
            "tanggal_terbit": "2022-07-20",
            "url_tdpse_detail": "https://pse.komdigi.go.id/tdpse-detail/7450",
            "website": "msig.co.id"
        },
        {
            "id": "9cb1abc3-a058-45e0-9aba-b40a51096ef0",
            "nama_pse": "ALIANSI WIKRAMA SEJAHTERA",
            "nama_se": "BORABORA",
            "sektor": "Sektor Perdagangan, Sektor Teknologi Informasi dan Komunikasi",
            "tanggal_terbit": "2022-07-20",
            "url_tdpse_detail": "https://pse.komdigi.go.id/tdpse-detail/7561",
            "website": "danaventures.id"
        },
        {
            "id": "9cb1abb8-2302-400c-8baf-0e0a09992515",
            "nama_pse": "BANK PERKREDITAN RAKYAT SEDANA YASA",
            "nama_se": "HTTP://BPRSEDANAYASA.COM",
            "sektor": "Sektor Keuangan",
            "tanggal_terbit": "2022-07-20",
            "url_tdpse_detail": "https://pse.komdigi.go.id/tdpse-detail/7444",
            "website": "bprsedanayasa.com"
        },
        {
            "id": "9cb1abc3-a77b-4602-8167-84be33401ea1",
            "nama_pse": "SRIKANDHI JAYATAMA INDONESIA",
            "nama_se": "SJI.CO.ID",
            "sektor": "Sektor Perdagangan",
            "tanggal_terbit": "2022-07-20",
            "url_tdpse_detail": "https://pse.komdigi.go.id/tdpse-detail/7509",
            "website": "sji.co.id"
        },
        {
            "id": "9cb1abb8-254d-4c6d-a514-6451de32a87a",
            "nama_pse": "BANK PEREKONOMIAN RAKYAT SAUDARAKU",
            "nama_se": "PT. BPR ADI SEDANA AYU",
            "sektor": "Sektor Keuangan",
            "tanggal_terbit": "2022-07-20",
            "url_tdpse_detail": "https://pse.komdigi.go.id/tdpse-detail/7445",
            "website": "bankadisedanaayu.com"
        },
        {
            "id": "9cb1abb8-27ab-4e0a-bc45-4fbaf092cb82",
            "nama_pse": "BANK PERKREDITAN RAKYAT CEPU NASIONALBANK",
            "nama_se": "BPR CEPU NASIONALBANK",
            "sektor": "Sektor Keuangan",
            "tanggal_terbit": "2022-07-20",
            "url_tdpse_detail": "https://pse.komdigi.go.id/tdpse-detail/7460",
            "website": "bprcepunasionalbank.com"
        },
        {
            "id": "9cb1abe9-cef8-450e-832b-f223c92f92dc",
            "nama_pse": "BANK PERKREDITAN RAKYAT ARTHA SAMBHARA",
            "nama_se": "WEBSITE BPR ARTHA SAMBHARA",
            "sektor": "Sektor Keuangan",
            "tanggal_terbit": "2022-07-20",
            "url_tdpse_detail": "https://pse.komdigi.go.id/tdpse-detail/7451",
            "website": "bprarthasambhara.com"
        },
        {
            "id": "9cb1abe9-d288-4f4c-baaa-072a0946297f",
            "nama_pse": "BANK SMBC INDONESIA",
            "nama_se": "WOW SUSAN",
            "sektor": "Sektor Keuangan",
            "tanggal_terbit": "2022-07-20",
            "url_tdpse_detail": "https://pse.komdigi.go.id/tdpse-detail/7491",
            "website": "btpn.com"
        },
        {
            "id": "9cb1abe9-d599-493f-8309-194e934c4340",
            "nama_pse": "BANK PERKREDITAN RAKYAT CENTRAL PITOBY",
            "nama_se": "BPR CENTRAL PITOBY",
            "sektor": "Sektor Keuangan",
            "tanggal_terbit": "2022-07-20",
            "url_tdpse_detail": "https://pse.komdigi.go.id/tdpse-detail/7446",
            "website": "bprcentralpitoby.com"
        },
        {
            "id": "9cb1abe9-d89b-4f63-91d9-746017aa2d7c",
            "nama_pse": "BANK PEREKONOMIAN RAKYAT SEKAR KALIMANTAN TIMUR",
            "nama_se": "WEBSITE",
            "sektor": "Sektor Teknologi Informasi dan Komunikasi",
            "tanggal_terbit": "2022-07-20",
            "url_tdpse_detail": "https://pse.komdigi.go.id/tdpse-detail/7447",
            "website": "bprsekarkaltim.co.id"
        },
        {
            "id": "9cb1abc3-aadd-411f-8768-43e824380848",
            "nama_pse": "BANK PERKREDITAN RAKYAT KUTAI TIMUR",
            "nama_se": "WEB PT BPR KUTAI TIMUR",
            "sektor": "Sektor Keuangan",
            "tanggal_terbit": "2022-07-20",
            "url_tdpse_detail": "https://pse.komdigi.go.id/tdpse-detail/7454",
            "website": "bprkutim.co.id"
        },
        {
            "id": "9cb1abc3-adff-4eda-a578-373fab998b4e",
            "nama_pse": "ASURANSI SINAR MAS",
            "nama_se": "WEBSITE SIMASPET.COM",
            "sektor": "Sektor Keuangan",
            "tanggal_terbit": "2022-07-20",
            "url_tdpse_detail": "https://pse.komdigi.go.id/tdpse-detail/7464",
            "website": "simaspet.com"
        },
        {
            "id": "9cb1abb8-2aac-4ea3-9c3e-7090da403acd",
            "nama_pse": "BANK PERKREDITAN RAKYAT KENCANA",
            "nama_se": "NBPSYS",
            "sektor": "Sektor Keuangan",
            "tanggal_terbit": "2022-07-20",
            "url_tdpse_detail": "https://pse.komdigi.go.id/tdpse-detail/7455",
            "website": "bprkencana.co.id"
        },
        {
            "id": "9cb1abc3-affb-4de6-8853-3a73e23067ef",
            "nama_pse": "BANK PERKREDITAN RAKYAT PANCUR BANUA KHATULISTIWA",
            "nama_se": "SISTEM INFORMASI BANK PANCUR BANUA KHATULISTIWA",
            "sektor": "Sektor Keuangan",
            "tanggal_terbit": "2022-07-20",
            "url_tdpse_detail": "https://pse.komdigi.go.id/tdpse-detail/7449",
            "website": "panbankbpr.com"
        },
        {
            "id": "9cb1abe9-dc34-4d87-bda9-b2f6f629966f",
            "nama_pse": "BANK PERKREDITAN RAKYAT KARYA BAKTI SEJAHTERA",
            "nama_se": "BPRKBS.CO.ID",
            "sektor": "Sektor Keuangan",
            "tanggal_terbit": "2022-07-20",
            "url_tdpse_detail": "https://pse.komdigi.go.id/tdpse-detail/7452",
            "website": "bprkbs.co.id"
        },
        {
            "id": "9cb1abb8-2cd7-4336-8645-899904280753",
            "nama_pse": "HANWHA LIFE INSURANCE INDONESIA",
            "nama_se": "GROUP HEALTH PIC REPORTING",
            "sektor": "Sektor Keuangan",
            "tanggal_terbit": "2022-07-20",
            "url_tdpse_detail": "https://pse.komdigi.go.id/tdpse-detail/7471",
            "website": "health.hanwhalife.co.id"
        },
        {
            "id": "9cb1abc3-b1f1-44fd-ac36-9aa80a31470e",
            "nama_pse": "BANK SMBC INDONESIA",
            "nama_se": "BEEP.BTPN.COM",
            "sektor": "Sektor Keuangan",
            "tanggal_terbit": "2022-07-20",
            "url_tdpse_detail": "https://pse.komdigi.go.id/tdpse-detail/7497",
            "website": "-"
        },
        {
            "id": "9cb1abe9-e19a-46d6-9e28-ddc0b37c7c02",
            "nama_pse": "BANK PEMBANGUNAN DAERAH PAPUA",
            "nama_se": "WEBSITE PT. BANK PEMBANGUNAN DAERAH PAPUA",
            "sektor": "Sektor Keuangan",
            "tanggal_terbit": "2022-07-20",
            "url_tdpse_detail": "https://pse.komdigi.go.id/tdpse-detail/7462",
            "website": "bankpapua.co.id"
        },
        {
            "id": "9cb1abe9-e552-4328-8ef5-e352dd7bee17",
            "nama_pse": "MOUNEV INOVASI BANGSA",
            "nama_se": "MOUNEV INDONESIA",
            "sektor": "Sektor Teknologi Informasi dan Komunikasi",
            "tanggal_terbit": "2022-07-20",
            "url_tdpse_detail": "https://pse.komdigi.go.id/tdpse-detail/7456",
            "website": "mounev.com"
        },
        {
            "id": "9cb1abb8-2f7b-4240-bbaf-742c94f6988e",
            "nama_pse": "FASTPAY MEDIA NUSANTARA",
            "nama_se": "FASTPAY (WEB DASHBOARD)",
            "sektor": "Sektor Perdagangan, Sektor Teknologi Informasi dan Komunikasi",
            "tanggal_terbit": "2022-07-20",
            "url_tdpse_detail": "https://pse.komdigi.go.id/tdpse-detail/7457",
            "website": "loket.fastpay.co.id"
        },
        {
            "id": "9cb1abb8-31e6-4201-a92c-440dfc34b242",
            "nama_pse": "BANK PEREKONOMIAN RAKYAT KERTAMULIA",
            "nama_se": "PORTAL WEBSITE",
            "sektor": "Sektor Keuangan",
            "tanggal_terbit": "2022-07-20",
            "url_tdpse_detail": "https://pse.komdigi.go.id/tdpse-detail/7459",
            "website": "bprkertamulia.co.id"
        },
        {
            "id": "9cb1abb8-3483-4169-bd22-5c5c1e8c73b9",
            "nama_pse": "ASURANSI CENTRAL ASIA",
            "nama_se": "ACA-MOBILE.COM",
            "sektor": "Sektor Keuangan",
            "tanggal_terbit": "2022-07-20",
            "url_tdpse_detail": "https://pse.komdigi.go.id/tdpse-detail/7545",
            "website": "aca-mobile.com"
        },
        {
            "id": "9cb1abe9-e8e5-425b-bb18-5bb69bac3941",
            "nama_pse": "BANK PEMBIAYAAN RAKYAT SYARIAH GAIDO INDONESIA",
            "nama_se": "CORE BANKING SYSTEM IBA",
            "sektor": "Sektor Keuangan",
            "tanggal_terbit": "2022-07-20",
            "url_tdpse_detail": "https://pse.komdigi.go.id/tdpse-detail/7458",
            "website": "-"
        },
        {
            "id": "9cb1abb8-36d3-44bd-b71c-6b4b1e5888db",
            "nama_pse": "BANK PEREKONOMIAN RAKYAT ARTHAPUSPA MEGA",
            "nama_se": "WEBSITE",
            "sektor": "Sektor Keuangan",
            "tanggal_terbit": "2022-07-20",
            "url_tdpse_detail": "https://pse.komdigi.go.id/tdpse-detail/7461",
            "website": "arthapuspamega.com"
        },
        {
            "id": "9cb1abb8-3919-4b85-bcce-fee4f5fc5971",
            "nama_pse": "BANK PEREKONOMIAN RAKYAT CAHAYA BINAWERDI",
            "nama_se": "GOBALI CORE BANKING SISTEM",
            "sektor": "Sektor Keuangan",
            "tanggal_terbit": "2022-07-20",
            "url_tdpse_detail": "https://pse.komdigi.go.id/tdpse-detail/7467",
            "website": "-"
        },
        {
            "id": "9cb1abe9-ed32-4770-9943-06e8d173ae28",
            "nama_pse": "REALTA CHAKRADARMA",
            "nama_se": "BIMASAKTI TENANT",
            "sektor": "Sektor Teknologi Informasi dan Komunikasi",
            "tanggal_terbit": "2022-07-20",
            "url_tdpse_detail": "https://pse.komdigi.go.id/tdpse-detail/7465",
            "website": "realta.co.id"
        },
        {
            "id": "9cb1abb8-3b73-4f95-9857-921528de19f3",
            "nama_pse": "BANK PEREKONOMIAN RAKYAT MILLENIA",
            "nama_se": "USSI PINBUK PRIMA SOFTWARE",
            "sektor": "Sektor Keuangan",
            "tanggal_terbit": "2022-07-20",
            "url_tdpse_detail": "https://pse.komdigi.go.id/tdpse-detail/7463",
            "website": "bankmillenia.co.id"
        },
        {
            "id": "9cb1abe9-f155-474d-833d-f392c7cbd97d",
            "nama_pse": "BANK PEREKONOMIAN RAKYAT LESTARI BALI",
            "nama_se": "MANAGEMENT INFORMATION SYSTEM (MIS) 2",
            "sektor": "Sektor Keuangan",
            "tanggal_terbit": "2022-07-20",
            "url_tdpse_detail": "https://pse.komdigi.go.id/tdpse-detail/7466",
            "website": "mis2.bprlestari.com"
        },
        {
            "id": "9cb1abe9-f4b4-4825-965d-6ac91178fb65",
            "nama_pse": "BURSA EFEK INDONESIA",
            "nama_se": "MICROSITE ESG IDX",
            "sektor": "Sektor Keuangan",
            "tanggal_terbit": "2022-07-20",
            "url_tdpse_detail": "https://pse.komdigi.go.id/tdpse-detail/7468",
            "website": "esg.idx.co.id"
        },
        {
            "id": "9cb1abc3-bb1f-4206-9535-292f5880746a",
            "nama_pse": "BPR WUTAMA ARTHA JAYA",
            "nama_se": "ASSIST-BPR",
            "sektor": "Sektor Keuangan",
            "tanggal_terbit": "2022-07-20",
            "url_tdpse_detail": "https://pse.komdigi.go.id/tdpse-detail/7469",
            "website": "-"
        },
        {
            "id": "9cb1abc3-bd7f-414d-b581-757b1635e57a",
            "nama_pse": "ALTON MITRA SEJAHTERA",
            "nama_se": "PPOB",
            "sektor": "Sektor Teknologi Informasi dan Komunikasi",
            "tanggal_terbit": "2022-07-20",
            "url_tdpse_detail": "https://pse.komdigi.go.id/tdpse-detail/7472",
            "website": "site.alt-on.net"
        },
        {
            "id": "9cb1abc3-bf60-49ca-8f82-ce3caf9458d2",
            "nama_pse": "STAR MERCATO CAPITALE",
            "nama_se": "TANAMDUIT REKSA DANA",
            "sektor": "Sektor Keuangan",
            "tanggal_terbit": "2022-07-20",
            "url_tdpse_detail": "https://pse.komdigi.go.id/tdpse-detail/7473",
            "website": "tanamduit.com"
        },
        {
            "id": "9cb1abe9-f8e4-4758-b7a5-1ff3fad3ffe4",
            "nama_pse": "BANK PERKREDITAN RAKYAT ARTA UTAMA",
            "nama_se": "WEBSITE",
            "sektor": "Sektor Keuangan",
            "tanggal_terbit": "2022-07-20",
            "url_tdpse_detail": "https://pse.komdigi.go.id/tdpse-detail/7478",
            "website": "ns1.idwebhost.com"
        },
        {
            "id": "9cb1abc3-c217-422e-ad33-92fa2e0a0b40",
            "nama_pse": "BANK PEREKONOMIAN RAKYAT KARIMUN SEJAHTERA",
            "nama_se": "PT BPR KARIMUN SEJAHTERA",
            "sektor": "Sektor Keuangan",
            "tanggal_terbit": "2022-07-20",
            "url_tdpse_detail": "https://pse.komdigi.go.id/tdpse-detail/7652",
            "website": "karimunsejahtera.com"
        },
        {
            "id": "9cb1abe9-fcb7-4f22-bc8a-451c86ee3e76",
            "nama_pse": "BANK PERKREDITAN RAKYAT ARTA MITRA RAKYAT",
            "nama_se": "WWW.BPRAMIRA.COM",
            "sektor": "Sektor Keuangan",
            "tanggal_terbit": "2022-07-20",
            "url_tdpse_detail": "https://pse.komdigi.go.id/tdpse-detail/7474",
            "website": "bpramira.com"
        },
        {
            "id": "9cb1abb8-3de9-44c7-bd8f-2a4471a5e19c",
            "nama_pse": "MASYARAKAT INDUSTRI KREATIF TEKNOLOGI INFORMASI DAN KOMUNIKASI INDONESIA",
            "nama_se": "CONCREATE PORTAL",
            "sektor": "Sektor Teknologi Informasi dan Komunikasi",
            "tanggal_terbit": "2022-07-20",
            "url_tdpse_detail": "https://pse.komdigi.go.id/tdpse-detail/7475",
            "website": "-"
        },
        {
            "id": "9cb1abb8-4029-4307-b26b-dfc4527aed1b",
            "nama_pse": "BANK PERKREDITAN RAKYAT KARYA BAKTI SEJAHTERA",
            "nama_se": "KBSTRACK.COM",
            "sektor": "Sektor Keuangan, Sektor Teknologi Informasi dan Komunikasi",
            "tanggal_terbit": "2022-07-20",
            "url_tdpse_detail": "https://pse.komdigi.go.id/tdpse-detail/7476",
            "website": "kbstrack.com"
        }
    ],
    "processingTimeMs": 4,
    "query": "",
    "totalHits": 19131,
    "hitsPerPage": 50,
    "page": 236,
    "totalPages": 383
}