{
    "hits": [
        {
            "id": "9cb1ac6d-d677-458e-999d-7ada1a7c561a",
            "nama_pse": "ELMI PERDANA",
            "nama_se": "ELMI HOTEL",
            "sektor": "Sektor Perdagangan",
            "tanggal_terbit": "2024-03-28",
            "url_tdpse_detail": "https://pse.komdigi.go.id/tdpse-detail/18477",
            "website": "elmihotel.co.id"
        },
        {
            "id": "9cb1ac58-ac1c-4f3e-abeb-cb99b353c6e6",
            "nama_pse": "PUTRA DWI MUKTI",
            "nama_se": "RELASI CLINIC ERP KMC",
            "sektor": "Sektor Kesehatan",
            "tanggal_terbit": "2024-03-28",
            "url_tdpse_detail": "https://pse.komdigi.go.id/tdpse-detail/18470",
            "website": "-"
        },
        {
            "id": "9cb1ac6d-ce31-4e02-b133-f0e85d133b22",
            "nama_pse": "DIGITAL SOLUSI GRUP",
            "nama_se": "DSG",
            "sektor": "Sektor Teknologi Informasi dan Komunikasi",
            "tanggal_terbit": "2024-03-28",
            "url_tdpse_detail": "https://pse.komdigi.go.id/tdpse-detail/18474",
            "website": "dsg.id"
        },
        {
            "id": "9cb1ac58-af1c-47fb-a437-44ba5cf1e9d9",
            "nama_pse": "MEDIKA DIGITAL INDONESIA",
            "nama_se": "APLIKASI KLINIK SUNAT",
            "sektor": "Sektor Kesehatan",
            "tanggal_terbit": "2024-03-28",
            "url_tdpse_detail": "https://pse.komdigi.go.id/tdpse-detail/18476",
            "website": "rumahsunatan.net"
        },
        {
            "id": "9cb1ac82-7eeb-4316-bc78-2b146f64cbd4",
            "nama_pse": "ALGOSTUDIO",
            "nama_se": "YARA FARMCARE",
            "sektor": "Sektor Pangan",
            "tanggal_terbit": "2024-03-28",
            "url_tdpse_detail": "https://pse.komdigi.go.id/tdpse-detail/18478",
            "website": "-"
        },
        {
            "id": "9cb1ac82-7097-4e7c-b958-bad1f1ac2d32",
            "nama_pse": "GELORA DJAJA",
            "nama_se": "WHIS.WISMILAK",
            "sektor": "Sektor Kesehatan",
            "tanggal_terbit": "2024-03-28",
            "url_tdpse_detail": "https://pse.komdigi.go.id/tdpse-detail/18464",
            "website": "whis.wismilak.com"
        },
        {
            "id": "9cb1ac58-9439-4f37-8932-8f65a24283fd",
            "nama_pse": "JASA KARTINI KLINIKA",
            "nama_se": "SIM JKK KPJK TASIKMALAYA",
            "sektor": "Sektor Kesehatan",
            "tanggal_terbit": "2024-03-27",
            "url_tdpse_detail": "https://pse.komdigi.go.id/tdpse-detail/18446",
            "website": "-"
        },
        {
            "id": "9cb1ac58-916c-4b88-b443-e726fa9fbb21",
            "nama_pse": "CIPTA SELARAS MADANI",
            "nama_se": "CASMEDIC",
            "sektor": "Sektor Kesehatan",
            "tanggal_terbit": "2024-03-27",
            "url_tdpse_detail": "https://pse.komdigi.go.id/tdpse-detail/18440",
            "website": "-"
        },
        {
            "id": "9cb1ac6d-916c-4482-9fb7-d7f982becd56",
            "nama_pse": "DWI KARYA DIGITAL",
            "nama_se": "GETCLINIC",
            "sektor": "Sektor Kesehatan, Sektor Teknologi Informasi dan Komunikasi",
            "tanggal_terbit": "2024-03-27",
            "url_tdpse_detail": "https://pse.komdigi.go.id/tdpse-detail/18441",
            "website": "dkd.co.id"
        },
        {
            "id": "9cb1ac82-635f-4435-a48f-8ace51d4c81f",
            "nama_pse": "NUSANTARA SEBELAS MEDIKA",
            "nama_se": "SINUSA",
            "sektor": "Sektor Kesehatan",
            "tanggal_terbit": "2024-03-27",
            "url_tdpse_detail": "https://pse.komdigi.go.id/tdpse-detail/18442",
            "website": "-"
        },
        {
            "id": "9cb1ac6d-9a3b-46ff-af58-ec8f3e7ab807",
            "nama_pse": "VISUAL ALTA NEDA",
            "nama_se": "SIMRS KEPANJEN EYE CENTER",
            "sektor": "Sektor Kesehatan",
            "tanggal_terbit": "2024-03-27",
            "url_tdpse_detail": "https://pse.komdigi.go.id/tdpse-detail/18448",
            "website": "appsid.kepanjeneyecenter.com"
        },
        {
            "id": "9cb1ac58-a033-421c-8131-bb7b14ed6667",
            "nama_pse": "NEWS CAKRAWALA GROUP",
            "nama_se": "NEWSCAKRAWALA.ID",
            "sektor": "Sektor Teknologi Informasi dan Komunikasi",
            "tanggal_terbit": "2024-03-27",
            "url_tdpse_detail": "https://pse.komdigi.go.id/tdpse-detail/18455",
            "website": "newscakrawala.id"
        },
        {
            "id": "9cb1ac6d-9d0d-4c53-a7f4-488a9c96aab9",
            "nama_pse": "KERTI PRAJA",
            "nama_se": "SISTEM INFORMASI KLINIK WM MEDIKA",
            "sektor": "Sektor Kesehatan",
            "tanggal_terbit": "2024-03-27",
            "url_tdpse_detail": "https://pse.komdigi.go.id/tdpse-detail/18450",
            "website": "wmmedika.com"
        },
        {
            "id": "9cb1ac58-973f-4d70-96b0-c1e811437f45",
            "nama_pse": "DUA EMPAT TUJUH",
            "nama_se": "YAVA247 SSP (SMART SECURE PLATFORM)",
            "sektor": "Sektor Teknologi Informasi dan Komunikasi",
            "tanggal_terbit": "2024-03-27",
            "url_tdpse_detail": "https://pse.komdigi.go.id/tdpse-detail/18447",
            "website": "solusi247.com"
        },
        {
            "id": "9cb1ac58-9a35-4a73-bc69-67fab9a2639a",
            "nama_pse": "BAWA TERANG INDONESIA",
            "nama_se": "SISTE INFORMASI KLINIK TERINTEGRASI",
            "sektor": "Sektor Kesehatan",
            "tanggal_terbit": "2024-03-27",
            "url_tdpse_detail": "https://pse.komdigi.go.id/tdpse-detail/18449",
            "website": "drgmolar.net"
        },
        {
            "id": "9cb1ac6b-9005-465b-afbe-fc26d15c06de",
            "nama_pse": "GEBIYA EFRIMAN PUTRI",
            "nama_se": "SYNERGYOU JEWELLERY",
            "sektor": "Sektor Perdagangan, Sektor Teknologi Informasi dan Komunikasi",
            "tanggal_terbit": "2024-03-27",
            "url_tdpse_detail": "https://pse.komdigi.go.id/tdpse-detail/18454",
            "website": "synergyou.com"
        },
        {
            "id": "9cb1ac58-9d2e-4b47-b362-4c305f3330e5",
            "nama_pse": "IFORTE PAYMENT INFRASTRUCTURE",
            "nama_se": "IFORTEPAY",
            "sektor": "Sektor Teknologi Informasi dan Komunikasi",
            "tanggal_terbit": "2024-03-27",
            "url_tdpse_detail": "https://pse.komdigi.go.id/tdpse-detail/18451",
            "website": "ifortepay.id"
        },
        {
            "id": "9cb1ac82-6645-475f-83fc-39f62b1f6190",
            "nama_pse": "PRIMA CIPTA TEKNOLOGI",
            "nama_se": "PRIMEDIKA",
            "sektor": "Sektor Kesehatan",
            "tanggal_terbit": "2024-03-27",
            "url_tdpse_detail": "https://pse.komdigi.go.id/tdpse-detail/18452",
            "website": "pcteknologi.com"
        },
        {
            "id": "9cb1ac58-a348-4a5a-bbc4-a4b9d1786fa0",
            "nama_pse": "MUHAMMAD HAIDAR",
            "nama_se": "BANG BLACK STORE",
            "sektor": "Sektor Perdagangan, Sektor Teknologi Informasi dan Komunikasi",
            "tanggal_terbit": "2024-03-27",
            "url_tdpse_detail": "https://pse.komdigi.go.id/tdpse-detail/18456",
            "website": "-"
        },
        {
            "id": "9cb1ac6d-9431-4ac5-8ba9-ba45ab418d2c",
            "nama_pse": "OTTO MEDIKA INDONESIA",
            "nama_se": "OTTO MEDIKA",
            "sektor": "Sektor Kesehatan, Sektor Teknologi Informasi dan Komunikasi",
            "tanggal_terbit": "2024-03-27",
            "url_tdpse_detail": "https://pse.komdigi.go.id/tdpse-detail/18445",
            "website": "ottomedika.id"
        },
        {
            "id": "9cb1ac6d-8ac1-4e37-bd94-bfc961abdcc0",
            "nama_pse": "PULUNG WAHYU WIBOWO",
            "nama_se": "APLIKASI KLINIK",
            "sektor": "Sektor Kesehatan",
            "tanggal_terbit": "2024-03-26",
            "url_tdpse_detail": "https://pse.komdigi.go.id/tdpse-detail/18436",
            "website": "-"
        },
        {
            "id": "9cb1ac57-b481-4f39-9580-58f6234f58e2",
            "nama_pse": "CLINISINDO PUTRA PERKASA",
            "nama_se": "MEDICASTORE.COM - WEBSITE",
            "sektor": "Sektor Kesehatan",
            "tanggal_terbit": "2024-03-26",
            "url_tdpse_detail": "https://pse.komdigi.go.id/tdpse-detail/18416",
            "website": "medicastore.com"
        },
        {
            "id": "9cb1ac81-87a2-4896-8e28-27915d5160c9",
            "nama_pse": "DATA ARTS XPERIENCE",
            "nama_se": "AUDIENCE ONE",
            "sektor": "Sektor Teknologi Informasi dan Komunikasi",
            "tanggal_terbit": "2024-03-26",
            "url_tdpse_detail": "https://pse.komdigi.go.id/tdpse-detail/18438",
            "website": "dax.co.id"
        },
        {
            "id": "9cb1ac58-848f-42d5-9759-0fcedb19f39d",
            "nama_pse": "GALIB GLOBAL UTAMA",
            "nama_se": "CORAN",
            "sektor": "Sektor Teknologi Informasi dan Komunikasi",
            "tanggal_terbit": "2024-03-26",
            "url_tdpse_detail": "https://pse.komdigi.go.id/tdpse-detail/18429",
            "website": "co-ran.com"
        },
        {
            "id": "9cb1ac82-26b2-4206-bbc4-b2cbcca29329",
            "nama_pse": "DWARKA AYU KOSMETIKA",
            "nama_se": "INUSA INTEGRATED MANAGEMENT SYSTEM",
            "sektor": "Sektor Kesehatan, Sektor Teknologi Informasi dan Komunikasi",
            "tanggal_terbit": "2024-03-26",
            "url_tdpse_detail": "https://pse.komdigi.go.id/tdpse-detail/18435",
            "website": "apps.inusaskincare.co.id"
        },
        {
            "id": "9cb1ac6d-6656-4bae-9289-3da3e4725a8d",
            "nama_pse": "CLINISINDO PUTRA PERKASA",
            "nama_se": "FLEXNET",
            "sektor": "Sektor Kesehatan",
            "tanggal_terbit": "2024-03-26",
            "url_tdpse_detail": "https://pse.komdigi.go.id/tdpse-detail/18415",
            "website": "flexfreeclinic.com"
        },
        {
            "id": "9cb1ac6d-7b95-476b-a8ac-ee99920929c7",
            "nama_pse": "RUKUN GEMILANG PERKASA",
            "nama_se": "SITUS RESMI PLASTIK RUKUN",
            "sektor": "Sektor Teknologi Informasi dan Komunikasi",
            "tanggal_terbit": "2024-03-26",
            "url_tdpse_detail": "https://pse.komdigi.go.id/tdpse-detail/18420",
            "website": "plastikrukun.com"
        },
        {
            "id": "9cb1ac58-7662-44cd-a4e8-c571ba4fb918",
            "nama_pse": "HILKIA NOHANSEN",
            "nama_se": "APLIKASI KLINIK MICHELLE",
            "sektor": "Sektor Kesehatan",
            "tanggal_terbit": "2024-03-26",
            "url_tdpse_detail": "https://pse.komdigi.go.id/tdpse-detail/18422",
            "website": "apotek-michelle-app.com"
        },
        {
            "id": "9cb1ac58-7962-441b-a2c7-853bd44b1e9b",
            "nama_pse": "GRACIA VISI PRATAMA",
            "nama_se": "GRAHCIS HOSPITAL INFORMATION SYSTEM",
            "sektor": "Sektor Teknologi Informasi dan Komunikasi",
            "tanggal_terbit": "2024-03-26",
            "url_tdpse_detail": "https://pse.komdigi.go.id/tdpse-detail/18421",
            "website": "-"
        },
        {
            "id": "9cb1ac82-31f7-4a5f-8300-1faf77de82f0",
            "nama_pse": "DAT HOSPITAL INDONESIA",
            "nama_se": "SYARINAHIS",
            "sektor": "Sektor Kesehatan",
            "tanggal_terbit": "2024-03-26",
            "url_tdpse_detail": "https://pse.komdigi.go.id/tdpse-detail/18423",
            "website": "-"
        },
        {
            "id": "9cb1ac58-7c54-4158-997f-0a8b35522429",
            "nama_pse": "PULAU SAMBU",
            "nama_se": "E-KLINIK PT PULAU SAMBU LOKASI UNIT USAHA GUNTUNG",
            "sektor": "Sektor Kesehatan",
            "tanggal_terbit": "2024-03-26",
            "url_tdpse_detail": "https://pse.komdigi.go.id/tdpse-detail/18424",
            "website": "-"
        },
        {
            "id": "9cb1ac58-7ee4-4cde-a3e7-c9ddd7191545",
            "nama_pse": "GALIB GLOBAL UTAMA",
            "nama_se": "BAKAS",
            "sektor": "Sektor Perdagangan",
            "tanggal_terbit": "2024-03-26",
            "url_tdpse_detail": "https://pse.komdigi.go.id/tdpse-detail/18426",
            "website": "bakas.friendzit.land"
        },
        {
            "id": "9cb1ac6d-7e69-4145-8143-0a61a4024db7",
            "nama_pse": "IDE KARYA PRATAMA",
            "nama_se": "MEDIKA CONNECT",
            "sektor": "Sektor Kesehatan, Sektor Teknologi Informasi dan Komunikasi",
            "tanggal_terbit": "2024-03-26",
            "url_tdpse_detail": "https://pse.komdigi.go.id/tdpse-detail/18427",
            "website": "medikaconnect.com"
        },
        {
            "id": "9cb1ac58-8164-48cd-bc1f-2656e375db5b",
            "nama_pse": "ERTIGA PUTRA NUSANTARA",
            "nama_se": "ERTIGA INTEGRATED RECORDS INFORMATION SYSTEM (E-IRIS)",
            "sektor": "Sektor Kesehatan",
            "tanggal_terbit": "2024-03-26",
            "url_tdpse_detail": "https://pse.komdigi.go.id/tdpse-detail/18425",
            "website": "-"
        },
        {
            "id": "9cb1ac6d-814b-4e9f-a58e-6b6b5ea142e6",
            "nama_pse": "MAKMUR KALINGGA JAYA MANDIRI",
            "nama_se": "GDENTAL SYSTEM",
            "sektor": "Sektor Kesehatan",
            "tanggal_terbit": "2024-03-26",
            "url_tdpse_detail": "https://pse.komdigi.go.id/tdpse-detail/18428",
            "website": "-"
        },
        {
            "id": "9cb1ac58-87ae-455e-9e45-e9e999bb1deb",
            "nama_pse": "NUSANTARA HUSADA",
            "nama_se": "E-NUSANTARA",
            "sektor": "Sektor Kesehatan",
            "tanggal_terbit": "2024-03-26",
            "url_tdpse_detail": "https://pse.komdigi.go.id/tdpse-detail/18431",
            "website": "-"
        },
        {
            "id": "9cb1ac6d-8784-4445-a767-85a73694ef68",
            "nama_pse": "SATUKLINIK GLOBAL VISION",
            "nama_se": "SATUKLINIK",
            "sektor": "Sektor Kesehatan, Sektor Teknologi Informasi dan Komunikasi",
            "tanggal_terbit": "2024-03-26",
            "url_tdpse_detail": "https://pse.komdigi.go.id/tdpse-detail/18432",
            "website": "satuklinik.com"
        },
        {
            "id": "9cb1ac82-368a-4ea9-8431-5385e1f2b0a7",
            "nama_pse": "DIGITAL TEKNOLOGI PERKASA",
            "nama_se": "LIS CEREBRO",
            "sektor": "Sektor Kesehatan",
            "tanggal_terbit": "2024-03-26",
            "url_tdpse_detail": "https://pse.komdigi.go.id/tdpse-detail/18434",
            "website": "-"
        },
        {
            "id": "9cb1ac82-3a13-4c55-8f65-8da7d59be583",
            "nama_pse": "CASA MEDICAL UTAMA",
            "nama_se": "IDEPLEX",
            "sektor": "Sektor Kesehatan",
            "tanggal_terbit": "2024-03-26",
            "url_tdpse_detail": "https://pse.komdigi.go.id/tdpse-detail/18437",
            "website": "-"
        },
        {
            "id": "9cb1ac58-8d90-4528-b65f-cf79836895e3",
            "nama_pse": "PANORAMA HOSPITALITY MANAGEMENT",
            "nama_se": "PHM CRS",
            "sektor": "Sektor Perdagangan",
            "tanggal_terbit": "2024-03-26",
            "url_tdpse_detail": "https://pse.komdigi.go.id/tdpse-detail/18433",
            "website": "book101.com"
        },
        {
            "id": "9cb1ac82-19e4-43c4-b246-8c0516bea1a2",
            "nama_pse": "YULIE SEKURITAS INDONESIA",
            "nama_se": "YOUTRADE ONLINE TRADING",
            "sektor": "Sektor Keuangan",
            "tanggal_terbit": "2024-03-26",
            "url_tdpse_detail": "https://pse.komdigi.go.id/tdpse-detail/18417",
            "website": "yuliesekuritas.com"
        },
        {
            "id": "9cb1ac81-329a-49a5-9b60-5d7e2e4c2059",
            "nama_pse": "INTI KONTEN INDONESIA",
            "nama_se": "INTENS SMART CLINIC",
            "sektor": "Sektor Kesehatan",
            "tanggal_terbit": "2024-03-25",
            "url_tdpse_detail": "https://pse.komdigi.go.id/tdpse-detail/18396",
            "website": "-"
        },
        {
            "id": "9cb1ac6d-611b-4734-8469-ab3312f1ddb3",
            "nama_pse": "MEGA MEDIA INTERLOKAL GROUP",
            "nama_se": "WAKTU INDONESIA NEWS",
            "sektor": "Sektor Teknologi Informasi dan Komunikasi",
            "tanggal_terbit": "2024-03-25",
            "url_tdpse_detail": "https://pse.komdigi.go.id/tdpse-detail/18414",
            "website": "waktuindonesianews.com"
        },
        {
            "id": "9cb1ac81-eceb-405d-a407-89732a7f43be",
            "nama_pse": "GEREJA MASEHI ADVENT HARI KETUJUH DI INDONESIA",
            "nama_se": "E-MISCA",
            "sektor": "Sektor Kesehatan",
            "tanggal_terbit": "2024-03-25",
            "url_tdpse_detail": "https://pse.komdigi.go.id/tdpse-detail/18395",
            "website": "-"
        },
        {
            "id": "9cb1ac6d-261c-4222-b2af-944eb7990195",
            "nama_pse": "SOLUSIUTAMA TEKNO BROKER ASURANSI",
            "nama_se": "WWW.SOLUSIUTAMATEKNO.COM",
            "sektor": "Sektor Keuangan",
            "tanggal_terbit": "2024-03-25",
            "url_tdpse_detail": "https://pse.komdigi.go.id/tdpse-detail/18398",
            "website": "solusiutamatekno.com"
        },
        {
            "id": "9cb1ac57-a2ca-474c-90dc-b91d7218802b",
            "nama_pse": "HEKSA ADHITEK WAYATAMA",
            "nama_se": "DONYA",
            "sektor": "Sektor Teknologi Informasi dan Komunikasi",
            "tanggal_terbit": "2024-03-25",
            "url_tdpse_detail": "https://pse.komdigi.go.id/tdpse-detail/18401",
            "website": "donya.id"
        },
        {
            "id": "9cb1ac6d-3ffc-42c4-81f2-2f028877ca3f",
            "nama_pse": "BHAKTI UTAMA MEDIKA",
            "nama_se": "SISTEM KLINIK",
            "sektor": "Sektor Kesehatan",
            "tanggal_terbit": "2024-03-25",
            "url_tdpse_detail": "https://pse.komdigi.go.id/tdpse-detail/18409",
            "website": "-"
        },
        {
            "id": "9cb1ac58-48c4-465c-9312-8a8694f9c077",
            "nama_pse": "AFIF HUSAIN",
            "nama_se": "SIMRS RSUD KOTA PADANG PANJANG",
            "sektor": "Sektor Kesehatan",
            "tanggal_terbit": "2024-03-25",
            "url_tdpse_detail": "https://pse.komdigi.go.id/tdpse-detail/18399",
            "website": "-"
        },
        {
            "id": "9cb1ac6d-4ad3-4dbf-ac62-62f92df2314a",
            "nama_pse": "TIGA KAWAN SERTIFIKASI",
            "nama_se": "TIGA KAWAN SERTIFIKASI",
            "sektor": "Sektor Perdagangan",
            "tanggal_terbit": "2024-03-25",
            "url_tdpse_detail": "https://pse.komdigi.go.id/tdpse-detail/18402",
            "website": "tigakawansertifikasi.com"
        },
        {
            "id": "9cb1ac58-5525-4009-9417-4a51ed20cd92",
            "nama_pse": "SALIRA INFO UTAMA",
            "nama_se": "SALIRA TV",
            "sektor": "Sektor Teknologi Informasi dan Komunikasi",
            "tanggal_terbit": "2024-03-25",
            "url_tdpse_detail": "https://pse.komdigi.go.id/tdpse-detail/18410",
            "website": "salira.tv"
        }
    ],
    "processingTimeMs": 2,
    "query": "",
    "totalHits": 19131,
    "hitsPerPage": 50,
    "page": 75,
    "totalPages": 383
}