{
    "hits": [
        {
            "id": "9d524802-9833-41af-acc5-643bf49c1489",
            "nama_pse": "CIPTA SENTRA NUSANTARA",
            "nama_se": "EDI SUDENDI",
            "sektor": "Sektor Perdagangan, Sektor Transportasi, Sektor Teknologi Informasi dan Komunikasi",
            "tanggal_terbit": "2024-10-24",
            "url_tdpse_detail": "https://pse.komdigi.go.id/tdpse-detail/20895",
            "website": "-"
        },
        {
            "id": "9d525cff-706a-4cb7-a9ec-612a21764e94",
            "nama_pse": "TRISNA ANUGERAH UTAMA",
            "nama_se": "TRANSPORTER MOBILE INDONESIA",
            "sektor": "Sektor Perdagangan, Sektor Transportasi, Sektor Teknologi Informasi dan Komunikasi",
            "tanggal_terbit": "2024-10-24",
            "url_tdpse_detail": "https://pse.komdigi.go.id/tdpse-detail/20897",
            "website": "-"
        },
        {
            "id": "9d5263e4-b9e7-44b7-b83e-3a91c7d36caf",
            "nama_pse": "AHDI PPC EXPERT",
            "nama_se": "PPC EXPERT",
            "sektor": "Sektor Perdagangan, Sektor Teknologi Informasi dan Komunikasi",
            "tanggal_terbit": "2024-10-24",
            "url_tdpse_detail": "https://pse.komdigi.go.id/tdpse-detail/20898",
            "website": "ppcexpert.co.id"
        },
        {
            "id": "9d51fbef-6e68-40d1-801d-a9385e122670",
            "nama_pse": "VOLVO INDONESIA",
            "nama_se": "VOLVO CONNECT BUS",
            "sektor": "Sektor Teknologi Informasi dan Komunikasi",
            "tanggal_terbit": "2024-10-24",
            "url_tdpse_detail": "https://pse.komdigi.go.id/tdpse-detail/20887",
            "website": "buses.volvoconnect.com"
        },
        {
            "id": "9d521686-7923-44be-bf54-abdf04a6c0b4",
            "nama_pse": "ASURANSI HARTA AMAN PRATAMA",
            "nama_se": "APLIKASI SELULAR PT ASURANSI HARTA AMAN PRATAMA TBK",
            "sektor": "Sektor Keuangan",
            "tanggal_terbit": "2024-10-24",
            "url_tdpse_detail": "https://pse.komdigi.go.id/tdpse-detail/20891",
            "website": "-"
        },
        {
            "id": "9d4febb4-7338-4b17-9c40-a5cae6de7796",
            "nama_pse": "BRIGHT CAPITAL INC",
            "nama_se": "BRIGHT CAPITAL INC",
            "sektor": "Sektor Perdagangan",
            "tanggal_terbit": "2024-10-23",
            "url_tdpse_detail": "https://pse.komdigi.go.id/tdpse-detail/20870",
            "website": "brightmoneyvip.com"
        },
        {
            "id": "9d4fefc2-88b7-4937-be12-5fd1447a895e",
            "nama_pse": "SATYA DIGITAL TERPADU",
            "nama_se": "MODISHCARRYPAY",
            "sektor": "Sektor Teknologi Informasi dan Komunikasi",
            "tanggal_terbit": "2024-10-23",
            "url_tdpse_detail": "https://pse.komdigi.go.id/tdpse-detail/20871",
            "website": "modishcarry.com"
        },
        {
            "id": "9d4ffc82-8985-46d6-8267-4518627471b0",
            "nama_pse": "HYPEFAST DISTRIBUSI NUSANTARA",
            "nama_se": "FABIL NATURAL",
            "sektor": "Sektor Perdagangan",
            "tanggal_terbit": "2024-10-23",
            "url_tdpse_detail": "https://pse.komdigi.go.id/tdpse-detail/20872",
            "website": "fabilstore.co.id"
        },
        {
            "id": "9d502379-e073-4199-984b-d44618c45923",
            "nama_pse": "SARANA UNGGUL MEDIKA",
            "nama_se": "DOKTERIN",
            "sektor": "Sektor Kesehatan, Sektor Teknologi Informasi dan Komunikasi",
            "tanggal_terbit": "2024-10-23",
            "url_tdpse_detail": "https://pse.komdigi.go.id/tdpse-detail/20876",
            "website": "dokterin.co.id"
        },
        {
            "id": "9d503921-7635-41aa-865b-dff3f6fa537d",
            "nama_pse": "KALANDRA JAYA SOLUTION",
            "nama_se": "PT. KALANDRA JAYA SOLUTION",
            "sektor": "Sektor Perdagangan, Sektor Teknologi Informasi dan Komunikasi",
            "tanggal_terbit": "2024-10-23",
            "url_tdpse_detail": "https://pse.komdigi.go.id/tdpse-detail/20877",
            "website": "kalandrasolution.my.id"
        },
        {
            "id": "9d50499c-c0e0-446d-b688-33c8592eadd9",
            "nama_pse": "GOLDENSGOLD GENERAL SOLUTION",
            "nama_se": "PT. GOLDENSGOLD GENERAL SOLUTION",
            "sektor": "Sektor Perdagangan, Sektor Teknologi Informasi dan Komunikasi",
            "tanggal_terbit": "2024-10-23",
            "url_tdpse_detail": "https://pse.komdigi.go.id/tdpse-detail/20880",
            "website": "goldensolution.my.id"
        },
        {
            "id": "9d509a46-ba93-4762-bc6f-78f2f086a3ee",
            "nama_pse": "DEDDY KARUNIA RIZKI WIJAYA",
            "nama_se": "BAYAR DISINI, SUPER BILL",
            "sektor": "Sektor Perdagangan",
            "tanggal_terbit": "2024-10-23",
            "url_tdpse_detail": "https://pse.komdigi.go.id/tdpse-detail/20881",
            "website": "-"
        },
        {
            "id": "9d50bc5e-de2d-48a6-b598-f34bcc685989",
            "nama_pse": "CENTER MEDIA INDEPENDENT",
            "nama_se": "CMI NEWS",
            "sektor": "Sektor Teknologi Informasi dan Komunikasi",
            "tanggal_terbit": "2024-10-23",
            "url_tdpse_detail": "https://pse.komdigi.go.id/tdpse-detail/20882",
            "website": "centermediaindependent.com"
        },
        {
            "id": "9d501f8c-df86-4748-bae7-77ada22d1875",
            "nama_pse": "AMBARA KARYA USEDCAR",
            "nama_se": "WEBSITE AMBARA USED CAR",
            "sektor": "Sektor Perdagangan",
            "tanggal_terbit": "2024-10-23",
            "url_tdpse_detail": "https://pse.komdigi.go.id/tdpse-detail/20875",
            "website": "ambarausedcar.co.id"
        },
        {
            "id": "9d4fff3b-da61-4d7e-825c-449a796bf1ed",
            "nama_pse": "HOMIES NETWORK SOLUTION",
            "nama_se": "KREATIVABILL",
            "sektor": "Sektor Teknologi Informasi dan Komunikasi",
            "tanggal_terbit": "2024-10-23",
            "url_tdpse_detail": "https://pse.komdigi.go.id/tdpse-detail/20873",
            "website": "wd.kreativabill.id"
        },
        {
            "id": "9d5040d5-7c76-417f-80e7-526ca140cedb",
            "nama_pse": "SEI HARA PRIMA",
            "nama_se": "DIGITERA",
            "sektor": "Sektor Teknologi Informasi dan Komunikasi",
            "tanggal_terbit": "2024-10-23",
            "url_tdpse_detail": "https://pse.komdigi.go.id/tdpse-detail/20879",
            "website": "digitera.id"
        },
        {
            "id": "9d5040b1-cc49-41c0-a2d6-dc6dff0ff88c",
            "nama_pse": "MUBARAK CONNECTION SOLUTION",
            "nama_se": "PT. MUBARAK CONNECTION SOLUTION",
            "sektor": "Sektor Perdagangan, Sektor Teknologi Informasi dan Komunikasi",
            "tanggal_terbit": "2024-10-23",
            "url_tdpse_detail": "https://pse.komdigi.go.id/tdpse-detail/20878",
            "website": "mubaraksolution.my.id"
        },
        {
            "id": "9d501e05-c4d3-4f79-8e92-5247db3a2cb3",
            "nama_pse": "CYBERKARTA TUGU TEKNOLOGI",
            "nama_se": "ACADEMY CYBERKARTA",
            "sektor": "Sektor Teknologi Informasi dan Komunikasi",
            "tanggal_terbit": "2024-10-23",
            "url_tdpse_detail": "https://pse.komdigi.go.id/tdpse-detail/20874",
            "website": "academy.cyberkarta.com"
        },
        {
            "id": "9d4ccd0f-3843-4d2c-adcf-9b77d6a10429",
            "nama_pse": "MULTIMEDIA PANJI NUSANTARA",
            "nama_se": "koplak.co.id",
            "sektor": "Sektor Teknologi Informasi dan Komunikasi",
            "tanggal_terbit": "2024-10-22",
            "url_tdpse_detail": "https://pse.komdigi.go.id/tdpse-detail/20864",
            "website": "koplak.co.id"
        },
        {
            "id": "9d4fe7d3-921d-4c3f-842a-2300b52d819e",
            "nama_pse": "TEKNO NIAGA CERDAS",
            "nama_se": "STRIDEAPPEAL",
            "sektor": "Sektor Perdagangan",
            "tanggal_terbit": "2024-10-22",
            "url_tdpse_detail": "https://pse.komdigi.go.id/tdpse-detail/20867",
            "website": "strideappeal.com"
        },
        {
            "id": "9d4feb9d-c78a-4736-b84a-18382e014846",
            "nama_pse": "INOVASI BISNIS CERDAS",
            "nama_se": "BAGATTELIERPAY",
            "sektor": "Sektor Teknologi Informasi dan Komunikasi",
            "tanggal_terbit": "2024-10-22",
            "url_tdpse_detail": "https://pse.komdigi.go.id/tdpse-detail/20869",
            "website": "mybagatelier.com"
        },
        {
            "id": "9d4c2aeb-5cd9-4c59-a154-9ab53787d432",
            "nama_pse": "MITRA ANDA INDONESIA",
            "nama_se": "KOPI.ID",
            "sektor": "Sektor Perdagangan",
            "tanggal_terbit": "2024-10-21",
            "url_tdpse_detail": "https://pse.komdigi.go.id/tdpse-detail/20859",
            "website": "kopi.id"
        },
        {
            "id": "9d4bfa7a-4a93-4e3b-ab29-31dc6da08c7f",
            "nama_pse": "PASAR JASA INDONESIA",
            "nama_se": "WEBSITE PASAR JASA",
            "sektor": "Sektor Teknologi Informasi dan Komunikasi",
            "tanggal_terbit": "2024-10-21",
            "url_tdpse_detail": "https://pse.komdigi.go.id/tdpse-detail/20850",
            "website": "pasarjasa.id"
        },
        {
            "id": "9d4b9ff5-2974-4e18-a55a-5a3fe3443e62",
            "nama_pse": "IMPORTA JAYA ABADI",
            "nama_se": "APLIKASI MITRA IMPORTA",
            "sektor": "Sektor Perdagangan",
            "tanggal_terbit": "2024-10-21",
            "url_tdpse_detail": "https://pse.komdigi.go.id/tdpse-detail/20838",
            "website": "-"
        },
        {
            "id": "9d4c1339-7f92-4515-8776-2508babf2577",
            "nama_pse": "TRISNA ANUGERAH UTAMA",
            "nama_se": "TRANSPORTER INDONESIA",
            "sektor": "Sektor Perdagangan, Sektor Transportasi",
            "tanggal_terbit": "2024-10-21",
            "url_tdpse_detail": "https://pse.komdigi.go.id/tdpse-detail/20857",
            "website": "-"
        },
        {
            "id": "9d4bb6b3-1cc2-4880-aaf0-44cc1d98a893",
            "nama_pse": "INSPIRASI KREASI MASA",
            "nama_se": "PACESTANCEPAY",
            "sektor": "Sektor Perdagangan",
            "tanggal_terbit": "2024-10-21",
            "url_tdpse_detail": "https://pse.komdigi.go.id/tdpse-detail/20841",
            "website": "paceandstance.com"
        },
        {
            "id": "9d4b9998-6cf5-48b6-a7cb-2c091339626a",
            "nama_pse": "IMPORTA JAYA ABADI",
            "nama_se": "WEBSITE IMPORTAFURNITURE.COM",
            "sektor": "Sektor Perdagangan",
            "tanggal_terbit": "2024-10-21",
            "url_tdpse_detail": "https://pse.komdigi.go.id/tdpse-detail/20836",
            "website": "importafurniture.com"
        },
        {
            "id": "9d4b99a3-0922-47f1-843b-d0e2d844d826",
            "nama_pse": "SESH ARTAPALA PRIMA",
            "nama_se": "SESH",
            "sektor": "Sektor Teknologi Informasi dan Komunikasi",
            "tanggal_terbit": "2024-10-21",
            "url_tdpse_detail": "https://pse.komdigi.go.id/tdpse-detail/20837",
            "website": "sesh.co.id"
        },
        {
            "id": "9d4bce2b-b6a3-4dc3-94cd-5081f2f64e4e",
            "nama_pse": "SANDI FAJARIADI",
            "nama_se": "QRIS WANTUNO",
            "sektor": "Sektor Teknologi Informasi dan Komunikasi",
            "tanggal_terbit": "2024-10-21",
            "url_tdpse_detail": "https://pse.komdigi.go.id/tdpse-detail/20844",
            "website": "yunolah.com"
        },
        {
            "id": "9d4bc398-92d0-4358-a809-4b10ddbe9466",
            "nama_pse": "PROTIGAMAS HARSA NAWASENA",
            "nama_se": "PROTIGAMAS PI TRADE CENTER",
            "sektor": "Sektor Teknologi Informasi dan Komunikasi",
            "tanggal_terbit": "2024-10-21",
            "url_tdpse_detail": "https://pse.komdigi.go.id/tdpse-detail/20843",
            "website": "protigamas.com"
        },
        {
            "id": "9d4bbaa3-c715-4103-943d-805ef3fc8b7a",
            "nama_pse": "SURYA MARINA INTERNASIONAL",
            "nama_se": "DELOGS",
            "sektor": "Sektor Transportasi, Sektor Teknologi Informasi dan Komunikasi",
            "tanggal_terbit": "2024-10-21",
            "url_tdpse_detail": "https://pse.komdigi.go.id/tdpse-detail/20842",
            "website": "delogs.mii.id"
        },
        {
            "id": "9d4bf528-159d-4d0d-ae94-4215a1006cef",
            "nama_pse": "GENERASI ANAK INDONESIA BERKEMBANG",
            "nama_se": "KINDERCASTLE PARENT",
            "sektor": "Sektor Teknologi Informasi dan Komunikasi",
            "tanggal_terbit": "2024-10-21",
            "url_tdpse_detail": "https://pse.komdigi.go.id/tdpse-detail/20848",
            "website": "-"
        },
        {
            "id": "9d4bdcd0-6130-4711-a24c-e7bbc1093c1c",
            "nama_pse": "MAYA BISNIS NUSANTARA",
            "nama_se": "VELORAPAY",
            "sektor": "Sektor Perdagangan",
            "tanggal_terbit": "2024-10-21",
            "url_tdpse_detail": "https://pse.komdigi.go.id/tdpse-detail/20846",
            "website": "veloraluxe.com"
        },
        {
            "id": "9d4be50a-24d6-4583-8f3a-14893e0ab7cf",
            "nama_pse": "PRADANA HARSA ABADI",
            "nama_se": "MONGA MOBILE",
            "sektor": "Sektor Perdagangan, Sektor Transportasi",
            "tanggal_terbit": "2024-10-21",
            "url_tdpse_detail": "https://pse.komdigi.go.id/tdpse-detail/20847",
            "website": "mongamobile.com"
        },
        {
            "id": "9d4bfb47-7a27-481a-872c-9ddf675cdf3e",
            "nama_pse": "DYNA TECHNOLOGY INDONESIA",
            "nama_se": "DYNA.AI",
            "sektor": "Sektor Teknologi Informasi dan Komunikasi",
            "tanggal_terbit": "2024-10-21",
            "url_tdpse_detail": "https://pse.komdigi.go.id/tdpse-detail/20851",
            "website": "dynaai.id"
        },
        {
            "id": "9d4bfce6-57fd-440d-882a-1258166273de",
            "nama_pse": "ASTRA HONDA MOTOR",
            "nama_se": "HONDA ROADSYNC DUO",
            "sektor": "Sektor Perdagangan, Sektor Transportasi",
            "tanggal_terbit": "2024-10-21",
            "url_tdpse_detail": "https://pse.komdigi.go.id/tdpse-detail/20852",
            "website": "-"
        },
        {
            "id": "9d4c0086-2fbd-4e14-982e-6024c1a2704e",
            "nama_pse": "EQUINIX INDONESIA JKT",
            "nama_se": "EQUINIX CUSTOMER PORTAL (ECP)",
            "sektor": "Sektor Teknologi Informasi dan Komunikasi",
            "tanggal_terbit": "2024-10-21",
            "url_tdpse_detail": "https://pse.komdigi.go.id/tdpse-detail/20853",
            "website": "customerportal.equinix.com"
        },
        {
            "id": "9d4c08ad-3899-4f09-8264-048b8ce51787",
            "nama_pse": "PERUSAHAAN PERSEROAN (PERSERO) PT. BANK TABUNGAN NEGARA",
            "nama_se": "INTEGRATED END TO END PROCUREMENT",
            "sektor": "Sektor Teknologi Informasi dan Komunikasi",
            "tanggal_terbit": "2024-10-21",
            "url_tdpse_detail": "https://pse.komdigi.go.id/tdpse-detail/20854",
            "website": "e2eprocreg.btn.co.id"
        },
        {
            "id": "9d4c0c38-bc44-4b54-be86-29d31fe7487f",
            "nama_pse": "ASURANSI HARTA AMAN PRATAMA",
            "nama_se": "WEBSITE PT ASURANSI HARTA AMAN PRATAMA TBK",
            "sektor": "Sektor Keuangan",
            "tanggal_terbit": "2024-10-21",
            "url_tdpse_detail": "https://pse.komdigi.go.id/tdpse-detail/20855",
            "website": "asuransi-harta.co.id"
        },
        {
            "id": "9d4c11ca-7f65-40b8-9c07-bc37fbcfc817",
            "nama_pse": "GAGAS INFINITI TEKNOLOGI",
            "nama_se": "ABANGGAS",
            "sektor": "Sektor Transportasi, Sektor Teknologi Informasi dan Komunikasi",
            "tanggal_terbit": "2024-10-21",
            "url_tdpse_detail": "https://pse.komdigi.go.id/tdpse-detail/20856",
            "website": "abanggas.com"
        },
        {
            "id": "9d4c2e25-f952-48e8-815a-34ef13d5f0ab",
            "nama_pse": "MEGA HARAPAN MULIA",
            "nama_se": "KELAS.WORK",
            "sektor": "Sektor Perdagangan, Sektor Teknologi Informasi dan Komunikasi",
            "tanggal_terbit": "2024-10-21",
            "url_tdpse_detail": "https://pse.komdigi.go.id/tdpse-detail/20860",
            "website": "kelas.work"
        },
        {
            "id": "9d4cbd96-df64-4296-8e85-1ffd9994e3d5",
            "nama_pse": "PUTRA MANDIRI MULTI MEDIA",
            "nama_se": "pewartabali.com",
            "sektor": "Sektor Teknologi Informasi dan Komunikasi",
            "tanggal_terbit": "2024-10-21",
            "url_tdpse_detail": "https://pse.komdigi.go.id/tdpse-detail/20863",
            "website": "pewartabali.com"
        },
        {
            "id": "9d4bf710-965c-4195-97c5-677480a31d52",
            "nama_pse": "ANGKUTAN PENGEMUDI TRANSPORTASI NUSANTARA",
            "nama_se": "KAPTEN TRANSPORTASI",
            "sektor": "Sektor Perdagangan, Sektor Transportasi, Sektor Teknologi Informasi dan Komunikasi",
            "tanggal_terbit": "2024-10-21",
            "url_tdpse_detail": "https://pse.komdigi.go.id/tdpse-detail/20849",
            "website": "-"
        },
        {
            "id": "9d4bdb24-c2f9-4cf6-8e74-92724f24f6f7",
            "nama_pse": "SURYA CITRA GALLERY",
            "nama_se": "KLIKNEWS.CO.ID",
            "sektor": "Sektor Teknologi Informasi dan Komunikasi",
            "tanggal_terbit": "2024-10-21",
            "url_tdpse_detail": "https://pse.komdigi.go.id/tdpse-detail/20845",
            "website": "-"
        },
        {
            "id": "9d4ba5a4-f0d9-4b87-a092-68dfa6e4fc87",
            "nama_pse": "MULTI BINTANG INDONESIA NIAGA",
            "nama_se": "EAZLE",
            "sektor": "Sektor Perdagangan",
            "tanggal_terbit": "2024-10-21",
            "url_tdpse_detail": "https://pse.komdigi.go.id/tdpse-detail/20839",
            "website": "id.eazle.com"
        },
        {
            "id": "9d5e249b-8ab1-4f2f-bbc0-036672fdeebd",
            "nama_pse": "PLAYSTORE DIGITAL INDONESIA MAJU",
            "nama_se": "PLAYSTORE DIGITAL INDONESIA",
            "sektor": "Sektor Teknologi Informasi dan Komunikasi",
            "tanggal_terbit": "2024-10-21",
            "url_tdpse_detail": "https://pse.komdigi.go.id/tdpse-detail/20975",
            "website": "playstoredigital.co.id"
        },
        {
            "id": "9d4c3b97-5496-40de-aec8-4c80c3ac392b",
            "nama_pse": "IDE INOVASI NUSANTARA",
            "nama_se": "IDEKU",
            "sektor": "Sektor Teknologi Informasi dan Komunikasi",
            "tanggal_terbit": "2024-10-21",
            "url_tdpse_detail": "https://pse.komdigi.go.id/tdpse-detail/20862",
            "website": "ideku.id"
        },
        {
            "id": "9d4bb495-d2ad-46c2-82ca-58e50b45226d",
            "nama_pse": "NUSANODE CLOUD HOSTING",
            "nama_se": "NUSANODE",
            "sektor": "Sektor Teknologi Informasi dan Komunikasi",
            "tanggal_terbit": "2024-10-21",
            "url_tdpse_detail": "https://pse.komdigi.go.id/tdpse-detail/20840",
            "website": "nusanode.com"
        },
        {
            "id": "9d45d92b-f7d4-4196-9234-aaed15808475",
            "nama_pse": "WINNER DIGIPRENEUR INDONESIA",
            "nama_se": "AI DATA FINDER",
            "sektor": "Sektor Teknologi Informasi dan Komunikasi",
            "tanggal_terbit": "2024-10-18",
            "url_tdpse_detail": "https://pse.komdigi.go.id/tdpse-detail/20831",
            "website": "-"
        },
        {
            "id": "9d4611d1-37b6-45e0-bc9a-c06f9c5856e8",
            "nama_pse": "PURBOHADI UTOMO",
            "nama_se": "TALKTOMYDOCUMENT",
            "sektor": "Sektor Teknologi Informasi dan Komunikasi",
            "tanggal_terbit": "2024-10-18",
            "url_tdpse_detail": "https://pse.komdigi.go.id/tdpse-detail/20833",
            "website": "talktomydocument.com"
        }
    ],
    "processingTimeMs": 1,
    "query": "",
    "totalHits": 19121,
    "hitsPerPage": 50,
    "page": 31,
    "totalPages": 383
}