{
    "hits": [
        {
            "id": "9cb1aba2-3710-4d39-a493-36beb455d9e0",
            "nama_pse": "MITRANET SOFTWARE ONLINE",
            "nama_se": "FASILITATOR VIRTUAL ACCOUNT",
            "sektor": "Sektor Teknologi Informasi dan Komunikasi",
            "tanggal_terbit": "2022-06-04",
            "url_tdpse_detail": "https://pse.komdigi.go.id/tdpse-detail/4229",
            "website": "msodc.co.id"
        },
        {
            "id": "9cb1ab96-2985-4219-b840-8314922cd54c",
            "nama_pse": "NTT INDONESIA SOLUTIONS",
            "nama_se": "SERVICE DESK AS A SERVICE (SDAAS) DAN NETWORK OPERATION CENTER AS A SERVICE (NOCAAS)",
            "sektor": "Sektor Teknologi Informasi dan Komunikasi",
            "tanggal_terbit": "2022-06-03",
            "url_tdpse_detail": "https://pse.komdigi.go.id/tdpse-detail/4216",
            "website": "ddiopscenter.com"
        },
        {
            "id": "9cb1abac-754c-4915-a7b5-6ce6a0e6ed09",
            "nama_pse": "GERBANG ASET DIGITAL",
            "nama_se": "FASSET ID",
            "sektor": "Sektor Perdagangan, Sektor Keuangan",
            "tanggal_terbit": "2022-06-03",
            "url_tdpse_detail": "https://pse.komdigi.go.id/tdpse-detail/4217",
            "website": "fasset.id"
        },
        {
            "id": "9cb1aba2-2e44-4188-a86e-3c6e5b28d034",
            "nama_pse": "SOLUSI KOIN INDONESIA",
            "nama_se": "COINBAC",
            "sektor": "Sektor Perdagangan, Sektor Teknologi Informasi dan Komunikasi",
            "tanggal_terbit": "2022-06-03",
            "url_tdpse_detail": "https://pse.komdigi.go.id/tdpse-detail/4218",
            "website": "Coinbac.co.id"
        },
        {
            "id": "9cb1abac-77dd-4b2d-84b1-3c21b91b7742",
            "nama_pse": "CYBERINDO MEGA PERSADA",
            "nama_se": "CLOUD",
            "sektor": "Sektor Teknologi Informasi dan Komunikasi",
            "tanggal_terbit": "2022-06-03",
            "url_tdpse_detail": "https://pse.komdigi.go.id/tdpse-detail/4219",
            "website": "cbncloud.co.id"
        },
        {
            "id": "9cb1aba2-3057-44ed-98a3-d30c6d4761d7",
            "nama_pse": "PEGADAIAN",
            "nama_se": "PORTAL PENGAJUAN PRODUK PEGADAIAN (P4)",
            "sektor": "Sektor Keuangan",
            "tanggal_terbit": "2022-06-03",
            "url_tdpse_detail": "https://pse.komdigi.go.id/tdpse-detail/4221",
            "website": "pinjaman.pegadaian.co.id"
        },
        {
            "id": "9cb1ab96-302c-4c28-b63e-0bcf97deb4d8",
            "nama_pse": "SEMERU INDONESIA MAJU",
            "nama_se": "GOORITA",
            "sektor": "Sektor Perdagangan",
            "tanggal_terbit": "2022-06-03",
            "url_tdpse_detail": "https://pse.komdigi.go.id/tdpse-detail/4223",
            "website": "goorita.com"
        },
        {
            "id": "9cb1abac-7a67-429b-a3fa-8b0310c70648",
            "nama_pse": "GLOBAL URBAN ESENSIAL",
            "nama_se": "DKONSUL",
            "sektor": "Sektor Kesehatan",
            "tanggal_terbit": "2022-06-03",
            "url_tdpse_detail": "https://pse.komdigi.go.id/tdpse-detail/4224",
            "website": "dkonsul.com"
        },
        {
            "id": "9cb1aba2-3301-4529-aacf-a9a803bd9c4b",
            "nama_pse": "KUHI SOLUTIONS",
            "nama_se": "CHOPE",
            "sektor": "Sektor Perdagangan",
            "tanggal_terbit": "2022-06-03",
            "url_tdpse_detail": "https://pse.komdigi.go.id/tdpse-detail/4226",
            "website": "chope.co"
        },
        {
            "id": "9cb1ab96-3842-46b3-bf91-83f768f92e6e",
            "nama_pse": "SATUAN TEKNOLOGI BERJALAN",
            "nama_se": "JAGO",
            "sektor": "Sektor Perdagangan",
            "tanggal_terbit": "2022-06-03",
            "url_tdpse_detail": "https://pse.komdigi.go.id/tdpse-detail/4227",
            "website": "jagocoffee.com"
        },
        {
            "id": "9cb1aba2-21ce-4000-ab7a-f48ba0563bca",
            "nama_pse": "WARUNG GRUP DISTRIBUSI",
            "nama_se": "WARKUM.COM",
            "sektor": "Sektor Perdagangan",
            "tanggal_terbit": "2022-06-02",
            "url_tdpse_detail": "https://pse.komdigi.go.id/tdpse-detail/4205",
            "website": "warkum.com"
        },
        {
            "id": "9cb1ab96-21c7-40b9-a570-c4aa24db1aa5",
            "nama_pse": "INSIGHT INOVASI INDONESIA",
            "nama_se": "AYOCONNECT INSIGHT",
            "sektor": "Sektor Keuangan, Sektor Teknologi Informasi dan Komunikasi",
            "tanggal_terbit": "2022-06-02",
            "url_tdpse_detail": "https://pse.komdigi.go.id/tdpse-detail/4206",
            "website": "-"
        },
        {
            "id": "9cb1aba2-243b-40d3-bb92-18e423898a49",
            "nama_pse": "MELKY TUMPIA",
            "nama_se": "KAWANUA DIGITAL MULTIVERSE",
            "sektor": "Sektor Teknologi Informasi dan Komunikasi",
            "tanggal_terbit": "2022-06-02",
            "url_tdpse_detail": "https://pse.komdigi.go.id/tdpse-detail/4207",
            "website": "kawanuadigital.com"
        },
        {
            "id": "9cb1ab96-2419-47b7-bdf9-72ba1ee084b2",
            "nama_pse": "DPO INDONESIA FMCG",
            "nama_se": "BIGBOXASIA",
            "sektor": "Sektor Perdagangan, Sektor Pangan",
            "tanggal_terbit": "2022-06-02",
            "url_tdpse_detail": "https://pse.komdigi.go.id/tdpse-detail/4208",
            "website": "bigboxasia.co.id"
        },
        {
            "id": "9cb1ab96-269f-424e-863a-3442ecb59249",
            "nama_pse": "CARBAY SERVICES INDONESIA",
            "nama_se": "AUTO PORTAL",
            "sektor": "Sektor Perdagangan",
            "tanggal_terbit": "2022-06-02",
            "url_tdpse_detail": "https://pse.komdigi.go.id/tdpse-detail/4209",
            "website": "oto.com"
        },
        {
            "id": "9cb1abac-7078-44ea-847e-f3e2bea8c307",
            "nama_pse": "TRANS DIGITAL CEMERLANG",
            "nama_se": "TDC DIGITAL",
            "sektor": "Sektor Teknologi Informasi dan Komunikasi",
            "tanggal_terbit": "2022-06-02",
            "url_tdpse_detail": "https://pse.komdigi.go.id/tdpse-detail/4210",
            "website": "tdcdigital.id"
        },
        {
            "id": "9cb1aba2-265b-4d99-845f-a26cab8bd3ff",
            "nama_pse": "PERUSAHAAN PERSEROAN (PERSERO) PT PERTAMINA",
            "nama_se": "IVENDOR PERTAMINA",
            "sektor": "Sektor Teknologi Informasi dan Komunikasi",
            "tanggal_terbit": "2022-06-02",
            "url_tdpse_detail": "https://pse.komdigi.go.id/tdpse-detail/4212",
            "website": "-"
        },
        {
            "id": "9cb1aba2-29e2-44ae-bc71-87989724a1e9",
            "nama_pse": "RECOMN TECHNOLOGY SERVICES",
            "nama_se": "SEJASA.COM",
            "sektor": "Sektor Teknologi Informasi dan Komunikasi",
            "tanggal_terbit": "2022-06-02",
            "url_tdpse_detail": "https://pse.komdigi.go.id/tdpse-detail/4211",
            "website": "sejasa.com"
        },
        {
            "id": "9cb1aba2-2c3b-487d-8b5e-bb9fb9ad00e9",
            "nama_pse": "WOW INDONESIA BERSATU",
            "nama_se": "WOW KONSULTAN",
            "sektor": "Sektor Keuangan",
            "tanggal_terbit": "2022-06-02",
            "url_tdpse_detail": "https://pse.komdigi.go.id/tdpse-detail/4213",
            "website": "WOWKONSULTAN.COM"
        },
        {
            "id": "9cb1abac-72a7-4169-a922-398f674cb661",
            "nama_pse": "FREDDY MARPAUNG",
            "nama_se": "BERLIAN NET",
            "sektor": "Sektor Teknologi Informasi dan Komunikasi",
            "tanggal_terbit": "2022-06-02",
            "url_tdpse_detail": "https://pse.komdigi.go.id/tdpse-detail/4215",
            "website": "-"
        },
        {
            "id": "9cb1ab96-17b6-4328-a369-fcb760c971cb",
            "nama_pse": "CAR SOME INDONESIA",
            "nama_se": "CARSOME: BUY USED CARS ONLINE",
            "sektor": "Sektor Perdagangan",
            "tanggal_terbit": "2022-06-01",
            "url_tdpse_detail": "https://pse.komdigi.go.id/tdpse-detail/4200",
            "website": "-"
        },
        {
            "id": "9cb1ab96-1b19-4e01-ad40-8982a554b337",
            "nama_pse": "SITI KHADIJAH",
            "nama_se": "RAFFARASYA BIROJASA",
            "sektor": "Sektor Perdagangan, Sektor Teknologi Informasi dan Komunikasi",
            "tanggal_terbit": "2022-06-01",
            "url_tdpse_detail": "https://pse.komdigi.go.id/tdpse-detail/4201",
            "website": "-"
        },
        {
            "id": "9cb1ab96-1e19-4b0a-9265-b1738b212fce",
            "nama_pse": "LIKUID JAYA INISIASI",
            "nama_se": "KONSER BY SERMORPHEUS",
            "sektor": "Sektor Teknologi Informasi dan Komunikasi",
            "tanggal_terbit": "2022-06-01",
            "url_tdpse_detail": "https://pse.komdigi.go.id/tdpse-detail/4204",
            "website": "-"
        },
        {
            "id": "9cb1abac-6106-4a20-83bc-833e6d497c03",
            "nama_pse": "BEEGROUP FINANCIAL INDONESIA",
            "nama_se": "LUMMOSHOP",
            "sektor": "Sektor Teknologi Informasi dan Komunikasi",
            "tanggal_terbit": "2022-05-31",
            "url_tdpse_detail": "https://pse.komdigi.go.id/tdpse-detail/4189",
            "website": "lummoshop.co.id"
        },
        {
            "id": "9cb1abac-663c-4bc3-b58f-c408b6684186",
            "nama_pse": "HOME CENTER INDONESIA",
            "nama_se": "HOME CENTER INDONESIA - COMPANY PROFILE",
            "sektor": "Sektor Perdagangan",
            "tanggal_terbit": "2022-05-31",
            "url_tdpse_detail": "https://pse.komdigi.go.id/tdpse-detail/4190",
            "website": "informa.co.id"
        },
        {
            "id": "9cb1ab96-0cc5-4a0f-9ab3-5a1eefe7e642",
            "nama_pse": "TECHINDO SENTOSA RAYA",
            "nama_se": "PAKETINDO",
            "sektor": "Sektor Teknologi Informasi dan Komunikasi",
            "tanggal_terbit": "2022-05-31",
            "url_tdpse_detail": "https://pse.komdigi.go.id/tdpse-detail/4191",
            "website": "paketindo.id"
        },
        {
            "id": "9cb1ab96-11d2-4870-bc1e-8ac1c6232190",
            "nama_pse": "MOBILE DATA INDONESIA",
            "nama_se": "IDOGO",
            "sektor": "Sektor Teknologi Informasi dan Komunikasi",
            "tanggal_terbit": "2022-05-31",
            "url_tdpse_detail": "https://pse.komdigi.go.id/tdpse-detail/4192",
            "website": "ido-go.com"
        },
        {
            "id": "9cb1abac-683e-46cf-a839-df2131a7b3c4",
            "nama_pse": "BIMASAKTI MULTI SINERGI",
            "nama_se": "WINPAY",
            "sektor": "Sektor Keuangan",
            "tanggal_terbit": "2022-05-31",
            "url_tdpse_detail": "https://pse.komdigi.go.id/tdpse-detail/4193",
            "website": "winpay.id"
        },
        {
            "id": "9cb1abac-6a30-4590-a7db-61fb7f4bf7e1",
            "nama_pse": "BEBAS INVESTAMA GLOBAL",
            "nama_se": "BEBAS",
            "sektor": "Sektor Teknologi Informasi dan Komunikasi",
            "tanggal_terbit": "2022-05-31",
            "url_tdpse_detail": "https://pse.komdigi.go.id/tdpse-detail/4198",
            "website": "bebasinvestasi.com"
        },
        {
            "id": "9cb1aba2-1c20-41da-b022-63a4cdc93bfe",
            "nama_pse": "SOLUSI DIGITAL CEPAT",
            "nama_se": "WISBAYAR",
            "sektor": "Sektor Perdagangan",
            "tanggal_terbit": "2022-05-31",
            "url_tdpse_detail": "https://pse.komdigi.go.id/tdpse-detail/4194",
            "website": "wisbayar.id"
        },
        {
            "id": "9cb1aba2-1fab-4680-b479-06fba194c3b4",
            "nama_pse": "ANNORA MULTI INTECH",
            "nama_se": "LABEL (LABORATORIUM PEMBELAJARAN)",
            "sektor": "Sektor Teknologi Informasi dan Komunikasi",
            "tanggal_terbit": "2022-05-31",
            "url_tdpse_detail": "https://pse.komdigi.go.id/tdpse-detail/4195",
            "website": "-"
        },
        {
            "id": "9cb1ab96-14a7-4d12-aec7-a9ba8a0d3544",
            "nama_pse": "BERKAT REZEKI UTAMA",
            "nama_se": "BEERU",
            "sektor": "Sektor Perdagangan, Sektor Teknologi Informasi dan Komunikasi",
            "tanggal_terbit": "2022-05-31",
            "url_tdpse_detail": "https://pse.komdigi.go.id/tdpse-detail/4197",
            "website": "beeru.co.id"
        },
        {
            "id": "9cb1abac-6e23-4a59-8566-7e73b4faa92e",
            "nama_pse": "SITI KHADIJAH",
            "nama_se": "SITI KHADIJAH",
            "sektor": "Sektor Perdagangan, Sektor Teknologi Informasi dan Komunikasi",
            "tanggal_terbit": "2022-05-31",
            "url_tdpse_detail": "https://pse.komdigi.go.id/tdpse-detail/4199",
            "website": "-"
        },
        {
            "id": "9cb1aba2-158b-4cf8-9787-2aa36158baba",
            "nama_pse": "VISI KARYA PRAKARSA",
            "nama_se": "ANTRIQUE",
            "sektor": "Sektor Teknologi Informasi dan Komunikasi",
            "tanggal_terbit": "2022-05-30",
            "url_tdpse_detail": "https://pse.komdigi.go.id/tdpse-detail/4184",
            "website": "antrique.com"
        },
        {
            "id": "9cb1abac-5725-48e2-8d2b-c05f3e25fda4",
            "nama_pse": "CITRUST SARI INDONESIA",
            "nama_se": "CITRUST",
            "sektor": "Sektor Perdagangan",
            "tanggal_terbit": "2022-05-30",
            "url_tdpse_detail": "https://pse.komdigi.go.id/tdpse-detail/4170",
            "website": "-"
        },
        {
            "id": "9cb1aba2-0156-4bbb-9604-ba018809e9fa",
            "nama_pse": "GLOBAL INVESTMENT INSTITUSI",
            "nama_se": "LEARNINGX",
            "sektor": "Sektor Teknologi Informasi dan Komunikasi",
            "tanggal_terbit": "2022-05-30",
            "url_tdpse_detail": "https://pse.komdigi.go.id/tdpse-detail/4171",
            "website": "learningx.com"
        },
        {
            "id": "9cb1abac-58ea-476b-9558-6943c01b524e",
            "nama_pse": "LINOV ROKET PRESTASI",
            "nama_se": "LINOVHR",
            "sektor": "Sektor Teknologi Informasi dan Komunikasi",
            "tanggal_terbit": "2022-05-30",
            "url_tdpse_detail": "https://pse.komdigi.go.id/tdpse-detail/4172",
            "website": "linovhr.com"
        },
        {
            "id": "9cb1abac-5ad8-4b25-bbbe-327d513e215e",
            "nama_pse": "HERU WIDODO",
            "nama_se": "ANDROID OS",
            "sektor": "Sektor Teknologi Informasi dan Komunikasi",
            "tanggal_terbit": "2022-05-30",
            "url_tdpse_detail": "https://pse.komdigi.go.id/tdpse-detail/4173",
            "website": "-"
        },
        {
            "id": "9cb1aba2-07d1-4653-86e6-bf6dd39b0f55",
            "nama_pse": "LINOV ROKET PRESTASI",
            "nama_se": "LINOVHR CLOUD",
            "sektor": "Sektor Teknologi Informasi dan Komunikasi",
            "tanggal_terbit": "2022-05-30",
            "url_tdpse_detail": "https://pse.komdigi.go.id/tdpse-detail/4175",
            "website": "linovhr.com"
        },
        {
            "id": "9cb1aba2-0cd2-47ae-8992-36cf6a9b8fe0",
            "nama_pse": "TEKNOLOGI MOBILITAS INDONESIA",
            "nama_se": "SWOOP MOVE",
            "sektor": "Sektor Transportasi",
            "tanggal_terbit": "2022-05-30",
            "url_tdpse_detail": "https://pse.komdigi.go.id/tdpse-detail/4176",
            "website": "swoopmove.com"
        },
        {
            "id": "9cb1aba2-0ee8-48a0-a957-b26ea74f3866",
            "nama_pse": "ROBOCRYP TEKNOLOGI INVESTASI",
            "nama_se": "ROBOCRYP",
            "sektor": "Sektor Keuangan",
            "tanggal_terbit": "2022-05-30",
            "url_tdpse_detail": "https://pse.komdigi.go.id/tdpse-detail/4177",
            "website": "robocryp.com"
        },
        {
            "id": "9cb1aba2-10ff-42d1-888e-600fc6c3c354",
            "nama_pse": "TIPTIP NETWORK INDONESIA",
            "nama_se": "TIPTIP",
            "sektor": "Sektor Perdagangan",
            "tanggal_terbit": "2022-05-30",
            "url_tdpse_detail": "https://pse.komdigi.go.id/tdpse-detail/4180",
            "website": "Tiptip.tv"
        },
        {
            "id": "9cb1aba2-134e-42e1-b2c1-76902c8c94da",
            "nama_pse": "SANDS TALK INDONESIA",
            "nama_se": "GLOBAL CAREER",
            "sektor": "Sektor Teknologi Informasi dan Komunikasi",
            "tanggal_terbit": "2022-05-30",
            "url_tdpse_detail": "https://pse.komdigi.go.id/tdpse-detail/4181",
            "website": "globalcareer.id"
        },
        {
            "id": "9cb1abac-5cd4-45c8-aa8b-61309e0f279e",
            "nama_pse": "MUNZI SETIAWAN",
            "nama_se": "SETIAWAN DIGI NET",
            "sektor": "Sektor Teknologi Informasi dan Komunikasi",
            "tanggal_terbit": "2022-05-30",
            "url_tdpse_detail": "https://pse.komdigi.go.id/tdpse-detail/4182",
            "website": "bc24pedia.my.id"
        },
        {
            "id": "9cb1ab95-fe95-4ba7-ae7a-dcaf9fdb74ee",
            "nama_pse": "ELANG PRASETYA ALFAREZ",
            "nama_se": "PT ALGAN SOLUSI KARSA",
            "sektor": "Sektor Teknologi Informasi dan Komunikasi",
            "tanggal_terbit": "2022-05-30",
            "url_tdpse_detail": "https://pse.komdigi.go.id/tdpse-detail/4186",
            "website": "stratifin.com"
        },
        {
            "id": "9cb1aba2-19fb-43b6-b0c7-0f9e5b9e556b",
            "nama_pse": "ONEPETS GROUP INDONESIA",
            "nama_se": "ONEPETS",
            "sektor": "Sektor Perdagangan",
            "tanggal_terbit": "2022-05-30",
            "url_tdpse_detail": "https://pse.komdigi.go.id/tdpse-detail/4187",
            "website": "onepets.id"
        },
        {
            "id": "9cb1ab96-04b7-48dc-9d76-207557fc217d",
            "nama_pse": "SINERGI INDOMEDIA PERKASA",
            "nama_se": "SINERGI INDOMEDIA PERKASA",
            "sektor": "Sektor Teknologi Informasi dan Komunikasi",
            "tanggal_terbit": "2022-05-30",
            "url_tdpse_detail": "https://pse.komdigi.go.id/tdpse-detail/4188",
            "website": "-"
        },
        {
            "id": "9cb1aba1-fcbb-403b-83c2-58a3954cbec3",
            "nama_pse": "UMI IMAMAH NURSABRINA LINATI",
            "nama_se": "PUCHAI",
            "sektor": "Sektor Teknologi Informasi dan Komunikasi",
            "tanggal_terbit": "2022-05-29",
            "url_tdpse_detail": "https://pse.komdigi.go.id/tdpse-detail/4163",
            "website": "PUCHAI.MY.ID"
        },
        {
            "id": "9cb1ab95-f620-4a53-83e9-f8ae2d01668b",
            "nama_pse": "YEYEP GUSTIAN",
            "nama_se": "OKEPAY - SERVER PULSA \u0026 PPOB",
            "sektor": "Sektor Perdagangan, Sektor Keuangan",
            "tanggal_terbit": "2022-05-29",
            "url_tdpse_detail": "https://pse.komdigi.go.id/tdpse-detail/4164",
            "website": "-"
        },
        {
            "id": "9cb1ab95-fa3d-4d37-b686-f6ac32f3979a",
            "nama_pse": "SAHABAT BISNIS INOVASI",
            "nama_se": "SAHABATBISNIS.ID",
            "sektor": "Sektor Perdagangan",
            "tanggal_terbit": "2022-05-29",
            "url_tdpse_detail": "https://pse.komdigi.go.id/tdpse-detail/4165",
            "website": "sahabatbisnis.id"
        }
    ],
    "processingTimeMs": 5,
    "query": "",
    "totalHits": 19121,
    "hitsPerPage": 50,
    "page": 302,
    "totalPages": 383
}