{
    "hits": [
        {
            "id": "9cb1ab8d-f653-4f92-a26f-4a478d0e57a6",
            "nama_pse": "MANDIRI MANAJEMEN INVESTASI",
            "nama_se": "MOINVES",
            "sektor": "Sektor Keuangan, Sektor Keuangan",
            "tanggal_terbit": "2021-12-31",
            "url_tdpse_detail": "https://pse.komdigi.go.id/tdpse-detail/2936",
            "website": "moinves.co.id"
        },
        {
            "id": "9cb1ab88-f188-4b3f-83db-2ce82311a34a",
            "nama_pse": "NGALI BUSTHOMI",
            "nama_se": "DIGITESIA",
            "sektor": "Sektor Teknologi Informasi dan Komunikasi, Sektor Teknologi Informasi dan Komunikasi",
            "tanggal_terbit": "2021-12-30",
            "url_tdpse_detail": "https://pse.komdigi.go.id/tdpse-detail/2929",
            "website": "digitesia.com"
        },
        {
            "id": "9cb1ab89-3162-4394-abf5-31d3ec663fb9",
            "nama_pse": "INTEGRASI SINAPTIQ",
            "nama_se": "EASY BILLS 2C2P",
            "sektor": "Sektor Teknologi Informasi dan Komunikasi, Sektor Teknologi Informasi dan Komunikasi",
            "tanggal_terbit": "2021-12-30",
            "url_tdpse_detail": "https://pse.komdigi.go.id/tdpse-detail/2927",
            "website": "-"
        },
        {
            "id": "9cb1ab79-72d5-445b-87fb-ea76abac739b",
            "nama_pse": "DUA PULUH EMPAT JAM ONLINE",
            "nama_se": "SJLV2",
            "sektor": "Sektor Teknologi Informasi dan Komunikasi, Sektor Teknologi Informasi dan Komunikasi",
            "tanggal_terbit": "2021-12-30",
            "url_tdpse_detail": "https://pse.komdigi.go.id/tdpse-detail/2926",
            "website": "unipin.com"
        },
        {
            "id": "9cb1ab89-8036-4657-9f6f-8ab61c2a8a15",
            "nama_pse": "LIPPO GENERAL INSURANCE",
            "nama_se": "MYPROTECTION",
            "sektor": "Sektor Keuangan, Sektor Keuangan",
            "tanggal_terbit": "2021-12-30",
            "url_tdpse_detail": "https://pse.komdigi.go.id/tdpse-detail/2922",
            "website": "myprotection.id"
        },
        {
            "id": "9cb1ab89-839b-4087-970e-fb993c12131c",
            "nama_pse": "LIPPO GENERAL INSURANCE",
            "nama_se": "AGENCY.LIPPOINSURANCE.COM",
            "sektor": "Sektor Keuangan, Sektor Keuangan",
            "tanggal_terbit": "2021-12-30",
            "url_tdpse_detail": "https://pse.komdigi.go.id/tdpse-detail/2924",
            "website": "agency.lippoinsurance.com"
        },
        {
            "id": "9cb1ab81-7940-4436-b69c-05ce6a1e6775",
            "nama_pse": "KITA KELUARGA INDONESIA",
            "nama_se": "KITA",
            "sektor": "Sektor Perdagangan, Sektor Perdagangan, Sektor Kesehatan, Sektor Kesehatan",
            "tanggal_terbit": "2021-12-30",
            "url_tdpse_detail": "https://pse.komdigi.go.id/tdpse-detail/2925",
            "website": "keluargakita.id"
        },
        {
            "id": "9cb1ab89-8f5c-4591-8135-2d9ec9923cb6",
            "nama_pse": "Asriadi Karim Maulana",
            "nama_se": "ZONA MULTIMEDIA MAKASSAR",
            "sektor": "Sektor Teknologi Informasi dan Komunikasi, Sektor Teknologi Informasi dan Komunikasi",
            "tanggal_terbit": "2021-12-30",
            "url_tdpse_detail": "https://pse.komdigi.go.id/tdpse-detail/2920",
            "website": "lontaraph.wordpress.com"
        },
        {
            "id": "9cb1ab81-8a9a-4b1e-8805-3089c8aede38",
            "nama_pse": "BIRO HERIYANTO JAYA",
            "nama_se": "BIRO HERIYANTO JAYA",
            "sektor": "Sektor Teknologi Informasi dan Komunikasi, Sektor Teknologi Informasi dan Komunikasi",
            "tanggal_terbit": "2021-12-30",
            "url_tdpse_detail": "https://pse.komdigi.go.id/tdpse-detail/2921",
            "website": "-"
        },
        {
            "id": "9cb1ab79-cc23-4f35-93c6-4e17403357ee",
            "nama_pse": "CIPTA DAYA JAYA",
            "nama_se": "CIPTA DAYA SYSTEM",
            "sektor": "Sektor Teknologi Informasi dan Komunikasi, Sektor Teknologi Informasi dan Komunikasi",
            "tanggal_terbit": "2021-12-30",
            "url_tdpse_detail": "https://pse.komdigi.go.id/tdpse-detail/2923",
            "website": "ahlikomputer.com"
        },
        {
            "id": "9cb1ab81-8cb1-4e8d-a70c-fd177340dc97",
            "nama_pse": "GRATIS ONGKIR",
            "nama_se": "GRATIS ONGKIR",
            "sektor": "Sektor Perdagangan, Sektor Perdagangan",
            "tanggal_terbit": "2021-12-30",
            "url_tdpse_detail": "https://pse.komdigi.go.id/tdpse-detail/2928",
            "website": "gratisongkir.id"
        },
        {
            "id": "9cb1ab79-d0de-42aa-9d11-892efdbf8a16",
            "nama_pse": "PRILUDE DIGITAL INDONESIA",
            "nama_se": "PRILUDE STUDIO",
            "sektor": "Sektor Teknologi Informasi dan Komunikasi, Sektor Teknologi Informasi dan Komunikasi",
            "tanggal_terbit": "2021-12-30",
            "url_tdpse_detail": "https://pse.komdigi.go.id/tdpse-detail/2931",
            "website": "priludestudio.com"
        },
        {
            "id": "9cb1ab79-d3a1-4d4c-9fc4-e5cf5b72cc83",
            "nama_pse": "CITRA VAN TITIPAN KILAT",
            "nama_se": "TIKI CORPORATE WEBSITE",
            "sektor": "Sektor Perdagangan, Sektor Perdagangan, Sektor Transportasi, Sektor Transportasi",
            "tanggal_terbit": "2021-12-30",
            "url_tdpse_detail": "https://pse.komdigi.go.id/tdpse-detail/2932",
            "website": "tiki.id"
        },
        {
            "id": "9cb1ab90-b596-447a-88bb-5e71027fbb3b",
            "nama_pse": "TELEMEDIKA TEKNOLOGI INDONESIA",
            "nama_se": "GETWELL APPS INDONESIA",
            "sektor": "Sektor Kesehatan, Sektor Kesehatan",
            "tanggal_terbit": "2021-12-30",
            "url_tdpse_detail": "https://pse.komdigi.go.id/tdpse-detail/2930",
            "website": "getwell.co.id"
        },
        {
            "id": "9cb1ab6b-c8d3-4b24-9da7-ea0ec22a8c94",
            "nama_pse": "AKSELERASI SOLUSI OPTIMA",
            "nama_se": "GROWTHER.ID",
            "sektor": "Sektor Perdagangan, Sektor Perdagangan, Sektor Perdagangan",
            "tanggal_terbit": "2021-12-29",
            "url_tdpse_detail": "https://pse.komdigi.go.id/tdpse-detail/2918",
            "website": "Growther.id"
        },
        {
            "id": "9cb1ab6b-cb31-4bb5-b84b-1397fe202420",
            "nama_pse": "AKSELERASI SOLUSI OPTIMA",
            "nama_se": "WEBSITE GROWTHER.ID",
            "sektor": "Sektor Teknologi Informasi dan Komunikasi, Sektor Teknologi Informasi dan Komunikasi, Sektor Teknologi Informasi dan Komunikasi",
            "tanggal_terbit": "2021-12-29",
            "url_tdpse_detail": "https://pse.komdigi.go.id/tdpse-detail/2919",
            "website": "growther.id"
        },
        {
            "id": "9cb1ab80-fe77-4c48-b2cd-48ee8f93ad06",
            "nama_pse": "RITEL PANEN ADIPERKASA",
            "nama_se": "TUMI.COM",
            "sektor": "Sektor Perdagangan, Sektor Perdagangan",
            "tanggal_terbit": "2021-12-29",
            "url_tdpse_detail": "https://pse.komdigi.go.id/tdpse-detail/2911",
            "website": "tumi.com"
        },
        {
            "id": "9cb1ab88-fc6a-4a6d-bdcd-5e2fde47cdc1",
            "nama_pse": "RITEL PANEN ADIPERKASA",
            "nama_se": "LACOSTE.COM/ID",
            "sektor": "Sektor Perdagangan, Sektor Perdagangan",
            "tanggal_terbit": "2021-12-29",
            "url_tdpse_detail": "https://pse.komdigi.go.id/tdpse-detail/2912",
            "website": "lacoste.com"
        },
        {
            "id": "9cb1ab79-a3ad-4fe1-b1b6-adebfdebd84a",
            "nama_pse": "KREASI BINAR INDONESIA",
            "nama_se": "KERANJANG BELANJA",
            "sektor": "Sektor Perdagangan, Sektor Perdagangan",
            "tanggal_terbit": "2021-12-29",
            "url_tdpse_detail": "https://pse.komdigi.go.id/tdpse-detail/2910",
            "website": "kerbel.co.id"
        },
        {
            "id": "9cb1ab79-b0fe-4a81-a3fb-a280391c8b27",
            "nama_pse": "LIPPO GENERAL INSURANCE",
            "nama_se": "EBENEFIT.ID",
            "sektor": "Sektor Keuangan, Sektor Keuangan",
            "tanggal_terbit": "2021-12-29",
            "url_tdpse_detail": "https://pse.komdigi.go.id/tdpse-detail/2915",
            "website": "ebenefit.id"
        },
        {
            "id": "9cb1ab89-874d-4a09-b358-e2bc315f9805",
            "nama_pse": "DOA ANAK DIGITAL",
            "nama_se": "BANGBELI",
            "sektor": "Sektor Perdagangan, Sektor Perdagangan, Sektor Teknologi Informasi dan Komunikasi, Sektor Teknologi Informasi dan Komunikasi",
            "tanggal_terbit": "2021-12-29",
            "url_tdpse_detail": "https://pse.komdigi.go.id/tdpse-detail/2909",
            "website": "bangbeli.com"
        },
        {
            "id": "9cb1ab89-8b7d-4fab-8304-41dfd864aa34",
            "nama_pse": "BLA BLA TECH",
            "nama_se": "EATEROO, EATEROO MERCHANT",
            "sektor": "Sektor Perdagangan, Sektor Perdagangan, Sektor Teknologi Informasi dan Komunikasi, Sektor Teknologi Informasi dan Komunikasi",
            "tanggal_terbit": "2021-12-29",
            "url_tdpse_detail": "https://pse.komdigi.go.id/tdpse-detail/2916",
            "website": "eateroo.co"
        },
        {
            "id": "9cb1ab81-862e-4a85-ad29-7c8d45c1699d",
            "nama_pse": "MEIKA WELLIANA",
            "nama_se": "AVERILL SYSTEM",
            "sektor": "Sektor Teknologi Informasi dan Komunikasi, Sektor Teknologi Informasi dan Komunikasi",
            "tanggal_terbit": "2021-12-29",
            "url_tdpse_detail": "https://pse.komdigi.go.id/tdpse-detail/2917",
            "website": "ahlikomputer.com"
        },
        {
            "id": "9cb1ab7d-a4f5-439e-92a3-ef6f94361ccf",
            "nama_pse": "INTERAKTIF INTERNASIONAL",
            "nama_se": "INTERACTIVE ATTENDANCE CLOUD TERMINOLOGI",
            "sektor": "Sektor Teknologi Informasi dan Komunikasi, Sektor Teknologi Informasi dan Komunikasi, Sektor Teknologi Informasi dan Komunikasi, Sektor Teknologi Informasi dan Komunikasi",
            "tanggal_terbit": "2021-12-29",
            "url_tdpse_detail": "https://pse.komdigi.go.id/tdpse-detail/2913",
            "website": "interactiveholic.net"
        },
        {
            "id": "9cb1ab8d-35b1-4f89-8a45-ec68a76ca563",
            "nama_pse": "INTERAKTIF INTERNASIONAL",
            "nama_se": "INTERACTIVE QRIS",
            "sektor": "Sektor Teknologi Informasi dan Komunikasi, Sektor Teknologi Informasi dan Komunikasi, Sektor Teknologi Informasi dan Komunikasi, Sektor Teknologi Informasi dan Komunikasi",
            "tanggal_terbit": "2021-12-29",
            "url_tdpse_detail": "https://pse.komdigi.go.id/tdpse-detail/2914",
            "website": "interactiveholic.net"
        },
        {
            "id": "9cb1ab67-f6ff-4218-8f10-3d3ed1f396c6",
            "nama_pse": "PANSAKY BERDIKARI BERSAMA",
            "nama_se": "ATG 5.0  / ATC / ATO / ATFX / CTE",
            "sektor": "Sektor Perdagangan, Sektor Perdagangan, Sektor Perdagangan",
            "tanggal_terbit": "2021-12-28",
            "url_tdpse_detail": "https://pse.komdigi.go.id/tdpse-detail/2905",
            "website": "pansaka.co.id"
        },
        {
            "id": "9cb1ab81-6ea5-468a-b746-5799de30c200",
            "nama_pse": "SPORT TEKNOLOGI INDONESIA",
            "nama_se": "PLAYPRO",
            "sektor": "Sektor Perdagangan, Sektor Perdagangan",
            "tanggal_terbit": "2021-12-28",
            "url_tdpse_detail": "https://pse.komdigi.go.id/tdpse-detail/2896",
            "website": "-"
        },
        {
            "id": "9cb1ab79-c412-451c-89af-013a5d891c06",
            "nama_pse": "WAN SOLUTIONS",
            "nama_se": "WS DIGITAL",
            "sektor": "Sektor Perdagangan, Sektor Perdagangan",
            "tanggal_terbit": "2021-12-28",
            "url_tdpse_detail": "https://pse.komdigi.go.id/tdpse-detail/2901",
            "website": "wsdigital.id"
        },
        {
            "id": "9cb1ab79-c62b-4548-85a1-0ce7d7f4edbc",
            "nama_pse": "KREASI BERSAMA GEMPOL",
            "nama_se": "TOKO DARING -MARKET PLACE",
            "sektor": "Sektor Perdagangan, Sektor Perdagangan, Sektor Transportasi, Sektor Transportasi, Sektor Kesehatan, Sektor Kesehatan, Sektor Teknologi Informasi dan Komunikasi, Sektor Teknologi Informasi dan Komunikasi",
            "tanggal_terbit": "2021-12-28",
            "url_tdpse_detail": "https://pse.komdigi.go.id/tdpse-detail/2904",
            "website": "kreasibersama.com"
        },
        {
            "id": "9cb1ab81-71c2-4694-a9ce-d085f8991ebb",
            "nama_pse": "REPOWER METAVERSE TEKNOLOGI",
            "nama_se": "REPOWER DEFI",
            "sektor": "Sektor Perdagangan, Sektor Perdagangan",
            "tanggal_terbit": "2021-12-28",
            "url_tdpse_detail": "https://pse.komdigi.go.id/tdpse-detail/2907",
            "website": "repowerasiaindonesia.co.id"
        },
        {
            "id": "9cb1ab79-c842-4985-8d3c-22b2d7ed14e0",
            "nama_pse": "SANDANG JEANS BANDUNG",
            "nama_se": "SANDANG JEANS STORE BANDUNG",
            "sektor": "Sektor Perdagangan, Sektor Perdagangan",
            "tanggal_terbit": "2021-12-28",
            "url_tdpse_detail": "https://pse.komdigi.go.id/tdpse-detail/2906",
            "website": "-"
        },
        {
            "id": "9cb1ab85-be14-489c-ae6c-d8ae76cb1b34",
            "nama_pse": "INTERAKTIF INTERNASIONAL",
            "nama_se": "MYACCOUNTING",
            "sektor": "Sektor Teknologi Informasi dan Komunikasi, Sektor Teknologi Informasi dan Komunikasi, Sektor Teknologi Informasi dan Komunikasi, Sektor Teknologi Informasi dan Komunikasi",
            "tanggal_terbit": "2021-12-28",
            "url_tdpse_detail": "https://pse.komdigi.go.id/tdpse-detail/2898",
            "website": "interactiveholic.net"
        },
        {
            "id": "9cb1ab8d-2cc1-4976-8854-9db951fbc419",
            "nama_pse": "INTERAKTIF INTERNASIONAL",
            "nama_se": "INTRAX",
            "sektor": "Sektor Teknologi Informasi dan Komunikasi, Sektor Teknologi Informasi dan Komunikasi, Sektor Teknologi Informasi dan Komunikasi, Sektor Teknologi Informasi dan Komunikasi",
            "tanggal_terbit": "2021-12-28",
            "url_tdpse_detail": "https://pse.komdigi.go.id/tdpse-detail/2899",
            "website": "interactiveholic.net"
        },
        {
            "id": "9cb1ab8d-3116-4794-9fd6-59ac8e2d9623",
            "nama_pse": "INTERAKTIF INTERNASIONAL",
            "nama_se": "MYRESTO",
            "sektor": "Sektor Teknologi Informasi dan Komunikasi, Sektor Teknologi Informasi dan Komunikasi, Sektor Teknologi Informasi dan Komunikasi, Sektor Teknologi Informasi dan Komunikasi",
            "tanggal_terbit": "2021-12-28",
            "url_tdpse_detail": "https://pse.komdigi.go.id/tdpse-detail/2900",
            "website": "interactiveholic.net"
        },
        {
            "id": "9cb1ab8d-e623-4fcf-b003-e1a0372cd01f",
            "nama_pse": "WIWID HARIYANTO",
            "nama_se": "IASHBIRUU",
            "sektor": "Sektor Teknologi Informasi dan Komunikasi, Sektor Teknologi Informasi dan Komunikasi",
            "tanggal_terbit": "2021-12-28",
            "url_tdpse_detail": "https://pse.komdigi.go.id/tdpse-detail/2897",
            "website": "ishbiruu.com"
        },
        {
            "id": "9cb1ab8f-e475-41c1-8e95-335a73d99e57",
            "nama_pse": "BAIDU DIGITAL INDONESIA",
            "nama_se": "POPIN",
            "sektor": "Sektor Teknologi Informasi dan Komunikasi, Sektor Teknologi Informasi dan Komunikasi",
            "tanggal_terbit": "2021-12-28",
            "url_tdpse_detail": "https://pse.komdigi.go.id/tdpse-detail/2903",
            "website": "discovery.popin.cc/id/"
        },
        {
            "id": "9cb1ab8f-eaa6-4268-96d1-d5b541c869a1",
            "nama_pse": "HARMONIX TEKNOLOGI PEENTAR",
            "nama_se": "HELIOS SEVEN SOLUTION",
            "sektor": "Sektor Teknologi Informasi dan Komunikasi, Sektor Teknologi Informasi dan Komunikasi",
            "tanggal_terbit": "2021-12-28",
            "url_tdpse_detail": "https://pse.komdigi.go.id/tdpse-detail/2902",
            "website": "peentar.tech"
        },
        {
            "id": "9cb1ab9f-82fb-468c-a8b1-0368a4a27c42",
            "nama_pse": "SIGIT NUGROHO",
            "nama_se": "KALITANNEWS.COM",
            "sektor": "Sektor Teknologi Informasi dan Komunikasi, Sektor Teknologi Informasi dan Komunikasi, Sektor Teknologi Informasi dan Komunikasi",
            "tanggal_terbit": "2021-12-28",
            "url_tdpse_detail": "https://pse.komdigi.go.id/tdpse-detail/2908",
            "website": "kalitannews.com"
        },
        {
            "id": "9cb1ab89-08ef-40d3-b6d5-d2de83ee8fe1",
            "nama_pse": "BRIIX FINANCIAL TECHNOLOGY",
            "nama_se": "SIWA WEALTH",
            "sektor": "Sektor Keuangan, Sektor Keuangan, Sektor Teknologi Informasi dan Komunikasi, Sektor Teknologi Informasi dan Komunikasi",
            "tanggal_terbit": "2021-12-27",
            "url_tdpse_detail": "https://pse.komdigi.go.id/tdpse-detail/2888",
            "website": "-"
        },
        {
            "id": "9cb1ab79-606c-403d-8c18-517c71ec2d6e",
            "nama_pse": "PERUSAHAAN PERSEROAN (PERSERO) PT. BANK TABUNGAN NEGARA",
            "nama_se": "RUMAH MURAH BTN",
            "sektor": "Sektor Keuangan, Sektor Keuangan, Sektor Keuangan, Sektor Keuangan",
            "tanggal_terbit": "2021-12-27",
            "url_tdpse_detail": "https://pse.komdigi.go.id/tdpse-detail/2889",
            "website": "rumahmurahbtn.co.id"
        },
        {
            "id": "9cb1ab79-6369-497f-af85-834c580e6fef",
            "nama_pse": "PERUSAHAAN PERSEROAN (PERSERO) PT. BANK TABUNGAN NEGARA",
            "nama_se": "MOBILE PAYMENT BTN SYARIAH",
            "sektor": "Sektor Keuangan, Sektor Keuangan, Sektor Keuangan, Sektor Keuangan",
            "tanggal_terbit": "2021-12-27",
            "url_tdpse_detail": "https://pse.komdigi.go.id/tdpse-detail/2890",
            "website": "-"
        },
        {
            "id": "9cb1ab81-2ea3-4da2-8b23-86f7b4e82c53",
            "nama_pse": "PERUSAHAAN PERSEROAN (PERSERO) PT. BANK TABUNGAN NEGARA",
            "nama_se": "WBS (WHISTLEBLOWING  SYSTEM) BTN",
            "sektor": "Sektor Keuangan, Sektor Keuangan, Sektor Keuangan, Sektor Keuangan",
            "tanggal_terbit": "2021-12-27",
            "url_tdpse_detail": "https://pse.komdigi.go.id/tdpse-detail/2891",
            "website": "btnsiips.tipoffs.info"
        },
        {
            "id": "9cb1ab79-66ac-4c2d-80b2-fec618898499",
            "nama_pse": "PERUSAHAAN PERSEROAN (PERSERO) PT. BANK TABUNGAN NEGARA",
            "nama_se": "MOBILE BANKING BTN SYARIAH",
            "sektor": "Sektor Keuangan, Sektor Keuangan, Sektor Keuangan, Sektor Keuangan",
            "tanggal_terbit": "2021-12-27",
            "url_tdpse_detail": "https://pse.komdigi.go.id/tdpse-detail/2892",
            "website": "-"
        },
        {
            "id": "9cb1ab79-9fda-4676-9411-0f82ed617be3",
            "nama_pse": "ADAPANEN TANI INDONESIA",
            "nama_se": "WWW.ADAPANEN.COM",
            "sektor": "Sektor Perdagangan, Sektor Perdagangan",
            "tanggal_terbit": "2021-12-27",
            "url_tdpse_detail": "https://pse.komdigi.go.id/tdpse-detail/2886",
            "website": "adapanen.com"
        },
        {
            "id": "9cb1ab89-7ca2-4393-bbba-aa1dee431ce2",
            "nama_pse": "JUMADIL AWAL",
            "nama_se": "PORTAL TOKOWEBPEDIA",
            "sektor": "Sektor Teknologi Informasi dan Komunikasi, Sektor Teknologi Informasi dan Komunikasi, Sektor Teknologi Informasi dan Komunikasi",
            "tanggal_terbit": "2021-12-27",
            "url_tdpse_detail": "https://pse.komdigi.go.id/tdpse-detail/2885",
            "website": "tokowebpedia.com"
        },
        {
            "id": "9cb1ab79-ad38-4020-90cc-2f4dbe7bc7fc",
            "nama_pse": "LIPPO GENERAL INSURANCE",
            "nama_se": "LIPPOINSURANCE.COM",
            "sektor": "Sektor Keuangan, Sektor Keuangan",
            "tanggal_terbit": "2021-12-27",
            "url_tdpse_detail": "https://pse.komdigi.go.id/tdpse-detail/2894",
            "website": "lippoinsurance.com"
        },
        {
            "id": "9cb1ab79-b4f2-4d49-8608-6317db1cff43",
            "nama_pse": "ASURANSI TOTAL BERSAMA",
            "nama_se": "TOB MOBILE",
            "sektor": "Sektor Keuangan, Sektor Keuangan",
            "tanggal_terbit": "2021-12-27",
            "url_tdpse_detail": "https://pse.komdigi.go.id/tdpse-detail/2893",
            "website": "tob-ins.com"
        },
        {
            "id": "9cb1ab79-c05b-4b54-b2ee-56aac43938ff",
            "nama_pse": "DIGITEK MAKMUR PANGESTU",
            "nama_se": "INVESTOVAL",
            "sektor": "Sektor Keuangan, Sektor Keuangan, Sektor Teknologi Informasi dan Komunikasi, Sektor Teknologi Informasi dan Komunikasi",
            "tanggal_terbit": "2021-12-27",
            "url_tdpse_detail": "https://pse.komdigi.go.id/tdpse-detail/2895",
            "website": "investoval.com"
        },
        {
            "id": "9cb1ab86-7a81-481d-942a-2c512a65a9db",
            "nama_pse": "SYAFTRACO",
            "nama_se": "INSTAMONEY",
            "sektor": "Sektor Keuangan, Sektor Keuangan",
            "tanggal_terbit": "2021-12-27",
            "url_tdpse_detail": "https://pse.komdigi.go.id/tdpse-detail/2887",
            "website": "instamoney.co"
        },
        {
            "id": "9cb1ab81-62b9-49e4-9f74-4b9d94fc63dc",
            "nama_pse": "D' FAMILY TECHNOLOGY",
            "nama_se": "CV DFAMILY TECHNOOGY",
            "sektor": "Sektor Teknologi Informasi dan Komunikasi, Sektor Teknologi Informasi dan Komunikasi",
            "tanggal_terbit": "2021-12-26",
            "url_tdpse_detail": "https://pse.komdigi.go.id/tdpse-detail/2880",
            "website": "-"
        }
    ],
    "processingTimeMs": 9,
    "query": "",
    "totalHits": 19131,
    "hitsPerPage": 50,
    "page": 328,
    "totalPages": 383
}