{
    "hits": [
        {
            "id": "9e6db739-149f-4a4a-ae12-d272a6f5c029",
            "nama_pse": "HOME CENTER INDONESIA RETAIL",
            "nama_se": "MOBILE APP INFORMA",
            "sektor": "Sektor Perdagangan",
            "tanggal_terbit": "2025-03-14",
            "url_tdpse_detail": "https://pse.komdigi.go.id/tdpse-detail/22729",
            "website": "-"
        },
        {
            "id": "9e6d9979-d0a1-44c8-8891-90193949725c",
            "nama_pse": "DIGITALA INDONESIA GLOBAL",
            "nama_se": "MEDISYNC",
            "sektor": "Sektor Kesehatan, Sektor Teknologi Informasi dan Komunikasi",
            "tanggal_terbit": "2025-03-14",
            "url_tdpse_detail": "https://pse.komdigi.go.id/tdpse-detail/22728",
            "website": "medisync.digitala.id"
        },
        {
            "id": "9e6d6b8c-c9a5-4717-8953-f6bc05fa8fa3",
            "nama_pse": "KECERDASAN ARTIFISIAL INDONESIA",
            "nama_se": "UPTHINX",
            "sektor": "Sektor Teknologi Informasi dan Komunikasi",
            "tanggal_terbit": "2025-03-14",
            "url_tdpse_detail": "https://pse.komdigi.go.id/tdpse-detail/22727",
            "website": "upthinx.com"
        },
        {
            "id": "9e6dbb20-7531-4e14-bc85-747287c35700",
            "nama_pse": "JAVA RATA INDONESIA",
            "nama_se": "TEEM.ID",
            "sektor": "Sektor Perdagangan",
            "tanggal_terbit": "2025-03-14",
            "url_tdpse_detail": "https://pse.komdigi.go.id/tdpse-detail/22730",
            "website": "teem.id"
        },
        {
            "id": "9e6caddc-c526-409e-8fb0-e5df7d493947",
            "nama_pse": "STEPITILOPA",
            "nama_se": "starlink gogo",
            "sektor": "Sektor Perdagangan, Sektor Teknologi Informasi dan Komunikasi",
            "tanggal_terbit": "2025-03-14",
            "url_tdpse_detail": "https://pse.komdigi.go.id/tdpse-detail/22723",
            "website": "-"
        },
        {
            "id": "9e6cc9fa-232c-4a1b-9bb6-37dd5929500a",
            "nama_pse": "KATALIS VISION MEDIA NETWORK",
            "nama_se": "KABARKALA.COM",
            "sektor": "Sektor Teknologi Informasi dan Komunikasi",
            "tanggal_terbit": "2025-03-14",
            "url_tdpse_detail": "https://pse.komdigi.go.id/tdpse-detail/22724",
            "website": "kabarkala.com"
        },
        {
            "id": "9e6cd450-b946-4fb5-8027-b5bbd95ce0d5",
            "nama_pse": "KATALIS VISION MEDIA NETWORK",
            "nama_se": "SOUNDSOFCONCERT.COM",
            "sektor": "Sektor Teknologi Informasi dan Komunikasi",
            "tanggal_terbit": "2025-03-14",
            "url_tdpse_detail": "https://pse.komdigi.go.id/tdpse-detail/22725",
            "website": "soundsofconcert.com"
        },
        {
            "id": "9e6d4db3-0aae-4e7d-959e-eb7bc5405653",
            "nama_pse": "LEJOB SEA INDONESIA",
            "nama_se": "LEJOB SEA INDONESIA",
            "sektor": "Sektor Teknologi Informasi dan Komunikasi",
            "tanggal_terbit": "2025-03-14",
            "url_tdpse_detail": "https://pse.komdigi.go.id/tdpse-detail/22726",
            "website": "-"
        },
        {
            "id": "9e5f7248-19e7-40d9-9817-303b3f78de91",
            "nama_pse": "BEAUTE HAUL INDONESIA",
            "nama_se": "BEAUTYHAUL WEBSITE",
            "sektor": "Sektor Perdagangan, Sektor Teknologi Informasi dan Komunikasi",
            "tanggal_terbit": "2025-03-13",
            "url_tdpse_detail": "https://pse.komdigi.go.id/tdpse-detail/22722",
            "website": "beautyhaul.com"
        },
        {
            "id": "9e6997ff-6e3b-4331-ae3c-a605ca467b1f",
            "nama_pse": "NINARIS INTERACTIVE ENTERTAINMENT",
            "nama_se": "RIVO LIVE",
            "sektor": "Sektor Teknologi Informasi dan Komunikasi",
            "tanggal_terbit": "2025-03-12",
            "url_tdpse_detail": "https://pse.komdigi.go.id/tdpse-detail/22716",
            "website": "rivolive.com"
        },
        {
            "id": "9e699d60-bd75-401b-ad33-f16a0b8a77f3",
            "nama_pse": "ENO ANDRI",
            "nama_se": "LAYANAN INTERNET LOKAL (WIFI RT RW)",
            "sektor": "Sektor Teknologi Informasi dan Komunikasi",
            "tanggal_terbit": "2025-03-12",
            "url_tdpse_detail": "https://pse.komdigi.go.id/tdpse-detail/22717",
            "website": "-"
        },
        {
            "id": "9e69464d-c2c8-4d98-b2e9-b88453d7680d",
            "nama_pse": "DICKY CHANDRA GROUP",
            "nama_se": "AWDC",
            "sektor": "Sektor Perdagangan",
            "tanggal_terbit": "2025-03-12",
            "url_tdpse_detail": "https://pse.komdigi.go.id/tdpse-detail/22705",
            "website": "-"
        },
        {
            "id": "9e695c14-a9d8-4240-9ded-4b2efd5746fa",
            "nama_pse": "XERPIHAN KATA DIGITAL",
            "nama_se": "XERPIHAN",
            "sektor": "Sektor Teknologi Informasi dan Komunikasi",
            "tanggal_terbit": "2025-03-12",
            "url_tdpse_detail": "https://pse.komdigi.go.id/tdpse-detail/22707",
            "website": "app.xerpihan.id"
        },
        {
            "id": "9e5f7248-2842-460f-ab7a-dddff98f3431",
            "nama_pse": "AYO BANTU PEDULI INDONESIA",
            "nama_se": "AYOBANTU",
            "sektor": "Sektor Perdagangan, Sektor Teknologi Informasi dan Komunikasi",
            "tanggal_terbit": "2025-03-12",
            "url_tdpse_detail": "https://pse.komdigi.go.id/tdpse-detail/22712",
            "website": "ayobantu.com"
        },
        {
            "id": "9e6983f4-2387-41f3-b03a-97706a3d775e",
            "nama_pse": "MEDIA PERSADA PERKASA",
            "nama_se": "NUSANTARASATU",
            "sektor": "Sektor Teknologi Informasi dan Komunikasi",
            "tanggal_terbit": "2025-03-12",
            "url_tdpse_detail": "https://pse.komdigi.go.id/tdpse-detail/22713",
            "website": "nusantarasatu.co.id"
        },
        {
            "id": "9e69c0a2-e19c-47de-9858-07b450ce2bff",
            "nama_pse": "GERBANG DIGITAL NIAGA",
            "nama_se": "KONEKTA",
            "sektor": "Sektor Teknologi Informasi dan Komunikasi",
            "tanggal_terbit": "2025-03-12",
            "url_tdpse_detail": "https://pse.komdigi.go.id/tdpse-detail/22718",
            "website": "konekta.id"
        },
        {
            "id": "9e694a67-ccfa-4b8b-907b-9762fb3e3502",
            "nama_pse": "MEKARI IDENTITAS DIGITAL",
            "nama_se": "MEKARI SIGN",
            "sektor": "Sektor Teknologi Informasi dan Komunikasi",
            "tanggal_terbit": "2025-03-12",
            "url_tdpse_detail": "https://pse.komdigi.go.id/tdpse-detail/22706",
            "website": "mekarisign.com"
        },
        {
            "id": "9e695cd6-c929-4f83-b85d-5fe95d82358d",
            "nama_pse": "RAJAWALI BIRU INTITEKNOLOGI",
            "nama_se": "RBI",
            "sektor": "Sektor Teknologi Informasi dan Komunikasi",
            "tanggal_terbit": "2025-03-12",
            "url_tdpse_detail": "https://pse.komdigi.go.id/tdpse-detail/22708",
            "website": "rajawalibiru.co.id"
        },
        {
            "id": "9e68a8fe-3bd3-4b29-8220-b3f774c6b8ff",
            "nama_pse": "TRETAN PULSA DIGITAL",
            "nama_se": "TRETAN PULSA",
            "sektor": "Sektor Perdagangan, Sektor Teknologi Informasi dan Komunikasi",
            "tanggal_terbit": "2025-03-12",
            "url_tdpse_detail": "https://pse.komdigi.go.id/tdpse-detail/22703",
            "website": "-"
        },
        {
            "id": "9e691ade-5e70-4455-bf9c-876b4b21d5b2",
            "nama_pse": "INTELEKTUAL PENGUSAHA NUSANTARA",
            "nama_se": "INTELEKTUAL PENGUSAHA IP3N",
            "sektor": "Sektor Teknologi Informasi dan Komunikasi",
            "tanggal_terbit": "2025-03-12",
            "url_tdpse_detail": "https://pse.komdigi.go.id/tdpse-detail/22704",
            "website": "intelektualpengusahaip3n.com"
        },
        {
            "id": "9e695d69-ddbb-4205-aecb-ea29abd5f4a2",
            "nama_pse": "SAHABAT MEDIA SUMSEL",
            "nama_se": "SUMSELNEWS.CO.ID",
            "sektor": "Sektor Teknologi Informasi dan Komunikasi",
            "tanggal_terbit": "2025-03-12",
            "url_tdpse_detail": "https://pse.komdigi.go.id/tdpse-detail/22709",
            "website": "sumselnews.co.id"
        },
        {
            "id": "9e6988c0-3524-4707-972d-4e6a0e2e6e1a",
            "nama_pse": "AMANDA PRAMUDITA",
            "nama_se": "https://hotel.hardrock.com/bali/",
            "sektor": "Sektor Teknologi Informasi dan Komunikasi",
            "tanggal_terbit": "2025-03-12",
            "url_tdpse_detail": "https://pse.komdigi.go.id/tdpse-detail/22714",
            "website": "hardrock.com"
        },
        {
            "id": "9e6988e7-587d-469a-9390-3bb6822b2ade",
            "nama_pse": "MEDIA PUTRI CANDI",
            "nama_se": "LINTASWARANEWS.CO",
            "sektor": "Sektor Teknologi Informasi dan Komunikasi",
            "tanggal_terbit": "2025-03-12",
            "url_tdpse_detail": "https://pse.komdigi.go.id/tdpse-detail/22715",
            "website": "lintaswaranews.co"
        },
        {
            "id": "9e69c44a-6d69-4793-9351-fde5a263563c",
            "nama_pse": "CHIKATAMA FAHREZA MEDIA",
            "nama_se": "postnusantara.net",
            "sektor": "Sektor Teknologi Informasi dan Komunikasi",
            "tanggal_terbit": "2025-03-12",
            "url_tdpse_detail": "https://pse.komdigi.go.id/tdpse-detail/22719",
            "website": "postnusantara.net"
        },
        {
            "id": "9e69d18a-8a5d-4f29-bc77-111ad0a6c61a",
            "nama_pse": "GERBANG DIGITAL NIAGA",
            "nama_se": "SOCX",
            "sektor": "Sektor Teknologi Informasi dan Komunikasi",
            "tanggal_terbit": "2025-03-12",
            "url_tdpse_detail": "https://pse.komdigi.go.id/tdpse-detail/22720",
            "website": "socx.app"
        },
        {
            "id": "9e6a2b8d-d08b-4ddd-b841-1f0229d42058",
            "nama_pse": "ZENDO JAYA GROUP",
            "nama_se": "ZENDO APA AJA DIMANA AJA",
            "sektor": "Sektor Perdagangan, Sektor Transportasi",
            "tanggal_terbit": "2025-03-12",
            "url_tdpse_detail": "https://pse.komdigi.go.id/tdpse-detail/22721",
            "website": "zendo.id"
        },
        {
            "id": "9e672cc4-8192-4012-8344-52eb3caacc7e",
            "nama_pse": "SOLUSI KAMPUS INDONESIA",
            "nama_se": "DIGISCHOOL",
            "sektor": "Sektor Teknologi Informasi dan Komunikasi",
            "tanggal_terbit": "2025-03-11",
            "url_tdpse_detail": "https://pse.komdigi.go.id/tdpse-detail/22682",
            "website": "digischool.id"
        },
        {
            "id": "9e676059-4a3c-4206-aeee-0a064641c053",
            "nama_pse": "BUKIT PERMATA LESTARI",
            "nama_se": "HOTROCKS COFFEE",
            "sektor": "Sektor Perdagangan",
            "tanggal_terbit": "2025-03-11",
            "url_tdpse_detail": "https://pse.komdigi.go.id/tdpse-detail/22686",
            "website": "hotrockscoffee.store"
        },
        {
            "id": "9e67a2d4-10da-4a7d-9efe-a3b3520b3aa4",
            "nama_pse": "GENERASI PEMBAWA SUKSES",
            "nama_se": "PSE FUOMO",
            "sektor": "Sektor Perdagangan",
            "tanggal_terbit": "2025-03-11",
            "url_tdpse_detail": "https://pse.komdigi.go.id/tdpse-detail/22694",
            "website": "fuomo.id"
        },
        {
            "id": "9e671392-9202-4ebd-bc54-3c307c6a9766",
            "nama_pse": "AITRON DIGITAL INOVASI",
            "nama_se": "PRAKTIK DOKTER",
            "sektor": "Sektor Kesehatan, Sektor Teknologi Informasi dan Komunikasi",
            "tanggal_terbit": "2025-03-11",
            "url_tdpse_detail": "https://pse.komdigi.go.id/tdpse-detail/22680",
            "website": "-"
        },
        {
            "id": "9e672426-0a49-48cd-9697-b3eafe85610f",
            "nama_pse": "ADI KURNIAWAN",
            "nama_se": "SISTEM INFORMASI DESA SOKA",
            "sektor": "Sektor Teknologi Informasi dan Komunikasi",
            "tanggal_terbit": "2025-03-11",
            "url_tdpse_detail": "https://pse.komdigi.go.id/tdpse-detail/22681",
            "website": "soka-klaten.desa.id"
        },
        {
            "id": "9e674aa4-af2d-4bea-a767-f4b4659fa9d8",
            "nama_pse": "TUNAS SUKSES MANDIRI",
            "nama_se": "www.nusatrip.com",
            "sektor": "Sektor Perdagangan",
            "tanggal_terbit": "2025-03-11",
            "url_tdpse_detail": "https://pse.komdigi.go.id/tdpse-detail/22683",
            "website": "nusatrip.com"
        },
        {
            "id": "9e6759d6-8496-47af-879a-701c0455a785",
            "nama_pse": "ANUGRAH VISI CEMERLANG",
            "nama_se": "AVC SYSTEM ONLINE",
            "sektor": "Sektor Perdagangan",
            "tanggal_terbit": "2025-03-11",
            "url_tdpse_detail": "https://pse.komdigi.go.id/tdpse-detail/22685",
            "website": "-"
        },
        {
            "id": "9e676157-37fc-4e7b-97b9-cbe94b999ff1",
            "nama_pse": "DIGITAL NETWORK SOLUTION",
            "nama_se": "DIGITAL NETWORK SOLUTION",
            "sektor": "Sektor Teknologi Informasi dan Komunikasi",
            "tanggal_terbit": "2025-03-11",
            "url_tdpse_detail": "https://pse.komdigi.go.id/tdpse-detail/22687",
            "website": "-"
        },
        {
            "id": "9e6771dc-f47a-4b44-a631-409ab898ab8f",
            "nama_pse": "SEGAR JAYA SELALU",
            "nama_se": "PRESIDENTIAL COFFEE",
            "sektor": "Sektor Perdagangan",
            "tanggal_terbit": "2025-03-11",
            "url_tdpse_detail": "https://pse.komdigi.go.id/tdpse-detail/22688",
            "website": "presidential.coffee"
        },
        {
            "id": "9e6773a0-6411-4db6-bfa2-ff9101efa6e2",
            "nama_pse": "MERRY RIANA EDUKASI DELAPAN",
            "nama_se": "MERRY RIANA LEARNING CENTRE",
            "sektor": "Sektor Perdagangan",
            "tanggal_terbit": "2025-03-11",
            "url_tdpse_detail": "https://pse.komdigi.go.id/tdpse-detail/22689",
            "website": "merryrianalearningcentre.com"
        },
        {
            "id": "9e67885a-d978-40d8-8888-cb4998cd0847",
            "nama_pse": "TELMARK INTEGRASI INDONESIA",
            "nama_se": "TEEMO",
            "sektor": "Sektor Teknologi Informasi dan Komunikasi",
            "tanggal_terbit": "2025-03-11",
            "url_tdpse_detail": "https://pse.komdigi.go.id/tdpse-detail/22690",
            "website": "teemo.telmark.co.id"
        },
        {
            "id": "9e6788cf-ea5d-412b-88d9-a268bf384fc5",
            "nama_pse": "MAJU JAYA MANDIRI",
            "nama_se": "MITRAMAPAY",
            "sektor": "Sektor Perdagangan",
            "tanggal_terbit": "2025-03-11",
            "url_tdpse_detail": "https://pse.komdigi.go.id/tdpse-detail/22691",
            "website": "-"
        },
        {
            "id": "9e678ed9-0f04-42ba-addf-1aad11b16dc7",
            "nama_pse": "SUPER PASAR RAKYAT INDONESIA",
            "nama_se": "PARI (PASAR RAKYAT INDONESIA)",
            "sektor": "Sektor Perdagangan, Sektor Teknologi Informasi dan Komunikasi",
            "tanggal_terbit": "2025-03-11",
            "url_tdpse_detail": "https://pse.komdigi.go.id/tdpse-detail/22692",
            "website": "pari.co.id"
        },
        {
            "id": "9e678fdf-087a-4a33-8693-991d3490fa59",
            "nama_pse": "KARYA ANAK SEPATAN",
            "nama_se": "WARUNG KUOTA",
            "sektor": "Sektor Perdagangan",
            "tanggal_terbit": "2025-03-11",
            "url_tdpse_detail": "https://pse.komdigi.go.id/tdpse-detail/22693",
            "website": "-"
        },
        {
            "id": "9e67ea29-15c8-454e-882f-2bbf5387e038",
            "nama_pse": "JOHAN HERMAWAN",
            "nama_se": "AJP ENTERTAINMENT",
            "sektor": "Sektor Perdagangan, Sektor Teknologi Informasi dan Komunikasi",
            "tanggal_terbit": "2025-03-11",
            "url_tdpse_detail": "https://pse.komdigi.go.id/tdpse-detail/22695",
            "website": "-"
        },
        {
            "id": "9e67f510-2064-4f6a-a89d-a0cd100368d0",
            "nama_pse": "GEMA BUDAYA SILA",
            "nama_se": "GEMABULA",
            "sektor": "Sektor Perdagangan",
            "tanggal_terbit": "2025-03-11",
            "url_tdpse_detail": "https://pse.komdigi.go.id/tdpse-detail/22696",
            "website": "gemabula.biz.id"
        },
        {
            "id": "9e67f53f-f2dd-4dda-9073-205f6d373095",
            "nama_pse": "NEXA DIGITAL TEKNOLOGI",
            "nama_se": "nexadigitek",
            "sektor": "Sektor Perdagangan",
            "tanggal_terbit": "2025-03-11",
            "url_tdpse_detail": "https://pse.komdigi.go.id/tdpse-detail/22697",
            "website": "nexadigitek.biz.id"
        },
        {
            "id": "9e67f5d3-6a64-4522-a87e-6757ec6b141a",
            "nama_pse": "SERASI BERSAMA MANDIRI",
            "nama_se": "SERMAND",
            "sektor": "Sektor Perdagangan",
            "tanggal_terbit": "2025-03-11",
            "url_tdpse_detail": "https://pse.komdigi.go.id/tdpse-detail/22698",
            "website": "sermand.biz.id"
        },
        {
            "id": "9e6815a2-f160-4b49-8f2c-29ba2d203aa7",
            "nama_pse": "WAHANA BINTANG MEDIA",
            "nama_se": "KLIKWARTA.COM",
            "sektor": "Sektor Teknologi Informasi dan Komunikasi",
            "tanggal_terbit": "2025-03-11",
            "url_tdpse_detail": "https://pse.komdigi.go.id/tdpse-detail/22699",
            "website": "klikwarta.com"
        },
        {
            "id": "9e682fe1-419b-46af-9a60-f73bfa2fc528",
            "nama_pse": "SIKUMBANG JAYA MANDIRI",
            "nama_se": "saungnews.co",
            "sektor": "Sektor Teknologi Informasi dan Komunikasi",
            "tanggal_terbit": "2025-03-11",
            "url_tdpse_detail": "https://pse.komdigi.go.id/tdpse-detail/22700",
            "website": "saungnews.co"
        },
        {
            "id": "9e68578e-cf87-4483-899c-7c8f6faf32be",
            "nama_pse": "DOLPHIN TEKNOLOGI KESEHATAN",
            "nama_se": "DOLPHINHEALTHTECH",
            "sektor": "Sektor Teknologi Informasi dan Komunikasi",
            "tanggal_terbit": "2025-03-11",
            "url_tdpse_detail": "https://pse.komdigi.go.id/tdpse-detail/22701",
            "website": "dolphinhealthtech.co.id"
        },
        {
            "id": "9e685cae-d874-440f-b739-e3d70084c6b1",
            "nama_pse": "MUHAMMAD SYAFRIL HIDAYAYULLAH",
            "nama_se": "akunmu.id",
            "sektor": "Sektor Perdagangan, Sektor Teknologi Informasi dan Komunikasi",
            "tanggal_terbit": "2025-03-11",
            "url_tdpse_detail": "https://pse.komdigi.go.id/tdpse-detail/22702",
            "website": "akunmu.id"
        },
        {
            "id": "9e69678c-cf46-4c7d-b734-b2aa67787215",
            "nama_pse": "TEKNOLOGI AWAN SEJAHTERA",
            "nama_se": "AWATECH",
            "sektor": "Sektor Perdagangan",
            "tanggal_terbit": "2025-03-11",
            "url_tdpse_detail": "https://pse.komdigi.go.id/tdpse-detail/22711",
            "website": "awatech.biz.id"
        },
        {
            "id": "9e6555ab-d02f-4e81-850d-1525d4f89a9d",
            "nama_pse": "HYPER CLOUD HOST",
            "nama_se": "HYPERCLOUDHOST",
            "sektor": "Sektor Teknologi Informasi dan Komunikasi",
            "tanggal_terbit": "2025-03-10",
            "url_tdpse_detail": "https://pse.komdigi.go.id/tdpse-detail/22674",
            "website": "hypercloudhost.com"
        }
    ],
    "processingTimeMs": 26,
    "query": "",
    "totalHits": 19121,
    "hitsPerPage": 50,
    "page": 1,
    "totalPages": 383
}