{
    "hits": [
        {
            "id": "9e40dfb3-cf6d-447f-b9e3-627637469eda",
            "nama_pse": "HOBIMU JADI CUAN",
            "nama_se": "TAKO.ID",
            "sektor": "Sektor Perdagangan, Sektor Teknologi Informasi dan Komunikasi",
            "tanggal_terbit": "2025-02-20",
            "url_tdpse_detail": "https://pse.komdigi.go.id/tdpse-detail/22448",
            "website": "-"
        },
        {
            "id": "9e4106f4-4203-4650-b8ca-9006d9338774",
            "nama_pse": "BANK PEREKONOMIAN RAKYAT TISH",
            "nama_se": "WEBSITE BPR TISH",
            "sektor": "Sektor Teknologi Informasi dan Komunikasi",
            "tanggal_terbit": "2025-02-20",
            "url_tdpse_detail": "https://pse.komdigi.go.id/tdpse-detail/22450",
            "website": "bprtish.com"
        },
        {
            "id": "9e4147f8-2973-4cb6-93e2-131dca21fda5",
            "nama_pse": "MANDIRI NUSANTARA TOPUP AND PAYMENT SOLUTIONS",
            "nama_se": "INDOPAY",
            "sektor": "Sektor Teknologi Informasi dan Komunikasi",
            "tanggal_terbit": "2025-02-20",
            "url_tdpse_detail": "https://pse.komdigi.go.id/tdpse-detail/22451",
            "website": "indopay.id"
        },
        {
            "id": "9e41a59e-4c54-409b-a071-3956bb7f843a",
            "nama_pse": "ADHIKARYA CIPTA PERSADA",
            "nama_se": "METATRADER 4",
            "sektor": "Sektor Perdagangan",
            "tanggal_terbit": "2025-02-20",
            "url_tdpse_detail": "https://pse.komdigi.go.id/tdpse-detail/22456",
            "website": "adhikaryaciptapersada.co.id"
        },
        {
            "id": "9e416ca4-30c9-4f72-b49d-52657c1eb1b6",
            "nama_pse": "BRICK TEKNOLOGI INDONESIA",
            "nama_se": "www.onebrick.io",
            "sektor": "Sektor Teknologi Informasi dan Komunikasi",
            "tanggal_terbit": "2025-02-20",
            "url_tdpse_detail": "https://pse.komdigi.go.id/tdpse-detail/22452",
            "website": "onebrick.io"
        },
        {
            "id": "9e417013-a175-4b22-991a-a96233385203",
            "nama_pse": "INDONESIA NANHUA INTERNASIONAL",
            "nama_se": "INIYAPAY",
            "sektor": "Sektor Perdagangan, Sektor Teknologi Informasi dan Komunikasi",
            "tanggal_terbit": "2025-02-20",
            "url_tdpse_detail": "https://pse.komdigi.go.id/tdpse-detail/22453",
            "website": "iniyapay.com"
        },
        {
            "id": "9e417b8b-7ae8-4d42-98b6-ca2778655a0a",
            "nama_pse": "ASTRA HONDA MOTOR",
            "nama_se": "ASTRA HONDA E:SWAP",
            "sektor": "Sektor Transportasi",
            "tanggal_terbit": "2025-02-20",
            "url_tdpse_detail": "https://pse.komdigi.go.id/tdpse-detail/22454",
            "website": "-"
        },
        {
            "id": "9e4198e4-583d-4275-b42c-c57479cfe6d7",
            "nama_pse": "ROYAL ASSETINDO",
            "nama_se": "PRO TRADER",
            "sektor": "Sektor Perdagangan",
            "tanggal_terbit": "2025-02-20",
            "url_tdpse_detail": "https://pse.komdigi.go.id/tdpse-detail/22455",
            "website": "-"
        },
        {
            "id": "9e41eb19-cd03-428d-bc8b-9503645fb7c0",
            "nama_pse": "HOBIMU JADI CUAN",
            "nama_se": "TAKO",
            "sektor": "Sektor Perdagangan, Sektor Teknologi Informasi dan Komunikasi",
            "tanggal_terbit": "2025-02-20",
            "url_tdpse_detail": "https://pse.komdigi.go.id/tdpse-detail/22457",
            "website": "tako.id"
        },
        {
            "id": "9e41eb5f-219a-422e-96c7-33ae8c9329b1",
            "nama_pse": "TRIMITRA SINERGI BERSAMA",
            "nama_se": "TRIMITRA SINERGI BERSAMA",
            "sektor": "Sektor Perdagangan, Sektor Teknologi Informasi dan Komunikasi",
            "tanggal_terbit": "2025-02-20",
            "url_tdpse_detail": "https://pse.komdigi.go.id/tdpse-detail/22458",
            "website": "trimitrasinergibersama.com"
        },
        {
            "id": "9e3e2a17-18e1-4bd8-ae6b-0c2be543b540",
            "nama_pse": "DEVOLSKU TEKNOLOGI DIGITAL",
            "nama_se": "DEVOLSKU",
            "sektor": "Sektor Teknologi Informasi dan Komunikasi",
            "tanggal_terbit": "2025-02-19",
            "url_tdpse_detail": "https://pse.komdigi.go.id/tdpse-detail/22434",
            "website": "devolsku.com"
        },
        {
            "id": "9e3f1f08-240a-47f1-b118-d596794ec978",
            "nama_pse": "TELKOMSEL EKOSISTEM DIGITAL",
            "nama_se": "INDICO TERUS LARIS",
            "sektor": "Sektor Teknologi Informasi dan Komunikasi",
            "tanggal_terbit": "2025-02-19",
            "url_tdpse_detail": "https://pse.komdigi.go.id/tdpse-detail/22435",
            "website": "teruslaris.com"
        },
        {
            "id": "9e3f2502-777a-4229-a361-96242716359c",
            "nama_pse": "RAHMAN HIDAYAT",
            "nama_se": "WEBINVITE",
            "sektor": "Sektor Teknologi Informasi dan Komunikasi",
            "tanggal_terbit": "2025-02-19",
            "url_tdpse_detail": "https://pse.komdigi.go.id/tdpse-detail/22436",
            "website": "webinvite.co"
        },
        {
            "id": "9e3f2536-0a10-43c1-ad46-f2400ee1cf83",
            "nama_pse": "TELKOMSEL EKOSISTEM DIGITAL",
            "nama_se": "INDICO BAYAR SEKALIGUS",
            "sektor": "Sektor Teknologi Informasi dan Komunikasi",
            "tanggal_terbit": "2025-02-19",
            "url_tdpse_detail": "https://pse.komdigi.go.id/tdpse-detail/22437",
            "website": "bayarsekaligus.teruslaris.com"
        },
        {
            "id": "9e3f30ea-b9f2-41a0-8083-c89807e73430",
            "nama_pse": "GREEN GOLD INDONESIA",
            "nama_se": "GREEN GOLD INDONESIA",
            "sektor": "Sektor Perdagangan, Sektor Transportasi, Sektor Teknologi Informasi dan Komunikasi",
            "tanggal_terbit": "2025-02-19",
            "url_tdpse_detail": "https://pse.komdigi.go.id/tdpse-detail/22438",
            "website": "ggid.footprintglobal.sg"
        },
        {
            "id": "9e3f636a-8fa7-4b63-b630-cfd41072433b",
            "nama_pse": "DIGITAL LINTAS DUNIA",
            "nama_se": "DLD POS",
            "sektor": "Sektor Teknologi Informasi dan Komunikasi",
            "tanggal_terbit": "2025-02-19",
            "url_tdpse_detail": "https://pse.komdigi.go.id/tdpse-detail/22439",
            "website": "-"
        },
        {
            "id": "9e3f756b-be87-4c29-adee-c898f4bfba5f",
            "nama_pse": "ESANDAR ARTHAMAS BERJANGKA",
            "nama_se": "ESAFX",
            "sektor": "Sektor Perdagangan, Sektor Keuangan",
            "tanggal_terbit": "2025-02-19",
            "url_tdpse_detail": "https://pse.komdigi.go.id/tdpse-detail/22440",
            "website": "-"
        },
        {
            "id": "9e3f7bdf-d057-4076-bcb5-ef2e98fbfa13",
            "nama_pse": "ALFA SEPAKAT GROUP",
            "nama_se": "GAMPONG",
            "sektor": "Sektor Teknologi Informasi dan Komunikasi",
            "tanggal_terbit": "2025-02-19",
            "url_tdpse_detail": "https://pse.komdigi.go.id/tdpse-detail/22441",
            "website": "gampong.web.id"
        },
        {
            "id": "9e3fa1ba-941d-42e4-8e2b-270beb847ba6",
            "nama_pse": "SATU KOSONG TUJUH",
            "nama_se": "SATU KOSONG TUJUH",
            "sektor": "Sektor Transportasi, Sektor Teknologi Informasi dan Komunikasi",
            "tanggal_terbit": "2025-02-19",
            "url_tdpse_detail": "https://pse.komdigi.go.id/tdpse-detail/22442",
            "website": "-"
        },
        {
            "id": "9e3fa60b-daf9-4388-9bf6-8b3faf964467",
            "nama_pse": "INTERAKTIF INTERNASIONAL",
            "nama_se": "INTERACTIVE MYOMNI",
            "sektor": "Sektor Teknologi Informasi dan Komunikasi",
            "tanggal_terbit": "2025-02-19",
            "url_tdpse_detail": "https://pse.komdigi.go.id/tdpse-detail/22443",
            "website": "myomni.id"
        },
        {
            "id": "9e3fab93-9824-431b-9472-789e7161aef0",
            "nama_pse": "JALIN GEMILANG SUKSES",
            "nama_se": "GLORY",
            "sektor": "Sektor Perdagangan",
            "tanggal_terbit": "2025-02-19",
            "url_tdpse_detail": "https://pse.komdigi.go.id/tdpse-detail/22444",
            "website": "theglorygames.com"
        },
        {
            "id": "9e3fb0f1-95bd-4615-8714-f3b367a3c243",
            "nama_pse": "KASMA IRIYADI",
            "nama_se": "LAYANAN INTERNET LOKAL ( RT RW NET )",
            "sektor": "Sektor Teknologi Informasi dan Komunikasi",
            "tanggal_terbit": "2025-02-19",
            "url_tdpse_detail": "https://pse.komdigi.go.id/tdpse-detail/22445",
            "website": "-"
        },
        {
            "id": "9e3fee46-c17a-49e8-9e72-97ad0961c745",
            "nama_pse": "BAHANA RINTISAN TEKNOLOGI",
            "nama_se": "PAPIPOS",
            "sektor": "Sektor Perdagangan, Sektor Teknologi Informasi dan Komunikasi",
            "tanggal_terbit": "2025-02-19",
            "url_tdpse_detail": "https://pse.komdigi.go.id/tdpse-detail/22446",
            "website": "papipos.id"
        },
        {
            "id": "9e3ff2e0-f824-43e4-a778-372da7ad378e",
            "nama_pse": "GRAND ROYAL STAY",
            "nama_se": "GRAND ROYAL STAY",
            "sektor": "Sektor Teknologi Informasi dan Komunikasi",
            "tanggal_terbit": "2025-02-19",
            "url_tdpse_detail": "https://pse.komdigi.go.id/tdpse-detail/22447",
            "website": "grandroyalstayy.com"
        },
        {
            "id": "9e3d107e-6157-4a80-98d9-4cc4737c95d5",
            "nama_pse": "TIRTA LESTARI NUSANTARA",
            "nama_se": "TIRLEST",
            "sektor": "Sektor Perdagangan",
            "tanggal_terbit": "2025-02-18",
            "url_tdpse_detail": "https://pse.komdigi.go.id/tdpse-detail/22417",
            "website": "tirlest.biz.id"
        },
        {
            "id": "9e3cfad9-ad76-43c9-a8a1-9c3258097314",
            "nama_pse": "BERKAH IMPIAN GEMILANG",
            "nama_se": "BIG",
            "sektor": "Sektor Perdagangan",
            "tanggal_terbit": "2025-02-18",
            "url_tdpse_detail": "https://pse.komdigi.go.id/tdpse-detail/22412",
            "website": "buat.app"
        },
        {
            "id": "9e3cfb2e-2347-439f-ac9d-9276075d3cf3",
            "nama_pse": "REGIO NETWORK INDONESIA",
            "nama_se": "REGIO LEARNING MANAGEMENT SYSTEM",
            "sektor": "Sektor Teknologi Informasi dan Komunikasi",
            "tanggal_terbit": "2025-02-18",
            "url_tdpse_detail": "https://pse.komdigi.go.id/tdpse-detail/22413",
            "website": "lms.regio.id"
        },
        {
            "id": "9e3d39fe-0e74-423a-bda8-172098d344f1",
            "nama_pse": "KREASI DIATAS AWAN",
            "nama_se": "TOPUPSAHABATPAY",
            "sektor": "Sektor Teknologi Informasi dan Komunikasi",
            "tanggal_terbit": "2025-02-18",
            "url_tdpse_detail": "https://pse.komdigi.go.id/tdpse-detail/22418",
            "website": "topupsahabat.shop"
        },
        {
            "id": "9e3cfba9-1aab-4f52-a000-3303158e2ab1",
            "nama_pse": "KOPERASI KONSUMEN KARYAWAN PT ANGKASA PURA INDONESIA SATYA ARDHIA",
            "nama_se": "GOJEK",
            "sektor": "Sektor Transportasi",
            "tanggal_terbit": "2025-02-18",
            "url_tdpse_detail": "https://pse.komdigi.go.id/tdpse-detail/22414",
            "website": "-"
        },
        {
            "id": "9e3cfe5b-4593-4585-8213-17dacf681f1c",
            "nama_pse": "NIRMALA SATYA DEVELOPMENT",
            "nama_se": "PLATFORM PSIKOTES ONLINE",
            "sektor": "Sektor Teknologi Informasi dan Komunikasi",
            "tanggal_terbit": "2025-02-18",
            "url_tdpse_detail": "https://pse.komdigi.go.id/tdpse-detail/22415",
            "website": "nsd.id"
        },
        {
            "id": "9e3d3b45-9822-4e0b-b562-dc68599e770c",
            "nama_pse": "INTEGRASI SATU INDONESIA",
            "nama_se": "VOUCHERWAVEPAY",
            "sektor": "Sektor Teknologi Informasi dan Komunikasi",
            "tanggal_terbit": "2025-02-18",
            "url_tdpse_detail": "https://pse.komdigi.go.id/tdpse-detail/22419",
            "website": "voucherwave.shop"
        },
        {
            "id": "9e3d8864-127a-4529-b7bd-15616b89a8bb",
            "nama_pse": "STYLEDOUBLER SOLUSI INDONESIA",
            "nama_se": "STYLEDOUBLER FOR CREATORS",
            "sektor": "Sektor Perdagangan",
            "tanggal_terbit": "2025-02-18",
            "url_tdpse_detail": "https://pse.komdigi.go.id/tdpse-detail/22427",
            "website": "-"
        },
        {
            "id": "9e3dfa5e-2c66-48e4-a2aa-b59299e16da4",
            "nama_pse": "STAR KARYA BERSAMA",
            "nama_se": "PT.  STAR KARYA BERSAMA",
            "sektor": "Sektor Perdagangan",
            "tanggal_terbit": "2025-02-18",
            "url_tdpse_detail": "https://pse.komdigi.go.id/tdpse-detail/22428",
            "website": "-"
        },
        {
            "id": "9e3e0947-2ad7-495e-bb38-22d5b5a58257",
            "nama_pse": "MEDIA PATROLI SUKABUMI",
            "nama_se": "PATROLI SUKABUMI",
            "sektor": "Sektor Teknologi Informasi dan Komunikasi",
            "tanggal_terbit": "2025-02-18",
            "url_tdpse_detail": "https://pse.komdigi.go.id/tdpse-detail/22429",
            "website": "patrolisukabumi.co.id"
        },
        {
            "id": "9e3d6bb8-34db-49ba-a215-1286b8d3b97d",
            "nama_pse": "BIKE BYKE INDONESIA",
            "nama_se": "BIKEBIKE",
            "sektor": "Sektor Perdagangan",
            "tanggal_terbit": "2025-02-18",
            "url_tdpse_detail": "https://pse.komdigi.go.id/tdpse-detail/22424",
            "website": "bikebike.id"
        },
        {
            "id": "9e3d6be0-afaf-4826-8c58-7621a649c6c9",
            "nama_pse": "PUTRA DARUSSALAM BLOKAGUNG",
            "nama_se": "SISTEM INFORMASI MANAJEMEN KLINIK ASSYIFA DARUSSALAM",
            "sektor": "Sektor Kesehatan",
            "tanggal_terbit": "2025-02-18",
            "url_tdpse_detail": "https://pse.komdigi.go.id/tdpse-detail/22425",
            "website": "-"
        },
        {
            "id": "9e3d6c5d-403d-4875-85c5-0da2c416bcf1",
            "nama_pse": "VELODIVA MUSIC TECHNOLOGIES",
            "nama_se": "QR MUSIK",
            "sektor": "Sektor Teknologi Informasi dan Komunikasi",
            "tanggal_terbit": "2025-02-18",
            "url_tdpse_detail": "https://pse.komdigi.go.id/tdpse-detail/22426",
            "website": "-"
        },
        {
            "id": "9e3e0a14-2c27-433f-ae1b-1fc72f1ba6d7",
            "nama_pse": "NFI KREATIF GROUP",
            "nama_se": "NFI KLINIK",
            "sektor": "Sektor Kesehatan, Sektor Teknologi Informasi dan Komunikasi",
            "tanggal_terbit": "2025-02-18",
            "url_tdpse_detail": "https://pse.komdigi.go.id/tdpse-detail/22430",
            "website": "nfikreatif.com"
        },
        {
            "id": "9e3e0b39-0e77-4e8a-b9a3-94d219e42a03",
            "nama_pse": "NUSANTARA DIGITAL PAYMENT",
            "nama_se": "FLASH XTRA",
            "sektor": "Sektor Perdagangan",
            "tanggal_terbit": "2025-02-18",
            "url_tdpse_detail": "https://pse.komdigi.go.id/tdpse-detail/22431",
            "website": "flash-xtra.com"
        },
        {
            "id": "9e3e1a7b-f01a-40bc-8bfe-90be937999b3",
            "nama_pse": "MEDIA SUKABUMI MANDIRI",
            "nama_se": "SUKABUMI VIRAL",
            "sektor": "Sektor Teknologi Informasi dan Komunikasi",
            "tanggal_terbit": "2025-02-18",
            "url_tdpse_detail": "https://pse.komdigi.go.id/tdpse-detail/22432",
            "website": "sukabumiviral.com"
        },
        {
            "id": "9e3e1f1d-674a-407b-aada-25a92cd257e5",
            "nama_pse": "PEDULY GOTONG ROYONG",
            "nama_se": "peduly",
            "sektor": "Sektor Teknologi Informasi dan Komunikasi",
            "tanggal_terbit": "2025-02-18",
            "url_tdpse_detail": "https://pse.komdigi.go.id/tdpse-detail/22433",
            "website": "peduly.com"
        },
        {
            "id": "9e3d3f23-62d2-4df2-ae84-7f6624ed7c7f",
            "nama_pse": "REGIO NETWORK INDONESIA",
            "nama_se": "REGIO TRACKING \u0026 MONITORING SYSTEM",
            "sektor": "Sektor Teknologi Informasi dan Komunikasi",
            "tanggal_terbit": "2025-02-18",
            "url_tdpse_detail": "https://pse.komdigi.go.id/tdpse-detail/22420",
            "website": "tracking.regio.id"
        },
        {
            "id": "9e3d4050-9b5c-413b-a0b3-9a291eefdb9a",
            "nama_pse": "PAKUAN ALAM KARYA DIGITAL",
            "nama_se": "SATURNNET",
            "sektor": "Sektor Teknologi Informasi dan Komunikasi",
            "tanggal_terbit": "2025-02-18",
            "url_tdpse_detail": "https://pse.komdigi.go.id/tdpse-detail/22421",
            "website": "saturnnet.my.id"
        },
        {
            "id": "9cb1ac58-d1d1-466c-a315-9d512c918ac3",
            "nama_pse": "SURYA JAGAT MANDIRI",
            "nama_se": "BOOKANDLINK",
            "sektor": "Sektor Teknologi Informasi dan Komunikasi",
            "tanggal_terbit": "2025-02-18",
            "url_tdpse_detail": "https://pse.komdigi.go.id/tdpse-detail/22422",
            "website": "bookandlink.com"
        },
        {
            "id": "9e3d06f4-4220-47ed-8659-ee929de8a36b",
            "nama_pse": "REGIO NETWORK INDONESIA",
            "nama_se": "TERKONEKSI.NET - DESA",
            "sektor": "Sektor Teknologi Informasi dan Komunikasi",
            "tanggal_terbit": "2025-02-18",
            "url_tdpse_detail": "https://pse.komdigi.go.id/tdpse-detail/22416",
            "website": "desa.terkoneksi.net"
        },
        {
            "id": "9e3b1e1f-b8f1-47a9-beb1-06401434d2f9",
            "nama_pse": "REGIO NETWORK INDONESIA",
            "nama_se": "REGIO PREDICTIVE AND ANALYTICAL DASHBOARD",
            "sektor": "Sektor Teknologi Informasi dan Komunikasi",
            "tanggal_terbit": "2025-02-17",
            "url_tdpse_detail": "https://pse.komdigi.go.id/tdpse-detail/22407",
            "website": "dashboard.regio.id"
        },
        {
            "id": "9e3c0756-45dc-4fb9-9628-c727e64555e9",
            "nama_pse": "MUH AQILA NAUFAL HAKIM",
            "nama_se": "SENUSA APP",
            "sektor": "Sektor Teknologi Informasi dan Komunikasi",
            "tanggal_terbit": "2025-02-17",
            "url_tdpse_detail": "https://pse.komdigi.go.id/tdpse-detail/22411",
            "website": "senusa.app"
        },
        {
            "id": "9e3ad9aa-b959-484a-8b57-8fb35df22096",
            "nama_pse": "CARI PENGACARA INDONESIA",
            "nama_se": "CARILAWYER",
            "sektor": "Sektor Teknologi Informasi dan Komunikasi",
            "tanggal_terbit": "2025-02-17",
            "url_tdpse_detail": "https://pse.komdigi.go.id/tdpse-detail/22405",
            "website": "carilawyer.id"
        },
        {
            "id": "9e350cfd-15cc-4c61-a486-2053666695b1",
            "nama_pse": "ZONA MEDIA INDONESIA",
            "nama_se": "ZONA MAHASISWA: TEMUKAN FORHAT",
            "sektor": "Sektor Teknologi Informasi dan Komunikasi",
            "tanggal_terbit": "2025-02-14",
            "url_tdpse_detail": "https://pse.komdigi.go.id/tdpse-detail/22395",
            "website": "zonamahasiswa.id"
        },
        {
            "id": "9e3567ba-4775-4432-a94d-63f0c7e07eb9",
            "nama_pse": "KODE DARI HATI",
            "nama_se": "PENGEMBANGAN WEBSITE DAN APLIKASI BERBASIS WEB",
            "sektor": "Sektor Teknologi Informasi dan Komunikasi",
            "tanggal_terbit": "2025-02-14",
            "url_tdpse_detail": "https://pse.komdigi.go.id/tdpse-detail/22403",
            "website": "hypercodesolutions.com"
        }
    ],
    "processingTimeMs": 0,
    "query": "",
    "totalHits": 19121,
    "hitsPerPage": 50,
    "page": 6,
    "totalPages": 383
}