{
    "hits": [
        {
            "id": "9cb1aba7-5358-43d1-b343-707ba47f3323",
            "nama_pse": "BANK PERKREDITAN RAKYAT LUMBUNG PITIH NAGARI PADANG MAGEK",
            "nama_se": "PT BANK PERKREDITAN RAKYAT LUMBUNG PITIH NAGARI PADANG MAGEK",
            "sektor": "Sektor Keuangan",
            "tanggal_terbit": "2022-07-15",
            "url_tdpse_detail": "https://pse.komdigi.go.id/tdpse-detail/5809",
            "website": "-"
        },
        {
            "id": "9cb1ab9c-9ae1-4cdb-a19d-369ab97469fd",
            "nama_pse": "BANK NATIONALNOBU",
            "nama_se": "NOBU NEO",
            "sektor": "Sektor Keuangan",
            "tanggal_terbit": "2022-07-15",
            "url_tdpse_detail": "https://pse.komdigi.go.id/tdpse-detail/5811",
            "website": "ib.nobubank.com"
        },
        {
            "id": "9cb1aba7-56e5-4861-ba66-c6256fb72e9d",
            "nama_pse": "VIVA MEDIKA",
            "nama_se": "ISOMEDIK",
            "sektor": "Sektor Kesehatan",
            "tanggal_terbit": "2022-07-15",
            "url_tdpse_detail": "https://pse.komdigi.go.id/tdpse-detail/5808",
            "website": "isomedik.com"
        },
        {
            "id": "9cb1abb1-2d14-4c25-a22a-63f9b20ce919",
            "nama_pse": "JATELINDO PERKASA ABADI",
            "nama_se": "NAROBIL",
            "sektor": "Sektor Teknologi Informasi dan Komunikasi",
            "tanggal_terbit": "2022-07-15",
            "url_tdpse_detail": "https://pse.komdigi.go.id/tdpse-detail/5824",
            "website": "ns1.optima-s.co.id"
        },
        {
            "id": "9cb1abb1-312f-4034-aefe-c96b79b6c3f7",
            "nama_pse": "BANK PERKREDITAN RAKYAT SWADAYA ANAK NAGARI",
            "nama_se": "AKTIVITAS KEUANGAN",
            "sektor": "Sektor Keuangan",
            "tanggal_terbit": "2022-07-15",
            "url_tdpse_detail": "https://pse.komdigi.go.id/tdpse-detail/5813",
            "website": "-"
        },
        {
            "id": "9cb1aba7-59c6-4def-aedb-b5522f23b30a",
            "nama_pse": "BANK PERKREDITAN RAKYAT DIAN BINARTA",
            "nama_se": "DIAN BINARTA",
            "sektor": "Sektor Keuangan",
            "tanggal_terbit": "2022-07-15",
            "url_tdpse_detail": "https://pse.komdigi.go.id/tdpse-detail/5817",
            "website": "bprdb.co.id"
        },
        {
            "id": "9cb1abb1-33f9-4535-a570-6571961ce636",
            "nama_pse": "GRHA DANA BERSAMA",
            "nama_se": "AVANTEE",
            "sektor": "Sektor Keuangan",
            "tanggal_terbit": "2022-07-15",
            "url_tdpse_detail": "https://pse.komdigi.go.id/tdpse-detail/5818",
            "website": "avantee.co.id"
        },
        {
            "id": "9cb1aba7-5e76-4249-be55-c60aa90a0e84",
            "nama_pse": "BANK PERKREDITAN RAKYAT PALU LOKADANA UTAMA",
            "nama_se": "DIGITAL MODERN (DIGIMOD) E-LOAN CUSTOMER-BPR PALU LOKADANA UTAMA",
            "sektor": "Sektor Keuangan",
            "tanggal_terbit": "2022-07-15",
            "url_tdpse_detail": "https://pse.komdigi.go.id/tdpse-detail/5816",
            "website": "kredit.bprpalu.com"
        },
        {
            "id": "9cb1ab9c-9e92-4865-b2a3-ffa6459337f2",
            "nama_pse": "ASURANSI JIWA SEQUIS LIFE",
            "nama_se": "EPOLICY SEQUIS",
            "sektor": "Sektor Keuangan",
            "tanggal_terbit": "2022-07-15",
            "url_tdpse_detail": "https://pse.komdigi.go.id/tdpse-detail/5820",
            "website": "epolicy.sequis.co.id"
        },
        {
            "id": "9cb1abb1-3667-4bfd-a22f-e2129e7cd490",
            "nama_pse": "BANK PERKREDITAN RAKYAT SUPRA ARTAPERSADA",
            "nama_se": "WEBSITE BPR SUPRA",
            "sektor": "Sektor Keuangan",
            "tanggal_terbit": "2022-07-15",
            "url_tdpse_detail": "https://pse.komdigi.go.id/tdpse-detail/5821",
            "website": "bprsupra.co.id"
        },
        {
            "id": "9cb1abb1-3886-4600-a320-ed3f2932a688",
            "nama_pse": "BANK PERKREDITAN RAKYAT PALU LOKADANA UTAMA",
            "nama_se": "DIGITAL MODERN (DIGIMOD) E-COLLECTION-BPR PALU LOKADANA UTAMA",
            "sektor": "Sektor Keuangan",
            "tanggal_terbit": "2022-07-15",
            "url_tdpse_detail": "https://pse.komdigi.go.id/tdpse-detail/5822",
            "website": "-"
        },
        {
            "id": "9cb1abb1-3aa6-48a8-b15a-ba4b9a1e0f18",
            "nama_pse": "CIPTADANA ASSET MANAGEMENT",
            "nama_se": "CAM ONLINE REGISTRATION \u0026 TRANSACTION",
            "sektor": "Sektor Keuangan",
            "tanggal_terbit": "2022-07-15",
            "url_tdpse_detail": "https://pse.komdigi.go.id/tdpse-detail/5823",
            "website": "ciptadana-am.com"
        },
        {
            "id": "9cb1abb1-3cb2-4302-84ef-b3debcacdab4",
            "nama_pse": "BANK PERKREDITAN RAKYAT NUSANTARA BONA PASOGIT 17",
            "nama_se": "BPR NBP 17",
            "sektor": "Sektor Keuangan",
            "tanggal_terbit": "2022-07-15",
            "url_tdpse_detail": "https://pse.komdigi.go.id/tdpse-detail/5826",
            "website": "bprnbp17.com"
        },
        {
            "id": "9cb1abb1-3eae-4c92-8b81-87662628a08f",
            "nama_pse": "BANK PEREKONOMIAN RAKYAT KAWAN",
            "nama_se": "PORTAL WEBSITE",
            "sektor": "Sektor Keuangan",
            "tanggal_terbit": "2022-07-15",
            "url_tdpse_detail": "https://pse.komdigi.go.id/tdpse-detail/5828",
            "website": "bprkawan.co.id"
        },
        {
            "id": "9cb1abb1-40c2-42e1-8ef2-c267860b0ed8",
            "nama_pse": "KB FINANSIA MULTI FINANCE",
            "nama_se": "EFORM KMB",
            "sektor": "Sektor Keuangan, Sektor Teknologi Informasi dan Komunikasi",
            "tanggal_terbit": "2022-07-15",
            "url_tdpse_detail": "https://pse.komdigi.go.id/tdpse-detail/5829",
            "website": "eformcms.kreditplus.id"
        },
        {
            "id": "9cb1aba7-63bd-4b3e-9310-79ddca195082",
            "nama_pse": "BANK PEREKONOMIAN RAKYAT KARYA PARHUTA",
            "nama_se": "PT. BPR KARYA PARHUTA",
            "sektor": "Sektor Keuangan",
            "tanggal_terbit": "2022-07-15",
            "url_tdpse_detail": "https://pse.komdigi.go.id/tdpse-detail/5830",
            "website": "bprkaryaparhuta.co.id"
        },
        {
            "id": "9cb1ab9c-a224-4480-99ef-e205b7e7a500",
            "nama_pse": "BANK PERKREDITAN RAKYAT PALU LOKADANA UTAMA",
            "nama_se": "SMS MACROKIOSK - BPR PALU LOKADANA UTAMA",
            "sektor": "Sektor Keuangan",
            "tanggal_terbit": "2022-07-15",
            "url_tdpse_detail": "https://pse.komdigi.go.id/tdpse-detail/5831",
            "website": "boldpass.com"
        },
        {
            "id": "9cb1abb1-428c-4d81-b5a9-d3c8a8943c92",
            "nama_pse": "JAYA DINAMIKA DIGITAL",
            "nama_se": "MASTERING SKILL",
            "sektor": "Sektor Teknologi Informasi dan Komunikasi",
            "tanggal_terbit": "2022-07-15",
            "url_tdpse_detail": "https://pse.komdigi.go.id/tdpse-detail/5832",
            "website": "masteringskill.com"
        },
        {
            "id": "9cb1ab9c-a422-47b1-a058-8b2d2c436579",
            "nama_pse": "PERGADAIAN MITRA BERSAMA",
            "nama_se": "MITRA GADAI",
            "sektor": "Sektor Keuangan",
            "tanggal_terbit": "2022-07-15",
            "url_tdpse_detail": "https://pse.komdigi.go.id/tdpse-detail/5833",
            "website": "mitragadai.com"
        },
        {
            "id": "9cb1aba7-6629-4748-bcab-22478a210332",
            "nama_pse": "VOUCHER IMPERIAL PERSADA",
            "nama_se": "VIP VOUCHER",
            "sektor": "Sektor Perdagangan, Sektor Teknologi Informasi dan Komunikasi",
            "tanggal_terbit": "2022-07-15",
            "url_tdpse_detail": "https://pse.komdigi.go.id/tdpse-detail/5834",
            "website": "vipvoucher.id"
        },
        {
            "id": "9cb1ab9c-a5fc-4e2d-a853-ddb1fec8310f",
            "nama_pse": "BPR MODERN EXPRESS SULUT",
            "nama_se": "DIGITAL MODERN (DIGIMOD) E-LOAN - BPR MODEX SULUT",
            "sektor": "Sektor Keuangan",
            "tanggal_terbit": "2022-07-15",
            "url_tdpse_detail": "https://pse.komdigi.go.id/tdpse-detail/5835",
            "website": "digimod.bprmodex-sulut.com"
        },
        {
            "id": "9cb1aba7-6857-476c-8877-090c044d62e4",
            "nama_pse": "AVIN KAYA INTERNASIONAL",
            "nama_se": "MYAVIN (APLIKASI MOBILE VIA ANDROID DAN IOS)",
            "sektor": "Sektor Transportasi",
            "tanggal_terbit": "2022-07-15",
            "url_tdpse_detail": "https://pse.komdigi.go.id/tdpse-detail/5836",
            "website": "myavin.com"
        },
        {
            "id": "9cb1ab9c-a7bf-49ac-a3b7-ff2576944536",
            "nama_pse": "TRANS BERITA BISNIS",
            "nama_se": "CNBCINDONESIA.COM",
            "sektor": "Sektor Perdagangan, Sektor Teknologi Informasi dan Komunikasi",
            "tanggal_terbit": "2022-07-15",
            "url_tdpse_detail": "https://pse.komdigi.go.id/tdpse-detail/5856",
            "website": "cnbcindonesia.com"
        },
        {
            "id": "9cb1ab9c-a98e-4347-84f3-dd0070f9474a",
            "nama_pse": "VERENA MULTI FINANCE",
            "nama_se": "MICROSITE",
            "sektor": "Sektor Keuangan",
            "tanggal_terbit": "2022-07-15",
            "url_tdpse_detail": "https://pse.komdigi.go.id/tdpse-detail/5837",
            "website": "pinjamaja.co.id"
        },
        {
            "id": "9cb1abb1-44af-4f39-9eec-30601ac3c2e0",
            "nama_pse": "ASURANSI BHAKTI BHAYANGKARA",
            "nama_se": "WEBSITE ABB",
            "sektor": "Sektor Keuangan",
            "tanggal_terbit": "2022-07-15",
            "url_tdpse_detail": "https://pse.komdigi.go.id/tdpse-detail/5840",
            "website": "abb.co.id"
        },
        {
            "id": "9cb1abb1-4736-40b1-be02-d05abbaa8067",
            "nama_pse": "BPR MODERN EXPRESS SULUT",
            "nama_se": "DIGITAL MODERN (DIGIMOD) E-LOAN CUSTOMER - BPR MODEX SULUT",
            "sektor": "Sektor Keuangan",
            "tanggal_terbit": "2022-07-15",
            "url_tdpse_detail": "https://pse.komdigi.go.id/tdpse-detail/5838",
            "website": "kredit.bprmodex-sulut.com"
        },
        {
            "id": "9cb1aba7-6a97-4213-8df2-8b987c66e245",
            "nama_pse": "BANK PEMBANGUNAN DAERAH JAMBI DISEBUT BANK JAMBI",
            "nama_se": "CMS BANK JAMBI",
            "sektor": "Sektor Keuangan",
            "tanggal_terbit": "2022-07-15",
            "url_tdpse_detail": "https://pse.komdigi.go.id/tdpse-detail/5839",
            "website": "cms.bankjambi.co.id"
        },
        {
            "id": "9cb1ab9c-ab37-4aac-90ab-d0bf331925ac",
            "nama_pse": "BPR MODERN EXPRESS SULUT",
            "nama_se": "DIGITAL MODERN (DIGIMOD) E-COLLECTION - BPR MODEX SULUT",
            "sektor": "Sektor Keuangan",
            "tanggal_terbit": "2022-07-15",
            "url_tdpse_detail": "https://pse.komdigi.go.id/tdpse-detail/5841",
            "website": "-"
        },
        {
            "id": "9cb1abb1-4925-42e7-9823-045c23579f8b",
            "nama_pse": "KONSUMEN PEDAMI",
            "nama_se": "ABSENSI",
            "sektor": "Sektor Teknologi Informasi dan Komunikasi",
            "tanggal_terbit": "2022-07-15",
            "url_tdpse_detail": "https://pse.komdigi.go.id/tdpse-detail/5844",
            "website": "-"
        },
        {
            "id": "9cb1aba7-7077-4f0d-9d41-f7501a47dc72",
            "nama_pse": "BANK PEMBANGUNAN DAERAH JAMBI DISEBUT BANK JAMBI",
            "nama_se": "MOBILE BANKING BANK JAMBI",
            "sektor": "Sektor Keuangan",
            "tanggal_terbit": "2022-07-15",
            "url_tdpse_detail": "https://pse.komdigi.go.id/tdpse-detail/5846",
            "website": "digital.bankjambi.co.id"
        },
        {
            "id": "9cb1aba7-7790-4ccf-9268-b4ef3a91085a",
            "nama_pse": "BANK PEREKONOMIAN RAKYAT SYARIAH ALMABRUR KLATEN",
            "nama_se": "CORE BANKING SYSTEM IBA",
            "sektor": "Sektor Keuangan",
            "tanggal_terbit": "2022-07-15",
            "url_tdpse_detail": "https://pse.komdigi.go.id/tdpse-detail/5843",
            "website": "banksyariahalmabrur.co.id"
        },
        {
            "id": "9cb1ab9c-ad02-4ff0-88dc-e94522202e49",
            "nama_pse": "MUHAMMAD ICHSAN IRIANDY BARUS",
            "nama_se": "KEDAI ONLINE",
            "sektor": "Sektor Perdagangan",
            "tanggal_terbit": "2022-07-15",
            "url_tdpse_detail": "https://pse.komdigi.go.id/tdpse-detail/5845",
            "website": "kedaionline.id"
        },
        {
            "id": "9cb1ab9c-aee0-4219-bb99-61a0a66e1890",
            "nama_pse": "BANK PEMBANGUNAN DAERAH JAMBI DISEBUT BANK JAMBI",
            "nama_se": "MOBILE BANKING BANK JAMBI SYARIAH",
            "sektor": "Sektor Keuangan",
            "tanggal_terbit": "2022-07-15",
            "url_tdpse_detail": "https://pse.komdigi.go.id/tdpse-detail/5847",
            "website": "digitalsy.bankjambi.co.id"
        },
        {
            "id": "9cb1aba7-7a64-4207-94f5-13e9acb88e6c",
            "nama_pse": "BANK PEMBANGUNAN DAERAH SULAWESI SELATAN DAN SULAWESI BARAT",
            "nama_se": "APLIKASI PUR DIGITAL PT BANKSULSELBAR",
            "sektor": "Sektor Teknologi Informasi dan Komunikasi",
            "tanggal_terbit": "2022-07-15",
            "url_tdpse_detail": "https://pse.komdigi.go.id/tdpse-detail/5914",
            "website": "pur-digital.banksulselbar.co.id"
        },
        {
            "id": "9cb1abb1-4aea-4333-a9a3-3e187230e8de",
            "nama_pse": "BPR MODERN EXPRESS SULUT",
            "nama_se": "SMS MACROKIOSK (OTP) - BPR MODEX SULUT",
            "sektor": "Sektor Keuangan",
            "tanggal_terbit": "2022-07-15",
            "url_tdpse_detail": "https://pse.komdigi.go.id/tdpse-detail/5848",
            "website": "boldpass.com"
        },
        {
            "id": "9cb1ab9c-b092-4703-9c47-e57732ba8891",
            "nama_pse": "BANK PERKREDITAN RAKYAT SUPRA ARTAPERSADA",
            "nama_se": "INTERNET BANKING BISNIS BANK SUPRA",
            "sektor": "Sektor Keuangan",
            "tanggal_terbit": "2022-07-15",
            "url_tdpse_detail": "https://pse.komdigi.go.id/tdpse-detail/5849",
            "website": "ibb.bprsupra.co.id"
        },
        {
            "id": "9cb1ab9c-b272-4457-af03-70ef18877040",
            "nama_pse": "BANK PEREKONOMIAN RAKYAT CENTRAL KEPRI",
            "nama_se": "BPR CENTRAL KEPRI",
            "sektor": "Sektor Keuangan",
            "tanggal_terbit": "2022-07-15",
            "url_tdpse_detail": "https://pse.komdigi.go.id/tdpse-detail/5850",
            "website": "-"
        },
        {
            "id": "9cb1ab9c-b653-4850-8f89-6bf23cda2b34",
            "nama_pse": "D \u0026 W INTERNASIONAL",
            "nama_se": "TERAMIX",
            "sektor": "Sektor Perdagangan",
            "tanggal_terbit": "2022-07-15",
            "url_tdpse_detail": "https://pse.komdigi.go.id/tdpse-detail/5895",
            "website": "terramix.id"
        },
        {
            "id": "9cb1ab9c-baec-430b-8680-4e36e0f07011",
            "nama_pse": "BANK MANDIRI TASPEN",
            "nama_se": "MANTAP CASH MANAGEMENT (MCM)",
            "sektor": "Sektor Keuangan",
            "tanggal_terbit": "2022-07-15",
            "url_tdpse_detail": "https://pse.komdigi.go.id/tdpse-detail/5851",
            "website": "mcm.bankmantap.co.id"
        },
        {
            "id": "9cb1abb1-4cca-4d84-b1df-dc7518fdcf4b",
            "nama_pse": "BANK PERKREDITAN RAKYAT MODERN EXPRESS MALUKU UTARA",
            "nama_se": "WEBSITE PERUSAHAAN BPR MODERN EXPRESS MALUKU UTARA",
            "sektor": "Sektor Keuangan",
            "tanggal_terbit": "2022-07-15",
            "url_tdpse_detail": "https://pse.komdigi.go.id/tdpse-detail/5852",
            "website": "bprmodernternate.com"
        },
        {
            "id": "9cb1abb1-4ec6-4085-8310-5e77fc040be6",
            "nama_pse": "BANK PERKREDITAN RAKYAT KARTIKA MATUARI",
            "nama_se": "BPR KARTIKA MATUARI",
            "sektor": "Sektor Keuangan",
            "tanggal_terbit": "2022-07-15",
            "url_tdpse_detail": "https://pse.komdigi.go.id/tdpse-detail/5853",
            "website": "bprkartikamatuari.com"
        },
        {
            "id": "9cb1abb1-5080-4cd0-98df-4621815be760",
            "nama_pse": "BANK PEMBANGUNAN DAERAH JAMBI DISEBUT BANK JAMBI",
            "nama_se": "SPAN BANK JAMBI",
            "sektor": "Sektor Keuangan",
            "tanggal_terbit": "2022-07-15",
            "url_tdpse_detail": "https://pse.komdigi.go.id/tdpse-detail/5854",
            "website": "span.bankjambi.co.id"
        },
        {
            "id": "9cb1ab9c-bd33-44af-8deb-fc53977a13eb",
            "nama_pse": "BANK PEMBANGUNAN DAERAH JAMBI DISEBUT BANK JAMBI",
            "nama_se": "E-MAIL BANK JAMBI",
            "sektor": "Sektor Teknologi Informasi dan Komunikasi",
            "tanggal_terbit": "2022-07-15",
            "url_tdpse_detail": "https://pse.komdigi.go.id/tdpse-detail/5855",
            "website": "mail.bankjambi.co.id"
        },
        {
            "id": "9cb1abb1-5246-47eb-8797-3fc822a7ac11",
            "nama_pse": "BANK PERKREDITAN RAKYAT SUPRA ARTAPERSADA",
            "nama_se": "WEBSITE BPR SUPRA (COM)",
            "sektor": "Sektor Keuangan",
            "tanggal_terbit": "2022-07-15",
            "url_tdpse_detail": "https://pse.komdigi.go.id/tdpse-detail/5857",
            "website": "bprsupra.com"
        },
        {
            "id": "9cb1abb1-547a-4c89-b3c9-0af3f385e42a",
            "nama_pse": "BANK PEREKONOMIAN RAKYAT KARYAJATNIKA SADAYA",
            "nama_se": "MBB BPRKS",
            "sektor": "Sektor Keuangan",
            "tanggal_terbit": "2022-07-15",
            "url_tdpse_detail": "https://pse.komdigi.go.id/tdpse-detail/5858",
            "website": "mbb.bprks.com"
        },
        {
            "id": "9cb1aba7-7d64-42b1-88b7-338642388dc1",
            "nama_pse": "KARYA BINTANG TEKNOLOGI",
            "nama_se": "STARFM",
            "sektor": "Sektor Perdagangan, Sektor Teknologi Informasi dan Komunikasi",
            "tanggal_terbit": "2022-07-15",
            "url_tdpse_detail": "https://pse.komdigi.go.id/tdpse-detail/5884",
            "website": "starfm.app"
        },
        {
            "id": "9cb1abb1-5660-4dd9-bab1-47a6bb1a5105",
            "nama_pse": "BANK PEREKONOMIAN RAKYAT KARYAJATNIKA SADAYA",
            "nama_se": "WEBSITE BPRKS",
            "sektor": "Sektor Keuangan",
            "tanggal_terbit": "2022-07-15",
            "url_tdpse_detail": "https://pse.komdigi.go.id/tdpse-detail/5859",
            "website": "bprks.co.id"
        },
        {
            "id": "9cb1abb1-5828-4df2-9fb5-eb16f19d908b",
            "nama_pse": "BANK PERKREDITAN RAKYAT MODERN EXPRESS MALUKU UTARA",
            "nama_se": "DIGITAL MODERN (DIGIMOD) E-LOAN -BPR MODERN EXPRESS MALUKU UTARA",
            "sektor": "Sektor Keuangan",
            "tanggal_terbit": "2022-07-15",
            "url_tdpse_detail": "https://pse.komdigi.go.id/tdpse-detail/5860",
            "website": "bprmodernternate.com"
        },
        {
            "id": "9cb1aba7-8584-4f7f-99b0-6870e84b3b4a",
            "nama_pse": "KONSUMEN PEDAMI",
            "nama_se": "SASIRANGAN - SISTEM APLIKASI SIMPAN PINJAM, PENGADAAN DAN PERDAGANGAN",
            "sektor": "Sektor Perdagangan",
            "tanggal_terbit": "2022-07-15",
            "url_tdpse_detail": "https://pse.komdigi.go.id/tdpse-detail/5861",
            "website": "-"
        },
        {
            "id": "9cb1ab9c-c0e2-4b1d-b8ec-abe694571bc2",
            "nama_pse": "MARKET CHIP MULTIGUNA",
            "nama_se": "MARKET PULSA",
            "sektor": "Sektor Perdagangan",
            "tanggal_terbit": "2022-07-15",
            "url_tdpse_detail": "https://pse.komdigi.go.id/tdpse-detail/5862",
            "website": "market-pulsa.net"
        }
    ],
    "processingTimeMs": 3,
    "query": "",
    "totalHits": 19121,
    "hitsPerPage": 50,
    "page": 280,
    "totalPages": 383
}