{
    "hits": [
        {
            "id": "9cb1aba0-9655-49e7-b6fe-3ea3f3bc2962",
            "nama_pse": "RUMAH DIGITAL PRODUCTION",
            "nama_se": "SENTRAL DATA RDP",
            "sektor": "Sektor Teknologi Informasi dan Komunikasi, Sektor Pertahanan dan Keamanan",
            "tanggal_terbit": "2022-04-18",
            "url_tdpse_detail": "https://pse.komdigi.go.id/tdpse-detail/3901",
            "website": "-"
        },
        {
            "id": "9cb1ab93-f358-448e-a422-19e00d1536e2",
            "nama_pse": "RUMAH DIGITAL PRODUCTION",
            "nama_se": "RUMAH DIGITAL PAYMENT ( RDPAY )",
            "sektor": "Sektor Perdagangan, Sektor Teknologi Informasi dan Komunikasi, Sektor Pangan",
            "tanggal_terbit": "2022-04-18",
            "url_tdpse_detail": "https://pse.komdigi.go.id/tdpse-detail/3899",
            "website": "rdpro.co.id"
        },
        {
            "id": "9cb1abab-1a39-40a4-b390-3b0d1ca2d0b4",
            "nama_pse": "RUMAH DIGITAL PRODUCTION",
            "nama_se": "RDP ASIA",
            "sektor": "Sektor Teknologi Informasi dan Komunikasi",
            "tanggal_terbit": "2022-04-18",
            "url_tdpse_detail": "https://pse.komdigi.go.id/tdpse-detail/3894",
            "website": "rdp.asia"
        },
        {
            "id": "9cb1abab-1ccd-4a37-9a28-cfc0bd349dff",
            "nama_pse": "RUMAH DIGITAL PRODUCTION",
            "nama_se": "GADIS DESA",
            "sektor": "Sektor Perdagangan, Sektor Teknologi Informasi dan Komunikasi",
            "tanggal_terbit": "2022-04-18",
            "url_tdpse_detail": "https://pse.komdigi.go.id/tdpse-detail/3898",
            "website": "GADISDESA.ID"
        },
        {
            "id": "9cb1aba0-9256-444e-94d3-c87d33f98ea6",
            "nama_pse": "RUMAH DIGITAL PRODUCTION",
            "nama_se": "SENTRAL INVESTASI RDP",
            "sektor": "Sektor Perdagangan, Sektor Teknologi Informasi dan Komunikasi",
            "tanggal_terbit": "2022-04-18",
            "url_tdpse_detail": "https://pse.komdigi.go.id/tdpse-detail/3900",
            "website": "rumahdigital.pro"
        },
        {
            "id": "9cb1ab93-f5db-41f9-aa52-bd035095165e",
            "nama_pse": "RUMAH DIGITAL PRODUCTION",
            "nama_se": "RDP MARKET",
            "sektor": "Sektor Perdagangan, Sektor Teknologi Informasi dan Komunikasi, Sektor Pangan",
            "tanggal_terbit": "2022-04-18",
            "url_tdpse_detail": "https://pse.komdigi.go.id/tdpse-detail/3907",
            "website": "bumdes.shop"
        },
        {
            "id": "9cb1aba1-27a4-4206-972f-81ad70556df2",
            "nama_pse": "OCTA INVESTAMA BERJANGKA",
            "nama_se": "WEBSITE",
            "sektor": "Sektor Keuangan",
            "tanggal_terbit": "2022-04-07",
            "url_tdpse_detail": "https://pse.komdigi.go.id/tdpse-detail/3810",
            "website": "octa.id"
        },
        {
            "id": "9cb1aba0-fe7b-41d0-b72e-72eafcd67a81",
            "nama_pse": "AVAIL ELOK INDONESIA",
            "nama_se": "JAKARTA POST ETC,FACEBOOK ,ESPN",
            "sektor": "Sektor Perdagangan, Sektor Kesehatan",
            "tanggal_terbit": "2022-04-05",
            "url_tdpse_detail": "https://pse.komdigi.go.id/tdpse-detail/3781",
            "website": "availelok.co.id"
        },
        {
            "id": "9cb1ab92-7def-43f8-8887-10904f166c1f",
            "nama_pse": "KONVERSI PLASTIK BUMI LESTARI",
            "nama_se": "INSTAGRAM",
            "sektor": "Sektor Perdagangan, Sektor Perdagangan",
            "tanggal_terbit": "2022-04-02",
            "url_tdpse_detail": "https://pse.komdigi.go.id/tdpse-detail/3752",
            "website": "-"
        },
        {
            "id": "9cb1ab9f-e730-48dd-8ac3-712c876e8667",
            "nama_pse": "LIM, ANTON YUWONO",
            "nama_se": "WOLACOM COMMERCIAL",
            "sektor": "Sektor Perdagangan, Sektor Perdagangan",
            "tanggal_terbit": "2022-03-31",
            "url_tdpse_detail": "https://pse.komdigi.go.id/tdpse-detail/3731",
            "website": "wolacom.com"
        },
        {
            "id": "9cb1abaa-b040-49ac-a798-45e622244cd8",
            "nama_pse": "CITRA LESTARI",
            "nama_se": "GOOGLE",
            "sektor": "Sektor Perdagangan, Sektor Perdagangan, Sektor Teknologi Informasi dan Komunikasi, Sektor Teknologi Informasi dan Komunikasi",
            "tanggal_terbit": "2022-03-23",
            "url_tdpse_detail": "https://pse.komdigi.go.id/tdpse-detail/3625",
            "website": "-"
        },
        {
            "id": "9cb1ab86-fc47-493c-b584-75ef19300c43",
            "nama_pse": "NIRAH DIGITAL MEDIA",
            "nama_se": "- GMAIL DAN  - GOOGLE DRIVE UNTUK GOOGLE SHEET DAN GOOGLE WORD",
            "sektor": "Sektor Perdagangan, Sektor Perdagangan",
            "tanggal_terbit": "2022-03-15",
            "url_tdpse_detail": "https://pse.komdigi.go.id/tdpse-detail/3546",
            "website": "mail.gmail.com  \u0026 drive.google.com"
        },
        {
            "id": "9cb1ab87-3fab-480f-808b-02fb07ee41ad",
            "nama_pse": "ADI SETIYAWAN",
            "nama_se": "FACEBOOK DAN MEDIA SOSIAL LAINYA",
            "sektor": "Sektor Perdagangan, Sektor Perdagangan",
            "tanggal_terbit": "2022-03-15",
            "url_tdpse_detail": "https://pse.komdigi.go.id/tdpse-detail/3547",
            "website": "-"
        },
        {
            "id": "9cb1ab88-40dc-4045-8d7d-d5e0f2326ce8",
            "nama_pse": "CV. DAUN JATI",
            "nama_se": "GOOGLE",
            "sektor": "Sektor Perdagangan, Sektor Perdagangan, Sektor Perdagangan, Sektor Teknologi Informasi dan Komunikasi, Sektor Teknologi Informasi dan Komunikasi, Sektor Teknologi Informasi dan Komunikasi",
            "tanggal_terbit": "2022-02-18",
            "url_tdpse_detail": "https://pse.komdigi.go.id/tdpse-detail/3315",
            "website": "google.com"
        },
        {
            "id": "9cb1ab82-a2fb-462a-b400-cdcf3a6d69e6",
            "nama_pse": "DIGITAL IDBOTANI NUSANTARA",
            "nama_se": "IDBOTANI",
            "sektor": "Sektor Perdagangan, Sektor Perdagangan, Sektor Transportasi, Sektor Transportasi, Sektor Keuangan, Sektor Keuangan, Sektor Teknologi Informasi dan Komunikasi, Sektor Teknologi Informasi dan Komunikasi",
            "tanggal_terbit": "2022-02-11",
            "url_tdpse_detail": "https://pse.komdigi.go.id/tdpse-detail/3229",
            "website": "idbotani.com"
        },
        {
            "id": "9cb1ab7a-78ca-491d-a2bb-ca3e5265ae18",
            "nama_pse": "SOLUSI PINTAR UTAMA",
            "nama_se": "QR SLICE",
            "sektor": "Sektor Perdagangan, Sektor Perdagangan",
            "tanggal_terbit": "2022-02-08",
            "url_tdpse_detail": "https://pse.komdigi.go.id/tdpse-detail/3190",
            "website": "Qrslice.com"
        },
        {
            "id": "9cb1ab7a-74cd-4200-9b20-521a8732d32e",
            "nama_pse": "SOLUSI PINTAR UTAMA",
            "nama_se": "RESTO EXPERT ACADEMY",
            "sektor": "Sektor Perdagangan, Sektor Perdagangan",
            "tanggal_terbit": "2022-02-05",
            "url_tdpse_detail": "https://pse.komdigi.go.id/tdpse-detail/3175",
            "website": "Academy.resto.expert"
        },
        {
            "id": "9cb1ab82-301b-476a-9633-72e0f1a559bb",
            "nama_pse": "SOLUSI PINTAR UTAMA",
            "nama_se": "RESTO EXPERT SMART",
            "sektor": "Sektor Perdagangan, Sektor Perdagangan, Sektor Teknologi Informasi dan Komunikasi, Sektor Teknologi Informasi dan Komunikasi",
            "tanggal_terbit": "2022-02-05",
            "url_tdpse_detail": "https://pse.komdigi.go.id/tdpse-detail/3176",
            "website": "smart.resto.expert"
        },
        {
            "id": "9cb1ab77-e2eb-42f0-a0ad-9f86853c4a9b",
            "nama_pse": "FUN WORLD TECHNOLOGY",
            "nama_se": "LET’S DOMINO GAPLE QIUQIU POKER GAME ONLINE",
            "sektor": "Sektor Teknologi Informasi dan Komunikasi, Sektor Teknologi Informasi dan Komunikasi",
            "tanggal_terbit": "2022-01-12",
            "url_tdpse_detail": "https://pse.komdigi.go.id/tdpse-detail/3037",
            "website": "letusdomino.com"
        },
        {
            "id": "9cb1ab63-2933-4899-b1cd-cce5a4bb08a0",
            "nama_pse": "NTT DATA INDONESIA",
            "nama_se": "LAKUFIN LOS",
            "sektor": "Sektor Teknologi Informasi dan Komunikasi, Sektor Teknologi Informasi dan Komunikasi",
            "tanggal_terbit": "2022-01-05",
            "url_tdpse_detail": "https://pse.komdigi.go.id/tdpse-detail/2951",
            "website": "lakufin.com"
        },
        {
            "id": "9cb1ab68-922e-4a66-bc60-de10b3d38f96",
            "nama_pse": "USAHA KREATIF PEMBAYARAN",
            "nama_se": "ULTIMEAL",
            "sektor": "Sektor Perdagangan, Sektor Perdagangan, Sektor Perdagangan, Sektor Teknologi Informasi dan Komunikasi, Sektor Teknologi Informasi dan Komunikasi, Sektor Teknologi Informasi dan Komunikasi",
            "tanggal_terbit": "2021-12-07",
            "url_tdpse_detail": "https://pse.komdigi.go.id/tdpse-detail/2641",
            "website": "ultimeal.id"
        },
        {
            "id": "9cb1ab68-9719-4ce0-8f0a-b80d0e6fee14",
            "nama_pse": "USAHA KREATIF PEMBAYARAN",
            "nama_se": "ULTIMEAL MERCHANT",
            "sektor": "Sektor Perdagangan, Sektor Perdagangan, Sektor Perdagangan, Sektor Teknologi Informasi dan Komunikasi, Sektor Teknologi Informasi dan Komunikasi, Sektor Teknologi Informasi dan Komunikasi",
            "tanggal_terbit": "2021-12-07",
            "url_tdpse_detail": "https://pse.komdigi.go.id/tdpse-detail/2646",
            "website": "ultimeal.id"
        },
        {
            "id": "9cb1ab68-9b4e-4e38-a23c-414efc58f1c8",
            "nama_pse": "USAHA KREATIF PEMBAYARAN",
            "nama_se": "ULTIMEAL GROCERIES MERCHANT",
            "sektor": "Sektor Perdagangan, Sektor Perdagangan, Sektor Perdagangan, Sektor Teknologi Informasi dan Komunikasi, Sektor Teknologi Informasi dan Komunikasi, Sektor Teknologi Informasi dan Komunikasi",
            "tanggal_terbit": "2021-12-07",
            "url_tdpse_detail": "https://pse.komdigi.go.id/tdpse-detail/2647",
            "website": "ultimeal.id"
        },
        {
            "id": "9cb1ab80-46d7-4370-a040-7b280769c060",
            "nama_pse": "MOCH YUSUF NOVI ARDIANSYAH",
            "nama_se": "FACEBOOK",
            "sektor": "Sektor Perdagangan, Sektor Perdagangan",
            "tanggal_terbit": "2021-11-30",
            "url_tdpse_detail": "https://pse.komdigi.go.id/tdpse-detail/2507",
            "website": "-"
        },
        {
            "id": "9cb1ab70-27c5-4022-a60c-099131e93371",
            "nama_pse": "TRUST GLOBAL KARYA",
            "nama_se": "SMARTAVATAR 2.1",
            "sektor": "Sektor Perdagangan, Sektor Perdagangan, Sektor Perdagangan",
            "tanggal_terbit": "2021-10-26",
            "url_tdpse_detail": "https://pse.komdigi.go.id/tdpse-detail/2036",
            "website": "VIRALBLASTGLOBAL.CO.ID"
        },
        {
            "id": "9cb1ab8b-01a1-4f46-a1e7-da55f3061261",
            "nama_pse": "DIGITAL INTERAKTIF INDONESIA",
            "nama_se": "ASAKITA",
            "sektor": "Sektor Keuangan, Sektor Keuangan",
            "tanggal_terbit": "2021-10-26",
            "url_tdpse_detail": "https://pse.komdigi.go.id/tdpse-detail/1997",
            "website": "asakita.id"
        },
        {
            "id": "9cb1ab7f-117d-4f20-bc22-7647d7c9523b",
            "nama_pse": "PT MANDITO DIGITAL TEKNOLOGI",
            "nama_se": "MANDITO",
            "sektor": "Sektor Keuangan, Sektor Keuangan, Sektor Teknologi Informasi dan Komunikasi, Sektor Teknologi Informasi dan Komunikasi",
            "tanggal_terbit": "2021-10-26",
            "url_tdpse_detail": "https://pse.komdigi.go.id/tdpse-detail/2128",
            "website": "whatsapp.com"
        },
        {
            "id": "9cb1aba9-4f68-491e-bf54-82ee18a97138",
            "nama_pse": "ALLO BANK INDONESIA",
            "nama_se": "ALLO BANK OLLA",
            "sektor": "Sektor Keuangan, Sektor Keuangan, Sektor Keuangan, Sektor Keuangan, Sektor Keuangan, Sektor Keuangan, Sektor Keuangan, Sektor Keuangan",
            "tanggal_terbit": "2021-10-26",
            "url_tdpse_detail": "https://pse.komdigi.go.id/tdpse-detail/2153",
            "website": "api.whatsapp.com"
        },
        {
            "id": "9cb1ab6c-3c6d-44f6-8c47-2d4fdf50023b",
            "nama_pse": "OCTIFI GROUP INDONESIA",
            "nama_se": "OCTIFI",
            "sektor": "Sektor Teknologi Informasi dan Komunikasi, Sektor Teknologi Informasi dan Komunikasi",
            "tanggal_terbit": "2021-10-26",
            "url_tdpse_detail": "https://pse.komdigi.go.id/tdpse-detail/2104",
            "website": "octifi.id"
        },
        {
            "id": "9cb1ab6c-4545-4145-81f8-628ea86b1844",
            "nama_pse": "OCTIFI GROUP INDONESIA",
            "nama_se": "OCTIFI",
            "sektor": "Sektor Teknologi Informasi dan Komunikasi, Sektor Teknologi Informasi dan Komunikasi",
            "tanggal_terbit": "2021-10-26",
            "url_tdpse_detail": "https://pse.komdigi.go.id/tdpse-detail/2156",
            "website": "octifi.id"
        },
        {
            "id": "9cb1ab6e-30b8-4042-8abb-434213333cb6",
            "nama_pse": "BENGAWAN CABLE VISION",
            "nama_se": "ADASEMUA",
            "sektor": "Sektor Perdagangan, Sektor Perdagangan, Sektor Perdagangan",
            "tanggal_terbit": "2021-10-26",
            "url_tdpse_detail": "https://pse.komdigi.go.id/tdpse-detail/2015",
            "website": "adasemua.id"
        },
        {
            "id": "9cb1ab85-12d3-4e9c-a89d-cc6e076b309b",
            "nama_pse": "ARWIC TECHNOLOGI SOLUSINDO",
            "nama_se": "I- SAKTI",
            "sektor": "Sektor Teknologi Informasi dan Komunikasi, Sektor Teknologi Informasi dan Komunikasi",
            "tanggal_terbit": "2021-10-04",
            "url_tdpse_detail": "https://pse.komdigi.go.id/tdpse-detail/1966",
            "website": "arwics.com"
        },
        {
            "id": "9cb1ab8c-a266-44f7-b2dd-cb75824a7534",
            "nama_pse": "ARWIC TECHNOLOGI SOLUSINDO",
            "nama_se": "I - SCORE",
            "sektor": "Sektor Teknologi Informasi dan Komunikasi, Sektor Teknologi Informasi dan Komunikasi",
            "tanggal_terbit": "2021-10-04",
            "url_tdpse_detail": "https://pse.komdigi.go.id/tdpse-detail/1967",
            "website": "arwics.com"
        },
        {
            "id": "9cb1ab6f-c5a9-4f4b-86b2-986e95694834",
            "nama_pse": "WOSO CHAKRA BERDAYA",
            "nama_se": "MONABI",
            "sektor": "Sektor Perdagangan, Sektor Perdagangan, Sektor Teknologi Informasi dan Komunikasi, Sektor Teknologi Informasi dan Komunikasi",
            "tanggal_terbit": "2021-10-04",
            "url_tdpse_detail": "https://pse.komdigi.go.id/tdpse-detail/1947",
            "website": "monabi.co.id"
        },
        {
            "id": "9cb1ab74-ccbb-435a-a33d-d0d29e8ada2b",
            "nama_pse": "BANK MEGA",
            "nama_se": "BANK MEGA MILA - MEGA INTELLIGENT ASSISTANT",
            "sektor": "Sektor Teknologi Informasi dan Komunikasi, Sektor Teknologi Informasi dan Komunikasi, Sektor Teknologi Informasi dan Komunikasi, Sektor Teknologi Informasi dan Komunikasi",
            "tanggal_terbit": "2021-09-29",
            "url_tdpse_detail": "https://pse.komdigi.go.id/tdpse-detail/1929",
            "website": "api.whatsapp.com/send/?phone=6282208225000\u0026text=Hai\u0026app_absent=0"
        },
        {
            "id": "9cb1ab67-e758-424d-bdb1-166eb2e1125c",
            "nama_pse": "BENGAWAN CABLE VISION",
            "nama_se": "ADASEMUA SIPLAH",
            "sektor": "Sektor Perdagangan, Sektor Perdagangan, Sektor Perdagangan",
            "tanggal_terbit": "2021-08-03",
            "url_tdpse_detail": "https://pse.komdigi.go.id/tdpse-detail/1838",
            "website": "siplah.adasemua.id"
        },
        {
            "id": "9cb1ab68-c4b7-416d-b860-f81349aa89ae",
            "nama_pse": "KAYUMANIS INTI MAKMUR",
            "nama_se": "ESQUIRA-HEGO'S-SUNRUBLE-COCOPACK-GERAISANLIE",
            "sektor": "Sektor Perdagangan, Sektor Perdagangan",
            "tanggal_terbit": "2021-07-22",
            "url_tdpse_detail": "https://pse.komdigi.go.id/tdpse-detail/1747",
            "website": "-"
        },
        {
            "id": "9cb1ab68-b464-4b91-af24-2ef9f8681d4e",
            "nama_pse": "OCTIFI GROUP ALPHA",
            "nama_se": "OCTIFI",
            "sektor": "Sektor Teknologi Informasi dan Komunikasi, Sektor Teknologi Informasi dan Komunikasi, Sektor Teknologi Informasi dan Komunikasi",
            "tanggal_terbit": "2021-07-22",
            "url_tdpse_detail": "https://pse.komdigi.go.id/tdpse-detail/1731",
            "website": "octifi.com"
        },
        {
            "id": "9cb1ab75-32e0-4be5-9e4b-0a73e8d1704c",
            "nama_pse": "SIMPAN PINJAM DAUN HIJAU SEJAHTERA",
            "nama_se": "DAUN HIJAU",
            "sektor": "Sektor Keuangan, Sektor Keuangan",
            "tanggal_terbit": "2021-07-15",
            "url_tdpse_detail": "https://pse.komdigi.go.id/tdpse-detail/1687",
            "website": "daunhijau.com"
        },
        {
            "id": "9cb1ab7b-dde0-4114-8ccd-c5dd296a8cee",
            "nama_pse": "BERKAH JAYA ALAMI",
            "nama_se": "WWW.PRETTYHABITSCOSMETICS.COM",
            "sektor": "Sektor Perdagangan, Sektor Perdagangan, Sektor Teknologi Informasi dan Komunikasi, Sektor Teknologi Informasi dan Komunikasi",
            "tanggal_terbit": "2021-07-05",
            "url_tdpse_detail": "https://pse.komdigi.go.id/tdpse-detail/1649",
            "website": "prettyhabitscosmetics.com"
        },
        {
            "id": "9cb1ab92-a773-4c2a-8563-88578ad29853",
            "nama_pse": "SUPER SATU INDONESIA",
            "nama_se": "SUPER SATU INDONESIA",
            "sektor": "Sektor Teknologi Informasi dan Komunikasi, Sektor Teknologi Informasi dan Komunikasi, Sektor Teknologi Informasi dan Komunikasi, Sektor Teknologi Informasi dan Komunikasi, Sektor Teknologi Informasi dan Komunikasi",
            "tanggal_terbit": "2021-07-01",
            "url_tdpse_detail": "https://pse.komdigi.go.id/tdpse-detail/1619",
            "website": "www.supersatu.com www.supersatu.id"
        },
        {
            "id": "9cb1ab67-e4f7-4224-a079-78b7a6f8f7cd",
            "nama_pse": "BENGAWAN CABLE VISION",
            "nama_se": "ADA SEMUA",
            "sektor": "Sektor Perdagangan, Sektor Perdagangan, Sektor Perdagangan",
            "tanggal_terbit": "2021-07-01",
            "url_tdpse_detail": "https://pse.komdigi.go.id/tdpse-detail/1634",
            "website": "adasemua.id"
        },
        {
            "id": "9cb1ab6e-2bdc-46c7-9ddc-962ef6e4e35a",
            "nama_pse": "BENGAWAN CABLE VISION",
            "nama_se": "ADASEMUA",
            "sektor": "Sektor Perdagangan, Sektor Perdagangan, Sektor Perdagangan",
            "tanggal_terbit": "2021-06-25",
            "url_tdpse_detail": "https://pse.komdigi.go.id/tdpse-detail/1593",
            "website": "adasemua.com"
        },
        {
            "id": "9cb1ab64-8ced-4905-a94d-f5bf4060527e",
            "nama_pse": "TANI FUND MADANI INDONESIA",
            "nama_se": "TANIFUND",
            "sektor": "Sektor Keuangan, Sektor Keuangan",
            "tanggal_terbit": "2021-06-24",
            "url_tdpse_detail": "https://pse.komdigi.go.id/tdpse-detail/1575",
            "website": "https://tanifund.com atau https://tanifund.id"
        },
        {
            "id": "9cb1ab66-b000-43a8-86e4-ed48bc381e30",
            "nama_pse": "DIGITAL ALPHA INDONESIA",
            "nama_se": "UANGTEMAN",
            "sektor": "Sektor Keuangan, Sektor Keuangan",
            "tanggal_terbit": "2021-06-02",
            "url_tdpse_detail": "https://pse.komdigi.go.id/tdpse-detail/1287",
            "website": "uangteman.com"
        },
        {
            "id": "9cb1ab63-83ef-4b34-8e6e-4499082c046f",
            "nama_pse": "SOLUSI KAMPUS INDONESIA",
            "nama_se": "ECAMPUZ",
            "sektor": "Sektor Teknologi Informasi dan Komunikasi, Sektor Teknologi Informasi dan Komunikasi",
            "tanggal_terbit": "2021-05-18",
            "url_tdpse_detail": "https://pse.komdigi.go.id/tdpse-detail/1009",
            "website": "cloud.eCampuz.com"
        },
        {
            "id": "9cb1ab6a-ffca-42e1-bf06-d9a507c43b92",
            "nama_pse": "SOLUSI KAMPUS INDONESIA",
            "nama_se": "ECAMPUZ",
            "sektor": "Sektor Teknologi Informasi dan Komunikasi, Sektor Teknologi Informasi dan Komunikasi",
            "tanggal_terbit": "2021-05-18",
            "url_tdpse_detail": "https://pse.komdigi.go.id/tdpse-detail/1025",
            "website": "cloud.eCampuz.com"
        },
        {
            "id": "9cb1ab6b-e197-4e71-b7d4-6b247d4710c0",
            "nama_pse": "SIMPAN PINJAM SIMPANAN DARURAT MERAKYAT",
            "nama_se": "DANA CAIR",
            "sektor": "Sektor Teknologi Informasi dan Komunikasi, Sektor Teknologi Informasi dan Komunikasi, Sektor Teknologi Informasi dan Komunikasi",
            "tanggal_terbit": "2021-05-11",
            "url_tdpse_detail": "https://pse.komdigi.go.id/tdpse-detail/969",
            "website": "http://www.danacair.com/"
        },
        {
            "id": "9cb1ab8b-a41e-4794-a692-030f859b6a19",
            "nama_pse": "SIMPAN PINJAM JAYA BERKAH AMAL",
            "nama_se": "DANA CAIR",
            "sektor": "Sektor Teknologi Informasi dan Komunikasi, Sektor Teknologi Informasi dan Komunikasi",
            "tanggal_terbit": "2021-05-11",
            "url_tdpse_detail": "https://pse.komdigi.go.id/tdpse-detail/907",
            "website": "Http://www.danacair.com"
        },
        {
            "id": "9cb1ab70-95d7-4af4-952f-85d869270a5d",
            "nama_pse": "TANI HUB INDONESIA",
            "nama_se": "TANIHUB",
            "sektor": "Sektor Perdagangan, Sektor Perdagangan",
            "tanggal_terbit": "2021-04-26",
            "url_tdpse_detail": "https://pse.komdigi.go.id/tdpse-detail/599",
            "website": "TANIHUB.COM"
        }
    ],
    "processingTimeMs": 1,
    "query": "",
    "totalHits": 414,
    "hitsPerPage": 50,
    "page": 8,
    "totalPages": 9
}