{
    "hits": [
        {
            "id": "9db0b896-392e-48b0-bbc2-69ca4c0411b7",
            "nama_pse": "MUHAMMAD AJI PANGESTU",
            "nama_se": "SISTEM LAYANAN AKADEMIK INTEGRASI",
            "sektor": "Sektor Teknologi Informasi dan Komunikasi",
            "tanggal_terbit": "2024-12-10",
            "url_tdpse_detail": "https://pse.komdigi.go.id/tdpse-detail/21707",
            "website": "silat.polnes.ac.id"
        },
        {
            "id": "9daf5fd1-7c5c-439c-a3cb-17966354b94b",
            "nama_pse": "RADJA POS MEDIA LAW AND JUSTICE",
            "nama_se": "DETIK NUSANTARA",
            "sektor": "Sektor Teknologi Informasi dan Komunikasi",
            "tanggal_terbit": "2024-12-10",
            "url_tdpse_detail": "https://pse.komdigi.go.id/tdpse-detail/21702",
            "website": "detiknusantara.my.id"
        },
        {
            "id": "9db0187c-fcaf-40bc-8cda-f06266d55ad8",
            "nama_pse": "KIS NETWORK SOLUTION",
            "nama_se": "PT KIS NETWORK SOLUTION",
            "sektor": "Sektor Teknologi Informasi dan Komunikasi",
            "tanggal_terbit": "2024-12-10",
            "url_tdpse_detail": "https://pse.komdigi.go.id/tdpse-detail/21703",
            "website": "-"
        },
        {
            "id": "9db0229f-53c6-4f87-b486-057697c42d8e",
            "nama_pse": "SIRA TORANG BANUA",
            "nama_se": "GENDARIS",
            "sektor": "Sektor Teknologi Informasi dan Komunikasi",
            "tanggal_terbit": "2024-12-10",
            "url_tdpse_detail": "https://pse.komdigi.go.id/tdpse-detail/21705",
            "website": "gendaris.com"
        },
        {
            "id": "9db019b4-061b-46f5-8d57-348141024920",
            "nama_pse": "LUMBUNG PANGAN SINAR NUSANTARA",
            "nama_se": "LAYANAN JASA PENGURUSAN TENAGA KERJA ASING",
            "sektor": "Sektor Perdagangan",
            "tanggal_terbit": "2024-12-10",
            "url_tdpse_detail": "https://pse.komdigi.go.id/tdpse-detail/21704",
            "website": "workin-indonesia.com"
        },
        {
            "id": "9db0bcb9-534e-4f1e-844e-076facf39ace",
            "nama_pse": "MUHAMMAD AJI PANGESTU",
            "nama_se": "SISTEM MANAJEMEN ASET TERINTEGRASI",
            "sektor": "Sektor Teknologi Informasi dan Komunikasi",
            "tanggal_terbit": "2024-12-10",
            "url_tdpse_detail": "https://pse.komdigi.go.id/tdpse-detail/21708",
            "website": "simpati.polnes.ac.id"
        },
        {
            "id": "9db0cbee-9f11-4ca0-85e3-b0c99a45d8df",
            "nama_pse": "WIFI SAKRA MEDIA",
            "nama_se": "PT WIFI SAKRA MEDIA",
            "sektor": "Sektor Teknologi Informasi dan Komunikasi",
            "tanggal_terbit": "2024-12-10",
            "url_tdpse_detail": "https://pse.komdigi.go.id/tdpse-detail/21711",
            "website": "-"
        },
        {
            "id": "9db0bd82-4624-40f1-ae9f-98b7b4f7ca1a",
            "nama_pse": "RIZKI PUTRA PRATAMA",
            "nama_se": "URUSIZIN",
            "sektor": "Sektor Perdagangan, Sektor Teknologi Informasi dan Komunikasi",
            "tanggal_terbit": "2024-12-10",
            "url_tdpse_detail": "https://pse.komdigi.go.id/tdpse-detail/21709",
            "website": "urusizin.com"
        },
        {
            "id": "9db0c166-86d3-4649-9755-9256ba03c5c3",
            "nama_pse": "TRIMITRA PERKASA",
            "nama_se": "DIMENSY",
            "sektor": "Sektor Teknologi Informasi dan Komunikasi",
            "tanggal_terbit": "2024-12-10",
            "url_tdpse_detail": "https://pse.komdigi.go.id/tdpse-detail/21710",
            "website": "dimensy.id"
        },
        {
            "id": "9db0d21a-59cc-4b83-8464-9d7ee9344a15",
            "nama_pse": "BERKAH CAHAYA NET",
            "nama_se": "PT BERKAH CAHAYA NET",
            "sektor": "Sektor Teknologi Informasi dan Komunikasi",
            "tanggal_terbit": "2024-12-10",
            "url_tdpse_detail": "https://pse.komdigi.go.id/tdpse-detail/21712",
            "website": "-"
        },
        {
            "id": "9daf003d-f28a-4343-9a91-fb332662e6fc",
            "nama_pse": "BUGIS MEDIA DIGITAL",
            "nama_se": "BSPAY",
            "sektor": "Sektor Perdagangan, Sektor Teknologi Informasi dan Komunikasi",
            "tanggal_terbit": "2024-12-09",
            "url_tdpse_detail": "https://pse.komdigi.go.id/tdpse-detail/21697",
            "website": "-"
        },
        {
            "id": "9dae1beb-9bda-4cf4-8476-e68336fb03cd",
            "nama_pse": "SUPRIMA MITRA ADIHUSADA",
            "nama_se": "SEEMEDIK",
            "sektor": "Sektor Kesehatan",
            "tanggal_terbit": "2024-12-09",
            "url_tdpse_detail": "https://pse.komdigi.go.id/tdpse-detail/21687",
            "website": "portal.seemedik.com"
        },
        {
            "id": "9daf0620-1637-4933-8266-8bf60c95b239",
            "nama_pse": "SALINK TUMBUH BERSAMA",
            "nama_se": "PLATFORM SALINK ID",
            "sektor": "Sektor Perdagangan",
            "tanggal_terbit": "2024-12-09",
            "url_tdpse_detail": "https://pse.komdigi.go.id/tdpse-detail/21698",
            "website": "salink.id"
        },
        {
            "id": "9daf0eff-d187-4104-a24d-0d36082a2ee2",
            "nama_pse": "NANI SURYANI",
            "nama_se": "WIFI WARGA",
            "sektor": "Sektor Teknologi Informasi dan Komunikasi",
            "tanggal_terbit": "2024-12-09",
            "url_tdpse_detail": "https://pse.komdigi.go.id/tdpse-detail/21700",
            "website": "-"
        },
        {
            "id": "9daf0834-dcc9-4adc-9715-64515f01ece0",
            "nama_pse": "OTSKYR SEMBAGI MANDARA NAWASENA",
            "nama_se": "MANTRA",
            "sektor": "Sektor Teknologi Informasi dan Komunikasi",
            "tanggal_terbit": "2024-12-09",
            "url_tdpse_detail": "https://pse.komdigi.go.id/tdpse-detail/21699",
            "website": "mantra.sysbraykr.com"
        },
        {
            "id": "9dae3128-7746-4af6-93e1-8c8123f2ef05",
            "nama_pse": "BERKAH MULYO NETWORK",
            "nama_se": "PT BERKAH MULYO NETWORK",
            "sektor": "Sektor Teknologi Informasi dan Komunikasi",
            "tanggal_terbit": "2024-12-09",
            "url_tdpse_detail": "https://pse.komdigi.go.id/tdpse-detail/21690",
            "website": "-"
        },
        {
            "id": "9dae9dc9-3455-424c-b023-68a9677f64a1",
            "nama_pse": "NAZHWA DATA NETWORK",
            "nama_se": "PT NAZWA DATA NETWORK",
            "sektor": "Sektor Teknologi Informasi dan Komunikasi",
            "tanggal_terbit": "2024-12-09",
            "url_tdpse_detail": "https://pse.komdigi.go.id/tdpse-detail/21693",
            "website": "-"
        },
        {
            "id": "9dae2ea0-3c2b-48ad-bf16-b9c6b2fe89e0",
            "nama_pse": "SWARA MEDIA KHATULISTIWA",
            "nama_se": "kalbardigital.com",
            "sektor": "Sektor Teknologi Informasi dan Komunikasi",
            "tanggal_terbit": "2024-12-09",
            "url_tdpse_detail": "https://pse.komdigi.go.id/tdpse-detail/21689",
            "website": "kalbardigital.com"
        },
        {
            "id": "9daebc3f-c615-4e59-b75c-2c1c450b75fd",
            "nama_pse": "PERUSAHAAN PERSEROAN (PERSERO) PT. KERETA API INDONESIA",
            "nama_se": "SIKESKA : SISTEM INFORMASI KESEHATAN PT KERETA API INDONESIA (PERSERO)",
            "sektor": "Sektor Kesehatan",
            "tanggal_terbit": "2024-12-09",
            "url_tdpse_detail": "https://pse.komdigi.go.id/tdpse-detail/21695",
            "website": "-"
        },
        {
            "id": "9daee637-1a58-445c-be15-7cb10c3f57fe",
            "nama_pse": "RAHAYU ANWAR PRATAMA",
            "nama_se": "KLINIK RAHAYU MEDIKA",
            "sektor": "Sektor Kesehatan",
            "tanggal_terbit": "2024-12-09",
            "url_tdpse_detail": "https://pse.komdigi.go.id/tdpse-detail/21696",
            "website": "-"
        },
        {
            "id": "9dae1dc4-17ed-489e-9ed7-5ff3ab745b99",
            "nama_pse": "MEDIA KOMUNIKASI INFORMASI",
            "nama_se": "apdesidigital.id",
            "sektor": "Sektor Teknologi Informasi dan Komunikasi",
            "tanggal_terbit": "2024-12-09",
            "url_tdpse_detail": "https://pse.komdigi.go.id/tdpse-detail/21688",
            "website": "apdesidigital.id"
        },
        {
            "id": "9dae9dc1-db62-45ab-8cf7-4d83f15d5e6c",
            "nama_pse": "PANDU CIPTA SOLUSI",
            "nama_se": "website pandu cipta solusi",
            "sektor": "Sektor Teknologi Informasi dan Komunikasi",
            "tanggal_terbit": "2024-12-09",
            "url_tdpse_detail": "https://pse.komdigi.go.id/tdpse-detail/21692",
            "website": "panducipta.com"
        },
        {
            "id": "9daea3b6-6bed-433f-a366-d2e54bc023ce",
            "nama_pse": "SUCORINVEST ASSET MANAGEMENT",
            "nama_se": "SISTEM PENGKINIAN DATA (SIKITA)",
            "sektor": "Sektor Keuangan",
            "tanggal_terbit": "2024-12-09",
            "url_tdpse_detail": "https://pse.komdigi.go.id/tdpse-detail/21694",
            "website": "sikita.sucorinvestam.com"
        },
        {
            "id": "9dac8daa-bbd0-428a-af88-8c10f7929ecd",
            "nama_pse": "BURSA INFORMASI NUSANTARA",
            "nama_se": "BURSA INFORMASI NUSANTARA",
            "sektor": "Sektor Teknologi Informasi dan Komunikasi",
            "tanggal_terbit": "2024-12-08",
            "url_tdpse_detail": "https://pse.komdigi.go.id/tdpse-detail/21643",
            "website": "bin-ri.id"
        },
        {
            "id": "9dac7537-7d4a-4b8f-84da-db77eadade03",
            "nama_pse": "PATRIOT JABAR MEDIATAMA",
            "nama_se": "PATRIOTJABAR.COM",
            "sektor": "Sektor Teknologi Informasi dan Komunikasi",
            "tanggal_terbit": "2024-12-08",
            "url_tdpse_detail": "https://pse.komdigi.go.id/tdpse-detail/21642",
            "website": "patriotjabar.com"
        },
        {
            "id": "9daca51e-50f5-4ea6-9330-7a0114b471da",
            "nama_pse": "PUTRA MEDIKA JAYA",
            "nama_se": "SISTEM INFORMASI KLINIK BREBES EYE CENTER (SIKBREC)",
            "sektor": "Sektor Kesehatan",
            "tanggal_terbit": "2024-12-08",
            "url_tdpse_detail": "https://pse.komdigi.go.id/tdpse-detail/21644",
            "website": "brebeseyecenter.com"
        },
        {
            "id": "9dacfca1-db37-484d-9036-c72c36421b2f",
            "nama_pse": "DECENTRALIZED NETWORK INDONESIA",
            "nama_se": "PLIPEO",
            "sektor": "Sektor Teknologi Informasi dan Komunikasi",
            "tanggal_terbit": "2024-12-08",
            "url_tdpse_detail": "https://pse.komdigi.go.id/tdpse-detail/21679",
            "website": "plipeo.com"
        },
        {
            "id": "9dab45a8-41bd-497d-bcef-51c804569d72",
            "nama_pse": "HEXALAB ARTHA MULTIMEDIKA",
            "nama_se": "HEXALAB",
            "sektor": "Sektor Kesehatan",
            "tanggal_terbit": "2024-12-07",
            "url_tdpse_detail": "https://pse.komdigi.go.id/tdpse-detail/21638",
            "website": "-"
        },
        {
            "id": "9daa2b63-520a-4dfb-8993-b827ecae79eb",
            "nama_pse": "SAILTIX LINTAS SAMUDRA",
            "nama_se": "SAILTIX ONLINE TICKETING",
            "sektor": "Sektor Perdagangan, Sektor Transportasi",
            "tanggal_terbit": "2024-12-07",
            "url_tdpse_detail": "https://pse.komdigi.go.id/tdpse-detail/21637",
            "website": "sailtix.com"
        },
        {
            "id": "9dab4dfe-e14b-494c-8022-67d08d2869fd",
            "nama_pse": "FAJAR KARYA WISATA",
            "nama_se": "FAJAR KARYA WISATA",
            "sektor": "Sektor Perdagangan",
            "tanggal_terbit": "2024-12-07",
            "url_tdpse_detail": "https://pse.komdigi.go.id/tdpse-detail/21639",
            "website": "fajarkaryawisata.com"
        },
        {
            "id": "9da786b0-3f29-492b-a88c-da3ecd61d2f6",
            "nama_pse": "GILANG PERMANA",
            "nama_se": "GI DEV",
            "sektor": "Sektor Teknologi Informasi dan Komunikasi",
            "tanggal_terbit": "2024-12-06",
            "url_tdpse_detail": "https://pse.komdigi.go.id/tdpse-detail/21618",
            "website": "dev.ghie-lhanx.com"
        },
        {
            "id": "9da87d77-a2f8-4376-a9bb-55cfe062f55f",
            "nama_pse": "ERYZHU BEAUTY INDONESIA",
            "nama_se": "ERYZHU ECOMMERCE",
            "sektor": "Sektor Perdagangan",
            "tanggal_terbit": "2024-12-06",
            "url_tdpse_detail": "https://pse.komdigi.go.id/tdpse-detail/21627",
            "website": "eryzhu.com"
        },
        {
            "id": "9da8627f-f36e-4cf6-9d2d-30a3c911b2f1",
            "nama_pse": "PENTA CAHAYA MANDIRI",
            "nama_se": "penta information system",
            "sektor": "Sektor Kesehatan",
            "tanggal_terbit": "2024-12-06",
            "url_tdpse_detail": "https://pse.komdigi.go.id/tdpse-detail/21624",
            "website": "-"
        },
        {
            "id": "9da83c31-38b7-4378-b44e-39a6f184648c",
            "nama_pse": "MAMPU INOVASI DIGITAL",
            "nama_se": "MAMPU",
            "sektor": "Sektor Teknologi Informasi dan Komunikasi",
            "tanggal_terbit": "2024-12-06",
            "url_tdpse_detail": "https://pse.komdigi.go.id/tdpse-detail/21622",
            "website": "mampu.io"
        },
        {
            "id": "9da7757b-7337-4dd6-ba63-75ac71a18e00",
            "nama_pse": "INOVASI TEKNOLOGI RAYA",
            "nama_se": "inovasiteknologiraya.com",
            "sektor": "Sektor Teknologi Informasi dan Komunikasi",
            "tanggal_terbit": "2024-12-06",
            "url_tdpse_detail": "https://pse.komdigi.go.id/tdpse-detail/21617",
            "website": "inovasiteknologiraya.com"
        },
        {
            "id": "9da7fb51-3061-4689-95fa-d28f295b918b",
            "nama_pse": "SUKAMDANI WIRAHADI KUSUMA",
            "nama_se": "ELMIRZA NETWORK",
            "sektor": "Sektor Teknologi Informasi dan Komunikasi",
            "tanggal_terbit": "2024-12-06",
            "url_tdpse_detail": "https://pse.komdigi.go.id/tdpse-detail/21620",
            "website": "-"
        },
        {
            "id": "9da80980-9ec1-4c6f-aac4-ef88b0bd72b6",
            "nama_pse": "DOO FINANCIAL FUTURES",
            "nama_se": "sk.doofinancial.co.id",
            "sektor": "Sektor Perdagangan, Sektor Keuangan",
            "tanggal_terbit": "2024-12-06",
            "url_tdpse_detail": "https://pse.komdigi.go.id/tdpse-detail/21621",
            "website": "doofinancial.co.id"
        },
        {
            "id": "9da84d18-15c2-4c45-98fe-8f2f1cb5841b",
            "nama_pse": "KLINIK PRATIWI MEDIKA",
            "nama_se": "rme-klinik-pratiwi-medika.com",
            "sektor": "Sektor Kesehatan",
            "tanggal_terbit": "2024-12-06",
            "url_tdpse_detail": "https://pse.komdigi.go.id/tdpse-detail/21623",
            "website": "rme.klinik-pratiwi-medika.com"
        },
        {
            "id": "9da8ec28-0c9f-4af9-8651-6d0cfb87da2d",
            "nama_pse": "KHOLILUROHMAN",
            "nama_se": "ACHROMATIC",
            "sektor": "Sektor Perdagangan",
            "tanggal_terbit": "2024-12-06",
            "url_tdpse_detail": "https://pse.komdigi.go.id/tdpse-detail/21634",
            "website": "-"
        },
        {
            "id": "9da79a9f-afbd-442b-baf8-78e696732ca5",
            "nama_pse": "SANTOS SABANARI",
            "nama_se": "DENTAL PLUS",
            "sektor": "Sektor Kesehatan, Sektor Teknologi Informasi dan Komunikasi",
            "tanggal_terbit": "2024-12-06",
            "url_tdpse_detail": "https://pse.komdigi.go.id/tdpse-detail/21619",
            "website": "dentalplus.id"
        },
        {
            "id": "9da87ce8-1ed2-45c0-bd35-e56c647aafbc",
            "nama_pse": "KIMIA FARMA TRADING \u0026 DISTRIBUTION",
            "nama_se": "KHOS",
            "sektor": "Sektor Kesehatan",
            "tanggal_terbit": "2024-12-06",
            "url_tdpse_detail": "https://pse.komdigi.go.id/tdpse-detail/21625",
            "website": "khos.kftd.co.id"
        },
        {
            "id": "9da87d52-9ab4-4cae-b39b-1e866adf6fa3",
            "nama_pse": "INFOMEDIA NUSANTARA",
            "nama_se": "OMNIX",
            "sektor": "Sektor Teknologi Informasi dan Komunikasi",
            "tanggal_terbit": "2024-12-06",
            "url_tdpse_detail": "https://pse.komdigi.go.id/tdpse-detail/21626",
            "website": "omnix.co.id"
        },
        {
            "id": "9da885ff-c27c-44dd-bd20-f07e7764bf6e",
            "nama_pse": "BAKTI TIMAH SOLUSI MEDIKA",
            "nama_se": "SIMKLINIK",
            "sektor": "Sektor Kesehatan",
            "tanggal_terbit": "2024-12-06",
            "url_tdpse_detail": "https://pse.komdigi.go.id/tdpse-detail/21629",
            "website": "rspelabuhan.com"
        },
        {
            "id": "9da8860a-9154-4aac-8a92-7eb699f100ec",
            "nama_pse": "ISMAIL",
            "nama_se": "XVII DEV",
            "sektor": "Sektor Perdagangan, Sektor Teknologi Informasi dan Komunikasi",
            "tanggal_terbit": "2024-12-06",
            "url_tdpse_detail": "https://pse.komdigi.go.id/tdpse-detail/21630",
            "website": "xvii.dev"
        },
        {
            "id": "9da8a989-4095-4126-b560-2ac9fae9c38a",
            "nama_pse": "MYRIDE SCOOTER RENTAL",
            "nama_se": "MYRIDE SCOOTER RENTAL",
            "sektor": "Sektor Perdagangan",
            "tanggal_terbit": "2024-12-06",
            "url_tdpse_detail": "https://pse.komdigi.go.id/tdpse-detail/21633",
            "website": "myride.life"
        },
        {
            "id": "9da8eeb9-8c10-44dc-ad33-093563525d2a",
            "nama_pse": "JOURNALIST CYBER MEDIA",
            "nama_se": "JOURNALISTIMES.COM",
            "sektor": "Sektor Teknologi Informasi dan Komunikasi",
            "tanggal_terbit": "2024-12-06",
            "url_tdpse_detail": "https://pse.komdigi.go.id/tdpse-detail/21635",
            "website": "journalistimes.com"
        },
        {
            "id": "9da91389-f6c7-4ebb-b4d7-2b71256b3dff",
            "nama_pse": "HAGI KREATIF DIGITAL",
            "nama_se": "HAGIDIGI",
            "sektor": "Sektor Teknologi Informasi dan Komunikasi",
            "tanggal_terbit": "2024-12-06",
            "url_tdpse_detail": "https://pse.komdigi.go.id/tdpse-detail/21636",
            "website": "hagidigi.co.id"
        },
        {
            "id": "9da6e028-a6e6-4a24-b245-9ce721b4e66f",
            "nama_pse": "JAYA ANUGRAH CANGGIH",
            "nama_se": "PT JAYA ANUGRAH CANGGIH",
            "sektor": "Sektor Teknologi Informasi dan Komunikasi",
            "tanggal_terbit": "2024-12-05",
            "url_tdpse_detail": "https://pse.komdigi.go.id/tdpse-detail/21590",
            "website": "ptjac.co.id"
        },
        {
            "id": "9da63de1-82b5-4c33-9d3e-a789ddb40e72",
            "nama_pse": "INDAKO TRADING COY",
            "nama_se": "indako.id",
            "sektor": "Sektor Perdagangan, Sektor Teknologi Informasi dan Komunikasi",
            "tanggal_terbit": "2024-12-05",
            "url_tdpse_detail": "https://pse.komdigi.go.id/tdpse-detail/21529",
            "website": "indako.id"
        },
        {
            "id": "9da66ba6-8edf-4c19-8acd-c46270f710ec",
            "nama_pse": "SINERGI INSAN ANDALAN",
            "nama_se": "ENGLISHVIT",
            "sektor": "Sektor Teknologi Informasi dan Komunikasi",
            "tanggal_terbit": "2024-12-05",
            "url_tdpse_detail": "https://pse.komdigi.go.id/tdpse-detail/21564",
            "website": "englishvit.com"
        }
    ],
    "processingTimeMs": 0,
    "query": "",
    "totalHits": 19121,
    "hitsPerPage": 50,
    "page": 20,
    "totalPages": 383
}