{
    "hits": [
        {
            "id": "9cb1abd4-0ea1-4696-a733-f72f07934989",
            "nama_pse": "DANALOG MITRA VENTURA",
            "nama_se": "PT DANALOG MITRA VENTURA",
            "sektor": "Sektor Keuangan",
            "tanggal_terbit": "2022-08-04",
            "url_tdpse_detail": "https://pse.komdigi.go.id/tdpse-detail/9877",
            "website": "danalog.id"
        },
        {
            "id": "9cb1ac08-4ec4-441f-a6a6-58735c6d4884",
            "nama_pse": "VERTIKAL TRIP INDONESIA",
            "nama_se": "JOGJA FOOD TOUR",
            "sektor": "Sektor Perdagangan",
            "tanggal_terbit": "2022-08-03",
            "url_tdpse_detail": "https://pse.komdigi.go.id/tdpse-detail/9725",
            "website": "jogjafoodtour.com"
        },
        {
            "id": "9cb1abd3-21ef-4ff0-873b-2ceb40acdb16",
            "nama_pse": "ITSENTRA KREA SOLUSI",
            "nama_se": "IT CENTER ID",
            "sektor": "Sektor Teknologi Informasi dan Komunikasi",
            "tanggal_terbit": "2022-08-03",
            "url_tdpse_detail": "https://pse.komdigi.go.id/tdpse-detail/9726",
            "website": "itcenter.id"
        },
        {
            "id": "9cb1abf9-d4a6-4b76-8759-94f5db052c89",
            "nama_pse": "GITA WAHANA MANDIRI",
            "nama_se": "GWM CLOUD",
            "sektor": "Sektor Perdagangan, Sektor Energi dan Sumber Daya Mineral, Sektor Transportasi, Sektor Keuangan, Sektor Kesehatan, Sektor Teknologi Informasi dan Komunikasi, Sektor Pangan, Sektor Pertahanan dan Keamanan",
            "tanggal_terbit": "2022-08-03",
            "url_tdpse_detail": "https://pse.komdigi.go.id/tdpse-detail/9729",
            "website": "gwm-gowithme.com"
        },
        {
            "id": "9cb1abf9-d823-4790-ad1a-cb5fa4f9716c",
            "nama_pse": "BANK PERKREDITAN RAKYAT EKA USAHA",
            "nama_se": "CORE BANKING SYSTEM",
            "sektor": "Sektor Keuangan",
            "tanggal_terbit": "2022-08-03",
            "url_tdpse_detail": "https://pse.komdigi.go.id/tdpse-detail/9732",
            "website": "-"
        },
        {
            "id": "9cb1ac08-58b9-422a-973a-ce71f0bebdcf",
            "nama_pse": "RODALINK INDO TAMA",
            "nama_se": "RODALINK",
            "sektor": "Sektor Perdagangan",
            "tanggal_terbit": "2022-08-03",
            "url_tdpse_detail": "https://pse.komdigi.go.id/tdpse-detail/9733",
            "website": "rodalink.com"
        },
        {
            "id": "9cb1ac08-5c1a-4a3c-8aaf-928fba4a7f02",
            "nama_pse": "BANK PEREKONOMIAN RAKYAT NUSAMBA BRONDONG",
            "nama_se": "WEBSITE PERUSAHAAN",
            "sektor": "Sektor Keuangan",
            "tanggal_terbit": "2022-08-03",
            "url_tdpse_detail": "https://pse.komdigi.go.id/tdpse-detail/9734",
            "website": "bprnusamba-brondong.co.id"
        },
        {
            "id": "9cb1ac08-5f66-4f3c-bd88-955167e2b4dc",
            "nama_pse": "JOKO PURNOMO",
            "nama_se": "ANABA SOFTWARE",
            "sektor": "Sektor Teknologi Informasi dan Komunikasi",
            "tanggal_terbit": "2022-08-03",
            "url_tdpse_detail": "https://pse.komdigi.go.id/tdpse-detail/9736",
            "website": "anabasoftware.com"
        },
        {
            "id": "9cb1ac08-63a5-4d7b-9908-5b832c794978",
            "nama_pse": "BANK PERKREDITAN RAKYAT LENGAYANG",
            "nama_se": "PT BPR LENGAYANG",
            "sektor": "Sektor Keuangan",
            "tanggal_terbit": "2022-08-03",
            "url_tdpse_detail": "https://pse.komdigi.go.id/tdpse-detail/9737",
            "website": "-"
        },
        {
            "id": "9cb1abd3-342f-4eac-9823-ba9cf9bd1f3d",
            "nama_pse": "DIGITAL CLOUD SOLUTIONS",
            "nama_se": "OKHOME",
            "sektor": "Sektor Perdagangan",
            "tanggal_terbit": "2022-08-03",
            "url_tdpse_detail": "https://pse.komdigi.go.id/tdpse-detail/9738",
            "website": "okhome.id"
        },
        {
            "id": "9cb1ac08-66d2-4119-9d2a-7b2dbf0a20ec",
            "nama_pse": "ISTANA MOBIL SURABAYA INDAH",
            "nama_se": "APLIKASI HONDA SURABAYA CENTER",
            "sektor": "Sektor Perdagangan",
            "tanggal_terbit": "2022-08-03",
            "url_tdpse_detail": "https://pse.komdigi.go.id/tdpse-detail/9739",
            "website": "hondaeastjava.com"
        },
        {
            "id": "9cb1ac08-6a66-4041-ba61-ebe61d313588",
            "nama_pse": "BANK PERKREDITAN RAKYAT KREDIT MANDIRI CELEBES SEJAHTERA",
            "nama_se": "WEBSITE BPRKMCS",
            "sektor": "Sektor Keuangan",
            "tanggal_terbit": "2022-08-03",
            "url_tdpse_detail": "https://pse.komdigi.go.id/tdpse-detail/9741",
            "website": "bprkmcs.co.id"
        },
        {
            "id": "9cb1abf9-dbcc-4460-8d4c-e05bbbce2fab",
            "nama_pse": "TOCILA MART DOT COM",
            "nama_se": "TOCILAMART.COM",
            "sektor": "Sektor Perdagangan",
            "tanggal_terbit": "2022-08-03",
            "url_tdpse_detail": "https://pse.komdigi.go.id/tdpse-detail/9740",
            "website": "tocilamart.com"
        },
        {
            "id": "9cb1ac08-6ddd-4cd6-a16d-210c34959ef0",
            "nama_pse": "GOOD SALE TECH",
            "nama_se": "GOOD SALE TECH WAS FOUNDED IN 2019 IN INDONESIA, FOCUSING IN BEAUTY INDUSTRY. WE HAVE DEVELOPED 9 BRANDS AND DEVELOPED BUSINESS  IN INDONESIA, CHINA, KOREA, MALAYSIA, VIETNAM AND PHILIPINA.",
            "sektor": "Sektor Perdagangan",
            "tanggal_terbit": "2022-08-03",
            "url_tdpse_detail": "https://pse.komdigi.go.id/tdpse-detail/9742",
            "website": "-"
        },
        {
            "id": "9cb1abd3-39ec-4172-acfb-67fc9fbfb310",
            "nama_pse": "KOMPAS CYBER MEDIA",
            "nama_se": "WWW.KOMPAS.COM",
            "sektor": "Sektor Teknologi Informasi dan Komunikasi",
            "tanggal_terbit": "2022-08-03",
            "url_tdpse_detail": "https://pse.komdigi.go.id/tdpse-detail/9747",
            "website": "kompasiana.com"
        },
        {
            "id": "9cb1abf9-df09-44db-ade9-58aa3e1dbec9",
            "nama_pse": "AXA FINANCIAL INDONESIA",
            "nama_se": "AFI PAY",
            "sektor": "Sektor Keuangan",
            "tanggal_terbit": "2022-08-03",
            "url_tdpse_detail": "https://pse.komdigi.go.id/tdpse-detail/9744",
            "website": "pay.axa.co.id"
        },
        {
            "id": "9cb1abf9-eecf-4560-b4fa-ad326d3f67bb",
            "nama_pse": "BANK PEREKONOMIAN RAKYAT CENTRAL INTERNATIONAL",
            "nama_se": "BCBANK WEBSITE",
            "sektor": "Sektor Keuangan",
            "tanggal_terbit": "2022-08-03",
            "url_tdpse_detail": "https://pse.komdigi.go.id/tdpse-detail/9748",
            "website": "ns1.domosquare.com"
        },
        {
            "id": "9cb1abf9-f203-4ada-b1e8-197dbccfcf65",
            "nama_pse": "HALOSULTRA SIBER MEDIA",
            "nama_se": "HALOSULTRA.COM",
            "sektor": "Sektor Teknologi Informasi dan Komunikasi",
            "tanggal_terbit": "2022-08-03",
            "url_tdpse_detail": "https://pse.komdigi.go.id/tdpse-detail/9750",
            "website": "halosultra.com"
        },
        {
            "id": "9cb1abf9-f562-4b48-98f2-bdc413bf4381",
            "nama_pse": "BANK PERKREDITAN RAKYAT BUANA DANA MAKMUR",
            "nama_se": "PT. BPR BUANA DANA MAKMUR",
            "sektor": "Sektor Teknologi Informasi dan Komunikasi",
            "tanggal_terbit": "2022-08-03",
            "url_tdpse_detail": "https://pse.komdigi.go.id/tdpse-detail/9752",
            "website": "bprbuana.com"
        },
        {
            "id": "9cb1ac08-7851-42f3-bcc1-c0ab54f2f4c5",
            "nama_pse": "KARTONO IRWAN",
            "nama_se": "MAJUSHOP",
            "sektor": "Sektor Perdagangan",
            "tanggal_terbit": "2022-08-03",
            "url_tdpse_detail": "https://pse.komdigi.go.id/tdpse-detail/9753",
            "website": "majushop.com"
        },
        {
            "id": "9cb1ac08-7be2-435b-8ce5-dde9c92c48a2",
            "nama_pse": "BANK PERKREDITAN RAKYAT SULAWESI KARYA SENTOSA",
            "nama_se": "APLIKASI RETAIL BPR ( ARB )",
            "sektor": "Sektor Keuangan",
            "tanggal_terbit": "2022-08-03",
            "url_tdpse_detail": "https://pse.komdigi.go.id/tdpse-detail/9754",
            "website": "sinergi.co.id"
        },
        {
            "id": "9cb1abd3-4512-401e-bcb9-51701cda9440",
            "nama_pse": "BANK PEREKONOMIAN RAKYAT MITRA HARMONI INDRAMAYU",
            "nama_se": "BPR MITRA HARMONI INDRAMAYU",
            "sektor": "Sektor Keuangan",
            "tanggal_terbit": "2022-08-03",
            "url_tdpse_detail": "https://pse.komdigi.go.id/tdpse-detail/9755",
            "website": "bprmh-indramayu.com"
        },
        {
            "id": "9cb1abf9-f888-40e7-bc98-1bbe9d7e362b",
            "nama_pse": "COMPRO KOTAK INOVASI",
            "nama_se": "COMPRO BACKBONE",
            "sektor": "Sektor Perdagangan, Sektor Teknologi Informasi dan Komunikasi",
            "tanggal_terbit": "2022-08-03",
            "url_tdpse_detail": "https://pse.komdigi.go.id/tdpse-detail/9756",
            "website": "compro.id"
        },
        {
            "id": "9cb1abf9-fb28-429a-95c4-811702e51081",
            "nama_pse": "PERUSAHAAN PERDAGANGAN INDONESIA",
            "nama_se": "WARUNG PANGAN",
            "sektor": "Sektor Perdagangan, Sektor Pangan",
            "tanggal_terbit": "2022-08-03",
            "url_tdpse_detail": "https://pse.komdigi.go.id/tdpse-detail/9757",
            "website": "warungpangan.com"
        },
        {
            "id": "9cb1ac08-7f1f-4955-866d-613614c38bb3",
            "nama_pse": "GRAHANUSA MEDIATAMA",
            "nama_se": "KONTANACADEMY.COM",
            "sektor": "Sektor Teknologi Informasi dan Komunikasi",
            "tanggal_terbit": "2022-08-03",
            "url_tdpse_detail": "https://pse.komdigi.go.id/tdpse-detail/9763",
            "website": "kontanacademy.com"
        },
        {
            "id": "9cb1abd3-4abe-4b2e-a9bd-e023d010b3a1",
            "nama_pse": "REINHART PREVIANO KOENTJORO",
            "nama_se": "FILES.REINHART1010.ID",
            "sektor": "Sektor Teknologi Informasi dan Komunikasi",
            "tanggal_terbit": "2022-08-03",
            "url_tdpse_detail": "https://pse.komdigi.go.id/tdpse-detail/9762",
            "website": "files.reinhart1010.id"
        },
        {
            "id": "9cb1ac08-8279-40f5-9f13-b7f5cdd4172b",
            "nama_pse": "GRAHANUSA MEDIATAMA",
            "nama_se": "MOMSMONEY.ID",
            "sektor": "Sektor Teknologi Informasi dan Komunikasi",
            "tanggal_terbit": "2022-08-03",
            "url_tdpse_detail": "https://pse.komdigi.go.id/tdpse-detail/9764",
            "website": "momsmoney.id"
        },
        {
            "id": "9cb1abf9-fe2d-4764-857b-7c0cddf5fc59",
            "nama_pse": "KOMPAS CYBER MEDIA",
            "nama_se": "PIJARU.COM",
            "sektor": "Sektor Teknologi Informasi dan Komunikasi",
            "tanggal_terbit": "2022-08-03",
            "url_tdpse_detail": "https://pse.komdigi.go.id/tdpse-detail/9771",
            "website": "pijaru.com"
        },
        {
            "id": "9cb1abd3-4e3c-4723-bdb6-71c9d79e85a2",
            "nama_pse": "LEMBAGA PENGEMBANGAN PERBANKAN INDONESIA",
            "nama_se": "SIADIK",
            "sektor": "Sektor Teknologi Informasi dan Komunikasi",
            "tanggal_terbit": "2022-08-03",
            "url_tdpse_detail": "https://pse.komdigi.go.id/tdpse-detail/9765",
            "website": "siadik.lppi.or.id"
        },
        {
            "id": "9cb1ac08-85c3-46b9-9968-dfd863ecad87",
            "nama_pse": "SOLUSI ANAK SAKTI",
            "nama_se": "DJOIN KOPERASI DIGITAL, DJOIN LPD DIGITAL",
            "sektor": "Sektor Teknologi Informasi dan Komunikasi",
            "tanggal_terbit": "2022-08-03",
            "url_tdpse_detail": "https://pse.komdigi.go.id/tdpse-detail/9766",
            "website": "djoin.id"
        },
        {
            "id": "9cb1abd3-51a9-46e5-80b3-5e86cfafc253",
            "nama_pse": "PROLOV JUARA PROPERTI",
            "nama_se": "PROLOV",
            "sektor": "Sektor Perdagangan, Sektor Teknologi Informasi dan Komunikasi",
            "tanggal_terbit": "2022-08-03",
            "url_tdpse_detail": "https://pse.komdigi.go.id/tdpse-detail/9807",
            "website": "prolov.co.id"
        },
        {
            "id": "9cb1ac08-8ae0-4879-832d-057d82664d05",
            "nama_pse": "SOLUSI ANAK SAKTI",
            "nama_se": "DJOIN KOPERASI DIGITAL, DJOIN LPD DIGITAL COMPANY WEBSITE INFORMATION",
            "sektor": "Sektor Teknologi Informasi dan Komunikasi",
            "tanggal_terbit": "2022-08-03",
            "url_tdpse_detail": "https://pse.komdigi.go.id/tdpse-detail/9767",
            "website": "djoin.id"
        },
        {
            "id": "9cb1ac08-8e44-4a5a-96be-e58aaaf49365",
            "nama_pse": "MEDIANTO JAELANI",
            "nama_se": "OUR WEDDING LINK",
            "sektor": "Sektor Teknologi Informasi dan Komunikasi",
            "tanggal_terbit": "2022-08-03",
            "url_tdpse_detail": "https://pse.komdigi.go.id/tdpse-detail/9768",
            "website": "our-wedding.link"
        },
        {
            "id": "9cb1abd3-63ef-4881-a7b7-543e2e96fbb1",
            "nama_pse": "BANK PERKREDITAN RAKYAT DANA TIRTARAYA",
            "nama_se": "PT. BPR DANA TIRTARAYA",
            "sektor": "Sektor Keuangan",
            "tanggal_terbit": "2022-08-03",
            "url_tdpse_detail": "https://pse.komdigi.go.id/tdpse-detail/9769",
            "website": "bprdanatirtaraya.cn"
        },
        {
            "id": "9cb1abd3-6731-4ff9-a5b4-02a63e5b8f51",
            "nama_pse": "BANK PERKREDITAN RAKYAT SARI DINARKENCANA",
            "nama_se": "WEBSITE PT.BPR SARI DINARKENCANA",
            "sektor": "Sektor Keuangan",
            "tanggal_terbit": "2022-08-03",
            "url_tdpse_detail": "https://pse.komdigi.go.id/tdpse-detail/9770",
            "website": "bprsdk.co.id"
        },
        {
            "id": "9cb1abd3-6b85-444a-9d63-3337caabebd6",
            "nama_pse": "MIDTOU ARYACOM FUTURES",
            "nama_se": "REGISTRASI ELEKTRONIK ONLINE",
            "sektor": "Sektor Perdagangan",
            "tanggal_terbit": "2022-08-03",
            "url_tdpse_detail": "https://pse.komdigi.go.id/tdpse-detail/9772",
            "website": "member.midtou.com"
        },
        {
            "id": "9cb1abfa-00e4-4334-8f8f-2cc6d8198ddc",
            "nama_pse": "BANK PEREKONOMIAN RAKYAT ARTHA PRIMA INTI",
            "nama_se": "SISTEM INFORMASI KOMPUTER AKUTANSI TERPADU",
            "sektor": "Sektor Keuangan",
            "tanggal_terbit": "2022-08-03",
            "url_tdpse_detail": "https://pse.komdigi.go.id/tdpse-detail/9773",
            "website": "-"
        },
        {
            "id": "9cb1ac08-9354-477f-afbd-9da906e70fdc",
            "nama_pse": "MITRA TEKNOLOGI HUSADA",
            "nama_se": "PRAKTEK",
            "sektor": "Sektor Kesehatan",
            "tanggal_terbit": "2022-08-03",
            "url_tdpse_detail": "https://pse.komdigi.go.id/tdpse-detail/9774",
            "website": "praktek.io"
        },
        {
            "id": "9cb1abd3-6efd-46ba-ab31-67946c54f547",
            "nama_pse": "ASEP ROHIMAT",
            "nama_se": "SUDAH TIDAK TERSEDIA",
            "sektor": "Sektor Teknologi Informasi dan Komunikasi",
            "tanggal_terbit": "2022-08-03",
            "url_tdpse_detail": "https://pse.komdigi.go.id/tdpse-detail/9775",
            "website": "-"
        },
        {
            "id": "9cb1abfa-03b1-4126-88d0-5dc764d84a5b",
            "nama_pse": "LOKO SISTEM TERINTEGRASI",
            "nama_se": "LOKO",
            "sektor": "Sektor Teknologi Informasi dan Komunikasi",
            "tanggal_terbit": "2022-08-03",
            "url_tdpse_detail": "https://pse.komdigi.go.id/tdpse-detail/9777",
            "website": "loko.co.id"
        },
        {
            "id": "9cb1abd3-73a8-4673-a926-7ba97668dcd1",
            "nama_pse": "ALDO APP",
            "nama_se": "AMELARIS",
            "sektor": "Sektor Teknologi Informasi dan Komunikasi",
            "tanggal_terbit": "2022-08-03",
            "url_tdpse_detail": "https://pse.komdigi.go.id/tdpse-detail/9776",
            "website": "Amelaris.com"
        },
        {
            "id": "9cb1abfa-06a1-4966-a98d-79c5f789d5dd",
            "nama_pse": "ASEP ROHIMAT",
            "nama_se": "TIDAK ADA LAGI",
            "sektor": "Sektor Teknologi Informasi dan Komunikasi",
            "tanggal_terbit": "2022-08-03",
            "url_tdpse_detail": "https://pse.komdigi.go.id/tdpse-detail/9779",
            "website": "-"
        },
        {
            "id": "9cb1abd3-7bff-4f36-9ab0-ee936574f316",
            "nama_pse": "BANK PERKREDITAN RAKYAT GUNUNG ARJUNA",
            "nama_se": "BPR GUNUNG ARJUNA",
            "sektor": "Sektor Keuangan, Sektor Teknologi Informasi dan Komunikasi",
            "tanggal_terbit": "2022-08-03",
            "url_tdpse_detail": "https://pse.komdigi.go.id/tdpse-detail/9780",
            "website": "bprgunungarjuna.com"
        },
        {
            "id": "9cb1ac08-99b2-4cf1-ad57-7215d3f0e0a1",
            "nama_pse": "TIGRIS NUSANTARA TEKNO",
            "nama_se": "FRDAY",
            "sektor": "Sektor Perdagangan",
            "tanggal_terbit": "2022-08-03",
            "url_tdpse_detail": "https://pse.komdigi.go.id/tdpse-detail/9782",
            "website": "frday.id"
        },
        {
            "id": "9cb1ac08-9dd5-43d4-a578-7ea8a897945b",
            "nama_pse": "SPENTERA EDUKASI INTERNASIONAL",
            "nama_se": "HACKTRACE",
            "sektor": "Sektor Teknologi Informasi dan Komunikasi",
            "tanggal_terbit": "2022-08-03",
            "url_tdpse_detail": "https://pse.komdigi.go.id/tdpse-detail/9783",
            "website": "hacktrace.id"
        },
        {
            "id": "9cb1ac08-a71f-46ed-8114-f70ad211b59c",
            "nama_pse": "PRASETIA DWIDHARMA",
            "nama_se": "PT PRASETIA DWIDHARMA",
            "sektor": "Sektor Perdagangan",
            "tanggal_terbit": "2022-08-03",
            "url_tdpse_detail": "https://pse.komdigi.go.id/tdpse-detail/9784",
            "website": "prasetia.co.id"
        },
        {
            "id": "9cb1abfa-09ca-4c23-a53f-698b27ba8f8a",
            "nama_pse": "GRAVITY GAME LINK",
            "nama_se": "LOST SAGA ORIGIN",
            "sektor": "Sektor Teknologi Informasi dan Komunikasi",
            "tanggal_terbit": "2022-08-03",
            "url_tdpse_detail": "https://pse.komdigi.go.id/tdpse-detail/9785",
            "website": "lostsaga.gnjoy.id"
        },
        {
            "id": "9cb1abd3-7fdd-4f61-8ba8-12d945c243ba",
            "nama_pse": "GRAVITY GAME LINK",
            "nama_se": "RAGNAROK RETRO",
            "sektor": "Sektor Teknologi Informasi dan Komunikasi",
            "tanggal_terbit": "2022-08-03",
            "url_tdpse_detail": "https://pse.komdigi.go.id/tdpse-detail/9787",
            "website": "roretro.gnjoy.id"
        },
        {
            "id": "9cb1ac08-b096-401b-8f1e-81059d6a22e6",
            "nama_pse": "GRAVITY GAME LINK",
            "nama_se": "RAGNAROK FOREVER LOVE",
            "sektor": "Sektor Teknologi Informasi dan Komunikasi",
            "tanggal_terbit": "2022-08-03",
            "url_tdpse_detail": "https://pse.komdigi.go.id/tdpse-detail/9788",
            "website": "ro.gnjoy.id"
        },
        {
            "id": "9cb1ac08-b454-49f9-995e-81ab8f1d9a0d",
            "nama_pse": "GRAVITY GAME LINK",
            "nama_se": "RAGNAROK LABYRINTH NFT",
            "sektor": "Sektor Teknologi Informasi dan Komunikasi",
            "tanggal_terbit": "2022-08-03",
            "url_tdpse_detail": "https://pse.komdigi.go.id/tdpse-detail/9789",
            "website": "labyrinthnft.gnjoy.id"
        }
    ],
    "processingTimeMs": 3,
    "query": "",
    "totalHits": 19121,
    "hitsPerPage": 50,
    "page": 208,
    "totalPages": 383
}