{
    "hits": [
        {
            "id": "9cb1abb6-034c-4c96-a0d0-b7cbf9e9db09",
            "nama_pse": "BANK PERKREDITAN RAKYAT DUTA BALI",
            "nama_se": "BPR DUTA BALI",
            "sektor": "Sektor Keuangan",
            "tanggal_terbit": "2022-07-19",
            "url_tdpse_detail": "https://pse.komdigi.go.id/tdpse-detail/6873",
            "website": "bprduta.com"
        },
        {
            "id": "9cb1abb6-07ea-4cf5-998d-d477a0fcb271",
            "nama_pse": "TRIYAKOM",
            "nama_se": "FUNKOREA",
            "sektor": "Sektor Teknologi Informasi dan Komunikasi",
            "tanggal_terbit": "2022-07-19",
            "url_tdpse_detail": "https://pse.komdigi.go.id/tdpse-detail/6874",
            "website": "funkorea.co.id"
        },
        {
            "id": "9cb1abb6-09c5-4c24-87ed-7e41042f0c3a",
            "nama_pse": "BANK PERKREDITAN RAKYAT MAS GIRI WANGI",
            "nama_se": "BANKING SMART SYSTEM (BSS)",
            "sektor": "Sektor Keuangan",
            "tanggal_terbit": "2022-07-19",
            "url_tdpse_detail": "https://pse.komdigi.go.id/tdpse-detail/6875",
            "website": "bankgiri.co.id"
        },
        {
            "id": "9cb1abb6-0b67-495a-98ae-7c51acbb18b2",
            "nama_pse": "BANK PEREKONOMIAN RAKYAT JERO ANOM",
            "nama_se": "GOBALI-IT",
            "sektor": "Sektor Keuangan",
            "tanggal_terbit": "2022-07-19",
            "url_tdpse_detail": "https://pse.komdigi.go.id/tdpse-detail/6876",
            "website": "-"
        },
        {
            "id": "9cb1abb6-0f85-4231-a3dc-293f31f04537",
            "nama_pse": "BANK PERKREDITAN RAKYAT SINAR PUTERAMAS",
            "nama_se": "DEJAYO",
            "sektor": "Sektor Keuangan",
            "tanggal_terbit": "2022-07-19",
            "url_tdpse_detail": "https://pse.komdigi.go.id/tdpse-detail/6878",
            "website": "-"
        },
        {
            "id": "9cb1abc1-222e-4113-9d1a-c10b5d844f36",
            "nama_pse": "BANK PERKREDITAN RAKYAT BADAN KREDIT KECAMATAN JAWA TENGAH PERSERODA",
            "nama_se": "WEBSITE PERUSAHAAN",
            "sektor": "Sektor Keuangan",
            "tanggal_terbit": "2022-07-19",
            "url_tdpse_detail": "https://pse.komdigi.go.id/tdpse-detail/6880",
            "website": "bkkjateng.co.id"
        },
        {
            "id": "9cb1abe5-f68e-4ff8-9d4c-72d269ac8d8a",
            "nama_pse": "INSPIRO MEGA IMPRESARIO",
            "nama_se": "JAKARTA MARATHON APP",
            "sektor": "Sektor Teknologi Informasi dan Komunikasi",
            "tanggal_terbit": "2022-07-19",
            "url_tdpse_detail": "https://pse.komdigi.go.id/tdpse-detail/6879",
            "website": "thejakartamarathon.com"
        },
        {
            "id": "9cb1abb6-12a0-48a6-8ab8-791cc10d32a1",
            "nama_pse": "BANK PEREKONOMIAN RAKYAT LESTARI BALI",
            "nama_se": "LOAN TRACKING",
            "sektor": "Sektor Keuangan",
            "tanggal_terbit": "2022-07-19",
            "url_tdpse_detail": "https://pse.komdigi.go.id/tdpse-detail/6881",
            "website": "loantracking.bprlestari.com"
        },
        {
            "id": "9cb1abc1-2550-41ef-9b24-c305a8ebbc59",
            "nama_pse": "TRIYAKOM",
            "nama_se": "LAYAR ANAK",
            "sektor": "Sektor Teknologi Informasi dan Komunikasi",
            "tanggal_terbit": "2022-07-19",
            "url_tdpse_detail": "https://pse.komdigi.go.id/tdpse-detail/6882",
            "website": "layaranak.com"
        },
        {
            "id": "9cb1abc1-2d3f-494d-93d2-89ed9eb3c87e",
            "nama_pse": "BANK PEREKONOMIAN RAKYAT LUHUR DAMAI",
            "nama_se": "PT BANK PERKREDITAN RAKYAT LUHUR DAMAI",
            "sektor": "Sektor Keuangan",
            "tanggal_terbit": "2022-07-19",
            "url_tdpse_detail": "https://pse.komdigi.go.id/tdpse-detail/6883",
            "website": "bprluhurdamai.com"
        },
        {
            "id": "9cb1abe5-faf7-418e-8409-8d657b8fee8d",
            "nama_pse": "ERATANI TEKNOLOGI NUSANTARA",
            "nama_se": "COMMAND CENTER ERATANI APPS",
            "sektor": "Sektor Pangan",
            "tanggal_terbit": "2022-07-19",
            "url_tdpse_detail": "https://pse.komdigi.go.id/tdpse-detail/6918",
            "website": "eratani.co.id"
        },
        {
            "id": "9cb1abb6-145c-492f-bf8e-84cb4fb82668",
            "nama_pse": "BANK PERKREDITAN RAKYAT DANA KARYA NUSA",
            "nama_se": "WEBSITE BPR DANA KARYA NUSA",
            "sektor": "Sektor Keuangan",
            "tanggal_terbit": "2022-07-19",
            "url_tdpse_detail": "https://pse.komdigi.go.id/tdpse-detail/6884",
            "website": "danakarya.com"
        },
        {
            "id": "9cb1abe6-0e57-4422-9015-9ac1430e3fa9",
            "nama_pse": "ASIA UTAMA KONSULTAN",
            "nama_se": "FAC VIRTUAL ASSESSMENT CENTER",
            "sektor": "Sektor Teknologi Informasi dan Komunikasi",
            "tanggal_terbit": "2022-07-19",
            "url_tdpse_detail": "https://pse.komdigi.go.id/tdpse-detail/6906",
            "website": "vast.firstasiaconsultants.id"
        },
        {
            "id": "9cb1abb6-1623-4843-aff5-8239589e4204",
            "nama_pse": "BANK PERKREDITAN RAKYAT MODERN EXPRESS NTT",
            "nama_se": "DIGITAL MODERN (DIGIMOD) E-LOAN CUSTOMER SERVICE BPR MODERN EXPRESS NTT",
            "sektor": "Sektor Keuangan",
            "tanggal_terbit": "2022-07-19",
            "url_tdpse_detail": "https://pse.komdigi.go.id/tdpse-detail/6885",
            "website": "kredit.bprmodernexpressntt.com"
        },
        {
            "id": "9cb1abe6-13e0-40cb-a094-fd0de68c429e",
            "nama_pse": "MOCIPAY DIGITAL INDONESIA",
            "nama_se": "MOCIPAY",
            "sektor": "Sektor Perdagangan",
            "tanggal_terbit": "2022-07-19",
            "url_tdpse_detail": "https://pse.komdigi.go.id/tdpse-detail/6886",
            "website": "mocipay.com"
        },
        {
            "id": "9cb1abc1-302c-4cb6-9e36-0a9f5b93507c",
            "nama_pse": "BANK PEREKONOMIAN RAKYAT CAHAYA ARTHABALI",
            "nama_se": "WWW.BPRCAHAYAARTHABALI.COM",
            "sektor": "Sektor Keuangan",
            "tanggal_terbit": "2022-07-19",
            "url_tdpse_detail": "https://pse.komdigi.go.id/tdpse-detail/6887",
            "website": "bprcahayaarthabali.com"
        },
        {
            "id": "9cb1abe6-177d-4799-bdd4-19b738120eaa",
            "nama_pse": "TRIYAKOM",
            "nama_se": "KUGO",
            "sektor": "Sektor Teknologi Informasi dan Komunikasi",
            "tanggal_terbit": "2022-07-19",
            "url_tdpse_detail": "https://pse.komdigi.go.id/tdpse-detail/6888",
            "website": "kugo.co.id"
        },
        {
            "id": "9cb1abb6-1873-4ac9-91d0-5c21d37f6127",
            "nama_pse": "BANK SYARIAH INDONESIA",
            "nama_se": "BANK SYARIAH INDONESIA CASH MANAGEMENT SYSTEM (BSI CMS)",
            "sektor": "Sektor Keuangan",
            "tanggal_terbit": "2022-07-19",
            "url_tdpse_detail": "https://pse.komdigi.go.id/tdpse-detail/6891",
            "website": "cms.bankbsi.co.id"
        },
        {
            "id": "9cb1abe6-1aab-4ccc-87f5-e9fe445cbb1e",
            "nama_pse": "BANK PERKREDITAN RAKYAT CATUR ARTHA JAYA",
            "nama_se": "PT. BPR CATUR ARTHA JAYA",
            "sektor": "Sektor Keuangan",
            "tanggal_terbit": "2022-07-19",
            "url_tdpse_detail": "https://pse.komdigi.go.id/tdpse-detail/6889",
            "website": "bprcaturartha.com"
        },
        {
            "id": "9cb1abb6-1a76-4fba-bd9a-8ee348c05e32",
            "nama_pse": "BANK CENTRAL ASIA",
            "nama_se": "ACS 3DS DEBIT",
            "sektor": "Sektor Keuangan",
            "tanggal_terbit": "2022-07-19",
            "url_tdpse_detail": "https://pse.komdigi.go.id/tdpse-detail/6912",
            "website": "3dsecuredebit.klikbca.com"
        },
        {
            "id": "9cb1abc1-32fe-48b8-9875-8ebf5af370b6",
            "nama_pse": "BANK PERKREDITAN RAKYAT SINAR KUTA MULIA",
            "nama_se": "CORE BANKING IT MULIA",
            "sektor": "Sektor Keuangan",
            "tanggal_terbit": "2022-07-19",
            "url_tdpse_detail": "https://pse.komdigi.go.id/tdpse-detail/6890",
            "website": "-"
        },
        {
            "id": "9cb1abe6-2ccd-4855-a460-424832e1cbd4",
            "nama_pse": "BANK PERKREDITAN RAKYAT TRIDARMA PUTRI",
            "nama_se": "DEJAYO",
            "sektor": "Sektor Keuangan",
            "tanggal_terbit": "2022-07-19",
            "url_tdpse_detail": "https://pse.komdigi.go.id/tdpse-detail/6893",
            "website": "-"
        },
        {
            "id": "9cb1abe6-3187-4d1c-9880-fb54c9a91392",
            "nama_pse": "BANK PEREKONOMIAN RAKYAT RESTU DEWATA",
            "nama_se": "PT BPR RESTU DEWATA",
            "sektor": "Sektor Keuangan",
            "tanggal_terbit": "2022-07-19",
            "url_tdpse_detail": "https://pse.komdigi.go.id/tdpse-detail/6896",
            "website": "restudewata.com"
        },
        {
            "id": "9cb1abe6-3b14-4379-84f0-07eaa4f3753f",
            "nama_pse": "BIMASAKTI MULTI SINERGI",
            "nama_se": "BOJONEGOROPAY",
            "sektor": "Sektor Perdagangan, Sektor Keuangan",
            "tanggal_terbit": "2022-07-19",
            "url_tdpse_detail": "https://pse.komdigi.go.id/tdpse-detail/6892",
            "website": "-"
        },
        {
            "id": "9cb1abe6-4203-46c6-ae7f-b3c490c6a28d",
            "nama_pse": "ASURANSI JIWA RELIANCEINDONESIA",
            "nama_se": "RELIANCE-LIFE.COM",
            "sektor": "Sektor Keuangan",
            "tanggal_terbit": "2022-07-19",
            "url_tdpse_detail": "https://pse.komdigi.go.id/tdpse-detail/6894",
            "website": "reliance-life.com"
        },
        {
            "id": "9cb1abc1-35d1-4c04-b3f3-2b4743267909",
            "nama_pse": "BANK PEREKONOMIAN RAKYAT LESTARI BALI",
            "nama_se": "LOS (LOAN ORIGINATION SYSTEM)",
            "sektor": "Sektor Keuangan",
            "tanggal_terbit": "2022-07-19",
            "url_tdpse_detail": "https://pse.komdigi.go.id/tdpse-detail/6895",
            "website": "eform.bprlestari.com"
        },
        {
            "id": "9cb1abe6-4774-4dce-b628-59796e8aff24",
            "nama_pse": "BANK PERKREDITAN RAKYAT KUSUMA MANDALA",
            "nama_se": "BANKING SMART SYSTEM (BSS)",
            "sektor": "Sektor Keuangan",
            "tanggal_terbit": "2022-07-19",
            "url_tdpse_detail": "https://pse.komdigi.go.id/tdpse-detail/6898",
            "website": "bprkusumamandala.com"
        },
        {
            "id": "9cb1abe6-4b83-4bfd-8494-8264e4bb324f",
            "nama_pse": "BANK PEREKONOMIAN RAKYAT TATAARTA SWADAYA",
            "nama_se": "PT BPR TATAARTA SWADAYA",
            "sektor": "Sektor Keuangan",
            "tanggal_terbit": "2022-07-19",
            "url_tdpse_detail": "https://pse.komdigi.go.id/tdpse-detail/6897",
            "website": "tataartaswadaya.co.id"
        },
        {
            "id": "9cb1abe6-509d-410e-9760-44ef34168750",
            "nama_pse": "MENARA ASTRA",
            "nama_se": "MY ASTRAPROPERTY",
            "sektor": "Sektor Perdagangan",
            "tanggal_terbit": "2022-07-19",
            "url_tdpse_detail": "https://pse.komdigi.go.id/tdpse-detail/6899",
            "website": "admin.astraproperty.co.id"
        },
        {
            "id": "9cb1abb6-1c6c-4ae8-800d-dc459f303ad6",
            "nama_pse": "BANK PERKREDITAN RAKYAT LUHUR LANGGENG UTAMA",
            "nama_se": "PT. BPR LUHUR LANGGENG UTAMA",
            "sektor": "Sektor Perdagangan",
            "tanggal_terbit": "2022-07-19",
            "url_tdpse_detail": "https://pse.komdigi.go.id/tdpse-detail/6947",
            "website": "bprluhurlanggengutama.com"
        },
        {
            "id": "9cb1abb6-1e51-4c19-933e-843dcea867f7",
            "nama_pse": "JODDIN",
            "nama_se": "GOLDEN TOP - PULSA MURAH",
            "sektor": "Sektor Perdagangan",
            "tanggal_terbit": "2022-07-19",
            "url_tdpse_detail": "https://pse.komdigi.go.id/tdpse-detail/6900",
            "website": "tonpay.bukaolshop.site"
        },
        {
            "id": "9cb1abb6-2025-496f-8f67-3f25043df0bf",
            "nama_pse": "ASIA UTAMA KONSULTAN",
            "nama_se": "FAC WEBSITE",
            "sektor": "Sektor Perdagangan, Sektor Teknologi Informasi dan Komunikasi",
            "tanggal_terbit": "2022-07-19",
            "url_tdpse_detail": "https://pse.komdigi.go.id/tdpse-detail/6940",
            "website": "firstasiaconsultants.com"
        },
        {
            "id": "9cb1abc1-3bae-45c2-893c-a81686c807a2",
            "nama_pse": "GUARDI INDONESIA RAYA",
            "nama_se": "KLUBSEHAT.COM",
            "sektor": "Sektor Perdagangan, Sektor Kesehatan",
            "tanggal_terbit": "2022-07-19",
            "url_tdpse_detail": "https://pse.komdigi.go.id/tdpse-detail/6904",
            "website": "klubsehat.com"
        },
        {
            "id": "9cb1abe6-556f-4bb5-bc6f-4695ece5d228",
            "nama_pse": "ANADANA GLOBAL MULTIFINANCE",
            "nama_se": "MULTIFINANCE.ANADANA.COM",
            "sektor": "Sektor Keuangan",
            "tanggal_terbit": "2022-07-19",
            "url_tdpse_detail": "https://pse.komdigi.go.id/tdpse-detail/6902",
            "website": "NS21.Domaincontrol.com"
        },
        {
            "id": "9cb1abc1-3ed4-4d4b-804b-8717bca507ae",
            "nama_pse": "MEMBERI BERKAT INDONESIA",
            "nama_se": "MEMBRAN",
            "sektor": "Sektor Perdagangan",
            "tanggal_terbit": "2022-07-19",
            "url_tdpse_detail": "https://pse.komdigi.go.id/tdpse-detail/6901",
            "website": "membran.membercard.id"
        },
        {
            "id": "9cb1abe6-59a6-44c5-bd54-e87c961f873e",
            "nama_pse": "ANDI PURNOMO",
            "nama_se": "ZIFAPAY.COM",
            "sektor": "Sektor Perdagangan",
            "tanggal_terbit": "2022-07-19",
            "url_tdpse_detail": "https://pse.komdigi.go.id/tdpse-detail/6903",
            "website": "zifapay.com"
        },
        {
            "id": "9cb1abc1-4c36-49db-8497-4ab4add4badc",
            "nama_pse": "GAMELOFT INDONESIA",
            "nama_se": "GAMELOFT-SEA.COM",
            "sektor": "Sektor Teknologi Informasi dan Komunikasi",
            "tanggal_terbit": "2022-07-19",
            "url_tdpse_detail": "https://pse.komdigi.go.id/tdpse-detail/6905",
            "website": "gameloft-sea.com"
        },
        {
            "id": "9cb1abb6-21f6-44c7-85a5-7ddd3cdef781",
            "nama_pse": "APLIKASI KARYA ANAK MILENIAL",
            "nama_se": "REBORN INDONESIA",
            "sektor": "Sektor Teknologi Informasi dan Komunikasi",
            "tanggal_terbit": "2022-07-19",
            "url_tdpse_detail": "https://pse.komdigi.go.id/tdpse-detail/6907",
            "website": "reborn.id"
        },
        {
            "id": "9cb1abe6-5d46-48b9-9b9d-a4b824c0746f",
            "nama_pse": "FISABIL MAHARDIKA PUTRA",
            "nama_se": "MASTERCASH COLLECTION",
            "sektor": "Sektor Perdagangan",
            "tanggal_terbit": "2022-07-19",
            "url_tdpse_detail": "https://pse.komdigi.go.id/tdpse-detail/7171",
            "website": "-"
        },
        {
            "id": "9cb1abb6-245e-4bb8-be00-51afc2458a88",
            "nama_pse": "BANK PERKREDITAN RAKYAT KUSUMA MANDALA",
            "nama_se": "PT BPR KUSUMA MANDALA",
            "sektor": "Sektor Keuangan",
            "tanggal_terbit": "2022-07-19",
            "url_tdpse_detail": "https://pse.komdigi.go.id/tdpse-detail/6952",
            "website": "bprkusumamandala.com"
        },
        {
            "id": "9cb1abb6-2646-4823-8e2c-0626706663d3",
            "nama_pse": "BANK PERKREDITAN RAKYAT DHARMA INDRA",
            "nama_se": "BPR DHARMA INDRA",
            "sektor": "Sektor Keuangan",
            "tanggal_terbit": "2022-07-19",
            "url_tdpse_detail": "https://pse.komdigi.go.id/tdpse-detail/6914",
            "website": "bpr-dharmaindra.com"
        },
        {
            "id": "9cb1abe6-61cd-46cc-9ca4-f6cbdb243a53",
            "nama_pse": "PERUSAHAAN LISTRIK NEGARA (PERSERO)",
            "nama_se": "PLN MOBILE",
            "sektor": "Sektor Energi dan Sumber Daya Mineral",
            "tanggal_terbit": "2022-07-19",
            "url_tdpse_detail": "https://pse.komdigi.go.id/tdpse-detail/6915",
            "website": "-"
        },
        {
            "id": "9cb1abc1-4f37-4ae2-b3dc-af6eb89194fd",
            "nama_pse": "BANK PERKREDITAN RAKYAT RESTUDHANA CITRASEJAHTERA",
            "nama_se": "MULTIKU",
            "sektor": "Sektor Keuangan",
            "tanggal_terbit": "2022-07-19",
            "url_tdpse_detail": "https://pse.komdigi.go.id/tdpse-detail/6920",
            "website": "-"
        },
        {
            "id": "9cb1abe6-65a9-481b-ab67-3a5f9fb88839",
            "nama_pse": "RADYA ANUGRAH DIGITAL",
            "nama_se": "RADYA DIGITAL",
            "sektor": "Sektor Teknologi Informasi dan Komunikasi",
            "tanggal_terbit": "2022-07-19",
            "url_tdpse_detail": "https://pse.komdigi.go.id/tdpse-detail/6913",
            "website": "radyadigital.com"
        },
        {
            "id": "9cb1abb6-27eb-4bfd-9be5-b9f5f58d736a",
            "nama_pse": "BOBOBOBO",
            "nama_se": "SHOPIFY",
            "sektor": "Sektor Perdagangan",
            "tanggal_terbit": "2022-07-19",
            "url_tdpse_detail": "https://pse.komdigi.go.id/tdpse-detail/6916",
            "website": "bobobobo.com"
        },
        {
            "id": "9cb1abc1-5274-446e-bd2d-335c8d709a15",
            "nama_pse": "BANK PEMBANGUNAN DAERAH BALI",
            "nama_se": "WEBSITE BANK BPD BALI",
            "sektor": "Sektor Keuangan",
            "tanggal_terbit": "2022-07-19",
            "url_tdpse_detail": "https://pse.komdigi.go.id/tdpse-detail/6917",
            "website": "bpdbali.co.id"
        },
        {
            "id": "9cb1abc1-5526-4719-a4c1-bf9df567b163",
            "nama_pse": "BANK PERKREDITAN RAKYAT LESCA DANA JAKARTA",
            "nama_se": "LESCADANA",
            "sektor": "Sektor Keuangan",
            "tanggal_terbit": "2022-07-19",
            "url_tdpse_detail": "https://pse.komdigi.go.id/tdpse-detail/6919",
            "website": "banklescadana.co.id"
        },
        {
            "id": "9cb1abb6-29ab-4a2b-9399-0c5463fe0f19",
            "nama_pse": "SINERGI KINAN MEDIKA",
            "nama_se": "WEBSITE MYLAB INDONESIA",
            "sektor": "Sektor Kesehatan",
            "tanggal_terbit": "2022-07-19",
            "url_tdpse_detail": "https://pse.komdigi.go.id/tdpse-detail/6921",
            "website": "mylab.co.id"
        },
        {
            "id": "9cb1abc1-57b2-41e4-8994-f4e222c0b862",
            "nama_pse": "AYOMOBILE MEDIA INTERNATIONAL",
            "nama_se": "AYOSMS",
            "sektor": "Sektor Teknologi Informasi dan Komunikasi",
            "tanggal_terbit": "2022-07-19",
            "url_tdpse_detail": "https://pse.komdigi.go.id/tdpse-detail/6922",
            "website": "ayosms.com"
        },
        {
            "id": "9cb1abb6-2b4f-489e-bb30-d83d26d4b0d2",
            "nama_pse": "BPR BAHTERA ARTHA JAYA",
            "nama_se": "SUPER SAVING CORE BANKING SYSTEM",
            "sektor": "Sektor Keuangan",
            "tanggal_terbit": "2022-07-19",
            "url_tdpse_detail": "https://pse.komdigi.go.id/tdpse-detail/6923",
            "website": "-"
        }
    ],
    "processingTimeMs": 5,
    "query": "",
    "totalHits": 19131,
    "hitsPerPage": 50,
    "page": 259,
    "totalPages": 383
}