{
    "hits": [
        {
            "id": "9cb1abab-5c60-418f-b517-e34bf076541b",
            "nama_pse": "MUHAMMAD ANDRA MAULANA",
            "nama_se": "SAATNYAONLINE.COM",
            "sektor": "Sektor Teknologi Informasi dan Komunikasi",
            "tanggal_terbit": "2022-04-19",
            "url_tdpse_detail": "https://pse.komdigi.go.id/tdpse-detail/3926",
            "website": "saatnyaonline.com"
        },
        {
            "id": "9cb1aba0-f614-4728-aee5-ecab998d3017",
            "nama_pse": "KREASI DIGITAL PERKASA",
            "nama_se": "IKREASI",
            "sektor": "Sektor Teknologi Informasi dan Komunikasi",
            "tanggal_terbit": "2022-04-19",
            "url_tdpse_detail": "https://pse.komdigi.go.id/tdpse-detail/3937",
            "website": "ikreasi.com"
        },
        {
            "id": "9cb1ab94-ac36-4e7c-b16e-8128cc8f95e5",
            "nama_pse": "MEKARI IDENTITAS DIGITAL",
            "nama_se": "MEKARI ESIGN",
            "sektor": "Sektor Teknologi Informasi dan Komunikasi",
            "tanggal_terbit": "2022-04-19",
            "url_tdpse_detail": "https://pse.komdigi.go.id/tdpse-detail/3925",
            "website": "esign.mekari.com"
        },
        {
            "id": "9cb1ab94-b21a-48a0-82d9-05e9e892fd54",
            "nama_pse": "AGRO HARAPAN MANDIRI",
            "nama_se": "SIDEPE",
            "sektor": "Sektor Teknologi Informasi dan Komunikasi",
            "tanggal_terbit": "2022-04-19",
            "url_tdpse_detail": "https://pse.komdigi.go.id/tdpse-detail/3916",
            "website": "sidepe.com"
        },
        {
            "id": "9cb1abab-8b14-4a4c-a277-8674975a0992",
            "nama_pse": "AGRO HARAPAN MANDIRI",
            "nama_se": "MAKASSARDAILY",
            "sektor": "Sektor Teknologi Informasi dan Komunikasi",
            "tanggal_terbit": "2022-04-19",
            "url_tdpse_detail": "https://pse.komdigi.go.id/tdpse-detail/3917",
            "website": "makassardaily.com"
        },
        {
            "id": "9cb1ab94-d017-4c8f-8dea-4594bceda11f",
            "nama_pse": "ZURICH ASURANSI INDONESIA",
            "nama_se": "MYLIFE APP",
            "sektor": "Sektor Keuangan, Sektor Teknologi Informasi dan Komunikasi",
            "tanggal_terbit": "2022-04-19",
            "url_tdpse_detail": "https://pse.komdigi.go.id/tdpse-detail/3936",
            "website": "-"
        },
        {
            "id": "9cb1abab-ba0c-449f-95ba-385745089155",
            "nama_pse": "PERUSAHAAN PERSEROAN (PERSERO) PT. BANK RAKYAT INDONESIA",
            "nama_se": "BRIEFX CLIENT",
            "sektor": "Sektor Keuangan",
            "tanggal_terbit": "2022-04-19",
            "url_tdpse_detail": "https://pse.komdigi.go.id/tdpse-detail/6447",
            "website": "briefx.bri.co.id"
        },
        {
            "id": "9cb1aba1-2011-4f53-aea7-89d9c540976f",
            "nama_pse": "PERUSAHAAN PERSEROAN (PERSERO) PT PERTAMINA",
            "nama_se": "GEP SMART",
            "sektor": "Sektor Energi dan Sumber Daya Mineral",
            "tanggal_terbit": "2022-04-19",
            "url_tdpse_detail": "https://pse.komdigi.go.id/tdpse-detail/3919",
            "website": "smart.gep.com/pertamina"
        },
        {
            "id": "9cb1aba1-22ac-4447-b71a-dc47690afd47",
            "nama_pse": "PERUSAHAAN PERSEROAN (PERSERO) PT PERTAMINA",
            "nama_se": "PORTAL PERTAMINA",
            "sektor": "Sektor Energi dan Sumber Daya Mineral",
            "tanggal_terbit": "2022-04-19",
            "url_tdpse_detail": "https://pse.komdigi.go.id/tdpse-detail/3920",
            "website": "pertamina.com"
        },
        {
            "id": "9cb1aba1-2e9f-41d0-b1f5-52e39833658f",
            "nama_pse": "BUANA FINANCE",
            "nama_se": "WEBSITE PT. BUANA FINANCE TBK.",
            "sektor": "Sektor Keuangan",
            "tanggal_terbit": "2022-04-19",
            "url_tdpse_detail": "https://pse.komdigi.go.id/tdpse-detail/3924",
            "website": "buanafinance.co.id"
        },
        {
            "id": "9cb1ab94-dd80-4492-aaf0-bb625f901137",
            "nama_pse": "HONG RUI",
            "nama_se": "HTTPS://BINGHAN.ID",
            "sektor": "Sektor Perdagangan",
            "tanggal_terbit": "2022-04-19",
            "url_tdpse_detail": "https://pse.komdigi.go.id/tdpse-detail/3922",
            "website": "binghan.id"
        },
        {
            "id": "9cb1aba1-3dba-4133-a2e3-c3726b964e17",
            "nama_pse": "TELEVISI TRANSFORMASI INDONESIA",
            "nama_se": "INSERTLIVE.COM",
            "sektor": "Sektor Teknologi Informasi dan Komunikasi",
            "tanggal_terbit": "2022-04-19",
            "url_tdpse_detail": "https://pse.komdigi.go.id/tdpse-detail/3932",
            "website": "insertlive.com"
        },
        {
            "id": "9cb1abab-d8b3-4425-bdca-4ea2a107356d",
            "nama_pse": "KLIK VISI INDONESIA",
            "nama_se": "KLIKBARANG.ID",
            "sektor": "Sektor Perdagangan",
            "tanggal_terbit": "2022-04-19",
            "url_tdpse_detail": "https://pse.komdigi.go.id/tdpse-detail/3928",
            "website": "Klikbarang.id"
        },
        {
            "id": "9cb1abab-e848-4fc2-b63c-07d1280a648d",
            "nama_pse": "TAYA BERKAT UTAMA",
            "nama_se": "BAYARPLUS",
            "sektor": "Sektor Keuangan",
            "tanggal_terbit": "2022-04-19",
            "url_tdpse_detail": "https://pse.komdigi.go.id/tdpse-detail/3929",
            "website": "bayarplus.com"
        },
        {
            "id": "9cb1aba1-4bf8-4c99-ac36-5dcb1d94dd78",
            "nama_pse": "BIENSI FESYENINDO",
            "nama_se": "3SECOND ORIGINAL OFFICIAL WEBSITE",
            "sektor": "Sektor Perdagangan",
            "tanggal_terbit": "2022-04-19",
            "url_tdpse_detail": "https://pse.komdigi.go.id/tdpse-detail/3931",
            "website": "3second.co.id"
        },
        {
            "id": "9cb1ab93-b970-438e-9f23-db581f7bb670",
            "nama_pse": "MITRA SEMERU INDONESIA",
            "nama_se": "MENARINI STORE",
            "sektor": "Sektor Perdagangan",
            "tanggal_terbit": "2022-04-18",
            "url_tdpse_detail": "https://pse.komdigi.go.id/tdpse-detail/3904",
            "website": "menarinistore.id"
        },
        {
            "id": "9cb1abaa-fe70-4ded-841e-78456c57992d",
            "nama_pse": "SEJUTA KAWAN SEHAT",
            "nama_se": "SIRKA",
            "sektor": "Sektor Kesehatan",
            "tanggal_terbit": "2022-04-18",
            "url_tdpse_detail": "https://pse.komdigi.go.id/tdpse-detail/3895",
            "website": "sirka.io"
        },
        {
            "id": "9cb1abab-0958-4195-b6d6-b01abe408f3b",
            "nama_pse": "GRIYA DANAKU DIGITAL INVESTAMA",
            "nama_se": "PRAMDANA.CO.ID",
            "sektor": "Sektor Keuangan",
            "tanggal_terbit": "2022-04-18",
            "url_tdpse_detail": "https://pse.komdigi.go.id/tdpse-detail/3891",
            "website": "pramdana.co.id"
        },
        {
            "id": "9cb1abab-2da1-4aa4-ae4e-d452aa67b701",
            "nama_pse": "HEURISTIX DIGITAL TECHNOLOGIES",
            "nama_se": "DISPRZ",
            "sektor": "Sektor Teknologi Informasi dan Komunikasi",
            "tanggal_terbit": "2022-04-18",
            "url_tdpse_detail": "https://pse.komdigi.go.id/tdpse-detail/3892",
            "website": "disprz.com"
        },
        {
            "id": "9cb1ab94-7f63-4ccf-b7d7-3e704f05b16a",
            "nama_pse": "WAHYU YOGA TAMA",
            "nama_se": "SOLUTAMA SINERGI DATA",
            "sektor": "Sektor Teknologi Informasi dan Komunikasi",
            "tanggal_terbit": "2022-04-18",
            "url_tdpse_detail": "https://pse.komdigi.go.id/tdpse-detail/3908",
            "website": "thama.co.id"
        },
        {
            "id": "9cb1abab-6e23-4257-bd12-09a949e054d0",
            "nama_pse": "BANYUASIN MEDIA NETWORK",
            "nama_se": "WWW.LENSASUMATERA.COM",
            "sektor": "Sektor Teknologi Informasi dan Komunikasi",
            "tanggal_terbit": "2022-04-18",
            "url_tdpse_detail": "https://pse.komdigi.go.id/tdpse-detail/3893",
            "website": "lensasumatera.com"
        },
        {
            "id": "9cb1abab-c11b-42b1-8cda-f39e56d173c6",
            "nama_pse": "DECATHLON SPORTS INDONESIA",
            "nama_se": "DECATHLON INDONESIA",
            "sektor": "Sektor Perdagangan",
            "tanggal_terbit": "2022-04-18",
            "url_tdpse_detail": "https://pse.komdigi.go.id/tdpse-detail/3896",
            "website": "decathlon.co.id"
        },
        {
            "id": "9cb1ab94-e6a9-4834-81b7-cfa94441dabc",
            "nama_pse": "NAMA CANTIK ABADI",
            "nama_se": "NAMA BEAUTY",
            "sektor": "Sektor Perdagangan",
            "tanggal_terbit": "2022-04-18",
            "url_tdpse_detail": "https://pse.komdigi.go.id/tdpse-detail/3902",
            "website": "namabeauty.co"
        },
        {
            "id": "9cb1aba1-505c-4927-b9ee-a92253b5530c",
            "nama_pse": "NONGHYUP KORINDO SEKURITAS INDONESIA",
            "nama_se": "OPENACCOUNT WEB APP",
            "sektor": "Sektor Perdagangan, Sektor Keuangan",
            "tanggal_terbit": "2022-04-18",
            "url_tdpse_detail": "https://pse.komdigi.go.id/tdpse-detail/3905",
            "website": "openaccount.nhsec.co.id"
        },
        {
            "id": "9cb1abab-f7fb-4355-bc3e-4e2ae58f83d8",
            "nama_pse": "NONGHYUP KORINDO SEKURITAS INDONESIA",
            "nama_se": "NAIK",
            "sektor": "Sektor Perdagangan, Sektor Keuangan",
            "tanggal_terbit": "2022-04-18",
            "url_tdpse_detail": "https://pse.komdigi.go.id/tdpse-detail/3906",
            "website": "-"
        },
        {
            "id": "9cb1abab-f9f6-4808-a43a-2dc001458f60",
            "nama_pse": "DURASKIN SEJAHTERA INDONESIA",
            "nama_se": "HTTPS://DURASKINCENTRE.COM/",
            "sektor": "Sektor Perdagangan",
            "tanggal_terbit": "2022-04-18",
            "url_tdpse_detail": "https://pse.komdigi.go.id/tdpse-detail/3897",
            "website": "duraskincentre.com"
        },
        {
            "id": "9cb1ab98-192e-4ffb-81b5-dd12bae92ef1",
            "nama_pse": "PERURI DIGITAL SECURITY",
            "nama_se": "PERURI DIGITAL",
            "sektor": "Sektor Teknologi Informasi dan Komunikasi",
            "tanggal_terbit": "2022-04-18",
            "url_tdpse_detail": "https://pse.komdigi.go.id/tdpse-detail/4596",
            "website": "-"
        },
        {
            "id": "9cb1abab-0e5b-4362-a74c-457442b734b1",
            "nama_pse": "R. ALEXANDRY SURYA W.",
            "nama_se": "B-LANJA",
            "sektor": "Sektor Perdagangan, Sektor Transportasi, Sektor Kesehatan, Sektor Teknologi Informasi dan Komunikasi, Sektor Pangan",
            "tanggal_terbit": "2022-04-17",
            "url_tdpse_detail": "https://pse.komdigi.go.id/tdpse-detail/3889",
            "website": "b-lanja.co.id"
        },
        {
            "id": "9cb1aba0-637b-4cf6-930b-92ce87dd4f91",
            "nama_pse": "YANG MUDA KAYA",
            "nama_se": "PT YANG MUDA KAYA",
            "sektor": "Sektor Perdagangan, Sektor Teknologi Informasi dan Komunikasi",
            "tanggal_terbit": "2022-04-17",
            "url_tdpse_detail": "https://pse.komdigi.go.id/tdpse-detail/3888",
            "website": "finplan.id"
        },
        {
            "id": "9cb1abab-2aef-43ac-89db-536472a09834",
            "nama_pse": "LUKMANUL HAKIM",
            "nama_se": "JAVATECH MEDIA SOLUSINDO",
            "sektor": "Sektor Perdagangan, Sektor Teknologi Informasi dan Komunikasi",
            "tanggal_terbit": "2022-04-17",
            "url_tdpse_detail": "https://pse.komdigi.go.id/tdpse-detail/3887",
            "website": "javatrade.biz"
        },
        {
            "id": "9cb1abab-37ac-4a81-a12b-8dbdab6613cb",
            "nama_pse": "RAHMAN MULTIGUNA PERKASA",
            "nama_se": "CV. RAHMAN MULTIGUNA PERKASA",
            "sektor": "Sektor Perdagangan",
            "tanggal_terbit": "2022-04-17",
            "url_tdpse_detail": "https://pse.komdigi.go.id/tdpse-detail/3886",
            "website": "-"
        },
        {
            "id": "9cb1aba0-f1b9-4149-8b3d-bf60aa5ec616",
            "nama_pse": "MOCHAMAD IWAN SETIYAWAN",
            "nama_se": "VENTA COMPUTINDO",
            "sektor": "Sektor Perdagangan, Sektor Teknologi Informasi dan Komunikasi",
            "tanggal_terbit": "2022-04-17",
            "url_tdpse_detail": "https://pse.komdigi.go.id/tdpse-detail/3890",
            "website": "-"
        },
        {
            "id": "9cb1aba1-4044-4302-81d0-edc2e718d6ac",
            "nama_pse": "HULUBALANG",
            "nama_se": "CV. HULUBALANG",
            "sektor": "Sektor Perdagangan, Sektor Pangan",
            "tanggal_terbit": "2022-04-17",
            "url_tdpse_detail": "https://pse.komdigi.go.id/tdpse-detail/3885",
            "website": "-"
        },
        {
            "id": "9cb1ab94-5480-45f3-a51a-a03cec956c21",
            "nama_pse": "RAJA TANA LUWU",
            "nama_se": "KARTA MEDIA",
            "sektor": "Sektor Teknologi Informasi dan Komunikasi",
            "tanggal_terbit": "2022-04-16",
            "url_tdpse_detail": "https://pse.komdigi.go.id/tdpse-detail/3881",
            "website": "kartamedia.com"
        },
        {
            "id": "9cb1aba0-d50a-46e4-9b28-6206a99633b5",
            "nama_pse": "TIFA MOBILE INDONESIA",
            "nama_se": "TIFA MOBILE",
            "sektor": "Sektor Perdagangan",
            "tanggal_terbit": "2022-04-16",
            "url_tdpse_detail": "https://pse.komdigi.go.id/tdpse-detail/3878",
            "website": "tifamobile.com"
        },
        {
            "id": "9cb1aba0-d71d-471d-b2a9-b9d38768ba6d",
            "nama_pse": "ESSKA WIDYATAMA SEDAYA",
            "nama_se": "AFEERAH STORE",
            "sektor": "Sektor Perdagangan",
            "tanggal_terbit": "2022-04-16",
            "url_tdpse_detail": "https://pse.komdigi.go.id/tdpse-detail/3882",
            "website": "afeerahstore.com"
        },
        {
            "id": "9cb1abab-621a-45e5-8bef-0d8208af19af",
            "nama_pse": "BUM DESA MERA SARI MAKMUR",
            "nama_se": "AFEERAH OFFICIAL STORE",
            "sektor": "Sektor Perdagangan",
            "tanggal_terbit": "2022-04-16",
            "url_tdpse_detail": "https://pse.komdigi.go.id/tdpse-detail/3879",
            "website": "afeerahstore.com"
        },
        {
            "id": "9cb1ab94-960e-4528-b95f-95578173f0d2",
            "nama_pse": "BANYUASIN MEDIA NETWORK",
            "nama_se": "BMNETWORK",
            "sektor": "Sektor Teknologi Informasi dan Komunikasi",
            "tanggal_terbit": "2022-04-16",
            "url_tdpse_detail": "https://pse.komdigi.go.id/tdpse-detail/3883",
            "website": "bmnetwork.co.id"
        },
        {
            "id": "9cb1ab94-987c-4eb8-94d4-444415d231e3",
            "nama_pse": "BANYUASIN MEDIA NETWORK",
            "nama_se": "WEB DEVELOPER \u0026 CONTENT MANAGEMENT SYSTEM",
            "sektor": "Sektor Teknologi Informasi dan Komunikasi",
            "tanggal_terbit": "2022-04-16",
            "url_tdpse_detail": "https://pse.komdigi.go.id/tdpse-detail/3884",
            "website": "bmnetwork.co.id"
        },
        {
            "id": "9cb1aba0-e8da-4671-a0e7-e6bca3f65b16",
            "nama_pse": "RISAMBESSY KONSULTINDO MANDIRI",
            "nama_se": "JORANVEST",
            "sektor": "Sektor Perdagangan",
            "tanggal_terbit": "2022-04-16",
            "url_tdpse_detail": "https://pse.komdigi.go.id/tdpse-detail/3880",
            "website": "joranvest.com"
        },
        {
            "id": "9cb1aba0-a22f-4eed-a4e5-84d80c1b151d",
            "nama_pse": "ZAFIYYA UTAMA INDONESIA",
            "nama_se": "ZAFIYYA",
            "sektor": "Sektor Perdagangan, Sektor Kesehatan, Sektor Pangan, Sektor Pertahanan dan Keamanan",
            "tanggal_terbit": "2022-04-15",
            "url_tdpse_detail": "https://pse.komdigi.go.id/tdpse-detail/3877",
            "website": "tokodaring.lkpp.go.id"
        },
        {
            "id": "9cb1abab-793a-4718-af47-159af649b3ed",
            "nama_pse": "MOASIS ANTONIO",
            "nama_se": "PARLIN SOLUTIONS",
            "sektor": "Sektor Perdagangan, Sektor Teknologi Informasi dan Komunikasi",
            "tanggal_terbit": "2022-04-15",
            "url_tdpse_detail": "https://pse.komdigi.go.id/tdpse-detail/3876",
            "website": "-"
        },
        {
            "id": "9cb1aba0-50c0-474f-a37e-1825726e68db",
            "nama_pse": "BRICK TEKNOLOGI INDONESIA",
            "nama_se": "BOIVA",
            "sektor": "Sektor Keuangan",
            "tanggal_terbit": "2022-04-14",
            "url_tdpse_detail": "https://pse.komdigi.go.id/tdpse-detail/3874",
            "website": "boiva.id"
        },
        {
            "id": "9cb1ab94-2ece-4cff-a14d-5718b233ecb7",
            "nama_pse": "KINI TEKNOLOGI INDONESIA",
            "nama_se": "KINI",
            "sektor": "Sektor Teknologi Informasi dan Komunikasi",
            "tanggal_terbit": "2022-04-14",
            "url_tdpse_detail": "https://pse.komdigi.go.id/tdpse-detail/3870",
            "website": "kini.id"
        },
        {
            "id": "9cb1aba0-de46-43f8-b629-869c33f66003",
            "nama_pse": "WEB SUPER LITE",
            "nama_se": "AUTHENTIC CODE , APLIKASI WEBSITE \u0026 PERCETAKAN",
            "sektor": "Sektor Perdagangan, Sektor Teknologi Informasi dan Komunikasi",
            "tanggal_terbit": "2022-04-14",
            "url_tdpse_detail": "https://pse.komdigi.go.id/tdpse-detail/3872",
            "website": "websuperlite.co.id"
        },
        {
            "id": "9cb1abab-4fd2-436a-91ec-0492494721c4",
            "nama_pse": "SHANKA MANDALA GEMILANG",
            "nama_se": "ELZIVA (ELZIVANETWORK.CO.ID)",
            "sektor": "Sektor Perdagangan",
            "tanggal_terbit": "2022-04-14",
            "url_tdpse_detail": "https://pse.komdigi.go.id/tdpse-detail/3875",
            "website": "elzivanetwork.co.id"
        },
        {
            "id": "9cb1aba0-fc4c-4cb6-9c67-6cba61fcab29",
            "nama_pse": "CYBERINDO ADITAMA",
            "nama_se": "CBN.ID",
            "sektor": "Sektor Teknologi Informasi dan Komunikasi",
            "tanggal_terbit": "2022-04-14",
            "url_tdpse_detail": "https://pse.komdigi.go.id/tdpse-detail/3873",
            "website": "cbn.id"
        },
        {
            "id": "9cb1abad-8c8b-48bd-b001-0e1ef91e44b7",
            "nama_pse": "LION EXPRESS",
            "nama_se": "LION PARCEL",
            "sektor": "Sektor Perdagangan, Sektor Transportasi, Sektor Teknologi Informasi dan Komunikasi",
            "tanggal_terbit": "2022-04-14",
            "url_tdpse_detail": "https://pse.komdigi.go.id/tdpse-detail/4597",
            "website": "lionparcel.com"
        },
        {
            "id": "9cb1ab94-5e19-4be8-8904-ec9e3f32ede0",
            "nama_pse": "PENGGIAT EKOSISTEM KECERDASAN ARTIFISIAL DAN BLOCKCHAIN",
            "nama_se": "IAIE - INDONESIA ARTIFICIAL INTELLIGENCE ECOSYSTEM",
            "sektor": "Sektor Teknologi Informasi dan Komunikasi",
            "tanggal_terbit": "2022-04-13",
            "url_tdpse_detail": "https://pse.komdigi.go.id/tdpse-detail/3859",
            "website": "iaie-id.org"
        },
        {
            "id": "9cb1ab93-a63f-4970-a3b7-a76a8729cac5",
            "nama_pse": "TICKLED AUDIENCE PLATFORM",
            "nama_se": "THE ASIANTPARENT",
            "sektor": "Sektor Kesehatan",
            "tanggal_terbit": "2022-04-13",
            "url_tdpse_detail": "https://pse.komdigi.go.id/tdpse-detail/3865",
            "website": "id.theasianparent.com"
        }
    ],
    "processingTimeMs": 4,
    "query": "",
    "totalHits": 19121,
    "hitsPerPage": 50,
    "page": 309,
    "totalPages": 383
}