{
    "hits": [
        {
            "id": "9cb1ac73-3146-44c2-ad30-bc9010e695c2",
            "nama_pse": "FORTACE DIAGNOSTICS INDONESIA",
            "nama_se": "FORTACEDX SISTEM INFORMASI LABORATORIUM",
            "sektor": "Sektor Kesehatan, Sektor Teknologi Informasi dan Komunikasi",
            "tanggal_terbit": "2024-07-11",
            "url_tdpse_detail": "https://pse.komdigi.go.id/tdpse-detail/19471",
            "website": "fortace-diagnostics.co.id"
        },
        {
            "id": "9cb1ac73-2d1a-4b63-ab4c-5438e0c6f8c7",
            "nama_pse": "ENVOIZ DIGITAL INDONESIA",
            "nama_se": "ENVOIZ",
            "sektor": "Sektor Perdagangan",
            "tanggal_terbit": "2024-07-11",
            "url_tdpse_detail": "https://pse.komdigi.go.id/tdpse-detail/19467",
            "website": "envoiz.com"
        },
        {
            "id": "9cb1ac5d-fa95-4a0a-8942-914def699183",
            "nama_pse": "GAJIHUB BERHATI NYAMAN",
            "nama_se": "GAJIHUB",
            "sektor": "Sektor Teknologi Informasi dan Komunikasi",
            "tanggal_terbit": "2024-07-11",
            "url_tdpse_detail": "https://pse.komdigi.go.id/tdpse-detail/19464",
            "website": "gajihub.com"
        },
        {
            "id": "9cb1ac5d-e2bf-43c3-9460-1b1666a376f0",
            "nama_pse": "MUHAMMAD ALBI",
            "nama_se": "RYZENGAMINGSTORE",
            "sektor": "Sektor Perdagangan",
            "tanggal_terbit": "2024-07-10",
            "url_tdpse_detail": "https://pse.komdigi.go.id/tdpse-detail/19448",
            "website": "ryzengamingstore.com"
        },
        {
            "id": "9cb1ac73-207f-499d-9fbb-1a186f957246",
            "nama_pse": "AIKO OLIVIA",
            "nama_se": "MARTAMEDIKA",
            "sektor": "Sektor Kesehatan, Sektor Teknologi Informasi dan Komunikasi",
            "tanggal_terbit": "2024-07-10",
            "url_tdpse_detail": "https://pse.komdigi.go.id/tdpse-detail/19460",
            "website": "dashboardmm.com"
        },
        {
            "id": "9cb1ac89-67b4-430b-92f9-723a02199460",
            "nama_pse": "SITI MUSAROH",
            "nama_se": "LAYANAN INTERNET LOKAL",
            "sektor": "Sektor Teknologi Informasi dan Komunikasi",
            "tanggal_terbit": "2024-07-10",
            "url_tdpse_detail": "https://pse.komdigi.go.id/tdpse-detail/19446",
            "website": "-"
        },
        {
            "id": "9cb1ac73-175d-447a-a1f1-cc2f8c2f22ef",
            "nama_pse": "TAUFIK KADAFIK NAMAKULE",
            "nama_se": "SIMRS SAPARUA",
            "sektor": "Sektor Kesehatan",
            "tanggal_terbit": "2024-07-10",
            "url_tdpse_detail": "https://pse.komdigi.go.id/tdpse-detail/19452",
            "website": "-"
        },
        {
            "id": "9cb1ac89-6ef8-46f6-ac56-a5b58d7b411a",
            "nama_pse": "DIGICUBE TECHNOLOGY SOLUTIONS",
            "nama_se": "HOMENETAPPS",
            "sektor": "Sektor Teknologi Informasi dan Komunikasi",
            "tanggal_terbit": "2024-07-10",
            "url_tdpse_detail": "https://pse.komdigi.go.id/tdpse-detail/19456",
            "website": "-"
        },
        {
            "id": "9cb1ac73-1080-4ef1-ad0c-7b5a33215f8c",
            "nama_pse": "MARTIN GIRI ADIMULIA",
            "nama_se": "SUPERKOS.ID",
            "sektor": "Sektor Teknologi Informasi dan Komunikasi",
            "tanggal_terbit": "2024-07-10",
            "url_tdpse_detail": "https://pse.komdigi.go.id/tdpse-detail/19447",
            "website": "superkos.id"
        },
        {
            "id": "9cb1ac73-0b9a-445f-bd53-16d97a3c03a5",
            "nama_pse": "HYUNDAI MOTORS INDONESIA",
            "nama_se": "MYHYUNDAI INDONESIA.",
            "sektor": "Sektor Perdagangan, Sektor Teknologi Informasi dan Komunikasi",
            "tanggal_terbit": "2024-07-10",
            "url_tdpse_detail": "https://pse.komdigi.go.id/tdpse-detail/19445",
            "website": "-"
        },
        {
            "id": "9cb1ac73-13ae-4b98-bf5b-ae767a287530",
            "nama_pse": "APEX MITRA MALINDO",
            "nama_se": "BONIA.CO.ID",
            "sektor": "Sektor Perdagangan",
            "tanggal_terbit": "2024-07-10",
            "url_tdpse_detail": "https://pse.komdigi.go.id/tdpse-detail/19451",
            "website": "bonia.co.id"
        },
        {
            "id": "9cb1ac5d-e881-42ad-b08f-57e81d25cb8e",
            "nama_pse": "DIGITAL SAHABAT EDUKASI",
            "nama_se": "EDUMATE",
            "sektor": "Sektor Teknologi Informasi dan Komunikasi",
            "tanggal_terbit": "2024-07-10",
            "url_tdpse_detail": "https://pse.komdigi.go.id/tdpse-detail/19450",
            "website": "EDUMATE.ID"
        },
        {
            "id": "9cb1ac72-e158-40ad-9a49-afccbfe26f61",
            "nama_pse": "INDOMAS MAKMUR JAYA",
            "nama_se": "BRAUNBUFFEL.COM",
            "sektor": "Sektor Perdagangan",
            "tanggal_terbit": "2024-07-10",
            "url_tdpse_detail": "https://pse.komdigi.go.id/tdpse-detail/19454",
            "website": "-"
        },
        {
            "id": "9cb1ac5d-ef90-473f-9a93-a5504814fca8",
            "nama_pse": "INTI SOLUSI DEVELOPER",
            "nama_se": "SIMANTEP-RS",
            "sektor": "Sektor Kesehatan",
            "tanggal_terbit": "2024-07-10",
            "url_tdpse_detail": "https://pse.komdigi.go.id/tdpse-detail/19455",
            "website": "solusiklinik.web.id"
        },
        {
            "id": "9cb1ac89-730e-454a-af96-8b782c821525",
            "nama_pse": "KREASI STARNOV CAKRAWALA",
            "nama_se": "KREASISTARNOVCAKRAWALA.ID",
            "sektor": "Sektor Perdagangan",
            "tanggal_terbit": "2024-07-10",
            "url_tdpse_detail": "https://pse.komdigi.go.id/tdpse-detail/19458",
            "website": "KreasiStarnovCakrawala.id"
        },
        {
            "id": "9cb1ac5d-f27c-4e96-a188-408f6d2389ce",
            "nama_pse": "TAUFIK KADAFIK NAMAKULE",
            "nama_se": "SIMRS BANDA",
            "sektor": "Sektor Kesehatan",
            "tanggal_terbit": "2024-07-10",
            "url_tdpse_detail": "https://pse.komdigi.go.id/tdpse-detail/19457",
            "website": "-"
        },
        {
            "id": "9cb1ac89-76cc-45a8-9b33-2031826eaf70",
            "nama_pse": "DIGI GLOBAL PRATAMA",
            "nama_se": "DIGIGLOBALPRATAMA.ID",
            "sektor": "Sektor Teknologi Informasi dan Komunikasi",
            "tanggal_terbit": "2024-07-10",
            "url_tdpse_detail": "https://pse.komdigi.go.id/tdpse-detail/19459",
            "website": "digiglobalpratama.id"
        },
        {
            "id": "9cb1ac73-1b40-4560-8f0a-af513f094e8f",
            "nama_pse": "SEEDFLEX TECHNOLOGIES INDONESIA",
            "nama_se": "SEEDFLEX",
            "sektor": "Sektor Teknologi Informasi dan Komunikasi",
            "tanggal_terbit": "2024-07-10",
            "url_tdpse_detail": "https://pse.komdigi.go.id/tdpse-detail/19453",
            "website": "seedflex.com"
        },
        {
            "id": "9cb1ac5d-e5db-4fb6-b9dc-d1ab92f9f198",
            "nama_pse": "KREASI TJIPTA INDONESIA",
            "nama_se": "THEMA",
            "sektor": "Sektor Kesehatan",
            "tanggal_terbit": "2024-07-10",
            "url_tdpse_detail": "https://pse.komdigi.go.id/tdpse-detail/19449",
            "website": "thema.co.id"
        },
        {
            "id": "9cb1ac72-e523-4e20-86b9-8dd07d578313",
            "nama_pse": "FOOTPRINT GLOBAL INDONESIA",
            "nama_se": "FOOTPRINT GLOBAL SYSTEM OODO 16 COMMUNITY",
            "sektor": "Sektor Perdagangan, Sektor Teknologi Informasi dan Komunikasi",
            "tanggal_terbit": "2024-07-09",
            "url_tdpse_detail": "https://pse.komdigi.go.id/tdpse-detail/19424",
            "website": "footprintglobal.sg"
        },
        {
            "id": "9cb1ac89-4c0c-4841-bb86-6c81cf06f1a6",
            "nama_pse": "SARI SARANA KIMIATAMA",
            "nama_se": "SSKE",
            "sektor": "Sektor Energi dan Sumber Daya Mineral",
            "tanggal_terbit": "2024-07-09",
            "url_tdpse_detail": "https://pse.komdigi.go.id/tdpse-detail/19434",
            "website": "-"
        },
        {
            "id": "9cb1ac89-2ee1-4763-ad4b-b84dd5f136a6",
            "nama_pse": "DONATUR BERSAMA BANGSA INDONESIA",
            "nama_se": "DONATUR.ID",
            "sektor": "Sektor Teknologi Informasi dan Komunikasi",
            "tanggal_terbit": "2024-07-09",
            "url_tdpse_detail": "https://pse.komdigi.go.id/tdpse-detail/19423",
            "website": "donatur.id"
        },
        {
            "id": "9cb1ac89-3349-40a2-bdf4-56f28ff0f231",
            "nama_pse": "ERA BLU ELEKTRONIK",
            "nama_se": "ERABLUE.ID",
            "sektor": "Sektor Perdagangan",
            "tanggal_terbit": "2024-07-09",
            "url_tdpse_detail": "https://pse.komdigi.go.id/tdpse-detail/19426",
            "website": "erablue.id"
        },
        {
            "id": "9cb1ac72-ecb3-4854-97b2-904ff5108124",
            "nama_pse": "KOMMUNITAS OPTIMA MAKMUR",
            "nama_se": "KOMMUNITAS",
            "sektor": "Sektor Teknologi Informasi dan Komunikasi",
            "tanggal_terbit": "2024-07-09",
            "url_tdpse_detail": "https://pse.komdigi.go.id/tdpse-detail/19429",
            "website": "kommunitas.net"
        },
        {
            "id": "9cb1ac89-3a09-4375-a7fc-8c1d5459b165",
            "nama_pse": "TATA ENERGI SAMUDERA",
            "nama_se": "SAMUDERA RECHARGE",
            "sektor": "Sektor Perdagangan",
            "tanggal_terbit": "2024-07-09",
            "url_tdpse_detail": "https://pse.komdigi.go.id/tdpse-detail/19427",
            "website": "samudera-recharge.id"
        },
        {
            "id": "9cb1ac5d-d551-451d-9854-a59c62d61946",
            "nama_pse": "CIPTA MULTI DANARTA",
            "nama_se": "SETLARY",
            "sektor": "Sektor Teknologi Informasi dan Komunikasi",
            "tanggal_terbit": "2024-07-09",
            "url_tdpse_detail": "https://pse.komdigi.go.id/tdpse-detail/19432",
            "website": "setlary.com"
        },
        {
            "id": "9cb1ac72-f086-4304-a7af-d77475890a69",
            "nama_pse": "SIBIMA BERKARYA MANDIRI",
            "nama_se": "SIBIMA",
            "sektor": "Sektor Perdagangan, Sektor Teknologi Informasi dan Komunikasi",
            "tanggal_terbit": "2024-07-09",
            "url_tdpse_detail": "https://pse.komdigi.go.id/tdpse-detail/19430",
            "website": "sibima.id"
        },
        {
            "id": "9cb1ac89-3ff0-401b-950e-47d69cfd7207",
            "nama_pse": "KOMURI INDONESIA",
            "nama_se": "WEBSITE GEEKGARDEN.ID",
            "sektor": "Sektor Teknologi Informasi dan Komunikasi",
            "tanggal_terbit": "2024-07-09",
            "url_tdpse_detail": "https://pse.komdigi.go.id/tdpse-detail/19428",
            "website": "geekgarden.id"
        },
        {
            "id": "9cb1ac89-52f8-4c83-b7ad-f4fed7996d52",
            "nama_pse": "ASIH EKA ABADI",
            "nama_se": "AEAMEDSITE2",
            "sektor": "Sektor Kesehatan",
            "tanggal_terbit": "2024-07-09",
            "url_tdpse_detail": "https://pse.komdigi.go.id/tdpse-detail/19435",
            "website": "-"
        },
        {
            "id": "9cb1ac72-f3e8-4a0c-91c3-92d8b9897e61",
            "nama_pse": "SAHABAT MUDA KREATIF",
            "nama_se": "JEMPOLPAY",
            "sektor": "Sektor Teknologi Informasi dan Komunikasi",
            "tanggal_terbit": "2024-07-09",
            "url_tdpse_detail": "https://pse.komdigi.go.id/tdpse-detail/19431",
            "website": "jempolpay.com"
        },
        {
            "id": "9cb1ac72-fcd8-4556-b19b-2b71a9b71a83",
            "nama_pse": "ASIH EKA ABADI",
            "nama_se": "AEAMEDSITE3",
            "sektor": "Sektor Kesehatan",
            "tanggal_terbit": "2024-07-09",
            "url_tdpse_detail": "https://pse.komdigi.go.id/tdpse-detail/19438",
            "website": "-"
        },
        {
            "id": "9cb1ac72-f983-48ab-a470-0fce6b72bbb3",
            "nama_pse": "INOVASI FERTILIZER GROWPLANT",
            "nama_se": "INOVASI FERTILIZER",
            "sektor": "Sektor Perdagangan",
            "tanggal_terbit": "2024-07-09",
            "url_tdpse_detail": "https://pse.komdigi.go.id/tdpse-detail/19433",
            "website": "inovasifertilizer.com"
        },
        {
            "id": "9cb1ac5d-d8df-41ba-9e9d-b229f38c6778",
            "nama_pse": "QUIROS NETWORKS",
            "nama_se": "KANGTAU",
            "sektor": "Sektor Teknologi Informasi dan Komunikasi",
            "tanggal_terbit": "2024-07-09",
            "url_tdpse_detail": "https://pse.komdigi.go.id/tdpse-detail/19436",
            "website": "kangtau.com"
        },
        {
            "id": "9cb1ac89-5755-4702-87a3-f68d8630f197",
            "nama_pse": "MEDIKA DERMA LESTARI",
            "nama_se": "EMDEE INFORMATION SYSTEM",
            "sektor": "Sektor Kesehatan",
            "tanggal_terbit": "2024-07-09",
            "url_tdpse_detail": "https://pse.komdigi.go.id/tdpse-detail/19440",
            "website": "-"
        },
        {
            "id": "9cb1ac89-5d3e-47c2-a1ec-391100e074c6",
            "nama_pse": "DUTA TELAGA TAKWA",
            "nama_se": "DUTAUSAHA.COM",
            "sektor": "Sektor Perdagangan",
            "tanggal_terbit": "2024-07-09",
            "url_tdpse_detail": "https://pse.komdigi.go.id/tdpse-detail/19443",
            "website": "dutausaha.com"
        },
        {
            "id": "9cb1ac5d-dbf0-4af1-915c-d35e5a80c541",
            "nama_pse": "SOBAT SEHAT SEJAHTERA",
            "nama_se": "SOBAT SEHAT DIGITAL",
            "sektor": "Sektor Kesehatan, Sektor Teknologi Informasi dan Komunikasi",
            "tanggal_terbit": "2024-07-09",
            "url_tdpse_detail": "https://pse.komdigi.go.id/tdpse-detail/19437",
            "website": "demo.sobatsehatsejahtera.com"
        },
        {
            "id": "9cb1ac5d-df92-4da1-b51c-6e862ea7c773",
            "nama_pse": "YUDHI TOWIRA",
            "nama_se": "COLLAPEDIA.COM",
            "sektor": "Sektor Perdagangan, Sektor Teknologi Informasi dan Komunikasi",
            "tanggal_terbit": "2024-07-09",
            "url_tdpse_detail": "https://pse.komdigi.go.id/tdpse-detail/19441",
            "website": "-"
        },
        {
            "id": "9cb1ac73-04b8-4e9c-b684-2e9c43fc4301",
            "nama_pse": "DUTA TELAGA TAKWA",
            "nama_se": "DUTARIZKIA.COM",
            "sektor": "Sektor Perdagangan",
            "tanggal_terbit": "2024-07-09",
            "url_tdpse_detail": "https://pse.komdigi.go.id/tdpse-detail/19444",
            "website": "dutarizkia.com"
        },
        {
            "id": "9cb1ac5a-2d58-4e68-8201-335830c82a27",
            "nama_pse": "FITRAH JAYA GROUP",
            "nama_se": "REKAM MEDIS PASIEN ONLINE",
            "sektor": "Sektor Teknologi Informasi dan Komunikasi",
            "tanggal_terbit": "2024-07-09",
            "url_tdpse_detail": "https://pse.komdigi.go.id/tdpse-detail/19442",
            "website": "-"
        },
        {
            "id": "9cb1ac73-0064-473b-a045-f789c029a74e",
            "nama_pse": "INDOMARCO PRISMATAMA",
            "nama_se": "INDOMARET POINKU",
            "sektor": "Sektor Perdagangan",
            "tanggal_terbit": "2024-07-09",
            "url_tdpse_detail": "https://pse.komdigi.go.id/tdpse-detail/19439",
            "website": "-"
        },
        {
            "id": "9cb1ac5d-d1f8-4c83-b122-591a07ecd13d",
            "nama_pse": "APRIYANTI MUSTIKA DEWI",
            "nama_se": "APP.ATHREE.ID",
            "sektor": "Sektor Perdagangan, Sektor Kesehatan",
            "tanggal_terbit": "2024-07-09",
            "url_tdpse_detail": "https://pse.komdigi.go.id/tdpse-detail/19425",
            "website": "athree.id"
        },
        {
            "id": "9cb1ac89-1025-474e-af5b-31b568de1f54",
            "nama_pse": "PUTRA MEDIKA",
            "nama_se": "KLINIK PUTRA MEDIKA 2",
            "sektor": "Sektor Kesehatan",
            "tanggal_terbit": "2024-07-08",
            "url_tdpse_detail": "https://pse.komdigi.go.id/tdpse-detail/19404",
            "website": "-"
        },
        {
            "id": "9cb1ac72-d7d4-418b-8a8f-a5c45d13919c",
            "nama_pse": "AIR MAS PERKASA",
            "nama_se": "AYOOSTORE",
            "sektor": "Sektor Perdagangan, Sektor Teknologi Informasi dan Komunikasi",
            "tanggal_terbit": "2024-07-08",
            "url_tdpse_detail": "https://pse.komdigi.go.id/tdpse-detail/19414",
            "website": "ayoostore.id"
        },
        {
            "id": "9cb1ac89-0751-4ee1-bb86-0f7c22c82283",
            "nama_pse": "SECURE DATA DIGITAL CYBER",
            "nama_se": "SECURE DATA DIGITAL CYBER",
            "sektor": "Sektor Perdagangan, Sektor Teknologi Informasi dan Komunikasi",
            "tanggal_terbit": "2024-07-08",
            "url_tdpse_detail": "https://pse.komdigi.go.id/tdpse-detail/19400",
            "website": "ptsddc.com"
        },
        {
            "id": "9cb1ac89-0baf-44b5-923d-de15a08434ab",
            "nama_pse": "SMART EDUKASI INDONESIA",
            "nama_se": "SMARTCPNS",
            "sektor": "Sektor Perdagangan, Sektor Teknologi Informasi dan Komunikasi",
            "tanggal_terbit": "2024-07-08",
            "url_tdpse_detail": "https://pse.komdigi.go.id/tdpse-detail/19401",
            "website": "smartcpns.id"
        },
        {
            "id": "9cb1ac5d-a788-4f04-8be5-3ef108bd4e35",
            "nama_pse": "SMART EDUKASI INDONESIA",
            "nama_se": "SMARTCPNS APP",
            "sektor": "Sektor Perdagangan, Sektor Teknologi Informasi dan Komunikasi",
            "tanggal_terbit": "2024-07-08",
            "url_tdpse_detail": "https://pse.komdigi.go.id/tdpse-detail/19402",
            "website": "-"
        },
        {
            "id": "9cb1ac5d-aa54-4ad4-966e-8ba60ba9953c",
            "nama_pse": "PUTRA MEDIKA",
            "nama_se": "KLINIK PUTRA MEDIKA 1",
            "sektor": "Sektor Kesehatan",
            "tanggal_terbit": "2024-07-08",
            "url_tdpse_detail": "https://pse.komdigi.go.id/tdpse-detail/19403",
            "website": "-"
        },
        {
            "id": "9cb1ac89-14b0-452f-9a90-8fefde4a4d2e",
            "nama_pse": "PUTRA MEDIKA",
            "nama_se": "KLINIK PUTRA MEDIKA SUKAMAHI",
            "sektor": "Sektor Kesehatan",
            "tanggal_terbit": "2024-07-08",
            "url_tdpse_detail": "https://pse.komdigi.go.id/tdpse-detail/19406",
            "website": "-"
        },
        {
            "id": "9cb1ac5d-acec-4629-815f-e4a0e9ba994e",
            "nama_pse": "PUTRA MEDIKA",
            "nama_se": "KLINIK PUTRA MEDIKA 3",
            "sektor": "Sektor Kesehatan",
            "tanggal_terbit": "2024-07-08",
            "url_tdpse_detail": "https://pse.komdigi.go.id/tdpse-detail/19405",
            "website": "-"
        },
        {
            "id": "9cb1ac5d-b287-46b9-a074-00d55a5af3b4",
            "nama_pse": "PUTRA MEDIKA",
            "nama_se": "KLINIK PUTRA MEDIKA CIBENDA",
            "sektor": "Sektor Kesehatan",
            "tanggal_terbit": "2024-07-08",
            "url_tdpse_detail": "https://pse.komdigi.go.id/tdpse-detail/19407",
            "website": "-"
        }
    ],
    "processingTimeMs": 36,
    "query": "",
    "totalHits": 19121,
    "hitsPerPage": 50,
    "page": 57,
    "totalPages": 383
}