{
    "hits": [
        {
            "id": "9cb1ac89-f68d-448b-b0e1-f56ddf020b80",
            "nama_pse": "MULTICODE SOFTWARE",
            "nama_se": "E-KLINIK",
            "sektor": "Sektor Kesehatan",
            "tanggal_terbit": "2024-07-17",
            "url_tdpse_detail": "https://pse.komdigi.go.id/tdpse-detail/19519",
            "website": "-"
        },
        {
            "id": "9cb1ac5e-5f2d-489d-9242-036769c576d8",
            "nama_pse": "LOVE LIFE INDONESIA",
            "nama_se": "PT. LOVE LIFE INDONESIA",
            "sektor": "Sektor Perdagangan, Sektor Teknologi Informasi dan Komunikasi",
            "tanggal_terbit": "2024-07-17",
            "url_tdpse_detail": "https://pse.komdigi.go.id/tdpse-detail/19520",
            "website": "-"
        },
        {
            "id": "9cb1ac73-98c5-489c-b47f-c8fcc9263f32",
            "nama_pse": "MUHAMMAD FAIZAL",
            "nama_se": "WWW.KINGHISTORIA.COM",
            "sektor": "Sektor Teknologi Informasi dan Komunikasi",
            "tanggal_terbit": "2024-07-17",
            "url_tdpse_detail": "https://pse.komdigi.go.id/tdpse-detail/19518",
            "website": "kinghistoria.com"
        },
        {
            "id": "9cb1ac5e-61c4-4426-8dfd-fd1abc61a38e",
            "nama_pse": "WIFIQU INDONESIA NETWORK",
            "nama_se": "LAYANAN INTERNET LOKAL ( RT RW NET )",
            "sektor": "Sektor Teknologi Informasi dan Komunikasi",
            "tanggal_terbit": "2024-07-17",
            "url_tdpse_detail": "https://pse.komdigi.go.id/tdpse-detail/19522",
            "website": "-"
        },
        {
            "id": "9cb1ac8a-0527-420d-a61e-e6fd2916f7a3",
            "nama_pse": "JEMBATAN USAHA BERSAMA",
            "nama_se": "JEMBATAN USAHA BERSAMA",
            "sektor": "Sektor Perdagangan, Sektor Teknologi Informasi dan Komunikasi",
            "tanggal_terbit": "2024-07-17",
            "url_tdpse_detail": "https://pse.komdigi.go.id/tdpse-detail/19523",
            "website": "bayarwook.com"
        },
        {
            "id": "9cb1ac73-a3bf-4a09-a840-3575a5f4dff0",
            "nama_pse": "DWI MANDIRI HUASAN",
            "nama_se": "FASHIONSFIESTAS.CO.ID",
            "sektor": "Sektor Perdagangan",
            "tanggal_terbit": "2024-07-17",
            "url_tdpse_detail": "https://pse.komdigi.go.id/tdpse-detail/19525",
            "website": "fashionsfiestas.com"
        },
        {
            "id": "9cb1ac73-a702-43e7-a5e2-9085493add6d",
            "nama_pse": "MATRAN MITRA PERSADA",
            "nama_se": "ODOO MMP",
            "sektor": "Sektor Perdagangan, Sektor Teknologi Informasi dan Komunikasi",
            "tanggal_terbit": "2024-07-17",
            "url_tdpse_detail": "https://pse.komdigi.go.id/tdpse-detail/19524",
            "website": "-"
        },
        {
            "id": "9cb1ac5e-44af-425a-bc34-b1cbcc9885fc",
            "nama_pse": "KARYA MEGA SARANA",
            "nama_se": "PT KARYA MEGA SARANA",
            "sektor": "Sektor Perdagangan",
            "tanggal_terbit": "2024-07-16",
            "url_tdpse_detail": "https://pse.komdigi.go.id/tdpse-detail/19509",
            "website": "kamesa.co.id"
        },
        {
            "id": "9cb1ac5e-1789-4424-a4e6-b46ea47b8c2c",
            "nama_pse": "MODAL VENTURA SYARIAH INDONESIA",
            "nama_se": "QVERSE",
            "sektor": "Sektor Keuangan",
            "tanggal_terbit": "2024-07-16",
            "url_tdpse_detail": "https://pse.komdigi.go.id/tdpse-detail/19505",
            "website": "qverse.id"
        },
        {
            "id": "9cb1ac5e-3892-4434-a8c3-d226c45053cd",
            "nama_pse": "DUNGO TECH",
            "nama_se": "BITMEDIS",
            "sektor": "Sektor Kesehatan",
            "tanggal_terbit": "2024-07-16",
            "url_tdpse_detail": "https://pse.komdigi.go.id/tdpse-detail/19507",
            "website": "-"
        },
        {
            "id": "9cb1ac73-82df-4b68-862e-29b74b058d1a",
            "nama_pse": "TRANS BERJAYA KHATULISTIWA",
            "nama_se": "REMEDIS",
            "sektor": "Sektor Kesehatan",
            "tanggal_terbit": "2024-07-16",
            "url_tdpse_detail": "https://pse.komdigi.go.id/tdpse-detail/19506",
            "website": "-"
        },
        {
            "id": "9cb1ac5e-4099-467a-ba78-5147713ac569",
            "nama_pse": "SUGIH SADAYA INTERNASIONAL",
            "nama_se": "SUGIH SADAYA INTERNASIONAL",
            "sektor": "Sektor Teknologi Informasi dan Komunikasi",
            "tanggal_terbit": "2024-07-16",
            "url_tdpse_detail": "https://pse.komdigi.go.id/tdpse-detail/19508",
            "website": "sugihsadaya.com"
        },
        {
            "id": "9cb1ac5e-4a64-433b-8709-13c8927771bb",
            "nama_pse": "NIAGA JAYA SOLUSI",
            "nama_se": "FROGOOO",
            "sektor": "Sektor Perdagangan",
            "tanggal_terbit": "2024-07-16",
            "url_tdpse_detail": "https://pse.komdigi.go.id/tdpse-detail/19512",
            "website": "frogooo.com"
        },
        {
            "id": "9cb1ac5e-476b-46d5-8e83-a4b5f69c0b38",
            "nama_pse": "ANDELA ABADI GROUP",
            "nama_se": "CREANOVATION HUB SISTEM",
            "sektor": "Sektor Kesehatan",
            "tanggal_terbit": "2024-07-16",
            "url_tdpse_detail": "https://pse.komdigi.go.id/tdpse-detail/19511",
            "website": "odac.newgen-apps1.com"
        },
        {
            "id": "9cb1ac73-86a3-42ec-9614-1e0beac1c410",
            "nama_pse": "SAHABAT KREASI DIGITAL",
            "nama_se": "BESTCLINIC",
            "sektor": "Sektor Teknologi Informasi dan Komunikasi",
            "tanggal_terbit": "2024-07-16",
            "url_tdpse_detail": "https://pse.komdigi.go.id/tdpse-detail/19510",
            "website": "-"
        },
        {
            "id": "9cb1ac5e-5100-4bb8-8ded-cd62348155f8",
            "nama_pse": "DAN PEMBIAYAAN SYARIAH KSPPS BAITUL MAAL WAT TAMWIL BERINGHARJO",
            "nama_se": "BRING-PAZ",
            "sektor": "Sektor Teknologi Informasi dan Komunikasi",
            "tanggal_terbit": "2024-07-16",
            "url_tdpse_detail": "https://pse.komdigi.go.id/tdpse-detail/19513",
            "website": "bmtberingharjo.com"
        },
        {
            "id": "9cb1ac5e-567c-4c85-9210-20caf44a89de",
            "nama_pse": "UPTD RSUD HAJI ABDUL MANAN SIMATUPANG",
            "nama_se": "SIMRS UPTD RSUD HAMS",
            "sektor": "Sektor Kesehatan",
            "tanggal_terbit": "2024-07-16",
            "url_tdpse_detail": "https://pse.komdigi.go.id/tdpse-detail/19515",
            "website": "-"
        },
        {
            "id": "9cb1ac89-d7be-4928-915f-6ec602ac46ba",
            "nama_pse": "PANTURA POS MULTIMEDIA",
            "nama_se": "PANTURAPOS.ID",
            "sektor": "Sektor Teknologi Informasi dan Komunikasi",
            "tanggal_terbit": "2024-07-16",
            "url_tdpse_detail": "https://pse.komdigi.go.id/tdpse-detail/19516",
            "website": "panturapos.id"
        },
        {
            "id": "9cb1ac5e-5c77-4a81-95e3-67216ca2a126",
            "nama_pse": "MERISCA GIANTHRA RYOSA",
            "nama_se": "RME SHAQYLLA KLINIK PAYAKUMBUH",
            "sektor": "Sektor Kesehatan, Sektor Teknologi Informasi dan Komunikasi",
            "tanggal_terbit": "2024-07-16",
            "url_tdpse_detail": "https://pse.komdigi.go.id/tdpse-detail/19517",
            "website": "shaqyllapayakumbuh.com"
        },
        {
            "id": "9cb1ac87-e443-4c73-afce-c0f1a458ed55",
            "nama_pse": "EFORIA FURNITUR INDONESIA",
            "nama_se": "MORE FURNITURE",
            "sektor": "Sektor Perdagangan",
            "tanggal_terbit": "2024-07-16",
            "url_tdpse_detail": "https://pse.komdigi.go.id/tdpse-detail/19514",
            "website": "morefurniture.id"
        },
        {
            "id": "9cb1ac73-6b97-4bc7-a917-656197038373",
            "nama_pse": "ABI DUTA INDONESIA",
            "nama_se": "DBOOSTER",
            "sektor": "Sektor Perdagangan",
            "tanggal_terbit": "2024-07-15",
            "url_tdpse_detail": "https://pse.komdigi.go.id/tdpse-detail/19497",
            "website": "-"
        },
        {
            "id": "9cb1ac5d-eb9a-44f2-a176-ed16a4c2acc6",
            "nama_pse": "ASURANSI ALLIANZ LIFE INDONESIA",
            "nama_se": "AZ360 - LEADS MANAGEMENT SYSTEM",
            "sektor": "Sektor Keuangan",
            "tanggal_terbit": "2024-07-15",
            "url_tdpse_detail": "https://pse.komdigi.go.id/tdpse-detail/19493",
            "website": "-"
        },
        {
            "id": "9cb1ac5e-12e5-4558-912e-14201687764d",
            "nama_pse": "SIMPLIFA CERDAS MENYALA",
            "nama_se": "SIMPLIFA AI",
            "sektor": "Sektor Teknologi Informasi dan Komunikasi",
            "tanggal_terbit": "2024-07-15",
            "url_tdpse_detail": "https://pse.komdigi.go.id/tdpse-detail/19494",
            "website": "simplifa.ai"
        },
        {
            "id": "9cb1ac73-7f43-4b75-9fa5-f64908f32ddc",
            "nama_pse": "LOVE LIFE INDONESIA",
            "nama_se": "PT LOVE LIFE INDONESIA",
            "sektor": "Sektor Perdagangan",
            "tanggal_terbit": "2024-07-15",
            "url_tdpse_detail": "https://pse.komdigi.go.id/tdpse-detail/19504",
            "website": "-"
        },
        {
            "id": "9cb1ac5e-0c9a-40d0-a62c-e3d19e045228",
            "nama_pse": "ASURANSI DIGITAL BERSAMA",
            "nama_se": "ADBINSURE.COM",
            "sektor": "Sektor Keuangan",
            "tanggal_terbit": "2024-07-15",
            "url_tdpse_detail": "https://pse.komdigi.go.id/tdpse-detail/19495",
            "website": "adbinsure.com"
        },
        {
            "id": "9cb1ac73-0805-4762-88fd-7a2aed28cce7",
            "nama_pse": "BANK PEREKONOMIAN RAKYAT DANAGUNG",
            "nama_se": "APLIKASI DANAGUNGGO",
            "sektor": "Sektor Keuangan",
            "tanggal_terbit": "2024-07-15",
            "url_tdpse_detail": "https://pse.komdigi.go.id/tdpse-detail/19492",
            "website": "-"
        },
        {
            "id": "9cb1ac89-927f-49e8-8db0-487ea8879e0f",
            "nama_pse": "KB VALBURY ASSET MANAGEMENT",
            "nama_se": "BRAVO (BELANJA REKSA DANA VALBURY ONLINE)",
            "sektor": "Sektor Keuangan",
            "tanggal_terbit": "2024-07-15",
            "url_tdpse_detail": "https://pse.komdigi.go.id/tdpse-detail/19496",
            "website": "bravo.valbury.co.id"
        },
        {
            "id": "9cb1ac89-c3d3-4ef5-843d-919e565da0db",
            "nama_pse": "SONNY ADI NUGROHO",
            "nama_se": "COZZY",
            "sektor": "Sektor Perdagangan",
            "tanggal_terbit": "2024-07-15",
            "url_tdpse_detail": "https://pse.komdigi.go.id/tdpse-detail/19489",
            "website": "cozzy.id"
        },
        {
            "id": "9cb1ac89-cad8-447b-8adc-cc453c44f120",
            "nama_pse": "FIRMAN",
            "nama_se": "LAYANAN INTERNET LOKAL",
            "sektor": "Sektor Teknologi Informasi dan Komunikasi",
            "tanggal_terbit": "2024-07-15",
            "url_tdpse_detail": "https://pse.komdigi.go.id/tdpse-detail/19502",
            "website": "-"
        },
        {
            "id": "9cb1ac73-644d-411e-aba6-fcc01e872820",
            "nama_pse": "SONNY ADI NUGROHO",
            "nama_se": "COZY123",
            "sektor": "Sektor Perdagangan",
            "tanggal_terbit": "2024-07-15",
            "url_tdpse_detail": "https://pse.komdigi.go.id/tdpse-detail/19490",
            "website": "cozy123.com"
        },
        {
            "id": "9cb1ac73-67bd-485e-b011-d59ae8c0d11d",
            "nama_pse": "RONA",
            "nama_se": "KAMPANYE LAPTOP NUSANTARA",
            "sektor": "Sektor Perdagangan",
            "tanggal_terbit": "2024-07-15",
            "url_tdpse_detail": "https://pse.komdigi.go.id/tdpse-detail/19488",
            "website": "kampanyelaptop.my.id"
        },
        {
            "id": "9cb1ac5e-2720-4265-9e9e-46b6107e585b",
            "nama_pse": "GILANG SASMITA INDONESIA",
            "nama_se": "CDENTAL",
            "sektor": "Sektor Kesehatan",
            "tanggal_terbit": "2024-07-15",
            "url_tdpse_detail": "https://pse.komdigi.go.id/tdpse-detail/19501",
            "website": "-"
        },
        {
            "id": "9cb1ac73-416b-4b00-9475-f24d2c43a8ba",
            "nama_pse": "ANAGATA ARWANA INDONESIA",
            "nama_se": "KAMONLIVE",
            "sektor": "Sektor Perdagangan",
            "tanggal_terbit": "2024-07-15",
            "url_tdpse_detail": "https://pse.komdigi.go.id/tdpse-detail/19491",
            "website": "kamon.live"
        },
        {
            "id": "9cb1ac73-701a-457a-bd99-320ae87596fe",
            "nama_pse": "PALANG MERAH INDONESIA",
            "nama_se": "SIMDONDAR",
            "sektor": "Sektor Teknologi Informasi dan Komunikasi",
            "tanggal_terbit": "2024-07-15",
            "url_tdpse_detail": "https://pse.komdigi.go.id/tdpse-detail/19500",
            "website": "-"
        },
        {
            "id": "9cb1ac73-75c7-420b-8c42-28232df210ca",
            "nama_pse": "POCI KREASI MANDIRI",
            "nama_se": "POCIKU",
            "sektor": "Sektor Perdagangan",
            "tanggal_terbit": "2024-07-15",
            "url_tdpse_detail": "https://pse.komdigi.go.id/tdpse-detail/19498",
            "website": "eorder.pocikreasimandiri.com"
        },
        {
            "id": "9cb1ac73-7a00-42fa-9607-b063c7e0adf1",
            "nama_pse": "MARTIN LUTER",
            "nama_se": "MIRACLE DIGITAL",
            "sektor": "Sektor Teknologi Informasi dan Komunikasi",
            "tanggal_terbit": "2024-07-15",
            "url_tdpse_detail": "https://pse.komdigi.go.id/tdpse-detail/19499",
            "website": "miracledigital.id"
        },
        {
            "id": "9cb1ac89-beff-47fc-a366-72fe19281df4",
            "nama_pse": "SAMUDRA TANJUNGTOBAKU PERSADA",
            "nama_se": "DELIKPOS.CO.ID",
            "sektor": "Sektor Teknologi Informasi dan Komunikasi",
            "tanggal_terbit": "2024-07-14",
            "url_tdpse_detail": "https://pse.komdigi.go.id/tdpse-detail/19487",
            "website": "delikpos.co.id"
        },
        {
            "id": "9cb1ac89-baf9-4b52-a7ea-bf7e17f97446",
            "nama_pse": "KAGUM MITRA NIAGA",
            "nama_se": "PT. KAGUM MITRA NIAGA",
            "sektor": "Sektor Perdagangan",
            "tanggal_terbit": "2024-07-14",
            "url_tdpse_detail": "https://pse.komdigi.go.id/tdpse-detail/19486",
            "website": "-"
        },
        {
            "id": "9cb1ac73-5f21-45a0-8481-fe53d2d52ea7",
            "nama_pse": "DIGIPOPO DIGITAL NIAGA",
            "nama_se": "SIBAGI",
            "sektor": "Sektor Teknologi Informasi dan Komunikasi",
            "tanggal_terbit": "2024-07-13",
            "url_tdpse_detail": "https://pse.komdigi.go.id/tdpse-detail/19485",
            "website": "sibagi.com"
        },
        {
            "id": "9cb1ac73-5b5b-48fc-bc48-545bcf31b22d",
            "nama_pse": "RAMCO SYSTEMS INDONESIA",
            "nama_se": "RAMCO SYSTEMS",
            "sektor": "Sektor Transportasi, Sektor Teknologi Informasi dan Komunikasi",
            "tanggal_terbit": "2024-07-12",
            "url_tdpse_detail": "https://pse.komdigi.go.id/tdpse-detail/19484",
            "website": "-"
        },
        {
            "id": "9cb1ac89-9b9b-46f5-8be0-9f9cc0c0508c",
            "nama_pse": "KHARISMA ARYA PAKSI",
            "nama_se": "OPERA",
            "sektor": "Sektor Perdagangan, Sektor Teknologi Informasi dan Komunikasi",
            "tanggal_terbit": "2024-07-12",
            "url_tdpse_detail": "https://pse.komdigi.go.id/tdpse-detail/19478",
            "website": "discoverykartikaplaza.com"
        },
        {
            "id": "9cb1ac5e-0fa4-4351-b238-41920b459def",
            "nama_pse": "MASA ROBOT SOLUSI",
            "nama_se": "SENTRA",
            "sektor": "Sektor Perdagangan, Sektor Teknologi Informasi dan Komunikasi",
            "tanggal_terbit": "2024-07-12",
            "url_tdpse_detail": "https://pse.komdigi.go.id/tdpse-detail/19476",
            "website": "sentraedu.io"
        },
        {
            "id": "9cb1ac73-48a6-44d7-87b6-aeabcbd79446",
            "nama_pse": "UNUMED HOSPITAL MANAGEMENT TECHNOLOGY",
            "nama_se": "UNUMED HMS",
            "sektor": "Sektor Kesehatan",
            "tanggal_terbit": "2024-07-12",
            "url_tdpse_detail": "https://pse.komdigi.go.id/tdpse-detail/19477",
            "website": "indonesia.unumed.net"
        },
        {
            "id": "9cb1ac89-a59c-4d9c-a3d6-b69d45cb934e",
            "nama_pse": "SEKAR MOELYA CAHYADI",
            "nama_se": "RATUIZIN.COM",
            "sektor": "Sektor Perdagangan",
            "tanggal_terbit": "2024-07-12",
            "url_tdpse_detail": "https://pse.komdigi.go.id/tdpse-detail/19479",
            "website": "ratuizin.com"
        },
        {
            "id": "9cb1ac89-ad22-4dd0-aab0-2e8d705037ef",
            "nama_pse": "NEO CIPTA REVOLUSI",
            "nama_se": "NCRSPORT.COM",
            "sektor": "Sektor Perdagangan",
            "tanggal_terbit": "2024-07-12",
            "url_tdpse_detail": "https://pse.komdigi.go.id/tdpse-detail/19481",
            "website": "ncrsport.com"
        },
        {
            "id": "9cb1ac73-51ea-431a-98ee-5c58b5e99ee8",
            "nama_pse": "GRAHA MAYA",
            "nama_se": "RRME",
            "sektor": "Sektor Kesehatan, Sektor Teknologi Informasi dan Komunikasi",
            "tanggal_terbit": "2024-07-12",
            "url_tdpse_detail": "https://pse.komdigi.go.id/tdpse-detail/19483",
            "website": "grahamaya.com"
        },
        {
            "id": "9cb1ac89-a90b-448d-b519-2a981a7532c6",
            "nama_pse": "DWI MITRA NUSANTARA",
            "nama_se": "BALI DYNASTI RESORT",
            "sektor": "Sektor Perdagangan",
            "tanggal_terbit": "2024-07-12",
            "url_tdpse_detail": "https://pse.komdigi.go.id/tdpse-detail/19480",
            "website": "bdr.pphotels.com"
        },
        {
            "id": "9cb1ac5c-c18d-4507-817b-f7499177410f",
            "nama_pse": "AHMAD DJULIAN MTD",
            "nama_se": "DJSTOREGAMING",
            "sektor": "Sektor Perdagangan, Sektor Teknologi Informasi dan Komunikasi",
            "tanggal_terbit": "2024-07-12",
            "url_tdpse_detail": "https://pse.komdigi.go.id/tdpse-detail/19482",
            "website": "djstoregaming.com"
        },
        {
            "id": "9cb1ac6f-61cc-46fb-b5b8-748f67670c2b",
            "nama_pse": "WA ODE KASNIAWATI",
            "nama_se": "TEMUDOKTER",
            "sektor": "Sektor Kesehatan",
            "tanggal_terbit": "2024-07-11",
            "url_tdpse_detail": "https://pse.komdigi.go.id/tdpse-detail/19463",
            "website": "rsiaharapankita.com"
        },
        {
            "id": "9cb1ac89-81b9-4045-a03d-632ef050451e",
            "nama_pse": "HAMAS PANDJI INDOAGRO",
            "nama_se": "HAMAS PANDJI INDOAGRO",
            "sektor": "Sektor Perdagangan",
            "tanggal_terbit": "2024-07-11",
            "url_tdpse_detail": "https://pse.komdigi.go.id/tdpse-detail/19466",
            "website": "hamaspandji.com"
        }
    ],
    "processingTimeMs": 1,
    "query": "",
    "totalHits": 19131,
    "hitsPerPage": 50,
    "page": 56,
    "totalPages": 383
}