{
    "hits": [
        {
            "id": "9cb1ab99-2816-4b82-9460-c5ac691d5c17",
            "nama_pse": "INDRA FITRIADI",
            "nama_se": "PORTAL BUANA NEWS GROUP",
            "sektor": "Sektor Teknologi Informasi dan Komunikasi",
            "tanggal_terbit": "2022-06-29",
            "url_tdpse_detail": "https://pse.komdigi.go.id/tdpse-detail/4937",
            "website": "portalbuana.asia"
        },
        {
            "id": "9cb1ab99-2ba3-433b-ad62-21c708758bcc",
            "nama_pse": "CRIF LEMBAGA INFORMASI KEUANGAN",
            "nama_se": "CBS NUSANTARA",
            "sektor": "Sektor Keuangan, Sektor Teknologi Informasi dan Komunikasi",
            "tanggal_terbit": "2022-06-29",
            "url_tdpse_detail": "https://pse.komdigi.go.id/tdpse-detail/4938",
            "website": "cbclik.com"
        },
        {
            "id": "9cb1ab99-3000-4608-9b1d-c001db430ffb",
            "nama_pse": "RTI INFOKOM",
            "nama_se": "RTI MARKET INFO",
            "sektor": "Sektor Teknologi Informasi dan Komunikasi",
            "tanggal_terbit": "2022-06-29",
            "url_tdpse_detail": "https://pse.komdigi.go.id/tdpse-detail/4939",
            "website": "rti.co.id"
        },
        {
            "id": "9cb1ab99-3271-4f5e-a333-7d10bb4bf6b7",
            "nama_pse": "RTI INFOKOM",
            "nama_se": "RTI FINANCE",
            "sektor": "Sektor Teknologi Informasi dan Komunikasi",
            "tanggal_terbit": "2022-06-29",
            "url_tdpse_detail": "https://pse.komdigi.go.id/tdpse-detail/4940",
            "website": "rti.co.id"
        },
        {
            "id": "9cb1aba4-8a8c-440a-8f2e-3b7b00f84f93",
            "nama_pse": "RTI INFOKOM",
            "nama_se": "RTI TRADER",
            "sektor": "Sektor Teknologi Informasi dan Komunikasi",
            "tanggal_terbit": "2022-06-29",
            "url_tdpse_detail": "https://pse.komdigi.go.id/tdpse-detail/4941",
            "website": "rti.co.id"
        },
        {
            "id": "9cb1aba4-8d4a-43d6-99fd-a669924db7b5",
            "nama_pse": "PT. BANK PEMBANGUNAN DAERAH JAWA BARAT DAN BANTEN TBK (BANK BJB)",
            "nama_se": "DIGINET",
            "sektor": "Sektor Keuangan",
            "tanggal_terbit": "2022-06-29",
            "url_tdpse_detail": "https://pse.komdigi.go.id/tdpse-detail/4943",
            "website": "ib.bankbjb.co.id"
        },
        {
            "id": "9cb1ab99-34d1-41da-89c3-6699371fa98c",
            "nama_pse": "RTI INFOKOM",
            "nama_se": "RTI MOBILE",
            "sektor": "Sektor Teknologi Informasi dan Komunikasi",
            "tanggal_terbit": "2022-06-29",
            "url_tdpse_detail": "https://pse.komdigi.go.id/tdpse-detail/4944",
            "website": "Mobile.rti.co.id"
        },
        {
            "id": "9cb1ab99-3847-438c-b2e1-ccb869ebe197",
            "nama_pse": "SUPER EKA FAJAR",
            "nama_se": "SUPER EKA FAJAR",
            "sektor": "Sektor Perdagangan, Sektor Teknologi Informasi dan Komunikasi",
            "tanggal_terbit": "2022-06-29",
            "url_tdpse_detail": "https://pse.komdigi.go.id/tdpse-detail/4946",
            "website": "supertrack.my.id"
        },
        {
            "id": "9cb1ab99-3b17-4b84-b43d-917f2c2c1d8a",
            "nama_pse": "RTI INFOKOM",
            "nama_se": "RTI RESEARCH",
            "sektor": "Sektor Teknologi Informasi dan Komunikasi",
            "tanggal_terbit": "2022-06-29",
            "url_tdpse_detail": "https://pse.komdigi.go.id/tdpse-detail/4945",
            "website": "rti.co.id"
        },
        {
            "id": "9cb1ab99-3ea8-4f9c-9a1b-eb5912b3422a",
            "nama_pse": "SINTESA PERSADA TEKNOLOGI",
            "nama_se": "MEDISIN",
            "sektor": "Sektor Kesehatan",
            "tanggal_terbit": "2022-06-29",
            "url_tdpse_detail": "https://pse.komdigi.go.id/tdpse-detail/4947",
            "website": "medisin.id"
        },
        {
            "id": "9cb1aba4-8fac-4b8d-a887-a2806656871d",
            "nama_pse": "VALMICH HOSTING INDONESIA",
            "nama_se": "VALMICH HOSTING INDONESIA",
            "sektor": "Sektor Teknologi Informasi dan Komunikasi",
            "tanggal_terbit": "2022-06-29",
            "url_tdpse_detail": "https://pse.komdigi.go.id/tdpse-detail/4948",
            "website": "valmich.com"
        },
        {
            "id": "9cb1aba4-925f-40b3-913d-8d094eacd880",
            "nama_pse": "SENTOSA BISNET INTERNASIONAL",
            "nama_se": "FLANNER",
            "sektor": "Sektor Perdagangan, Sektor Keuangan, Sektor Teknologi Informasi dan Komunikasi",
            "tanggal_terbit": "2022-06-29",
            "url_tdpse_detail": "https://pse.komdigi.go.id/tdpse-detail/4949",
            "website": "flanner.id"
        },
        {
            "id": "9cb1ab99-46dd-4388-b7d1-f3fc03b5ab57",
            "nama_pse": "-",
            "nama_se": "YAKES MOBILE",
            "sektor": "Sektor Kesehatan",
            "tanggal_terbit": "2022-06-29",
            "url_tdpse_detail": "https://pse.komdigi.go.id/tdpse-detail/4950",
            "website": "yakestelkom.or.id"
        },
        {
            "id": "9cb1aba4-953b-4469-8dbd-336a740705fc",
            "nama_pse": "CINTA INOVASI DALAM NEGERI",
            "nama_se": "LENDINGHUB.ID",
            "sektor": "Sektor Teknologi Informasi dan Komunikasi",
            "tanggal_terbit": "2022-06-29",
            "url_tdpse_detail": "https://pse.komdigi.go.id/tdpse-detail/4951",
            "website": "lendinghub.id"
        },
        {
            "id": "9cb1ab99-528a-4af6-a5f3-c3b6f8a80099",
            "nama_pse": "MOSTRANS GLOBAL DIGILOG",
            "nama_se": "MOSTRANS",
            "sektor": "Sektor Transportasi",
            "tanggal_terbit": "2022-06-29",
            "url_tdpse_detail": "https://pse.komdigi.go.id/tdpse-detail/4952",
            "website": "mostrans.co.id"
        },
        {
            "id": "9cb1aba4-97fa-4cdb-96a6-3b9ce6c3ae70",
            "nama_pse": "INDONUSA TELEMEDIA",
            "nama_se": "CUBMU",
            "sektor": "Sektor Teknologi Informasi dan Komunikasi",
            "tanggal_terbit": "2022-06-29",
            "url_tdpse_detail": "https://pse.komdigi.go.id/tdpse-detail/4953",
            "website": "cubmu.com"
        },
        {
            "id": "9cb1ab99-5641-47a0-8efa-cd84ebbb46e2",
            "nama_pse": "MOSTRANS GLOBAL DIGILOG",
            "nama_se": "MOSTRANS E-POD",
            "sektor": "Sektor Keuangan",
            "tanggal_terbit": "2022-06-29",
            "url_tdpse_detail": "https://pse.komdigi.go.id/tdpse-detail/4954",
            "website": "mostrans.co.id"
        },
        {
            "id": "9cb1aba4-9ace-4af6-a939-9d3dc6ab8ba0",
            "nama_pse": "ASURANSI WAHANA TATA",
            "nama_se": "SIDIA (SISTEM INFORMASI DIGITAL ASWATA)",
            "sektor": "Sektor Keuangan",
            "tanggal_terbit": "2022-06-29",
            "url_tdpse_detail": "https://pse.komdigi.go.id/tdpse-detail/4956",
            "website": "-"
        },
        {
            "id": "9cb1ab99-5e47-4364-9f8d-96ddecd9cc1a",
            "nama_pse": "BERSAMA ZATTA MULYA",
            "nama_se": "ELZATTA.COM",
            "sektor": "Sektor Perdagangan",
            "tanggal_terbit": "2022-06-29",
            "url_tdpse_detail": "https://pse.komdigi.go.id/tdpse-detail/4955",
            "website": "Elzatta.com"
        },
        {
            "id": "9cb1abae-41bc-47c0-afb4-c2942bcfdba1",
            "nama_pse": "BERSAMA DAUKY MULYA",
            "nama_se": "DAUKY.CO.ID",
            "sektor": "Sektor Perdagangan",
            "tanggal_terbit": "2022-06-29",
            "url_tdpse_detail": "https://pse.komdigi.go.id/tdpse-detail/4957",
            "website": "DAUKY.co.id"
        },
        {
            "id": "9cb1ab99-677b-4f20-a29e-f6200bda81a4",
            "nama_pse": "SKOR DIGITAL TEKNOLOGI",
            "nama_se": "SKOR",
            "sektor": "Sektor Teknologi Informasi dan Komunikasi",
            "tanggal_terbit": "2022-06-29",
            "url_tdpse_detail": "https://pse.komdigi.go.id/tdpse-detail/4958",
            "website": "skorpoints.com"
        },
        {
            "id": "9cb1aba4-9db2-42b0-a511-1430ca0020e4",
            "nama_pse": "DARMAWI MACHMUD",
            "nama_se": "PORTAL INFO",
            "sektor": "Sektor Perdagangan, Sektor Teknologi Informasi dan Komunikasi",
            "tanggal_terbit": "2022-06-29",
            "url_tdpse_detail": "https://pse.komdigi.go.id/tdpse-detail/4959",
            "website": "bogorcompany.site"
        },
        {
            "id": "9cb1ab99-6a9c-439e-8282-8e6f9ccbc7e3",
            "nama_pse": "LUBNA CELL EXPRESS",
            "nama_se": "LUBNA CELL EXPRESS",
            "sektor": "Sektor Perdagangan",
            "tanggal_terbit": "2022-06-29",
            "url_tdpse_detail": "https://pse.komdigi.go.id/tdpse-detail/4960",
            "website": "-"
        },
        {
            "id": "9cb1ab99-6d48-4350-a33b-debb4082c8e8",
            "nama_pse": "SISMADI LANGIT SOLUSI",
            "nama_se": "SISMADI COMPUTER",
            "sektor": "Sektor Teknologi Informasi dan Komunikasi",
            "tanggal_terbit": "2022-06-29",
            "url_tdpse_detail": "https://pse.komdigi.go.id/tdpse-detail/4961",
            "website": "sismadi.co.id"
        },
        {
            "id": "9cb1abae-4bda-443d-b473-17270deac5e9",
            "nama_pse": "PIARA JIWA INDONESIA",
            "nama_se": "DEAR HOPE",
            "sektor": "Sektor Perdagangan, Sektor Kesehatan",
            "tanggal_terbit": "2022-06-29",
            "url_tdpse_detail": "https://pse.komdigi.go.id/tdpse-detail/4962",
            "website": "dearhope.id"
        },
        {
            "id": "9cb1aba4-7d57-458c-a0c2-e58358c9ab44",
            "nama_pse": "PERUSAHAAN PERSEROAN (PERSERO) PT. BANK RAKYAT INDONESIA",
            "nama_se": "BRIGUNA DIGITAL",
            "sektor": "Sektor Keuangan",
            "tanggal_terbit": "2022-06-29",
            "url_tdpse_detail": "https://pse.komdigi.go.id/tdpse-detail/4925",
            "website": "app.briguna.bri.co.id"
        },
        {
            "id": "9cb1abae-1c88-4023-b90c-e3b58e5a35a2",
            "nama_pse": "PERUSAHAAN PERSEROAN (PERSERO) PT. BANK RAKYAT INDONESIA",
            "nama_se": "BRIFAST REMITTANCE",
            "sektor": "Sektor Keuangan",
            "tanggal_terbit": "2022-06-28",
            "url_tdpse_detail": "https://pse.komdigi.go.id/tdpse-detail/4891",
            "website": "trx.brifast.co.id"
        },
        {
            "id": "9cb1ab98-fd30-474b-8e53-6b5f357eab6b",
            "nama_pse": "BANK CHINA CONSTRUCTION BANK INDONESIA TBK",
            "nama_se": "INTERNET BANKING CCB INDONESIA",
            "sektor": "Sektor Keuangan",
            "tanggal_terbit": "2022-06-28",
            "url_tdpse_detail": "https://pse.komdigi.go.id/tdpse-detail/4904",
            "website": "IB.BANKCCBI.COM"
        },
        {
            "id": "9cb1ab98-ff69-421b-8ed1-3167e4f2c660",
            "nama_pse": "MEDIFA INFOYASA SURYANTARA",
            "nama_se": "DOCTORTOOL",
            "sektor": "Sektor Kesehatan",
            "tanggal_terbit": "2022-06-28",
            "url_tdpse_detail": "https://pse.komdigi.go.id/tdpse-detail/4884",
            "website": "doctortool.id"
        },
        {
            "id": "9cb1aba4-4650-4322-8aa7-86992955b36c",
            "nama_pse": "SEMESTA INTEGRASI DIGITAL",
            "nama_se": "SEKOLAH.MU",
            "sektor": "Sektor Teknologi Informasi dan Komunikasi",
            "tanggal_terbit": "2022-06-28",
            "url_tdpse_detail": "https://pse.komdigi.go.id/tdpse-detail/4885",
            "website": "sekolah.mu"
        },
        {
            "id": "9cb1abae-2262-4af9-8502-1de223fda2df",
            "nama_pse": "BANK CHINA CONSTRUCTION BANK INDONESIA TBK",
            "nama_se": "MOBILE BANKING CCB INDONESIA",
            "sektor": "Sektor Keuangan",
            "tanggal_terbit": "2022-06-28",
            "url_tdpse_detail": "https://pse.komdigi.go.id/tdpse-detail/4892",
            "website": "-"
        },
        {
            "id": "9cb1abae-2427-4d90-bf62-ec08b2438f79",
            "nama_pse": "BANK CHINA CONSTRUCTION BANK INDONESIA TBK",
            "nama_se": "KPR CCB INDONESIA",
            "sektor": "Sektor Keuangan",
            "tanggal_terbit": "2022-06-28",
            "url_tdpse_detail": "https://pse.komdigi.go.id/tdpse-detail/4893",
            "website": "kprccb.id"
        },
        {
            "id": "9cb1aba4-513c-4a07-8108-57452eb77dda",
            "nama_pse": "SOLUSINDO BINTANG PRATAMA",
            "nama_se": "INTERNET SERVICE PROVIDER",
            "sektor": "Sektor Teknologi Informasi dan Komunikasi",
            "tanggal_terbit": "2022-06-28",
            "url_tdpse_detail": "https://pse.komdigi.go.id/tdpse-detail/4894",
            "website": "comet.net.id"
        },
        {
            "id": "9cb1abae-25d0-46eb-a734-83416c41c2ac",
            "nama_pse": "L`OREAL INDONESIA",
            "nama_se": "APPECTUAL IT SOLUTIONS LLP",
            "sektor": "Sektor Perdagangan",
            "tanggal_terbit": "2022-06-28",
            "url_tdpse_detail": "https://pse.komdigi.go.id/tdpse-detail/4895",
            "website": "lorealsalonshop.co.id"
        },
        {
            "id": "9cb1ab99-0731-4766-bce4-1f331077243c",
            "nama_pse": "MAGNA KARSA MULYA",
            "nama_se": "MKM",
            "sektor": "Sektor Perdagangan",
            "tanggal_terbit": "2022-06-28",
            "url_tdpse_detail": "https://pse.komdigi.go.id/tdpse-detail/4896",
            "website": "mkm.id"
        },
        {
            "id": "9cb1aba4-53e9-4b63-a3fd-e751856200bf",
            "nama_pse": "BANK CHINA CONSTRUCTION BANK INDONESIA TBK",
            "nama_se": "EMAIL PORTAL CCB INDONESIA",
            "sektor": "Sektor Keuangan",
            "tanggal_terbit": "2022-06-28",
            "url_tdpse_detail": "https://pse.komdigi.go.id/tdpse-detail/4899",
            "website": "webmail.bankccbi.com"
        },
        {
            "id": "9cb1aba4-5660-423d-beba-b55db2b3c28b",
            "nama_pse": "LENTERA INSPIRASI PEMBIAYAAN",
            "nama_se": "JTO HOMEPAGE",
            "sektor": "Sektor Keuangan",
            "tanggal_terbit": "2022-06-28",
            "url_tdpse_detail": "https://pse.komdigi.go.id/tdpse-detail/4897",
            "website": "jto.co.id"
        },
        {
            "id": "9cb1ab99-0996-49a1-b87f-b807556f91f1",
            "nama_pse": "ANALISALES DIGITAL INDONESIA",
            "nama_se": "NIMBLY TECH",
            "sektor": "Sektor Teknologi Informasi dan Komunikasi",
            "tanggal_terbit": "2022-06-28",
            "url_tdpse_detail": "https://pse.komdigi.go.id/tdpse-detail/4898",
            "website": "hellonimbly.com"
        },
        {
            "id": "9cb1aba4-5960-4731-8353-e55a352cc306",
            "nama_pse": "OTO MULTIARTHA",
            "nama_se": "WWW.OTO.CO.ID",
            "sektor": "Sektor Keuangan",
            "tanggal_terbit": "2022-06-28",
            "url_tdpse_detail": "https://pse.komdigi.go.id/tdpse-detail/4900",
            "website": "oto.co.id"
        },
        {
            "id": "9cb1aba4-5cc1-4978-9a75-7ce5062d1b55",
            "nama_pse": "YULIANTO DWI SAPUTRO",
            "nama_se": "SPEKTA STUDIO",
            "sektor": "Sektor Teknologi Informasi dan Komunikasi",
            "tanggal_terbit": "2022-06-28",
            "url_tdpse_detail": "https://pse.komdigi.go.id/tdpse-detail/4901",
            "website": "spekta.co.id"
        },
        {
            "id": "9cb1ab99-0b82-4a0e-b9ee-026c98b3cb08",
            "nama_pse": "BANK CHINA CONSTRUCTION BANK INDONESIA TBK",
            "nama_se": "CCB PARTNERS",
            "sektor": "Sektor Keuangan",
            "tanggal_terbit": "2022-06-28",
            "url_tdpse_detail": "https://pse.komdigi.go.id/tdpse-detail/4902",
            "website": "-"
        },
        {
            "id": "9cb1ab99-0e4c-40ef-9875-ddc3ae0dbf19",
            "nama_pse": "BANK CHINA CONSTRUCTION BANK INDONESIA TBK",
            "nama_se": "WEBSITE CCB INDONESIA",
            "sektor": "Sektor Keuangan",
            "tanggal_terbit": "2022-06-28",
            "url_tdpse_detail": "https://pse.komdigi.go.id/tdpse-detail/4903",
            "website": "IDN.CCB.COM"
        },
        {
            "id": "9cb1aba4-5fb6-49e4-abbd-2b60a67c1f67",
            "nama_pse": "BANK KB BUKOPIN SYARIAH",
            "nama_se": "SYARIAH BUKOPIN CASH MANAGEMNET (SBCM)",
            "sektor": "Sektor Keuangan",
            "tanggal_terbit": "2022-06-28",
            "url_tdpse_detail": "https://pse.komdigi.go.id/tdpse-detail/4906",
            "website": "-"
        },
        {
            "id": "9cb1abae-27dd-4acc-a917-b5a215a41ecf",
            "nama_pse": "DUTA ABADI PERDANA",
            "nama_se": "OGAWA.ID",
            "sektor": "Sektor Kesehatan, Sektor Teknologi Informasi dan Komunikasi",
            "tanggal_terbit": "2022-06-28",
            "url_tdpse_detail": "https://pse.komdigi.go.id/tdpse-detail/4905",
            "website": "ogawa.id"
        },
        {
            "id": "9cb1abae-2a1a-430d-9d04-10be8e9000da",
            "nama_pse": "BANK KB BUKOPIN SYARIAH",
            "nama_se": "ATM KB BUKOPIN SYARIAH",
            "sektor": "Sektor Keuangan",
            "tanggal_terbit": "2022-06-28",
            "url_tdpse_detail": "https://pse.komdigi.go.id/tdpse-detail/4907",
            "website": "-"
        },
        {
            "id": "9cb1abae-2bb7-4e3a-bc59-8223dee86cc2",
            "nama_pse": "PELITA TEKNOLOGI NUSANTARA",
            "nama_se": "BLINK",
            "sektor": "Sektor Teknologi Informasi dan Komunikasi",
            "tanggal_terbit": "2022-06-28",
            "url_tdpse_detail": "https://pse.komdigi.go.id/tdpse-detail/4908",
            "website": "blink.co.id"
        },
        {
            "id": "9cb1ab99-1068-42ca-905a-977ebd0485ba",
            "nama_pse": "MEDI CRYPTO INTERNATIONAL",
            "nama_se": "BITONBAY",
            "sektor": "Sektor Perdagangan",
            "tanggal_terbit": "2022-06-28",
            "url_tdpse_detail": "https://pse.komdigi.go.id/tdpse-detail/4912",
            "website": "Bitonbay.com"
        },
        {
            "id": "9cb1aba4-68cb-4fef-a06c-168d8fe6822d",
            "nama_pse": "BANK KB BUKOPIN SYARIAH",
            "nama_se": "SMS BANKING KB BUKOPIN SYARIAH",
            "sektor": "Sektor Keuangan",
            "tanggal_terbit": "2022-06-28",
            "url_tdpse_detail": "https://pse.komdigi.go.id/tdpse-detail/4910",
            "website": "-"
        },
        {
            "id": "9cb1ab99-129d-45b7-89eb-ee4c3fff726f",
            "nama_pse": "NUSANTARA APLIKASI PRODUK",
            "nama_se": "ICOUNT",
            "sektor": "Sektor Teknologi Informasi dan Komunikasi",
            "tanggal_terbit": "2022-06-28",
            "url_tdpse_detail": "https://pse.komdigi.go.id/tdpse-detail/4913",
            "website": "nap.id"
        },
        {
            "id": "9cb1ab99-1514-40ad-b0c6-59b4c91c6aa4",
            "nama_pse": "BINTANG CAHAYA MAKMUR",
            "nama_se": "ONLINE SHOOP",
            "sektor": "Sektor Perdagangan, Sektor Teknologi Informasi dan Komunikasi",
            "tanggal_terbit": "2022-06-28",
            "url_tdpse_detail": "https://pse.komdigi.go.id/tdpse-detail/4914",
            "website": "-"
        }
    ],
    "processingTimeMs": 12,
    "query": "",
    "totalHits": 19131,
    "hitsPerPage": 50,
    "page": 295,
    "totalPages": 383
}