{
    "hits": [
        {
            "id": "9cb1ac2b-7938-451e-b6fb-04f9abbf380d",
            "nama_pse": "ANALISIS SIBER",
            "nama_se": "CV ANALISIS SIBER",
            "sektor": "Sektor Teknologi Informasi dan Komunikasi",
            "tanggal_terbit": "2023-01-06",
            "url_tdpse_detail": "https://pse.komdigi.go.id/tdpse-detail/13439",
            "website": "-"
        },
        {
            "id": "9cb1ac2b-9887-476f-ae7d-6688f2e11bab",
            "nama_pse": "BTH UMMAT MANDIRI",
            "nama_se": "LAYANAN VIRTUAL ACCOUNT",
            "sektor": "Sektor Teknologi Informasi dan Komunikasi",
            "tanggal_terbit": "2023-01-06",
            "url_tdpse_detail": "https://pse.komdigi.go.id/tdpse-detail/13443",
            "website": "-"
        },
        {
            "id": "9cb1ac2b-9bb1-490b-8009-c7b616d22f4c",
            "nama_pse": "TAUFIK",
            "nama_se": "MOBILSIA.COM",
            "sektor": "Sektor Teknologi Informasi dan Komunikasi",
            "tanggal_terbit": "2023-01-06",
            "url_tdpse_detail": "https://pse.komdigi.go.id/tdpse-detail/13445",
            "website": "mobilsia.com"
        },
        {
            "id": "9cb1ac19-550c-4816-b3a4-b87e1d2c8e2e",
            "nama_pse": "TRIPUTRA PERKASA INDONESIA",
            "nama_se": "MILD STORE",
            "sektor": "Sektor Perdagangan",
            "tanggal_terbit": "2023-01-05",
            "url_tdpse_detail": "https://pse.komdigi.go.id/tdpse-detail/13427",
            "website": "mild-store.com"
        },
        {
            "id": "9cb1ac18-80a8-43bb-8f55-d4c54d0803ac",
            "nama_pse": "TIGA INTI UTAMA",
            "nama_se": "TRIV.CO.ID",
            "sektor": "Sektor Perdagangan, Sektor Keuangan, Sektor Teknologi Informasi dan Komunikasi",
            "tanggal_terbit": "2023-01-05",
            "url_tdpse_detail": "https://pse.komdigi.go.id/tdpse-detail/13424",
            "website": "triv.co.id"
        },
        {
            "id": "9cb1ac2b-57c1-4b40-89e0-30460283c648",
            "nama_pse": "CYBERQUOTE INDONESIA",
            "nama_se": "WEBSITE",
            "sektor": "Sektor Perdagangan",
            "tanggal_terbit": "2023-01-05",
            "url_tdpse_detail": "https://pse.komdigi.go.id/tdpse-detail/13422",
            "website": "indoinfo.co.id"
        },
        {
            "id": "9cb1ac2b-62b4-42c0-a27f-44f2e473c5ce",
            "nama_pse": "SYARIAH BMT DAARUSSALAAM SERUYAN",
            "nama_se": "BMT MOBILE ONLINE",
            "sektor": "Sektor Teknologi Informasi dan Komunikasi",
            "tanggal_terbit": "2023-01-05",
            "url_tdpse_detail": "https://pse.komdigi.go.id/tdpse-detail/13426",
            "website": "-"
        },
        {
            "id": "9cb1ac18-9da2-47da-a544-1666bdb53137",
            "nama_pse": "NOVAL KUSUMA",
            "nama_se": "HIBURANKITA.ID",
            "sektor": "Sektor Teknologi Informasi dan Komunikasi",
            "tanggal_terbit": "2023-01-05",
            "url_tdpse_detail": "https://pse.komdigi.go.id/tdpse-detail/13429",
            "website": "hiburankita.id"
        },
        {
            "id": "9cb1ac2b-6591-415b-a8be-efa2928831f1",
            "nama_pse": "PERUSAHAAN PERSEROAN (PERSERO) PT INDUSTRI KERETA API",
            "nama_se": "WEBSITE PT INKA (PERSERO)",
            "sektor": "Sektor Perdagangan, Sektor Transportasi",
            "tanggal_terbit": "2023-01-05",
            "url_tdpse_detail": "https://pse.komdigi.go.id/tdpse-detail/13430",
            "website": "inka.co.id"
        },
        {
            "id": "9cb1ac1a-4fa0-4d97-b31e-e56c840ea303",
            "nama_pse": "AKSES KEUANGAN INDONESIA",
            "nama_se": "CREDIPASS",
            "sektor": "Sektor Teknologi Informasi dan Komunikasi",
            "tanggal_terbit": "2023-01-05",
            "url_tdpse_detail": "https://pse.komdigi.go.id/tdpse-detail/13432",
            "website": "credipass.id"
        },
        {
            "id": "9cb1ac1a-5258-4492-8bbb-92b7fbe10d83",
            "nama_pse": "LOKA DIGITAL NIAGA",
            "nama_se": "WAKOTHEME.COM",
            "sektor": "Sektor Teknologi Informasi dan Komunikasi",
            "tanggal_terbit": "2023-01-05",
            "url_tdpse_detail": "https://pse.komdigi.go.id/tdpse-detail/13431",
            "website": "wakotheme.com"
        },
        {
            "id": "9cb1ac1a-38d1-4834-957d-96eb47d1c65d",
            "nama_pse": "PRATAMA KENCANA CEMERLANG",
            "nama_se": "PRATAMA KENCANA CEMERLANG",
            "sektor": "Sektor Teknologi Informasi dan Komunikasi",
            "tanggal_terbit": "2023-01-04",
            "url_tdpse_detail": "https://pse.komdigi.go.id/tdpse-detail/13411",
            "website": "pratamakencana.com"
        },
        {
            "id": "9cb1ac1a-3bbd-4013-9de8-ed6bb9ec4d91",
            "nama_pse": "BLDX KOMIK NUSANTARA",
            "nama_se": "STAYTOON",
            "sektor": "Sektor Teknologi Informasi dan Komunikasi",
            "tanggal_terbit": "2023-01-04",
            "url_tdpse_detail": "https://pse.komdigi.go.id/tdpse-detail/13413",
            "website": "Staytoon.id"
        },
        {
            "id": "9cb1ac1a-3f30-498b-a06f-0ee07a646b11",
            "nama_pse": "DOBEL NETWORK INTERNASIONAL",
            "nama_se": "DOBEL.CO.ID",
            "sektor": "Sektor Perdagangan",
            "tanggal_terbit": "2023-01-04",
            "url_tdpse_detail": "https://pse.komdigi.go.id/tdpse-detail/13412",
            "website": "dobel.co.id"
        },
        {
            "id": "9cb1ac18-7d87-488f-913e-1337ec0f82e3",
            "nama_pse": "WIJAYA TRIMITRA INDONESIA",
            "nama_se": "WIJAYA PAYMENT",
            "sektor": "Sektor Perdagangan",
            "tanggal_terbit": "2023-01-04",
            "url_tdpse_detail": "https://pse.komdigi.go.id/tdpse-detail/13414",
            "website": "wijayapayment.co.id"
        },
        {
            "id": "9cb1ac2b-47b4-4a16-a11c-522bbf5e19c1",
            "nama_pse": "PELATIHAN ANAK BANGSA",
            "nama_se": "CIPTA TARUNA",
            "sektor": "Sektor Teknologi Informasi dan Komunikasi",
            "tanggal_terbit": "2023-01-04",
            "url_tdpse_detail": "https://pse.komdigi.go.id/tdpse-detail/13415",
            "website": "ciptataruna.id"
        },
        {
            "id": "9cb1ac2b-4aca-44ab-9ff6-853a4854353b",
            "nama_pse": "SYARIAH BMT DAARUSSALAAM SERUYAN",
            "nama_se": "IBS E-CHANNEL",
            "sektor": "Sektor Teknologi Informasi dan Komunikasi",
            "tanggal_terbit": "2023-01-04",
            "url_tdpse_detail": "https://pse.komdigi.go.id/tdpse-detail/13416",
            "website": "bmtds.com"
        },
        {
            "id": "9cb1ac1a-420d-49b8-b58a-af3f69207bd8",
            "nama_pse": "GLOBAL DISTRIBUSI PUSAKA",
            "nama_se": "FULFILLMENT AT SPEED (FAS)",
            "sektor": "Sektor Perdagangan",
            "tanggal_terbit": "2023-01-04",
            "url_tdpse_detail": "https://pse.komdigi.go.id/tdpse-detail/13417",
            "website": "fas-fulfillment.com"
        },
        {
            "id": "9cb1ac1a-44bd-4280-a88d-fe031f98a1bb",
            "nama_pse": "CYBERDATA TECHNOLOGY",
            "nama_se": "CYBERDATA TECHNOLOGY",
            "sektor": "Sektor Teknologi Informasi dan Komunikasi",
            "tanggal_terbit": "2023-01-04",
            "url_tdpse_detail": "https://pse.komdigi.go.id/tdpse-detail/13418",
            "website": "cyberdata.co.id"
        },
        {
            "id": "9cb1ac1a-47a1-4269-88bc-809f3ad0ed4b",
            "nama_pse": "UJUNG SEMESTA GALAKSI",
            "nama_se": "FUNNELIOO",
            "sektor": "Sektor Teknologi Informasi dan Komunikasi",
            "tanggal_terbit": "2023-01-04",
            "url_tdpse_detail": "https://pse.komdigi.go.id/tdpse-detail/13419",
            "website": "funnelioo.com"
        },
        {
            "id": "9cb1ac18-87b9-4dad-8568-eb86278d9351",
            "nama_pse": "MASTER WEB NETWORK",
            "nama_se": "MASTER WEB NETWORK",
            "sektor": "Sektor Teknologi Informasi dan Komunikasi",
            "tanggal_terbit": "2023-01-04",
            "url_tdpse_detail": "https://pse.komdigi.go.id/tdpse-detail/13420",
            "website": "masterweb.com"
        },
        {
            "id": "9cb1ac18-8b7e-43ed-bf45-b6a8baf1f807",
            "nama_pse": "HARAPAN BAIK INDONESIA",
            "nama_se": "HARAPAN BAIK INDONESIA",
            "sektor": "Sektor Teknologi Informasi dan Komunikasi",
            "tanggal_terbit": "2023-01-04",
            "url_tdpse_detail": "https://pse.komdigi.go.id/tdpse-detail/13421",
            "website": "sedekah.or.id"
        },
        {
            "id": "9cb1ac19-527d-4979-9d9d-ec76fbd0aed4",
            "nama_pse": "ADITYA QJABAR MULTIMEDIA",
            "nama_se": "QJABAR",
            "sektor": "Sektor Teknologi Informasi dan Komunikasi",
            "tanggal_terbit": "2023-01-03",
            "url_tdpse_detail": "https://pse.komdigi.go.id/tdpse-detail/13405",
            "website": "-"
        },
        {
            "id": "9cb1ac1a-1673-4678-b389-95f278c24884",
            "nama_pse": "YOYO TECHNOLOGY INDONESIA",
            "nama_se": "POPSTAR INFLUENCER",
            "sektor": "Sektor Teknologi Informasi dan Komunikasi",
            "tanggal_terbit": "2023-01-03",
            "url_tdpse_detail": "https://pse.komdigi.go.id/tdpse-detail/13402",
            "website": "-"
        },
        {
            "id": "9cb1ac1a-195f-4d21-b836-54f48ea01dc8",
            "nama_pse": "YOYO TECHNOLOGY INDONESIA",
            "nama_se": "BAKULIO",
            "sektor": "Sektor Teknologi Informasi dan Komunikasi",
            "tanggal_terbit": "2023-01-03",
            "url_tdpse_detail": "https://pse.komdigi.go.id/tdpse-detail/13398",
            "website": "-"
        },
        {
            "id": "9cb1ac1a-2bd4-4b07-919e-7cde90bc44b6",
            "nama_pse": "DIGITAL TRUK INDONESIA",
            "nama_se": "RITASE",
            "sektor": "Sektor Teknologi Informasi dan Komunikasi",
            "tanggal_terbit": "2023-01-03",
            "url_tdpse_detail": "https://pse.komdigi.go.id/tdpse-detail/13396",
            "website": "-"
        },
        {
            "id": "9cb1ac1a-3156-4c00-81c8-e2948d65c29a",
            "nama_pse": "MAJU UNTUK NEGERI",
            "nama_se": "SPOTLUTION",
            "sektor": "Sektor Perdagangan",
            "tanggal_terbit": "2023-01-03",
            "url_tdpse_detail": "https://pse.komdigi.go.id/tdpse-detail/13397",
            "website": "spotlution.com"
        },
        {
            "id": "9cb1ac1a-33c2-4637-a3cd-6df2e1884d7c",
            "nama_pse": "INOVASI RETAIL INDO",
            "nama_se": "WAKAI.ID",
            "sektor": "Sektor Perdagangan",
            "tanggal_terbit": "2023-01-03",
            "url_tdpse_detail": "https://pse.komdigi.go.id/tdpse-detail/13399",
            "website": "wakai.id"
        },
        {
            "id": "9cb1ac18-61ee-4ea9-bcce-e72e18d0ff07",
            "nama_pse": "SOLIDARITAS PERS INDONESIA",
            "nama_se": "SOLIDARITAS PERS INDONESIA",
            "sektor": "Sektor Teknologi Informasi dan Komunikasi",
            "tanggal_terbit": "2023-01-03",
            "url_tdpse_detail": "https://pse.komdigi.go.id/tdpse-detail/13400",
            "website": "spipusat.com"
        },
        {
            "id": "9cb1ac2b-2736-4ea2-afa9-7a15f592a39e",
            "nama_pse": "INOVASI RETAIL INDO",
            "nama_se": "TLTSN.ID",
            "sektor": "Sektor Perdagangan",
            "tanggal_terbit": "2023-01-03",
            "url_tdpse_detail": "https://pse.komdigi.go.id/tdpse-detail/13401",
            "website": "tltsn.id"
        },
        {
            "id": "9cb1ac18-6892-4fbd-884f-4b6714a9074c",
            "nama_pse": "SEKILAS MOJOKERTO MEDIA",
            "nama_se": "PT. SEKILAS MOJOKERTO MEDIA",
            "sektor": "Sektor Teknologi Informasi dan Komunikasi",
            "tanggal_terbit": "2023-01-03",
            "url_tdpse_detail": "https://pse.komdigi.go.id/tdpse-detail/13403",
            "website": "sekilasmedia.com"
        },
        {
            "id": "9cb1ac18-6f77-4b52-9b67-91d6936e8a7e",
            "nama_pse": "ASRAHI CIPTA MEDIA",
            "nama_se": "MEDIANASIONALPOTRET",
            "sektor": "Sektor Teknologi Informasi dan Komunikasi",
            "tanggal_terbit": "2023-01-03",
            "url_tdpse_detail": "https://pse.komdigi.go.id/tdpse-detail/13404",
            "website": "medianasionalpotret.com"
        },
        {
            "id": "9cb1ac1a-363f-4452-98f2-5482cef5057b",
            "nama_pse": "DAYA INDOSA PRATAMA",
            "nama_se": "AFYA-HIS",
            "sektor": "Sektor Teknologi Informasi dan Komunikasi",
            "tanggal_terbit": "2023-01-03",
            "url_tdpse_detail": "https://pse.komdigi.go.id/tdpse-detail/13406",
            "website": "dayaindosa.com"
        },
        {
            "id": "9cb1ac18-7576-40c0-8d14-4c92c38e83a0",
            "nama_pse": "NORTH LINGKAR SEJAHTERA",
            "nama_se": "NORTH LINGKAR SEJAHTERA",
            "sektor": "Sektor Teknologi Informasi dan Komunikasi",
            "tanggal_terbit": "2023-01-03",
            "url_tdpse_detail": "https://pse.komdigi.go.id/tdpse-detail/13408",
            "website": "northcycle.co.id"
        },
        {
            "id": "9cb1ac18-79cb-4c24-88a3-ad464291e4e4",
            "nama_pse": "PERTAMINA MAINTENANCE AND CONSTRUCTION",
            "nama_se": "GO FEAT",
            "sektor": "Sektor Teknologi Informasi dan Komunikasi",
            "tanggal_terbit": "2023-01-03",
            "url_tdpse_detail": "https://pse.komdigi.go.id/tdpse-detail/13407",
            "website": "pm.pbasolusi.com"
        },
        {
            "id": "9cb1ac2b-305c-4410-8db6-0fdcf5b28f41",
            "nama_pse": "KARYA GENERASI BIRU",
            "nama_se": "SHIELDTAG",
            "sektor": "Sektor Teknologi Informasi dan Komunikasi",
            "tanggal_terbit": "2023-01-03",
            "url_tdpse_detail": "https://pse.komdigi.go.id/tdpse-detail/13409",
            "website": "shieldtag.co"
        },
        {
            "id": "9cb1ac2b-34bb-4204-bae9-e3dce921082c",
            "nama_pse": "MEDIA TIGA WARNA",
            "nama_se": "SIMRS HOPE",
            "sektor": "Sektor Kesehatan",
            "tanggal_terbit": "2023-01-03",
            "url_tdpse_detail": "https://pse.komdigi.go.id/tdpse-detail/13410",
            "website": "media3warna.com"
        },
        {
            "id": "9cb1ac19-70b0-4847-bcf8-f87163b70e98",
            "nama_pse": "TEKNOLOGI ABADI SEJAHTERA",
            "nama_se": "MGAMES",
            "sektor": "Sektor Teknologi Informasi dan Komunikasi",
            "tanggal_terbit": "2023-01-02",
            "url_tdpse_detail": "https://pse.komdigi.go.id/tdpse-detail/13391",
            "website": "-"
        },
        {
            "id": "9cb1ac2a-9c2f-4516-a87d-79b490adbfdc",
            "nama_pse": "TANJUNG MULIA ABADI",
            "nama_se": "SIMKES KHANZA KLINIK AMALIA HUSADA",
            "sektor": "Sektor Kesehatan",
            "tanggal_terbit": "2023-01-02",
            "url_tdpse_detail": "https://pse.komdigi.go.id/tdpse-detail/13389",
            "website": "-"
        },
        {
            "id": "9cb1ac18-5bc8-4489-aaf6-025bbaf4b210",
            "nama_pse": "BALI YONI SAGUNA",
            "nama_se": "BALIYONI",
            "sektor": "Sektor Perdagangan",
            "tanggal_terbit": "2023-01-02",
            "url_tdpse_detail": "https://pse.komdigi.go.id/tdpse-detail/13393",
            "website": "baliyoni.co.id"
        },
        {
            "id": "9cb1ac1a-28ce-441a-87b3-66011bf10e62",
            "nama_pse": "BANK PERKREDITAN RAKYAT BADAN KREDIT KECAMATAN KABUPATEN WONOSOBO PERSERODA",
            "nama_se": "QRIS",
            "sektor": "Sektor Teknologi Informasi dan Komunikasi",
            "tanggal_terbit": "2023-01-02",
            "url_tdpse_detail": "https://pse.komdigi.go.id/tdpse-detail/13390",
            "website": "bprbkkwonosobo.co.id"
        },
        {
            "id": "9cb1ac18-5ee3-4242-9150-addd70b26b6f",
            "nama_pse": "METROX FORTUNA",
            "nama_se": "OSIM.ID",
            "sektor": "Sektor Perdagangan",
            "tanggal_terbit": "2023-01-02",
            "url_tdpse_detail": "https://pse.komdigi.go.id/tdpse-detail/13392",
            "website": "osim.id"
        },
        {
            "id": "9cb1ac2b-1ac5-41f3-818e-9938a5867997",
            "nama_pse": "MAJU UNTUK NEGERI",
            "nama_se": "MOONBOT SPOTLUTION",
            "sektor": "Sektor Perdagangan",
            "tanggal_terbit": "2023-01-02",
            "url_tdpse_detail": "https://pse.komdigi.go.id/tdpse-detail/13394",
            "website": "moonbotofficial.com"
        },
        {
            "id": "9cb1ac2b-23e0-48ff-9b0c-36ee0de91e68",
            "nama_pse": "ARIF TOFIK HUROHMAN",
            "nama_se": "QUICKENWORKS.CO",
            "sektor": "Sektor Teknologi Informasi dan Komunikasi",
            "tanggal_terbit": "2023-01-02",
            "url_tdpse_detail": "https://pse.komdigi.go.id/tdpse-detail/13395",
            "website": "quickenworks.co"
        },
        {
            "id": "9cb1ac1a-2573-4b91-b902-56d83956826f",
            "nama_pse": "FANFIO MULTI SOLUSI",
            "nama_se": "PT FANFIO MULTI SOLUSI",
            "sektor": "Sektor Perdagangan, Sektor Teknologi Informasi dan Komunikasi",
            "tanggal_terbit": "2023-01-01",
            "url_tdpse_detail": "https://pse.komdigi.go.id/tdpse-detail/13384",
            "website": "-"
        },
        {
            "id": "9cb1ac2b-0958-43e7-a29c-fd09bacae167",
            "nama_pse": "INDO JAYA TANGGUH",
            "nama_se": "INDOWARTA",
            "sektor": "Sektor Teknologi Informasi dan Komunikasi",
            "tanggal_terbit": "2023-01-01",
            "url_tdpse_detail": "https://pse.komdigi.go.id/tdpse-detail/13385",
            "website": "indowarta.id"
        },
        {
            "id": "9cb1ac18-53ed-4f97-a353-419768c52474",
            "nama_pse": "ARIF TOFIK HUROHMAN",
            "nama_se": "LOKAMART",
            "sektor": "Sektor Perdagangan",
            "tanggal_terbit": "2023-01-01",
            "url_tdpse_detail": "https://pse.komdigi.go.id/tdpse-detail/13386",
            "website": "-"
        },
        {
            "id": "9cb1ac2b-1162-4b1d-936c-878093422256",
            "nama_pse": "ARIF TOFIK HUROHMAN",
            "nama_se": "BROSURKU.ONLINE",
            "sektor": "Sektor Teknologi Informasi dan Komunikasi",
            "tanggal_terbit": "2023-01-01",
            "url_tdpse_detail": "https://pse.komdigi.go.id/tdpse-detail/13387",
            "website": "brosurku.online"
        },
        {
            "id": "9cb1ac18-57d5-4c17-b498-ba7c2971d50d",
            "nama_pse": "INOVASI VISUAL INDONESIA",
            "nama_se": "NINEFLIX",
            "sektor": "Sektor Perdagangan, Sektor Teknologi Informasi dan Komunikasi",
            "tanggal_terbit": "2023-01-01",
            "url_tdpse_detail": "https://pse.komdigi.go.id/tdpse-detail/13388",
            "website": "nineflix.id"
        },
        {
            "id": "9cb1ac2b-02b6-4353-b9df-10b1f39d0148",
            "nama_pse": "PARADISO MITRA WISATA",
            "nama_se": "HIACEINDONESIA.COM",
            "sektor": "Sektor Perdagangan, Sektor Transportasi",
            "tanggal_terbit": "2022-12-31",
            "url_tdpse_detail": "https://pse.komdigi.go.id/tdpse-detail/13383",
            "website": "hiaceindonesia.com"
        }
    ],
    "processingTimeMs": 2,
    "query": "",
    "totalHits": 19131,
    "hitsPerPage": 50,
    "page": 162,
    "totalPages": 383
}