{
    "hits": [
        {
            "id": "9cb1abfb-a7d4-4e25-8452-5d6a0c7f22d2",
            "nama_pse": "REKSA FINANCE",
            "nama_se": "REKSA LOAN SYSTEM",
            "sektor": "Sektor Keuangan",
            "tanggal_terbit": "2022-08-09",
            "url_tdpse_detail": "https://pse.komdigi.go.id/tdpse-detail/10108",
            "website": "reksafinance.co.id"
        },
        {
            "id": "9cb1ac0a-e77e-4e66-b43c-ca2bfe3beff0",
            "nama_pse": "WIDEA KALYA TEKNOLOGI",
            "nama_se": "IZENHO",
            "sektor": "Sektor Perdagangan, Sektor Kesehatan, Sektor Teknologi Informasi dan Komunikasi",
            "tanggal_terbit": "2022-08-09",
            "url_tdpse_detail": "https://pse.komdigi.go.id/tdpse-detail/10109",
            "website": "izenho.com"
        },
        {
            "id": "9cb1abfb-aacf-4765-84c4-22c234ecc984",
            "nama_pse": "TONGDUN TECHNOLOGY INDONESIA",
            "nama_se": "TONGDUN TECHNOLOGY INDONESIA",
            "sektor": "Sektor Teknologi Informasi dan Komunikasi",
            "tanggal_terbit": "2022-08-09",
            "url_tdpse_detail": "https://pse.komdigi.go.id/tdpse-detail/10125",
            "website": "tongdun.id"
        },
        {
            "id": "9cb1abd5-b6ea-42d4-9e69-20f68feaf06d",
            "nama_pse": "GLOBAL LOYAL SEJAHTERA",
            "nama_se": "TSMEDIA.ID",
            "sektor": "Sektor Perdagangan",
            "tanggal_terbit": "2022-08-09",
            "url_tdpse_detail": "https://pse.komdigi.go.id/tdpse-detail/10110",
            "website": "tsmedia.id"
        },
        {
            "id": "9cb1ac0a-eb04-4d36-9c34-af2447195d17",
            "nama_pse": "MONOTARO INDONESIA",
            "nama_se": "MONOTARO INDONESIA",
            "sektor": "Sektor Perdagangan",
            "tanggal_terbit": "2022-08-09",
            "url_tdpse_detail": "https://pse.komdigi.go.id/tdpse-detail/10111",
            "website": "monotaro.id"
        },
        {
            "id": "9cb1abd5-ba86-41d8-9225-d5c683bd25b7",
            "nama_pse": "CITRA AGUNG MESTIKA",
            "nama_se": "PT. CITRA AGUNG MESTIKA",
            "sektor": "Sektor Teknologi Informasi dan Komunikasi",
            "tanggal_terbit": "2022-08-09",
            "url_tdpse_detail": "https://pse.komdigi.go.id/tdpse-detail/10112",
            "website": "WWW.IP1.CO.ID"
        },
        {
            "id": "9cb1abfb-ae1e-48bf-9402-529b1468ca8c",
            "nama_pse": "AXA INSURANCE INDONESIA",
            "nama_se": "ASMIK",
            "sektor": "Sektor Keuangan",
            "tanggal_terbit": "2022-08-09",
            "url_tdpse_detail": "https://pse.komdigi.go.id/tdpse-detail/10113",
            "website": "axa-mandiri.co.id"
        },
        {
            "id": "9cb1ac0a-ee06-4f6f-8744-00571309dfca",
            "nama_pse": "INDIGO DIGITAL MEDIA",
            "nama_se": "CUMICUMI.COM",
            "sektor": "Sektor Teknologi Informasi dan Komunikasi",
            "tanggal_terbit": "2022-08-09",
            "url_tdpse_detail": "https://pse.komdigi.go.id/tdpse-detail/10114",
            "website": "cumicumi.com"
        },
        {
            "id": "9cb1abd5-be64-41ff-aafc-0233ce7d1cd1",
            "nama_pse": "MNC PORTAL INDONESIA",
            "nama_se": "CELEBRITIES.ID",
            "sektor": "Sektor Teknologi Informasi dan Komunikasi",
            "tanggal_terbit": "2022-08-09",
            "url_tdpse_detail": "https://pse.komdigi.go.id/tdpse-detail/10115",
            "website": "celebrities.id"
        },
        {
            "id": "9cb1ac0a-f127-404f-b587-0f0e345dc192",
            "nama_pse": "AXA INSURANCE INDONESIA",
            "nama_se": "AXA MANDIRI MYPAGE",
            "sektor": "Sektor Keuangan",
            "tanggal_terbit": "2022-08-09",
            "url_tdpse_detail": "https://pse.komdigi.go.id/tdpse-detail/10116",
            "website": "mypage.axa.co.id"
        },
        {
            "id": "9cb1abfb-b13a-4dbc-94e4-2729e916678f",
            "nama_pse": "STAR KARLO INDONESIA",
            "nama_se": "KARLO",
            "sektor": "Sektor Transportasi",
            "tanggal_terbit": "2022-08-09",
            "url_tdpse_detail": "https://pse.komdigi.go.id/tdpse-detail/10117",
            "website": "karlo.id"
        },
        {
            "id": "9cb1abfb-b471-42be-8b51-94810c3e33d8",
            "nama_pse": "ALDIRACITA SEKURITAS INDONESIA",
            "nama_se": "STRIVE",
            "sektor": "Sektor Keuangan",
            "tanggal_terbit": "2022-08-09",
            "url_tdpse_detail": "https://pse.komdigi.go.id/tdpse-detail/10118",
            "website": "app.aldiracita.com"
        },
        {
            "id": "9cb1ac0a-f44f-4abb-a930-bc9e203f7d6a",
            "nama_pse": "SAMINDRA UTAMA",
            "nama_se": "WWW.NOVA.ID",
            "sektor": "Sektor Teknologi Informasi dan Komunikasi",
            "tanggal_terbit": "2022-08-09",
            "url_tdpse_detail": "https://pse.komdigi.go.id/tdpse-detail/10119",
            "website": "nova.grid.id"
        },
        {
            "id": "9cb1abfb-b814-468a-b7ea-3a3ed271d118",
            "nama_pse": "KAILANI SELARAS INDONESIA",
            "nama_se": "KAILANI",
            "sektor": "Sektor Teknologi Informasi dan Komunikasi",
            "tanggal_terbit": "2022-08-09",
            "url_tdpse_detail": "https://pse.komdigi.go.id/tdpse-detail/10120",
            "website": "kailani.id"
        },
        {
            "id": "9cb1abfb-bb11-477c-a221-b0f4f99f8cc1",
            "nama_pse": "PRIMA INFOSARANA MEDIA",
            "nama_se": "WWW.OTOFEMALE.ID",
            "sektor": "Sektor Teknologi Informasi dan Komunikasi",
            "tanggal_terbit": "2022-08-09",
            "url_tdpse_detail": "https://pse.komdigi.go.id/tdpse-detail/10121",
            "website": "otofemale.grid.id"
        },
        {
            "id": "9cb1abd5-c273-4f66-8df5-052462d5436b",
            "nama_pse": "PRIMA INFOSARANA MEDIA",
            "nama_se": "WWW.OTOMANIA.COM",
            "sektor": "Sektor Teknologi Informasi dan Komunikasi",
            "tanggal_terbit": "2022-08-09",
            "url_tdpse_detail": "https://pse.komdigi.go.id/tdpse-detail/10122",
            "website": "otomania.gridoto.com"
        },
        {
            "id": "9cb1abd5-c587-48d4-8cff-e51d863fa847",
            "nama_pse": "GEOCHEM SURVEI INTERNASIONAL",
            "nama_se": "WEBSITE GEOCHEM SURVEY",
            "sektor": "Sektor Teknologi Informasi dan Komunikasi",
            "tanggal_terbit": "2022-08-09",
            "url_tdpse_detail": "https://pse.komdigi.go.id/tdpse-detail/10127",
            "website": "geochemsurvey.com"
        },
        {
            "id": "9cb1abd5-c98c-41dd-8d97-40176b238d9f",
            "nama_pse": "AXA INSURANCE INDONESIA",
            "nama_se": "EMMA CUSTOMER PORTAL MAGI",
            "sektor": "Sektor Keuangan",
            "tanggal_terbit": "2022-08-09",
            "url_tdpse_detail": "https://pse.komdigi.go.id/tdpse-detail/10123",
            "website": "magiportal.axa.co.id"
        },
        {
            "id": "9cb1ac0a-f747-48cd-9425-ce209fe1a647",
            "nama_pse": "BANK PEREKONOMIAN RAKYAT MATARAM MITRA MANUNGGAL",
            "nama_se": "WEBSITE PT BPR MATARAM MITRA MANUNGGAL",
            "sektor": "Sektor Keuangan",
            "tanggal_terbit": "2022-08-09",
            "url_tdpse_detail": "https://pse.komdigi.go.id/tdpse-detail/10124",
            "website": "bprmmm.co.id"
        },
        {
            "id": "9cb1abd5-ccce-4892-b89d-6e31595ea7c4",
            "nama_pse": "KAILANI SELARAS INDONESIA",
            "nama_se": "NGERTIHUKUMID",
            "sektor": "Sektor Teknologi Informasi dan Komunikasi",
            "tanggal_terbit": "2022-08-09",
            "url_tdpse_detail": "https://pse.komdigi.go.id/tdpse-detail/10126",
            "website": "ngertihukum.id"
        },
        {
            "id": "9cb1abd5-d082-482c-ba8d-edd4abb777b4",
            "nama_pse": "KAILANI SELARAS INDONESIA",
            "nama_se": "PEMBAYARAN NGERTIHUKUMID",
            "sektor": "Sektor Teknologi Informasi dan Komunikasi",
            "tanggal_terbit": "2022-08-09",
            "url_tdpse_detail": "https://pse.komdigi.go.id/tdpse-detail/10128",
            "website": "pembayaran.ngertihukum.id"
        },
        {
            "id": "9cb1abfb-be0b-4929-9288-01d38c162f62",
            "nama_pse": "BANK PERKREDITAN RAKYAT CENTRAL DANA MANDIRI",
            "nama_se": "PT. BPR CENTRAL DANA MANDIRI",
            "sektor": "Sektor Keuangan",
            "tanggal_terbit": "2022-08-09",
            "url_tdpse_detail": "https://pse.komdigi.go.id/tdpse-detail/10129",
            "website": "bprcentraldanamandiri.com"
        },
        {
            "id": "9cb1abfb-c171-4874-bbfe-acab9c897cc3",
            "nama_pse": "PENERBITAN SARANA BOBO",
            "nama_se": "WWW.OTOMOTIFNET.COM",
            "sektor": "Sektor Teknologi Informasi dan Komunikasi",
            "tanggal_terbit": "2022-08-09",
            "url_tdpse_detail": "https://pse.komdigi.go.id/tdpse-detail/10130",
            "website": "otomotifnet.gridoto.com"
        },
        {
            "id": "9cb1abfb-c5db-48c2-98cd-e3ebb125dfdc",
            "nama_pse": "MY ICON TECHNOLOGY",
            "nama_se": "METRODATA_ONLINE",
            "sektor": "Sektor Perdagangan",
            "tanggal_terbit": "2022-08-09",
            "url_tdpse_detail": "https://pse.komdigi.go.id/tdpse-detail/10139",
            "website": "Metrodataonline.co.id"
        },
        {
            "id": "9cb1ac0a-fa93-4820-9d9b-ac7af999f598",
            "nama_pse": "KAILANI SELARAS INDONESIA",
            "nama_se": "BHR INSTITUTE",
            "sektor": "Sektor Teknologi Informasi dan Komunikasi",
            "tanggal_terbit": "2022-08-09",
            "url_tdpse_detail": "https://pse.komdigi.go.id/tdpse-detail/10131",
            "website": "bhrinstitute.id"
        },
        {
            "id": "9cb1abd5-d55a-4a4b-a1d1-f449233ebf18",
            "nama_pse": "MY ICON TECHNOLOGY",
            "nama_se": "METRODATABISNIS.COM",
            "sektor": "Sektor Perdagangan",
            "tanggal_terbit": "2022-08-09",
            "url_tdpse_detail": "https://pse.komdigi.go.id/tdpse-detail/10132",
            "website": "Metrodatabisnis.com"
        },
        {
            "id": "9cb1abd5-dbe2-4884-b609-a1b2db750023",
            "nama_pse": "BANK PERKREDITAN RAKYAT DAMPIT",
            "nama_se": "PT BPR DAMPIT",
            "sektor": "Sektor Keuangan",
            "tanggal_terbit": "2022-08-09",
            "url_tdpse_detail": "https://pse.komdigi.go.id/tdpse-detail/10133",
            "website": "bprdampit.co.id"
        },
        {
            "id": "9cb1abd5-e03e-49c8-b2fc-66bddb4191b1",
            "nama_pse": "AXA INSURANCE INDONESIA",
            "nama_se": "MGATE CHATBOT",
            "sektor": "Sektor Keuangan",
            "tanggal_terbit": "2022-08-09",
            "url_tdpse_detail": "https://pse.komdigi.go.id/tdpse-detail/10135",
            "website": "-"
        },
        {
            "id": "9cb1abd5-e37d-4024-a51a-450f6c3abc37",
            "nama_pse": "KAILANI SELARAS INDONESIA",
            "nama_se": "AMICA",
            "sektor": "Sektor Teknologi Informasi dan Komunikasi",
            "tanggal_terbit": "2022-08-09",
            "url_tdpse_detail": "https://pse.komdigi.go.id/tdpse-detail/10134",
            "website": "amica.ngertihukum.id"
        },
        {
            "id": "9cb1abd5-e694-4020-bd3f-5eb3db699b51",
            "nama_pse": "KAILANI SELARAS INDONESIA",
            "nama_se": "BAHASANID",
            "sektor": "Sektor Teknologi Informasi dan Komunikasi",
            "tanggal_terbit": "2022-08-09",
            "url_tdpse_detail": "https://pse.komdigi.go.id/tdpse-detail/10136",
            "website": "bahasan.id"
        },
        {
            "id": "9cb1abd5-f1b2-429a-8732-76cb027e1135",
            "nama_pse": "MENTARI TIMUR EKSPEDISI",
            "nama_se": "HTTPS://WWW.MTE.CO.ID/",
            "sektor": "Sektor Teknologi Informasi dan Komunikasi",
            "tanggal_terbit": "2022-08-09",
            "url_tdpse_detail": "https://pse.komdigi.go.id/tdpse-detail/10137",
            "website": "mte.co.id"
        },
        {
            "id": "9cb1abd5-f563-403a-80dc-76f22f12a0af",
            "nama_pse": "KAILANI SELARAS INDONESIA",
            "nama_se": "BUKAUSAHA",
            "sektor": "Sektor Perdagangan, Sektor Teknologi Informasi dan Komunikasi",
            "tanggal_terbit": "2022-08-09",
            "url_tdpse_detail": "https://pse.komdigi.go.id/tdpse-detail/10138",
            "website": "bukausaha.ngertihukum.id"
        },
        {
            "id": "9cb1ac0b-00d1-4716-b153-73c966799b03",
            "nama_pse": "UNGU SUKSES MANDIRI",
            "nama_se": "DIMASSAGE",
            "sektor": "Sektor Teknologi Informasi dan Komunikasi",
            "tanggal_terbit": "2022-08-09",
            "url_tdpse_detail": "https://pse.komdigi.go.id/tdpse-detail/10142",
            "website": "di-massage.com"
        },
        {
            "id": "9cb1abfb-d036-4a1e-a4d4-794b97d765b8",
            "nama_pse": "PUTRA WANDA",
            "nama_se": "PUTRA WANDA",
            "sektor": "Sektor Perdagangan",
            "tanggal_terbit": "2022-08-09",
            "url_tdpse_detail": "https://pse.komdigi.go.id/tdpse-detail/10143",
            "website": "-"
        },
        {
            "id": "9cb1ac0b-0400-4c8d-a7e1-f1c5acd7d9b7",
            "nama_pse": "INDOKARYA MITRA OPTIMA",
            "nama_se": "TEPANAS",
            "sektor": "Sektor Perdagangan",
            "tanggal_terbit": "2022-08-09",
            "url_tdpse_detail": "https://pse.komdigi.go.id/tdpse-detail/10144",
            "website": "tepanas.com"
        },
        {
            "id": "9cb1abfb-db97-4241-898d-570575875e2e",
            "nama_pse": "BISNIS ONLINE BAHAGIA",
            "nama_se": "BISNIS ONLINE BAHAGIA",
            "sektor": "Sektor Perdagangan",
            "tanggal_terbit": "2022-08-09",
            "url_tdpse_detail": "https://pse.komdigi.go.id/tdpse-detail/10145",
            "website": "bisnisonlinebahagia.com"
        },
        {
            "id": "9cb1abfb-e20a-46d4-abea-dbabd074cf6d",
            "nama_pse": "APLIKANUSA LINTASARTA",
            "nama_se": "OWLEXA CLAIM MANAGEMENT",
            "sektor": "Sektor Perdagangan, Sektor Kesehatan, Sektor Teknologi Informasi dan Komunikasi",
            "tanggal_terbit": "2022-08-09",
            "url_tdpse_detail": "https://pse.komdigi.go.id/tdpse-detail/10147",
            "website": "owlexa.com"
        },
        {
            "id": "9cb1abfb-e6f5-439c-a653-8f3e60d8bdf4",
            "nama_pse": "APLIKANUSA LINTASARTA",
            "nama_se": "TERASEHAT",
            "sektor": "Sektor Kesehatan, Sektor Teknologi Informasi dan Komunikasi",
            "tanggal_terbit": "2022-08-09",
            "url_tdpse_detail": "https://pse.komdigi.go.id/tdpse-detail/10148",
            "website": "terasehat.id"
        },
        {
            "id": "9cb1abfb-ea1c-4d88-80a3-1366c52d5227",
            "nama_pse": "ALFA KURNIA HASANAH",
            "nama_se": "RAYYA TOUR \u0026 TRAVEL",
            "sektor": "Sektor Perdagangan, Sektor Transportasi, Sektor Teknologi Informasi dan Komunikasi",
            "tanggal_terbit": "2022-08-09",
            "url_tdpse_detail": "https://pse.komdigi.go.id/tdpse-detail/10150",
            "website": "kangaab.my.id"
        },
        {
            "id": "9cb1abd5-9de4-4133-9728-ab516a1669d5",
            "nama_pse": "LIKUID JAYA PRATAMA",
            "nama_se": "PENAWARAN EFEK MELALUI LAYANAN URUN DANA BERBASIS TEKNOLOGI INFORMASI (APLIKASI SECURITIES CROWDFUNDING)",
            "sektor": "Sektor Keuangan, Sektor Teknologi Informasi dan Komunikasi",
            "tanggal_terbit": "2022-08-09",
            "url_tdpse_detail": "https://pse.komdigi.go.id/tdpse-detail/10082",
            "website": "-"
        },
        {
            "id": "9cb1abfa-3532-4aca-9f01-fe3089d95e2c",
            "nama_pse": "BEAUTE HAUL INDONESIA",
            "nama_se": "SOMETHINC",
            "sektor": "Sektor Perdagangan",
            "tanggal_terbit": "2022-08-08",
            "url_tdpse_detail": "https://pse.komdigi.go.id/tdpse-detail/10010",
            "website": "somethinc.com"
        },
        {
            "id": "9cb1abd4-2bd3-49cf-aecd-9a0f24070393",
            "nama_pse": "JASMINE CAHAYA CEMERLANG",
            "nama_se": "JCC APPS",
            "sektor": "Sektor Perdagangan",
            "tanggal_terbit": "2022-08-08",
            "url_tdpse_detail": "https://pse.komdigi.go.id/tdpse-detail/9883",
            "website": "jcc-corp.co.id"
        },
        {
            "id": "9cb1ac0a-5d99-4467-8706-5b9b67c8efaf",
            "nama_pse": "PAYOU INSAN SINERGI",
            "nama_se": "SIMRS SAFFMEDIC",
            "sektor": "Sektor Kesehatan",
            "tanggal_terbit": "2022-08-08",
            "url_tdpse_detail": "https://pse.komdigi.go.id/tdpse-detail/10007",
            "website": "safmedic.com"
        },
        {
            "id": "9cb1abd5-1c18-4194-9482-3621168bc61d",
            "nama_pse": "SNAPCART DIGITAL INDONESIA",
            "nama_se": "SNAPCART DIGITAL INDONESIA",
            "sektor": "Sektor Teknologi Informasi dan Komunikasi",
            "tanggal_terbit": "2022-08-08",
            "url_tdpse_detail": "https://pse.komdigi.go.id/tdpse-detail/10008",
            "website": "snapcart.global"
        },
        {
            "id": "9cb1abfb-2a53-450e-b1c0-0c72609936ca",
            "nama_pse": "PAYOU INSAN SINERGI",
            "nama_se": "PAYOU.ASIA",
            "sektor": "Sektor Teknologi Informasi dan Komunikasi",
            "tanggal_terbit": "2022-08-08",
            "url_tdpse_detail": "https://pse.komdigi.go.id/tdpse-detail/10009",
            "website": "payou.asia"
        },
        {
            "id": "9cb1ac0a-636c-4651-8ecd-6eecabda46ff",
            "nama_pse": "SUMBER MILI ARTHA",
            "nama_se": "APISBOT",
            "sektor": "Sektor Teknologi Informasi dan Komunikasi",
            "tanggal_terbit": "2022-08-08",
            "url_tdpse_detail": "https://pse.komdigi.go.id/tdpse-detail/10011",
            "website": "apisbot.com"
        },
        {
            "id": "9cb1abd5-23da-47c4-bc0f-3e6149575f3f",
            "nama_pse": "ZIGSCO HANDY UTAMA",
            "nama_se": "ZIGSCO",
            "sektor": "Sektor Perdagangan",
            "tanggal_terbit": "2022-08-08",
            "url_tdpse_detail": "https://pse.komdigi.go.id/tdpse-detail/10012",
            "website": "zigsco.com"
        },
        {
            "id": "9cb1abd5-27b7-454b-9cb6-96921643bde1",
            "nama_pse": "TWIBBONIZE TEKNOLOGI INDONESIA",
            "nama_se": "TWIBBONIZE",
            "sektor": "Sektor Teknologi Informasi dan Komunikasi",
            "tanggal_terbit": "2022-08-08",
            "url_tdpse_detail": "https://pse.komdigi.go.id/tdpse-detail/10013",
            "website": "twibbonize.com"
        },
        {
            "id": "9cb1abfb-2d70-45a7-ae0d-6325ec510ceb",
            "nama_pse": "SURYA LIFETIME INTERNASIONAL",
            "nama_se": "ITSLIFETIME.COM",
            "sektor": "Sektor Perdagangan",
            "tanggal_terbit": "2022-08-08",
            "url_tdpse_detail": "https://pse.komdigi.go.id/tdpse-detail/10014",
            "website": "itslifetime.com"
        },
        {
            "id": "9cb1abd5-2c7e-47bf-b1e0-cb88937f3a82",
            "nama_pse": "ETC KONSULTAN INDONESIA",
            "nama_se": "WEBSITE ET CONSULTANT",
            "sektor": "Sektor Perdagangan",
            "tanggal_terbit": "2022-08-08",
            "url_tdpse_detail": "https://pse.komdigi.go.id/tdpse-detail/10015",
            "website": "et-consultant.com"
        }
    ],
    "processingTimeMs": 3,
    "query": "",
    "totalHits": 19131,
    "hitsPerPage": 50,
    "page": 203,
    "totalPages": 383
}