{
    "hits": [
        {
            "id": "9cb1ac81-2b83-42fc-a128-92a8c5744070",
            "nama_pse": "ANAK AGUNG NGURAH YUDARANA ADIYASA",
            "nama_se": "WEBACC",
            "sektor": "Sektor Kesehatan, Sektor Teknologi Informasi dan Komunikasi",
            "tanggal_terbit": "2024-03-15",
            "url_tdpse_detail": "https://pse.komdigi.go.id/tdpse-detail/18264",
            "website": "-"
        },
        {
            "id": "9cb1ac81-36d3-4557-bbba-b89f2f58956d",
            "nama_pse": "BUNDA JAYA MANDIRI",
            "nama_se": "SIM RS BUNDA",
            "sektor": "Sektor Kesehatan",
            "tanggal_terbit": "2024-03-15",
            "url_tdpse_detail": "https://pse.komdigi.go.id/tdpse-detail/18267",
            "website": "rsbundapwt.com"
        },
        {
            "id": "9cb1ac6c-9da0-478c-b638-855ac212e8c2",
            "nama_pse": "TOCO RAMAI DIGITAL",
            "nama_se": "SELLER.TOCO.ID",
            "sektor": "Sektor Perdagangan",
            "tanggal_terbit": "2024-03-15",
            "url_tdpse_detail": "https://pse.komdigi.go.id/tdpse-detail/18265",
            "website": "seller.toco.id"
        },
        {
            "id": "9cb1ac81-3b6f-4588-90f5-caadcef2f314",
            "nama_pse": "PENTA INDOTEK MANDIRI",
            "nama_se": "PENTALAB",
            "sektor": "Sektor Kesehatan, Sektor Teknologi Informasi dan Komunikasi",
            "tanggal_terbit": "2024-03-15",
            "url_tdpse_detail": "https://pse.komdigi.go.id/tdpse-detail/18268",
            "website": "-"
        },
        {
            "id": "9cb1ac81-3edd-4c85-9cbf-2615af6e2d7b",
            "nama_pse": "HANANIA ASY SYIFATUL MUBAROQ",
            "nama_se": "ENDO KLINIK",
            "sektor": "Sektor Teknologi Informasi dan Komunikasi",
            "tanggal_terbit": "2024-03-15",
            "url_tdpse_detail": "https://pse.komdigi.go.id/tdpse-detail/18269",
            "website": "-"
        },
        {
            "id": "9cb1ac81-43bd-4d27-90f3-d53f23b8ab23",
            "nama_pse": "ILLUSTRINDO MEDIKA INDONESIA",
            "nama_se": "ONEKLINIK.APP",
            "sektor": "Sektor Kesehatan",
            "tanggal_terbit": "2024-03-15",
            "url_tdpse_detail": "https://pse.komdigi.go.id/tdpse-detail/18273",
            "website": "oneklinik.app"
        },
        {
            "id": "9cb1ac6c-abc4-40d6-92a4-c91ecde9ca35",
            "nama_pse": "BANK MASPION INDONESIA",
            "nama_se": "MOBILE BANKING | MASPION ELECTRONIC BANKING (MEB)",
            "sektor": "Sektor Keuangan",
            "tanggal_terbit": "2024-03-15",
            "url_tdpse_detail": "https://pse.komdigi.go.id/tdpse-detail/18275",
            "website": "-"
        },
        {
            "id": "9cb1ac81-51b5-41af-8da8-5d0112493c66",
            "nama_pse": "SEMANGAT MEKAR JAYA MANDIRI",
            "nama_se": "GDENTAL SISTEM",
            "sektor": "Sektor Kesehatan",
            "tanggal_terbit": "2024-03-15",
            "url_tdpse_detail": "https://pse.komdigi.go.id/tdpse-detail/18270",
            "website": "-"
        },
        {
            "id": "9cb1ac57-9703-40a8-a1eb-4deed42cc0a8",
            "nama_pse": "LINTAS DIGITAL SYSTEM",
            "nama_se": "LINTAS KLINIK",
            "sektor": "Sektor Kesehatan, Sektor Teknologi Informasi dan Komunikasi",
            "tanggal_terbit": "2024-03-15",
            "url_tdpse_detail": "https://pse.komdigi.go.id/tdpse-detail/18272",
            "website": "lintasdigital.id"
        },
        {
            "id": "9cb1ac57-99f4-4eee-8237-bfb470636a06",
            "nama_pse": "INFOTECH GLOBAL INDONESIA",
            "nama_se": "LABORATORIUM INFORMATION SYSTEM (LIS INFOTECH)",
            "sektor": "Sektor Kesehatan",
            "tanggal_terbit": "2024-03-15",
            "url_tdpse_detail": "https://pse.komdigi.go.id/tdpse-detail/18276",
            "website": "staff.lab-arkatama.com"
        },
        {
            "id": "9cb1ac81-5587-4f9b-ad9f-4133743b7974",
            "nama_pse": "KOINVERSE DIGITAL INDONESIA",
            "nama_se": "MR TOP UP",
            "sektor": "Sektor Teknologi Informasi dan Komunikasi",
            "tanggal_terbit": "2024-03-15",
            "url_tdpse_detail": "https://pse.komdigi.go.id/tdpse-detail/18278",
            "website": "mrtopup.id"
        },
        {
            "id": "9cb1ac81-5b26-43de-8cf1-96e437a9ab65",
            "nama_pse": "PORTAL JATENG NEWS",
            "nama_se": "PORTALJATENGNEWS.COM",
            "sektor": "Sektor Teknologi Informasi dan Komunikasi",
            "tanggal_terbit": "2024-03-15",
            "url_tdpse_detail": "https://pse.komdigi.go.id/tdpse-detail/18277",
            "website": "portaljatengnews.com"
        },
        {
            "id": "9cb1ac57-9c9b-4745-a1b4-fc57137d1b89",
            "nama_pse": "ALPHA INDO NUSA",
            "nama_se": "AINTV, INDOSNEWS,  DATA SCIENTIST DAN ANALYST  ARTIFICIAL INTELLIGENCE EXPERT  SOFTWARE DAN GAME DEVELOPER  ANALIS BIG DATA  BLOCKCHAIN DEVELOPER",
            "sektor": "Sektor Perdagangan, Sektor Kesehatan, Sektor Teknologi Informasi dan Komunikasi, Sektor Pertahanan dan Keamanan",
            "tanggal_terbit": "2024-03-15",
            "url_tdpse_detail": "https://pse.komdigi.go.id/tdpse-detail/18279",
            "website": "alphaindonusa.co.id"
        },
        {
            "id": "9cb1ac6c-8ee3-46d8-9d50-bbc8ac924120",
            "nama_pse": "GEMILANG JAYA MANDIRI",
            "nama_se": "GDENTAL SYSTEMSVAR",
            "sektor": "Sektor Kesehatan",
            "tanggal_terbit": "2024-03-14",
            "url_tdpse_detail": "https://pse.komdigi.go.id/tdpse-detail/18260",
            "website": "-"
        },
        {
            "id": "9cb1ac6c-5f97-4a62-8cd2-84b84c4246b2",
            "nama_pse": "GARUDA INSANI GIGIH TEKNOLOGI",
            "nama_se": "GIEMR",
            "sektor": "Sektor Kesehatan",
            "tanggal_terbit": "2024-03-14",
            "url_tdpse_detail": "https://pse.komdigi.go.id/tdpse-detail/18250",
            "website": "garudainsight.com"
        },
        {
            "id": "9cb1ac81-1a75-43fa-a0bf-34370fe6e55e",
            "nama_pse": "KARUNIA JAYA MANDIRI",
            "nama_se": "GDENTAL SYSTEM",
            "sektor": "Sektor Kesehatan",
            "tanggal_terbit": "2024-03-14",
            "url_tdpse_detail": "https://pse.komdigi.go.id/tdpse-detail/18257",
            "website": "-"
        },
        {
            "id": "9cb1ac6c-8754-4b22-bf54-6124cbc319e8",
            "nama_pse": "KRISMA JAYA MANDIRI",
            "nama_se": "GDENTAL SYSTEM",
            "sektor": "Sektor Kesehatan",
            "tanggal_terbit": "2024-03-14",
            "url_tdpse_detail": "https://pse.komdigi.go.id/tdpse-detail/18252",
            "website": "giodentalcare.com"
        },
        {
            "id": "9cb1ac81-0ca7-4921-adf2-d62295c4ee25",
            "nama_pse": "SEMEDI CIPTA SOLUSI",
            "nama_se": "SEMEDI CIPTA SOLUSI",
            "sektor": "Sektor Teknologi Informasi dan Komunikasi",
            "tanggal_terbit": "2024-03-14",
            "url_tdpse_detail": "https://pse.komdigi.go.id/tdpse-detail/18254",
            "website": "semedi.id"
        },
        {
            "id": "9cb1ac81-0f8e-4b59-90cb-55b0b42e80d2",
            "nama_pse": "ABADI JAYA MANDIRI",
            "nama_se": "GDENTAL SYSTEM",
            "sektor": "Sektor Kesehatan",
            "tanggal_terbit": "2024-03-14",
            "url_tdpse_detail": "https://pse.komdigi.go.id/tdpse-detail/18255",
            "website": "-"
        },
        {
            "id": "9cb1ac57-8b96-4aea-bb3b-565bd1f25b27",
            "nama_pse": "BENAR BENAR BAGUS",
            "nama_se": "BITBYBIT",
            "sektor": "Sektor Teknologi Informasi dan Komunikasi",
            "tanggal_terbit": "2024-03-14",
            "url_tdpse_detail": "https://pse.komdigi.go.id/tdpse-detail/18256",
            "website": "bitbybit.studio"
        },
        {
            "id": "9cb1ac81-1dbf-4978-9143-57ad8e30f95d",
            "nama_pse": "GEDHE JAYA MANDIRI",
            "nama_se": "GDENTAL SYSTEM",
            "sektor": "Sektor Kesehatan",
            "tanggal_terbit": "2024-03-14",
            "url_tdpse_detail": "https://pse.komdigi.go.id/tdpse-detail/18258",
            "website": "-"
        },
        {
            "id": "9cb1ac57-8e74-4116-8a3f-9b2b93414b89",
            "nama_pse": "BAMBANG HERMANTO",
            "nama_se": "LAYANAN INTERNET LOKAL ( RT RW NET )",
            "sektor": "Sektor Teknologi Informasi dan Komunikasi",
            "tanggal_terbit": "2024-03-14",
            "url_tdpse_detail": "https://pse.komdigi.go.id/tdpse-detail/18262",
            "website": "-"
        },
        {
            "id": "9cb1ac81-20e8-4581-bee1-e7339a51950c",
            "nama_pse": "GOLEGAL PRATAMA INDONESIA",
            "nama_se": "HTTPS://GOLEGAL-IDN.COM/",
            "sektor": "Sektor Perdagangan",
            "tanggal_terbit": "2024-03-14",
            "url_tdpse_detail": "https://pse.komdigi.go.id/tdpse-detail/18259",
            "website": "golegal-idn.com"
        },
        {
            "id": "9cb1ac81-23e1-4221-ab31-adc9949524aa",
            "nama_pse": "KALTIM MEDIKA UTAMA",
            "nama_se": "ENZIM SIMRS",
            "sektor": "Sektor Kesehatan, Sektor Teknologi Informasi dan Komunikasi",
            "tanggal_terbit": "2024-03-14",
            "url_tdpse_detail": "https://pse.komdigi.go.id/tdpse-detail/18261",
            "website": "rspkt.com"
        },
        {
            "id": "9cb1ac6c-7d87-4cfb-85cc-fbb599668ccb",
            "nama_pse": "IJEN MEDIA NETWORK",
            "nama_se": "FAKTUAL.CO.ID",
            "sektor": "Sektor Teknologi Informasi dan Komunikasi",
            "tanggal_terbit": "2024-03-13",
            "url_tdpse_detail": "https://pse.komdigi.go.id/tdpse-detail/18241",
            "website": "faktual.co.id"
        },
        {
            "id": "9cb1ac80-f3ca-418c-9fd1-e248323d49c6",
            "nama_pse": "VIRGINIA ESTETIKA",
            "nama_se": "FARINA INTEGRATED SYSTEM",
            "sektor": "Sektor Kesehatan, Sektor Teknologi Informasi dan Komunikasi",
            "tanggal_terbit": "2024-03-13",
            "url_tdpse_detail": "https://pse.komdigi.go.id/tdpse-detail/18238",
            "website": "-"
        },
        {
            "id": "9cb1ac57-7754-45da-ab8d-1a7eda999a0f",
            "nama_pse": "ENN GEE TEKNOLOGI INFORMASI INDONESIA",
            "nama_se": "NGSHOPE",
            "sektor": "Sektor Perdagangan",
            "tanggal_terbit": "2024-03-13",
            "url_tdpse_detail": "https://pse.komdigi.go.id/tdpse-detail/18242",
            "website": "ngshope.com"
        },
        {
            "id": "9cb1ac80-f92c-423c-97c5-ca43c14cb883",
            "nama_pse": "GILANG SOLUTION TECHNOLOGY",
            "nama_se": "SHP-SAHABATPINTAR",
            "sektor": "Sektor Teknologi Informasi dan Komunikasi",
            "tanggal_terbit": "2024-03-13",
            "url_tdpse_detail": "https://pse.komdigi.go.id/tdpse-detail/18239",
            "website": "sahabatpintar.co.id"
        },
        {
            "id": "9cb1ac80-fcb1-4ea2-a71f-29de88d91d62",
            "nama_pse": "BULAN SABIT SEJAHTERA",
            "nama_se": "SIMRS RSIA KENARI GRAHA MEDIKA",
            "sektor": "Sektor Kesehatan",
            "tanggal_terbit": "2024-03-13",
            "url_tdpse_detail": "https://pse.komdigi.go.id/tdpse-detail/18240",
            "website": "-"
        },
        {
            "id": "9cb1ac80-ff5e-4259-b813-19e0ea7b48e6",
            "nama_pse": "LAMUDI CLASSIFIEDS INDONESIA",
            "nama_se": "APLIKASI LAMUDI INDONESIA",
            "sektor": "Sektor Perdagangan, Sektor Teknologi Informasi dan Komunikasi",
            "tanggal_terbit": "2024-03-13",
            "url_tdpse_detail": "https://pse.komdigi.go.id/tdpse-detail/18244",
            "website": "-"
        },
        {
            "id": "9cb1ac57-7ece-4a42-8611-dea1c85427ba",
            "nama_pse": "OTORITAS DIGITAL NIAGA",
            "nama_se": "HALOPENDETA",
            "sektor": "Sektor Teknologi Informasi dan Komunikasi",
            "tanggal_terbit": "2024-03-13",
            "url_tdpse_detail": "https://pse.komdigi.go.id/tdpse-detail/18243",
            "website": "halopendeta.com"
        },
        {
            "id": "9cb1ac57-8221-498c-8065-89469763193e",
            "nama_pse": "SIPAYU DIGITAL NUSANTARA",
            "nama_se": "SIPAYU MOBILE",
            "sektor": "Sektor Perdagangan",
            "tanggal_terbit": "2024-03-13",
            "url_tdpse_detail": "https://pse.komdigi.go.id/tdpse-detail/18245",
            "website": "sipayu.co.id"
        },
        {
            "id": "9cb1ac81-03c8-4e48-9f4c-9a7a9a9b0fb8",
            "nama_pse": "HEXCODE KREATIFA TEKNOLOGI",
            "nama_se": "HEXCLINIC",
            "sektor": "Sektor Kesehatan",
            "tanggal_terbit": "2024-03-13",
            "url_tdpse_detail": "https://pse.komdigi.go.id/tdpse-detail/18246",
            "website": "hexclinic.online"
        },
        {
            "id": "9cb1ac6c-8406-4045-ad7e-e2c1d65be786",
            "nama_pse": "KALTIM MEDIKA UTAMA",
            "nama_se": "ENZIM RSMUP",
            "sektor": "Sektor Kesehatan, Sektor Teknologi Informasi dan Komunikasi",
            "tanggal_terbit": "2024-03-13",
            "url_tdpse_detail": "https://pse.komdigi.go.id/tdpse-detail/18247",
            "website": "permata.rspkt.com"
        },
        {
            "id": "9cb1ac57-8633-4f7b-bfe1-e8abcff412d8",
            "nama_pse": "DIGITAL SERVIS INOVASI",
            "nama_se": "SMILINGMEDIC",
            "sektor": "Sektor Kesehatan",
            "tanggal_terbit": "2024-03-13",
            "url_tdpse_detail": "https://pse.komdigi.go.id/tdpse-detail/18249",
            "website": "-"
        },
        {
            "id": "9cb1ac81-092c-4069-b200-484f7391ab5e",
            "nama_pse": "PERINTIS KARYA DIGITAL",
            "nama_se": "PERINTIS KARYA DIGITAL",
            "sektor": "Sektor Teknologi Informasi dan Komunikasi",
            "tanggal_terbit": "2024-03-13",
            "url_tdpse_detail": "https://pse.komdigi.go.id/tdpse-detail/18248",
            "website": "-"
        },
        {
            "id": "9cb1ac80-a1f3-466d-bb48-36ca314efa0a",
            "nama_pse": "KREASI GEMILANG PERKASA",
            "nama_se": "CUSTOMER PORTAL",
            "sektor": "Sektor Teknologi Informasi dan Komunikasi",
            "tanggal_terbit": "2024-03-12",
            "url_tdpse_detail": "https://pse.komdigi.go.id/tdpse-detail/18229",
            "website": "lippohomes.com"
        },
        {
            "id": "9cb1ac6a-e26a-41a4-b9f6-eaeb82eba437",
            "nama_pse": "AUTO LARIS INSTAN",
            "nama_se": "AUTO LARIS",
            "sektor": "Sektor Perdagangan, Sektor Transportasi, Sektor Teknologi Informasi dan Komunikasi",
            "tanggal_terbit": "2024-03-12",
            "url_tdpse_detail": "https://pse.komdigi.go.id/tdpse-detail/18230",
            "website": "autolaris.com"
        },
        {
            "id": "9cb1ac57-6b1c-47fa-a82c-c429610104c9",
            "nama_pse": "LENSA NUSANTARA MULTIMEDIA",
            "nama_se": "LENSANUSANTARA.CO.ID",
            "sektor": "Sektor Teknologi Informasi dan Komunikasi",
            "tanggal_terbit": "2024-03-12",
            "url_tdpse_detail": "https://pse.komdigi.go.id/tdpse-detail/18228",
            "website": "lensanusantara.co.id"
        },
        {
            "id": "9cb1ac57-74ca-4249-9092-93e5b9ebaba5",
            "nama_pse": "ESAS EDUKASI NUSANTARA",
            "nama_se": "ESASNEWS.COM",
            "sektor": "Sektor Teknologi Informasi dan Komunikasi",
            "tanggal_terbit": "2024-03-12",
            "url_tdpse_detail": "https://pse.komdigi.go.id/tdpse-detail/18237",
            "website": "esasnews.com"
        },
        {
            "id": "9cb1ac80-e633-47f8-b534-df2503ef2b82",
            "nama_pse": "RUMAH SAKIT GRAHA BUNDA IDI",
            "nama_se": "SIMRS GRAHA",
            "sektor": "Sektor Kesehatan",
            "tanggal_terbit": "2024-03-12",
            "url_tdpse_detail": "https://pse.komdigi.go.id/tdpse-detail/18233",
            "website": "rsgrahabunda.com"
        },
        {
            "id": "9cb1ac57-7107-43e6-bb21-0fa78b22d17e",
            "nama_pse": "UNTUNG BERSAMA TERUS MENERUS",
            "nama_se": "FAST CLINIC",
            "sektor": "Sektor Kesehatan",
            "tanggal_terbit": "2024-03-12",
            "url_tdpse_detail": "https://pse.komdigi.go.id/tdpse-detail/18234",
            "website": "-"
        },
        {
            "id": "9cb1ac57-6df2-47b0-83b8-db398dbb04af",
            "nama_pse": "BABA MARKET NUSANTARA",
            "nama_se": "BABA MARKET",
            "sektor": "Sektor Perdagangan",
            "tanggal_terbit": "2024-03-12",
            "url_tdpse_detail": "https://pse.komdigi.go.id/tdpse-detail/18231",
            "website": "babamarket.co.id"
        },
        {
            "id": "9cb1ac57-659d-4e68-a591-cb74824f7fca",
            "nama_pse": "SHEYNA SUKSES SEJAHTERA",
            "nama_se": "SHEYNA SUKSSES SEJAHTERA",
            "sektor": "Sektor Perdagangan",
            "tanggal_terbit": "2024-03-11",
            "url_tdpse_detail": "https://pse.komdigi.go.id/tdpse-detail/18226",
            "website": "sheynasutera.com"
        },
        {
            "id": "9cb1ac57-688c-4b48-884f-84463c3ccc40",
            "nama_pse": "TEKNOLOGI PORTAL BERJUALAN",
            "nama_se": "AWAN - TASPEN LIFE",
            "sektor": "Sektor Teknologi Informasi dan Komunikasi",
            "tanggal_terbit": "2024-03-11",
            "url_tdpse_detail": "https://pse.komdigi.go.id/tdpse-detail/18227",
            "website": "taspen.life"
        },
        {
            "id": "9cb1ac57-5f80-4ba1-85bb-25df784b7fde",
            "nama_pse": "MITRA KONSULTAN BISNIS",
            "nama_se": "MITRA KONSULTAN BISNIS",
            "sektor": "Sektor Perdagangan",
            "tanggal_terbit": "2024-03-10",
            "url_tdpse_detail": "https://pse.komdigi.go.id/tdpse-detail/18224",
            "website": "mitrakonsultanbisnis.com"
        },
        {
            "id": "9cb1ac57-62aa-4288-874c-f2828b2fce76",
            "nama_pse": "RETRO UPS GROUP",
            "nama_se": "PT. RETRO UPS GROUP",
            "sektor": "Sektor Teknologi Informasi dan Komunikasi",
            "tanggal_terbit": "2024-03-10",
            "url_tdpse_detail": "https://pse.komdigi.go.id/tdpse-detail/18225",
            "website": "-"
        },
        {
            "id": "9cb1ac6c-6aa7-4d30-8caa-b8629b076ba9",
            "nama_pse": "TEKNOLOGI PORTAL BERJUALAN",
            "nama_se": "KARTU DIGITAL",
            "sektor": "Sektor Teknologi Informasi dan Komunikasi",
            "tanggal_terbit": "2024-03-09",
            "url_tdpse_detail": "https://pse.komdigi.go.id/tdpse-detail/18219",
            "website": "kartu.digital"
        },
        {
            "id": "9cb1ac57-5a71-4387-872f-e30a57f1292e",
            "nama_pse": "MITRA MUPAY INDONESIA",
            "nama_se": "MITRA MUPAY INDONESIA",
            "sektor": "Sektor Perdagangan, Sektor Teknologi Informasi dan Komunikasi",
            "tanggal_terbit": "2024-03-09",
            "url_tdpse_detail": "https://pse.komdigi.go.id/tdpse-detail/18214",
            "website": "mitra-mupay.com"
        },
        {
            "id": "9cb1ac6c-650a-4910-a35a-8bfc2e9c8b38",
            "nama_pse": "JATAYU ENTERTAINMENT GROUP",
            "nama_se": "HARIANJATIM.ID",
            "sektor": "Sektor Teknologi Informasi dan Komunikasi",
            "tanggal_terbit": "2024-03-09",
            "url_tdpse_detail": "https://pse.komdigi.go.id/tdpse-detail/18215",
            "website": "harianjatim.id"
        }
    ],
    "processingTimeMs": 2,
    "query": "",
    "totalHits": 19121,
    "hitsPerPage": 50,
    "page": 78,
    "totalPages": 383
}