{
    "hits": [
        {
            "id": "9cb1abc1-cf9d-437f-b32c-72d2511b3426",
            "nama_pse": "YAKIN BERTUMBUH SEKURITAS",
            "nama_se": "SIMPLIFIKASI ONLINE OPENING ACCOUNT JUC SEKURITAS",
            "sektor": "Sektor Keuangan",
            "tanggal_terbit": "2022-07-19",
            "url_tdpse_detail": "https://pse.komdigi.go.id/tdpse-detail/7038",
            "website": "register.juc.co.id"
        },
        {
            "id": "9cb1abb6-b0c7-403c-a079-6fa6b8ce44d5",
            "nama_pse": "BANK PERKREDITAN RAKYAT DANA MITRA SENTOSA",
            "nama_se": "SITUS WEBSITE",
            "sektor": "Sektor Keuangan",
            "tanggal_terbit": "2022-07-19",
            "url_tdpse_detail": "https://pse.komdigi.go.id/tdpse-detail/7039",
            "website": "danamitrasentosa.com"
        },
        {
            "id": "9cb1abc1-d196-4ab2-9c81-de449f172d31",
            "nama_pse": "BANK PERKREDITAN RAKYAT BANK BOYOLALI (PERSERODA)",
            "nama_se": "HTTPS://WWW.BANKBOYOLALI.COM",
            "sektor": "Sektor Keuangan",
            "tanggal_terbit": "2022-07-19",
            "url_tdpse_detail": "https://pse.komdigi.go.id/tdpse-detail/7040",
            "website": "bankboyolali.com"
        },
        {
            "id": "9cb1abb6-b288-4deb-baa7-bb7efc2490df",
            "nama_pse": "MAYBANK INDONESIA FINANCE",
            "nama_se": "KPM WEB",
            "sektor": "Sektor Keuangan",
            "tanggal_terbit": "2022-07-19",
            "url_tdpse_detail": "https://pse.komdigi.go.id/tdpse-detail/7043",
            "website": "kreditpastimudah.id"
        },
        {
            "id": "9cb1abb6-b628-4c49-a885-4108a484f110",
            "nama_pse": "BANK RAYA INDONESIA",
            "nama_se": "WEBSITE DAN API PINANG KONSUMER",
            "sektor": "Sektor Keuangan",
            "tanggal_terbit": "2022-07-19",
            "url_tdpse_detail": "https://pse.komdigi.go.id/tdpse-detail/7041",
            "website": "pinang-konsumer.bankraya.co.id"
        },
        {
            "id": "9cb1abe6-f801-4832-9a9e-3d29abfe7931",
            "nama_pse": "DRS.TOSIN SUDJANA",
            "nama_se": "WEBSITE BPR KARYA GUNA MANDIRI",
            "sektor": "Sektor Keuangan",
            "tanggal_terbit": "2022-07-19",
            "url_tdpse_detail": "https://pse.komdigi.go.id/tdpse-detail/7042",
            "website": "bprkaryagunamandiri.co.id"
        },
        {
            "id": "9cb1abb6-b7fb-425d-bfd6-7e87b6c8893b",
            "nama_pse": "NUSANTARA BONAPASOGIT",
            "nama_se": "SISSTEM INFORMASI HUMAN CAPITAL (SISHCA)",
            "sektor": "Sektor Teknologi Informasi dan Komunikasi",
            "tanggal_terbit": "2022-07-19",
            "url_tdpse_detail": "https://pse.komdigi.go.id/tdpse-detail/7044",
            "website": "sishca.com"
        },
        {
            "id": "9cb1abc1-d3f6-4019-a5d9-daac80d5c160",
            "nama_pse": "BANK PEREKONOMIAN RAKYAT LESTARI BALI",
            "nama_se": "STANDING INSTRUCTION",
            "sektor": "Sektor Keuangan",
            "tanggal_terbit": "2022-07-19",
            "url_tdpse_detail": "https://pse.komdigi.go.id/tdpse-detail/7045",
            "website": "si.bprlestari.com"
        },
        {
            "id": "9cb1abb6-ba3a-4094-9911-80c3518db777",
            "nama_pse": "BANK PERKREDITAN RAKYAT MODERN EXPRESS SULTRA",
            "nama_se": "DIGITAL MODERN (DIGIMOD) E-LOAN - BPR MODERN EXPRESS SULTRA",
            "sektor": "Sektor Keuangan",
            "tanggal_terbit": "2022-07-19",
            "url_tdpse_detail": "https://pse.komdigi.go.id/tdpse-detail/7046",
            "website": "kredit.bprmodernkendari.com"
        },
        {
            "id": "9cb1abc1-d763-4df5-b4da-82fabc6f733f",
            "nama_pse": "BIMASAKTI MULTI SINERGI",
            "nama_se": "PASTIPAY",
            "sektor": "Sektor Perdagangan, Sektor Keuangan",
            "tanggal_terbit": "2022-07-19",
            "url_tdpse_detail": "https://pse.komdigi.go.id/tdpse-detail/7121",
            "website": "-"
        },
        {
            "id": "9cb1abb6-bbf9-43a9-b435-53f72a6e8749",
            "nama_pse": "ASURANSI SINAR MAS",
            "nama_se": "WEBSITE SIMASMOBIL.COM",
            "sektor": "Sektor Keuangan",
            "tanggal_terbit": "2022-07-19",
            "url_tdpse_detail": "https://pse.komdigi.go.id/tdpse-detail/7179",
            "website": "simasmobil.com"
        },
        {
            "id": "9cb1abb6-bfbd-4956-9193-f9c9803cdcca",
            "nama_pse": "BANK PEREKONOMIAN RAKYAT BATANG PALANGKI MANDIRI",
            "nama_se": "BANK PERKREDITAN RAKYAT BATANG PALANGKI",
            "sektor": "Sektor Keuangan",
            "tanggal_terbit": "2022-07-19",
            "url_tdpse_detail": "https://pse.komdigi.go.id/tdpse-detail/7113",
            "website": "-"
        },
        {
            "id": "9cb1abb6-c4b5-4eb0-9f3a-ce3264f57abe",
            "nama_pse": "BANK PERKREDITAN RAKYAT MODERN EXPRESS PAPUA BARAT",
            "nama_se": "SMS MACROKIOSK (OTP) - BPR MODERN EXPRESS PAPUA BARAT",
            "sektor": "Sektor Keuangan",
            "tanggal_terbit": "2022-07-19",
            "url_tdpse_detail": "https://pse.komdigi.go.id/tdpse-detail/7050",
            "website": "boldpass.com"
        },
        {
            "id": "9cb1abe6-ff5b-47ec-a05c-60f7a14b2f9c",
            "nama_pse": "PERUSAHAAN LISTRIK NEGARA (PERSERO)",
            "nama_se": "WWW.PLN.CO.ID",
            "sektor": "Sektor Energi dan Sumber Daya Mineral",
            "tanggal_terbit": "2022-07-19",
            "url_tdpse_detail": "https://pse.komdigi.go.id/tdpse-detail/7123",
            "website": "pln.co.id"
        },
        {
            "id": "9cb1abc1-dd64-4437-a11f-78549a0488ae",
            "nama_pse": "BANK RAYA INDONESIA",
            "nama_se": "WEBSITE DAN API PINANG RITEL",
            "sektor": "Sektor Keuangan",
            "tanggal_terbit": "2022-07-19",
            "url_tdpse_detail": "https://pse.komdigi.go.id/tdpse-detail/7051",
            "website": "pinang-ritel.bankraya.co.id"
        },
        {
            "id": "9cb1abe7-046f-4276-abda-461beef35333",
            "nama_pse": "SAMUDRA DATA NUSWANTARA",
            "nama_se": "NOLIMIT INDONESIA",
            "sektor": "Sektor Teknologi Informasi dan Komunikasi",
            "tanggal_terbit": "2022-07-19",
            "url_tdpse_detail": "https://pse.komdigi.go.id/tdpse-detail/7052",
            "website": "nolimit.id"
        },
        {
            "id": "9cb1abc1-df69-43ef-bc07-75ff5753e87b",
            "nama_pse": "BANK SYARIAH INDONESIA",
            "nama_se": "SMILE (SMART MOBILE INTERACTIVE LEARNING)",
            "sektor": "Sektor Keuangan",
            "tanggal_terbit": "2022-07-19",
            "url_tdpse_detail": "https://pse.komdigi.go.id/tdpse-detail/7055",
            "website": "smile.bankbsi.co.id"
        },
        {
            "id": "9cb1abc1-e128-41a5-bdf3-a9a43043a6a1",
            "nama_pse": "XTREME NETWORK SISTEM",
            "nama_se": "TNOS WORLD",
            "sektor": "Sektor Teknologi Informasi dan Komunikasi",
            "tanggal_terbit": "2022-07-19",
            "url_tdpse_detail": "https://pse.komdigi.go.id/tdpse-detail/7053",
            "website": "tnosworld.com"
        },
        {
            "id": "9cb1abe7-0816-401d-b452-28fb8620cf1f",
            "nama_pse": "PERTAMINA PATRA NIAGA",
            "nama_se": "WEBSITE MYPERTAMINA",
            "sektor": "Sektor Teknologi Informasi dan Komunikasi",
            "tanggal_terbit": "2022-07-19",
            "url_tdpse_detail": "https://pse.komdigi.go.id/tdpse-detail/7054",
            "website": "mypertamina.id"
        },
        {
            "id": "9cb1abc1-e2e0-48a4-8354-e8d733af7709",
            "nama_pse": "PERUMDA BPR MARUNTING SEJAHTERA",
            "nama_se": "CORE BANKING MBS ONLINE",
            "sektor": "Sektor Keuangan",
            "tanggal_terbit": "2022-07-19",
            "url_tdpse_detail": "https://pse.komdigi.go.id/tdpse-detail/7056",
            "website": "perumdabprmaruntingsejahtera.com"
        },
        {
            "id": "9cb1abc1-e485-468f-b7e9-28f25b303ba2",
            "nama_pse": "KALIMASADA SAKTI TEKNOLOGI",
            "nama_se": "TYXMA",
            "sektor": "Sektor Perdagangan",
            "tanggal_terbit": "2022-07-19",
            "url_tdpse_detail": "https://pse.komdigi.go.id/tdpse-detail/7057",
            "website": "tyxma.co.id"
        },
        {
            "id": "9cb1abc1-e66b-4b98-89a5-779aca104067",
            "nama_pse": "DRS. SUROYO RAHARJO, MM",
            "nama_se": "APLIKASI SILSILAH KELUARGA \"TALINASAB\"",
            "sektor": "Sektor Teknologi Informasi dan Komunikasi",
            "tanggal_terbit": "2022-07-19",
            "url_tdpse_detail": "https://pse.komdigi.go.id/tdpse-detail/7058",
            "website": "talinasab.com"
        },
        {
            "id": "9cb1abc1-e8d1-48af-ad04-7807ccee0f70",
            "nama_pse": "BANK PEREKONOMIAN RAKYAT UTOMO MANUNGGAL SEJAHTERA LAMPUNG",
            "nama_se": "WEBSITE RESMI DAN EMAIL BPR UTOMO",
            "sektor": "Sektor Keuangan",
            "tanggal_terbit": "2022-07-19",
            "url_tdpse_detail": "https://pse.komdigi.go.id/tdpse-detail/7060",
            "website": "utomobank.co.id"
        },
        {
            "id": "9cb1abc1-eacd-4da7-8537-d4c87e5f7c00",
            "nama_pse": "WIDYA ADIJAYA NUSANTARA",
            "nama_se": "SITUS WEB PERUSAHAAN",
            "sektor": "Sektor Teknologi Informasi dan Komunikasi",
            "tanggal_terbit": "2022-07-19",
            "url_tdpse_detail": "https://pse.komdigi.go.id/tdpse-detail/7078",
            "website": "widyasecurity.com"
        },
        {
            "id": "9cb1abe7-104c-48f5-8dbf-5f3995e06dea",
            "nama_pse": "BANK PEMBANGUNAN DAERAH KALIMANTAN SELATAN PERSERODA",
            "nama_se": "E-PERSONAL",
            "sektor": "Sektor Teknologi Informasi dan Komunikasi",
            "tanggal_terbit": "2022-07-19",
            "url_tdpse_detail": "https://pse.komdigi.go.id/tdpse-detail/7092",
            "website": "hcis.bankkalsel.co.id"
        },
        {
            "id": "9cb1abb6-ca79-4b9c-b2ac-9fa7e1ef5903",
            "nama_pse": "AYOFOTO MEDIA INTERNATIONAL",
            "nama_se": "AYOFOTO",
            "sektor": "Sektor Teknologi Informasi dan Komunikasi",
            "tanggal_terbit": "2022-07-19",
            "url_tdpse_detail": "https://pse.komdigi.go.id/tdpse-detail/7065",
            "website": "ayofoto.com"
        },
        {
            "id": "9cb1abe7-1520-4ec2-a8a5-9c19031cdec9",
            "nama_pse": "ACKTEC PRASAMA INDONESIA",
            "nama_se": "KIDSQWEST",
            "sektor": "Sektor Teknologi Informasi dan Komunikasi",
            "tanggal_terbit": "2022-07-19",
            "url_tdpse_detail": "https://pse.komdigi.go.id/tdpse-detail/7077",
            "website": "ns-1380.awsdns-44.org"
        },
        {
            "id": "9cb1abc1-eccf-46d5-983d-75e3572baede",
            "nama_pse": "FULLMOON HARVEST INDONESIA",
            "nama_se": "FULLMOON",
            "sektor": "Sektor Perdagangan",
            "tanggal_terbit": "2022-07-19",
            "url_tdpse_detail": "https://pse.komdigi.go.id/tdpse-detail/7061",
            "website": "fullmoonid.com"
        },
        {
            "id": "9cb1abb6-cc53-418b-8444-a307fc6beedc",
            "nama_pse": "DEDI SUWANDI YAGAMI",
            "nama_se": "YAGAMICELL",
            "sektor": "Sektor Perdagangan",
            "tanggal_terbit": "2022-07-19",
            "url_tdpse_detail": "https://pse.komdigi.go.id/tdpse-detail/7062",
            "website": "yagami-cell.com"
        },
        {
            "id": "9cb1abb6-ce90-49b4-8c51-7ef9ce2aae11",
            "nama_pse": "JARI KARYA INDONESIA",
            "nama_se": "JARIVIS",
            "sektor": "Sektor Perdagangan",
            "tanggal_terbit": "2022-07-19",
            "url_tdpse_detail": "https://pse.komdigi.go.id/tdpse-detail/7063",
            "website": "jarivis.com"
        },
        {
            "id": "9cb1abe7-1a4d-49dc-b9cc-f20006adde7c",
            "nama_pse": "BANK PEMBANGUNAN DAERAH KALIMANTAN SELATAN PERSERODA",
            "nama_se": "PERFORMANCE EVALUATION DIGITAL GATE",
            "sektor": "Sektor Teknologi Informasi dan Komunikasi",
            "tanggal_terbit": "2022-07-19",
            "url_tdpse_detail": "https://pse.komdigi.go.id/tdpse-detail/7105",
            "website": "pedig.bankkalsel.co.id"
        },
        {
            "id": "9cb1abc1-eec2-48d8-a8dc-48e1396abb5b",
            "nama_pse": "NUR ALFIN ALDI SAPUTRA",
            "nama_se": "ALDISHOOP",
            "sektor": "Sektor Perdagangan, Sektor Teknologi Informasi dan Komunikasi",
            "tanggal_terbit": "2022-07-19",
            "url_tdpse_detail": "https://pse.komdigi.go.id/tdpse-detail/7082",
            "website": "aldishoop.bukaolshop.site"
        },
        {
            "id": "9cb1abb6-d038-4069-bddf-4d048ae50dcf",
            "nama_pse": "BANK PEREKONOMIAN RAKYAT ARTHA RAHAYU",
            "nama_se": "WEBSITE BPR ARTHA RAHAYU",
            "sektor": "Sektor Keuangan",
            "tanggal_terbit": "2022-07-19",
            "url_tdpse_detail": "https://pse.komdigi.go.id/tdpse-detail/7066",
            "website": "bprartharahayu.wordpress.com"
        },
        {
            "id": "9cb1abe7-275f-4d8d-92ad-a3b0ffc71a69",
            "nama_pse": "BANK PERKREDITAN RAKYAT CITRA DUMOGA",
            "nama_se": "WEBSITE \u0026 MEDIA SOSIAL BPR CITRA DUMOGA",
            "sektor": "Sektor Keuangan",
            "tanggal_terbit": "2022-07-19",
            "url_tdpse_detail": "https://pse.komdigi.go.id/tdpse-detail/7064",
            "website": "bprcitra.com"
        },
        {
            "id": "9cb1abc1-f161-47bc-9888-e610521d357d",
            "nama_pse": "KREASI UNTUK INDONESIA",
            "nama_se": "KUYY",
            "sektor": "Sektor Teknologi Informasi dan Komunikasi",
            "tanggal_terbit": "2022-07-19",
            "url_tdpse_detail": "https://pse.komdigi.go.id/tdpse-detail/7068",
            "website": "kuyyaja.com"
        },
        {
            "id": "9cb1abc1-f3c8-4f88-aa81-3139637f95d9",
            "nama_pse": "BURSA EFEK INDONESIA",
            "nama_se": "JAKARTA AUTOMATED TRADING SYSTEMS (JATS)",
            "sektor": "Sektor Keuangan",
            "tanggal_terbit": "2022-07-19",
            "url_tdpse_detail": "https://pse.komdigi.go.id/tdpse-detail/7081",
            "website": "-"
        },
        {
            "id": "9cb1abb6-d20c-44f9-b674-e56ad373c8a7",
            "nama_pse": "ASDP INDONESIA FERRY",
            "nama_se": "FERIZY",
            "sektor": "Sektor Transportasi",
            "tanggal_terbit": "2022-07-19",
            "url_tdpse_detail": "https://pse.komdigi.go.id/tdpse-detail/7114",
            "website": "ferizy.com"
        },
        {
            "id": "9cb1abe7-340b-4e46-9a35-b1b23c51172d",
            "nama_pse": "ASURANSI JIWA MANULIFE INDONESIA",
            "nama_se": "MIPOS",
            "sektor": "Sektor Keuangan",
            "tanggal_terbit": "2022-07-19",
            "url_tdpse_detail": "https://pse.komdigi.go.id/tdpse-detail/7069",
            "website": "manulife.com"
        },
        {
            "id": "9cb1abe7-3b4c-4e19-aa1e-3706408fc189",
            "nama_pse": "BANK PEMBANGUNAN DAERAH KALIMANTAN SELATAN PERSERODA",
            "nama_se": "REKRUTMEN BANK KALSEL TALENTA",
            "sektor": "Sektor Teknologi Informasi dan Komunikasi",
            "tanggal_terbit": "2022-07-19",
            "url_tdpse_detail": "https://pse.komdigi.go.id/tdpse-detail/7103",
            "website": "rekrutmen.bankkalsel.co.id"
        },
        {
            "id": "9cb1abb6-d3da-45f1-978a-ef9ea571026a",
            "nama_pse": "CSM CORPORATAMA",
            "nama_se": "CSM CORPORATAMA (INDORENT CARE)",
            "sektor": "Sektor Transportasi",
            "tanggal_terbit": "2022-07-19",
            "url_tdpse_detail": "https://pse.komdigi.go.id/tdpse-detail/7071",
            "website": "-"
        },
        {
            "id": "9cb1abc1-f60d-4a0c-a574-e51b3dac85df",
            "nama_pse": "PT. BPR DHANATANI CEPIRING",
            "nama_se": "PT BPR DHANATANI CEPIRING",
            "sektor": "Sektor Keuangan",
            "tanggal_terbit": "2022-07-19",
            "url_tdpse_detail": "https://pse.komdigi.go.id/tdpse-detail/7073",
            "website": "bprdhanatanicpg.com"
        },
        {
            "id": "9cb1abe7-4102-4ade-8bcd-a2d4396993e9",
            "nama_pse": "JABARSOFT TEKNOLOGI INDONESIA",
            "nama_se": "WEBSITE PT JABARSOFT TEKNOLOGI INDONESIA",
            "sektor": "Sektor Teknologi Informasi dan Komunikasi",
            "tanggal_terbit": "2022-07-19",
            "url_tdpse_detail": "https://pse.komdigi.go.id/tdpse-detail/7093",
            "website": "jabarsoft.com"
        },
        {
            "id": "9cb1abc1-f7e0-4fba-8c88-5482f83eeb61",
            "nama_pse": "BANK SYARIAH INDONESIA",
            "nama_se": "SISTEM INFORMASI PEGAWAI BANK BSI",
            "sektor": "Sektor Keuangan",
            "tanggal_terbit": "2022-07-19",
            "url_tdpse_detail": "https://pse.komdigi.go.id/tdpse-detail/7070",
            "website": "sip.bankbsi.co.id"
        },
        {
            "id": "9cb1abb6-d595-4b0e-a6b7-9f9717de0cb4",
            "nama_pse": "FIRMANSYAH",
            "nama_se": "BAGUSPULSA",
            "sektor": "Sektor Perdagangan",
            "tanggal_terbit": "2022-07-19",
            "url_tdpse_detail": "https://pse.komdigi.go.id/tdpse-detail/7072",
            "website": "baguspulsa.com"
        },
        {
            "id": "9cb1abb6-d746-4f71-8004-8078c57706db",
            "nama_pse": "GEOKARTA ENGINEERING CONSULTANT",
            "nama_se": "GEOKARTA",
            "sektor": "Sektor Teknologi Informasi dan Komunikasi",
            "tanggal_terbit": "2022-07-19",
            "url_tdpse_detail": "https://pse.komdigi.go.id/tdpse-detail/7074",
            "website": "geokarta-ec.com"
        },
        {
            "id": "9cb1abe7-4655-410b-a27d-b74ee2c27a01",
            "nama_pse": "GARUDA DIGITAL KREATIF",
            "nama_se": "GARUDAKU",
            "sektor": "Sektor Teknologi Informasi dan Komunikasi",
            "tanggal_terbit": "2022-07-19",
            "url_tdpse_detail": "https://pse.komdigi.go.id/tdpse-detail/7080",
            "website": "garudaku.com"
        },
        {
            "id": "9cb1abe7-4a7f-460d-acb2-94e7c8c55798",
            "nama_pse": "TRI SAHRIDAYA TEKNOLOGI",
            "nama_se": "SMS BROADCAST PT TRI SAHRIDAYA TEKNOLOGI",
            "sektor": "Sektor Teknologi Informasi dan Komunikasi",
            "tanggal_terbit": "2022-07-19",
            "url_tdpse_detail": "https://pse.komdigi.go.id/tdpse-detail/7075",
            "website": "sms.sahridaya.id"
        },
        {
            "id": "9cb1abb6-d8f5-48f2-b2e9-23548806fede",
            "nama_pse": "WALT DISNEY INDONESIA",
            "nama_se": "DISNEY+ HOTSTAR",
            "sektor": "Sektor Perdagangan, Sektor Teknologi Informasi dan Komunikasi",
            "tanggal_terbit": "2022-07-19",
            "url_tdpse_detail": "https://pse.komdigi.go.id/tdpse-detail/7079",
            "website": "hotstar.com"
        },
        {
            "id": "9cb1abe7-4de8-489c-b081-7f493599156e",
            "nama_pse": "UNI TOKOPO TEKNOLOGI",
            "nama_se": "CAMPAIGN #FORCHANGE",
            "sektor": "Sektor Teknologi Informasi dan Komunikasi",
            "tanggal_terbit": "2022-07-19",
            "url_tdpse_detail": "https://pse.komdigi.go.id/tdpse-detail/7076",
            "website": "campaign.com"
        },
        {
            "id": "9cb1abe7-5398-4f0b-a66a-e80687845219",
            "nama_pse": "BOLDE INOVASI GLOBAL",
            "nama_se": "BOLDE APPS",
            "sektor": "Sektor Perdagangan",
            "tanggal_terbit": "2022-07-19",
            "url_tdpse_detail": "https://pse.komdigi.go.id/tdpse-detail/7085",
            "website": "boldestore.com"
        }
    ],
    "processingTimeMs": 5,
    "query": "",
    "totalHits": 19121,
    "hitsPerPage": 50,
    "page": 262,
    "totalPages": 383
}