{
    "hits": [
        {
            "id": "9cb1abba-222d-417e-be87-1a3e9b33b8d4",
            "nama_pse": "BANK SYARIAH INDONESIA",
            "nama_se": "MOBILE COLLECTION SYSTEM",
            "sektor": "Sektor Keuangan",
            "tanggal_terbit": "2022-07-20",
            "url_tdpse_detail": "https://pse.komdigi.go.id/tdpse-detail/8017",
            "website": "mcs.bsm.co.id"
        },
        {
            "id": "9cb1abba-23ff-4118-bc64-d1c4d8b9d57e",
            "nama_pse": "BARA INOVASI SEMESTA",
            "nama_se": "KONSULTA.CO",
            "sektor": "Sektor Teknologi Informasi dan Komunikasi",
            "tanggal_terbit": "2022-07-20",
            "url_tdpse_detail": "https://pse.komdigi.go.id/tdpse-detail/8016",
            "website": "konsulta.co"
        },
        {
            "id": "9cb1abc7-3e42-4029-b28d-a4c4ebd24c08",
            "nama_pse": "Muhamad Wahyudi",
            "nama_se": "JETPULSA",
            "sektor": "Sektor Perdagangan",
            "tanggal_terbit": "2022-07-20",
            "url_tdpse_detail": "https://pse.komdigi.go.id/tdpse-detail/8020",
            "website": "jetpulsa.com"
        },
        {
            "id": "9cb1abc7-411a-41b0-9c49-6b3c3a332235",
            "nama_pse": "MAHKOTA PERMATA JAYA",
            "nama_se": "WEFITCLUBS.COM",
            "sektor": "Sektor Perdagangan",
            "tanggal_terbit": "2022-07-20",
            "url_tdpse_detail": "https://pse.komdigi.go.id/tdpse-detail/8018",
            "website": "wefitclubs.com"
        },
        {
            "id": "9cb1abc7-4477-429c-8ae5-827c03f8c6be",
            "nama_pse": "INDONESIA SATU TUJUH",
            "nama_se": "DOMAIN INA17 (PANDI)",
            "sektor": "Sektor Teknologi Informasi dan Komunikasi",
            "tanggal_terbit": "2022-07-20",
            "url_tdpse_detail": "https://pse.komdigi.go.id/tdpse-detail/8024",
            "website": "ina17.id"
        },
        {
            "id": "9cb1abed-28f9-4c7e-aeaa-ece7f93f10d9",
            "nama_pse": "ASURANSI CENTRAL ASIA",
            "nama_se": "MIKROACA.COM",
            "sektor": "Sektor Keuangan",
            "tanggal_terbit": "2022-07-20",
            "url_tdpse_detail": "https://pse.komdigi.go.id/tdpse-detail/8019",
            "website": "mikroaca.com"
        },
        {
            "id": "9cb1abed-2ee4-4eaa-8fa2-4a1709692470",
            "nama_pse": "EBCONNECTION INDONESIA",
            "nama_se": "HTTPS://EBCONNECT.COM/",
            "sektor": "Sektor Teknologi Informasi dan Komunikasi",
            "tanggal_terbit": "2022-07-20",
            "url_tdpse_detail": "https://pse.komdigi.go.id/tdpse-detail/8025",
            "website": "-"
        },
        {
            "id": "9cb1abed-3319-4bbb-bcd1-b2cebfb5d163",
            "nama_pse": "TIGA MACAN MULTIMEDIA",
            "nama_se": "COMPANY PROFILE PT. TIGA MACAN MULTIMEDIA",
            "sektor": "Sektor Teknologi Informasi dan Komunikasi",
            "tanggal_terbit": "2022-07-20",
            "url_tdpse_detail": "https://pse.komdigi.go.id/tdpse-detail/8021",
            "website": "timobile.tech"
        },
        {
            "id": "9cb1abba-2cbc-498f-b27a-c15866f3be22",
            "nama_pse": "KARISMA LEGALINDO UTAMA",
            "nama_se": "SIMASIF! LEGAL TECH",
            "sektor": "Sektor Perdagangan",
            "tanggal_terbit": "2022-07-20",
            "url_tdpse_detail": "https://pse.komdigi.go.id/tdpse-detail/8050",
            "website": "somasikan.com"
        },
        {
            "id": "9cb1abc7-487f-4dd8-af48-98be1ac89cc1",
            "nama_pse": "ASURANSI CENTRAL ASIA",
            "nama_se": "ACA-KOMUNITAS.COM",
            "sektor": "Sektor Keuangan",
            "tanggal_terbit": "2022-07-20",
            "url_tdpse_detail": "https://pse.komdigi.go.id/tdpse-detail/8023",
            "website": "aca-komunitas.com"
        },
        {
            "id": "9cb1abed-3991-4514-b66d-f9199fd3b4df",
            "nama_pse": "CIRCLES ASIA TEKNOLOGI",
            "nama_se": "LIVE.ON MOBILE APP",
            "sektor": "Sektor Teknologi Informasi dan Komunikasi",
            "tanggal_terbit": "2022-07-20",
            "url_tdpse_detail": "https://pse.komdigi.go.id/tdpse-detail/8059",
            "website": "-"
        },
        {
            "id": "9cb1abba-2f5c-4ca7-8cd8-4476b00acd79",
            "nama_pse": "BANK SYARIAH INDONESIA",
            "nama_se": "IKURMA",
            "sektor": "Sektor Keuangan",
            "tanggal_terbit": "2022-07-20",
            "url_tdpse_detail": "https://pse.komdigi.go.id/tdpse-detail/8027",
            "website": "-"
        },
        {
            "id": "9cb1abc7-4cef-45ad-9a99-8087b25caf1b",
            "nama_pse": "PRATAMA DIDIK PRASOJO",
            "nama_se": "TAMA PULSA",
            "sektor": "Sektor Perdagangan",
            "tanggal_terbit": "2022-07-20",
            "url_tdpse_detail": "https://pse.komdigi.go.id/tdpse-detail/8026",
            "website": "tamapulsa.com"
        },
        {
            "id": "9cb1abc7-5278-4a91-94d4-0e340e1fafc0",
            "nama_pse": "BANK PERKREDITAN RAKYAT HASA MITRA",
            "nama_se": "HASAMITRA",
            "sektor": "Sektor Keuangan",
            "tanggal_terbit": "2022-07-20",
            "url_tdpse_detail": "https://pse.komdigi.go.id/tdpse-detail/8028",
            "website": "hasamitra.com"
        },
        {
            "id": "9cb1abba-3157-4f08-b124-841f321c622a",
            "nama_pse": "FATTRA KURNIADY",
            "nama_se": "KLINIKHP.ID",
            "sektor": "Sektor Perdagangan",
            "tanggal_terbit": "2022-07-20",
            "url_tdpse_detail": "https://pse.komdigi.go.id/tdpse-detail/8029",
            "website": "klinikhp.id"
        },
        {
            "id": "9cb1abba-3354-40e1-bbf9-f53167967578",
            "nama_pse": "GADAIKU PASTI JAYA",
            "nama_se": "APLIKASI",
            "sektor": "Sektor Keuangan",
            "tanggal_terbit": "2022-07-20",
            "url_tdpse_detail": "https://pse.komdigi.go.id/tdpse-detail/8032",
            "website": "-"
        },
        {
            "id": "9cb1abba-3521-4837-910c-cfb5987f1d63",
            "nama_pse": "INDONESIA SATU TUJUH",
            "nama_se": "WHOP PORTAL",
            "sektor": "Sektor Teknologi Informasi dan Komunikasi",
            "tanggal_terbit": "2022-07-20",
            "url_tdpse_detail": "https://pse.komdigi.go.id/tdpse-detail/8031",
            "website": "whop.ina17.com"
        },
        {
            "id": "9cb1abed-3d83-4b1f-8936-2ea44f89852b",
            "nama_pse": "BANK PEMBANGUNAN DAERAH PAPUA",
            "nama_se": "MOBILE BANKING BANK PAPUA",
            "sektor": "Sektor Keuangan",
            "tanggal_terbit": "2022-07-20",
            "url_tdpse_detail": "https://pse.komdigi.go.id/tdpse-detail/8030",
            "website": "-"
        },
        {
            "id": "9cb1abba-3737-4f3e-bbf6-6ab4a912efdd",
            "nama_pse": "INDONESIA SATU TUJUH",
            "nama_se": "IOT RCS CONDITIONING MONITORING SYSTEM",
            "sektor": "Sektor Teknologi Informasi dan Komunikasi",
            "tanggal_terbit": "2022-07-20",
            "url_tdpse_detail": "https://pse.komdigi.go.id/tdpse-detail/8033",
            "website": "staging.ina17.com"
        },
        {
            "id": "9cb1abba-3908-4e80-a82b-96c3ab3aba45",
            "nama_pse": "SOLUSI TIGA SELARAS",
            "nama_se": "PERIKSALAB",
            "sektor": "Sektor Kesehatan",
            "tanggal_terbit": "2022-07-20",
            "url_tdpse_detail": "https://pse.komdigi.go.id/tdpse-detail/8035",
            "website": "periksalab.id"
        },
        {
            "id": "9cb1abed-4153-423f-bb2d-3511828fb20c",
            "nama_pse": "PERUSAHAAN PERSEROAN (PERSERO) PT. TELEKOMUNIKASI INDONESIA",
            "nama_se": "SELECTION EXAM",
            "sektor": "Sektor Teknologi Informasi dan Komunikasi",
            "tanggal_terbit": "2022-07-20",
            "url_tdpse_detail": "https://pse.komdigi.go.id/tdpse-detail/8037",
            "website": "exam.telkom.co.id"
        },
        {
            "id": "9cb1abc7-5825-422c-b9e8-6ae8210bb76a",
            "nama_pse": "MITRA AWAN DATA",
            "nama_se": "AWANDATA",
            "sektor": "Sektor Teknologi Informasi dan Komunikasi",
            "tanggal_terbit": "2022-07-20",
            "url_tdpse_detail": "https://pse.komdigi.go.id/tdpse-detail/8039",
            "website": "awandata.co.id"
        },
        {
            "id": "9cb1abba-3aed-4160-912f-cf3654314a24",
            "nama_pse": "MAHKOTA PERMATA JAYA",
            "nama_se": "CENTRALGROUPPROPERTY.COM",
            "sektor": "Sektor Perdagangan",
            "tanggal_terbit": "2022-07-20",
            "url_tdpse_detail": "https://pse.komdigi.go.id/tdpse-detail/8034",
            "website": "centralgroupproperty.com"
        },
        {
            "id": "9cb1abba-3cc1-43ce-bc84-f6f6ea8faa17",
            "nama_pse": "BANK SYARIAH INDONESIA",
            "nama_se": "CUSTOMER ONLINE ONBOARDING VIDEOSTREAMING (COO VB)",
            "sektor": "Sektor Keuangan",
            "tanggal_terbit": "2022-07-20",
            "url_tdpse_detail": "https://pse.komdigi.go.id/tdpse-detail/8036",
            "website": "videostream.bankbsi.co.id"
        },
        {
            "id": "9cb1abc7-5f43-4910-b1cb-8527ad68f61c",
            "nama_pse": "BANK PERKREDITAN RAKYAT HASA MITRA",
            "nama_se": "HASAMITRA MOBILE",
            "sektor": "Sektor Keuangan",
            "tanggal_terbit": "2022-07-20",
            "url_tdpse_detail": "https://pse.komdigi.go.id/tdpse-detail/8040",
            "website": "-"
        },
        {
            "id": "9cb1abba-3ed2-4259-b16e-2c7ca059290c",
            "nama_pse": "SUPRA SEKURITAS INDONESIA",
            "nama_se": "WEBSITE SUPRA SEKURITAS",
            "sektor": "Sektor Keuangan",
            "tanggal_terbit": "2022-07-20",
            "url_tdpse_detail": "https://pse.komdigi.go.id/tdpse-detail/8041",
            "website": "suprasekuritas.co.id"
        },
        {
            "id": "9cb1abc7-659b-45e1-8fc4-9da5355e667e",
            "nama_pse": "JALUR SUTRA INTERNASIONAL",
            "nama_se": "RAKYATPOS",
            "sektor": "Sektor Teknologi Informasi dan Komunikasi",
            "tanggal_terbit": "2022-07-20",
            "url_tdpse_detail": "https://pse.komdigi.go.id/tdpse-detail/8043",
            "website": "rakyatpos.id"
        },
        {
            "id": "9cb1abc7-6c2b-4176-bbf4-bec8cc75edd4",
            "nama_pse": "FATTRA KURNIADY",
            "nama_se": "AMAL.ID",
            "sektor": "Sektor Teknologi Informasi dan Komunikasi",
            "tanggal_terbit": "2022-07-20",
            "url_tdpse_detail": "https://pse.komdigi.go.id/tdpse-detail/8046",
            "website": "-"
        },
        {
            "id": "9cb1abba-430f-4e16-afad-61e0ac6f8823",
            "nama_pse": "SUKSES ANEKA MULIA",
            "nama_se": "GADAI MULIA",
            "sektor": "Sektor Perdagangan",
            "tanggal_terbit": "2022-07-20",
            "url_tdpse_detail": "https://pse.komdigi.go.id/tdpse-detail/8051",
            "website": "gadaimulia.com"
        },
        {
            "id": "9cb1abed-4aa4-4458-916d-d4aa9f70993b",
            "nama_pse": "KB BUKOPIN FINANCE",
            "nama_se": "KB BUKOPIN FINANCE",
            "sektor": "Sektor Keuangan",
            "tanggal_terbit": "2022-07-20",
            "url_tdpse_detail": "https://pse.komdigi.go.id/tdpse-detail/8047",
            "website": "bukopinfinance.co.id"
        },
        {
            "id": "9cb1abed-504e-4a8c-8df0-64085e6a9a3d",
            "nama_pse": "COMPASIA TECHNOLOGY INDONESIA",
            "nama_se": "SMARTEXCHANGE",
            "sektor": "Sektor Teknologi Informasi dan Komunikasi",
            "tanggal_terbit": "2022-07-20",
            "url_tdpse_detail": "https://pse.komdigi.go.id/tdpse-detail/8045",
            "website": "-"
        },
        {
            "id": "9cb1abed-5415-4ffd-95e3-d8133569bf16",
            "nama_pse": "ANDROMEDA GLOBAL DATA",
            "nama_se": "KARTUSTOK - PENCATATAN STOCK",
            "sektor": "Sektor Teknologi Informasi dan Komunikasi",
            "tanggal_terbit": "2022-07-20",
            "url_tdpse_detail": "https://pse.komdigi.go.id/tdpse-detail/8044",
            "website": "kartustok.com"
        },
        {
            "id": "9cb1abc7-6ffa-4d04-95c5-4e62de976de2",
            "nama_pse": "EXADATA",
            "nama_se": "UMKMKU",
            "sektor": "Sektor Perdagangan",
            "tanggal_terbit": "2022-07-20",
            "url_tdpse_detail": "https://pse.komdigi.go.id/tdpse-detail/8048",
            "website": "umkmku.co"
        },
        {
            "id": "9cb1abc7-7560-4d79-be8c-683863229971",
            "nama_pse": "MAHKOTA PERMATA JAYA",
            "nama_se": "CENTRAL10X.COM",
            "sektor": "Sektor Perdagangan",
            "tanggal_terbit": "2022-07-20",
            "url_tdpse_detail": "https://pse.komdigi.go.id/tdpse-detail/8049",
            "website": "central10x.com"
        },
        {
            "id": "9cb1abba-44f3-4dea-8e3a-5dbdfe41144d",
            "nama_pse": "KONSUMEN PEDAMI",
            "nama_se": "APLIKASI LAYANAN PDAM",
            "sektor": "Sektor Teknologi Informasi dan Komunikasi",
            "tanggal_terbit": "2022-07-20",
            "url_tdpse_detail": "https://pse.komdigi.go.id/tdpse-detail/8060",
            "website": "-"
        },
        {
            "id": "9cb1abba-46ce-4e0e-ab77-7ef2a38f5bdf",
            "nama_pse": "SOLUSI INDOMOBIL PERKASA",
            "nama_se": "SOLUSI INDOMOBIL PERKASA (MOBILE APPS)",
            "sektor": "Sektor Transportasi",
            "tanggal_terbit": "2022-07-20",
            "url_tdpse_detail": "https://pse.komdigi.go.id/tdpse-detail/8054",
            "website": "sipexpress.co.id"
        },
        {
            "id": "9cb1abba-4904-460d-9765-b9c3dd06df57",
            "nama_pse": "BANK PERKREDITAN RAKYAT BANK DAERAH BANGLI",
            "nama_se": "CORE BANKING SYSTEM PT BPR BANK DAERAH BANGLI (PERSERODA)",
            "sektor": "Sektor Keuangan",
            "tanggal_terbit": "2022-07-20",
            "url_tdpse_detail": "https://pse.komdigi.go.id/tdpse-detail/8053",
            "website": "-"
        },
        {
            "id": "9cb1abc7-78c9-4680-92e9-3366d881422d",
            "nama_pse": "BANK PEREKONOMIAN RAKYAT MAKMUR MERATA",
            "nama_se": "WEBSITE",
            "sektor": "Sektor Keuangan",
            "tanggal_terbit": "2022-07-20",
            "url_tdpse_detail": "https://pse.komdigi.go.id/tdpse-detail/8052",
            "website": "-"
        },
        {
            "id": "9cb1abed-57f2-4d31-a657-fc5130c96680",
            "nama_pse": "REALTA CHAKRADARMA",
            "nama_se": "ESS",
            "sektor": "Sektor Teknologi Informasi dan Komunikasi",
            "tanggal_terbit": "2022-07-20",
            "url_tdpse_detail": "https://pse.komdigi.go.id/tdpse-detail/8166",
            "website": "realta.co.id"
        },
        {
            "id": "9cb1abed-5e68-4493-b9b6-5dbdda6e2ad8",
            "nama_pse": "BANK PEMBANGUNAN DAERAH PAPUA",
            "nama_se": "DATAFARM BANK PAPUA",
            "sektor": "Sektor Keuangan",
            "tanggal_terbit": "2022-07-20",
            "url_tdpse_detail": "https://pse.komdigi.go.id/tdpse-detail/8056",
            "website": "datafarm.bankpapua.co.id"
        },
        {
            "id": "9cb1abba-4ac4-43cd-9663-cdec45c37213",
            "nama_pse": "BANK PERKREDITAN RAKYAT KOTA BANDUNG",
            "nama_se": "PERUMDA BPR KOTA BANDUNG",
            "sektor": "Sektor Perdagangan",
            "tanggal_terbit": "2022-07-20",
            "url_tdpse_detail": "https://pse.komdigi.go.id/tdpse-detail/8061",
            "website": "wbankbandung.co.id"
        },
        {
            "id": "9cb1abc7-7c3e-4958-bb62-cd75efde8d50",
            "nama_pse": "SINERGI TEKNOGLOBAL PERKASA",
            "nama_se": "HTTPS://WWW.SINERGITEKNOGLOBAL.CO.ID/",
            "sektor": "Sektor Teknologi Informasi dan Komunikasi",
            "tanggal_terbit": "2022-07-20",
            "url_tdpse_detail": "https://pse.komdigi.go.id/tdpse-detail/8064",
            "website": "-"
        },
        {
            "id": "9cb1abba-4caf-42e3-9421-1e78bfea8c0f",
            "nama_pse": "BANK SYARIAH INDONESIA",
            "nama_se": "BSIMOBILE DEV",
            "sektor": "Sektor Keuangan",
            "tanggal_terbit": "2022-07-20",
            "url_tdpse_detail": "https://pse.komdigi.go.id/tdpse-detail/8057",
            "website": "bsinewdev.bankbsi.co.id"
        },
        {
            "id": "9cb1abc7-8017-4f97-8fdd-b66017767ceb",
            "nama_pse": "AMAN DEVLOOP INDONESIA",
            "nama_se": "AMAN DEVELOOP WEBSITE COMPANY",
            "sektor": "Sektor Teknologi Informasi dan Komunikasi",
            "tanggal_terbit": "2022-07-20",
            "url_tdpse_detail": "https://pse.komdigi.go.id/tdpse-detail/8058",
            "website": "develoop.id"
        },
        {
            "id": "9cb1abed-61e0-4f8b-86a3-5ea5133b62ba",
            "nama_pse": "REALTA CHAKRADARMA",
            "nama_se": "ESS10",
            "sektor": "Sektor Teknologi Informasi dan Komunikasi",
            "tanggal_terbit": "2022-07-20",
            "url_tdpse_detail": "https://pse.komdigi.go.id/tdpse-detail/8164",
            "website": "realta.co.id"
        },
        {
            "id": "9cb1abc7-8433-461a-9564-1e6bd2a10ec6",
            "nama_pse": "JOGJAKITA MULTI ANDALAN",
            "nama_se": "DRIVER JOGJAKITA",
            "sektor": "Sektor Transportasi, Sektor Teknologi Informasi dan Komunikasi",
            "tanggal_terbit": "2022-07-20",
            "url_tdpse_detail": "https://pse.komdigi.go.id/tdpse-detail/8063",
            "website": "jogjakita.co.id"
        },
        {
            "id": "9cb1abba-4ecc-4d99-a4cc-9851f8d122d2",
            "nama_pse": "SOLUSI INDOMOBIL PERKASA",
            "nama_se": "SOLUSI INDOMOBIL PERKASA (COMPANY WEBSITE)",
            "sektor": "Sektor Transportasi",
            "tanggal_terbit": "2022-07-20",
            "url_tdpse_detail": "https://pse.komdigi.go.id/tdpse-detail/8065",
            "website": "sipexpress.co.id"
        },
        {
            "id": "9cb1abed-6630-4d63-a37b-c13e05a95842",
            "nama_pse": "ASURANSI JIWA BCA",
            "nama_se": "BCA LIFE MOBILE SERVICES",
            "sektor": "Sektor Keuangan",
            "tanggal_terbit": "2022-07-20",
            "url_tdpse_detail": "https://pse.komdigi.go.id/tdpse-detail/8066",
            "website": "-"
        },
        {
            "id": "9cb1abba-50b2-4098-9f82-b3d45b261774",
            "nama_pse": "MAHKOTA PERMATA JAYA",
            "nama_se": "THESERENITYCENTRAL.COM",
            "sektor": "Sektor Perdagangan",
            "tanggal_terbit": "2022-07-20",
            "url_tdpse_detail": "https://pse.komdigi.go.id/tdpse-detail/8067",
            "website": "theserenitycentral.com"
        },
        {
            "id": "9cb1abed-6955-4361-bcd5-b9308045ed06",
            "nama_pse": "REDKENDI ANDALAN MITRA",
            "nama_se": "KENDIXPRESS",
            "sektor": "Sektor Perdagangan",
            "tanggal_terbit": "2022-07-20",
            "url_tdpse_detail": "https://pse.komdigi.go.id/tdpse-detail/8068",
            "website": "kendixpress.com"
        }
    ],
    "processingTimeMs": 4,
    "query": "",
    "totalHits": 19121,
    "hitsPerPage": 50,
    "page": 247,
    "totalPages": 383
}