{
    "hits": [
        {
            "id": "9cb1ac0a-0953-4948-98c2-1b7550d4b2f5",
            "nama_pse": "MITRA RAVINDRA INTERNASIONAL",
            "nama_se": "TITANS TECH WEB AR",
            "sektor": "Sektor Teknologi Informasi dan Komunikasi",
            "tanggal_terbit": "2022-08-05",
            "url_tdpse_detail": "https://pse.komdigi.go.id/tdpse-detail/9949",
            "website": "titans.id"
        },
        {
            "id": "9cb1abfa-d0b5-4b22-8480-db7f5ae3135a",
            "nama_pse": "PERTAMINA PATRA NIAGA",
            "nama_se": "ONLINE DELIVERY INFO (ODI)",
            "sektor": "Sektor Teknologi Informasi dan Komunikasi",
            "tanggal_terbit": "2022-08-05",
            "url_tdpse_detail": "https://pse.komdigi.go.id/tdpse-detail/9950",
            "website": "-"
        },
        {
            "id": "9cb1ac0a-2672-4a56-ba90-c49cda515038",
            "nama_pse": "BANK PERKREDITAN RAKYAT TJAHAJA BARU",
            "nama_se": "RURAL BANKING SISTIM",
            "sektor": "Sektor Keuangan",
            "tanggal_terbit": "2022-08-05",
            "url_tdpse_detail": "https://pse.komdigi.go.id/tdpse-detail/9951",
            "website": "-"
        },
        {
            "id": "9cb1abd4-9bde-42f9-8ebc-c68c91efd8d8",
            "nama_pse": "KAWAN LAMA INOVASI",
            "nama_se": "WEBSITE PT KAWAN LAMA INOVASI (WWW.KAWANLAMAINOVASI.COM)",
            "sektor": "Sektor Perdagangan, Sektor Teknologi Informasi dan Komunikasi",
            "tanggal_terbit": "2022-08-05",
            "url_tdpse_detail": "https://pse.komdigi.go.id/tdpse-detail/9953",
            "website": "kawanlamainovasi.com"
        },
        {
            "id": "9cb1abfa-d475-4677-aa90-3ad5bd47f882",
            "nama_pse": "PERTAMINA PATRA NIAGA",
            "nama_se": "PORTAL CORPORATE WEBSITE PT PERTAMINA PATRA NIAGA",
            "sektor": "Sektor Teknologi Informasi dan Komunikasi",
            "tanggal_terbit": "2022-08-05",
            "url_tdpse_detail": "https://pse.komdigi.go.id/tdpse-detail/9954",
            "website": "pertaminapatraniaga.com"
        },
        {
            "id": "9cb1ac0a-3836-4bc1-900b-e54beb6e12ae",
            "nama_pse": "KRISBOW INDONESIA",
            "nama_se": "WEBSITE SOWELL INDONESIA (WWW.SOWELL.CO.ID)",
            "sektor": "Sektor Perdagangan, Sektor Teknologi Informasi dan Komunikasi",
            "tanggal_terbit": "2022-08-05",
            "url_tdpse_detail": "https://pse.komdigi.go.id/tdpse-detail/9955",
            "website": "sowell.co.id"
        },
        {
            "id": "9cb1abd4-9fa7-47d2-adc0-5d0931aaddd1",
            "nama_pse": "UNINET BHAKTINUSA",
            "nama_se": "STARTX.ID",
            "sektor": "Sektor Teknologi Informasi dan Komunikasi",
            "tanggal_terbit": "2022-08-05",
            "url_tdpse_detail": "https://pse.komdigi.go.id/tdpse-detail/9961",
            "website": "startx.id"
        },
        {
            "id": "9cb1ac0a-3c16-4b5a-a65b-5b9696a2d293",
            "nama_pse": "CLIPAN FINANCE INDONESIA",
            "nama_se": "SERVICES.CLIPAN.CO.ID",
            "sektor": "Sektor Keuangan",
            "tanggal_terbit": "2022-08-05",
            "url_tdpse_detail": "https://pse.komdigi.go.id/tdpse-detail/9957",
            "website": "services.clipan.co.id"
        },
        {
            "id": "9cb1ac0a-3f9b-4162-935d-26f081a5fe04",
            "nama_pse": "UNINET BHAKTINUSA",
            "nama_se": "KGMEDIA.ID",
            "sektor": "Sektor Teknologi Informasi dan Komunikasi",
            "tanggal_terbit": "2022-08-05",
            "url_tdpse_detail": "https://pse.komdigi.go.id/tdpse-detail/9963",
            "website": "kgmedia.id"
        },
        {
            "id": "9cb1abd4-a32b-46dc-a644-769f40e36b3f",
            "nama_pse": "HOME CENTER INDONESIA RETAIL",
            "nama_se": "WEBSITE SELMA (WWW.SELMA.CO.ID)",
            "sektor": "Sektor Perdagangan, Sektor Teknologi Informasi dan Komunikasi",
            "tanggal_terbit": "2022-08-05",
            "url_tdpse_detail": "https://pse.komdigi.go.id/tdpse-detail/9973",
            "website": "selma.co.id"
        },
        {
            "id": "9cb1ac0a-44fe-4fca-aa1d-b306803acb87",
            "nama_pse": "PERTAMINA PATRA NIAGA",
            "nama_se": "PERTAMINA ONE SOLUTION",
            "sektor": "Sektor Teknologi Informasi dan Komunikasi",
            "tanggal_terbit": "2022-08-05",
            "url_tdpse_detail": "https://pse.komdigi.go.id/tdpse-detail/9956",
            "website": "-"
        },
        {
            "id": "9cb1abd4-a8bc-4034-9cd9-5ae4425c69ff",
            "nama_pse": "FIDAC INOVASI TEKNOLOGI",
            "nama_se": "DUMI",
            "sektor": "Sektor Keuangan",
            "tanggal_terbit": "2022-08-05",
            "url_tdpse_detail": "https://pse.komdigi.go.id/tdpse-detail/9958",
            "website": "-"
        },
        {
            "id": "9cb1ac0a-4dbc-4039-9843-217a4c0c158c",
            "nama_pse": "PERTAMINA PATRA NIAGA",
            "nama_se": "DGIMS (DOMESTIC GAS INTEGRATED MGMT SYSTEM)",
            "sektor": "Sektor Teknologi Informasi dan Komunikasi",
            "tanggal_terbit": "2022-08-05",
            "url_tdpse_detail": "https://pse.komdigi.go.id/tdpse-detail/9962",
            "website": "-"
        },
        {
            "id": "9cb1abfa-d78a-40aa-81cc-a7644d645d1c",
            "nama_pse": "INTEGRAL DATA PRIMA",
            "nama_se": "PAJAK101",
            "sektor": "Sektor Teknologi Informasi dan Komunikasi",
            "tanggal_terbit": "2022-08-05",
            "url_tdpse_detail": "https://pse.komdigi.go.id/tdpse-detail/9964",
            "website": "pajak101.com"
        },
        {
            "id": "9cb1abfa-db3d-425f-811b-e48e23e677fd",
            "nama_pse": "PERTAMINA PATRA NIAGA",
            "nama_se": "SPBU HUB",
            "sektor": "Sektor Teknologi Informasi dan Komunikasi",
            "tanggal_terbit": "2022-08-05",
            "url_tdpse_detail": "https://pse.komdigi.go.id/tdpse-detail/9965",
            "website": "-"
        },
        {
            "id": "9cb1ac0a-50e0-4731-acfb-9ad75b92ce3a",
            "nama_pse": "ASTRIDO PACIFIC FINANCE",
            "nama_se": "WWW.ASTRIDO-FINANCE.CO.ID",
            "sektor": "Sektor Keuangan",
            "tanggal_terbit": "2022-08-05",
            "url_tdpse_detail": "https://pse.komdigi.go.id/tdpse-detail/9966",
            "website": "astrido-finance.co.id"
        },
        {
            "id": "9cb1abfa-de5c-4e49-8ba8-4f0387b74ca6",
            "nama_pse": "PERTAMINA PATRA NIAGA",
            "nama_se": "SPPBE",
            "sektor": "Sektor Teknologi Informasi dan Komunikasi",
            "tanggal_terbit": "2022-08-05",
            "url_tdpse_detail": "https://pse.komdigi.go.id/tdpse-detail/9967",
            "website": "-"
        },
        {
            "id": "9cb1abfa-e683-4c96-b021-d921be6b0f42",
            "nama_pse": "BANK PEREKONOMIAN RAKYAT DASSA",
            "nama_se": "WEBSITE",
            "sektor": "Sektor Keuangan",
            "tanggal_terbit": "2022-08-05",
            "url_tdpse_detail": "https://pse.komdigi.go.id/tdpse-detail/9969",
            "website": "bankdassa.com"
        },
        {
            "id": "9cb1abd4-ba4b-4f04-be8d-af8cfaf00801",
            "nama_pse": "PERTAMINA PATRA NIAGA",
            "nama_se": "VHS (VENDOR HELD STOCK) PT PERTAMINA PATRA NIAGA",
            "sektor": "Sektor Teknologi Informasi dan Komunikasi",
            "tanggal_terbit": "2022-08-05",
            "url_tdpse_detail": "https://pse.komdigi.go.id/tdpse-detail/9970",
            "website": "-"
        },
        {
            "id": "9cb1ac0a-5420-4137-bcd5-f06c73d4e7e8",
            "nama_pse": "CHUBB LIFE INSURANCE INDONESIA",
            "nama_se": "CHUBB LIFE- BALANCE",
            "sektor": "Sektor Keuangan",
            "tanggal_terbit": "2022-08-05",
            "url_tdpse_detail": "https://pse.komdigi.go.id/tdpse-detail/9971",
            "website": "chubb.com"
        },
        {
            "id": "9cb1abfa-edb3-4f29-9bb2-d7052f81ecdb",
            "nama_pse": "FWD INSURANCE INDONESIA",
            "nama_se": "OMNE",
            "sektor": "Sektor Keuangan",
            "tanggal_terbit": "2022-08-05",
            "url_tdpse_detail": "https://pse.komdigi.go.id/tdpse-detail/9972",
            "website": "-"
        },
        {
            "id": "9cb1abfa-f14e-491e-ab5c-4efa4aec1bab",
            "nama_pse": "QMED SOLUSI INDONESIA",
            "nama_se": "QMED",
            "sektor": "Sektor Kesehatan, Sektor Teknologi Informasi dan Komunikasi",
            "tanggal_terbit": "2022-08-05",
            "url_tdpse_detail": "https://pse.komdigi.go.id/tdpse-detail/9975",
            "website": "qmed.co.id"
        },
        {
            "id": "9cb1ac0a-573f-4ff3-9d6a-008c99ca56d3",
            "nama_pse": "LAPAKUKM INDONESIA MENDUNIA",
            "nama_se": "LAPAKUKM",
            "sektor": "Sektor Teknologi Informasi dan Komunikasi",
            "tanggal_terbit": "2022-08-05",
            "url_tdpse_detail": "https://pse.komdigi.go.id/tdpse-detail/9976",
            "website": "lapakukm.com"
        },
        {
            "id": "9cb1abfa-f54a-4b81-bf2d-f0b9f94a9003",
            "nama_pse": "PERUSAHAAN PERSEROAN (PERSERO) PT. PELAYARAN NASIONAL INDONESIA",
            "nama_se": "MYCARGOO!",
            "sektor": "Sektor Transportasi",
            "tanggal_terbit": "2022-08-05",
            "url_tdpse_detail": "https://pse.komdigi.go.id/tdpse-detail/9977",
            "website": "mycargoo.pelni.co.id"
        },
        {
            "id": "9cb1abd4-c52b-4c9d-9afb-c4c53f5b06b0",
            "nama_pse": "OPTICAL PARTNERS INDONESIA",
            "nama_se": "E-COMMERCE FRAMES \u0026 LENSES",
            "sektor": "Sektor Kesehatan",
            "tanggal_terbit": "2022-08-05",
            "url_tdpse_detail": "https://pse.komdigi.go.id/tdpse-detail/9981",
            "website": "nvgindonesia.co.id"
        },
        {
            "id": "9cb1abd4-cba6-433f-befb-27891c84db47",
            "nama_pse": "FAZMO DANA SEJAHTERA",
            "nama_se": "FAZMO",
            "sektor": "Sektor Teknologi Informasi dan Komunikasi",
            "tanggal_terbit": "2022-08-05",
            "url_tdpse_detail": "https://pse.komdigi.go.id/tdpse-detail/9978",
            "website": "fazmo.id"
        },
        {
            "id": "9cb1abd4-d13c-46c6-a506-d9066f3350ae",
            "nama_pse": "OKWI NUSANTARA SOLUSINDO",
            "nama_se": "PT OKWI NUSANTARA SOLUSINDO",
            "sektor": "Sektor Perdagangan",
            "tanggal_terbit": "2022-08-05",
            "url_tdpse_detail": "https://pse.komdigi.go.id/tdpse-detail/9979",
            "website": "-"
        },
        {
            "id": "9cb1abfa-fa5b-4681-88fd-dcea8aa7fa0f",
            "nama_pse": "MAKINDO SEKURITAS",
            "nama_se": "MAKINDO CYBERTRADE",
            "sektor": "Sektor Keuangan",
            "tanggal_terbit": "2022-08-05",
            "url_tdpse_detail": "https://pse.komdigi.go.id/tdpse-detail/9980",
            "website": "makindo-ct.com"
        },
        {
            "id": "9cb1abfb-0688-48bc-abc4-1eb39417f8c3",
            "nama_pse": "TAP TALK TEKNOLOGI",
            "nama_se": "TAPTALK.IO",
            "sektor": "Sektor Teknologi Informasi dan Komunikasi",
            "tanggal_terbit": "2022-08-05",
            "url_tdpse_detail": "https://pse.komdigi.go.id/tdpse-detail/9982",
            "website": "taptalk.io"
        },
        {
            "id": "9cb1abfb-0a7f-4c05-bb41-6a9d1470acbd",
            "nama_pse": "NIAGA KOMUNIKASI INDONESIA",
            "nama_se": "OKEPULSA",
            "sektor": "Sektor Perdagangan",
            "tanggal_terbit": "2022-08-05",
            "url_tdpse_detail": "https://pse.komdigi.go.id/tdpse-detail/9983",
            "website": "okepulsa.com"
        },
        {
            "id": "9cb1abd4-d4f4-4bed-a174-22e5382619a4",
            "nama_pse": "NIAGA KOMUNIKASI INDONESIA",
            "nama_se": "OKEGAMES",
            "sektor": "Sektor Perdagangan",
            "tanggal_terbit": "2022-08-05",
            "url_tdpse_detail": "https://pse.komdigi.go.id/tdpse-detail/9984",
            "website": "OKEGAMES.ID"
        },
        {
            "id": "9cb1ac08-f178-4808-acf0-11ce289265e6",
            "nama_pse": "CSM CORPORATAMA",
            "nama_se": "WAHANA INDO TRADA MOBILINDO (UNICORN)",
            "sektor": "Sektor Transportasi",
            "tanggal_terbit": "2022-08-04",
            "url_tdpse_detail": "https://pse.komdigi.go.id/tdpse-detail/9837",
            "website": "unicorn.indorent.co.id"
        },
        {
            "id": "9cb1abfa-295c-4651-bb75-3e690ad20e3c",
            "nama_pse": "REPORTIKA SAKTI MEDIA",
            "nama_se": "REPORTIKA",
            "sektor": "Sektor Teknologi Informasi dan Komunikasi",
            "tanggal_terbit": "2022-08-04",
            "url_tdpse_detail": "https://pse.komdigi.go.id/tdpse-detail/9831",
            "website": "reportika.co.id"
        },
        {
            "id": "9cb1abfa-2bea-491c-b24a-6fc79d0481a1",
            "nama_pse": "TILIK MEDIA JAYA",
            "nama_se": "TILIK NEWA",
            "sektor": "Sektor Teknologi Informasi dan Komunikasi",
            "tanggal_terbit": "2022-08-04",
            "url_tdpse_detail": "https://pse.komdigi.go.id/tdpse-detail/9832",
            "website": "Tiliknews.top"
        },
        {
            "id": "9cb1abfa-2ebd-4c96-b32c-c82ccee81c29",
            "nama_pse": "CENTRAL OF BUSINESS",
            "nama_se": "GACEK.ID",
            "sektor": "Sektor Teknologi Informasi dan Komunikasi",
            "tanggal_terbit": "2022-08-04",
            "url_tdpse_detail": "https://pse.komdigi.go.id/tdpse-detail/9833",
            "website": "gacek.id"
        },
        {
            "id": "9cb1abd3-c62f-4b92-93e5-513e053ec927",
            "nama_pse": "CENTRAL OF BUSINESS",
            "nama_se": "KOBARKSB.COM",
            "sektor": "Sektor Teknologi Informasi dan Komunikasi",
            "tanggal_terbit": "2022-08-04",
            "url_tdpse_detail": "https://pse.komdigi.go.id/tdpse-detail/9834",
            "website": "kobarksb.com"
        },
        {
            "id": "9cb1abfa-31e7-4f5e-a3c4-bcd09ffafe18",
            "nama_pse": "CENTRAL OF BUSINESS",
            "nama_se": "SIGASKSB.WEB.ID",
            "sektor": "Sektor Teknologi Informasi dan Komunikasi",
            "tanggal_terbit": "2022-08-04",
            "url_tdpse_detail": "https://pse.komdigi.go.id/tdpse-detail/9835",
            "website": "sigasksb.web.id"
        },
        {
            "id": "9cb1abd3-c9cc-4b72-a151-754fc76b67f0",
            "nama_pse": "MARKETBIZ JENDELA DIGITAL",
            "nama_se": "RESELLR.ID",
            "sektor": "Sektor Perdagangan",
            "tanggal_terbit": "2022-08-04",
            "url_tdpse_detail": "https://pse.komdigi.go.id/tdpse-detail/9836",
            "website": "Resellr.id"
        },
        {
            "id": "9cb1abd3-cd93-4738-8c95-ea07bdf67db2",
            "nama_pse": "MIRAE ASSET SEKURITAS INDONESIA",
            "nama_se": "SAGE CLUB",
            "sektor": "Sektor Keuangan",
            "tanggal_terbit": "2022-08-04",
            "url_tdpse_detail": "https://pse.komdigi.go.id/tdpse-detail/9838",
            "website": "sageclub.miraeasset.co.id"
        },
        {
            "id": "9cb1abd3-d276-4d2d-91f4-3bbf9a673f19",
            "nama_pse": "ASURANSI JIWA MANULIFE INDONESIA",
            "nama_se": "MIDOCS",
            "sektor": "Sektor Keuangan",
            "tanggal_terbit": "2022-08-04",
            "url_tdpse_detail": "https://pse.komdigi.go.id/tdpse-detail/9839",
            "website": "-"
        },
        {
            "id": "9cb1ac09-1bab-4d28-835a-fb6a6f561467",
            "nama_pse": "ISTANA MOBIL TRIO BANJARBARU",
            "nama_se": "HONDA TRIO MOBIL",
            "sektor": "Sektor Perdagangan",
            "tanggal_terbit": "2022-08-04",
            "url_tdpse_detail": "https://pse.komdigi.go.id/tdpse-detail/9841",
            "website": "hondatriomobil.co.id"
        },
        {
            "id": "9cb1ac09-1fc4-4780-9fed-b8f2ca8ad176",
            "nama_pse": "BANK PERKREDITAN RAKYAT DHANA LESTARI",
            "nama_se": "PT. BPR DHANA LESTARI",
            "sektor": "Sektor Keuangan",
            "tanggal_terbit": "2022-08-04",
            "url_tdpse_detail": "https://pse.komdigi.go.id/tdpse-detail/9842",
            "website": "dhanalestari.com"
        },
        {
            "id": "9cb1abd3-d6c0-4aa3-9f74-658510d11cba",
            "nama_pse": "LANCAR TEKNOLOGI INDONESIA",
            "nama_se": "SPILL",
            "sektor": "Sektor Teknologi Informasi dan Komunikasi",
            "tanggal_terbit": "2022-08-04",
            "url_tdpse_detail": "https://pse.komdigi.go.id/tdpse-detail/9843",
            "website": "-"
        },
        {
            "id": "9cb1ac09-22e0-4eb0-8cd6-1ae232d16542",
            "nama_pse": "TECH FIL INDONESIA",
            "nama_se": "PT TECH FIL INDONESIA",
            "sektor": "Sektor Teknologi Informasi dan Komunikasi",
            "tanggal_terbit": "2022-08-04",
            "url_tdpse_detail": "https://pse.komdigi.go.id/tdpse-detail/9845",
            "website": "FILMine.id"
        },
        {
            "id": "9cb1abd3-de0f-490a-b4a3-32e70e515028",
            "nama_pse": "ALI",
            "nama_se": "WEBMU LINK",
            "sektor": "Sektor Teknologi Informasi dan Komunikasi",
            "tanggal_terbit": "2022-08-04",
            "url_tdpse_detail": "https://pse.komdigi.go.id/tdpse-detail/9844",
            "website": "webmu.link"
        },
        {
            "id": "9cb1ac09-293f-43af-8387-ecddd71e263c",
            "nama_pse": "ALI",
            "nama_se": "SITUSALI",
            "sektor": "Sektor Teknologi Informasi dan Komunikasi",
            "tanggal_terbit": "2022-08-04",
            "url_tdpse_detail": "https://pse.komdigi.go.id/tdpse-detail/9846",
            "website": "situsali.com"
        },
        {
            "id": "9cb1abd3-e186-4833-b732-5bcc76e17c12",
            "nama_pse": "BYTEBOX META VERSE",
            "nama_se": "MOTOVERSEGAME",
            "sektor": "Sektor Perdagangan",
            "tanggal_terbit": "2022-08-04",
            "url_tdpse_detail": "https://pse.komdigi.go.id/tdpse-detail/9871",
            "website": "motoversegame.com"
        },
        {
            "id": "9cb1ac09-2cbe-46ec-b010-eaa65bf2785b",
            "nama_pse": "BANK PERKREDITAN RAKYAT NUSAMBA ADIWERNA",
            "nama_se": "BPR NUSAMBA ADIWERNA",
            "sektor": "Sektor Keuangan",
            "tanggal_terbit": "2022-08-04",
            "url_tdpse_detail": "https://pse.komdigi.go.id/tdpse-detail/9847",
            "website": "bprnusamba-adiwerna.com"
        },
        {
            "id": "9cb1abfa-389d-49e2-92ec-deea96e35328",
            "nama_pse": "BANK PEREKONOMIAN RAKYAT MITRA CENTRAL DANA",
            "nama_se": "PT BPR MITRA CENTRAL DANA",
            "sektor": "Sektor Keuangan",
            "tanggal_terbit": "2022-08-04",
            "url_tdpse_detail": "https://pse.komdigi.go.id/tdpse-detail/9848",
            "website": "bprmcd.co.id"
        },
        {
            "id": "9cb1ac09-304a-400d-9261-fc4a41d681f3",
            "nama_pse": "NEO BAZAR INDONESIA",
            "nama_se": "KAKAOWEBTOON.COM",
            "sektor": "Sektor Teknologi Informasi dan Komunikasi",
            "tanggal_terbit": "2022-08-04",
            "url_tdpse_detail": "https://pse.komdigi.go.id/tdpse-detail/9862",
            "website": "kakaowebtoon.com"
        }
    ],
    "processingTimeMs": 4,
    "query": "",
    "totalHits": 19121,
    "hitsPerPage": 50,
    "page": 206,
    "totalPages": 383
}