{
    "hits": [
        {
            "id": "9cb1abb8-d7f3-426c-8e7c-6e824632f77f",
            "nama_pse": "BANK PEREKONOMIAN RAKYAT BARELANG MANDIRI",
            "nama_se": "PT BANK PERKREDITAN RAKYAT BARELANG MANDIRI",
            "sektor": "Sektor Keuangan",
            "tanggal_terbit": "2022-07-20",
            "url_tdpse_detail": "https://pse.komdigi.go.id/tdpse-detail/7693",
            "website": "bprbm.co.id"
        },
        {
            "id": "9cb1abc5-26ae-466e-9496-15cee4808682",
            "nama_pse": "GERAK BERSAMA KITA",
            "nama_se": "GERAK",
            "sektor": "Sektor Kesehatan, Sektor Teknologi Informasi dan Komunikasi",
            "tanggal_terbit": "2022-07-20",
            "url_tdpse_detail": "https://pse.komdigi.go.id/tdpse-detail/7692",
            "website": "gerak.asia"
        },
        {
            "id": "9cb1abb8-da7b-4bb9-9b56-4f619b0057a1",
            "nama_pse": "BANK PERKREDITAN RAKYAT MAHKOTA MITRA USAHA",
            "nama_se": "CBS BPR",
            "sektor": "Sektor Keuangan, Sektor Teknologi Informasi dan Komunikasi",
            "tanggal_terbit": "2022-07-20",
            "url_tdpse_detail": "https://pse.komdigi.go.id/tdpse-detail/7699",
            "website": "-"
        },
        {
            "id": "9cb1abc5-2dd9-45e8-b882-681b2116293b",
            "nama_pse": "AXA FINANCIAL INDONESIA",
            "nama_se": "EMMA CUSTOMER PORTAL",
            "sektor": "Sektor Keuangan",
            "tanggal_terbit": "2022-07-20",
            "url_tdpse_detail": "https://pse.komdigi.go.id/tdpse-detail/7709",
            "website": "myportal.axa.co.id"
        },
        {
            "id": "9cb1abc5-30e3-4b44-be34-d1d057a97ed1",
            "nama_pse": "KODE INOVASI WINATA",
            "nama_se": "QIWII",
            "sektor": "Sektor Teknologi Informasi dan Komunikasi",
            "tanggal_terbit": "2022-07-20",
            "url_tdpse_detail": "https://pse.komdigi.go.id/tdpse-detail/7698",
            "website": "app.qiwii.id"
        },
        {
            "id": "9cb1abc5-3524-48ac-abe6-70056e078e42",
            "nama_pse": "ASURANSI JASA INDONESIA",
            "nama_se": "JASINDO TRAVEL",
            "sektor": "Sektor Keuangan",
            "tanggal_terbit": "2022-07-20",
            "url_tdpse_detail": "https://pse.komdigi.go.id/tdpse-detail/7704",
            "website": "jasindotravel.co.id"
        },
        {
            "id": "9cb1abeb-362e-4af9-84d0-1ed431978cae",
            "nama_pse": "SINTESA INTI PRESTASI",
            "nama_se": "SINTASI",
            "sektor": "Sektor Teknologi Informasi dan Komunikasi",
            "tanggal_terbit": "2022-07-20",
            "url_tdpse_detail": "https://pse.komdigi.go.id/tdpse-detail/7700",
            "website": "sintasi.com"
        },
        {
            "id": "9cb1abeb-3943-40b4-a589-a33de18d5924",
            "nama_pse": "BANK PERKREDITAN RAKYAT SENTRAL ARTA JAYA",
            "nama_se": "WEBSITE",
            "sektor": "Sektor Keuangan",
            "tanggal_terbit": "2022-07-20",
            "url_tdpse_detail": "https://pse.komdigi.go.id/tdpse-detail/7702",
            "website": "-"
        },
        {
            "id": "9cb1abeb-3e71-4c0b-9263-f1b85b906f94",
            "nama_pse": "PAKAR LAYANAN TANPA BATAS",
            "nama_se": "HOOKUM",
            "sektor": "Sektor Teknologi Informasi dan Komunikasi",
            "tanggal_terbit": "2022-07-20",
            "url_tdpse_detail": "https://pse.komdigi.go.id/tdpse-detail/7703",
            "website": "hookum.id"
        },
        {
            "id": "9cb1abeb-416b-4e24-9092-50c2ae07a724",
            "nama_pse": "ASURANSI CENTRAL ASIA",
            "nama_se": "B2BACA.COM",
            "sektor": "Sektor Keuangan",
            "tanggal_terbit": "2022-07-20",
            "url_tdpse_detail": "https://pse.komdigi.go.id/tdpse-detail/7701",
            "website": "b2baca.com"
        },
        {
            "id": "9cb1abeb-4474-44ba-a22b-a226bc5f2d95",
            "nama_pse": "BANK PERKREDITAN RAKYAT KHRISNA DARMA ADIPALA",
            "nama_se": "GO-BANKING",
            "sektor": "Sektor Keuangan",
            "tanggal_terbit": "2022-07-20",
            "url_tdpse_detail": "https://pse.komdigi.go.id/tdpse-detail/7727",
            "website": "bprkhrisna.com"
        },
        {
            "id": "9cb1abeb-4a7c-45fe-8fe8-0507208ae177",
            "nama_pse": "GENKI KIRANA INTERNUSA",
            "nama_se": "HONDA INTERNUSA",
            "sektor": "Sektor Perdagangan",
            "tanggal_terbit": "2022-07-20",
            "url_tdpse_detail": "https://pse.komdigi.go.id/tdpse-detail/7798",
            "website": "hondainternusa.co.id"
        },
        {
            "id": "9cb1abb8-dcac-4084-8a8f-c6a8b2d0cb13",
            "nama_pse": "BANK PERKREDITAN RAKYAT HIDUP ARTHAGRAHA",
            "nama_se": "WEB BASE SYSTEM",
            "sektor": "Sektor Keuangan",
            "tanggal_terbit": "2022-07-20",
            "url_tdpse_detail": "https://pse.komdigi.go.id/tdpse-detail/7705",
            "website": "bprhidup.com"
        },
        {
            "id": "9cb1abc5-38de-46ab-ad9e-1fe468d6b4f4",
            "nama_pse": "BANK PEREKONOMIAN RAKYAT DANAMAS",
            "nama_se": "PT. BPR DANAMAS",
            "sektor": "Sektor Keuangan",
            "tanggal_terbit": "2022-07-20",
            "url_tdpse_detail": "https://pse.komdigi.go.id/tdpse-detail/7706",
            "website": "-"
        },
        {
            "id": "9cb1abc5-3bfc-449a-a6d4-4e460c80a33e",
            "nama_pse": "BANK PERKREDITAN RAKYAT SURYA ARTHA GUNA MANDIRI",
            "nama_se": "PT. BPR SURYA ARTHA GUNA MANDIRI",
            "sektor": "Sektor Keuangan",
            "tanggal_terbit": "2022-07-20",
            "url_tdpse_detail": "https://pse.komdigi.go.id/tdpse-detail/7718",
            "website": "sagmbpr.com"
        },
        {
            "id": "9cb1abeb-4d8d-4c79-80ca-b60bb85de033",
            "nama_pse": "BANK PEREKONOMIAN RAKYAT SURYA NATAPALA",
            "nama_se": "WEBSITE BPR SURYA NATAPALA",
            "sektor": "Sektor Keuangan",
            "tanggal_terbit": "2022-07-20",
            "url_tdpse_detail": "https://pse.komdigi.go.id/tdpse-detail/7710",
            "website": "bprsuryanatapala.com"
        },
        {
            "id": "9cb1abb8-df36-4faa-bd37-9b9c925568b8",
            "nama_pse": "DONNY ABET",
            "nama_se": "GENTACART",
            "sektor": "Sektor Teknologi Informasi dan Komunikasi",
            "tanggal_terbit": "2022-07-20",
            "url_tdpse_detail": "https://pse.komdigi.go.id/tdpse-detail/7712",
            "website": "gentacart.net"
        },
        {
            "id": "9cb1abb8-e198-47ca-b4ce-6d842f03ec7a",
            "nama_pse": "BANK SYARIAH INDONESIA",
            "nama_se": "BSIMOBILE",
            "sektor": "Sektor Keuangan",
            "tanggal_terbit": "2022-07-20",
            "url_tdpse_detail": "https://pse.komdigi.go.id/tdpse-detail/7707",
            "website": "bsmmobilethree.bsm.co.id"
        },
        {
            "id": "9cb1abeb-5429-4c2f-97f4-1f60db4b5b39",
            "nama_pse": "BANK PEREKONOMIAN RAKYAT ARUNA NIRMALADUTA",
            "nama_se": "WEBSITE BPR ARUNA",
            "sektor": "Sektor Teknologi Informasi dan Komunikasi",
            "tanggal_terbit": "2022-07-20",
            "url_tdpse_detail": "https://pse.komdigi.go.id/tdpse-detail/7711",
            "website": "bpraruna.com"
        },
        {
            "id": "9cb1abb8-e3b3-47fb-aebc-1e9327de569b",
            "nama_pse": "BANK PEMBANGUNAN DAERAH KALIMANTAN TENGAH",
            "nama_se": "MOBILE AGENT LAKU PANDAI BERKAH PT BANK KALTENG",
            "sektor": "Sektor Keuangan",
            "tanggal_terbit": "2022-07-20",
            "url_tdpse_detail": "https://pse.komdigi.go.id/tdpse-detail/7716",
            "website": "-"
        },
        {
            "id": "9cb1abc5-4038-41fa-b8da-ebc44264a284",
            "nama_pse": "BANK PERKREDITAN RAKYAT DANARAKYAT SENTOSA",
            "nama_se": "WEBSITE BPR DANARAKYAT SENTOSA",
            "sektor": "Sektor Keuangan",
            "tanggal_terbit": "2022-07-20",
            "url_tdpse_detail": "https://pse.komdigi.go.id/tdpse-detail/7713",
            "website": "bprdrs.com"
        },
        {
            "id": "9cb1abc5-43ad-41d6-95cf-306da758c451",
            "nama_pse": "BANK PEREKONOMIAN RAKYAT SAS",
            "nama_se": "BPR SINARARTA SEJAHTERA",
            "sektor": "Sektor Keuangan",
            "tanggal_terbit": "2022-07-20",
            "url_tdpse_detail": "https://pse.komdigi.go.id/tdpse-detail/7717",
            "website": "bprsas.com"
        },
        {
            "id": "9cb1abeb-61ea-4cd8-8f2f-84410587df15",
            "nama_pse": "EXABYTES NETWORK INDONESIA",
            "nama_se": "EXABYTES",
            "sektor": "Sektor Teknologi Informasi dan Komunikasi",
            "tanggal_terbit": "2022-07-20",
            "url_tdpse_detail": "https://pse.komdigi.go.id/tdpse-detail/7723",
            "website": "exabytes.co.id"
        },
        {
            "id": "9cb1abeb-6518-4120-95ef-eb21c9808938",
            "nama_pse": "BANK PERKREDITAN RAKYAT BANK DAERAH PATI (PERSERODA)",
            "nama_se": "PT. BPR BANK DAERAH PATI (PERSERODA)",
            "sektor": "Sektor Keuangan",
            "tanggal_terbit": "2022-07-20",
            "url_tdpse_detail": "https://pse.komdigi.go.id/tdpse-detail/7714",
            "website": "-"
        },
        {
            "id": "9cb1abc5-46ed-401b-b6dd-c4ef64cfd834",
            "nama_pse": "PERUSAHAAN PERSEROAN (PERSERO) PT. POS INDONESIA",
            "nama_se": "WEBSITE PENYEDIAAN LAYANAN DAN INFORMASI MENGENAI JASA PT POS INDONESIA (PERSERO)",
            "sektor": "Sektor Teknologi Informasi dan Komunikasi",
            "tanggal_terbit": "2022-07-20",
            "url_tdpse_detail": "https://pse.komdigi.go.id/tdpse-detail/7719",
            "website": "posindonesia.co.id"
        },
        {
            "id": "9cb1abeb-6877-48a6-91bb-9e9bb6e1b40c",
            "nama_pse": "BANK PERKREDITAN RAKYAT BANK BOYOLALI (PERSERODA)",
            "nama_se": "LAYANAN WA INFINITI BANK BOYOLALI",
            "sektor": "Sektor Keuangan",
            "tanggal_terbit": "2022-07-20",
            "url_tdpse_detail": "https://pse.komdigi.go.id/tdpse-detail/7715",
            "website": "-"
        },
        {
            "id": "9cb1abb8-e7e2-4866-a438-e8550778cabd",
            "nama_pse": "BANK PERKREDITAN RAKYAT KARYA ARTHA SEJAHTERA INDONESIA",
            "nama_se": "USSI PINBUK PRIMA SOFTWARE",
            "sektor": "Sektor Keuangan",
            "tanggal_terbit": "2022-07-20",
            "url_tdpse_detail": "https://pse.komdigi.go.id/tdpse-detail/7721",
            "website": "ussi-software.com"
        },
        {
            "id": "9cb1abb8-ea5e-4836-8ae2-fb8181d2761a",
            "nama_pse": "INDODAX NASIONAL INDONESIA",
            "nama_se": "INDODAX",
            "sektor": "Sektor Keuangan, Sektor Teknologi Informasi dan Komunikasi",
            "tanggal_terbit": "2022-07-20",
            "url_tdpse_detail": "https://pse.komdigi.go.id/tdpse-detail/7720",
            "website": "Indodax.com"
        },
        {
            "id": "9cb1abb8-ece3-49cf-a1ae-a83d88219f01",
            "nama_pse": "TRIYAKOM",
            "nama_se": "MINI-ME",
            "sektor": "Sektor Teknologi Informasi dan Komunikasi",
            "tanggal_terbit": "2022-07-20",
            "url_tdpse_detail": "https://pse.komdigi.go.id/tdpse-detail/7722",
            "website": "mini-me.co"
        },
        {
            "id": "9cb1abc5-4a77-42fa-96c1-328facb114e4",
            "nama_pse": "GARENA INDONESIA",
            "nama_se": "SPEED DRIFTERS",
            "sektor": "Sektor Teknologi Informasi dan Komunikasi",
            "tanggal_terbit": "2022-07-20",
            "url_tdpse_detail": "https://pse.komdigi.go.id/tdpse-detail/7755",
            "website": "-"
        },
        {
            "id": "9cb1abc5-4dfe-4933-a467-4e622a09eb1b",
            "nama_pse": "PD. BPR BAHTERAMAS BOMBANA",
            "nama_se": "PD BPR BAHTERAMAS BOMBANA",
            "sektor": "Sektor Keuangan",
            "tanggal_terbit": "2022-07-20",
            "url_tdpse_detail": "https://pse.komdigi.go.id/tdpse-detail/7724",
            "website": "-"
        },
        {
            "id": "9cb1abb8-ef20-4661-8577-0f258327ffec",
            "nama_pse": "ANUGRAH LIMA SEMESTA",
            "nama_se": "TDW OUTLET",
            "sektor": "Sektor Perdagangan",
            "tanggal_terbit": "2022-07-20",
            "url_tdpse_detail": "https://pse.komdigi.go.id/tdpse-detail/7728",
            "website": "dailywash.co.id"
        },
        {
            "id": "9cb1abc5-530b-450a-acb1-bda6f1d88221",
            "nama_pse": "AYO GOLF INDONESIA",
            "nama_se": "APLIKASI AYO GOLF",
            "sektor": "Sektor Teknologi Informasi dan Komunikasi",
            "tanggal_terbit": "2022-07-20",
            "url_tdpse_detail": "https://pse.komdigi.go.id/tdpse-detail/7860",
            "website": "-"
        },
        {
            "id": "9cb1abc5-57cf-4ae0-916b-35f132f9b3a3",
            "nama_pse": "LAKUUU TEKNOLOGI DIGITAL",
            "nama_se": "LAKUUU",
            "sektor": "Sektor Teknologi Informasi dan Komunikasi",
            "tanggal_terbit": "2022-07-20",
            "url_tdpse_detail": "https://pse.komdigi.go.id/tdpse-detail/7725",
            "website": "lakuuu.id"
        },
        {
            "id": "9cb1abb8-f13c-4c4d-a8b4-a476463017d8",
            "nama_pse": "BATIAN BAGJA BUANALANGGENG",
            "nama_se": "BATIX",
            "sektor": "Sektor Perdagangan, Sektor Teknologi Informasi dan Komunikasi",
            "tanggal_terbit": "2022-07-20",
            "url_tdpse_detail": "https://pse.komdigi.go.id/tdpse-detail/7726",
            "website": "batix.id"
        },
        {
            "id": "9cb1abeb-6bf4-4eb7-a0ab-83a36eda0e56",
            "nama_pse": "BANK PERKREDITAN RAKYAT BADAN KREDIT KECAMATAN PURWOREJO",
            "nama_se": "BKKPURWOREJO.COM",
            "sektor": "Sektor Keuangan",
            "tanggal_terbit": "2022-07-20",
            "url_tdpse_detail": "https://pse.komdigi.go.id/tdpse-detail/7729",
            "website": "bkkpurworejo.com"
        },
        {
            "id": "9cb1abeb-720f-4119-a976-59dc6342ab2b",
            "nama_pse": "BANK QNB INDONESIA",
            "nama_se": "QNB.CO.ID",
            "sektor": "Sektor Keuangan",
            "tanggal_terbit": "2022-07-20",
            "url_tdpse_detail": "https://pse.komdigi.go.id/tdpse-detail/7736",
            "website": "qnb.co.id"
        },
        {
            "id": "9cb1abeb-760f-4f76-b57f-dece1c318b84",
            "nama_pse": "BANK PERKREDITAN RAKYAT ARTHA SAMUDERA INDONESIA",
            "nama_se": "BPRARSINDO.CO.ID",
            "sektor": "Sektor Keuangan",
            "tanggal_terbit": "2022-07-20",
            "url_tdpse_detail": "https://pse.komdigi.go.id/tdpse-detail/7733",
            "website": "bprarsindo.co.id"
        },
        {
            "id": "9cb1abc5-5b80-44bb-a122-2d579fdf1a40",
            "nama_pse": "PAKAR LAYANAN TANPA BATAS",
            "nama_se": "SUARAKLOPEDIA",
            "sektor": "Sektor Teknologi Informasi dan Komunikasi",
            "tanggal_terbit": "2022-07-20",
            "url_tdpse_detail": "https://pse.komdigi.go.id/tdpse-detail/7731",
            "website": "-"
        },
        {
            "id": "9cb1abeb-7930-4421-90bc-a5f6323d9ced",
            "nama_pse": "BANK PERKREDITAN RAKYAT MODERN EXPRESS JATENG",
            "nama_se": "DIGIMOD E-LOAN - BPR MODERN EXPRESS JATENG",
            "sektor": "Sektor Keuangan",
            "tanggal_terbit": "2022-07-20",
            "url_tdpse_detail": "https://pse.komdigi.go.id/tdpse-detail/7732",
            "website": "digimod.bprmodernsemarang.com"
        },
        {
            "id": "9cb1abeb-7ccf-4b38-ae7d-eabbf0cae198",
            "nama_pse": "INFINITY AIR MEDIA",
            "nama_se": "PANTURA APLIKASI",
            "sektor": "Sektor Teknologi Informasi dan Komunikasi",
            "tanggal_terbit": "2022-07-20",
            "url_tdpse_detail": "https://pse.komdigi.go.id/tdpse-detail/7772",
            "website": "-"
        },
        {
            "id": "9cb1abb8-f580-4c96-b9c8-a7c9991a5c94",
            "nama_pse": "BANK DANAMON INDONESIA",
            "nama_se": "QR DANAMON",
            "sektor": "Sektor Keuangan",
            "tanggal_terbit": "2022-07-20",
            "url_tdpse_detail": "https://pse.komdigi.go.id/tdpse-detail/7740",
            "website": "-"
        },
        {
            "id": "9cb1abeb-7ff2-4fc1-8707-2975df66b622",
            "nama_pse": "BANK PERKREDITAN RAKYAT HIDUP ARTHAGRAHA",
            "nama_se": "BPR HIDUP ARTHAGRAHA",
            "sektor": "Sektor Keuangan",
            "tanggal_terbit": "2022-07-20",
            "url_tdpse_detail": "https://pse.komdigi.go.id/tdpse-detail/7735",
            "website": "bprhidup.com"
        },
        {
            "id": "9cb1abb8-f814-4b61-82d9-96ffed32028c",
            "nama_pse": "INOVASI MERAH PUTIH",
            "nama_se": "OTR.ID",
            "sektor": "Sektor Perdagangan, Sektor Teknologi Informasi dan Komunikasi",
            "tanggal_terbit": "2022-07-20",
            "url_tdpse_detail": "https://pse.komdigi.go.id/tdpse-detail/7751",
            "website": "otr.id"
        },
        {
            "id": "9cb1abc5-5ecb-42b2-9988-e18225f413b5",
            "nama_pse": "BINTANG TEKNOLOGI PRATAMA",
            "nama_se": "WEBSITE DIPLAY",
            "sektor": "Sektor Teknologi Informasi dan Komunikasi",
            "tanggal_terbit": "2022-07-20",
            "url_tdpse_detail": "https://pse.komdigi.go.id/tdpse-detail/7747",
            "website": "diplay.asia"
        },
        {
            "id": "9cb1abc5-6335-4173-9ff6-20d3ea0151a8",
            "nama_pse": "BANK PEREKONOMIAN RAKYAT MANDIRI DHANASEJAHTERA",
            "nama_se": "TRANSAKSI KEUANGAN",
            "sektor": "Sektor Keuangan",
            "tanggal_terbit": "2022-07-20",
            "url_tdpse_detail": "https://pse.komdigi.go.id/tdpse-detail/7743",
            "website": "-"
        },
        {
            "id": "9cb1abc5-667d-41d2-8567-96c8c247cb86",
            "nama_pse": "TELEKONSUL DIGITAL INDONESIA",
            "nama_se": "SIAPDOK",
            "sektor": "Sektor Kesehatan, Sektor Teknologi Informasi dan Komunikasi",
            "tanggal_terbit": "2022-07-20",
            "url_tdpse_detail": "https://pse.komdigi.go.id/tdpse-detail/7737",
            "website": "siapdok.id"
        },
        {
            "id": "9cb1abeb-82ed-4e63-bc37-720433bc440f",
            "nama_pse": "KANDARA LAW",
            "nama_se": "WEBSITE KANDARA LAW",
            "sektor": "Sektor Perdagangan",
            "tanggal_terbit": "2022-07-20",
            "url_tdpse_detail": "https://pse.komdigi.go.id/tdpse-detail/7738",
            "website": "-"
        },
        {
            "id": "9cb1abeb-85aa-43ba-b50b-2ecfeaf03dee",
            "nama_pse": "TRIYAKOM",
            "nama_se": "MAGICAL ENGLISH",
            "sektor": "Sektor Teknologi Informasi dan Komunikasi",
            "tanggal_terbit": "2022-07-20",
            "url_tdpse_detail": "https://pse.komdigi.go.id/tdpse-detail/7739",
            "website": "kantoo.com"
        },
        {
            "id": "9cb1abc5-6e5a-4133-8751-b12751972556",
            "nama_pse": "BANK PERKREDITAN RAKYAT NUSANTARA BONA PASOGIT 22",
            "nama_se": "PT BPR NUSANTARA BONA PASOGIT 22",
            "sektor": "Sektor Keuangan",
            "tanggal_terbit": "2022-07-20",
            "url_tdpse_detail": "https://pse.komdigi.go.id/tdpse-detail/7741",
            "website": "bprnbp22.co.id"
        }
    ],
    "processingTimeMs": 10,
    "query": "",
    "totalHits": 19131,
    "hitsPerPage": 50,
    "page": 241,
    "totalPages": 383
}