{
    "hits": [
        {
            "id": "9cb1abb4-f48a-49b9-b868-d67cf1c09604",
            "nama_pse": "TRIMEGAH ASSET MANAGEMENT",
            "nama_se": "ITRAM",
            "sektor": "Sektor Keuangan",
            "tanggal_terbit": "2022-07-18",
            "url_tdpse_detail": "https://pse.komdigi.go.id/tdpse-detail/6504",
            "website": "itram.co.id"
        },
        {
            "id": "9cb1abb3-b91e-4ff6-8dd5-9ed3197c59dc",
            "nama_pse": "SOLUSI KARYA UGAHARI",
            "nama_se": "SISTEM APLIKASI TERPADU UGAHARI",
            "sektor": "Sektor Keuangan",
            "tanggal_terbit": "2022-07-18",
            "url_tdpse_detail": "https://pse.komdigi.go.id/tdpse-detail/6502",
            "website": "sokaru.com"
        },
        {
            "id": "9cb1abb3-baf5-4e4d-b642-1d3ef662650f",
            "nama_pse": "MSALDO DIGITAL PAYMENT",
            "nama_se": "MSALDO",
            "sektor": "Sektor Perdagangan",
            "tanggal_terbit": "2022-07-18",
            "url_tdpse_detail": "https://pse.komdigi.go.id/tdpse-detail/6503",
            "website": "-"
        },
        {
            "id": "9cb1abb4-f66b-4c45-a55b-4c236f1e50a3",
            "nama_pse": "BANK PERKREDITAN RAKYAT BANK KLATEN (PERSERODA) KABUPATEN KLATEN",
            "nama_se": "BANK KLATEN VA",
            "sektor": "Sektor Keuangan",
            "tanggal_terbit": "2022-07-18",
            "url_tdpse_detail": "https://pse.komdigi.go.id/tdpse-detail/6505",
            "website": "bankklaten.co.id"
        },
        {
            "id": "9cb1abb3-bcc8-47bd-baa5-d3c7fad380e0",
            "nama_pse": "TRI WAHYUDI",
            "nama_se": "HOSTEKO HOSTING INDONESIA",
            "sektor": "Sektor Teknologi Informasi dan Komunikasi",
            "tanggal_terbit": "2022-07-18",
            "url_tdpse_detail": "https://pse.komdigi.go.id/tdpse-detail/6507",
            "website": "hosteko.com"
        },
        {
            "id": "9cb1abbf-b1b2-429a-a5eb-43cdf757dddc",
            "nama_pse": "BANK PEMBANGUNAN DAERAH KALIMANTAN TIMUR DAN KALIMANTAN UTARA",
            "nama_se": "INTERNET BANKING PT BPD KALTIM KALTARA",
            "sektor": "Sektor Keuangan",
            "tanggal_terbit": "2022-07-18",
            "url_tdpse_detail": "https://pse.komdigi.go.id/tdpse-detail/6508",
            "website": "IB.BANKALTIMTARA.CO.ID"
        },
        {
            "id": "9cb1abbf-b3e4-4c5f-9e81-f973501d1c53",
            "nama_pse": "BANK PEMBANGUNAN DAERAH KALIMANTAN TIMUR DAN KALIMANTAN UTARA",
            "nama_se": "MOBILE BANKING PT BPD KALTIM KALTARA",
            "sektor": "Sektor Keuangan",
            "tanggal_terbit": "2022-07-18",
            "url_tdpse_detail": "https://pse.komdigi.go.id/tdpse-detail/6510",
            "website": "IB.BANKALTIMTAR.CO.ID"
        },
        {
            "id": "9cb1abbf-b603-48e4-9248-78a32e267957",
            "nama_pse": "BANK PEMBANGUNAN DAERAH KALIMANTAN TIMUR DAN KALIMANTAN UTARA",
            "nama_se": "CASH MANAGEMENT SYSTEM PT BPD KALTIM KALTARA",
            "sektor": "Sektor Keuangan",
            "tanggal_terbit": "2022-07-18",
            "url_tdpse_detail": "https://pse.komdigi.go.id/tdpse-detail/6511",
            "website": "CMS.BANKALTIMTAR.CO.ID"
        },
        {
            "id": "9cb1abb3-bee1-427f-8530-0fd9819fb1ec",
            "nama_pse": "BANK PEMBANGUNAN DAERAH KALIMANTAN TIMUR DAN KALIMANTAN UTARA",
            "nama_se": "CMS SPAN PT BPD KALTIM KALTARA",
            "sektor": "Sektor Keuangan",
            "tanggal_terbit": "2022-07-18",
            "url_tdpse_detail": "https://pse.komdigi.go.id/tdpse-detail/6512",
            "website": "span.bankaltimtara.co.id"
        },
        {
            "id": "9cb1abb4-fa3a-4c55-8ea9-1a6f7fc93444",
            "nama_pse": "BANK PEMBANGUNAN DAERAH KALIMANTAN TIMUR DAN KALIMANTAN UTARA",
            "nama_se": "ATKP PT BDP KALTIM KALTARA",
            "sektor": "Sektor Keuangan",
            "tanggal_terbit": "2022-07-18",
            "url_tdpse_detail": "https://pse.komdigi.go.id/tdpse-detail/6513",
            "website": "atkp.bankaltimtara.co.id"
        },
        {
            "id": "9cb1abbf-b800-4abb-a54a-f27d2c0fe475",
            "nama_pse": "OPAPER INTERNATIONAL INDONESIA",
            "nama_se": "OPAPER APP",
            "sektor": "Sektor Perdagangan",
            "tanggal_terbit": "2022-07-18",
            "url_tdpse_detail": "https://pse.komdigi.go.id/tdpse-detail/6514",
            "website": "-"
        },
        {
            "id": "9cb1abb4-fc2d-4fb2-b097-c7fb7bc19935",
            "nama_pse": "TB HADYANSYAH",
            "nama_se": "CFRAMEWORK",
            "sektor": "Sektor Teknologi Informasi dan Komunikasi",
            "tanggal_terbit": "2022-07-18",
            "url_tdpse_detail": "https://pse.komdigi.go.id/tdpse-detail/6515",
            "website": "cframe.work"
        },
        {
            "id": "9cb1abbf-b9f2-4cff-a6c5-d0fb14a8b5dc",
            "nama_pse": "BANK PEMBANGUNAN DAERAH KALIMANTAN TIMUR DAN KALIMANTAN UTARA",
            "nama_se": "DG QRIS PT BPD KALTIM KALTARA",
            "sektor": "Sektor Keuangan",
            "tanggal_terbit": "2022-07-18",
            "url_tdpse_detail": "https://pse.komdigi.go.id/tdpse-detail/6516",
            "website": "qris.bankaltimtara.co.id"
        },
        {
            "id": "9cb1abb3-c0d0-4014-b7d7-f6e32a51a3e6",
            "nama_pse": "RADEN VAESNAVADEVA ADHYATMA",
            "nama_se": "MAXVOLUM",
            "sektor": "Sektor Perdagangan",
            "tanggal_terbit": "2022-07-18",
            "url_tdpse_detail": "https://pse.komdigi.go.id/tdpse-detail/6517",
            "website": "maxvolum.id"
        },
        {
            "id": "9cb1abb3-c2ae-4726-8e0b-ef81bddae1cb",
            "nama_pse": "MOBILMAN DIGITAL INDONESIA",
            "nama_se": "MOBILMAN",
            "sektor": "Sektor Perdagangan",
            "tanggal_terbit": "2022-07-18",
            "url_tdpse_detail": "https://pse.komdigi.go.id/tdpse-detail/6520",
            "website": "mobilman.id"
        },
        {
            "id": "9cb1abb4-fe0e-4183-b1d2-83938b4e137c",
            "nama_pse": "TB HADYANSYAH",
            "nama_se": "KEUANGAN DIGITAL",
            "sektor": "Sektor Teknologi Informasi dan Komunikasi",
            "tanggal_terbit": "2022-07-18",
            "url_tdpse_detail": "https://pse.komdigi.go.id/tdpse-detail/6518",
            "website": "keuangan.digital"
        },
        {
            "id": "9cb1abb4-ffda-465f-a907-6a0974fad687",
            "nama_pse": "BANK PEMBANGUNAN DAERAH KALIMANTAN TIMUR DAN KALIMANTAN UTARA",
            "nama_se": "AGEN LAKUPANDAI PT BPD KALTIM KALTARA",
            "sektor": "Sektor Keuangan",
            "tanggal_terbit": "2022-07-18",
            "url_tdpse_detail": "https://pse.komdigi.go.id/tdpse-detail/6519",
            "website": "lkp.bankaltimtara.co.id"
        },
        {
            "id": "9cb1abbf-bc8f-4a36-a08c-9b635af9c25e",
            "nama_pse": "BANK PEMBANGUNAN DAERAH KALIMANTAN TIMUR DAN KALIMANTAN UTARA",
            "nama_se": "SIBOS PT BPD KALTIM KALTARA",
            "sektor": "Sektor Keuangan",
            "tanggal_terbit": "2022-07-18",
            "url_tdpse_detail": "https://pse.komdigi.go.id/tdpse-detail/6521",
            "website": "sibos.bankaltimtara.co.id"
        },
        {
            "id": "9cb1abb3-c4c3-4d23-9297-5c116b168fe2",
            "nama_pse": "BAYU INDRA GUNAWAN",
            "nama_se": "NGEBAND",
            "sektor": "Sektor Teknologi Informasi dan Komunikasi",
            "tanggal_terbit": "2022-07-18",
            "url_tdpse_detail": "https://pse.komdigi.go.id/tdpse-detail/6522",
            "website": "ngeband.id"
        },
        {
            "id": "9cb1abb5-01cc-41d8-9382-2803b3cc7e7c",
            "nama_pse": "BANK PEMBANGUNAN DAERAH KALIMANTAN TIMUR DAN KALIMANTAN UTARA",
            "nama_se": "SMS BANKING PT BPD KALTIM KALTARA",
            "sektor": "Sektor Keuangan",
            "tanggal_terbit": "2022-07-18",
            "url_tdpse_detail": "https://pse.komdigi.go.id/tdpse-detail/6523",
            "website": "-"
        },
        {
            "id": "9cb1abb5-040d-440c-97b5-5d3afb31e567",
            "nama_pse": "HEXA MAJU SAMASTA",
            "nama_se": "KMOB DEPOK",
            "sektor": "Sektor Teknologi Informasi dan Komunikasi",
            "tanggal_terbit": "2022-07-18",
            "url_tdpse_detail": "https://pse.komdigi.go.id/tdpse-detail/6524",
            "website": "-"
        },
        {
            "id": "9cb1abb5-05d6-4cff-844f-5323c761be0e",
            "nama_pse": "HEXA MAJU SAMASTA",
            "nama_se": "SI- @MAN  (DIBACA SI AMAN)",
            "sektor": "Sektor Teknologi Informasi dan Komunikasi",
            "tanggal_terbit": "2022-07-18",
            "url_tdpse_detail": "https://pse.komdigi.go.id/tdpse-detail/6525",
            "website": "-"
        },
        {
            "id": "9cb1abb3-c738-4215-93a5-6fa5feb5705f",
            "nama_pse": "BANK PEREKONOMIAN RAKYAT DAYA LUMBUNG ASIA",
            "nama_se": "BPR DAYA LUMBUNG ASIA",
            "sektor": "Sektor Keuangan",
            "tanggal_terbit": "2022-07-18",
            "url_tdpse_detail": "https://pse.komdigi.go.id/tdpse-detail/6526",
            "website": "bprdla.com"
        },
        {
            "id": "9cb1abb3-c950-49ac-b2a3-631a8233567f",
            "nama_pse": "PANINTI HUB INDONESIA",
            "nama_se": "PANINTI.COM",
            "sektor": "Sektor Perdagangan, Sektor Teknologi Informasi dan Komunikasi",
            "tanggal_terbit": "2022-07-18",
            "url_tdpse_detail": "https://pse.komdigi.go.id/tdpse-detail/6527",
            "website": "Paninti.com"
        },
        {
            "id": "9cb1abb5-0ced-4c11-94c2-15fd17c41bdf",
            "nama_pse": "EKO SETIAJI",
            "nama_se": "ETHAN SHOP",
            "sektor": "Sektor Perdagangan, Sektor Kesehatan, Sektor Teknologi Informasi dan Komunikasi",
            "tanggal_terbit": "2022-07-18",
            "url_tdpse_detail": "https://pse.komdigi.go.id/tdpse-detail/6530",
            "website": "ethan-shop.netlify.app"
        },
        {
            "id": "9cb1aba8-0a34-4fb5-a3ed-6b9be53e8a1c",
            "nama_pse": "QIOSFIN MULTIPAYMENT INDONESIA",
            "nama_se": "QIOSFIN",
            "sektor": "Sektor Perdagangan, Sektor Teknologi Informasi dan Komunikasi",
            "tanggal_terbit": "2022-07-17",
            "url_tdpse_detail": "https://pse.komdigi.go.id/tdpse-detail/6008",
            "website": "qiosfin.com"
        },
        {
            "id": "9cb1ab9d-0439-435e-a2e7-7a43a14e47ff",
            "nama_pse": "MARVINDO SUKSES CEMERLANG",
            "nama_se": "MARVINDO REMITTANCE",
            "sektor": "Sektor Keuangan",
            "tanggal_terbit": "2022-07-17",
            "url_tdpse_detail": "https://pse.komdigi.go.id/tdpse-detail/5986",
            "website": "marvindo-remittance.com"
        },
        {
            "id": "9cb1abb1-adca-4952-b208-d4f3fdf827bd",
            "nama_pse": "BIMASAKTI MULTI SINERGI",
            "nama_se": "BINA PAYMENT",
            "sektor": "Sektor Perdagangan, Sektor Keuangan",
            "tanggal_terbit": "2022-07-17",
            "url_tdpse_detail": "https://pse.komdigi.go.id/tdpse-detail/5978",
            "website": "binapayment.com"
        },
        {
            "id": "9cb1aba7-f545-4ee2-baa1-f1d63ea3de60",
            "nama_pse": "PUTRA INTI CEMERLANG",
            "nama_se": "MEMBER.MCOKE.CO.ID",
            "sektor": "Sektor Perdagangan",
            "tanggal_terbit": "2022-07-17",
            "url_tdpse_detail": "https://pse.komdigi.go.id/tdpse-detail/5979",
            "website": "member.mcoke.co.id"
        },
        {
            "id": "9cb1aba7-f74d-41ad-a333-b08c86d93851",
            "nama_pse": "PUTRA INTI CEMERLANG",
            "nama_se": "MCOKE.CO.ID",
            "sektor": "Sektor Perdagangan",
            "tanggal_terbit": "2022-07-17",
            "url_tdpse_detail": "https://pse.komdigi.go.id/tdpse-detail/5980",
            "website": "mcoke.co.id"
        },
        {
            "id": "9cb1abb1-b219-40c4-b726-741f7e74046e",
            "nama_pse": "FATTAH TEKNO DIGITAL",
            "nama_se": "MOOTA",
            "sektor": "Sektor Teknologi Informasi dan Komunikasi",
            "tanggal_terbit": "2022-07-17",
            "url_tdpse_detail": "https://pse.komdigi.go.id/tdpse-detail/5981",
            "website": "moota.co"
        },
        {
            "id": "9cb1ab9d-1c53-4c82-9387-1a3099e7027b",
            "nama_pse": "MITRA INKA PERDANA",
            "nama_se": "PT. MITRA INKA PERDANA",
            "sektor": "Sektor Perdagangan",
            "tanggal_terbit": "2022-07-17",
            "url_tdpse_detail": "https://pse.komdigi.go.id/tdpse-detail/5982",
            "website": "-"
        },
        {
            "id": "9cb1aba7-f937-4120-8684-7a12cb244a9a",
            "nama_pse": "MITRA INKA PERDANA",
            "nama_se": "INTAN NOVITA SARI",
            "sektor": "Sektor Perdagangan",
            "tanggal_terbit": "2022-07-17",
            "url_tdpse_detail": "https://pse.komdigi.go.id/tdpse-detail/5983",
            "website": "-"
        },
        {
            "id": "9cb1abb1-ba46-438f-9060-32ff08cb9499",
            "nama_pse": "SUTRIADI RAMADHAN",
            "nama_se": "KULASPACE",
            "sektor": "Sektor Perdagangan",
            "tanggal_terbit": "2022-07-17",
            "url_tdpse_detail": "https://pse.komdigi.go.id/tdpse-detail/5984",
            "website": "kulaspace.com"
        },
        {
            "id": "9cb1abb1-bdb0-489f-9e3a-a1f43132cce0",
            "nama_pse": "BANK PEMBANGUNAN DAERAH SULAWESI SELATAN DAN SULAWESI BARAT",
            "nama_se": "AUDIT MANAGEMENT SYSTEM BANK SULSELBAR",
            "sektor": "Sektor Teknologi Informasi dan Komunikasi",
            "tanggal_terbit": "2022-07-17",
            "url_tdpse_detail": "https://pse.komdigi.go.id/tdpse-detail/5985",
            "website": "ams.banksulselbar.co.id"
        },
        {
            "id": "9cb1ab9d-20f6-4322-9745-bc70d2c0d791",
            "nama_pse": "LEON PAYMENT SOLUSINDO",
            "nama_se": "LP MOBILE TOPUP",
            "sektor": "Sektor Perdagangan",
            "tanggal_terbit": "2022-07-17",
            "url_tdpse_detail": "https://pse.komdigi.go.id/tdpse-detail/5987",
            "website": "leonpulsa.net"
        },
        {
            "id": "9cb1abb1-c426-49ac-bc96-c9a8e5b4b216",
            "nama_pse": "LEON PAYMENT SOLUSINDO",
            "nama_se": "MP MOBILE TOPUP",
            "sektor": "Sektor Perdagangan",
            "tanggal_terbit": "2022-07-17",
            "url_tdpse_detail": "https://pse.komdigi.go.id/tdpse-detail/5988",
            "website": "morenapulsapayment.com"
        },
        {
            "id": "9cb1aba7-fceb-478a-bd89-361f49696b56",
            "nama_pse": "HANDOKO",
            "nama_se": "AHLIMATIKA",
            "sektor": "Sektor Teknologi Informasi dan Komunikasi",
            "tanggal_terbit": "2022-07-17",
            "url_tdpse_detail": "https://pse.komdigi.go.id/tdpse-detail/5991",
            "website": "ahlimatika.com"
        },
        {
            "id": "9cb1aba7-fecb-4880-9aba-88c62353d117",
            "nama_pse": "MUH.ILHAM JAYA",
            "nama_se": "WEBSITE",
            "sektor": "Sektor Perdagangan",
            "tanggal_terbit": "2022-07-17",
            "url_tdpse_detail": "https://pse.komdigi.go.id/tdpse-detail/5992",
            "website": "mentorta.com"
        },
        {
            "id": "9cb1ab9d-2364-4ce5-b22d-05ddea2a7c18",
            "nama_pse": "LURI DARMAWAN",
            "nama_se": "CARIK TEKNOLOGI CERDAS",
            "sektor": "Sektor Teknologi Informasi dan Komunikasi",
            "tanggal_terbit": "2022-07-17",
            "url_tdpse_detail": "https://pse.komdigi.go.id/tdpse-detail/5993",
            "website": "carik.id"
        },
        {
            "id": "9cb1abb1-ce1b-4234-996d-bbf33e00568b",
            "nama_pse": "MULTI KIRANA ABADI",
            "nama_se": "OKA SYAHPUTRA",
            "sektor": "Sektor Perdagangan",
            "tanggal_terbit": "2022-07-17",
            "url_tdpse_detail": "https://pse.komdigi.go.id/tdpse-detail/5997",
            "website": "-"
        },
        {
            "id": "9cb1abb1-d17c-4a07-b73b-5484f2f9bc28",
            "nama_pse": "MULTI KIRANA ABADI",
            "nama_se": "PT. MULTI KIRANA ABADI",
            "sektor": "Sektor Perdagangan",
            "tanggal_terbit": "2022-07-17",
            "url_tdpse_detail": "https://pse.komdigi.go.id/tdpse-detail/5998",
            "website": "-"
        },
        {
            "id": "9cb1abb1-d4d6-4c9a-bc1a-3ad9b65dfab0",
            "nama_pse": "ACEH MULTI PAYMENT",
            "nama_se": "ACEH MULTI PAYMENT",
            "sektor": "Sektor Perdagangan, Sektor Keuangan, Sektor Teknologi Informasi dan Komunikasi",
            "tanggal_terbit": "2022-07-17",
            "url_tdpse_detail": "https://pse.komdigi.go.id/tdpse-detail/5999",
            "website": "ahafidstore.jualan.me"
        },
        {
            "id": "9cb1abb1-d7e0-462c-abbe-45ff2f2166fa",
            "nama_pse": "MULTI KIRANA ABADI",
            "nama_se": "MULTI KIRANA ABADI",
            "sektor": "Sektor Perdagangan",
            "tanggal_terbit": "2022-07-17",
            "url_tdpse_detail": "https://pse.komdigi.go.id/tdpse-detail/6000",
            "website": "-"
        },
        {
            "id": "9cb1aba8-00be-4364-8a08-c0ca6b709d6c",
            "nama_pse": "MUHAMMAD IRSYAD AZHAR",
            "nama_se": "ASTOREPAY",
            "sektor": "Sektor Perdagangan",
            "tanggal_terbit": "2022-07-17",
            "url_tdpse_detail": "https://pse.komdigi.go.id/tdpse-detail/6001",
            "website": "astoree.my.id"
        },
        {
            "id": "9cb1ab9d-28dd-4ab7-824c-2fecc4372a61",
            "nama_pse": "CAHAYA MULTI SOLUTION",
            "nama_se": "ISTANA RELOAD",
            "sektor": "Sektor Perdagangan",
            "tanggal_terbit": "2022-07-17",
            "url_tdpse_detail": "https://pse.komdigi.go.id/tdpse-detail/6002",
            "website": "istanareload.id"
        },
        {
            "id": "9cb1aba8-041f-4e51-b59f-031a4d43babf",
            "nama_pse": "MUHAMMAD YUSUF RIFALDI",
            "nama_se": "TOPUP STORE",
            "sektor": "Sektor Teknologi Informasi dan Komunikasi",
            "tanggal_terbit": "2022-07-17",
            "url_tdpse_detail": "https://pse.komdigi.go.id/tdpse-detail/6003",
            "website": "-"
        },
        {
            "id": "9cb1ab9d-2c12-4c23-bc31-124ad7b7995e",
            "nama_pse": "CAHAYA MULTI SOLUTION",
            "nama_se": "JELITA RELOAD",
            "sektor": "Sektor Perdagangan",
            "tanggal_terbit": "2022-07-17",
            "url_tdpse_detail": "https://pse.komdigi.go.id/tdpse-detail/6004",
            "website": "jelitareload.id"
        },
        {
            "id": "9cb1aba8-05f3-46f8-80b6-e20a00371e88",
            "nama_pse": "CLASNET",
            "nama_se": "SISTEM INFORMASI DESA",
            "sektor": "Sektor Teknologi Informasi dan Komunikasi",
            "tanggal_terbit": "2022-07-17",
            "url_tdpse_detail": "https://pse.komdigi.go.id/tdpse-detail/6005",
            "website": "banjarnegara-desa.id"
        },
        {
            "id": "9cb1aba8-080e-4d92-ac04-2b57dedf2f50",
            "nama_pse": "FARID ARIS P",
            "nama_se": "NURULPAY",
            "sektor": "Sektor Teknologi Informasi dan Komunikasi",
            "tanggal_terbit": "2022-07-17",
            "url_tdpse_detail": "https://pse.komdigi.go.id/tdpse-detail/6006",
            "website": "nurulpay.com"
        }
    ],
    "processingTimeMs": 3,
    "query": "",
    "totalHits": 19121,
    "hitsPerPage": 50,
    "page": 275,
    "totalPages": 383
}