{
    "hits": [
        {
            "id": "9cb1ac08-c8f5-4c24-8e2c-868f3a7b4d12",
            "nama_pse": "NAVEES PRATAMA MULIA",
            "nama_se": "NAVEES GOLD",
            "sektor": "Sektor Perdagangan",
            "tanggal_terbit": "2022-08-03",
            "url_tdpse_detail": "https://pse.komdigi.go.id/tdpse-detail/9793",
            "website": "naveesgold.id"
        },
        {
            "id": "9cb1ac08-cd56-4870-89d9-7e96936f3171",
            "nama_pse": "OREN DIGITAL SOLUSI",
            "nama_se": "VISA TOUR ONLINE",
            "sektor": "Sektor Transportasi, Sektor Teknologi Informasi dan Komunikasi",
            "tanggal_terbit": "2022-08-03",
            "url_tdpse_detail": "https://pse.komdigi.go.id/tdpse-detail/9795",
            "website": "-"
        },
        {
            "id": "9cb1ac08-d54d-4570-90e3-d4f41feb7155",
            "nama_pse": "IBU BUDI BESTARI",
            "nama_se": "CAR AUDIO NETWORK",
            "sektor": "Sektor Teknologi Informasi dan Komunikasi",
            "tanggal_terbit": "2022-08-03",
            "url_tdpse_detail": "https://pse.komdigi.go.id/tdpse-detail/9796",
            "website": "caraudio.network"
        },
        {
            "id": "9cb1ac08-ddfd-4d5f-8e0c-a2796444bf25",
            "nama_pse": "KUKUH SETIAWAN",
            "nama_se": "BOSKASIR",
            "sektor": "Sektor Teknologi Informasi dan Komunikasi",
            "tanggal_terbit": "2022-08-03",
            "url_tdpse_detail": "https://pse.komdigi.go.id/tdpse-detail/9798",
            "website": "boskasir.com"
        },
        {
            "id": "9cb1abd3-9349-4042-9ff1-f7849d9ef55c",
            "nama_pse": "GUNSAS DIGIMALL INDONESIA",
            "nama_se": "DIGIMALL INDONESIA",
            "sektor": "Sektor Perdagangan, Sektor Teknologi Informasi dan Komunikasi",
            "tanggal_terbit": "2022-08-03",
            "url_tdpse_detail": "https://pse.komdigi.go.id/tdpse-detail/9801",
            "website": "digimall.id"
        },
        {
            "id": "9cb1abd3-a0e8-47cd-adbd-c556f6137ed5",
            "nama_pse": "BANUA DIGITAL SOLUTION",
            "nama_se": "BANUA DIGITAL SOLUTION",
            "sektor": "Sektor Teknologi Informasi dan Komunikasi",
            "tanggal_terbit": "2022-08-03",
            "url_tdpse_detail": "https://pse.komdigi.go.id/tdpse-detail/9804",
            "website": "banuads.com"
        },
        {
            "id": "9cb1abd3-a5de-4e77-8999-18661f761a1d",
            "nama_pse": "ONLEGAL SOLUSI NUSANTARA",
            "nama_se": "WEBSITE ON LEGAL",
            "sektor": "Sektor Teknologi Informasi dan Komunikasi",
            "tanggal_terbit": "2022-08-03",
            "url_tdpse_detail": "https://pse.komdigi.go.id/tdpse-detail/9805",
            "website": "onlegal.id"
        },
        {
            "id": "9cb1ac08-e2d9-4ede-a410-0d88dc677497",
            "nama_pse": "SOBAT KECIL SEJATI",
            "nama_se": "BEERBOYZ",
            "sektor": "Sektor Perdagangan",
            "tanggal_terbit": "2022-08-03",
            "url_tdpse_detail": "https://pse.komdigi.go.id/tdpse-detail/9806",
            "website": "beerboyz.net"
        },
        {
            "id": "9cb1abd3-aa8b-4c0d-a9bd-266924e2b4da",
            "nama_pse": "ANGGA MEMBANGUN INDONESIA",
            "nama_se": "BUILDWITH ANGGA",
            "sektor": "Sektor Perdagangan, Sektor Teknologi Informasi dan Komunikasi",
            "tanggal_terbit": "2022-08-03",
            "url_tdpse_detail": "https://pse.komdigi.go.id/tdpse-detail/9808",
            "website": "buildwithangga.com"
        },
        {
            "id": "9cb1abd3-addf-4f0d-93e4-eecb556ecf43",
            "nama_pse": "BALI BINTANG SEJAHTERA",
            "nama_se": "BALI UNITED APPS",
            "sektor": "Sektor Teknologi Informasi dan Komunikasi",
            "tanggal_terbit": "2022-08-03",
            "url_tdpse_detail": "https://pse.komdigi.go.id/tdpse-detail/9811",
            "website": "baliutd.com"
        },
        {
            "id": "9cb1abfa-1dea-4f47-9316-fcc6204c7b6d",
            "nama_pse": "KOMPAS MEDIA NUSANTARA",
            "nama_se": "PT KOMPAS MEDIA NUSANTARA",
            "sektor": "Sektor Teknologi Informasi dan Komunikasi",
            "tanggal_terbit": "2022-08-03",
            "url_tdpse_detail": "https://pse.komdigi.go.id/tdpse-detail/9812",
            "website": "kompas.id"
        },
        {
            "id": "9cb1ac08-e622-4676-b390-8756f1be42fc",
            "nama_pse": "klinikrobot.com",
            "nama_se": "JASATITIPBELI.COM",
            "sektor": "Sektor Perdagangan",
            "tanggal_terbit": "2022-08-03",
            "url_tdpse_detail": "https://pse.komdigi.go.id/tdpse-detail/9813",
            "website": "jasatitipbeli.com"
        },
        {
            "id": "9cb1ac08-ea1b-4b16-84b5-94ecae28d10b",
            "nama_pse": "BHEN SIBER MEDIA",
            "nama_se": "SATUARAH.CO",
            "sektor": "Sektor Teknologi Informasi dan Komunikasi",
            "tanggal_terbit": "2022-08-03",
            "url_tdpse_detail": "https://pse.komdigi.go.id/tdpse-detail/9814",
            "website": "satuarah.co"
        },
        {
            "id": "9cb1ac08-ee6f-4248-bdf8-4e0d143689e3",
            "nama_pse": "DIJASA BISA SEMUA",
            "nama_se": "DIJASA",
            "sektor": "Sektor Transportasi, Sektor Teknologi Informasi dan Komunikasi",
            "tanggal_terbit": "2022-08-03",
            "url_tdpse_detail": "https://pse.komdigi.go.id/tdpse-detail/9815",
            "website": "-"
        },
        {
            "id": "9cb1ac08-f68d-4daa-a635-5c6c9b24a52b",
            "nama_pse": "WAHLAN",
            "nama_se": "DOCXPEDIA.COM",
            "sektor": "Sektor Teknologi Informasi dan Komunikasi",
            "tanggal_terbit": "2022-08-03",
            "url_tdpse_detail": "https://pse.komdigi.go.id/tdpse-detail/9816",
            "website": "docxpedia.com"
        },
        {
            "id": "9cb1abfa-20a8-4737-88cd-9a73dd326d9f",
            "nama_pse": "TRIWIRA PUTRA PERKASA",
            "nama_se": "VISUAL EXPERT",
            "sektor": "Sektor Teknologi Informasi dan Komunikasi",
            "tanggal_terbit": "2022-08-03",
            "url_tdpse_detail": "https://pse.komdigi.go.id/tdpse-detail/9817",
            "website": "-"
        },
        {
            "id": "9cb1ac08-fbca-49e5-9198-f4f236d40e0f",
            "nama_pse": "JAKA DILAGA",
            "nama_se": "TOKOSEO",
            "sektor": "Sektor Perdagangan",
            "tanggal_terbit": "2022-08-03",
            "url_tdpse_detail": "https://pse.komdigi.go.id/tdpse-detail/9819",
            "website": "tokoseo.id"
        },
        {
            "id": "9cb1abd3-b0bd-4d0b-8e2e-d6e6fdf660a4",
            "nama_pse": "SATUKA TEKNOLOGI INTERNASIONAL",
            "nama_se": "BIKIN GAMES",
            "sektor": "Sektor Teknologi Informasi dan Komunikasi",
            "tanggal_terbit": "2022-08-03",
            "url_tdpse_detail": "https://pse.komdigi.go.id/tdpse-detail/9818",
            "website": "bikin.games"
        },
        {
            "id": "9cb1abfa-23c6-47e6-ab6c-fff0e488e1d1",
            "nama_pse": "AMINS PROJECT TEKNOLOGI INDONESIA",
            "nama_se": "AMINS PROJECT TEKNOLOGI INDONESIA",
            "sektor": "Sektor Teknologi Informasi dan Komunikasi",
            "tanggal_terbit": "2022-08-03",
            "url_tdpse_detail": "https://pse.komdigi.go.id/tdpse-detail/9820",
            "website": "aminsproject.com"
        },
        {
            "id": "9cb1ac09-0147-41ea-974a-3285a56c47d1",
            "nama_pse": "MITRA MULIA TEXINDO",
            "nama_se": "MITRAMULIA",
            "sektor": "Sektor Perdagangan",
            "tanggal_terbit": "2022-08-03",
            "url_tdpse_detail": "https://pse.komdigi.go.id/tdpse-detail/9821",
            "website": "mitramulia.com"
        },
        {
            "id": "9cb1abfa-2690-4c25-ba1f-0cf6c108c9f3",
            "nama_pse": "SATUKA TEKNOLOGI INTERNASIONAL",
            "nama_se": "SATUKA",
            "sektor": "Sektor Teknologi Informasi dan Komunikasi",
            "tanggal_terbit": "2022-08-03",
            "url_tdpse_detail": "https://pse.komdigi.go.id/tdpse-detail/9822",
            "website": "satuka.com"
        },
        {
            "id": "9cb1ac09-04bf-4271-8035-cb4632eefa09",
            "nama_pse": "SATUKA TEKNOLOGI INTERNASIONAL",
            "nama_se": "GGHYPE",
            "sektor": "Sektor Teknologi Informasi dan Komunikasi",
            "tanggal_terbit": "2022-08-03",
            "url_tdpse_detail": "https://pse.komdigi.go.id/tdpse-detail/9823",
            "website": "gghype.com"
        },
        {
            "id": "9cb1abd3-b4ae-4014-90fd-da0ce5ad7f9c",
            "nama_pse": "MULTIFINANCE DIGITAL INDONESIA",
            "nama_se": "PT.MULTIFINANCE DIGITAL INDONESIA",
            "sektor": "Sektor Keuangan, Sektor Teknologi Informasi dan Komunikasi",
            "tanggal_terbit": "2022-08-03",
            "url_tdpse_detail": "https://pse.komdigi.go.id/tdpse-detail/9824",
            "website": "gadaibpkbmobil.co.id"
        },
        {
            "id": "9cb1abd3-b7c1-4d33-a6e0-1236f5251cba",
            "nama_pse": "SATUKA TEKNOLOGI INTERNASIONAL",
            "nama_se": "OWN GAMES",
            "sektor": "Sektor Teknologi Informasi dan Komunikasi",
            "tanggal_terbit": "2022-08-03",
            "url_tdpse_detail": "https://pse.komdigi.go.id/tdpse-detail/9825",
            "website": "own-games.com"
        },
        {
            "id": "9cb1ac09-091a-44dc-ad77-ddcf4c365b02",
            "nama_pse": "TILIK MEDIA JAYA",
            "nama_se": "TILIK NEWS TOP",
            "sektor": "Sektor Teknologi Informasi dan Komunikasi",
            "tanggal_terbit": "2022-08-03",
            "url_tdpse_detail": "https://pse.komdigi.go.id/tdpse-detail/9826",
            "website": "tiliknews.top"
        },
        {
            "id": "9cb1ac09-0fc6-4078-8610-69be3afb0240",
            "nama_pse": "DEWI RASMAWATI",
            "nama_se": "GERAI TOKOKU",
            "sektor": "Sektor Perdagangan",
            "tanggal_terbit": "2022-08-03",
            "url_tdpse_detail": "https://pse.komdigi.go.id/tdpse-detail/9827",
            "website": "-"
        },
        {
            "id": "9cb1abd3-bab9-4373-a0ee-4f40321172f7",
            "nama_pse": "RAYENDRA PANGESTU",
            "nama_se": "TEMAN SAHAM DIGITAL INDONESIA",
            "sektor": "Sektor Teknologi Informasi dan Komunikasi",
            "tanggal_terbit": "2022-08-03",
            "url_tdpse_detail": "https://pse.komdigi.go.id/tdpse-detail/9828",
            "website": "temansaham.id"
        },
        {
            "id": "9cb1abd1-527e-44e6-88e4-06ce7b833d37",
            "nama_pse": "GOOGLE INDONESIA",
            "nama_se": "GOOGLE MENYEDIAKAN LAYANAN BERBASIS WEB TERMASUK YOUTUBE PT GOOGLE INDONESIA ADALAH PERUSAHAAN LOKAL GOOGLE UNTUK KEGIATAN YANG DILAKUKAN DI INDONESIA YANG MENCAKUP PENYEDIAAN LAYANAN PEMASARAN DAN DUKUNGAN DI INDONESIA UNTUK LAYANAN BERBASIS WEB DI ATAS.",
            "sektor": "Sektor Teknologi Informasi dan Komunikasi",
            "tanggal_terbit": "2022-08-03",
            "url_tdpse_detail": "https://pse.komdigi.go.id/tdpse-detail/9760",
            "website": "youtube.com"
        },
        {
            "id": "9cb1abf6-bc85-4dc3-aad1-1d3347153e5c",
            "nama_pse": "GOOGLE INDONESIA",
            "nama_se": "GOOGLE MENYEDIAKAN LAYANAN BERBASIS WEB TERMASUK MAPS. PT GOOGLE INDONESIA ADALAH PERUSAHAAN LOKAL GOOGLE UNTUK KEGIATAN YANG DILAKUKAN DI INDONESIA YANG MENCAKUP PENYEDIAAN LAYANAN PEMASARAN DAN DUKUNGAN DI INDONESIA UNTUK LAYANAN BERBASIS WEB DI ATAS",
            "sektor": "Sektor Teknologi Informasi dan Komunikasi",
            "tanggal_terbit": "2022-08-03",
            "url_tdpse_detail": "https://pse.komdigi.go.id/tdpse-detail/9758",
            "website": "google.com"
        },
        {
            "id": "9cb1abf8-17cf-494d-842d-e0277a51e084",
            "nama_pse": "GOOGLE INDONESIA",
            "nama_se": "GOOGLE MENYEDIAKAN LAYANAN BERBASIS WEB TERMASUK PLAY. PT GOOGLE INDONESIA ADALAH PERUSAHAAN LOKAL GOOGLE UNTUK KEGIATAN YANG DILAKUKAN DI INDONESIA YANG MENCAKUP PENYEDIAAN LAYANAN PEMASARAN DAN DUKUNGAN DI INDONESIA UNTUK LAYANAN BERBASIS WEB DI ATAS.",
            "sektor": "Sektor Teknologi Informasi dan Komunikasi",
            "tanggal_terbit": "2022-08-03",
            "url_tdpse_detail": "https://pse.komdigi.go.id/tdpse-detail/9759",
            "website": "google.com"
        },
        {
            "id": "9cb1abd1-56e4-47be-a247-87e9e00c7e3e",
            "nama_pse": "GOOGLE INDONESIA",
            "nama_se": "GOOGLE MENYEDIAKAN LAYANAN BERBASIS WEB TERMASUK SEARCH. PT GOOGLE INDONESIA ADALAH  PERUSAHAAN LOKAL GOOGLE UNTUK KEGIATAN YANG DILAKUKAN DI INDONESIA YANG MENCAKUP PENYEDIAAN LAYANAN PEMASARAN DAN DUKUNGAN DI INDONESIA UNTUK LAYANAN BERBASIS WEB DI ATAS",
            "sektor": "Sektor Teknologi Informasi dan Komunikasi",
            "tanggal_terbit": "2022-08-03",
            "url_tdpse_detail": "https://pse.komdigi.go.id/tdpse-detail/9761",
            "website": "google.com"
        },
        {
            "id": "9cb1abf8-8791-428d-b33c-2f223ffea6b5",
            "nama_pse": "DIGIMEDIA ANDALAN NUSANTARA",
            "nama_se": "MANCODE",
            "sektor": "Sektor Teknologi Informasi dan Komunikasi",
            "tanggal_terbit": "2022-08-02",
            "url_tdpse_detail": "https://pse.komdigi.go.id/tdpse-detail/9651",
            "website": "mancode.id"
        },
        {
            "id": "9cb1abf7-6e8c-49bf-ac65-f244c20b210c",
            "nama_pse": "SAKUKAMU DIGITAL INDONESIA",
            "nama_se": "SAKUKAMU",
            "sektor": "Sektor Perdagangan",
            "tanggal_terbit": "2022-08-02",
            "url_tdpse_detail": "https://pse.komdigi.go.id/tdpse-detail/9568",
            "website": "Sakukamu.id"
        },
        {
            "id": "9cb1abd2-5c5e-4323-952c-f3233630d3be",
            "nama_pse": "ACHMAD DADANG NUR HIDAYANTO",
            "nama_se": "UJION",
            "sektor": "Sektor Teknologi Informasi dan Komunikasi",
            "tanggal_terbit": "2022-08-02",
            "url_tdpse_detail": "https://pse.komdigi.go.id/tdpse-detail/9541",
            "website": "ujion.com"
        },
        {
            "id": "9cb1abf7-7464-4154-8841-1ae3220ea53c",
            "nama_pse": "BANK PERKREDITAN RAKYAT MAGGA JAYA UTAMA",
            "nama_se": "KLIKMAJU",
            "sektor": "Sektor Keuangan",
            "tanggal_terbit": "2022-08-02",
            "url_tdpse_detail": "https://pse.komdigi.go.id/tdpse-detail/9545",
            "website": "klikmaju.id"
        },
        {
            "id": "9cb1abd2-61ad-46cb-9518-333fd8869b14",
            "nama_pse": "WIDJAJA ANEKATAS CENTER",
            "nama_se": "BCTRAVELERS",
            "sektor": "Sektor Perdagangan",
            "tanggal_terbit": "2022-08-02",
            "url_tdpse_detail": "https://pse.komdigi.go.id/tdpse-detail/9546",
            "website": "bctravelers.bagscity.co.id"
        },
        {
            "id": "9cb1abf8-cdf1-4472-8165-c389ed1605b9",
            "nama_pse": "BANK PERKREDITAN RAKYAT MAGGA JAYA UTAMA",
            "nama_se": "BANKMAJU.ID",
            "sektor": "Sektor Keuangan",
            "tanggal_terbit": "2022-08-02",
            "url_tdpse_detail": "https://pse.komdigi.go.id/tdpse-detail/9547",
            "website": "bankmaju.id"
        },
        {
            "id": "9cb1abf7-7731-4847-bae6-2303d7aa4d22",
            "nama_pse": "NIRAH DIGITAL MEDIA",
            "nama_se": "WWW.NIRAHDIGITAL.COM",
            "sektor": "Sektor Perdagangan",
            "tanggal_terbit": "2022-08-02",
            "url_tdpse_detail": "https://pse.komdigi.go.id/tdpse-detail/9549",
            "website": "nirahdigital.com"
        },
        {
            "id": "9cb1abf7-7a32-4bcd-a4cf-283abec0ca30",
            "nama_pse": "WIDJAJA ANEKATAS CENTER",
            "nama_se": "SHOP BAGS CITY",
            "sektor": "Sektor Perdagangan",
            "tanggal_terbit": "2022-08-02",
            "url_tdpse_detail": "https://pse.komdigi.go.id/tdpse-detail/9561",
            "website": "shop.bagscity.co.id"
        },
        {
            "id": "9cb1abf7-7ce5-4ed0-8716-48d64a1706a2",
            "nama_pse": "ARKANA MAJU SEJAHTERA",
            "nama_se": "IRACE",
            "sektor": "Sektor Perdagangan, Sektor Teknologi Informasi dan Komunikasi",
            "tanggal_terbit": "2022-08-02",
            "url_tdpse_detail": "https://pse.komdigi.go.id/tdpse-detail/9548",
            "website": "iraceindonesia.com"
        },
        {
            "id": "9cb1abf8-d15d-44d5-a0c5-935c35b95108",
            "nama_pse": "QERJA AKADEMI INDONESIA",
            "nama_se": "QOURSE.ID",
            "sektor": "Sektor Teknologi Informasi dan Komunikasi",
            "tanggal_terbit": "2022-08-02",
            "url_tdpse_detail": "https://pse.komdigi.go.id/tdpse-detail/9550",
            "website": "qourse.id"
        },
        {
            "id": "9cb1abf8-f0e4-4de8-8392-4450a79bdb6e",
            "nama_pse": "NYCTOUS MEDIA TEKNOLOGI",
            "nama_se": "NUVOPLAY",
            "sektor": "Sektor Teknologi Informasi dan Komunikasi",
            "tanggal_terbit": "2022-08-02",
            "url_tdpse_detail": "https://pse.komdigi.go.id/tdpse-detail/9553",
            "website": "nuvoplay.com"
        },
        {
            "id": "9cb1abd2-6a86-458a-a7e8-29fffab24805",
            "nama_pse": "MULTIMEDIA CAKRA INDONESIA",
            "nama_se": "MINYAKU",
            "sektor": "Sektor Perdagangan",
            "tanggal_terbit": "2022-08-02",
            "url_tdpse_detail": "https://pse.komdigi.go.id/tdpse-detail/9551",
            "website": "minyaku.id"
        },
        {
            "id": "9cb1abf7-82bf-4d63-aab5-3e60dd453c2a",
            "nama_pse": "MULTIMEDIA CAKRA INDONESIA",
            "nama_se": "MYCLUB",
            "sektor": "Sektor Perdagangan",
            "tanggal_terbit": "2022-08-02",
            "url_tdpse_detail": "https://pse.komdigi.go.id/tdpse-detail/9556",
            "website": "myclub.id"
        },
        {
            "id": "9cb1abf8-f8cd-4ce3-af57-d670ef212734",
            "nama_pse": "ALNA BERSAMA MEDIA",
            "nama_se": "TABENGAN.CO.ID",
            "sektor": "Sektor Teknologi Informasi dan Komunikasi",
            "tanggal_terbit": "2022-08-02",
            "url_tdpse_detail": "https://pse.komdigi.go.id/tdpse-detail/9557",
            "website": "tabengan.co.id"
        },
        {
            "id": "9cb1abf8-fc1a-4400-959f-ab3492ed8783",
            "nama_pse": "OBSIDO WIENS INVESTAMA",
            "nama_se": "OBSIDO PORTAL",
            "sektor": "Sektor Keuangan, Sektor Teknologi Informasi dan Komunikasi",
            "tanggal_terbit": "2022-08-02",
            "url_tdpse_detail": "https://pse.komdigi.go.id/tdpse-detail/9558",
            "website": "obsido.co.id"
        },
        {
            "id": "9cb1abf8-ff76-4b47-a215-d4b6b0de8ce6",
            "nama_pse": "MANAJEMEN PEMESANAN INDONESIA",
            "nama_se": "PASAR PEMESANAN",
            "sektor": "Sektor Teknologi Informasi dan Komunikasi",
            "tanggal_terbit": "2022-08-02",
            "url_tdpse_detail": "https://pse.komdigi.go.id/tdpse-detail/9572",
            "website": "pasarpemesanan.com"
        },
        {
            "id": "9cb1abf7-8a0f-471d-8109-8c054329534b",
            "nama_pse": "BANK PERKREDITAN RAKYAT NUSANTARA BONA PASOGIT 2",
            "nama_se": "NBP SYS, SISCHA, CAS, SAVING MOBILE APPLICATION",
            "sektor": "Sektor Keuangan",
            "tanggal_terbit": "2022-08-02",
            "url_tdpse_detail": "https://pse.komdigi.go.id/tdpse-detail/9569",
            "website": "bprnbp2.com"
        },
        {
            "id": "9cb1abd2-77da-4371-a811-c3ebbe37519c",
            "nama_pse": "SYSNETSOFT",
            "nama_se": "MYHOMESCHOOL",
            "sektor": "Sektor Teknologi Informasi dan Komunikasi",
            "tanggal_terbit": "2022-08-02",
            "url_tdpse_detail": "https://pse.komdigi.go.id/tdpse-detail/9577",
            "website": "demo.myhomeschool.co.id"
        },
        {
            "id": "9cb1abf9-036e-46ba-82ea-3cf259671e42",
            "nama_pse": "GALERI MUSLIMAH INDONESIA",
            "nama_se": "HUMAIRAA GALLERY TELEGRAM GROUP \u0026 CHANNEL",
            "sektor": "Sektor Perdagangan",
            "tanggal_terbit": "2022-08-02",
            "url_tdpse_detail": "https://pse.komdigi.go.id/tdpse-detail/9578",
            "website": "-"
        }
    ],
    "processingTimeMs": 4,
    "query": "",
    "totalHits": 19121,
    "hitsPerPage": 50,
    "page": 209,
    "totalPages": 383
}