{
    "hits": [
        {
            "id": "9cb1ab9c-c291-43c3-9d7b-2efd678ba397",
            "nama_pse": "LEON PAYMENT SOLUSINDO",
            "nama_se": "LEON PULSA",
            "sektor": "Sektor Perdagangan",
            "tanggal_terbit": "2022-07-15",
            "url_tdpse_detail": "https://pse.komdigi.go.id/tdpse-detail/5863",
            "website": "leon-pulsa.com"
        },
        {
            "id": "9cb1aba7-88c1-4206-b07e-b7df3906b596",
            "nama_pse": "RAJA PULSA INDONESIA",
            "nama_se": "RAJA PULSA",
            "sektor": "Sektor Perdagangan",
            "tanggal_terbit": "2022-07-15",
            "url_tdpse_detail": "https://pse.komdigi.go.id/tdpse-detail/5864",
            "website": "rajareloadpulsamurah.com"
        },
        {
            "id": "9cb1aba7-8c05-481b-b924-1da9c42067a6",
            "nama_pse": "METRO PAYMENT INDOTAMA",
            "nama_se": "METRO RELOAD",
            "sektor": "Sektor Perdagangan",
            "tanggal_terbit": "2022-07-15",
            "url_tdpse_detail": "https://pse.komdigi.go.id/tdpse-detail/5865",
            "website": "metroreloadindonesia.com"
        },
        {
            "id": "9cb1aba7-8ed6-4fe1-a0a9-29c673c5570c",
            "nama_pse": "BANK PEREKONOMIAN RAKYAT NUSANTARA ARTHA MAKMUR",
            "nama_se": "BPR NUSANTARA ARTHA MAKMUR",
            "sektor": "Sektor Keuangan",
            "tanggal_terbit": "2022-07-15",
            "url_tdpse_detail": "https://pse.komdigi.go.id/tdpse-detail/5866",
            "website": "-"
        },
        {
            "id": "9cb1aba7-919f-4ce3-8671-4e7eb534bd5b",
            "nama_pse": "BANK PEREKONOMIAN RAKYAT MODERN EXPRESS",
            "nama_se": "DIGITAL MODERN (DIGIMOD) E-LOAN -BPR MODERN EXPRESS",
            "sektor": "Sektor Keuangan",
            "tanggal_terbit": "2022-07-15",
            "url_tdpse_detail": "https://pse.komdigi.go.id/tdpse-detail/5869",
            "website": "digimod.bprmodern.com"
        },
        {
            "id": "9cb1aba7-94cd-43e6-9b0e-3c7b3673ebe4",
            "nama_pse": "BANK PERKREDITAN RAKYAT MODERN EXPRESS MALUKU UTARA",
            "nama_se": "DIGITAL MODERN (DIGIMOD) E-LOAN CUSTOMER - BPR MODERN EXPRESS MALUKU UTARA",
            "sektor": "Sektor Keuangan",
            "tanggal_terbit": "2022-07-15",
            "url_tdpse_detail": "https://pse.komdigi.go.id/tdpse-detail/5867",
            "website": "kredit.bprmodernternate.com"
        },
        {
            "id": "9cb1aba7-97c2-4128-aeec-fbdcc62f5c7b",
            "nama_pse": "LEON PAYMENT SOLUSINDO",
            "nama_se": "MORENA PULSA",
            "sektor": "Sektor Perdagangan",
            "tanggal_terbit": "2022-07-15",
            "url_tdpse_detail": "https://pse.komdigi.go.id/tdpse-detail/5868",
            "website": "morenapulsa.com"
        },
        {
            "id": "9cb1ab9c-c43f-466c-9db0-b35f2deb8bf9",
            "nama_pse": "KONSUMEN PEDAMI",
            "nama_se": "INSTANT ORDER",
            "sektor": "Sektor Perdagangan",
            "tanggal_terbit": "2022-07-15",
            "url_tdpse_detail": "https://pse.komdigi.go.id/tdpse-detail/5870",
            "website": "-"
        },
        {
            "id": "9cb1ab9c-c7d9-4d15-986a-c25081227457",
            "nama_pse": "BANK PEMBANGUNAN DAERAH JAMBI DISEBUT BANK JAMBI",
            "nama_se": "WBS BANK JAMBI",
            "sektor": "Sektor Teknologi Informasi dan Komunikasi",
            "tanggal_terbit": "2022-07-15",
            "url_tdpse_detail": "https://pse.komdigi.go.id/tdpse-detail/5872",
            "website": "wbs.bankjambi.co.id"
        },
        {
            "id": "9cb1abb1-5a44-4238-bf56-1029b74d1e7d",
            "nama_pse": "MARKET CHIP MULTIGUNA",
            "nama_se": "MA MOBILE TOPUP",
            "sektor": "Sektor Perdagangan",
            "tanggal_terbit": "2022-07-15",
            "url_tdpse_detail": "https://pse.komdigi.go.id/tdpse-detail/5871",
            "website": "marketpulsaelektrik.com"
        },
        {
            "id": "9cb1aba7-9a30-4cc2-82b3-ec5c11eb9536",
            "nama_pse": "BANK PERKREDITAN RAKYAT NUSANTARA BONA PASOGIT 33",
            "nama_se": "BPR NBP 33",
            "sektor": "Sektor Keuangan",
            "tanggal_terbit": "2022-07-15",
            "url_tdpse_detail": "https://pse.komdigi.go.id/tdpse-detail/5874",
            "website": "bprnbp33.co.id"
        },
        {
            "id": "9cb1aba7-a166-4dab-95eb-0289b3e7e0ea",
            "nama_pse": "BANK PEREKONOMIAN RAKYAT KARYAJATNIKA SADAYA",
            "nama_se": "EMAIL ZIMBRA BPRKS",
            "sektor": "Sektor Keuangan",
            "tanggal_terbit": "2022-07-15",
            "url_tdpse_detail": "https://pse.komdigi.go.id/tdpse-detail/5873",
            "website": "mail.bprks.co.id"
        },
        {
            "id": "9cb1ab9c-c9dc-4717-8a5c-2851338c2d3c",
            "nama_pse": "BANK PERKREDITAN RAKYAT MODERN EXPRESS MALUKU UTARA",
            "nama_se": "DIGITAL MODERN (DIGIMOD) E-COLLECTION - BPR MODERN EXPRESS MALUKU UTARA",
            "sektor": "Sektor Keuangan",
            "tanggal_terbit": "2022-07-15",
            "url_tdpse_detail": "https://pse.komdigi.go.id/tdpse-detail/5875",
            "website": "-"
        },
        {
            "id": "9cb1abb1-5c35-425a-a6d9-50b2a7d1e64e",
            "nama_pse": "BANK PERKREDITAN RAKYAT BANK JEPARA ARTHA (PERSERODA)",
            "nama_se": "PT BPR BANK JEPARA ARTHA (PERSERODA)",
            "sektor": "Sektor Keuangan",
            "tanggal_terbit": "2022-07-15",
            "url_tdpse_detail": "https://pse.komdigi.go.id/tdpse-detail/5876",
            "website": "-"
        },
        {
            "id": "9cb1aba7-a41d-4403-915d-a26b2ebadfc4",
            "nama_pse": "BANK PEMBANGUNAN DAERAH JAMBI DISEBUT BANK JAMBI",
            "nama_se": "LAKU PANDAI BANK JAMBI",
            "sektor": "Sektor Keuangan",
            "tanggal_terbit": "2022-07-15",
            "url_tdpse_detail": "https://pse.komdigi.go.id/tdpse-detail/5877",
            "website": "lkpd.bankjambi.co.id"
        },
        {
            "id": "9cb1ab9c-cba5-477f-befb-f5893d9d3486",
            "nama_pse": "BANK PERKREDITAN RAKYAT MODERN EXPRESS MALUKU UTARA",
            "nama_se": "SMS MACROKIOSK (OTP) - BPR MODERN EXPRESS MALUKU UTARA",
            "sektor": "Sektor Keuangan",
            "tanggal_terbit": "2022-07-15",
            "url_tdpse_detail": "https://pse.komdigi.go.id/tdpse-detail/5878",
            "website": "boldpass.com"
        },
        {
            "id": "9cb1aba7-a723-4e71-9779-d849cf462030",
            "nama_pse": "BANK PEREKONOMIAN RAKYAT MODERN EXPRESS",
            "nama_se": "DIGITAL MODERN (DIGIMOD) E-LOAN CUSTOMER-BPR MODERN EXPRESS",
            "sektor": "Sektor Keuangan",
            "tanggal_terbit": "2022-07-15",
            "url_tdpse_detail": "https://pse.komdigi.go.id/tdpse-detail/5879",
            "website": "kredit.bprmodern.com"
        },
        {
            "id": "9cb1aba7-a948-4b40-830b-bad2f32a6b3e",
            "nama_pse": "BANK PEREKONOMIAN RAKYAT MODERN EXPRESS",
            "nama_se": "DIGITAL MODERN (DIGIMOD) E-COLLECTION-BPR MODERN EXPRESS",
            "sektor": "Sektor Keuangan",
            "tanggal_terbit": "2022-07-15",
            "url_tdpse_detail": "https://pse.komdigi.go.id/tdpse-detail/5881",
            "website": "-"
        },
        {
            "id": "9cb1aba7-ab49-4d09-810b-05b1d07e7531",
            "nama_pse": "BANK PEREKONOMIAN RAKYAT KARYAJATNIKA SADAYA",
            "nama_se": "CALL CENTER BPRKS",
            "sektor": "Sektor Keuangan",
            "tanggal_terbit": "2022-07-15",
            "url_tdpse_detail": "https://pse.komdigi.go.id/tdpse-detail/5882",
            "website": "dial.id"
        },
        {
            "id": "9cb1aba7-ad91-46ca-8338-2fcc89d0ff59",
            "nama_pse": "STARLA SUKSES SEJAHTERA",
            "nama_se": "STARLA SUKSES SEJAHTERA",
            "sektor": "Sektor Perdagangan",
            "tanggal_terbit": "2022-07-15",
            "url_tdpse_detail": "https://pse.komdigi.go.id/tdpse-detail/5883",
            "website": "starsukses.com"
        },
        {
            "id": "9cb1ab9c-cfc0-485f-8dc1-f851257415f1",
            "nama_pse": "DIGITAL PAYMENT ONLINE",
            "nama_se": "DIGITAL PULSA",
            "sektor": "Sektor Perdagangan",
            "tanggal_terbit": "2022-07-15",
            "url_tdpse_detail": "https://pse.komdigi.go.id/tdpse-detail/5886",
            "website": "Digitalpulsaonline.com"
        },
        {
            "id": "9cb1ab9c-d18e-42b6-9efd-f217ffd1a548",
            "nama_pse": "BANK PEREKONOMIAN RAKYAT MODERN EXPRESS",
            "nama_se": "SMS MACROKIOSK (OTP) - BPR MODERN EXPRESS",
            "sektor": "Sektor Keuangan",
            "tanggal_terbit": "2022-07-15",
            "url_tdpse_detail": "https://pse.komdigi.go.id/tdpse-detail/5885",
            "website": "boldpass.com"
        },
        {
            "id": "9cb1aba7-af66-4600-9eea-1cb8dd7abd97",
            "nama_pse": "BANK PERKREDITAN RAKYAT NUSUMMA JAWA BARAT",
            "nama_se": "PT BPR NUSUMMA JAWA BARAT",
            "sektor": "Sektor Keuangan",
            "tanggal_terbit": "2022-07-15",
            "url_tdpse_detail": "https://pse.komdigi.go.id/tdpse-detail/5887",
            "website": "banknusumma.co.id"
        },
        {
            "id": "9cb1aba7-b1f1-4e07-bcc9-83898d3ead30",
            "nama_pse": "SINERGI TERANG BANGSA",
            "nama_se": "LISTRIK ON",
            "sektor": "Sektor Perdagangan, Sektor Energi dan Sumber Daya Mineral",
            "tanggal_terbit": "2022-07-15",
            "url_tdpse_detail": "https://pse.komdigi.go.id/tdpse-detail/5888",
            "website": "listrikon.id"
        },
        {
            "id": "9cb1ab9c-d35b-4f9f-9414-4452d2e5f84d",
            "nama_pse": "BANK PERKREDITAN RAKYAT SURYA ARTHA UTAMA",
            "nama_se": "VIRTUAL ACCOUNT BANK JATIM",
            "sektor": "Sektor Keuangan",
            "tanggal_terbit": "2022-07-15",
            "url_tdpse_detail": "https://pse.komdigi.go.id/tdpse-detail/5889",
            "website": "-"
        },
        {
            "id": "9cb1ab9c-d50b-4678-841a-798e6a469611",
            "nama_pse": "MULTI PAYMENT NUSANTARA",
            "nama_se": "STAR PULSA",
            "sektor": "Sektor Perdagangan",
            "tanggal_terbit": "2022-07-15",
            "url_tdpse_detail": "https://pse.komdigi.go.id/tdpse-detail/5890",
            "website": "kiospulsa.co.id"
        },
        {
            "id": "9cb1aba7-b6d8-430f-b5b1-96e50c965abd",
            "nama_pse": "TURBOLY TEKNOLOGI INDONESIA",
            "nama_se": "TURBOLY ERP",
            "sektor": "Sektor Teknologi Informasi dan Komunikasi",
            "tanggal_terbit": "2022-07-15",
            "url_tdpse_detail": "https://pse.komdigi.go.id/tdpse-detail/5891",
            "website": "turboly.com"
        },
        {
            "id": "9cb1ab9c-d713-4b8d-bc96-5ed7649efa2b",
            "nama_pse": "ORDER KUOTA EVOLUSI DIGITAL",
            "nama_se": "OKECONNECT",
            "sektor": "Sektor Perdagangan, Sektor Teknologi Informasi dan Komunikasi",
            "tanggal_terbit": "2022-07-15",
            "url_tdpse_detail": "https://pse.komdigi.go.id/tdpse-detail/5892",
            "website": "okeconnect.com"
        },
        {
            "id": "9cb1ab9c-d8cc-45f5-a24f-b6b4fc68bebe",
            "nama_pse": "KIOS PULSA INDONESIA",
            "nama_se": "KIOS PULSA",
            "sektor": "Sektor Perdagangan",
            "tanggal_terbit": "2022-07-15",
            "url_tdpse_detail": "https://pse.komdigi.go.id/tdpse-detail/5893",
            "website": "kiospulsa.co.id"
        },
        {
            "id": "9cb1aba7-b8af-4f13-a199-48424b9795c6",
            "nama_pse": "TURBOLY TEKNOLOGI INDONESIA",
            "nama_se": "TURBOLY",
            "sektor": "Sektor Teknologi Informasi dan Komunikasi",
            "tanggal_terbit": "2022-07-15",
            "url_tdpse_detail": "https://pse.komdigi.go.id/tdpse-detail/5894",
            "website": "turboly.com"
        },
        {
            "id": "9cb1aba7-baaa-462a-bf83-158b937d5857",
            "nama_pse": "TURBOLY TEKNOLOGI INDONESIA",
            "nama_se": "TURBOLY POS",
            "sektor": "Sektor Teknologi Informasi dan Komunikasi",
            "tanggal_terbit": "2022-07-15",
            "url_tdpse_detail": "https://pse.komdigi.go.id/tdpse-detail/5896",
            "website": "turboly.com"
        },
        {
            "id": "9cb1abb1-62cc-45fc-9fb0-d7dd81ef1541",
            "nama_pse": "BANK PEMBANGUNAN DAERAH JAMBI DISEBUT BANK JAMBI",
            "nama_se": "EDC PINPPAD BANK JAMBI",
            "sektor": "Sektor Keuangan",
            "tanggal_terbit": "2022-07-15",
            "url_tdpse_detail": "https://pse.komdigi.go.id/tdpse-detail/5897",
            "website": "edc.bankjambi.co.id"
        },
        {
            "id": "9cb1aba7-bcc7-4a4f-abb0-ac6203584804",
            "nama_pse": "BANK PEMBANGUNAN DAERAH JAMBI DISEBUT BANK JAMBI",
            "nama_se": "QRIS BANK JAMBI",
            "sektor": "Sektor Keuangan",
            "tanggal_terbit": "2022-07-15",
            "url_tdpse_detail": "https://pse.komdigi.go.id/tdpse-detail/5898",
            "website": "digital.bankjambi.co.id"
        },
        {
            "id": "9cb1abb1-650e-42d0-ada9-49ef2ba4c49b",
            "nama_pse": "TAKJUB TEKNOLOGI INDONESIA",
            "nama_se": "AJAIB REKSADANA",
            "sektor": "Sektor Keuangan",
            "tanggal_terbit": "2022-07-15",
            "url_tdpse_detail": "https://pse.komdigi.go.id/tdpse-detail/5899",
            "website": "ajaib.co.id"
        },
        {
            "id": "9cb1abb1-6949-47e3-93a6-705e11104b7c",
            "nama_pse": "BERTRAND PRAYOGA AMALO",
            "nama_se": "UNAPIN",
            "sektor": "Sektor Perdagangan, Sektor Teknologi Informasi dan Komunikasi",
            "tanggal_terbit": "2022-07-15",
            "url_tdpse_detail": "https://pse.komdigi.go.id/tdpse-detail/5900",
            "website": "unapin.com"
        },
        {
            "id": "9cb1aba7-bf5c-41a2-b485-77d0c7659670",
            "nama_pse": "BANK NATIONALNOBU",
            "nama_se": "INTERNET BANKING",
            "sektor": "Sektor Keuangan",
            "tanggal_terbit": "2022-07-15",
            "url_tdpse_detail": "https://pse.komdigi.go.id/tdpse-detail/5901",
            "website": "nobuwwwbanking.com"
        },
        {
            "id": "9cb1abb1-7415-4d79-8d81-5a424ce8f7ff",
            "nama_pse": "BANK NATIONALNOBU",
            "nama_se": "NOBULINK",
            "sektor": "Sektor Keuangan",
            "tanggal_terbit": "2022-07-15",
            "url_tdpse_detail": "https://pse.komdigi.go.id/tdpse-detail/5902",
            "website": "cms.nobubank.com"
        },
        {
            "id": "9cb1abb1-7681-480d-bb86-6eee04bcc2cd",
            "nama_pse": "BANK NATIONALNOBU",
            "nama_se": "NOBU KTA",
            "sektor": "Sektor Keuangan",
            "tanggal_terbit": "2022-07-15",
            "url_tdpse_detail": "https://pse.komdigi.go.id/tdpse-detail/5903",
            "website": "kta.nobubank.com"
        },
        {
            "id": "9cb1abb1-78b0-4612-a756-e7b997aee61d",
            "nama_pse": "BANK NATIONALNOBU",
            "nama_se": "NOBU KUR",
            "sektor": "Sektor Keuangan",
            "tanggal_terbit": "2022-07-15",
            "url_tdpse_detail": "https://pse.komdigi.go.id/tdpse-detail/5904",
            "website": "kur.nobubank.com"
        },
        {
            "id": "9cb1ab9c-da77-4323-813d-b5e39dcd8ebf",
            "nama_pse": "DAYA CIPTA DINAMIS",
            "nama_se": "STORANIA",
            "sektor": "Sektor Teknologi Informasi dan Komunikasi",
            "tanggal_terbit": "2022-07-15",
            "url_tdpse_detail": "https://pse.komdigi.go.id/tdpse-detail/5905",
            "website": "storania.com"
        },
        {
            "id": "9cb1abb1-7b26-4a0b-a881-39a346e4d523",
            "nama_pse": "NADIYA MULTI MEDIA",
            "nama_se": "KETIKONE.COM",
            "sektor": "Sektor Teknologi Informasi dan Komunikasi",
            "tanggal_terbit": "2022-07-15",
            "url_tdpse_detail": "https://pse.komdigi.go.id/tdpse-detail/5906",
            "website": "ketikone.com"
        },
        {
            "id": "9cb1abb1-7d0f-46c6-929e-85be7bde0bf2",
            "nama_pse": "GIGILOGI USAHA BERSAMA",
            "nama_se": "GIGILOGI",
            "sektor": "Sektor Perdagangan, Sektor Kesehatan, Sektor Teknologi Informasi dan Komunikasi, Sektor Pangan",
            "tanggal_terbit": "2022-07-15",
            "url_tdpse_detail": "https://pse.komdigi.go.id/tdpse-detail/5907",
            "website": "gigilogi.com"
        },
        {
            "id": "9cb1abb1-7f3a-4ec3-91af-5a5765a858af",
            "nama_pse": "KASYR SIBERNETIKA INDONESIA",
            "nama_se": "KASYR ID",
            "sektor": "Sektor Perdagangan, Sektor Teknologi Informasi dan Komunikasi",
            "tanggal_terbit": "2022-07-15",
            "url_tdpse_detail": "https://pse.komdigi.go.id/tdpse-detail/5908",
            "website": "kasyr.id"
        },
        {
            "id": "9cb1ab9c-dc66-40a2-88b7-f9b0a1ab1d50",
            "nama_pse": "ABDULLATIF",
            "nama_se": "TAJIR FULSA",
            "sektor": "Sektor Perdagangan",
            "tanggal_terbit": "2022-07-15",
            "url_tdpse_detail": "https://pse.komdigi.go.id/tdpse-detail/5909",
            "website": "-"
        },
        {
            "id": "9cb1ab9c-de86-4497-b72b-7b5a402f29a9",
            "nama_pse": "TEGUH AMAN LESTARI",
            "nama_se": "UMKM BANGKIT",
            "sektor": "Sektor Perdagangan",
            "tanggal_terbit": "2022-07-15",
            "url_tdpse_detail": "https://pse.komdigi.go.id/tdpse-detail/5910",
            "website": "umkm-bangkit.id"
        },
        {
            "id": "9cb1aba7-c18c-4d1a-aa1f-f9f000eb5057",
            "nama_pse": "CENTRAL GAMERS INDONESIA",
            "nama_se": "CENTRAL GAMERS ID",
            "sektor": "Sektor Teknologi Informasi dan Komunikasi",
            "tanggal_terbit": "2022-07-15",
            "url_tdpse_detail": "https://pse.komdigi.go.id/tdpse-detail/5911",
            "website": "centralgamers.id"
        },
        {
            "id": "9cb1abb1-811e-4471-a930-91311410a57a",
            "nama_pse": "PUD BPR BANK KARANGANYAR",
            "nama_se": "BANK KARANGANYAR",
            "sektor": "Sektor Keuangan",
            "tanggal_terbit": "2022-07-15",
            "url_tdpse_detail": "https://pse.komdigi.go.id/tdpse-detail/5912",
            "website": "bankkaranganyar.co.id"
        },
        {
            "id": "9cb1abb1-830f-457a-afb9-d49545c5b827",
            "nama_pse": "NERA QUA MINERAL",
            "nama_se": "PT. NERA QUA MINERAL",
            "sektor": "Sektor Perdagangan, Sektor Pangan",
            "tanggal_terbit": "2022-07-15",
            "url_tdpse_detail": "https://pse.komdigi.go.id/tdpse-detail/5913",
            "website": "-"
        },
        {
            "id": "9cb1ab9c-e05e-47c2-94f2-f6b807e722c4",
            "nama_pse": "AGUNG SETIAWAN",
            "nama_se": "AGSET PAYMENT",
            "sektor": "Sektor Perdagangan, Sektor Teknologi Informasi dan Komunikasi",
            "tanggal_terbit": "2022-07-15",
            "url_tdpse_detail": "https://pse.komdigi.go.id/tdpse-detail/5917",
            "website": "-"
        },
        {
            "id": "9cb1ab9b-dd23-41fb-a831-0c2d69edf6b5",
            "nama_pse": "NUSA SURYA CIPTADANA",
            "nama_se": "KLIKNSC",
            "sektor": "Sektor Keuangan",
            "tanggal_terbit": "2022-07-14",
            "url_tdpse_detail": "https://pse.komdigi.go.id/tdpse-detail/5594",
            "website": "kliknsc.co.id"
        }
    ],
    "processingTimeMs": 3,
    "query": "",
    "totalHits": 19121,
    "hitsPerPage": 50,
    "page": 281,
    "totalPages": 383
}