{
    "hits": [
        {
            "id": "9cb1aba1-febd-4c31-b362-c264779bdc8f",
            "nama_pse": "HOUMI DIGITAL PROPERTINDO",
            "nama_se": "HOUMI",
            "sektor": "Sektor Perdagangan, Sektor Teknologi Informasi dan Komunikasi",
            "tanggal_terbit": "2022-05-29",
            "url_tdpse_detail": "https://pse.komdigi.go.id/tdpse-detail/4166",
            "website": "houmi.co.id"
        },
        {
            "id": "9cb1ab95-ec34-4f8d-9388-2f28f37c45bf",
            "nama_pse": "JASA SETARA DIGITAL",
            "nama_se": "FAST CHECKOUT",
            "sektor": "Sektor Teknologi Informasi dan Komunikasi",
            "tanggal_terbit": "2022-05-28",
            "url_tdpse_detail": "https://pse.komdigi.go.id/tdpse-detail/4160",
            "website": "tara.app"
        },
        {
            "id": "9cb1abac-53cc-4d4a-80e8-9c5305d7f0c9",
            "nama_pse": "SYAHRUL MUKMIN",
            "nama_se": "INTERNET",
            "sektor": "Sektor Perdagangan",
            "tanggal_terbit": "2022-05-28",
            "url_tdpse_detail": "https://pse.komdigi.go.id/tdpse-detail/4162",
            "website": "intajwhp.com"
        },
        {
            "id": "9cb1ab95-ef8e-4cf1-a6eb-c6e2d2409e6e",
            "nama_pse": "WEDEET DIGITAL INDONESIA",
            "nama_se": "wedeet.co.id",
            "sektor": "Sektor Perdagangan",
            "tanggal_terbit": "2022-05-28",
            "url_tdpse_detail": "https://pse.komdigi.go.id/tdpse-detail/4161",
            "website": "wedeet.co.id"
        },
        {
            "id": "9cb1ab95-dd30-482a-a607-8fafe7e3e031",
            "nama_pse": "GROSIRONE PRIMA NUSANTARA",
            "nama_se": "HTTPS://GROSIR.ONE/",
            "sektor": "Sektor Perdagangan",
            "tanggal_terbit": "2022-05-27",
            "url_tdpse_detail": "https://pse.komdigi.go.id/tdpse-detail/4152",
            "website": "grosir.one"
        },
        {
            "id": "9cb1ab95-e2b3-4f82-9687-b0b69482d7b3",
            "nama_pse": "BUMI BERKAH BOGA",
            "nama_se": "JARVIN",
            "sektor": "Sektor Teknologi Informasi dan Komunikasi",
            "tanggal_terbit": "2022-05-27",
            "url_tdpse_detail": "https://pse.komdigi.go.id/tdpse-detail/5490",
            "website": "-"
        },
        {
            "id": "9cb1abac-4d1a-4f30-b6af-c0fe926934a6",
            "nama_pse": "IMAM SUBANDI",
            "nama_se": "OXYMAS",
            "sektor": "Sektor Perdagangan, Sektor Kesehatan",
            "tanggal_terbit": "2022-05-27",
            "url_tdpse_detail": "https://pse.komdigi.go.id/tdpse-detail/4154",
            "website": "oxymas.info"
        },
        {
            "id": "9cb1ab95-e71c-4722-9c2e-c29d7367bb46",
            "nama_pse": "BEST PROTEKSI INDONESIA",
            "nama_se": "WEBSITE BEST PROTEKSI",
            "sektor": "Sektor Keuangan",
            "tanggal_terbit": "2022-05-27",
            "url_tdpse_detail": "https://pse.komdigi.go.id/tdpse-detail/4155",
            "website": "bestproteksi.co.id"
        },
        {
            "id": "9cb1abac-4f42-4a7f-b785-64e4501b6649",
            "nama_pse": "MITRA MEDIA",
            "nama_se": "SIPLAH MITRA MEDIA",
            "sektor": "Sektor Perdagangan, Sektor Teknologi Informasi dan Komunikasi",
            "tanggal_terbit": "2022-05-27",
            "url_tdpse_detail": "https://pse.komdigi.go.id/tdpse-detail/4156",
            "website": "-"
        },
        {
            "id": "9cb1ab95-e9f1-4002-9bb9-5a4ff97c4d14",
            "nama_pse": "PERUSAHAAN PERSEROAN (PERSERO) PT. BANK RAKYAT INDONESIA",
            "nama_se": "DELIMA BRI",
            "sektor": "Sektor Perdagangan, Sektor Pangan",
            "tanggal_terbit": "2022-05-27",
            "url_tdpse_detail": "https://pse.komdigi.go.id/tdpse-detail/4157",
            "website": "BRIDelima.id"
        },
        {
            "id": "9cb1aba1-fa4e-4e24-bb6a-f255a93359d5",
            "nama_pse": "PERUSAHAAN PERSEROAN (PERSERO) PT. BANK RAKYAT INDONESIA",
            "nama_se": "COMMODITY CHAIN (TEBUCHAIN)",
            "sektor": "Sektor Pangan",
            "tanggal_terbit": "2022-05-27",
            "url_tdpse_detail": "https://pse.komdigi.go.id/tdpse-detail/4158",
            "website": "tebu.id"
        },
        {
            "id": "9cb1abac-50fd-41e8-9386-13f0a18fa75e",
            "nama_pse": "MAGNA NETWORK",
            "nama_se": "NUSAHOST",
            "sektor": "Sektor Teknologi Informasi dan Komunikasi",
            "tanggal_terbit": "2022-05-27",
            "url_tdpse_detail": "https://pse.komdigi.go.id/tdpse-detail/4159",
            "website": "nusahost.net"
        },
        {
            "id": "9cb1abac-4b21-41d3-a140-bb75de067025",
            "nama_pse": "PASAR RAKYAT INDONESIA",
            "nama_se": "YUKJUALBELI.COM",
            "sektor": "Sektor Perdagangan",
            "tanggal_terbit": "2022-05-26",
            "url_tdpse_detail": "https://pse.komdigi.go.id/tdpse-detail/4149",
            "website": "yukjualbeli.com"
        },
        {
            "id": "9cb1aba1-f57a-4d98-9e37-93a2f1dc7750",
            "nama_pse": "ALKAMIL GROUP",
            "nama_se": "ALKAMIL",
            "sektor": "Sektor Perdagangan",
            "tanggal_terbit": "2022-05-26",
            "url_tdpse_detail": "https://pse.komdigi.go.id/tdpse-detail/4150",
            "website": "-"
        },
        {
            "id": "9cb1aba1-f7fd-4907-8556-9b9805d500f1",
            "nama_pse": "SATRIA MEDIA TEKNOLOGI",
            "nama_se": "DOCULIVE",
            "sektor": "Sektor Teknologi Informasi dan Komunikasi",
            "tanggal_terbit": "2022-05-26",
            "url_tdpse_detail": "https://pse.komdigi.go.id/tdpse-detail/4151",
            "website": "-"
        },
        {
            "id": "9cb1ab95-b05a-4dce-a66e-7ad619f01f42",
            "nama_pse": "ZURICH ASURANSI INDONESIA",
            "nama_se": "CORPORATE WEB E-COMMERCE",
            "sektor": "Sektor Keuangan",
            "tanggal_terbit": "2022-05-25",
            "url_tdpse_detail": "https://pse.komdigi.go.id/tdpse-detail/4126",
            "website": "asuransi.zurich.co.id"
        },
        {
            "id": "9cb1ab95-b345-4de4-8a7e-9096ce92a2e4",
            "nama_pse": "WIDDY FERDIANSYAH",
            "nama_se": "HEAD HUNTER",
            "sektor": "Sektor Perdagangan",
            "tanggal_terbit": "2022-05-25",
            "url_tdpse_detail": "https://pse.komdigi.go.id/tdpse-detail/4127",
            "website": "-"
        },
        {
            "id": "9cb1aba1-ef61-4dc6-9984-33cbf300b10a",
            "nama_pse": "MEDIATEK INTERNUSA",
            "nama_se": "SIPLAH MEDIATEK INTERNUSA",
            "sektor": "Sektor Perdagangan, Sektor Teknologi Informasi dan Komunikasi",
            "tanggal_terbit": "2022-05-25",
            "url_tdpse_detail": "https://pse.komdigi.go.id/tdpse-detail/4143",
            "website": "-"
        },
        {
            "id": "9cb1abac-4147-46c4-ab29-5f08b0bdf8cd",
            "nama_pse": "MEDIATEK INTERNUSA",
            "nama_se": "SIPLAH BLIBLI MEDIATEK INTERNUSA",
            "sektor": "Sektor Perdagangan",
            "tanggal_terbit": "2022-05-25",
            "url_tdpse_detail": "https://pse.komdigi.go.id/tdpse-detail/4144",
            "website": "-"
        },
        {
            "id": "9cb1ab95-d4a2-4213-8527-defad81de334",
            "nama_pse": "BANDUNG SCIENTIFIC TECHNICAL INDONESIA",
            "nama_se": "ALOKLIK.COM",
            "sektor": "Sektor Perdagangan, Sektor Kesehatan",
            "tanggal_terbit": "2022-05-25",
            "url_tdpse_detail": "https://pse.komdigi.go.id/tdpse-detail/4145",
            "website": "aloklik.com"
        },
        {
            "id": "9cb1abac-45f7-480d-a20d-668a321075a5",
            "nama_pse": "MITRA DISTRIBUSI UTAMA",
            "nama_se": "JEMPOL KIOS",
            "sektor": "Sektor Teknologi Informasi dan Komunikasi",
            "tanggal_terbit": "2022-05-25",
            "url_tdpse_detail": "https://pse.komdigi.go.id/tdpse-detail/4146",
            "website": "jempolkios.co.id"
        },
        {
            "id": "9cb1ab95-da5d-4ff4-bbc6-5f1bf1f18f5b",
            "nama_pse": "SATRIA MEDIA TEKNOLOGI",
            "nama_se": "WECOPOS",
            "sektor": "Sektor Perdagangan, Sektor Teknologi Informasi dan Komunikasi",
            "tanggal_terbit": "2022-05-25",
            "url_tdpse_detail": "https://pse.komdigi.go.id/tdpse-detail/5489",
            "website": "-"
        },
        {
            "id": "9cb1abac-3204-4828-ace2-1ef7c6a08729",
            "nama_pse": "PROSA SOLUSI CERDAS",
            "nama_se": "PROSA - MEEMO",
            "sektor": "Sektor Perdagangan, Sektor Energi dan Sumber Daya Mineral, Sektor Keuangan, Sektor Kesehatan, Sektor Teknologi Informasi dan Komunikasi, Sektor Pertahanan dan Keamanan",
            "tanggal_terbit": "2022-05-24",
            "url_tdpse_detail": "https://pse.komdigi.go.id/tdpse-detail/4108",
            "website": "meetinganalytics.prosa.ai"
        },
        {
            "id": "9cb1ab95-9faa-4df5-ae3f-894acc193151",
            "nama_pse": "RITEL PANEN ADIPERKASA",
            "nama_se": "WWW.TUMI.CO.ID",
            "sektor": "Sektor Perdagangan",
            "tanggal_terbit": "2022-05-24",
            "url_tdpse_detail": "https://pse.komdigi.go.id/tdpse-detail/4122",
            "website": "tumi.co.id"
        },
        {
            "id": "9cb1ab95-a258-4f91-b770-7ee7c0cd0284",
            "nama_pse": "KUKUK SETYO PRAYOGI,S.KOM",
            "nama_se": "DATA ANALIS",
            "sektor": "Sektor Teknologi Informasi dan Komunikasi",
            "tanggal_terbit": "2022-05-24",
            "url_tdpse_detail": "https://pse.komdigi.go.id/tdpse-detail/4119",
            "website": "-"
        },
        {
            "id": "9cb1ab95-a90c-4367-82a1-f3db56619519",
            "nama_pse": "INSPIRASI MEDIA KREATIF",
            "nama_se": "KETOKO.CO.ID",
            "sektor": "Sektor Teknologi Informasi dan Komunikasi",
            "tanggal_terbit": "2022-05-24",
            "url_tdpse_detail": "https://pse.komdigi.go.id/tdpse-detail/4120",
            "website": "pos.ketoko.co.id"
        },
        {
            "id": "9cb1aba1-d0cb-4d16-856b-4f2c220a83f8",
            "nama_pse": "INSPIRASI MEDIA KREATIF",
            "nama_se": "KETOKO.STORE",
            "sektor": "Sektor Perdagangan, Sektor Teknologi Informasi dan Komunikasi",
            "tanggal_terbit": "2022-05-24",
            "url_tdpse_detail": "https://pse.komdigi.go.id/tdpse-detail/4121",
            "website": "ketoko.store"
        },
        {
            "id": "9cb1aba1-d30f-4721-8ff0-283c7d99950f",
            "nama_pse": "INDRA WATI",
            "nama_se": "TEKNOGRIS.COM",
            "sektor": "Sektor Teknologi Informasi dan Komunikasi",
            "tanggal_terbit": "2022-05-24",
            "url_tdpse_detail": "https://pse.komdigi.go.id/tdpse-detail/4123",
            "website": "teknogris.com"
        },
        {
            "id": "9cb1ab95-ab80-440c-82a1-a1d2635aa1b7",
            "nama_pse": "BINA LOKA INDONESIA",
            "nama_se": "BINALOKA",
            "sektor": "Sektor Teknologi Informasi dan Komunikasi",
            "tanggal_terbit": "2022-05-24",
            "url_tdpse_detail": "https://pse.komdigi.go.id/tdpse-detail/4124",
            "website": "binaloka.id"
        },
        {
            "id": "9cb1ab95-adbc-46a8-a834-81b4e9205fa2",
            "nama_pse": "DENURATO SUMUL GROUP",
            "nama_se": "SUMUL STORE",
            "sektor": "Sektor Perdagangan",
            "tanggal_terbit": "2022-05-24",
            "url_tdpse_detail": "https://pse.komdigi.go.id/tdpse-detail/4125",
            "website": "bukaolshop.com"
        },
        {
            "id": "9cb1aba1-bb69-4b31-b3af-3c7df6a90e10",
            "nama_pse": "FEEDLOOP GLOBAL TEKNOLOGI",
            "nama_se": "FEEDLOOP",
            "sektor": "Sektor Teknologi Informasi dan Komunikasi",
            "tanggal_terbit": "2022-05-23",
            "url_tdpse_detail": "https://pse.komdigi.go.id/tdpse-detail/4104",
            "website": "feedloop.io"
        },
        {
            "id": "9cb1aba1-bdee-4c7d-9799-21bb5c9b95aa",
            "nama_pse": "LIMA VENTURA INDONESIA",
            "nama_se": "PERQARA",
            "sektor": "Sektor Perdagangan, Sektor Teknologi Informasi dan Komunikasi",
            "tanggal_terbit": "2022-05-23",
            "url_tdpse_detail": "https://pse.komdigi.go.id/tdpse-detail/4105",
            "website": "perqara.com"
        },
        {
            "id": "9cb1abac-2e6c-4b61-b1c0-ddd49cbb5586",
            "nama_pse": "APLIKASI KREASI INDONESIA",
            "nama_se": "BUKAKIOS",
            "sektor": "Sektor Teknologi Informasi dan Komunikasi",
            "tanggal_terbit": "2022-05-23",
            "url_tdpse_detail": "https://pse.komdigi.go.id/tdpse-detail/4106",
            "website": "bukakios.net"
        },
        {
            "id": "9cb1abac-301f-4e54-9df9-2df84f6a41cb",
            "nama_pse": "GRAHANUSA MEDIATAMA",
            "nama_se": "KONTAN",
            "sektor": "Sektor Perdagangan, Sektor Teknologi Informasi dan Komunikasi",
            "tanggal_terbit": "2022-05-23",
            "url_tdpse_detail": "https://pse.komdigi.go.id/tdpse-detail/4107",
            "website": "kontan.co.id"
        },
        {
            "id": "9cb1abac-157b-40cf-af0c-2db9dec9e9cd",
            "nama_pse": "SAVVIX DIGITAL BLOCKCHAIN",
            "nama_se": "SAVVIX.IO",
            "sektor": "Sektor Perdagangan",
            "tanggal_terbit": "2022-05-22",
            "url_tdpse_detail": "https://pse.komdigi.go.id/tdpse-detail/4054",
            "website": "-"
        },
        {
            "id": "9cb1ab96-dab6-4116-aad8-30ece44e63c6",
            "nama_pse": "PERUSAHAAN PERSEROAN (PERSERO) PT. BANK RAKYAT INDONESIA",
            "nama_se": "INTERNET BANKING BISNIS (IBBIZ)",
            "sektor": "Sektor Keuangan",
            "tanggal_terbit": "2022-05-20",
            "url_tdpse_detail": "https://pse.komdigi.go.id/tdpse-detail/4365",
            "website": "biz.bri.co.id"
        },
        {
            "id": "9cb1ab96-df12-4f2e-9813-f5ff6a0232a0",
            "nama_pse": "PERUSAHAAN PERSEROAN (PERSERO) PT. BANK RAKYAT INDONESIA",
            "nama_se": "BRI DIGITAL SAVING",
            "sektor": "Sektor Keuangan",
            "tanggal_terbit": "2022-05-20",
            "url_tdpse_detail": "https://pse.komdigi.go.id/tdpse-detail/4366",
            "website": "Bukarekening.bri.co.id"
        },
        {
            "id": "9cb1abad-41e8-4977-9509-5eeabc98112b",
            "nama_pse": "HADEKA MULTISOLUTION",
            "nama_se": "HADEKA MULTISOLUTION",
            "sektor": "Sektor Perdagangan, Sektor Teknologi Informasi dan Komunikasi",
            "tanggal_terbit": "2022-05-20",
            "url_tdpse_detail": "https://pse.komdigi.go.id/tdpse-detail/4461",
            "website": "hdk-solution.id"
        },
        {
            "id": "9cb1aba3-45a6-4ae4-96ad-cd12efa8c587",
            "nama_pse": "EKA DIGITAL TRIDAYA",
            "nama_se": "MEDIKADEMIA.ID",
            "sektor": "Sektor Perdagangan, Sektor Kesehatan",
            "tanggal_terbit": "2022-05-20",
            "url_tdpse_detail": "https://pse.komdigi.go.id/tdpse-detail/4507",
            "website": "medikademia.id"
        },
        {
            "id": "9cb1aba3-4894-4689-ae8e-8865d147884b",
            "nama_pse": "FERIWANSYAH",
            "nama_se": "NEFAGOS HOME INDUSTRI",
            "sektor": "Sektor Perdagangan, Sektor Energi dan Sumber Daya Mineral, Sektor Transportasi, Sektor Keuangan, Sektor Kesehatan, Sektor Teknologi Informasi dan Komunikasi, Sektor Pangan, Sektor Pertahanan dan Keamanan",
            "tanggal_terbit": "2022-05-20",
            "url_tdpse_detail": "https://pse.komdigi.go.id/tdpse-detail/4508",
            "website": "-"
        },
        {
            "id": "9cb1abad-5c87-40f0-988a-fb0d183c3df9",
            "nama_pse": "RULLY MULYADI",
            "nama_se": "LUBNA CELL EXPRESS",
            "sektor": "Sektor Perdagangan",
            "tanggal_terbit": "2022-05-20",
            "url_tdpse_detail": "https://pse.komdigi.go.id/tdpse-detail/4509",
            "website": "-"
        },
        {
            "id": "9cb1abad-5e87-48b6-ae8f-cbb4d812f769",
            "nama_pse": "TELUSUR WISATA NUSANTARA",
            "nama_se": "TRIPLYFE",
            "sektor": "Sektor Teknologi Informasi dan Komunikasi",
            "tanggal_terbit": "2022-05-20",
            "url_tdpse_detail": "https://pse.komdigi.go.id/tdpse-detail/4510",
            "website": "triplyfe.id"
        },
        {
            "id": "9cb1abad-8279-4440-99c0-192e74d14cf3",
            "nama_pse": "AIM BERSAMA",
            "nama_se": "AIM KOMPUTER",
            "sektor": "Sektor Perdagangan, Sektor Pertahanan dan Keamanan",
            "tanggal_terbit": "2022-05-20",
            "url_tdpse_detail": "https://pse.komdigi.go.id/tdpse-detail/4582",
            "website": "-"
        },
        {
            "id": "9cb1aba3-9056-4155-8e83-21f00e5192cf",
            "nama_pse": "AIM BERSAMA",
            "nama_se": "AIM COMPUTER",
            "sektor": "Sektor Perdagangan, Sektor Pertahanan dan Keamanan",
            "tanggal_terbit": "2022-05-20",
            "url_tdpse_detail": "https://pse.komdigi.go.id/tdpse-detail/4583",
            "website": "-"
        },
        {
            "id": "9cb1aba3-92d6-4363-8761-f349cd4fca6d",
            "nama_pse": "AIM BERSAMA",
            "nama_se": "AIM BERSAMA ATK",
            "sektor": "Sektor Perdagangan, Sektor Pangan, Sektor Pertahanan dan Keamanan",
            "tanggal_terbit": "2022-05-20",
            "url_tdpse_detail": "https://pse.komdigi.go.id/tdpse-detail/4584",
            "website": "-"
        },
        {
            "id": "9cb1aba3-955b-470e-ba0b-cc373c59e2b5",
            "nama_pse": "AIM BERSAMA",
            "nama_se": "AIM BERSAMA COMP",
            "sektor": "Sektor Perdagangan, Sektor Pertahanan dan Keamanan",
            "tanggal_terbit": "2022-05-20",
            "url_tdpse_detail": "https://pse.komdigi.go.id/tdpse-detail/4585",
            "website": "-"
        },
        {
            "id": "9cb1ab96-aa93-4eaa-a775-1841e789ce7b",
            "nama_pse": "ADVANCE INTELLIGENCE INDONESIA",
            "nama_se": "ONESTOP PLATFORM",
            "sektor": "Sektor Teknologi Informasi dan Komunikasi",
            "tanggal_terbit": "2022-05-19",
            "url_tdpse_detail": "https://pse.komdigi.go.id/tdpse-detail/4346",
            "website": "id-oop.advance.ai"
        },
        {
            "id": "9cb1abac-f6ae-413c-b3dd-c350d65ef381",
            "nama_pse": "BANK BTPN SYARIAH",
            "nama_se": "BESTEEKU",
            "sektor": "Sektor Keuangan",
            "tanggal_terbit": "2022-05-19",
            "url_tdpse_detail": "https://pse.komdigi.go.id/tdpse-detail/4350",
            "website": "tepatdaya.btpnsyariah.com"
        },
        {
            "id": "9cb1ab97-7cf0-4f30-8753-f518ab59acea",
            "nama_pse": "YAKULT INDONESIA PERSADA",
            "nama_se": "WEBSITE YAKULT",
            "sektor": "Sektor Perdagangan",
            "tanggal_terbit": "2022-05-19",
            "url_tdpse_detail": "https://pse.komdigi.go.id/tdpse-detail/4466",
            "website": "yakult.co.id"
        },
        {
            "id": "9cb1ab97-92bd-4b2d-9948-6c49a8c30671",
            "nama_pse": "BIIZAA ASIA TECHNOLOGY",
            "nama_se": "BIIZAA MANAGEMENT CONSULTING",
            "sektor": "Sektor Teknologi Informasi dan Komunikasi",
            "tanggal_terbit": "2022-05-19",
            "url_tdpse_detail": "https://pse.komdigi.go.id/tdpse-detail/4480",
            "website": "biizaa.com"
        }
    ],
    "processingTimeMs": 4,
    "query": "",
    "totalHits": 19121,
    "hitsPerPage": 50,
    "page": 303,
    "totalPages": 383
}