{
    "hits": [
        {
            "id": "9e25f5d1-bce9-4169-83e4-b58ac0fff8aa",
            "nama_pse": "DITEC SOLID NETWORKING",
            "nama_se": "PT DITEC SOLID NETWORKING",
            "sektor": "Sektor Perdagangan, Sektor Teknologi Informasi dan Komunikasi",
            "tanggal_terbit": "2025-02-06",
            "url_tdpse_detail": "https://pse.komdigi.go.id/tdpse-detail/22313",
            "website": "-"
        },
        {
            "id": "9e24eb86-afb1-4632-9c20-23f88e5ff0df",
            "nama_pse": "HUMMA TEKNOLOGI INDONESIA",
            "nama_se": "HUMMATECH",
            "sektor": "Sektor Teknologi Informasi dan Komunikasi",
            "tanggal_terbit": "2025-02-06",
            "url_tdpse_detail": "https://pse.komdigi.go.id/tdpse-detail/22298",
            "website": "hummatech.com"
        },
        {
            "id": "9e2529ec-911a-4691-a2e3-0aafbe4c6dfe",
            "nama_pse": "LENTERA INSPIRASI TEKNOLOGI",
            "nama_se": "LIT",
            "sektor": "Sektor Teknologi Informasi dan Komunikasi",
            "tanggal_terbit": "2025-02-06",
            "url_tdpse_detail": "https://pse.komdigi.go.id/tdpse-detail/22304",
            "website": "lit-techs.com"
        },
        {
            "id": "9e252d38-00ec-45ad-a829-c6db75dab7e4",
            "nama_pse": "JAWA INTI SEJAHTERA",
            "nama_se": "PT. JAWA INTI SEJAHTERA",
            "sektor": "Sektor Teknologi Informasi dan Komunikasi",
            "tanggal_terbit": "2025-02-06",
            "url_tdpse_detail": "https://pse.komdigi.go.id/tdpse-detail/22305",
            "website": "-"
        },
        {
            "id": "9e252d89-c669-4db4-9066-7291ee14d552",
            "nama_pse": "BIO MEDIKA MANDIRI JAYA",
            "nama_se": "KLINIK",
            "sektor": "Sektor Kesehatan",
            "tanggal_terbit": "2025-02-06",
            "url_tdpse_detail": "https://pse.komdigi.go.id/tdpse-detail/22306",
            "website": "klinik.biomedika.co.id"
        },
        {
            "id": "9e25334f-bf30-4f6f-951f-b7711454468f",
            "nama_pse": "DAS MAP INDONESIA",
            "nama_se": "DASMAP.COM",
            "sektor": "Sektor Teknologi Informasi dan Komunikasi",
            "tanggal_terbit": "2025-02-06",
            "url_tdpse_detail": "https://pse.komdigi.go.id/tdpse-detail/22309",
            "website": "dasmap.com"
        },
        {
            "id": "9e253ee2-4684-430c-9fd6-d5cc33082179",
            "nama_pse": "SINTESA JAYA NET",
            "nama_se": "LAYANAN INTERNET LOKAL ( RT RW NET )",
            "sektor": "Sektor Teknologi Informasi dan Komunikasi",
            "tanggal_terbit": "2025-02-06",
            "url_tdpse_detail": "https://pse.komdigi.go.id/tdpse-detail/22310",
            "website": "-"
        },
        {
            "id": "9e25091b-e384-4fc9-a524-efc557d44563",
            "nama_pse": "BAMBANG SUHENDRO",
            "nama_se": "FLAZZGAME",
            "sektor": "Sektor Perdagangan",
            "tanggal_terbit": "2025-02-06",
            "url_tdpse_detail": "https://pse.komdigi.go.id/tdpse-detail/22301",
            "website": "flazzgame.shop"
        },
        {
            "id": "9e2424a5-6b20-4d46-b6e3-95dabfedc6e3",
            "nama_pse": "SLAMET BIN RAKIDIN",
            "nama_se": "SALAAMNET",
            "sektor": "Sektor Teknologi Informasi dan Komunikasi",
            "tanggal_terbit": "2025-02-06",
            "url_tdpse_detail": "https://pse.komdigi.go.id/tdpse-detail/22294",
            "website": "-"
        },
        {
            "id": "9e24a784-b368-4884-803c-bef2333e5347",
            "nama_pse": "BERRY TRADA MULTIPERSADA",
            "nama_se": "BERRYLABS",
            "sektor": "Sektor Teknologi Informasi dan Komunikasi",
            "tanggal_terbit": "2025-02-06",
            "url_tdpse_detail": "https://pse.komdigi.go.id/tdpse-detail/22295",
            "website": "-"
        },
        {
            "id": "9e2521c4-407c-4fd2-88e7-3ae01b8b3ecf",
            "nama_pse": "AKARMAS INTI BUMI",
            "nama_se": "AKARMAS",
            "sektor": "Sektor Teknologi Informasi dan Komunikasi",
            "tanggal_terbit": "2025-02-06",
            "url_tdpse_detail": "https://pse.komdigi.go.id/tdpse-detail/22303",
            "website": "-"
        },
        {
            "id": "9e22f074-64d0-4930-bce6-a07922699696",
            "nama_pse": "MUHAMMAD KHOIRUZZADITTAQWA",
            "nama_se": "PT PRISMA DIGITAL KREATIF",
            "sektor": "Sektor Perdagangan, Sektor Teknologi Informasi dan Komunikasi",
            "tanggal_terbit": "2025-02-05",
            "url_tdpse_detail": "https://pse.komdigi.go.id/tdpse-detail/22278",
            "website": "naikdigital.com"
        },
        {
            "id": "9e234650-ea4e-4096-aa0c-dc83de16c946",
            "nama_pse": "BIPO SERVICE INDONESIA",
            "nama_se": "BIPO HRMS",
            "sektor": "Sektor Teknologi Informasi dan Komunikasi",
            "tanggal_terbit": "2025-02-05",
            "url_tdpse_detail": "https://pse.komdigi.go.id/tdpse-detail/22286",
            "website": "biposervice.com"
        },
        {
            "id": "9e22c3d8-2177-4280-b0cc-85517751c3ba",
            "nama_pse": "HAERUDIN",
            "nama_se": "LAYANAN INTERNET LOKAL ( RT RW NET )",
            "sektor": "Sektor Teknologi Informasi dan Komunikasi",
            "tanggal_terbit": "2025-02-05",
            "url_tdpse_detail": "https://pse.komdigi.go.id/tdpse-detail/22273",
            "website": "-"
        },
        {
            "id": "9e227d36-0d56-4c92-bc2c-b373ed27f7c2",
            "nama_pse": "HERRU HARDIYANSAH",
            "nama_se": "sribukm.com",
            "sektor": "Sektor Teknologi Informasi dan Komunikasi",
            "tanggal_terbit": "2025-02-05",
            "url_tdpse_detail": "https://pse.komdigi.go.id/tdpse-detail/22270",
            "website": "-"
        },
        {
            "id": "9e229052-c2ce-484c-bb18-dec7d52e0fb0",
            "nama_pse": "MUJI BERKAH LESTARI",
            "nama_se": "PERWIRA PULSA",
            "sektor": "Sektor Perdagangan, Sektor Teknologi Informasi dan Komunikasi",
            "tanggal_terbit": "2025-02-05",
            "url_tdpse_detail": "https://pse.komdigi.go.id/tdpse-detail/22271",
            "website": "arjunatronik.otoreport.com"
        },
        {
            "id": "9e22b29f-0f15-4156-8a6f-a312b128b674",
            "nama_pse": "PELANET WIFI KARIMATA",
            "nama_se": "PT PELANET WIFI KARIMATA",
            "sektor": "Sektor Teknologi Informasi dan Komunikasi",
            "tanggal_terbit": "2025-02-05",
            "url_tdpse_detail": "https://pse.komdigi.go.id/tdpse-detail/22272",
            "website": "-"
        },
        {
            "id": "9e22e87b-5b8c-48cf-9117-156cd76684bd",
            "nama_pse": "ABADI SINGAPAY INDONESIA",
            "nama_se": "PT ABADI SINGAPAY INDONESIA",
            "sektor": "Sektor Keuangan",
            "tanggal_terbit": "2025-02-05",
            "url_tdpse_detail": "https://pse.komdigi.go.id/tdpse-detail/22277",
            "website": "singapay.id"
        },
        {
            "id": "9e22f2b3-c9f1-4728-a1e7-827b579ddad8",
            "nama_pse": "ANGGA MUSIANA",
            "nama_se": "GHRNET.ID",
            "sektor": "Sektor Teknologi Informasi dan Komunikasi",
            "tanggal_terbit": "2025-02-05",
            "url_tdpse_detail": "https://pse.komdigi.go.id/tdpse-detail/22279",
            "website": "jlanet.id"
        },
        {
            "id": "9e22fc4a-2713-4ceb-a7c5-9fe1173a376b",
            "nama_pse": "ZONA KARYA MENDUNIA",
            "nama_se": "QUICK COFFEE",
            "sektor": "Sektor Perdagangan",
            "tanggal_terbit": "2025-02-05",
            "url_tdpse_detail": "https://pse.komdigi.go.id/tdpse-detail/22280",
            "website": "quickcoffee.id"
        },
        {
            "id": "9e23022c-c73d-42e7-9bb2-0acf8704af39",
            "nama_pse": "MOMENTUM TRANSFORMASI GLOBAL",
            "nama_se": "allthinc",
            "sektor": "Sektor Perdagangan",
            "tanggal_terbit": "2025-02-05",
            "url_tdpse_detail": "https://pse.komdigi.go.id/tdpse-detail/22281",
            "website": "allthinc.com"
        },
        {
            "id": "9e232a7a-6b95-49c2-930f-73379909b914",
            "nama_pse": "GARUDA ABADI",
            "nama_se": "GARDITOUR",
            "sektor": "Sektor Perdagangan",
            "tanggal_terbit": "2025-02-05",
            "url_tdpse_detail": "https://pse.komdigi.go.id/tdpse-detail/22282",
            "website": "garditour.co.id"
        },
        {
            "id": "9e23378c-870a-4c59-8468-0427b4c9fadd",
            "nama_pse": "ANTON SARWONO",
            "nama_se": "TOPHUB",
            "sektor": "Sektor Perdagangan, Sektor Teknologi Informasi dan Komunikasi",
            "tanggal_terbit": "2025-02-05",
            "url_tdpse_detail": "https://pse.komdigi.go.id/tdpse-detail/22284",
            "website": "tophub.id"
        },
        {
            "id": "9e233ddd-3383-4be9-a4a7-12861c499db3",
            "nama_pse": "INFRA DIGITAL NUSANTARA",
            "nama_se": "KASFLOW",
            "sektor": "Sektor Teknologi Informasi dan Komunikasi",
            "tanggal_terbit": "2025-02-05",
            "url_tdpse_detail": "https://pse.komdigi.go.id/tdpse-detail/22285",
            "website": "dashboard.infradigital.net"
        },
        {
            "id": "9e235623-86f4-4231-b81f-4dc7c3536d5f",
            "nama_pse": "ARA INFRA INDO",
            "nama_se": "ARA POSPAY",
            "sektor": "Sektor Teknologi Informasi dan Komunikasi",
            "tanggal_terbit": "2025-02-05",
            "url_tdpse_detail": "https://pse.komdigi.go.id/tdpse-detail/22287",
            "website": "arainfraindo.com"
        },
        {
            "id": "9e2356ff-52af-4138-8029-bb7d550d60ee",
            "nama_pse": "PRISMA SINERGI ANGKASA",
            "nama_se": "GINGER MODERN TOUR",
            "sektor": "Sektor Perdagangan, Sektor Teknologi Informasi dan Komunikasi",
            "tanggal_terbit": "2025-02-05",
            "url_tdpse_detail": "https://pse.komdigi.go.id/tdpse-detail/22288",
            "website": "gingermodernstore.com"
        },
        {
            "id": "9e2357ec-05e7-4485-b9d6-1384bf1aa01d",
            "nama_pse": "QRYPTO BERKAH TEKNOLOGI",
            "nama_se": "QRYPTO",
            "sektor": "Sektor Perdagangan, Sektor Teknologi Informasi dan Komunikasi",
            "tanggal_terbit": "2025-02-05",
            "url_tdpse_detail": "https://pse.komdigi.go.id/tdpse-detail/22289",
            "website": "qrypto.trade"
        },
        {
            "id": "9e236d73-076c-470d-8386-3886538338ff",
            "nama_pse": "SUHERMAN",
            "nama_se": "PLAWADNET",
            "sektor": "Sektor Teknologi Informasi dan Komunikasi",
            "tanggal_terbit": "2025-02-05",
            "url_tdpse_detail": "https://pse.komdigi.go.id/tdpse-detail/22290",
            "website": "remala.co.id"
        },
        {
            "id": "9e23a96e-68e4-47dd-a371-1d724688b84a",
            "nama_pse": "KARYAPUTRA SURYAGEMILANG",
            "nama_se": "ARSI",
            "sektor": "Sektor Teknologi Informasi dan Komunikasi",
            "tanggal_terbit": "2025-02-05",
            "url_tdpse_detail": "https://pse.komdigi.go.id/tdpse-detail/22291",
            "website": "kpsg.com"
        },
        {
            "id": "9e23b243-c4e0-4de2-84fe-d0d9f015dffc",
            "nama_pse": "SPECIAL SKILL INDONESIA",
            "nama_se": "SPECIAL SKILL INDONESIA",
            "sektor": "Sektor Teknologi Informasi dan Komunikasi",
            "tanggal_terbit": "2025-02-05",
            "url_tdpse_detail": "https://pse.komdigi.go.id/tdpse-detail/22292",
            "website": "specialskill.id"
        },
        {
            "id": "9e23e1f9-0385-46c8-8d3f-c6fb0cce7b62",
            "nama_pse": "NATURAL AURORA INDONESIA",
            "nama_se": "NATURAL AURORA INDONESIA",
            "sektor": "Sektor Kesehatan, Sektor Teknologi Informasi dan Komunikasi",
            "tanggal_terbit": "2025-02-05",
            "url_tdpse_detail": "https://pse.komdigi.go.id/tdpse-detail/22293",
            "website": "naturalauroraindonesia.com"
        },
        {
            "id": "9e20ab0c-7942-472c-9115-d164aa52505a",
            "nama_pse": "INFORMASI MASYARAKAT NUSANTARA",
            "nama_se": "INFORAKYAT24JAM.COM",
            "sektor": "Sektor Teknologi Informasi dan Komunikasi",
            "tanggal_terbit": "2025-02-04",
            "url_tdpse_detail": "https://pse.komdigi.go.id/tdpse-detail/22260",
            "website": "inforakyat24jam.com"
        },
        {
            "id": "9e20ca2e-de7d-4781-ab8b-7f52c23a5264",
            "nama_pse": "JC INDONESIA",
            "nama_se": "RESELLERCAMP",
            "sektor": "Sektor Teknologi Informasi dan Komunikasi",
            "tanggal_terbit": "2025-02-04",
            "url_tdpse_detail": "https://pse.komdigi.go.id/tdpse-detail/22261",
            "website": "resellercamp.id"
        },
        {
            "id": "9e20e568-5056-4d8e-9a60-7ebaa2883304",
            "nama_pse": "ARDITEK MEDIA INOVASI",
            "nama_se": "ASIQLO",
            "sektor": "Sektor Teknologi Informasi dan Komunikasi",
            "tanggal_terbit": "2025-02-04",
            "url_tdpse_detail": "https://pse.komdigi.go.id/tdpse-detail/22262",
            "website": "asiqlo.net"
        },
        {
            "id": "9e20e5d1-811b-4c88-aeed-2c86eb1e94f6",
            "nama_pse": "SEI HARA PRIMA",
            "nama_se": "VIT",
            "sektor": "Sektor Perdagangan, Sektor Kesehatan, Sektor Teknologi Informasi dan Komunikasi",
            "tanggal_terbit": "2025-02-04",
            "url_tdpse_detail": "https://pse.komdigi.go.id/tdpse-detail/22263",
            "website": "platform.vit.co.id"
        },
        {
            "id": "9e20f0d9-4540-46e2-9a37-1dda894d5495",
            "nama_pse": "MUHAMMAD AUFA NIRSAD",
            "nama_se": "KUYTOPUP INDONESIA",
            "sektor": "Sektor Perdagangan",
            "tanggal_terbit": "2025-02-04",
            "url_tdpse_detail": "https://pse.komdigi.go.id/tdpse-detail/22264",
            "website": "-"
        },
        {
            "id": "9e211f80-c52e-44f5-9363-254c01a94868",
            "nama_pse": "INDUK ANGKATAN UDARA PUKADARA SKD",
            "nama_se": "INKOPAU RENT CAR",
            "sektor": "Sektor Transportasi",
            "tanggal_terbit": "2025-02-04",
            "url_tdpse_detail": "https://pse.komdigi.go.id/tdpse-detail/22265",
            "website": "-"
        },
        {
            "id": "9e212117-b5fe-4f3d-991d-c8844e1a5128",
            "nama_pse": "BINA BERSAMA NIAGA DIGITAL",
            "nama_se": "GOF4N OJEK ONLINE",
            "sektor": "Sektor Transportasi",
            "tanggal_terbit": "2025-02-04",
            "url_tdpse_detail": "https://pse.komdigi.go.id/tdpse-detail/22266",
            "website": "gof4n.com"
        },
        {
            "id": "9e213202-eef9-4d23-a0fb-fd33db01b51b",
            "nama_pse": "DUNIA PERJALANAN INDONESIA",
            "nama_se": "DUNIA TRAVEL",
            "sektor": "Sektor Perdagangan, Sektor Transportasi",
            "tanggal_terbit": "2025-02-04",
            "url_tdpse_detail": "https://pse.komdigi.go.id/tdpse-detail/22267",
            "website": "duniatravel.co.id"
        },
        {
            "id": "9e213417-20df-432f-83ff-e22241a66469",
            "nama_pse": "YOGA DWI SEJAHTERA",
            "nama_se": "PT. YOGA  DWI SEJAHTERA",
            "sektor": "Sektor Teknologi Informasi dan Komunikasi",
            "tanggal_terbit": "2025-02-04",
            "url_tdpse_detail": "https://pse.komdigi.go.id/tdpse-detail/22268",
            "website": "mediautamanews.com"
        },
        {
            "id": "9e2140f3-30f3-4425-811d-761a86ceb7d9",
            "nama_pse": "APLIKASI ALDAY INDONESIA",
            "nama_se": "AIBIZ.ID",
            "sektor": "Sektor Perdagangan",
            "tanggal_terbit": "2025-02-04",
            "url_tdpse_detail": "https://pse.komdigi.go.id/tdpse-detail/22269",
            "website": "aibiz.id"
        },
        {
            "id": "9e1f09c8-21b4-44b7-9b73-fad2dfd4def9",
            "nama_pse": "RAVA INDONESIA PERS",
            "nama_se": "PT. RAVA INDONESIA PERS",
            "sektor": "Sektor Teknologi Informasi dan Komunikasi",
            "tanggal_terbit": "2025-02-03",
            "url_tdpse_detail": "https://pse.komdigi.go.id/tdpse-detail/22248",
            "website": "jurnalsumatera.com"
        },
        {
            "id": "9e1f1582-af59-40cd-a76e-2029d1e964e0",
            "nama_pse": "TUA KAMPAR ABADI",
            "nama_se": "PT. TUA KAMPAR ABADI",
            "sektor": "Sektor Teknologi Informasi dan Komunikasi",
            "tanggal_terbit": "2025-02-03",
            "url_tdpse_detail": "https://pse.komdigi.go.id/tdpse-detail/22249",
            "website": "potretperistiwa.com"
        },
        {
            "id": "9e1f2140-2316-47b1-9ee9-657509d701b5",
            "nama_pse": "DIGITAL SOLUTION INTERNATIONAL",
            "nama_se": "MOVA",
            "sektor": "Sektor Teknologi Informasi dan Komunikasi",
            "tanggal_terbit": "2025-02-03",
            "url_tdpse_detail": "https://pse.komdigi.go.id/tdpse-detail/22250",
            "website": "movashopping.com"
        },
        {
            "id": "9e1f2d75-898b-4f07-9ed8-e6cc458753a4",
            "nama_pse": "SEJAHTERA TEKNOLOGI INTERNASIONAL",
            "nama_se": "sejatek global tech",
            "sektor": "Sektor Teknologi Informasi dan Komunikasi",
            "tanggal_terbit": "2025-02-03",
            "url_tdpse_detail": "https://pse.komdigi.go.id/tdpse-detail/22251",
            "website": "sejatek.com"
        },
        {
            "id": "9e1f3291-16ed-4ca9-9c79-2aea1919e1af",
            "nama_pse": "DENNY MULTI SERVICES",
            "nama_se": "DENNY MULTI SERVICES",
            "sektor": "Sektor Perdagangan",
            "tanggal_terbit": "2025-02-03",
            "url_tdpse_detail": "https://pse.komdigi.go.id/tdpse-detail/22252",
            "website": "dennymultiservices.com"
        },
        {
            "id": "9e1f3445-9a36-4a34-951d-ce061e6f5f76",
            "nama_pse": "TATACITRA GRAHASERASI",
            "nama_se": "PT TATACITRA GRAHASERASI",
            "sektor": "Sektor Teknologi Informasi dan Komunikasi",
            "tanggal_terbit": "2025-02-03",
            "url_tdpse_detail": "https://pse.komdigi.go.id/tdpse-detail/22253",
            "website": "virtuadd.co.id"
        },
        {
            "id": "9e1f3dbf-75b7-4967-b42e-ca9c6b0a0e2e",
            "nama_pse": "BORNEO MAHA HARATI",
            "nama_se": "maharatinews.com",
            "sektor": "Sektor Teknologi Informasi dan Komunikasi",
            "tanggal_terbit": "2025-02-03",
            "url_tdpse_detail": "https://pse.komdigi.go.id/tdpse-detail/22254",
            "website": "maharatinews.com"
        },
        {
            "id": "9e1f6b3c-1dbc-4d63-891f-080b864f6c56",
            "nama_pse": "TEKNOLOGI GAGASAN NUSANTARA",
            "nama_se": "SOLUSI DIGITAL CERDAS",
            "sektor": "Sektor Teknologi Informasi dan Komunikasi",
            "tanggal_terbit": "2025-02-03",
            "url_tdpse_detail": "https://pse.komdigi.go.id/tdpse-detail/22255",
            "website": "tenggaraindonesia.id"
        },
        {
            "id": "9e1fb859-03d7-4d83-8e6a-077d778c2ccc",
            "nama_pse": "WAWAN HENDRAWAN",
            "nama_se": "APPLIKASI VOURE AESTHETIC CLINIC",
            "sektor": "Sektor Teknologi Informasi dan Komunikasi",
            "tanggal_terbit": "2025-02-03",
            "url_tdpse_detail": "https://pse.komdigi.go.id/tdpse-detail/22257",
            "website": "-"
        }
    ],
    "processingTimeMs": 0,
    "query": "",
    "totalHits": 19131,
    "hitsPerPage": 50,
    "page": 9,
    "totalPages": 383
}