{
    "hits": [
        {
            "id": "9cb1aba4-7587-4ad3-98b7-b7796496adb9",
            "nama_pse": "BINTANG CAHAYA MAKMUR",
            "nama_se": "PERDAGANGAN ECERAN KOMPUTER DAN PERLENGKAPANNYA",
            "sektor": "Sektor Perdagangan, Sektor Teknologi Informasi dan Komunikasi",
            "tanggal_terbit": "2022-06-28",
            "url_tdpse_detail": "https://pse.komdigi.go.id/tdpse-detail/4915",
            "website": "-"
        },
        {
            "id": "9cb1abae-2d5e-497f-bfbe-ae1d67438b12",
            "nama_pse": "SEMESTA MAHAKARYA TEKNOLOGI",
            "nama_se": "SEMESTA MAHAKARYA TEKNOLOGI DEVELOPMENT",
            "sektor": "Sektor Teknologi Informasi dan Komunikasi",
            "tanggal_terbit": "2022-06-28",
            "url_tdpse_detail": "https://pse.komdigi.go.id/tdpse-detail/4916",
            "website": "semestateknologi.id"
        },
        {
            "id": "9cb1aba4-783c-4d2e-8c24-77c1e84c5d23",
            "nama_pse": "CIPTA ASET DIGITAL",
            "nama_se": "CIPTA ASET DIGITAL",
            "sektor": "Sektor Perdagangan",
            "tanggal_terbit": "2022-06-28",
            "url_tdpse_detail": "https://pse.komdigi.go.id/tdpse-detail/4918",
            "website": "ciptaasetdigital.co.id"
        },
        {
            "id": "9cb1aba4-7af7-4d6c-addf-fc41f05d579f",
            "nama_pse": "NUSANTARA IBIZ SOLUSINDO",
            "nama_se": "PORTAL JASA PERIZINAN IBIZ",
            "sektor": "Sektor Teknologi Informasi dan Komunikasi",
            "tanggal_terbit": "2022-06-28",
            "url_tdpse_detail": "https://pse.komdigi.go.id/tdpse-detail/4919",
            "website": "ibiz.co.id"
        },
        {
            "id": "9cb1abae-3439-49ee-85ab-9d72d4279508",
            "nama_pse": "MEDIS INDONESIA DIGITAL",
            "nama_se": "OKEDOK",
            "sektor": "Sektor Kesehatan",
            "tanggal_terbit": "2022-06-28",
            "url_tdpse_detail": "https://pse.komdigi.go.id/tdpse-detail/4920",
            "website": "okedok.co.id"
        },
        {
            "id": "9cb1abae-35f4-4cb7-88be-f0b382c52f80",
            "nama_pse": "SAINSKERTA SOLUSI NUSANTARA",
            "nama_se": "EDMUKU.OD",
            "sektor": "Sektor Teknologi Informasi dan Komunikasi",
            "tanggal_terbit": "2022-06-28",
            "url_tdpse_detail": "https://pse.komdigi.go.id/tdpse-detail/4924",
            "website": "edmuku.id"
        },
        {
            "id": "9cb1aba4-63a6-46ac-af57-56227b3e0d79",
            "nama_pse": "BANK KB BUKOPIN SYARIAH",
            "nama_se": "BISA MOBILE",
            "sektor": "Sektor Keuangan",
            "tanggal_terbit": "2022-06-28",
            "url_tdpse_detail": "https://pse.komdigi.go.id/tdpse-detail/4909",
            "website": "mbisa.kbbanksyariah.co.id"
        },
        {
            "id": "9cb1aba4-6ebe-4863-a3b0-3574f1acc34b",
            "nama_pse": "BANK KB BUKOPIN SYARIAH",
            "nama_se": "SYARIAH BUKOPIN CASH MANAGEMENT (SBCM)",
            "sektor": "Sektor Keuangan",
            "tanggal_terbit": "2022-06-28",
            "url_tdpse_detail": "https://pse.komdigi.go.id/tdpse-detail/4911",
            "website": "-"
        },
        {
            "id": "9cb1ab98-e930-469e-9c49-055d11c788e3",
            "nama_pse": "MULTIPILAR BALANTIKA",
            "nama_se": "SIMFONI – SISTEM INFORMASI AKUNTANSI UNTUK PERBANKAN MIKRO, LKM DAN UMKM",
            "sektor": "Sektor Teknologi Informasi dan Komunikasi",
            "tanggal_terbit": "2022-06-27",
            "url_tdpse_detail": "https://pse.komdigi.go.id/tdpse-detail/4779",
            "website": "multipilarbalantika.co.id"
        },
        {
            "id": "9cb1abae-0fa4-4107-acb8-f976768425b0",
            "nama_pse": "KISA TRAVELINDO PRISTAMA",
            "nama_se": "KISABUS",
            "sektor": "Sektor Transportasi, Sektor Teknologi Informasi dan Komunikasi",
            "tanggal_terbit": "2022-06-27",
            "url_tdpse_detail": "https://pse.komdigi.go.id/tdpse-detail/4785",
            "website": "kisabus.com"
        },
        {
            "id": "9cb1ab98-ec69-4887-8584-51621bd84180",
            "nama_pse": "E2PAY GLOBAL UTAMA",
            "nama_se": "E2PAY GLOBAL UTAMA",
            "sektor": "Sektor Keuangan, Sektor Teknologi Informasi dan Komunikasi",
            "tanggal_terbit": "2022-06-27",
            "url_tdpse_detail": "https://pse.komdigi.go.id/tdpse-detail/4786",
            "website": "e2pay.co.id"
        },
        {
            "id": "9cb1abae-120a-476e-bf85-f80258bce8e7",
            "nama_pse": "REACH NETWORK SERVICES INDONESIA",
            "nama_se": "TELSTRA CONNECT",
            "sektor": "Sektor Teknologi Informasi dan Komunikasi",
            "tanggal_terbit": "2022-06-27",
            "url_tdpse_detail": "https://pse.komdigi.go.id/tdpse-detail/4788",
            "website": "connectapp.telstra.com"
        },
        {
            "id": "9cb1abae-13d0-46e6-809f-7a8338758580",
            "nama_pse": "MAGNA KARSA MULYA",
            "nama_se": "GRIYA BAYAR",
            "sektor": "Sektor Perdagangan",
            "tanggal_terbit": "2022-06-27",
            "url_tdpse_detail": "https://pse.komdigi.go.id/tdpse-detail/4787",
            "website": "GRIYABAYAR.COM"
        },
        {
            "id": "9cb1aba4-28d8-4972-af0e-045fb29c0b27",
            "nama_pse": "SOLUSINDO BINTANG PRATAMA",
            "nama_se": "SOLUSINDO BINTANG PRATAMA",
            "sektor": "Sektor Teknologi Informasi dan Komunikasi",
            "tanggal_terbit": "2022-06-27",
            "url_tdpse_detail": "https://pse.komdigi.go.id/tdpse-detail/4791",
            "website": "sbp.net.id"
        },
        {
            "id": "9cb1aba4-2bd3-495f-95f2-619f943b9224",
            "nama_pse": "HARAKA AGRO HATAMA",
            "nama_se": "HARAKA AGRO",
            "sektor": "Sektor Perdagangan",
            "tanggal_terbit": "2022-06-27",
            "url_tdpse_detail": "https://pse.komdigi.go.id/tdpse-detail/4792",
            "website": "harakaagro.com"
        },
        {
            "id": "9cb1aba4-2e62-4b5b-8558-a755f7253bf4",
            "nama_pse": "RASIO DIGITAL INVESTAMA",
            "nama_se": "QIRA",
            "sektor": "Sektor Keuangan",
            "tanggal_terbit": "2022-06-27",
            "url_tdpse_detail": "https://pse.komdigi.go.id/tdpse-detail/4793",
            "website": "-"
        },
        {
            "id": "9cb1aba4-30c2-42fe-8d5b-61a5ab1cc701",
            "nama_pse": "AKSI VISITAMA",
            "nama_se": "TADA",
            "sektor": "Sektor Teknologi Informasi dan Komunikasi",
            "tanggal_terbit": "2022-06-27",
            "url_tdpse_detail": "https://pse.komdigi.go.id/tdpse-detail/4794",
            "website": "usetada.com"
        },
        {
            "id": "9cb1aba4-3406-45ce-b28b-a854f44641f0",
            "nama_pse": "BRI DANAREKSA SEKURITAS",
            "nama_se": "BRIGHTS",
            "sektor": "Sektor Keuangan",
            "tanggal_terbit": "2022-06-27",
            "url_tdpse_detail": "https://pse.komdigi.go.id/tdpse-detail/4795",
            "website": "webtrade.brights.co.id"
        },
        {
            "id": "9cb1abae-1733-4488-ba41-2c9cbc2bd683",
            "nama_pse": "HENRI PERWIRA NEGARA",
            "nama_se": "DIBIMBING DOKTER",
            "sektor": "Sektor Kesehatan",
            "tanggal_terbit": "2022-06-27",
            "url_tdpse_detail": "https://pse.komdigi.go.id/tdpse-detail/4796",
            "website": "dibimbingdokter.com"
        },
        {
            "id": "9cb1aba4-38c9-4e10-b30b-d4a92b341ef4",
            "nama_pse": "KONG JAYA PERKASA",
            "nama_se": "MISTERKONG",
            "sektor": "Sektor Perdagangan",
            "tanggal_terbit": "2022-06-27",
            "url_tdpse_detail": "https://pse.komdigi.go.id/tdpse-detail/4798",
            "website": "misterkong.com"
        },
        {
            "id": "9cb1ab98-f298-422f-804b-4638d3c4fe25",
            "nama_pse": "KONG JAYA PERKASA",
            "nama_se": "KONGPOS",
            "sektor": "Sektor Perdagangan",
            "tanggal_terbit": "2022-06-27",
            "url_tdpse_detail": "https://pse.komdigi.go.id/tdpse-detail/4799",
            "website": "misterkong.com"
        },
        {
            "id": "9cb1abae-18f6-4ed3-b080-03d73a99a1a9",
            "nama_pse": "KONG JAYA PERKASA",
            "nama_se": "KONG RIDER",
            "sektor": "Sektor Transportasi",
            "tanggal_terbit": "2022-06-27",
            "url_tdpse_detail": "https://pse.komdigi.go.id/tdpse-detail/4800",
            "website": "misterkong.com"
        },
        {
            "id": "9cb1aba4-3c8b-405c-b206-6b7db9229573",
            "nama_pse": "PERDANA NETWORK INDONESIA",
            "nama_se": "PERDANA NETWORK INDONESIA",
            "sektor": "Sektor Perdagangan, Sektor Teknologi Informasi dan Komunikasi",
            "tanggal_terbit": "2022-06-27",
            "url_tdpse_detail": "https://pse.komdigi.go.id/tdpse-detail/4801",
            "website": "perdananetwork.id"
        },
        {
            "id": "9cb1aba4-3f0c-4ab5-bffd-2bec84f87086",
            "nama_pse": "LKP Master Course",
            "nama_se": "LKP MASTER COURSE",
            "sektor": "Sektor Perdagangan, Sektor Teknologi Informasi dan Komunikasi",
            "tanggal_terbit": "2022-06-27",
            "url_tdpse_detail": "https://pse.komdigi.go.id/tdpse-detail/4802",
            "website": "mastercourse.ac.id"
        },
        {
            "id": "9cb1abae-1aba-4ae9-9307-9aed12c38c7e",
            "nama_pse": "PRASETIA DWIDHARMA TEKNOLOGI",
            "nama_se": "WWW.PDT.CO.ID",
            "sektor": "Sektor Teknologi Informasi dan Komunikasi",
            "tanggal_terbit": "2022-06-27",
            "url_tdpse_detail": "https://pse.komdigi.go.id/tdpse-detail/4803",
            "website": "pdt.co.id"
        },
        {
            "id": "9cb1ab98-dba1-45f8-aa6f-1956f34f5edd",
            "nama_pse": "ADI UTAMA SYAHPUTRA",
            "nama_se": "DIENYCTRAVELBALI RENT CAR",
            "sektor": "Sektor Transportasi",
            "tanggal_terbit": "2022-06-26",
            "url_tdpse_detail": "https://pse.komdigi.go.id/tdpse-detail/4775",
            "website": "-"
        },
        {
            "id": "9cb1ab98-e4c9-437d-acee-c21108d27bf6",
            "nama_pse": "ASEP ROHIMAT",
            "nama_se": "TIDAK ADA ATAU SUDAH TIDAK DIJALANKAN",
            "sektor": "Sektor Teknologi Informasi dan Komunikasi",
            "tanggal_terbit": "2022-06-26",
            "url_tdpse_detail": "https://pse.komdigi.go.id/tdpse-detail/4776",
            "website": "-"
        },
        {
            "id": "9cb1abae-08c7-45a5-88c6-5e2c470ada7e",
            "nama_pse": "ASEP ROHIMAT",
            "nama_se": "TIDAK ADA ATAU SUDAH TIDAK BERJALAN",
            "sektor": "Sektor Teknologi Informasi dan Komunikasi",
            "tanggal_terbit": "2022-06-26",
            "url_tdpse_detail": "https://pse.komdigi.go.id/tdpse-detail/4777",
            "website": "-"
        },
        {
            "id": "9cb1aba4-2608-4811-9c42-93566991d358",
            "nama_pse": "ALPHA MAHAJAYA GEMILANG ABADI",
            "nama_se": "AMGA",
            "sektor": "Sektor Perdagangan, Sektor Teknologi Informasi dan Komunikasi",
            "tanggal_terbit": "2022-06-26",
            "url_tdpse_detail": "https://pse.komdigi.go.id/tdpse-detail/4778",
            "website": "amga.co.id"
        },
        {
            "id": "9cb1abad-f854-4a7b-83b5-9ca66696113c",
            "nama_pse": "ENGGAR PRASETYAWAN",
            "nama_se": "HDONETWORK",
            "sektor": "Sektor Perdagangan, Sektor Teknologi Informasi dan Komunikasi",
            "tanggal_terbit": "2022-06-25",
            "url_tdpse_detail": "https://pse.komdigi.go.id/tdpse-detail/4755",
            "website": "hdonetworkconsultant.web.id"
        },
        {
            "id": "9cb1ab98-cd65-4672-abe3-f64441074631",
            "nama_pse": "BANTUDESA KARYA INDONESIA",
            "nama_se": "BATANGTORU.ID",
            "sektor": "Sektor Teknologi Informasi dan Komunikasi",
            "tanggal_terbit": "2022-06-25",
            "url_tdpse_detail": "https://pse.komdigi.go.id/tdpse-detail/4756",
            "website": "batangtoru.id"
        },
        {
            "id": "9cb1abad-fa01-45bd-ad7d-89473d334ea5",
            "nama_pse": "CIPTALOKA INTERMEDIA NUSANTARA",
            "nama_se": "CIPTALOKA.COM",
            "sektor": "Sektor Perdagangan",
            "tanggal_terbit": "2022-06-25",
            "url_tdpse_detail": "https://pse.komdigi.go.id/tdpse-detail/4758",
            "website": "ciptaloka.com"
        },
        {
            "id": "9cb1abad-fba0-41db-a677-5b2fa1f3f66c",
            "nama_pse": "ABDUL HAMID",
            "nama_se": "PT. SUDUT LIMAPULUHKOTA MEDIA",
            "sektor": "Sektor Teknologi Informasi dan Komunikasi",
            "tanggal_terbit": "2022-06-25",
            "url_tdpse_detail": "https://pse.komdigi.go.id/tdpse-detail/4759",
            "website": "sudutlimapuluhkota.com"
        },
        {
            "id": "9cb1aba4-1727-42e0-950f-00138273d4cc",
            "nama_pse": "TANTO INTIM LINE",
            "nama_se": "TANTOLINK",
            "sektor": "Sektor Transportasi",
            "tanggal_terbit": "2022-06-25",
            "url_tdpse_detail": "https://pse.komdigi.go.id/tdpse-detail/4760",
            "website": "tantonet.com"
        },
        {
            "id": "9cb1abad-fd57-471d-be04-25f25cf9e2fb",
            "nama_pse": "BANTUDESA KARYA INDONESIA",
            "nama_se": "MULIOREJO-DESA.ID",
            "sektor": "Sektor Perdagangan, Sektor Teknologi Informasi dan Komunikasi",
            "tanggal_terbit": "2022-06-25",
            "url_tdpse_detail": "https://pse.komdigi.go.id/tdpse-detail/4761",
            "website": "muliorejo-desa.id"
        },
        {
            "id": "9cb1abad-ffc4-41dc-be4b-d7fec75a4f35",
            "nama_pse": "UD. Pasifik Indah Garment",
            "nama_se": "ULKALOKA",
            "sektor": "Sektor Perdagangan",
            "tanggal_terbit": "2022-06-25",
            "url_tdpse_detail": "https://pse.komdigi.go.id/tdpse-detail/4762",
            "website": "ulkaloka.com"
        },
        {
            "id": "9cb1aba4-1a20-41f8-81e3-1e30b11f44dd",
            "nama_pse": "ALAM TRANSERVICE NUSANTARA",
            "nama_se": "ALTRANUSA.COM",
            "sektor": "Sektor Transportasi",
            "tanggal_terbit": "2022-06-25",
            "url_tdpse_detail": "https://pse.komdigi.go.id/tdpse-detail/4763",
            "website": "altranusa.com"
        },
        {
            "id": "9cb1abae-018b-422b-b8ff-300f900a707b",
            "nama_pse": "ZEMANGAT ANAK BANGSA",
            "nama_se": "ZEMANGAT",
            "sektor": "Sektor Teknologi Informasi dan Komunikasi",
            "tanggal_terbit": "2022-06-25",
            "url_tdpse_detail": "https://pse.komdigi.go.id/tdpse-detail/4764",
            "website": "zemangat.com"
        },
        {
            "id": "9cb1abae-035a-432d-a072-a74e9ee1e9e2",
            "nama_pse": "JAVA CONSULTING INDONESIA",
            "nama_se": "JPAYROLL",
            "sektor": "Sektor Teknologi Informasi dan Komunikasi",
            "tanggal_terbit": "2022-06-25",
            "url_tdpse_detail": "https://pse.komdigi.go.id/tdpse-detail/4765",
            "website": "jpayroll.com"
        },
        {
            "id": "9cb1aba4-1d74-493c-8aa6-6d660e0c3737",
            "nama_pse": "ANAKJURAGAN AURA DIGITAL",
            "nama_se": "ANAKJURAGAN",
            "sektor": "Sektor Perdagangan, Sektor Teknologi Informasi dan Komunikasi",
            "tanggal_terbit": "2022-06-25",
            "url_tdpse_detail": "https://pse.komdigi.go.id/tdpse-detail/4766",
            "website": "anakjuragan.com"
        },
        {
            "id": "9cb1aba4-1fe2-4078-830f-5c7b0841c521",
            "nama_pse": "APLIKASI CARI BOS",
            "nama_se": "CARIBOSS",
            "sektor": "Sektor Teknologi Informasi dan Komunikasi",
            "tanggal_terbit": "2022-06-25",
            "url_tdpse_detail": "https://pse.komdigi.go.id/tdpse-detail/4767",
            "website": "cariboss.id"
        },
        {
            "id": "9cb1ab98-d17a-4c34-bfc2-600848449a7c",
            "nama_pse": "LINKGO METRO TEKNOLOGI",
            "nama_se": "HOSTNIC",
            "sektor": "Sektor Teknologi Informasi dan Komunikasi",
            "tanggal_terbit": "2022-06-25",
            "url_tdpse_detail": "https://pse.komdigi.go.id/tdpse-detail/4768",
            "website": "hostnic.id"
        },
        {
            "id": "9cb1abae-056e-495d-bede-011d3be59f9c",
            "nama_pse": "LINKGO METRO TEKNOLOGI",
            "nama_se": "ELASTIS",
            "sektor": "Sektor Teknologi Informasi dan Komunikasi",
            "tanggal_terbit": "2022-06-25",
            "url_tdpse_detail": "https://pse.komdigi.go.id/tdpse-detail/4769",
            "website": "elastis.id"
        },
        {
            "id": "9cb1aba4-227c-46cf-9cbc-2d9685f6417d",
            "nama_pse": "NOVA NOVI SHOP",
            "nama_se": "PT NOVA NOVI SHOP",
            "sektor": "Sektor Perdagangan, Sektor Transportasi, Sektor Teknologi Informasi dan Komunikasi",
            "tanggal_terbit": "2022-06-25",
            "url_tdpse_detail": "https://pse.komdigi.go.id/tdpse-detail/4770",
            "website": "novanovishop.co.id"
        },
        {
            "id": "9cb1ab98-d479-46db-9874-827ff3597b9c",
            "nama_pse": "BERDARING INDONESIA",
            "nama_se": "BERDARING.COM",
            "sektor": "Sektor Perdagangan, Sektor Teknologi Informasi dan Komunikasi",
            "tanggal_terbit": "2022-06-25",
            "url_tdpse_detail": "https://pse.komdigi.go.id/tdpse-detail/4772",
            "website": "berdaring.com"
        },
        {
            "id": "9cb1ab98-d6ee-4a59-9827-d68f585d3fdc",
            "nama_pse": "BERDARING INDONESIA",
            "nama_se": "SISTEM INTEGRASI PELAYANAN DESA (SIPDESA)",
            "sektor": "Sektor Teknologi Informasi dan Komunikasi",
            "tanggal_terbit": "2022-06-25",
            "url_tdpse_detail": "https://pse.komdigi.go.id/tdpse-detail/4773",
            "website": "-"
        },
        {
            "id": "9cb1abae-071c-4303-b748-0027f0d65f46",
            "nama_pse": "BERDARING INDONESIA",
            "nama_se": "BERDARING INDONESIA",
            "sektor": "Sektor Teknologi Informasi dan Komunikasi",
            "tanggal_terbit": "2022-06-25",
            "url_tdpse_detail": "https://pse.komdigi.go.id/tdpse-detail/4774",
            "website": "-"
        },
        {
            "id": "9cb1aba1-f18b-4034-bfda-bb5e0aa32772",
            "nama_pse": "PENDANAAN TEKNOLOGI NUSA",
            "nama_se": "KTA KILAT",
            "sektor": "Sektor Keuangan, Sektor Teknologi Informasi dan Komunikasi",
            "tanggal_terbit": "2022-06-24",
            "url_tdpse_detail": "https://pse.komdigi.go.id/tdpse-detail/4722",
            "website": "pendanaan.com"
        },
        {
            "id": "9cb1aba4-00a4-47ef-b712-3914317923db",
            "nama_pse": "OWLINE TEKNOLOGI NUSANTARA",
            "nama_se": "AKUNTANSIKU",
            "sektor": "Sektor Teknologi Informasi dan Komunikasi",
            "tanggal_terbit": "2022-06-24",
            "url_tdpse_detail": "https://pse.komdigi.go.id/tdpse-detail/4721",
            "website": "akuntansiku.co.id"
        },
        {
            "id": "9cb1abad-eb21-414a-8387-7606a3056ddc",
            "nama_pse": "MEGA FINANCE",
            "nama_se": "PT MEGA FINANCE",
            "sektor": "Sektor Keuangan",
            "tanggal_terbit": "2022-06-24",
            "url_tdpse_detail": "https://pse.komdigi.go.id/tdpse-detail/4723",
            "website": "megafinance.co.id"
        }
    ],
    "processingTimeMs": 6,
    "query": "",
    "totalHits": 19131,
    "hitsPerPage": 50,
    "page": 296,
    "totalPages": 383
}