{
    "hits": [
        {
            "id": "9cb1ac69-9e97-4bba-8051-8860341e5343",
            "nama_pse": "INSPIRASI AKSARA DIGITAL",
            "nama_se": "KERJOO",
            "sektor": "Sektor Teknologi Informasi dan Komunikasi",
            "tanggal_terbit": "2024-02-07",
            "url_tdpse_detail": "https://pse.komdigi.go.id/tdpse-detail/17707",
            "website": "kerjoo.com"
        },
        {
            "id": "9cb1ac69-a1a4-4d3f-8b07-292c5f2ae118",
            "nama_pse": "MEDIA CREATIVE PRODUCTION",
            "nama_se": "VZPAY",
            "sektor": "Sektor Perdagangan",
            "tanggal_terbit": "2024-02-07",
            "url_tdpse_detail": "https://pse.komdigi.go.id/tdpse-detail/17709",
            "website": "vzpay.id"
        },
        {
            "id": "9cb1ac69-a4da-4c98-8ab3-be0ca56a4a74",
            "nama_pse": "ACCESS MOBILE INDONESIA",
            "nama_se": "XLIOCRM",
            "sektor": "Sektor Teknologi Informasi dan Komunikasi",
            "tanggal_terbit": "2024-02-07",
            "url_tdpse_detail": "https://pse.komdigi.go.id/tdpse-detail/17710",
            "website": "xliocrm.com"
        },
        {
            "id": "9cb1ac7d-3424-4591-b825-7cd521610006",
            "nama_pse": "ANUGERAH BERDJAYA CEMERLANG",
            "nama_se": "WWW.IRROHACONSULTING.COM",
            "sektor": "Sektor Perdagangan",
            "tanggal_terbit": "2024-02-06",
            "url_tdpse_detail": "https://pse.komdigi.go.id/tdpse-detail/17685",
            "website": "-"
        },
        {
            "id": "9cb1ac7d-3074-4bae-945e-66744d00f6cf",
            "nama_pse": "HARAPAN KELUARGA BAHAGIA",
            "nama_se": "SIMRS KHANZA",
            "sektor": "Sektor Kesehatan",
            "tanggal_terbit": "2024-02-06",
            "url_tdpse_detail": "https://pse.komdigi.go.id/tdpse-detail/17684",
            "website": "-"
        },
        {
            "id": "9cb1ac55-135d-4754-922b-a2a2bd46657d",
            "nama_pse": "BANK PEMBANGUNAN DAERAH SULAWESI SELATAN DAN SULAWESI BARAT",
            "nama_se": "CSIRT.BANKSULSELBAR.CO.ID",
            "sektor": "Sektor Teknologi Informasi dan Komunikasi",
            "tanggal_terbit": "2024-02-06",
            "url_tdpse_detail": "https://pse.komdigi.go.id/tdpse-detail/17683",
            "website": "csirt.banksulselbar.co.id"
        },
        {
            "id": "9cb1ac69-81ad-4b5b-bfab-9ec5527ffc73",
            "nama_pse": "DIGITALISASI KESEJAHTERAAN UMMAT",
            "nama_se": "DKU INDONESIA",
            "sektor": "Sektor Teknologi Informasi dan Komunikasi",
            "tanggal_terbit": "2024-02-06",
            "url_tdpse_detail": "https://pse.komdigi.go.id/tdpse-detail/17686",
            "website": "dkuindonesia.co.id"
        },
        {
            "id": "9cb1ac69-8c58-47e7-91ef-23bc7be381f1",
            "nama_pse": "AWAN DATA SEMESTA",
            "nama_se": "AWAN DATA SEMESTA",
            "sektor": "Sektor Teknologi Informasi dan Komunikasi",
            "tanggal_terbit": "2024-02-06",
            "url_tdpse_detail": "https://pse.komdigi.go.id/tdpse-detail/17687",
            "website": "adstech.id"
        },
        {
            "id": "9cb1ac7d-37ab-4f7e-a082-8790d18fc309",
            "nama_pse": "AS-SYIFA AL-KHOERIYYAH",
            "nama_se": "KLINIK AS-SYIFA MEDIKA",
            "sektor": "Sektor Kesehatan, Sektor Teknologi Informasi dan Komunikasi",
            "tanggal_terbit": "2024-02-06",
            "url_tdpse_detail": "https://pse.komdigi.go.id/tdpse-detail/17688",
            "website": "klinik.assyifa.net"
        },
        {
            "id": "9cb1ac7d-3aff-41b7-9b9a-9859baf900ac",
            "nama_pse": "MEDIA SINDO TUJUH",
            "nama_se": "SINDO7.COM",
            "sektor": "Sektor Teknologi Informasi dan Komunikasi",
            "tanggal_terbit": "2024-02-06",
            "url_tdpse_detail": "https://pse.komdigi.go.id/tdpse-detail/17689",
            "website": "sindo7.com"
        },
        {
            "id": "9cb1ac69-8fa5-4d83-84fc-fd1cea23e364",
            "nama_pse": "BALAI LELANG INTERNUSA",
            "nama_se": "TOKOLELANG",
            "sektor": "Sektor Perdagangan",
            "tanggal_terbit": "2024-02-06",
            "url_tdpse_detail": "https://pse.komdigi.go.id/tdpse-detail/17690",
            "website": "tokolelang.id"
        },
        {
            "id": "9cb1ac69-95a0-488f-b0a2-5d40c86fbd44",
            "nama_pse": "KONEKSI GLOBAL TEKHNOLOGI",
            "nama_se": "RANJAUDARAT",
            "sektor": "Sektor Teknologi Informasi dan Komunikasi",
            "tanggal_terbit": "2024-02-06",
            "url_tdpse_detail": "https://pse.komdigi.go.id/tdpse-detail/17692",
            "website": "ranjaudarat.com"
        },
        {
            "id": "9cb1ac55-19fc-4fc8-8681-eee239db1b89",
            "nama_pse": "PADMADITRA ICT SOLUTION",
            "nama_se": "MSI",
            "sektor": "Sektor Teknologi Informasi dan Komunikasi",
            "tanggal_terbit": "2024-02-06",
            "url_tdpse_detail": "https://pse.komdigi.go.id/tdpse-detail/17691",
            "website": "-"
        },
        {
            "id": "9cb1ac69-98af-42a7-82fa-f7ce0b2e47ae",
            "nama_pse": "WEBPAKAR",
            "nama_se": "SIM KLINIK",
            "sektor": "Sektor Kesehatan",
            "tanggal_terbit": "2024-02-06",
            "url_tdpse_detail": "https://pse.komdigi.go.id/tdpse-detail/17693",
            "website": "-"
        },
        {
            "id": "9cb1ac7d-3fac-40bc-b92d-a8895b05e22c",
            "nama_pse": "KUTA CEMERLANG BALI JAYA",
            "nama_se": "TRAVGO.COM",
            "sektor": "Sektor Perdagangan",
            "tanggal_terbit": "2024-02-06",
            "url_tdpse_detail": "https://pse.komdigi.go.id/tdpse-detail/17694",
            "website": "travgo.com"
        },
        {
            "id": "9cb1ac55-2253-4cc4-9b05-bd85b8e092cc",
            "nama_pse": "MUMASA GRUP DIGITAL",
            "nama_se": "JUALPULSAAJA",
            "sektor": "Sektor Perdagangan, Sektor Teknologi Informasi dan Komunikasi",
            "tanggal_terbit": "2024-02-06",
            "url_tdpse_detail": "https://pse.komdigi.go.id/tdpse-detail/17695",
            "website": "jualpulsaaja.com"
        },
        {
            "id": "9cb1ac55-25ac-44d4-9018-36427be56806",
            "nama_pse": "TATA NIAGA INTERCONTINENTAL",
            "nama_se": "TANIA DIGITAL",
            "sektor": "Sektor Perdagangan, Sektor Teknologi Informasi dan Komunikasi",
            "tanggal_terbit": "2024-02-06",
            "url_tdpse_detail": "https://pse.komdigi.go.id/tdpse-detail/17696",
            "website": "-"
        },
        {
            "id": "9cb1ac54-2d01-45df-b3dd-04d1af9a2ce4",
            "nama_pse": "WIJAYA KARYA INDUSTRI ENERGI",
            "nama_se": "WIKA SMART WATER HEATER WH WISH",
            "sektor": "Sektor Teknologi Informasi dan Komunikasi",
            "tanggal_terbit": "2024-02-05",
            "url_tdpse_detail": "https://pse.komdigi.go.id/tdpse-detail/17664",
            "website": "wikaenergi.com"
        },
        {
            "id": "9cb1ac67-d136-4514-8b5e-9f163bf9eab5",
            "nama_pse": "PRAWATHIYA KARSA PRADIPTHA",
            "nama_se": "INDONESIA CLINICAL DATABASE CENTER (INACDC)",
            "sektor": "Sektor Kesehatan, Sektor Teknologi Informasi dan Komunikasi",
            "tanggal_terbit": "2024-02-05",
            "url_tdpse_detail": "https://pse.komdigi.go.id/tdpse-detail/17655",
            "website": "inacdc.id"
        },
        {
            "id": "9cb1ac7d-1bea-4887-881a-b0487a6eca94",
            "nama_pse": "TIGA BERSAUDARA MENGABDI",
            "nama_se": "KHAMALIA",
            "sektor": "Sektor Kesehatan, Sektor Teknologi Informasi dan Komunikasi",
            "tanggal_terbit": "2024-02-05",
            "url_tdpse_detail": "https://pse.komdigi.go.id/tdpse-detail/17667",
            "website": "rsamaliabontang.com"
        },
        {
            "id": "9cb1ac68-105a-431a-b8c8-957312ab4c59",
            "nama_pse": "DIGITAL MAJU TENTRAM",
            "nama_se": "SISPADES.COM",
            "sektor": "Sektor Teknologi Informasi dan Komunikasi",
            "tanggal_terbit": "2024-02-05",
            "url_tdpse_detail": "https://pse.komdigi.go.id/tdpse-detail/17656",
            "website": "sispades.com"
        },
        {
            "id": "9cb1ac69-0b47-4f35-9afa-9d259f06ae15",
            "nama_pse": "DALFINDO CIPTA KARYA",
            "nama_se": "QUR'AN FOR MOBILE",
            "sektor": "Sektor Teknologi Informasi dan Komunikasi",
            "tanggal_terbit": "2024-02-05",
            "url_tdpse_detail": "https://pse.komdigi.go.id/tdpse-detail/17650",
            "website": "quranformobile.com"
        },
        {
            "id": "9cb1ac54-e4e9-4072-9a04-6e053a73b62a",
            "nama_pse": "GSMART SOLUSI TEKNOLOGI",
            "nama_se": "SMART MEDICQ",
            "sektor": "Sektor Kesehatan",
            "tanggal_terbit": "2024-02-05",
            "url_tdpse_detail": "https://pse.komdigi.go.id/tdpse-detail/17651",
            "website": "smartmedic.gsmart-it.net"
        },
        {
            "id": "9cb1ac69-4538-438e-b3b7-3c17324daf6e",
            "nama_pse": "INTEGRASI LOGISTIK CIPTA SOLUSI",
            "nama_se": "SIM PHC MEDAN",
            "sektor": "Sektor Kesehatan, Sektor Teknologi Informasi dan Komunikasi",
            "tanggal_terbit": "2024-02-05",
            "url_tdpse_detail": "https://pse.komdigi.go.id/tdpse-detail/17653",
            "website": "sim.phcm.co.id"
        },
        {
            "id": "9cb1ac69-4962-4264-b055-8a46c9095149",
            "nama_pse": "SHAPE-UP INDONESIA",
            "nama_se": "E-LIGHT",
            "sektor": "Sektor Kesehatan",
            "tanggal_terbit": "2024-02-05",
            "url_tdpse_detail": "https://pse.komdigi.go.id/tdpse-detail/17658",
            "website": "-"
        },
        {
            "id": "9cb1ac54-f18b-436c-987f-432bfedab021",
            "nama_pse": "FLAMBOYAN",
            "nama_se": "MEDICINE",
            "sektor": "Sektor Kesehatan, Sektor Teknologi Informasi dan Komunikasi",
            "tanggal_terbit": "2024-02-05",
            "url_tdpse_detail": "https://pse.komdigi.go.id/tdpse-detail/17662",
            "website": "ntechindonesia.com"
        },
        {
            "id": "9cb1ac7d-183a-4273-97cf-84c0cd64d38c",
            "nama_pse": "ALOMOGADA MANDIRI NUSANTARA",
            "nama_se": "TAMBAH SALDO",
            "sektor": "Sektor Perdagangan",
            "tanggal_terbit": "2024-02-05",
            "url_tdpse_detail": "https://pse.komdigi.go.id/tdpse-detail/17663",
            "website": "alomogada.com"
        },
        {
            "id": "9cb1ac54-f46e-4680-a68e-87f85d72b6aa",
            "nama_pse": "BERLIAN ARTHA ABADI",
            "nama_se": "MEDICINE SIMRS",
            "sektor": "Sektor Kesehatan, Sektor Teknologi Informasi dan Komunikasi",
            "tanggal_terbit": "2024-02-05",
            "url_tdpse_detail": "https://pse.komdigi.go.id/tdpse-detail/18722",
            "website": "-"
        },
        {
            "id": "9cb1ac7d-1f5b-43b0-9307-b8219df9c6a7",
            "nama_pse": "GENERASI NASIONAL CERDAS",
            "nama_se": "GNC PAYMENT",
            "sektor": "Sektor Perdagangan",
            "tanggal_terbit": "2024-02-05",
            "url_tdpse_detail": "https://pse.komdigi.go.id/tdpse-detail/17669",
            "website": "-"
        },
        {
            "id": "9cb1ac69-533b-4cc0-a605-e914f09e4237",
            "nama_pse": "KAMARDI ISYE FAMILI",
            "nama_se": "SIMRS ROPANASURI",
            "sektor": "Sektor Kesehatan",
            "tanggal_terbit": "2024-02-05",
            "url_tdpse_detail": "https://pse.komdigi.go.id/tdpse-detail/17670",
            "website": "-"
        },
        {
            "id": "9cb1ac54-fd7f-4fa5-88f8-fd96cb631eb4",
            "nama_pse": "SAUDAGAR TELEKOMUNIKA INDONESIA",
            "nama_se": "SARTEL",
            "sektor": "Sektor Perdagangan, Sektor Teknologi Informasi dan Komunikasi",
            "tanggal_terbit": "2024-02-05",
            "url_tdpse_detail": "https://pse.komdigi.go.id/tdpse-detail/17671",
            "website": "sartel-ind.com"
        },
        {
            "id": "9cb1ac7d-2516-4086-8844-24c17657c542",
            "nama_pse": "MUHAMAD ALIAMSYAH",
            "nama_se": "REKAM MEDIS ELEKTRONIK",
            "sektor": "Sektor Kesehatan",
            "tanggal_terbit": "2024-02-05",
            "url_tdpse_detail": "https://pse.komdigi.go.id/tdpse-detail/17672",
            "website": "-"
        },
        {
            "id": "9cb1ac69-5642-4152-934b-e9cb0f34bcd7",
            "nama_pse": "JAK-KLIK",
            "nama_se": "SIPINTER",
            "sektor": "Sektor Kesehatan, Sektor Teknologi Informasi dan Komunikasi",
            "tanggal_terbit": "2024-02-05",
            "url_tdpse_detail": "https://pse.komdigi.go.id/tdpse-detail/17673",
            "website": "sipinter.id"
        },
        {
            "id": "9cb1ac55-00a1-408f-b467-c6d592e4ff08",
            "nama_pse": "SULTRA POS INDONESIA",
            "nama_se": "SAGIASULTRA.ID",
            "sektor": "Sektor Teknologi Informasi dan Komunikasi",
            "tanggal_terbit": "2024-02-05",
            "url_tdpse_detail": "https://pse.komdigi.go.id/tdpse-detail/17674",
            "website": "sagiasultra.id"
        },
        {
            "id": "9cb1ac55-0429-4c3a-bfed-a7a6266d6beb",
            "nama_pse": "MULTI REZEKI PERKASA",
            "nama_se": "MRP RELOAD",
            "sektor": "Sektor Perdagangan, Sektor Teknologi Informasi dan Komunikasi",
            "tanggal_terbit": "2024-02-05",
            "url_tdpse_detail": "https://pse.komdigi.go.id/tdpse-detail/17678",
            "website": "-"
        },
        {
            "id": "9cb1ac55-0e63-418e-a900-c827c29698af",
            "nama_pse": "ORITEL PAYMENT",
            "nama_se": "ORITELPAY",
            "sektor": "Sektor Perdagangan, Sektor Teknologi Informasi dan Komunikasi",
            "tanggal_terbit": "2024-02-05",
            "url_tdpse_detail": "https://pse.komdigi.go.id/tdpse-detail/17676",
            "website": "oritelpay.com"
        },
        {
            "id": "9cb1ac69-596d-49e1-9c7f-1484b1eea316",
            "nama_pse": "MITRA SELERA BERSAMA",
            "nama_se": "U+REWARDS",
            "sektor": "Sektor Pangan",
            "tanggal_terbit": "2024-02-05",
            "url_tdpse_detail": "https://pse.komdigi.go.id/tdpse-detail/17675",
            "website": "uniongroupjakarta.com"
        },
        {
            "id": "9cb1ac69-5c87-418e-848b-4f424afe1784",
            "nama_pse": "ERNET GLOBAL INTERNASIONAL",
            "nama_se": "DASH.EPOINT.DEV",
            "sektor": "Sektor Perdagangan",
            "tanggal_terbit": "2024-02-05",
            "url_tdpse_detail": "https://pse.komdigi.go.id/tdpse-detail/17677",
            "website": "dash.epoint.dev"
        },
        {
            "id": "9cb1ac69-648e-4e43-b27d-01c67f468ece",
            "nama_pse": "KHAIRUL AKBAR",
            "nama_se": "KHAIPAY",
            "sektor": "Sektor Perdagangan, Sektor Teknologi Informasi dan Komunikasi",
            "tanggal_terbit": "2024-02-05",
            "url_tdpse_detail": "https://pse.komdigi.go.id/tdpse-detail/17680",
            "website": "-"
        },
        {
            "id": "9cb1ac7d-2c1e-458a-958c-69828c4505f4",
            "nama_pse": "CODELYFTLAB VENTURES INA",
            "nama_se": "LYFT PAY",
            "sektor": "Sektor Perdagangan",
            "tanggal_terbit": "2024-02-05",
            "url_tdpse_detail": "https://pse.komdigi.go.id/tdpse-detail/17682",
            "website": "-"
        },
        {
            "id": "9cb1ac7c-c4f3-4872-801a-917e4d318fc4",
            "nama_pse": "PASARPOLIS INSURANCE BROKER",
            "nama_se": "TAP-PARTNER APPS",
            "sektor": "Sektor Keuangan",
            "tanggal_terbit": "2024-02-04",
            "url_tdpse_detail": "https://pse.komdigi.go.id/tdpse-detail/17646",
            "website": "-"
        },
        {
            "id": "9cb1ac7c-cd09-4e24-b44c-3d20d60d6515",
            "nama_pse": "XELLAR TEKNOLOGI INDONESIA",
            "nama_se": "XELLAR",
            "sektor": "Sektor Perdagangan, Sektor Teknologi Informasi dan Komunikasi",
            "tanggal_terbit": "2024-02-04",
            "url_tdpse_detail": "https://pse.komdigi.go.id/tdpse-detail/17643",
            "website": "-"
        },
        {
            "id": "9cb1ac68-ad3f-41b8-85c2-8c2aa2e26de5",
            "nama_pse": "BANK HIBANK INDONESIA",
            "nama_se": "MOBILE BANKING HIBANK",
            "sektor": "Sektor Keuangan",
            "tanggal_terbit": "2024-02-04",
            "url_tdpse_detail": "https://pse.komdigi.go.id/tdpse-detail/17647",
            "website": "-"
        },
        {
            "id": "9cb1ac7c-d164-48bd-b1c0-3e6c14478aff",
            "nama_pse": "TRADEX MAXIMA GLOBAL",
            "nama_se": "META TRADER 5",
            "sektor": "Sektor Keuangan",
            "tanggal_terbit": "2024-02-04",
            "url_tdpse_detail": "https://pse.komdigi.go.id/tdpse-detail/17648",
            "website": "-"
        },
        {
            "id": "9cb1ac7d-0722-4f4e-b3fb-22f1d95da694",
            "nama_pse": "PRECISE MAJU MANDIRI",
            "nama_se": "KABAYANSHOP",
            "sektor": "Sektor Perdagangan",
            "tanggal_terbit": "2024-02-04",
            "url_tdpse_detail": "https://pse.komdigi.go.id/tdpse-detail/17645",
            "website": "kabayanshop.com"
        },
        {
            "id": "9cb1ac69-01f0-4ced-93b1-c01c0814e214",
            "nama_pse": "AGUNG CIPTA SOLUSINDO",
            "nama_se": "PPOB",
            "sektor": "Sektor Perdagangan, Sektor Teknologi Informasi dan Komunikasi",
            "tanggal_terbit": "2024-02-04",
            "url_tdpse_detail": "https://pse.komdigi.go.id/tdpse-detail/17639",
            "website": "raungpay.com"
        },
        {
            "id": "9cb1ac7c-f5b6-4792-b517-2550d351b9e9",
            "nama_pse": "SUGIYONO",
            "nama_se": "DITEK",
            "sektor": "Sektor Teknologi Informasi dan Komunikasi",
            "tanggal_terbit": "2024-02-04",
            "url_tdpse_detail": "https://pse.komdigi.go.id/tdpse-detail/17640",
            "website": "ditek.id"
        },
        {
            "id": "9cb1ac7c-f953-4e8c-a57d-c04a77e622dc",
            "nama_pse": "ADAM ILYAS",
            "nama_se": "LITERASI HUKUM INDONESIA",
            "sektor": "Sektor Teknologi Informasi dan Komunikasi",
            "tanggal_terbit": "2024-02-04",
            "url_tdpse_detail": "https://pse.komdigi.go.id/tdpse-detail/17641",
            "website": "literasihukum.com"
        },
        {
            "id": "9cb1ac7c-fc81-479b-aacc-8c376010d25e",
            "nama_pse": "BERKAH CENTRE PULSA",
            "nama_se": "SUMBER PULSA",
            "sektor": "Sektor Perdagangan, Sektor Teknologi Informasi dan Komunikasi",
            "tanggal_terbit": "2024-02-04",
            "url_tdpse_detail": "https://pse.komdigi.go.id/tdpse-detail/17642",
            "website": "sumberpulsa.info"
        },
        {
            "id": "9cb1ac7d-01a8-4a6d-8330-6ec43e8c623f",
            "nama_pse": "BUDZ RELOAD MULTIKARYA ABADI",
            "nama_se": "BUDZ RELOAD",
            "sektor": "Sektor Perdagangan",
            "tanggal_terbit": "2024-02-04",
            "url_tdpse_detail": "https://pse.komdigi.go.id/tdpse-detail/17644",
            "website": "-"
        }
    ],
    "processingTimeMs": 1,
    "query": "",
    "totalHits": 19131,
    "hitsPerPage": 50,
    "page": 87,
    "totalPages": 383
}