{
    "hits": [
        {
            "id": "9cb1ac86-5f31-4a7a-b087-72618f650eaa",
            "nama_pse": "PUSAT KREASI RAKYAT",
            "nama_se": "KREYAT CENTER",
            "sektor": "Sektor Perdagangan, Sektor Teknologi Informasi dan Komunikasi",
            "tanggal_terbit": "2024-05-27",
            "url_tdpse_detail": "https://pse.komdigi.go.id/tdpse-detail/19046",
            "website": "kreyatcenter.com"
        },
        {
            "id": "9cb1ac70-ce06-4416-935a-35219ebaa5ee",
            "nama_pse": "RISELL MITRA ASIA",
            "nama_se": "PT RISELL MITRA ASIA",
            "sektor": "Sektor Perdagangan",
            "tanggal_terbit": "2024-05-27",
            "url_tdpse_detail": "https://pse.komdigi.go.id/tdpse-detail/19047",
            "website": "buyvely.com"
        },
        {
            "id": "9cb1ac5b-f274-414c-9bdd-c29dc7a752b3",
            "nama_pse": "VIRTUAL STAF INDONESIA",
            "nama_se": "VIRTUAL STAF INDONESIA",
            "sektor": "Sektor Perdagangan",
            "tanggal_terbit": "2024-05-27",
            "url_tdpse_detail": "https://pse.komdigi.go.id/tdpse-detail/19048",
            "website": "virtualstaf.com"
        },
        {
            "id": "9cb1ac5b-dca8-485d-897e-8d869e996c3e",
            "nama_pse": "GEMALA NUSANTARA SOLUTION",
            "nama_se": "GEMALA NUSANTARA INDONESIA",
            "sektor": "Sektor Perdagangan",
            "tanggal_terbit": "2024-05-26",
            "url_tdpse_detail": "https://pse.komdigi.go.id/tdpse-detail/19033",
            "website": "gemalanusantara.com"
        },
        {
            "id": "9cb1ac5b-d768-41b5-8ce4-20acdc251d4b",
            "nama_pse": "FIKA JAYA NUSANTARA",
            "nama_se": "TOPIKWIFI",
            "sektor": "Sektor Perdagangan",
            "tanggal_terbit": "2024-05-25",
            "url_tdpse_detail": "https://pse.komdigi.go.id/tdpse-detail/19023",
            "website": "-"
        },
        {
            "id": "9cb1ac86-1c9b-44d7-b789-3c1243564cc8",
            "nama_pse": "MUMASA GRUP DIGITAL",
            "nama_se": "HOSTINGAJA.BIZ.ID",
            "sektor": "Sektor Teknologi Informasi dan Komunikasi",
            "tanggal_terbit": "2024-05-25",
            "url_tdpse_detail": "https://pse.komdigi.go.id/tdpse-detail/19024",
            "website": "Hostingaja.biz.id"
        },
        {
            "id": "9cb1ac86-1fab-46a0-bcb9-8ca0ff14e92d",
            "nama_pse": "MUMASA GRUP DIGITAL",
            "nama_se": "RATUBASRENG.COM",
            "sektor": "Sektor Perdagangan, Sektor Teknologi Informasi dan Komunikasi",
            "tanggal_terbit": "2024-05-25",
            "url_tdpse_detail": "https://pse.komdigi.go.id/tdpse-detail/19025",
            "website": "ratubasreng.com"
        },
        {
            "id": "9cb1ac70-b405-4e86-a019-498eab2e6072",
            "nama_pse": "AL FURQON AL ISLAMI",
            "nama_se": "APLIKASI KLINIK AL-IMAN",
            "sektor": "Sektor Kesehatan",
            "tanggal_terbit": "2024-05-25",
            "url_tdpse_detail": "https://pse.komdigi.go.id/tdpse-detail/19026",
            "website": "-"
        },
        {
            "id": "9cb1ac86-233e-49be-9ae2-105932456193",
            "nama_pse": "SIMPLE PAYMENT INDONESIA",
            "nama_se": "SIMPLEPAY",
            "sektor": "Sektor Perdagangan",
            "tanggal_terbit": "2024-05-25",
            "url_tdpse_detail": "https://pse.komdigi.go.id/tdpse-detail/19027",
            "website": "-"
        },
        {
            "id": "9cb1ac5b-da06-4ff1-9ba6-2f5315c9f8f7",
            "nama_pse": "BEDAH NUSANTARA GROUP",
            "nama_se": "BEDAHNUSANTARAINDONESIA.ID",
            "sektor": "Sektor Teknologi Informasi dan Komunikasi",
            "tanggal_terbit": "2024-05-25",
            "url_tdpse_detail": "https://pse.komdigi.go.id/tdpse-detail/19028",
            "website": "bedahnusantaraindonesia.id"
        },
        {
            "id": "9cb1ac86-35b9-4b00-bf21-384ca005edea",
            "nama_pse": "BEDAH NUSANTARA GROUP",
            "nama_se": "RAKYATBERSUARA.COM",
            "sektor": "Sektor Teknologi Informasi dan Komunikasi",
            "tanggal_terbit": "2024-05-25",
            "url_tdpse_detail": "https://pse.komdigi.go.id/tdpse-detail/19029",
            "website": "rakyatbersuara.com"
        },
        {
            "id": "9cb1ac86-3bdd-4aec-b24e-06cfdcf2a6af",
            "nama_pse": "TUJUH DUA GOAL FOOTBALL INVESTMENT",
            "nama_se": "TEKNONOLOGI INFORMASI DAN KOMUNIKASI",
            "sektor": "Sektor Teknologi Informasi dan Komunikasi",
            "tanggal_terbit": "2024-05-25",
            "url_tdpse_detail": "https://pse.komdigi.go.id/tdpse-detail/19030",
            "website": "72goal.org"
        },
        {
            "id": "9cb1ac86-40b7-468b-81e9-d2fde9d82caf",
            "nama_pse": "Uskar Yulinanto",
            "nama_se": "USKARBAIK",
            "sektor": "Sektor Kesehatan",
            "tanggal_terbit": "2024-05-25",
            "url_tdpse_detail": "https://pse.komdigi.go.id/tdpse-detail/19031",
            "website": "-"
        },
        {
            "id": "9cb1ac70-b84f-4a9d-8197-881e8ca76547",
            "nama_pse": "ABIPRAYA SOLUSI KREATIV",
            "nama_se": "POTENSI",
            "sektor": "Sektor Teknologi Informasi dan Komunikasi",
            "tanggal_terbit": "2024-05-25",
            "url_tdpse_detail": "https://pse.komdigi.go.id/tdpse-detail/19032",
            "website": "potensiedu.id"
        },
        {
            "id": "9cb1ac70-856f-4128-8cc3-1bf35f755cad",
            "nama_pse": "RED LOTUS",
            "nama_se": "RED LOTUS",
            "sektor": "Sektor Teknologi Informasi dan Komunikasi",
            "tanggal_terbit": "2024-05-24",
            "url_tdpse_detail": "https://pse.komdigi.go.id/tdpse-detail/19015",
            "website": "redlotusbaliproperty.com"
        },
        {
            "id": "9cb1ac70-9de5-4a2c-a6be-2cfb9ab77b3a",
            "nama_pse": "ALGORITMA HARAPAN DIGITAL",
            "nama_se": "MEDISPRO",
            "sektor": "Sektor Kesehatan, Sektor Teknologi Informasi dan Komunikasi",
            "tanggal_terbit": "2024-05-24",
            "url_tdpse_detail": "https://pse.komdigi.go.id/tdpse-detail/19021",
            "website": "algoritmadigital.com"
        },
        {
            "id": "9cb1ac70-a83f-4540-b794-a827bd6a6f70",
            "nama_pse": "EKA FEBRIANSAH",
            "nama_se": "PANENPAY",
            "sektor": "Sektor Perdagangan",
            "tanggal_terbit": "2024-05-24",
            "url_tdpse_detail": "https://pse.komdigi.go.id/tdpse-detail/19016",
            "website": "-"
        },
        {
            "id": "9cb1ac5b-d4e2-4714-95a0-f4d385ca92ab",
            "nama_pse": "ICIIH MEDIANET SOLUSINDO",
            "nama_se": "ICIIH MEDIANET SOLUSINDO",
            "sektor": "Sektor Teknologi Informasi dan Komunikasi",
            "tanggal_terbit": "2024-05-24",
            "url_tdpse_detail": "https://pse.komdigi.go.id/tdpse-detail/19018",
            "website": "-"
        },
        {
            "id": "9cb1ac86-1974-4053-ad5b-7c52e70b47b5",
            "nama_pse": "UNGGUL CITA ESA",
            "nama_se": "SOLVIX.ID",
            "sektor": "Sektor Perdagangan, Sektor Teknologi Informasi dan Komunikasi",
            "tanggal_terbit": "2024-05-24",
            "url_tdpse_detail": "https://pse.komdigi.go.id/tdpse-detail/19019",
            "website": "solvix.id"
        },
        {
            "id": "9cb1ac70-ac59-43c2-8bce-66dc192fdd00",
            "nama_pse": "PELA SEMBILAN",
            "nama_se": "KP9ES",
            "sektor": "Sektor Kesehatan",
            "tanggal_terbit": "2024-05-24",
            "url_tdpse_detail": "https://pse.komdigi.go.id/tdpse-detail/19020",
            "website": "klinikpela9.com"
        },
        {
            "id": "9cb1ac70-b040-488c-8a28-3f8e9d3a2a5d",
            "nama_pse": "TOP OSING RELOAD",
            "nama_se": "TOPOSINGKU",
            "sektor": "Sektor Perdagangan",
            "tanggal_terbit": "2024-05-24",
            "url_tdpse_detail": "https://pse.komdigi.go.id/tdpse-detail/19022",
            "website": "-"
        },
        {
            "id": "9cb1ac86-0b66-4ce1-b964-afd17db9ba50",
            "nama_pse": "DINIAR BERKAH ENERGI PERKASA",
            "nama_se": "A",
            "sektor": "Sektor Perdagangan",
            "tanggal_terbit": "2024-05-23",
            "url_tdpse_detail": "https://pse.komdigi.go.id/tdpse-detail/19008",
            "website": "-"
        },
        {
            "id": "9cb1ac5b-cd16-4e35-82ad-52e186fafb53",
            "nama_pse": "DINIAR BERKAH ENERGI PERKASA",
            "nama_se": "AB",
            "sektor": "Sektor Perdagangan",
            "tanggal_terbit": "2024-05-23",
            "url_tdpse_detail": "https://pse.komdigi.go.id/tdpse-detail/19009",
            "website": "-"
        },
        {
            "id": "9cb1ac86-0e20-4d6e-a845-0d1474508ad0",
            "nama_pse": "MEDIA SECANCANAN GROUP",
            "nama_se": "LENSASABURAI.ID",
            "sektor": "Sektor Teknologi Informasi dan Komunikasi",
            "tanggal_terbit": "2024-05-23",
            "url_tdpse_detail": "https://pse.komdigi.go.id/tdpse-detail/19010",
            "website": "lensasaburai.id"
        },
        {
            "id": "9cb1ac86-12da-468c-98c1-bb46a972ace7",
            "nama_pse": "METRO MEDIA CORPORA",
            "nama_se": "LAPADNEWS.COM",
            "sektor": "Sektor Teknologi Informasi dan Komunikasi",
            "tanggal_terbit": "2024-05-23",
            "url_tdpse_detail": "https://pse.komdigi.go.id/tdpse-detail/19011",
            "website": "lapadnews.com"
        },
        {
            "id": "9cb1ac5b-cfa6-43e0-abe3-fa2169f13be5",
            "nama_pse": "ERBA HUSADA SEJAHTERA",
            "nama_se": "RME LAB ERBA HUSADA",
            "sektor": "Sektor Kesehatan",
            "tanggal_terbit": "2024-05-23",
            "url_tdpse_detail": "https://pse.komdigi.go.id/tdpse-detail/19012",
            "website": "erbalab.my.id"
        },
        {
            "id": "9cb1ac5b-d210-4588-b9e5-159aa99a4f6a",
            "nama_pse": "METRO MEDIA CORPORA",
            "nama_se": "PICMOTIVNEWS.MY.ID",
            "sektor": "Sektor Teknologi Informasi dan Komunikasi",
            "tanggal_terbit": "2024-05-23",
            "url_tdpse_detail": "https://pse.komdigi.go.id/tdpse-detail/19013",
            "website": "picmotivnews.my.id"
        },
        {
            "id": "9cb1ac70-a1e2-438e-ae76-be42a0317993",
            "nama_pse": "ASEP BURHANUDIN",
            "nama_se": "PASANGSTIKER.COM",
            "sektor": "Sektor Perdagangan",
            "tanggal_terbit": "2024-05-23",
            "url_tdpse_detail": "https://pse.komdigi.go.id/tdpse-detail/19014",
            "website": "pasangstiker.com"
        },
        {
            "id": "9cb1ac5b-9b90-4480-8229-95de29b00d8d",
            "nama_pse": "CALLOUR DIGITAL ASIA",
            "nama_se": "HOSPIMA",
            "sektor": "Sektor Kesehatan",
            "tanggal_terbit": "2024-05-22",
            "url_tdpse_detail": "https://pse.komdigi.go.id/tdpse-detail/18994",
            "website": "-"
        },
        {
            "id": "9cb1ac85-f857-4949-a5dc-416a10845eb0",
            "nama_pse": "APRILIA SUKSES ABADI",
            "nama_se": "AYOKURSUS",
            "sektor": "Sektor Perdagangan",
            "tanggal_terbit": "2024-05-22",
            "url_tdpse_detail": "https://pse.komdigi.go.id/tdpse-detail/19004",
            "website": "ayokursus.us"
        },
        {
            "id": "9cb1ac5b-9e8f-414f-aeb7-facb9d034a06",
            "nama_pse": "PAWAN MITRA BERTUAH",
            "nama_se": "SI-LABKES",
            "sektor": "Sektor Kesehatan",
            "tanggal_terbit": "2024-05-22",
            "url_tdpse_detail": "https://pse.komdigi.go.id/tdpse-detail/18993",
            "website": "basisdataindonesia.my.id"
        },
        {
            "id": "9cb1ac70-6ae5-47e4-b7d2-c6c1c388fe85",
            "nama_pse": "GOJASAKU DIGITAL INDONESIA",
            "nama_se": "LAYANAN PENYEDIA INTERNET LOKAL ( RT RW NET )",
            "sektor": "Sektor Teknologi Informasi dan Komunikasi",
            "tanggal_terbit": "2024-05-22",
            "url_tdpse_detail": "https://pse.komdigi.go.id/tdpse-detail/18986",
            "website": "-"
        },
        {
            "id": "9cb1ac70-7244-4637-b9d9-6ec3c86872a3",
            "nama_pse": "NUANSA PERDANA DIGITAL",
            "nama_se": "NUANSA GAME",
            "sektor": "Sektor Teknologi Informasi dan Komunikasi",
            "tanggal_terbit": "2024-05-22",
            "url_tdpse_detail": "https://pse.komdigi.go.id/tdpse-detail/18988",
            "website": "nuansagame.com"
        },
        {
            "id": "9cb1ac5b-a19c-4268-830f-09ea2a82e204",
            "nama_pse": "ONSTOCK SOLUSI INDONESIA",
            "nama_se": "ONSTOCK APLIKASI",
            "sektor": "Sektor Teknologi Informasi dan Komunikasi",
            "tanggal_terbit": "2024-05-22",
            "url_tdpse_detail": "https://pse.komdigi.go.id/tdpse-detail/18987",
            "website": "-"
        },
        {
            "id": "9cb1ac86-0095-4d97-aab7-78496c01f64f",
            "nama_pse": "ONSTOCK SOLUSI INDONESIA",
            "nama_se": "ONLEAD WEBSITE",
            "sektor": "Sektor Teknologi Informasi dan Komunikasi",
            "tanggal_terbit": "2024-05-22",
            "url_tdpse_detail": "https://pse.komdigi.go.id/tdpse-detail/18989",
            "website": "ONLEAD.ID"
        },
        {
            "id": "9cb1ac5b-a66d-4115-9f52-304851184172",
            "nama_pse": "ATTARSYA DIGITAL SOLUTIONS",
            "nama_se": "BYNETT WIFI",
            "sektor": "Sektor Teknologi Informasi dan Komunikasi",
            "tanggal_terbit": "2024-05-22",
            "url_tdpse_detail": "https://pse.komdigi.go.id/tdpse-detail/18990",
            "website": "attarsyadigitalsolutions.com"
        },
        {
            "id": "9cb1ac70-76f6-40e4-9e5a-7d0e87f68540",
            "nama_pse": "ONSTOCK SOLUSI INDONESIA",
            "nama_se": "ONLEAD APLIKASI",
            "sektor": "Sektor Teknologi Informasi dan Komunikasi",
            "tanggal_terbit": "2024-05-22",
            "url_tdpse_detail": "https://pse.komdigi.go.id/tdpse-detail/18991",
            "website": "-"
        },
        {
            "id": "9cb1ac70-7a78-47eb-b0b8-37f8c7ea71e2",
            "nama_pse": "YANWAR NUGRAHA MANDIRI",
            "nama_se": "KLINIK PRATAMA AEENHA MEDICA",
            "sektor": "Sektor Kesehatan",
            "tanggal_terbit": "2024-05-22",
            "url_tdpse_detail": "https://pse.komdigi.go.id/tdpse-detail/18992",
            "website": "-"
        },
        {
            "id": "9cb1ac5b-b184-4294-a1d6-e381ecfdf51c",
            "nama_pse": "MAHESTRI GLOBAL BILLER",
            "nama_se": "GLOBALBILLER",
            "sektor": "Sektor Perdagangan",
            "tanggal_terbit": "2024-05-22",
            "url_tdpse_detail": "https://pse.komdigi.go.id/tdpse-detail/18995",
            "website": "-"
        },
        {
            "id": "9cb1ac86-043a-4f1e-952b-ca16b2fbb278",
            "nama_pse": "MENGGAPAI BINTANG ANGKASA",
            "nama_se": "GROUU",
            "sektor": "Sektor Perdagangan",
            "tanggal_terbit": "2024-05-22",
            "url_tdpse_detail": "https://pse.komdigi.go.id/tdpse-detail/18998",
            "website": "grouu.id"
        },
        {
            "id": "9cb1ac5b-b599-4c20-972e-2d265eac125d",
            "nama_pse": "ONSTOCK SOLUSI INDONESIA",
            "nama_se": "TROFI WEBSITE",
            "sektor": "Sektor Teknologi Informasi dan Komunikasi",
            "tanggal_terbit": "2024-05-22",
            "url_tdpse_detail": "https://pse.komdigi.go.id/tdpse-detail/18997",
            "website": "TROFIAPP.ID"
        },
        {
            "id": "9cb1ac86-077f-4556-95a1-ff2dadf3ad34",
            "nama_pse": "ONSTOCK SOLUSI INDONESIA",
            "nama_se": "TROFI APLIKASI",
            "sektor": "Sektor Teknologi Informasi dan Komunikasi",
            "tanggal_terbit": "2024-05-22",
            "url_tdpse_detail": "https://pse.komdigi.go.id/tdpse-detail/18999",
            "website": "-"
        },
        {
            "id": "9cb1ac70-8925-4bbc-a08c-e88a095fffa3",
            "nama_pse": "SEWU SEGAR PRIMATAMA",
            "nama_se": "RE.JUVE",
            "sektor": "Sektor Perdagangan, Sektor Teknologi Informasi dan Komunikasi",
            "tanggal_terbit": "2024-05-22",
            "url_tdpse_detail": "https://pse.komdigi.go.id/tdpse-detail/19000",
            "website": "rejuve.co.id"
        },
        {
            "id": "9cb1ac5b-b969-4270-b1a9-bcac582b1bfe",
            "nama_pse": "EVOTECH DISTRIBUSI",
            "nama_se": "JALANTARA.ID",
            "sektor": "Sektor Perdagangan",
            "tanggal_terbit": "2024-05-22",
            "url_tdpse_detail": "https://pse.komdigi.go.id/tdpse-detail/19001",
            "website": "jalantara.id"
        },
        {
            "id": "9cb1ac70-8d8b-49ea-be56-cfd5fb7eea2c",
            "nama_pse": "JULIAN FALAH MAHDI",
            "nama_se": "CARA DAFTAR BANTUAN BLT 2024",
            "sektor": "Sektor Teknologi Informasi dan Komunikasi",
            "tanggal_terbit": "2024-05-22",
            "url_tdpse_detail": "https://pse.komdigi.go.id/tdpse-detail/19002",
            "website": "-"
        },
        {
            "id": "9cb1ac70-9141-4e20-8c87-692ff53f04ea",
            "nama_pse": "JULIAN FALAH MAHDI",
            "nama_se": "PANDUAN DAFTAR BANTUAN PKH 2024",
            "sektor": "Sektor Teknologi Informasi dan Komunikasi",
            "tanggal_terbit": "2024-05-22",
            "url_tdpse_detail": "https://pse.komdigi.go.id/tdpse-detail/19003",
            "website": "-"
        },
        {
            "id": "9cb1ac70-9907-4f5d-aeee-6986496db13b",
            "nama_pse": "SEKRETARIAT YAYASAN RUAS",
            "nama_se": "SEKRETARIAT YAYASAN RUAS",
            "sektor": "Sektor Perdagangan, Sektor Teknologi Informasi dan Komunikasi",
            "tanggal_terbit": "2024-05-22",
            "url_tdpse_detail": "https://pse.komdigi.go.id/tdpse-detail/19005",
            "website": "-"
        },
        {
            "id": "9cb1ac5b-c15d-4e28-b266-52f653fd5bbd",
            "nama_pse": "SEKRETARIAT YAYASAN RUAS",
            "nama_se": "SISTEM PENGELOLAAN ADMINISTRASI YAYASAN RUAS",
            "sektor": "Sektor Teknologi Informasi dan Komunikasi",
            "tanggal_terbit": "2024-05-22",
            "url_tdpse_detail": "https://pse.komdigi.go.id/tdpse-detail/19006",
            "website": "-"
        },
        {
            "id": "9cb1ac5b-c8ba-4865-bf29-bb9cc52b20d8",
            "nama_pse": "PACUNEWS MEDIA GLOBAL",
            "nama_se": "SUMUT.SOROTNEWS24.COM",
            "sektor": "Sektor Teknologi Informasi dan Komunikasi",
            "tanggal_terbit": "2024-05-22",
            "url_tdpse_detail": "https://pse.komdigi.go.id/tdpse-detail/19007",
            "website": "Sumut.SorotNews24.com"
        },
        {
            "id": "9cb1ac58-457e-42d9-9e4b-b12c398610fa",
            "nama_pse": "BOBBY KARSONO",
            "nama_se": "SIM KLINIK",
            "sektor": "Sektor Teknologi Informasi dan Komunikasi",
            "tanggal_terbit": "2024-05-22",
            "url_tdpse_detail": "https://pse.komdigi.go.id/tdpse-detail/18996",
            "website": "alciasolusidigital.com"
        }
    ],
    "processingTimeMs": 1,
    "query": "",
    "totalHits": 19131,
    "hitsPerPage": 50,
    "page": 65,
    "totalPages": 383
}