{
    "hits": [
        {
            "id": "9cb1ac0f-3afe-4fa6-b0af-f59355c62f66",
            "nama_pse": "GLOBAL MILENIAL MULTIMEDIA",
            "nama_se": "PT. GLOBAL MILENIA MULTIMEDIA",
            "sektor": "Sektor Perdagangan",
            "tanggal_terbit": "2022-09-07",
            "url_tdpse_detail": "https://pse.komdigi.go.id/tdpse-detail/11079",
            "website": "gmm.id"
        },
        {
            "id": "9cb1ac0f-3e1e-41a2-9034-179b8784c8e4",
            "nama_pse": "BPR BAHTERAMAS KOLAKA",
            "nama_se": "LAYANAN SATU SIGMA",
            "sektor": "Sektor Keuangan",
            "tanggal_terbit": "2022-09-07",
            "url_tdpse_detail": "https://pse.komdigi.go.id/tdpse-detail/11080",
            "website": "-"
        },
        {
            "id": "9cb1ac0f-40eb-4c1a-808e-eb6fe8603d32",
            "nama_pse": "NICKO PRATAMA",
            "nama_se": "NIKONTHEGO",
            "sektor": "Sektor Perdagangan",
            "tanggal_terbit": "2022-09-07",
            "url_tdpse_detail": "https://pse.komdigi.go.id/tdpse-detail/11081",
            "website": "-"
        },
        {
            "id": "9cb1abda-eba0-45f1-928e-da2ca5660544",
            "nama_pse": "MORFO INNOVATION TECHNOLOGY",
            "nama_se": "PT MORFO INNOVATION TECHNOLOGY",
            "sektor": "Sektor Teknologi Informasi dan Komunikasi",
            "tanggal_terbit": "2022-09-07",
            "url_tdpse_detail": "https://pse.komdigi.go.id/tdpse-detail/11083",
            "website": "morfolabs.io"
        },
        {
            "id": "9cb1ac0f-4396-4815-9603-2ab9dc6ccbe6",
            "nama_pse": "SENSOR TEKNOLOGI INDONESIA",
            "nama_se": "PEDULI LINGKUNGAN",
            "sektor": "Sektor Perdagangan, Sektor Teknologi Informasi dan Komunikasi",
            "tanggal_terbit": "2022-09-07",
            "url_tdpse_detail": "https://pse.komdigi.go.id/tdpse-detail/11084",
            "website": "getsensync.com"
        },
        {
            "id": "9cb1abda-f1af-4c08-9c08-ef51742c175a",
            "nama_pse": "TAUFIK",
            "nama_se": "INDOTEMA.COM",
            "sektor": "Sektor Teknologi Informasi dan Komunikasi",
            "tanggal_terbit": "2022-09-07",
            "url_tdpse_detail": "https://pse.komdigi.go.id/tdpse-detail/11085",
            "website": "indotema.com"
        },
        {
            "id": "9cb1ac00-878c-45f8-870b-151a3939c349",
            "nama_pse": "SINERGI MAKMUR TEKNOLOGI TRANSPORTASI",
            "nama_se": "STARTGPS.ID",
            "sektor": "Sektor Teknologi Informasi dan Komunikasi",
            "tanggal_terbit": "2022-09-07",
            "url_tdpse_detail": "https://pse.komdigi.go.id/tdpse-detail/11086",
            "website": "startgps.id"
        },
        {
            "id": "9cb1abda-f7af-4ee3-994a-cae93b37966f",
            "nama_pse": "BUMI INDAH BERSIH",
            "nama_se": "DIBUANG.COM",
            "sektor": "Sektor Teknologi Informasi dan Komunikasi",
            "tanggal_terbit": "2022-09-07",
            "url_tdpse_detail": "https://pse.komdigi.go.id/tdpse-detail/11087",
            "website": "dibuang.com"
        },
        {
            "id": "9cb1ac00-8ac4-4624-a817-f22705461ba8",
            "nama_pse": "PSYKAY PERSONA PERKASA",
            "nama_se": "PT PSYKAY PERSONA PERKASA",
            "sektor": "Sektor Teknologi Informasi dan Komunikasi",
            "tanggal_terbit": "2022-09-07",
            "url_tdpse_detail": "https://pse.komdigi.go.id/tdpse-detail/11088",
            "website": "psykay.co.id"
        },
        {
            "id": "9cb1ac00-8db8-43b1-90f3-700d0d5b586f",
            "nama_pse": "PSYKAY PERSONA PERKASA",
            "nama_se": "PSYKAY INDONESIA",
            "sektor": "Sektor Teknologi Informasi dan Komunikasi",
            "tanggal_terbit": "2022-09-07",
            "url_tdpse_detail": "https://pse.komdigi.go.id/tdpse-detail/11089",
            "website": "psykay.co.id"
        },
        {
            "id": "9cb1ac00-919d-4251-8ecd-05547efe2117",
            "nama_pse": "SERBA USAHA SEDANA BAHARI TRANSPORT BENOA",
            "nama_se": "BAHARI TAXI",
            "sektor": "Sektor Transportasi",
            "tanggal_terbit": "2022-09-07",
            "url_tdpse_detail": "https://pse.komdigi.go.id/tdpse-detail/11090",
            "website": "baharitaxi.com"
        },
        {
            "id": "9cb1abdb-0151-43ac-a704-6121ad909664",
            "nama_pse": "DANPAC FINANSA UTAMA",
            "nama_se": "META TRADER 4",
            "sektor": "Sektor Perdagangan, Sektor Keuangan",
            "tanggal_terbit": "2022-09-07",
            "url_tdpse_detail": "https://pse.komdigi.go.id/tdpse-detail/11091",
            "website": "-"
        },
        {
            "id": "9cb1ac0f-46ab-4de0-b115-3c54f4b10ab3",
            "nama_pse": "DANPAC FINANSA UTAMA",
            "nama_se": "META TRADER",
            "sektor": "Sektor Perdagangan, Sektor Keuangan",
            "tanggal_terbit": "2022-09-07",
            "url_tdpse_detail": "https://pse.komdigi.go.id/tdpse-detail/11092",
            "website": "-"
        },
        {
            "id": "9cb1ac00-950a-494c-b6fd-8ad878019141",
            "nama_pse": "MAYAR KERNEL SUPERNOVA",
            "nama_se": "E-COMMERCE ENABLER",
            "sektor": "Sektor Perdagangan",
            "tanggal_terbit": "2022-09-07",
            "url_tdpse_detail": "https://pse.komdigi.go.id/tdpse-detail/11093",
            "website": "mayar.id"
        },
        {
            "id": "9cb1abdb-055f-44be-b91f-b2d2314e366c",
            "nama_pse": "INDIE MARKETINDO CERIA",
            "nama_se": "INDIE MARKETFEST",
            "sektor": "Sektor Perdagangan",
            "tanggal_terbit": "2022-09-07",
            "url_tdpse_detail": "https://pse.komdigi.go.id/tdpse-detail/11094",
            "website": "indiemarketfest.com"
        },
        {
            "id": "9cb1ac00-9848-46c4-98eb-c68b63573c9c",
            "nama_pse": "INDIE MARKETINDO CERIA",
            "nama_se": "INDIEOMNIPOS",
            "sektor": "Sektor Perdagangan",
            "tanggal_terbit": "2022-09-07",
            "url_tdpse_detail": "https://pse.komdigi.go.id/tdpse-detail/11095",
            "website": "indieomnipos.com"
        },
        {
            "id": "9cb1abdb-08ef-40dd-9106-1529961a9fbc",
            "nama_pse": "HOMKER MANDIRI HUSADA",
            "nama_se": "HOMKER (HK)",
            "sektor": "Sektor Perdagangan, Sektor Kesehatan, Sektor Teknologi Informasi dan Komunikasi",
            "tanggal_terbit": "2022-09-07",
            "url_tdpse_detail": "https://pse.komdigi.go.id/tdpse-detail/11096",
            "website": "homker.id"
        },
        {
            "id": "9cb1ac08-7201-40a3-9c47-70430534872c",
            "nama_pse": "VOLTEN INTERNATIONAL NUSANTARA",
            "nama_se": "HTTPS://WWW.VOLTENINDO.COM/",
            "sektor": "Sektor Perdagangan",
            "tanggal_terbit": "2022-09-06",
            "url_tdpse_detail": "https://pse.komdigi.go.id/tdpse-detail/9743",
            "website": "voltenindo.com"
        },
        {
            "id": "9cb1abd9-a871-4590-97a9-13d01f6d12a7",
            "nama_pse": "METRA DIGITAL MEDIA",
            "nama_se": "ADSQOO",
            "sektor": "Sektor Perdagangan",
            "tanggal_terbit": "2022-09-06",
            "url_tdpse_detail": "https://pse.komdigi.go.id/tdpse-detail/10916",
            "website": "adsqoo.id"
        },
        {
            "id": "9cb1abff-88b9-4c2c-a923-58456bfd8942",
            "nama_pse": "PERUSAHAAN PERSEROAN (PERSERO) PT. BIO FARMA DISINGKAT PT. BIO FARMA (PERSERO)",
            "nama_se": "MEDBIZ",
            "sektor": "Sektor Perdagangan, Sektor Kesehatan",
            "tanggal_terbit": "2022-09-06",
            "url_tdpse_detail": "https://pse.komdigi.go.id/tdpse-detail/10888",
            "website": "medbiz.id"
        },
        {
            "id": "9cb1abda-3021-459c-8a49-e459570ba5c2",
            "nama_pse": "SEACON BINTANG SEJAHTERA",
            "nama_se": "SBS E-SERVICE",
            "sektor": "Sektor Teknologi Informasi dan Komunikasi",
            "tanggal_terbit": "2022-09-06",
            "url_tdpse_detail": "https://pse.komdigi.go.id/tdpse-detail/11048",
            "website": "eservice.sbs-icd.com"
        },
        {
            "id": "9cb1ac00-0847-45e0-8080-20f906d7c7ea",
            "nama_pse": "TOKOONDERDIL KARYA UTAMA",
            "nama_se": "PLATFORM E-COMMERCE TOKOONDERDIL",
            "sektor": "Sektor Perdagangan",
            "tanggal_terbit": "2022-09-06",
            "url_tdpse_detail": "https://pse.komdigi.go.id/tdpse-detail/10991",
            "website": "tokoonderdil.id"
        },
        {
            "id": "9cb1abda-8fa8-44f2-a60b-153ee85181b8",
            "nama_pse": "METRA DIGITAL MEDIA",
            "nama_se": "DIGIPOP (DIGITAL POPULATION)",
            "sektor": "Sektor Perdagangan, Sektor Teknologi Informasi dan Komunikasi",
            "tanggal_terbit": "2022-09-06",
            "url_tdpse_detail": "https://pse.komdigi.go.id/tdpse-detail/10990",
            "website": "digipop.ai"
        },
        {
            "id": "9cb1abda-aaf1-441c-af05-9e1337d8e03a",
            "nama_pse": "ASURANSI UMUM BCA",
            "nama_se": "PERSONAL CYBER INSURANCE",
            "sektor": "Sektor Keuangan",
            "tanggal_terbit": "2022-09-06",
            "url_tdpse_detail": "https://pse.komdigi.go.id/tdpse-detail/11024",
            "website": "cyberins.bcainsurance.co.id"
        },
        {
            "id": "9cb1ac00-43c8-4872-9708-3abfc040463b",
            "nama_pse": "ASURANSI UMUM BCA",
            "nama_se": "ELECTRONIC EQUIPMENT INSURANCE",
            "sektor": "Sektor Keuangan",
            "tanggal_terbit": "2022-09-06",
            "url_tdpse_detail": "https://pse.komdigi.go.id/tdpse-detail/11026",
            "website": "eeins.bcainsurance.co.id"
        },
        {
            "id": "9cb1ac00-493d-4fd5-95b9-eab0d739ff4d",
            "nama_pse": "MELAKA COMMERCE TECHNOLOGIES",
            "nama_se": "MELAKA. APP",
            "sektor": "Sektor Teknologi Informasi dan Komunikasi",
            "tanggal_terbit": "2022-09-06",
            "url_tdpse_detail": "https://pse.komdigi.go.id/tdpse-detail/11032",
            "website": "melaka.app"
        },
        {
            "id": "9cb1abda-b438-42ab-a5dc-64a419d72608",
            "nama_pse": "YOK BELI INDONESIA",
            "nama_se": "YOK BELI",
            "sektor": "Sektor Perdagangan",
            "tanggal_terbit": "2022-09-06",
            "url_tdpse_detail": "https://pse.komdigi.go.id/tdpse-detail/11041",
            "website": "yokbeli.id"
        },
        {
            "id": "9cb1ac0f-13d6-4d15-89b9-b3e8eedd5f6e",
            "nama_pse": "YOK BELI INDONESIA",
            "nama_se": "YOKBELI",
            "sektor": "Sektor Perdagangan",
            "tanggal_terbit": "2022-09-06",
            "url_tdpse_detail": "https://pse.komdigi.go.id/tdpse-detail/11042",
            "website": "yokbeli.id"
        },
        {
            "id": "9cb1ac00-5685-4868-8b5b-509419cf95e5",
            "nama_pse": "XCODE DIGITAL INOVASI",
            "nama_se": "DIGITAL INOVASI",
            "sektor": "Sektor Perdagangan",
            "tanggal_terbit": "2022-09-06",
            "url_tdpse_detail": "https://pse.komdigi.go.id/tdpse-detail/11043",
            "website": "digitalinovasi.id"
        },
        {
            "id": "9cb1ac00-5947-471a-939b-b8e897a6f74b",
            "nama_pse": "CENTRAL BERKAH AMANAH",
            "nama_se": "CENTRAL BERKAH AMANAH",
            "sektor": "Sektor Perdagangan",
            "tanggal_terbit": "2022-09-06",
            "url_tdpse_detail": "https://pse.komdigi.go.id/tdpse-detail/11044",
            "website": "centralberkahamanah.com"
        },
        {
            "id": "9cb1abda-b812-4a00-bb3e-51b690c333f6",
            "nama_pse": "SINGAPORE AIRLINES LIMITED",
            "nama_se": "SINGAPORE AIRLINES INDONESIA",
            "sektor": "Sektor Transportasi",
            "tanggal_terbit": "2022-09-06",
            "url_tdpse_detail": "https://pse.komdigi.go.id/tdpse-detail/11049",
            "website": "singaporeairlines.com"
        },
        {
            "id": "9cb1abda-bbec-4915-b50e-d0dc2514feb1",
            "nama_pse": "SEACON BINTANG SEJAHTERA",
            "nama_se": "MAERSKGUIDE",
            "sektor": "Sektor Teknologi Informasi dan Komunikasi",
            "tanggal_terbit": "2022-09-06",
            "url_tdpse_detail": "https://pse.komdigi.go.id/tdpse-detail/11051",
            "website": "maerskguide.pelayaranbintangputih.com"
        },
        {
            "id": "9cb1abda-bee9-49f5-8d4e-8b9df5e70048",
            "nama_pse": "SINGAPORE AIRLINES LIMITED",
            "nama_se": "SINGAPORE AIRLINES LIMITED",
            "sektor": "Sektor Transportasi",
            "tanggal_terbit": "2022-09-06",
            "url_tdpse_detail": "https://pse.komdigi.go.id/tdpse-detail/11050",
            "website": "singaporeair.com"
        },
        {
            "id": "9cb1abda-c39b-427d-a625-5e88944b8672",
            "nama_pse": "SATUAN TEKNOLOGI BERJALAN",
            "nama_se": "JAGO APP MOBILE",
            "sektor": "Sektor Perdagangan",
            "tanggal_terbit": "2022-09-06",
            "url_tdpse_detail": "https://pse.komdigi.go.id/tdpse-detail/11052",
            "website": "jagocoffee.com"
        },
        {
            "id": "9cb1ac00-6c71-42dc-b1a1-c767f2bafe27",
            "nama_pse": "GLOBAL MILENIAL MULTIMEDIA",
            "nama_se": "PT. GLOBAL MILENIAL MULTIMEDIA",
            "sektor": "Sektor Teknologi Informasi dan Komunikasi",
            "tanggal_terbit": "2022-09-06",
            "url_tdpse_detail": "https://pse.komdigi.go.id/tdpse-detail/11055",
            "website": "gmm.id"
        },
        {
            "id": "9cb1ac0f-1986-45b7-bb37-4bf362dc025b",
            "nama_pse": "DRIEV GLOBAL MOBILITY",
            "nama_se": "DRIEV",
            "sektor": "Sektor Transportasi",
            "tanggal_terbit": "2022-09-06",
            "url_tdpse_detail": "https://pse.komdigi.go.id/tdpse-detail/11057",
            "website": "driev.id"
        },
        {
            "id": "9cb1abda-c7bb-4cd3-a087-dc7df290892d",
            "nama_pse": "SR12 HERBAL KOSMETIK",
            "nama_se": "PORTAL SR12 UNIVERSITY",
            "sektor": "Sektor Perdagangan",
            "tanggal_terbit": "2022-09-06",
            "url_tdpse_detail": "https://pse.komdigi.go.id/tdpse-detail/11056",
            "website": "sr12herbalskincare.co.id"
        },
        {
            "id": "9cb1ac0f-1c71-4fd6-8ddb-733ac5beb9cf",
            "nama_pse": "ERA DIGITAL MEDIA",
            "nama_se": "FUNBID",
            "sektor": "Sektor Teknologi Informasi dan Komunikasi",
            "tanggal_terbit": "2022-09-06",
            "url_tdpse_detail": "https://pse.komdigi.go.id/tdpse-detail/11058",
            "website": "funbid.id"
        },
        {
            "id": "9cb1abda-cc1e-44dd-a42a-4904c654082b",
            "nama_pse": "ERA DIGITAL MEDIA",
            "nama_se": "3VIA",
            "sektor": "Sektor Teknologi Informasi dan Komunikasi",
            "tanggal_terbit": "2022-09-06",
            "url_tdpse_detail": "https://pse.komdigi.go.id/tdpse-detail/11059",
            "website": "3via.in"
        },
        {
            "id": "9cb1ac0f-1f29-43a5-9294-a811b2447fdb",
            "nama_pse": "ERA DIGITAL MEDIA",
            "nama_se": "XTRIVIA",
            "sektor": "Sektor Teknologi Informasi dan Komunikasi",
            "tanggal_terbit": "2022-09-06",
            "url_tdpse_detail": "https://pse.komdigi.go.id/tdpse-detail/11060",
            "website": "xtrivia.id"
        },
        {
            "id": "9cb1ac00-708c-4ef8-909a-17e01768a2e2",
            "nama_pse": "ERA DIGITAL MEDIA",
            "nama_se": "RODAEMAS",
            "sektor": "Sektor Teknologi Informasi dan Komunikasi",
            "tanggal_terbit": "2022-09-06",
            "url_tdpse_detail": "https://pse.komdigi.go.id/tdpse-detail/11061",
            "website": "rodaemas.id"
        },
        {
            "id": "9cb1ac00-770a-4ff6-8430-cf49577b266b",
            "nama_pse": "ERA DIGITAL MEDIA",
            "nama_se": "FUNTIME",
            "sektor": "Sektor Teknologi Informasi dan Komunikasi",
            "tanggal_terbit": "2022-09-06",
            "url_tdpse_detail": "https://pse.komdigi.go.id/tdpse-detail/11063",
            "website": "funtime.id"
        },
        {
            "id": "9cb1ac0f-223c-4cac-8e25-89decf0253c6",
            "nama_pse": "ERA DIGITAL MEDIA",
            "nama_se": "USTADKU",
            "sektor": "Sektor Teknologi Informasi dan Komunikasi",
            "tanggal_terbit": "2022-09-06",
            "url_tdpse_detail": "https://pse.komdigi.go.id/tdpse-detail/11065",
            "website": "ustadku.tv"
        },
        {
            "id": "9cb1ac0f-2631-44f5-8178-103a0d9b8555",
            "nama_pse": "ERA DIGITAL MEDIA",
            "nama_se": "FUNTV",
            "sektor": "Sektor Teknologi Informasi dan Komunikasi",
            "tanggal_terbit": "2022-09-06",
            "url_tdpse_detail": "https://pse.komdigi.go.id/tdpse-detail/11066",
            "website": "funtv.id"
        },
        {
            "id": "9cb1ac0f-2c1b-473d-97af-726adafb0137",
            "nama_pse": "SINARNIAGA SEJAHTERA",
            "nama_se": "MITRA SNS",
            "sektor": "Sektor Perdagangan",
            "tanggal_terbit": "2022-09-06",
            "url_tdpse_detail": "https://pse.komdigi.go.id/tdpse-detail/11068",
            "website": "mitrasns.com"
        },
        {
            "id": "9cb1ac0f-2f73-43e9-b846-fdbac72ee381",
            "nama_pse": "KONEKSI GLOBAL TEKHNOLOGI",
            "nama_se": "FUNZONE",
            "sektor": "Sektor Teknologi Informasi dan Komunikasi",
            "tanggal_terbit": "2022-09-06",
            "url_tdpse_detail": "https://pse.komdigi.go.id/tdpse-detail/11069",
            "website": "funzone.id"
        },
        {
            "id": "9cb1abda-d2a2-4f65-81bc-f29debf41571",
            "nama_pse": "SUKSES BERKAH KAWAN SEJATI",
            "nama_se": "WWW.SAFARIMULIA.ID",
            "sektor": "Sektor Perdagangan, Sektor Teknologi Informasi dan Komunikasi",
            "tanggal_terbit": "2022-09-06",
            "url_tdpse_detail": "https://pse.komdigi.go.id/tdpse-detail/11070",
            "website": "safarimulia.id"
        },
        {
            "id": "9cb1ac0f-322f-4e6c-a539-e29fb91c7ef7",
            "nama_pse": "SUKSES BERKAH KAWAN SEJATI",
            "nama_se": "WWW.TOPSTORE.CO.ID",
            "sektor": "Sektor Perdagangan, Sektor Teknologi Informasi dan Komunikasi",
            "tanggal_terbit": "2022-09-06",
            "url_tdpse_detail": "https://pse.komdigi.go.id/tdpse-detail/11071",
            "website": "topstore.co.id"
        },
        {
            "id": "9cb1ac00-7da8-4dcc-be1e-5efee20c4a35",
            "nama_pse": "SUKSES BERKAH KAWAN SEJATI",
            "nama_se": "SAFARIMULIA.ID",
            "sektor": "Sektor Perdagangan",
            "tanggal_terbit": "2022-09-06",
            "url_tdpse_detail": "https://pse.komdigi.go.id/tdpse-detail/11072",
            "website": "safarimulia.id"
        },
        {
            "id": "9cb1abfe-da8b-4335-b988-ae94e9828b1b",
            "nama_pse": "VITA INTI SELARAS",
            "nama_se": "HTTPS://WWW1.OTELLOGAMING.COM",
            "sektor": "Sektor Teknologi Informasi dan Komunikasi",
            "tanggal_terbit": "2022-09-05",
            "url_tdpse_detail": "https://pse.komdigi.go.id/tdpse-detail/10753",
            "website": "otellogaming.com"
        }
    ],
    "processingTimeMs": 4,
    "query": "",
    "totalHits": 19121,
    "hitsPerPage": 50,
    "page": 187,
    "totalPages": 383
}