{
    "hits": [
        {
            "id": "9d88693c-5579-4c00-b84c-f13530f16b89",
            "nama_pse": "SYNGENTA SEED INDONESIA",
            "nama_se": "SMSCROPS SYNGENTA",
            "sektor": "Sektor Pangan",
            "tanggal_terbit": "2024-11-20",
            "url_tdpse_detail": "https://pse.komdigi.go.id/tdpse-detail/21282",
            "website": "entry.smscrops.com"
        },
        {
            "id": "9d888fae-8819-4bc9-82bb-68f951c641f9",
            "nama_pse": "KINETIKUM INDO SOLUSI",
            "nama_se": "INDOHRM - A BETTER HUMAN RESOURCE MANAGEMENT SYSTEM SOFTWARE",
            "sektor": "Sektor Teknologi Informasi dan Komunikasi",
            "tanggal_terbit": "2024-11-20",
            "url_tdpse_detail": "https://pse.komdigi.go.id/tdpse-detail/21284",
            "website": "indohrm.com"
        },
        {
            "id": "9d88c452-d59c-4cbc-877a-5edce7466d1f",
            "nama_pse": "PRO KONTRA MEDIA",
            "nama_se": "prokontra.id",
            "sektor": "Sektor Teknologi Informasi dan Komunikasi",
            "tanggal_terbit": "2024-11-20",
            "url_tdpse_detail": "https://pse.komdigi.go.id/tdpse-detail/21286",
            "website": "prokontra.id"
        },
        {
            "id": "9d88d8f0-e3df-48f2-b358-b3d82bf1ba84",
            "nama_pse": "ANDREAS",
            "nama_se": "YVA TECHNOLOGY",
            "sektor": "Sektor Perdagangan, Sektor Kesehatan, Sektor Teknologi Informasi dan Komunikasi",
            "tanggal_terbit": "2024-11-20",
            "url_tdpse_detail": "https://pse.komdigi.go.id/tdpse-detail/21287",
            "website": "-"
        },
        {
            "id": "9d88e533-fb75-4650-96b0-2e6e73e6525a",
            "nama_pse": "PUJI WIDODO",
            "nama_se": "puji widodo Tachyon",
            "sektor": "Sektor Teknologi Informasi dan Komunikasi",
            "tanggal_terbit": "2024-11-20",
            "url_tdpse_detail": "https://pse.komdigi.go.id/tdpse-detail/21289",
            "website": "-"
        },
        {
            "id": "9d88e825-2fcb-476e-9289-6648307b74d1",
            "nama_pse": "DUTA CAKRA MAHENDRA",
            "nama_se": "DUTA CAKRA MAHENDRA",
            "sektor": "Sektor Transportasi, Sektor Teknologi Informasi dan Komunikasi",
            "tanggal_terbit": "2024-11-20",
            "url_tdpse_detail": "https://pse.komdigi.go.id/tdpse-detail/21290",
            "website": "cakrajourney.com"
        },
        {
            "id": "9d88e9a2-8aa9-4658-892d-dd799970641f",
            "nama_pse": "REPORTASE TIMES MEDIA",
            "nama_se": "reportasetimes.com",
            "sektor": "Sektor Teknologi Informasi dan Komunikasi",
            "tanggal_terbit": "2024-11-20",
            "url_tdpse_detail": "https://pse.komdigi.go.id/tdpse-detail/21291",
            "website": "reportasetimes.com"
        },
        {
            "id": "9d890e78-94ce-49f3-85c3-236daa0cb3a0",
            "nama_pse": "DAFARA CIPTA MANDIRI",
            "nama_se": "DCKONSULTAN DIGITAL PLATFORM",
            "sektor": "Sektor Perdagangan",
            "tanggal_terbit": "2024-11-20",
            "url_tdpse_detail": "https://pse.komdigi.go.id/tdpse-detail/21293",
            "website": "dckonsultan.com"
        },
        {
            "id": "9d890b8a-1f8f-45f0-9c63-e86a147b7032",
            "nama_pse": "PAHAM DATA INDONESIA",
            "nama_se": "INTELLIGO ID",
            "sektor": "Sektor Teknologi Informasi dan Komunikasi",
            "tanggal_terbit": "2024-11-20",
            "url_tdpse_detail": "https://pse.komdigi.go.id/tdpse-detail/21292",
            "website": "intelligo.id"
        },
        {
            "id": "9d88585a-b9dd-4497-9915-a4f74879af34",
            "nama_pse": "JAWA POS GRUP MULTIMEDIA",
            "nama_se": "JAWAPOS.COM",
            "sektor": "Sektor Teknologi Informasi dan Komunikasi",
            "tanggal_terbit": "2024-11-20",
            "url_tdpse_detail": "https://pse.komdigi.go.id/tdpse-detail/21281",
            "website": "jawapos.com"
        },
        {
            "id": "9d8652f4-05d9-44c0-9457-72e918887c2b",
            "nama_pse": "PARA PEMUDA KREATIF",
            "nama_se": "PEMUDA.NET",
            "sektor": "Sektor Perdagangan",
            "tanggal_terbit": "2024-11-19",
            "url_tdpse_detail": "https://pse.komdigi.go.id/tdpse-detail/21269",
            "website": "ptparapemudakreatif.com"
        },
        {
            "id": "9d863e7e-1dca-4da8-aa4c-ccd54a5e4f4a",
            "nama_pse": "ZUP LOYALTI INDONESIA",
            "nama_se": "ZU LOYALTY POINT SYSTEM",
            "sektor": "Sektor Teknologi Informasi dan Komunikasi",
            "tanggal_terbit": "2024-11-19",
            "url_tdpse_detail": "https://pse.komdigi.go.id/tdpse-detail/21266",
            "website": "zup.id"
        },
        {
            "id": "9d85ecfe-c301-44e9-9339-3d47983e9307",
            "nama_pse": "AKSARA TEKNOLOGI HANDAL",
            "nama_se": "AKSARA",
            "sektor": "Sektor Perdagangan",
            "tanggal_terbit": "2024-11-19",
            "url_tdpse_detail": "https://pse.komdigi.go.id/tdpse-detail/21260",
            "website": "ptaksarateknologihandal.com"
        },
        {
            "id": "9d8663d4-014f-4d41-9e58-f9999fac78d1",
            "nama_pse": "NIGMAGRID INDO NESIA",
            "nama_se": "NIGMASTORE",
            "sektor": "Sektor Perdagangan, Sektor Teknologi Informasi dan Komunikasi",
            "tanggal_terbit": "2024-11-19",
            "url_tdpse_detail": "https://pse.komdigi.go.id/tdpse-detail/21273",
            "website": "nigmagrid.com"
        },
        {
            "id": "9d86454e-7285-4fb8-bd11-598c51414ca3",
            "nama_pse": "MAJU BERUSAHA BERTIGA",
            "nama_se": "JUAGA",
            "sektor": "Sektor Perdagangan, Sektor Teknologi Informasi dan Komunikasi",
            "tanggal_terbit": "2024-11-19",
            "url_tdpse_detail": "https://pse.komdigi.go.id/tdpse-detail/21267",
            "website": "juaga.biz.id"
        },
        {
            "id": "9d865548-f204-49c7-8d44-feaaa15aaed0",
            "nama_pse": "ABAD DIGITAL KREATIV",
            "nama_se": "accommerce",
            "sektor": "Sektor Perdagangan, Sektor Teknologi Informasi dan Komunikasi",
            "tanggal_terbit": "2024-11-19",
            "url_tdpse_detail": "https://pse.komdigi.go.id/tdpse-detail/21270",
            "website": "accommerce.id"
        },
        {
            "id": "9d85f586-d7e6-4540-aaf0-256e3011a578",
            "nama_pse": "DISDUS INDONESIA",
            "nama_se": "SISTEM MANAJEMEN KEAMANAN INFORMASI UNTUK PENERBITAN, PEMROSESAN, DAN DISTRIBUSI KARTU UANG ELEKTRONIK (STORED VALUE CARDS)",
            "sektor": "Sektor Teknologi Informasi dan Komunikasi",
            "tanggal_terbit": "2024-11-19",
            "url_tdpse_detail": "https://pse.komdigi.go.id/tdpse-detail/21261",
            "website": "-"
        },
        {
            "id": "9d8634b0-6b28-4344-8366-e0e9575b2619",
            "nama_pse": "ANUGERAH AMAN INDONESIA",
            "nama_se": "AMANIN INDONESIA",
            "sektor": "Sektor Teknologi Informasi dan Komunikasi",
            "tanggal_terbit": "2024-11-19",
            "url_tdpse_detail": "https://pse.komdigi.go.id/tdpse-detail/21265",
            "website": "-"
        },
        {
            "id": "9d85c42d-fe8a-45ad-b162-4f535d1b4fd8",
            "nama_pse": "AJAIB FUTURES ASIA",
            "nama_se": "AJAIB FUTURES",
            "sektor": "Sektor Perdagangan, Sektor Keuangan",
            "tanggal_terbit": "2024-11-19",
            "url_tdpse_detail": "https://pse.komdigi.go.id/tdpse-detail/21259",
            "website": "ajaibfuturesasia.co.id"
        },
        {
            "id": "9d85f7c0-40b4-4c05-8495-62df90f23d08",
            "nama_pse": "DISDUS INDONESIA",
            "nama_se": "SISTEM MANAJEMEN KEAMANAN INFORMASI UNTUK BELI SEKARANG BAYAR NANTI (BUY NOW PAY LATER)",
            "sektor": "Sektor Teknologi Informasi dan Komunikasi",
            "tanggal_terbit": "2024-11-19",
            "url_tdpse_detail": "https://pse.komdigi.go.id/tdpse-detail/21262",
            "website": "-"
        },
        {
            "id": "9d85f816-8e37-4638-8b05-15f263b36956",
            "nama_pse": "BMT UNIVERSITAS MUHAMMADIYAH YOGYAKARTA",
            "nama_se": "MOBILE ANGGOTA BMT UMY",
            "sektor": "Sektor Teknologi Informasi dan Komunikasi",
            "tanggal_terbit": "2024-11-19",
            "url_tdpse_detail": "https://pse.komdigi.go.id/tdpse-detail/21263",
            "website": "-"
        },
        {
            "id": "9d86208b-2569-4224-a6fa-0ced007111c8",
            "nama_pse": "ARGA BINTANG PRATAMA",
            "nama_se": "ARGA BINTANG PRATAMA",
            "sektor": "Sektor Teknologi Informasi dan Komunikasi",
            "tanggal_terbit": "2024-11-19",
            "url_tdpse_detail": "https://pse.komdigi.go.id/tdpse-detail/21264",
            "website": "argabintangpratama.com"
        },
        {
            "id": "9d864959-26db-47d5-8614-742b6608c899",
            "nama_pse": "FORTIUS SOLUTIONS INDONESIA",
            "nama_se": "FORTIUS HRIS",
            "sektor": "Sektor Teknologi Informasi dan Komunikasi",
            "tanggal_terbit": "2024-11-19",
            "url_tdpse_detail": "https://pse.komdigi.go.id/tdpse-detail/21268",
            "website": "fortiushris.com"
        },
        {
            "id": "9d8656cb-1b48-4fae-96f8-1820b0a7831e",
            "nama_pse": "MEDIA TELEKOMUNIKASI MANDIRI",
            "nama_se": "snc.id",
            "sektor": "Sektor Teknologi Informasi dan Komunikasi",
            "tanggal_terbit": "2024-11-19",
            "url_tdpse_detail": "https://pse.komdigi.go.id/tdpse-detail/21271",
            "website": "snc.id"
        },
        {
            "id": "9d8677bb-4507-4c55-8852-385233a6cff1",
            "nama_pse": "EVERINA BERKAT LANCAR",
            "nama_se": "PAWTASTIC",
            "sektor": "Sektor Perdagangan, Sektor Kesehatan, Sektor Teknologi Informasi dan Komunikasi",
            "tanggal_terbit": "2024-11-19",
            "url_tdpse_detail": "https://pse.komdigi.go.id/tdpse-detail/21275",
            "website": "pawtastic.id"
        },
        {
            "id": "9d865c72-b171-459e-b37a-290f1a53b9e8",
            "nama_pse": "BALAI LELANG TRINITY SUKSES MAKMUR",
            "nama_se": "PT TRINITY SUKSES MAKMUR",
            "sektor": "Sektor Perdagangan",
            "tanggal_terbit": "2024-11-19",
            "url_tdpse_detail": "https://pse.komdigi.go.id/tdpse-detail/21272",
            "website": "lelangbarangantik.co.id"
        },
        {
            "id": "9d84e86f-86bd-4e3f-a4be-2fd64a2288be",
            "nama_pse": "REDHO USMAN",
            "nama_se": "SISTEM INFORMASI DESA",
            "sektor": "Sektor Teknologi Informasi dan Komunikasi",
            "tanggal_terbit": "2024-11-18",
            "url_tdpse_detail": "https://pse.komdigi.go.id/tdpse-detail/21258",
            "website": "gunungraja.desa.id"
        },
        {
            "id": "9d840803-ac9e-494e-b127-5bc966b3edf9",
            "nama_pse": "BALAI BESAR LABORATORIUM KESEHATAN PALEMBANG DITJEN PELAYANAN KESEHATAN KEMENTERIAN KESEHATAN",
            "nama_se": "ONELAB",
            "sektor": "Sektor Kesehatan",
            "tanggal_terbit": "2024-11-18",
            "url_tdpse_detail": "https://pse.komdigi.go.id/tdpse-detail/21243",
            "website": "onelab.bblabkesmaspalembang.go.id"
        },
        {
            "id": "9d844803-b256-47d4-857c-3c0dca1f97fc",
            "nama_pse": "INDOSAT",
            "nama_se": "INDOSATHIFI (APLIKASI ANDROID \u0026 IOS)",
            "sektor": "Sektor Teknologi Informasi dan Komunikasi",
            "tanggal_terbit": "2024-11-18",
            "url_tdpse_detail": "https://pse.komdigi.go.id/tdpse-detail/21249",
            "website": "-"
        },
        {
            "id": "9d8418d5-ae54-44be-b0b4-e7dce0445f08",
            "nama_pse": "SOMES TEKNOLOGI INDONESIA",
            "nama_se": "SOMESID",
            "sektor": "Sektor Perdagangan, Sektor Teknologi Informasi dan Komunikasi",
            "tanggal_terbit": "2024-11-18",
            "url_tdpse_detail": "https://pse.komdigi.go.id/tdpse-detail/21246",
            "website": "somes.id"
        },
        {
            "id": "9d840a14-ca55-4ebf-8bd1-cafd22ccbf62",
            "nama_pse": "SMART STREAM DYNAMICS INDONESIA",
            "nama_se": "STARLITE",
            "sektor": "Sektor Perdagangan",
            "tanggal_terbit": "2024-11-18",
            "url_tdpse_detail": "https://pse.komdigi.go.id/tdpse-detail/21244",
            "website": "starlite.digital"
        },
        {
            "id": "9d845a56-23dc-4205-98a2-ff92a63f04ab",
            "nama_pse": "HYPEFAST KARYA NUSANTARA",
            "nama_se": "NYONYA NURSING WEAR",
            "sektor": "Sektor Perdagangan",
            "tanggal_terbit": "2024-11-18",
            "url_tdpse_detail": "https://pse.komdigi.go.id/tdpse-detail/21250",
            "website": "nyonyanursingwear.com"
        },
        {
            "id": "9d846d8e-31be-49f7-b519-9c746533bcf1",
            "nama_pse": "MAPCLUB DIGITAL ASIA",
            "nama_se": "MAPCLUB",
            "sektor": "Sektor Perdagangan, Sektor Teknologi Informasi dan Komunikasi",
            "tanggal_terbit": "2024-11-18",
            "url_tdpse_detail": "https://pse.komdigi.go.id/tdpse-detail/21255",
            "website": "-"
        },
        {
            "id": "9d843fa8-58aa-460a-b74f-468130b513ac",
            "nama_pse": "IBIBO GROUP INDONESIA",
            "nama_se": "redBus- Bus \u0026 Shuttle Tickets",
            "sektor": "Sektor Perdagangan",
            "tanggal_terbit": "2024-11-18",
            "url_tdpse_detail": "https://pse.komdigi.go.id/tdpse-detail/21247",
            "website": "-"
        },
        {
            "id": "9d833bf1-ad6d-43d7-b2b2-85d8475d1d0d",
            "nama_pse": "JALAL DIAN SAPUTRA",
            "nama_se": "LAYANAN INTERNET LOKAL",
            "sektor": "Sektor Teknologi Informasi dan Komunikasi",
            "tanggal_terbit": "2024-11-18",
            "url_tdpse_detail": "https://pse.komdigi.go.id/tdpse-detail/21240",
            "website": "-"
        },
        {
            "id": "9d83cefd-0147-47e3-bbae-a34af027b816",
            "nama_pse": "TUMBUH BERSAMA NANO",
            "nama_se": "NANOVEST",
            "sektor": "Sektor Perdagangan, Sektor Teknologi Informasi dan Komunikasi",
            "tanggal_terbit": "2024-11-18",
            "url_tdpse_detail": "https://pse.komdigi.go.id/tdpse-detail/21241",
            "website": "-"
        },
        {
            "id": "9d845f68-3998-4a1b-aec5-a6edacf0b364",
            "nama_pse": "INDOSAT",
            "nama_se": "bima+",
            "sektor": "Sektor Teknologi Informasi dan Komunikasi",
            "tanggal_terbit": "2024-11-18",
            "url_tdpse_detail": "https://pse.komdigi.go.id/tdpse-detail/21252",
            "website": "-"
        },
        {
            "id": "9d845a7a-4247-4147-88ea-acf8936150e1",
            "nama_pse": "INDOSAT",
            "nama_se": "myIM3",
            "sektor": "Sektor Teknologi Informasi dan Komunikasi",
            "tanggal_terbit": "2024-11-18",
            "url_tdpse_detail": "https://pse.komdigi.go.id/tdpse-detail/21251",
            "website": "-"
        },
        {
            "id": "9d8464b9-a449-4fee-98f4-8495d10e698a",
            "nama_pse": "INDOSAT",
            "nama_se": "IM3 WEBSITE",
            "sektor": "Sektor Teknologi Informasi dan Komunikasi",
            "tanggal_terbit": "2024-11-18",
            "url_tdpse_detail": "https://pse.komdigi.go.id/tdpse-detail/21254",
            "website": "im3.id"
        },
        {
            "id": "9d84768e-493b-4cc5-97fb-86208de4612f",
            "nama_pse": "SENRI TEKNOLOGI INDONESIA",
            "nama_se": "SENRI SALESFORCE AUTOMATION SYSTEM",
            "sektor": "Sektor Teknologi Informasi dan Komunikasi",
            "tanggal_terbit": "2024-11-18",
            "url_tdpse_detail": "https://pse.komdigi.go.id/tdpse-detail/21256",
            "website": "senriltd.com"
        },
        {
            "id": "9d84c509-6d24-4bc1-be87-5077372c948e",
            "nama_pse": "SISPENJU AMANAH WISATA",
            "nama_se": "SISPENJU",
            "sektor": "Sektor Transportasi, Sektor Teknologi Informasi dan Komunikasi",
            "tanggal_terbit": "2024-11-18",
            "url_tdpse_detail": "https://pse.komdigi.go.id/tdpse-detail/21257",
            "website": "sispenju.com"
        },
        {
            "id": "9d8440bb-e93c-4315-ab63-fbd5506f6726",
            "nama_pse": "TOKO DIGITAL SERVICES",
            "nama_se": "TOKOEX",
            "sektor": "Sektor Perdagangan, Sektor Teknologi Informasi dan Komunikasi",
            "tanggal_terbit": "2024-11-18",
            "url_tdpse_detail": "https://pse.komdigi.go.id/tdpse-detail/21248",
            "website": "tokoex.id"
        },
        {
            "id": "9d831497-d69f-40e4-b23e-b5463fcbf47a",
            "nama_pse": "ADITYA WIRYA MAULANA",
            "nama_se": "SEHATFLOW",
            "sektor": "Sektor Teknologi Informasi dan Komunikasi",
            "tanggal_terbit": "2024-11-18",
            "url_tdpse_detail": "https://pse.komdigi.go.id/tdpse-detail/21239",
            "website": "sehatflow.com"
        },
        {
            "id": "9d8417a9-93f0-48e0-b505-de444263ca21",
            "nama_pse": "SYNGENTA SEED INDONESIA",
            "nama_se": "SMSCROPS",
            "sektor": "Sektor Pangan",
            "tanggal_terbit": "2024-11-18",
            "url_tdpse_detail": "https://pse.komdigi.go.id/tdpse-detail/21245",
            "website": "tool.smscrops.com"
        },
        {
            "id": "9d83dfac-1887-42f5-b478-6c21e9166b4e",
            "nama_pse": "REMID KARYA INDONESIA",
            "nama_se": "REMID",
            "sektor": "Sektor Keuangan",
            "tanggal_terbit": "2024-11-18",
            "url_tdpse_detail": "https://pse.komdigi.go.id/tdpse-detail/21242",
            "website": "rem.id"
        },
        {
            "id": "9d8462b1-ea36-42c6-9c02-ce3ecad61df2",
            "nama_pse": "BERKAH GLOBAL EDU",
            "nama_se": "WEBSITE UTAMA/LANDING PAGE",
            "sektor": "Sektor Perdagangan",
            "tanggal_terbit": "2024-11-18",
            "url_tdpse_detail": "https://pse.komdigi.go.id/tdpse-detail/21253",
            "website": "kobieducation.com"
        },
        {
            "id": "9d821d18-063e-49be-8251-396b8fb9fb08",
            "nama_pse": "ROSITA",
            "nama_se": "KODEGIM",
            "sektor": "Sektor Perdagangan",
            "tanggal_terbit": "2024-11-17",
            "url_tdpse_detail": "https://pse.komdigi.go.id/tdpse-detail/21237",
            "website": "kodegim.com"
        },
        {
            "id": "9d829f36-eb93-4af6-a4a0-88367e6e3aff",
            "nama_pse": "SENTRAL MERAH PUTIH",
            "nama_se": "SENTRALMERAHPUTIH.ID",
            "sektor": "Sektor Teknologi Informasi dan Komunikasi",
            "tanggal_terbit": "2024-11-17",
            "url_tdpse_detail": "https://pse.komdigi.go.id/tdpse-detail/21238",
            "website": "sentralmerahputih.id"
        },
        {
            "id": "9d7fe8ad-a1b3-4b90-a3fd-479ee85a1cf1",
            "nama_pse": "VELOCITY CORE DINAMIK",
            "nama_se": "velocity",
            "sektor": "Sektor Perdagangan, Sektor Teknologi Informasi dan Komunikasi",
            "tanggal_terbit": "2024-11-16",
            "url_tdpse_detail": "https://pse.komdigi.go.id/tdpse-detail/21233",
            "website": "velocity.biz.id"
        },
        {
            "id": "9d7fc432-0af7-4d6b-8394-30dfc4404f7c",
            "nama_pse": "APLIKASI BISNIS SEJAHTERA",
            "nama_se": "SILANCAR",
            "sektor": "Sektor Perdagangan, Sektor Teknologi Informasi dan Komunikasi",
            "tanggal_terbit": "2024-11-16",
            "url_tdpse_detail": "https://pse.komdigi.go.id/tdpse-detail/21232",
            "website": "silancar.biz.id"
        }
    ],
    "processingTimeMs": 1,
    "query": "",
    "totalHits": 19131,
    "hitsPerPage": 50,
    "page": 24,
    "totalPages": 383
}