{
    "hits": [
        {
            "id": "9cb1abb9-80b8-4193-9cd9-44d37aae18d3",
            "nama_pse": "BANK PEREKONOMIAN RAKYAT ARTHA KARYA USAHA",
            "nama_se": "IBS CORE BANKING SYSTEM",
            "sektor": "Sektor Keuangan",
            "tanggal_terbit": "2022-07-20",
            "url_tdpse_detail": "https://pse.komdigi.go.id/tdpse-detail/7852",
            "website": "bpr-aku.com"
        },
        {
            "id": "9cb1abc6-3252-4e21-9467-8588f3eaf392",
            "nama_pse": "SUPER SPRING",
            "nama_se": "GPS.ID",
            "sektor": "Sektor Teknologi Informasi dan Komunikasi",
            "tanggal_terbit": "2022-07-20",
            "url_tdpse_detail": "https://pse.komdigi.go.id/tdpse-detail/7853",
            "website": "GPS.id"
        },
        {
            "id": "9cb1abb9-830d-428b-819b-864c60071832",
            "nama_pse": "BANK PERKREDITAN RAKYAT NUSUMMA JATIM",
            "nama_se": "PT. BPR NUSUMMA JATIM",
            "sektor": "Sektor Keuangan",
            "tanggal_terbit": "2022-07-20",
            "url_tdpse_detail": "https://pse.komdigi.go.id/tdpse-detail/7862",
            "website": "nusumma.co.id"
        },
        {
            "id": "9cb1abc6-353c-4272-b1dd-1c17e6daff75",
            "nama_pse": "BANK PERKREDITAN RAKYAT MODERN EXPRESS NTT",
            "nama_se": "WEBSITE BPR MODERN EXPRESS NTT",
            "sektor": "Sektor Keuangan",
            "tanggal_terbit": "2022-07-20",
            "url_tdpse_detail": "https://pse.komdigi.go.id/tdpse-detail/7858",
            "website": "bprmodex-ntt.com"
        },
        {
            "id": "9cb1abec-42c9-46c1-9980-ac7546e6cd69",
            "nama_pse": "PERUSAHAAN PERSEROAN (PERSERO) PT. BANK RAKYAT INDONESIA",
            "nama_se": "ELEKTRONIK FORM",
            "sektor": "Sektor Keuangan",
            "tanggal_terbit": "2022-07-20",
            "url_tdpse_detail": "https://pse.komdigi.go.id/tdpse-detail/7856",
            "website": "eform.bri.co.id"
        },
        {
            "id": "9cb1abc6-388c-4999-91e6-69e65177c5c4",
            "nama_pse": "BANK PERKREDITAN RAKYAT TUMPANG ARTHASARANA",
            "nama_se": "PT. BPR TUMPANG ARTHASARANA",
            "sektor": "Sektor Keuangan",
            "tanggal_terbit": "2022-07-20",
            "url_tdpse_detail": "https://pse.komdigi.go.id/tdpse-detail/7869",
            "website": "tumpangarthasarana.co.id"
        },
        {
            "id": "9cb1abc6-3c3a-4419-a44b-9cdc19023d7a",
            "nama_pse": "BANK PERKREDITAN RAKYAT EKA BUMI ARTHA",
            "nama_se": "EMAIL BANK EKA",
            "sektor": "Sektor Keuangan",
            "tanggal_terbit": "2022-07-20",
            "url_tdpse_detail": "https://pse.komdigi.go.id/tdpse-detail/7863",
            "website": "mail.bankeka.co.id"
        },
        {
            "id": "9cb1abc6-3f2d-4a7c-bd53-be5776a9d778",
            "nama_pse": "BANK PERKREDITAN RAKYAT KHRISNA DARMA ADIPALA",
            "nama_se": "WEBSITE PT BPR KHRISNA DARMA ADIPALA",
            "sektor": "Sektor Keuangan",
            "tanggal_terbit": "2022-07-20",
            "url_tdpse_detail": "https://pse.komdigi.go.id/tdpse-detail/7859",
            "website": "bprkhrisna.com"
        },
        {
            "id": "9cb1abc6-4347-486e-af88-c43ca603f6aa",
            "nama_pse": "WIDYA KREASI BANGSA",
            "nama_se": "EDSPERT.ID",
            "sektor": "Sektor Teknologi Informasi dan Komunikasi",
            "tanggal_terbit": "2022-07-20",
            "url_tdpse_detail": "https://pse.komdigi.go.id/tdpse-detail/7861",
            "website": "edspert.id"
        },
        {
            "id": "9cb1abb9-87d9-48b1-a057-60bfffa5e108",
            "nama_pse": "MAYBANK INDONESIA FINANCE",
            "nama_se": "KPM DEALER",
            "sektor": "Sektor Keuangan",
            "tanggal_terbit": "2022-07-20",
            "url_tdpse_detail": "https://pse.komdigi.go.id/tdpse-detail/7865",
            "website": "kreditpastimudah.id"
        },
        {
            "id": "9cb1abb9-8a17-460e-891a-0c7c35b791f4",
            "nama_pse": "INOVASI MERAH PUTIH",
            "nama_se": "AKTIVITAS TEKNOLOGI INFORMASI ONLINE",
            "sektor": "Sektor Perdagangan, Sektor Teknologi Informasi dan Komunikasi",
            "tanggal_terbit": "2022-07-20",
            "url_tdpse_detail": "https://pse.komdigi.go.id/tdpse-detail/7896",
            "website": "otr.id"
        },
        {
            "id": "9cb1abc6-4637-4944-a548-c5b78244a6e7",
            "nama_pse": "BINTANG TEKNOLOGI PRATAMA",
            "nama_se": "WEBSITE PT BINTANG UTARA SEJAHTERAH",
            "sektor": "Sektor Teknologi Informasi dan Komunikasi",
            "tanggal_terbit": "2022-07-20",
            "url_tdpse_detail": "https://pse.komdigi.go.id/tdpse-detail/7870",
            "website": "bintangutara.co.id"
        },
        {
            "id": "9cb1abb9-8c07-4e88-85d4-52be0284440d",
            "nama_pse": "BANK PEREKONOMIAN RAKYAT NATA CITRAPERDANA",
            "nama_se": "SATU SIGMA",
            "sektor": "Sektor Keuangan",
            "tanggal_terbit": "2022-07-20",
            "url_tdpse_detail": "https://pse.komdigi.go.id/tdpse-detail/7866",
            "website": "-"
        },
        {
            "id": "9cb1abb9-8efe-438e-96ae-2ca4d37b6da7",
            "nama_pse": "INOVASI TEKNOLOGI SOLUSINDO",
            "nama_se": "TELEMEDIS BY TRUSTMEDIS",
            "sektor": "Sektor Teknologi Informasi dan Komunikasi",
            "tanggal_terbit": "2022-07-20",
            "url_tdpse_detail": "https://pse.komdigi.go.id/tdpse-detail/7864",
            "website": "telemedis.app"
        },
        {
            "id": "9cb1abec-47d2-446e-aa62-daab72277f2e",
            "nama_pse": "BANK PERKREDITAN RAKYAT RAGA JAYATAMA",
            "nama_se": "BANKING SMART SYSTEM",
            "sektor": "Sektor Keuangan",
            "tanggal_terbit": "2022-07-20",
            "url_tdpse_detail": "https://pse.komdigi.go.id/tdpse-detail/7871",
            "website": "bprraga.com"
        },
        {
            "id": "9cb1abc6-4f82-4626-b87e-d701e7ac3df3",
            "nama_pse": "TIP TOP",
            "nama_se": "TIP TOP",
            "sektor": "Sektor Perdagangan",
            "tanggal_terbit": "2022-07-20",
            "url_tdpse_detail": "https://pse.komdigi.go.id/tdpse-detail/7873",
            "website": "shop.tiptop.co.id"
        },
        {
            "id": "9cb1abb9-90d2-48db-81d4-43e4b6f69b07",
            "nama_pse": "BANK PERKREDITAN RAKYAT BALAGUNA PERASTA",
            "nama_se": "PT USSI PINBUK PRIMA SOFTWARE",
            "sektor": "Sektor Keuangan",
            "tanggal_terbit": "2022-07-20",
            "url_tdpse_detail": "https://pse.komdigi.go.id/tdpse-detail/7876",
            "website": "bprprasta.com"
        },
        {
            "id": "9cb1abb9-936c-4604-9833-10d056ff0028",
            "nama_pse": "SMART MULTI FINANCE",
            "nama_se": "INVENTORY SMART FINANCE",
            "sektor": "Sektor Keuangan",
            "tanggal_terbit": "2022-07-20",
            "url_tdpse_detail": "https://pse.komdigi.go.id/tdpse-detail/7879",
            "website": "inventory.smartfinance.co.id"
        },
        {
            "id": "9cb1abec-4e5c-41d4-9092-bedfd1322098",
            "nama_pse": "BPR BRILIAN INVESTAMA",
            "nama_se": "BRILIANINVESTAMA.COM",
            "sektor": "Sektor Keuangan",
            "tanggal_terbit": "2022-07-20",
            "url_tdpse_detail": "https://pse.komdigi.go.id/tdpse-detail/7875",
            "website": "brilianinvestama.com"
        },
        {
            "id": "9cb1abc6-5493-4028-a7d2-848b27e6e3ab",
            "nama_pse": "DKATALIS DIGITAL LAB",
            "nama_se": "PEOPLE XPERIENCE APP",
            "sektor": "Sektor Teknologi Informasi dan Komunikasi",
            "tanggal_terbit": "2022-07-20",
            "url_tdpse_detail": "https://pse.komdigi.go.id/tdpse-detail/7874",
            "website": "-"
        },
        {
            "id": "9cb1abb9-9808-4316-9d82-7ad340407f2e",
            "nama_pse": "BANK PERKREDITAN RAKYAT BANK JEPARA ARTHA (PERSERODA)",
            "nama_se": "WEBSITE PT BPR BANK JEPARA ARTHA (PERSERODA)",
            "sektor": "Sektor Keuangan",
            "tanggal_terbit": "2022-07-20",
            "url_tdpse_detail": "https://pse.komdigi.go.id/tdpse-detail/7932",
            "website": "bprbja.com"
        },
        {
            "id": "9cb1abb9-9a0a-4ace-bc02-fc4c56c4d7d2",
            "nama_pse": "GARENA INDONESIA",
            "nama_se": "FREE FIRE",
            "sektor": "Sektor Teknologi Informasi dan Komunikasi",
            "tanggal_terbit": "2022-07-20",
            "url_tdpse_detail": "https://pse.komdigi.go.id/tdpse-detail/7903",
            "website": "-"
        },
        {
            "id": "9cb1abec-5736-4bdc-9d51-a82a14210f62",
            "nama_pse": "WAHANA INTERFOOD NUSANTARA",
            "nama_se": "WEBSITE  WAHANA INTERFOOD NUSANTARA, TBK",
            "sektor": "Sektor Perdagangan",
            "tanggal_terbit": "2022-07-20",
            "url_tdpse_detail": "https://pse.komdigi.go.id/tdpse-detail/7883",
            "website": "wahana-interfood.com"
        },
        {
            "id": "9cb1abb9-9c18-4ed2-9a07-3cb3c6ce5b5d",
            "nama_pse": "FITRI MAYA SAFIRA",
            "nama_se": "WEBCOMMERCE",
            "sektor": "Sektor Perdagangan",
            "tanggal_terbit": "2022-07-20",
            "url_tdpse_detail": "https://pse.komdigi.go.id/tdpse-detail/7901",
            "website": "banananina.co.id"
        },
        {
            "id": "9cb1abec-5b6c-4e2e-8539-307bb9e610cf",
            "nama_pse": "JEJALA PARARTA INTERNATIONAL",
            "nama_se": "JEJALA",
            "sektor": "Sektor Teknologi Informasi dan Komunikasi",
            "tanggal_terbit": "2022-07-20",
            "url_tdpse_detail": "https://pse.komdigi.go.id/tdpse-detail/7885",
            "website": "jejala.com"
        },
        {
            "id": "9cb1abec-612f-4581-abd3-478b099f8cb1",
            "nama_pse": "BANK PERKREDITAN RAKYAT PUNDHI ARTA INDONESIA",
            "nama_se": "WEBSITE COMPANY PROFILE",
            "sektor": "Sektor Keuangan",
            "tanggal_terbit": "2022-07-20",
            "url_tdpse_detail": "https://pse.komdigi.go.id/tdpse-detail/7886",
            "website": "bankpundhiartaindonesia.co.id"
        },
        {
            "id": "9cb1abc6-59ef-4132-84c0-d4c700c75703",
            "nama_pse": "BANK KB BUKOPIN",
            "nama_se": "KB BUKOPIN VPN",
            "sektor": "Sektor Keuangan",
            "tanggal_terbit": "2022-07-20",
            "url_tdpse_detail": "https://pse.komdigi.go.id/tdpse-detail/8084",
            "website": "vpn.bukopin.co.id"
        },
        {
            "id": "9cb1abc6-5e4a-4cb7-b7e9-f4328c5b753a",
            "nama_pse": "NUSANTARA BONAPASOGIT",
            "nama_se": "NBP SYS",
            "sektor": "Sektor Keuangan",
            "tanggal_terbit": "2022-07-20",
            "url_tdpse_detail": "https://pse.komdigi.go.id/tdpse-detail/7887",
            "website": "-"
        },
        {
            "id": "9cb1abb9-9e2b-413c-90de-2ccac915dcd9",
            "nama_pse": "BANK PEREKONOMIAN RAKYAT SUMBER DANA MAS",
            "nama_se": "PT BPR SUMBER DANA MAS",
            "sektor": "Sektor Perdagangan",
            "tanggal_terbit": "2022-07-20",
            "url_tdpse_detail": "https://pse.komdigi.go.id/tdpse-detail/7890",
            "website": "bprsumberdanamas.co.id"
        },
        {
            "id": "9cb1abb9-a038-4da6-a733-0a50112da734",
            "nama_pse": "BANK PERKREDITAN RAKYAT MODERN EXPRESS NTT",
            "nama_se": "DIGITAL MODERN (DIGIMOD) E-LOAN -BPR MODERN EXPRESS NTT",
            "sektor": "Sektor Keuangan",
            "tanggal_terbit": "2022-07-20",
            "url_tdpse_detail": "https://pse.komdigi.go.id/tdpse-detail/7894",
            "website": "digimod.bprmodernexpressntt.com"
        },
        {
            "id": "9cb1abb9-a252-4727-9b93-3e0d90859cb9",
            "nama_pse": "BOSOWA ASURANSI",
            "nama_se": "CEK EPOLIS BOSOWA ASURANSI",
            "sektor": "Sektor Keuangan",
            "tanggal_terbit": "2022-07-20",
            "url_tdpse_detail": "https://pse.komdigi.go.id/tdpse-detail/7895",
            "website": "bosowaasuransi.com"
        },
        {
            "id": "9cb1abec-6505-4a9c-b40e-4f3f67f98d5d",
            "nama_pse": "BANK PERKREDITAN RAKYAT TATA ARTHA SADAYA",
            "nama_se": "BPR TATA ARTHA SADAYA",
            "sektor": "Sektor Keuangan",
            "tanggal_terbit": "2022-07-20",
            "url_tdpse_detail": "https://pse.komdigi.go.id/tdpse-detail/7904",
            "website": "bprtas.co.id"
        },
        {
            "id": "9cb1abc6-6214-4784-8a2e-a05a66e38081",
            "nama_pse": "BANK PERKREDITAN RAKYAT KARUNIA DEWATA",
            "nama_se": "BANKING SMART SISTEM",
            "sektor": "Sektor Keuangan",
            "tanggal_terbit": "2022-07-20",
            "url_tdpse_detail": "https://pse.komdigi.go.id/tdpse-detail/7892",
            "website": "-"
        },
        {
            "id": "9cb1abc6-6682-4717-b6a4-178a1664988c",
            "nama_pse": "ARTJAVA PUTRA PRIMA",
            "nama_se": "MISS MASS LOGISTIC",
            "sektor": "Sektor Perdagangan, Sektor Transportasi",
            "tanggal_terbit": "2022-07-20",
            "url_tdpse_detail": "https://pse.komdigi.go.id/tdpse-detail/7949",
            "website": "mismasslogistic.com"
        },
        {
            "id": "9cb1abc6-69fa-4497-85b1-7ab6b1a7d244",
            "nama_pse": "YELLOWKENDI ANDALAN MITRA",
            "nama_se": "YELLOWKENDI",
            "sektor": "Sektor Perdagangan",
            "tanggal_terbit": "2022-07-20",
            "url_tdpse_detail": "https://pse.komdigi.go.id/tdpse-detail/7972",
            "website": "yellowkendi.com"
        },
        {
            "id": "9cb1abec-68de-4904-bc99-60e24ee380e9",
            "nama_pse": "ANUGRAH LIMA SEMESTA",
            "nama_se": "THE DAILY WASH LAUNDROMAT",
            "sektor": "Sektor Perdagangan, Sektor Teknologi Informasi dan Komunikasi",
            "tanggal_terbit": "2022-07-20",
            "url_tdpse_detail": "https://pse.komdigi.go.id/tdpse-detail/7893",
            "website": "thedailywash.co.id"
        },
        {
            "id": "9cb1abc6-6cfe-41bf-ae00-9b9e8c32a1b5",
            "nama_pse": "ASURANSI CENTRAL ASIA",
            "nama_se": "ACA-EPOLIS.COM",
            "sektor": "Sektor Keuangan",
            "tanggal_terbit": "2022-07-20",
            "url_tdpse_detail": "https://pse.komdigi.go.id/tdpse-detail/7899",
            "website": "aca-epolis.com"
        },
        {
            "id": "9cb1abec-6cd7-43a5-ad48-43d64b9720e1",
            "nama_pse": "SINTESA PERSADA TEKNOLOGI",
            "nama_se": "BENNIX",
            "sektor": "Sektor Teknologi Informasi dan Komunikasi",
            "tanggal_terbit": "2022-07-20",
            "url_tdpse_detail": "https://pse.komdigi.go.id/tdpse-detail/7902",
            "website": "bennix.id"
        },
        {
            "id": "9cb1abb9-a4ad-483b-b586-4d6b48cc0395",
            "nama_pse": "MEDIKA NUSANTARA GUMILANG",
            "nama_se": "MEDI-CALL",
            "sektor": "Sektor Kesehatan, Sektor Teknologi Informasi dan Komunikasi",
            "tanggal_terbit": "2022-07-20",
            "url_tdpse_detail": "https://pse.komdigi.go.id/tdpse-detail/7906",
            "website": "medi-call.id"
        },
        {
            "id": "9cb1abc6-70b8-4acd-a3a0-73b97806435f",
            "nama_pse": "BANK PEMBANGUNAN DAERAH LAMPUNG",
            "nama_se": "LAMPUNG ONLINE",
            "sektor": "Sektor Keuangan, Sektor Teknologi Informasi dan Komunikasi",
            "tanggal_terbit": "2022-07-20",
            "url_tdpse_detail": "https://pse.komdigi.go.id/tdpse-detail/7897",
            "website": "banklampung.co.id"
        },
        {
            "id": "9cb1abb9-a6c2-445d-b031-aac467c2a10a",
            "nama_pse": "WEB GUE INDONESIA",
            "nama_se": "WEBGUE.COM",
            "sektor": "Sektor Teknologi Informasi dan Komunikasi",
            "tanggal_terbit": "2022-07-20",
            "url_tdpse_detail": "https://pse.komdigi.go.id/tdpse-detail/7898",
            "website": "webgue.com"
        },
        {
            "id": "9cb1abc6-79a7-4f4e-9b1f-b309867767f1",
            "nama_pse": "BANK PEMBIAYAAN RAKYAT SYARIAH BUMI ARTHA SAMPANG",
            "nama_se": "ISLAMIC BANKING APPLICATION",
            "sektor": "Sektor Keuangan",
            "tanggal_terbit": "2022-07-20",
            "url_tdpse_detail": "https://pse.komdigi.go.id/tdpse-detail/7907",
            "website": "BUMIARTHASAMPANG.COM"
        },
        {
            "id": "9cb1abc6-7ead-4e57-b4cb-2077970b8591",
            "nama_pse": "ASURANSI CENTRAL ASIA",
            "nama_se": "ACA-POCKET.COM",
            "sektor": "Sektor Keuangan",
            "tanggal_terbit": "2022-07-20",
            "url_tdpse_detail": "https://pse.komdigi.go.id/tdpse-detail/7900",
            "website": "aca-pocket.com"
        },
        {
            "id": "9cb1abb9-a8a2-4be4-9971-0d91f0f987c1",
            "nama_pse": "UNIVERSAL BROKER INDONESIA SEKURITAS",
            "nama_se": "EZYDEAL 5",
            "sektor": "Sektor Perdagangan, Sektor Keuangan, Sektor Teknologi Informasi dan Komunikasi",
            "tanggal_terbit": "2022-07-20",
            "url_tdpse_detail": "https://pse.komdigi.go.id/tdpse-detail/7908",
            "website": "universalbroker.co.id"
        },
        {
            "id": "9cb1abec-6fd9-444f-b62a-a3aff1d3d82e",
            "nama_pse": "BANK PERKREDITAN RAKYAT KEPRI BATAM",
            "nama_se": "PT. BPR KEPRI BATAM",
            "sektor": "Sektor Keuangan",
            "tanggal_terbit": "2022-07-20",
            "url_tdpse_detail": "https://pse.komdigi.go.id/tdpse-detail/7905",
            "website": "bprkepribatam.com"
        },
        {
            "id": "9cb1abec-73aa-4e77-beca-70f4ad1c80c6",
            "nama_pse": "BANK PEREKONOMIAN RAKYAT DANA RAYA",
            "nama_se": "WEBSITE PT. BPR DANA RAYA",
            "sektor": "Sektor Keuangan",
            "tanggal_terbit": "2022-07-20",
            "url_tdpse_detail": "https://pse.komdigi.go.id/tdpse-detail/7910",
            "website": "bprdanara.co.id"
        },
        {
            "id": "9cb1abc6-8582-4d06-86a5-316891b86c0f",
            "nama_pse": "BANK PERKREDITAN RAKYAT BADAN KREDIT KECAMATAN GROGOL PERSERODA",
            "nama_se": "WEBSITE COMPANY PROFELE",
            "sektor": "Sektor Teknologi Informasi dan Komunikasi",
            "tanggal_terbit": "2022-07-20",
            "url_tdpse_detail": "https://pse.komdigi.go.id/tdpse-detail/7917",
            "website": "bprbkkgrogol.co.id"
        },
        {
            "id": "9cb1abb9-ad10-4223-bc91-c878919ba0ec",
            "nama_pse": "BPR RAMBI ARTHA PUTRA",
            "nama_se": "PT INTI SARANA SEJAHTERA",
            "sektor": "Sektor Keuangan",
            "tanggal_terbit": "2022-07-20",
            "url_tdpse_detail": "https://pse.komdigi.go.id/tdpse-detail/7911",
            "website": "-"
        },
        {
            "id": "9cb1abec-77e8-4faa-b362-ea5c125bead4",
            "nama_pse": "ASDP INDONESIA FERRY",
            "nama_se": "FERIZY ONLINE TICKETING",
            "sektor": "Sektor Transportasi",
            "tanggal_terbit": "2022-07-20",
            "url_tdpse_detail": "https://pse.komdigi.go.id/tdpse-detail/7914",
            "website": "ferizy.com"
        },
        {
            "id": "9cb1abc6-88b3-4d68-958e-63a5c6df3237",
            "nama_pse": "BONAFIT MULTI PAYMENT",
            "nama_se": "BONAFIT PAYMENT",
            "sektor": "Sektor Perdagangan",
            "tanggal_terbit": "2022-07-20",
            "url_tdpse_detail": "https://pse.komdigi.go.id/tdpse-detail/7912",
            "website": "bonafitpay.co.id"
        }
    ],
    "processingTimeMs": 4,
    "query": "",
    "totalHits": 19121,
    "hitsPerPage": 50,
    "page": 244,
    "totalPages": 383
}