{
    "hits": [
        {
            "id": "9cb1ac10-51e4-4e0b-8558-f1d74cc9a85b",
            "nama_pse": "JUNGJAVA JAWARA JAGO",
            "nama_se": "JUNG JAVA",
            "sektor": "Sektor Perdagangan",
            "tanggal_terbit": "2022-09-22",
            "url_tdpse_detail": "https://pse.komdigi.go.id/tdpse-detail/11307",
            "website": "jungjava.com"
        },
        {
            "id": "9cb1abdc-c9e1-409a-bf46-8417a2981f05",
            "nama_pse": "LAWGIKA KARYA INDONESIA",
            "nama_se": "LAWGIKA",
            "sektor": "Sektor Teknologi Informasi dan Komunikasi",
            "tanggal_terbit": "2022-09-22",
            "url_tdpse_detail": "https://pse.komdigi.go.id/tdpse-detail/11309",
            "website": "lawgika.co.id"
        },
        {
            "id": "9cb1ac01-9eed-4957-a903-a622343ed821",
            "nama_pse": "DELTA FASHION INDONESIA",
            "nama_se": "PT DELTA FASHION INDONESIA",
            "sektor": "Sektor Perdagangan",
            "tanggal_terbit": "2022-09-22",
            "url_tdpse_detail": "https://pse.komdigi.go.id/tdpse-detail/11311",
            "website": "deltafashion.co.id"
        },
        {
            "id": "9cb1abdc-d620-4db7-8211-d4e5d5dc9430",
            "nama_pse": "AKUR PRATAMA",
            "nama_se": "MYYOGYA",
            "sektor": "Sektor Perdagangan",
            "tanggal_terbit": "2022-09-22",
            "url_tdpse_detail": "https://pse.komdigi.go.id/tdpse-detail/11312",
            "website": "myyogya.com"
        },
        {
            "id": "9cb1ac01-a2a7-40d9-bcb3-a65f9b00433b",
            "nama_pse": "DINALTRI FAKHRUSY SAIFUL",
            "nama_se": "ALT80 - VIRTUAL PHOTOBOOTH",
            "sektor": "Sektor Teknologi Informasi dan Komunikasi",
            "tanggal_terbit": "2022-09-22",
            "url_tdpse_detail": "https://pse.komdigi.go.id/tdpse-detail/11313",
            "website": "ospesya.com"
        },
        {
            "id": "9cb1ac10-6ad7-43d7-9a69-d945a17ced30",
            "nama_pse": "AKUR PRATAMA",
            "nama_se": "YOPAY",
            "sektor": "Sektor Perdagangan",
            "tanggal_terbit": "2022-09-22",
            "url_tdpse_detail": "https://pse.komdigi.go.id/tdpse-detail/11314",
            "website": "yogyagroup.com"
        },
        {
            "id": "9cb1abdc-dbb6-47f2-9d04-68b7716f83cb",
            "nama_pse": "JAYA MANUNGGAL",
            "nama_se": "JYMLINK",
            "sektor": "Sektor Perdagangan",
            "tanggal_terbit": "2022-09-22",
            "url_tdpse_detail": "https://pse.komdigi.go.id/tdpse-detail/11315",
            "website": "jaya-manunggal.com"
        },
        {
            "id": "9cb1ac01-a579-45a8-b333-0e1cb958f236",
            "nama_pse": "AKUR PRATAMA",
            "nama_se": "YOMITRA",
            "sektor": "Sektor Perdagangan",
            "tanggal_terbit": "2022-09-22",
            "url_tdpse_detail": "https://pse.komdigi.go.id/tdpse-detail/11317",
            "website": "yogyagroup.com"
        },
        {
            "id": "9cb1abdc-e3fb-46b7-b35a-765e0359a4b4",
            "nama_pse": "AKUR PRATAMA",
            "nama_se": "FOODLIFE DIGITAL",
            "sektor": "Sektor Perdagangan",
            "tanggal_terbit": "2022-09-22",
            "url_tdpse_detail": "https://pse.komdigi.go.id/tdpse-detail/11318",
            "website": "foodlife.co.id"
        },
        {
            "id": "9cb1ac01-a8c6-4be8-8610-268816674c6d",
            "nama_pse": "TRIBUN DIGITAL GORONTALO",
            "nama_se": "TRIBUNGORONTALO.COM",
            "sektor": "Sektor Teknologi Informasi dan Komunikasi",
            "tanggal_terbit": "2022-09-22",
            "url_tdpse_detail": "https://pse.komdigi.go.id/tdpse-detail/11316",
            "website": "tribungorontalo.com"
        },
        {
            "id": "9cb1ac01-ac22-4da1-84b0-6ffc251e8c74",
            "nama_pse": "ANNORA MULTI INTECH",
            "nama_se": "PUSTAKA DIGITAL (NAME OF CITY)",
            "sektor": "Sektor Teknologi Informasi dan Komunikasi",
            "tanggal_terbit": "2022-09-22",
            "url_tdpse_detail": "https://pse.komdigi.go.id/tdpse-detail/11319",
            "website": "-"
        },
        {
            "id": "9cb1ac01-af77-4209-80ea-50a366997954",
            "nama_pse": "SEJAHTERARAYA ANUGRAHJAYA",
            "nama_se": "MAYAPADA HEALTHCARE DIGITAL SYSTEM",
            "sektor": "Sektor Kesehatan",
            "tanggal_terbit": "2022-09-22",
            "url_tdpse_detail": "https://pse.komdigi.go.id/tdpse-detail/11320",
            "website": "mayapadahospital.com"
        },
        {
            "id": "9cb1ac10-6de1-4fd2-b95c-a9794c2b265a",
            "nama_pse": "PALANGKARAYA MEDIA GRAFIKA",
            "nama_se": "TRIBUNKALTENG.COM",
            "sektor": "Sektor Teknologi Informasi dan Komunikasi",
            "tanggal_terbit": "2022-09-22",
            "url_tdpse_detail": "https://pse.komdigi.go.id/tdpse-detail/11321",
            "website": "tribunkalteng.com"
        },
        {
            "id": "9cb1abdc-ec3f-45b8-a4e6-3233a4ac692d",
            "nama_pse": "TRIBUN DIGITAL JATIM",
            "nama_se": "TRIBUNMADIUN.COM",
            "sektor": "Sektor Teknologi Informasi dan Komunikasi",
            "tanggal_terbit": "2022-09-22",
            "url_tdpse_detail": "https://pse.komdigi.go.id/tdpse-detail/11323",
            "website": "tribunmadiun.com"
        },
        {
            "id": "9cb1ac10-70cc-44cb-b0b8-8d20667f10f2",
            "nama_pse": "TRIBUN DIGITAL JATIM",
            "nama_se": "TRIBUNJEMBER.COM",
            "sektor": "Sektor Teknologi Informasi dan Komunikasi",
            "tanggal_terbit": "2022-09-22",
            "url_tdpse_detail": "https://pse.komdigi.go.id/tdpse-detail/11324",
            "website": "tribunjember.com"
        },
        {
            "id": "9cb1ac01-b76e-49c1-acc0-9bb03abf7cdb",
            "nama_pse": "METROGEMA MEDIA NUSANTARA",
            "nama_se": "SUPERBALL.ID",
            "sektor": "Sektor Teknologi Informasi dan Komunikasi",
            "tanggal_terbit": "2022-09-22",
            "url_tdpse_detail": "https://pse.komdigi.go.id/tdpse-detail/11325",
            "website": "superball.id"
        },
        {
            "id": "9cb1ac01-bacb-4a53-95ec-ea542deb1c34",
            "nama_pse": "MULTI TEKNOLOGI CAPITAL",
            "nama_se": "MAX GOX",
            "sektor": "Sektor Teknologi Informasi dan Komunikasi",
            "tanggal_terbit": "2022-09-22",
            "url_tdpse_detail": "https://pse.komdigi.go.id/tdpse-detail/11326",
            "website": "maxgox.com"
        },
        {
            "id": "9cb1abdc-f2f6-4847-a66f-69b506cca162",
            "nama_pse": "YUSUF AKBAR",
            "nama_se": "TRANS DIGITAL PAPUA",
            "sektor": "Sektor Perdagangan, Sektor Transportasi, Sektor Teknologi Informasi dan Komunikasi",
            "tanggal_terbit": "2022-09-22",
            "url_tdpse_detail": "https://pse.komdigi.go.id/tdpse-detail/11327",
            "website": "-"
        },
        {
            "id": "9cb1ac10-73a8-4190-9b24-677790930c03",
            "nama_pse": "ANDA PUAS KAMI SENANG",
            "nama_se": "HALLO LAUNDRY",
            "sektor": "Sektor Perdagangan, Sektor Keuangan, Sektor Teknologi Informasi dan Komunikasi",
            "tanggal_terbit": "2022-09-22",
            "url_tdpse_detail": "https://pse.komdigi.go.id/tdpse-detail/11328",
            "website": "hallolaundry.com"
        },
        {
            "id": "9cb1ac0e-bd0e-4c29-b045-1710e6ef1b9a",
            "nama_pse": "RANTAI DATA PINTAR",
            "nama_se": "KREDENSIALKU.ID",
            "sektor": "Sektor Teknologi Informasi dan Komunikasi",
            "tanggal_terbit": "2022-09-21",
            "url_tdpse_detail": "https://pse.komdigi.go.id/tdpse-detail/11277",
            "website": "kredensialku.id"
        },
        {
            "id": "9cb1abdc-901c-4865-b066-b7a41787c3e5",
            "nama_pse": "ARTHOMORO LANGGENG ABADI",
            "nama_se": "ARTHO PAY",
            "sektor": "Sektor Perdagangan, Sektor Transportasi, Sektor Keuangan, Sektor Pangan",
            "tanggal_terbit": "2022-09-21",
            "url_tdpse_detail": "https://pse.komdigi.go.id/tdpse-detail/11268",
            "website": "arthomoro.net"
        },
        {
            "id": "9cb1ac10-2494-434d-adcc-4b75221eacb2",
            "nama_pse": "NUR ALFIYAH",
            "nama_se": "SISTEM INFORMASI RUMAH SAKIT DAN KESEHATAN (DOLPHIN HEALTHCARE SYSTEM)",
            "sektor": "Sektor Teknologi Informasi dan Komunikasi",
            "tanggal_terbit": "2022-09-21",
            "url_tdpse_detail": "https://pse.komdigi.go.id/tdpse-detail/11269",
            "website": "sistemrumahsakit.com"
        },
        {
            "id": "9cb1ac01-6390-4a88-8423-8863a1cf9bae",
            "nama_pse": "MUHAMMAD ANDI PRADANI",
            "nama_se": "BPR FIANKA LAPOR",
            "sektor": "Sektor Teknologi Informasi dan Komunikasi",
            "tanggal_terbit": "2022-09-21",
            "url_tdpse_detail": "https://pse.komdigi.go.id/tdpse-detail/11270",
            "website": "-"
        },
        {
            "id": "9cb1ac10-27a7-471c-9733-007c36ea08ad",
            "nama_pse": "PROSPECT MOTOR",
            "nama_se": "OFFICIAL WEBSITE HONDA CIKARANG",
            "sektor": "Sektor Perdagangan",
            "tanggal_terbit": "2022-09-21",
            "url_tdpse_detail": "https://pse.komdigi.go.id/tdpse-detail/11271",
            "website": "ns1.hondacikarang.co.id"
        },
        {
            "id": "9cb1ac01-6996-4b55-9bd8-be8a246776cb",
            "nama_pse": "BULLION ECOSYSTEM INTERNATIONAL",
            "nama_se": "HALAL BAZAAR",
            "sektor": "Sektor Perdagangan",
            "tanggal_terbit": "2022-09-21",
            "url_tdpse_detail": "https://pse.komdigi.go.id/tdpse-detail/11272",
            "website": "halalbazaar.bullionecosystem.com"
        },
        {
            "id": "9cb1ac01-713e-4c55-bfee-152c555bd999",
            "nama_pse": "DANA PENSIUN LEMBAGA KEUANGAN INDOLIFE PENSIONTAMA",
            "nama_se": "WEBSITE DPLK INDOLIFE",
            "sektor": "Sektor Keuangan",
            "tanggal_terbit": "2022-09-21",
            "url_tdpse_detail": "https://pse.komdigi.go.id/tdpse-detail/11273",
            "website": "dplkindolife.com"
        },
        {
            "id": "9cb1abdc-9541-48a6-a59c-bf7538f6b0b2",
            "nama_pse": "GRAMEDIA DIGITAL NUSANTARA",
            "nama_se": "TIRACOMMERCE",
            "sektor": "Sektor Perdagangan",
            "tanggal_terbit": "2022-09-21",
            "url_tdpse_detail": "https://pse.komdigi.go.id/tdpse-detail/11274",
            "website": "TiraCommerce.com"
        },
        {
            "id": "9cb1ac10-2b3d-4ca2-a1c0-b9ab319955ae",
            "nama_pse": "MP GAMES",
            "nama_se": "BABE+",
            "sektor": "Sektor Teknologi Informasi dan Komunikasi",
            "tanggal_terbit": "2022-09-21",
            "url_tdpse_detail": "https://pse.komdigi.go.id/tdpse-detail/11275",
            "website": "babe.co.id"
        },
        {
            "id": "9cb1ac10-2eca-47f1-9f23-643958a24d5f",
            "nama_pse": "ESA MANDIRI ABADI",
            "nama_se": "PT. ESA MANDIRI ABADI",
            "sektor": "Sektor Perdagangan",
            "tanggal_terbit": "2022-09-21",
            "url_tdpse_detail": "https://pse.komdigi.go.id/tdpse-detail/11276",
            "website": "emasolution.co.id"
        },
        {
            "id": "9cb1ac10-3276-4c05-82d4-c133c4b13b1c",
            "nama_pse": "REINHART PREVIANO KOENTJORO",
            "nama_se": "SHARE.REINHART1010.ID",
            "sektor": "Sektor Teknologi Informasi dan Komunikasi",
            "tanggal_terbit": "2022-09-21",
            "url_tdpse_detail": "https://pse.komdigi.go.id/tdpse-detail/11278",
            "website": "share.reinhart1010.id"
        },
        {
            "id": "9cb1abdc-98c7-4742-bbed-5b3eb44d44fd",
            "nama_pse": "KAWAN BISNIS ABADI",
            "nama_se": "ENTERPRIVE OFFICE",
            "sektor": "Sektor Perdagangan",
            "tanggal_terbit": "2022-09-21",
            "url_tdpse_detail": "https://pse.komdigi.go.id/tdpse-detail/11279",
            "website": "enterpriveoffice.com"
        },
        {
            "id": "9cb1ac10-356e-464d-beed-4d5a14d173ad",
            "nama_pse": "TOYOTA MOTOR MANUFACTURING INDONESIA",
            "nama_se": "HUMAN RESOURCE PORTAL",
            "sektor": "Sektor Teknologi Informasi dan Komunikasi",
            "tanggal_terbit": "2022-09-21",
            "url_tdpse_detail": "https://pse.komdigi.go.id/tdpse-detail/11282",
            "website": "hrportal.toyota.co.id"
        },
        {
            "id": "9cb1ac01-7470-413d-852b-64b5ad5076bc",
            "nama_pse": "PROSPECT MOTOR",
            "nama_se": "OFFICIAL WEBSITE HONDA AMARTHA SAMARINDA",
            "sektor": "Sektor Perdagangan",
            "tanggal_terbit": "2022-09-21",
            "url_tdpse_detail": "https://pse.komdigi.go.id/tdpse-detail/11280",
            "website": "ns1.hondaamarthasamarinda.co.id"
        },
        {
            "id": "9cb1ac01-7771-4ae0-a212-4f903aa8d25f",
            "nama_pse": "TOYOTA MOTOR MANUFACTURING INDONESIA",
            "nama_se": "MYTMMIN (MOBILE APPLICATION)",
            "sektor": "Sektor Teknologi Informasi dan Komunikasi",
            "tanggal_terbit": "2022-09-21",
            "url_tdpse_detail": "https://pse.komdigi.go.id/tdpse-detail/11281",
            "website": "mytmmin.toyota.co.id"
        },
        {
            "id": "9cb1ac10-391c-4069-b5db-768598874a1c",
            "nama_pse": "ANEKA DIGITAL KREASI",
            "nama_se": "NINUNINU",
            "sektor": "Sektor Perdagangan",
            "tanggal_terbit": "2022-09-21",
            "url_tdpse_detail": "https://pse.komdigi.go.id/tdpse-detail/11283",
            "website": "ninuninu.id"
        },
        {
            "id": "9cb1abdc-9e11-441f-a9d8-b6b02ddb2b96",
            "nama_pse": "PRIM INOVASI MANDIRI",
            "nama_se": "PRIMASSISTANT",
            "sektor": "Sektor Perdagangan, Sektor Teknologi Informasi dan Komunikasi",
            "tanggal_terbit": "2022-09-21",
            "url_tdpse_detail": "https://pse.komdigi.go.id/tdpse-detail/11284",
            "website": "Prim.id"
        },
        {
            "id": "9cb1abdc-a32d-4a82-9406-dafc00c4bc07",
            "nama_pse": "TOYOTA MOTOR MANUFACTURING INDONESIA",
            "nama_se": "WEBSITE PERUSAHAAN PT TOYOTA MOTOR MANUFACTURING INDONESIA",
            "sektor": "Sektor Teknologi Informasi dan Komunikasi",
            "tanggal_terbit": "2022-09-21",
            "url_tdpse_detail": "https://pse.komdigi.go.id/tdpse-detail/11285",
            "website": "toyota.co.id"
        },
        {
            "id": "9cb1ac10-3c09-4bdf-9e56-adbb78e5b849",
            "nama_pse": "META INTERNASIONAL INDONESIA",
            "nama_se": "METAWATER.ID",
            "sektor": "Sektor Perdagangan",
            "tanggal_terbit": "2022-09-21",
            "url_tdpse_detail": "https://pse.komdigi.go.id/tdpse-detail/11286",
            "website": "metawater.id"
        },
        {
            "id": "9cb1ac10-1266-46e5-a9b0-6868a26a3a4f",
            "nama_pse": "REALITA MEDIA NUSANTARA",
            "nama_se": "MEDIA FAKTA DAN REALITA",
            "sektor": "Sektor Teknologi Informasi dan Komunikasi",
            "tanggal_terbit": "2022-09-20",
            "url_tdpse_detail": "https://pse.komdigi.go.id/tdpse-detail/11241",
            "website": "faktadanrealita.com"
        },
        {
            "id": "9cb1ac01-3d3d-4b15-8cbb-9c9fb0c5b646",
            "nama_pse": "GEO TEKNIK CONSULTANT",
            "nama_se": "GARUT UPDATE",
            "sektor": "Sektor Teknologi Informasi dan Komunikasi",
            "tanggal_terbit": "2022-09-20",
            "url_tdpse_detail": "https://pse.komdigi.go.id/tdpse-detail/11242",
            "website": "garutupdate.com"
        },
        {
            "id": "9cb1ac01-4012-4e51-9b85-7931ea99135b",
            "nama_pse": "GEO TEKNIK CONSULTANT",
            "nama_se": "POJOK GARUT",
            "sektor": "Sektor Teknologi Informasi dan Komunikasi",
            "tanggal_terbit": "2022-09-20",
            "url_tdpse_detail": "https://pse.komdigi.go.id/tdpse-detail/11243",
            "website": "pojokgarut.com"
        },
        {
            "id": "9cb1ac01-42f6-4736-ba55-14b5f93112ab",
            "nama_pse": "TON HADI",
            "nama_se": "SISTEM INFORMASI MANAJEMEN RUMAH SAKIT (SIMRS)",
            "sektor": "Sektor Kesehatan",
            "tanggal_terbit": "2022-09-20",
            "url_tdpse_detail": "https://pse.komdigi.go.id/tdpse-detail/11244",
            "website": "rsramahadi.com"
        },
        {
            "id": "9cb1abdc-570a-4da1-b06e-bc52caab62f3",
            "nama_pse": "KAMI SATU KARYA",
            "nama_se": "APLIKASI DESA TERHUBUNG",
            "sektor": "Sektor Perdagangan, Sektor Transportasi, Sektor Teknologi Informasi dan Komunikasi",
            "tanggal_terbit": "2022-09-20",
            "url_tdpse_detail": "https://pse.komdigi.go.id/tdpse-detail/11245",
            "website": "desaterhubung.com"
        },
        {
            "id": "9cb1ac10-16b2-44eb-abde-6af99a89dd43",
            "nama_pse": "KAVA PRIMA HANESA",
            "nama_se": "KAVACARE",
            "sektor": "Sektor Kesehatan",
            "tanggal_terbit": "2022-09-20",
            "url_tdpse_detail": "https://pse.komdigi.go.id/tdpse-detail/11246",
            "website": "kavacare.id"
        },
        {
            "id": "9cb1abdc-5af2-4768-8886-b76c8f7b4c11",
            "nama_pse": "SAGARA ASIA TEKNOLOGI",
            "nama_se": "PT SAGARA ASIA TEKNOLOGI",
            "sektor": "Sektor Perdagangan, Sektor Teknologi Informasi dan Komunikasi",
            "tanggal_terbit": "2022-09-20",
            "url_tdpse_detail": "https://pse.komdigi.go.id/tdpse-detail/11247",
            "website": "sagaratechnology.com"
        },
        {
            "id": "9cb1ac10-1a3a-438f-b599-aa3d5f632e86",
            "nama_pse": "ALAM SEMPURNA",
            "nama_se": "WWW.VILLA-MARKISA.COM",
            "sektor": "Sektor Perdagangan",
            "tanggal_terbit": "2022-09-20",
            "url_tdpse_detail": "https://pse.komdigi.go.id/tdpse-detail/11249",
            "website": "villa-markisa.com"
        },
        {
            "id": "9cb1ac01-47df-430b-b812-3585ca46b81e",
            "nama_pse": "ELECTROLUX INDONESIA",
            "nama_se": "ELECTROLUX INDONESIA COMPANY WEBSITE",
            "sektor": "Sektor Perdagangan",
            "tanggal_terbit": "2022-09-20",
            "url_tdpse_detail": "https://pse.komdigi.go.id/tdpse-detail/11252",
            "website": "electrolux.co.id"
        },
        {
            "id": "9cb1abdc-5f80-4ec4-b958-d59b61c9895d",
            "nama_pse": "FRONTLINE ARTICO KOMUNIKA",
            "nama_se": "GEMINISATRIAFILM.ID",
            "sektor": "Sektor Perdagangan",
            "tanggal_terbit": "2022-09-20",
            "url_tdpse_detail": "https://pse.komdigi.go.id/tdpse-detail/11248",
            "website": "Geminisatriafilm.id"
        },
        {
            "id": "9cb1ac10-1d9c-4dfe-89c0-d521df33dbe3",
            "nama_pse": "CEMERLANG DAYA SUKSES",
            "nama_se": "CEMERLANGSHOP.COM",
            "sektor": "Sektor Perdagangan",
            "tanggal_terbit": "2022-09-20",
            "url_tdpse_detail": "https://pse.komdigi.go.id/tdpse-detail/11250",
            "website": "cemerlangshop.com"
        },
        {
            "id": "9cb1ac01-4b18-42ab-9f36-16119a177219",
            "nama_pse": "BAKOOL NUSANTARA JAYA",
            "nama_se": "BAKOOL",
            "sektor": "Sektor Perdagangan",
            "tanggal_terbit": "2022-09-20",
            "url_tdpse_detail": "https://pse.komdigi.go.id/tdpse-detail/11251",
            "website": "-"
        }
    ],
    "processingTimeMs": 4,
    "query": "",
    "totalHits": 19131,
    "hitsPerPage": 50,
    "page": 183,
    "totalPages": 383
}