{
    "hits": [
        {
            "id": "9d0548c8-c6e9-4322-a038-d8d4e1548db5",
            "nama_pse": "GOOGLE INDONESIA",
            "nama_se": "GOOGLE MENYEDIAKAN LAYANAN DARING TERMASUK APLIKASI MOBILE YOUTUBE, PT GOOGLE INDONESIA ADALAH PERUSAHAAN LOKAL GOOGLE UNTUK KEGIATAN YANG DILAKUKAN DI INDONESIA YG MENCAKUP PENYEDIAAN LAYANAN PEMASARAN \u0026 DUKUNGAN DI INDONESIA UTK LAYANAN DARING DI ATAS.",
            "sektor": "Sektor Energi dan Sumber Daya Mineral, Sektor Transportasi, Sektor Teknologi Informasi dan Komunikasi",
            "tanggal_terbit": "2024-09-16",
            "url_tdpse_detail": "https://pse.komdigi.go.id/tdpse-detail/20405",
            "website": "-"
        },
        {
            "id": "9d043831-0ac4-4af6-ac1e-ad8feff4603c",
            "nama_pse": "SOKRATECH TEKNOLOGI INDONESIA",
            "nama_se": "SOKRATECH",
            "sektor": "Sektor Perdagangan, Sektor Teknologi Informasi dan Komunikasi",
            "tanggal_terbit": "2024-09-15",
            "url_tdpse_detail": "https://pse.komdigi.go.id/tdpse-detail/20402",
            "website": "sokratech.id"
        },
        {
            "id": "9d01264c-f57f-4afe-9dd7-83fe785bf33f",
            "nama_pse": "JEJAK KASUS GROUP",
            "nama_se": "jejakperkara.id",
            "sektor": "Sektor Teknologi Informasi dan Komunikasi",
            "tanggal_terbit": "2024-09-14",
            "url_tdpse_detail": "https://pse.komdigi.go.id/tdpse-detail/20400",
            "website": "jejakperkara.id"
        },
        {
            "id": "9d01eba7-eb00-4004-a186-3277ce470bcb",
            "nama_pse": "SAUMATA TEKNOSAINS GLOBAL",
            "nama_se": "QASSA",
            "sektor": "Sektor Perdagangan, Sektor Teknologi Informasi dan Komunikasi",
            "tanggal_terbit": "2024-09-14",
            "url_tdpse_detail": "https://pse.komdigi.go.id/tdpse-detail/20401",
            "website": "qassa.id"
        },
        {
            "id": "9cff6adf-13cb-4270-8b08-071e68d6ba9f",
            "nama_pse": "SARANA SUMATERA BARAT VENTURA",
            "nama_se": "www.sumbarventura.co.id",
            "sektor": "Sektor Keuangan",
            "tanggal_terbit": "2024-09-13",
            "url_tdpse_detail": "https://pse.komdigi.go.id/tdpse-detail/20384",
            "website": "sumbarventura.co.id"
        },
        {
            "id": "9cff478e-3a89-4964-9e2d-9dfc246c8716",
            "nama_pse": "MAJA INDO CRAFT",
            "nama_se": "MAJA INDO CRAFT",
            "sektor": "Sektor Perdagangan",
            "tanggal_terbit": "2024-09-13",
            "url_tdpse_detail": "https://pse.komdigi.go.id/tdpse-detail/20382",
            "website": "majaindocraft.com"
        },
        {
            "id": "9cff0096-170a-45af-bda5-141ef2372caf",
            "nama_pse": "FIRST FAMILY NETWORK",
            "nama_se": "LAYANAN INTERNET LOKAL",
            "sektor": "Sektor Teknologi Informasi dan Komunikasi",
            "tanggal_terbit": "2024-09-13",
            "url_tdpse_detail": "https://pse.komdigi.go.id/tdpse-detail/20377",
            "website": "-"
        },
        {
            "id": "9cff2cec-11cf-46f2-bb83-76d3843e797b",
            "nama_pse": "AP\u0026M INDONESIA",
            "nama_se": "IDN FINANCIALS",
            "sektor": "Sektor Teknologi Informasi dan Komunikasi",
            "tanggal_terbit": "2024-09-13",
            "url_tdpse_detail": "https://pse.komdigi.go.id/tdpse-detail/20379",
            "website": "idnfinancials.com"
        },
        {
            "id": "9cff245d-6b6e-4887-a322-e92fb2494755",
            "nama_pse": "MEYZ BUSINESS STRATEGY",
            "nama_se": "MEYZ DMS",
            "sektor": "Sektor Perdagangan, Sektor Teknologi Informasi dan Komunikasi",
            "tanggal_terbit": "2024-09-13",
            "url_tdpse_detail": "https://pse.komdigi.go.id/tdpse-detail/20378",
            "website": "-"
        },
        {
            "id": "9cff6bb9-452a-4b15-8cb3-37d96afa2ce5",
            "nama_pse": "JASA",
            "nama_se": "MJASA",
            "sektor": "Sektor Keuangan",
            "tanggal_terbit": "2024-09-13",
            "url_tdpse_detail": "https://pse.komdigi.go.id/tdpse-detail/20386",
            "website": "kospinjasa.com"
        },
        {
            "id": "9cff6479-437b-4026-80fa-2f7b286eeb8d",
            "nama_pse": "DAILY DINAMIKA KREASI",
            "nama_se": "FEMALE DAILY STUDIO",
            "sektor": "Sektor Perdagangan",
            "tanggal_terbit": "2024-09-13",
            "url_tdpse_detail": "https://pse.komdigi.go.id/tdpse-detail/20383",
            "website": "studio.femaledaily.com"
        },
        {
            "id": "9cffa1f3-8ca1-4b23-b7f7-d67255eb93c9",
            "nama_pse": "BANK DKI",
            "nama_se": "JAKONE PAY",
            "sektor": "Sektor Keuangan",
            "tanggal_terbit": "2024-09-13",
            "url_tdpse_detail": "https://pse.komdigi.go.id/tdpse-detail/20391",
            "website": "jakonepay.id"
        },
        {
            "id": "9cff7b96-32ae-4675-8542-0644575248ce",
            "nama_pse": "BUMI PROKLAMASI",
            "nama_se": "SIMRS KHANZAQ",
            "sektor": "Sektor Kesehatan",
            "tanggal_terbit": "2024-09-13",
            "url_tdpse_detail": "https://pse.komdigi.go.id/tdpse-detail/20387",
            "website": "-"
        },
        {
            "id": "9cfffd87-aaea-413a-9216-0fd224dfd438",
            "nama_pse": "BULETIN DEWATA MULTIMEDIA",
            "nama_se": "BULETIN DEWATA",
            "sektor": "Sektor Teknologi Informasi dan Komunikasi",
            "tanggal_terbit": "2024-09-13",
            "url_tdpse_detail": "https://pse.komdigi.go.id/tdpse-detail/20398",
            "website": "buletindewata.com"
        },
        {
            "id": "9cff807f-9dd3-4fb9-b644-8f0404695554",
            "nama_pse": "NEARBY DIGITAL INDONESIA",
            "nama_se": "PIJAT PRO",
            "sektor": "Sektor Teknologi Informasi dan Komunikasi",
            "tanggal_terbit": "2024-09-13",
            "url_tdpse_detail": "https://pse.komdigi.go.id/tdpse-detail/20388",
            "website": "pijatpro.com"
        },
        {
            "id": "9cffa2c1-07b5-40df-87aa-7952ece2ec5a",
            "nama_pse": "RINTIS SEJAHTERA",
            "nama_se": "JARINGAN PRIMA",
            "sektor": "Sektor Keuangan",
            "tanggal_terbit": "2024-09-13",
            "url_tdpse_detail": "https://pse.komdigi.go.id/tdpse-detail/20392",
            "website": "jaringanprima.co.id"
        },
        {
            "id": "9cff80c2-c24d-497c-9c93-89cd2dd85144",
            "nama_pse": "WIDA PRAPONCO SUBAGYO",
            "nama_se": "MEDIKFLOW",
            "sektor": "Sektor Kesehatan, Sektor Teknologi Informasi dan Komunikasi",
            "tanggal_terbit": "2024-09-13",
            "url_tdpse_detail": "https://pse.komdigi.go.id/tdpse-detail/20389",
            "website": "medikflow.gse.co.id"
        },
        {
            "id": "9cb1ac36-0147-43c4-8b9f-fc57dfcf0d8f",
            "nama_pse": "INI TIKET QUE",
            "nama_se": "TIKETQ.COM",
            "sektor": "Sektor Perdagangan",
            "tanggal_terbit": "2024-09-13",
            "url_tdpse_detail": "https://pse.komdigi.go.id/tdpse-detail/20396",
            "website": "tiketq.com"
        },
        {
            "id": "9cffa33e-5e49-485f-b182-ebcf67c57666",
            "nama_pse": "PERUSAHAAN PERSEROAN (PERSERO) PT. BANK TABUNGAN NEGARA",
            "nama_se": "ePayment",
            "sektor": "Sektor Teknologi Informasi dan Komunikasi",
            "tanggal_terbit": "2024-09-13",
            "url_tdpse_detail": "https://pse.komdigi.go.id/tdpse-detail/20393",
            "website": "epayment.btn.co.id"
        },
        {
            "id": "9d077525-00f8-47fb-8b7f-57a65d8e96a5",
            "nama_pse": "SENTRA BITWEWE INDONESIA",
            "nama_se": "BITWEWE INDONESIA",
            "sektor": "Sektor Perdagangan",
            "tanggal_terbit": "2024-09-13",
            "url_tdpse_detail": "https://pse.komdigi.go.id/tdpse-detail/20418",
            "website": "bitwewe.co.id"
        },
        {
            "id": "9cffbd8f-cee8-4a9a-8425-1eda55be2b01",
            "nama_pse": "MINIONS CELL INDONESIA",
            "nama_se": "MINIONS STORE",
            "sektor": "Sektor Perdagangan",
            "tanggal_terbit": "2024-09-13",
            "url_tdpse_detail": "https://pse.komdigi.go.id/tdpse-detail/20397",
            "website": "minionscell.com"
        },
        {
            "id": "9d0001ee-c1ab-444c-a4e1-57b4676cddc8",
            "nama_pse": "BULETIN DEWATA MULTIMEDIA",
            "nama_se": "BULETIN DEWATA",
            "sektor": "Sektor Teknologi Informasi dan Komunikasi",
            "tanggal_terbit": "2024-09-13",
            "url_tdpse_detail": "https://pse.komdigi.go.id/tdpse-detail/20399",
            "website": "buletindewata.com"
        },
        {
            "id": "9cff34b7-653c-434c-9e5f-506fcf58cd08",
            "nama_pse": "NASHRITZ ROYAL UTAMA",
            "nama_se": "WEBSITE PORTAL LAYANAN JASA IKLAN PROPERTI",
            "sektor": "Sektor Perdagangan, Sektor Teknologi Informasi dan Komunikasi",
            "tanggal_terbit": "2024-09-13",
            "url_tdpse_detail": "https://pse.komdigi.go.id/tdpse-detail/20380",
            "website": "vproperti.com"
        },
        {
            "id": "9cff3ea8-90a6-45a7-a540-31768db93d74",
            "nama_pse": "AIRBOT TECHNOLOGY INDONESIA",
            "nama_se": "CATHAY ELECTRONICS ID",
            "sektor": "Sektor Perdagangan",
            "tanggal_terbit": "2024-09-13",
            "url_tdpse_detail": "https://pse.komdigi.go.id/tdpse-detail/20381",
            "website": "id.cathayelectronic.com"
        },
        {
            "id": "9cffa682-e11f-4226-8c94-a620c154178c",
            "nama_pse": "VOLVO CONSTRUCTION EQUIPMENT AND SERVICES INDONESIA",
            "nama_se": "VOLVO DIGITAL SERVICE CONNECTED MAP \u0026 PERFORMANCE INDICATORS – ROCK2ROAD",
            "sektor": "Sektor Teknologi Informasi dan Komunikasi",
            "tanggal_terbit": "2024-09-13",
            "url_tdpse_detail": "https://pse.komdigi.go.id/tdpse-detail/20394",
            "website": "rock2road.com"
        },
        {
            "id": "9cffa014-96b6-4930-bf5d-c929061da4a6",
            "nama_pse": "BALI KERTHI DEVELOPMENT FUND VENTURA",
            "nama_se": "WEBSITE PT BALI KERTHI DEVELOPMENT FUND VENTURA",
            "sektor": "Sektor Keuangan",
            "tanggal_terbit": "2024-09-13",
            "url_tdpse_detail": "https://pse.komdigi.go.id/tdpse-detail/20390",
            "website": "bdf.co.id"
        },
        {
            "id": "9cff6b42-71fc-4769-b781-ec648d88d2a4",
            "nama_pse": "SARANA YOGYA VENTURA",
            "nama_se": "WEBSITE PT SARANA YOGYA VENTURA",
            "sektor": "Sektor Keuangan",
            "tanggal_terbit": "2024-09-13",
            "url_tdpse_detail": "https://pse.komdigi.go.id/tdpse-detail/20385",
            "website": "yogyaventura.com"
        },
        {
            "id": "9cfd5e1a-08b1-454d-b8f7-e98d844a6e5e",
            "nama_pse": "FAMILY FORZA NETWORK",
            "nama_se": "LAYANAN INTERNET LOKAL ( RT RW NET)",
            "sektor": "Sektor Teknologi Informasi dan Komunikasi",
            "tanggal_terbit": "2024-09-12",
            "url_tdpse_detail": "https://pse.komdigi.go.id/tdpse-detail/20364",
            "website": "-"
        },
        {
            "id": "9cfd4f16-4f92-4374-9419-3b354160accc",
            "nama_pse": "MENARA AGUNG",
            "nama_se": "UNI MINA",
            "sektor": "Sektor Perdagangan",
            "tanggal_terbit": "2024-09-12",
            "url_tdpse_detail": "https://pse.komdigi.go.id/tdpse-detail/20362",
            "website": "-"
        },
        {
            "id": "9cd35802-b1fc-47f8-a181-df026eee0c8c",
            "nama_pse": "PERUSAHAAN PERSEROAN (PERSERO) PT. TELEKOMUNIKASI INDONESIA",
            "nama_se": "FAB DIGITAL",
            "sektor": "Sektor Teknologi Informasi dan Komunikasi",
            "tanggal_terbit": "2024-09-12",
            "url_tdpse_detail": "https://pse.komdigi.go.id/tdpse-detail/20361",
            "website": "fab.telkom.co.id"
        },
        {
            "id": "9cfcff74-dab3-48bb-a326-e41cabad2213",
            "nama_pse": "PANCA GLOBAL SEKURITAS",
            "nama_se": "HEI5",
            "sektor": "Sektor Keuangan",
            "tanggal_terbit": "2024-09-12",
            "url_tdpse_detail": "https://pse.komdigi.go.id/tdpse-detail/20356",
            "website": "hei5.id"
        },
        {
            "id": "9cfcfedb-23bd-4c64-8a35-8f9baaf1daf8",
            "nama_pse": "INDONESIA INTERNATIONAL FINANCE",
            "nama_se": "IIFINANCE",
            "sektor": "Sektor Keuangan",
            "tanggal_terbit": "2024-09-12",
            "url_tdpse_detail": "https://pse.komdigi.go.id/tdpse-detail/20355",
            "website": "iifinance.co.id"
        },
        {
            "id": "9cfd22a4-f957-45e2-a71e-bdd4af825ed8",
            "nama_pse": "AL-MADINAH KASEMBON",
            "nama_se": "SISTEM INFORMASI MANAJEMEN RUMAH SAKIT MADINAH KASEMBON",
            "sektor": "Sektor Kesehatan",
            "tanggal_terbit": "2024-09-12",
            "url_tdpse_detail": "https://pse.komdigi.go.id/tdpse-detail/20359",
            "website": "rsuimadinah.com"
        },
        {
            "id": "9cfd1cca-f0ff-4c40-a9ec-c10ccb4f01ad",
            "nama_pse": "MONCHAI HAMPERS GROUP",
            "nama_se": "mataxpost.com",
            "sektor": "Sektor Teknologi Informasi dan Komunikasi",
            "tanggal_terbit": "2024-09-12",
            "url_tdpse_detail": "https://pse.komdigi.go.id/tdpse-detail/20358",
            "website": "mataxpost.com"
        },
        {
            "id": "9cfc5e76-66a5-4b23-8cc8-c5ab18e2702f",
            "nama_pse": "VELORA MEDIA GROUP",
            "nama_se": "beritakorea.id",
            "sektor": "Sektor Teknologi Informasi dan Komunikasi",
            "tanggal_terbit": "2024-09-12",
            "url_tdpse_detail": "https://pse.komdigi.go.id/tdpse-detail/20354",
            "website": "-"
        },
        {
            "id": "9cfd28e0-7509-488c-98e4-cb094bccdd46",
            "nama_pse": "DATACENTER INDONESIA SUKSES PERKASA",
            "nama_se": "DATACENTER INDONESIA SUKSES PERKASA",
            "sektor": "Sektor Teknologi Informasi dan Komunikasi",
            "tanggal_terbit": "2024-09-12",
            "url_tdpse_detail": "https://pse.komdigi.go.id/tdpse-detail/20360",
            "website": "-"
        },
        {
            "id": "9cfd5155-5956-47d6-a0da-11f03d083148",
            "nama_pse": "TUNAS AUTO GRAHA",
            "nama_se": "E TAG SYSTEM",
            "sektor": "Sektor Perdagangan",
            "tanggal_terbit": "2024-09-12",
            "url_tdpse_detail": "https://pse.komdigi.go.id/tdpse-detail/20363",
            "website": "-"
        },
        {
            "id": "9cfd8469-8a04-4566-8184-e2991b75c05a",
            "nama_pse": "SAKINA NET SOLUTION",
            "nama_se": "LAYANAN INTERNET LOKAL",
            "sektor": "Sektor Teknologi Informasi dan Komunikasi",
            "tanggal_terbit": "2024-09-12",
            "url_tdpse_detail": "https://pse.komdigi.go.id/tdpse-detail/20366",
            "website": "-"
        },
        {
            "id": "9cfd9308-b0c6-41ee-a5a8-4d2062bb346c",
            "nama_pse": "LINTAS JARINGAN NEGERI",
            "nama_se": "LAYANAN INTERNET LOKAL",
            "sektor": "Sektor Teknologi Informasi dan Komunikasi",
            "tanggal_terbit": "2024-09-12",
            "url_tdpse_detail": "https://pse.komdigi.go.id/tdpse-detail/20368",
            "website": "-"
        },
        {
            "id": "9cfd5ea0-6ddb-4864-8f16-c6b15d4051fa",
            "nama_pse": "BISNIS INI SINERGI",
            "nama_se": "PT BISNIS INI SINERGI",
            "sektor": "Sektor Teknologi Informasi dan Komunikasi",
            "tanggal_terbit": "2024-09-12",
            "url_tdpse_detail": "https://pse.komdigi.go.id/tdpse-detail/20365",
            "website": "-"
        },
        {
            "id": "9cfdc5a9-a49c-436f-b853-08bc0d226455",
            "nama_pse": "WANDI",
            "nama_se": "HARMAS NET",
            "sektor": "Sektor Teknologi Informasi dan Komunikasi",
            "tanggal_terbit": "2024-09-12",
            "url_tdpse_detail": "https://pse.komdigi.go.id/tdpse-detail/20371",
            "website": "-"
        },
        {
            "id": "9cfda2bf-3ece-4e00-8c7c-8c0eae2d789e",
            "nama_pse": "INTERNATIONAL BIOMETRICS INDONESIA",
            "nama_se": "BIOCHECK - SISTEM LAYANAN OTENTIKASI IDENTITAS",
            "sektor": "Sektor Teknologi Informasi dan Komunikasi",
            "tanggal_terbit": "2024-09-12",
            "url_tdpse_detail": "https://pse.komdigi.go.id/tdpse-detail/20370",
            "website": "-"
        },
        {
            "id": "9cfd924f-609d-4d60-bcd3-6011c7d32f50",
            "nama_pse": "SNEF TEKNOLOGI INDONESIA",
            "nama_se": "SNEF",
            "sektor": "Sektor Teknologi Informasi dan Komunikasi",
            "tanggal_terbit": "2024-09-12",
            "url_tdpse_detail": "https://pse.komdigi.go.id/tdpse-detail/20367",
            "website": "snef.co"
        },
        {
            "id": "9cfdd271-74bc-4124-b664-e6cc82e4ea7a",
            "nama_pse": "AMANAH NUSANTARA WASKITA",
            "nama_se": "ANUWAS SHOP",
            "sektor": "Sektor Perdagangan",
            "tanggal_terbit": "2024-09-12",
            "url_tdpse_detail": "https://pse.komdigi.go.id/tdpse-detail/20372",
            "website": "-"
        },
        {
            "id": "9cfde9f0-3283-4032-9a65-958467d6341d",
            "nama_pse": "WANDI",
            "nama_se": "WABAM.NET",
            "sektor": "Sektor Teknologi Informasi dan Komunikasi",
            "tanggal_terbit": "2024-09-12",
            "url_tdpse_detail": "https://pse.komdigi.go.id/tdpse-detail/20374",
            "website": "-"
        },
        {
            "id": "9cfdd4f7-bf72-460a-9bb3-d53d483cfbe7",
            "nama_pse": "HAYATI PRATAMA MANDIRI",
            "nama_se": "HOMI",
            "sektor": "Sektor Perdagangan",
            "tanggal_terbit": "2024-09-12",
            "url_tdpse_detail": "https://pse.komdigi.go.id/tdpse-detail/20373",
            "website": "honda-hayati.com"
        },
        {
            "id": "9cfd93f7-c45e-40d3-9aa8-2237184acaa0",
            "nama_pse": "LAMJAYA GLOBAL SOLUSI",
            "nama_se": "KLINIKLIK",
            "sektor": "Sektor Perdagangan, Sektor Kesehatan",
            "tanggal_terbit": "2024-09-12",
            "url_tdpse_detail": "https://pse.komdigi.go.id/tdpse-detail/20369",
            "website": "kliniklik.com"
        },
        {
            "id": "9cfe4c1f-923d-4078-ba87-7aa7d899c0d4",
            "nama_pse": "METROSOFT SOLUSI INTEGRASI",
            "nama_se": "LOVEVIA",
            "sektor": "Sektor Teknologi Informasi dan Komunikasi",
            "tanggal_terbit": "2024-09-12",
            "url_tdpse_detail": "https://pse.komdigi.go.id/tdpse-detail/20376",
            "website": "lovevia.co.id"
        },
        {
            "id": "9cfe1aa4-1cbe-402c-be91-e02d7afbb2bb",
            "nama_pse": "TEKNOLOGI AWAN SIBER",
            "nama_se": "awansiber.co.id",
            "sektor": "Sektor Teknologi Informasi dan Komunikasi",
            "tanggal_terbit": "2024-09-12",
            "url_tdpse_detail": "https://pse.komdigi.go.id/tdpse-detail/20375",
            "website": "awansiber.co.id"
        },
        {
            "id": "9cfc4afb-010a-4e51-8973-75b08facf6d7",
            "nama_pse": "AGRILI TEKNOLOGI INDONESIA",
            "nama_se": "AGRILI TEKNOLOGI INDONESIA",
            "sektor": "Sektor Teknologi Informasi dan Komunikasi",
            "tanggal_terbit": "2024-09-12",
            "url_tdpse_detail": "https://pse.komdigi.go.id/tdpse-detail/20353",
            "website": "agriliteknologi.com"
        }
    ],
    "processingTimeMs": 1,
    "query": "",
    "totalHits": 19131,
    "hitsPerPage": 50,
    "page": 40,
    "totalPages": 383
}