{
    "hits": [
        {
            "id": "9cb1abc5-84ac-449e-884d-06f1d51853d1",
            "nama_pse": "HANWHA LIFE INSURANCE INDONESIA",
            "nama_se": "HANWHA LIFE+ POINT (ANDROID \u0026 IOS)",
            "sektor": "Sektor Keuangan",
            "tanggal_terbit": "2022-07-20",
            "url_tdpse_detail": "https://pse.komdigi.go.id/tdpse-detail/7758",
            "website": "-"
        },
        {
            "id": "9cb1abc5-87ac-4ccc-80f2-ac1b8b5fcf66",
            "nama_pse": "BANK PEREKONOMIAN RAKYAT MARCORINDO PERDANA",
            "nama_se": "DMBALLANCESCORECARD",
            "sektor": "Sektor Keuangan",
            "tanggal_terbit": "2022-07-20",
            "url_tdpse_detail": "https://pse.komdigi.go.id/tdpse-detail/7759",
            "website": "employeebprmarcorindo.com"
        },
        {
            "id": "9cb1abeb-a178-4b34-b401-58b635cedf9c",
            "nama_pse": "CENTRAL ASESMEN INDONESIA",
            "nama_se": "E-RIKKES SIM",
            "sektor": "Sektor Teknologi Informasi dan Komunikasi",
            "tanggal_terbit": "2022-07-20",
            "url_tdpse_detail": "https://pse.komdigi.go.id/tdpse-detail/7756",
            "website": "erikkes.id"
        },
        {
            "id": "9cb1abeb-a6a0-4556-bbc5-085e40d9d9c1",
            "nama_pse": "BINTANG TEKNOLOGI PRATAMA",
            "nama_se": "WEBSITE PENJUALAN BUAH ( BUAHASIA.COM )",
            "sektor": "Sektor Perdagangan",
            "tanggal_terbit": "2022-07-20",
            "url_tdpse_detail": "https://pse.komdigi.go.id/tdpse-detail/7812",
            "website": "buahasia.com"
        },
        {
            "id": "9cb1abc5-8df8-4e21-a291-55b2c0a453dd",
            "nama_pse": "BANK PERKREDITAN RAKYAT MODERN EXPRESS MALUKU UTARA",
            "nama_se": "DIGITAL MODERN (DIGIMOD) E-LOAN - BPR MODERN EXPRESS MALUKU UTARA",
            "sektor": "Sektor Keuangan",
            "tanggal_terbit": "2022-07-20",
            "url_tdpse_detail": "https://pse.komdigi.go.id/tdpse-detail/7760",
            "website": "digimod.bprmodernternate.com"
        },
        {
            "id": "9cb1abb9-012f-453b-af9e-294811a9fd67",
            "nama_pse": "RUMAH INSPIRASI MEDIA",
            "nama_se": "KREASITA",
            "sektor": "Sektor Teknologi Informasi dan Komunikasi",
            "tanggal_terbit": "2022-07-20",
            "url_tdpse_detail": "https://pse.komdigi.go.id/tdpse-detail/7757",
            "website": "kreasita.com"
        },
        {
            "id": "9cb1abeb-aad2-4740-acb0-50b9a95fc34e",
            "nama_pse": "APLIKASI TEPAT GUNA",
            "nama_se": "PH BID DARAT",
            "sektor": "Sektor Teknologi Informasi dan Komunikasi",
            "tanggal_terbit": "2022-07-20",
            "url_tdpse_detail": "https://pse.komdigi.go.id/tdpse-detail/7761",
            "website": "phbiddarat.prahu-hub.com"
        },
        {
            "id": "9cb1abc5-90f7-4677-b467-0a96486ae113",
            "nama_pse": "NUSANTARA BONAPASOGIT",
            "nama_se": "SISKO",
            "sektor": "Sektor Keuangan",
            "tanggal_terbit": "2022-07-20",
            "url_tdpse_detail": "https://pse.komdigi.go.id/tdpse-detail/7763",
            "website": "siskonbp.com"
        },
        {
            "id": "9cb1abb9-04b4-40ff-b591-1eaa3c5ec450",
            "nama_pse": "BANK PERKREDITAN RAKYAT MODERN EXPRESS JATENG",
            "nama_se": "DIGIMOD E-LOAN CUSTOMER-BPR MODERN EXPRESS JATENG",
            "sektor": "Sektor Keuangan",
            "tanggal_terbit": "2022-07-20",
            "url_tdpse_detail": "https://pse.komdigi.go.id/tdpse-detail/7762",
            "website": "kredit.bprmodernsemarang.com"
        },
        {
            "id": "9cb1abeb-af4c-44fc-b817-2ca3bc05a227",
            "nama_pse": "BANK PEREKONOMIAN RAKYAT DANA MANDIRI",
            "nama_se": "BPR DANA MANDIRI",
            "sektor": "Sektor Keuangan",
            "tanggal_terbit": "2022-07-20",
            "url_tdpse_detail": "https://pse.komdigi.go.id/tdpse-detail/7765",
            "website": "BPRDANAMANDIRI.COM"
        },
        {
            "id": "9cb1abeb-b309-4042-a742-15c3a97a65be",
            "nama_pse": "WAPINDO JASAARTHA",
            "nama_se": "WEBSITE KLINIKSIMASSEHAT.ID",
            "sektor": "Sektor Kesehatan",
            "tanggal_terbit": "2022-07-20",
            "url_tdpse_detail": "https://pse.komdigi.go.id/tdpse-detail/7764",
            "website": "kliniksimassehat.id"
        },
        {
            "id": "9cb1abb9-0a9a-42ac-b45f-b42bc0a54858",
            "nama_pse": "BANK PERKREDITAN RAKYAT KOTA SUKABUMI",
            "nama_se": "WEBSITE PERUMDA BPR KOTA SUKABUMI",
            "sektor": "Sektor Keuangan",
            "tanggal_terbit": "2022-07-20",
            "url_tdpse_detail": "https://pse.komdigi.go.id/tdpse-detail/7766",
            "website": "BPRKOTASUKABUMI.CO.ID"
        },
        {
            "id": "9cb1abc5-9465-4af2-95b9-6f5938375bea",
            "nama_pse": "BANK PEMBIAYAAN RAKYAT SYARIAH TANI TULANG BAWANG BARAT",
            "nama_se": "INTEGRATED BANKING SYSTEM SYARIAH",
            "sektor": "Sektor Keuangan",
            "tanggal_terbit": "2022-07-20",
            "url_tdpse_detail": "https://pse.komdigi.go.id/tdpse-detail/7769",
            "website": "bprstanitbb.co.id"
        },
        {
            "id": "9cb1abc5-a16d-4457-bd40-a28b4e5c2dc0",
            "nama_pse": "BANK PERKREDITAN RAKYAT HARAPAN BUNDA BATAM",
            "nama_se": "BPR HARAPAN BUNDA BATAM",
            "sektor": "Sektor Keuangan",
            "tanggal_terbit": "2022-07-20",
            "url_tdpse_detail": "https://pse.komdigi.go.id/tdpse-detail/7767",
            "website": "sibprhbb.my.id"
        },
        {
            "id": "9cb1abb9-0e31-4b84-90c1-aa50937e470c",
            "nama_pse": "BANK PERKREDITAN RAKYAT KLEPU MITRA KENCANA",
            "nama_se": "BPR KMK",
            "sektor": "Sektor Keuangan",
            "tanggal_terbit": "2022-07-20",
            "url_tdpse_detail": "https://pse.komdigi.go.id/tdpse-detail/7770",
            "website": "bprkmk.com"
        },
        {
            "id": "9cb1abb9-1397-448f-a798-e6d11674206b",
            "nama_pse": "AIA FINANCIAL",
            "nama_se": "AIA INDONESIA DISTRIBUTOR APP (ALIFE)",
            "sektor": "Sektor Keuangan",
            "tanggal_terbit": "2022-07-20",
            "url_tdpse_detail": "https://pse.komdigi.go.id/tdpse-detail/7768",
            "website": "-"
        },
        {
            "id": "9cb1abc5-a5a1-4fce-a179-a500159c2dd8",
            "nama_pse": "AYO GOLF INDONESIA",
            "nama_se": "AYO GOLF",
            "sektor": "Sektor Teknologi Informasi dan Komunikasi",
            "tanggal_terbit": "2022-07-20",
            "url_tdpse_detail": "https://pse.komdigi.go.id/tdpse-detail/7855",
            "website": "ayo.golf"
        },
        {
            "id": "9cb1abc5-ab97-4bca-b703-6993001dbef5",
            "nama_pse": "BANK PEREKONOMIAN RAKYAT PARO LABA",
            "nama_se": "BPR PARO LABA",
            "sektor": "Sektor Keuangan",
            "tanggal_terbit": "2022-07-20",
            "url_tdpse_detail": "https://pse.komdigi.go.id/tdpse-detail/7773",
            "website": "-"
        },
        {
            "id": "9cb1abc5-af90-4557-bed5-25ce5040b025",
            "nama_pse": "ALAN MEDIATECH INDONESIA",
            "nama_se": "TEMAN PASAR",
            "sektor": "Sektor Perdagangan, Sektor Teknologi Informasi dan Komunikasi, Sektor Pangan",
            "tanggal_terbit": "2022-07-20",
            "url_tdpse_detail": "https://pse.komdigi.go.id/tdpse-detail/7771",
            "website": "temanpasar.com"
        },
        {
            "id": "9cb1abb9-17e4-4932-9291-0487ca48e7e3",
            "nama_pse": "MITRA GANTENG SEJATI",
            "nama_se": "WEBSITE SHOP ROEGAN",
            "sektor": "Sektor Perdagangan",
            "tanggal_terbit": "2022-07-20",
            "url_tdpse_detail": "https://pse.komdigi.go.id/tdpse-detail/7777",
            "website": "roegan.com"
        },
        {
            "id": "9cb1abb9-1b92-45c5-ae3d-7ebd97d67dd8",
            "nama_pse": "BANK PERKREDITAN RAKYAT SAHABAT SEJATI",
            "nama_se": "WEBSITE",
            "sektor": "Sektor Keuangan",
            "tanggal_terbit": "2022-07-20",
            "url_tdpse_detail": "https://pse.komdigi.go.id/tdpse-detail/7774",
            "website": "bprsahabatsejati.com"
        },
        {
            "id": "9cb1abc5-b2bf-485e-860d-0a2260c3a933",
            "nama_pse": "BANK PERKREDITAN RAKYAT SOLIDER",
            "nama_se": "PT BPR SOLIDER",
            "sektor": "Sektor Keuangan",
            "tanggal_terbit": "2022-07-20",
            "url_tdpse_detail": "https://pse.komdigi.go.id/tdpse-detail/7775",
            "website": "bprsolider.com"
        },
        {
            "id": "9cb1abeb-b6a2-4471-9453-de29822bfeb4",
            "nama_pse": "AXA FINANCIAL INDONESIA",
            "nama_se": "AFI WEBSITE",
            "sektor": "Sektor Keuangan",
            "tanggal_terbit": "2022-07-20",
            "url_tdpse_detail": "https://pse.komdigi.go.id/tdpse-detail/7822",
            "website": "axa.co.id"
        },
        {
            "id": "9cb1abb9-1f2e-4ae0-a88f-950e122c30cf",
            "nama_pse": "BANK PEREKONOMIAN RAKYAT MITRA LESTARI",
            "nama_se": "BPR MITRA LESTARI",
            "sektor": "Sektor Keuangan",
            "tanggal_terbit": "2022-07-20",
            "url_tdpse_detail": "https://pse.komdigi.go.id/tdpse-detail/7776",
            "website": "bprmitralestari.com"
        },
        {
            "id": "9cb1abeb-bb17-48b1-946d-d9f56022f450",
            "nama_pse": "NEO BAZAR INDONESIA",
            "nama_se": "KAKAO WEBTOON",
            "sektor": "Sektor Teknologi Informasi dan Komunikasi",
            "tanggal_terbit": "2022-07-20",
            "url_tdpse_detail": "https://pse.komdigi.go.id/tdpse-detail/8096",
            "website": "-"
        },
        {
            "id": "9cb1abc5-b5fb-49fc-bf78-3b7f23b120ef",
            "nama_pse": "BANK KB BUKOPIN",
            "nama_se": "KB BUKOPIN CMSSPAN",
            "sektor": "Sektor Keuangan",
            "tanggal_terbit": "2022-07-20",
            "url_tdpse_detail": "https://pse.komdigi.go.id/tdpse-detail/8085",
            "website": "cmsspan.bukopin.co.id"
        },
        {
            "id": "9cb1abeb-c778-4343-9fbc-ad3f7fad494e",
            "nama_pse": "BANK PERKREDITAN RAKYAT MODERN EXPRESS JATENG",
            "nama_se": "SMS MACROKIOSK OTP - BPR MODERN EXPRESS JATENG",
            "sektor": "Sektor Keuangan",
            "tanggal_terbit": "2022-07-20",
            "url_tdpse_detail": "https://pse.komdigi.go.id/tdpse-detail/7781",
            "website": "boldpass.com"
        },
        {
            "id": "9cb1abc5-b99e-4d5e-bc9b-96e6223264e5",
            "nama_pse": "RADHINTA SENTOSA ABADI",
            "nama_se": "WEBSITE ORANGE DENTAL",
            "sektor": "Sektor Kesehatan",
            "tanggal_terbit": "2022-07-20",
            "url_tdpse_detail": "https://pse.komdigi.go.id/tdpse-detail/7778",
            "website": "orangedentalhouse.com"
        },
        {
            "id": "9cb1abc5-bcd6-4362-b785-6e3f0de671c0",
            "nama_pse": "NARADA SAHARA KENCANA",
            "nama_se": "ADX ASIA THE ORIGAMI",
            "sektor": "Sektor Teknologi Informasi dan Komunikasi",
            "tanggal_terbit": "2022-07-20",
            "url_tdpse_detail": "https://pse.komdigi.go.id/tdpse-detail/7780",
            "website": "theorigami.io"
        },
        {
            "id": "9cb1abc5-c1ab-484a-8b57-93369583a230",
            "nama_pse": "VICTORIA SEKURITAS INDONESIA",
            "nama_se": "WEB VICTORIA SEKURITAS INDONESIA",
            "sektor": "Sektor Keuangan",
            "tanggal_terbit": "2022-07-20",
            "url_tdpse_detail": "https://pse.komdigi.go.id/tdpse-detail/7779",
            "website": "victoria-sekuritas.co.id"
        },
        {
            "id": "9cb1abeb-ccc9-46cc-afea-18953b1fe8ff",
            "nama_pse": "INDONESIA SATU TUJUH",
            "nama_se": "WIFI PRO",
            "sektor": "Sektor Teknologi Informasi dan Komunikasi",
            "tanggal_terbit": "2022-07-20",
            "url_tdpse_detail": "https://pse.komdigi.go.id/tdpse-detail/7807",
            "website": "activewifi.ina17.id"
        },
        {
            "id": "9cb1abc5-c4ce-4ace-93b1-ac8a8c72a618",
            "nama_pse": "ASIA INTERNATIONAL INSURANCE BROKERS",
            "nama_se": "WWW.ASIAINTERNATIONALINSURANCEBROKER.COM",
            "sektor": "Sektor Keuangan",
            "tanggal_terbit": "2022-07-20",
            "url_tdpse_detail": "https://pse.komdigi.go.id/tdpse-detail/7792",
            "website": "asiainternationalinsurancebrokers.com"
        },
        {
            "id": "9cb1abc5-c806-4a8c-a064-871dd909a1c6",
            "nama_pse": "BANK VICTORIA SYARIAH",
            "nama_se": "HTTPS://WWW.BANKVICTORIASYARIAH.CO.ID/",
            "sektor": "Sektor Keuangan",
            "tanggal_terbit": "2022-07-20",
            "url_tdpse_detail": "https://pse.komdigi.go.id/tdpse-detail/7805",
            "website": "bankvictoriasyariah.co.id"
        },
        {
            "id": "9cb1abc5-cb4a-4b4e-992f-31a0e86d3119",
            "nama_pse": "ASURANSI CENTRAL ASIA",
            "nama_se": "MITRACA.CO.ID",
            "sektor": "Sektor Keuangan",
            "tanggal_terbit": "2022-07-20",
            "url_tdpse_detail": "https://pse.komdigi.go.id/tdpse-detail/7794",
            "website": "mitraca.co.id"
        },
        {
            "id": "9cb1abeb-d08f-4a18-935e-efbc1616cb7b",
            "nama_pse": "BANK PERKREDITAN RAKYAT AKAR BUDAYA DANA INDONESIA",
            "nama_se": "BANK ABDI",
            "sektor": "Sektor Keuangan",
            "tanggal_terbit": "2022-07-20",
            "url_tdpse_detail": "https://pse.komdigi.go.id/tdpse-detail/7877",
            "website": "bankabdi.co.id"
        },
        {
            "id": "9cb1abc5-cfc2-4ba6-abd5-22a4599f8af5",
            "nama_pse": "BENS MULTI USAHA",
            "nama_se": "LOKETTA",
            "sektor": "Sektor Perdagangan, Sektor Keuangan",
            "tanggal_terbit": "2022-07-20",
            "url_tdpse_detail": "https://pse.komdigi.go.id/tdpse-detail/7783",
            "website": "-"
        },
        {
            "id": "9cb1abc5-d3fa-45dd-aaab-874bbd1907ab",
            "nama_pse": "BANK MEGA",
            "nama_se": "BANK MEGA MANIFEST TRACKING",
            "sektor": "Sektor Keuangan",
            "tanggal_terbit": "2022-07-20",
            "url_tdpse_detail": "https://pse.komdigi.go.id/tdpse-detail/7803",
            "website": "doctrack.bankmega.com"
        },
        {
            "id": "9cb1abc5-d759-480e-9bc5-d67630808fe5",
            "nama_pse": "APLIKASI TEPAT GUNA",
            "nama_se": "RORO",
            "sektor": "Sektor Teknologi Informasi dan Komunikasi",
            "tanggal_terbit": "2022-07-20",
            "url_tdpse_detail": "https://pse.komdigi.go.id/tdpse-detail/7782",
            "website": "roro.prahu-hub.com"
        },
        {
            "id": "9cb1abeb-d6c4-47cb-b5b7-fde8bde03ada",
            "nama_pse": "BANK PERKREDITAN RAKYAT ARTHA MUKTI SANTOSA",
            "nama_se": "PT BPR ARTHA MUKTI SANTOSA",
            "sektor": "Sektor Keuangan",
            "tanggal_terbit": "2022-07-20",
            "url_tdpse_detail": "https://pse.komdigi.go.id/tdpse-detail/7785",
            "website": "bprams.com"
        },
        {
            "id": "9cb1abc5-db17-46cd-98ef-d0c6b7c31a29",
            "nama_pse": "BANK PEREKONOMIAN RAKYAT BADAN KREDIT KECAMATAN BLORA",
            "nama_se": "PT. BPR BKK BLORA (PERSERODA)",
            "sektor": "Sektor Keuangan",
            "tanggal_terbit": "2022-07-20",
            "url_tdpse_detail": "https://pse.komdigi.go.id/tdpse-detail/7784",
            "website": "bprbkk-blora.com"
        },
        {
            "id": "9cb1abc5-de68-4fcc-bf97-1e408c046c53",
            "nama_pse": "BANK PEMBANGUNAN DAERAH KALIMANTAN TENGAH",
            "nama_se": "DIGITAL BROCHURE",
            "sektor": "Sektor Keuangan",
            "tanggal_terbit": "2022-07-20",
            "url_tdpse_detail": "https://pse.komdigi.go.id/tdpse-detail/7786",
            "website": "-"
        },
        {
            "id": "9cb1abb9-29c8-4c4b-9ed0-2dad4fdf5206",
            "nama_pse": "INOVASI TEKNOLOGI SOLUSINDO",
            "nama_se": "TRUSTMEDIS WEB",
            "sektor": "Sektor Teknologi Informasi dan Komunikasi",
            "tanggal_terbit": "2022-07-20",
            "url_tdpse_detail": "https://pse.komdigi.go.id/tdpse-detail/7790",
            "website": "trustmedis.com"
        },
        {
            "id": "9cb1abc5-e2a4-400f-b188-e50b0d427aca",
            "nama_pse": "BANK PERKREDITAN RAKYAT TANAH LAUT",
            "nama_se": "BPRTALA.CO.ID",
            "sektor": "Sektor Keuangan",
            "tanggal_terbit": "2022-07-20",
            "url_tdpse_detail": "https://pse.komdigi.go.id/tdpse-detail/7787",
            "website": "bprtala.co.id"
        },
        {
            "id": "9cb1abc5-e65c-4581-b6d9-6723154c87a6",
            "nama_pse": "BANK MAYBANK INDONESIA",
            "nama_se": "GRAVITEE (API)",
            "sektor": "Sektor Keuangan",
            "tanggal_terbit": "2022-07-20",
            "url_tdpse_detail": "https://pse.komdigi.go.id/tdpse-detail/7795",
            "website": "-"
        },
        {
            "id": "9cb1abb9-3304-42d4-96ea-78a7d989cd63",
            "nama_pse": "BANK PERKREDITAN RAKYAT OLYMPINDO SEJAHTERA",
            "nama_se": "WEBSITE PT BANK PERKREDITAN RAKYAT OLYMPINDO SEJAHTERA",
            "sektor": "Sektor Keuangan",
            "tanggal_terbit": "2022-07-20",
            "url_tdpse_detail": "https://pse.komdigi.go.id/tdpse-detail/7789",
            "website": "bprolympindosejahtera.co.id"
        },
        {
            "id": "9cb1abeb-da06-4227-b591-f8934e2377da",
            "nama_pse": "BANK PERKREDITAN RAKYAT JATENG",
            "nama_se": "BPR JATENG",
            "sektor": "Sektor Keuangan",
            "tanggal_terbit": "2022-07-20",
            "url_tdpse_detail": "https://pse.komdigi.go.id/tdpse-detail/7788",
            "website": "bprjateng.co.id"
        },
        {
            "id": "9cb1abeb-dcec-4cb0-b82d-90bc11ac2b3f",
            "nama_pse": "BFI FINANCE INDONESIA",
            "nama_se": "WEBSITE PRODUK BFI (BFI FINANCE)",
            "sektor": "Sektor Keuangan",
            "tanggal_terbit": "2022-07-20",
            "url_tdpse_detail": "https://pse.komdigi.go.id/tdpse-detail/7791",
            "website": "produk.bfi.co.id"
        },
        {
            "id": "9cb1abeb-e028-4e94-a2a3-a445f0383e05",
            "nama_pse": "JALUR SUTRA INTERNASIONAL",
            "nama_se": "JATRA",
            "sektor": "Sektor Teknologi Informasi dan Komunikasi",
            "tanggal_terbit": "2022-07-20",
            "url_tdpse_detail": "https://pse.komdigi.go.id/tdpse-detail/7796",
            "website": "jatra.my.id"
        },
        {
            "id": "9cb1abc5-e9c7-462e-ac85-f94ffdb93b36",
            "nama_pse": "NEO BAZAR INDONESIA",
            "nama_se": "KAKAOPAGE.CO.ID",
            "sektor": "Sektor Teknologi Informasi dan Komunikasi",
            "tanggal_terbit": "2022-07-20",
            "url_tdpse_detail": "https://pse.komdigi.go.id/tdpse-detail/7872",
            "website": "kakaopage.co.id"
        },
        {
            "id": "9cb1abc5-ef0f-4bbf-bd38-78355c615215",
            "nama_pse": "BANK PERKREDITAN RAKYAT ESTETIKA ARTHA GUNA",
            "nama_se": "ESTETIKA ARTHA GUNA",
            "sektor": "Sektor Keuangan",
            "tanggal_terbit": "2022-07-20",
            "url_tdpse_detail": "https://pse.komdigi.go.id/tdpse-detail/7797",
            "website": "bprestetika.com"
        }
    ],
    "processingTimeMs": 5,
    "query": "",
    "totalHits": 19121,
    "hitsPerPage": 50,
    "page": 242,
    "totalPages": 383
}