{
    "hits": [
        {
            "id": "9cb1ac62-b668-4540-834d-6f4246322213",
            "nama_pse": "GENERASI RUMAH PRODUKTIF",
            "nama_se": "TAKENOKO SISTEM",
            "sektor": "Sektor Kesehatan, Sektor Teknologi Informasi dan Komunikasi",
            "tanggal_terbit": "2023-11-20",
            "url_tdpse_detail": "https://pse.komdigi.go.id/tdpse-detail/16536",
            "website": "takenoko.co.id"
        },
        {
            "id": "9cb1ac4f-5ec8-4ccf-87ba-af3453e43dcc",
            "nama_pse": "CANDRADIMUKA CENDEKIA MUDA",
            "nama_se": "KALDERANEWS.COM",
            "sektor": "Sektor Teknologi Informasi dan Komunikasi",
            "tanggal_terbit": "2023-11-19",
            "url_tdpse_detail": "https://pse.komdigi.go.id/tdpse-detail/16519",
            "website": "-"
        },
        {
            "id": "9cb1ac4f-619c-4dca-b836-529f3be35503",
            "nama_pse": "PIRANTI OSADHA SOLUSI",
            "nama_se": "SISTEM INFORMASI KESEHATAN",
            "sektor": "Sektor Kesehatan",
            "tanggal_terbit": "2023-11-19",
            "url_tdpse_detail": "https://pse.komdigi.go.id/tdpse-detail/16520",
            "website": "-"
        },
        {
            "id": "9cb1ac4f-6495-45ba-8bd3-1aee2a851b8e",
            "nama_pse": "MITRA BESTARI TEKNOLOGI",
            "nama_se": "KLIKMEDIS",
            "sektor": "Sektor Teknologi Informasi dan Komunikasi",
            "tanggal_terbit": "2023-11-19",
            "url_tdpse_detail": "https://pse.komdigi.go.id/tdpse-detail/16521",
            "website": "-"
        },
        {
            "id": "9cb1ac4f-5c10-4211-9a46-07bde1f10133",
            "nama_pse": "DELTA SURYA HUSADA",
            "nama_se": "E-HOS RS DELTA SURYA",
            "sektor": "Sektor Kesehatan",
            "tanggal_terbit": "2023-11-18",
            "url_tdpse_detail": "https://pse.komdigi.go.id/tdpse-detail/16518",
            "website": "-"
        },
        {
            "id": "9cb1ac62-64ea-40de-b221-5111cb6fea00",
            "nama_pse": "PRIMA SEHAT JAMBI",
            "nama_se": "LABORATORIUM KLINIK SPESIALIS PRIMA",
            "sektor": "Sektor Kesehatan",
            "tanggal_terbit": "2023-11-17",
            "url_tdpse_detail": "https://pse.komdigi.go.id/tdpse-detail/16498",
            "website": "-"
        },
        {
            "id": "9cb1ac62-6de2-49a3-a1ba-6d7d6f099a56",
            "nama_pse": "KELUARGA BESAR ADENIN",
            "nama_se": "LMPP",
            "sektor": "Sektor Teknologi Informasi dan Komunikasi",
            "tanggal_terbit": "2023-11-17",
            "url_tdpse_detail": "https://pse.komdigi.go.id/tdpse-detail/16499",
            "website": "Medialmpplu.online"
        },
        {
            "id": "9cb1ac4f-4b23-4595-bef0-e1e061052017",
            "nama_pse": "CAHAYA MAHYRA BANTEN",
            "nama_se": "POWERSKYPE",
            "sektor": "Sektor Perdagangan",
            "tanggal_terbit": "2023-11-17",
            "url_tdpse_detail": "https://pse.komdigi.go.id/tdpse-detail/16500",
            "website": "nsid2.rumahweb.net"
        },
        {
            "id": "9cb1ac76-7d7b-4347-addd-65cd1588d4ed",
            "nama_pse": "I NYOMAN BUDA ARTHA",
            "nama_se": "SMARTHOSPITAL RSU SEMARA RATIH",
            "sektor": "Sektor Kesehatan, Sektor Teknologi Informasi dan Komunikasi",
            "tanggal_terbit": "2023-11-17",
            "url_tdpse_detail": "https://pse.komdigi.go.id/tdpse-detail/16501",
            "website": "-"
        },
        {
            "id": "9cb1ac4f-4df5-44bb-a640-68ae73b65a81",
            "nama_pse": "YAYASAN KRISTEN KESEJAHTERAAN MARDI RAHAYU",
            "nama_se": "SIM KPMU",
            "sektor": "Sektor Kesehatan",
            "tanggal_terbit": "2023-11-17",
            "url_tdpse_detail": "https://pse.komdigi.go.id/tdpse-detail/16643",
            "website": "-"
        },
        {
            "id": "9cb1ac4f-50d6-436b-a290-30f59d61e897",
            "nama_pse": "PARIT PADANG GLOBAL",
            "nama_se": "PPGOS (PPG ONLINE SYSTEM)",
            "sektor": "Sektor Perdagangan",
            "tanggal_terbit": "2023-11-17",
            "url_tdpse_detail": "https://pse.komdigi.go.id/tdpse-detail/16502",
            "website": "ppgos.co.id"
        },
        {
            "id": "9cb1ac62-71fe-4009-bd38-773fe603f092",
            "nama_pse": "VCORE CONSULTANT",
            "nama_se": "VCORE CONSULTANT",
            "sektor": "Sektor Kesehatan",
            "tanggal_terbit": "2023-11-17",
            "url_tdpse_detail": "https://pse.komdigi.go.id/tdpse-detail/16503",
            "website": "-"
        },
        {
            "id": "9cb1ac4f-5361-4989-a5b9-da9b63b0b9a0",
            "nama_pse": "PONDOK KARYA MEDIKA",
            "nama_se": "EMEDICAL KASIH GROUP",
            "sektor": "Sektor Kesehatan",
            "tanggal_terbit": "2023-11-17",
            "url_tdpse_detail": "https://pse.komdigi.go.id/tdpse-detail/16504",
            "website": "-"
        },
        {
            "id": "9cb1ac62-7629-491f-a54a-44eeb46d9520",
            "nama_pse": "KARUNIA BUNDA SETIA",
            "nama_se": "EMEDICAL KASIH GROUP",
            "sektor": "Sektor Kesehatan",
            "tanggal_terbit": "2023-11-17",
            "url_tdpse_detail": "https://pse.komdigi.go.id/tdpse-detail/16505",
            "website": "-"
        },
        {
            "id": "9cb1ac76-8527-49dc-b053-5be8765b2591",
            "nama_pse": "LOYALINDO HIGHTECH SOLUTION",
            "nama_se": "LOYALINDO",
            "sektor": "Sektor Perdagangan",
            "tanggal_terbit": "2023-11-17",
            "url_tdpse_detail": "https://pse.komdigi.go.id/tdpse-detail/16506",
            "website": "ns3.rumahweb.net"
        },
        {
            "id": "9cb1ac76-887c-4a8f-98eb-4e180b26a466",
            "nama_pse": "MITRA PEDAGANG INDONESIA",
            "nama_se": "MPSTORE UMKM",
            "sektor": "Sektor Perdagangan",
            "tanggal_terbit": "2023-11-17",
            "url_tdpse_detail": "https://pse.komdigi.go.id/tdpse-detail/16507",
            "website": "-"
        },
        {
            "id": "9cb1ac76-8e13-4506-ba24-1b6a31799437",
            "nama_pse": "NEX TEKNOLOGI DIGITAL",
            "nama_se": "NEX E-MONEY",
            "sektor": "Sektor Teknologi Informasi dan Komunikasi",
            "tanggal_terbit": "2023-11-17",
            "url_tdpse_detail": "https://pse.komdigi.go.id/tdpse-detail/16508",
            "website": "nexemoney.co"
        },
        {
            "id": "9cb1ac4f-55f3-4201-a83c-b349db0f51c9",
            "nama_pse": "SOLUSI TEKINDO BERJAYA",
            "nama_se": "WEBSITE",
            "sektor": "Sektor Perdagangan",
            "tanggal_terbit": "2023-11-17",
            "url_tdpse_detail": "https://pse.komdigi.go.id/tdpse-detail/16509",
            "website": "-"
        },
        {
            "id": "9cb1ac62-8004-4399-a066-77e3812f38d6",
            "nama_pse": "KAWULA DIGITAL KREATIF",
            "nama_se": "KAWULA ID",
            "sektor": "Sektor Perdagangan, Sektor Teknologi Informasi dan Komunikasi",
            "tanggal_terbit": "2023-11-17",
            "url_tdpse_detail": "https://pse.komdigi.go.id/tdpse-detail/16515",
            "website": "kawula.id"
        },
        {
            "id": "9cb1ac62-8893-4dc1-8860-6a5355229be7",
            "nama_pse": "ETERNAL INDONESIA KREATIF",
            "nama_se": "ETERNAL PLATFORM",
            "sektor": "Sektor Perdagangan, Sektor Teknologi Informasi dan Komunikasi",
            "tanggal_terbit": "2023-11-17",
            "url_tdpse_detail": "https://pse.komdigi.go.id/tdpse-detail/16517",
            "website": "eternal.id"
        },
        {
            "id": "9cb1ac76-60bc-4746-9e13-7231ff9cf7f1",
            "nama_pse": "DNA ARTERA TECH",
            "nama_se": "WWW.DNAARTERATECH.ID",
            "sektor": "Sektor Kesehatan",
            "tanggal_terbit": "2023-11-16",
            "url_tdpse_detail": "https://pse.komdigi.go.id/tdpse-detail/16495",
            "website": "dnaarteratech.id"
        },
        {
            "id": "9cb1ac4f-41c6-49e7-abf4-d55b3e9471ca",
            "nama_pse": "HEIMER SOLUSI ALPHA OMEGA",
            "nama_se": "HOSTI",
            "sektor": "Sektor Teknologi Informasi dan Komunikasi",
            "tanggal_terbit": "2023-11-16",
            "url_tdpse_detail": "https://pse.komdigi.go.id/tdpse-detail/16483",
            "website": "-"
        },
        {
            "id": "9cb1ac4f-44fc-4ae2-bc2d-ab130455858c",
            "nama_pse": "NOVASOFT ARJAYA TECHNOLOGY",
            "nama_se": "NOVAMEDIC",
            "sektor": "Sektor Teknologi Informasi dan Komunikasi",
            "tanggal_terbit": "2023-11-16",
            "url_tdpse_detail": "https://pse.komdigi.go.id/tdpse-detail/16487",
            "website": "-"
        },
        {
            "id": "9cb1ac62-5c34-416e-8797-be04c7204a87",
            "nama_pse": "NTJ APPLICATION STUDIO",
            "nama_se": "PORTAL NTJ APPLICATION STUDIO",
            "sektor": "Sektor Perdagangan",
            "tanggal_terbit": "2023-11-16",
            "url_tdpse_detail": "https://pse.komdigi.go.id/tdpse-detail/16488",
            "website": "-"
        },
        {
            "id": "9cb1ac76-6d09-4e28-a203-f4dc91f1ab30",
            "nama_pse": "PONDOK PESANTREN HIDAYATULLAH AS-SAKINAH",
            "nama_se": "BMT ASSAKINAH ONLINE",
            "sektor": "Sektor Teknologi Informasi dan Komunikasi",
            "tanggal_terbit": "2023-11-16",
            "url_tdpse_detail": "https://pse.komdigi.go.id/tdpse-detail/16490",
            "website": "-"
        },
        {
            "id": "9cb1ac76-71f4-4e1f-8c88-a9920e39a824",
            "nama_pse": "PONDOK PESANTREN HIDAYATULLAH AS-SAKINAH",
            "nama_se": "IBS BRANCHLESS",
            "sektor": "Sektor Teknologi Informasi dan Komunikasi",
            "tanggal_terbit": "2023-11-16",
            "url_tdpse_detail": "https://pse.komdigi.go.id/tdpse-detail/16491",
            "website": "-"
        },
        {
            "id": "9cb1ac62-5f42-4857-b1f9-60d94c4f72f6",
            "nama_pse": "NUSA DATA HEXAMATIKA",
            "nama_se": "KLISINDO",
            "sektor": "Sektor Kesehatan, Sektor Teknologi Informasi dan Komunikasi",
            "tanggal_terbit": "2023-11-16",
            "url_tdpse_detail": "https://pse.komdigi.go.id/tdpse-detail/16492",
            "website": "-"
        },
        {
            "id": "9cb1ac4f-3bca-478d-9780-48022cdfbf76",
            "nama_pse": "JEJAK KOMPUTASI NUSANTARA",
            "nama_se": "KMN - CLINIC INFORMATION SYSTEM",
            "sektor": "Sektor Kesehatan",
            "tanggal_terbit": "2023-11-15",
            "url_tdpse_detail": "https://pse.komdigi.go.id/tdpse-detail/16480",
            "website": "-"
        },
        {
            "id": "9cb1ac62-598b-457e-96ed-26c9c5b710ca",
            "nama_pse": "RUANG KARYA SADAYA",
            "nama_se": "ANY PREMIUM",
            "sektor": "Sektor Perdagangan, Sektor Teknologi Informasi dan Komunikasi",
            "tanggal_terbit": "2023-11-15",
            "url_tdpse_detail": "https://pse.komdigi.go.id/tdpse-detail/16481",
            "website": "-"
        },
        {
            "id": "9cb1ac20-3b29-41a5-bb6e-ffa30e9e45f4",
            "nama_pse": "AMITHA ADIKARA KOSMETIKA",
            "nama_se": "PEAU JEUNE BEAUTE BY AMITHA",
            "sektor": "Sektor Perdagangan",
            "tanggal_terbit": "2023-11-14",
            "url_tdpse_detail": "https://pse.komdigi.go.id/tdpse-detail/16474",
            "website": "peaujeunebeaute.com"
        },
        {
            "id": "9cb1ac4d-369d-40aa-bb59-297bee598167",
            "nama_pse": "AMIZAH GLOBAL TECHNO",
            "nama_se": "TEKNOKLINIKA",
            "sektor": "Sektor Kesehatan, Sektor Teknologi Informasi dan Komunikasi",
            "tanggal_terbit": "2023-11-14",
            "url_tdpse_detail": "https://pse.komdigi.go.id/tdpse-detail/16478",
            "website": "-"
        },
        {
            "id": "9cb1ac62-518a-4aca-a3d3-1f60435f23c3",
            "nama_pse": "YAYASAN UNIVERSITAS SURABAYA",
            "nama_se": "UKS UBAYA",
            "sektor": "Sektor Kesehatan",
            "tanggal_terbit": "2023-11-14",
            "url_tdpse_detail": "https://pse.komdigi.go.id/tdpse-detail/16473",
            "website": "uks.ubaya.ac.id"
        },
        {
            "id": "9cb1ac62-53f6-403d-a206-3d89d05c6998",
            "nama_pse": "SOVWARE DATA MANDIRI",
            "nama_se": "SOVWARE S2RE",
            "sektor": "Sektor Teknologi Informasi dan Komunikasi",
            "tanggal_terbit": "2023-11-14",
            "url_tdpse_detail": "https://pse.komdigi.go.id/tdpse-detail/16475",
            "website": "sovware.co.id"
        },
        {
            "id": "9cb1ac4f-38c4-4dfd-9637-4ed8b5fb5f73",
            "nama_pse": "RUMAH SAKIT UMUM MEURAXA KOTA BANDA ACEH",
            "nama_se": "SIMRS MEURAXA",
            "sektor": "Sektor Kesehatan",
            "tanggal_terbit": "2023-11-14",
            "url_tdpse_detail": "https://pse.komdigi.go.id/tdpse-detail/16497",
            "website": "rsum.bandaacehkota.go.id"
        },
        {
            "id": "9cb1ac76-5c19-4a49-9cdd-436f0de5d2c1",
            "nama_pse": "ARTERI MEDIA TEKNOLOGI",
            "nama_se": "BLITIX",
            "sektor": "Sektor Teknologi Informasi dan Komunikasi",
            "tanggal_terbit": "2023-11-14",
            "url_tdpse_detail": "https://pse.komdigi.go.id/tdpse-detail/16476",
            "website": "blitix.id"
        },
        {
            "id": "9cb1ac62-56ea-4934-ac9a-a02c4304b8cc",
            "nama_pse": "ORTHOSATRIA MEDIA",
            "nama_se": "EMR RSOP",
            "sektor": "Sektor Kesehatan",
            "tanggal_terbit": "2023-11-14",
            "url_tdpse_detail": "https://pse.komdigi.go.id/tdpse-detail/16477",
            "website": "-"
        },
        {
            "id": "9cb1ac4f-1b7f-414a-a5fb-05c30bc7fd0b",
            "nama_pse": "SUNRATE COMMERCIAL SERVICES",
            "nama_se": "SUNRATE",
            "sektor": "Sektor Keuangan",
            "tanggal_terbit": "2023-11-13",
            "url_tdpse_detail": "https://pse.komdigi.go.id/tdpse-detail/16468",
            "website": "sunrate.id"
        },
        {
            "id": "9cb1ac4f-2178-4c82-800e-62915a5149d8",
            "nama_pse": "AGRODANA FUTURES",
            "nama_se": "CLIENT PORTAL AGRODANA FUTURES",
            "sektor": "Sektor Keuangan",
            "tanggal_terbit": "2023-11-13",
            "url_tdpse_detail": "https://pse.komdigi.go.id/tdpse-detail/16469",
            "website": "agrodana-futures.co.id"
        },
        {
            "id": "9cb1ac62-27be-400c-bb21-47b01cd66131",
            "nama_pse": "BANK OCBC NISP",
            "nama_se": "VALUE  CHAIN SYSTEM",
            "sektor": "Sektor Keuangan",
            "tanggal_terbit": "2023-11-13",
            "url_tdpse_detail": "https://pse.komdigi.go.id/tdpse-detail/16470",
            "website": "valuechain.ocbc.id"
        },
        {
            "id": "9cb1ac76-4d12-4fb4-88f4-c559f7949ad5",
            "nama_pse": "ARIF HIDAYAT",
            "nama_se": "SISTEM INFORMASI MANAJEMEN KLINIK MONICA",
            "sektor": "Sektor Kesehatan",
            "tanggal_terbit": "2023-11-13",
            "url_tdpse_detail": "https://pse.komdigi.go.id/tdpse-detail/16467",
            "website": "-"
        },
        {
            "id": "9cb1ac62-46f9-4408-ab00-b02fcd6da560",
            "nama_pse": "KHANA AINUR UTAMA",
            "nama_se": "KAHAN EXPOR",
            "sektor": "Sektor Perdagangan",
            "tanggal_terbit": "2023-11-13",
            "url_tdpse_detail": "https://pse.komdigi.go.id/tdpse-detail/16471",
            "website": "khanaexpor.online"
        },
        {
            "id": "9cb1ac62-49ab-4fbc-acac-06a872fb6be0",
            "nama_pse": "TELMARK INTEGRASI INDONESIA",
            "nama_se": "QONTACT",
            "sektor": "Sektor Teknologi Informasi dan Komunikasi",
            "tanggal_terbit": "2023-11-13",
            "url_tdpse_detail": "https://pse.komdigi.go.id/tdpse-detail/16472",
            "website": "qontact-cloud.telmark.co.id"
        },
        {
            "id": "9cb1ac76-50ec-4e7f-9d75-dc8c2bbaec98",
            "nama_pse": "ADIKARA TECHNO PERKASA",
            "nama_se": "SINGLE IDENTITY MANAGAMENT",
            "sektor": "Sektor Teknologi Informasi dan Komunikasi",
            "tanggal_terbit": "2023-11-13",
            "url_tdpse_detail": "https://pse.komdigi.go.id/tdpse-detail/16511",
            "website": "-"
        },
        {
            "id": "9cb1ac4f-304b-4e18-afd8-dd3a1dc79415",
            "nama_pse": "HUKUM ABDURRAHMAN",
            "nama_se": "ABDURRAHMANLAWFIRM.COM",
            "sektor": "Sektor Perdagangan",
            "tanggal_terbit": "2023-11-12",
            "url_tdpse_detail": "https://pse.komdigi.go.id/tdpse-detail/16466",
            "website": "abdurrahmanlawfirm.com"
        },
        {
            "id": "9cb1ac4f-2d5d-41a8-941b-90efd855cc69",
            "nama_pse": "CUTBOY INOVASI DIGITAL GROUP",
            "nama_se": "PT. CUTBOY INOVASI DIGITAL GROUP",
            "sektor": "Sektor Teknologi Informasi dan Komunikasi",
            "tanggal_terbit": "2023-11-11",
            "url_tdpse_detail": "https://pse.komdigi.go.id/tdpse-detail/18663",
            "website": "cutboy.id"
        },
        {
            "id": "9cb1ac62-4302-4986-922a-8d63c6c65e1e",
            "nama_pse": "RS MUHAMMADIYAH JOMBANG",
            "nama_se": "SIMRS KHANZA",
            "sektor": "Sektor Kesehatan",
            "tanggal_terbit": "2023-11-11",
            "url_tdpse_detail": "https://pse.komdigi.go.id/tdpse-detail/16465",
            "website": "rsmjombang.id"
        },
        {
            "id": "9cb1ac4e-ca8c-4b45-9048-fa1dbc358fab",
            "nama_pse": "AL - IKHLAS MADINAH",
            "nama_se": "SIRUS RSI MADINAH",
            "sektor": "Sektor Kesehatan",
            "tanggal_terbit": "2023-11-10",
            "url_tdpse_detail": "https://pse.komdigi.go.id/tdpse-detail/16459",
            "website": "rsimadinah.com"
        },
        {
            "id": "9cb1ac4f-29f3-4f53-b343-c3d2483a25b9",
            "nama_pse": "WILMAR CONSULTANCY SERVICES",
            "nama_se": "E-RECRUITMENT WILMAR GROUP",
            "sektor": "Sektor Teknologi Informasi dan Komunikasi",
            "tanggal_terbit": "2023-11-10",
            "url_tdpse_detail": "https://pse.komdigi.go.id/tdpse-detail/16460",
            "website": "e-recruitment.wilmar.co.id"
        },
        {
            "id": "9cb1ac62-2e90-414b-bc48-d82812556142",
            "nama_pse": "KRAKATAU MITRA HARMONI",
            "nama_se": "MHDC MNET",
            "sektor": "Sektor Kesehatan, Sektor Teknologi Informasi dan Komunikasi",
            "tanggal_terbit": "2023-11-10",
            "url_tdpse_detail": "https://pse.komdigi.go.id/tdpse-detail/16461",
            "website": "dashboard.mnet.web.id"
        },
        {
            "id": "9cb1ac62-37cf-45c4-9fb7-f0ab3037487a",
            "nama_pse": "GREENSOFT PUTRA SEJAHTERA",
            "nama_se": "SIMRS GREENSOFT",
            "sektor": "Sektor Kesehatan",
            "tanggal_terbit": "2023-11-10",
            "url_tdpse_detail": "https://pse.komdigi.go.id/tdpse-detail/16462",
            "website": "-"
        }
    ],
    "processingTimeMs": 1,
    "query": "",
    "totalHits": 19121,
    "hitsPerPage": 50,
    "page": 109,
    "totalPages": 383
}