{
    "hits": [
        {
            "id": "9cb1abfc-b95a-441f-856b-1db48297424a",
            "nama_pse": "WAHANA TRANSFORMASI DIGITAL INDONESIA",
            "nama_se": "BILIK PESANTREN",
            "sektor": "Sektor Teknologi Informasi dan Komunikasi",
            "tanggal_terbit": "2022-08-12",
            "url_tdpse_detail": "https://pse.komdigi.go.id/tdpse-detail/10298",
            "website": "bilikit.id"
        },
        {
            "id": "9cb1abfc-7d76-41e7-8991-18c604d200fb",
            "nama_pse": "BANK PEREKONOMIAN RAKYAT HIDUP ARTHA PUTRA",
            "nama_se": "WEBSITE BPR HIDUP ARTHA PUTRA",
            "sektor": "Sektor Keuangan",
            "tanggal_terbit": "2022-08-12",
            "url_tdpse_detail": "https://pse.komdigi.go.id/tdpse-detail/10249",
            "website": "hidupartha.com"
        },
        {
            "id": "9cb1abb3-1163-41cf-bcae-978ec543171d",
            "nama_pse": "XIAOMI COMMUNICATIONS INDONESIA",
            "nama_se": "WWW.MI.CO.ID",
            "sektor": "Sektor Perdagangan",
            "tanggal_terbit": "2022-08-12",
            "url_tdpse_detail": "https://pse.komdigi.go.id/tdpse-detail/10268",
            "website": "mi.co.id"
        },
        {
            "id": "9cb1ac0b-4397-4620-8c36-3c1a97d92081",
            "nama_pse": "MULTI ASTA WDNA",
            "nama_se": "MAWZ",
            "sektor": "Sektor Perdagangan, Sektor Teknologi Informasi dan Komunikasi",
            "tanggal_terbit": "2022-08-11",
            "url_tdpse_detail": "https://pse.komdigi.go.id/tdpse-detail/10204",
            "website": "multiastawardana.my.id"
        },
        {
            "id": "9cb1abd6-3d6f-4dde-a8ed-90dc675ecf09",
            "nama_pse": "BANK PERKREDITAN RAKYAT AGRIMAKMUR LESTARI",
            "nama_se": "WEBSITE PT. BPR AGRIMAKMUR LESTARI",
            "sektor": "Sektor Keuangan",
            "tanggal_terbit": "2022-08-11",
            "url_tdpse_detail": "https://pse.komdigi.go.id/tdpse-detail/10205",
            "website": "ns1.niagahoster.com"
        },
        {
            "id": "9cb1abfc-3c1e-4c16-b9dc-d424949085a3",
            "nama_pse": "BANK PERKREDITAN RAKYAT SANTI PALA",
            "nama_se": "BANKING SMART SYSTEM",
            "sektor": "Sektor Keuangan",
            "tanggal_terbit": "2022-08-11",
            "url_tdpse_detail": "https://pse.komdigi.go.id/tdpse-detail/10206",
            "website": "bprsantipala.com"
        },
        {
            "id": "9cb1ac0b-4ae4-4d28-9cc5-8d944efbb058",
            "nama_pse": "JARIYA MANAJEMEN KONSULTASI",
            "nama_se": "JUALBELI",
            "sektor": "Sektor Perdagangan",
            "tanggal_terbit": "2022-08-11",
            "url_tdpse_detail": "https://pse.komdigi.go.id/tdpse-detail/10207",
            "website": "jualbeli.market"
        },
        {
            "id": "9cb1abd6-4823-478c-bb37-911b1d0896f3",
            "nama_pse": "LIPUTAN ENAM DOT COM",
            "nama_se": "WWW.BOLA.NET",
            "sektor": "Sektor Teknologi Informasi dan Komunikasi",
            "tanggal_terbit": "2022-08-11",
            "url_tdpse_detail": "https://pse.komdigi.go.id/tdpse-detail/10214",
            "website": "bola.net"
        },
        {
            "id": "9cb1ac0b-51c5-4071-83dd-d2f88785b2a1",
            "nama_pse": "NOVATAMA SOLUSI TEKNOLOGI",
            "nama_se": "POSBILL - APLIKASI KASIR ONLINE",
            "sektor": "Sektor Teknologi Informasi dan Komunikasi",
            "tanggal_terbit": "2022-08-11",
            "url_tdpse_detail": "https://pse.komdigi.go.id/tdpse-detail/10216",
            "website": "posbill.id"
        },
        {
            "id": "9cb1abfc-4d9f-4b72-9b4f-bce45406339b",
            "nama_pse": "INOVASI SUKSES SENTOSA",
            "nama_se": "INDOTRADING",
            "sektor": "Sektor Perdagangan, Sektor Teknologi Informasi dan Komunikasi",
            "tanggal_terbit": "2022-08-11",
            "url_tdpse_detail": "https://pse.komdigi.go.id/tdpse-detail/10217",
            "website": "indotrading.com"
        },
        {
            "id": "9cb1ac0b-57eb-44c5-9449-8f268aa50582",
            "nama_pse": "TEKNOLOGI INSTPOWER INDONESIA",
            "nama_se": "INSTPOWER",
            "sektor": "Sektor Perdagangan",
            "tanggal_terbit": "2022-08-11",
            "url_tdpse_detail": "https://pse.komdigi.go.id/tdpse-detail/10220",
            "website": "instpower.com"
        },
        {
            "id": "9cb1abfc-5151-4284-a48b-164e8e57e31c",
            "nama_pse": "CLOUD KINETICS INDONESIA",
            "nama_se": "CLOUD KINETICS",
            "sektor": "Sektor Teknologi Informasi dan Komunikasi",
            "tanggal_terbit": "2022-08-11",
            "url_tdpse_detail": "https://pse.komdigi.go.id/tdpse-detail/10219",
            "website": "cloud-kinetics.com"
        },
        {
            "id": "9cb1ac0b-5b80-4e30-a7ab-3db9da6fb849",
            "nama_pse": "CITRAWEB SOLUSI TEKNOLOGI",
            "nama_se": "CITRAWEB.COM",
            "sektor": "Sektor Perdagangan, Sektor Teknologi Informasi dan Komunikasi",
            "tanggal_terbit": "2022-08-11",
            "url_tdpse_detail": "https://pse.komdigi.go.id/tdpse-detail/10221",
            "website": "citraweb.com"
        },
        {
            "id": "9cb1ac0b-5e57-4842-8cc3-89447d9c4bb7",
            "nama_pse": "ASIA BANDAR ARTA",
            "nama_se": "VENCHI",
            "sektor": "Sektor Perdagangan",
            "tanggal_terbit": "2022-08-11",
            "url_tdpse_detail": "https://pse.komdigi.go.id/tdpse-detail/10222",
            "website": "-"
        },
        {
            "id": "9cb1abd6-5162-41fe-84bf-31bcd6031593",
            "nama_pse": "CITRAWEB SOLUSI TEKNOLOGI",
            "nama_se": "MIKROTIK",
            "sektor": "Sektor Perdagangan, Sektor Teknologi Informasi dan Komunikasi",
            "tanggal_terbit": "2022-08-11",
            "url_tdpse_detail": "https://pse.komdigi.go.id/tdpse-detail/10223",
            "website": "mikrotik.co.id"
        },
        {
            "id": "9cb1abfc-5425-4a09-920a-a51403b36c4a",
            "nama_pse": "ASIA BANDAR ARTA",
            "nama_se": "ELEMIS",
            "sektor": "Sektor Perdagangan",
            "tanggal_terbit": "2022-08-11",
            "url_tdpse_detail": "https://pse.komdigi.go.id/tdpse-detail/10225",
            "website": "-"
        },
        {
            "id": "9cb1ac0b-60ff-4e53-8fb5-e1936811674c",
            "nama_pse": "TRANS DIGITAL MEDIA",
            "nama_se": "HAIBUNDA.COM",
            "sektor": "Sektor Teknologi Informasi dan Komunikasi",
            "tanggal_terbit": "2022-08-11",
            "url_tdpse_detail": "https://pse.komdigi.go.id/tdpse-detail/10228",
            "website": "haibunda.com"
        },
        {
            "id": "9cb1abfc-5721-4218-83c8-62babc3cfc6f",
            "nama_pse": "ASIA BANDAR ARTA",
            "nama_se": "BONPARFUMEUR",
            "sektor": "Sektor Perdagangan",
            "tanggal_terbit": "2022-08-11",
            "url_tdpse_detail": "https://pse.komdigi.go.id/tdpse-detail/10226",
            "website": "-"
        },
        {
            "id": "9cb1abd6-5856-4244-bac6-3a222fe46699",
            "nama_pse": "ASIA BANDAR ARTA",
            "nama_se": "L'OCCITANE",
            "sektor": "Sektor Perdagangan",
            "tanggal_terbit": "2022-08-11",
            "url_tdpse_detail": "https://pse.komdigi.go.id/tdpse-detail/10227",
            "website": "-"
        },
        {
            "id": "9cb1abfc-5a03-4674-967a-f12cfe9e17d3",
            "nama_pse": "MEDI CRYPTO INTERNATIONAL",
            "nama_se": "MEDI CRYPTO",
            "sektor": "Sektor Perdagangan",
            "tanggal_terbit": "2022-08-11",
            "url_tdpse_detail": "https://pse.komdigi.go.id/tdpse-detail/10230",
            "website": "medicrypto.id"
        },
        {
            "id": "9cb1abfc-5d94-44bd-ae22-163fd83d0c0d",
            "nama_pse": "EKUATOR SWARNA SEKURITAS",
            "nama_se": "E-REGISTRATION OPENING ACCOUNT ONLINE EKUATOR SWARNA SEKURITAS",
            "sektor": "Sektor Keuangan, Sektor Teknologi Informasi dan Komunikasi",
            "tanggal_terbit": "2022-08-11",
            "url_tdpse_detail": "https://pse.komdigi.go.id/tdpse-detail/10229",
            "website": "e-registration.ekuator.co.id"
        },
        {
            "id": "9cb1ac0b-6d81-43be-925c-fc783aa2622a",
            "nama_pse": "JASA NASARI SENTRA USAHA MIKRO KECIL MENENGAH",
            "nama_se": "NASARI DIGITAL ( NADI)",
            "sektor": "Sektor Perdagangan, Sektor Keuangan",
            "tanggal_terbit": "2022-08-11",
            "url_tdpse_detail": "https://pse.komdigi.go.id/tdpse-detail/10234",
            "website": "-"
        },
        {
            "id": "9cb1ac0b-713f-4b28-99f7-6cf51b21c092",
            "nama_pse": "SHARE TREATS INNOVATION",
            "nama_se": "SHARE TREATS",
            "sektor": "Sektor Perdagangan",
            "tanggal_terbit": "2022-08-11",
            "url_tdpse_detail": "https://pse.komdigi.go.id/tdpse-detail/10232",
            "website": "sharetreats.id"
        },
        {
            "id": "9cb1abd6-6a1e-43ef-96a8-5af3a0450d0d",
            "nama_pse": "INDONESIA MAKMUR GROUP SEKURITAS",
            "nama_se": "WEBSITE PT IMG SEKURITAS",
            "sektor": "Sektor Keuangan",
            "tanggal_terbit": "2022-08-11",
            "url_tdpse_detail": "https://pse.komdigi.go.id/tdpse-detail/10233",
            "website": "imgsekuritas.com"
        },
        {
            "id": "9cb1ac0b-74c7-41e9-8329-996b466252c7",
            "nama_pse": "MIKROBISNIS DIGITAL SEJAHTERA",
            "nama_se": "MIKROAPPS",
            "sektor": "Sektor Teknologi Informasi dan Komunikasi",
            "tanggal_terbit": "2022-08-11",
            "url_tdpse_detail": "https://pse.komdigi.go.id/tdpse-detail/10235",
            "website": "mikroapps.id"
        },
        {
            "id": "9cb1ac0b-7819-4bef-9d83-c86fc272e8be",
            "nama_pse": "KAILANI SELARAS INDONESIA",
            "nama_se": "SOLUSI ARSIP",
            "sektor": "Sektor Perdagangan, Sektor Teknologi Informasi dan Komunikasi",
            "tanggal_terbit": "2022-08-11",
            "url_tdpse_detail": "https://pse.komdigi.go.id/tdpse-detail/10236",
            "website": "solusiarsip.id"
        },
        {
            "id": "9cb1abd6-6db8-4d72-9ffd-139113d4b097",
            "nama_pse": "RANTAI BLOK KRIPTO INDONESIA",
            "nama_se": "JAGO HUKUM",
            "sektor": "Sektor Perdagangan",
            "tanggal_terbit": "2022-08-11",
            "url_tdpse_detail": "https://pse.komdigi.go.id/tdpse-detail/10237",
            "website": "jagohukum.com"
        },
        {
            "id": "9cb1abd6-7d8e-4272-9132-b20cdbc3ef70",
            "nama_pse": "KAILANI SELARAS INDONESIA",
            "nama_se": "CEK HKI",
            "sektor": "Sektor Perdagangan, Sektor Teknologi Informasi dan Komunikasi",
            "tanggal_terbit": "2022-08-11",
            "url_tdpse_detail": "https://pse.komdigi.go.id/tdpse-detail/10238",
            "website": "cekhki.id"
        },
        {
            "id": "9cb1abd6-80f0-405f-bde9-ed46442f97c5",
            "nama_pse": "KAILANI SELARAS INDONESIA",
            "nama_se": "CIPTA MEDIA",
            "sektor": "Sektor Perdagangan, Sektor Teknologi Informasi dan Komunikasi",
            "tanggal_terbit": "2022-08-11",
            "url_tdpse_detail": "https://pse.komdigi.go.id/tdpse-detail/10239",
            "website": "ciptamedia.id"
        },
        {
            "id": "9cb1abfc-64bc-4dec-819e-05e50d10dc77",
            "nama_pse": "KAILANI SELARAS INDONESIA",
            "nama_se": "ICJR LEARNING HUB",
            "sektor": "Sektor Perdagangan, Sektor Teknologi Informasi dan Komunikasi",
            "tanggal_terbit": "2022-08-11",
            "url_tdpse_detail": "https://pse.komdigi.go.id/tdpse-detail/10240",
            "website": "learninghub.id"
        },
        {
            "id": "9cb1abfc-69ea-4a6f-ba24-acc3635ed9ba",
            "nama_pse": "KAILANI SELARAS INDONESIA",
            "nama_se": "PKPA JAKARTA",
            "sektor": "Sektor Perdagangan, Sektor Teknologi Informasi dan Komunikasi",
            "tanggal_terbit": "2022-08-11",
            "url_tdpse_detail": "https://pse.komdigi.go.id/tdpse-detail/10241",
            "website": "pkpajakarta.com"
        },
        {
            "id": "9cb1ac0b-834c-4fce-8ed9-799b49960072",
            "nama_pse": "KAILANI SELARAS INDONESIA",
            "nama_se": "DPB SOLUSI ARSIP",
            "sektor": "Sektor Teknologi Informasi dan Komunikasi",
            "tanggal_terbit": "2022-08-11",
            "url_tdpse_detail": "https://pse.komdigi.go.id/tdpse-detail/10242",
            "website": "dpb.solusiarsip.id"
        },
        {
            "id": "9cb1abfc-6d15-4eaa-bc76-585984f38772",
            "nama_pse": "BUT BANK OF AMERICA NATIONAL ASSOCIATION",
            "nama_se": "CASHPRO ONLINE",
            "sektor": "Sektor Keuangan",
            "tanggal_terbit": "2022-08-11",
            "url_tdpse_detail": "https://pse.komdigi.go.id/tdpse-detail/10244",
            "website": "bankofamerica.com"
        },
        {
            "id": "9cb1abfc-7203-4a6e-bb20-88dd39c949d6",
            "nama_pse": "PRIME TEKNOLOGI DIGITAL INFORMINDO",
            "nama_se": "PRIME M2M",
            "sektor": "Sektor Teknologi Informasi dan Komunikasi",
            "tanggal_terbit": "2022-08-11",
            "url_tdpse_detail": "https://pse.komdigi.go.id/tdpse-detail/10245",
            "website": "ptdigital.co.id"
        },
        {
            "id": "9cb1abb7-9c0f-44aa-99c2-8749ed71cdaa",
            "nama_pse": "KOMUNITAS ANAK BANGSA",
            "nama_se": "KIPASKIPAS",
            "sektor": "Sektor Teknologi Informasi dan Komunikasi",
            "tanggal_terbit": "2022-08-11",
            "url_tdpse_detail": "https://pse.komdigi.go.id/tdpse-detail/10218",
            "website": "kipaskipas.com"
        },
        {
            "id": "9cb1abf7-718c-4ba7-9a1a-bc2fe152094d",
            "nama_pse": "FOURMI ASHA SEJAHTERA",
            "nama_se": "FOURMI.CO.ID",
            "sektor": "Sektor Perdagangan",
            "tanggal_terbit": "2022-08-10",
            "url_tdpse_detail": "https://pse.komdigi.go.id/tdpse-detail/9542",
            "website": "fourmi.co.id"
        },
        {
            "id": "9cb1abf7-9583-42c1-a867-fcdc4ae1bf26",
            "nama_pse": "KOMPAK INDOPOLA",
            "nama_se": "WEBSITE PENJUALAN",
            "sektor": "Sektor Perdagangan",
            "tanggal_terbit": "2022-08-10",
            "url_tdpse_detail": "https://pse.komdigi.go.id/tdpse-detail/9587",
            "website": "nikkenchlostanin.com"
        },
        {
            "id": "9cb1abf7-a5ad-49b2-a83b-c9c38cb4b836",
            "nama_pse": "GOLKAR INSTITUT SEKOLAH PEMERINTAHAN DAN KEBIJAKAN PUBLIK  disingkat  GOLKAR INSTITUT SPKP",
            "nama_se": "GOLKAREKTA.COM",
            "sektor": "Sektor Teknologi Informasi dan Komunikasi",
            "tanggal_terbit": "2022-08-10",
            "url_tdpse_detail": "https://pse.komdigi.go.id/tdpse-detail/9597",
            "website": "golkarekta.com"
        },
        {
            "id": "9cb1abd2-d707-44a5-b2f7-f4bc35b119fd",
            "nama_pse": "BIGO INFORMATION INDONESIA",
            "nama_se": "AUDIT SISTEM",
            "sektor": "Sektor Teknologi Informasi dan Komunikasi",
            "tanggal_terbit": "2022-08-10",
            "url_tdpse_detail": "https://pse.komdigi.go.id/tdpse-detail/9677",
            "website": "-"
        },
        {
            "id": "9cb1ac08-1900-404e-b6f9-f3f33542c322",
            "nama_pse": "BIGO INFORMATION INDONESIA",
            "nama_se": "IMO",
            "sektor": "Sektor Teknologi Informasi dan Komunikasi",
            "tanggal_terbit": "2022-08-10",
            "url_tdpse_detail": "https://pse.komdigi.go.id/tdpse-detail/9671",
            "website": "imo.im"
        },
        {
            "id": "9cb1abd2-efec-42ec-a8fd-6f57e886767c",
            "nama_pse": "BANK PERKREDITAN RAKYAT TARA DHARMA ARTHA",
            "nama_se": "PT BPR TARA DHARMA ARTHA",
            "sektor": "Sektor Keuangan",
            "tanggal_terbit": "2022-08-10",
            "url_tdpse_detail": "https://pse.komdigi.go.id/tdpse-detail/9679",
            "website": "-"
        },
        {
            "id": "9cb1ac08-40a9-497e-9697-05ecc94b6656",
            "nama_pse": "MIDAZPAY DIGITAL INDONESIA",
            "nama_se": "WHIZ",
            "sektor": "Sektor Keuangan, Sektor Teknologi Informasi dan Komunikasi",
            "tanggal_terbit": "2022-08-10",
            "url_tdpse_detail": "https://pse.komdigi.go.id/tdpse-detail/9856",
            "website": "whiz.id"
        },
        {
            "id": "9cb1ac08-9671-4dca-82e0-a4e6dc47db43",
            "nama_pse": "BARON BIONDI WILLIAM",
            "nama_se": "BBW CARDLESS",
            "sektor": "Sektor Teknologi Informasi dan Komunikasi",
            "tanggal_terbit": "2022-08-10",
            "url_tdpse_detail": "https://pse.komdigi.go.id/tdpse-detail/9781",
            "website": "bbw.co.id"
        },
        {
            "id": "9cb1abfa-16d4-4a67-9060-6bfa7fa8f4ae",
            "nama_pse": "TRICOM MITRA MANDIRI",
            "nama_se": "YUKSHOPPING",
            "sektor": "Sektor Perdagangan",
            "tanggal_terbit": "2022-08-10",
            "url_tdpse_detail": "https://pse.komdigi.go.id/tdpse-detail/9809",
            "website": "yukshopping.com"
        },
        {
            "id": "9cb1abfb-a0dc-41f8-8835-442e1667dc5d",
            "nama_pse": "GLOBAL MEDIA VISUAL",
            "nama_se": "MOLA RADIO",
            "sektor": "Sektor Teknologi Informasi dan Komunikasi",
            "tanggal_terbit": "2022-08-10",
            "url_tdpse_detail": "https://pse.komdigi.go.id/tdpse-detail/10186",
            "website": "-"
        },
        {
            "id": "9cb1abfb-c94b-4380-95d3-ba43160eb050",
            "nama_pse": "INFOMEDIA NUSANTARA",
            "nama_se": "PORTAL PROVUE",
            "sektor": "Sektor Teknologi Informasi dan Komunikasi",
            "tanggal_terbit": "2022-08-10",
            "url_tdpse_detail": "https://pse.komdigi.go.id/tdpse-detail/10157",
            "website": "precise.sharedvis.co.id"
        },
        {
            "id": "9cb1abfb-f085-42aa-b118-ef860721287c",
            "nama_pse": "ABDURRAHMAN",
            "nama_se": "RAYYA IT",
            "sektor": "Sektor Teknologi Informasi dan Komunikasi",
            "tanggal_terbit": "2022-08-10",
            "url_tdpse_detail": "https://pse.komdigi.go.id/tdpse-detail/10152",
            "website": "kangaab.my.id"
        },
        {
            "id": "9cb1abd5-fdcd-4fbd-a3ed-2367613c1b08",
            "nama_pse": "NUR ABYASNU JAYA",
            "nama_se": "NAJ MULTIMEDIA",
            "sektor": "Sektor Kesehatan, Sektor Teknologi Informasi dan Komunikasi",
            "tanggal_terbit": "2022-08-10",
            "url_tdpse_detail": "https://pse.komdigi.go.id/tdpse-detail/10153",
            "website": "-"
        },
        {
            "id": "9cb1ac0b-0d6e-437a-b122-17a0d8903bd3",
            "nama_pse": "FOKUS INOVASI FARADISA ABADI",
            "nama_se": "FIFAPAY FINTECH BUSINESS",
            "sektor": "Sektor Perdagangan, Sektor Teknologi Informasi dan Komunikasi",
            "tanggal_terbit": "2022-08-10",
            "url_tdpse_detail": "https://pse.komdigi.go.id/tdpse-detail/10154",
            "website": "fifapay.co.id"
        },
        {
            "id": "9cb1abfb-f54e-49a3-a14e-596a72f99d30",
            "nama_pse": "AHMAD SHOFI HIDAYAT",
            "nama_se": "PAYON INDONESIA",
            "sektor": "Sektor Perdagangan",
            "tanggal_terbit": "2022-08-10",
            "url_tdpse_detail": "https://pse.komdigi.go.id/tdpse-detail/10155",
            "website": "payon.id"
        }
    ],
    "processingTimeMs": 5,
    "query": "",
    "totalHits": 19121,
    "hitsPerPage": 50,
    "page": 200,
    "totalPages": 383
}