{
    "hits": [
        {
            "id": "9cb1ab83-7370-41e1-b8db-b2bc8ed3f70b",
            "nama_pse": "MNC ASURANSI INDONESIA",
            "nama_se": "MOTION SURE",
            "sektor": "Sektor Keuangan, Sektor Keuangan",
            "tanggal_terbit": "2022-01-07",
            "url_tdpse_detail": "https://pse.komdigi.go.id/tdpse-detail/2991",
            "website": "motion-sure.id"
        },
        {
            "id": "9cb1ab92-116d-49e9-8dff-ba0ce0000639",
            "nama_pse": "GLOBAL INOVASI STRATEGIS",
            "nama_se": "OFFICIAL.ID",
            "sektor": "Sektor Teknologi Informasi dan Komunikasi, Sektor Teknologi Informasi dan Komunikasi",
            "tanggal_terbit": "2022-01-07",
            "url_tdpse_detail": "https://pse.komdigi.go.id/tdpse-detail/2994",
            "website": "official.id"
        },
        {
            "id": "9cb1ab6a-902c-41b9-b33d-4a0cebf205ac",
            "nama_pse": "MID SOLUSI NUSANTARA",
            "nama_se": "TALENTA",
            "sektor": "Sektor Teknologi Informasi dan Komunikasi, Sektor Teknologi Informasi dan Komunikasi, Sektor Teknologi Informasi dan Komunikasi, Sektor Teknologi Informasi dan Komunikasi",
            "tanggal_terbit": "2022-01-06",
            "url_tdpse_detail": "https://pse.komdigi.go.id/tdpse-detail/2976",
            "website": "hr.talenta.co"
        },
        {
            "id": "9cb1ab6b-1fdf-4937-b40c-2a2a980f65c1",
            "nama_pse": "KREDIBEL TEKNOLOGI INDONESIA",
            "nama_se": "KREDIBEL",
            "sektor": "Sektor Perdagangan, Sektor Perdagangan, Sektor Perdagangan, Sektor Teknologi Informasi dan Komunikasi, Sektor Teknologi Informasi dan Komunikasi, Sektor Teknologi Informasi dan Komunikasi",
            "tanggal_terbit": "2022-01-06",
            "url_tdpse_detail": "https://pse.komdigi.go.id/tdpse-detail/2964",
            "website": "kredibel.com"
        },
        {
            "id": "9cb1ab66-90e8-4b9a-9b0b-99891284ed46",
            "nama_pse": "PERUSAHAAN PERSEROAN (PERSERO) BANK NEGARA INDONESIA",
            "nama_se": "SPAN",
            "sektor": "Sektor Keuangan, Sektor Keuangan",
            "tanggal_terbit": "2022-01-06",
            "url_tdpse_detail": "https://pse.komdigi.go.id/tdpse-detail/2970",
            "website": "spancms.bni.co.id"
        },
        {
            "id": "9cb1ab66-938f-48a7-b060-aea5b0570754",
            "nama_pse": "PERUSAHAAN PERSEROAN (PERSERO) BANK NEGARA INDONESIA",
            "nama_se": "ONE PORTAL FOR ALL",
            "sektor": "Sektor Keuangan, Sektor Keuangan",
            "tanggal_terbit": "2022-01-06",
            "url_tdpse_detail": "https://pse.komdigi.go.id/tdpse-detail/2971",
            "website": "bnitbs.id"
        },
        {
            "id": "9cb1ab66-9632-40af-bf60-d0495222506e",
            "nama_pse": "PERUSAHAAN PERSEROAN (PERSERO) BANK NEGARA INDONESIA",
            "nama_se": "EFORM BNI",
            "sektor": "Sektor Keuangan, Sektor Keuangan",
            "tanggal_terbit": "2022-01-06",
            "url_tdpse_detail": "https://pse.komdigi.go.id/tdpse-detail/2972",
            "website": "eform.bni.co.id"
        },
        {
            "id": "9cb1ab73-499e-43e4-8526-5b382719551b",
            "nama_pse": "PERUSAHAAN PERSEROAN (PERSERO) BANK NEGARA INDONESIA",
            "nama_se": "EFORM KARTU KREDIT BNI",
            "sektor": "Sektor Keuangan, Sektor Keuangan",
            "tanggal_terbit": "2022-01-06",
            "url_tdpse_detail": "https://pse.komdigi.go.id/tdpse-detail/2973",
            "website": "applykartukredit.bni.co.id"
        },
        {
            "id": "9cb1ab6d-06f0-4478-8daf-7abdebe12601",
            "nama_pse": "PERUSAHAAN PERSEROAN (PERSERO) BANK NEGARA INDONESIA",
            "nama_se": "POIN PLUS (BNI POIN+)",
            "sektor": "Sektor Keuangan, Sektor Keuangan",
            "tanggal_terbit": "2022-01-06",
            "url_tdpse_detail": "https://pse.komdigi.go.id/tdpse-detail/2974",
            "website": "poinplus.bni.co.id"
        },
        {
            "id": "9cb1ab66-988a-4411-ab8c-51d994ec5abe",
            "nama_pse": "PERUSAHAAN PERSEROAN (PERSERO) BANK NEGARA INDONESIA",
            "nama_se": "AGEN 46",
            "sektor": "Sektor Keuangan, Sektor Keuangan",
            "tanggal_terbit": "2022-01-06",
            "url_tdpse_detail": "https://pse.komdigi.go.id/tdpse-detail/2975",
            "website": "agenbni46.bni.co.id"
        },
        {
            "id": "9cb1ab73-4e3f-44b8-a5b1-b44d25719dfb",
            "nama_pse": "PERUSAHAAN PERSEROAN (PERSERO) BANK NEGARA INDONESIA",
            "nama_se": "BNI ZONA",
            "sektor": "Sektor Keuangan, Sektor Keuangan",
            "tanggal_terbit": "2022-01-06",
            "url_tdpse_detail": "https://pse.komdigi.go.id/tdpse-detail/2978",
            "website": "m.bnizona.com"
        },
        {
            "id": "9cb1ab73-515c-46d5-81ee-724f31d4f3fe",
            "nama_pse": "PERUSAHAAN PERSEROAN (PERSERO) BANK NEGARA INDONESIA",
            "nama_se": "CORPORATE WEBSITE",
            "sektor": "Sektor Keuangan, Sektor Keuangan",
            "tanggal_terbit": "2022-01-06",
            "url_tdpse_detail": "https://pse.komdigi.go.id/tdpse-detail/2979",
            "website": "bni.co.id"
        },
        {
            "id": "9cb1ab6d-09ef-4832-9893-8e33104a01e1",
            "nama_pse": "PERUSAHAAN PERSEROAN (PERSERO) BANK NEGARA INDONESIA",
            "nama_se": "GB ONLINE (E-BANK GUARANTEE)",
            "sektor": "Sektor Keuangan, Sektor Keuangan",
            "tanggal_terbit": "2022-01-06",
            "url_tdpse_detail": "https://pse.komdigi.go.id/tdpse-detail/2981",
            "website": "gb-online.bni.co.id"
        },
        {
            "id": "9cb1ab6d-0e80-4550-a0ba-ed1c4edbce96",
            "nama_pse": "PERUSAHAAN PERSEROAN (PERSERO) BANK NEGARA INDONESIA",
            "nama_se": "PLATFORM BNI FSCM",
            "sektor": "Sektor Keuangan, Sektor Keuangan",
            "tanggal_terbit": "2022-01-06",
            "url_tdpse_detail": "https://pse.komdigi.go.id/tdpse-detail/2982",
            "website": "bnifscm.bni.co.id"
        },
        {
            "id": "9cb1ab75-24c3-4d87-9a19-b85e5eb1da00",
            "nama_pse": "JURNAL CONSULTING INDONESIA",
            "nama_se": "JURNAL",
            "sektor": "Sektor Teknologi Informasi dan Komunikasi, Sektor Teknologi Informasi dan Komunikasi, Sektor Teknologi Informasi dan Komunikasi",
            "tanggal_terbit": "2022-01-06",
            "url_tdpse_detail": "https://pse.komdigi.go.id/tdpse-detail/2977",
            "website": "jurnal.id"
        },
        {
            "id": "9cb1ab6e-c034-4cee-8686-365f283a1e01",
            "nama_pse": "JURNAL CONSULTING INDONESIA",
            "nama_se": "KLIKPAJAK",
            "sektor": "Sektor Teknologi Informasi dan Komunikasi, Sektor Teknologi Informasi dan Komunikasi, Sektor Teknologi Informasi dan Komunikasi",
            "tanggal_terbit": "2022-01-06",
            "url_tdpse_detail": "https://pse.komdigi.go.id/tdpse-detail/2980",
            "website": "klikpajak.id"
        },
        {
            "id": "9cb1ab81-6b6b-4605-9ca0-402d14fa88e3",
            "nama_pse": "ASTRONACCI INTERNATIONAL",
            "nama_se": "WEBSITE",
            "sektor": "Sektor Teknologi Informasi dan Komunikasi, Sektor Teknologi Informasi dan Komunikasi",
            "tanggal_terbit": "2022-01-06",
            "url_tdpse_detail": "https://pse.komdigi.go.id/tdpse-detail/2963",
            "website": "astronacci.com"
        },
        {
            "id": "9cb1ab81-909c-4920-aafe-0dbf735d12ca",
            "nama_pse": "ELISIUM DIGITAL TEKNOLOGI",
            "nama_se": "HSSE INFORMATION SYSTEM",
            "sektor": "Sektor Teknologi Informasi dan Komunikasi, Sektor Teknologi Informasi dan Komunikasi",
            "tanggal_terbit": "2022-01-06",
            "url_tdpse_detail": "https://pse.komdigi.go.id/tdpse-detail/2966",
            "website": "elisium.id"
        },
        {
            "id": "9cb1ab81-92a1-4376-a70d-e0ac3a867714",
            "nama_pse": "ELISIUM DIGITAL TEKNOLOGI",
            "nama_se": "MAINTENANCE INFORMATION SYSTEM",
            "sektor": "Sektor Teknologi Informasi dan Komunikasi, Sektor Teknologi Informasi dan Komunikasi",
            "tanggal_terbit": "2022-01-06",
            "url_tdpse_detail": "https://pse.komdigi.go.id/tdpse-detail/2968",
            "website": "elisium.id"
        },
        {
            "id": "9cb1ab81-aa47-4c6e-8d40-643d80970ceb",
            "nama_pse": "DAB INDONESIA",
            "nama_se": "DISTRIBUTOR POMPA AIR DAN LED",
            "sektor": "Sektor Perdagangan, Sektor Perdagangan, Sektor Energi dan Sumber Daya Mineral, Sektor Energi dan Sumber Daya Mineral, Sektor Pertahanan dan Keamanan, Sektor Pertahanan dan Keamanan",
            "tanggal_terbit": "2022-01-06",
            "url_tdpse_detail": "https://pse.komdigi.go.id/tdpse-detail/2956",
            "website": "dabindonesia.co.id"
        },
        {
            "id": "9cb1ab79-dd55-45df-8286-3c5d9e3a0318",
            "nama_pse": "PANCA JAYA SETIA",
            "nama_se": "SATUPINTUAJA.CO.ID",
            "sektor": "Sektor Perdagangan, Sektor Perdagangan, Sektor Teknologi Informasi dan Komunikasi, Sektor Teknologi Informasi dan Komunikasi",
            "tanggal_terbit": "2022-01-06",
            "url_tdpse_detail": "https://pse.komdigi.go.id/tdpse-detail/2958",
            "website": "satupintuaja.co.id"
        },
        {
            "id": "9cb1ab81-af64-4d66-bbec-6cd252b0b034",
            "nama_pse": "PILAR TAGIHAN INDONESIA",
            "nama_se": "LAYANAN PENGGALANGAN DANA SOSIAL (ZISWAF)",
            "sektor": "Sektor Teknologi Informasi dan Komunikasi, Sektor Teknologi Informasi dan Komunikasi",
            "tanggal_terbit": "2022-01-06",
            "url_tdpse_detail": "https://pse.komdigi.go.id/tdpse-detail/2959",
            "website": "bersedekah.com"
        },
        {
            "id": "9cb1ab81-b6ab-4b46-a4d8-3fb571d71edb",
            "nama_pse": "INDONESIA DISTRIBUTION HUB",
            "nama_se": "WEBSITE WWW.IDH.ID , APLIKASI IDH.ID",
            "sektor": "Sektor Perdagangan, Sektor Perdagangan",
            "tanggal_terbit": "2022-01-06",
            "url_tdpse_detail": "https://pse.komdigi.go.id/tdpse-detail/2960",
            "website": "idh.id"
        },
        {
            "id": "9cb1ab79-e038-46f6-bee2-55aba257d726",
            "nama_pse": "NDH SUKSES PERKASA",
            "nama_se": "NDH SUKSES PERKASA",
            "sektor": "Sektor Perdagangan, Sektor Perdagangan, Sektor Teknologi Informasi dan Komunikasi, Sektor Teknologi Informasi dan Komunikasi",
            "tanggal_terbit": "2022-01-06",
            "url_tdpse_detail": "https://pse.komdigi.go.id/tdpse-detail/2969",
            "website": "-"
        },
        {
            "id": "9cb1ab79-e38f-4abf-8620-ccf8e9930e8f",
            "nama_pse": "VAYYA SUKSES ABADI",
            "nama_se": "VSA",
            "sektor": "Sektor Perdagangan, Sektor Perdagangan",
            "tanggal_terbit": "2022-01-06",
            "url_tdpse_detail": "https://pse.komdigi.go.id/tdpse-detail/2967",
            "website": "Vsaglobal.co.id"
        },
        {
            "id": "9cb1ab89-c6af-488d-a035-c1ecf3f78e87",
            "nama_pse": "TOP LEGAL GROUP",
            "nama_se": "TOP LEGAL",
            "sektor": "Sektor Perdagangan, Sektor Perdagangan, Sektor Teknologi Informasi dan Komunikasi, Sektor Teknologi Informasi dan Komunikasi",
            "tanggal_terbit": "2022-01-06",
            "url_tdpse_detail": "https://pse.komdigi.go.id/tdpse-detail/2965",
            "website": "toplegal.id"
        },
        {
            "id": "9cb1ab7a-205a-4ddf-b022-76019f189706",
            "nama_pse": "TERANG BAGI BANGSA",
            "nama_se": "SISTEM ELEKTRONIK TITIPKU",
            "sektor": "Sektor Perdagangan, Sektor Perdagangan, Sektor Teknologi Informasi dan Komunikasi, Sektor Teknologi Informasi dan Komunikasi",
            "tanggal_terbit": "2022-01-06",
            "url_tdpse_detail": "https://pse.komdigi.go.id/tdpse-detail/2955",
            "website": "titipku.com"
        },
        {
            "id": "9cb1ab85-1e64-4af6-8ece-d0719f9cc3bd",
            "nama_pse": "MNC LIFE ASSURANCE",
            "nama_se": "MOTION LIFE",
            "sektor": "Sektor Keuangan, Sektor Keuangan, Sektor Keuangan, Sektor Keuangan, Sektor Keuangan, Sektor Keuangan",
            "tanggal_terbit": "2022-01-06",
            "url_tdpse_detail": "https://pse.komdigi.go.id/tdpse-detail/2961",
            "website": "-"
        },
        {
            "id": "9cb1ab7e-1074-452b-b8b2-960175d71f79",
            "nama_pse": "PINTAR PLATFORM DIGITAL",
            "nama_se": "PT PINTAR PLATFORM DIGITAL",
            "sektor": "Sektor Perdagangan, Sektor Perdagangan",
            "tanggal_terbit": "2022-01-06",
            "url_tdpse_detail": "https://pse.komdigi.go.id/tdpse-detail/2957",
            "website": "oneaset.com"
        },
        {
            "id": "9cb1ab86-5bcc-4c88-9b28-18563c36317f",
            "nama_pse": "ASURANSI CIPUTRA INDONESIA",
            "nama_se": "CIPUTRA ENTREPRENEURS CLUB (DISTRIBUTION CHANNEL PORTAL)",
            "sektor": "Sektor Keuangan, Sektor Keuangan, Sektor Keuangan",
            "tanggal_terbit": "2022-01-06",
            "url_tdpse_detail": "https://pse.komdigi.go.id/tdpse-detail/2962",
            "website": "ciputraeclub.co.id"
        },
        {
            "id": "9cb1ab71-22d1-43ad-8ddb-a1c0a934b355",
            "nama_pse": "MULTIDAYA TEKNOLOGI NUSANTARA",
            "nama_se": "EFISHERY FEEDER",
            "sektor": "Sektor Perdagangan, Sektor Perdagangan, Sektor Pangan, Sektor Pangan",
            "tanggal_terbit": "2022-01-05",
            "url_tdpse_detail": "https://pse.komdigi.go.id/tdpse-detail/2952",
            "website": "api.efishery.com"
        },
        {
            "id": "9cb1ab7f-a35a-4765-bb55-4fea4c48a058",
            "nama_pse": "LANCAR REKA SAMPURNA",
            "nama_se": "GHINSHOP",
            "sektor": "Sektor Perdagangan, Sektor Perdagangan, Sektor Kesehatan, Sektor Kesehatan",
            "tanggal_terbit": "2022-01-05",
            "url_tdpse_detail": "https://pse.komdigi.go.id/tdpse-detail/2953",
            "website": "gh-orthoindonesia.com"
        },
        {
            "id": "9cb1ab89-5334-4b10-b24a-8d2a414700e4",
            "nama_pse": "PERUSAHAAN PERSEROAN (PERSERO) PT. BANK TABUNGAN NEGARA",
            "nama_se": "SUPPLY CHAIN FINANCING",
            "sektor": "Sektor Keuangan, Sektor Keuangan, Sektor Keuangan, Sektor Keuangan",
            "tanggal_terbit": "2022-01-05",
            "url_tdpse_detail": "https://pse.komdigi.go.id/tdpse-detail/2954",
            "website": "scf.btn.co.id"
        },
        {
            "id": "9cb1ab79-201c-417f-9bae-244f503398e6",
            "nama_pse": "KINOBI TECHNOLOGIES INDONESIA",
            "nama_se": "KINOBI Z",
            "sektor": "Sektor Teknologi Informasi dan Komunikasi, Sektor Teknologi Informasi dan Komunikasi",
            "tanggal_terbit": "2022-01-04",
            "url_tdpse_detail": "https://pse.komdigi.go.id/tdpse-detail/2947",
            "website": "app.kinobi.asia"
        },
        {
            "id": "9cb1ab79-4496-4d06-80c3-c50a02093e1a",
            "nama_pse": "SIAP PESAN SEKARANG",
            "nama_se": "REDIGAN",
            "sektor": "Sektor Teknologi Informasi dan Komunikasi, Sektor Teknologi Informasi dan Komunikasi, Sektor Teknologi Informasi dan Komunikasi, Sektor Teknologi Informasi dan Komunikasi, Sektor Teknologi Informasi dan Komunikasi",
            "tanggal_terbit": "2022-01-04",
            "url_tdpse_detail": "https://pse.komdigi.go.id/tdpse-detail/2945",
            "website": "Redigan.id"
        },
        {
            "id": "9cb1ab79-ca1b-453d-b2b5-1c6e03191a81",
            "nama_pse": "UMKM NIAGA INTERNATIONAL",
            "nama_se": "BELINJO.ID",
            "sektor": "Sektor Perdagangan, Sektor Perdagangan",
            "tanggal_terbit": "2022-01-04",
            "url_tdpse_detail": "https://pse.komdigi.go.id/tdpse-detail/2946",
            "website": "belinjo.id"
        },
        {
            "id": "9cb1ab89-b4c2-47c3-a250-d7a10e9a4ebc",
            "nama_pse": "SAKA NEWS BRILLIANT",
            "nama_se": "PORTAL BERITA ONLINE WWW.SAKANEWS.COM",
            "sektor": "Sektor Perdagangan, Sektor Perdagangan, Sektor Teknologi Informasi dan Komunikasi, Sektor Teknologi Informasi dan Komunikasi",
            "tanggal_terbit": "2022-01-04",
            "url_tdpse_detail": "https://pse.komdigi.go.id/tdpse-detail/2948",
            "website": "sakanews.com"
        },
        {
            "id": "9cb1ab7d-f671-4a54-bb51-d7689c8e5ef5",
            "nama_pse": "BENEFIT ONLINE TRANSAKSI",
            "nama_se": "APLIKASI SEMUA BISA",
            "sektor": "Sektor Perdagangan, Sektor Perdagangan, Sektor Transportasi, Sektor Transportasi, Sektor Keuangan, Sektor Keuangan, Sektor Kesehatan, Sektor Kesehatan, Sektor Teknologi Informasi dan Komunikasi, Sektor Teknologi Informasi dan Komunikasi, Sektor Pangan, Sektor Pangan",
            "tanggal_terbit": "2022-01-04",
            "url_tdpse_detail": "https://pse.komdigi.go.id/tdpse-detail/2950",
            "website": "pt-bot.com"
        },
        {
            "id": "9cb1ab9f-6f8d-4c53-bb10-cf87cf91146d",
            "nama_pse": "JARINGAN VNT INDONESIA",
            "nama_se": "PROVENOS",
            "sektor": "Sektor Teknologi Informasi dan Komunikasi, Sektor Teknologi Informasi dan Komunikasi, Sektor Teknologi Informasi dan Komunikasi, Sektor Teknologi Informasi dan Komunikasi",
            "tanggal_terbit": "2022-01-04",
            "url_tdpse_detail": "https://pse.komdigi.go.id/tdpse-detail/2949",
            "website": "provenos.co.id"
        },
        {
            "id": "9cb1ab89-37df-4f85-8713-8e6c66222dfe",
            "nama_pse": "DHANA JAYA PRATAMA",
            "nama_se": "KOPERASI DJP",
            "sektor": "Sektor Perdagangan, Sektor Perdagangan, Sektor Keuangan, Sektor Keuangan",
            "tanggal_terbit": "2022-01-03",
            "url_tdpse_detail": "https://pse.komdigi.go.id/tdpse-detail/2943",
            "website": "omegasoft.co.id"
        },
        {
            "id": "9cb1ab7e-7b10-414c-a341-d81cc1869395",
            "nama_pse": "WANTEG SEKURITAS",
            "nama_se": "WON WANTEG ONLINE TRADING",
            "sektor": "Sektor Keuangan, Sektor Keuangan",
            "tanggal_terbit": "2022-01-03",
            "url_tdpse_detail": "https://pse.komdigi.go.id/tdpse-detail/2944",
            "website": "wanteg.com"
        },
        {
            "id": "9cb1ab89-9639-4086-af46-dcdb83370362",
            "nama_pse": "WEBS FOR INDONESIA",
            "nama_se": "WEBS",
            "sektor": "Sektor Teknologi Informasi dan Komunikasi, Sektor Teknologi Informasi dan Komunikasi",
            "tanggal_terbit": "2022-01-02",
            "url_tdpse_detail": "https://pse.komdigi.go.id/tdpse-detail/2941",
            "website": "webs.id"
        },
        {
            "id": "9cb1ab89-a1b4-47c3-959e-56f1cec95363",
            "nama_pse": "HILMAN",
            "nama_se": "POSKOMEDIA",
            "sektor": "Sektor Perdagangan, Sektor Perdagangan, Sektor Teknologi Informasi dan Komunikasi, Sektor Teknologi Informasi dan Komunikasi",
            "tanggal_terbit": "2022-01-02",
            "url_tdpse_detail": "https://pse.komdigi.go.id/tdpse-detail/2942",
            "website": "poskomedia.com"
        },
        {
            "id": "9cb1ab6b-3004-4011-9efc-3c6d46bb168c",
            "nama_pse": "BUMI BERKAH BOGA",
            "nama_se": "KOPI KENANGAN APPS",
            "sektor": "Sektor Perdagangan, Sektor Perdagangan, Sektor Perdagangan",
            "tanggal_terbit": "2021-12-31",
            "url_tdpse_detail": "https://pse.komdigi.go.id/tdpse-detail/2938",
            "website": "kopikenangan.com"
        },
        {
            "id": "9cb1ab69-70c3-4a02-80dc-3beca740549b",
            "nama_pse": "SUPER GIGA GENERASI",
            "nama_se": "FOTOYU",
            "sektor": "Sektor Perdagangan, Sektor Perdagangan",
            "tanggal_terbit": "2021-12-31",
            "url_tdpse_detail": "https://pse.komdigi.go.id/tdpse-detail/2937",
            "website": "fotoyu.com"
        },
        {
            "id": "9cb1ab89-6d56-431c-914a-28220ff803ca",
            "nama_pse": "DATA SOLUSINDO PERKASA",
            "nama_se": "SINDOPAY",
            "sektor": "Sektor Keuangan, Sektor Keuangan, Sektor Teknologi Informasi dan Komunikasi, Sektor Teknologi Informasi dan Komunikasi",
            "tanggal_terbit": "2021-12-31",
            "url_tdpse_detail": "https://pse.komdigi.go.id/tdpse-detail/2935",
            "website": "datasolusindo.id"
        },
        {
            "id": "9cb1ab81-67e6-496d-a76c-47b646044d14",
            "nama_pse": "D' FAMILY TECHNOLOGY",
            "nama_se": "TEKNOLOGI INFORMASI DAN JASA KOMPUTER",
            "sektor": "Sektor Teknologi Informasi dan Komunikasi, Sektor Teknologi Informasi dan Komunikasi",
            "tanggal_terbit": "2021-12-31",
            "url_tdpse_detail": "https://pse.komdigi.go.id/tdpse-detail/2940",
            "website": "-"
        },
        {
            "id": "9cb1ab81-7e51-4c6c-bc5e-e712e158d524",
            "nama_pse": "KIMIA FARMA APOTEK",
            "nama_se": "KIMIA FARMA MOBILE",
            "sektor": "Sektor Kesehatan, Sektor Kesehatan, Sektor Kesehatan",
            "tanggal_terbit": "2021-12-31",
            "url_tdpse_detail": "https://pse.komdigi.go.id/tdpse-detail/2934",
            "website": "kimiafarmaapotek.co.id"
        },
        {
            "id": "9cb1ab81-8ea2-424c-89b6-754fc5e2b39f",
            "nama_pse": "KARSA MEDIA DIGITAL",
            "nama_se": "SNACKTIME",
            "sektor": "Sektor Perdagangan, Sektor Perdagangan",
            "tanggal_terbit": "2021-12-31",
            "url_tdpse_detail": "https://pse.komdigi.go.id/tdpse-detail/2939",
            "website": "snacktime.co.id"
        },
        {
            "id": "9cb1ab7e-69dc-45ed-b59b-1120cc6fcc94",
            "nama_pse": "BANK JABAR BANTEN SYARIAH",
            "nama_se": "MOBILE MASLAHAH (BJBS MOBILE BANKING)",
            "sektor": "Sektor Keuangan, Sektor Keuangan",
            "tanggal_terbit": "2021-12-31",
            "url_tdpse_detail": "https://pse.komdigi.go.id/tdpse-detail/2933",
            "website": "bjbsyariah.co.id"
        }
    ],
    "processingTimeMs": 40,
    "query": "",
    "totalHits": 19131,
    "hitsPerPage": 50,
    "page": 327,
    "totalPages": 383
}