{
    "hits": [
        {
            "id": "9cb1ab88-e715-49e7-8d47-c3a5e081e077",
            "nama_pse": "NEX TEKNOLOGI DIGITAL",
            "nama_se": "XENDIT APP",
            "sektor": "Sektor Teknologi Informasi dan Komunikasi, Sektor Teknologi Informasi dan Komunikasi",
            "tanggal_terbit": "2021-12-11",
            "url_tdpse_detail": "https://pse.komdigi.go.id/tdpse-detail/2726",
            "website": "-"
        },
        {
            "id": "9cb1ab62-1771-4610-8a92-478ec736c1d3",
            "nama_pse": "SRC INDONESIA SEMBILAN",
            "nama_se": "PERMAINAN",
            "sektor": "Sektor Perdagangan, Sektor Perdagangan, Sektor Perdagangan",
            "tanggal_terbit": "2021-12-10",
            "url_tdpse_detail": "https://pse.komdigi.go.id/tdpse-detail/2714",
            "website": "permainan.src.id"
        },
        {
            "id": "9cb1ab70-554d-4af7-8ba0-b582a4aa2518",
            "nama_pse": "SRC INDONESIA SEMBILAN",
            "nama_se": "AYO KASIR BY SRC",
            "sektor": "Sektor Perdagangan, Sektor Perdagangan, Sektor Perdagangan",
            "tanggal_terbit": "2021-12-10",
            "url_tdpse_detail": "https://pse.komdigi.go.id/tdpse-detail/2715",
            "website": "-"
        },
        {
            "id": "9cb1ab6b-8d4e-4cb5-b97d-f80b16bad6ba",
            "nama_pse": "PERSADA MAKMUR INDONESIA",
            "nama_se": "IQOS",
            "sektor": "Sektor Perdagangan, Sektor Perdagangan",
            "tanggal_terbit": "2021-12-10",
            "url_tdpse_detail": "https://pse.komdigi.go.id/tdpse-detail/2719",
            "website": "IQOS.COM"
        },
        {
            "id": "9cb1ab76-c120-4cbf-9a5f-f94854f1a5ba",
            "nama_pse": "ZOOMCAR INDONESIA MOBILITY SERVICES",
            "nama_se": "ZOOMCAR.COM",
            "sektor": "Sektor Transportasi, Sektor Transportasi",
            "tanggal_terbit": "2021-12-10",
            "url_tdpse_detail": "https://pse.komdigi.go.id/tdpse-detail/2710",
            "website": "ZOOMCAR.COM"
        },
        {
            "id": "9cb1ab7f-8d6f-42e9-b595-b38e6f8a090b",
            "nama_pse": "EKAGRATA DATA GEMILANG",
            "nama_se": "EDGE DC",
            "sektor": "Sektor Teknologi Informasi dan Komunikasi, Sektor Teknologi Informasi dan Komunikasi",
            "tanggal_terbit": "2021-12-10",
            "url_tdpse_detail": "https://pse.komdigi.go.id/tdpse-detail/2713",
            "website": "edge.id"
        },
        {
            "id": "9cb1ab77-dd02-425e-b7a2-ba9b7763764a",
            "nama_pse": "RUANG RAYA INDONESIA",
            "nama_se": "RUANGGURU",
            "sektor": "Sektor Perdagangan, Sektor Perdagangan",
            "tanggal_terbit": "2021-12-10",
            "url_tdpse_detail": "https://pse.komdigi.go.id/tdpse-detail/2706",
            "website": "ruangguru.com"
        },
        {
            "id": "9cb1ab78-eb3b-47af-b023-bdc2423da130",
            "nama_pse": "DASA TEKNOLOGI BERSAMA",
            "nama_se": "BURSAREIT",
            "sektor": "Sektor Keuangan, Sektor Keuangan, Sektor Keuangan",
            "tanggal_terbit": "2021-12-10",
            "url_tdpse_detail": "https://pse.komdigi.go.id/tdpse-detail/2722",
            "website": "bursareit.id"
        },
        {
            "id": "9cb1ab78-f519-4e49-b704-7f7a6709a5fe",
            "nama_pse": "ASURANSI JIWA IFG",
            "nama_se": "AGENCY INFORMATION MANAGEMENT SYSTEM",
            "sektor": "Sektor Keuangan, Sektor Keuangan",
            "tanggal_terbit": "2021-12-10",
            "url_tdpse_detail": "https://pse.komdigi.go.id/tdpse-detail/2708",
            "website": "aims.ifg-life.id"
        },
        {
            "id": "9cb1ab88-d782-4f54-9e89-08c53a7624c0",
            "nama_pse": "ASURANSI JIWA IFG",
            "nama_se": "CORPORATE WEBSITE IFG LIFE",
            "sektor": "Sektor Keuangan, Sektor Keuangan",
            "tanggal_terbit": "2021-12-10",
            "url_tdpse_detail": "https://pse.komdigi.go.id/tdpse-detail/2711",
            "website": "ifg-life.id"
        },
        {
            "id": "9cb1ab80-c790-4fca-8a08-9843e75ecd88",
            "nama_pse": "ASURANSI JIWA IFG",
            "nama_se": "PORTAL PENJUALAN  ASURANSI MIKRO IFG LIFE(MICROSITE IFG LIFE)",
            "sektor": "Sektor Keuangan, Sektor Keuangan",
            "tanggal_terbit": "2021-12-10",
            "url_tdpse_detail": "https://pse.komdigi.go.id/tdpse-detail/2712",
            "website": "asuransi.ifg-life.id/mikro/"
        },
        {
            "id": "9cb1ab78-f8b2-471b-b4bc-0e3de881e35b",
            "nama_pse": "ASURANSI JIWA IFG",
            "nama_se": "MIFG (MI-IFG) MANDIRI INHEATH - INDONESIA FINANCIAL GROUP)",
            "sektor": "Sektor Keuangan, Sektor Keuangan",
            "tanggal_terbit": "2021-12-10",
            "url_tdpse_detail": "https://pse.komdigi.go.id/tdpse-detail/2720",
            "website": "registration.ifg-life.id"
        },
        {
            "id": "9cb1ab88-dbc6-4877-904e-984fb46fa7a9",
            "nama_pse": "ASURANSI JIWA IFG",
            "nama_se": "MIFG (MI-IFG) (MANDIRI INHEALTH - INDONESIA FINANCIAL GROUP)",
            "sektor": "Sektor Keuangan, Sektor Keuangan",
            "tanggal_terbit": "2021-12-10",
            "url_tdpse_detail": "https://pse.komdigi.go.id/tdpse-detail/2723",
            "website": "registration.ifg-life.id"
        },
        {
            "id": "9cb1ab88-dea7-447c-a23e-c2aee6820d15",
            "nama_pse": "KREASI SEHAT BERSINAR",
            "nama_se": "MARKETPLACE",
            "sektor": "Sektor Perdagangan, Sektor Perdagangan, Sektor Teknologi Informasi dan Komunikasi, Sektor Teknologi Informasi dan Komunikasi",
            "tanggal_terbit": "2021-12-10",
            "url_tdpse_detail": "https://pse.komdigi.go.id/tdpse-detail/2724",
            "website": "hale.id"
        },
        {
            "id": "9cb1ab80-d7ad-4e1b-b772-b051dd055d7c",
            "nama_pse": "KREASI SEHAT BERSINAR",
            "nama_se": "WEBSITE",
            "sektor": "Sektor Perdagangan, Sektor Perdagangan, Sektor Teknologi Informasi dan Komunikasi, Sektor Teknologi Informasi dan Komunikasi",
            "tanggal_terbit": "2021-12-10",
            "url_tdpse_detail": "https://pse.komdigi.go.id/tdpse-detail/2725",
            "website": "hale.id"
        },
        {
            "id": "9cb1ab79-0775-42b6-b30d-4355bf3ac1f0",
            "nama_pse": "MEDIA NARASI JARINGAN RAKYAT",
            "nama_se": "WEBSITE RESMI PORTAL BERITA MEDIA NARASI JARINGAN RAKYAT",
            "sektor": "Sektor Teknologi Informasi dan Komunikasi, Sektor Teknologi Informasi dan Komunikasi, Sektor Teknologi Informasi dan Komunikasi",
            "tanggal_terbit": "2021-12-10",
            "url_tdpse_detail": "https://pse.komdigi.go.id/tdpse-detail/2705",
            "website": "bhanyangkaranews.id"
        },
        {
            "id": "9cb1ab80-dfad-4539-8ad5-032a52fceb0e",
            "nama_pse": "MERCK CHEMICALS AND LIFE SCIENCES",
            "nama_se": "SIGMA ALDRICH ID",
            "sektor": "Sektor Perdagangan, Sektor Perdagangan",
            "tanggal_terbit": "2021-12-10",
            "url_tdpse_detail": "https://pse.komdigi.go.id/tdpse-detail/2716",
            "website": "sigmaaldrich.id"
        },
        {
            "id": "9cb1ab88-e15d-48d6-aa3e-eab976ed9a59",
            "nama_pse": "REZA AMANDA GILBY",
            "nama_se": "PEMASANGAN JARINGAN INTERNET",
            "sektor": "Sektor Perdagangan, Sektor Perdagangan, Sektor Teknologi Informasi dan Komunikasi, Sektor Teknologi Informasi dan Komunikasi",
            "tanggal_terbit": "2021-12-10",
            "url_tdpse_detail": "https://pse.komdigi.go.id/tdpse-detail/2718",
            "website": "-"
        },
        {
            "id": "9cb1ab80-e598-4b5f-84e2-fbc940408139",
            "nama_pse": "UNITEK MITRA SOLUSI",
            "nama_se": "IT SERVICE MANAGEMENT",
            "sektor": "Sektor Teknologi Informasi dan Komunikasi, Sektor Teknologi Informasi dan Komunikasi",
            "tanggal_terbit": "2021-12-10",
            "url_tdpse_detail": "https://pse.komdigi.go.id/tdpse-detail/2721",
            "website": "unitek.tech"
        },
        {
            "id": "9cb1ab8d-287a-4c79-8c7e-d25629aeab61",
            "nama_pse": "INTERAKTIF INTERNASIONAL",
            "nama_se": "QRIS",
            "sektor": "Sektor Perdagangan, Sektor Perdagangan, Sektor Perdagangan, Sektor Perdagangan, Sektor Teknologi Informasi dan Komunikasi, Sektor Teknologi Informasi dan Komunikasi, Sektor Teknologi Informasi dan Komunikasi, Sektor Teknologi Informasi dan Komunikasi",
            "tanggal_terbit": "2021-12-10",
            "url_tdpse_detail": "https://pse.komdigi.go.id/tdpse-detail/2709",
            "website": "interactiveholic.net"
        },
        {
            "id": "9cb1aba9-8be5-4c3e-a607-b674d38e393f",
            "nama_pse": "SUMBER DIGITAL TEKNOLOGI",
            "nama_se": "ILUMA",
            "sektor": "Sektor Teknologi Informasi dan Komunikasi, Sektor Teknologi Informasi dan Komunikasi",
            "tanggal_terbit": "2021-12-10",
            "url_tdpse_detail": "https://pse.komdigi.go.id/tdpse-detail/2707",
            "website": "iluma.ai"
        },
        {
            "id": "9cb1ab6a-16c2-4227-8556-c994909b1385",
            "nama_pse": "SRC INDONESIA SEMBILAN",
            "nama_se": "PRINCIPAL",
            "sektor": "Sektor Perdagangan, Sektor Perdagangan, Sektor Perdagangan",
            "tanggal_terbit": "2021-12-09",
            "url_tdpse_detail": "https://pse.komdigi.go.id/tdpse-detail/2688",
            "website": "Hms.src.id"
        },
        {
            "id": "9cb1ab6a-1912-4ffd-8aef-2bbd0a820576",
            "nama_pse": "SRC INDONESIA SEMBILAN",
            "nama_se": "PAGUYUBAN",
            "sektor": "Sektor Perdagangan, Sektor Perdagangan, Sektor Perdagangan",
            "tanggal_terbit": "2021-12-09",
            "url_tdpse_detail": "https://pse.komdigi.go.id/tdpse-detail/2690",
            "website": "Paguyuban.src.id"
        },
        {
            "id": "9cb1ab62-14ca-40a0-bc03-dfd633608d39",
            "nama_pse": "SRC INDONESIA SEMBILAN",
            "nama_se": "OFFICIAL STORE",
            "sektor": "Sektor Perdagangan, Sektor Perdagangan, Sektor Perdagangan",
            "tanggal_terbit": "2021-12-09",
            "url_tdpse_detail": "https://pse.komdigi.go.id/tdpse-detail/2694",
            "website": "belanjadi.src.id"
        },
        {
            "id": "9cb1ab6a-1c75-41f1-98f3-68461afbccce",
            "nama_pse": "SRC INDONESIA SEMBILAN",
            "nama_se": "PESAN ANTAR",
            "sektor": "Sektor Perdagangan, Sektor Perdagangan, Sektor Perdagangan",
            "tanggal_terbit": "2021-12-09",
            "url_tdpse_detail": "https://pse.komdigi.go.id/tdpse-detail/2695",
            "website": "belanjadisrc.src.id"
        },
        {
            "id": "9cb1ab70-52fa-43dc-a239-d2de4cf52f78",
            "nama_pse": "SRC INDONESIA SEMBILAN",
            "nama_se": "PELUANG",
            "sektor": "Sektor Perdagangan, Sektor Perdagangan, Sektor Perdagangan",
            "tanggal_terbit": "2021-12-09",
            "url_tdpse_detail": "https://pse.komdigi.go.id/tdpse-detail/2696",
            "website": "peluang.src.id"
        },
        {
            "id": "9cb1ab70-6ece-4367-885d-26fd8d396c2d",
            "nama_pse": "PROPERTI SOLUSI MANAJEMEN",
            "nama_se": "PINFINANCE.ID",
            "sektor": "Sektor Perdagangan, Sektor Perdagangan",
            "tanggal_terbit": "2021-12-09",
            "url_tdpse_detail": "https://pse.komdigi.go.id/tdpse-detail/2698",
            "website": "Pinfinance.id"
        },
        {
            "id": "9cb1ab77-ab86-4066-a274-6663a72995de",
            "nama_pse": "IMPACT CREDIT SOLUTIONS",
            "nama_se": "ICS PLATFORM",
            "sektor": "Sektor Teknologi Informasi dan Komunikasi, Sektor Teknologi Informasi dan Komunikasi",
            "tanggal_terbit": "2021-12-09",
            "url_tdpse_detail": "https://pse.komdigi.go.id/tdpse-detail/2692",
            "website": "-"
        },
        {
            "id": "9cb1ab78-805f-4a11-8548-5039c6764d7f",
            "nama_pse": "INDOINTERNET",
            "nama_se": "INDONET",
            "sektor": "Sektor Teknologi Informasi dan Komunikasi, Sektor Teknologi Informasi dan Komunikasi",
            "tanggal_terbit": "2021-12-09",
            "url_tdpse_detail": "https://pse.komdigi.go.id/tdpse-detail/2701",
            "website": "indonet.co.id"
        },
        {
            "id": "9cb1ab80-93f9-4df3-9cc4-34f11ad0d7bc",
            "nama_pse": "SENDJEK APP INDONESIA",
            "nama_se": "SENDJEK APP",
            "sektor": "Sektor Transportasi, Sektor Transportasi, Sektor Teknologi Informasi dan Komunikasi, Sektor Teknologi Informasi dan Komunikasi",
            "tanggal_terbit": "2021-12-09",
            "url_tdpse_detail": "https://pse.komdigi.go.id/tdpse-detail/2700",
            "website": "sendjek.com"
        },
        {
            "id": "9cb1ab80-c4ba-45e8-821d-5d31d1d25074",
            "nama_pse": "RAKHASA ARTHA WISESA",
            "nama_se": "RUMAH BERKAT",
            "sektor": "Sektor Teknologi Informasi dan Komunikasi, Sektor Teknologi Informasi dan Komunikasi",
            "tanggal_terbit": "2021-12-09",
            "url_tdpse_detail": "https://pse.komdigi.go.id/tdpse-detail/2697",
            "website": "rumahberkat.com"
        },
        {
            "id": "9cb1ab80-ca32-412b-ad68-74a171285603",
            "nama_pse": "MDTV MEDIA DIGITAL",
            "nama_se": "NETMEDIA",
            "sektor": "Sektor Teknologi Informasi dan Komunikasi, Sektor Teknologi Informasi dan Komunikasi",
            "tanggal_terbit": "2021-12-09",
            "url_tdpse_detail": "https://pse.komdigi.go.id/tdpse-detail/2699",
            "website": "netmedia.co.id"
        },
        {
            "id": "9cb1ab79-01b8-4a59-92ab-1357985403b7",
            "nama_pse": "ADHITYA SALEH KOENELA",
            "nama_se": "VAIZ PRATAMA",
            "sektor": "Sektor Kesehatan, Sektor Kesehatan, Sektor Teknologi Informasi dan Komunikasi, Sektor Teknologi Informasi dan Komunikasi, Sektor Pertahanan dan Keamanan, Sektor Pertahanan dan Keamanan",
            "tanggal_terbit": "2021-12-09",
            "url_tdpse_detail": "https://pse.komdigi.go.id/tdpse-detail/2687",
            "website": "-"
        },
        {
            "id": "9cb1ab80-cf58-41ca-a40e-658ab6a90aeb",
            "nama_pse": "LAPAK SATWA INDONESIA",
            "nama_se": "LAPAK SATWA",
            "sektor": "Sektor Teknologi Informasi dan Komunikasi, Sektor Teknologi Informasi dan Komunikasi",
            "tanggal_terbit": "2021-12-09",
            "url_tdpse_detail": "https://pse.komdigi.go.id/tdpse-detail/2691",
            "website": "lapaksatwa.co.id"
        },
        {
            "id": "9cb1ab79-0592-48ee-8083-8c2bee4595de",
            "nama_pse": "INDRA ALIEF SHIEVENTRI",
            "nama_se": "VAMPODE STORE",
            "sektor": "Sektor Perdagangan, Sektor Perdagangan",
            "tanggal_terbit": "2021-12-09",
            "url_tdpse_detail": "https://pse.komdigi.go.id/tdpse-detail/2693",
            "website": "vampodestore.com"
        },
        {
            "id": "9cb1ab80-dc88-4358-8229-1d21678b6303",
            "nama_pse": "YED MARCO GRANDIORI ZULKARNAIN",
            "nama_se": "ROOMDEV",
            "sektor": "Sektor Perdagangan, Sektor Perdagangan",
            "tanggal_terbit": "2021-12-09",
            "url_tdpse_detail": "https://pse.komdigi.go.id/tdpse-detail/2704",
            "website": "roomdev.id"
        },
        {
            "id": "9cb1ab86-4a2b-4d09-a064-9d819c489fa1",
            "nama_pse": "PINTAR PLATFORM DIGITAL",
            "nama_se": "PT PINTAR PLATFORM DIGITAL",
            "sektor": "Sektor Perdagangan, Sektor Perdagangan",
            "tanggal_terbit": "2021-12-09",
            "url_tdpse_detail": "https://pse.komdigi.go.id/tdpse-detail/2702",
            "website": "oneaset.com"
        },
        {
            "id": "9cb1ab8d-cf9a-4951-8a41-50a67054e43a",
            "nama_pse": "RIZQI FEBRIANSYAH",
            "nama_se": "AKSORO DIGITAL",
            "sektor": "Sektor Teknologi Informasi dan Komunikasi, Sektor Teknologi Informasi dan Komunikasi",
            "tanggal_terbit": "2021-12-09",
            "url_tdpse_detail": "https://pse.komdigi.go.id/tdpse-detail/2689",
            "website": "aksorodigital.biz"
        },
        {
            "id": "9cb1aba9-79ab-4555-afa4-ce76c88bdc61",
            "nama_pse": "PAM FINANSIAL TEKNOLOGI",
            "nama_se": "KONTANKU",
            "sektor": "Sektor Keuangan, Sektor Teknologi Informasi dan Komunikasi",
            "tanggal_terbit": "2021-12-09",
            "url_tdpse_detail": "https://pse.komdigi.go.id/tdpse-detail/2703",
            "website": "kontanku.id"
        },
        {
            "id": "9cb1ab6a-14d0-4e8e-9983-1a8c420feb9e",
            "nama_pse": "SRC INDONESIA SEMBILAN",
            "nama_se": "TANTANGAN",
            "sektor": "Sektor Perdagangan, Sektor Perdagangan, Sektor Perdagangan",
            "tanggal_terbit": "2021-12-08",
            "url_tdpse_detail": "https://pse.komdigi.go.id/tdpse-detail/2685",
            "website": "bersamasrckibarkansemangat.src.id"
        },
        {
            "id": "9cb1ab67-c67b-45ba-b012-e109705c8992",
            "nama_pse": "XL AXIATA",
            "nama_se": "XL PRIORITAS",
            "sektor": "Sektor Teknologi Informasi dan Komunikasi, Sektor Teknologi Informasi dan Komunikasi",
            "tanggal_terbit": "2021-12-08",
            "url_tdpse_detail": "https://pse.komdigi.go.id/tdpse-detail/2662",
            "website": "prioritas.xl.co.id"
        },
        {
            "id": "9cb1ab6e-0411-42a4-9fb8-36a6fc8a0fa7",
            "nama_pse": "XL AXIATA",
            "nama_se": "MYAXISNET",
            "sektor": "Sektor Teknologi Informasi dan Komunikasi, Sektor Teknologi Informasi dan Komunikasi",
            "tanggal_terbit": "2021-12-08",
            "url_tdpse_detail": "https://pse.komdigi.go.id/tdpse-detail/2678",
            "website": "my.axisnet.id"
        },
        {
            "id": "9cb1ab6f-9970-4e11-ad36-c8ffeee210b2",
            "nama_pse": "PERUSAHAAN PERSEROAN (PERSERO) PT. TELEKOMUNIKASI INDONESIA",
            "nama_se": "ANTARES",
            "sektor": "Sektor Teknologi Informasi dan Komunikasi, Sektor Teknologi Informasi dan Komunikasi, Sektor Teknologi Informasi dan Komunikasi, Sektor Teknologi Informasi dan Komunikasi",
            "tanggal_terbit": "2021-12-08",
            "url_tdpse_detail": "https://pse.komdigi.go.id/tdpse-detail/2660",
            "website": "antares.id"
        },
        {
            "id": "9cb1ab6f-9b8b-47db-baa1-3f26d8b7e6e5",
            "nama_pse": "PERUSAHAAN PERSEROAN (PERSERO) PT. TELEKOMUNIKASI INDONESIA",
            "nama_se": "INDICAR",
            "sektor": "Sektor Transportasi, Sektor Transportasi, Sektor Transportasi, Sektor Transportasi, Sektor Teknologi Informasi dan Komunikasi, Sektor Teknologi Informasi dan Komunikasi, Sektor Teknologi Informasi dan Komunikasi, Sektor Teknologi Informasi dan Komunikasi",
            "tanggal_terbit": "2021-12-08",
            "url_tdpse_detail": "https://pse.komdigi.go.id/tdpse-detail/2663",
            "website": "indicar.id"
        },
        {
            "id": "9cb1ab75-a068-4015-a7f8-f494103c04f4",
            "nama_pse": "PERUSAHAAN PERSEROAN (PERSERO) PT. TELEKOMUNIKASI INDONESIA",
            "nama_se": "PADI UMKM​",
            "sektor": "Sektor Perdagangan, Sektor Perdagangan, Sektor Perdagangan, Sektor Perdagangan, Sektor Teknologi Informasi dan Komunikasi, Sektor Teknologi Informasi dan Komunikasi, Sektor Teknologi Informasi dan Komunikasi, Sektor Teknologi Informasi dan Komunikasi",
            "tanggal_terbit": "2021-12-08",
            "url_tdpse_detail": "https://pse.komdigi.go.id/tdpse-detail/2666",
            "website": "padiumkm.id"
        },
        {
            "id": "9cb1ab6f-a0ab-48e9-8a54-1649f5556a33",
            "nama_pse": "PERUSAHAAN PERSEROAN (PERSERO) PT. TELEKOMUNIKASI INDONESIA",
            "nama_se": "LOGEE ORDER",
            "sektor": "Sektor Transportasi, Sektor Transportasi, Sektor Transportasi, Sektor Transportasi, Sektor Teknologi Informasi dan Komunikasi, Sektor Teknologi Informasi dan Komunikasi, Sektor Teknologi Informasi dan Komunikasi, Sektor Teknologi Informasi dan Komunikasi",
            "tanggal_terbit": "2021-12-08",
            "url_tdpse_detail": "https://pse.komdigi.go.id/tdpse-detail/2669",
            "website": "logeeorder.id"
        },
        {
            "id": "9cb1ab75-a81a-4cb7-b046-9c15f4a59191",
            "nama_pse": "PERUSAHAAN PERSEROAN (PERSERO) PT. TELEKOMUNIKASI INDONESIA",
            "nama_se": "PIJAR SEKOLAH",
            "sektor": "Sektor Teknologi Informasi dan Komunikasi, Sektor Teknologi Informasi dan Komunikasi, Sektor Teknologi Informasi dan Komunikasi, Sektor Teknologi Informasi dan Komunikasi",
            "tanggal_terbit": "2021-12-08",
            "url_tdpse_detail": "https://pse.komdigi.go.id/tdpse-detail/2670",
            "website": "pijarsekolah.id"
        },
        {
            "id": "9cb1ab6f-a3c7-4f67-87dd-edf6206bfb2b",
            "nama_pse": "PERUSAHAAN PERSEROAN (PERSERO) PT. TELEKOMUNIKASI INDONESIA",
            "nama_se": "LOGEE ORDER RURAL",
            "sektor": "Sektor Transportasi, Sektor Transportasi, Sektor Transportasi, Sektor Transportasi, Sektor Teknologi Informasi dan Komunikasi, Sektor Teknologi Informasi dan Komunikasi, Sektor Teknologi Informasi dan Komunikasi, Sektor Teknologi Informasi dan Komunikasi",
            "tanggal_terbit": "2021-12-08",
            "url_tdpse_detail": "https://pse.komdigi.go.id/tdpse-detail/2671",
            "website": "logee.id"
        },
        {
            "id": "9cb1ab75-aaeb-4293-a290-14099041f19b",
            "nama_pse": "PERUSAHAAN PERSEROAN (PERSERO) PT. TELEKOMUNIKASI INDONESIA",
            "nama_se": "LOGEE TRACKING",
            "sektor": "Sektor Transportasi, Sektor Transportasi, Sektor Transportasi, Sektor Transportasi, Sektor Teknologi Informasi dan Komunikasi, Sektor Teknologi Informasi dan Komunikasi, Sektor Teknologi Informasi dan Komunikasi, Sektor Teknologi Informasi dan Komunikasi",
            "tanggal_terbit": "2021-12-08",
            "url_tdpse_detail": "https://pse.komdigi.go.id/tdpse-detail/2675",
            "website": "tracking.logee.id"
        },
        {
            "id": "9cb1ab6f-a770-479b-8309-600b4b68a6de",
            "nama_pse": "PERUSAHAAN PERSEROAN (PERSERO) PT. TELEKOMUNIKASI INDONESIA",
            "nama_se": "BIGBOX",
            "sektor": "Sektor Teknologi Informasi dan Komunikasi, Sektor Teknologi Informasi dan Komunikasi, Sektor Teknologi Informasi dan Komunikasi, Sektor Teknologi Informasi dan Komunikasi",
            "tanggal_terbit": "2021-12-08",
            "url_tdpse_detail": "https://pse.komdigi.go.id/tdpse-detail/2679",
            "website": "bigbox.co.id"
        }
    ],
    "processingTimeMs": 9,
    "query": "",
    "totalHits": 19131,
    "hitsPerPage": 50,
    "page": 332,
    "totalPages": 383
}