{
    "hits": [
        {
            "id": "9cb1abbd-36a4-49d3-bccc-5dd822fa9e61",
            "nama_pse": "SEHAT DENGAN OLAHRAGA",
            "nama_se": "CAUSE ID",
            "sektor": "Sektor Teknologi Informasi dan Komunikasi",
            "tanggal_terbit": "2022-07-23",
            "url_tdpse_detail": "https://pse.komdigi.go.id/tdpse-detail/8915",
            "website": "cause.id"
        },
        {
            "id": "9cb1abf3-4548-4735-aefe-8cc98bc499a3",
            "nama_pse": "MDS DIGITAL MEDIA",
            "nama_se": "DG SOSMED",
            "sektor": "Sektor Perdagangan",
            "tanggal_terbit": "2022-07-23",
            "url_tdpse_detail": "https://pse.komdigi.go.id/tdpse-detail/8916",
            "website": "dagangsosmed.com"
        },
        {
            "id": "9cb1abf3-4ac1-47f1-89e8-60b4efe6404d",
            "nama_pse": "KINIKU MUDA INDONESIA",
            "nama_se": "INIDOC",
            "sektor": "Sektor Kesehatan",
            "tanggal_terbit": "2022-07-23",
            "url_tdpse_detail": "https://pse.komdigi.go.id/tdpse-detail/8917",
            "website": "-"
        },
        {
            "id": "9cb1abcd-5416-4075-88c1-e73d04826d4a",
            "nama_pse": "KINIKU MUDA INDONESIA",
            "nama_se": "INIDOC MITRA",
            "sektor": "Sektor Teknologi Informasi dan Komunikasi",
            "tanggal_terbit": "2022-07-23",
            "url_tdpse_detail": "https://pse.komdigi.go.id/tdpse-detail/8918",
            "website": "-"
        },
        {
            "id": "9cb1abbd-4897-4c6e-91df-e20d9c6057da",
            "nama_pse": "KINIKU MUDA INDONESIA",
            "nama_se": "KITA SEHAT",
            "sektor": "Sektor Kesehatan",
            "tanggal_terbit": "2022-07-23",
            "url_tdpse_detail": "https://pse.komdigi.go.id/tdpse-detail/8919",
            "website": "-"
        },
        {
            "id": "9cb1abcd-583b-4174-93cc-12d1781878aa",
            "nama_pse": "ANNORA MULTI INTECH",
            "nama_se": "KATALOG HEMATECH",
            "sektor": "Sektor Perdagangan",
            "tanggal_terbit": "2022-07-23",
            "url_tdpse_detail": "https://pse.komdigi.go.id/tdpse-detail/8920",
            "website": "-"
        },
        {
            "id": "9cb1abbd-53ca-45d3-bd70-595105758011",
            "nama_pse": "ANNORA MULTI INTECH",
            "nama_se": "ANNORA AIR QUALITY MONITORING SYSTEM",
            "sektor": "Sektor Teknologi Informasi dan Komunikasi, Sektor Pertahanan dan Keamanan",
            "tanggal_terbit": "2022-07-23",
            "url_tdpse_detail": "https://pse.komdigi.go.id/tdpse-detail/8921",
            "website": "-"
        },
        {
            "id": "9cb1abbd-5651-4799-ad08-627f3380ec7f",
            "nama_pse": "KINIKU MUDA INDONESIA",
            "nama_se": "GOJAY DRIVER",
            "sektor": "Sektor Transportasi",
            "tanggal_terbit": "2022-07-23",
            "url_tdpse_detail": "https://pse.komdigi.go.id/tdpse-detail/8922",
            "website": "-"
        },
        {
            "id": "9cb1abbd-595b-454c-a18f-c1d35eb53886",
            "nama_pse": "KINIKU MUDA INDONESIA",
            "nama_se": "GOJAY MITRA",
            "sektor": "Sektor Transportasi",
            "tanggal_terbit": "2022-07-23",
            "url_tdpse_detail": "https://pse.komdigi.go.id/tdpse-detail/8923",
            "website": "-"
        },
        {
            "id": "9cb1abf3-4e03-4a4d-b6d9-3ff1c4ed8003",
            "nama_pse": "KINIKU MUDA INDONESIA",
            "nama_se": "KERJA SEHAT",
            "sektor": "Sektor Teknologi Informasi dan Komunikasi",
            "tanggal_terbit": "2022-07-23",
            "url_tdpse_detail": "https://pse.komdigi.go.id/tdpse-detail/8924",
            "website": "-"
        },
        {
            "id": "9cb1abcd-5e6f-40d7-b03d-90cb0b6f6151",
            "nama_pse": "MDS DIGITAL MEDIA",
            "nama_se": "INDOHIT MEDIA",
            "sektor": "Sektor Perdagangan",
            "tanggal_terbit": "2022-07-23",
            "url_tdpse_detail": "https://pse.komdigi.go.id/tdpse-detail/8925",
            "website": "indohitsmedia.com"
        },
        {
            "id": "9cb1abf3-53d5-4f73-a50a-23dd01daee6c",
            "nama_pse": "MDS DIGITAL MEDIA",
            "nama_se": "ALLO MEDIA",
            "sektor": "Sektor Perdagangan",
            "tanggal_terbit": "2022-07-23",
            "url_tdpse_detail": "https://pse.komdigi.go.id/tdpse-detail/8926",
            "website": "allomedia.my.id"
        },
        {
            "id": "9cb1abbd-5c88-4afe-93a5-23520d486d5a",
            "nama_pse": "JUS BIANTORO",
            "nama_se": "QILAKIA",
            "sektor": "Sektor Perdagangan",
            "tanggal_terbit": "2022-07-23",
            "url_tdpse_detail": "https://pse.komdigi.go.id/tdpse-detail/8927",
            "website": "-"
        },
        {
            "id": "9cb1ab9a-cd96-485a-9187-c8dcc62287cb",
            "nama_pse": "ANUGERAH PHARMINDO LESTARI",
            "nama_se": "APLREQUEST",
            "sektor": "Sektor Perdagangan, Sektor Kesehatan",
            "tanggal_terbit": "2022-07-22",
            "url_tdpse_detail": "https://pse.komdigi.go.id/tdpse-detail/8857",
            "website": "approval-portal.id"
        },
        {
            "id": "9cb1abe6-0038-4fb4-968a-3e65a74e5009",
            "nama_pse": "INDAH YATAMA",
            "nama_se": "YATAMAONLINE.COM",
            "sektor": "Sektor Teknologi Informasi dan Komunikasi",
            "tanggal_terbit": "2022-07-22",
            "url_tdpse_detail": "https://pse.komdigi.go.id/tdpse-detail/8752",
            "website": "yatamaonline.com"
        },
        {
            "id": "9cb1abe6-283d-4342-acba-2566820da7d0",
            "nama_pse": "INDAH YATAMA",
            "nama_se": "INDAHYATAMA.CO.ID",
            "sektor": "Sektor Teknologi Informasi dan Komunikasi",
            "tanggal_terbit": "2022-07-22",
            "url_tdpse_detail": "https://pse.komdigi.go.id/tdpse-detail/8749",
            "website": "indahyatama.co.id"
        },
        {
            "id": "9cb1abb8-7cfd-4c2c-a14a-f4dc44ff390d",
            "nama_pse": "BFI FINANCE INDONESIA",
            "nama_se": "VIRTUAL OFFICE BFI FINANCE",
            "sektor": "Sektor Keuangan",
            "tanggal_terbit": "2022-07-22",
            "url_tdpse_detail": "https://pse.komdigi.go.id/tdpse-detail/8817",
            "website": "e-virtualoffice.bfi.co.id"
        },
        {
            "id": "9cb1abc4-aa22-48e6-8833-7f8880888962",
            "nama_pse": "BFI FINANCE INDONESIA",
            "nama_se": "PANEL DASHBOARD UNTUK PARTNER BFI FINANCE",
            "sektor": "Sektor Keuangan",
            "tanggal_terbit": "2022-07-22",
            "url_tdpse_detail": "https://pse.komdigi.go.id/tdpse-detail/8822",
            "website": "dashboardconnect.bfi.co.id"
        },
        {
            "id": "9cb1abb9-85aa-4c6b-a36d-9df4bb93b204",
            "nama_pse": "BFI FINANCE INDONESIA",
            "nama_se": "WEB E-COMMERCE BFI SYARIAH (BFI FINANCE)",
            "sektor": "Sektor Keuangan",
            "tanggal_terbit": "2022-07-22",
            "url_tdpse_detail": "https://pse.komdigi.go.id/tdpse-detail/8821",
            "website": "syariah.bfi.co.id"
        },
        {
            "id": "9cb1abb9-aa80-4252-9d0c-412df2df4dac",
            "nama_pse": "BFI FINANCE INDONESIA",
            "nama_se": "EMAIL (BFI FINANCE)",
            "sektor": "Sektor Keuangan",
            "tanggal_terbit": "2022-07-22",
            "url_tdpse_detail": "https://pse.komdigi.go.id/tdpse-detail/8819",
            "website": "mail.bfi.co.id"
        },
        {
            "id": "9cb1abb9-b4ef-4566-920e-e0c3ce42b96a",
            "nama_pse": "BFI FINANCE INDONESIA",
            "nama_se": "WEB FORM (FORM.IO) BFI FINANCE",
            "sektor": "Sektor Keuangan",
            "tanggal_terbit": "2022-07-22",
            "url_tdpse_detail": "https://pse.komdigi.go.id/tdpse-detail/8818",
            "website": "e-webform.bfi.co.id"
        },
        {
            "id": "9cb1abc6-c540-4984-8950-eb3d43a6a735",
            "nama_pse": "BFI FINANCE INDONESIA",
            "nama_se": "WEBSITE KREDIT BFI (BFI FINANCE)",
            "sektor": "Sektor Keuangan",
            "tanggal_terbit": "2022-07-22",
            "url_tdpse_detail": "https://pse.komdigi.go.id/tdpse-detail/8816",
            "website": "kredit.bfi.co.id"
        },
        {
            "id": "9cb1abc6-d319-4642-ab32-4c02a32dc80c",
            "nama_pse": "BFI FINANCE INDONESIA",
            "nama_se": "PENGAJUAN PINJAMAN UNTUK CUSTOMER BFI FINANCE",
            "sektor": "Sektor Keuangan",
            "tanggal_terbit": "2022-07-22",
            "url_tdpse_detail": "https://pse.komdigi.go.id/tdpse-detail/8814",
            "website": "pinjaman.bfi.co.id"
        },
        {
            "id": "9cb1abba-0e35-4429-868c-2be92cd3202c",
            "nama_pse": "BFI FINANCE INDONESIA",
            "nama_se": "ONBOARDING AGENT BRAVO BFI (BFI FINANCE)",
            "sektor": "Sektor Keuangan",
            "tanggal_terbit": "2022-07-22",
            "url_tdpse_detail": "https://pse.komdigi.go.id/tdpse-detail/8820",
            "website": "agency.bfi.co.id"
        },
        {
            "id": "9cb1abbb-4d40-4c6b-9302-fec9005f12af",
            "nama_pse": "FMC AGRICULTURAL MANUFACTURING",
            "nama_se": "ARC™ FARM INTELLIGENCE",
            "sektor": "Sektor Teknologi Informasi dan Komunikasi",
            "tanggal_terbit": "2022-07-22",
            "url_tdpse_detail": "https://pse.komdigi.go.id/tdpse-detail/8715",
            "website": "-"
        },
        {
            "id": "9cb1abf1-392e-495f-8cd6-7ad23e7b62a5",
            "nama_pse": "INDODEV NIAGA INTERNET",
            "nama_se": "SFASIA.DATAON.COM",
            "sektor": "Sektor Teknologi Informasi dan Komunikasi",
            "tanggal_terbit": "2022-07-22",
            "url_tdpse_detail": "https://pse.komdigi.go.id/tdpse-detail/8788",
            "website": "sfasia.dataon.com"
        },
        {
            "id": "9cb1abcc-39b5-401a-8138-453de8b17167",
            "nama_pse": "GENTARA DIGITAL NUSANTARA",
            "nama_se": "GNTR CLOUD \u0026 DEV",
            "sektor": "Sektor Teknologi Informasi dan Komunikasi",
            "tanggal_terbit": "2022-07-22",
            "url_tdpse_detail": "https://pse.komdigi.go.id/tdpse-detail/8714",
            "website": "gntr.net"
        },
        {
            "id": "9cb1abbc-7e39-4d78-ba38-3b82291bc147",
            "nama_pse": "MUHAMMAD NAUFAL AZKIA",
            "nama_se": "MIKPOS",
            "sektor": "Sektor Perdagangan",
            "tanggal_terbit": "2022-07-22",
            "url_tdpse_detail": "https://pse.komdigi.go.id/tdpse-detail/8716",
            "website": "mikpos.space"
        },
        {
            "id": "9cb1abf2-0511-48c0-9a9c-a0d3587ee858",
            "nama_pse": "RENER INTI INTERNASIONAL",
            "nama_se": "HTTPS://WWW.RENNER2U.COM/",
            "sektor": "Sektor Perdagangan",
            "tanggal_terbit": "2022-07-22",
            "url_tdpse_detail": "https://pse.komdigi.go.id/tdpse-detail/8718",
            "website": "renner2u.com"
        },
        {
            "id": "9cb1abcc-3dcb-4179-a19c-fecdcadf430e",
            "nama_pse": "BANK PERKREDITAN RAKYAT ARTHIA SERE",
            "nama_se": "ARTHIA SERE",
            "sektor": "Sektor Keuangan",
            "tanggal_terbit": "2022-07-22",
            "url_tdpse_detail": "https://pse.komdigi.go.id/tdpse-detail/8717",
            "website": "arthiasere.com"
        },
        {
            "id": "9cb1abf2-131c-40f8-9d43-b290d5baedb6",
            "nama_pse": "ZANNA INFINITI FIXINDO",
            "nama_se": "ZFIX",
            "sektor": "Sektor Perdagangan",
            "tanggal_terbit": "2022-07-22",
            "url_tdpse_detail": "https://pse.komdigi.go.id/tdpse-detail/8719",
            "website": "zfix.id"
        },
        {
            "id": "9cb1abcc-41a7-4866-8863-cff05ff10036",
            "nama_pse": "WAHANA MEDITEK INDONESIA",
            "nama_se": "ADAMEDSPRO",
            "sektor": "Sektor Kesehatan",
            "tanggal_terbit": "2022-07-22",
            "url_tdpse_detail": "https://pse.komdigi.go.id/tdpse-detail/8720",
            "website": "-"
        },
        {
            "id": "9cb1abcc-471a-4aa0-ae90-5785b4731ee2",
            "nama_pse": "PLN INDONESIA POWER SERVICES",
            "nama_se": "CIS (COGINDO INTEGRATED SOLUTION)",
            "sektor": "Sektor Perdagangan, Sektor Energi dan Sumber Daya Mineral, Sektor Teknologi Informasi dan Komunikasi",
            "tanggal_terbit": "2022-07-22",
            "url_tdpse_detail": "https://pse.komdigi.go.id/tdpse-detail/8721",
            "website": "cis.cogindo.co.id"
        },
        {
            "id": "9cb1abbc-7fff-458f-9013-a1114356890e",
            "nama_pse": "BANK PERKREDITAN RAKYAT PANDAAN ARTA JAYA",
            "nama_se": "PT. BPR PANDAAN ARTA JAYA",
            "sektor": "Sektor Keuangan",
            "tanggal_terbit": "2022-07-22",
            "url_tdpse_detail": "https://pse.komdigi.go.id/tdpse-detail/8722",
            "website": "bpr-paj.co.id"
        },
        {
            "id": "9cb1abbc-81f1-42aa-84f2-dd933b948b16",
            "nama_pse": "BANK PERKREDITAN RAKYAT NUSAMBA MENGWI",
            "nama_se": "PT BANK PERKREDITAN RAKYAT NUSAMBA MENGWI",
            "sektor": "Sektor Keuangan",
            "tanggal_terbit": "2022-07-22",
            "url_tdpse_detail": "https://pse.komdigi.go.id/tdpse-detail/8726",
            "website": "bprnusamba-mengwi.com"
        },
        {
            "id": "9cb1abcc-4c6d-40c6-a6d7-8d084e544320",
            "nama_pse": "BANK PERKREDITAN RAKYAT NUSAMBA AMPEL",
            "nama_se": "PT BPR NUSAMBA AMPEL",
            "sektor": "Sektor Keuangan",
            "tanggal_terbit": "2022-07-22",
            "url_tdpse_detail": "https://pse.komdigi.go.id/tdpse-detail/8723",
            "website": "bprnusamba-ampel.com"
        },
        {
            "id": "9cb1abbc-83a8-4b15-90db-2d2d60ec794c",
            "nama_pse": "AHMAD KADIRUN",
            "nama_se": "TOPPAY",
            "sektor": "Sektor Perdagangan",
            "tanggal_terbit": "2022-07-22",
            "url_tdpse_detail": "https://pse.komdigi.go.id/tdpse-detail/8724",
            "website": "toppaymobile.online"
        },
        {
            "id": "9cb1abbc-8585-4415-a959-489f7f0cd87a",
            "nama_pse": "WAHANA MEDITEK INDONESIA",
            "nama_se": "ADAMQUE",
            "sektor": "Sektor Kesehatan",
            "tanggal_terbit": "2022-07-22",
            "url_tdpse_detail": "https://pse.komdigi.go.id/tdpse-detail/8725",
            "website": "-"
        },
        {
            "id": "9cb1abbc-874a-47fa-8fa7-c00ba11bd5da",
            "nama_pse": "PLN INDONESIA POWER SERVICES",
            "nama_se": "COLLEGE (COGINDO DIGITAL LEARNING GENERATION)",
            "sektor": "Sektor Energi dan Sumber Daya Mineral",
            "tanggal_terbit": "2022-07-22",
            "url_tdpse_detail": "https://pse.komdigi.go.id/tdpse-detail/8727",
            "website": "college.cogindo.co.id"
        },
        {
            "id": "9cb1abbc-8930-4edd-aa9f-ce8dca45ad2d",
            "nama_pse": "PLN INDONESIA POWER SERVICES",
            "nama_se": "COLLEXT (COGINDO LINK EXPERT)",
            "sektor": "Sektor Energi dan Sumber Daya Mineral",
            "tanggal_terbit": "2022-07-22",
            "url_tdpse_detail": "https://pse.komdigi.go.id/tdpse-detail/8728",
            "website": "collext.cogindo.co.id"
        },
        {
            "id": "9cb1abbc-8b0a-4ab1-9d36-3dc714a5c372",
            "nama_pse": "JTB INDONESIA",
            "nama_se": "KURA KURA BUS",
            "sektor": "Sektor Perdagangan, Sektor Transportasi",
            "tanggal_terbit": "2022-07-22",
            "url_tdpse_detail": "https://pse.komdigi.go.id/tdpse-detail/8732",
            "website": "kura2bus.com"
        },
        {
            "id": "9cb1abf2-2072-4ca7-99e0-e8f5dc8f77d8",
            "nama_pse": "BANK PERKREDITAN RAKYAT ASWAJA",
            "nama_se": "CORE BANKING SYSTEM",
            "sektor": "Sektor Keuangan",
            "tanggal_terbit": "2022-07-22",
            "url_tdpse_detail": "https://pse.komdigi.go.id/tdpse-detail/8729",
            "website": "-"
        },
        {
            "id": "9cb1abbc-8ceb-4498-8434-34ec373382f2",
            "nama_pse": "BANK PERKREDITAN RAKYAT PAKAN RABAA SOLOK SELATAN",
            "nama_se": "PT. BANK PERKREDITAN RAKYAT PAKAN RABAA SOLOK SELATAN",
            "sektor": "Sektor Keuangan",
            "tanggal_terbit": "2022-07-22",
            "url_tdpse_detail": "https://pse.komdigi.go.id/tdpse-detail/8730",
            "website": "-"
        },
        {
            "id": "9cb1abf2-239f-4708-8eaf-ce96f42e73f1",
            "nama_pse": "BION SOLUSI TEKNOLOGI",
            "nama_se": "BALASCHAT",
            "sektor": "Sektor Teknologi Informasi dan Komunikasi",
            "tanggal_terbit": "2022-07-22",
            "url_tdpse_detail": "https://pse.komdigi.go.id/tdpse-detail/8745",
            "website": "balas.chat"
        },
        {
            "id": "9cb1abcc-5281-4edf-81c1-bfc0b8d46c53",
            "nama_pse": "BANK PEREKONOMIAN RAKYAT CERDAS",
            "nama_se": "CORE BANKING IBS USSI",
            "sektor": "Sektor Keuangan",
            "tanggal_terbit": "2022-07-22",
            "url_tdpse_detail": "https://pse.komdigi.go.id/tdpse-detail/8731",
            "website": "bprbalidewata.com"
        },
        {
            "id": "9cb1abbc-8eb1-48e4-9263-08a315cd47a5",
            "nama_pse": "BANK PERKREDITAN RAKYAT RIFI MALIGI",
            "nama_se": "WWW.BPRRIMA.CO.ID",
            "sektor": "Sektor Keuangan",
            "tanggal_terbit": "2022-07-22",
            "url_tdpse_detail": "https://pse.komdigi.go.id/tdpse-detail/8733",
            "website": "bprrima.co.id"
        },
        {
            "id": "9cb1abf2-282d-47dd-bef4-3014dfb54bf4",
            "nama_pse": "DARMAWISATA INDONESIA",
            "nama_se": "DARMAWISATA INDONESIA",
            "sektor": "Sektor Transportasi",
            "tanggal_terbit": "2022-07-22",
            "url_tdpse_detail": "https://pse.komdigi.go.id/tdpse-detail/8734",
            "website": "darmawisataindonesia.co.id"
        },
        {
            "id": "9cb1abbc-907f-4b1c-a306-fbcc7ea9a5b8",
            "nama_pse": "SATU VISI KREASI INDONESIA",
            "nama_se": "SIMAK.ID",
            "sektor": "Sektor Teknologi Informasi dan Komunikasi",
            "tanggal_terbit": "2022-07-22",
            "url_tdpse_detail": "https://pse.komdigi.go.id/tdpse-detail/8741",
            "website": "simak.id"
        },
        {
            "id": "9cb1abf2-2d41-42e5-a694-d3ba2126ba7f",
            "nama_pse": "BANK PEMBIAYAAN RAKYAT SYARIAH AMANAHSEJAHTERA",
            "nama_se": "CORE BANKING SISTEM IBA",
            "sektor": "Sektor Keuangan",
            "tanggal_terbit": "2022-07-22",
            "url_tdpse_detail": "https://pse.komdigi.go.id/tdpse-detail/8735",
            "website": "amanahsejahtera.com"
        },
        {
            "id": "9cb1abbc-9251-4893-97d1-6227a60e5ced",
            "nama_pse": "BANK PERKREDITAN RAKYAT BANGIL IDAMAN",
            "nama_se": "BANK PERKREDITAN RAKYAT BANGIL IDAMAN",
            "sektor": "Sektor Keuangan",
            "tanggal_terbit": "2022-07-22",
            "url_tdpse_detail": "https://pse.komdigi.go.id/tdpse-detail/8736",
            "website": "bangilidaman.co.id"
        }
    ],
    "processingTimeMs": 3,
    "query": "",
    "totalHits": 19131,
    "hitsPerPage": 50,
    "page": 223,
    "totalPages": 383
}