{
    "hits": [
        {
            "id": "9cb1abe1-4616-4dc6-bdb5-cee5dd70e12b",
            "nama_pse": "BANK UOB INDONESIA",
            "nama_se": "TMRW WEBSITE",
            "sektor": "Sektor Keuangan",
            "tanggal_terbit": "2022-10-28",
            "url_tdpse_detail": "https://pse.komdigi.go.id/tdpse-detail/12014",
            "website": "tmrwbyuob.com"
        },
        {
            "id": "9cb1ac05-26d3-4863-afa1-662a22708bb2",
            "nama_pse": "PENDANAAN TEKNOLOGI NUSA",
            "nama_se": "KTA KILAT BACKEND",
            "sektor": "Sektor Keuangan, Sektor Teknologi Informasi dan Komunikasi",
            "tanggal_terbit": "2022-10-27",
            "url_tdpse_detail": "https://pse.komdigi.go.id/tdpse-detail/11977",
            "website": "ptnadmin.com"
        },
        {
            "id": "9cb1abe1-1c6f-48f7-a454-6e0b408bee56",
            "nama_pse": "ARTHA CIPTA INFORMATIKA",
            "nama_se": "PBFKU.ID",
            "sektor": "Sektor Teknologi Informasi dan Komunikasi",
            "tanggal_terbit": "2022-10-27",
            "url_tdpse_detail": "https://pse.komdigi.go.id/tdpse-detail/11978",
            "website": "pbfku.id"
        },
        {
            "id": "9cb1ac05-29e9-49b2-9430-e5c78fb7a69e",
            "nama_pse": "ARTHA CIPTA INFORMATIKA",
            "nama_se": "D-MCARE.ID",
            "sektor": "Sektor Teknologi Informasi dan Komunikasi",
            "tanggal_terbit": "2022-10-27",
            "url_tdpse_detail": "https://pse.komdigi.go.id/tdpse-detail/11979",
            "website": "d-mcare.id"
        },
        {
            "id": "9cb1abe1-1fc2-43ad-9848-901363c1a376",
            "nama_pse": "SANATA SYSTEM",
            "nama_se": "SANATA MEDICAL SIUTE",
            "sektor": "Sektor Perdagangan, Sektor Kesehatan, Sektor Teknologi Informasi dan Komunikasi",
            "tanggal_terbit": "2022-10-27",
            "url_tdpse_detail": "https://pse.komdigi.go.id/tdpse-detail/11982",
            "website": "sanatasystem.com"
        },
        {
            "id": "9cb1ac13-cb26-40d7-9636-d690b0cbe57c",
            "nama_pse": "INTI DIGITAL SEMESTA",
            "nama_se": "KONSOR PAYMENT",
            "sektor": "Sektor Perdagangan, Sektor Teknologi Informasi dan Komunikasi",
            "tanggal_terbit": "2022-10-27",
            "url_tdpse_detail": "https://pse.komdigi.go.id/tdpse-detail/11981",
            "website": "konsorpayment.com"
        },
        {
            "id": "9cb1abe1-27ae-495e-8d92-33075533ad73",
            "nama_pse": "SANATA SYSTEM",
            "nama_se": "SANATA MEDICAL SUITE",
            "sektor": "Sektor Perdagangan, Sektor Kesehatan, Sektor Teknologi Informasi dan Komunikasi",
            "tanggal_terbit": "2022-10-27",
            "url_tdpse_detail": "https://pse.komdigi.go.id/tdpse-detail/11989",
            "website": "sanatasystem.com"
        },
        {
            "id": "9cb1ac13-d126-4624-b80e-cc43be4ca1e3",
            "nama_pse": "KIWOOM SEKURITAS INDONESIA",
            "nama_se": "HERO",
            "sektor": "Sektor Keuangan",
            "tanggal_terbit": "2022-10-27",
            "url_tdpse_detail": "https://pse.komdigi.go.id/tdpse-detail/11990",
            "website": "-"
        },
        {
            "id": "9cb1abe1-2c77-4613-8789-e4d347da60bc",
            "nama_pse": "KIWOOM SEKURITAS INDONESIA",
            "nama_se": "WEB OPENING ACCOUNT ONLINE KIWOOM SEKURITAS INDONESIA",
            "sektor": "Sektor Keuangan",
            "tanggal_terbit": "2022-10-27",
            "url_tdpse_detail": "https://pse.komdigi.go.id/tdpse-detail/11991",
            "website": "welcome.kiwoom.co.id"
        },
        {
            "id": "9cb1ac05-2fc8-489c-a6b7-16c22b2e72e9",
            "nama_pse": "DIGIVO KREATIF INDONESIA",
            "nama_se": "PT DIGIVO KREATIF INDONESIA",
            "sektor": "Sektor Teknologi Informasi dan Komunikasi",
            "tanggal_terbit": "2022-10-27",
            "url_tdpse_detail": "https://pse.komdigi.go.id/tdpse-detail/11992",
            "website": "digivo.co.id"
        },
        {
            "id": "9cb1ac05-32d6-4e96-946d-7671affb49da",
            "nama_pse": "HOSELA TECHNO DIGITAL",
            "nama_se": "HOSELA",
            "sektor": "Sektor Perdagangan",
            "tanggal_terbit": "2022-10-27",
            "url_tdpse_detail": "https://pse.komdigi.go.id/tdpse-detail/11993",
            "website": "hosela.co.id"
        },
        {
            "id": "9cb1abe1-3578-4ffb-b50a-8dbc3d22d1f2",
            "nama_pse": "CAHAYA SERAWAI MANDIRI",
            "nama_se": "CAHAYA SERAWAI MANDIRI",
            "sektor": "Sektor Perdagangan, Sektor Teknologi Informasi dan Komunikasi",
            "tanggal_terbit": "2022-10-27",
            "url_tdpse_detail": "https://pse.komdigi.go.id/tdpse-detail/11994",
            "website": "-"
        },
        {
            "id": "9cb1ac13-d5e9-45a9-aadc-18f6b8e89dc8",
            "nama_pse": "RUMI SETIA APLIKASI",
            "nama_se": "HOBBYKU",
            "sektor": "Sektor Kesehatan, Sektor Teknologi Informasi dan Komunikasi",
            "tanggal_terbit": "2022-10-27",
            "url_tdpse_detail": "https://pse.komdigi.go.id/tdpse-detail/11995",
            "website": "-"
        },
        {
            "id": "9cb1ac05-36b1-42a9-9eee-5622965529d7",
            "nama_pse": "HEKSA SOLUTION INSURANCE",
            "nama_se": "PT HEKSA SOLUTION INSURANCE",
            "sektor": "Sektor Keuangan",
            "tanggal_terbit": "2022-10-27",
            "url_tdpse_detail": "https://pse.komdigi.go.id/tdpse-detail/11996",
            "website": "heksainsurance.co.id"
        },
        {
            "id": "9cb1ac13-ddfd-4405-be19-aacc90f823ba",
            "nama_pse": "GLOBAL GAME INTERNUSA",
            "nama_se": "GLOBALESPORT",
            "sektor": "Sektor Teknologi Informasi dan Komunikasi",
            "tanggal_terbit": "2022-10-27",
            "url_tdpse_detail": "https://pse.komdigi.go.id/tdpse-detail/11997",
            "website": "globalesport.id"
        },
        {
            "id": "9cb1ac05-3994-468a-9c40-b9a83ec3e431",
            "nama_pse": "PEGASUS",
            "nama_se": "PENJUALAN ONLINE KATALOG",
            "sektor": "Sektor Perdagangan",
            "tanggal_terbit": "2022-10-27",
            "url_tdpse_detail": "https://pse.komdigi.go.id/tdpse-detail/11998",
            "website": "-"
        },
        {
            "id": "9cb1abe1-3e78-445f-8a25-fe40241b4d3e",
            "nama_pse": "CIPSON MITRA INDONESIA",
            "nama_se": "ONLINESHOP",
            "sektor": "Sektor Perdagangan",
            "tanggal_terbit": "2022-10-27",
            "url_tdpse_detail": "https://pse.komdigi.go.id/tdpse-detail/11999",
            "website": "-"
        },
        {
            "id": "9cb1ac05-190d-4ea6-b728-9eb1b2565496",
            "nama_pse": "HERBALIFE INDONESIA",
            "nama_se": "HERBALIFE.CO.ID",
            "sektor": "Sektor Teknologi Informasi dan Komunikasi",
            "tanggal_terbit": "2022-10-26",
            "url_tdpse_detail": "https://pse.komdigi.go.id/tdpse-detail/11965",
            "website": "herbalife.co.id"
        },
        {
            "id": "9cb1ac05-1d19-4334-805e-12c34d302e97",
            "nama_pse": "PRODIA DIGITAL INDONESIA",
            "nama_se": "U BY PRODIA",
            "sektor": "Sektor Teknologi Informasi dan Komunikasi",
            "tanggal_terbit": "2022-10-26",
            "url_tdpse_detail": "https://pse.komdigi.go.id/tdpse-detail/11966",
            "website": "prodiadigital.com"
        },
        {
            "id": "9cb1ac13-bae1-45ac-84f9-2926e000cb6f",
            "nama_pse": "HADJI KALLA",
            "nama_se": "KALLAFRIENDS",
            "sektor": "Sektor Perdagangan, Sektor Transportasi, Sektor Teknologi Informasi dan Komunikasi",
            "tanggal_terbit": "2022-10-26",
            "url_tdpse_detail": "https://pse.komdigi.go.id/tdpse-detail/11963",
            "website": "kallafriends.com"
        },
        {
            "id": "9cb1ac13-be97-4576-9ebf-b100ab54bf34",
            "nama_pse": "CIPTA KOIN DIGITAL",
            "nama_se": "NAGA EXCHANGE",
            "sektor": "Sektor Keuangan",
            "tanggal_terbit": "2022-10-26",
            "url_tdpse_detail": "https://pse.komdigi.go.id/tdpse-detail/11964",
            "website": "nagaexchange.co.id"
        },
        {
            "id": "9cb1abe0-f4fc-478a-bbfd-47ae80c58bf8",
            "nama_pse": "VISTA OMEGA SUKSES",
            "nama_se": "VIOS.ID",
            "sektor": "Sektor Perdagangan, Sektor Teknologi Informasi dan Komunikasi",
            "tanggal_terbit": "2022-10-26",
            "url_tdpse_detail": "https://pse.komdigi.go.id/tdpse-detail/11967",
            "website": "vios.id"
        },
        {
            "id": "9cb1abe0-f99c-406a-9f8a-a9bca5fee772",
            "nama_pse": "BERHASIL",
            "nama_se": "PENGADAAN KOMPUTER DAN PERLENGKAPAN KOMPUTER",
            "sektor": "Sektor Perdagangan",
            "tanggal_terbit": "2022-10-26",
            "url_tdpse_detail": "https://pse.komdigi.go.id/tdpse-detail/11968",
            "website": "-"
        },
        {
            "id": "9cb1abe0-fcc7-43b1-b135-2b09ab44b982",
            "nama_pse": "SATUNOL MIKRO SISTEM",
            "nama_se": "OLOMED",
            "sektor": "Sektor Kesehatan",
            "tanggal_terbit": "2022-10-26",
            "url_tdpse_detail": "https://pse.komdigi.go.id/tdpse-detail/11969",
            "website": "olomed.net"
        },
        {
            "id": "9cb1ac05-2062-4704-a06b-3649bc188c13",
            "nama_pse": "INOVASI GAME SELARAS",
            "nama_se": "INAGAME",
            "sektor": "Sektor Teknologi Informasi dan Komunikasi",
            "tanggal_terbit": "2022-10-26",
            "url_tdpse_detail": "https://pse.komdigi.go.id/tdpse-detail/11975",
            "website": "inagame.id"
        },
        {
            "id": "9cb1ac05-23c8-42f6-9683-fe1a94022f8f",
            "nama_pse": "TEKNOLOGI NUTRIMEN SEHAT",
            "nama_se": "ARUMMI.CO",
            "sektor": "Sektor Perdagangan, Sektor Pangan",
            "tanggal_terbit": "2022-10-26",
            "url_tdpse_detail": "https://pse.komdigi.go.id/tdpse-detail/11970",
            "website": "arummi.co"
        },
        {
            "id": "9cb1ac13-c1a6-4224-be99-2f2f2b5cb7b2",
            "nama_pse": "PEGASUS",
            "nama_se": "PERDAGANGAN KOMPUTER DAN PERLENGKAPAN KOMPUTER",
            "sektor": "Sektor Perdagangan",
            "tanggal_terbit": "2022-10-26",
            "url_tdpse_detail": "https://pse.komdigi.go.id/tdpse-detail/11972",
            "website": "-"
        },
        {
            "id": "9cb1abe1-08ce-4912-92b5-1c866bf9a821",
            "nama_pse": "GARUDA GROUP INDONESIA",
            "nama_se": "GARUDANEWS",
            "sektor": "Sektor Teknologi Informasi dan Komunikasi",
            "tanggal_terbit": "2022-10-26",
            "url_tdpse_detail": "https://pse.komdigi.go.id/tdpse-detail/11973",
            "website": "garudanews.net"
        },
        {
            "id": "9cb1ac13-c4d9-4366-9cb2-3a32432dfbf4",
            "nama_pse": "PEGASUS KRIPTO NUSANTARA",
            "nama_se": "MERDEKAKRIPTO.COM",
            "sektor": "Sektor Perdagangan",
            "tanggal_terbit": "2022-10-26",
            "url_tdpse_detail": "https://pse.komdigi.go.id/tdpse-detail/11974",
            "website": "merdekakripto.com"
        },
        {
            "id": "9cb1ac13-9476-4f7b-81e4-2ff2854cc938",
            "nama_pse": "BANK PERKREDITAN RAKYAT SAGO LUHAK LIMAPULUH",
            "nama_se": "BANK PERKREDITAN RAKYAT SAGO LUHAK LIMAPULUH",
            "sektor": "Sektor Keuangan",
            "tanggal_terbit": "2022-10-25",
            "url_tdpse_detail": "https://pse.komdigi.go.id/tdpse-detail/11944",
            "website": "-"
        },
        {
            "id": "9cb1ac04-fd5b-4693-8f31-346250e9f755",
            "nama_pse": "BPOSEVEN INOVASI INDONESIA",
            "nama_se": "BENEMICA",
            "sektor": "Sektor Teknologi Informasi dan Komunikasi",
            "tanggal_terbit": "2022-10-25",
            "url_tdpse_detail": "https://pse.komdigi.go.id/tdpse-detail/11945",
            "website": "benemica.com"
        },
        {
            "id": "9cb1ac05-0125-48a6-a04e-0821b55b61a4",
            "nama_pse": "TATA SARANA MAKMUR",
            "nama_se": "RPAYKU",
            "sektor": "Sektor Perdagangan, Sektor Transportasi, Sektor Keuangan, Sektor Kesehatan, Sektor Teknologi Informasi dan Komunikasi",
            "tanggal_terbit": "2022-10-25",
            "url_tdpse_detail": "https://pse.komdigi.go.id/tdpse-detail/11946",
            "website": "rpayku.id"
        },
        {
            "id": "9cb1abe0-dd63-41d0-8b67-9950cbf0e528",
            "nama_pse": "WAGON DAGANG INDONESIA",
            "nama_se": "WAGON ID",
            "sektor": "Sektor Perdagangan",
            "tanggal_terbit": "2022-10-25",
            "url_tdpse_detail": "https://pse.komdigi.go.id/tdpse-detail/11947",
            "website": "wagon.id"
        },
        {
            "id": "9cb1abe0-e1cc-4c7e-b1a2-4af6dac7fe93",
            "nama_pse": "HASHMICRO SOLUSI INDONESIA",
            "nama_se": "HASHMICRO 3",
            "sektor": "Sektor Teknologi Informasi dan Komunikasi",
            "tanggal_terbit": "2022-10-25",
            "url_tdpse_detail": "https://pse.komdigi.go.id/tdpse-detail/11948",
            "website": "hashmicro.com"
        },
        {
            "id": "9cb1ac13-980f-4d1a-b27b-df69404417b9",
            "nama_pse": "APLIKASI INOVASI BANGSA",
            "nama_se": "DOTX",
            "sektor": "Sektor Teknologi Informasi dan Komunikasi",
            "tanggal_terbit": "2022-10-25",
            "url_tdpse_detail": "https://pse.komdigi.go.id/tdpse-detail/11950",
            "website": "dotx.id"
        },
        {
            "id": "9cb1abe0-e7d0-49bc-959a-900ee22b244b",
            "nama_pse": "DELAMETA BILANO",
            "nama_se": "ENCOSYS CALL CENTRE",
            "sektor": "Sektor Teknologi Informasi dan Komunikasi",
            "tanggal_terbit": "2022-10-25",
            "url_tdpse_detail": "https://pse.komdigi.go.id/tdpse-detail/11949",
            "website": "-"
        },
        {
            "id": "9cb1ac13-9bd5-45cc-87db-c5be015b127b",
            "nama_pse": "GAMA MULTI USAHA MANDIRI",
            "nama_se": "UGM-MALL.COM",
            "sektor": "Sektor Perdagangan",
            "tanggal_terbit": "2022-10-25",
            "url_tdpse_detail": "https://pse.komdigi.go.id/tdpse-detail/11951",
            "website": "ugm-mall.com"
        },
        {
            "id": "9cb1ac13-a03d-4374-8dd0-e36de77eec0f",
            "nama_pse": "NUPARIS",
            "nama_se": "TOPUR MARKETPLACE",
            "sektor": "Sektor Perdagangan",
            "tanggal_terbit": "2022-10-25",
            "url_tdpse_detail": "https://pse.komdigi.go.id/tdpse-detail/11952",
            "website": "topur.id"
        },
        {
            "id": "9cb1ac13-a395-45db-b7d9-5ab328250bb4",
            "nama_pse": "ZAFYRE PENDIDIKAN KLINIKAL",
            "nama_se": "ZAFYRE PENDIDIKAN KLINIKAL",
            "sektor": "Sektor Kesehatan",
            "tanggal_terbit": "2022-10-25",
            "url_tdpse_detail": "https://pse.komdigi.go.id/tdpse-detail/11953",
            "website": "Zafyre.com"
        },
        {
            "id": "9cb1ac05-04e1-4c2e-a041-325d3983c678",
            "nama_pse": "TOKO VOUCHER INDONESIA",
            "nama_se": "TOKO VOUCHER INDONESIA",
            "sektor": "Sektor Teknologi Informasi dan Komunikasi",
            "tanggal_terbit": "2022-10-25",
            "url_tdpse_detail": "https://pse.komdigi.go.id/tdpse-detail/11954",
            "website": "member.tokovoucher.id"
        },
        {
            "id": "9cb1ac13-a710-48e4-8864-3640cdebe78a",
            "nama_pse": "BUKAKIOS TEKNOLOGI INDONESIA",
            "nama_se": "BUKAKIOS TEKNOLOGI INDONESIA",
            "sektor": "Sektor Teknologi Informasi dan Komunikasi",
            "tanggal_terbit": "2022-10-25",
            "url_tdpse_detail": "https://pse.komdigi.go.id/tdpse-detail/11955",
            "website": "-"
        },
        {
            "id": "9cb1ac13-aac7-4ffe-ac9b-83b50aee4bd3",
            "nama_pse": "BANK PERKREDITAN RAKYAT HASA MITRA JAWA BARAT",
            "nama_se": "WEBSITE : HASAMITRAJABAR.COM, INSTAGRAM : @HASAMITRA.JABAR, FACEBOOK : HASAMITRA JABAR",
            "sektor": "Sektor Keuangan",
            "tanggal_terbit": "2022-10-25",
            "url_tdpse_detail": "https://pse.komdigi.go.id/tdpse-detail/11956",
            "website": "hasamitrajabar.com"
        },
        {
            "id": "9cb1ac13-afc3-4f7a-b977-4fe1782d96b9",
            "nama_pse": "MAJU SELARAS KOMPUTER",
            "nama_se": "VOGAME",
            "sektor": "Sektor Perdagangan",
            "tanggal_terbit": "2022-10-25",
            "url_tdpse_detail": "https://pse.komdigi.go.id/tdpse-detail/11958",
            "website": "vogame.id"
        },
        {
            "id": "9cb1ac05-0c9e-420f-83b4-3b3715121e88",
            "nama_pse": "XEON TECHNOLOGY INDONESIA",
            "nama_se": "RUMAHHOST",
            "sektor": "Sektor Perdagangan, Sektor Teknologi Informasi dan Komunikasi",
            "tanggal_terbit": "2022-10-25",
            "url_tdpse_detail": "https://pse.komdigi.go.id/tdpse-detail/11959",
            "website": "rumahhost.com"
        },
        {
            "id": "9cb1ac05-0f80-4389-982c-831bdff3117a",
            "nama_pse": "TRUKTOP TEKNOLOGI GLOBAL",
            "nama_se": "TRUKTOP.COM",
            "sektor": "Sektor Perdagangan, Sektor Teknologi Informasi dan Komunikasi",
            "tanggal_terbit": "2022-10-25",
            "url_tdpse_detail": "https://pse.komdigi.go.id/tdpse-detail/11960",
            "website": "truktop.com"
        },
        {
            "id": "9cb1abe0-edbc-4ecd-891d-d17efb5daf0d",
            "nama_pse": "DIGITAL SOLUSI PRATAMA",
            "nama_se": "NÜPAY",
            "sektor": "Sektor Perdagangan, Sektor Keuangan",
            "tanggal_terbit": "2022-10-25",
            "url_tdpse_detail": "https://pse.komdigi.go.id/tdpse-detail/11962",
            "website": "dspratama.co.id"
        },
        {
            "id": "9cb1ac13-b645-4d52-afe8-d5cc934393d5",
            "nama_pse": "FINETIKS INOVASI INDONESIA",
            "nama_se": "FINETIKS",
            "sektor": "Sektor Teknologi Informasi dan Komunikasi",
            "tanggal_terbit": "2022-10-25",
            "url_tdpse_detail": "https://pse.komdigi.go.id/tdpse-detail/11961",
            "website": "finetiks.com"
        },
        {
            "id": "9cb1abf5-1138-4813-8c54-6c2df1ede39f",
            "nama_pse": "PERUSAHAAN PERSEROAN (PERSERO) PT. TELEKOMUNIKASI INDONESIA",
            "nama_se": "AGREE MART",
            "sektor": "Sektor Perdagangan",
            "tanggal_terbit": "2022-10-24",
            "url_tdpse_detail": "https://pse.komdigi.go.id/tdpse-detail/9155",
            "website": "agreeculture.id"
        },
        {
            "id": "9cb1abbe-48fd-433e-b934-9e55af8b1ce6",
            "nama_pse": "PERUSAHAAN PERSEROAN (PERSERO) PT. TELEKOMUNIKASI INDONESIA",
            "nama_se": "PICASO E-KYC",
            "sektor": "Sektor Perdagangan, Sektor Teknologi Informasi dan Komunikasi",
            "tanggal_terbit": "2022-10-24",
            "url_tdpse_detail": "https://pse.komdigi.go.id/tdpse-detail/9156",
            "website": "picaso.id"
        },
        {
            "id": "9cb1abce-ccbb-4af0-a136-eba86454c9d4",
            "nama_pse": "PERUSAHAAN PERSEROAN (PERSERO) PT. TELEKOMUNIKASI INDONESIA",
            "nama_se": "AGREE MARKET",
            "sektor": "Sektor Perdagangan",
            "tanggal_terbit": "2022-10-24",
            "url_tdpse_detail": "https://pse.komdigi.go.id/tdpse-detail/9157",
            "website": "market.agreeculture.id"
        }
    ],
    "processingTimeMs": 34,
    "query": "",
    "totalHits": 19121,
    "hitsPerPage": 50,
    "page": 174,
    "totalPages": 383
}