{
    "hits": [
        {
            "id": "9cb1ac40-a672-4fe5-b9b2-a33572ba626c",
            "nama_pse": "GOJASAKU DIGITAL INDONESIA",
            "nama_se": "PT GOJASAKU DIGITAL INDONESIA",
            "sektor": "Sektor Perdagangan, Sektor Teknologi Informasi dan Komunikasi",
            "tanggal_terbit": "2023-03-21",
            "url_tdpse_detail": "https://pse.komdigi.go.id/tdpse-detail/14198",
            "website": "-"
        },
        {
            "id": "9cb1ac3e-f687-4e44-914c-d1b616582995",
            "nama_pse": "MATRICA CONSULTING SERVICE",
            "nama_se": "MCS MEDIKA",
            "sektor": "Sektor Kesehatan, Sektor Teknologi Informasi dan Komunikasi",
            "tanggal_terbit": "2023-03-20",
            "url_tdpse_detail": "https://pse.komdigi.go.id/tdpse-detail/14173",
            "website": "matrica.co.id"
        },
        {
            "id": "9cb1ac1d-e58a-4e80-a9ee-2e4369c657f6",
            "nama_pse": "RUMAH SAKIT UMUM DAERAH PANEMBAHAN SENOPATI KABUPATEN BANTUL",
            "nama_se": "EMEDIKA",
            "sektor": "Sektor Teknologi Informasi dan Komunikasi",
            "tanggal_terbit": "2023-03-20",
            "url_tdpse_detail": "https://pse.komdigi.go.id/tdpse-detail/14169",
            "website": "rsudps.bantulkab.go.id"
        },
        {
            "id": "9cb1ac40-61a8-4d8a-a895-15ff1bd98caf",
            "nama_pse": "BAYARIND ARTHA INTERNUSA",
            "nama_se": "BAYARIND TRANSACTION ECOSYSTEM",
            "sektor": "Sektor Teknologi Informasi dan Komunikasi",
            "tanggal_terbit": "2023-03-20",
            "url_tdpse_detail": "https://pse.komdigi.go.id/tdpse-detail/14170",
            "website": "bayarind.id"
        },
        {
            "id": "9cb1ac30-741d-47bf-bada-4f40d9e99a69",
            "nama_pse": "LASBON TECHNOLOGY INDONESIA",
            "nama_se": "LOLYSHOPY.COM",
            "sektor": "Sektor Perdagangan",
            "tanggal_terbit": "2023-03-20",
            "url_tdpse_detail": "https://pse.komdigi.go.id/tdpse-detail/14168",
            "website": "lolyshopy.com"
        },
        {
            "id": "9cb1ac40-7ac3-4a8b-b60a-042461c62281",
            "nama_pse": "RS JIWA PROF. DR. SOEROYO MAGELANG DITJEN PELAYANAN KESEHATAN KEMENTERIAN KESEHATAN",
            "nama_se": "SOSMART",
            "sektor": "Sektor Kesehatan",
            "tanggal_terbit": "2023-03-20",
            "url_tdpse_detail": "https://pse.komdigi.go.id/tdpse-detail/14171",
            "website": "soerojohospital.co.id"
        },
        {
            "id": "9cb1ac30-77d8-47aa-9cad-d2f5bede115b",
            "nama_pse": "GAIDO DIGITAL MEDIKA",
            "nama_se": "DH MEDZIT",
            "sektor": "Sektor Kesehatan",
            "tanggal_terbit": "2023-03-20",
            "url_tdpse_detail": "https://pse.komdigi.go.id/tdpse-detail/14172",
            "website": "digitalhospital.id"
        },
        {
            "id": "9cb1ac30-7c47-4d87-b955-beb85dbeb551",
            "nama_pse": "MUHAMAD WISNU",
            "nama_se": "NUSAPEDIA",
            "sektor": "Sektor Perdagangan",
            "tanggal_terbit": "2023-03-20",
            "url_tdpse_detail": "https://pse.komdigi.go.id/tdpse-detail/14174",
            "website": "nusapedia.tech"
        },
        {
            "id": "9cb1ac40-803d-4888-a965-55ff29b7a0b2",
            "nama_pse": "ONEMORE INTERNATIONAL ASIA",
            "nama_se": "WEBSITE ONEMORE INTERNATIONAL ASIA",
            "sektor": "Sektor Perdagangan",
            "tanggal_terbit": "2023-03-20",
            "url_tdpse_detail": "https://pse.komdigi.go.id/tdpse-detail/14175",
            "website": "onemoreinternational.asia"
        },
        {
            "id": "9cb1ac1e-1147-46b9-9bd8-9aa76a12d4d0",
            "nama_pse": "SMS VERIFIKASI INDONESIA",
            "nama_se": "SMS VERIFIKASI INDONESIA",
            "sektor": "Sektor Teknologi Informasi dan Komunikasi",
            "tanggal_terbit": "2023-03-20",
            "url_tdpse_detail": "https://pse.komdigi.go.id/tdpse-detail/14176",
            "website": "smsverifikasi.com"
        },
        {
            "id": "9cb1ac30-8302-4e1f-bb81-fd2c51970167",
            "nama_pse": "MULTIDAYA TEKNOLOGI NUSANTARA",
            "nama_se": "EFISHERY AUTOMATIC SMART FEEDER",
            "sektor": "Sektor Teknologi Informasi dan Komunikasi, Sektor Pangan",
            "tanggal_terbit": "2023-03-20",
            "url_tdpse_detail": "https://pse.komdigi.go.id/tdpse-detail/14177",
            "website": "feeder.efishery.com"
        },
        {
            "id": "9cb1ac1e-1414-4d22-8707-b8e8d8c14524",
            "nama_pse": "BINA LESTARI USAHA TERPADU",
            "nama_se": "PT BINA LESTARI USAHA TERPADU",
            "sektor": "Sektor Teknologi Informasi dan Komunikasi",
            "tanggal_terbit": "2023-03-20",
            "url_tdpse_detail": "https://pse.komdigi.go.id/tdpse-detail/14178",
            "website": "faktakriminal.com"
        },
        {
            "id": "9cb1ac1e-2011-4eba-a441-7fc5418d1684",
            "nama_pse": "UNISIA TERA MEDIKA",
            "nama_se": "EVIZIA",
            "sektor": "Sektor Kesehatan, Sektor Teknologi Informasi dan Komunikasi",
            "tanggal_terbit": "2023-03-20",
            "url_tdpse_detail": "https://pse.komdigi.go.id/tdpse-detail/14179",
            "website": "-"
        },
        {
            "id": "9cb1ac40-84f3-4528-9cfb-c0665e0bad24",
            "nama_pse": "LIVING PLATFORM INDONESIA",
            "nama_se": "Q-CHANG BUDDY",
            "sektor": "Sektor Perdagangan",
            "tanggal_terbit": "2023-03-20",
            "url_tdpse_detail": "https://pse.komdigi.go.id/tdpse-detail/14180",
            "website": "-"
        },
        {
            "id": "9cb1ac40-8d67-478a-b305-9585d681b140",
            "nama_pse": "RIANI MEDIA KARYA",
            "nama_se": "AKURASIBERITA.COM",
            "sektor": "Sektor Teknologi Informasi dan Komunikasi",
            "tanggal_terbit": "2023-03-20",
            "url_tdpse_detail": "https://pse.komdigi.go.id/tdpse-detail/14181",
            "website": "akurasiberita.com"
        },
        {
            "id": "9cb1ac40-9068-43c5-9b2b-ac2692d7f952",
            "nama_pse": "FAJAR HIDAYAT",
            "nama_se": "DAILY MUSLIM",
            "sektor": "Sektor Teknologi Informasi dan Komunikasi",
            "tanggal_terbit": "2023-03-20",
            "url_tdpse_detail": "https://pse.komdigi.go.id/tdpse-detail/14182",
            "website": "dailymuslim.id"
        },
        {
            "id": "9cb1ac40-9373-4ab8-9e79-25f4639e40f5",
            "nama_pse": "DELI CYBER SEJAHTERA",
            "nama_se": "DELI CYBER SEJAHTERA",
            "sektor": "Sektor Perdagangan, Sektor Teknologi Informasi dan Komunikasi",
            "tanggal_terbit": "2023-03-20",
            "url_tdpse_detail": "https://pse.komdigi.go.id/tdpse-detail/14183",
            "website": "cakrawalanews.net"
        },
        {
            "id": "9cb1ac1d-e217-49db-96b3-f8059b2bd58b",
            "nama_pse": "TRAVELUCA SEJAHTERA BERSAMA",
            "nama_se": "LUCACADALORA.COM",
            "sektor": "Sektor Teknologi Informasi dan Komunikasi",
            "tanggal_terbit": "2023-03-19",
            "url_tdpse_detail": "https://pse.komdigi.go.id/tdpse-detail/14167",
            "website": "lucacadalora.com"
        },
        {
            "id": "9cb1ac30-70b9-4b2f-be4b-8f634b6a40e6",
            "nama_pse": "SEMBAGI ARUTALA TECHNOLOGY",
            "nama_se": "DOHA (DOCTOR \u0026 HEALTH)",
            "sektor": "Sektor Kesehatan, Sektor Teknologi Informasi dan Komunikasi",
            "tanggal_terbit": "2023-03-19",
            "url_tdpse_detail": "https://pse.komdigi.go.id/tdpse-detail/14165",
            "website": "dohatech.id"
        },
        {
            "id": "9cb1ac1e-056f-4821-b38a-b7e1702b368f",
            "nama_pse": "SEMBAGI ARUTALA TECHNOLOGY",
            "nama_se": "DOHA",
            "sektor": "Sektor Kesehatan, Sektor Teknologi Informasi dan Komunikasi",
            "tanggal_terbit": "2023-03-19",
            "url_tdpse_detail": "https://pse.komdigi.go.id/tdpse-detail/14166",
            "website": "app.dohatech.id"
        },
        {
            "id": "9cb1ac1d-5da2-4f2d-8ee2-2698677344c6",
            "nama_pse": "LASBON TECHNOLOGY INDONESIA",
            "nama_se": "R3STORE",
            "sektor": "Sektor Teknologi Informasi dan Komunikasi",
            "tanggal_terbit": "2023-03-18",
            "url_tdpse_detail": "https://pse.komdigi.go.id/tdpse-detail/14162",
            "website": "r3store.co"
        },
        {
            "id": "9cb1ac30-60b5-4f40-b439-b23e13420ca8",
            "nama_pse": "MUHAMMAD SURAIDIN",
            "nama_se": "KEDAI PULSA",
            "sektor": "Sektor Perdagangan",
            "tanggal_terbit": "2023-03-18",
            "url_tdpse_detail": "https://pse.komdigi.go.id/tdpse-detail/14163",
            "website": "-"
        },
        {
            "id": "9cb1ac30-6416-4ed5-bcbb-e7ff3cec677f",
            "nama_pse": "EVOLUSI TEKNOLOGI INDONESIA",
            "nama_se": "EVOMEDIS",
            "sektor": "Sektor Kesehatan, Sektor Teknologi Informasi dan Komunikasi",
            "tanggal_terbit": "2023-03-18",
            "url_tdpse_detail": "https://pse.komdigi.go.id/tdpse-detail/14164",
            "website": "-"
        },
        {
            "id": "9cb1ac1c-f3cc-47cc-a6a6-5a903551374b",
            "nama_pse": "BRILLIAN INOVASI DIGITAL",
            "nama_se": "JAGDO.ID",
            "sektor": "Sektor Perdagangan, Sektor Teknologi Informasi dan Komunikasi",
            "tanggal_terbit": "2023-03-17",
            "url_tdpse_detail": "https://pse.komdigi.go.id/tdpse-detail/14151",
            "website": "jagdo.id"
        },
        {
            "id": "9cb1ac2f-c62b-4d59-9a15-98770ae8b751",
            "nama_pse": "FREIGHT SOLUSI INDONESIA",
            "nama_se": "FR8LABS",
            "sektor": "Sektor Teknologi Informasi dan Komunikasi",
            "tanggal_terbit": "2023-03-17",
            "url_tdpse_detail": "https://pse.komdigi.go.id/tdpse-detail/14143",
            "website": "fr8labs.co"
        },
        {
            "id": "9cb1ac40-1be4-466e-8878-036542e0b9d0",
            "nama_pse": "FAST RETAILING INDONESIA",
            "nama_se": "STYLEHINT",
            "sektor": "Sektor Perdagangan",
            "tanggal_terbit": "2023-03-17",
            "url_tdpse_detail": "https://pse.komdigi.go.id/tdpse-detail/14148",
            "website": "stylehint.com"
        },
        {
            "id": "9cb1ac1d-a7af-4cb4-b977-bbb99e862884",
            "nama_pse": "FAST RETAILING INDONESIA",
            "nama_se": "STYLEHINT APP",
            "sektor": "Sektor Perdagangan",
            "tanggal_terbit": "2023-03-17",
            "url_tdpse_detail": "https://pse.komdigi.go.id/tdpse-detail/14149",
            "website": "-"
        },
        {
            "id": "9cb1ac30-1c45-4ebb-bf78-d04ce830136d",
            "nama_pse": "WARTA KARYA JAYA",
            "nama_se": "WARTA KARYA",
            "sektor": "Sektor Teknologi Informasi dan Komunikasi",
            "tanggal_terbit": "2023-03-17",
            "url_tdpse_detail": "https://pse.komdigi.go.id/tdpse-detail/14153",
            "website": "wartakarya.com"
        },
        {
            "id": "9cb1ac1d-c82f-4240-ad09-61ffc1b443de",
            "nama_pse": "RUMKIT TK. II KARTIKA HUSADA KESDAM XII/TPR MARKAS BESAR TNI AD",
            "nama_se": "SIMRS KH",
            "sektor": "Sektor Kesehatan, Sektor Teknologi Informasi dan Komunikasi",
            "tanggal_terbit": "2023-03-17",
            "url_tdpse_detail": "https://pse.komdigi.go.id/tdpse-detail/14142",
            "website": "rskhpontianak.com"
        },
        {
            "id": "9cb1ac1d-db2b-4829-b6c9-4dcdcb0d1a76",
            "nama_pse": "JAGA ANUGRAH GIAT ASA",
            "nama_se": "ASSIST.ID",
            "sektor": "Sektor Kesehatan, Sektor Teknologi Informasi dan Komunikasi",
            "tanggal_terbit": "2023-03-17",
            "url_tdpse_detail": "https://pse.komdigi.go.id/tdpse-detail/14253",
            "website": "app.assist.id"
        },
        {
            "id": "9cb1ac40-4e58-4bec-acb1-b3d3736e0b06",
            "nama_pse": "PRIME TEKNOLOGI DIGITAL INFORMINDO",
            "nama_se": "PRIMEM2M",
            "sektor": "Sektor Teknologi Informasi dan Komunikasi",
            "tanggal_terbit": "2023-03-17",
            "url_tdpse_detail": "https://pse.komdigi.go.id/tdpse-detail/14146",
            "website": "apps.ptdigital.co.id"
        },
        {
            "id": "9cb1ac40-525a-48e4-9cd8-95d626c91ffc",
            "nama_pse": "TEDY ALFIAN",
            "nama_se": "PRODUK DIGITAL DAN JASA DESIGN",
            "sektor": "Sektor Perdagangan",
            "tanggal_terbit": "2023-03-17",
            "url_tdpse_detail": "https://pse.komdigi.go.id/tdpse-detail/14141",
            "website": "-"
        },
        {
            "id": "9cb1ac40-5591-4ce3-9b20-df0a38687019",
            "nama_pse": "SPRINT ASIA TECHNOLOGY",
            "nama_se": "SANDEZA",
            "sektor": "Sektor Teknologi Informasi dan Komunikasi",
            "tanggal_terbit": "2023-03-17",
            "url_tdpse_detail": "https://pse.komdigi.go.id/tdpse-detail/14144",
            "website": "sandeza.id"
        },
        {
            "id": "9cb1ac40-58d2-402b-a00f-cfca5ddab213",
            "nama_pse": "ASRI MANDIRI BERKEMAJUAN",
            "nama_se": "SIMRSGM",
            "sektor": "Sektor Kesehatan",
            "tanggal_terbit": "2023-03-17",
            "url_tdpse_detail": "https://pse.komdigi.go.id/tdpse-detail/14145",
            "website": "-"
        },
        {
            "id": "9cb1ac40-5bce-43d8-9cc7-ea8220b47b6d",
            "nama_pse": "INDITEK GLOBAL MEDIKA",
            "nama_se": "TELEMEDICINE",
            "sektor": "Sektor Kesehatan, Sektor Teknologi Informasi dan Komunikasi",
            "tanggal_terbit": "2023-03-17",
            "url_tdpse_detail": "https://pse.komdigi.go.id/tdpse-detail/14152",
            "website": "medservicejapan.indihealth.com"
        },
        {
            "id": "9cb1ac30-4809-4f19-9f90-453877742843",
            "nama_pse": "WAK KAMAR MEDIKA HOSPITAL",
            "nama_se": "SIMRS KHANZA RS KAMAR MEDIKA",
            "sektor": "Sektor Kesehatan, Sektor Teknologi Informasi dan Komunikasi",
            "tanggal_terbit": "2023-03-17",
            "url_tdpse_detail": "https://pse.komdigi.go.id/tdpse-detail/14147",
            "website": "ams.rskamarmedika.co.id"
        },
        {
            "id": "9cb1ac40-64fd-472c-b8af-5ac9c7210671",
            "nama_pse": "INFOTAMA SOLUSINDO",
            "nama_se": "SIMPUSTRONIK WEB PROBOLINGGO KOTA",
            "sektor": "Sektor Kesehatan",
            "tanggal_terbit": "2023-03-17",
            "url_tdpse_detail": "https://pse.komdigi.go.id/tdpse-detail/14154",
            "website": "-"
        },
        {
            "id": "9cb1ac40-681b-4c68-93f6-6586c889f6ba",
            "nama_pse": "INFOTAMA SOLUSINDO",
            "nama_se": "RSUD DR. ABDOER RAHEM",
            "sektor": "Sektor Kesehatan",
            "tanggal_terbit": "2023-03-17",
            "url_tdpse_detail": "https://pse.komdigi.go.id/tdpse-detail/14155",
            "website": "-"
        },
        {
            "id": "9cb1ac40-6bc2-40c8-a407-d641602e8fca",
            "nama_pse": "DUTA VISUAL NUSANTARA TIVI TUJUH",
            "nama_se": "SEVEN HUB",
            "sektor": "Sektor Teknologi Informasi dan Komunikasi",
            "tanggal_terbit": "2023-03-17",
            "url_tdpse_detail": "https://pse.komdigi.go.id/tdpse-detail/14156",
            "website": "sevenhub.id"
        },
        {
            "id": "9cb1ac40-6fa8-4ac3-810a-3dc99052dae1",
            "nama_pse": "INFOTAMA SOLUSINDO",
            "nama_se": "RS MITRA SEHAT",
            "sektor": "Sektor Kesehatan",
            "tanggal_terbit": "2023-03-17",
            "url_tdpse_detail": "https://pse.komdigi.go.id/tdpse-detail/14157",
            "website": "-"
        },
        {
            "id": "9cb1ac1d-f64b-4e7c-97c7-5b237e633185",
            "nama_pse": "CITRA CIPTA JAYA",
            "nama_se": "PT CITRA CIPTA JAYA",
            "sektor": "Sektor Perdagangan",
            "tanggal_terbit": "2023-03-17",
            "url_tdpse_detail": "https://pse.komdigi.go.id/tdpse-detail/14160",
            "website": "shanhu.51qbiz.id"
        },
        {
            "id": "9cb1ac1d-f967-432a-abcb-fa8d0e742026",
            "nama_pse": "TINGGAL TEKNOLOGI INDONESIA",
            "nama_se": "TINGGALHOST",
            "sektor": "Sektor Perdagangan, Sektor Teknologi Informasi dan Komunikasi",
            "tanggal_terbit": "2023-03-17",
            "url_tdpse_detail": "https://pse.komdigi.go.id/tdpse-detail/14158",
            "website": "tinggalklik.co"
        },
        {
            "id": "9cb1ac30-5d1d-4664-9208-e1061c41394c",
            "nama_pse": "DALMANUTHA KREASI GROUP",
            "nama_se": "DAKSO VENDOR",
            "sektor": "Sektor Perdagangan",
            "tanggal_terbit": "2023-03-17",
            "url_tdpse_detail": "https://pse.komdigi.go.id/tdpse-detail/14159",
            "website": "pengadaan.dakso.id"
        },
        {
            "id": "9cb1ac1e-012e-40f2-9559-500d0ab10b86",
            "nama_pse": "ELIMSPRO TEKNO MEDIKA",
            "nama_se": "PROLIMS",
            "sektor": "Sektor Kesehatan, Sektor Teknologi Informasi dan Komunikasi",
            "tanggal_terbit": "2023-03-17",
            "url_tdpse_detail": "https://pse.komdigi.go.id/tdpse-detail/14161",
            "website": "-"
        },
        {
            "id": "9cb1ac3f-b924-4516-b204-2a82230deb9e",
            "nama_pse": "JASA MEDIKA TRANSMEDIC",
            "nama_se": "MEDIFIRST2000",
            "sektor": "Sektor Teknologi Informasi dan Komunikasi",
            "tanggal_terbit": "2023-03-16",
            "url_tdpse_detail": "https://pse.komdigi.go.id/tdpse-detail/14121",
            "website": "jasamedikatransmedic.com"
        },
        {
            "id": "9cb1ac1d-7c2f-44a7-94c4-576bfbc48927",
            "nama_pse": "RIZA HISAMUDDIN",
            "nama_se": "ERZAP",
            "sektor": "Sektor Teknologi Informasi dan Komunikasi",
            "tanggal_terbit": "2023-03-16",
            "url_tdpse_detail": "https://pse.komdigi.go.id/tdpse-detail/14128",
            "website": "erzap.com"
        },
        {
            "id": "9cb1ac1d-aaee-4ef5-b07f-f43d05cc67f1",
            "nama_pse": "SHAKTI DEVELOPMENT INDONESIA",
            "nama_se": "SHAKTI DEVELOPMENT INDONESIA",
            "sektor": "Sektor Perdagangan",
            "tanggal_terbit": "2023-03-16",
            "url_tdpse_detail": "https://pse.komdigi.go.id/tdpse-detail/14135",
            "website": "entrepreneurnesia.com"
        },
        {
            "id": "9cb1ac40-34bb-4c36-b7f8-daafa4aa1e4c",
            "nama_pse": "BENDAHARA PENGELUARAN RUMKIT TK III CIREMAI",
            "nama_se": "MOBILE MANAGEMENT",
            "sektor": "Sektor Kesehatan",
            "tanggal_terbit": "2023-03-16",
            "url_tdpse_detail": "https://pse.komdigi.go.id/tdpse-detail/14122",
            "website": "moment.rsciremai.com"
        },
        {
            "id": "9cb1ac30-1fc4-4c3e-9222-15ade3738a36",
            "nama_pse": "BENDAHARA PENGELUARAN RUMKIT TK III CIREMAI",
            "nama_se": "MOBILE NURSE",
            "sektor": "Sektor Kesehatan",
            "tanggal_terbit": "2023-03-16",
            "url_tdpse_detail": "https://pse.komdigi.go.id/tdpse-detail/14123",
            "website": "monurse.rsciremai.com"
        },
        {
            "id": "9cb1ac30-236f-4520-9536-5e9c63e53fd4",
            "nama_pse": "RUMAH SAKIT PANTI NIRMALA",
            "nama_se": "SIMRS (SISTEM INFORMASI MANAJEMEN RUMAH SAKIT)",
            "sektor": "Sektor Kesehatan, Sektor Teknologi Informasi dan Komunikasi",
            "tanggal_terbit": "2023-03-16",
            "url_tdpse_detail": "https://pse.komdigi.go.id/tdpse-detail/14129",
            "website": "-"
        }
    ],
    "processingTimeMs": 3,
    "query": "",
    "totalHits": 19131,
    "hitsPerPage": 50,
    "page": 149,
    "totalPages": 383
}