{
    "hits": [
        {
            "id": "9cb1abf9-c0b1-4df9-810e-9f3b244d4351",
            "nama_pse": "BERMAIN BERSAMA INDONESIA",
            "nama_se": "VOCA GAME",
            "sektor": "Sektor Perdagangan, Sektor Teknologi Informasi dan Komunikasi",
            "tanggal_terbit": "2022-08-02",
            "url_tdpse_detail": "https://pse.komdigi.go.id/tdpse-detail/9720",
            "website": "vocagame.com"
        },
        {
            "id": "9cb1abf9-c3bd-4a70-b9a7-119e7e9ca53c",
            "nama_pse": "SUKSES BERKAH MELIMPAH",
            "nama_se": "SBM2U",
            "sektor": "Sektor Perdagangan",
            "tanggal_terbit": "2022-08-02",
            "url_tdpse_detail": "https://pse.komdigi.go.id/tdpse-detail/9721",
            "website": "sbm2u.com"
        },
        {
            "id": "9cb1abf9-c71d-4437-865e-3578fa83da42",
            "nama_pse": "IDEA IMAJI PERSADA",
            "nama_se": "IDEA IMAJI COMPANY PROFILE WEBSITE",
            "sektor": "Sektor Teknologi Informasi dan Komunikasi",
            "tanggal_terbit": "2022-08-02",
            "url_tdpse_detail": "https://pse.komdigi.go.id/tdpse-detail/9722",
            "website": "ideaimaji.com"
        },
        {
            "id": "9cb1abf9-ca3b-4b1d-b7aa-3b1fcf822b1c",
            "nama_pse": "JAWARA DATA NUSANTARA",
            "nama_se": "DATAUMKM.COM",
            "sektor": "Sektor Teknologi Informasi dan Komunikasi",
            "tanggal_terbit": "2022-08-02",
            "url_tdpse_detail": "https://pse.komdigi.go.id/tdpse-detail/9723",
            "website": "dataumkm.com"
        },
        {
            "id": "9cb1abf8-f4d5-4741-a28b-89c45288f255",
            "nama_pse": "OBSIDO WIENS INVESTAMA",
            "nama_se": "OBSIDO INVESTAMA",
            "sektor": "Sektor Keuangan, Sektor Teknologi Informasi dan Komunikasi",
            "tanggal_terbit": "2022-08-02",
            "url_tdpse_detail": "https://pse.komdigi.go.id/tdpse-detail/9555",
            "website": "obsido.co.id"
        },
        {
            "id": "9cb1abcf-fbde-4aed-99bc-1af23deccb9e",
            "nama_pse": "QERJA MANFAAT BANGSA",
            "nama_se": "KARIR.COM",
            "sektor": "Sektor Teknologi Informasi dan Komunikasi",
            "tanggal_terbit": "2022-08-02",
            "url_tdpse_detail": "https://pse.komdigi.go.id/tdpse-detail/9703",
            "website": "karir.com"
        },
        {
            "id": "9cb1abd0-0101-4311-9114-9f34c2dcdd37",
            "nama_pse": "QERJA MANFAAT BANGSA",
            "nama_se": "JOBS.ID",
            "sektor": "Sektor Teknologi Informasi dan Komunikasi",
            "tanggal_terbit": "2022-08-02",
            "url_tdpse_detail": "https://pse.komdigi.go.id/tdpse-detail/9704",
            "website": "jobs.id"
        },
        {
            "id": "9cb1abf8-56c8-4ef9-9760-9d3a8ed320c8",
            "nama_pse": "INDOSTERLING LOKAMEDIA MAKMUR",
            "nama_se": "LOKAMEDIA",
            "sektor": "Sektor Teknologi Informasi dan Komunikasi",
            "tanggal_terbit": "2022-08-01",
            "url_tdpse_detail": "https://pse.komdigi.go.id/tdpse-detail/9589",
            "website": "lokamedia.com"
        },
        {
            "id": "9cb1abf7-3b56-44fc-ac47-70723afcd2d1",
            "nama_pse": "DIGIMEDIA ANDALAN NUSANTARA",
            "nama_se": "PINGPOINT",
            "sektor": "Sektor Teknologi Informasi dan Komunikasi",
            "tanggal_terbit": "2022-08-01",
            "url_tdpse_detail": "https://pse.komdigi.go.id/tdpse-detail/9590",
            "website": "pingpoint.co.id"
        },
        {
            "id": "9cb1abd1-d7ba-44b2-adb1-6eb14af0d3f0",
            "nama_pse": "TECHNOMEDIA ANDALAN JAYA",
            "nama_se": "STERLING ALPHA",
            "sektor": "Sektor Perdagangan",
            "tanggal_terbit": "2022-08-01",
            "url_tdpse_detail": "https://pse.komdigi.go.id/tdpse-detail/9575",
            "website": "sterlingalpha.com"
        },
        {
            "id": "9cb1abf8-59ba-4fab-a887-a0848fdb6fce",
            "nama_pse": "ASURANSI SINAR MAS",
            "nama_se": "PEGA HCC HCC.SINARMAS.CO.ID",
            "sektor": "Sektor Keuangan",
            "tanggal_terbit": "2022-08-01",
            "url_tdpse_detail": "https://pse.komdigi.go.id/tdpse-detail/9482",
            "website": "sinarmas.co.id"
        },
        {
            "id": "9cb1abf8-5cb6-42a5-9681-34ef61a59063",
            "nama_pse": "ASURANSI SINAR MAS",
            "nama_se": "PEGA HCC CLOUDHCC.SINARMAS.CO.ID",
            "sektor": "Sektor Keuangan",
            "tanggal_terbit": "2022-08-01",
            "url_tdpse_detail": "https://pse.komdigi.go.id/tdpse-detail/9483",
            "website": "sinarmas.co.id"
        },
        {
            "id": "9cb1abf8-5fc7-4fe8-8298-515530cfd681",
            "nama_pse": "ASURANSI SINAR MAS",
            "nama_se": "PEGA HCC MOBILE HCCMOBILE.SINARMAS.CO.ID",
            "sektor": "Sektor Keuangan",
            "tanggal_terbit": "2022-08-01",
            "url_tdpse_detail": "https://pse.komdigi.go.id/tdpse-detail/9484",
            "website": "sinarmas.co.id"
        },
        {
            "id": "9cb1abf7-3e6c-424a-b134-aac3aa97f0ae",
            "nama_pse": "KONTENESIA KREATIF DIGITAL",
            "nama_se": "KONTENESIA",
            "sektor": "Sektor Perdagangan",
            "tanggal_terbit": "2022-08-01",
            "url_tdpse_detail": "https://pse.komdigi.go.id/tdpse-detail/9481",
            "website": "kontenesia.com"
        },
        {
            "id": "9cb1abd1-e644-4707-9b2f-53915d665bcc",
            "nama_pse": "DIGITAL TEKNOLOGI PERKASA",
            "nama_se": "PESANTREN SMART DIGITAL",
            "sektor": "Sektor Keuangan, Sektor Teknologi Informasi dan Komunikasi",
            "tanggal_terbit": "2022-08-01",
            "url_tdpse_detail": "https://pse.komdigi.go.id/tdpse-detail/9486",
            "website": "pesantrensmartdigital.com"
        },
        {
            "id": "9cb1abf7-41ab-434c-bf6c-8b189a5be0fa",
            "nama_pse": "ASURANSI SINAR MAS",
            "nama_se": "WEBSITE HC HC.SINARMAS.CO.ID",
            "sektor": "Sektor Keuangan",
            "tanggal_terbit": "2022-08-01",
            "url_tdpse_detail": "https://pse.komdigi.go.id/tdpse-detail/9487",
            "website": "sinarmas.co.id"
        },
        {
            "id": "9cb1abf8-630a-4671-9b36-b7ac94a8fb70",
            "nama_pse": "PENDIDIKAN CENDEKIA MUSLIM",
            "nama_se": "LAYANAN PENERBITAN POSTER DAN BUKU",
            "sektor": "Sektor Teknologi Informasi dan Komunikasi",
            "tanggal_terbit": "2022-08-01",
            "url_tdpse_detail": "https://pse.komdigi.go.id/tdpse-detail/9488",
            "website": "qrcpn.org"
        },
        {
            "id": "9cb1abf7-44d6-4047-8e15-3ae28b74e109",
            "nama_pse": "PENDIDIKAN CENDEKIA MUSLIM",
            "nama_se": "PENERBITAN BUKU DENGAN QRCBN",
            "sektor": "Sektor Teknologi Informasi dan Komunikasi",
            "tanggal_terbit": "2022-08-01",
            "url_tdpse_detail": "https://pse.komdigi.go.id/tdpse-detail/9490",
            "website": "qrcbn.org"
        },
        {
            "id": "9cb1abf8-674d-4ea7-8177-5658d481d8a6",
            "nama_pse": "OTW COMPUTER GUSAHA",
            "nama_se": "OTW COMPUTER GUSAHA",
            "sektor": "Sektor Teknologi Informasi dan Komunikasi",
            "tanggal_terbit": "2022-08-01",
            "url_tdpse_detail": "https://pse.komdigi.go.id/tdpse-detail/9489",
            "website": "otwcomputer.gusaha.id"
        },
        {
            "id": "9cb1abd1-f0a0-4433-919c-3066ffa7dbb2",
            "nama_pse": "ACHMAD DADANG NUR HIDAYANTO",
            "nama_se": "DADANGNH.COM",
            "sektor": "Sektor Teknologi Informasi dan Komunikasi",
            "tanggal_terbit": "2022-08-01",
            "url_tdpse_detail": "https://pse.komdigi.go.id/tdpse-detail/9492",
            "website": "dadangnh.com"
        },
        {
            "id": "9cb1abf7-4808-4f75-a00e-4661dc7d5b23",
            "nama_pse": "GERBANG TRANSAKSI NUSANTARA",
            "nama_se": "KLUBSTORY",
            "sektor": "Sektor Perdagangan, Sektor Teknologi Informasi dan Komunikasi",
            "tanggal_terbit": "2022-08-01",
            "url_tdpse_detail": "https://pse.komdigi.go.id/tdpse-detail/9493",
            "website": "klubstory.com"
        },
        {
            "id": "9cb1abf8-6d5f-44c9-a072-f0d4ea1264d0",
            "nama_pse": "ACHMAD DADANG NUR HIDAYANTO",
            "nama_se": "JURAGAN WEB HOST",
            "sektor": "Sektor Teknologi Informasi dan Komunikasi",
            "tanggal_terbit": "2022-08-01",
            "url_tdpse_detail": "https://pse.komdigi.go.id/tdpse-detail/9494",
            "website": "juraganwebhost.com"
        },
        {
            "id": "9cb1abd1-f4d8-4d7c-af97-9b1052f0e096",
            "nama_pse": "VICTORIA ALIFE INDONESIA",
            "nama_se": "WEBSITE WWW.VICTORIALIFE.CO.ID",
            "sektor": "Sektor Keuangan",
            "tanggal_terbit": "2022-08-01",
            "url_tdpse_detail": "https://pse.komdigi.go.id/tdpse-detail/9495",
            "website": "victorialife.co.id"
        },
        {
            "id": "9cb1abf7-4b55-4d11-b10f-76a78d222290",
            "nama_pse": "DELTA MEDIA INFORMATIKA",
            "nama_se": "DELTAINDIE.COM",
            "sektor": "Sektor Teknologi Informasi dan Komunikasi",
            "tanggal_terbit": "2022-08-01",
            "url_tdpse_detail": "https://pse.komdigi.go.id/tdpse-detail/9496",
            "website": "deltaindie.com"
        },
        {
            "id": "9cb1abf8-7076-4114-8845-4908d5e6625b",
            "nama_pse": "IBENCORP TEKNOLOGI INDONESIA",
            "nama_se": "JAVAH2H",
            "sektor": "Sektor Teknologi Informasi dan Komunikasi",
            "tanggal_terbit": "2022-08-01",
            "url_tdpse_detail": "https://pse.komdigi.go.id/tdpse-detail/9497",
            "website": "javah2h.com"
        },
        {
            "id": "9cb1abf8-759b-4956-876b-30e5f0c1a62a",
            "nama_pse": "BANK PEREKONOMIAN RAKYAT MITRA CEMAWIS MANDIRI",
            "nama_se": "PT. BPR MITRA CEMAWIS MANDIRI",
            "sektor": "Sektor Keuangan",
            "tanggal_terbit": "2022-08-01",
            "url_tdpse_detail": "https://pse.komdigi.go.id/tdpse-detail/9498",
            "website": "bprmitracemawis.com"
        },
        {
            "id": "9cb1abd1-f8b7-492b-a258-878fa47604ad",
            "nama_pse": "SALIM ANDALAN PARAMITA",
            "nama_se": "TURUBED.COM",
            "sektor": "Sektor Perdagangan",
            "tanggal_terbit": "2022-08-01",
            "url_tdpse_detail": "https://pse.komdigi.go.id/tdpse-detail/9499",
            "website": "turubed.com"
        },
        {
            "id": "9cb1abf7-4e4b-4ea5-a6c1-adaf2970836e",
            "nama_pse": "MATAGI INFORMASI PERTIWI",
            "nama_se": "ALGOBASH.COM",
            "sektor": "Sektor Teknologi Informasi dan Komunikasi",
            "tanggal_terbit": "2022-08-01",
            "url_tdpse_detail": "https://pse.komdigi.go.id/tdpse-detail/9500",
            "website": "algobash.com"
        },
        {
            "id": "9cb1abf7-5137-4d48-ae9d-0f145dfc6e61",
            "nama_pse": "CIPTA MEGASWARA TELEVISI",
            "nama_se": "PT. CIPTA MEGASWARA TELEVISI",
            "sektor": "Sektor Teknologi Informasi dan Komunikasi",
            "tanggal_terbit": "2022-08-01",
            "url_tdpse_detail": "https://pse.komdigi.go.id/tdpse-detail/9501",
            "website": "kompas.tv"
        },
        {
            "id": "9cb1abf7-545d-48b5-ba7e-077372b5bf0e",
            "nama_pse": "SEJAHTERA KARNA MENGGORENG",
            "nama_se": "JLANTAH",
            "sektor": "Sektor Perdagangan",
            "tanggal_terbit": "2022-08-01",
            "url_tdpse_detail": "https://pse.komdigi.go.id/tdpse-detail/9502",
            "website": "j-lantah.com"
        },
        {
            "id": "9cb1abf8-785c-40e8-ac92-bec7baa01251",
            "nama_pse": "KINANTI KREASI INDONESIA",
            "nama_se": "HRD ROOM",
            "sektor": "Sektor Teknologi Informasi dan Komunikasi",
            "tanggal_terbit": "2022-08-01",
            "url_tdpse_detail": "https://pse.komdigi.go.id/tdpse-detail/9503",
            "website": "psikoteshrdroom.com"
        },
        {
            "id": "9cb1abf8-7b26-47b2-ace2-49a422732b7a",
            "nama_pse": "FACHRUZI RAMADHAN",
            "nama_se": "VOOTO",
            "sektor": "Sektor Perdagangan",
            "tanggal_terbit": "2022-08-01",
            "url_tdpse_detail": "https://pse.komdigi.go.id/tdpse-detail/9504",
            "website": "vooto.id"
        },
        {
            "id": "9cb1abf8-7e81-4b5a-8931-341857d709a2",
            "nama_pse": "ESENSI SOLUSI BUANA",
            "nama_se": "ESB LOOP",
            "sektor": "Sektor Perdagangan",
            "tanggal_terbit": "2022-08-01",
            "url_tdpse_detail": "https://pse.komdigi.go.id/tdpse-detail/9506",
            "website": "esbloop.co.id"
        },
        {
            "id": "9cb1abf8-8130-4b5a-9048-0dce99c9bf60",
            "nama_pse": "DIGITAL SERVER ASIA",
            "nama_se": "HOSTDATA.ID",
            "sektor": "Sektor Teknologi Informasi dan Komunikasi",
            "tanggal_terbit": "2022-08-01",
            "url_tdpse_detail": "https://pse.komdigi.go.id/tdpse-detail/9505",
            "website": "hostdata.id"
        },
        {
            "id": "9cb1abf8-848a-4545-823c-3836bce311a4",
            "nama_pse": "PARAHITA LARUS JAYA",
            "nama_se": "PARAHITA TOUR",
            "sektor": "Sektor Transportasi",
            "tanggal_terbit": "2022-08-01",
            "url_tdpse_detail": "https://pse.komdigi.go.id/tdpse-detail/9507",
            "website": "parahitatour.com"
        },
        {
            "id": "9cb1abf8-8a87-49b8-bd75-ae8f95576c23",
            "nama_pse": "KOMPAK INDOPOLA",
            "nama_se": "FACEBOOK KOMPAK INDOPOLA",
            "sektor": "Sektor Perdagangan",
            "tanggal_terbit": "2022-08-01",
            "url_tdpse_detail": "https://pse.komdigi.go.id/tdpse-detail/9508",
            "website": "kompak.co.id"
        },
        {
            "id": "9cb1abd1-ffea-4f4d-af59-4e9501995142",
            "nama_pse": "KOMPAK INDOPOLA",
            "nama_se": "INSTAGRAM KOMPAK_INFO",
            "sektor": "Sektor Perdagangan",
            "tanggal_terbit": "2022-08-01",
            "url_tdpse_detail": "https://pse.komdigi.go.id/tdpse-detail/9510",
            "website": "kompak.co.id"
        },
        {
            "id": "9cb1abf8-8df3-4363-8a97-2394477377a9",
            "nama_pse": "KOMPAK INDOPOLA",
            "nama_se": "INSTAGRAM CHLOSTANIN INDONESIA",
            "sektor": "Sektor Perdagangan",
            "tanggal_terbit": "2022-08-01",
            "url_tdpse_detail": "https://pse.komdigi.go.id/tdpse-detail/9512",
            "website": "kompak.co.id"
        },
        {
            "id": "9cb1abf7-579c-4ac4-b28d-ba1c4c99da9e",
            "nama_pse": "RELIANCE CAPITAL MANAGEMENT",
            "nama_se": "WEBSITE CORPORATE",
            "sektor": "Sektor Keuangan",
            "tanggal_terbit": "2022-08-01",
            "url_tdpse_detail": "https://pse.komdigi.go.id/tdpse-detail/9511",
            "website": "relianceindonesia.com"
        },
        {
            "id": "9cb1abd2-0c6c-4d26-9955-ed946aae2a34",
            "nama_pse": "INOVASI TEKNOLOGI KREATIF",
            "nama_se": "GD BUSINESS",
            "sektor": "Sektor Keuangan, Sektor Teknologi Informasi dan Komunikasi",
            "tanggal_terbit": "2022-08-01",
            "url_tdpse_detail": "https://pse.komdigi.go.id/tdpse-detail/9513",
            "website": "gdbusiness.id"
        },
        {
            "id": "9cb1abd2-1223-4ed9-b49c-062b2e048ba2",
            "nama_pse": "RELIANCE CAPITAL MANAGEMENT",
            "nama_se": "WEBSITE ECOSYSTEM",
            "sektor": "Sektor Keuangan",
            "tanggal_terbit": "2022-08-01",
            "url_tdpse_detail": "https://pse.komdigi.go.id/tdpse-detail/9514",
            "website": "relianceku.com"
        },
        {
            "id": "9cb1abf8-911d-4660-a49a-a848bbcec8f1",
            "nama_pse": "MUHAMMAD AJI PANGESTU",
            "nama_se": "EMINAT",
            "sektor": "Sektor Teknologi Informasi dan Komunikasi",
            "tanggal_terbit": "2022-08-01",
            "url_tdpse_detail": "https://pse.komdigi.go.id/tdpse-detail/9515",
            "website": "eminat.store"
        },
        {
            "id": "9cb1abd2-1777-4e21-a4ed-2dc155fdd55b",
            "nama_pse": "KOMPAK INDOPOLA",
            "nama_se": "YOUTUBE KOMPAK INDOPOLA",
            "sektor": "Sektor Perdagangan",
            "tanggal_terbit": "2022-08-01",
            "url_tdpse_detail": "https://pse.komdigi.go.id/tdpse-detail/9516",
            "website": "kompak.co.id"
        },
        {
            "id": "9cb1abd2-1b5e-42d8-b973-7d3782545525",
            "nama_pse": "AZZAM DIGITAL MEDIA",
            "nama_se": "CORONG NUSANTARA",
            "sektor": "Sektor Teknologi Informasi dan Komunikasi",
            "tanggal_terbit": "2022-08-01",
            "url_tdpse_detail": "https://pse.komdigi.go.id/tdpse-detail/9519",
            "website": "corongnusantara.com"
        },
        {
            "id": "9cb1abf7-5f48-4d8a-bb0c-2ac0973e3fb4",
            "nama_pse": "SARANA USAHA SEJAHTERA INSANPALAPA",
            "nama_se": "MYTELKOMEDIKA",
            "sektor": "Sektor Kesehatan",
            "tanggal_terbit": "2022-08-01",
            "url_tdpse_detail": "https://pse.komdigi.go.id/tdpse-detail/9520",
            "website": "-"
        },
        {
            "id": "9cb1abf7-625e-4a51-9069-1f7aa43c4ae5",
            "nama_pse": "FEDEX EXPRESS INTERNATIONAL",
            "nama_se": "FEDEX",
            "sektor": "Sektor Transportasi, Sektor Teknologi Informasi dan Komunikasi",
            "tanggal_terbit": "2022-08-01",
            "url_tdpse_detail": "https://pse.komdigi.go.id/tdpse-detail/9521",
            "website": "fedex.com"
        },
        {
            "id": "9cb1abd2-1ef9-43a3-ae1a-4808f4569de3",
            "nama_pse": "KOMPAK INDOPOLA",
            "nama_se": "TWITTER KOMPAK INDOPOLA",
            "sektor": "Sektor Perdagangan",
            "tanggal_terbit": "2022-08-01",
            "url_tdpse_detail": "https://pse.komdigi.go.id/tdpse-detail/9522",
            "website": "kompak.co.id"
        },
        {
            "id": "9cb1abf8-93f4-46de-933f-913acce625f0",
            "nama_pse": "SARANA USAHA SEJAHTERA INSANPALAPA",
            "nama_se": "WEBSITE TELKOMEDIKA",
            "sektor": "Sektor Kesehatan",
            "tanggal_terbit": "2022-08-01",
            "url_tdpse_detail": "https://pse.komdigi.go.id/tdpse-detail/9523",
            "website": "telkomedika.co.id"
        },
        {
            "id": "9cb1abd2-2245-4d2a-b33b-9e11f9db981b",
            "nama_pse": "KOMPAK INDOPOLA",
            "nama_se": "LINKEDIN KOMPAK INDOPOLA",
            "sektor": "Sektor Perdagangan",
            "tanggal_terbit": "2022-08-01",
            "url_tdpse_detail": "https://pse.komdigi.go.id/tdpse-detail/9525",
            "website": "kompak.co.id"
        },
        {
            "id": "9cb1abf7-655d-4a0e-beed-3ed05875793b",
            "nama_pse": "PEMUDA INOVASI TEKNOLOGI",
            "nama_se": "CHATBIZ",
            "sektor": "Sektor Teknologi Informasi dan Komunikasi",
            "tanggal_terbit": "2022-08-01",
            "url_tdpse_detail": "https://pse.komdigi.go.id/tdpse-detail/9524",
            "website": "chatbiz.id"
        }
    ],
    "processingTimeMs": 3,
    "query": "",
    "totalHits": 19121,
    "hitsPerPage": 50,
    "page": 212,
    "totalPages": 383
}