{
    "hits": [
        {
            "id": "9cb1abbd-aebd-497d-898a-e1501bac9cdb",
            "nama_pse": "GRATAMA FINANCE INDONESIA",
            "nama_se": "GRATAMAFINANCE",
            "sektor": "Sektor Keuangan",
            "tanggal_terbit": "2022-07-25",
            "url_tdpse_detail": "https://pse.komdigi.go.id/tdpse-detail/9001",
            "website": "gratama-finance.co.id"
        },
        {
            "id": "9cb1abcd-e097-47a1-a629-41f5c62dd458",
            "nama_pse": "PATRA JASA",
            "nama_se": "WEBSITE HOTEL SEMARANG",
            "sektor": "Sektor Perdagangan",
            "tanggal_terbit": "2022-07-25",
            "url_tdpse_detail": "https://pse.komdigi.go.id/tdpse-detail/9008",
            "website": "patrasemaranghotel.com"
        },
        {
            "id": "9cb1abcd-e53b-41de-ad36-bd0f4aa7d6ed",
            "nama_pse": "ANALISA DATA SOLUSINDO",
            "nama_se": "IDEANATION",
            "sektor": "Sektor Teknologi Informasi dan Komunikasi",
            "tanggal_terbit": "2022-07-25",
            "url_tdpse_detail": "https://pse.komdigi.go.id/tdpse-detail/9002",
            "website": "ideanation.org"
        },
        {
            "id": "9cb1abcd-ea18-4366-bfb5-3e16db2b7949",
            "nama_pse": "PANDU TAMA",
            "nama_se": "CV PANDU TAMA",
            "sektor": "Sektor Perdagangan",
            "tanggal_terbit": "2022-07-25",
            "url_tdpse_detail": "https://pse.komdigi.go.id/tdpse-detail/9003",
            "website": "-"
        },
        {
            "id": "9cb1abbd-b1eb-4073-aeca-ad932820be5f",
            "nama_pse": "SUSANTO BERSAUDARA INTERMEDIA PERS",
            "nama_se": "KABAR JOMBANG",
            "sektor": "Sektor Teknologi Informasi dan Komunikasi",
            "tanggal_terbit": "2022-07-25",
            "url_tdpse_detail": "https://pse.komdigi.go.id/tdpse-detail/9004",
            "website": "kabarjombang.com"
        },
        {
            "id": "9cb1abbd-b4bd-4e8a-81c4-42b09207cec5",
            "nama_pse": "BANK PEMBANGUNAN DAERAH BANTEN PERSERODA",
            "nama_se": "MOBILE BANKING",
            "sektor": "Sektor Keuangan",
            "tanggal_terbit": "2022-07-25",
            "url_tdpse_detail": "https://pse.komdigi.go.id/tdpse-detail/9005",
            "website": "bankbanten.co.id"
        },
        {
            "id": "9cb1abcd-ee09-4df7-b0ff-6be08b95de1d",
            "nama_pse": "CAKRAWALA PUTRA NUSANTARA",
            "nama_se": "XLOCATE",
            "sektor": "Sektor Teknologi Informasi dan Komunikasi",
            "tanggal_terbit": "2022-07-25",
            "url_tdpse_detail": "https://pse.komdigi.go.id/tdpse-detail/9010",
            "website": "xlocate.com"
        },
        {
            "id": "9cb1abcd-f162-41d2-83af-04ccb19607d2",
            "nama_pse": "HONDA PROSPECT MOTOR",
            "nama_se": "ONLINE RECRUITMENT PT HONDA PROSPECT MOTOR",
            "sektor": "Sektor Teknologi Informasi dan Komunikasi",
            "tanggal_terbit": "2022-07-25",
            "url_tdpse_detail": "https://pse.komdigi.go.id/tdpse-detail/9006",
            "website": "hpm.co.id"
        },
        {
            "id": "9cb1abbd-ba9c-4250-8727-e4844acd5ca4",
            "nama_pse": "TATUT SUHARSO",
            "nama_se": "DATASOLUSICIPTAPIRANTI",
            "sektor": "Sektor Keuangan",
            "tanggal_terbit": "2022-07-25",
            "url_tdpse_detail": "https://pse.komdigi.go.id/tdpse-detail/9007",
            "website": "bprdanantakudus.co.id"
        },
        {
            "id": "9cb1abf3-df62-4d9d-918a-2d4b8ec42f3e",
            "nama_pse": "HONDA PROSPECT MOTOR",
            "nama_se": "ONLINE SELECTION PT HONDA PROSPECT MOTOR",
            "sektor": "Sektor Teknologi Informasi dan Komunikasi",
            "tanggal_terbit": "2022-07-25",
            "url_tdpse_detail": "https://pse.komdigi.go.id/tdpse-detail/9016",
            "website": "online-selection.hpm.co.id"
        },
        {
            "id": "9cb1abbd-bf44-4fb7-8969-eb95e261af9b",
            "nama_pse": "CAKRAWALA PUTRA NUSANTARA",
            "nama_se": "SADIX",
            "sektor": "Sektor Teknologi Informasi dan Komunikasi",
            "tanggal_terbit": "2022-07-25",
            "url_tdpse_detail": "https://pse.komdigi.go.id/tdpse-detail/9009",
            "website": "sadix.com"
        },
        {
            "id": "9cb1abcd-f49e-437f-9e55-1465e5536381",
            "nama_pse": "LOKAL MENUJU GLOBAL",
            "nama_se": "MERCHANT",
            "sektor": "Sektor Teknologi Informasi dan Komunikasi",
            "tanggal_terbit": "2022-07-25",
            "url_tdpse_detail": "https://pse.komdigi.go.id/tdpse-detail/9014",
            "website": "app.merchant.id"
        },
        {
            "id": "9cb1abf3-e3c7-4adf-b4f1-9fbade38e46f",
            "nama_pse": "SOLID GOLD BERJANGKA",
            "nama_se": "TRADEPROFX",
            "sektor": "Sektor Perdagangan, Sektor Keuangan",
            "tanggal_terbit": "2022-07-25",
            "url_tdpse_detail": "https://pse.komdigi.go.id/tdpse-detail/9013",
            "website": "-"
        },
        {
            "id": "9cb1abf3-e7bd-4c54-b89c-9da2cd3334d4",
            "nama_pse": "SAHABAT MEDIKA TEKNOLOGI",
            "nama_se": "APP BISA",
            "sektor": "Sektor Perdagangan, Sektor Kesehatan",
            "tanggal_terbit": "2022-07-25",
            "url_tdpse_detail": "https://pse.komdigi.go.id/tdpse-detail/9011",
            "website": "-"
        },
        {
            "id": "9cb1abcd-f789-4f5b-b29d-1d8bb79446de",
            "nama_pse": "BANK PEREKONOMIAN RAKYAT DANA MITRA INDONESIA",
            "nama_se": "BPRDANAMITRA.COM",
            "sektor": "Sektor Keuangan",
            "tanggal_terbit": "2022-07-25",
            "url_tdpse_detail": "https://pse.komdigi.go.id/tdpse-detail/9012",
            "website": "bprdanamitra.com"
        },
        {
            "id": "9cb1abcd-fae5-48b4-9b9a-75d077407aaa",
            "nama_pse": "MARKPLUS INDONESIA",
            "nama_se": "WWW.MARKPLUSINC.COM",
            "sektor": "Sektor Teknologi Informasi dan Komunikasi",
            "tanggal_terbit": "2022-07-25",
            "url_tdpse_detail": "https://pse.komdigi.go.id/tdpse-detail/9020",
            "website": "markplusinc.com"
        },
        {
            "id": "9cb1abf3-ef70-42e4-990f-5c90346dc9a3",
            "nama_pse": "NINE LIVES INDONESIA",
            "nama_se": "9LIVES",
            "sektor": "Sektor Teknologi Informasi dan Komunikasi",
            "tanggal_terbit": "2022-07-25",
            "url_tdpse_detail": "https://pse.komdigi.go.id/tdpse-detail/9017",
            "website": "9lives.co.id"
        },
        {
            "id": "9cb1abf3-f391-4078-8027-603b378f92ab",
            "nama_pse": "SUCOR SEKURITAS",
            "nama_se": "SPOT BY SUCOR SEKURITAS",
            "sektor": "Sektor Keuangan",
            "tanggal_terbit": "2022-07-25",
            "url_tdpse_detail": "https://pse.komdigi.go.id/tdpse-detail/9018",
            "website": "sucorsekuritas.com"
        },
        {
            "id": "9cb1abbd-c23d-466e-b5da-cc2f412a0fa4",
            "nama_pse": "CARE TECHNOLOGIES",
            "nama_se": "CARE TECHNOLOGIES",
            "sektor": "Sektor Teknologi Informasi dan Komunikasi",
            "tanggal_terbit": "2022-07-25",
            "url_tdpse_detail": "https://pse.komdigi.go.id/tdpse-detail/9019",
            "website": "care.co.id"
        },
        {
            "id": "9cb1abf3-fe0c-4d55-80d4-bf43b2486c55",
            "nama_pse": "DINAR FARHANI",
            "nama_se": "CHAVEZ PEDIA INDONESIA",
            "sektor": "Sektor Perdagangan",
            "tanggal_terbit": "2022-07-25",
            "url_tdpse_detail": "https://pse.komdigi.go.id/tdpse-detail/9021",
            "website": "chavezpedia.id"
        },
        {
            "id": "9cb1abcd-fe79-4824-b397-631b704e7415",
            "nama_pse": "BANK PERKREDITAN RAKYAT RANGKIANG AUR DENAI",
            "nama_se": "PT BPR RANGKIANG AUR DENAI",
            "sektor": "Sektor Keuangan",
            "tanggal_terbit": "2022-07-25",
            "url_tdpse_detail": "https://pse.komdigi.go.id/tdpse-detail/9022",
            "website": "-"
        },
        {
            "id": "9cb1abbd-c53a-4ff8-84e7-2294d262bd4f",
            "nama_pse": "NUSANTARA TERPADU UTAMA",
            "nama_se": "E-KTA PP",
            "sektor": "Sektor Teknologi Informasi dan Komunikasi",
            "tanggal_terbit": "2022-07-25",
            "url_tdpse_detail": "https://pse.komdigi.go.id/tdpse-detail/9023",
            "website": "pemuda-pancasila.or.id"
        },
        {
            "id": "9cb1abce-060a-4a09-b2e6-3a5c01fbe482",
            "nama_pse": "FAJA TIGA TIGA",
            "nama_se": "TOKO33",
            "sektor": "Sektor Perdagangan",
            "tanggal_terbit": "2022-07-25",
            "url_tdpse_detail": "https://pse.komdigi.go.id/tdpse-detail/9024",
            "website": "toko33.tokowebku.com"
        },
        {
            "id": "9cb1abce-0d32-4dbd-810f-10652814c73c",
            "nama_pse": "SAM ELEMEN INDONESIA",
            "nama_se": "SAM IOT",
            "sektor": "Sektor Kesehatan, Sektor Teknologi Informasi dan Komunikasi",
            "tanggal_terbit": "2022-07-25",
            "url_tdpse_detail": "https://pse.komdigi.go.id/tdpse-detail/9025",
            "website": "samelement.com"
        },
        {
            "id": "9cb1abbd-c7b3-444e-817c-836459572bf6",
            "nama_pse": "RENTTOPLAY TECHNOLOGY INDONESIA",
            "nama_se": "UGGAME",
            "sektor": "Sektor Perdagangan",
            "tanggal_terbit": "2022-07-25",
            "url_tdpse_detail": "https://pse.komdigi.go.id/tdpse-detail/9026",
            "website": "en.uggame.com"
        },
        {
            "id": "9cb1abf4-0bcf-4996-bc8e-2b61b2a835de",
            "nama_pse": "HKR LEGAL SOLUTION",
            "nama_se": "LEGALSOLUTION.ID",
            "sektor": "Sektor Perdagangan, Sektor Teknologi Informasi dan Komunikasi",
            "tanggal_terbit": "2022-07-25",
            "url_tdpse_detail": "https://pse.komdigi.go.id/tdpse-detail/9027",
            "website": "legalsolution.id"
        },
        {
            "id": "9cb1abf4-0f01-4205-a1c4-22f4d15c7a38",
            "nama_pse": "TIBER RELOAD SATUI",
            "nama_se": "TIBER RELOAD",
            "sektor": "Sektor Perdagangan",
            "tanggal_terbit": "2022-07-25",
            "url_tdpse_detail": "https://pse.komdigi.go.id/tdpse-detail/9028",
            "website": "-"
        },
        {
            "id": "9cb1abbd-ca7f-471b-8115-25a7a6a2f721",
            "nama_pse": "DIGTIVE GLOBAL MEDIA",
            "nama_se": "WEBSITE PT DIGTIVE GLOBAL MEDIA",
            "sektor": "Sektor Teknologi Informasi dan Komunikasi",
            "tanggal_terbit": "2022-07-25",
            "url_tdpse_detail": "https://pse.komdigi.go.id/tdpse-detail/9029",
            "website": "digtive.co.id"
        },
        {
            "id": "9cb1abbd-a529-4b34-b0d0-7d8cb553f02d",
            "nama_pse": "GOOGLE INDONESIA",
            "nama_se": "GOOGLE ADS (INDONESIA)",
            "sektor": "Sektor Teknologi Informasi dan Komunikasi",
            "tanggal_terbit": "2022-07-25",
            "url_tdpse_detail": "https://pse.komdigi.go.id/tdpse-detail/8994",
            "website": "google.com"
        },
        {
            "id": "9cb1abbd-5e7c-4239-a709-1d3621a751e5",
            "nama_pse": "JUS BIANTORO",
            "nama_se": "ZQILA",
            "sektor": "Sektor Perdagangan",
            "tanggal_terbit": "2022-07-24",
            "url_tdpse_detail": "https://pse.komdigi.go.id/tdpse-detail/8929",
            "website": "zqila.com"
        },
        {
            "id": "9cb1abf3-590d-403a-ba4a-9bd139bd6520",
            "nama_pse": "AKSATA WISATA TRAVEL",
            "nama_se": "AKSATA WISATA",
            "sektor": "Sektor Perdagangan, Sektor Transportasi",
            "tanggal_terbit": "2022-07-24",
            "url_tdpse_detail": "https://pse.komdigi.go.id/tdpse-detail/8930",
            "website": "aksatawisata.com"
        },
        {
            "id": "9cb1abcd-6c33-4c2b-bbee-9b65ae30df26",
            "nama_pse": "ADE AJIE PAMUNGKAS",
            "nama_se": "MITRAKIOS",
            "sektor": "Sektor Perdagangan, Sektor Teknologi Informasi dan Komunikasi",
            "tanggal_terbit": "2022-07-24",
            "url_tdpse_detail": "https://pse.komdigi.go.id/tdpse-detail/8931",
            "website": "-"
        },
        {
            "id": "9cb1abbd-1dfd-44d8-856e-fe32f0bfaa6d",
            "nama_pse": "APLIKASIA",
            "nama_se": "PICKLINIK",
            "sektor": "Sektor Kesehatan, Sektor Teknologi Informasi dan Komunikasi",
            "tanggal_terbit": "2022-07-23",
            "url_tdpse_detail": "https://pse.komdigi.go.id/tdpse-detail/8897",
            "website": "picklinik.id"
        },
        {
            "id": "9cb1abf3-2902-4267-9707-f3b369fc6255",
            "nama_pse": "KARYA PUTRA NATUNA",
            "nama_se": "NATUNAMART",
            "sektor": "Sektor Transportasi",
            "tanggal_terbit": "2022-07-23",
            "url_tdpse_detail": "https://pse.komdigi.go.id/tdpse-detail/8898",
            "website": "natunamart.com"
        },
        {
            "id": "9cb1abbd-20c6-477d-8f7b-23b7a90f147b",
            "nama_pse": "FABIAN RACHMAN",
            "nama_se": "KLINIK PULSA",
            "sektor": "Sektor Perdagangan, Sektor Teknologi Informasi dan Komunikasi",
            "tanggal_terbit": "2022-07-23",
            "url_tdpse_detail": "https://pse.komdigi.go.id/tdpse-detail/8899",
            "website": "klinikpulsa.com"
        },
        {
            "id": "9cb1abf3-2e4c-4eb2-adc8-994d8596f7ef",
            "nama_pse": "INDAH KARGO MANDIRI",
            "nama_se": "INDAHTRUCKING",
            "sektor": "Sektor Teknologi Informasi dan Komunikasi",
            "tanggal_terbit": "2022-07-23",
            "url_tdpse_detail": "https://pse.komdigi.go.id/tdpse-detail/8900",
            "website": "indahtrucking.co.id"
        },
        {
            "id": "9cb1abbd-2620-4e04-98b8-0a316fb9faa9",
            "nama_pse": "BANK PERKREDITAN RAKYAT MARKONI SARANAJAYA",
            "nama_se": "WEBSITE BPR MARKONI SARANAJAYA",
            "sektor": "Sektor Keuangan",
            "tanggal_terbit": "2022-07-23",
            "url_tdpse_detail": "https://pse.komdigi.go.id/tdpse-detail/8901",
            "website": "bprmarkoni.com"
        },
        {
            "id": "9cb1abf3-328c-47f9-980d-fa4aa14d7228",
            "nama_pse": "BANK PERKREDITAN RAKYAT MARKONI SARANAJAYA",
            "nama_se": "KLIKMSJ.COM",
            "sektor": "Sektor Keuangan",
            "tanggal_terbit": "2022-07-23",
            "url_tdpse_detail": "https://pse.komdigi.go.id/tdpse-detail/8903",
            "website": "klikmsj.com"
        },
        {
            "id": "9cb1abf3-3811-456c-973c-0bbb8176f8e0",
            "nama_pse": "INDAH KARGO MANDIRI",
            "nama_se": "MARKETINGINDAHTRUCKING",
            "sektor": "Sektor Teknologi Informasi dan Komunikasi",
            "tanggal_terbit": "2022-07-23",
            "url_tdpse_detail": "https://pse.komdigi.go.id/tdpse-detail/8902",
            "website": "marketingindahtrucking.com"
        },
        {
            "id": "9cb1abcd-32ea-4394-ba54-e5ee6aeba79c",
            "nama_pse": "INDAH KARGO MANDIRI",
            "nama_se": "INDAHEXPRES.CO.ID",
            "sektor": "Sektor Teknologi Informasi dan Komunikasi",
            "tanggal_terbit": "2022-07-23",
            "url_tdpse_detail": "https://pse.komdigi.go.id/tdpse-detail/8905",
            "website": "indahexpres.co.id"
        },
        {
            "id": "9cb1abf3-3ca8-46cd-afae-d30344c6984d",
            "nama_pse": "ANNORA MULTI INTECH",
            "nama_se": "ANNORA POINT OF SALES",
            "sektor": "Sektor Perdagangan, Sektor Teknologi Informasi dan Komunikasi",
            "tanggal_terbit": "2022-07-23",
            "url_tdpse_detail": "https://pse.komdigi.go.id/tdpse-detail/8904",
            "website": "-"
        },
        {
            "id": "9cb1abbd-2869-4633-abfa-f40f570fdc20",
            "nama_pse": "BPR. ADIARTHA REKSACITRA",
            "nama_se": "BPR ADIARTHA REKSACITRA",
            "sektor": "Sektor Keuangan",
            "tanggal_terbit": "2022-07-23",
            "url_tdpse_detail": "https://pse.komdigi.go.id/tdpse-detail/8906",
            "website": "bpradiartha.com"
        },
        {
            "id": "9cb1abcd-371a-4bf8-9ffd-ca0dd2e0bb63",
            "nama_pse": "TENAGA KANGGO INDONESIA",
            "nama_se": "KANGGO",
            "sektor": "Sektor Teknologi Informasi dan Komunikasi",
            "tanggal_terbit": "2022-07-23",
            "url_tdpse_detail": "https://pse.komdigi.go.id/tdpse-detail/8907",
            "website": "kanggo.id"
        },
        {
            "id": "9cb1abbd-2ceb-405f-9451-1c725204164d",
            "nama_pse": "ANNORA MULTI INTECH",
            "nama_se": "KUANTAR",
            "sektor": "Sektor Perdagangan, Sektor Transportasi, Sektor Teknologi Informasi dan Komunikasi",
            "tanggal_terbit": "2022-07-23",
            "url_tdpse_detail": "https://pse.komdigi.go.id/tdpse-detail/8908",
            "website": "-"
        },
        {
            "id": "9cb1abcd-456a-41c9-978c-57c90f12dd0f",
            "nama_pse": "DODI KUSMAYADI",
            "nama_se": "SMARTMEDIATAMA",
            "sektor": "Sektor Perdagangan, Sektor Teknologi Informasi dan Komunikasi",
            "tanggal_terbit": "2022-07-23",
            "url_tdpse_detail": "https://pse.komdigi.go.id/tdpse-detail/8909",
            "website": "smartmediatama.com"
        },
        {
            "id": "9cb1abf3-4085-46e9-89af-3bd7d8ad568b",
            "nama_pse": "VERINDO KLARAS UTAMA",
            "nama_se": "VERINDO KLARAS UTAMA",
            "sektor": "Sektor Perdagangan",
            "tanggal_terbit": "2022-07-23",
            "url_tdpse_detail": "https://pse.komdigi.go.id/tdpse-detail/8910",
            "website": "verindoklaras.com"
        },
        {
            "id": "9cb1abbd-2f83-4615-895e-6a1091981eca",
            "nama_pse": "APLIKANUSA LINTASARTA",
            "nama_se": "IPROCURA",
            "sektor": "Sektor Perdagangan",
            "tanggal_terbit": "2022-07-23",
            "url_tdpse_detail": "https://pse.komdigi.go.id/tdpse-detail/8912",
            "website": "eproc.lintasarta.net"
        },
        {
            "id": "9cb1abbd-3210-4def-b2df-303d8437ece6",
            "nama_pse": "DODI KUSMAYADI",
            "nama_se": "SMARTKONSULTAMA",
            "sektor": "Sektor Perdagangan",
            "tanggal_terbit": "2022-07-23",
            "url_tdpse_detail": "https://pse.komdigi.go.id/tdpse-detail/8911",
            "website": "smartkonsultama.com"
        },
        {
            "id": "9cb1abcd-4c9d-4f8a-9f60-622c60781887",
            "nama_pse": "BANK PEREKONOMIAN RAKYAT NUSAMBA KUBUTAMBAHAN",
            "nama_se": "PT BPR NUSAMBA KUBUTAMBAHAN",
            "sektor": "Sektor Keuangan",
            "tanggal_terbit": "2022-07-23",
            "url_tdpse_detail": "https://pse.komdigi.go.id/tdpse-detail/8913",
            "website": "bprnusamba-kubutambahan.co.id"
        },
        {
            "id": "9cb1abbd-3460-41be-8488-3dc918c95e14",
            "nama_pse": "DODI KUSMAYADI",
            "nama_se": "SMM.SMARTKIOS.COM",
            "sektor": "Sektor Perdagangan",
            "tanggal_terbit": "2022-07-23",
            "url_tdpse_detail": "https://pse.komdigi.go.id/tdpse-detail/8914",
            "website": "smartkios.com"
        }
    ],
    "processingTimeMs": 8,
    "query": "",
    "totalHits": 19131,
    "hitsPerPage": 50,
    "page": 222,
    "totalPages": 383
}