{
    "hits": [
        {
            "id": "9cb1ac80-03dc-4960-b773-59683098bdb4",
            "nama_pse": "MEDIA SANGIA SULTRA",
            "nama_se": "SANGIASULTRA.ID",
            "sektor": "Sektor Teknologi Informasi dan Komunikasi",
            "tanggal_terbit": "2024-02-29",
            "url_tdpse_detail": "https://pse.komdigi.go.id/tdpse-detail/18090",
            "website": "sangiasultra.id"
        },
        {
            "id": "9cb1ac56-d817-4e74-9401-ea6847347a2b",
            "nama_pse": "SANUR MAHARDHIKA MEDIKA",
            "nama_se": "SANUR MEDICAL SYSTEM",
            "sektor": "Sektor Kesehatan",
            "tanggal_terbit": "2024-02-29",
            "url_tdpse_detail": "https://pse.komdigi.go.id/tdpse-detail/18091",
            "website": "-"
        },
        {
            "id": "9cb1ac7f-fc2e-455a-ba2a-fa899510ec67",
            "nama_pse": "ABHINAYA USAHA MANDIRI",
            "nama_se": "AB MEDIKA",
            "sektor": "Sektor Perdagangan",
            "tanggal_terbit": "2024-02-29",
            "url_tdpse_detail": "https://pse.komdigi.go.id/tdpse-detail/18088",
            "website": "abhinayausahamandiri.com"
        },
        {
            "id": "9cb1ac80-001e-48d9-9e6f-5ad224a8964a",
            "nama_pse": "MULBARDI INDY INDO",
            "nama_se": "HUMALIS",
            "sektor": "Sektor Kesehatan",
            "tanggal_terbit": "2024-02-29",
            "url_tdpse_detail": "https://pse.komdigi.go.id/tdpse-detail/18092",
            "website": "mulbardi.com"
        },
        {
            "id": "9cb1ac80-1c60-4632-a45d-d06d48db22f0",
            "nama_pse": "SIAP INTEGRASI",
            "nama_se": "SIAPSOFT",
            "sektor": "Sektor Teknologi Informasi dan Komunikasi",
            "tanggal_terbit": "2024-02-29",
            "url_tdpse_detail": "https://pse.komdigi.go.id/tdpse-detail/18105",
            "website": "-"
        },
        {
            "id": "9cb1ac80-0730-4106-acca-e6fcf9c90d55",
            "nama_pse": "NAURA PAYMENT INVESTAMA",
            "nama_se": "NAURA PAYMENT",
            "sektor": "Sektor Perdagangan",
            "tanggal_terbit": "2024-02-29",
            "url_tdpse_detail": "https://pse.komdigi.go.id/tdpse-detail/18094",
            "website": "-"
        },
        {
            "id": "9cb1ac6b-c4a2-4ebb-a7c5-b63ab11ec87c",
            "nama_pse": "NAURA PAYMENT INVESTAMA",
            "nama_se": "PUTRI JAYA",
            "sektor": "Sektor Perdagangan",
            "tanggal_terbit": "2024-02-29",
            "url_tdpse_detail": "https://pse.komdigi.go.id/tdpse-detail/18095",
            "website": "-"
        },
        {
            "id": "9cb1ac6b-c7b2-4d46-9304-58654b908dc0",
            "nama_pse": "NAURA PAYMENT INVESTAMA",
            "nama_se": "SUKA PAY",
            "sektor": "Sektor Perdagangan",
            "tanggal_terbit": "2024-02-29",
            "url_tdpse_detail": "https://pse.komdigi.go.id/tdpse-detail/18096",
            "website": "-"
        },
        {
            "id": "9cb1ac6b-caaf-47a6-af8e-ea1f6b8ba789",
            "nama_pse": "SIMPANG TIGA CEGER",
            "nama_se": "ABI HUSEN",
            "sektor": "Sektor Perdagangan, Sektor Teknologi Informasi dan Komunikasi",
            "tanggal_terbit": "2024-02-29",
            "url_tdpse_detail": "https://pse.komdigi.go.id/tdpse-detail/18097",
            "website": "-"
        },
        {
            "id": "9cb1ac56-dde5-452c-85e7-08e67085ccb5",
            "nama_pse": "FAST MEDIKA CENTER",
            "nama_se": "SYSFAST",
            "sektor": "Sektor Kesehatan",
            "tanggal_terbit": "2024-02-29",
            "url_tdpse_detail": "https://pse.komdigi.go.id/tdpse-detail/18098",
            "website": "fastmedikacenter.com"
        },
        {
            "id": "9cb1ac56-e390-4d20-bbf6-1ab3f31c7724",
            "nama_pse": "CIPTA HEMAT SUKSES",
            "nama_se": "CIPTA HEMAT SUKSES",
            "sektor": "Sektor Teknologi Informasi dan Komunikasi",
            "tanggal_terbit": "2024-02-29",
            "url_tdpse_detail": "https://pse.komdigi.go.id/tdpse-detail/18101",
            "website": "-"
        },
        {
            "id": "9cb1ac80-0b75-4c3e-a740-a3df3e2af414",
            "nama_pse": "SELAPUT PELANGI NUSANTARA",
            "nama_se": "IRIS",
            "sektor": "Sektor Kesehatan",
            "tanggal_terbit": "2024-02-29",
            "url_tdpse_detail": "https://pse.komdigi.go.id/tdpse-detail/18102",
            "website": "apps.malangeyecenter.net"
        },
        {
            "id": "9cb1ac80-10a4-4f26-81b3-4731caec2957",
            "nama_pse": "ZAHFRAN",
            "nama_se": "SIMRS KORPRI PROV KALTIM",
            "sektor": "Sektor Kesehatan",
            "tanggal_terbit": "2024-02-29",
            "url_tdpse_detail": "https://pse.komdigi.go.id/tdpse-detail/18100",
            "website": "-"
        },
        {
            "id": "9cb1ac56-e652-49fc-9cda-5475158c40bf",
            "nama_pse": "NUANSA TEKNOLOGI INFORMASI",
            "nama_se": "NUANSA TEKNOLOGI INFORMASI",
            "sektor": "Sektor Teknologi Informasi dan Komunikasi",
            "tanggal_terbit": "2024-02-29",
            "url_tdpse_detail": "https://pse.komdigi.go.id/tdpse-detail/18103",
            "website": "nuansateknologi.id"
        },
        {
            "id": "9cb1ac56-e935-434a-b059-f41d3dd7e7cb",
            "nama_pse": "DHARMA PATRIOT SEJATI NUSANTARA",
            "nama_se": "SIM KLINIK",
            "sektor": "Sektor Kesehatan",
            "tanggal_terbit": "2024-02-29",
            "url_tdpse_detail": "https://pse.komdigi.go.id/tdpse-detail/18106",
            "website": "simklinik.untag-sby.ac.id"
        },
        {
            "id": "9cb1ac80-1761-48a5-9881-ce75b1a7c0f0",
            "nama_pse": "MUHAMMAD MEDIKA ABADI",
            "nama_se": "GRAHA MEDIKA SISTEM",
            "sektor": "Sektor Kesehatan",
            "tanggal_terbit": "2024-02-29",
            "url_tdpse_detail": "https://pse.komdigi.go.id/tdpse-detail/18104",
            "website": "-"
        },
        {
            "id": "9cb1ac80-2302-433a-a17d-fae3e5d5618e",
            "nama_pse": "NICODIMUS CAHAYA KALIMANTAN",
            "nama_se": "MEDIAKORANKALIMANTAN.COM",
            "sektor": "Sektor Teknologi Informasi dan Komunikasi",
            "tanggal_terbit": "2024-02-29",
            "url_tdpse_detail": "https://pse.komdigi.go.id/tdpse-detail/18108",
            "website": "mediakorankalimantan.com"
        },
        {
            "id": "9cb1ac6b-cdae-4f89-814e-99fdd7526ec7",
            "nama_pse": "PRIGEL TEKNOLOGI INDONESIA",
            "nama_se": "ONE MEDIC",
            "sektor": "Sektor Kesehatan, Sektor Teknologi Informasi dan Komunikasi",
            "tanggal_terbit": "2024-02-29",
            "url_tdpse_detail": "https://pse.komdigi.go.id/tdpse-detail/18107",
            "website": "-"
        },
        {
            "id": "9cb1ac80-25a4-4486-b82d-819eb367d78e",
            "nama_pse": "MEDIA KRIMSUS NEWS",
            "nama_se": "MEDIAKRIMSUSPOLRI.COM",
            "sektor": "Sektor Teknologi Informasi dan Komunikasi",
            "tanggal_terbit": "2024-02-29",
            "url_tdpse_detail": "https://pse.komdigi.go.id/tdpse-detail/18109",
            "website": "mediakrimsuspolri.com"
        },
        {
            "id": "9cb1ac56-d529-417b-b52b-cf360a4a3ef1",
            "nama_pse": "CIRLO TEKNOLOGI INDONESIA",
            "nama_se": "CIRLOTRIP",
            "sektor": "Sektor Teknologi Informasi dan Komunikasi",
            "tanggal_terbit": "2024-02-29",
            "url_tdpse_detail": "https://pse.komdigi.go.id/tdpse-detail/18087",
            "website": "cirlotrip.id"
        },
        {
            "id": "9cb1ac56-e046-47ba-84d5-ce91b51ae454",
            "nama_pse": "GAMES KARYA NUSANTARA",
            "nama_se": "MEGA ZOMBIE M",
            "sektor": "Sektor Teknologi Informasi dan Komunikasi",
            "tanggal_terbit": "2024-02-29",
            "url_tdpse_detail": "https://pse.komdigi.go.id/tdpse-detail/18099",
            "website": "-"
        },
        {
            "id": "9cb1ac7f-f078-4ca6-8f01-da2b3b956cf9",
            "nama_pse": "BERKAH SATU PINTU",
            "nama_se": "ONKLINIK",
            "sektor": "Sektor Perdagangan, Sektor Kesehatan, Sektor Teknologi Informasi dan Komunikasi",
            "tanggal_terbit": "2024-02-28",
            "url_tdpse_detail": "https://pse.komdigi.go.id/tdpse-detail/18081",
            "website": "-"
        },
        {
            "id": "9cb1ac6b-abaf-4ee9-a33a-78c0994840a1",
            "nama_pse": "GLOBAL MISINDO GROUP",
            "nama_se": "MISINDOGLOBALNEWS.COM",
            "sektor": "Sektor Teknologi Informasi dan Komunikasi",
            "tanggal_terbit": "2024-02-28",
            "url_tdpse_detail": "https://pse.komdigi.go.id/tdpse-detail/18068",
            "website": "misindoglobalnews.com"
        },
        {
            "id": "9cb1ac7f-ece3-4649-a975-7b2bf325fb4a",
            "nama_pse": "MUHAMMAD ARIEF NUR",
            "nama_se": "MY CLINIC",
            "sektor": "Sektor Kesehatan, Sektor Teknologi Informasi dan Komunikasi",
            "tanggal_terbit": "2024-02-28",
            "url_tdpse_detail": "https://pse.komdigi.go.id/tdpse-detail/18080",
            "website": "-"
        },
        {
            "id": "9cb1ac6b-962d-4873-8ed0-611747ee897c",
            "nama_pse": "ANEKA SEHAT",
            "nama_se": "SISTEM INFORMASI MANAJEMEN RUMAH SAKIT VIOLA",
            "sektor": "Sektor Teknologi Informasi dan Komunikasi",
            "tanggal_terbit": "2024-02-28",
            "url_tdpse_detail": "https://pse.komdigi.go.id/tdpse-detail/18067",
            "website": "-"
        },
        {
            "id": "9cb1ac6b-ae7d-466c-9d8e-be894ed34186",
            "nama_pse": "MEDIA TRIBUN CHANNEL",
            "nama_se": "TRIBUNCHANNEL.COM",
            "sektor": "Sektor Teknologi Informasi dan Komunikasi",
            "tanggal_terbit": "2024-02-28",
            "url_tdpse_detail": "https://pse.komdigi.go.id/tdpse-detail/18070",
            "website": "tribunchannel.com"
        },
        {
            "id": "9cb1ac6b-9c3c-404e-a0c9-65c82b89262a",
            "nama_pse": "ZONAJAKARTA MEDIA SATYA",
            "nama_se": "ZONA JAKARTA",
            "sektor": "Sektor Teknologi Informasi dan Komunikasi",
            "tanggal_terbit": "2024-02-28",
            "url_tdpse_detail": "https://pse.komdigi.go.id/tdpse-detail/18054",
            "website": "zonajakarta.com"
        },
        {
            "id": "9cb1ac6b-9f4e-4f32-aa6c-2d98f39318f0",
            "nama_pse": "ZONAJAKARTA MEDIA SATYA",
            "nama_se": "RAGAM INDONESIA",
            "sektor": "Sektor Teknologi Informasi dan Komunikasi",
            "tanggal_terbit": "2024-02-28",
            "url_tdpse_detail": "https://pse.komdigi.go.id/tdpse-detail/18055",
            "website": "ragam-indonesia.com"
        },
        {
            "id": "9cb1ac6b-a259-41be-8e5b-6e5c107c8b6a",
            "nama_pse": "NOVIALIANO HUSADA",
            "nama_se": "SIMGOS V2",
            "sektor": "Sektor Kesehatan",
            "tanggal_terbit": "2024-02-28",
            "url_tdpse_detail": "https://pse.komdigi.go.id/tdpse-detail/18056",
            "website": "citracare.rscitrasarihusada.com"
        },
        {
            "id": "9cb1ac7f-d5df-4aa3-808e-4832ee571102",
            "nama_pse": "IWAN GROUP BERSAUDARA",
            "nama_se": "IONECYBER.COM",
            "sektor": "Sektor Teknologi Informasi dan Komunikasi",
            "tanggal_terbit": "2024-02-28",
            "url_tdpse_detail": "https://pse.komdigi.go.id/tdpse-detail/18057",
            "website": "ionecyber.com"
        },
        {
            "id": "9cb1ac6b-a5eb-4dce-9d9c-7e34dd0c5690",
            "nama_pse": "BEST DINAMIKA INDONESIA",
            "nama_se": "BEST HR CLOUD",
            "sektor": "Sektor Teknologi Informasi dan Komunikasi",
            "tanggal_terbit": "2024-02-28",
            "url_tdpse_detail": "https://pse.komdigi.go.id/tdpse-detail/18058",
            "website": "besterp.co.id"
        },
        {
            "id": "9cb1ac6b-a8e3-4b29-802b-403e28940fa7",
            "nama_pse": "BION SOLUTION TECHNOLOGY",
            "nama_se": "DENTAL DIARY",
            "sektor": "Sektor Kesehatan, Sektor Teknologi Informasi dan Komunikasi",
            "tanggal_terbit": "2024-02-28",
            "url_tdpse_detail": "https://pse.komdigi.go.id/tdpse-detail/18066",
            "website": "-"
        },
        {
            "id": "9cb1ac7f-e172-4835-b079-c9c46acaebc8",
            "nama_pse": "SINERGY TEKNOLOGI PBMTI",
            "nama_se": "MYBMT",
            "sektor": "Sektor Teknologi Informasi dan Komunikasi",
            "tanggal_terbit": "2024-02-28",
            "url_tdpse_detail": "https://pse.komdigi.go.id/tdpse-detail/18069",
            "website": "-"
        },
        {
            "id": "9cb1ac6b-b237-48fa-8dee-6f77d823dfc2",
            "nama_pse": "VISI INDONESIA PANCACITA",
            "nama_se": "SIM KLINIK VAXCORP",
            "sektor": "Sektor Kesehatan",
            "tanggal_terbit": "2024-02-28",
            "url_tdpse_detail": "https://pse.komdigi.go.id/tdpse-detail/18071",
            "website": "clinic.vaxcorpindo.com"
        },
        {
            "id": "9cb1ac56-cd4c-4bf0-b30b-0ce5da2e3bbd",
            "nama_pse": "NANDANG PERMANA KUSUMA",
            "nama_se": "KLINIT",
            "sektor": "Sektor Kesehatan, Sektor Teknologi Informasi dan Komunikasi",
            "tanggal_terbit": "2024-02-28",
            "url_tdpse_detail": "https://pse.komdigi.go.id/tdpse-detail/18072",
            "website": "admin.zavirsdentalcare.com"
        },
        {
            "id": "9cb1ac7f-e546-4dd1-b9db-31570ee03111",
            "nama_pse": "CITRA MELATI SELARAS",
            "nama_se": "MDIS",
            "sektor": "Sektor Kesehatan",
            "tanggal_terbit": "2024-02-28",
            "url_tdpse_detail": "https://pse.komdigi.go.id/tdpse-detail/18075",
            "website": "-"
        },
        {
            "id": "9cb1ac6b-b50d-4137-bc66-3a9d2a38633c",
            "nama_pse": "MULTIKARYA PUNDI SEJAHTERA",
            "nama_se": "THE BRIDE DEPT",
            "sektor": "Sektor Perdagangan, Sektor Teknologi Informasi dan Komunikasi",
            "tanggal_terbit": "2024-02-28",
            "url_tdpse_detail": "https://pse.komdigi.go.id/tdpse-detail/18074",
            "website": "thebridedept.com"
        },
        {
            "id": "9cb1ac56-d051-4492-9ec3-95a09f77ab88",
            "nama_pse": "UNIVERSITAS JEMBER SEKRETARIAT UTAMA KEMENTERIAN RISET DAN TEKNOLOGI/BADAN RISET DAN INOVASI NASIONAL",
            "nama_se": "SISTEM INFORMASI MANAGEMEN RUMAH SAKIT GIGI DAN MULUT UNIVERSITAS JEMBER (SIMRSGM-UNEJ)",
            "sektor": "Sektor Kesehatan",
            "tanggal_terbit": "2024-02-28",
            "url_tdpse_detail": "https://pse.komdigi.go.id/tdpse-detail/18076",
            "website": "simrsgm.unej.ac.id"
        },
        {
            "id": "9cb1ac7f-e8f1-4fe2-9bb0-48f38815f642",
            "nama_pse": "RIZKAN QADAR",
            "nama_se": "SMART MEDIC",
            "sektor": "Sektor Kesehatan",
            "tanggal_terbit": "2024-02-28",
            "url_tdpse_detail": "https://pse.komdigi.go.id/tdpse-detail/18077",
            "website": "-"
        },
        {
            "id": "9cb1ac56-d2e2-4d34-ba34-c248f7cbe64c",
            "nama_pse": "PHANDU PUTRA HARYU DHARMA SANJATA",
            "nama_se": "DOKTER HITZ",
            "sektor": "Sektor Kesehatan",
            "tanggal_terbit": "2024-02-28",
            "url_tdpse_detail": "https://pse.komdigi.go.id/tdpse-detail/18079",
            "website": "dokterhitzdental.com"
        },
        {
            "id": "9cb1ac6b-bb7a-43f5-838c-73b0df6b0cf8",
            "nama_pse": "POP JASA INDONESIA",
            "nama_se": "POP JASA",
            "sektor": "Sektor Perdagangan, Sektor Teknologi Informasi dan Komunikasi",
            "tanggal_terbit": "2024-02-28",
            "url_tdpse_detail": "https://pse.komdigi.go.id/tdpse-detail/18078",
            "website": "popjasaindonesia.com"
        },
        {
            "id": "9cb1ac7f-f3f3-4602-8727-7aa814e62525",
            "nama_pse": "MEDIA NAVIGASI DUNIA",
            "nama_se": "NAVIGASIDUNIA.COM",
            "sektor": "Sektor Teknologi Informasi dan Komunikasi",
            "tanggal_terbit": "2024-02-28",
            "url_tdpse_detail": "https://pse.komdigi.go.id/tdpse-detail/18082",
            "website": "navigasidunia.com"
        },
        {
            "id": "9cb1ac69-d8de-4917-8449-cabe9b1cff65",
            "nama_pse": "FIFIN HERMAWAN",
            "nama_se": "FIPRO NET",
            "sektor": "Sektor Kesehatan",
            "tanggal_terbit": "2024-02-27",
            "url_tdpse_detail": "https://pse.komdigi.go.id/tdpse-detail/18046",
            "website": "fipronet.id"
        },
        {
            "id": "9cb1ac6a-1583-4d02-be80-de15ee89eff1",
            "nama_pse": "CAHAYA SEJATI TEKNOLOGI",
            "nama_se": "TRAVELIN",
            "sektor": "Sektor Transportasi, Sektor Teknologi Informasi dan Komunikasi",
            "tanggal_terbit": "2024-02-27",
            "url_tdpse_detail": "https://pse.komdigi.go.id/tdpse-detail/18049",
            "website": "travelintrips.co.id"
        },
        {
            "id": "9cb1ac7f-b405-47bc-8eb6-dfe69944895a",
            "nama_pse": "SUSJADY",
            "nama_se": "RELIA ADMINISTRATION APPS",
            "sektor": "Sektor Kesehatan",
            "tanggal_terbit": "2024-02-27",
            "url_tdpse_detail": "https://pse.komdigi.go.id/tdpse-detail/18042",
            "website": "-"
        },
        {
            "id": "9cb1ac6b-83c7-4bf5-bdc0-1bde85b9ed8e",
            "nama_pse": "EDITTA BHAGYA LAKHSMI",
            "nama_se": "SISTEM INFORRMASI KLINIK EDIITA",
            "sektor": "Sektor Kesehatan",
            "tanggal_terbit": "2024-02-27",
            "url_tdpse_detail": "https://pse.komdigi.go.id/tdpse-detail/18037",
            "website": "-"
        },
        {
            "id": "9cb1ac7f-8fa9-4d02-bb23-a5641ced6d3d",
            "nama_pse": "PASARPOLIS INSURANCE BROKER",
            "nama_se": "CONTROL PANEL",
            "sektor": "Sektor Keuangan",
            "tanggal_terbit": "2024-02-27",
            "url_tdpse_detail": "https://pse.komdigi.go.id/tdpse-detail/18036",
            "website": "-"
        },
        {
            "id": "9cb1ac6b-8c1f-471e-bbc2-02ef9e079f66",
            "nama_pse": "KAWAN LAMA SOLUSI",
            "nama_se": "WEBSITE WWW.KAWANLAMA.COM",
            "sektor": "Sektor Perdagangan",
            "tanggal_terbit": "2024-02-27",
            "url_tdpse_detail": "https://pse.komdigi.go.id/tdpse-detail/18050",
            "website": "kawanlama.com"
        },
        {
            "id": "9cb1ac7f-ae29-4986-8c34-a30f38fb4507",
            "nama_pse": "KAMANIYA DERMA ESTETIKA",
            "nama_se": "SISTEM MANAGEMENT KAMANIYA CITRA RAYA",
            "sektor": "Sektor Kesehatan",
            "tanggal_terbit": "2024-02-27",
            "url_tdpse_detail": "https://pse.komdigi.go.id/tdpse-detail/18039",
            "website": "-"
        },
        {
            "id": "9cb1ac56-c3f7-4ddd-8239-fb582bc35929",
            "nama_pse": "AESEN PUTRA NUGRAHA GROUP",
            "nama_se": "AESENNEWS.COM",
            "sektor": "Sektor Teknologi Informasi dan Komunikasi",
            "tanggal_terbit": "2024-02-27",
            "url_tdpse_detail": "https://pse.komdigi.go.id/tdpse-detail/18040",
            "website": "aesennews.com"
        }
    ],
    "processingTimeMs": 2,
    "query": "",
    "totalHits": 19121,
    "hitsPerPage": 50,
    "page": 81,
    "totalPages": 383
}