{
    "hits": [
        {
            "id": "9cb1abad-21b4-4df3-baeb-aa11a3c7130d",
            "nama_pse": "CIPTA IZIN INDONESIA",
            "nama_se": "IZIN99.COM",
            "sektor": "Sektor Perdagangan",
            "tanggal_terbit": "2022-05-06",
            "url_tdpse_detail": "https://pse.komdigi.go.id/tdpse-detail/4417",
            "website": "izin99.com"
        },
        {
            "id": "9cb1abac-fbc6-4f97-afda-7c83ead1665c",
            "nama_pse": "AGENCY KOMUNITAS INDOSYSTEM NETWORK INDONESIA",
            "nama_se": "WWW.JURNALTV.MY.ID",
            "sektor": "Sektor Teknologi Informasi dan Komunikasi",
            "tanggal_terbit": "2022-05-05",
            "url_tdpse_detail": "https://pse.komdigi.go.id/tdpse-detail/4355",
            "website": "jurnaltv.my.id"
        },
        {
            "id": "9cb1abad-1a2d-4c46-a0ad-b255895371a3",
            "nama_pse": "VICTORIA GLOBAL REALTY",
            "nama_se": "VICTORIA GLOBAL REALTY",
            "sektor": "Sektor Perdagangan",
            "tanggal_terbit": "2022-05-05",
            "url_tdpse_detail": "https://pse.komdigi.go.id/tdpse-detail/4411",
            "website": "-"
        },
        {
            "id": "9cb1aba2-f58b-4f8a-83bd-a2778236aff6",
            "nama_pse": "TURANGGA ARENA PERSADA",
            "nama_se": "PORDASIHUB",
            "sektor": "Sektor Teknologi Informasi dan Komunikasi",
            "tanggal_terbit": "2022-05-04",
            "url_tdpse_detail": "https://pse.komdigi.go.id/tdpse-detail/4410",
            "website": "-"
        },
        {
            "id": "9cb1ab97-2358-4694-988f-c1435650cbff",
            "nama_pse": "MARKET INDONESIA STARTUP",
            "nama_se": "PT.MARKET INDONESIA STARTUP",
            "sektor": "Sektor Perdagangan, Sektor Teknologi Informasi dan Komunikasi",
            "tanggal_terbit": "2022-05-03",
            "url_tdpse_detail": "https://pse.komdigi.go.id/tdpse-detail/4407",
            "website": "marketindonesia.co.id"
        },
        {
            "id": "9cb1abad-17e6-48dc-b831-e0d585b7c34e",
            "nama_pse": "MARKET INDONESIA STARTUP",
            "nama_se": "CYBER SPACE MARKET INDONESIA STARTUP",
            "sektor": "Sektor Perdagangan, Sektor Teknologi Informasi dan Komunikasi, Sektor Pangan, Sektor Pertahanan dan Keamanan",
            "tanggal_terbit": "2022-05-03",
            "url_tdpse_detail": "https://pse.komdigi.go.id/tdpse-detail/4408",
            "website": "cyberspace.marketindonesia.co.id"
        },
        {
            "id": "9cb1aba2-f3a5-423e-aac0-b86341a16dd7",
            "nama_pse": "MARKET INDONESIA STARTUP",
            "nama_se": "MARKET INDONESIA STARTUP",
            "sektor": "Sektor Perdagangan, Sektor Teknologi Informasi dan Komunikasi, Sektor Pertahanan dan Keamanan",
            "tanggal_terbit": "2022-05-03",
            "url_tdpse_detail": "https://pse.komdigi.go.id/tdpse-detail/4409",
            "website": "marketindonesia.co.id"
        },
        {
            "id": "9cb1aba2-f17f-4292-a5d3-cb6b73548cb7",
            "nama_pse": "YEYEP GUSTIAN",
            "nama_se": "OKEPAY INDONESIA",
            "sektor": "Sektor Perdagangan, Sektor Keuangan",
            "tanggal_terbit": "2022-05-02",
            "url_tdpse_detail": "https://pse.komdigi.go.id/tdpse-detail/4401",
            "website": "-"
        },
        {
            "id": "9cb1ab96-e9f2-43eb-b43a-32adf008f907",
            "nama_pse": "RUMAH UMKM INDONESIA",
            "nama_se": "BELIUMKM",
            "sektor": "Sektor Perdagangan",
            "tanggal_terbit": "2022-05-01",
            "url_tdpse_detail": "https://pse.komdigi.go.id/tdpse-detail/4387",
            "website": "belaumkm.id"
        },
        {
            "id": "9cb1ab97-1006-429c-98e0-ed170013079e",
            "nama_pse": "MITRA SERIBU SAUDARA",
            "nama_se": "1000SAUDARA.COM",
            "sektor": "Sektor Perdagangan, Sektor Teknologi Informasi dan Komunikasi",
            "tanggal_terbit": "2022-04-29",
            "url_tdpse_detail": "https://pse.komdigi.go.id/tdpse-detail/4402",
            "website": "1000saudara.com"
        },
        {
            "id": "9cb1ab97-1631-44b8-b890-6880409d5f4b",
            "nama_pse": "ASURANSI SAHABAT ARTHA PROTEKSI",
            "nama_se": "SAHABAT INSURANCE",
            "sektor": "Sektor Keuangan",
            "tanggal_terbit": "2022-04-29",
            "url_tdpse_detail": "https://pse.komdigi.go.id/tdpse-detail/4404",
            "website": "sahabatinsurance.id"
        },
        {
            "id": "9cb1ab97-192a-4e7e-a5d8-773d8a273bc6",
            "nama_pse": "DUTA EDUKASI BOALEMO",
            "nama_se": "CV DUTA EDUKASI BOALEMO",
            "sektor": "Sektor Perdagangan",
            "tanggal_terbit": "2022-04-29",
            "url_tdpse_detail": "https://pse.komdigi.go.id/tdpse-detail/4405",
            "website": "-"
        },
        {
            "id": "9cb1ab97-1fbb-4901-a2f4-e415b9217ba3",
            "nama_pse": "AKAR INTI DATA",
            "nama_se": "NUSADATA.AI",
            "sektor": "Sektor Teknologi Informasi dan Komunikasi",
            "tanggal_terbit": "2022-04-29",
            "url_tdpse_detail": "https://pse.komdigi.go.id/tdpse-detail/4406",
            "website": "nusadata.ai"
        },
        {
            "id": "9cb1ab96-a836-4bc1-8a4a-4843eabd4708",
            "nama_pse": "DESTY KARSA WESYA",
            "nama_se": "DESTY.APP",
            "sektor": "Sektor Perdagangan",
            "tanggal_terbit": "2022-04-28",
            "url_tdpse_detail": "https://pse.komdigi.go.id/tdpse-detail/4343",
            "website": "Desty.app"
        },
        {
            "id": "9cb1abac-eb28-43d0-8385-58880a5195df",
            "nama_pse": "BANK CIMB NIAGA",
            "nama_se": "APLIKASI KEJAR MIMPI",
            "sektor": "Sektor Keuangan",
            "tanggal_terbit": "2022-04-28",
            "url_tdpse_detail": "https://pse.komdigi.go.id/tdpse-detail/4344",
            "website": "-"
        },
        {
            "id": "9cb1abac-f443-40a8-ae07-ce4c2907c433",
            "nama_pse": "OTORAJA NETWORK INDONESIA",
            "nama_se": "OTORAJA BP",
            "sektor": "Sektor Perdagangan, Sektor Teknologi Informasi dan Komunikasi",
            "tanggal_terbit": "2022-04-28",
            "url_tdpse_detail": "https://pse.komdigi.go.id/tdpse-detail/4345",
            "website": "bp.otoraja.id"
        },
        {
            "id": "9cb1aba2-a711-4e12-ad75-ee27eb7c6ea9",
            "nama_pse": "MIRAE ASSET SEKURITAS INDONESIA",
            "nama_se": "MIRAE ASSET FUND",
            "sektor": "Sektor Keuangan",
            "tanggal_terbit": "2022-04-28",
            "url_tdpse_detail": "https://pse.komdigi.go.id/tdpse-detail/4349",
            "website": "fund.miraeasset.co.id"
        },
        {
            "id": "9cb1ab96-bdf1-4598-923c-89e1677982e5",
            "nama_pse": "ASURANSI FPG INDONESIA",
            "nama_se": "WEB SELLING",
            "sektor": "Sektor Keuangan",
            "tanggal_terbit": "2022-04-28",
            "url_tdpse_detail": "https://pse.komdigi.go.id/tdpse-detail/4351",
            "website": "fpgins.co.id"
        },
        {
            "id": "9cb1aba2-b198-417b-a3cf-927cacd7c77b",
            "nama_pse": "KESEHATAN HEWAN PELIHARAAN PAWLYCLINIC",
            "nama_se": "WWW.PAWLYCLINIC.CO.ID",
            "sektor": "Sektor Teknologi Informasi dan Komunikasi",
            "tanggal_terbit": "2022-04-28",
            "url_tdpse_detail": "https://pse.komdigi.go.id/tdpse-detail/4356",
            "website": "pawlyclinic.co.id"
        },
        {
            "id": "9cb1aba2-c088-4135-a650-3c609164cbf8",
            "nama_pse": "PERUSAHAAN PERSEROAN (PERSERO) PT. BANK RAKYAT INDONESIA",
            "nama_se": "BRIMO (MOBILE BANKING APP.BANK BRI)",
            "sektor": "Sektor Keuangan, Sektor Teknologi Informasi dan Komunikasi",
            "tanggal_terbit": "2022-04-28",
            "url_tdpse_detail": "https://pse.komdigi.go.id/tdpse-detail/4363",
            "website": "-"
        },
        {
            "id": "9cb1abad-137b-4e83-ae02-d0aa49cf2fb4",
            "nama_pse": "NUUMI HZM",
            "nama_se": "NUUMI PULSA",
            "sektor": "Sektor Perdagangan",
            "tanggal_terbit": "2022-04-28",
            "url_tdpse_detail": "https://pse.komdigi.go.id/tdpse-detail/4395",
            "website": "mpulsa.net"
        },
        {
            "id": "9cb1aba2-ea0d-4ce4-b540-76d4514afef4",
            "nama_pse": "JAYADI",
            "nama_se": "PT JAYA BAYA SEJAHTERA",
            "sektor": "Sektor Perdagangan",
            "tanggal_terbit": "2022-04-28",
            "url_tdpse_detail": "https://pse.komdigi.go.id/tdpse-detail/4396",
            "website": "-"
        },
        {
            "id": "9cb1ab97-0815-40f3-8ba8-27c1253f633d",
            "nama_pse": "ANDESKA BINA PERSADA",
            "nama_se": "ANDESKABP",
            "sektor": "Sektor Perdagangan, Sektor Teknologi Informasi dan Komunikasi",
            "tanggal_terbit": "2022-04-28",
            "url_tdpse_detail": "https://pse.komdigi.go.id/tdpse-detail/4397",
            "website": "andeskabp.net"
        },
        {
            "id": "9cb1aba2-ec85-4a1c-a146-cb485dd4e4cf",
            "nama_pse": "ANDESKA BINA PERSADA",
            "nama_se": "ANDESKABPDOTNET",
            "sektor": "Sektor Perdagangan, Sektor Teknologi Informasi dan Komunikasi",
            "tanggal_terbit": "2022-04-28",
            "url_tdpse_detail": "https://pse.komdigi.go.id/tdpse-detail/4398",
            "website": "-"
        },
        {
            "id": "9cb1ab97-0d1a-4a89-a1c9-006ed0dc7df3",
            "nama_pse": "BIRO PATNER ABADI",
            "nama_se": "IJIN KU",
            "sektor": "Sektor Perdagangan, Sektor Transportasi, Sektor Teknologi Informasi dan Komunikasi",
            "tanggal_terbit": "2022-04-28",
            "url_tdpse_detail": "https://pse.komdigi.go.id/tdpse-detail/4399",
            "website": "ijinku.com"
        },
        {
            "id": "9cb1aba2-ef30-4115-81aa-1797d897c20e",
            "nama_pse": "YEYEP GUSTIAN",
            "nama_se": "OKEPAY",
            "sektor": "Sektor Keuangan",
            "tanggal_terbit": "2022-04-28",
            "url_tdpse_detail": "https://pse.komdigi.go.id/tdpse-detail/4400",
            "website": "-"
        },
        {
            "id": "9cb1aba3-9aac-4cdb-bace-988bdfd88ab8",
            "nama_pse": "MEDIA DOKTER INVESTAMA",
            "nama_se": "HALODOC",
            "sektor": "Sektor Perdagangan, Sektor Kesehatan, Sektor Teknologi Informasi dan Komunikasi",
            "tanggal_terbit": "2022-04-28",
            "url_tdpse_detail": "https://pse.komdigi.go.id/tdpse-detail/4588",
            "website": "halodoc.co.id"
        },
        {
            "id": "9cb1abab-75a6-4c12-bf86-48348a0a6bdc",
            "nama_pse": "MOCHAMAD IWAN SETIYAWAN",
            "nama_se": "VENTA COMPUTINDO TECHNOLOGIES",
            "sektor": "Sektor Perdagangan",
            "tanggal_terbit": "2022-04-27",
            "url_tdpse_detail": "https://pse.komdigi.go.id/tdpse-detail/4057",
            "website": "-"
        },
        {
            "id": "9cb1abab-777a-4416-afd4-4d9f4af4b4ec",
            "nama_pse": "MOCHAMAD IWAN SETIYAWAN",
            "nama_se": "VENTA COMPUTINDO TECH",
            "sektor": "Sektor Perdagangan",
            "tanggal_terbit": "2022-04-27",
            "url_tdpse_detail": "https://pse.komdigi.go.id/tdpse-detail/4058",
            "website": "-"
        },
        {
            "id": "9cb1ab94-b414-44da-8999-cf9df92956cd",
            "nama_pse": "XL AXIATA",
            "nama_se": "XL AXIATA API DEVELOPER PORTAL",
            "sektor": "Sektor Teknologi Informasi dan Komunikasi",
            "tanggal_terbit": "2022-04-27",
            "url_tdpse_detail": "https://pse.komdigi.go.id/tdpse-detail/4050",
            "website": "developer.xlaxiata.co.id"
        },
        {
            "id": "9cb1ab94-d8dc-420a-b7a8-9cf31d9e70ee",
            "nama_pse": "PERUSAHAAN PERSEROAN (PERSERO) PT. BANK RAKYAT INDONESIA",
            "nama_se": "BRIAPI",
            "sektor": "Sektor Keuangan, Sektor Teknologi Informasi dan Komunikasi",
            "tanggal_terbit": "2022-04-27",
            "url_tdpse_detail": "https://pse.komdigi.go.id/tdpse-detail/4049",
            "website": "developers.bri.co.id"
        },
        {
            "id": "9cb1aba2-4249-4089-a631-d6c991fdbb6e",
            "nama_pse": "MAJOO TEKNOLOGI INDONESIA",
            "nama_se": "MAJOO",
            "sektor": "Sektor Perdagangan",
            "tanggal_terbit": "2022-04-27",
            "url_tdpse_detail": "https://pse.komdigi.go.id/tdpse-detail/4249",
            "website": "majoo.id"
        },
        {
            "id": "9cb1aba2-e5ce-4066-8c92-0d6292c78dcd",
            "nama_pse": "JASINDO CITRA MAJU",
            "nama_se": "CITRAPULSA",
            "sektor": "Sektor Perdagangan",
            "tanggal_terbit": "2022-04-27",
            "url_tdpse_detail": "https://pse.komdigi.go.id/tdpse-detail/4388",
            "website": "citrapulsa.me"
        },
        {
            "id": "9cb1ab96-f463-4cd2-a7a1-82e3b1740455",
            "nama_pse": "JAY JAY EDUKASI",
            "nama_se": "JAYJAY EDUKASI",
            "sektor": "Sektor Teknologi Informasi dan Komunikasi",
            "tanggal_terbit": "2022-04-27",
            "url_tdpse_detail": "https://pse.komdigi.go.id/tdpse-detail/4389",
            "website": "jayjay.co"
        },
        {
            "id": "9cb1ab96-fa6d-4025-bb02-565e40f3e7b2",
            "nama_pse": "AERO SYSTEMS INDONESIA",
            "nama_se": "KARGO HERMES SOFT",
            "sektor": "Sektor Perdagangan",
            "tanggal_terbit": "2022-04-27",
            "url_tdpse_detail": "https://pse.komdigi.go.id/tdpse-detail/4390",
            "website": "asyst.co.id"
        },
        {
            "id": "9cb1abad-0f8b-4478-8860-e13b01d907a2",
            "nama_pse": "AERO SYSTEMS INDONESIA",
            "nama_se": "APLIKASI KARGO HERMES SOFT",
            "sektor": "Sektor Perdagangan, Sektor Teknologi Informasi dan Komunikasi",
            "tanggal_terbit": "2022-04-27",
            "url_tdpse_detail": "https://pse.komdigi.go.id/tdpse-detail/4391",
            "website": "-"
        },
        {
            "id": "9cb1abad-118c-483a-a6a0-51f7dbe57fa9",
            "nama_pse": "LIDI PEDIA INDONESIA",
            "nama_se": "LIDIPEDIA",
            "sektor": "Sektor Perdagangan, Sektor Teknologi Informasi dan Komunikasi, Sektor Pangan",
            "tanggal_terbit": "2022-04-27",
            "url_tdpse_detail": "https://pse.komdigi.go.id/tdpse-detail/4392",
            "website": "lidipedia.com"
        },
        {
            "id": "9cb1ab97-0331-42c9-ac42-59c7eaeb1dd1",
            "nama_pse": "HENDRO PRIYONO",
            "nama_se": "KEPULAUAN RIAU INDONESIA MEDIA",
            "sektor": "Sektor Teknologi Informasi dan Komunikasi",
            "tanggal_terbit": "2022-04-27",
            "url_tdpse_detail": "https://pse.komdigi.go.id/tdpse-detail/4394",
            "website": "-"
        },
        {
            "id": "9cb1abad-871b-4735-84a7-bd2f9b4d19d2",
            "nama_pse": "BANK SAHABAT SAMPOERNA",
            "nama_se": "PDAJA.COM",
            "sektor": "Sektor Keuangan",
            "tanggal_terbit": "2022-04-27",
            "url_tdpse_detail": "https://pse.komdigi.go.id/tdpse-detail/4591",
            "website": "pdaja.com/"
        },
        {
            "id": "9cb1abab-018b-4cc9-b75c-2e4cbf791320",
            "nama_pse": "SEJUTA KAWAN SEHAT",
            "nama_se": "HTTPS://WWW.SIRKA.IO/",
            "sektor": "Sektor Kesehatan",
            "tanggal_terbit": "2022-04-26",
            "url_tdpse_detail": "https://pse.komdigi.go.id/tdpse-detail/4043",
            "website": "sirka.io"
        },
        {
            "id": "9cb1aba0-a930-468d-818d-dd3f81cbd074",
            "nama_pse": "GRAHA SUKSES MENDUNIA",
            "nama_se": "LIFEFORWIN.COM, LIFEFORWIN.CO.ID, LIFEFORWIN.ID, LIFEFORWIN.NET",
            "sektor": "Sektor Perdagangan",
            "tanggal_terbit": "2022-04-26",
            "url_tdpse_detail": "https://pse.komdigi.go.id/tdpse-detail/4035",
            "website": "lifeforwin.co.id"
        },
        {
            "id": "9cb1ab94-3437-492d-bc74-61de8d68035c",
            "nama_pse": "MATAHARI LABS",
            "nama_se": "INDOBUYBUY.COM",
            "sektor": "Sektor Perdagangan",
            "tanggal_terbit": "2022-04-26",
            "url_tdpse_detail": "https://pse.komdigi.go.id/tdpse-detail/4039",
            "website": "indobuybuy.com"
        },
        {
            "id": "9cb1aba0-d0d9-459e-9056-96bbe338ed04",
            "nama_pse": "ANUGERAH BINTANG UTAMA",
            "nama_se": "INFINITY TECH",
            "sektor": "Sektor Perdagangan, Sektor Teknologi Informasi dan Komunikasi",
            "tanggal_terbit": "2022-04-26",
            "url_tdpse_detail": "https://pse.komdigi.go.id/tdpse-detail/4044",
            "website": "-"
        },
        {
            "id": "9cb1abab-63d9-4143-8e22-7c28391bfda7",
            "nama_pse": "SENTRA FINANSIAL TEKNOLOGI",
            "nama_se": "SEVIMAPAY",
            "sektor": "Sektor Teknologi Informasi dan Komunikasi",
            "tanggal_terbit": "2022-04-26",
            "url_tdpse_detail": "https://pse.komdigi.go.id/tdpse-detail/4036",
            "website": "sentrafinansial.id"
        },
        {
            "id": "9cb1abab-6812-415a-aaa4-e230981a593c",
            "nama_pse": "ADE SRI MIYANTI",
            "nama_se": "PT WELLNESS PINK PEONY GARDENIA",
            "sektor": "Sektor Perdagangan, Sektor Kesehatan, Sektor Pangan",
            "tanggal_terbit": "2022-04-26",
            "url_tdpse_detail": "https://pse.komdigi.go.id/tdpse-detail/4033",
            "website": "msha.ke/wellnesspinkpeonygardenia"
        },
        {
            "id": "9cb1aba0-eefa-4fc9-8b02-40cc0b4d26a8",
            "nama_pse": "CHRISTIAN RAHARJO",
            "nama_se": "SPADA",
            "sektor": "Sektor Teknologi Informasi dan Komunikasi",
            "tanggal_terbit": "2022-04-26",
            "url_tdpse_detail": "https://pse.komdigi.go.id/tdpse-detail/4045",
            "website": "spada.id"
        },
        {
            "id": "9cb1ab94-a6c4-4d21-84ff-efd7d60101d5",
            "nama_pse": "MOCHAMAD IWAN SETIYAWAN",
            "nama_se": "VENTA COMP",
            "sektor": "Sektor Perdagangan, Sektor Teknologi Informasi dan Komunikasi",
            "tanggal_terbit": "2022-04-26",
            "url_tdpse_detail": "https://pse.komdigi.go.id/tdpse-detail/4032",
            "website": "-"
        },
        {
            "id": "9cb1abab-8fd8-4a8a-a566-db20b164abcc",
            "nama_pse": "KAMPOENG DJATI",
            "nama_se": "OLD AMSTERDAM ANTIQUES",
            "sektor": "Sektor Perdagangan",
            "tanggal_terbit": "2022-04-26",
            "url_tdpse_detail": "https://pse.komdigi.go.id/tdpse-detail/4040",
            "website": "oldamsterdamantiques.com"
        },
        {
            "id": "9cb1abab-9ca5-4f08-83b4-5b605cc12842",
            "nama_pse": "INTERSOFT SOLUTIONS",
            "nama_se": "ISELLER",
            "sektor": "Sektor Perdagangan",
            "tanggal_terbit": "2022-04-26",
            "url_tdpse_detail": "https://pse.komdigi.go.id/tdpse-detail/4034",
            "website": "isellercommerce.com"
        },
        {
            "id": "9cb1aba1-1d4a-44bd-a299-a96762011b43",
            "nama_pse": "KRISBOW INDONESIA",
            "nama_se": "KRISBOW INDONESIA E-COMMERCE",
            "sektor": "Sektor Perdagangan",
            "tanggal_terbit": "2022-04-26",
            "url_tdpse_detail": "https://pse.komdigi.go.id/tdpse-detail/4046",
            "website": "krisbow.com"
        }
    ],
    "processingTimeMs": 21,
    "query": "",
    "totalHits": 19121,
    "hitsPerPage": 50,
    "page": 306,
    "totalPages": 383
}