{
    "hits": [
        {
            "id": "9cb1ac3a-4f47-463d-bea6-fa7c9c9f9b72",
            "nama_pse": "RSUD DR. H. MARSIDI JUDONO",
            "nama_se": "SIMRS MEDISMART",
            "sektor": "Sektor Kesehatan",
            "tanggal_terbit": "2023-08-25",
            "url_tdpse_detail": "https://pse.komdigi.go.id/tdpse-detail/15701",
            "website": "rsud-marsidijudono.belitung.go.id"
        },
        {
            "id": "9cb1ac27-b5c2-4f2c-93c8-8dd983a37bdf",
            "nama_pse": "RUMAH SAKIT UMUM DAERAH LAKIPADADA",
            "nama_se": "SIMRS LAKIPADADA",
            "sektor": "Sektor Kesehatan",
            "tanggal_terbit": "2023-08-25",
            "url_tdpse_detail": "https://pse.komdigi.go.id/tdpse-detail/15704",
            "website": "rsudlakipadada.id"
        },
        {
            "id": "9cb1ac3a-51d1-4c55-96bb-d84147da4e16",
            "nama_pse": "RUMAH SAKIT UMUM DAERAH ARIFIN ACHMAD PROVINSI RIAU",
            "nama_se": "SIMRS - REKAM MEDIS ELEKTRONIK ARIFIN ACHMAD (SIMRS RESIKAA)",
            "sektor": "Sektor Kesehatan",
            "tanggal_terbit": "2023-08-25",
            "url_tdpse_detail": "https://pse.komdigi.go.id/tdpse-detail/15706",
            "website": "rsudarifinachmad.riau.go.id"
        },
        {
            "id": "9cb1ac27-bbfa-4cc4-a4d1-16bbc929898e",
            "nama_pse": "SUKSES BERSAMA ANAK BANGSA",
            "nama_se": "LAYANAN PENGURUSAN IZIN DAN LEGALITAS USAHA",
            "sektor": "Sektor Perdagangan",
            "tanggal_terbit": "2023-08-25",
            "url_tdpse_detail": "https://pse.komdigi.go.id/tdpse-detail/15703",
            "website": "Izincepat.id"
        },
        {
            "id": "9cb1ac49-b1de-4a9a-9ccc-be5317f5187f",
            "nama_pse": "ICON GLOBAL INTERNASIONAL",
            "nama_se": "LEGALIST",
            "sektor": "Sektor Perdagangan",
            "tanggal_terbit": "2023-08-25",
            "url_tdpse_detail": "https://pse.komdigi.go.id/tdpse-detail/15705",
            "website": "legalist.id"
        },
        {
            "id": "9cb1ac49-b61a-4ac4-8c74-1cc96f2f2609",
            "nama_pse": "PERTAMINA BINA MEDIKA IHC",
            "nama_se": "SIMRS - PERTAMINA CIREBON",
            "sektor": "Sektor Kesehatan",
            "tanggal_terbit": "2023-08-25",
            "url_tdpse_detail": "https://pse.komdigi.go.id/tdpse-detail/15708",
            "website": "-"
        },
        {
            "id": "9cb1ac49-ba1c-4446-8a3a-9c1be8e64790",
            "nama_pse": "IMPIAN REPUBLIK BERJAYA",
            "nama_se": "IMPIAN BERJAYA",
            "sektor": "Sektor Perdagangan",
            "tanggal_terbit": "2023-08-25",
            "url_tdpse_detail": "https://pse.komdigi.go.id/tdpse-detail/15714",
            "website": "impianberjaya.com"
        },
        {
            "id": "9cb1ac27-cb67-40f6-80c2-8414d694a1a4",
            "nama_pse": "RUMAH SAKIT PELABUHAN",
            "nama_se": "SIMOP",
            "sektor": "Sektor Kesehatan",
            "tanggal_terbit": "2023-08-25",
            "url_tdpse_detail": "https://pse.komdigi.go.id/tdpse-detail/15711",
            "website": "-"
        },
        {
            "id": "9cb1ac27-cecb-4b89-97bd-5d7989a2d22c",
            "nama_pse": "ASSYIFA NUSANTARA MEDIKA",
            "nama_se": "SIM KLINIK ROLAS MEDIKA JEMBER",
            "sektor": "Sektor Kesehatan",
            "tanggal_terbit": "2023-08-25",
            "url_tdpse_detail": "https://pse.komdigi.go.id/tdpse-detail/15712",
            "website": "-"
        },
        {
            "id": "9cb1ac3a-5b46-48d8-9d19-fc9965202d04",
            "nama_pse": "RSU MUHAMMADIYAH SITI AMINAH",
            "nama_se": "REKAM MEDIS ELEKTRONIK RSU MUHAMMADIYAH SITI AMINAH BUMIAYU",
            "sektor": "Sektor Kesehatan",
            "tanggal_terbit": "2023-08-25",
            "url_tdpse_detail": "https://pse.komdigi.go.id/tdpse-detail/15713",
            "website": "rsumsitiaminah.com"
        },
        {
            "id": "9cb1ac27-d234-4219-a833-0b1365de3436",
            "nama_pse": "ASSYIFA NUSANTARA MEDIKA",
            "nama_se": "SIM KLINIK ROLAS MEDIKA BANJARSARI",
            "sektor": "Sektor Kesehatan",
            "tanggal_terbit": "2023-08-25",
            "url_tdpse_detail": "https://pse.komdigi.go.id/tdpse-detail/15716",
            "website": "-"
        },
        {
            "id": "9cb1ac27-d5dd-4bc8-a1a6-8ae682c4be0b",
            "nama_pse": "ART CREATIVE MEDIA",
            "nama_se": "ART CREATIVE MEDIA",
            "sektor": "Sektor Teknologi Informasi dan Komunikasi",
            "tanggal_terbit": "2023-08-25",
            "url_tdpse_detail": "https://pse.komdigi.go.id/tdpse-detail/15715",
            "website": "-"
        },
        {
            "id": "9cb1ac49-bcea-480f-be3b-523e463985a4",
            "nama_pse": "ASSYIFA NUSANTARA MEDIKA",
            "nama_se": "SIM KLINIK ROLAS MEDIKA KALIKEMPIT",
            "sektor": "Sektor Kesehatan",
            "tanggal_terbit": "2023-08-25",
            "url_tdpse_detail": "https://pse.komdigi.go.id/tdpse-detail/15717",
            "website": "-"
        },
        {
            "id": "9cb1ac3a-5dd6-4c9a-b13c-6f3ab8c9e68f",
            "nama_pse": "ASSYIFA NUSANTARA MEDIKA",
            "nama_se": "SIM KLINIK ROLAS MEDIKA SILIRAGUNG",
            "sektor": "Sektor Kesehatan",
            "tanggal_terbit": "2023-08-25",
            "url_tdpse_detail": "https://pse.komdigi.go.id/tdpse-detail/15718",
            "website": "-"
        },
        {
            "id": "9cb1ac49-c079-485b-8148-bb5b55f0b847",
            "nama_pse": "GAYA HIDUP SEHAT",
            "nama_se": "REBLOOD",
            "sektor": "Sektor Kesehatan, Sektor Teknologi Informasi dan Komunikasi",
            "tanggal_terbit": "2023-08-25",
            "url_tdpse_detail": "https://pse.komdigi.go.id/tdpse-detail/15719",
            "website": "reblood.com"
        },
        {
            "id": "9cb1ac3a-64e6-4355-9ec0-29c1f40ea04b",
            "nama_pse": "NUSANTARA SEBELAS MEDIKA",
            "nama_se": "SINUSA RS LAVALETTE MALANG",
            "sektor": "Sektor Kesehatan",
            "tanggal_terbit": "2023-08-25",
            "url_tdpse_detail": "https://pse.komdigi.go.id/tdpse-detail/15720",
            "website": "-"
        },
        {
            "id": "9cb1ac3a-68ee-42f0-a8bc-aa9403320ec5",
            "nama_pse": "NUSANTARA SEBELAS MEDIKA",
            "nama_se": "SINUSA RS WONOLANGAN",
            "sektor": "Sektor Kesehatan",
            "tanggal_terbit": "2023-08-25",
            "url_tdpse_detail": "https://pse.komdigi.go.id/tdpse-detail/15723",
            "website": "-"
        },
        {
            "id": "9cb1ac49-c3bf-4ea6-9bb1-4b6a8fe42e88",
            "nama_pse": "ANTON HERMAN MARANDY",
            "nama_se": "REKAAM",
            "sektor": "Sektor Teknologi Informasi dan Komunikasi",
            "tanggal_terbit": "2023-08-25",
            "url_tdpse_detail": "https://pse.komdigi.go.id/tdpse-detail/15724",
            "website": "-"
        },
        {
            "id": "9cb1ac49-c82d-4f86-8e1b-eb3db5c354da",
            "nama_pse": "AYUKAWA MEDIA NUSANTARA",
            "nama_se": "NAWALA KARSA",
            "sektor": "Sektor Teknologi Informasi dan Komunikasi",
            "tanggal_terbit": "2023-08-25",
            "url_tdpse_detail": "https://pse.komdigi.go.id/tdpse-detail/15725",
            "website": "nawalakarsa.id"
        },
        {
            "id": "9cb1ac49-cb07-4837-a599-e34c31e2df2e",
            "nama_pse": "MAV ENTERTAINMENT MEDIA INSPIRASI SAHABAT NUSANTARA TELEVISI",
            "nama_se": "MISNTV.COM",
            "sektor": "Sektor Teknologi Informasi dan Komunikasi",
            "tanggal_terbit": "2023-08-25",
            "url_tdpse_detail": "https://pse.komdigi.go.id/tdpse-detail/15726",
            "website": "misntv.com"
        },
        {
            "id": "9cb1ac27-1b24-4775-b968-aa1d423a03b8",
            "nama_pse": "SWA DIGITAL SOLUSINDO",
            "nama_se": "DEXTRA MEDIKA",
            "sektor": "Sektor Teknologi Informasi dan Komunikasi",
            "tanggal_terbit": "2023-08-24",
            "url_tdpse_detail": "https://pse.komdigi.go.id/tdpse-detail/15680",
            "website": "swadigitalsolusindo.com"
        },
        {
            "id": "9cb1ac49-5f7c-4118-bcc9-85559f1373e6",
            "nama_pse": "PRESTASI RETAIL INNOVATION",
            "nama_se": "FISIKFOOTBALL.COM",
            "sektor": "Sektor Perdagangan",
            "tanggal_terbit": "2023-08-24",
            "url_tdpse_detail": "https://pse.komdigi.go.id/tdpse-detail/15679",
            "website": "fisikfootball.com"
        },
        {
            "id": "9cb1ac49-7eb5-4782-87d2-90dc01d6bcc0",
            "nama_pse": "NOVATARA INDONESIA",
            "nama_se": "VESALIUS - HOSPITAL INFORMATION SYSTEM",
            "sektor": "Sektor Kesehatan, Sektor Teknologi Informasi dan Komunikasi",
            "tanggal_terbit": "2023-08-24",
            "url_tdpse_detail": "https://pse.komdigi.go.id/tdpse-detail/15675",
            "website": "-"
        },
        {
            "id": "9cb1ac27-998f-4708-a1bf-b84fc3ce576b",
            "nama_pse": "ATMA JAYA",
            "nama_se": "SIM KLINIK ATMA JAYA",
            "sektor": "Sektor Kesehatan",
            "tanggal_terbit": "2023-08-24",
            "url_tdpse_detail": "https://pse.komdigi.go.id/tdpse-detail/15676",
            "website": "-"
        },
        {
            "id": "9cb1ac49-889d-4942-bc3b-8a3574f59daf",
            "nama_pse": "BAITUL QIRADH BINA INSAN MANDIRI",
            "nama_se": "KOPERASI MOBILE ON LINE",
            "sektor": "Sektor Teknologi Informasi dan Komunikasi",
            "tanggal_terbit": "2023-08-24",
            "url_tdpse_detail": "https://pse.komdigi.go.id/tdpse-detail/15677",
            "website": "-"
        },
        {
            "id": "9cb1ac49-8ba8-4521-a8f2-d65e8aab3307",
            "nama_pse": "SUMBER HARUMAN NUSANTARA",
            "nama_se": "ALL-LEGAL",
            "sektor": "Sektor Perdagangan",
            "tanggal_terbit": "2023-08-24",
            "url_tdpse_detail": "https://pse.komdigi.go.id/tdpse-detail/15678",
            "website": "Alllegal.id"
        },
        {
            "id": "9cb1ac27-9d2d-4e2f-b575-86aeb5bb7601",
            "nama_pse": "SURYA ANUGERAH MEDIA",
            "nama_se": "SURYA ANUGERAH MEDIA",
            "sektor": "Sektor Teknologi Informasi dan Komunikasi",
            "tanggal_terbit": "2023-08-24",
            "url_tdpse_detail": "https://pse.komdigi.go.id/tdpse-detail/15681",
            "website": "samstudio.id"
        },
        {
            "id": "9cb1ac27-a04b-45d7-a194-0c7defadbcd6",
            "nama_pse": "NEXT PAGE LINE",
            "nama_se": "ACT STUDY (LEARNWORLDS)",
            "sektor": "Sektor Teknologi Informasi dan Komunikasi",
            "tanggal_terbit": "2023-08-24",
            "url_tdpse_detail": "https://pse.komdigi.go.id/tdpse-detail/15682",
            "website": "actstudy.asia"
        },
        {
            "id": "9cb1ac3a-415e-42bd-8c7a-2e9c81e8e307",
            "nama_pse": "DIVERSITY GLOBAL INDONESIA",
            "nama_se": "DIVERSITY",
            "sektor": "Sektor Perdagangan",
            "tanggal_terbit": "2023-08-24",
            "url_tdpse_detail": "https://pse.komdigi.go.id/tdpse-detail/15683",
            "website": "diversity.co.id"
        },
        {
            "id": "9cb1ac49-8eb3-4978-be59-a7e83d97e20a",
            "nama_pse": "KABAR ONLINE INDONESIA",
            "nama_se": "KABARONLINE.ID",
            "sektor": "Sektor Teknologi Informasi dan Komunikasi",
            "tanggal_terbit": "2023-08-24",
            "url_tdpse_detail": "https://pse.komdigi.go.id/tdpse-detail/15684",
            "website": "kabaronline.id"
        },
        {
            "id": "9cb1ac3a-43ce-4a2e-96e0-b12821d7b20b",
            "nama_pse": "MAJU FINANSIAL DIGITAL",
            "nama_se": "FINTIX",
            "sektor": "Sektor Teknologi Informasi dan Komunikasi",
            "tanggal_terbit": "2023-08-24",
            "url_tdpse_detail": "https://pse.komdigi.go.id/tdpse-detail/15685",
            "website": "fintix.id"
        },
        {
            "id": "9cb1ac3a-46ce-4c7a-9ce0-45757af96939",
            "nama_pse": "ANDRI RAHARJO",
            "nama_se": "KODE - AGEN PULSA PPOB",
            "sektor": "Sektor Perdagangan",
            "tanggal_terbit": "2023-08-24",
            "url_tdpse_detail": "https://pse.komdigi.go.id/tdpse-detail/15686",
            "website": "kode.co.id"
        },
        {
            "id": "9cb1ac49-9315-437e-bd27-0db289c7538d",
            "nama_pse": "RUMAH SAKIT UMUM DAERAH PANTI NUGROHO PURBALINGGA",
            "nama_se": "SIMRS PANTI NUGROHO",
            "sektor": "Sektor Kesehatan",
            "tanggal_terbit": "2023-08-24",
            "url_tdpse_detail": "https://pse.komdigi.go.id/tdpse-detail/15687",
            "website": "-"
        },
        {
            "id": "9cb1ac25-0c93-4289-ba71-d99299d3d345",
            "nama_pse": "PAM DIGITAL TEKNOLOGI",
            "nama_se": "PAM PLUS",
            "sektor": "Sektor Perdagangan",
            "tanggal_terbit": "2023-08-23",
            "url_tdpse_detail": "https://pse.komdigi.go.id/tdpse-detail/15663",
            "website": "pamplus.id"
        },
        {
            "id": "9cb1ac48-2f02-466b-9566-04f179b1453b",
            "nama_pse": "BAKTI TIMAH MEDIKA",
            "nama_se": "BAKTITIMAH ONE SYSTEM",
            "sektor": "Sektor Kesehatan",
            "tanggal_terbit": "2023-08-23",
            "url_tdpse_detail": "https://pse.komdigi.go.id/tdpse-detail/15664",
            "website": "baktitimah.co.id"
        },
        {
            "id": "9cb1ac49-5770-42f4-b9c5-e03f3a7a9b1a",
            "nama_pse": "SUPER BANK INDONESIA",
            "nama_se": "SUPERBANK",
            "sektor": "Sektor Keuangan",
            "tanggal_terbit": "2023-08-23",
            "url_tdpse_detail": "https://pse.komdigi.go.id/tdpse-detail/15656",
            "website": "-"
        },
        {
            "id": "9cb1ac49-68e5-42ff-bacb-22339c982fd9",
            "nama_pse": "PRESTASI RETAIL INNOVATION",
            "nama_se": "MIZUNO.ID",
            "sektor": "Sektor Perdagangan",
            "tanggal_terbit": "2023-08-23",
            "url_tdpse_detail": "https://pse.komdigi.go.id/tdpse-detail/15654",
            "website": "mizuno.id"
        },
        {
            "id": "9cb1ac49-6b8f-4621-b941-5b4069dbabc1",
            "nama_pse": "BTASKEE TECHNOLOGY INDONESIA",
            "nama_se": "BTASKEE",
            "sektor": "Sektor Teknologi Informasi dan Komunikasi",
            "tanggal_terbit": "2023-08-23",
            "url_tdpse_detail": "https://pse.komdigi.go.id/tdpse-detail/15655",
            "website": "-"
        },
        {
            "id": "9cb1ac49-7014-4786-941e-ac8d95d17c4f",
            "nama_pse": "BTASKEE TECHNOLOGY INDONESIA",
            "nama_se": "BTASKEE PARTNER",
            "sektor": "Sektor Teknologi Informasi dan Komunikasi",
            "tanggal_terbit": "2023-08-23",
            "url_tdpse_detail": "https://pse.komdigi.go.id/tdpse-detail/15658",
            "website": "-"
        },
        {
            "id": "9cb1ac49-72f2-486f-8771-99160b567206",
            "nama_pse": "PRESTASI RETAIL INNOVATION",
            "nama_se": "PIEROINDONESIA.COM",
            "sektor": "Sektor Perdagangan",
            "tanggal_terbit": "2023-08-23",
            "url_tdpse_detail": "https://pse.komdigi.go.id/tdpse-detail/15659",
            "website": "pieroindonesia.com"
        },
        {
            "id": "9cb1ac3a-2742-4cdc-b90b-04999580cc04",
            "nama_pse": "SOLUSI EONE BYTE",
            "nama_se": "EONE",
            "sektor": "Sektor Perdagangan, Sektor Teknologi Informasi dan Komunikasi",
            "tanggal_terbit": "2023-08-23",
            "url_tdpse_detail": "https://pse.komdigi.go.id/tdpse-detail/15660",
            "website": "eone.biz.id"
        },
        {
            "id": "9cb1ac49-758d-491c-a418-0791627e5816",
            "nama_pse": "SARANA KREATOR TEKNOLOGI",
            "nama_se": "SLICE",
            "sektor": "Sektor Teknologi Informasi dan Komunikasi",
            "tanggal_terbit": "2023-08-23",
            "url_tdpse_detail": "https://pse.komdigi.go.id/tdpse-detail/15668",
            "website": "slice.id"
        },
        {
            "id": "9cb1ac27-96ef-4b1a-a325-9b0fe4ad2d1b",
            "nama_pse": "PENERBIT BUKU ERLANGGA MAHAMERU",
            "nama_se": "ERLANGGAPEDIA.ID",
            "sektor": "Sektor Teknologi Informasi dan Komunikasi",
            "tanggal_terbit": "2023-08-23",
            "url_tdpse_detail": "https://pse.komdigi.go.id/tdpse-detail/18117",
            "website": "erlanggapedia.id"
        },
        {
            "id": "9cb1ac3a-31fa-479c-96fa-2b3267f3240f",
            "nama_pse": "RAKSA BAKSYA SANDIKA",
            "nama_se": "SOFTMEDIX - HASPRO HOSPITAL ASSISTANT PRO",
            "sektor": "Sektor Kesehatan, Sektor Teknologi Informasi dan Komunikasi",
            "tanggal_terbit": "2023-08-23",
            "url_tdpse_detail": "https://pse.komdigi.go.id/tdpse-detail/15665",
            "website": "softmedix.com"
        },
        {
            "id": "9cb1ac49-7903-407b-97f9-944580ba95be",
            "nama_pse": "TEKNO INSAN MANDIRI",
            "nama_se": "TARADMC",
            "sektor": "Sektor Perdagangan, Sektor Teknologi Informasi dan Komunikasi",
            "tanggal_terbit": "2023-08-23",
            "url_tdpse_detail": "https://pse.komdigi.go.id/tdpse-detail/15667",
            "website": "taradmc.com"
        },
        {
            "id": "9cb1ac3a-34ca-4595-b5b3-33dd2019c269",
            "nama_pse": "RUMAH SAKIT PELABUHAN",
            "nama_se": "SIMOP RS PELABUHAN CIREBON",
            "sektor": "Sektor Kesehatan",
            "tanggal_terbit": "2023-08-23",
            "url_tdpse_detail": "https://pse.komdigi.go.id/tdpse-detail/15669",
            "website": "-"
        },
        {
            "id": "9cb1ac49-7c0c-4b88-8eba-9e4c1f6c71bc",
            "nama_pse": "RAKSA BAKSYA SANDIKA",
            "nama_se": "SOFTMEDIX - LAB. ASSISTANT PRO LASPRO",
            "sektor": "Sektor Kesehatan, Sektor Teknologi Informasi dan Komunikasi",
            "tanggal_terbit": "2023-08-23",
            "url_tdpse_detail": "https://pse.komdigi.go.id/tdpse-detail/15670",
            "website": "-"
        },
        {
            "id": "9cb1ac3a-3785-445a-862c-20dbf357c02f",
            "nama_pse": "RAKSA BAKSYA SANDIKA",
            "nama_se": "SOFTMEDIX - RAD. ASSISTANT PRO RASPRO",
            "sektor": "Sektor Kesehatan, Sektor Teknologi Informasi dan Komunikasi",
            "tanggal_terbit": "2023-08-23",
            "url_tdpse_detail": "https://pse.komdigi.go.id/tdpse-detail/15671",
            "website": "-"
        },
        {
            "id": "9cb1ac3a-3c7a-4f3f-bfc3-4306c354e930",
            "nama_pse": "APRIANIL SESTI RANGGA",
            "nama_se": "CLOSA",
            "sektor": "Sektor Teknologi Informasi dan Komunikasi",
            "tanggal_terbit": "2023-08-23",
            "url_tdpse_detail": "https://pse.komdigi.go.id/tdpse-detail/15672",
            "website": "closa.me"
        },
        {
            "id": "9cb1ac49-81c9-4535-87a1-1cee06c475f5",
            "nama_pse": "NUSANTARA MEDIKA UTAMA",
            "nama_se": "HIS SIMFONIA PT NMU",
            "sektor": "Sektor Kesehatan, Sektor Teknologi Informasi dan Komunikasi",
            "tanggal_terbit": "2023-08-23",
            "url_tdpse_detail": "https://pse.komdigi.go.id/tdpse-detail/15673",
            "website": "rsgatoel.co.id"
        }
    ],
    "processingTimeMs": 5,
    "query": "",
    "totalHits": 19121,
    "hitsPerPage": 50,
    "page": 124,
    "totalPages": 383
}