{
    "hits": [
        {
            "id": "9cb1ac13-308f-4c26-a634-1f25b2269b67",
            "nama_pse": "SAMSUNG ELECTRONICS INDONESIA",
            "nama_se": "FINDMYMOBILE",
            "sektor": "Sektor Teknologi Informasi dan Komunikasi",
            "tanggal_terbit": "2022-10-18",
            "url_tdpse_detail": "https://pse.komdigi.go.id/tdpse-detail/11866",
            "website": "findmymobile.samsung"
        },
        {
            "id": "9cb1ac04-9603-498a-98d0-d28389513da3",
            "nama_pse": "BIRO PERJALANAN UMUM NUSATOVEL",
            "nama_se": "NUSANTARATOUR.CO.ID",
            "sektor": "Sektor Perdagangan",
            "tanggal_terbit": "2022-10-18",
            "url_tdpse_detail": "https://pse.komdigi.go.id/tdpse-detail/11867",
            "website": "nusantaratour.co.id"
        },
        {
            "id": "9cb1ac04-9d69-47ef-9448-16e2cbe63be2",
            "nama_pse": "LIVECOM DIGITAL INDONESIA",
            "nama_se": "LIVEHAF.COM",
            "sektor": "Sektor Perdagangan",
            "tanggal_terbit": "2022-10-18",
            "url_tdpse_detail": "https://pse.komdigi.go.id/tdpse-detail/11868",
            "website": "-"
        },
        {
            "id": "9cb1ac13-3499-43b2-8951-66a88e1b6c0e",
            "nama_pse": "ANTARIKSA NETWORK MEDIA DIGITAL",
            "nama_se": "PRIANGAN HOSTING",
            "sektor": "Sektor Teknologi Informasi dan Komunikasi",
            "tanggal_terbit": "2022-10-18",
            "url_tdpse_detail": "https://pse.komdigi.go.id/tdpse-detail/11870",
            "website": "prianganhosting.com"
        },
        {
            "id": "9cb1ac13-383c-4661-b3e2-de7c5120f3bb",
            "nama_pse": "BLITZNET UPAYA INDONESIA",
            "nama_se": "BLITZNET.CO.ID",
            "sektor": "Sektor Perdagangan, Sektor Teknologi Informasi dan Komunikasi",
            "tanggal_terbit": "2022-10-18",
            "url_tdpse_detail": "https://pse.komdigi.go.id/tdpse-detail/11871",
            "website": "blitznet.co.id"
        },
        {
            "id": "9cb1abe0-52d1-44d4-bd87-88ab489167f6",
            "nama_pse": "BLITZNET UPAYA INDONESIA",
            "nama_se": "BLITZNET",
            "sektor": "Sektor Perdagangan, Sektor Teknologi Informasi dan Komunikasi",
            "tanggal_terbit": "2022-10-18",
            "url_tdpse_detail": "https://pse.komdigi.go.id/tdpse-detail/11872",
            "website": "blitznet.co.id"
        },
        {
            "id": "9cb1abe0-56f8-46a2-b0c8-742ae2c78871",
            "nama_pse": "LANCAR REKA SAMPURNA",
            "nama_se": "MEETDENTIST",
            "sektor": "Sektor Perdagangan, Sektor Kesehatan, Sektor Teknologi Informasi dan Komunikasi",
            "tanggal_terbit": "2022-10-18",
            "url_tdpse_detail": "https://pse.komdigi.go.id/tdpse-detail/11873",
            "website": "meetDentist.id"
        },
        {
            "id": "9cb1abfa-821c-4934-a9dd-9ecc4474921e",
            "nama_pse": "PELITA TEKNOLOGI SENTOSA",
            "nama_se": "DIGIPPOB",
            "sektor": "Sektor Teknologi Informasi dan Komunikasi",
            "tanggal_terbit": "2022-10-17",
            "url_tdpse_detail": "https://pse.komdigi.go.id/tdpse-detail/9867",
            "website": "digippob.com"
        },
        {
            "id": "9cb1abdf-ad1a-45ae-b522-5e91d6a6c92e",
            "nama_pse": "WANGSA KELING SAKA KAMULYAN",
            "nama_se": "MISTER QIU",
            "sektor": "Sektor Perdagangan",
            "tanggal_terbit": "2022-10-17",
            "url_tdpse_detail": "https://pse.komdigi.go.id/tdpse-detail/11752",
            "website": "-"
        },
        {
            "id": "9cb1ac12-d185-4fd7-82cc-2935dbc31f02",
            "nama_pse": "INTEGRITAS SOLUSI MEDIKA",
            "nama_se": "ISOCARE CLINIC",
            "sektor": "Sektor Kesehatan, Sektor Teknologi Informasi dan Komunikasi",
            "tanggal_terbit": "2022-10-17",
            "url_tdpse_detail": "https://pse.komdigi.go.id/tdpse-detail/11820",
            "website": "isomedik.com"
        },
        {
            "id": "9cb1ac04-5c0e-4305-b15c-ba0b36dba22f",
            "nama_pse": "JASA KELOLA ASIA",
            "nama_se": "BERANDATOKO",
            "sektor": "Sektor Teknologi Informasi dan Komunikasi",
            "tanggal_terbit": "2022-10-17",
            "url_tdpse_detail": "https://pse.komdigi.go.id/tdpse-detail/11821",
            "website": "jatismobile.com"
        },
        {
            "id": "9cb1ac12-d55e-4814-806a-0c1264c669ec",
            "nama_pse": "NEX TEKNOLOGI DIGITAL",
            "nama_se": "NEX APP",
            "sektor": "Sektor Teknologi Informasi dan Komunikasi",
            "tanggal_terbit": "2022-10-17",
            "url_tdpse_detail": "https://pse.komdigi.go.id/tdpse-detail/11822",
            "website": "nexapp.co"
        },
        {
            "id": "9cb1ac12-d919-4e0a-a458-c7d48abd209a",
            "nama_pse": "INFORMASI TEKNOLOGI INDONESIA",
            "nama_se": "BERANDATOKO",
            "sektor": "Sektor Teknologi Informasi dan Komunikasi",
            "tanggal_terbit": "2022-10-17",
            "url_tdpse_detail": "https://pse.komdigi.go.id/tdpse-detail/11823",
            "website": "jatismobile.com"
        },
        {
            "id": "9cb1abe0-1881-4da8-ab1a-e7d3a80b5442",
            "nama_pse": "TOYOTA-ASTRA MOTOR",
            "nama_se": "WEBSITE LEXUS INDONESIA: LEXUS.CO.ID",
            "sektor": "Sektor Perdagangan, Sektor Teknologi Informasi dan Komunikasi",
            "tanggal_terbit": "2022-10-17",
            "url_tdpse_detail": "https://pse.komdigi.go.id/tdpse-detail/11824",
            "website": "lexus.co.id"
        },
        {
            "id": "9cb1ac12-dc93-4e45-8941-5285dc1084c2",
            "nama_pse": "TOYOTA-ASTRA MOTOR",
            "nama_se": "LEXUS REACH MOBILE APP",
            "sektor": "Sektor Perdagangan, Sektor Transportasi, Sektor Teknologi Informasi dan Komunikasi",
            "tanggal_terbit": "2022-10-17",
            "url_tdpse_detail": "https://pse.komdigi.go.id/tdpse-detail/11825",
            "website": "cms.lexus.co.id"
        },
        {
            "id": "9cb1ac12-e00f-4447-8e92-ba84b0071fb6",
            "nama_pse": "DWI DAYA WORLD WIDE",
            "nama_se": "WWW.DWIDAYATOUR.CO.ID",
            "sektor": "Sektor Perdagangan",
            "tanggal_terbit": "2022-10-17",
            "url_tdpse_detail": "https://pse.komdigi.go.id/tdpse-detail/11826",
            "website": "dwidayatour.co.id"
        },
        {
            "id": "9cb1abe0-1c7d-4b95-a175-bfedf53201f1",
            "nama_pse": "BANK PEMBIAYAAN RAKYAT SYARIAH GALA MITRA ABADI",
            "nama_se": "ISLAMIC BANKING APLICATION (IBA)",
            "sektor": "Sektor Keuangan",
            "tanggal_terbit": "2022-10-17",
            "url_tdpse_detail": "https://pse.komdigi.go.id/tdpse-detail/11827",
            "website": "bprsgma.co.id"
        },
        {
            "id": "9cb1ac04-6001-4f25-929b-940ea1ad8843",
            "nama_pse": "SERUNI AMAN SEJAHTERA",
            "nama_se": "SERUNI",
            "sektor": "Sektor Teknologi Informasi dan Komunikasi",
            "tanggal_terbit": "2022-10-17",
            "url_tdpse_detail": "https://pse.komdigi.go.id/tdpse-detail/11828",
            "website": "seruniaman.id"
        },
        {
            "id": "9cb1ac12-e3ae-439e-b5d4-8606291cc178",
            "nama_pse": "FLEXI TEKNOLOGI INDONESIA",
            "nama_se": "FLEXY TECHNOLOGY",
            "sektor": "Sektor Perdagangan, Sektor Teknologi Informasi dan Komunikasi",
            "tanggal_terbit": "2022-10-17",
            "url_tdpse_detail": "https://pse.komdigi.go.id/tdpse-detail/11829",
            "website": "flexy.id"
        },
        {
            "id": "9cb1ac12-e7a4-499f-8706-8ea673241074",
            "nama_pse": "ASURANSI JIWA IFG",
            "nama_se": "IFGPAY",
            "sektor": "Sektor Keuangan",
            "tanggal_terbit": "2022-10-17",
            "url_tdpse_detail": "https://pse.komdigi.go.id/tdpse-detail/11830",
            "website": "ifgpay.life.id"
        },
        {
            "id": "9cb1ac04-671a-4769-916b-19c64e8cf9d9",
            "nama_pse": "HAYUNI AMAN SEJAHTERA",
            "nama_se": "HAYUNI",
            "sektor": "Sektor Teknologi Informasi dan Komunikasi",
            "tanggal_terbit": "2022-10-17",
            "url_tdpse_detail": "https://pse.komdigi.go.id/tdpse-detail/11831",
            "website": "hayuni.id"
        },
        {
            "id": "9cb1ac04-6a6d-4204-a723-e086a060183c",
            "nama_pse": "ASURANSI JIWA IFG",
            "nama_se": "LIFEFORCE",
            "sektor": "Sektor Keuangan",
            "tanggal_terbit": "2022-10-17",
            "url_tdpse_detail": "https://pse.komdigi.go.id/tdpse-detail/11832",
            "website": "force.life.id"
        },
        {
            "id": "9cb1ac04-6dc0-4333-8970-e11ad26f89b6",
            "nama_pse": "SOLUSI INKLUSI FINANSIAL",
            "nama_se": "FINPEDIA",
            "sektor": "Sektor Keuangan",
            "tanggal_terbit": "2022-10-17",
            "url_tdpse_detail": "https://pse.komdigi.go.id/tdpse-detail/11833",
            "website": "finpedia.id"
        },
        {
            "id": "9cb1abe0-1fad-482c-a46c-6d0935b3cd08",
            "nama_pse": "CIPTA FASILITAS SATU",
            "nama_se": "MEKARI FLEX",
            "sektor": "Sektor Teknologi Informasi dan Komunikasi",
            "tanggal_terbit": "2022-10-17",
            "url_tdpse_detail": "https://pse.komdigi.go.id/tdpse-detail/11834",
            "website": "mekari.com"
        },
        {
            "id": "9cb1ac12-eb43-4ddd-9afe-52fd166d2354",
            "nama_pse": "TEKNOLOGI GOTONG ROYONG",
            "nama_se": "GORO",
            "sektor": "Sektor Perdagangan",
            "tanggal_terbit": "2022-10-17",
            "url_tdpse_detail": "https://pse.komdigi.go.id/tdpse-detail/11835",
            "website": "goro.id"
        },
        {
            "id": "9cb1ac04-7149-4230-a34e-14175bc0c331",
            "nama_pse": "TRANS MEDIA INFORMASI",
            "nama_se": "SLN70-NEWS",
            "sektor": "Sektor Teknologi Informasi dan Komunikasi",
            "tanggal_terbit": "2022-10-17",
            "url_tdpse_detail": "https://pse.komdigi.go.id/tdpse-detail/11836",
            "website": "sln70-news.com"
        },
        {
            "id": "9cb1abe0-14cb-40b0-831c-a71cba934fa0",
            "nama_pse": "M AKBAR PRIBADI",
            "nama_se": "AQIQAHUP.ID",
            "sektor": "Sektor Teknologi Informasi dan Komunikasi",
            "tanggal_terbit": "2022-10-16",
            "url_tdpse_detail": "https://pse.komdigi.go.id/tdpse-detail/11814",
            "website": "aqiqahup.id"
        },
        {
            "id": "9cb1ac04-4d7e-407f-a7fc-4c21dcc3257e",
            "nama_pse": "BIG DEAL CREATIVE",
            "nama_se": "JASA INSTALASI \u0026 TROUBLESHOOTING SISTEM",
            "sektor": "Sektor Teknologi Informasi dan Komunikasi",
            "tanggal_terbit": "2022-10-16",
            "url_tdpse_detail": "https://pse.komdigi.go.id/tdpse-detail/11815",
            "website": "-"
        },
        {
            "id": "9cb1ac04-50e7-425a-ae37-1a8a9ea272b6",
            "nama_pse": "TORTIE KREATIF TEKNOLOGI",
            "nama_se": "ECOGROOVI",
            "sektor": "Sektor Teknologi Informasi dan Komunikasi",
            "tanggal_terbit": "2022-10-16",
            "url_tdpse_detail": "https://pse.komdigi.go.id/tdpse-detail/11816",
            "website": "ecogroovi.com"
        },
        {
            "id": "9cb1ac04-5500-4372-956e-598820c2968a",
            "nama_pse": "ESTETIKA PRIMA DUTI UTAMA",
            "nama_se": "APLIKASI ESTETIKA DR. AFFANDI",
            "sektor": "Sektor Perdagangan, Sektor Kesehatan",
            "tanggal_terbit": "2022-10-16",
            "url_tdpse_detail": "https://pse.komdigi.go.id/tdpse-detail/11817",
            "website": "klinikestetika.com"
        },
        {
            "id": "9cb1ac12-ce0c-4cc7-8017-23d31a7b2a77",
            "nama_pse": "ESTETIKA PRIMA DUTI UTAMA",
            "nama_se": "WEBSITE KLINIKESTETIKA.COM",
            "sektor": "Sektor Perdagangan, Sektor Kesehatan",
            "tanggal_terbit": "2022-10-16",
            "url_tdpse_detail": "https://pse.komdigi.go.id/tdpse-detail/11818",
            "website": "klinikestetika.com"
        },
        {
            "id": "9cb1ac04-58c1-485e-90e6-b0fff3dcef89",
            "nama_pse": "CYBE INDONESIA DIGITECPRO",
            "nama_se": "CYBE SECURITY",
            "sektor": "Sektor Perdagangan, Sektor Teknologi Informasi dan Komunikasi, Sektor Pertahanan dan Keamanan",
            "tanggal_terbit": "2022-10-16",
            "url_tdpse_detail": "https://pse.komdigi.go.id/tdpse-detail/11819",
            "website": "cybe.tech"
        },
        {
            "id": "9cb1abe0-0c39-47fa-951e-addac1cc318d",
            "nama_pse": "ESTETIKA PRIMA DUTI UTAMA",
            "nama_se": "KLINIKESTETIKA.COM ESTETIKA DR. AFFANDI APPS",
            "sektor": "Sektor Perdagangan, Sektor Kesehatan",
            "tanggal_terbit": "2022-10-15",
            "url_tdpse_detail": "https://pse.komdigi.go.id/tdpse-detail/11812",
            "website": "klinikestetika.com"
        },
        {
            "id": "9cb1ac04-4a41-4d1d-8122-26056400910b",
            "nama_pse": "RIAN YULIANDRI",
            "nama_se": "DELIFREE",
            "sektor": "Sektor Perdagangan",
            "tanggal_terbit": "2022-10-15",
            "url_tdpse_detail": "https://pse.komdigi.go.id/tdpse-detail/11813",
            "website": "-"
        },
        {
            "id": "9cb1ac12-bab5-4884-9bf9-2e2b891f8edc",
            "nama_pse": "DIGITAL KREASI PEMBAYARAN",
            "nama_se": "EZTRANS",
            "sektor": "Sektor Keuangan",
            "tanggal_terbit": "2022-10-14",
            "url_tdpse_detail": "https://pse.komdigi.go.id/tdpse-detail/11796",
            "website": "eztrans.co.id"
        },
        {
            "id": "9cb1abdf-fee4-4250-b601-2e4da714f8f0",
            "nama_pse": "AUTENTIKA DIGITAL INDONESIA",
            "nama_se": "UNOID",
            "sektor": "Sektor Teknologi Informasi dan Komunikasi",
            "tanggal_terbit": "2022-10-14",
            "url_tdpse_detail": "https://pse.komdigi.go.id/tdpse-detail/11797",
            "website": "unoid.id"
        },
        {
            "id": "9cb1ac12-beab-466d-b5e7-fbc605753be5",
            "nama_pse": "AUTENTIKA DIGITAL INDONESIA",
            "nama_se": "UNOFACE",
            "sektor": "Sektor Teknologi Informasi dan Komunikasi",
            "tanggal_terbit": "2022-10-14",
            "url_tdpse_detail": "https://pse.komdigi.go.id/tdpse-detail/11798",
            "website": "unoface.id"
        },
        {
            "id": "9cb1abe0-0307-46cb-a6f8-4417b597b2e5",
            "nama_pse": "BANK PERKREDITAN RAKYAT YUKA JAYA",
            "nama_se": "BPR YUKA JAYA",
            "sektor": "Sektor Keuangan",
            "tanggal_terbit": "2022-10-14",
            "url_tdpse_detail": "https://pse.komdigi.go.id/tdpse-detail/11799",
            "website": "-"
        },
        {
            "id": "9cb1ac04-1216-42ec-aa51-01fb0f28978b",
            "nama_pse": "AIRA YUMNA KOMPUTINDO",
            "nama_se": "GOBEN",
            "sektor": "Sektor Transportasi, Sektor Teknologi Informasi dan Komunikasi",
            "tanggal_terbit": "2022-10-14",
            "url_tdpse_detail": "https://pse.komdigi.go.id/tdpse-detail/11801",
            "website": "goben.website"
        },
        {
            "id": "9cb1ac04-1c2f-43b7-80b9-89c7867f1d8c",
            "nama_pse": "ILHAM MULYANDI",
            "nama_se": "XINN STORE",
            "sektor": "Sektor Perdagangan",
            "tanggal_terbit": "2022-10-14",
            "url_tdpse_detail": "https://pse.komdigi.go.id/tdpse-detail/11802",
            "website": "xinnstore.com"
        },
        {
            "id": "9cb1ac04-1fb2-4820-a3f7-1ef95dd261e4",
            "nama_pse": "ROSELINE SITORUS",
            "nama_se": "MARCHERIE",
            "sektor": "Sektor Perdagangan",
            "tanggal_terbit": "2022-10-14",
            "url_tdpse_detail": "https://pse.komdigi.go.id/tdpse-detail/11803",
            "website": "marcherie.shop"
        },
        {
            "id": "9cb1ac12-c341-4869-a145-d94085c909e2",
            "nama_pse": "LEICA GEOSYSTEMS",
            "nama_se": "PT LEICA GEOSYSTEMS",
            "sektor": "Sektor Teknologi Informasi dan Komunikasi",
            "tanggal_terbit": "2022-10-14",
            "url_tdpse_detail": "https://pse.komdigi.go.id/tdpse-detail/11804",
            "website": "HEXAGON.COM"
        },
        {
            "id": "9cb1ac04-23c3-4122-8fb9-b2cf630811cd",
            "nama_pse": "SOLUSI PENJAMINAN AMAN",
            "nama_se": "PENJAMINAN ONLINE",
            "sektor": "Sektor Teknologi Informasi dan Komunikasi",
            "tanggal_terbit": "2022-10-14",
            "url_tdpse_detail": "https://pse.komdigi.go.id/tdpse-detail/11805",
            "website": "penjaminan-online.id"
        },
        {
            "id": "9cb1ac04-384d-45e1-b9e6-5f2aa2e7914c",
            "nama_pse": "BANK PERKREDITAN RAKYAT WIRADHANA PUTRAMAS",
            "nama_se": "WP APP",
            "sektor": "Sektor Keuangan",
            "tanggal_terbit": "2022-10-14",
            "url_tdpse_detail": "https://pse.komdigi.go.id/tdpse-detail/11806",
            "website": "bprwiradhana.com"
        },
        {
            "id": "9cb1ac12-c6cb-430e-846e-ff82100c36f5",
            "nama_pse": "ZEROS MERCUSUAR TEKNOLOGI",
            "nama_se": "ALMUTASI",
            "sektor": "Sektor Keuangan, Sektor Teknologi Informasi dan Komunikasi",
            "tanggal_terbit": "2022-10-14",
            "url_tdpse_detail": "https://pse.komdigi.go.id/tdpse-detail/11807",
            "website": "almutasi.com"
        },
        {
            "id": "9cb1ac04-3e90-483b-bd06-87055837a0f5",
            "nama_pse": "DENVEGRAHA",
            "nama_se": "DNV DIGITAL SOLUTIONS",
            "sektor": "Sektor Perdagangan, Sektor Teknologi Informasi dan Komunikasi",
            "tanggal_terbit": "2022-10-14",
            "url_tdpse_detail": "https://pse.komdigi.go.id/tdpse-detail/11808",
            "website": "dnv.com"
        },
        {
            "id": "9cb1abe0-0688-4ae8-b54f-804e35bdc14f",
            "nama_pse": "ALFAOMERA NUSANTARA JAYA",
            "nama_se": "SPEEDBOAT ONLINE",
            "sektor": "Sektor Teknologi Informasi dan Komunikasi",
            "tanggal_terbit": "2022-10-14",
            "url_tdpse_detail": "https://pse.komdigi.go.id/tdpse-detail/11809",
            "website": "speedonline.co.id"
        },
        {
            "id": "9cb1abe0-097d-45f8-942b-5274471bd2d4",
            "nama_pse": "BENTANG CIPTA INFOTAMA",
            "nama_se": "KLINIKQT",
            "sektor": "Sektor Kesehatan",
            "tanggal_terbit": "2022-10-14",
            "url_tdpse_detail": "https://pse.komdigi.go.id/tdpse-detail/11811",
            "website": "klinikqt.com"
        },
        {
            "id": "9cb1ac12-b35f-434b-9f07-0b967d091970",
            "nama_pse": "INDO BALI INVESTASI",
            "nama_se": "HTTPS://BALIBUILDINGSOLUTIONS.COM/",
            "sektor": "Sektor Perdagangan",
            "tanggal_terbit": "2022-10-13",
            "url_tdpse_detail": "https://pse.komdigi.go.id/tdpse-detail/11790",
            "website": "-"
        },
        {
            "id": "9cb1ac03-f4a1-4e63-996c-93eb73947d1a",
            "nama_pse": "TANRAZ STRATEGI UTAMA",
            "nama_se": "ADOP ONLINE",
            "sektor": "Sektor Perdagangan",
            "tanggal_terbit": "2022-10-13",
            "url_tdpse_detail": "https://pse.komdigi.go.id/tdpse-detail/11784",
            "website": "-"
        }
    ],
    "processingTimeMs": 3,
    "query": "",
    "totalHits": 19131,
    "hitsPerPage": 50,
    "page": 177,
    "totalPages": 383
}