{
    "hits": [
        {
            "id": "9cb1abcf-c6ce-4490-b53c-b474e8a355d4",
            "nama_pse": "EKA AKAR JATI",
            "nama_se": "LANDING PAGE COMPROF PT EKA AKAR JATI",
            "sektor": "Sektor Teknologi Informasi dan Komunikasi",
            "tanggal_terbit": "2022-07-28",
            "url_tdpse_detail": "https://pse.komdigi.go.id/tdpse-detail/9323",
            "website": "Ekaakarjati.id"
        },
        {
            "id": "9cb1abcf-cb53-46fb-83d4-97fff6fca280",
            "nama_pse": "CAKRAWALA PUTRA NUSANTARA",
            "nama_se": "LOCKER",
            "sektor": "Sektor Teknologi Informasi dan Komunikasi",
            "tanggal_terbit": "2022-07-28",
            "url_tdpse_detail": "https://pse.komdigi.go.id/tdpse-detail/9324",
            "website": "shell.sadix.com"
        },
        {
            "id": "9cb1abcf-ce73-43e7-abab-befb5a536085",
            "nama_pse": "CAKRAWALA PUTRA NUSANTARA",
            "nama_se": "LOCKER API",
            "sektor": "Sektor Teknologi Informasi dan Komunikasi",
            "tanggal_terbit": "2022-07-28",
            "url_tdpse_detail": "https://pse.komdigi.go.id/tdpse-detail/9325",
            "website": "apishell.sadix.com"
        },
        {
            "id": "9cb1abf6-091e-4e49-b4c0-1995d5eb46fe",
            "nama_pse": "CAKRAWALA PUTRA NUSANTARA",
            "nama_se": "CVM (CUSTOMER VALUE MANAGEMENT)",
            "sektor": "Sektor Teknologi Informasi dan Komunikasi",
            "tanggal_terbit": "2022-07-28",
            "url_tdpse_detail": "https://pse.komdigi.go.id/tdpse-detail/9326",
            "website": "cvm.sadix.com"
        },
        {
            "id": "9cb1abf6-1274-412b-a182-b7fc73378ab1",
            "nama_pse": "CAKRAWALA PUTRA NUSANTARA",
            "nama_se": "SADIX API FOR SHARE",
            "sektor": "Sektor Teknologi Informasi dan Komunikasi",
            "tanggal_terbit": "2022-07-28",
            "url_tdpse_detail": "https://pse.komdigi.go.id/tdpse-detail/9328",
            "website": "sadixapi.sadix.com"
        },
        {
            "id": "9cb1abd0-b2bd-40ee-8459-d787ff08c161",
            "nama_pse": "WIDEA KALYA TEKNOLOGI",
            "nama_se": "WIDEA",
            "sektor": "Sektor Perdagangan, Sektor Kesehatan, Sektor Teknologi Informasi dan Komunikasi",
            "tanggal_terbit": "2022-07-28",
            "url_tdpse_detail": "https://pse.komdigi.go.id/tdpse-detail/9329",
            "website": "widea.co.id"
        },
        {
            "id": "9cb1abcf-d225-4940-81ee-824e3c753a96",
            "nama_pse": "BANK PERKREDITAN RAKYAT TORAYA",
            "nama_se": "PORTAL WEBSITE PT. BANK PERKREDITAN RAKYAT TORAYA",
            "sektor": "Sektor Keuangan",
            "tanggal_terbit": "2022-07-28",
            "url_tdpse_detail": "https://pse.komdigi.go.id/tdpse-detail/9330",
            "website": "banktoraya.co.id"
        },
        {
            "id": "9cb1abd0-b633-4519-91d8-d05638e312fc",
            "nama_pse": "GUARDI INDONESIA RAYA",
            "nama_se": "APLIKASI ANDROID DAN IOS KLUB SEHAT INDONESIA",
            "sektor": "Sektor Kesehatan",
            "tanggal_terbit": "2022-07-28",
            "url_tdpse_detail": "https://pse.komdigi.go.id/tdpse-detail/9331",
            "website": "klubsehat.com"
        },
        {
            "id": "9cb1abf6-1f84-4e78-8a00-58f2920b1b56",
            "nama_pse": "CYRAMETA EXCHANGE INDONESIA",
            "nama_se": "CYRA",
            "sektor": "Sektor Perdagangan",
            "tanggal_terbit": "2022-07-28",
            "url_tdpse_detail": "https://pse.komdigi.go.id/tdpse-detail/9332",
            "website": "cyra.exchange"
        },
        {
            "id": "9cb1abf6-274c-4a7d-ae1c-d7a3bd1a34cc",
            "nama_pse": "MEGA CEMERLANG INDONESIA",
            "nama_se": "MEGAKAMERA",
            "sektor": "Sektor Perdagangan",
            "tanggal_terbit": "2022-07-28",
            "url_tdpse_detail": "https://pse.komdigi.go.id/tdpse-detail/9334",
            "website": "megakamera.com"
        },
        {
            "id": "9cb1abf6-2a98-4280-9dc4-e7e1ada006ef",
            "nama_pse": "JEJARING EMAS KOMUNIKASI",
            "nama_se": "SMART GOVERNMENT",
            "sektor": "Sektor Teknologi Informasi dan Komunikasi",
            "tanggal_terbit": "2022-07-28",
            "url_tdpse_detail": "https://pse.komdigi.go.id/tdpse-detail/9335",
            "website": "smartgovernment.id"
        },
        {
            "id": "9cb1abd0-b98d-4d42-ab21-3c08a314134a",
            "nama_pse": "INDRAWATI",
            "nama_se": "PT.JAKARTA INTERNATIONAL MANAGEMENT (JIM MODELS)",
            "sektor": "Sektor Teknologi Informasi dan Komunikasi",
            "tanggal_terbit": "2022-07-28",
            "url_tdpse_detail": "https://pse.komdigi.go.id/tdpse-detail/9336",
            "website": "jimmodel.co"
        },
        {
            "id": "9cb1abcf-d89b-4f2b-bab3-f8441ca0cd65",
            "nama_pse": "TANI PRO INDONESIA",
            "nama_se": "TANIPRO",
            "sektor": "Sektor Perdagangan",
            "tanggal_terbit": "2022-07-28",
            "url_tdpse_detail": "https://pse.komdigi.go.id/tdpse-detail/9337",
            "website": "tanipro.org"
        },
        {
            "id": "9cb1abf6-2e51-4b41-80c4-c4468d696a59",
            "nama_pse": "TANI PRO INDONESIA",
            "nama_se": "BUMDES PRO DIGITAL",
            "sektor": "Sektor Perdagangan",
            "tanggal_terbit": "2022-07-28",
            "url_tdpse_detail": "https://pse.komdigi.go.id/tdpse-detail/9338",
            "website": "tanipro.org"
        },
        {
            "id": "9cb1abd0-bf2c-458b-a716-d1cce8a5e1b4",
            "nama_pse": "KINIKU MUDA INDONESIA",
            "nama_se": "TA ARUF",
            "sektor": "Sektor Teknologi Informasi dan Komunikasi",
            "tanggal_terbit": "2022-07-28",
            "url_tdpse_detail": "https://pse.komdigi.go.id/tdpse-detail/9339",
            "website": "-"
        },
        {
            "id": "9cb1abf6-3714-4039-8357-e9951c3f4a0a",
            "nama_pse": "KINIKU MUDA INDONESIA",
            "nama_se": "GERAI'TA",
            "sektor": "Sektor Perdagangan",
            "tanggal_terbit": "2022-07-28",
            "url_tdpse_detail": "https://pse.komdigi.go.id/tdpse-detail/9340",
            "website": "-"
        },
        {
            "id": "9cb1abd0-c935-43bb-85ca-2e78c89da4c6",
            "nama_pse": "SOLUSI TEKNOLOGI KOMPUTER",
            "nama_se": "SPENTURA ANTIVIRUS",
            "sektor": "Sektor Teknologi Informasi dan Komunikasi",
            "tanggal_terbit": "2022-07-28",
            "url_tdpse_detail": "https://pse.komdigi.go.id/tdpse-detail/9342",
            "website": "spentura.com"
        },
        {
            "id": "9cb1abf6-3f38-42af-99b3-4a447d8d3871",
            "nama_pse": "CV SUKABUMIN AMAN SOLUTION",
            "nama_se": "SUKABUMI AMAN SOLUTION",
            "sektor": "Sektor Perdagangan, Sektor Transportasi, Sektor Teknologi Informasi dan Komunikasi",
            "tanggal_terbit": "2022-07-28",
            "url_tdpse_detail": "https://pse.komdigi.go.id/tdpse-detail/9343",
            "website": "sukabumiamansolution.com"
        },
        {
            "id": "9cb1abf6-4290-4511-8113-c525f411d99d",
            "nama_pse": "KELOLA CITA SELARAS",
            "nama_se": "KEELOLA",
            "sektor": "Sektor Perdagangan, Sektor Teknologi Informasi dan Komunikasi",
            "tanggal_terbit": "2022-07-28",
            "url_tdpse_detail": "https://pse.komdigi.go.id/tdpse-detail/9344",
            "website": "Keelola.com"
        },
        {
            "id": "9cb1ab9d-19d8-4a35-b8dc-38c5661e1c42",
            "nama_pse": "INFOBANK DIGITAL INISIATIF ASIA",
            "nama_se": "INFOBANKNEWS",
            "sektor": "Sektor Teknologi Informasi dan Komunikasi",
            "tanggal_terbit": "2022-07-27",
            "url_tdpse_detail": "https://pse.komdigi.go.id/tdpse-detail/9112",
            "website": "infobanknews.com"
        },
        {
            "id": "9cb1abcd-4fc6-4821-a069-7f745a97b196",
            "nama_pse": "DUTA INTIDAYA",
            "nama_se": "WATSONS ID",
            "sektor": "Sektor Perdagangan",
            "tanggal_terbit": "2022-07-27",
            "url_tdpse_detail": "https://pse.komdigi.go.id/tdpse-detail/9119",
            "website": "watsons.co.id"
        },
        {
            "id": "9cb1abce-32b6-47e9-872b-e9da94453dc9",
            "nama_pse": "LIPPO GENERAL INSURANCE",
            "nama_se": "APPS AGENCY LAVA",
            "sektor": "Sektor Perdagangan",
            "tanggal_terbit": "2022-07-27",
            "url_tdpse_detail": "https://pse.komdigi.go.id/tdpse-detail/9129",
            "website": "agency.lippoinsurance.com"
        },
        {
            "id": "9cb1abce-5985-4043-93e0-cd9709af5112",
            "nama_pse": "DIMENSI DUA DINAMIKA",
            "nama_se": "BIRMA GEMILANG PRIMA",
            "sektor": "Sektor Perdagangan, Sektor Teknologi Informasi dan Komunikasi",
            "tanggal_terbit": "2022-07-27",
            "url_tdpse_detail": "https://pse.komdigi.go.id/tdpse-detail/9143",
            "website": "birmagp.com"
        },
        {
            "id": "9cb1abce-82e0-4afa-8049-2acb4f1590b2",
            "nama_pse": "SOFYAN PANIGORO",
            "nama_se": "TOKO ONLINE DAYYAN",
            "sektor": "Sektor Perdagangan",
            "tanggal_terbit": "2022-07-27",
            "url_tdpse_detail": "https://pse.komdigi.go.id/tdpse-detail/9104",
            "website": "-"
        },
        {
            "id": "9cb1abce-8886-4937-a13a-1db0b72aeb73",
            "nama_pse": "ARKADIA DIGITAL MEDIA",
            "nama_se": "ARKADIA.ME",
            "sektor": "Sektor Teknologi Informasi dan Komunikasi",
            "tanggal_terbit": "2022-07-27",
            "url_tdpse_detail": "https://pse.komdigi.go.id/tdpse-detail/9105",
            "website": "arkadia.me"
        },
        {
            "id": "9cb1abf4-7ef7-48f5-bc74-aed128fb63a4",
            "nama_pse": "BANK PERKREDITAN RAKYAT BANK KERTIAWAN",
            "nama_se": "WEBSITE PT. BPR BANK KERTIAWAN",
            "sektor": "Sektor Keuangan",
            "tanggal_terbit": "2022-07-27",
            "url_tdpse_detail": "https://pse.komdigi.go.id/tdpse-detail/9106",
            "website": "bankkertiawan.com"
        },
        {
            "id": "9cb1abf4-8598-4067-ac19-01bd5b0fb08b",
            "nama_pse": "BANK PERKREDITAN RAKYAT TRI CAPITAL INVESTAMA SUMBAR",
            "nama_se": "PT BPR JORONG KAMPUNG TANGAH",
            "sektor": "Sektor Keuangan",
            "tanggal_terbit": "2022-07-27",
            "url_tdpse_detail": "https://pse.komdigi.go.id/tdpse-detail/9108",
            "website": "-"
        },
        {
            "id": "9cb1abce-8dfc-4711-a263-888264a4c7b5",
            "nama_pse": "PESAT AGHNI SOLUSI",
            "nama_se": "SCCI WEBSITE",
            "sektor": "Sektor Teknologi Informasi dan Komunikasi",
            "tanggal_terbit": "2022-07-27",
            "url_tdpse_detail": "https://pse.komdigi.go.id/tdpse-detail/9110",
            "website": "scci.co.id"
        },
        {
            "id": "9cb1abf4-8a1f-49b4-bccc-5f65777e62df",
            "nama_pse": "EKA AKAR JATI",
            "nama_se": "SISTEMBERKAH",
            "sektor": "Sektor Teknologi Informasi dan Komunikasi",
            "tanggal_terbit": "2022-07-27",
            "url_tdpse_detail": "https://pse.komdigi.go.id/tdpse-detail/9109",
            "website": "Sistemberkah.id"
        },
        {
            "id": "9cb1abf4-9242-4d24-ac2e-5e9628be5ebb",
            "nama_pse": "MEKA LAW OFFICE",
            "nama_se": "MEKA LAW FIRM",
            "sektor": "Sektor Perdagangan",
            "tanggal_terbit": "2022-07-27",
            "url_tdpse_detail": "https://pse.komdigi.go.id/tdpse-detail/9111",
            "website": "mekalawfirm.com"
        },
        {
            "id": "9cb1abbe-3053-451c-b129-639d93a2ccde",
            "nama_pse": "BANK PERKREDITAN RAKYAT SURYA KATIALO",
            "nama_se": "CV FOKUS SOLUSI UTAMA",
            "sektor": "Sektor Keuangan",
            "tanggal_terbit": "2022-07-27",
            "url_tdpse_detail": "https://pse.komdigi.go.id/tdpse-detail/9113",
            "website": "-"
        },
        {
            "id": "9cb1abce-9434-4d2e-ad50-82e15e456871",
            "nama_pse": "BANK PERKREDITAN RAKYAT BANK KERTIAWAN",
            "nama_se": "KERTIAWAN MOBILE",
            "sektor": "Sektor Keuangan",
            "tanggal_terbit": "2022-07-27",
            "url_tdpse_detail": "https://pse.komdigi.go.id/tdpse-detail/9114",
            "website": "bankkertiawan.com"
        },
        {
            "id": "9cb1abf4-96e1-4b73-9128-d5c1dae09487",
            "nama_pse": "EZMART ELECTRONIC COMMERCE INDONESIA",
            "nama_se": "POLIBELI",
            "sektor": "Sektor Perdagangan, Sektor Teknologi Informasi dan Komunikasi",
            "tanggal_terbit": "2022-07-27",
            "url_tdpse_detail": "https://pse.komdigi.go.id/tdpse-detail/9115",
            "website": "polibeli.id"
        },
        {
            "id": "9cb1abf4-9be2-4189-a1a9-46df330fd267",
            "nama_pse": "BANK PERKREDITAN RAKYAT KARIMUN",
            "nama_se": "CORE BANKING SYSTEM SLAIS",
            "sektor": "Sektor Keuangan",
            "tanggal_terbit": "2022-07-27",
            "url_tdpse_detail": "https://pse.komdigi.go.id/tdpse-detail/9116",
            "website": "-"
        },
        {
            "id": "9cb1abf4-a154-4237-9711-1e1974ffa3c5",
            "nama_pse": "BANK PERKREDITAN RAKYAT NUSAMBA WLINGI",
            "nama_se": "TELKOM SATU",
            "sektor": "Sektor Keuangan",
            "tanggal_terbit": "2022-07-27",
            "url_tdpse_detail": "https://pse.komdigi.go.id/tdpse-detail/9117",
            "website": "bprnusamba-wlingi.com"
        },
        {
            "id": "9cb1abf4-a4c3-48b9-9550-dc3f3f84e84a",
            "nama_pse": "ARKADIA DIGITAL MEDIA",
            "nama_se": "SERBADA",
            "sektor": "Sektor Perdagangan",
            "tanggal_terbit": "2022-07-27",
            "url_tdpse_detail": "https://pse.komdigi.go.id/tdpse-detail/9118",
            "website": "serbada.com"
        },
        {
            "id": "9cb1abf4-a8e3-43be-8283-b87b819b2e6c",
            "nama_pse": "CYBERINDO SINERGI SISTEM",
            "nama_se": "RANTAI.TECH",
            "sektor": "Sektor Perdagangan, Sektor Teknologi Informasi dan Komunikasi",
            "tanggal_terbit": "2022-07-27",
            "url_tdpse_detail": "https://pse.komdigi.go.id/tdpse-detail/9120",
            "website": "rantai.tech"
        },
        {
            "id": "9cb1abce-9a7a-4ca1-9324-1b99452af9e5",
            "nama_pse": "BANK PERKREDITAN RAKYAT BANK KERTIAWAN",
            "nama_se": "MOBILE COLLECTION (MCL)",
            "sektor": "Sektor Keuangan",
            "tanggal_terbit": "2022-07-27",
            "url_tdpse_detail": "https://pse.komdigi.go.id/tdpse-detail/9121",
            "website": "bankkertiawan.com"
        },
        {
            "id": "9cb1abce-9f26-4a42-a31c-00fb8bb541e4",
            "nama_pse": "ARKADIA DIGITAL MEDIA",
            "nama_se": "IKLANDISINI",
            "sektor": "Sektor Perdagangan",
            "tanggal_terbit": "2022-07-27",
            "url_tdpse_detail": "https://pse.komdigi.go.id/tdpse-detail/9122",
            "website": "iklandisini.com"
        },
        {
            "id": "9cb1abf4-b02e-493b-a501-ef96582b456d",
            "nama_pse": "INNOVASI SARANA GRAFINDO",
            "nama_se": "DISPLAYSTORE.ID",
            "sektor": "Sektor Perdagangan",
            "tanggal_terbit": "2022-07-27",
            "url_tdpse_detail": "https://pse.komdigi.go.id/tdpse-detail/9123",
            "website": "displaystore.id"
        },
        {
            "id": "9cb1abf4-b400-46ff-a21b-09e0c4a675e9",
            "nama_pse": "ASKARA SOLUSI LEGAL",
            "nama_se": "WEBSITE LEXGORITMA",
            "sektor": "Sektor Perdagangan",
            "tanggal_terbit": "2022-07-27",
            "url_tdpse_detail": "https://pse.komdigi.go.id/tdpse-detail/9124",
            "website": "lexgoritma.com"
        },
        {
            "id": "9cb1abf4-bb61-490b-b18d-90b564e90c58",
            "nama_pse": "MOBIL MOTOR NIAGA INDONESIA",
            "nama_se": "MM ONLINE",
            "sektor": "Sektor Perdagangan",
            "tanggal_terbit": "2022-07-27",
            "url_tdpse_detail": "https://pse.komdigi.go.id/tdpse-detail/9125",
            "website": "mmonline.id"
        },
        {
            "id": "9cb1abf4-cb36-4648-8eb7-083c1bd5200d",
            "nama_pse": "LOYAL MEMBER INDONESIA",
            "nama_se": "LOYAL.ID",
            "sektor": "Sektor Teknologi Informasi dan Komunikasi",
            "tanggal_terbit": "2022-07-27",
            "url_tdpse_detail": "https://pse.komdigi.go.id/tdpse-detail/9126",
            "website": "loyal.id"
        },
        {
            "id": "9cb1abf4-d195-4db1-b277-52785cce4dde",
            "nama_pse": "BANK PERKREDITAN RAKYAT NUSAMBA NGUNUT",
            "nama_se": "WEBSITE",
            "sektor": "Sektor Keuangan",
            "tanggal_terbit": "2022-07-27",
            "url_tdpse_detail": "https://pse.komdigi.go.id/tdpse-detail/9127",
            "website": "bprnusamba-ngunut.com"
        },
        {
            "id": "9cb1abbe-32d1-437b-815b-26b8fdd163db",
            "nama_pse": "PRIMA MEDIX NUSANTARA",
            "nama_se": "VIRTU DIGILAB",
            "sektor": "Sektor Kesehatan",
            "tanggal_terbit": "2022-07-27",
            "url_tdpse_detail": "https://pse.komdigi.go.id/tdpse-detail/9128",
            "website": "virtudigilab.com"
        },
        {
            "id": "9cb1abbe-34e1-4916-a8ac-1ee6aa2f77e6",
            "nama_pse": "PRIMA MEDIX NUSANTARA",
            "nama_se": "VIRTU HEALTH",
            "sektor": "Sektor Kesehatan",
            "tanggal_terbit": "2022-07-27",
            "url_tdpse_detail": "https://pse.komdigi.go.id/tdpse-detail/9135",
            "website": "virtuhealth.id"
        },
        {
            "id": "9cb1abf4-d4b8-4db4-aeb9-40f1b889e18a",
            "nama_pse": "BIOSKOP DIGITAL INDONESIA",
            "nama_se": "BIOSKOP ONLINE",
            "sektor": "Sektor Teknologi Informasi dan Komunikasi",
            "tanggal_terbit": "2022-07-27",
            "url_tdpse_detail": "https://pse.komdigi.go.id/tdpse-detail/9130",
            "website": "bioskoponline.com"
        },
        {
            "id": "9cb1abf4-dab6-4af2-8108-96a24d6d5e0e",
            "nama_pse": "BANK PEREKONOMIAN RAKYAT HANEDA MITRA USAHA",
            "nama_se": "WWW.BPRHANEDA.CO.ID",
            "sektor": "Sektor Keuangan",
            "tanggal_terbit": "2022-07-27",
            "url_tdpse_detail": "https://pse.komdigi.go.id/tdpse-detail/9132",
            "website": "bprhaneda.co.id"
        },
        {
            "id": "9cb1abce-a1f3-4ae9-9d73-43c6d0e12836",
            "nama_pse": "BILLION TECHNOLOGY",
            "nama_se": "KANTOR KITA",
            "sektor": "Sektor Teknologi Informasi dan Komunikasi",
            "tanggal_terbit": "2022-07-27",
            "url_tdpse_detail": "https://pse.komdigi.go.id/tdpse-detail/9131",
            "website": "kantorkita.co.id"
        },
        {
            "id": "9cb1abf4-e042-412d-aa72-ecb517aea6e8",
            "nama_pse": "DIGITAL HASANAH INDONESIA",
            "nama_se": "HASAN DIGITAL",
            "sektor": "Sektor Teknologi Informasi dan Komunikasi",
            "tanggal_terbit": "2022-07-27",
            "url_tdpse_detail": "https://pse.komdigi.go.id/tdpse-detail/9133",
            "website": "hasandigital.id"
        }
    ],
    "processingTimeMs": 6,
    "query": "",
    "totalHits": 19121,
    "hitsPerPage": 50,
    "page": 217,
    "totalPages": 383
}