{
    "hits": [
        {
            "id": "9cb1abed-e0e1-4db0-add8-acb339be341d",
            "nama_pse": "TDW RESOURCES",
            "nama_se": "WWW.DAHSYAT.COM",
            "sektor": "Sektor Perdagangan",
            "tanggal_terbit": "2022-07-20",
            "url_tdpse_detail": "https://pse.komdigi.go.id/tdpse-detail/8115",
            "website": "dahsyat.com"
        },
        {
            "id": "9cb1abed-e534-471a-ab2d-695b66aa7062",
            "nama_pse": "SOLUSI KERAH BYRU",
            "nama_se": "BYRU.ID",
            "sektor": "Sektor Teknologi Informasi dan Komunikasi",
            "tanggal_terbit": "2022-07-20",
            "url_tdpse_detail": "https://pse.komdigi.go.id/tdpse-detail/8112",
            "website": "byru.id"
        },
        {
            "id": "9cb1abc7-c97d-4843-9d82-59956579b5ee",
            "nama_pse": "ANDROMEDA GLOBAL DATA",
            "nama_se": "DROMINDER - APLIKASI MANAJEMEN REMINDER",
            "sektor": "Sektor Teknologi Informasi dan Komunikasi",
            "tanggal_terbit": "2022-07-20",
            "url_tdpse_detail": "https://pse.komdigi.go.id/tdpse-detail/8113",
            "website": "drominder.com"
        },
        {
            "id": "9cb1abc7-cd8b-4b1a-9be7-b14d5ff32ad6",
            "nama_pse": "BANK PEMBANGUNAN DAERAH PAPUA",
            "nama_se": "EDC BANK PAPUA",
            "sektor": "Sektor Keuangan",
            "tanggal_terbit": "2022-07-20",
            "url_tdpse_detail": "https://pse.komdigi.go.id/tdpse-detail/8114",
            "website": "-"
        },
        {
            "id": "9cb1abba-7229-43c9-92c9-d326a1c0604d",
            "nama_pse": "ARIS PUJUD KURNIAWAN",
            "nama_se": "WEVITATION",
            "sektor": "Sektor Perdagangan, Sektor Teknologi Informasi dan Komunikasi",
            "tanggal_terbit": "2022-07-20",
            "url_tdpse_detail": "https://pse.komdigi.go.id/tdpse-detail/8117",
            "website": "wevitation.com"
        },
        {
            "id": "9cb1abc7-d119-40dd-80d1-679cb41016ee",
            "nama_pse": "BANK PEREKONOMIAN RAKYAT SAUDARAKITA",
            "nama_se": "WEB PORTAL",
            "sektor": "Sektor Keuangan",
            "tanggal_terbit": "2022-07-20",
            "url_tdpse_detail": "https://pse.komdigi.go.id/tdpse-detail/8116",
            "website": "bprsaudarakita.com"
        },
        {
            "id": "9cb1abba-7439-4d98-9860-9119506308ef",
            "nama_pse": "MAHKOTA PERMATA JAYA",
            "nama_se": "THEICONCENTRAL.ID",
            "sektor": "Sektor Perdagangan",
            "tanggal_terbit": "2022-07-20",
            "url_tdpse_detail": "https://pse.komdigi.go.id/tdpse-detail/8118",
            "website": "theiconcentral.id"
        },
        {
            "id": "9cb1abed-e9a4-413b-b453-c62c6c5a919e",
            "nama_pse": "ANDROMEDA GLOBAL DATA",
            "nama_se": "DROVAT - DISTRIBUSI EBUPOT DAN EFAKTUR PAJAK",
            "sektor": "Sektor Teknologi Informasi dan Komunikasi",
            "tanggal_terbit": "2022-07-20",
            "url_tdpse_detail": "https://pse.komdigi.go.id/tdpse-detail/8119",
            "website": "drovat.com"
        },
        {
            "id": "9cb1abed-ed3c-440a-9d1a-c51e1a3b5f27",
            "nama_pse": "GARENA INDONESIA",
            "nama_se": "BLOCKMAN GO",
            "sektor": "Sektor Teknologi Informasi dan Komunikasi",
            "tanggal_terbit": "2022-07-20",
            "url_tdpse_detail": "https://pse.komdigi.go.id/tdpse-detail/8140",
            "website": "-"
        },
        {
            "id": "9cb1abba-7633-4db0-a5fd-031a2e8316aa",
            "nama_pse": "BANK SYARIAH INDONESIA",
            "nama_se": "HUJAN REZEKI BSI MOBILE",
            "sektor": "Sektor Keuangan",
            "tanggal_terbit": "2022-07-20",
            "url_tdpse_detail": "https://pse.komdigi.go.id/tdpse-detail/8120",
            "website": "bsimobileinternal.id"
        },
        {
            "id": "9cb1abba-785b-4e12-8a10-02a36df44961",
            "nama_pse": "REALTA CHAKRADARMA",
            "nama_se": "PRIORITY",
            "sektor": "Sektor Teknologi Informasi dan Komunikasi",
            "tanggal_terbit": "2022-07-20",
            "url_tdpse_detail": "https://pse.komdigi.go.id/tdpse-detail/8162",
            "website": "realta.co.id"
        },
        {
            "id": "9cb1abc7-d55d-405b-a49e-956a95e10c66",
            "nama_pse": "ANDROMEDA GLOBAL DATA",
            "nama_se": "DROPINVOICE - MANAJEMEN PENERIMAAN TAGIHAN",
            "sektor": "Sektor Teknologi Informasi dan Komunikasi",
            "tanggal_terbit": "2022-07-20",
            "url_tdpse_detail": "https://pse.komdigi.go.id/tdpse-detail/8124",
            "website": "dropinvoice.com"
        },
        {
            "id": "9cb1abba-7a81-4ba7-9a95-1bd90efd477c",
            "nama_pse": "PINTAR PEMENANG ASIA",
            "nama_se": "PINTAR",
            "sektor": "Sektor Perdagangan, Sektor Teknologi Informasi dan Komunikasi",
            "tanggal_terbit": "2022-07-20",
            "url_tdpse_detail": "https://pse.komdigi.go.id/tdpse-detail/8122",
            "website": "-"
        },
        {
            "id": "9cb1abed-f6a9-4368-ad89-dc3f4b7884d9",
            "nama_pse": "BANK PERKREDITAN RAKYAT BANK DAERAH BANGLI",
            "nama_se": "SISTEM ABSENSI PT BPR BANK DAERAH BANGLI (PERSERODA)",
            "sektor": "Sektor Teknologi Informasi dan Komunikasi",
            "tanggal_terbit": "2022-07-20",
            "url_tdpse_detail": "https://pse.komdigi.go.id/tdpse-detail/8125",
            "website": "pegawai.bankdaerahbangli.co.id"
        },
        {
            "id": "9cb1abc7-d987-4f12-b755-60c9f686085c",
            "nama_pse": "INTINUSA NATURAL MAXIMA",
            "nama_se": "IN LEAF INDONESIA",
            "sektor": "Sektor Kesehatan",
            "tanggal_terbit": "2022-07-20",
            "url_tdpse_detail": "https://pse.komdigi.go.id/tdpse-detail/8129",
            "website": "inleafindonesia.com"
        },
        {
            "id": "9cb1abba-7c83-41a6-babf-d6f9f61895a7",
            "nama_pse": "MAHKOTA PERMATA JAYA",
            "nama_se": "CENTRALHILLS.ID",
            "sektor": "Sektor Perdagangan",
            "tanggal_terbit": "2022-07-20",
            "url_tdpse_detail": "https://pse.komdigi.go.id/tdpse-detail/8127",
            "website": "centralhills.id"
        },
        {
            "id": "9cb1abc7-e16c-49de-9922-53b06c16e99d",
            "nama_pse": "BANK SYARIAH INDONESIA",
            "nama_se": "BSIMOBILETWO",
            "sektor": "Sektor Keuangan",
            "tanggal_terbit": "2022-07-20",
            "url_tdpse_detail": "https://pse.komdigi.go.id/tdpse-detail/8128",
            "website": "bsimobiletwo.bankbsi.co.id"
        },
        {
            "id": "9cb1abba-7e92-4716-87c1-162bc0dcbc41",
            "nama_pse": "BANK PEMBANGUNAN DAERAH PAPUA",
            "nama_se": "E-LEARNING BANK PAPUA",
            "sektor": "Sektor Keuangan",
            "tanggal_terbit": "2022-07-20",
            "url_tdpse_detail": "https://pse.komdigi.go.id/tdpse-detail/8130",
            "website": "university.bankpapua.co.id"
        },
        {
            "id": "9cb1abba-80cb-407f-903e-fd7fe1ee267c",
            "nama_pse": "BANK PERKREDITAN RAKYAT DINAR JAGAD",
            "nama_se": "BANKING SMART SYSTEM",
            "sektor": "Sektor Keuangan",
            "tanggal_terbit": "2022-07-20",
            "url_tdpse_detail": "https://pse.komdigi.go.id/tdpse-detail/8131",
            "website": "-"
        },
        {
            "id": "9cb1abba-82ff-4857-aee3-5495e909ca16",
            "nama_pse": "BANK PERKREDITAN RAKYAT BANK DAERAH BANGLI",
            "nama_se": "SISTEM SURAT PT BPR BANK DAERAH BANGLI (PERSERODA)",
            "sektor": "Sektor Teknologi Informasi dan Komunikasi",
            "tanggal_terbit": "2022-07-20",
            "url_tdpse_detail": "https://pse.komdigi.go.id/tdpse-detail/8132",
            "website": "surat.bankdaerahbangli.co.id"
        },
        {
            "id": "9cb1abee-062a-4071-804e-7b9086c917bb",
            "nama_pse": "BANK PERKREDITAN RAKYAT SUPRADANAMAS",
            "nama_se": "BPR SUPRADANAMAS",
            "sektor": "Sektor Keuangan",
            "tanggal_terbit": "2022-07-20",
            "url_tdpse_detail": "https://pse.komdigi.go.id/tdpse-detail/8136",
            "website": "bprsupradanamas.co.id"
        },
        {
            "id": "9cb1abba-8550-4853-b5fd-8ccd7e549dc1",
            "nama_pse": "TDW RESOURCES",
            "nama_se": "WWW.TDWRESOURCES.ID",
            "sektor": "Sektor Perdagangan, Sektor Teknologi Informasi dan Komunikasi",
            "tanggal_terbit": "2022-07-20",
            "url_tdpse_detail": "https://pse.komdigi.go.id/tdpse-detail/8142",
            "website": "tdwresources.id"
        },
        {
            "id": "9cb1abc7-ebeb-4b9d-bcf3-a37472491d2f",
            "nama_pse": "AKU CINTA INDONESIA RAYA",
            "nama_se": "GIGAPULSA",
            "sektor": "Sektor Perdagangan, Sektor Teknologi Informasi dan Komunikasi",
            "tanggal_terbit": "2022-07-20",
            "url_tdpse_detail": "https://pse.komdigi.go.id/tdpse-detail/8135",
            "website": "new.gigapulsa.com"
        },
        {
            "id": "9cb1abc7-f310-40b2-b72e-fcc4e4f60327",
            "nama_pse": "ADKOMU DIGITAL ARTHA",
            "nama_se": "ADKOMU",
            "sektor": "Sektor Teknologi Informasi dan Komunikasi",
            "tanggal_terbit": "2022-07-20",
            "url_tdpse_detail": "https://pse.komdigi.go.id/tdpse-detail/8138",
            "website": "adkomu.com"
        },
        {
            "id": "9cb1abc8-0116-460e-b124-2339277a4597",
            "nama_pse": "EXADATA",
            "nama_se": "DESA PINTAR ONLINE",
            "sektor": "Sektor Teknologi Informasi dan Komunikasi",
            "tanggal_terbit": "2022-07-20",
            "url_tdpse_detail": "https://pse.komdigi.go.id/tdpse-detail/8141",
            "website": "desapintar.online"
        },
        {
            "id": "9cb1abee-0cb5-4d16-b060-7403643f7b50",
            "nama_pse": "BANK PEMBANGUNAN DAERAH PAPUA",
            "nama_se": "STREAMING E-LEARNING BANK PAPUA",
            "sektor": "Sektor Keuangan",
            "tanggal_terbit": "2022-07-20",
            "url_tdpse_detail": "https://pse.komdigi.go.id/tdpse-detail/8144",
            "website": "elearning.bankpapua.co.id"
        },
        {
            "id": "9cb1abee-1a2c-4399-b299-ddbd2d3faead",
            "nama_pse": "AKU CINTA INDONESIA RAYA",
            "nama_se": "PULSAGRAM",
            "sektor": "Sektor Perdagangan, Sektor Teknologi Informasi dan Komunikasi",
            "tanggal_terbit": "2022-07-20",
            "url_tdpse_detail": "https://pse.komdigi.go.id/tdpse-detail/8151",
            "website": "pulsagram.com"
        },
        {
            "id": "9cb1abba-8a04-4c9d-b043-131ebca3bde0",
            "nama_pse": "BANK PERKREDITAN RAKYAT BANK BOYOLALI (PERSERODA)",
            "nama_se": "LAYANAN VIRTUAL ACCOUNT BANK BOYOLALI",
            "sektor": "Sektor Keuangan",
            "tanggal_terbit": "2022-07-20",
            "url_tdpse_detail": "https://pse.komdigi.go.id/tdpse-detail/8152",
            "website": "-"
        },
        {
            "id": "9cb1abee-2506-4e8a-b474-9dee5d39a38d",
            "nama_pse": "MAHKOTA PERMATA JAYA",
            "nama_se": "CENTRALGROUPPROPERTY",
            "sektor": "Sektor Perdagangan",
            "tanggal_terbit": "2022-07-20",
            "url_tdpse_detail": "https://pse.komdigi.go.id/tdpse-detail/8155",
            "website": "centralgroupproperty.com"
        },
        {
            "id": "9cb1abc8-1d31-4874-af6b-9c3bbc456579",
            "nama_pse": "BANK PERKREDITAN RAKYAT NGUNUT ARTA",
            "nama_se": "WEB PROFIL PERUSAHAAN",
            "sektor": "Sektor Keuangan",
            "tanggal_terbit": "2022-07-20",
            "url_tdpse_detail": "https://pse.komdigi.go.id/tdpse-detail/8156",
            "website": "bankbna.co.id"
        },
        {
            "id": "9cb1abba-8e99-4820-900e-4b10224512be",
            "nama_pse": "BANK PERKREDITAN RAKYAT BANK DAERAH BANGLI",
            "nama_se": "APLIKASI KREDITEK PT BPR BANK DAERAH BANGLI (PERSERODA)",
            "sektor": "Sektor Keuangan",
            "tanggal_terbit": "2022-07-20",
            "url_tdpse_detail": "https://pse.komdigi.go.id/tdpse-detail/8160",
            "website": "kreditekfa.co.id"
        },
        {
            "id": "9cb1abee-27e8-4ca3-80c3-5258f70d8a3c",
            "nama_pse": "BANK PEREKONOMIAN RAKYAT PERBAUNGAN HOMBAR MAKMUR",
            "nama_se": "WEBSITE BPR PHM.COM",
            "sektor": "Sektor Keuangan",
            "tanggal_terbit": "2022-07-20",
            "url_tdpse_detail": "https://pse.komdigi.go.id/tdpse-detail/8165",
            "website": "bprphm.com"
        },
        {
            "id": "9cb1abc8-39ca-439d-a324-499e1260cd64",
            "nama_pse": "TDW RESOURCES",
            "nama_se": "DAHSYAT",
            "sektor": "Sektor Perdagangan, Sektor Teknologi Informasi dan Komunikasi",
            "tanggal_terbit": "2022-07-20",
            "url_tdpse_detail": "https://pse.komdigi.go.id/tdpse-detail/8170",
            "website": "dahsyat.com"
        },
        {
            "id": "9cb1abc8-40c7-4894-b625-eeae84b8c6b8",
            "nama_pse": "INDONESIA SATU TUJUH",
            "nama_se": "PESTA REWARD WEBSITE INA17",
            "sektor": "Sektor Teknologi Informasi dan Komunikasi",
            "tanggal_terbit": "2022-07-20",
            "url_tdpse_detail": "https://pse.komdigi.go.id/tdpse-detail/8167",
            "website": "pestareward.id"
        },
        {
            "id": "9cb1abee-2c95-4460-8d98-459f0ee14988",
            "nama_pse": "KEBENARAN KESEHATAN DARI ALAM",
            "nama_se": "SESA.ID",
            "sektor": "Sektor Perdagangan",
            "tanggal_terbit": "2022-07-20",
            "url_tdpse_detail": "https://pse.komdigi.go.id/tdpse-detail/8372",
            "website": "sesa.id"
        },
        {
            "id": "9cb1abc8-4741-4144-9052-0df7dd6ac1c2",
            "nama_pse": "BANDUNG TALENTSOURCE",
            "nama_se": "WEBSITE BANDUNGTALENTSOURCE.COM",
            "sektor": "Sektor Teknologi Informasi dan Komunikasi",
            "tanggal_terbit": "2022-07-20",
            "url_tdpse_detail": "https://pse.komdigi.go.id/tdpse-detail/8169",
            "website": "bandungtalentsource.com"
        },
        {
            "id": "9cb1abee-2ff4-49ef-a938-ea3b44f6d797",
            "nama_pse": "ADKOMU DIGITAL ARTHA",
            "nama_se": "ADKOMU.COM",
            "sektor": "Sektor Teknologi Informasi dan Komunikasi",
            "tanggal_terbit": "2022-07-20",
            "url_tdpse_detail": "https://pse.komdigi.go.id/tdpse-detail/8171",
            "website": "adkomu.com"
        },
        {
            "id": "9cb1abc8-4c75-4c04-a523-404f84e2a71c",
            "nama_pse": "PANORAMA JTB TOURS INDONESIA",
            "nama_se": "COBT.ID",
            "sektor": "Sektor Perdagangan",
            "tanggal_terbit": "2022-07-20",
            "url_tdpse_detail": "https://pse.komdigi.go.id/tdpse-detail/8174",
            "website": "cobt.id"
        },
        {
            "id": "9cb1abba-942d-405f-826a-1b754c7e01f3",
            "nama_pse": "SENTOSA SELARAS NETWORK",
            "nama_se": "TOPRESELLER2022.COM",
            "sektor": "Sektor Perdagangan, Sektor Kesehatan, Sektor Teknologi Informasi dan Komunikasi",
            "tanggal_terbit": "2022-07-20",
            "url_tdpse_detail": "https://pse.komdigi.go.id/tdpse-detail/8172",
            "website": "topreseller2022.com"
        },
        {
            "id": "9cb1abee-33ff-4282-a8cc-c70b1e93fb62",
            "nama_pse": "BANK PERKREDITAN RAKYAT ARTADAMAS MANDIRI",
            "nama_se": "PT. BPR ARTADAMAS MANDIRI",
            "sektor": "Sektor Keuangan",
            "tanggal_terbit": "2022-07-20",
            "url_tdpse_detail": "https://pse.komdigi.go.id/tdpse-detail/8173",
            "website": "bpr-aman.com"
        },
        {
            "id": "9cb1abba-9633-4cc4-8804-44a5af628aa7",
            "nama_pse": "INDONESIA SATU TUJUH",
            "nama_se": "WIFIPRO PLATFORM",
            "sektor": "Sektor Teknologi Informasi dan Komunikasi",
            "tanggal_terbit": "2022-07-20",
            "url_tdpse_detail": "https://pse.komdigi.go.id/tdpse-detail/8178",
            "website": "activewifi.ina17.id"
        },
        {
            "id": "9cb1abc8-50ce-4733-9055-340cacb7c1b8",
            "nama_pse": "PERUSAHAAN PERSEROAN (PERSERO) PT. TELEKOMUNIKASI INDONESIA",
            "nama_se": "INFO REKRUTMEN TELKOM",
            "sektor": "Sektor Teknologi Informasi dan Komunikasi",
            "tanggal_terbit": "2022-07-20",
            "url_tdpse_detail": "https://pse.komdigi.go.id/tdpse-detail/8175",
            "website": "rekrutmen.telkom.co.id"
        },
        {
            "id": "9cb1abba-982f-405b-a620-19150624b2bf",
            "nama_pse": "BELAJAR ONLINE SELAMANYA",
            "nama_se": "LARUNOCOM",
            "sektor": "Sektor Perdagangan",
            "tanggal_terbit": "2022-07-20",
            "url_tdpse_detail": "https://pse.komdigi.go.id/tdpse-detail/8176",
            "website": "laruno.com"
        },
        {
            "id": "9cb1abba-9a16-4dfe-9df2-f24fb8bc18d5",
            "nama_pse": "BANK PERKREDITAN RAKYAT ANTAR PARAMA",
            "nama_se": "WEBSITE",
            "sektor": "Sektor Keuangan",
            "tanggal_terbit": "2022-07-20",
            "url_tdpse_detail": "https://pse.komdigi.go.id/tdpse-detail/8177",
            "website": "bprantarparama.co.id"
        },
        {
            "id": "9cb1abba-9c4b-46b4-b90b-464d3cbbe0a1",
            "nama_pse": "PEMBAYARAN LINTAS USAHA SUKSES",
            "nama_se": "KASIR.ID",
            "sektor": "Sektor Perdagangan, Sektor Keuangan, Sektor Teknologi Informasi dan Komunikasi",
            "tanggal_terbit": "2022-07-20",
            "url_tdpse_detail": "https://pse.komdigi.go.id/tdpse-detail/8180",
            "website": "kasir.id"
        },
        {
            "id": "9cb1abba-9e7e-49bf-ade9-e14a17ff3d7a",
            "nama_pse": "BANK SMBC INDONESIA",
            "nama_se": "AGENT PORTAL",
            "sektor": "Sektor Keuangan",
            "tanggal_terbit": "2022-07-20",
            "url_tdpse_detail": "https://pse.komdigi.go.id/tdpse-detail/8212",
            "website": "btpn.com"
        },
        {
            "id": "9cb1abc8-56bf-45ed-8c91-3952bee1fc13",
            "nama_pse": "BANK PEREKONOMIAN RAKYAT BIMA HAYU PRATAMA",
            "nama_se": "ISSS",
            "sektor": "Sektor Keuangan",
            "tanggal_terbit": "2022-07-20",
            "url_tdpse_detail": "https://pse.komdigi.go.id/tdpse-detail/8181",
            "website": "-"
        },
        {
            "id": "9cb1abba-a2e9-4cb6-a01b-bf1c739286f9",
            "nama_pse": "TEKNO SMART",
            "nama_se": "ONLINK",
            "sektor": "Sektor Teknologi Informasi dan Komunikasi",
            "tanggal_terbit": "2022-07-20",
            "url_tdpse_detail": "https://pse.komdigi.go.id/tdpse-detail/8179",
            "website": "onlink.id"
        },
        {
            "id": "9cb1abba-a4d4-4f07-a8ca-0874ed840199",
            "nama_pse": "BANK CIMB NIAGA",
            "nama_se": "MORTGAGE ONLINE FORM",
            "sektor": "Sektor Keuangan",
            "tanggal_terbit": "2022-07-20",
            "url_tdpse_detail": "https://pse.komdigi.go.id/tdpse-detail/8182",
            "website": "apply.cimbniaga.co.id"
        },
        {
            "id": "9cb1abee-39b1-45ba-9b98-5f4b04ad1aae",
            "nama_pse": "BANK PEREKONOMIAN RAKYAT DANA NUSANTARA",
            "nama_se": "INFO DANUS",
            "sektor": "Sektor Keuangan",
            "tanggal_terbit": "2022-07-20",
            "url_tdpse_detail": "https://pse.komdigi.go.id/tdpse-detail/8186",
            "website": "bprdn.com"
        }
    ],
    "processingTimeMs": 4,
    "query": "",
    "totalHits": 19131,
    "hitsPerPage": 50,
    "page": 249,
    "totalPages": 383
}