{
    "hits": [
        {
            "id": "9cb1ac37-6c25-44ae-b0ff-414883bd727b",
            "nama_pse": "KAMU UNTUK SEMUA",
            "nama_se": "FUNDROOTS",
            "sektor": "Sektor Perdagangan",
            "tanggal_terbit": "2023-07-11",
            "url_tdpse_detail": "https://pse.komdigi.go.id/tdpse-detail/15278",
            "website": "fundrootsid.com"
        },
        {
            "id": "9cb1ac37-7134-40d1-9fd0-aa45176f5669",
            "nama_pse": "RUMAH PRODUKSI HALAL",
            "nama_se": "KABARUMKM",
            "sektor": "Sektor Perdagangan, Sektor Kesehatan, Sektor Teknologi Informasi dan Komunikasi, Sektor Pangan",
            "tanggal_terbit": "2023-07-11",
            "url_tdpse_detail": "https://pse.komdigi.go.id/tdpse-detail/15268",
            "website": "kabarumkm.com"
        },
        {
            "id": "9cb1ac37-74d1-4c5b-9d91-cfa2c030c97a",
            "nama_pse": "VIBOO MULTI DIGITAL",
            "nama_se": "VIBOO",
            "sektor": "Sektor Teknologi Informasi dan Komunikasi",
            "tanggal_terbit": "2023-07-11",
            "url_tdpse_detail": "https://pse.komdigi.go.id/tdpse-detail/15271",
            "website": "viboo.id"
        },
        {
            "id": "9cb1ac37-77e0-4942-87a2-f25287e5a949",
            "nama_pse": "DIGITALISASI KREASI INDONESIA",
            "nama_se": "PASAR SEGAR",
            "sektor": "Sektor Perdagangan",
            "tanggal_terbit": "2023-07-11",
            "url_tdpse_detail": "https://pse.komdigi.go.id/tdpse-detail/15270",
            "website": "pasarsegar.co.id"
        },
        {
            "id": "9cb1ac37-7b0a-402d-a0ae-28726885be04",
            "nama_pse": "ASURANSI TAKAFUL KELUARGA",
            "nama_se": "CORPORATE WEBSITE PT ASURANSI TAKAFUL KELUARGA",
            "sektor": "Sektor Keuangan",
            "tanggal_terbit": "2023-07-11",
            "url_tdpse_detail": "https://pse.komdigi.go.id/tdpse-detail/15274",
            "website": "takaful.co.id"
        },
        {
            "id": "9cb1ac37-7e9b-4d38-b571-e9708300a280",
            "nama_pse": "BALI SERONI MEDIKA",
            "nama_se": "SIMRS",
            "sektor": "Sektor Kesehatan",
            "tanggal_terbit": "2023-07-11",
            "url_tdpse_detail": "https://pse.komdigi.go.id/tdpse-detail/15277",
            "website": "kmhsp2023.tech"
        },
        {
            "id": "9cb1ac25-0fab-4394-a8d7-9934b20e3f7d",
            "nama_pse": "ADVANCE INTELLIGENCE INDONESIA",
            "nama_se": "ADVANCEAI",
            "sektor": "Sektor Teknologi Informasi dan Komunikasi",
            "tanggal_terbit": "2023-07-11",
            "url_tdpse_detail": "https://pse.komdigi.go.id/tdpse-detail/15275",
            "website": "-"
        },
        {
            "id": "9cb1ac25-1240-4803-b936-8a05e3cd3a88",
            "nama_pse": "ABNA SAMANHUDISAUTIKA HUSADA",
            "nama_se": "MERSI HOSPITAL",
            "sektor": "Sektor Kesehatan, Sektor Teknologi Informasi dan Komunikasi",
            "tanggal_terbit": "2023-07-11",
            "url_tdpse_detail": "https://pse.komdigi.go.id/tdpse-detail/15276",
            "website": "wavahusada.com"
        },
        {
            "id": "9cb1ac25-1589-4f63-93f5-85e3cebfdfc1",
            "nama_pse": "TASHARUKY PLATFORM DIGITAL",
            "nama_se": "TASHARUKY PLATFORM DIGITAL",
            "sektor": "Sektor Teknologi Informasi dan Komunikasi",
            "tanggal_terbit": "2023-07-11",
            "url_tdpse_detail": "https://pse.komdigi.go.id/tdpse-detail/15281",
            "website": "tasharuky.com"
        },
        {
            "id": "9cb1ac47-3fc9-4863-903c-b4b483364b9f",
            "nama_pse": "BINTANG KARTIKA INTERNASIONAL MEDIA GROUP",
            "nama_se": "SUARA SILIWANGI",
            "sektor": "Sektor Teknologi Informasi dan Komunikasi",
            "tanggal_terbit": "2023-07-11",
            "url_tdpse_detail": "https://pse.komdigi.go.id/tdpse-detail/15279",
            "website": "suarasiliwangi.com"
        },
        {
            "id": "9cb1ac25-1846-4aa5-aef2-f9863bea2094",
            "nama_pse": "MEJIK UTAMA SUGIHARTA",
            "nama_se": "MICROGEN",
            "sektor": "Sektor Teknologi Informasi dan Komunikasi",
            "tanggal_terbit": "2023-07-11",
            "url_tdpse_detail": "https://pse.komdigi.go.id/tdpse-detail/15282",
            "website": "microgen.id"
        },
        {
            "id": "9cb1ac46-779d-4bb2-932a-155690e454d1",
            "nama_pse": "ASURANSI UNTUK SEMUA",
            "nama_se": "TAP-INSURE - WEBSITE",
            "sektor": "Sektor Keuangan",
            "tanggal_terbit": "2023-07-10",
            "url_tdpse_detail": "https://pse.komdigi.go.id/tdpse-detail/15266",
            "website": "asuransiuntuksemua.com"
        },
        {
            "id": "9cb1ac46-81c9-4142-ae02-f7a5847e2a12",
            "nama_pse": "PITUKU CORDOVA INTERNASIONAL",
            "nama_se": "PITUKU.ID",
            "sektor": "Sektor Perdagangan, Sektor Teknologi Informasi dan Komunikasi",
            "tanggal_terbit": "2023-07-10",
            "url_tdpse_detail": "https://pse.komdigi.go.id/tdpse-detail/15264",
            "website": "pituku.id"
        },
        {
            "id": "9cb1ac24-fd81-477a-b238-b3e183941914",
            "nama_pse": "SOLUSI SMART SINTESA",
            "nama_se": "JAWABANCLUB",
            "sektor": "Sektor Teknologi Informasi dan Komunikasi",
            "tanggal_terbit": "2023-07-10",
            "url_tdpse_detail": "https://pse.komdigi.go.id/tdpse-detail/15265",
            "website": "jawaban.club"
        },
        {
            "id": "9cb1ac25-0241-4fb4-8869-369403df68c9",
            "nama_pse": "KREATIF ASLI INDONESIA",
            "nama_se": "MARKAP INDONESIA",
            "sektor": "Sektor Perdagangan, Sektor Transportasi",
            "tanggal_terbit": "2023-07-10",
            "url_tdpse_detail": "https://pse.komdigi.go.id/tdpse-detail/15267",
            "website": "markapindo.com"
        },
        {
            "id": "9cb1ac37-6801-4403-9820-8818e6c6ac2e",
            "nama_pse": "LAPAK REGISTAR MURAH",
            "nama_se": "PT LAPAK REGISTAR MURAH",
            "sektor": "Sektor Teknologi Informasi dan Komunikasi",
            "tanggal_terbit": "2023-07-09",
            "url_tdpse_detail": "https://pse.komdigi.go.id/tdpse-detail/15262",
            "website": "apiku.id"
        },
        {
            "id": "9cb1ac47-2632-4c90-b36b-4ce34d94c15e",
            "nama_pse": "TRISULA MEDIKA TEKNOLOGI",
            "nama_se": "XYDIA HEALTHCARE TECHNOLOGY",
            "sektor": "Sektor Teknologi Informasi dan Komunikasi",
            "tanggal_terbit": "2023-07-09",
            "url_tdpse_detail": "https://pse.komdigi.go.id/tdpse-detail/15263",
            "website": "xydia.id"
        },
        {
            "id": "9cb1ac24-f9d7-4553-9f7b-62bd9c1678a2",
            "nama_pse": "PAPA DURIAN INDONESIA",
            "nama_se": "PAPA DURIAN",
            "sektor": "Sektor Perdagangan",
            "tanggal_terbit": "2023-07-08",
            "url_tdpse_detail": "https://pse.komdigi.go.id/tdpse-detail/15260",
            "website": "papadurian.com"
        },
        {
            "id": "9cb1ac37-64c6-43be-9f2e-1dbca5f7302c",
            "nama_pse": "SILO HAMBUDI SUKMONO, S.T.",
            "nama_se": "AYO LEGAL",
            "sektor": "Sektor Perdagangan, Sektor Teknologi Informasi dan Komunikasi, Sektor Pangan",
            "tanggal_terbit": "2023-07-08",
            "url_tdpse_detail": "https://pse.komdigi.go.id/tdpse-detail/15261",
            "website": "-"
        },
        {
            "id": "9cb1ac23-5093-4d1f-9531-86d9be71ece2",
            "nama_pse": "GUNUNG SULAH MEDIKA",
            "nama_se": "URIP SMART SYSTEM",
            "sektor": "Sektor Kesehatan",
            "tanggal_terbit": "2023-07-07",
            "url_tdpse_detail": "https://pse.komdigi.go.id/tdpse-detail/15259",
            "website": "rsuripsumoharjo.com"
        },
        {
            "id": "9cb1ac45-31f7-4ab0-9e35-946238dcdf34",
            "nama_pse": "JARINGAN DIGITAL NIAGA",
            "nama_se": "JARINGAN DIGITAL NIAGA",
            "sektor": "Sektor Teknologi Informasi dan Komunikasi",
            "tanggal_terbit": "2023-07-07",
            "url_tdpse_detail": "https://pse.komdigi.go.id/tdpse-detail/15253",
            "website": "jardiniaga.com"
        },
        {
            "id": "9cb1ac36-a848-46f6-bdcd-25288c40f062",
            "nama_pse": "ADMIN PINTAR KITA",
            "nama_se": "MIMIN",
            "sektor": "Sektor Teknologi Informasi dan Komunikasi",
            "tanggal_terbit": "2023-07-07",
            "url_tdpse_detail": "https://pse.komdigi.go.id/tdpse-detail/15256",
            "website": "mimin.io"
        },
        {
            "id": "9cb1ac24-ed87-4b55-aa34-57bebee04e1f",
            "nama_pse": "SEMUA PASTI TERHUBUNG",
            "nama_se": "PASTI TERHUBUNG",
            "sektor": "Sektor Teknologi Informasi dan Komunikasi",
            "tanggal_terbit": "2023-07-07",
            "url_tdpse_detail": "https://pse.komdigi.go.id/tdpse-detail/15244",
            "website": "pastiterhubung.web.id"
        },
        {
            "id": "9cb1ac24-f012-4d0e-8137-f0e5fc439821",
            "nama_pse": "ELEKTRIK TRANSPORTASI INDONESIA",
            "nama_se": "E-TRANS",
            "sektor": "Sektor Teknologi Informasi dan Komunikasi",
            "tanggal_terbit": "2023-07-07",
            "url_tdpse_detail": "https://pse.komdigi.go.id/tdpse-detail/15245",
            "website": "etrans.co.id"
        },
        {
            "id": "9cb1ac37-58bc-4521-bfb5-25d1cce362cf",
            "nama_pse": "PLUGO TEKNOLOGI INDONESIA",
            "nama_se": "HTTPS://WWW.PLUGO.CO/",
            "sektor": "Sektor Perdagangan, Sektor Teknologi Informasi dan Komunikasi",
            "tanggal_terbit": "2023-07-07",
            "url_tdpse_detail": "https://pse.komdigi.go.id/tdpse-detail/15248",
            "website": "plugo.co"
        },
        {
            "id": "9cb1ac47-1e2a-4424-8aad-4c0773bb444c",
            "nama_pse": "AVIANA GLOBAL NETWORK",
            "nama_se": "YUYUT PRIYONO",
            "sektor": "Sektor Teknologi Informasi dan Komunikasi",
            "tanggal_terbit": "2023-07-07",
            "url_tdpse_detail": "https://pse.komdigi.go.id/tdpse-detail/15255",
            "website": "-"
        },
        {
            "id": "9cb1ac37-61b1-4924-a7b0-2af50cc6148f",
            "nama_pse": "SOLUSI KARIR ASIA",
            "nama_se": "AICIF.SEEMECV.COM",
            "sektor": "Sektor Teknologi Informasi dan Komunikasi",
            "tanggal_terbit": "2023-07-07",
            "url_tdpse_detail": "https://pse.komdigi.go.id/tdpse-detail/15257",
            "website": "aicif.seemecv.com"
        },
        {
            "id": "9cb1ac24-f6f7-43a0-aa5e-b61e14db3be6",
            "nama_pse": "ESTETIKA DERMATO CENTER",
            "nama_se": "WEBSITE",
            "sektor": "Sektor Kesehatan",
            "tanggal_terbit": "2023-07-07",
            "url_tdpse_detail": "https://pse.komdigi.go.id/tdpse-detail/15258",
            "website": "estetiderma.co.id"
        },
        {
            "id": "9cb1ac47-06a5-4741-a33a-834ba6f25f52",
            "nama_pse": "DELFRI DIGITAL SOLUTIONS",
            "nama_se": "SIMRS AF MEDIS DAN RME",
            "sektor": "Sektor Kesehatan, Sektor Teknologi Informasi dan Komunikasi",
            "tanggal_terbit": "2023-07-06",
            "url_tdpse_detail": "https://pse.komdigi.go.id/tdpse-detail/15235",
            "website": "-"
        },
        {
            "id": "9cb1ac24-df39-43a9-bb99-6f702c88982a",
            "nama_pse": "MAHERA MEDIA GROUP",
            "nama_se": "MAHERANEWS",
            "sektor": "Sektor Teknologi Informasi dan Komunikasi",
            "tanggal_terbit": "2023-07-06",
            "url_tdpse_detail": "https://pse.komdigi.go.id/tdpse-detail/15236",
            "website": "-"
        },
        {
            "id": "9cb1ac37-5238-4774-a5ac-50144210f5ec",
            "nama_pse": "TRIDENSIA MULTI SARANA",
            "nama_se": "HELSIA",
            "sektor": "Sektor Kesehatan",
            "tanggal_terbit": "2023-07-06",
            "url_tdpse_detail": "https://pse.komdigi.go.id/tdpse-detail/15237",
            "website": "helsia.trisatriapb.com"
        },
        {
            "id": "9cb1ac24-e218-4dd3-a879-ac24f1822409",
            "nama_pse": "TOYS GAMES INDONESIA",
            "nama_se": "WEBSITE PT TOYS GAMES INDONESIA (WWW.TOYSKINGDOM.CO.ID)",
            "sektor": "Sektor Perdagangan, Sektor Teknologi Informasi dan Komunikasi",
            "tanggal_terbit": "2023-07-06",
            "url_tdpse_detail": "https://pse.komdigi.go.id/tdpse-detail/15239",
            "website": "toyskingdom.co.id"
        },
        {
            "id": "9cb1ac37-54ce-4081-b28a-22edfcb83335",
            "nama_pse": "ROOJAI SERVICES INDONESIA",
            "nama_se": "ROOJAI INDONESIA (ID.CO.ROOJAI.APP)/ ROOJAI MYACCOUNT",
            "sektor": "Sektor Teknologi Informasi dan Komunikasi",
            "tanggal_terbit": "2023-07-06",
            "url_tdpse_detail": "https://pse.komdigi.go.id/tdpse-detail/15240",
            "website": "myaccount.roojai.co.id"
        },
        {
            "id": "9cb1ac24-e57e-4b4e-b851-3c382907ed68",
            "nama_pse": "INDO HUSADA UTAMA",
            "nama_se": "HIS RADJAK",
            "sektor": "Sektor Kesehatan",
            "tanggal_terbit": "2023-07-06",
            "url_tdpse_detail": "https://pse.komdigi.go.id/tdpse-detail/15241",
            "website": "RADJAKHOSPITAL.COM"
        },
        {
            "id": "9cb1ac47-119b-4925-b89e-cc550568d2e7",
            "nama_pse": "UNIVERSITAS PELITA HARAPAN",
            "nama_se": "UPH MOBILE",
            "sektor": "Sektor Teknologi Informasi dan Komunikasi",
            "tanggal_terbit": "2023-07-06",
            "url_tdpse_detail": "https://pse.komdigi.go.id/tdpse-detail/15242",
            "website": "-"
        },
        {
            "id": "9cb1ac24-ea91-46d4-8239-fffbcfb115bd",
            "nama_pse": "WIDYA MANDIRI MEDIKA",
            "nama_se": "MEDIPLUM",
            "sektor": "Sektor Kesehatan",
            "tanggal_terbit": "2023-07-06",
            "url_tdpse_detail": "https://pse.komdigi.go.id/tdpse-detail/15243",
            "website": "-"
        },
        {
            "id": "9cb1ac37-22f8-45ed-912b-3cbb93b56840",
            "nama_pse": "JAMAAH HAJI KLATEN",
            "nama_se": "SISTEM INFORMASI MANAJEMEN RUMAH SAKIT DAN REKAM MEDIS ELEKTRONIK RSU ISLAM CAWAS",
            "sektor": "Sektor Kesehatan",
            "tanggal_terbit": "2023-07-05",
            "url_tdpse_detail": "https://pse.komdigi.go.id/tdpse-detail/15226",
            "website": "-"
        },
        {
            "id": "9cb1ac46-f5bc-40c2-84aa-bef3969048d9",
            "nama_pse": "MSIG LIFE INSURANCE INDONESIA",
            "nama_se": "MY HEALTH RISK SCORE SINARMAS MSIG LIFE",
            "sektor": "Sektor Keuangan",
            "tanggal_terbit": "2023-07-05",
            "url_tdpse_detail": "https://pse.komdigi.go.id/tdpse-detail/15229",
            "website": "myhealthriskscore.com"
        },
        {
            "id": "9cb1ac24-ca48-4420-80f3-9670c4bc0839",
            "nama_pse": "M CASH INTEGRASI",
            "nama_se": "MCASH",
            "sektor": "Sektor Perdagangan, Sektor Teknologi Informasi dan Komunikasi",
            "tanggal_terbit": "2023-07-05",
            "url_tdpse_detail": "https://pse.komdigi.go.id/tdpse-detail/15223",
            "website": "mcash.id"
        },
        {
            "id": "9cb1ac37-46db-4d88-a91f-abae03d75946",
            "nama_pse": "ROSE VALLEY VILLAS",
            "nama_se": "HTTPS://WWW.BALIROSEVALLEY.COM/",
            "sektor": "Sektor Perdagangan",
            "tanggal_terbit": "2023-07-05",
            "url_tdpse_detail": "https://pse.komdigi.go.id/tdpse-detail/15225",
            "website": "-"
        },
        {
            "id": "9cb1ac24-ce48-43df-98b3-f5b0e0130723",
            "nama_pse": "SOLUSI MANUFAKTUR TEKNOLOGI",
            "nama_se": "CDMS",
            "sektor": "Sektor Teknologi Informasi dan Komunikasi",
            "tanggal_terbit": "2023-07-05",
            "url_tdpse_detail": "https://pse.komdigi.go.id/tdpse-detail/15222",
            "website": "smartconsultant.co"
        },
        {
            "id": "9cb1ac46-fd75-4e31-bbe1-9692d8b63f49",
            "nama_pse": "SOLUSI MANUFAKTUR TEKNOLOGI",
            "nama_se": "KLEARANCE",
            "sektor": "Sektor Teknologi Informasi dan Komunikasi",
            "tanggal_terbit": "2023-07-05",
            "url_tdpse_detail": "https://pse.komdigi.go.id/tdpse-detail/15224",
            "website": "klearance.online"
        },
        {
            "id": "9cb1ac24-d0ac-4083-bfeb-f8628ad11c85",
            "nama_pse": "SOLUSI MANUFAKTUR TEKNOLOGI",
            "nama_se": "FREIGHTDAY",
            "sektor": "Sektor Teknologi Informasi dan Komunikasi",
            "tanggal_terbit": "2023-07-05",
            "url_tdpse_detail": "https://pse.komdigi.go.id/tdpse-detail/15227",
            "website": "freightday.com"
        },
        {
            "id": "9cb1ac24-d475-4763-bd4d-b4f89012d622",
            "nama_pse": "DOTERRA INDONESIA MARKETING",
            "nama_se": "DOTERRA.COM/ID/ID_ID",
            "sektor": "Sektor Perdagangan",
            "tanggal_terbit": "2023-07-05",
            "url_tdpse_detail": "https://pse.komdigi.go.id/tdpse-detail/15228",
            "website": "doterra.com"
        },
        {
            "id": "9cb1ac37-49d6-45b2-b280-0f583d689c82",
            "nama_pse": "PARAMITRA ALFA SEKURITAS",
            "nama_se": "WWW.ALPHAINVESTASI.ID",
            "sektor": "Sektor Perdagangan",
            "tanggal_terbit": "2023-07-05",
            "url_tdpse_detail": "https://pse.komdigi.go.id/tdpse-detail/15230",
            "website": "alphainvestasi.id"
        },
        {
            "id": "9cb1ac24-d72d-4063-9833-f2327bfb8759",
            "nama_pse": "SUHARDI",
            "nama_se": "STARTKLINIK",
            "sektor": "Sektor Teknologi Informasi dan Komunikasi",
            "tanggal_terbit": "2023-07-05",
            "url_tdpse_detail": "https://pse.komdigi.go.id/tdpse-detail/15234",
            "website": "hardi-soft.com"
        },
        {
            "id": "9cb1ac47-0364-4f7b-9dec-ee97b43e7cfa",
            "nama_pse": "PARAMITRA ALFA SEKURITAS",
            "nama_se": "WWW.PARAMITRA.COM",
            "sektor": "Sektor Perdagangan",
            "tanggal_terbit": "2023-07-05",
            "url_tdpse_detail": "https://pse.komdigi.go.id/tdpse-detail/15231",
            "website": "paramitra.com"
        },
        {
            "id": "9cb1ac24-2a4f-4c70-a9ba-ed9cb7e62271",
            "nama_pse": "GENIUS SPACE EDUCATION",
            "nama_se": "GENIUS.SPACE",
            "sektor": "Sektor Teknologi Informasi dan Komunikasi",
            "tanggal_terbit": "2023-07-04",
            "url_tdpse_detail": "https://pse.komdigi.go.id/tdpse-detail/15193",
            "website": "id.genius.space"
        },
        {
            "id": "9cb1ac24-66cd-4b8c-9df7-d844402209ff",
            "nama_pse": "BIMASAKTI MULTI SINERGI",
            "nama_se": "GUNUNGKIDUL PAY",
            "sektor": "Sektor Keuangan",
            "tanggal_terbit": "2023-07-04",
            "url_tdpse_detail": "https://pse.komdigi.go.id/tdpse-detail/15195",
            "website": "-"
        },
        {
            "id": "9cb1ac24-715a-46a2-bfb2-9e7dac026fc7",
            "nama_pse": "BIMASAKTI MULTI SINERGI",
            "nama_se": "GRESIK PAY",
            "sektor": "Sektor Keuangan",
            "tanggal_terbit": "2023-07-04",
            "url_tdpse_detail": "https://pse.komdigi.go.id/tdpse-detail/15196",
            "website": "-"
        }
    ],
    "processingTimeMs": 2,
    "query": "",
    "totalHits": 19121,
    "hitsPerPage": 50,
    "page": 132,
    "totalPages": 383
}