{
    "hits": [
        {
            "id": "9e34f0b6-bab7-4277-aa3b-63bd765d75a3",
            "nama_pse": "DIVA SAGARA MARAJATAMA",
            "nama_se": "BABAYAR",
            "sektor": "Sektor Teknologi Informasi dan Komunikasi",
            "tanggal_terbit": "2025-02-14",
            "url_tdpse_detail": "https://pse.komdigi.go.id/tdpse-detail/22388",
            "website": "babayar.id"
        },
        {
            "id": "9e34f102-f7cb-4a48-b9f8-3ed74dee3fc2",
            "nama_pse": "JURAGAN DUA ENAM",
            "nama_se": "KASIH IZIN",
            "sektor": "Sektor Teknologi Informasi dan Komunikasi",
            "tanggal_terbit": "2025-02-14",
            "url_tdpse_detail": "https://pse.komdigi.go.id/tdpse-detail/22389",
            "website": "kasihizin.wordpress.com"
        },
        {
            "id": "9e34f115-bff1-4076-bdb5-e137ac9ca078",
            "nama_pse": "MEDIKA TEKNOLOGI",
            "nama_se": "SIP-KES (SISTEM INFORMASI PELAYANAN KESEHATAN)",
            "sektor": "Sektor Kesehatan, Sektor Teknologi Informasi dan Komunikasi",
            "tanggal_terbit": "2025-02-14",
            "url_tdpse_detail": "https://pse.komdigi.go.id/tdpse-detail/22390",
            "website": "sipkes.co.id"
        },
        {
            "id": "9e34f2b1-27f6-4c51-a012-833fe8d686cb",
            "nama_pse": "HENDRA",
            "nama_se": "LAYANAN INTERNET LOKAL ( RT RW NET )",
            "sektor": "Sektor Teknologi Informasi dan Komunikasi",
            "tanggal_terbit": "2025-02-14",
            "url_tdpse_detail": "https://pse.komdigi.go.id/tdpse-detail/22391",
            "website": "-"
        },
        {
            "id": "9e34f3a0-56d9-4d0c-acab-3f3153e30846",
            "nama_pse": "CV. TODAK SOURCE",
            "nama_se": "SMART E-GOVERMENT",
            "sektor": "Sektor Teknologi Informasi dan Komunikasi",
            "tanggal_terbit": "2025-02-14",
            "url_tdpse_detail": "https://pse.komdigi.go.id/tdpse-detail/22392",
            "website": "-"
        },
        {
            "id": "9e34f8a4-bc17-4da1-8b27-efa53573ac54",
            "nama_pse": "PASIFIK CIPTA SOLUSI",
            "nama_se": "POSE",
            "sektor": "Sektor Teknologi Informasi dan Komunikasi",
            "tanggal_terbit": "2025-02-14",
            "url_tdpse_detail": "https://pse.komdigi.go.id/tdpse-detail/22393",
            "website": "pose.pcsindonesia.co.id"
        },
        {
            "id": "9e350524-19f4-487c-bab3-4b72c9dca60c",
            "nama_pse": "AGRES INFO TEKNOLOGI",
            "nama_se": "AGRESCARE.COM",
            "sektor": "Sektor Perdagangan",
            "tanggal_terbit": "2025-02-14",
            "url_tdpse_detail": "https://pse.komdigi.go.id/tdpse-detail/22394",
            "website": "agrescare.com"
        },
        {
            "id": "9e35138f-896b-4563-9161-78dc5ce222d8",
            "nama_pse": "INTERAKTIF FINANSIAL TEKNOLOGI",
            "nama_se": "INFINITE QRIS",
            "sektor": "Sektor Teknologi Informasi dan Komunikasi",
            "tanggal_terbit": "2025-02-14",
            "url_tdpse_detail": "https://pse.komdigi.go.id/tdpse-detail/22396",
            "website": "infinite.co.id"
        },
        {
            "id": "9e35152e-53b9-4a4f-ba61-41a34a96c8f4",
            "nama_pse": "LOKER DIGITAL VISION",
            "nama_se": "LOKERPAY",
            "sektor": "Sektor Perdagangan",
            "tanggal_terbit": "2025-02-14",
            "url_tdpse_detail": "https://pse.komdigi.go.id/tdpse-detail/22397",
            "website": "ppob.lokerpay.com"
        },
        {
            "id": "9e351555-57cc-4ccd-a41c-0e605e4d85a0",
            "nama_pse": "RUMAH PEREMPUAN SEHATI",
            "nama_se": "FILMORE MEDICAL CENTER WEBSITE",
            "sektor": "Sektor Kesehatan",
            "tanggal_terbit": "2025-02-14",
            "url_tdpse_detail": "https://pse.komdigi.go.id/tdpse-detail/22398",
            "website": "filmoremedicalcenter.com"
        },
        {
            "id": "9e351aff-3325-4119-b065-a318dc88be49",
            "nama_pse": "AGRES INFO TEKNOLOGI",
            "nama_se": "AGRESPC.COM",
            "sektor": "Sektor Perdagangan",
            "tanggal_terbit": "2025-02-14",
            "url_tdpse_detail": "https://pse.komdigi.go.id/tdpse-detail/22399",
            "website": "agrespc.com"
        },
        {
            "id": "9e351ecf-62fe-4c9f-8ac7-1d3790058787",
            "nama_pse": "INTERAKTIF INTERNASIONAL",
            "nama_se": "INSOMNIA",
            "sektor": "Sektor Teknologi Informasi dan Komunikasi",
            "tanggal_terbit": "2025-02-14",
            "url_tdpse_detail": "https://pse.komdigi.go.id/tdpse-detail/22400",
            "website": "insomnia.com.ai"
        },
        {
            "id": "9e354a38-b329-4c03-b73a-0542e39b47e9",
            "nama_pse": "MUNTHE NETWORK SOLUTION",
            "nama_se": "PT MUNTHE NETWORK SOLUTION",
            "sektor": "Sektor Teknologi Informasi dan Komunikasi",
            "tanggal_terbit": "2025-02-14",
            "url_tdpse_detail": "https://pse.komdigi.go.id/tdpse-detail/22401",
            "website": "-"
        },
        {
            "id": "9e3550f0-36f1-4019-b5f0-026fedeb9f7d",
            "nama_pse": "GLOBAL MEDIA SOLUSI",
            "nama_se": "KUISEN",
            "sektor": "Sektor Perdagangan, Sektor Teknologi Informasi dan Komunikasi",
            "tanggal_terbit": "2025-02-14",
            "url_tdpse_detail": "https://pse.komdigi.go.id/tdpse-detail/22402",
            "website": "-"
        },
        {
            "id": "9e358f0e-957d-4081-9774-e3bf10da1cd5",
            "nama_pse": "KODE DARI HATI",
            "nama_se": "SOLUSI PEMBUATAN WEBSITE INSTANT BERKUALITAS",
            "sektor": "Sektor Teknologi Informasi dan Komunikasi",
            "tanggal_terbit": "2025-02-14",
            "url_tdpse_detail": "https://pse.komdigi.go.id/tdpse-detail/22404",
            "website": "mulaibikinweb.com"
        },
        {
            "id": "9e32cef1-fe36-42b8-ab2f-c70d9bb9d6a4",
            "nama_pse": "AWAN DJINGGA GROUP",
            "nama_se": "KUBAYARIN.COM",
            "sektor": "Sektor Perdagangan",
            "tanggal_terbit": "2025-02-13",
            "url_tdpse_detail": "https://pse.komdigi.go.id/tdpse-detail/22376",
            "website": "kubayarin.com"
        },
        {
            "id": "9e32d051-de0c-4455-b5a9-322f6e4e75c0",
            "nama_pse": "AMSAN POWER INDONESIA",
            "nama_se": "AMSAN ELECTRONICS",
            "sektor": "Sektor Perdagangan",
            "tanggal_terbit": "2025-02-13",
            "url_tdpse_detail": "https://pse.komdigi.go.id/tdpse-detail/22377",
            "website": "amsanelectronics.com"
        },
        {
            "id": "9e32ed88-ed10-4e28-895a-6b67e9995440",
            "nama_pse": "EMCO DIGITAL INDONESIA",
            "nama_se": "DIGITALINDO",
            "sektor": "Sektor Teknologi Informasi dan Komunikasi",
            "tanggal_terbit": "2025-02-13",
            "url_tdpse_detail": "https://pse.komdigi.go.id/tdpse-detail/22378",
            "website": "digitalindo.co.id"
        },
        {
            "id": "9e330bf6-5598-44b3-ad99-f6006731461e",
            "nama_pse": "DINAMIKA MEDIAKOM",
            "nama_se": "AIOSS",
            "sektor": "Sektor Teknologi Informasi dan Komunikasi",
            "tanggal_terbit": "2025-02-13",
            "url_tdpse_detail": "https://pse.komdigi.go.id/tdpse-detail/22379",
            "website": "aioss.id"
        },
        {
            "id": "9e330ed9-a0b7-4f1e-ad38-9079ed04d712",
            "nama_pse": "SELANCAR INDONESIA RAYA",
            "nama_se": "SOORFINC",
            "sektor": "Sektor Perdagangan, Sektor Teknologi Informasi dan Komunikasi",
            "tanggal_terbit": "2025-02-13",
            "url_tdpse_detail": "https://pse.komdigi.go.id/tdpse-detail/22380",
            "website": "soorfinc.com"
        },
        {
            "id": "9e3319b1-e85b-47c3-86fb-f56ab2c810ea",
            "nama_pse": "RUKUN SOLUSI MEDIKA",
            "nama_se": "SOLUMEDIS 2",
            "sektor": "Sektor Kesehatan, Sektor Teknologi Informasi dan Komunikasi",
            "tanggal_terbit": "2025-02-13",
            "url_tdpse_detail": "https://pse.komdigi.go.id/tdpse-detail/22381",
            "website": "solumedis.id"
        },
        {
            "id": "9e333dc4-7933-4171-aedf-d27a7ffe5982",
            "nama_pse": "BACA MEDIA KAWAKIBI",
            "nama_se": "BACAIND.COM",
            "sektor": "Sektor Teknologi Informasi dan Komunikasi",
            "tanggal_terbit": "2025-02-13",
            "url_tdpse_detail": "https://pse.komdigi.go.id/tdpse-detail/22382",
            "website": "bacaind.com"
        },
        {
            "id": "9e334742-2090-4236-a983-b9b9133d6c5b",
            "nama_pse": "BANGUN ERA DIGITAL",
            "nama_se": "BANGUNERA",
            "sektor": "Sektor Perdagangan, Sektor Teknologi Informasi dan Komunikasi",
            "tanggal_terbit": "2025-02-13",
            "url_tdpse_detail": "https://pse.komdigi.go.id/tdpse-detail/22383",
            "website": "bangunera.com"
        },
        {
            "id": "9e334ba6-882c-4fd2-b7d8-42f8e3e1345e",
            "nama_pse": "SULTHAN ALAM",
            "nama_se": "MENFESS",
            "sektor": "Sektor Teknologi Informasi dan Komunikasi",
            "tanggal_terbit": "2025-02-13",
            "url_tdpse_detail": "https://pse.komdigi.go.id/tdpse-detail/22384",
            "website": "-"
        },
        {
            "id": "9e336303-f756-4670-918e-17319f85d401",
            "nama_pse": "CELESTIAL CREATIVE INDONESIA",
            "nama_se": "CELESTIX",
            "sektor": "Sektor Perdagangan",
            "tanggal_terbit": "2025-02-13",
            "url_tdpse_detail": "https://pse.komdigi.go.id/tdpse-detail/22385",
            "website": "celestix.id"
        },
        {
            "id": "9e336887-349c-4911-b153-a93a4a219ab8",
            "nama_pse": "NEXUS SOLUSI TEKNOLOGI",
            "nama_se": "SIMALAB",
            "sektor": "Sektor Teknologi Informasi dan Komunikasi",
            "tanggal_terbit": "2025-02-13",
            "url_tdpse_detail": "https://pse.komdigi.go.id/tdpse-detail/22386",
            "website": "erp.nexussolusiteknologi.co.id"
        },
        {
            "id": "9e337786-ddcb-44b3-97e7-f67037f8b276",
            "nama_pse": "KREATIF BANGUN NUSANTARA",
            "nama_se": "BANGUNPAY",
            "sektor": "Sektor Perdagangan, Sektor Teknologi Informasi dan Komunikasi",
            "tanggal_terbit": "2025-02-13",
            "url_tdpse_detail": "https://pse.komdigi.go.id/tdpse-detail/22387",
            "website": "bangunpay.com"
        },
        {
            "id": "9e3183d8-6f61-4356-864c-05e85d7ee70c",
            "nama_pse": "USAHA BERSAMA BERSAHABAT",
            "nama_se": "UBEST",
            "sektor": "Sektor Perdagangan",
            "tanggal_terbit": "2025-02-12",
            "url_tdpse_detail": "https://pse.komdigi.go.id/tdpse-detail/22374",
            "website": "ubest.my.id"
        },
        {
            "id": "9e31c192-80d3-4a88-981d-e72e92427653",
            "nama_pse": "APLIKASI PEMERSATU BANGSA",
            "nama_se": "GETPAY",
            "sektor": "Sektor Perdagangan, Sektor Teknologi Informasi dan Komunikasi",
            "tanggal_terbit": "2025-02-12",
            "url_tdpse_detail": "https://pse.komdigi.go.id/tdpse-detail/22375",
            "website": "-"
        },
        {
            "id": "9e3108c4-a6ca-4535-a1df-43f1f6677901",
            "nama_pse": "STREET DETECTIVE AMANAH",
            "nama_se": "STREET DETECTIVE",
            "sektor": "Sektor Teknologi Informasi dan Komunikasi",
            "tanggal_terbit": "2025-02-12",
            "url_tdpse_detail": "https://pse.komdigi.go.id/tdpse-detail/22364",
            "website": "-"
        },
        {
            "id": "9e310999-0d96-4363-a289-6cc8f5c83887",
            "nama_pse": "DIGIVESTASI MEDIA INDONESIA",
            "nama_se": "DIGIVESTASI",
            "sektor": "Sektor Teknologi Informasi dan Komunikasi",
            "tanggal_terbit": "2025-02-12",
            "url_tdpse_detail": "https://pse.komdigi.go.id/tdpse-detail/22365",
            "website": "digivestasi.com"
        },
        {
            "id": "9e301ac9-9ac9-4f67-9190-71bb809ed6ad",
            "nama_pse": "YASPI ROBBI RODIYA",
            "nama_se": "MOZZA CELL",
            "sektor": "Sektor Perdagangan",
            "tanggal_terbit": "2025-02-12",
            "url_tdpse_detail": "https://pse.komdigi.go.id/tdpse-detail/22361",
            "website": "-"
        },
        {
            "id": "9e309743-2eb5-4cce-a07e-9a8f30514b32",
            "nama_pse": "BIMJAR INOVASI INDONESIA",
            "nama_se": "SIMULASICAT.ID",
            "sektor": "Sektor Perdagangan, Sektor Teknologi Informasi dan Komunikasi",
            "tanggal_terbit": "2025-02-12",
            "url_tdpse_detail": "https://pse.komdigi.go.id/tdpse-detail/22362",
            "website": "simulasicat.id"
        },
        {
            "id": "9e30ea58-a506-4a25-b9f4-56c6d0c034b1",
            "nama_pse": "DHE BLOCKCHAIN TECHNOLOGY",
            "nama_se": "PRINGGA",
            "sektor": "Sektor Teknologi Informasi dan Komunikasi",
            "tanggal_terbit": "2025-02-12",
            "url_tdpse_detail": "https://pse.komdigi.go.id/tdpse-detail/22363",
            "website": "-"
        },
        {
            "id": "9e313604-8d56-4aea-b71a-8867981b9097",
            "nama_pse": "HITACHI CHANNEL SOLUTIONS INDONESIA",
            "nama_se": "HITACHI POS",
            "sektor": "Sektor Perdagangan, Sektor Teknologi Informasi dan Komunikasi",
            "tanggal_terbit": "2025-02-12",
            "url_tdpse_detail": "https://pse.komdigi.go.id/tdpse-detail/22366",
            "website": "-"
        },
        {
            "id": "9e31383b-14d7-4c7f-a7e9-acb432877b4c",
            "nama_pse": "SAMBIL LINTAS SEJAHTERA",
            "nama_se": "sambillewat",
            "sektor": "Sektor Transportasi, Sektor Teknologi Informasi dan Komunikasi",
            "tanggal_terbit": "2025-02-12",
            "url_tdpse_detail": "https://pse.komdigi.go.id/tdpse-detail/22367",
            "website": "sambillewat.com"
        },
        {
            "id": "9e3141ab-d890-4219-ad78-47fbba8e0216",
            "nama_pse": "LBS URUN DANA",
            "nama_se": "LBS URUN DANA",
            "sektor": "Sektor Keuangan",
            "tanggal_terbit": "2025-02-12",
            "url_tdpse_detail": "https://pse.komdigi.go.id/tdpse-detail/22368",
            "website": "lbs.id"
        },
        {
            "id": "9e3142bb-7140-4c40-8062-cc4ac76ef9b3",
            "nama_pse": "KOREA INVESTMENT AND SEKURITAS INDONESIA",
            "nama_se": "iKISI",
            "sektor": "Sektor Keuangan",
            "tanggal_terbit": "2025-02-12",
            "url_tdpse_detail": "https://pse.komdigi.go.id/tdpse-detail/22369",
            "website": "-"
        },
        {
            "id": "9e314368-3f40-491b-9f54-c2013601dcc4",
            "nama_pse": "SOLUSI PEMBAYARAN ELEKTRONIK",
            "nama_se": "CRING!",
            "sektor": "Sektor Keuangan, Sektor Teknologi Informasi dan Komunikasi",
            "tanggal_terbit": "2025-02-12",
            "url_tdpse_detail": "https://pse.komdigi.go.id/tdpse-detail/22370",
            "website": "cring.id"
        },
        {
            "id": "9e2f3883-1cc3-4f94-a6de-0a3ea3752fd2",
            "nama_pse": "SUN LIFE FINANCIAL INDONESIA",
            "nama_se": "CLAUDIA (CREDIT LIFE DIGITAL APPLICATION)",
            "sektor": "Sektor Keuangan",
            "tanggal_terbit": "2025-02-11",
            "url_tdpse_detail": "https://pse.komdigi.go.id/tdpse-detail/22352",
            "website": "pos.sunlife.co.id"
        },
        {
            "id": "9e2f4657-f3c4-4f2b-8b65-101065119323",
            "nama_pse": "ASKARA GANTARI NUSANTARA",
            "nama_se": "ASKARA GANTARI NUSANTARA",
            "sektor": "Sektor Teknologi Informasi dan Komunikasi",
            "tanggal_terbit": "2025-02-11",
            "url_tdpse_detail": "https://pse.komdigi.go.id/tdpse-detail/22353",
            "website": "askaragantarinusantara.com"
        },
        {
            "id": "9e2f52a5-1030-413c-860f-1b1f4778aba5",
            "nama_pse": "MAHA KARYA REKSAWARGA",
            "nama_se": "VILLAGGIO PRIVILEGE CLUB",
            "sektor": "Sektor Perdagangan",
            "tanggal_terbit": "2025-02-11",
            "url_tdpse_detail": "https://pse.komdigi.go.id/tdpse-detail/22354",
            "website": "-"
        },
        {
            "id": "9e2e88bf-acf7-4572-945e-82ba1d3c35b5",
            "nama_pse": "DATA DIGITAL INDONESIA",
            "nama_se": "DEWAHOSTER",
            "sektor": "Sektor Teknologi Informasi dan Komunikasi",
            "tanggal_terbit": "2025-02-11",
            "url_tdpse_detail": "https://pse.komdigi.go.id/tdpse-detail/22351",
            "website": "dewahoster.com"
        },
        {
            "id": "9e2f5399-dc23-484c-8116-20f1b9a161b2",
            "nama_pse": "PUTERA KONSEPINDO",
            "nama_se": "LESPORTSAC.CO.ID",
            "sektor": "Sektor Perdagangan",
            "tanggal_terbit": "2025-02-11",
            "url_tdpse_detail": "https://pse.komdigi.go.id/tdpse-detail/22355",
            "website": "lesportsac.co.id"
        },
        {
            "id": "9e2f6e4a-e834-4fef-8dd8-1fd11bac4a0e",
            "nama_pse": "PUTERA KONSEPINDO",
            "nama_se": "CATLIFESTYLE.CO.ID",
            "sektor": "Sektor Perdagangan",
            "tanggal_terbit": "2025-02-11",
            "url_tdpse_detail": "https://pse.komdigi.go.id/tdpse-detail/22356",
            "website": "catlifestyle.co.id"
        },
        {
            "id": "9e2f7ab9-ed6d-45c5-9a38-d75fb8367ee1",
            "nama_pse": "DAYTONA AZIA",
            "nama_se": "DAYTONA INDNESIA SHOPPING STORE",
            "sektor": "Sektor Perdagangan, Sektor Teknologi Informasi dan Komunikasi",
            "tanggal_terbit": "2025-02-11",
            "url_tdpse_detail": "https://pse.komdigi.go.id/tdpse-detail/22357",
            "website": "shop.daytonaindonesia.com"
        },
        {
            "id": "9e2fd775-a760-4f84-bc24-39a8f5462748",
            "nama_pse": "ECONEXT VENTURES INDONESIA",
            "nama_se": "econext ventures",
            "sektor": "Sektor Perdagangan",
            "tanggal_terbit": "2025-02-11",
            "url_tdpse_detail": "https://pse.komdigi.go.id/tdpse-detail/22358",
            "website": "econextventures.com"
        },
        {
            "id": "9e2fda24-3095-4a2a-982c-1d98e613f8b0",
            "nama_pse": "ITQON MEDIA INDONESIA",
            "nama_se": "SIMA POLIKLINIK",
            "sektor": "Sektor Kesehatan",
            "tanggal_terbit": "2025-02-11",
            "url_tdpse_detail": "https://pse.komdigi.go.id/tdpse-detail/22359",
            "website": "-"
        },
        {
            "id": "9e300607-10ca-4589-85a8-574ce479e3f7",
            "nama_pse": "WIJAYA LINTAS NUSANTARA",
            "nama_se": "WIJAYANET",
            "sektor": "Sektor Teknologi Informasi dan Komunikasi",
            "tanggal_terbit": "2025-02-11",
            "url_tdpse_detail": "https://pse.komdigi.go.id/tdpse-detail/22360",
            "website": "-"
        },
        {
            "id": "9e2d1a85-a4d2-45a0-a843-de10f913def5",
            "nama_pse": "HIGH AND LOW",
            "nama_se": "HIGH \u0026 LOW HEADHUNTERS",
            "sektor": "Sektor Teknologi Informasi dan Komunikasi",
            "tanggal_terbit": "2025-02-10",
            "url_tdpse_detail": "https://pse.komdigi.go.id/tdpse-detail/22339",
            "website": "highandlowagency.com"
        }
    ],
    "processingTimeMs": 3,
    "query": "",
    "totalHits": 19121,
    "hitsPerPage": 50,
    "page": 7,
    "totalPages": 383
}