{
    "hits": [
        {
            "id": "9cb1ab81-a247-48db-86a7-7ba6345fe2b1",
            "nama_pse": "SYNGENTA INDONESIA",
            "nama_se": "CROPWISE SMARTGROW",
            "sektor": "Sektor Teknologi Informasi dan Komunikasi, Sektor Teknologi Informasi dan Komunikasi",
            "tanggal_terbit": "2022-01-31",
            "url_tdpse_detail": "https://pse.komdigi.go.id/tdpse-detail/3141",
            "website": "-"
        },
        {
            "id": "9cb1ab7a-7ee5-4774-b216-8258a78d0193",
            "nama_pse": "BERCAHAYA DANA ABADI",
            "nama_se": "KSP BERCAHAYA DANA ABADI",
            "sektor": "Sektor Perdagangan, Sektor Perdagangan, Sektor Keuangan, Sektor Keuangan, Sektor Teknologi Informasi dan Komunikasi, Sektor Teknologi Informasi dan Komunikasi",
            "tanggal_terbit": "2022-01-31",
            "url_tdpse_detail": "https://pse.komdigi.go.id/tdpse-detail/3132",
            "website": "-"
        },
        {
            "id": "9cb1ab8a-311a-4000-ad6c-446ace1e3cfc",
            "nama_pse": "AGRI PINTAR ASIA",
            "nama_se": "SEMAAI",
            "sektor": "Sektor Perdagangan, Sektor Perdagangan, Sektor Pangan, Sektor Pangan",
            "tanggal_terbit": "2022-01-31",
            "url_tdpse_detail": "https://pse.komdigi.go.id/tdpse-detail/3142",
            "website": "https://play.google.com/store/apps/details?id=com.semaai.toko"
        },
        {
            "id": "9cb1ab7a-97c2-42c6-9a0f-7cbe9df85a33",
            "nama_pse": "TEKNOLOGI MEDIKA PRATAMA",
            "nama_se": "SWIPERXBELANJA",
            "sektor": "Sektor Perdagangan, Sektor Perdagangan",
            "tanggal_terbit": "2022-01-31",
            "url_tdpse_detail": "https://pse.komdigi.go.id/tdpse-detail/3144",
            "website": "belanja.swiperxapp.com"
        },
        {
            "id": "9cb1ab82-49e7-414d-aa3c-47aba3490fa1",
            "nama_pse": "PONDER TEKNOLOGI INDONESIA",
            "nama_se": "PONDER TEKNOLOGI INDONESIA",
            "sektor": "Sektor Perdagangan, Sektor Perdagangan, Sektor Keuangan, Sektor Keuangan, Sektor Teknologi Informasi dan Komunikasi, Sektor Teknologi Informasi dan Komunikasi",
            "tanggal_terbit": "2022-01-31",
            "url_tdpse_detail": "https://pse.komdigi.go.id/tdpse-detail/3133",
            "website": "ptponder.id"
        },
        {
            "id": "9cb1ab8a-584d-457b-ad6b-133073dad310",
            "nama_pse": "ASAYAMA FAMILI CAHAYA INDONESIA",
            "nama_se": "AFC LIFE SCIENCE",
            "sektor": "Sektor Perdagangan, Sektor Perdagangan",
            "tanggal_terbit": "2022-01-31",
            "url_tdpse_detail": "https://pse.komdigi.go.id/tdpse-detail/3138",
            "website": "-"
        },
        {
            "id": "9cb1ab8a-5c79-4cb3-8a79-a1920bc31d54",
            "nama_pse": "MEDICAL EINSTEIN SURABAYA",
            "nama_se": "CV MEDICAL EINSTEIN SURABAYA",
            "sektor": "Sektor Perdagangan, Sektor Perdagangan",
            "tanggal_terbit": "2022-01-31",
            "url_tdpse_detail": "https://pse.komdigi.go.id/tdpse-detail/3139",
            "website": "-"
        },
        {
            "id": "9cb1ab7a-a13e-4077-b8fc-38e401f265d0",
            "nama_pse": "TOKO DARING NUSANTARA",
            "nama_se": "TOKO DARING",
            "sektor": "Sektor Perdagangan, Sektor Perdagangan, Sektor Teknologi Informasi dan Komunikasi, Sektor Teknologi Informasi dan Komunikasi",
            "tanggal_terbit": "2022-01-31",
            "url_tdpse_detail": "https://pse.komdigi.go.id/tdpse-detail/3145",
            "website": "tokodaring.co.id"
        },
        {
            "id": "9cb1ab7a-a438-447f-b036-dce1f7fcc5c5",
            "nama_pse": "SMARTECH INDO JAYA",
            "nama_se": "SMARTSHOT  \u0026 GODFATHER",
            "sektor": "Sektor Perdagangan, Sektor Perdagangan",
            "tanggal_terbit": "2022-01-31",
            "url_tdpse_detail": "https://pse.komdigi.go.id/tdpse-detail/3146",
            "website": "smartech.org"
        },
        {
            "id": "9cb1ab9e-3e22-4410-969d-5604e052b348",
            "nama_pse": "UNIFIKASI TEKNOLOGI INDONESIA",
            "nama_se": "UNIFIKASI TEKNOLOGI INDONESIA",
            "sektor": "Sektor Perdagangan, Sektor Perdagangan, Sektor Teknologi Informasi dan Komunikasi, Sektor Teknologi Informasi dan Komunikasi",
            "tanggal_terbit": "2022-01-31",
            "url_tdpse_detail": "https://pse.komdigi.go.id/tdpse-detail/3137",
            "website": "unifikasi.id"
        },
        {
            "id": "9cb1ab6d-e348-42d3-ba54-14bfea8730a3",
            "nama_pse": "PDAM TIRTANADI",
            "nama_se": "MIS L2T2 / L2T3 (MANAGEMENT INFORMATION SYSTEM LAYANAN LUMPUR TINJA TERJADWAL / LAYANAN LUMPUR TINJA TIDAK TERJADWAL)",
            "sektor": "Sektor Teknologi Informasi dan Komunikasi, Sektor Teknologi Informasi dan Komunikasi",
            "tanggal_terbit": "2022-01-28",
            "url_tdpse_detail": "https://pse.komdigi.go.id/tdpse-detail/3130",
            "website": "pdamtirtanadi.co.id"
        },
        {
            "id": "9cb1ab8a-2aa9-4a13-9eba-3d626630b2e5",
            "nama_pse": "AMDIN PRATAMA MULTI TEKNOLOGI",
            "nama_se": "PT. AMDIN PRATAMA MULTI TEKNOLOGI",
            "sektor": "Sektor Teknologi Informasi dan Komunikasi, Sektor Teknologi Informasi dan Komunikasi",
            "tanggal_terbit": "2022-01-28",
            "url_tdpse_detail": "https://pse.komdigi.go.id/tdpse-detail/3131",
            "website": "amdin.co.id"
        },
        {
            "id": "9cb1ab7a-3baf-4550-9434-bc0705776855",
            "nama_pse": "MIDTRANS",
            "nama_se": "MIDTRANS",
            "sektor": "Sektor Keuangan, Sektor Keuangan",
            "tanggal_terbit": "2022-01-27",
            "url_tdpse_detail": "https://pse.komdigi.go.id/tdpse-detail/3127",
            "website": "midtrans.com"
        },
        {
            "id": "9cb1ab82-2b84-4df6-adc2-8f7f3f9eb09f",
            "nama_pse": "HALIM SELINDO INTERNASIONAL",
            "nama_se": "PT. HALIM SELINDO INTERNASIONAL",
            "sektor": "Sektor Perdagangan, Sektor Perdagangan, Sektor Teknologi Informasi dan Komunikasi, Sektor Teknologi Informasi dan Komunikasi",
            "tanggal_terbit": "2022-01-27",
            "url_tdpse_detail": "https://pse.komdigi.go.id/tdpse-detail/3128",
            "website": "idstore.co.id"
        },
        {
            "id": "9cb1ab82-44df-48df-b561-a4f246797392",
            "nama_pse": "JEJARING MAKANAN INDONESIA",
            "nama_se": "KULINA",
            "sektor": "Sektor Perdagangan, Sektor Perdagangan, Sektor Perdagangan",
            "tanggal_terbit": "2022-01-27",
            "url_tdpse_detail": "https://pse.komdigi.go.id/tdpse-detail/3129",
            "website": "kulina.id"
        },
        {
            "id": "9cb1ab61-bc28-4d5c-a56a-55eeab5f36c5",
            "nama_pse": "ELABRAM SYSTEMS",
            "nama_se": "AXDIF",
            "sektor": "Sektor Teknologi Informasi dan Komunikasi, Sektor Teknologi Informasi dan Komunikasi",
            "tanggal_terbit": "2022-01-26",
            "url_tdpse_detail": "https://pse.komdigi.go.id/tdpse-detail/3125",
            "website": "axdif.com"
        },
        {
            "id": "9cb1ab88-74f3-45c3-8e65-a1b2ce6e352a",
            "nama_pse": "BANK MUAMALAT INDONESIA",
            "nama_se": "WIDGET REKSADANA SYARIAH BANK MUAMALAT INDONESIA",
            "sektor": "Sektor Keuangan, Sektor Keuangan",
            "tanggal_terbit": "2022-01-26",
            "url_tdpse_detail": "https://pse.komdigi.go.id/tdpse-detail/3122",
            "website": "bankmuamalat.co.id"
        },
        {
            "id": "9cb1ab81-328f-475d-bc42-06372877808c",
            "nama_pse": "MADANI SOLUSI KREATIF",
            "nama_se": "AGREGATOR JASA PENGIRIMAN SEPAKET",
            "sektor": "Sektor Transportasi, Sektor Transportasi",
            "tanggal_terbit": "2022-01-26",
            "url_tdpse_detail": "https://pse.komdigi.go.id/tdpse-detail/3123",
            "website": "sepaket.co.id"
        },
        {
            "id": "9cb1ab82-3cfd-4c75-a635-027e5e5e600d",
            "nama_pse": "HORICI CIPTA ABADI",
            "nama_se": "HORICI MOBILE",
            "sektor": "Sektor Perdagangan, Sektor Perdagangan",
            "tanggal_terbit": "2022-01-26",
            "url_tdpse_detail": "https://pse.komdigi.go.id/tdpse-detail/3121",
            "website": "-"
        },
        {
            "id": "9cb1ab7a-80fc-40bb-8d2f-2f049bb17b6a",
            "nama_pse": "MANESOFT TEKNOLOGI INDONESIA",
            "nama_se": "CV MANESOFT TEKNOLOGI INDONESIA",
            "sektor": "Sektor Perdagangan, Sektor Perdagangan",
            "tanggal_terbit": "2022-01-26",
            "url_tdpse_detail": "https://pse.komdigi.go.id/tdpse-detail/3124",
            "website": "-"
        },
        {
            "id": "9cb1ab7a-844b-427a-982a-c3edc49360dc",
            "nama_pse": "MYSENLAN INDONESIA",
            "nama_se": "MYSENLAN INDONESIA",
            "sektor": "Sektor Perdagangan, Sektor Perdagangan",
            "tanggal_terbit": "2022-01-26",
            "url_tdpse_detail": "https://pse.komdigi.go.id/tdpse-detail/3126",
            "website": "mysenlan.co.id"
        },
        {
            "id": "9cb1ab67-502d-486e-a6c4-464b229a0fab",
            "nama_pse": "BANK PEMBANGUNAN DAERAH BENGKULU",
            "nama_se": "QRIS BANK BENGKULU",
            "sektor": "Sektor Keuangan, Sektor Keuangan, Sektor Teknologi Informasi dan Komunikasi, Sektor Teknologi Informasi dan Komunikasi",
            "tanggal_terbit": "2022-01-25",
            "url_tdpse_detail": "https://pse.komdigi.go.id/tdpse-detail/3117",
            "website": "-"
        },
        {
            "id": "9cb1ab78-01f8-488b-b04d-8fbef0448760",
            "nama_pse": "TOKO IKAN INDONESIA",
            "nama_se": "HTTPS://TOKOIKAN.ID",
            "sektor": "Sektor Perdagangan, Sektor Perdagangan",
            "tanggal_terbit": "2022-01-25",
            "url_tdpse_detail": "https://pse.komdigi.go.id/tdpse-detail/3111",
            "website": "tokoikan.id"
        },
        {
            "id": "9cb1ab80-58ee-4e3b-8ab8-d96a2ed42ae3",
            "nama_pse": "MEDLINX ASIA TEKNOLOGI",
            "nama_se": "IZIKLAIM",
            "sektor": "Sektor Kesehatan, Sektor Kesehatan, Sektor Teknologi Informasi dan Komunikasi, Sektor Teknologi Informasi dan Komunikasi",
            "tanggal_terbit": "2022-01-25",
            "url_tdpse_detail": "https://pse.komdigi.go.id/tdpse-detail/3104",
            "website": "iziklaim.com"
        },
        {
            "id": "9cb1ab80-5b25-41a2-8687-56058a557dc6",
            "nama_pse": "MEDLINX ASIA TEKNOLOGI",
            "nama_se": "IZIDOK",
            "sektor": "Sektor Kesehatan, Sektor Kesehatan, Sektor Teknologi Informasi dan Komunikasi, Sektor Teknologi Informasi dan Komunikasi",
            "tanggal_terbit": "2022-01-25",
            "url_tdpse_detail": "https://pse.komdigi.go.id/tdpse-detail/3106",
            "website": "izidok.id"
        },
        {
            "id": "9cb1ab88-f950-47b6-8dd3-c3d25aa7a8a9",
            "nama_pse": "TVSEKOLAH WAHANA KREASI",
            "nama_se": "TVSEKOLAH.ID",
            "sektor": "Sektor Teknologi Informasi dan Komunikasi, Sektor Teknologi Informasi dan Komunikasi",
            "tanggal_terbit": "2022-01-25",
            "url_tdpse_detail": "https://pse.komdigi.go.id/tdpse-detail/3119",
            "website": "Tvsekolah.id"
        },
        {
            "id": "9cb1ab81-ac37-4206-b217-1b020e8624ed",
            "nama_pse": "DAB INDONESIA",
            "nama_se": "NEW",
            "sektor": "Sektor Perdagangan, Sektor Perdagangan",
            "tanggal_terbit": "2022-01-25",
            "url_tdpse_detail": "https://pse.komdigi.go.id/tdpse-detail/3114",
            "website": "newnational.co.id"
        },
        {
            "id": "9cb1ab89-ca1b-411f-b7c3-0b009ef42ba3",
            "nama_pse": "HOTEL INDONESIA NATOUR",
            "nama_se": "JELAJAHIN DAN HINTRIP",
            "sektor": "Sektor Perdagangan, Sektor Perdagangan",
            "tanggal_terbit": "2022-01-25",
            "url_tdpse_detail": "https://pse.komdigi.go.id/tdpse-detail/3118",
            "website": "jelahin.id"
        },
        {
            "id": "9cb1ab82-02c8-45e9-8967-3395e255890f",
            "nama_pse": "BIZTECH JAYA MAKMUR",
            "nama_se": "PRE-O",
            "sektor": "Sektor Perdagangan, Sektor Perdagangan",
            "tanggal_terbit": "2022-01-25",
            "url_tdpse_detail": "https://pse.komdigi.go.id/tdpse-detail/3103",
            "website": "pre-o.co.id"
        },
        {
            "id": "9cb1ab7a-3457-464d-852e-12035817a9f6",
            "nama_pse": "BIZTECH JAYA MAKMUR",
            "nama_se": "APLIKASI PRE-O",
            "sektor": "Sektor Perdagangan, Sektor Perdagangan",
            "tanggal_terbit": "2022-01-25",
            "url_tdpse_detail": "https://pse.komdigi.go.id/tdpse-detail/3105",
            "website": "pre-o.co.id"
        },
        {
            "id": "9cb1ab7a-3723-481a-ad18-a8f0049378c7",
            "nama_pse": "SEMESTA PLATINUM BLOCKCHAINASIA",
            "nama_se": "BLOCKCHAIN",
            "sektor": "Sektor Perdagangan, Sektor Perdagangan, Sektor Keuangan, Sektor Keuangan",
            "tanggal_terbit": "2022-01-25",
            "url_tdpse_detail": "https://pse.komdigi.go.id/tdpse-detail/3112",
            "website": "Platinumblockchain.id"
        },
        {
            "id": "9cb1ab82-2de6-497d-93d6-3d4af71b33ab",
            "nama_pse": "ANORI DIGIPRENEUR NUSANTARA",
            "nama_se": "PESENKAMAR",
            "sektor": "Sektor Perdagangan, Sektor Perdagangan",
            "tanggal_terbit": "2022-01-25",
            "url_tdpse_detail": "https://pse.komdigi.go.id/tdpse-detail/3120",
            "website": "pesenkamar.com"
        },
        {
            "id": "9cb1ab8a-2e41-4f83-98aa-79ef16be5f10",
            "nama_pse": "HOTEL SUPLAY INTERNASIONAL",
            "nama_se": "HOTELSUPLAY",
            "sektor": "Sektor Perdagangan, Sektor Perdagangan, Sektor Teknologi Informasi dan Komunikasi, Sektor Teknologi Informasi dan Komunikasi",
            "tanggal_terbit": "2022-01-25",
            "url_tdpse_detail": "https://pse.komdigi.go.id/tdpse-detail/3109",
            "website": "hotelsuplay.com"
        },
        {
            "id": "9cb1ab82-34f6-4e23-842c-007a4d268d5a",
            "nama_pse": "SOLUSI MITRA APLIKASI",
            "nama_se": "SMAL PLATFORM",
            "sektor": "Sektor Perdagangan, Sektor Perdagangan",
            "tanggal_terbit": "2022-01-25",
            "url_tdpse_detail": "https://pse.komdigi.go.id/tdpse-detail/3108",
            "website": "app.bukakurir.com"
        },
        {
            "id": "9cb1ab8a-416a-4db3-8814-637fa7731099",
            "nama_pse": "LAMASUA",
            "nama_se": "SISTEM INFORMASI LAMASUA",
            "sektor": "Sektor Perdagangan, Sektor Perdagangan, Sektor Keuangan, Sektor Keuangan, Sektor Kesehatan, Sektor Kesehatan",
            "tanggal_terbit": "2022-01-25",
            "url_tdpse_detail": "https://pse.komdigi.go.id/tdpse-detail/3110",
            "website": "-"
        },
        {
            "id": "9cb1ab82-37dd-4a2f-ae28-9e0201a64942",
            "nama_pse": "SULUNG PRATAMA ESENSI DIGITAL",
            "nama_se": "SIPLAH BLIBLI",
            "sektor": "Sektor Perdagangan, Sektor Perdagangan",
            "tanggal_terbit": "2022-01-25",
            "url_tdpse_detail": "https://pse.komdigi.go.id/tdpse-detail/3102",
            "website": "siplah.blibli.com"
        },
        {
            "id": "9cb1ab8a-45fb-412e-9576-cbdb803eb67f",
            "nama_pse": "TANDA MATA INDONESIA",
            "nama_se": "TANDAMATA  INDONESIA",
            "sektor": "Sektor Perdagangan, Sektor Perdagangan",
            "tanggal_terbit": "2022-01-25",
            "url_tdpse_detail": "https://pse.komdigi.go.id/tdpse-detail/3115",
            "website": "tandamataindonesia.com"
        },
        {
            "id": "9cb1ab82-40f6-4439-8597-1b34fe6d6847",
            "nama_pse": "DIGITAL EXPERT PROFESIONAL",
            "nama_se": "DIGITAL EXPERT PROFESIONAL",
            "sektor": "Sektor Perdagangan, Sektor Perdagangan",
            "tanggal_terbit": "2022-01-25",
            "url_tdpse_detail": "https://pse.komdigi.go.id/tdpse-detail/3116",
            "website": "dexpro.co.id"
        },
        {
            "id": "9cb1ab8d-3f0d-4d5d-bbc4-00fc814dc938",
            "nama_pse": "VUCLIP DIGITAL INDONESIA",
            "nama_se": "VIU",
            "sektor": "Sektor Teknologi Informasi dan Komunikasi, Sektor Teknologi Informasi dan Komunikasi",
            "tanggal_terbit": "2022-01-25",
            "url_tdpse_detail": "https://pse.komdigi.go.id/tdpse-detail/3113",
            "website": "viu.com"
        },
        {
            "id": "9cb1abaa-df65-4ae0-9aac-46f76d24f074",
            "nama_pse": "MITRA SOLUSI PINJAMAN",
            "nama_se": "RUPIAHMART",
            "sektor": "Sektor Keuangan, Sektor Keuangan, Sektor Keuangan, Sektor Teknologi Informasi dan Komunikasi, Sektor Teknologi Informasi dan Komunikasi, Sektor Teknologi Informasi dan Komunikasi",
            "tanggal_terbit": "2022-01-25",
            "url_tdpse_detail": "https://pse.komdigi.go.id/tdpse-detail/3107",
            "website": "rupiahmart.com"
        },
        {
            "id": "9cb1ab81-186d-45b7-a268-b2072b1ae152",
            "nama_pse": "RETAIL SINERGI TEKNOLOGI",
            "nama_se": "WWW.RAJAPERKAKAS.STORE",
            "sektor": "Sektor Perdagangan, Sektor Perdagangan",
            "tanggal_terbit": "2022-01-24",
            "url_tdpse_detail": "https://pse.komdigi.go.id/tdpse-detail/3098",
            "website": "rajaperkakas.store"
        },
        {
            "id": "9cb1ab81-43c8-410c-8cc1-485e4500211e",
            "nama_pse": "GLOBALTIX TEKNOLOGI INDONESIA",
            "nama_se": "GLOBALTIX",
            "sektor": "Sektor Perdagangan, Sektor Perdagangan, Sektor Transportasi, Sektor Transportasi, Sektor Teknologi Informasi dan Komunikasi, Sektor Teknologi Informasi dan Komunikasi",
            "tanggal_terbit": "2022-01-24",
            "url_tdpse_detail": "https://pse.komdigi.go.id/tdpse-detail/3100",
            "website": "Globaltix.com"
        },
        {
            "id": "9cb1ab7a-7c23-4e7d-991c-aabde58980a2",
            "nama_pse": "BINTANG MULYA SELATAN",
            "nama_se": "PT BINTANG MULYA SELATAN",
            "sektor": "Sektor Perdagangan, Sektor Perdagangan, Sektor Teknologi Informasi dan Komunikasi, Sektor Teknologi Informasi dan Komunikasi, Sektor Pangan, Sektor Pangan",
            "tanggal_terbit": "2022-01-24",
            "url_tdpse_detail": "https://pse.komdigi.go.id/tdpse-detail/3097",
            "website": "domain"
        },
        {
            "id": "9cb1ab8e-5743-41df-8f57-9a1f3243531b",
            "nama_pse": "DAPUR SOLO MUSTIKA NUSANTARA",
            "nama_se": "DAPUR SOLO WEB ORDER",
            "sektor": "Sektor Perdagangan, Sektor Perdagangan, Sektor Perdagangan",
            "tanggal_terbit": "2022-01-24",
            "url_tdpse_detail": "https://pse.komdigi.go.id/tdpse-detail/3099",
            "website": "dapursolo.com"
        },
        {
            "id": "9cb1ab91-c717-4c48-a43b-6c2faafb7a67",
            "nama_pse": "WARUNG PINTAR SEKALI",
            "nama_se": "WARUNG PINTAR",
            "sektor": "Sektor Perdagangan",
            "tanggal_terbit": "2022-01-24",
            "url_tdpse_detail": "https://pse.komdigi.go.id/tdpse-detail/3101",
            "website": "warungpintar.co.id"
        },
        {
            "id": "9cb1ab8a-278c-4050-8a2c-b74bee6ab26a",
            "nama_pse": "NAHDA MEGA ABADI",
            "nama_se": "PT. NAHDA MEGA ABADI",
            "sektor": "Sektor Perdagangan, Sektor Perdagangan, Sektor Teknologi Informasi dan Komunikasi, Sektor Teknologi Informasi dan Komunikasi",
            "tanggal_terbit": "2022-01-23",
            "url_tdpse_detail": "https://pse.komdigi.go.id/tdpse-detail/3096",
            "website": "-"
        },
        {
            "id": "9cb1ab8a-2136-4cf0-b437-0c3fa0e1a71b",
            "nama_pse": "FATAHUDDIN AL ISFAHANI",
            "nama_se": "VIBE MEDIA",
            "sektor": "Sektor Teknologi Informasi dan Komunikasi, Sektor Teknologi Informasi dan Komunikasi",
            "tanggal_terbit": "2022-01-22",
            "url_tdpse_detail": "https://pse.komdigi.go.id/tdpse-detail/3095",
            "website": "vibemedia.id"
        },
        {
            "id": "9cb1ab9e-3c09-48d7-84dc-0b2c64e3edec",
            "nama_pse": "ALAM NUSANTARA ASRI",
            "nama_se": "BERKUMPUL RESELLER SYSTEM STARTUP UMKM",
            "sektor": "Sektor Perdagangan, Sektor Perdagangan",
            "tanggal_terbit": "2022-01-22",
            "url_tdpse_detail": "https://pse.komdigi.go.id/tdpse-detail/3093",
            "website": "berkumpul.com"
        },
        {
            "id": "9cb1ab9f-2047-41bc-a4ca-a32a9875bb0e",
            "nama_pse": "SOLUSI TEKNOLOGI NIAGA",
            "nama_se": "QASIR.ID",
            "sektor": "Sektor Perdagangan, Sektor Teknologi Informasi dan Komunikasi",
            "tanggal_terbit": "2022-01-22",
            "url_tdpse_detail": "https://pse.komdigi.go.id/tdpse-detail/3094",
            "website": "qasir.id"
        },
        {
            "id": "9cb1ab62-89f5-488f-9abf-6ccccb629d1e",
            "nama_pse": "DIGITAL PERKAKAS INDONESIA",
            "nama_se": "DIPINDO.COM",
            "sektor": "Sektor Perdagangan, Sektor Perdagangan, Sektor Teknologi Informasi dan Komunikasi, Sektor Teknologi Informasi dan Komunikasi",
            "tanggal_terbit": "2022-01-21",
            "url_tdpse_detail": "https://pse.komdigi.go.id/tdpse-detail/3092",
            "website": "dipindo.com"
        }
    ],
    "processingTimeMs": 13,
    "query": "",
    "totalHits": 19131,
    "hitsPerPage": 50,
    "page": 324,
    "totalPages": 383
}