{
    "hits": [
        {
            "id": "9cb1ac38-c9bd-4481-a7fc-f53486c6b56b",
            "nama_pse": "CAHAYA HARAPAN ANREG",
            "nama_se": "CAHAYA LEGALITAS",
            "sektor": "Sektor Perdagangan, Sektor Teknologi Informasi dan Komunikasi",
            "tanggal_terbit": "2023-08-09",
            "url_tdpse_detail": "https://pse.komdigi.go.id/tdpse-detail/15493",
            "website": "cahayalegalitas.com"
        },
        {
            "id": "9cb1ac38-d0ed-4422-bba4-b5085fa853e5",
            "nama_pse": "ARTSYS INTEGRASI SOLUSINDO",
            "nama_se": "ARTSYS",
            "sektor": "Sektor Teknologi Informasi dan Komunikasi",
            "tanggal_terbit": "2023-08-09",
            "url_tdpse_detail": "https://pse.komdigi.go.id/tdpse-detail/15504",
            "website": "artsys.id"
        },
        {
            "id": "9cb1ac38-d4cd-4415-9369-8e4f0cf50311",
            "nama_pse": "BENARI SOLUSINDO SEJAHTERA",
            "nama_se": "BENARI LINK MED",
            "sektor": "Sektor Perdagangan",
            "tanggal_terbit": "2023-08-09",
            "url_tdpse_detail": "https://pse.komdigi.go.id/tdpse-detail/15494",
            "website": "benarilinkmed.com"
        },
        {
            "id": "9cb1ac26-74ab-454e-aef4-22d2aa69eb2e",
            "nama_pse": "CAHAYA RIZ GROUP",
            "nama_se": "PUSAT LEGALITAS",
            "sektor": "Sektor Teknologi Informasi dan Komunikasi",
            "tanggal_terbit": "2023-08-09",
            "url_tdpse_detail": "https://pse.komdigi.go.id/tdpse-detail/15495",
            "website": "Pusatlegalitas.com"
        },
        {
            "id": "9cb1ac38-dca2-406a-a16d-52d0f55fdd0b",
            "nama_pse": "FARCHAN MEDIKA UTAMA",
            "nama_se": "SISTEM INFORMASI MANAJEMEN RUMAH SAKIT DAN REKAM MEDIS ELEKRONIK PASIEN RUMAH SAKIT AQIDAH",
            "sektor": "Sektor Kesehatan",
            "tanggal_terbit": "2023-08-09",
            "url_tdpse_detail": "https://pse.komdigi.go.id/tdpse-detail/15496",
            "website": "-"
        },
        {
            "id": "9cb1ac48-8661-4d60-9b00-b0714cc50e6a",
            "nama_pse": "MEDIA BERITA NET ONLINE",
            "nama_se": "HOT NET NEWS",
            "sektor": "Sektor Teknologi Informasi dan Komunikasi",
            "tanggal_terbit": "2023-08-09",
            "url_tdpse_detail": "https://pse.komdigi.go.id/tdpse-detail/18660",
            "website": "hotnetnews.co.id"
        },
        {
            "id": "9cb1ac26-7808-4a39-b818-8d432ba10552",
            "nama_pse": "AIR EMBUN SEHAT",
            "nama_se": "WWW.AIREMBUN.COM",
            "sektor": "Sektor Perdagangan",
            "tanggal_terbit": "2023-08-09",
            "url_tdpse_detail": "https://pse.komdigi.go.id/tdpse-detail/15497",
            "website": "airembun.com"
        },
        {
            "id": "9cb1ac38-e7ea-470a-8e7f-26895476a167",
            "nama_pse": "CAHAYA RARIYOSYA GRUP",
            "nama_se": "RARIYOSYA",
            "sektor": "Sektor Teknologi Informasi dan Komunikasi",
            "tanggal_terbit": "2023-08-09",
            "url_tdpse_detail": "https://pse.komdigi.go.id/tdpse-detail/15498",
            "website": "rariyosya.com"
        },
        {
            "id": "9cb1ac26-7c16-4359-9a99-8ebf220c5a24",
            "nama_pse": "MITRA TRANSAKSI INDONESIA",
            "nama_se": "MTI ACQUIRING AGGREGATOR SERVICES (MAAS)",
            "sektor": "Sektor Teknologi Informasi dan Komunikasi",
            "tanggal_terbit": "2023-08-09",
            "url_tdpse_detail": "https://pse.komdigi.go.id/tdpse-detail/15499",
            "website": "-"
        },
        {
            "id": "9cb1ac48-88f9-4baa-a5e0-3ee04c959139",
            "nama_pse": "SANJAYA ASIA UTAMA",
            "nama_se": "SANJAYA.ASIA",
            "sektor": "Sektor Teknologi Informasi dan Komunikasi",
            "tanggal_terbit": "2023-08-09",
            "url_tdpse_detail": "https://pse.komdigi.go.id/tdpse-detail/15501",
            "website": "sanjaya.asia"
        },
        {
            "id": "9cb1ac48-8c6c-4c0d-b9be-18bf58df88c5",
            "nama_pse": "BELANJA PASTI INDONESIA",
            "nama_se": "EBELANJA.ID",
            "sektor": "Sektor Perdagangan",
            "tanggal_terbit": "2023-08-09",
            "url_tdpse_detail": "https://pse.komdigi.go.id/tdpse-detail/15503",
            "website": "ebelanja.id"
        },
        {
            "id": "9cb1ac48-8f56-417a-aa37-793dc6895d3e",
            "nama_pse": "PERUSAHAAN PERSEROAN (PERSERO) PT. PERUSAHAAN PENERBANGAN GARUDA INDONESIA",
            "nama_se": "FLYGARUDA",
            "sektor": "Sektor Transportasi, Sektor Teknologi Informasi dan Komunikasi",
            "tanggal_terbit": "2023-08-09",
            "url_tdpse_detail": "https://pse.komdigi.go.id/tdpse-detail/15502",
            "website": "-"
        },
        {
            "id": "9cb1ac38-fa9f-4d9c-a6c2-9807c07b46ba",
            "nama_pse": "SABBI TEKNOLOGI INDONESIA",
            "nama_se": "SABBI SIMKLINIK",
            "sektor": "Sektor Kesehatan, Sektor Teknologi Informasi dan Komunikasi",
            "tanggal_terbit": "2023-08-09",
            "url_tdpse_detail": "https://pse.komdigi.go.id/tdpse-detail/15505",
            "website": "sabbi.id"
        },
        {
            "id": "9cb1ac26-7f48-4b38-8b39-3808e3cf2ab3",
            "nama_pse": "INTEGRITAS SOLUSI MEDIKA",
            "nama_se": "ISOCLINIC",
            "sektor": "Sektor Kesehatan",
            "tanggal_terbit": "2023-08-09",
            "url_tdpse_detail": "https://pse.komdigi.go.id/tdpse-detail/15507",
            "website": "isoclinic.co.id"
        },
        {
            "id": "9cb1ac48-95e0-4ae5-82dc-44d371865c7c",
            "nama_pse": "PERUSAHAAN PERSEROAN (PERSERO) PT. PERUSAHAAN PENERBANGAN GARUDA INDONESIA",
            "nama_se": "WEBSITE GARUDA INDONESIA",
            "sektor": "Sektor Transportasi, Sektor Teknologi Informasi dan Komunikasi",
            "tanggal_terbit": "2023-08-09",
            "url_tdpse_detail": "https://pse.komdigi.go.id/tdpse-detail/15509",
            "website": "garuda-indonesia.com"
        },
        {
            "id": "9cb1ac38-fdf6-4f6e-8d8b-dfc33cf125d5",
            "nama_pse": "SENTRA DATA PERSADA",
            "nama_se": "SENTRA LAYANAN SISTEM ELEKTRONIK",
            "sektor": "Sektor Kesehatan, Sektor Teknologi Informasi dan Komunikasi",
            "tanggal_terbit": "2023-08-09",
            "url_tdpse_detail": "https://pse.komdigi.go.id/tdpse-detail/15511",
            "website": "sentradata.co.id"
        },
        {
            "id": "9cb1ac26-8240-424f-83e8-f493d26ed369",
            "nama_pse": "SARJIYO",
            "nama_se": "ABSENSI KST",
            "sektor": "Sektor Teknologi Informasi dan Komunikasi",
            "tanggal_terbit": "2023-08-09",
            "url_tdpse_detail": "https://pse.komdigi.go.id/tdpse-detail/15512",
            "website": "-"
        },
        {
            "id": "9cb1ac48-9bc8-476d-831c-dc4f080d4e74",
            "nama_pse": "CELEBES SOLUSINDO",
            "nama_se": "SAMARITAN INTEGRATED HOSPITAL INFORMATION SYSTEM (SI-HOLI)",
            "sektor": "Sektor Kesehatan",
            "tanggal_terbit": "2023-08-09",
            "url_tdpse_detail": "https://pse.komdigi.go.id/tdpse-detail/15513",
            "website": "rssamaritan.id"
        },
        {
            "id": "9cb1ac26-89df-42c8-a896-46f5d5b4804e",
            "nama_pse": "DIGITALINDO KREATIF TOUR",
            "nama_se": "PT DIGITALINDO KREATIF TOUR",
            "sektor": "Sektor Perdagangan",
            "tanggal_terbit": "2023-08-09",
            "url_tdpse_detail": "https://pse.komdigi.go.id/tdpse-detail/15514",
            "website": "dikraftour.com"
        },
        {
            "id": "9cb1ac24-171f-439b-a13f-be63607f12e4",
            "nama_pse": "RUMAH SAKIT PKU MUHAMMADIYAH TEMANGGUNG",
            "nama_se": "MUYASSAR",
            "sektor": "Sektor Kesehatan",
            "tanggal_terbit": "2023-08-08",
            "url_tdpse_detail": "https://pse.komdigi.go.id/tdpse-detail/15485",
            "website": "pkutemanggung.org"
        },
        {
            "id": "9cb1ac36-dc26-4689-b046-1e9e04abdfa1",
            "nama_pse": "WOWRACK INDONESIA",
            "nama_se": "CLOUDRAYA",
            "sektor": "Sektor Teknologi Informasi dan Komunikasi",
            "tanggal_terbit": "2023-08-08",
            "url_tdpse_detail": "https://pse.komdigi.go.id/tdpse-detail/15478",
            "website": "cloudraya.co.id"
        },
        {
            "id": "9cb1ac24-3efa-480f-a778-dcbfb149a2dc",
            "nama_pse": "WOWRACK INDONESIA",
            "nama_se": "WOWRACK INDONESIA",
            "sektor": "Sektor Teknologi Informasi dan Komunikasi",
            "tanggal_terbit": "2023-08-08",
            "url_tdpse_detail": "https://pse.komdigi.go.id/tdpse-detail/15479",
            "website": "wowrack.co.id"
        },
        {
            "id": "9cb1ac26-5df9-4e3e-be69-de5defdceee5",
            "nama_pse": "GRAB TEKNOLOGI INDONESIA",
            "nama_se": "GRABGIFT WEB",
            "sektor": "Sektor Perdagangan",
            "tanggal_terbit": "2023-08-08",
            "url_tdpse_detail": "https://pse.komdigi.go.id/tdpse-detail/15481",
            "website": "gifts.grab.com"
        },
        {
            "id": "9cb1ac38-acdf-4d11-b422-72437f7aea9a",
            "nama_pse": "QUAMUS GLOBAL ACADEMY",
            "nama_se": "QUAMUS LMS+",
            "sektor": "Sektor Teknologi Informasi dan Komunikasi",
            "tanggal_terbit": "2023-08-08",
            "url_tdpse_detail": "https://pse.komdigi.go.id/tdpse-detail/15475",
            "website": "quamuslms.id"
        },
        {
            "id": "9cb1ac38-b0b8-4b9a-a905-b4d1aa1f5f8e",
            "nama_pse": "BERQAH BERKEMBANG BERSAMA",
            "nama_se": "DOODS",
            "sektor": "Sektor Teknologi Informasi dan Komunikasi",
            "tanggal_terbit": "2023-08-08",
            "url_tdpse_detail": "https://pse.komdigi.go.id/tdpse-detail/15476",
            "website": "doods.id"
        },
        {
            "id": "9cb1ac38-b43a-4d6a-86a6-0bd73818abe0",
            "nama_pse": "ZONA MEDIA TEKNOLOGI",
            "nama_se": "DISNAKERJA",
            "sektor": "Sektor Teknologi Informasi dan Komunikasi",
            "tanggal_terbit": "2023-08-08",
            "url_tdpse_detail": "https://pse.komdigi.go.id/tdpse-detail/15477",
            "website": "loker.disnakerja.com"
        },
        {
            "id": "9cb1ac38-b6ae-4cb7-a85e-10bf97beecd7",
            "nama_pse": "CERIA INOVASI INTERNASIONAL",
            "nama_se": "KLINIKOO",
            "sektor": "Sektor Kesehatan, Sektor Teknologi Informasi dan Komunikasi",
            "tanggal_terbit": "2023-08-08",
            "url_tdpse_detail": "https://pse.komdigi.go.id/tdpse-detail/15487",
            "website": "klinikoo.id"
        },
        {
            "id": "9cb1ac38-b950-42b5-bfee-6bd890d94925",
            "nama_pse": "AWAN TUNAI INDONESIA",
            "nama_se": "AWANTOKO",
            "sektor": "Sektor Perdagangan",
            "tanggal_terbit": "2023-08-08",
            "url_tdpse_detail": "https://pse.komdigi.go.id/tdpse-detail/15480",
            "website": "awantoko.co.id"
        },
        {
            "id": "9cb1ac26-6284-4e87-a42d-77c3b9dce488",
            "nama_pse": "RAHASWIN",
            "nama_se": "SISTEM INFORMASI MANAJEMEN KLINIK ASY-SYIFA",
            "sektor": "Sektor Kesehatan",
            "tanggal_terbit": "2023-08-08",
            "url_tdpse_detail": "https://pse.komdigi.go.id/tdpse-detail/15482",
            "website": "-"
        },
        {
            "id": "9cb1ac48-7a65-4235-9201-494ac493921c",
            "nama_pse": "SIBER TUJUH TEKNOLOGI",
            "nama_se": "SEVENCYBER",
            "sektor": "Sektor Teknologi Informasi dan Komunikasi, Sektor Pertahanan dan Keamanan",
            "tanggal_terbit": "2023-08-08",
            "url_tdpse_detail": "https://pse.komdigi.go.id/tdpse-detail/15483",
            "website": "sevencyber.io"
        },
        {
            "id": "9cb1ac38-be9e-454a-8beb-b6454424c6b2",
            "nama_pse": "YOU INDONESIA",
            "nama_se": "YOUVIT",
            "sektor": "Sektor Perdagangan",
            "tanggal_terbit": "2023-08-08",
            "url_tdpse_detail": "https://pse.komdigi.go.id/tdpse-detail/15484",
            "website": "youvit.co.id"
        },
        {
            "id": "9cb1ac26-6ed4-453f-a704-ea1d53a793a6",
            "nama_pse": "MAXCHAT INOVASI INDONESIA",
            "nama_se": "MAXCHAT.ID",
            "sektor": "Sektor Teknologi Informasi dan Komunikasi",
            "tanggal_terbit": "2023-08-08",
            "url_tdpse_detail": "https://pse.komdigi.go.id/tdpse-detail/15486",
            "website": "-"
        },
        {
            "id": "9cb1ac26-7173-4632-8121-2b1aeff67856",
            "nama_pse": "PLASTICPAY TEKNOLOGI DAURULANG",
            "nama_se": "PLASTICPAY",
            "sektor": "Sektor Perdagangan, Sektor Teknologi Informasi dan Komunikasi",
            "tanggal_terbit": "2023-08-08",
            "url_tdpse_detail": "https://pse.komdigi.go.id/tdpse-detail/15490",
            "website": "plasticpay.net"
        },
        {
            "id": "9cb1ac38-c404-4e9f-b137-19fb002019c7",
            "nama_pse": "ASTHA PANDAVA INOVASI TEKNOLOGI",
            "nama_se": "WWW.SIGNING.ID",
            "sektor": "Sektor Perdagangan",
            "tanggal_terbit": "2023-08-08",
            "url_tdpse_detail": "https://pse.komdigi.go.id/tdpse-detail/15488",
            "website": "signing.id"
        },
        {
            "id": "9cb1ac48-8015-4864-95dc-f5fec10e3993",
            "nama_pse": "JEMBATAN DERMA INDONESIA",
            "nama_se": "BANTU DERMA",
            "sektor": "Sektor Perdagangan",
            "tanggal_terbit": "2023-08-08",
            "url_tdpse_detail": "https://pse.komdigi.go.id/tdpse-detail/15489",
            "website": "WWW.BANTUDERMA.COM"
        },
        {
            "id": "9cb1ac48-8362-41af-b991-c0c798b8687e",
            "nama_pse": "MEDIA DIGITAL SOLO",
            "nama_se": "MALLKONVEKSI",
            "sektor": "Sektor Perdagangan",
            "tanggal_terbit": "2023-08-08",
            "url_tdpse_detail": "https://pse.komdigi.go.id/tdpse-detail/15491",
            "website": "mallkonveksi.com"
        },
        {
            "id": "9cb1ac37-8aca-4643-b256-979df1859fc0",
            "nama_pse": "SYARIAH BERSAMA RAKYAT",
            "nama_se": "SYARIAH BERSAMA RAKYAT",
            "sektor": "Sektor Teknologi Informasi dan Komunikasi",
            "tanggal_terbit": "2023-08-07",
            "url_tdpse_detail": "https://pse.komdigi.go.id/tdpse-detail/15469",
            "website": "-"
        },
        {
            "id": "9cb1ac47-ed3e-4f6f-b0ed-8824c908b275",
            "nama_pse": "YAYASAN RUMAH SAKIT BAPTIS INDONESIA",
            "nama_se": "HOSPITAL MANAGEMENT \u0026 INFORMATION SYSTEM (HIMS)",
            "sektor": "Sektor Kesehatan",
            "tanggal_terbit": "2023-08-07",
            "url_tdpse_detail": "https://pse.komdigi.go.id/tdpse-detail/15458",
            "website": "rsbaptisbatu.id"
        },
        {
            "id": "9cb1ac26-253c-4d6c-acde-0fbb8a2ee249",
            "nama_pse": "LINTAS USAHA CERIA",
            "nama_se": "SENDPLUS",
            "sektor": "Sektor Perdagangan, Sektor Teknologi Informasi dan Komunikasi",
            "tanggal_terbit": "2023-08-07",
            "url_tdpse_detail": "https://pse.komdigi.go.id/tdpse-detail/15444",
            "website": "sendplus.id"
        },
        {
            "id": "9cb1ac48-501f-46c1-8b96-c13e2db66be2",
            "nama_pse": "FOKUS SOLUSI PROTEKSI",
            "nama_se": "WEBSITE PT FOKUS SOLUSI PROTEKSI",
            "sektor": "Sektor Keuangan",
            "tanggal_terbit": "2023-08-07",
            "url_tdpse_detail": "https://pse.komdigi.go.id/tdpse-detail/15443",
            "website": "fsp.co.id"
        },
        {
            "id": "9cb1ac38-85e9-4f4e-8004-0f5d0ffe3f39",
            "nama_pse": "PANDAWA YOGASWARA ABADI TEKNOLOGI",
            "nama_se": "@MEDIC",
            "sektor": "Sektor Kesehatan",
            "tanggal_terbit": "2023-08-07",
            "url_tdpse_detail": "https://pse.komdigi.go.id/tdpse-detail/15467",
            "website": "pyat-indonesia.com"
        },
        {
            "id": "9cb1ac38-8c02-40a2-9f7a-0bee683ae540",
            "nama_pse": "ROYAL KREATIF ABADI",
            "nama_se": "EFASKES",
            "sektor": "Sektor Kesehatan, Sektor Teknologi Informasi dan Komunikasi",
            "tanggal_terbit": "2023-08-07",
            "url_tdpse_detail": "https://pse.komdigi.go.id/tdpse-detail/15440",
            "website": "efaskes.id"
        },
        {
            "id": "9cb1ac48-5401-4286-a939-da4fa6d1b668",
            "nama_pse": "ROYAL KREATIF ABADI",
            "nama_se": "ROYALNET",
            "sektor": "Sektor Teknologi Informasi dan Komunikasi",
            "tanggal_terbit": "2023-08-07",
            "url_tdpse_detail": "https://pse.komdigi.go.id/tdpse-detail/15441",
            "website": "royalnet.id"
        },
        {
            "id": "9cb1ac38-9298-4713-89f5-1ef917fb9f7a",
            "nama_pse": "SOLUSIPRO BISNIS NUSANTARA",
            "nama_se": "SOLUSIPRO",
            "sektor": "Sektor Perdagangan",
            "tanggal_terbit": "2023-08-07",
            "url_tdpse_detail": "https://pse.komdigi.go.id/tdpse-detail/15442",
            "website": "solusi.pro"
        },
        {
            "id": "9cb1ac26-2f0a-4828-908d-7289e77a16c4",
            "nama_pse": "RIAM ANUGRAH SEMESTA",
            "nama_se": "APPFIBR",
            "sektor": "Sektor Teknologi Informasi dan Komunikasi",
            "tanggal_terbit": "2023-08-07",
            "url_tdpse_detail": "https://pse.komdigi.go.id/tdpse-detail/15449",
            "website": "appfibr.io"
        },
        {
            "id": "9cb1ac48-5780-4433-9b9f-4f689c6b9c27",
            "nama_pse": "PS GLOBAL MEDIA",
            "nama_se": "SPOBAND.ID",
            "sektor": "Sektor Perdagangan, Sektor Kesehatan",
            "tanggal_terbit": "2023-08-07",
            "url_tdpse_detail": "https://pse.komdigi.go.id/tdpse-detail/15450",
            "website": "spoband.id"
        },
        {
            "id": "9cb1ac48-5c7b-4fc6-bbee-3e238e60920a",
            "nama_pse": "EKOSISTEM KESEHATAN INDONESIA",
            "nama_se": "NEXMEDIS",
            "sektor": "Sektor Kesehatan, Sektor Teknologi Informasi dan Komunikasi",
            "tanggal_terbit": "2023-08-07",
            "url_tdpse_detail": "https://pse.komdigi.go.id/tdpse-detail/15451",
            "website": "nexmedis.com"
        },
        {
            "id": "9cb1ac26-32c9-4dcf-9b0d-26043f0b5986",
            "nama_pse": "MUHAMAD YUNUS",
            "nama_se": "WIFI DIAZ NET",
            "sektor": "Sektor Teknologi Informasi dan Komunikasi",
            "tanggal_terbit": "2023-08-07",
            "url_tdpse_detail": "https://pse.komdigi.go.id/tdpse-detail/15452",
            "website": "-"
        },
        {
            "id": "9cb1ac26-3776-4875-a6ba-5bdc7ee6d27e",
            "nama_pse": "STRATEGI WAVE INDONESIA",
            "nama_se": "PEMILU.AI",
            "sektor": "Sektor Teknologi Informasi dan Komunikasi",
            "tanggal_terbit": "2023-08-07",
            "url_tdpse_detail": "https://pse.komdigi.go.id/tdpse-detail/15454",
            "website": "pemilu.ai"
        },
        {
            "id": "9cb1ac38-9674-44e7-abca-028bff20daaa",
            "nama_pse": "CENTRAL CAPITAL FUTURES",
            "nama_se": "CCF TRADE",
            "sektor": "Sektor Keuangan",
            "tanggal_terbit": "2023-08-07",
            "url_tdpse_detail": "https://pse.komdigi.go.id/tdpse-detail/15466",
            "website": "ccf.co.id"
        }
    ],
    "processingTimeMs": 26,
    "query": "",
    "totalHits": 19131,
    "hitsPerPage": 50,
    "page": 128,
    "totalPages": 383
}