{
    "hits": [
        {
            "id": "9d2f5003-e1e1-4e79-b5ee-9f7d5f4ff0bf",
            "nama_pse": "KEN CARAKA BERDIKARI",
            "nama_se": "jaskum",
            "sektor": "Sektor Perdagangan, Sektor Teknologi Informasi dan Komunikasi",
            "tanggal_terbit": "2024-10-07",
            "url_tdpse_detail": "https://pse.komdigi.go.id/tdpse-detail/20660",
            "website": "-"
        },
        {
            "id": "9d2d8f46-36a7-439b-bdf4-ad37f9066868",
            "nama_pse": "YUDI DARSO",
            "nama_se": "LAYANAN INTERNET LOKAL",
            "sektor": "Sektor Teknologi Informasi dan Komunikasi",
            "tanggal_terbit": "2024-10-06",
            "url_tdpse_detail": "https://pse.komdigi.go.id/tdpse-detail/20656",
            "website": "-"
        },
        {
            "id": "9d2c2c38-cf83-42a9-a9d6-c6af6f8f2156",
            "nama_pse": "INTERINDO ARTHA KREASI",
            "nama_se": "iaklogistik.com",
            "sektor": "Sektor Teknologi Informasi dan Komunikasi",
            "tanggal_terbit": "2024-10-05",
            "url_tdpse_detail": "https://pse.komdigi.go.id/tdpse-detail/20655",
            "website": "iaklogistik.com"
        },
        {
            "id": "9d2b4262-7db7-47a2-8ae9-415e51401b86",
            "nama_pse": "BOSBAYAR DIGITAL INDONESIA",
            "nama_se": "BOS BAYAR",
            "sektor": "Sektor Perdagangan",
            "tanggal_terbit": "2024-10-05",
            "url_tdpse_detail": "https://pse.komdigi.go.id/tdpse-detail/20653",
            "website": "-"
        },
        {
            "id": "9d2b442b-0194-44e8-abd3-2dc9c0aaf488",
            "nama_pse": "DERMA SCIENCE INNOVATION",
            "nama_se": "eConsultation Thera Beauty",
            "sektor": "Sektor Perdagangan",
            "tanggal_terbit": "2024-10-05",
            "url_tdpse_detail": "https://pse.komdigi.go.id/tdpse-detail/20654",
            "website": "econsultation.co.id"
        },
        {
            "id": "9d29b4b9-2c14-4136-ada0-a198f9b6a6c5",
            "nama_pse": "DOMPET CLASSIFIED ADS",
            "nama_se": "DOMPET PRELOVED",
            "sektor": "Sektor Perdagangan",
            "tanggal_terbit": "2024-10-04",
            "url_tdpse_detail": "https://pse.komdigi.go.id/tdpse-detail/20644",
            "website": "preloved.dompet.my.id"
        },
        {
            "id": "9d28caf4-dfbb-4f04-90e2-ebe37488d8da",
            "nama_pse": "DCREO MAKMUR ABADI",
            "nama_se": "DEVELOPMENT LEARNING MANAGEMENT SYSTEM (LMS)",
            "sektor": "Sektor Teknologi Informasi dan Komunikasi",
            "tanggal_terbit": "2024-10-04",
            "url_tdpse_detail": "https://pse.komdigi.go.id/tdpse-detail/20627",
            "website": "-"
        },
        {
            "id": "9d295713-6c74-457b-a13f-286988104dd9",
            "nama_pse": "TRIDAYA SINERGI INDONESIA",
            "nama_se": "TSI APPS",
            "sektor": "Sektor Perdagangan",
            "tanggal_terbit": "2024-10-04",
            "url_tdpse_detail": "https://pse.komdigi.go.id/tdpse-detail/20630",
            "website": "tridayasinergi.com"
        },
        {
            "id": "9d28d27f-ea3b-4f1e-831f-8201d6d125d2",
            "nama_pse": "DCREO MAKMUR ABADI",
            "nama_se": "DIGITAL PLATFORM",
            "sektor": "Sektor Perdagangan, Sektor Teknologi Informasi dan Komunikasi",
            "tanggal_terbit": "2024-10-04",
            "url_tdpse_detail": "https://pse.komdigi.go.id/tdpse-detail/20628",
            "website": "-"
        },
        {
            "id": "9d297cbb-74be-41be-a8d6-2d79adc79d46",
            "nama_pse": "GENERASI ANAK INDONESIA BERKEMBANG",
            "nama_se": "KINDERCASTLE",
            "sektor": "Sektor Teknologi Informasi dan Komunikasi",
            "tanggal_terbit": "2024-10-04",
            "url_tdpse_detail": "https://pse.komdigi.go.id/tdpse-detail/20640",
            "website": "kindercastle.co.id"
        },
        {
            "id": "9d295d12-e194-4b57-b1ac-94c2f4199214",
            "nama_pse": "CGS International Sekuritas Indonesia",
            "nama_se": "iTRADE CGS International",
            "sektor": "Sektor Keuangan",
            "tanggal_terbit": "2024-10-04",
            "url_tdpse_detail": "https://pse.komdigi.go.id/tdpse-detail/20631",
            "website": "itrade.cgsi.co.id"
        },
        {
            "id": "9d295d42-5639-4c0f-90c3-2f5c833ae562",
            "nama_pse": "CGS International Sekuritas Indonesia",
            "nama_se": "WEBSITE PT CGS INTERNATIONAL SEKURITAS INDONESIA",
            "sektor": "Sektor Keuangan",
            "tanggal_terbit": "2024-10-04",
            "url_tdpse_detail": "https://pse.komdigi.go.id/tdpse-detail/20632",
            "website": "cgsi.co.id"
        },
        {
            "id": "9d296584-1226-44ae-af27-8ea2d894cf4f",
            "nama_pse": "RESTU BUMI APIT",
            "nama_se": "sayurmayur.co.id",
            "sektor": "Sektor Perdagangan",
            "tanggal_terbit": "2024-10-04",
            "url_tdpse_detail": "https://pse.komdigi.go.id/tdpse-detail/20634",
            "website": "sayurmayur.co.id"
        },
        {
            "id": "9d295d59-1e67-4ba9-8fed-6b7e1103b3c3",
            "nama_pse": "CGS International Sekuritas Indonesia",
            "nama_se": "REGISTRASI ONLINE NASABAH (OCOB)",
            "sektor": "Sektor Keuangan",
            "tanggal_terbit": "2024-10-04",
            "url_tdpse_detail": "https://pse.komdigi.go.id/tdpse-detail/20633",
            "website": "register.cgsi.co.id"
        },
        {
            "id": "9d29bbe7-698d-4523-9ea7-ff6621cda469",
            "nama_pse": "AHMAD BUSTANUL ARIFIN",
            "nama_se": "LAYANAN INTERNET LOKAL RT RW NET",
            "sektor": "Sektor Teknologi Informasi dan Komunikasi",
            "tanggal_terbit": "2024-10-04",
            "url_tdpse_detail": "https://pse.komdigi.go.id/tdpse-detail/20646",
            "website": "-"
        },
        {
            "id": "9d2968b6-9ed4-401c-9991-9ab1e25d863d",
            "nama_pse": "DENTALITIES RETAIL GROUP",
            "nama_se": "dentalities.shop",
            "sektor": "Sektor Perdagangan",
            "tanggal_terbit": "2024-10-04",
            "url_tdpse_detail": "https://pse.komdigi.go.id/tdpse-detail/20635",
            "website": "dentalities.shop"
        },
        {
            "id": "9d296d0a-4616-4eca-a4af-a0c72a2c36ee",
            "nama_pse": "TRIDAYA SINERGI INDONESIA",
            "nama_se": "APLIKASI TSI APPS",
            "sektor": "Sektor Perdagangan",
            "tanggal_terbit": "2024-10-04",
            "url_tdpse_detail": "https://pse.komdigi.go.id/tdpse-detail/20636",
            "website": "-"
        },
        {
            "id": "9d296e2f-f7fa-4d47-b432-7269ab7e35e0",
            "nama_pse": "SURYA MARINA INTERNASIONAL",
            "nama_se": "OTOIMPEX",
            "sektor": "Sektor Transportasi, Sektor Teknologi Informasi dan Komunikasi",
            "tanggal_terbit": "2024-10-04",
            "url_tdpse_detail": "https://pse.komdigi.go.id/tdpse-detail/20637",
            "website": "-"
        },
        {
            "id": "9cb1ac74-e0e6-41f7-b910-38e86088f60c",
            "nama_pse": "SOLUTIONLABS GRUP INDONESIA",
            "nama_se": "JOIN SISTEM",
            "sektor": "Sektor Perdagangan, Sektor Teknologi Informasi dan Komunikasi",
            "tanggal_terbit": "2024-10-04",
            "url_tdpse_detail": "https://pse.komdigi.go.id/tdpse-detail/20638",
            "website": "joinsistem.com"
        },
        {
            "id": "9d297c2d-c2c7-4cb6-97a7-ca7235b05bdf",
            "nama_pse": "RAFIZZA EXPERTISE",
            "nama_se": "APLIKASI PENJUALAN TRAVEL DAN AKOMODASI DESWIT",
            "sektor": "Sektor Perdagangan, Sektor Teknologi Informasi dan Komunikasi",
            "tanggal_terbit": "2024-10-04",
            "url_tdpse_detail": "https://pse.komdigi.go.id/tdpse-detail/20639",
            "website": "deswit.com"
        },
        {
            "id": "9d29838c-32d3-4f66-a2ed-79ac7c95189f",
            "nama_pse": "TOP FAST NUSANTARA",
            "nama_se": "topfastmart.store",
            "sektor": "Sektor Perdagangan",
            "tanggal_terbit": "2024-10-04",
            "url_tdpse_detail": "https://pse.komdigi.go.id/tdpse-detail/20641",
            "website": "topfastmart.store"
        },
        {
            "id": "9d2997b0-c6f0-4e6e-932d-382848215e4a",
            "nama_pse": "LES GLOBAL SOLUSI",
            "nama_se": "LES GLOBAL",
            "sektor": "Sektor Teknologi Informasi dan Komunikasi",
            "tanggal_terbit": "2024-10-04",
            "url_tdpse_detail": "https://pse.komdigi.go.id/tdpse-detail/20643",
            "website": "lesglobal.id"
        },
        {
            "id": "9d29d075-0ad1-46ee-843b-6ecc9077f61b",
            "nama_pse": "GANCANG SOLUSI INDONESIA",
            "nama_se": "GANCANG",
            "sektor": "Sektor Perdagangan",
            "tanggal_terbit": "2024-10-04",
            "url_tdpse_detail": "https://pse.komdigi.go.id/tdpse-detail/20647",
            "website": "gancang.co.id"
        },
        {
            "id": "9d29bb75-7907-4e3d-9b7a-cf3a4ca79c67",
            "nama_pse": "SEMESTA GUNA PIPOPA",
            "nama_se": "PIPOPA",
            "sektor": "Sektor Perdagangan, Sektor Teknologi Informasi dan Komunikasi",
            "tanggal_terbit": "2024-10-04",
            "url_tdpse_detail": "https://pse.komdigi.go.id/tdpse-detail/20645",
            "website": "-"
        },
        {
            "id": "9d292f69-86c1-4104-91a6-ed6607b40d55",
            "nama_pse": "AFG VENTURA TEKNOLOGI",
            "nama_se": "SUPERAI",
            "sektor": "Sektor Teknologi Informasi dan Komunikasi",
            "tanggal_terbit": "2024-10-04",
            "url_tdpse_detail": "https://pse.komdigi.go.id/tdpse-detail/20629",
            "website": "superai.inc"
        },
        {
            "id": "9d29d157-e253-4b88-9490-af57f9ac3493",
            "nama_pse": "KREASI UNTUK INDONESIA",
            "nama_se": "KUYY APP",
            "sektor": "Sektor Teknologi Informasi dan Komunikasi",
            "tanggal_terbit": "2024-10-04",
            "url_tdpse_detail": "https://pse.komdigi.go.id/tdpse-detail/20648",
            "website": "kuyy.app"
        },
        {
            "id": "9d29d77f-31df-4162-a8a4-4381bdd50a19",
            "nama_pse": "NATADANA SOLUSI PRATAMA",
            "nama_se": "FORTRESS@FIDU",
            "sektor": "Sektor Teknologi Informasi dan Komunikasi",
            "tanggal_terbit": "2024-10-04",
            "url_tdpse_detail": "https://pse.komdigi.go.id/tdpse-detail/20650",
            "website": "nda.co.id"
        },
        {
            "id": "9d29d340-5a2a-4b7f-9ae3-93603127cf67",
            "nama_pse": "SAFIRUN",
            "nama_se": "getmand",
            "sektor": "Sektor Transportasi, Sektor Teknologi Informasi dan Komunikasi",
            "tanggal_terbit": "2024-10-04",
            "url_tdpse_detail": "https://pse.komdigi.go.id/tdpse-detail/20649",
            "website": "getmand.com"
        },
        {
            "id": "9d29db8c-f04b-40f1-9ab3-81dda1125604",
            "nama_pse": "KLAMBY KARYA INDONESIA",
            "nama_se": "MARKETPLACE",
            "sektor": "Sektor Perdagangan",
            "tanggal_terbit": "2024-10-04",
            "url_tdpse_detail": "https://pse.komdigi.go.id/tdpse-detail/20651",
            "website": "klamby.id"
        },
        {
            "id": "9d29ddfc-cf7a-40f8-8957-8855d42b120b",
            "nama_pse": "LOKER ASLI INDONESIA",
            "nama_se": "LOKER",
            "sektor": "Sektor Teknologi Informasi dan Komunikasi",
            "tanggal_terbit": "2024-10-04",
            "url_tdpse_detail": "https://pse.komdigi.go.id/tdpse-detail/20652",
            "website": "loker.id"
        },
        {
            "id": "9d276f37-2442-4c56-ab03-e8e22eb29331",
            "nama_pse": "INDOKRIPTO KOIN SEMESTA",
            "nama_se": "WEBSITE COMPANY PROFILE",
            "sektor": "Sektor Perdagangan",
            "tanggal_terbit": "2024-10-03",
            "url_tdpse_detail": "https://pse.komdigi.go.id/tdpse-detail/20608",
            "website": "indokriptokoinsemesta.co.id"
        },
        {
            "id": "9d27d99f-c30d-4949-8173-cb01f0a132df",
            "nama_pse": "NICKHOLAS SATYA SALIRA",
            "nama_se": "PT NICKHOLAS SATYA SALIRA",
            "sektor": "Sektor Perdagangan",
            "tanggal_terbit": "2024-10-03",
            "url_tdpse_detail": "https://pse.komdigi.go.id/tdpse-detail/20620",
            "website": "-"
        },
        {
            "id": "9d27c4c9-0b81-4aba-9c0e-d85268b18d03",
            "nama_pse": "RAENA RUMA INDONESIA",
            "nama_se": "RAENA RESELLER \u0026 DROPSHIP APP [PLAYSTORE]",
            "sektor": "Sektor Perdagangan",
            "tanggal_terbit": "2024-10-03",
            "url_tdpse_detail": "https://pse.komdigi.go.id/tdpse-detail/20616",
            "website": "-"
        },
        {
            "id": "9d27bfaa-6655-4d5e-87ca-500226d041a0",
            "nama_pse": "OTO MULTIARTHA",
            "nama_se": "INSTAGRAM OTO GROUP OFFICIAL (HTTPS://WWW.INSTAGRAM.COM/OTOGROUP_OFFICIAL/)",
            "sektor": "Sektor Keuangan",
            "tanggal_terbit": "2024-10-03",
            "url_tdpse_detail": "https://pse.komdigi.go.id/tdpse-detail/20615",
            "website": "-"
        },
        {
            "id": "9d27755a-e678-4af1-ae0a-060d98e248d3",
            "nama_pse": "MITRA BANGUNAN DIGITAL",
            "nama_se": "DIRENOVASI",
            "sektor": "Sektor Perdagangan",
            "tanggal_terbit": "2024-10-03",
            "url_tdpse_detail": "https://pse.komdigi.go.id/tdpse-detail/20609",
            "website": "direnovasi.com"
        },
        {
            "id": "9d2781f5-0fa1-4299-b04f-ab3b1979c192",
            "nama_pse": "INFINITY DIGITAL CREATIVE",
            "nama_se": "notisdigital.com",
            "sektor": "Sektor Perdagangan, Sektor Teknologi Informasi dan Komunikasi",
            "tanggal_terbit": "2024-10-03",
            "url_tdpse_detail": "https://pse.komdigi.go.id/tdpse-detail/20610",
            "website": "notisdigital.com"
        },
        {
            "id": "9d2786f0-9750-43e9-8d16-fe807ff0296a",
            "nama_pse": "SIKI REVOLUSI INOVASI",
            "nama_se": "SIKI",
            "sektor": "Sektor Perdagangan, Sektor Teknologi Informasi dan Komunikasi",
            "tanggal_terbit": "2024-10-03",
            "url_tdpse_detail": "https://pse.komdigi.go.id/tdpse-detail/20611",
            "website": "siki.id"
        },
        {
            "id": "9d27460a-24a0-4449-acdb-e70be977b2ba",
            "nama_pse": "MITRA JASA PRATAMA",
            "nama_se": "QOALA.APP",
            "sektor": "Sektor Keuangan",
            "tanggal_terbit": "2024-10-03",
            "url_tdpse_detail": "https://pse.komdigi.go.id/tdpse-detail/20606",
            "website": "qoala.app"
        },
        {
            "id": "9d27a7bb-aba9-4cb1-8bd7-3f39f85c9945",
            "nama_pse": "ASA TIGA MUDA",
            "nama_se": "SIMFONIK",
            "sektor": "Sektor Kesehatan, Sektor Teknologi Informasi dan Komunikasi",
            "tanggal_terbit": "2024-10-03",
            "url_tdpse_detail": "https://pse.komdigi.go.id/tdpse-detail/20612",
            "website": "simfonik.id"
        },
        {
            "id": "9d27b86f-9540-4c9a-bbef-b0b49b1d3d8f",
            "nama_pse": "CEMPAKA KREASI SEKAWAN",
            "nama_se": "ARTISAN PROFESSIONNEL",
            "sektor": "Sektor Perdagangan",
            "tanggal_terbit": "2024-10-03",
            "url_tdpse_detail": "https://pse.komdigi.go.id/tdpse-detail/20613",
            "website": "artisanprofessionnel.com"
        },
        {
            "id": "9d27bda0-88bf-45dc-bd33-fc1559648279",
            "nama_pse": "KLIRING KOMODITI INDONESIA",
            "nama_se": "SISTEM PELAPORAN TRANSAKSI KKI (EREPORTING)",
            "sektor": "Sektor Keuangan",
            "tanggal_terbit": "2024-10-03",
            "url_tdpse_detail": "https://pse.komdigi.go.id/tdpse-detail/20614",
            "website": "kliringkomoditi.id"
        },
        {
            "id": "9d27ce76-0e3f-4b69-a9f5-e571c155f57c",
            "nama_pse": "KILAT BERKAH ABADI",
            "nama_se": "KILAT STUDIO INDONESIA",
            "sektor": "Sektor Perdagangan",
            "tanggal_terbit": "2024-10-03",
            "url_tdpse_detail": "https://pse.komdigi.go.id/tdpse-detail/20618",
            "website": "kilatgraphic.com"
        },
        {
            "id": "9d27c97d-3d1b-4742-a6c8-5634812a7864",
            "nama_pse": "CARAMEL TRAVEL INDONESIA",
            "nama_se": "CARAMEL TRAVELMATE",
            "sektor": "Sektor Perdagangan",
            "tanggal_terbit": "2024-10-03",
            "url_tdpse_detail": "https://pse.komdigi.go.id/tdpse-detail/20617",
            "website": "carameltravelmate.com"
        },
        {
            "id": "9d27d4bc-d55a-4f55-93cb-1e48d8135bf2",
            "nama_pse": "VAST HORIZON INTERNATIONAL",
            "nama_se": "SKEDUL",
            "sektor": "Sektor Perdagangan",
            "tanggal_terbit": "2024-10-03",
            "url_tdpse_detail": "https://pse.komdigi.go.id/tdpse-detail/20619",
            "website": "skedul.com"
        },
        {
            "id": "9d27dfb4-6652-4d7b-8f87-d8c907eec12e",
            "nama_pse": "EPEDIA PROJECT DIGITAL",
            "nama_se": "EPEDIA PROJECT DIGITAL",
            "sektor": "Sektor Perdagangan",
            "tanggal_terbit": "2024-10-03",
            "url_tdpse_detail": "https://pse.komdigi.go.id/tdpse-detail/20621",
            "website": "member.epediaproject.my.id"
        },
        {
            "id": "9d27e641-efe3-40fa-887c-b8ddab50fb00",
            "nama_pse": "INDO ARTHA TEKNOLOGI",
            "nama_se": "BPDN",
            "sektor": "Sektor Perdagangan",
            "tanggal_terbit": "2024-10-03",
            "url_tdpse_detail": "https://pse.komdigi.go.id/tdpse-detail/20623",
            "website": "bpdn.id"
        },
        {
            "id": "9d27e639-c325-4c44-a548-ba6fd9f65e8f",
            "nama_pse": "MITLA ITLABORATORY INDONESIA",
            "nama_se": "PRESIMIL",
            "sektor": "Sektor Kesehatan",
            "tanggal_terbit": "2024-10-03",
            "url_tdpse_detail": "https://pse.komdigi.go.id/tdpse-detail/20622",
            "website": "presimil.mitla.co.id"
        },
        {
            "id": "9d281e60-7e69-4748-a974-f10ccac06ce7",
            "nama_pse": "PAREWA KATERING",
            "nama_se": "PT PAREWA KATERING",
            "sektor": "Sektor Perdagangan",
            "tanggal_terbit": "2024-10-03",
            "url_tdpse_detail": "https://pse.komdigi.go.id/tdpse-detail/20625",
            "website": "parewa.net"
        },
        {
            "id": "9d27f2fc-53b6-4661-90fa-d0fe327f152b",
            "nama_pse": "HAPIHOME PEDULI LINGKUNGAN",
            "nama_se": "HAPIHOME",
            "sektor": "Sektor Perdagangan",
            "tanggal_terbit": "2024-10-03",
            "url_tdpse_detail": "https://pse.komdigi.go.id/tdpse-detail/20624",
            "website": "hapihome.id"
        },
        {
            "id": "9d28327a-0ade-4c23-9d76-3947620676d3",
            "nama_pse": "AFG VENTURA TEKNOLOGI",
            "nama_se": "GOVISA",
            "sektor": "Sektor Perdagangan",
            "tanggal_terbit": "2024-10-03",
            "url_tdpse_detail": "https://pse.komdigi.go.id/tdpse-detail/20626",
            "website": "govisa.id"
        }
    ],
    "processingTimeMs": 2,
    "query": "",
    "totalHits": 19121,
    "hitsPerPage": 50,
    "page": 35,
    "totalPages": 383
}