{
    "hits": [
        {
            "id": "9cb1ab8b-12dc-45ff-91af-8aa6ac1f796a",
            "nama_pse": "PROGRESSIVMEDIA INDONESIA",
            "nama_se": "TEMAN SEHAT - MITRA BISNIS (COM.TEMANSEHAT.PLACE, CO.ACHIKO.TEMANSEHAT-PLACE)",
            "sektor": "Sektor Perdagangan, Sektor Perdagangan, Sektor Perdagangan, Sektor Kesehatan, Sektor Kesehatan, Sektor Kesehatan, Sektor Teknologi Informasi dan Komunikasi, Sektor Teknologi Informasi dan Komunikasi, Sektor Teknologi Informasi dan Komunikasi",
            "tanggal_terbit": "2021-03-09",
            "url_tdpse_detail": "https://pse.komdigi.go.id/tdpse-detail/349",
            "website": "places.teman-sehat.co.id"
        },
        {
            "id": "9cb1ab85-57cb-4fc3-8cdd-4749c51635f8",
            "nama_pse": "MAHAKARYA CITRA INTERNASIONAL",
            "nama_se": "RELASI BISNIS BERSAMA",
            "sektor": "Sektor Teknologi Informasi dan Komunikasi",
            "tanggal_terbit": "2021-03-09",
            "url_tdpse_detail": "https://pse.komdigi.go.id/tdpse-detail/341",
            "website": "rbb-world.com"
        },
        {
            "id": "9cb1ab86-3a79-4698-8da4-b6a47c1ef630",
            "nama_pse": "LION SUPER INDO",
            "nama_se": "SUPER NINJA (SUPER INDO NITIP BELANJA)",
            "sektor": "Sektor Perdagangan, Sektor Perdagangan",
            "tanggal_terbit": "2021-03-09",
            "url_tdpse_detail": "https://pse.komdigi.go.id/tdpse-detail/351",
            "website": "-"
        },
        {
            "id": "9cb1ab69-d06e-4ac4-9fe4-908058382c48",
            "nama_pse": "SARANA PASAR DIGITAL",
            "nama_se": "ARTAKU",
            "sektor": "Sektor Keuangan, Sektor Keuangan",
            "tanggal_terbit": "2021-03-08",
            "url_tdpse_detail": "https://pse.komdigi.go.id/tdpse-detail/340",
            "website": "artaku.id"
        },
        {
            "id": "9cb1ab7d-bab6-4953-b3d1-0783eda9d409",
            "nama_pse": "INSPIRE MULTI SOLUSINDO",
            "nama_se": "PT. INSPIRE MULTI SOLUSINDO",
            "sektor": "Sektor Perdagangan, Sektor Perdagangan, Sektor Teknologi Informasi dan Komunikasi, Sektor Teknologi Informasi dan Komunikasi",
            "tanggal_terbit": "2021-03-08",
            "url_tdpse_detail": "https://pse.komdigi.go.id/tdpse-detail/339",
            "website": "inspiremultisolusindo.com"
        },
        {
            "id": "9cb1ab86-36ac-4b77-9879-724f5c3a2fd4",
            "nama_pse": "ETOP GLOBAL TECHNOLOGY",
            "nama_se": "EBUY",
            "sektor": "Sektor Perdagangan, Sektor Perdagangan",
            "tanggal_terbit": "2021-03-08",
            "url_tdpse_detail": "https://pse.komdigi.go.id/tdpse-detail/337",
            "website": "ebuy.com"
        },
        {
            "id": "9cb1ab64-7e42-4253-8c1c-788e5501b7c1",
            "nama_pse": "TRINITI INVESTAMA BERKAT",
            "nama_se": "BITOCTO",
            "sektor": "Sektor Perdagangan, Sektor Perdagangan",
            "tanggal_terbit": "2021-03-05",
            "url_tdpse_detail": "https://pse.komdigi.go.id/tdpse-detail/330",
            "website": "Bitocto.com"
        },
        {
            "id": "9cb1ab64-90ad-4dde-8070-b8fd94af1a1c",
            "nama_pse": "MASMEDIA BUANA PUSTAKA",
            "nama_se": "MASMEDIABUANAPUSTAKA.CO.ID",
            "sektor": "Sektor Perdagangan, Sektor Perdagangan, Sektor Teknologi Informasi dan Komunikasi, Sektor Teknologi Informasi dan Komunikasi",
            "tanggal_terbit": "2021-03-05",
            "url_tdpse_detail": "https://pse.komdigi.go.id/tdpse-detail/329",
            "website": "masmediabuanapustaka.co.id"
        },
        {
            "id": "9cb1ab64-9e10-4589-8205-cf7c4ad6627c",
            "nama_pse": "SAHABAT FINANSIAL KAMU",
            "nama_se": "PT SAHABAT FINANSIAL KAMU (\"FINKU\")",
            "sektor": "Sektor Teknologi Informasi dan Komunikasi, Sektor Teknologi Informasi dan Komunikasi",
            "tanggal_terbit": "2021-03-05",
            "url_tdpse_detail": "https://pse.komdigi.go.id/tdpse-detail/327",
            "website": "finku.id"
        },
        {
            "id": "9cb1ab64-a1bc-4e8c-a50c-3a14f9c62d6c",
            "nama_pse": "SIMBIOTIK MULTITALENTA INDONESIA",
            "nama_se": "EBOOK NET89",
            "sektor": "Sektor Teknologi Informasi dan Komunikasi, Sektor Teknologi Informasi dan Komunikasi",
            "tanggal_terbit": "2021-03-05",
            "url_tdpse_detail": "https://pse.komdigi.go.id/tdpse-detail/332",
            "website": "net89.pro"
        },
        {
            "id": "9cb1ab61-d4fe-4a46-9d1c-6fddc63985f7",
            "nama_pse": "SIMBIOTIK MULTITALENTA INDONESIA",
            "nama_se": "NET89 EA CREATOR",
            "sektor": "Sektor Perdagangan, Sektor Perdagangan",
            "tanggal_terbit": "2021-03-05",
            "url_tdpse_detail": "https://pse.komdigi.go.id/tdpse-detail/334",
            "website": "ptsmi.id"
        },
        {
            "id": "9cb1ab61-e881-49cf-a827-0feb6db24269",
            "nama_pse": "TRADARU DIGITAL NIAGA",
            "nama_se": "POPAKET",
            "sektor": "Sektor Perdagangan, Sektor Perdagangan, Sektor Transportasi, Sektor Transportasi, Sektor Teknologi Informasi dan Komunikasi, Sektor Teknologi Informasi dan Komunikasi",
            "tanggal_terbit": "2021-03-05",
            "url_tdpse_detail": "https://pse.komdigi.go.id/tdpse-detail/336",
            "website": "popaket.com/"
        },
        {
            "id": "9cb1ab8b-0a05-47d2-87f1-1bf2a6804002",
            "nama_pse": "KREDITKU TEKNOLOGI INDONESIA",
            "nama_se": "KREDINESIA",
            "sektor": "Sektor Keuangan, Sektor Keuangan",
            "tanggal_terbit": "2021-03-05",
            "url_tdpse_detail": "https://pse.komdigi.go.id/tdpse-detail/325",
            "website": "kredinesia.id"
        },
        {
            "id": "9cb1ab8b-0c95-4b8d-896c-496ce2abc2fa",
            "nama_pse": "KREDITKU TEKNOLOGI INDONESIA",
            "nama_se": "KREDINESIA",
            "sektor": "Sektor Keuangan, Sektor Keuangan",
            "tanggal_terbit": "2021-03-05",
            "url_tdpse_detail": "https://pse.komdigi.go.id/tdpse-detail/333",
            "website": "kredinesia.id"
        },
        {
            "id": "9cb1ab84-03a8-418c-ab3c-d09e387cce26",
            "nama_pse": "INCHCAPE INDOMOBIL DISTRIBUTION INDONESIA",
            "nama_se": "DIGITAL COMMERCE PLATTFORM (DCP)",
            "sektor": "Sektor Perdagangan, Sektor Perdagangan",
            "tanggal_terbit": "2021-03-05",
            "url_tdpse_detail": "https://pse.komdigi.go.id/tdpse-detail/331",
            "website": "shop.mercedes-benz.com/en-ID/shop/srp/vehicle"
        },
        {
            "id": "9cb1ab7c-798c-488e-a987-ffcddb85a917",
            "nama_pse": "LINE PLUS INDONESIA",
            "nama_se": "LINE JOBS",
            "sektor": "Sektor Teknologi Informasi dan Komunikasi, Sektor Teknologi Informasi dan Komunikasi",
            "tanggal_terbit": "2021-03-05",
            "url_tdpse_detail": "https://pse.komdigi.go.id/tdpse-detail/326",
            "website": "linejobs.id"
        },
        {
            "id": "9cb1ab84-99f0-4f66-a931-cddc21c47e30",
            "nama_pse": "PRODUK KEUANGAN DIGITAL",
            "nama_se": "KREDITLIST",
            "sektor": "Sektor Perdagangan, Sektor Perdagangan, Sektor Keuangan, Sektor Keuangan, Sektor Teknologi Informasi dan Komunikasi, Sektor Teknologi Informasi dan Komunikasi",
            "tanggal_terbit": "2021-03-05",
            "url_tdpse_detail": "https://pse.komdigi.go.id/tdpse-detail/335",
            "website": "http://www.kreditlist.com/"
        },
        {
            "id": "9cb1ab65-f5f8-424e-ac06-ceea804a785a",
            "nama_pse": "KARYA BANGUN INFORMASI",
            "nama_se": "SISTEM TEKNOLOGI INFORMASI DESA (STID)",
            "sektor": "Sektor Teknologi Informasi dan Komunikasi, Sektor Teknologi Informasi dan Komunikasi",
            "tanggal_terbit": "2021-03-04",
            "url_tdpse_detail": "https://pse.komdigi.go.id/tdpse-detail/321",
            "website": "demosid.karyabangun.co.id"
        },
        {
            "id": "9cb1ab61-76f7-406f-8790-867edf5aa8e9",
            "nama_pse": "MARIGO SOLUSI INDONESIA",
            "nama_se": "MARIGO INDONESIA",
            "sektor": "Sektor Perdagangan, Sektor Perdagangan",
            "tanggal_terbit": "2021-03-04",
            "url_tdpse_detail": "https://pse.komdigi.go.id/tdpse-detail/288",
            "website": "marigo.id"
        },
        {
            "id": "9cb1ab61-78c4-4b1d-8e38-7d0c1e06daa8",
            "nama_pse": "DESIGN JAYA INDONESIA",
            "nama_se": "KIOSBANK",
            "sektor": "Sektor Teknologi Informasi dan Komunikasi, Sektor Teknologi Informasi dan Komunikasi",
            "tanggal_terbit": "2021-03-04",
            "url_tdpse_detail": "https://pse.komdigi.go.id/tdpse-detail/279",
            "website": "kiosbank.id"
        },
        {
            "id": "9cb1ab61-7b19-4876-92d3-caa3d0084bb7",
            "nama_pse": "BANK CTBC INDONESIA",
            "nama_se": "CTBC WEBSITE",
            "sektor": "Sektor Keuangan, Sektor Keuangan, Sektor Keuangan, Sektor Keuangan",
            "tanggal_terbit": "2021-03-04",
            "url_tdpse_detail": "https://pse.komdigi.go.id/tdpse-detail/319",
            "website": "ctbcbank.co.id"
        },
        {
            "id": "9cb1ab66-05be-4de8-9aee-a479fea4b701",
            "nama_pse": "Peoplyee Tech Indonesia",
            "nama_se": "REERACOEN INDONESIA",
            "sektor": "Sektor Teknologi Informasi dan Komunikasi, Sektor Teknologi Informasi dan Komunikasi",
            "tanggal_terbit": "2021-03-04",
            "url_tdpse_detail": "https://pse.komdigi.go.id/tdpse-detail/310",
            "website": "reeracoen.co.id"
        },
        {
            "id": "9cb1ab66-0b65-4313-94f5-536b6837689f",
            "nama_pse": "LEGAL TEKNO DIGITAL",
            "nama_se": "KONTRAK HUKUM",
            "sektor": "Sektor Teknologi Informasi dan Komunikasi, Sektor Teknologi Informasi dan Komunikasi",
            "tanggal_terbit": "2021-03-04",
            "url_tdpse_detail": "https://pse.komdigi.go.id/tdpse-detail/287",
            "website": "kontrakhukum.com"
        },
        {
            "id": "9cb1ab61-81d5-4170-8bbb-345cca010fd8",
            "nama_pse": "ASURANSI JASARAHARJA PUTERA",
            "nama_se": "EZURANCE",
            "sektor": "Sektor Keuangan, Sektor Keuangan",
            "tanggal_terbit": "2021-03-04",
            "url_tdpse_detail": "https://pse.komdigi.go.id/tdpse-detail/282",
            "website": "-"
        },
        {
            "id": "9cb1ab61-982b-471c-8c02-a460679ab50e",
            "nama_pse": "PRIME TEKNOLOGI DIGITAL INFORMINDO",
            "nama_se": "PRIMETELCO",
            "sektor": "Sektor Teknologi Informasi dan Komunikasi, Sektor Teknologi Informasi dan Komunikasi",
            "tanggal_terbit": "2021-03-04",
            "url_tdpse_detail": "https://pse.komdigi.go.id/tdpse-detail/285",
            "website": "ptdigital.co.id"
        },
        {
            "id": "9cb1ab61-a0f8-4e9d-9b85-75d0193039d2",
            "nama_pse": "SIMPAN PINJAM TUNGGAL MAJU JAYA",
            "nama_se": "KREDIT DOMPET",
            "sektor": "Sektor Keuangan, Sektor Keuangan",
            "tanggal_terbit": "2021-03-04",
            "url_tdpse_detail": "https://pse.komdigi.go.id/tdpse-detail/284",
            "website": "-"
        },
        {
            "id": "9cb1ab61-a5c3-4b50-b4d6-24768a4da87b",
            "nama_pse": "SIMPAN PINJAM SOLUSI DIGITAL HIDUP",
            "nama_se": "DUIT PLUS",
            "sektor": "Sektor Keuangan, Sektor Keuangan",
            "tanggal_terbit": "2021-03-04",
            "url_tdpse_detail": "https://pse.komdigi.go.id/tdpse-detail/281",
            "website": "kspsdh.com"
        },
        {
            "id": "9cb1ab66-1fa1-4f1e-ad67-78717655c2b9",
            "nama_pse": "MITRA EDUKASI NUSANTARA",
            "nama_se": "GRAMEDIA MITRA EDUKASI INDONESIA",
            "sektor": "Sektor Perdagangan, Sektor Perdagangan",
            "tanggal_terbit": "2021-03-04",
            "url_tdpse_detail": "https://pse.komdigi.go.id/tdpse-detail/296",
            "website": "gramediaedukasi.co.id"
        },
        {
            "id": "9cb1ab66-21c5-424a-8089-cd2cd9c7fa02",
            "nama_pse": "MITRA EDUKASI NUSANTARA",
            "nama_se": "SIPLAH GRAMEDIA",
            "sektor": "Sektor Perdagangan, Sektor Perdagangan",
            "tanggal_terbit": "2021-03-04",
            "url_tdpse_detail": "https://pse.komdigi.go.id/tdpse-detail/313",
            "website": "mitraedu.id"
        },
        {
            "id": "9cb1ab61-a7c4-487d-8b07-d08f3346834f",
            "nama_pse": "GUDANG INOVASI INDONESIA",
            "nama_se": "GUDANG GAME",
            "sektor": "Sektor Perdagangan, Sektor Perdagangan",
            "tanggal_terbit": "2021-03-04",
            "url_tdpse_detail": "https://pse.komdigi.go.id/tdpse-detail/312",
            "website": "gudanggame.id"
        },
        {
            "id": "9cb1ab61-aba7-4aef-ae0f-77f9d759e03b",
            "nama_pse": "SIMPAN PINJAM DANA PRIMA INDONESIA",
            "nama_se": "DANA PRIMA INDONESIA",
            "sektor": "Sektor Keuangan, Sektor Keuangan",
            "tanggal_terbit": "2021-03-04",
            "url_tdpse_detail": "https://pse.komdigi.go.id/tdpse-detail/291",
            "website": "primadana.com"
        },
        {
            "id": "9cb1ab64-8051-445e-a6ff-c6e662c94861",
            "nama_pse": "SASUKA ONLINE INDONESIA",
            "nama_se": "SASUKA ONLINE",
            "sektor": "Sektor Perdagangan, Sektor Perdagangan, Sektor Perdagangan, Sektor Perdagangan, Sektor Perdagangan, Sektor Perdagangan",
            "tanggal_terbit": "2021-03-04",
            "url_tdpse_detail": "https://pse.komdigi.go.id/tdpse-detail/286",
            "website": "https://sasuka.online ,  https://sasuka.co.id,  https://ritzuka.com,"
        },
        {
            "id": "9cb1ab66-238c-470d-b752-e6f61e2c1648",
            "nama_pse": "BIMA SAKTI ALTERRA",
            "nama_se": "BSA E-GOVERNMENT SOLUTION.",
            "sektor": "Sektor Perdagangan, Sektor Perdagangan",
            "tanggal_terbit": "2021-03-04",
            "url_tdpse_detail": "https://pse.komdigi.go.id/tdpse-detail/304",
            "website": "bsa.id"
        },
        {
            "id": "9cb1ab64-8238-4307-ae5d-d12484988962",
            "nama_pse": "KARYA KREATIF NUSANTARA",
            "nama_se": "SNACK VIDEO",
            "sektor": "Sektor Teknologi Informasi dan Komunikasi, Sektor Teknologi Informasi dan Komunikasi",
            "tanggal_terbit": "2021-03-04",
            "url_tdpse_detail": "https://pse.komdigi.go.id/tdpse-detail/298",
            "website": "snackvideo.com"
        },
        {
            "id": "9cb1ab64-84da-4bcc-8c43-d6ae5ce8a6f4",
            "nama_pse": "BAKOEL NUSANTARA",
            "nama_se": "PPOB NUSANTARA",
            "sektor": "Sektor Teknologi Informasi dan Komunikasi, Sektor Teknologi Informasi dan Komunikasi",
            "tanggal_terbit": "2021-03-04",
            "url_tdpse_detail": "https://pse.komdigi.go.id/tdpse-detail/289",
            "website": "ppobnusantara.com"
        },
        {
            "id": "9cb1ab61-b314-4680-a7f9-c398543099d6",
            "nama_pse": "ADIWISISTA DAYA PRATAMA",
            "nama_se": "URUS",
            "sektor": "Sektor Teknologi Informasi dan Komunikasi, Sektor Teknologi Informasi dan Komunikasi",
            "tanggal_terbit": "2021-03-04",
            "url_tdpse_detail": "https://pse.komdigi.go.id/tdpse-detail/295",
            "website": "urus.co.id"
        },
        {
            "id": "9cb1ab61-b619-4750-b7aa-8b7091e6d4c9",
            "nama_pse": "AWAN KOMPUTASI TEKNOLOGI",
            "nama_se": "AWANIO",
            "sektor": "Sektor Teknologi Informasi dan Komunikasi, Sektor Teknologi Informasi dan Komunikasi",
            "tanggal_terbit": "2021-03-04",
            "url_tdpse_detail": "https://pse.komdigi.go.id/tdpse-detail/293",
            "website": "awan.io"
        },
        {
            "id": "9cb1ab66-34fc-42e7-b583-e1965c50147d",
            "nama_pse": "AYOREAL FINANSIAL TEKNOLOGI",
            "nama_se": "AYOREAL.COM",
            "sektor": "Sektor Perdagangan, Sektor Perdagangan, Sektor Perdagangan",
            "tanggal_terbit": "2021-03-04",
            "url_tdpse_detail": "https://pse.komdigi.go.id/tdpse-detail/299",
            "website": "ayoreal.com"
        },
        {
            "id": "9cb1ab64-8afd-401f-93dd-4864ebb8e068",
            "nama_pse": "AYO BANTUIN INDONESIA",
            "nama_se": "AYO BANTUIN",
            "sektor": "Sektor Perdagangan, Sektor Perdagangan, Sektor Teknologi Informasi dan Komunikasi, Sektor Teknologi Informasi dan Komunikasi",
            "tanggal_terbit": "2021-03-04",
            "url_tdpse_detail": "https://pse.komdigi.go.id/tdpse-detail/301",
            "website": "ayobantuin.com"
        },
        {
            "id": "9cb1ab61-bee0-40b3-89ea-1449d54da7af",
            "nama_pse": "JATELINDO PERKASA ABADI",
            "nama_se": "FELLO",
            "sektor": "Sektor Perdagangan, Sektor Perdagangan, Sektor Keuangan, Sektor Keuangan",
            "tanggal_terbit": "2021-03-04",
            "url_tdpse_detail": "https://pse.komdigi.go.id/tdpse-detail/309",
            "website": "fello.id"
        },
        {
            "id": "9cb1ab66-3705-4cd3-a6cb-2d14fe18f5f7",
            "nama_pse": "PERSAUDARAAN LINTAS MANDIRI JAYA",
            "nama_se": "PLM STORE",
            "sektor": "Sektor Perdagangan, Sektor Perdagangan",
            "tanggal_terbit": "2021-03-04",
            "url_tdpse_detail": "https://pse.komdigi.go.id/tdpse-detail/316",
            "website": "store.penawarlegendamaju.co.id"
        },
        {
            "id": "9cb1ab66-3ab8-4b39-a951-f445dd87203d",
            "nama_pse": "MYDOCTORS INDONESIA NUSANTARA TEKNOLOGI",
            "nama_se": "MYDOCTORS",
            "sektor": "Sektor Perdagangan, Sektor Perdagangan, Sektor Kesehatan, Sektor Kesehatan",
            "tanggal_terbit": "2021-03-04",
            "url_tdpse_detail": "https://pse.komdigi.go.id/tdpse-detail/315",
            "website": "mydoctors.id"
        },
        {
            "id": "9cb1ab64-99d8-4a92-b4c7-7341eed08e7d",
            "nama_pse": "DANA INVESTASI BERSAMA",
            "nama_se": "FUNDEX",
            "sektor": "Sektor Keuangan, Sektor Keuangan, Sektor Keuangan, Sektor Teknologi Informasi dan Komunikasi, Sektor Teknologi Informasi dan Komunikasi, Sektor Teknologi Informasi dan Komunikasi",
            "tanggal_terbit": "2021-03-04",
            "url_tdpse_detail": "https://pse.komdigi.go.id/tdpse-detail/320",
            "website": "fundex.id"
        },
        {
            "id": "9cb1ab69-c340-4d3c-baf9-daf40f4c4209",
            "nama_pse": "INTER PROSPEK",
            "nama_se": "KESATO \u0026 CO",
            "sektor": "Sektor Teknologi Informasi dan Komunikasi, Sektor Teknologi Informasi dan Komunikasi",
            "tanggal_terbit": "2021-03-04",
            "url_tdpse_detail": "https://pse.komdigi.go.id/tdpse-detail/323",
            "website": "kesato.com"
        },
        {
            "id": "9cb1ab83-43ec-4479-989d-6622b1965b07",
            "nama_pse": "AXA FINANCIAL INDONESIA",
            "nama_se": "AXA DIRECT",
            "sektor": "Sektor Keuangan, Sektor Keuangan",
            "tanggal_terbit": "2021-03-04",
            "url_tdpse_detail": "https://pse.komdigi.go.id/tdpse-detail/292",
            "website": "axa.co.id/"
        },
        {
            "id": "9cb1ab83-4dc3-4afa-bf57-4ef9bbb3cef1",
            "nama_pse": "AXA FINANCIAL INDONESIA",
            "nama_se": "AFI ONE",
            "sektor": "Sektor Keuangan, Sektor Keuangan",
            "tanggal_terbit": "2021-03-04",
            "url_tdpse_detail": "https://pse.komdigi.go.id/tdpse-detail/308",
            "website": "axa.co.id/"
        },
        {
            "id": "9cb1ab83-508d-4900-a548-e366e70a2dfd",
            "nama_pse": "MNC TEKNOLOGI NUSANTARA",
            "nama_se": "MOTIONPAY",
            "sektor": "Sektor Keuangan, Sektor Keuangan, Sektor Keuangan, Sektor Keuangan, Sektor Keuangan, Sektor Keuangan",
            "tanggal_terbit": "2021-03-04",
            "url_tdpse_detail": "https://pse.komdigi.go.id/tdpse-detail/306",
            "website": "motionpay.id"
        },
        {
            "id": "9cb1ab8b-a754-4a2e-822e-b70124629b66",
            "nama_pse": "MIKRO KAPITAL INDONESIA",
            "nama_se": "BEESFUNDING",
            "sektor": "Sektor Keuangan, Sektor Keuangan",
            "tanggal_terbit": "2021-03-04",
            "url_tdpse_detail": "https://pse.komdigi.go.id/tdpse-detail/303",
            "website": "beesfunding.id"
        },
        {
            "id": "9cb1ab8c-3bb3-4e9d-a564-def10f526105",
            "nama_pse": "LABA KISAH KARUNIA",
            "nama_se": "LABABOOK",
            "sektor": "Sektor Keuangan, Sektor Keuangan, Sektor Teknologi Informasi dan Komunikasi, Sektor Teknologi Informasi dan Komunikasi",
            "tanggal_terbit": "2021-03-04",
            "url_tdpse_detail": "https://pse.komdigi.go.id/tdpse-detail/294",
            "website": "lababook.com"
        },
        {
            "id": "9cb1ab7c-beac-48b4-837c-ba9da10971fd",
            "nama_pse": "CLOUD COMPUTING INDONESIA",
            "nama_se": "QINGCLOUD WEBSITE",
            "sektor": "Sektor Teknologi Informasi dan Komunikasi, Sektor Teknologi Informasi dan Komunikasi",
            "tanggal_terbit": "2021-03-04",
            "url_tdpse_detail": "https://pse.komdigi.go.id/tdpse-detail/302",
            "website": "intl.qingcloud.com"
        }
    ],
    "processingTimeMs": 8,
    "query": "",
    "totalHits": 19121,
    "hitsPerPage": 50,
    "page": 377,
    "totalPages": 383
}