{
    "hits": [
        {
            "id": "9cb1abb1-da97-48f4-8700-4867a6ddf80c",
            "nama_pse": "NOVYAN MOEZHAKY UMBARA",
            "nama_se": "RUGSTORE.ID",
            "sektor": "Sektor Perdagangan",
            "tanggal_terbit": "2022-07-17",
            "url_tdpse_detail": "https://pse.komdigi.go.id/tdpse-detail/6007",
            "website": "RUGSTORE.ID"
        },
        {
            "id": "9cb1abb1-dcb6-4d46-af53-9f76053334cf",
            "nama_pse": "FARID ARIS P",
            "nama_se": "NOURAPAY",
            "sektor": "Sektor Perdagangan, Sektor Teknologi Informasi dan Komunikasi",
            "tanggal_terbit": "2022-07-17",
            "url_tdpse_detail": "https://pse.komdigi.go.id/tdpse-detail/6009",
            "website": "nourapay.com"
        },
        {
            "id": "9cb1abb1-df28-4adc-aac2-66484fae537f",
            "nama_pse": "BAGUS ANJARI SUWITO",
            "nama_se": "WEBSITE OLSHOP OLEH BUKAOLSHOP",
            "sektor": "Sektor Perdagangan, Sektor Teknologi Informasi dan Komunikasi",
            "tanggal_terbit": "2022-07-17",
            "url_tdpse_detail": "https://pse.komdigi.go.id/tdpse-detail/6010",
            "website": "bukaolshop.site"
        },
        {
            "id": "9cb1ab9d-2eab-43cf-8a9a-611e95d1ac06",
            "nama_pse": "MOCH. SAIFUDIN",
            "nama_se": "POLARIS PULSA",
            "sektor": "Sektor Perdagangan, Sektor Teknologi Informasi dan Komunikasi",
            "tanggal_terbit": "2022-07-17",
            "url_tdpse_detail": "https://pse.komdigi.go.id/tdpse-detail/6011",
            "website": "polarispulsa.com"
        },
        {
            "id": "9cb1aba8-0c7c-4988-81b4-2cab27771b65",
            "nama_pse": "EPRENEUR INTERNATIONAL",
            "nama_se": "EPRENEUR INTERNATIONAL",
            "sektor": "Sektor Teknologi Informasi dan Komunikasi",
            "tanggal_terbit": "2022-07-17",
            "url_tdpse_detail": "https://pse.komdigi.go.id/tdpse-detail/6013",
            "website": "epreneur.co.id"
        },
        {
            "id": "9cb1ab9d-30f6-46e6-94da-c0a9e7946d67",
            "nama_pse": "JARINGAN REGISTRI INDONESIA",
            "nama_se": "SISTEM REGISTRASI DOMAIN DAN LAINNYA",
            "sektor": "Sektor Teknologi Informasi dan Komunikasi",
            "tanggal_terbit": "2022-07-17",
            "url_tdpse_detail": "https://pse.komdigi.go.id/tdpse-detail/6014",
            "website": "registrindo.id"
        },
        {
            "id": "9cb1ab9d-3bab-4765-913c-9c2dfade6d95",
            "nama_pse": "ABDULLAH ZUHRI",
            "nama_se": "ANEKAFX",
            "sektor": "Sektor Keuangan, Sektor Teknologi Informasi dan Komunikasi",
            "tanggal_terbit": "2022-07-17",
            "url_tdpse_detail": "https://pse.komdigi.go.id/tdpse-detail/6018",
            "website": "anekafx.com"
        },
        {
            "id": "9cb1abb1-e16f-489a-af1d-e776b959f659",
            "nama_pse": "ARHAN NUDDIN",
            "nama_se": "TUPAPUA",
            "sektor": "Sektor Teknologi Informasi dan Komunikasi",
            "tanggal_terbit": "2022-07-17",
            "url_tdpse_detail": "https://pse.komdigi.go.id/tdpse-detail/6015",
            "website": "-"
        },
        {
            "id": "9cb1aba8-0e5f-474e-9a8a-6155513ec1b1",
            "nama_pse": "DIAZ MUAMMAR BIMANTARA",
            "nama_se": "AZ STORE",
            "sektor": "Sektor Perdagangan",
            "tanggal_terbit": "2022-07-17",
            "url_tdpse_detail": "https://pse.komdigi.go.id/tdpse-detail/6016",
            "website": "azapplication.bukaolshop.site"
        },
        {
            "id": "9cb1aba8-108a-4cac-9da6-215c5f21541f",
            "nama_pse": "RIYADH MUHAMMAD AL WARID",
            "nama_se": "LEGASUS STORE",
            "sektor": "Sektor Perdagangan",
            "tanggal_terbit": "2022-07-17",
            "url_tdpse_detail": "https://pse.komdigi.go.id/tdpse-detail/6019",
            "website": "-"
        },
        {
            "id": "9cb1ab9d-4b1e-4e99-9b5c-837be20278d9",
            "nama_pse": "KKULJAEM EDUJAYA INDO",
            "nama_se": "KKULJAEM KOREAN",
            "sektor": "Sektor Teknologi Informasi dan Komunikasi",
            "tanggal_terbit": "2022-07-17",
            "url_tdpse_detail": "https://pse.komdigi.go.id/tdpse-detail/6021",
            "website": "kkuljaemkoreanapp.com"
        },
        {
            "id": "9cb1ab9d-4ff9-4ea4-a99e-9b7630dd8eb4",
            "nama_pse": "MUHAMMAD YUSUF RIFALDI",
            "nama_se": "TOPUPSTORE",
            "sektor": "Sektor Teknologi Informasi dan Komunikasi",
            "tanggal_terbit": "2022-07-17",
            "url_tdpse_detail": "https://pse.komdigi.go.id/tdpse-detail/6022",
            "website": "Topup18.bukaolshop.site"
        },
        {
            "id": "9cb1abb1-e5f1-4c83-9385-fd3061316fc2",
            "nama_pse": "M BERLIAN SELNOVIK",
            "nama_se": "SELNOVIKTECH.COM",
            "sektor": "Sektor Teknologi Informasi dan Komunikasi",
            "tanggal_terbit": "2022-07-17",
            "url_tdpse_detail": "https://pse.komdigi.go.id/tdpse-detail/6023",
            "website": "SelnovikTech.com"
        },
        {
            "id": "9cb1abb1-e7c6-4d91-bf6a-415c3dc2b670",
            "nama_pse": "PORTAL INDUSTRI DIGITAL",
            "nama_se": "PULSAKU.ID - TRANSKSI \u0026 PEMBAYARAN DIGITAL",
            "sektor": "Sektor Perdagangan, Sektor Teknologi Informasi dan Komunikasi",
            "tanggal_terbit": "2022-07-17",
            "url_tdpse_detail": "https://pse.komdigi.go.id/tdpse-detail/6024",
            "website": "pulsaku.id"
        },
        {
            "id": "9cb1abb1-edcd-4ca6-b7dd-4dfc3e806bfd",
            "nama_pse": "LILIS SUAIDAH",
            "nama_se": "SIMKALUH (SISTEM INFORMASI MANAJEMEN KINERJA PENYULUH)",
            "sektor": "Sektor Teknologi Informasi dan Komunikasi",
            "tanggal_terbit": "2022-07-17",
            "url_tdpse_detail": "https://pse.komdigi.go.id/tdpse-detail/6025",
            "website": "kinerjapenyuluh.my.id"
        },
        {
            "id": "9cb1aba8-1415-446a-9dcd-160ff0623e7d",
            "nama_pse": "LILIS SUAIDAH",
            "nama_se": "SIMKALUH BBRBLPP GONDOL",
            "sektor": "Sektor Teknologi Informasi dan Komunikasi",
            "tanggal_terbit": "2022-07-17",
            "url_tdpse_detail": "https://pse.komdigi.go.id/tdpse-detail/6026",
            "website": "penyuluhgondol.my.id"
        },
        {
            "id": "9cb1ab9d-5c04-4776-8918-98af280b8576",
            "nama_pse": "IMAM NAWAWI",
            "nama_se": "DPAJA : DAKA PAYMENT",
            "sektor": "Sektor Perdagangan, Sektor Keuangan",
            "tanggal_terbit": "2022-07-17",
            "url_tdpse_detail": "https://pse.komdigi.go.id/tdpse-detail/6027",
            "website": "dakapayment.my.id"
        },
        {
            "id": "9cb1aba8-1606-4b14-b41f-bd766a8d291a",
            "nama_pse": "BAGUS ADI JAYA BANGSAWAN Z",
            "nama_se": "DJM18",
            "sektor": "Sektor Teknologi Informasi dan Komunikasi",
            "tanggal_terbit": "2022-07-17",
            "url_tdpse_detail": "https://pse.komdigi.go.id/tdpse-detail/6028",
            "website": "djm.tokowebku.com"
        },
        {
            "id": "9cb1abb1-e388-418b-b243-a0bdf103a336",
            "nama_pse": "DANA INVESTASI BERSAMA",
            "nama_se": "FUNDEX MOBILE APP",
            "sektor": "Sektor Keuangan",
            "tanggal_terbit": "2022-07-17",
            "url_tdpse_detail": "https://pse.komdigi.go.id/tdpse-detail/6020",
            "website": "-"
        },
        {
            "id": "9cb1abb1-84dc-4de1-a35d-6327c3acc70f",
            "nama_pse": "LIGHTMEDIA INOVASI TEKNOLOGI",
            "nama_se": "LIMECOMMERCE.COM",
            "sektor": "Sektor Teknologi Informasi dan Komunikasi",
            "tanggal_terbit": "2022-07-16",
            "url_tdpse_detail": "https://pse.komdigi.go.id/tdpse-detail/5918",
            "website": "limecommerce.com"
        },
        {
            "id": "9cb1aba7-c48d-4e50-940b-1677bbe12c67",
            "nama_pse": "MUHAMMAD RUDID KHAIDAR",
            "nama_se": "MITRARPAY",
            "sektor": "Sektor Perdagangan",
            "tanggal_terbit": "2022-07-16",
            "url_tdpse_detail": "https://pse.komdigi.go.id/tdpse-detail/5919",
            "website": "mitrarpay.com"
        },
        {
            "id": "9cb1ab9c-e20b-413c-9da3-288159a6d951",
            "nama_pse": "PRIMA SYIRKAH INTERNATIONAL",
            "nama_se": "MAKASSARROBOTIKA.COM",
            "sektor": "Sektor Perdagangan",
            "tanggal_terbit": "2022-07-16",
            "url_tdpse_detail": "https://pse.komdigi.go.id/tdpse-detail/5920",
            "website": "makassarrobotika.com"
        },
        {
            "id": "9cb1ab9c-e3dd-4e49-a2a6-299094945a16",
            "nama_pse": "MARS TECH GLOBAL",
            "nama_se": "WEBSITE",
            "sektor": "Sektor Teknologi Informasi dan Komunikasi",
            "tanggal_terbit": "2022-07-16",
            "url_tdpse_detail": "https://pse.komdigi.go.id/tdpse-detail/5921",
            "website": "marstech.co.id"
        },
        {
            "id": "9cb1aba7-c6a7-430c-832e-418869607443",
            "nama_pse": "BARONG GAJAH SERASI",
            "nama_se": "STAIRWAYGAMES.COM",
            "sektor": "Sektor Teknologi Informasi dan Komunikasi",
            "tanggal_terbit": "2022-07-16",
            "url_tdpse_detail": "https://pse.komdigi.go.id/tdpse-detail/5922",
            "website": "stairwaygames.com"
        },
        {
            "id": "9cb1ab9c-e59f-4c36-a62d-2e8a8f4f91d9",
            "nama_pse": "MALEO EDUKASI TEKNOLOGI",
            "nama_se": "EDUCOURSE.ID",
            "sektor": "Sektor Teknologi Informasi dan Komunikasi",
            "tanggal_terbit": "2022-07-16",
            "url_tdpse_detail": "https://pse.komdigi.go.id/tdpse-detail/5923",
            "website": "educourse.id"
        },
        {
            "id": "9cb1ab9c-e799-472e-8f56-58a47da5479a",
            "nama_pse": "IDX SOLUSI TEKNOLOGI INFORMASI",
            "nama_se": "BROKERAGE OFFICE SYSTEM (BOFIS)",
            "sektor": "Sektor Perdagangan",
            "tanggal_terbit": "2022-07-16",
            "url_tdpse_detail": "https://pse.komdigi.go.id/tdpse-detail/5926",
            "website": "idxsti.co.id"
        },
        {
            "id": "9cb1abb1-86d7-45f1-bacf-c30f5156a6ce",
            "nama_pse": "APIK EDU INDONESIA",
            "nama_se": "APIK EDU",
            "sektor": "Sektor Teknologi Informasi dan Komunikasi",
            "tanggal_terbit": "2022-07-16",
            "url_tdpse_detail": "https://pse.komdigi.go.id/tdpse-detail/5924",
            "website": "indonesiakompeten.com"
        },
        {
            "id": "9cb1ab9c-e999-40b7-b525-023ee63577af",
            "nama_pse": "MARS TECH GLOBAL",
            "nama_se": "MARS CLOUD",
            "sektor": "Sektor Teknologi Informasi dan Komunikasi",
            "tanggal_terbit": "2022-07-16",
            "url_tdpse_detail": "https://pse.komdigi.go.id/tdpse-detail/5925",
            "website": "marstech.id"
        },
        {
            "id": "9cb1aba7-c8b6-4054-9362-882b4819d8d6",
            "nama_pse": "HERMANTO",
            "nama_se": "GTHRELOAD.XYZ",
            "sektor": "Sektor Perdagangan",
            "tanggal_terbit": "2022-07-16",
            "url_tdpse_detail": "https://pse.komdigi.go.id/tdpse-detail/5961",
            "website": "gthreload.xyz"
        },
        {
            "id": "9cb1aba7-cb36-48d2-a979-6c2eef03b098",
            "nama_pse": "MITRANET SOFTWARE ONLINE",
            "nama_se": "SMART MERCGANT QRIS",
            "sektor": "Sektor Teknologi Informasi dan Komunikasi",
            "tanggal_terbit": "2022-07-16",
            "url_tdpse_detail": "https://pse.komdigi.go.id/tdpse-detail/5928",
            "website": "goqris.id"
        },
        {
            "id": "9cb1aba7-cd22-4831-a809-6f06c2523618",
            "nama_pse": "BANK PEREKONOMIAN RAKYAT KARTIKAARTHA KENCANAJAYA",
            "nama_se": "PT BPR KARTIKAARTHA KENCANAJAYA",
            "sektor": "Sektor Keuangan",
            "tanggal_terbit": "2022-07-16",
            "url_tdpse_detail": "https://pse.komdigi.go.id/tdpse-detail/5927",
            "website": "bprkartikaartha.co.id"
        },
        {
            "id": "9cb1ab9c-eb51-4e82-97bb-f2f71d8c9ab1",
            "nama_pse": "IKKAT INOVASI TEKNOLOGI",
            "nama_se": "SIMPOOL",
            "sektor": "Sektor Teknologi Informasi dan Komunikasi",
            "tanggal_terbit": "2022-07-16",
            "url_tdpse_detail": "https://pse.komdigi.go.id/tdpse-detail/5969",
            "website": "myapp.simpool.id"
        },
        {
            "id": "9cb1aba7-cfb7-47ee-90e0-665c63ae9547",
            "nama_pse": "MITRANET SOFTWARE ONLINE",
            "nama_se": "SMART MERCHANT QRIS",
            "sektor": "Sektor Teknologi Informasi dan Komunikasi",
            "tanggal_terbit": "2022-07-16",
            "url_tdpse_detail": "https://pse.komdigi.go.id/tdpse-detail/5929",
            "website": "goqris.id"
        },
        {
            "id": "9cb1ab9c-f0fb-4834-9b0e-3cb0b6c04473",
            "nama_pse": "OKE DIGITAL MEDIA",
            "nama_se": "OKEPAY – TRANSAKSI \u0026 PEMBAYARAN DIGITAL",
            "sektor": "Sektor Perdagangan, Sektor Teknologi Informasi dan Komunikasi",
            "tanggal_terbit": "2022-07-16",
            "url_tdpse_detail": "https://pse.komdigi.go.id/tdpse-detail/5930",
            "website": "okepay.id"
        },
        {
            "id": "9cb1abb1-88b5-4667-9b67-146967af6a08",
            "nama_pse": "BANK PEREKONOMIAN RAKYAT NUSANTARA BONA PASOGIT LIMA BELAS",
            "nama_se": "PT BPR NUSANTARA BONA PASOGIT 15",
            "sektor": "Sektor Keuangan",
            "tanggal_terbit": "2022-07-16",
            "url_tdpse_detail": "https://pse.komdigi.go.id/tdpse-detail/5931",
            "website": "-"
        },
        {
            "id": "9cb1ab9c-f579-4dca-bd5b-e253dda203ea",
            "nama_pse": "LEAFHEA INTERNATIONAL NETWORK",
            "nama_se": "LEAFHEA",
            "sektor": "Sektor Perdagangan",
            "tanggal_terbit": "2022-07-16",
            "url_tdpse_detail": "https://pse.komdigi.go.id/tdpse-detail/5933",
            "website": "leafhea.com"
        },
        {
            "id": "9cb1aba7-d208-4602-9aa3-d2f680dd8551",
            "nama_pse": "PRIMA SYIRKAH INTERNATIONAL",
            "nama_se": "KATALOGUNIK.COM",
            "sektor": "Sektor Perdagangan",
            "tanggal_terbit": "2022-07-16",
            "url_tdpse_detail": "https://pse.komdigi.go.id/tdpse-detail/5932",
            "website": "katalogunik.com"
        },
        {
            "id": "9cb1aba7-d449-4354-bc29-a3df18df647b",
            "nama_pse": "VIDYA TEKNOLOGI DIGITAL",
            "nama_se": "KOMUNITAS ASOSIASI KEWIRAUSAHAAN RAKYAT GORONTALO (KAKRG.ID)",
            "sektor": "Sektor Perdagangan",
            "tanggal_terbit": "2022-07-16",
            "url_tdpse_detail": "https://pse.komdigi.go.id/tdpse-detail/5934",
            "website": "kakrg.id"
        },
        {
            "id": "9cb1ab9c-f770-45f9-b706-39fed5ded4b6",
            "nama_pse": "REINHART PREVIANO KOENTJORO",
            "nama_se": "REINHART1010.ID",
            "sektor": "Sektor Teknologi Informasi dan Komunikasi",
            "tanggal_terbit": "2022-07-16",
            "url_tdpse_detail": "https://pse.komdigi.go.id/tdpse-detail/5935",
            "website": "reinhart1010.id"
        },
        {
            "id": "9cb1ab9c-f94b-406d-8366-ec5dce1a981f",
            "nama_pse": "VIDYA AMALIAH",
            "nama_se": "VIDYA AMALIAH",
            "sektor": "Sektor Perdagangan",
            "tanggal_terbit": "2022-07-16",
            "url_tdpse_detail": "https://pse.komdigi.go.id/tdpse-detail/5936",
            "website": "-"
        },
        {
            "id": "9cb1ab9c-fb6a-4e72-8209-07f84363ed72",
            "nama_pse": "I WAYAN PUTRAYANA,ST",
            "nama_se": "PAKET KURSUS. COM",
            "sektor": "Sektor Perdagangan",
            "tanggal_terbit": "2022-07-16",
            "url_tdpse_detail": "https://pse.komdigi.go.id/tdpse-detail/5938",
            "website": "paketkursus.com"
        },
        {
            "id": "9cb1aba7-d6e4-4e60-9585-974f02bc3828",
            "nama_pse": "GLOBAL OTOMAT DIGITAL",
            "nama_se": "WISENOMIST",
            "sektor": "Sektor Teknologi Informasi dan Komunikasi",
            "tanggal_terbit": "2022-07-16",
            "url_tdpse_detail": "https://pse.komdigi.go.id/tdpse-detail/5937",
            "website": "wisenomist.com"
        },
        {
            "id": "9cb1ab9c-fd2b-4165-8eb9-60467c4ec05c",
            "nama_pse": "CREATIVE MULTIMEDIA INDONESIA",
            "nama_se": "COATES INDONESIA TAKE5",
            "sektor": "Sektor Teknologi Informasi dan Komunikasi",
            "tanggal_terbit": "2022-07-16",
            "url_tdpse_detail": "https://pse.komdigi.go.id/tdpse-detail/5939",
            "website": "coatesapp.com"
        },
        {
            "id": "9cb1abb1-8b1d-4d69-add6-897e585eb318",
            "nama_pse": "MENARA PETSKITA INDONESIA",
            "nama_se": "PT. MENARA PETSKITA INDONESIA",
            "sektor": "Sektor Perdagangan, Sektor Teknologi Informasi dan Komunikasi",
            "tanggal_terbit": "2022-07-16",
            "url_tdpse_detail": "https://pse.komdigi.go.id/tdpse-detail/5940",
            "website": "-"
        },
        {
            "id": "9cb1abb1-8dda-45f1-bc8d-011f48043660",
            "nama_pse": "CREATIVE MULTIMEDIA INDONESIA",
            "nama_se": "COATES CONNECT",
            "sektor": "Sektor Teknologi Informasi dan Komunikasi",
            "tanggal_terbit": "2022-07-16",
            "url_tdpse_detail": "https://pse.komdigi.go.id/tdpse-detail/5941",
            "website": "ptcoatesconnect.com"
        },
        {
            "id": "9cb1abb1-9009-42a2-8b8f-6261fc7298d9",
            "nama_pse": "CREATIVE MULTIMEDIA INDONESIA",
            "nama_se": "C MOBILE",
            "sektor": "Sektor Teknologi Informasi dan Komunikasi",
            "tanggal_terbit": "2022-07-16",
            "url_tdpse_detail": "https://pse.komdigi.go.id/tdpse-detail/5942",
            "website": "apps.creativemedia.id"
        },
        {
            "id": "9cb1abb1-925d-4c1e-9711-d2a2f6b32c08",
            "nama_pse": "DEWANTARA SANCAKA GUNDALA",
            "nama_se": "DEWANTARA",
            "sektor": "Sektor Teknologi Informasi dan Komunikasi",
            "tanggal_terbit": "2022-07-16",
            "url_tdpse_detail": "https://pse.komdigi.go.id/tdpse-detail/5943",
            "website": "dewantara.net"
        },
        {
            "id": "9cb1abb1-94b1-45e5-a30d-6c2ea65249b0",
            "nama_pse": "DEWANTARA SANCAKA GUNDALA",
            "nama_se": "PETAPOLITIKA",
            "sektor": "Sektor Teknologi Informasi dan Komunikasi",
            "tanggal_terbit": "2022-07-16",
            "url_tdpse_detail": "https://pse.komdigi.go.id/tdpse-detail/5944",
            "website": "petapolitika.com"
        },
        {
            "id": "9cb1ab9c-ff09-4cb1-94ba-2c39243d6c26",
            "nama_pse": "BANK PERKREDITAN RAKYAT SURYA ARTHA UTAMA",
            "nama_se": "WEBSITE BANKSURYAARTHAUTAMA.CO.ID",
            "sektor": "Sektor Keuangan",
            "tanggal_terbit": "2022-07-16",
            "url_tdpse_detail": "https://pse.komdigi.go.id/tdpse-detail/5945",
            "website": "banksuryaarthautama.co.id"
        },
        {
            "id": "9cb1ab9d-00ce-442a-ac74-de1d7438b83e",
            "nama_pse": "CREATIVE MULTIMEDIA INDONESIA",
            "nama_se": "CREATIVE MULTIMEDIA INDONESIA",
            "sektor": "Sektor Teknologi Informasi dan Komunikasi",
            "tanggal_terbit": "2022-07-16",
            "url_tdpse_detail": "https://pse.komdigi.go.id/tdpse-detail/5946",
            "website": "creativemultimedia.id"
        }
    ],
    "processingTimeMs": 4,
    "query": "",
    "totalHits": 19121,
    "hitsPerPage": 50,
    "page": 276,
    "totalPages": 383
}