{
    "hits": [
        {
            "id": "9cb1abea-a407-4990-801a-48901753162c",
            "nama_pse": "AIA FINANCIAL",
            "nama_se": "AIA INDONESIA DPLK EACCESS",
            "sektor": "Sektor Keuangan",
            "tanggal_terbit": "2022-07-20",
            "url_tdpse_detail": "https://pse.komdigi.go.id/tdpse-detail/7600",
            "website": "aia-financial.co.id"
        },
        {
            "id": "9cb1abc4-5e35-42d2-8613-2595087edccb",
            "nama_pse": "SUZUKI INDOMOBIL SALES",
            "nama_se": "WEBSITE SUZUKI INDONESIA",
            "sektor": "Sektor Perdagangan",
            "tanggal_terbit": "2022-07-20",
            "url_tdpse_detail": "https://pse.komdigi.go.id/tdpse-detail/7611",
            "website": "Suzuki.co.id"
        },
        {
            "id": "9cb1abc4-6175-4a84-b6d4-ae9a31d03c40",
            "nama_pse": "BANK PERKREDITAN RAKYAT ARMINDO KENCANA",
            "nama_se": "PT BPR ARMINDO KENCANA",
            "sektor": "Sektor Keuangan",
            "tanggal_terbit": "2022-07-20",
            "url_tdpse_detail": "https://pse.komdigi.go.id/tdpse-detail/7599",
            "website": "bprarmindokencana.co.id"
        },
        {
            "id": "9cb1abea-a88a-4d82-860c-60593bba2169",
            "nama_pse": "BANK KB BUKOPIN",
            "nama_se": "VIOLA",
            "sektor": "Sektor Keuangan",
            "tanggal_terbit": "2022-07-20",
            "url_tdpse_detail": "https://pse.komdigi.go.id/tdpse-detail/8108",
            "website": "bukopin.co.id"
        },
        {
            "id": "9cb1abb8-8ace-4505-ab33-b5cbf094c8c4",
            "nama_pse": "BANK PEMBANGUNAN DAERAH JAWA TENGAH",
            "nama_se": "INTERNET BANKING PERSONAL DAN BUSINESS BANK JATENG",
            "sektor": "Sektor Keuangan",
            "tanggal_terbit": "2022-07-20",
            "url_tdpse_detail": "https://pse.komdigi.go.id/tdpse-detail/7882",
            "website": "ibanking.bankjateng.co.id"
        },
        {
            "id": "9cb1abb8-8cd1-4c29-a514-c2d25989b487",
            "nama_pse": "RUMAH JUARA INDONESIA",
            "nama_se": "RUMAH JUARA",
            "sektor": "Sektor Perdagangan, Sektor Teknologi Informasi dan Komunikasi",
            "tanggal_terbit": "2022-07-20",
            "url_tdpse_detail": "https://pse.komdigi.go.id/tdpse-detail/7603",
            "website": "rumahjuara.id"
        },
        {
            "id": "9cb1abb8-8ea2-454d-9f90-d029597e9183",
            "nama_pse": "BANK KB BUKOPIN",
            "nama_se": "KB BUKOPIN E-FORM LAYANAN NASBAH",
            "sektor": "Sektor Keuangan",
            "tanggal_terbit": "2022-07-20",
            "url_tdpse_detail": "https://pse.komdigi.go.id/tdpse-detail/7604",
            "website": "etf.bukopin.co.id"
        },
        {
            "id": "9cb1abc4-71c3-4e0e-ad9f-9ffd0be23d7f",
            "nama_pse": "MITLA ITLABORATORY INDONESIA",
            "nama_se": "HELLO BABY PROGRAM INDONESIA",
            "sektor": "Sektor Kesehatan",
            "tanggal_terbit": "2022-07-20",
            "url_tdpse_detail": "https://pse.komdigi.go.id/tdpse-detail/7606",
            "website": "mitla.co.id"
        },
        {
            "id": "9cb1abb8-9069-49c0-9f16-556912d6288b",
            "nama_pse": "RUMAH GADAI BANDUNG",
            "nama_se": "RUMAH GADAI BANDUNG",
            "sektor": "Sektor Keuangan",
            "tanggal_terbit": "2022-07-20",
            "url_tdpse_detail": "https://pse.komdigi.go.id/tdpse-detail/7605",
            "website": "rumahgadaibandung.com"
        },
        {
            "id": "9cb1abea-ac03-4d4c-acdd-fb811e86d8a2",
            "nama_pse": "BPR BANK PASAR KABUPATEN TEMANGGUNG",
            "nama_se": "WEBSITE",
            "sektor": "Sektor Keuangan",
            "tanggal_terbit": "2022-07-20",
            "url_tdpse_detail": "https://pse.komdigi.go.id/tdpse-detail/7613",
            "website": "bankpasartemanggung.co.id"
        },
        {
            "id": "9cb1abea-b162-4cbe-a987-df41206da36a",
            "nama_pse": "KRIDA UPAYA TUNGGAL",
            "nama_se": "KRIDA UPAYA TUNGGAL",
            "sektor": "Sektor Keuangan",
            "tanggal_terbit": "2022-07-20",
            "url_tdpse_detail": "https://pse.komdigi.go.id/tdpse-detail/7618",
            "website": "KUTBROKERS.COM"
        },
        {
            "id": "9cb1abc4-74f9-4060-8d5d-f4a71e44f2a4",
            "nama_pse": "INFINITY AIR MEDIA",
            "nama_se": "PANTURA",
            "sektor": "Sektor Teknologi Informasi dan Komunikasi",
            "tanggal_terbit": "2022-07-20",
            "url_tdpse_detail": "https://pse.komdigi.go.id/tdpse-detail/7609",
            "website": "pantura.biz.id"
        },
        {
            "id": "9cb1abea-b7e5-437c-9194-c7a932803e2a",
            "nama_pse": "BANK PERKREDITAN RAKYAT ANUGERAH ARTASENTOSA PRIMA",
            "nama_se": "WWW.BANKANUGERAH.CO.ID",
            "sektor": "Sektor Keuangan",
            "tanggal_terbit": "2022-07-20",
            "url_tdpse_detail": "https://pse.komdigi.go.id/tdpse-detail/7607",
            "website": "bankanugerah.co.id"
        },
        {
            "id": "9cb1abb8-9240-4afd-87d9-07a7959ea6e2",
            "nama_pse": "MERDEKA KREASI TEKNOLOGI INDONESIA",
            "nama_se": "ARDEE.ID",
            "sektor": "Sektor Teknologi Informasi dan Komunikasi",
            "tanggal_terbit": "2022-07-20",
            "url_tdpse_detail": "https://pse.komdigi.go.id/tdpse-detail/7608",
            "website": "ardee.id"
        },
        {
            "id": "9cb1abb8-93f6-4832-a1cf-a6710b113cd8",
            "nama_pse": "BANK PERKREDITAN RAKYAT PAREARTOREJO",
            "nama_se": "BPR PARE ARTOREJO",
            "sektor": "Sektor Keuangan",
            "tanggal_terbit": "2022-07-20",
            "url_tdpse_detail": "https://pse.komdigi.go.id/tdpse-detail/7610",
            "website": "bprartorejopare.com"
        },
        {
            "id": "9cb1abc4-7908-4a5c-9a66-05c3e4dd668a",
            "nama_pse": "VICTORIA INVESTAMA",
            "nama_se": "WEBSITE",
            "sektor": "Sektor Keuangan",
            "tanggal_terbit": "2022-07-20",
            "url_tdpse_detail": "https://pse.komdigi.go.id/tdpse-detail/7612",
            "website": "victoriainvestama.co.id"
        },
        {
            "id": "9cb1abea-baf8-48af-9abf-55a0452bab94",
            "nama_pse": "BANK SYARIAH INDONESIA",
            "nama_se": "BG ONLINE",
            "sektor": "Sektor Keuangan",
            "tanggal_terbit": "2022-07-20",
            "url_tdpse_detail": "https://pse.komdigi.go.id/tdpse-detail/7614",
            "website": "garansibsi.bankbsi.co.id"
        },
        {
            "id": "9cb1abc4-7c31-4375-afe0-914b0a8e6db1",
            "nama_pse": "BANK CENTRAL ASIA",
            "nama_se": "WEBSITE REGISTRASI BYC 2",
            "sektor": "Sektor Keuangan",
            "tanggal_terbit": "2022-07-20",
            "url_tdpse_detail": "https://pse.komdigi.go.id/tdpse-detail/7655",
            "website": "cyb.ourapps.site"
        },
        {
            "id": "9cb1abb8-9591-46bf-b092-c36714598f79",
            "nama_pse": "CICIL SOLUSI MITRA TEKNOLOGI",
            "nama_se": "WEBSITE CICIL.CO.ID",
            "sektor": "Sektor Keuangan",
            "tanggal_terbit": "2022-07-20",
            "url_tdpse_detail": "https://pse.komdigi.go.id/tdpse-detail/7615",
            "website": "cicil.co.id"
        },
        {
            "id": "9cb1abea-be7c-4019-b634-4ad9a91e4eed",
            "nama_pse": "BANK KB BUKOPIN",
            "nama_se": "KB BUKOPIN ACTLINK",
            "sektor": "Sektor Keuangan",
            "tanggal_terbit": "2022-07-20",
            "url_tdpse_detail": "https://pse.komdigi.go.id/tdpse-detail/7616",
            "website": "actlink.bukopin.co.id"
        },
        {
            "id": "9cb1abea-c1d0-42b3-8dca-e615b0035025",
            "nama_pse": "BANK PERKREDITAN RAKYAT ARTHA KURNIA RAHARJA",
            "nama_se": "PT. BPR ARTHA KURNIA RAHARJA",
            "sektor": "Sektor Keuangan",
            "tanggal_terbit": "2022-07-20",
            "url_tdpse_detail": "https://pse.komdigi.go.id/tdpse-detail/7617",
            "website": "bprarthakurnia.com"
        },
        {
            "id": "9cb1abb8-97c3-488d-946a-1e5868a5c506",
            "nama_pse": "METRA - NET",
            "nama_se": "UZONE.ID",
            "sektor": "Sektor Teknologi Informasi dan Komunikasi",
            "tanggal_terbit": "2022-07-20",
            "url_tdpse_detail": "https://pse.komdigi.go.id/tdpse-detail/7619",
            "website": "uzone.id"
        },
        {
            "id": "9cb1abb8-99a8-494d-a5b4-1f5f0ad69cd1",
            "nama_pse": "AXA MANDIRI FINANCIAL SERVICES",
            "nama_se": "AXA MANDIRI MOBILE SYSTEM ( AMOST)",
            "sektor": "Sektor Keuangan, Sektor Teknologi Informasi dan Komunikasi",
            "tanggal_terbit": "2022-07-20",
            "url_tdpse_detail": "https://pse.komdigi.go.id/tdpse-detail/7633",
            "website": "-"
        },
        {
            "id": "9cb1abea-c4f0-4a4e-bbdd-84000f709bf2",
            "nama_pse": "BANK PERKREDITAN RAKYAT ARTA MITRA RAKYAT",
            "nama_se": "BPRAMIRA.COM",
            "sektor": "Sektor Keuangan",
            "tanggal_terbit": "2022-07-20",
            "url_tdpse_detail": "https://pse.komdigi.go.id/tdpse-detail/7620",
            "website": "bpramira.com"
        },
        {
            "id": "9cb1abb8-9b7a-40e7-8e37-174d3a1dedb1",
            "nama_pse": "BANK PERKREDITAN RAKYAT PITIH GUMARANG",
            "nama_se": "PT. BPR PITIH GUMARANG",
            "sektor": "Sektor Keuangan",
            "tanggal_terbit": "2022-07-20",
            "url_tdpse_detail": "https://pse.komdigi.go.id/tdpse-detail/7622",
            "website": "-"
        },
        {
            "id": "9cb1abea-c815-473f-9c42-c0e903392832",
            "nama_pse": "BANK PERKREDITAN RAKYAT ARYA BIRA KARSA",
            "nama_se": "SITUS BANK",
            "sektor": "Sektor Teknologi Informasi dan Komunikasi",
            "tanggal_terbit": "2022-07-20",
            "url_tdpse_detail": "https://pse.komdigi.go.id/tdpse-detail/7621",
            "website": "bankarya.co.id"
        },
        {
            "id": "9cb1abc4-84a3-453b-852b-13cacae74e16",
            "nama_pse": "BANK PERKREDITAN RAKYAT PERMATA SEDANA",
            "nama_se": "BANKING SMART SYSTEM",
            "sektor": "Sektor Keuangan",
            "tanggal_terbit": "2022-07-20",
            "url_tdpse_detail": "https://pse.komdigi.go.id/tdpse-detail/7623",
            "website": "-"
        },
        {
            "id": "9cb1abea-cadd-4ef5-9d4c-5fb4499cea41",
            "nama_pse": "BANK PEMBANGUNAN DAERAH JAWA TENGAH",
            "nama_se": "CMS PEMDA BANK JATENG",
            "sektor": "Sektor Keuangan",
            "tanggal_terbit": "2022-07-20",
            "url_tdpse_detail": "https://pse.komdigi.go.id/tdpse-detail/7888",
            "website": "bibs.bankjateng.co.id"
        },
        {
            "id": "9cb1abea-ce58-4ede-b3c9-c45c3e083faf",
            "nama_pse": "BP PARTNERSHIP",
            "nama_se": "WEBSITE INDONESIAGO.DIGITAL",
            "sektor": "Sektor Perdagangan",
            "tanggal_terbit": "2022-07-20",
            "url_tdpse_detail": "https://pse.komdigi.go.id/tdpse-detail/7625",
            "website": "Indonesiago.digital"
        },
        {
            "id": "9cb1abc4-8bed-4a59-aa79-cff67767fb67",
            "nama_pse": "ASURANSI JIWA GENERALI INDONESIA",
            "nama_se": "ALIVE",
            "sektor": "Sektor Keuangan",
            "tanggal_terbit": "2022-07-20",
            "url_tdpse_detail": "https://pse.komdigi.go.id/tdpse-detail/7624",
            "website": "alive.generali.co.id"
        },
        {
            "id": "9cb1abb8-9d6f-45da-8caf-7db2f4071cad",
            "nama_pse": "RUMAH INSPIRASI MEDIA",
            "nama_se": "RUMAH INSPIRASI",
            "sektor": "Sektor Teknologi Informasi dan Komunikasi",
            "tanggal_terbit": "2022-07-20",
            "url_tdpse_detail": "https://pse.komdigi.go.id/tdpse-detail/7629",
            "website": "rumahinspirasi.com"
        },
        {
            "id": "9cb1abc4-8ef0-4c52-8e91-bed33b63bad7",
            "nama_pse": "BANK PEMBIAYAAN RAKYAT SYARIAH BAKTIMAKMUR INDAH",
            "nama_se": "MOBILE BANKING, CBS ISLAMIC BANKING APPLICATION (IBA), VIRTUAL ACCOUNT, PPOB",
            "sektor": "Sektor Keuangan",
            "tanggal_terbit": "2022-07-20",
            "url_tdpse_detail": "https://pse.komdigi.go.id/tdpse-detail/7627",
            "website": "ns1.webdesignsuroboyo.com"
        },
        {
            "id": "9cb1abb8-a07e-48b9-a073-1375c2a71cb7",
            "nama_pse": "BINTANG TEKNOLOGI PRATAMA",
            "nama_se": "WEBSITE JUAL BELI ASET ( INTERIORKUY )",
            "sektor": "Sektor Perdagangan",
            "tanggal_terbit": "2022-07-20",
            "url_tdpse_detail": "https://pse.komdigi.go.id/tdpse-detail/7641",
            "website": "interiorkuy.com"
        },
        {
            "id": "9cb1abc4-92ba-4735-8e26-2f5f814fa22e",
            "nama_pse": "BANK PEMBIAYAAN RAKYAT SYARIAH GUNUNG SLAMET",
            "nama_se": "PENTA MICRO SYSTEM ONLINE",
            "sektor": "Sektor Keuangan",
            "tanggal_terbit": "2022-07-20",
            "url_tdpse_detail": "https://pse.komdigi.go.id/tdpse-detail/7626",
            "website": "gunungslametsyariah.blogspot.com"
        },
        {
            "id": "9cb1abc4-95c9-4ef7-9d5b-29d023897e5f",
            "nama_pse": "BANK PEMBANGUNAN DAERAH PAPUA",
            "nama_se": "CASH MANAGEMENT SYSTEM (CMS) CORPORATE PT. BANK PEMBANGUNAN DAERAH PAPUA",
            "sektor": "Sektor Keuangan",
            "tanggal_terbit": "2022-07-20",
            "url_tdpse_detail": "https://pse.komdigi.go.id/tdpse-detail/7628",
            "website": "ib.bankpapua.co.id"
        },
        {
            "id": "9cb1abea-d1e1-4525-b535-dc1def9780a5",
            "nama_pse": "BANK PEREKONOMIAN RAKYAT DIAN FARAQO GEMILANG",
            "nama_se": "BPR DIAN FARAQO GEMILANG",
            "sektor": "Sektor Keuangan",
            "tanggal_terbit": "2022-07-20",
            "url_tdpse_detail": "https://pse.komdigi.go.id/tdpse-detail/7631",
            "website": "-"
        },
        {
            "id": "9cb1abea-d50f-485b-a717-e48cc6c20a2d",
            "nama_pse": "INFINITY AIR MEDIA",
            "nama_se": "PT. INFINITY AIR MEDIA COMPANY PROFILE",
            "sektor": "Sektor Teknologi Informasi dan Komunikasi",
            "tanggal_terbit": "2022-07-20",
            "url_tdpse_detail": "https://pse.komdigi.go.id/tdpse-detail/7654",
            "website": "iamplanet.com"
        },
        {
            "id": "9cb1abc4-98f2-4077-9133-b43d74eb3206",
            "nama_pse": "BANK PERKREDITAN RAKYAT ANAK NEGERI PAPUA",
            "nama_se": "MIBAS POLARIS",
            "sektor": "Sektor Keuangan",
            "tanggal_terbit": "2022-07-20",
            "url_tdpse_detail": "https://pse.komdigi.go.id/tdpse-detail/7630",
            "website": "-"
        },
        {
            "id": "9cb1abc4-9c4d-46ba-9e46-673a7190d842",
            "nama_pse": "BANK PERKREDITAN RAKYAT KARYA SARI SEDANA",
            "nama_se": "PT. DEJAYO AGEN SOFTWARE",
            "sektor": "Sektor Keuangan",
            "tanggal_terbit": "2022-07-20",
            "url_tdpse_detail": "https://pse.komdigi.go.id/tdpse-detail/7632",
            "website": "-"
        },
        {
            "id": "9cb1abea-d937-4d03-a39f-5c3a95440806",
            "nama_pse": "BANK PEMBANGUNAN DAERAH JAWA TENGAH",
            "nama_se": "LAKUPANDAI BANK JATENG",
            "sektor": "Sektor Keuangan",
            "tanggal_terbit": "2022-07-20",
            "url_tdpse_detail": "https://pse.komdigi.go.id/tdpse-detail/7889",
            "website": "ibanking.bankjateng.co.id"
        },
        {
            "id": "9cb1abc4-9f20-49b3-b2d2-e27d35ff9f27",
            "nama_pse": "TUGU MOTOR",
            "nama_se": "HONDA TUGU",
            "sektor": "Sektor Perdagangan",
            "tanggal_terbit": "2022-07-20",
            "url_tdpse_detail": "https://pse.komdigi.go.id/tdpse-detail/7634",
            "website": "hondatugu.com"
        },
        {
            "id": "9cb1abea-ddad-4202-9031-72dd50e31b01",
            "nama_pse": "BANK PERKREDITAN RAKYAT TJANDRA ARTHA LESTARI",
            "nama_se": "WEBSITE PT BPR TJANDRA ARTHA LESTARI",
            "sektor": "Sektor Teknologi Informasi dan Komunikasi",
            "tanggal_terbit": "2022-07-20",
            "url_tdpse_detail": "https://pse.komdigi.go.id/tdpse-detail/7635",
            "website": "tjandra.co.id"
        },
        {
            "id": "9cb1abea-e100-49fd-8f67-699e7aecb62e",
            "nama_pse": "BANK PERKREDITAN RAKYAT MANUK AYU",
            "nama_se": "BPR MANUK AYU",
            "sektor": "Sektor Keuangan",
            "tanggal_terbit": "2022-07-20",
            "url_tdpse_detail": "https://pse.komdigi.go.id/tdpse-detail/7636",
            "website": "-"
        },
        {
            "id": "9cb1abb8-a25e-4a5f-9f69-7ab7bcd0f297",
            "nama_pse": "BANK PERKREDITAN RAKYAT BANK SUKOHARJO (PERSERODA)",
            "nama_se": "WEBSITE PROFILE",
            "sektor": "Sektor Keuangan",
            "tanggal_terbit": "2022-07-20",
            "url_tdpse_detail": "https://pse.komdigi.go.id/tdpse-detail/7639",
            "website": "banksukoharjo.co.id"
        },
        {
            "id": "9cb1abc4-a215-4ba4-a434-0d53651b94a5",
            "nama_pse": "CICIL SOLUSI MITRA TEKNOLOGI",
            "nama_se": "APLIKASI MOBILE CICIL CICILAN KHUSUS MAHASISWA",
            "sektor": "Sektor Keuangan",
            "tanggal_terbit": "2022-07-20",
            "url_tdpse_detail": "https://pse.komdigi.go.id/tdpse-detail/7637",
            "website": "cicil.co.id"
        },
        {
            "id": "9cb1abc4-a679-42f6-8695-6f348c0e241b",
            "nama_pse": "NUSANTARA BONAPASOGIT",
            "nama_se": "WARUNG APP",
            "sektor": "Sektor Perdagangan",
            "tanggal_terbit": "2022-07-20",
            "url_tdpse_detail": "https://pse.komdigi.go.id/tdpse-detail/7638",
            "website": "-"
        },
        {
            "id": "9cb1abea-e45c-406a-9674-543582a40fae",
            "nama_pse": "HANWHA LIFE INSURANCE INDONESIA",
            "nama_se": "HANWHA SMART MOBILE APPLICATION (ANDROID \u0026 IOS)",
            "sektor": "Sektor Keuangan",
            "tanggal_terbit": "2022-07-20",
            "url_tdpse_detail": "https://pse.komdigi.go.id/tdpse-detail/7644",
            "website": "-"
        },
        {
            "id": "9cb1abb8-a4d6-4488-9243-b526dba90f12",
            "nama_pse": "BANK PEMBANGUNAN DAERAH JAWA TENGAH",
            "nama_se": "MOBILE BANKING BANK JATENG",
            "sektor": "Sektor Keuangan",
            "tanggal_terbit": "2022-07-20",
            "url_tdpse_detail": "https://pse.komdigi.go.id/tdpse-detail/7891",
            "website": "-"
        },
        {
            "id": "9cb1abc4-b12d-453b-a33b-5cf42673b1d8",
            "nama_pse": "BANK PERKREDITAN RAKYAT EKA BUMI ARTHA",
            "nama_se": "POINT BANK EKA",
            "sektor": "Sektor Keuangan",
            "tanggal_terbit": "2022-07-20",
            "url_tdpse_detail": "https://pse.komdigi.go.id/tdpse-detail/7642",
            "website": "-"
        },
        {
            "id": "9cb1abc4-b640-4229-9480-532d9dcb9a30",
            "nama_pse": "BANK BTPN SYARIAH",
            "nama_se": "WARUNG TEPAT BTPN SYARIAH",
            "sektor": "Sektor Keuangan",
            "tanggal_terbit": "2022-07-20",
            "url_tdpse_detail": "https://pse.komdigi.go.id/tdpse-detail/7643",
            "website": "-"
        }
    ],
    "processingTimeMs": 28,
    "query": "",
    "totalHits": 19131,
    "hitsPerPage": 50,
    "page": 239,
    "totalPages": 383
}