{
    "hits": [
        {
            "id": "9cb1ac0b-1046-4e16-9106-b6436a095238",
            "nama_pse": "DAYYAN ONLINE PERKASA",
            "nama_se": "PT DAYYAN ONLINE PERKASA",
            "sektor": "Sektor Perdagangan, Sektor Transportasi, Sektor Pangan",
            "tanggal_terbit": "2022-08-10",
            "url_tdpse_detail": "https://pse.komdigi.go.id/tdpse-detail/10156",
            "website": "-"
        },
        {
            "id": "9cb1abfb-f9bc-4c5a-bb65-914d06c2a719",
            "nama_pse": "PERUSAHAAN PERSEROAN (PERSERO) PT. BIO FARMA DISINGKAT PT. BIO FARMA (PERSERO)",
            "nama_se": "MEDWELL",
            "sektor": "Sektor Kesehatan, Sektor Teknologi Informasi dan Komunikasi",
            "tanggal_terbit": "2022-08-10",
            "url_tdpse_detail": "https://pse.komdigi.go.id/tdpse-detail/10174",
            "website": "medwell.id"
        },
        {
            "id": "9cb1ac0b-1398-4173-a5c0-ba62975c8fd1",
            "nama_pse": "JOLA MITRA UTAMA",
            "nama_se": "WEBSITE PT JOLA MITRA UTAMA",
            "sektor": "Sektor Teknologi Informasi dan Komunikasi",
            "tanggal_terbit": "2022-08-10",
            "url_tdpse_detail": "https://pse.komdigi.go.id/tdpse-detail/10158",
            "website": "jola-mitra-utama.com"
        },
        {
            "id": "9cb1ac0b-1a52-4010-b53c-3f13a8784969",
            "nama_pse": "PRIMA INFOSARANA MEDIA",
            "nama_se": "WWW.OTORACE.ID",
            "sektor": "Sektor Teknologi Informasi dan Komunikasi",
            "tanggal_terbit": "2022-08-10",
            "url_tdpse_detail": "https://pse.komdigi.go.id/tdpse-detail/10160",
            "website": "otorace.gridoto.com"
        },
        {
            "id": "9cb1ac0b-1da3-4804-9299-7866e0b5f9dd",
            "nama_pse": "BANK PERKREDITAN RAKYAT CAHAYA ARTHASEJATI",
            "nama_se": "BANK PERKREDITAN RAKYAT CAHAYA ARTHASEJATI",
            "sektor": "Sektor Keuangan",
            "tanggal_terbit": "2022-08-10",
            "url_tdpse_detail": "https://pse.komdigi.go.id/tdpse-detail/10161",
            "website": "bankcahaya.com"
        },
        {
            "id": "9cb1ac0b-212f-411d-811d-6d5d9f7017a5",
            "nama_pse": "PRIMA INFOSARANA MEDIA",
            "nama_se": "WWW.OTOSEKEN.ID",
            "sektor": "Sektor Teknologi Informasi dan Komunikasi",
            "tanggal_terbit": "2022-08-10",
            "url_tdpse_detail": "https://pse.komdigi.go.id/tdpse-detail/10162",
            "website": "otoseken.gridoto.com"
        },
        {
            "id": "9cb1ac0b-2473-40ef-8109-f2517668170f",
            "nama_pse": "BANK PERKREDITAN RAKYAT RAMA GANDA",
            "nama_se": "WEBSITE BPR RAMA GANDA",
            "sektor": "Sektor Keuangan",
            "tanggal_terbit": "2022-08-10",
            "url_tdpse_detail": "https://pse.komdigi.go.id/tdpse-detail/10163",
            "website": "bprramaganda.com"
        },
        {
            "id": "9cb1ac0b-27cc-4fac-898b-3c350c4f0ea0",
            "nama_pse": "PRIMA INFOSARANA MEDIA",
            "nama_se": "WWW.PARAPUAN.CO",
            "sektor": "Sektor Teknologi Informasi dan Komunikasi",
            "tanggal_terbit": "2022-08-10",
            "url_tdpse_detail": "https://pse.komdigi.go.id/tdpse-detail/10164",
            "website": "parapuan.co"
        },
        {
            "id": "9cb1abfb-fd52-4382-8469-f9ec458b3ece",
            "nama_pse": "INFOMEDIA NUSANTARA",
            "nama_se": "WEBREC INFOMEDIA",
            "sektor": "Sektor Teknologi Informasi dan Komunikasi",
            "tanggal_terbit": "2022-08-10",
            "url_tdpse_detail": "https://pse.komdigi.go.id/tdpse-detail/10166",
            "website": "recruit.infomedia.co.id"
        },
        {
            "id": "9cb1abfc-0112-4135-9942-b17a11c67c7d",
            "nama_pse": "INFOMEDIA NUSANTARA",
            "nama_se": "LMS",
            "sektor": "Sektor Teknologi Informasi dan Komunikasi",
            "tanggal_terbit": "2022-08-10",
            "url_tdpse_detail": "https://pse.komdigi.go.id/tdpse-detail/10172",
            "website": "lms.infomedia.co.id"
        },
        {
            "id": "9cb1ac0b-2aaa-4ee4-86f1-b822356c7769",
            "nama_pse": "SAMINDRA UTAMA",
            "nama_se": "WWW.SAJIANSEDAP.COM",
            "sektor": "Sektor Teknologi Informasi dan Komunikasi",
            "tanggal_terbit": "2022-08-10",
            "url_tdpse_detail": "https://pse.komdigi.go.id/tdpse-detail/10165",
            "website": "sajiansedap.grid.id"
        },
        {
            "id": "9cb1abfc-0bbd-49a3-b298-10c7441b262a",
            "nama_pse": "PRIMA INFOSARANA MEDIA",
            "nama_se": "WWW.SOSOK.ID",
            "sektor": "Sektor Teknologi Informasi dan Komunikasi",
            "tanggal_terbit": "2022-08-10",
            "url_tdpse_detail": "https://pse.komdigi.go.id/tdpse-detail/10168",
            "website": "sosok.grid.id"
        },
        {
            "id": "9cb1abd6-039a-4638-8754-4fac66d81e8f",
            "nama_pse": "BANK PERKREDITAN RAKYAT CIPATUJAH JAWA BARAT PERSERODA",
            "nama_se": "WEBSITE BANK CIJ",
            "sektor": "Sektor Keuangan",
            "tanggal_terbit": "2022-08-10",
            "url_tdpse_detail": "https://pse.komdigi.go.id/tdpse-detail/10169",
            "website": "bankcij.com"
        },
        {
            "id": "9cb1abd6-0876-4a5d-bd06-dad4c6c4b3ef",
            "nama_pse": "PRIMA INFOSARANA MEDIA",
            "nama_se": "WWW.SPORTFEAT.COM",
            "sektor": "Sektor Teknologi Informasi dan Komunikasi",
            "tanggal_terbit": "2022-08-10",
            "url_tdpse_detail": "https://pse.komdigi.go.id/tdpse-detail/10170",
            "website": "sportfeat.bolasport.com"
        },
        {
            "id": "9cb1abd6-0e55-4ae6-b357-312233306399",
            "nama_pse": "HZN TEKNOLOGI INDONESIA",
            "nama_se": "HORIZON MARKETPLACE",
            "sektor": "Sektor Teknologi Informasi dan Komunikasi",
            "tanggal_terbit": "2022-08-10",
            "url_tdpse_detail": "https://pse.komdigi.go.id/tdpse-detail/10171",
            "website": "hzn.one"
        },
        {
            "id": "9cb1abfc-0f2a-428b-9154-92181e3885a9",
            "nama_pse": "INFOMEDIA NUSANTARA",
            "nama_se": "PORTAL HUMANVUE",
            "sektor": "Sektor Teknologi Informasi dan Komunikasi",
            "tanggal_terbit": "2022-08-10",
            "url_tdpse_detail": "https://pse.komdigi.go.id/tdpse-detail/10177",
            "website": "treg.humanvue.id"
        },
        {
            "id": "9cb1abd6-1199-4a66-8d62-10d6c36598af",
            "nama_pse": "PRIMA INFOSARANA MEDIA",
            "nama_se": "WWW.STYLO.ID",
            "sektor": "Sektor Teknologi Informasi dan Komunikasi",
            "tanggal_terbit": "2022-08-10",
            "url_tdpse_detail": "https://pse.komdigi.go.id/tdpse-detail/10173",
            "website": "stylo.grid.id"
        },
        {
            "id": "9cb1abfc-1308-4420-8542-fdd46e5c6b0a",
            "nama_pse": "BANK PERKREDITAN RAKYAT MAMBAL",
            "nama_se": "GO BALI CORE BANKING SISTEM",
            "sektor": "Sektor Keuangan",
            "tanggal_terbit": "2022-08-10",
            "url_tdpse_detail": "https://pse.komdigi.go.id/tdpse-detail/10176",
            "website": "-"
        },
        {
            "id": "9cb1abd6-14f1-4e09-9510-5462ad2329b3",
            "nama_pse": "INFOMEDIA NUSANTARA",
            "nama_se": "PORTAL FHCI",
            "sektor": "Sektor Teknologi Informasi dan Komunikasi",
            "tanggal_terbit": "2022-08-10",
            "url_tdpse_detail": "https://pse.komdigi.go.id/tdpse-detail/10183",
            "website": "portal-fhci.infomedia.co.id"
        },
        {
            "id": "9cb1ac0b-2d7f-46e3-b046-7b6c4205e726",
            "nama_pse": "PRIMA INFOSARANA MEDIA",
            "nama_se": "WWW.SUAR.ID",
            "sektor": "Sektor Teknologi Informasi dan Komunikasi",
            "tanggal_terbit": "2022-08-10",
            "url_tdpse_detail": "https://pse.komdigi.go.id/tdpse-detail/10175",
            "website": "suar.grid.id"
        },
        {
            "id": "9cb1ac0b-3183-4e60-b048-23e7b60b0bde",
            "nama_pse": "INFOMEDIA NUSANTARA",
            "nama_se": "PORTAL ISSC",
            "sektor": "Sektor Teknologi Informasi dan Komunikasi",
            "tanggal_terbit": "2022-08-10",
            "url_tdpse_detail": "https://pse.komdigi.go.id/tdpse-detail/10182",
            "website": "issc.infomedia.co.id"
        },
        {
            "id": "9cb1abd6-1851-4caa-af5b-cb0dcee14617",
            "nama_pse": "PRIMA INFOSARANA MEDIA",
            "nama_se": "WWW.SUPERBALL.ID",
            "sektor": "Sektor Teknologi Informasi dan Komunikasi",
            "tanggal_terbit": "2022-08-10",
            "url_tdpse_detail": "https://pse.komdigi.go.id/tdpse-detail/10178",
            "website": "superball.bolasport.com"
        },
        {
            "id": "9cb1abfc-172e-455e-b0ce-e5d1d599c049",
            "nama_pse": "IDENTITAS ANAK BANGSA",
            "nama_se": "IDENTITAS ANAK BANGSA (IAB)",
            "sektor": "Sektor Teknologi Informasi dan Komunikasi",
            "tanggal_terbit": "2022-08-10",
            "url_tdpse_detail": "https://pse.komdigi.go.id/tdpse-detail/10181",
            "website": "-"
        },
        {
            "id": "9cb1abfc-1ac6-4817-b508-1c9b51c399a6",
            "nama_pse": "SELLURY GLOBAL INDONESIA",
            "nama_se": "SELLURY",
            "sektor": "Sektor Teknologi Informasi dan Komunikasi",
            "tanggal_terbit": "2022-08-10",
            "url_tdpse_detail": "https://pse.komdigi.go.id/tdpse-detail/10179",
            "website": "sellury.io"
        },
        {
            "id": "9cb1ac0b-3473-417b-8735-9652d97c8424",
            "nama_pse": "INFOMEDIA NUSANTARA",
            "nama_se": "PORTAL HRSSO",
            "sektor": "Sektor Teknologi Informasi dan Komunikasi",
            "tanggal_terbit": "2022-08-10",
            "url_tdpse_detail": "https://pse.komdigi.go.id/tdpse-detail/10184",
            "website": "portal-hrsso.infomedia.co.id"
        },
        {
            "id": "9cb1abfc-1fb6-4ab3-a99e-d53d638ffd60",
            "nama_pse": "PRIMA INFOSARANA MEDIA",
            "nama_se": "WWW.WIKEN.ID",
            "sektor": "Sektor Teknologi Informasi dan Komunikasi",
            "tanggal_terbit": "2022-08-10",
            "url_tdpse_detail": "https://pse.komdigi.go.id/tdpse-detail/10180",
            "website": "wiken.grid.id"
        },
        {
            "id": "9cb1abd6-1c20-4f4e-8c06-17b86848e327",
            "nama_pse": "YUS TELECOM INDONESIA",
            "nama_se": "YUS TELECOM INDONESIA",
            "sektor": "Sektor Perdagangan",
            "tanggal_terbit": "2022-08-10",
            "url_tdpse_detail": "https://pse.komdigi.go.id/tdpse-detail/10185",
            "website": "-"
        },
        {
            "id": "9cb1abd6-200f-4748-b82f-0fe6c329505b",
            "nama_pse": "BANK NEO COMMERCE",
            "nama_se": "WEBSITE BANK NEO COMMERCE",
            "sektor": "Sektor Keuangan",
            "tanggal_terbit": "2022-08-10",
            "url_tdpse_detail": "https://pse.komdigi.go.id/tdpse-detail/10187",
            "website": "bankneocommerce.co.id"
        },
        {
            "id": "9cb1abfc-2351-4065-a409-b05c343b5231",
            "nama_pse": "FOODSID MEDIA INTEGRA",
            "nama_se": "FOODS.ID",
            "sektor": "Sektor Teknologi Informasi dan Komunikasi",
            "tanggal_terbit": "2022-08-10",
            "url_tdpse_detail": "https://pse.komdigi.go.id/tdpse-detail/10188",
            "website": "foods.id"
        },
        {
            "id": "9cb1abd6-25a2-40a3-9dfa-85d0cd5a3a10",
            "nama_pse": "CASION POWER INDONESIA",
            "nama_se": "CASION",
            "sektor": "Sektor Teknologi Informasi dan Komunikasi",
            "tanggal_terbit": "2022-08-10",
            "url_tdpse_detail": "https://pse.komdigi.go.id/tdpse-detail/10189",
            "website": "cas-ion.com"
        },
        {
            "id": "9cb1abfc-2a58-4f99-b34c-2ab5825a4622",
            "nama_pse": "HEVIDA COMPUTER AND TELECOMMUNICATION",
            "nama_se": "GALLERY NOTEBOOK",
            "sektor": "Sektor Teknologi Informasi dan Komunikasi",
            "tanggal_terbit": "2022-08-10",
            "url_tdpse_detail": "https://pse.komdigi.go.id/tdpse-detail/10192",
            "website": "gallerynotebook.com"
        },
        {
            "id": "9cb1abfc-2dec-4b30-959a-e4925978875b",
            "nama_pse": "MUHIBAH KARYA BANGSA",
            "nama_se": "TRIPYOURBUDGET",
            "sektor": "Sektor Perdagangan",
            "tanggal_terbit": "2022-08-10",
            "url_tdpse_detail": "https://pse.komdigi.go.id/tdpse-detail/10193",
            "website": "tripyourbudget.com"
        },
        {
            "id": "9cb1ac0b-378e-455a-afd2-849951257fdf",
            "nama_pse": "KAMPUSNYA PENGUSAHA HIJRAH",
            "nama_se": "FIQEEH",
            "sektor": "Sektor Perdagangan",
            "tanggal_terbit": "2022-08-10",
            "url_tdpse_detail": "https://pse.komdigi.go.id/tdpse-detail/10194",
            "website": "fiqeeh.com"
        },
        {
            "id": "9cb1abfc-30c9-4dd1-a14c-9d997aff39e2",
            "nama_pse": "SEDANA PASIFIK SERVISTAMA",
            "nama_se": "BNI FLEKSI",
            "sektor": "Sektor Keuangan",
            "tanggal_terbit": "2022-08-10",
            "url_tdpse_detail": "https://pse.komdigi.go.id/tdpse-detail/10202",
            "website": "sedana.co.id"
        },
        {
            "id": "9cb1abfc-34dd-45a1-8dae-c87c256c0e7f",
            "nama_pse": "CITRA AGUNG MESTIKA",
            "nama_se": "PT CITRA AGUNG MESTIKA",
            "sektor": "Sektor Teknologi Informasi dan Komunikasi",
            "tanggal_terbit": "2022-08-10",
            "url_tdpse_detail": "https://pse.komdigi.go.id/tdpse-detail/10195",
            "website": "WWW.IP1.CO.ID"
        },
        {
            "id": "9cb1ac0b-3a9f-4476-a985-91d765df7645",
            "nama_pse": "MENARA SINAR AGUNG",
            "nama_se": "INDUSTRYSHOP.ID",
            "sektor": "Sektor Perdagangan",
            "tanggal_terbit": "2022-08-10",
            "url_tdpse_detail": "https://pse.komdigi.go.id/tdpse-detail/10196",
            "website": "industryshop.id"
        },
        {
            "id": "9cb1ac0b-3dbc-4740-8ea0-78579a9c6d34",
            "nama_pse": "SEDANA PASIFIK SERVISTAMA",
            "nama_se": "ASO",
            "sektor": "Sektor Keuangan",
            "tanggal_terbit": "2022-08-10",
            "url_tdpse_detail": "https://pse.komdigi.go.id/tdpse-detail/10197",
            "website": "sedana.co.id"
        },
        {
            "id": "9cb1abd6-31b5-43e5-b0b4-ad9dfb809614",
            "nama_pse": "MENARA SINAR AGUNG",
            "nama_se": "MSA ELECTRICAL",
            "sektor": "Sektor Perdagangan",
            "tanggal_terbit": "2022-08-10",
            "url_tdpse_detail": "https://pse.komdigi.go.id/tdpse-detail/10198",
            "website": "msaelectrical.co.id"
        },
        {
            "id": "9cb1abd6-36e4-4f4a-8fad-baa49ae7f046",
            "nama_pse": "SEDANA PASIFIK SERVISTAMA",
            "nama_se": "FSA",
            "sektor": "Sektor Keuangan",
            "tanggal_terbit": "2022-08-10",
            "url_tdpse_detail": "https://pse.komdigi.go.id/tdpse-detail/10199",
            "website": "sedana.co.id"
        },
        {
            "id": "9cb1abd6-39f4-4d95-bb1b-9aa9762d49a5",
            "nama_pse": "TITAN MINERAL UTAMA",
            "nama_se": "PT. TITAN MINERAL UTAMA",
            "sektor": "Sektor Perdagangan, Sektor Energi dan Sumber Daya Mineral",
            "tanggal_terbit": "2022-08-10",
            "url_tdpse_detail": "https://pse.komdigi.go.id/tdpse-detail/10200",
            "website": "-"
        },
        {
            "id": "9cb1abfc-38b7-4940-ac74-ec69b6e2d35b",
            "nama_pse": "SEDANA PASIFIK SERVISTAMA",
            "nama_se": "AJK",
            "sektor": "Sektor Keuangan",
            "tanggal_terbit": "2022-08-10",
            "url_tdpse_detail": "https://pse.komdigi.go.id/tdpse-detail/10201",
            "website": "sedana.co.id"
        },
        {
            "id": "9cb1ac0b-40db-447b-820b-6110ae3ef855",
            "nama_pse": "HOSEA TITI SANJAYA",
            "nama_se": "PASARKELILING",
            "sektor": "Sektor Perdagangan",
            "tanggal_terbit": "2022-08-10",
            "url_tdpse_detail": "https://pse.komdigi.go.id/tdpse-detail/10203",
            "website": "Pasarkeliling.id"
        },
        {
            "id": "9cb1abaf-9ba2-4ff4-8edf-6cdf32b95ba7",
            "nama_pse": "ANUGERAH PHARMINDO LESTARI",
            "nama_se": "EZRX",
            "sektor": "Sektor Perdagangan, Sektor Kesehatan",
            "tanggal_terbit": "2022-08-10",
            "url_tdpse_detail": "https://pse.komdigi.go.id/tdpse-detail/9059",
            "website": "ezrx.id"
        },
        {
            "id": "9cb1ab9c-45fd-4ee6-a189-1dc484edc244",
            "nama_pse": "SARANA SULSEL VENTURA",
            "nama_se": "SARANA SULSEL VENTURA",
            "sektor": "Sektor Keuangan",
            "tanggal_terbit": "2022-08-10",
            "url_tdpse_detail": "https://pse.komdigi.go.id/tdpse-detail/5689",
            "website": "saranasulselventura.id"
        },
        {
            "id": "9cb1aba7-3ef7-4348-a58b-a63aa20056d7",
            "nama_pse": "AKSELERAN KEUANGAN INKLUSIF INDONESIA",
            "nama_se": "AKSELERAN APPS (ANDROID \u0026 IOS)",
            "sektor": "Sektor Keuangan",
            "tanggal_terbit": "2022-08-10",
            "url_tdpse_detail": "https://pse.komdigi.go.id/tdpse-detail/5791",
            "website": "-"
        },
        {
            "id": "9cb1abc0-b3e7-4829-87c7-3ec24ee9e88d",
            "nama_pse": "JMD SURYA FILM",
            "nama_se": "KARCISBOLA.ID",
            "sektor": "Sektor Perdagangan",
            "tanggal_terbit": "2022-08-10",
            "url_tdpse_detail": "https://pse.komdigi.go.id/tdpse-detail/6909",
            "website": "karcisbola.id"
        },
        {
            "id": "9cb1abe6-fbe6-4cab-a198-83e935396c5a",
            "nama_pse": "BANK PEREKONOMIAN RAKYAT MERTHA SEDANA",
            "nama_se": "PT. BANK PERKREDITAN RAKYAT MERTHA SEDANA",
            "sektor": "Sektor Keuangan",
            "tanggal_terbit": "2022-08-10",
            "url_tdpse_detail": "https://pse.komdigi.go.id/tdpse-detail/7542",
            "website": "bprmerthasedana.co.id"
        },
        {
            "id": "9cb1abf6-d753-4fd3-a1a0-5ef1d1d7686f",
            "nama_pse": "GOLKAR INSTITUT SEKOLAH PEMERINTAHAN DAN KEBIJAKAN PUBLIK  disingkat  GOLKAR INSTITUT SPKP",
            "nama_se": "GOLKARINSTITUTE.ORG",
            "sektor": "Sektor Teknologi Informasi dan Komunikasi",
            "tanggal_terbit": "2022-08-10",
            "url_tdpse_detail": "https://pse.komdigi.go.id/tdpse-detail/9420",
            "website": "golkarinstitute.org"
        },
        {
            "id": "9cb1abfa-42b7-47cc-a8fa-05be2a75d22c",
            "nama_pse": "MEGAXUS INFOTECH",
            "nama_se": "AUDITION AYODANCE",
            "sektor": "Sektor Teknologi Informasi dan Komunikasi",
            "tanggal_terbit": "2022-08-09",
            "url_tdpse_detail": "https://pse.komdigi.go.id/tdpse-detail/10090",
            "website": "ayodance.com"
        },
        {
            "id": "9cb1abd3-ee70-4e2b-b8e9-7cfd3549b873",
            "nama_pse": "MEGAXUS INFOTECH",
            "nama_se": "AUDITION AYODANCE MOBILE",
            "sektor": "Sektor Teknologi Informasi dan Komunikasi",
            "tanggal_terbit": "2022-08-09",
            "url_tdpse_detail": "https://pse.komdigi.go.id/tdpse-detail/10091",
            "website": "duniapp.com"
        }
    ],
    "processingTimeMs": 9,
    "query": "",
    "totalHits": 19121,
    "hitsPerPage": 50,
    "page": 201,
    "totalPages": 383
}