{
    "hits": [
        {
            "id": "9cb1abca-3fa0-49d1-a2a1-f9c2d9a3ae5b",
            "nama_pse": "TRI DIGITAL PERKASA",
            "nama_se": "VOLANTIS",
            "sektor": "Sektor Teknologi Informasi dan Komunikasi",
            "tanggal_terbit": "2022-07-21",
            "url_tdpse_detail": "https://pse.komdigi.go.id/tdpse-detail/8449",
            "website": "volantis.io"
        },
        {
            "id": "9cb1abbb-a213-4657-a7d8-066872f7a87b",
            "nama_pse": "ELECTRONIC DATA INTERCHANGE INDONESIA",
            "nama_se": "TPS ONLINE",
            "sektor": "Sektor Teknologi Informasi dan Komunikasi",
            "tanggal_terbit": "2022-07-21",
            "url_tdpse_detail": "https://pse.komdigi.go.id/tdpse-detail/8527",
            "website": "seaport.tpsonline.co.id"
        },
        {
            "id": "9cb1abbb-a4e2-441b-a10f-2462d01bb539",
            "nama_pse": "SOLUSI INTEGRASINDO",
            "nama_se": "WEBSITE COMPANY SMARTLEADERS",
            "sektor": "Sektor Teknologi Informasi dan Komunikasi",
            "tanggal_terbit": "2022-07-21",
            "url_tdpse_detail": "https://pse.komdigi.go.id/tdpse-detail/8451",
            "website": "smart-leaders.net"
        },
        {
            "id": "9cb1abca-436f-4644-ab9b-83c4ef53cec7",
            "nama_pse": "BPR ARTHA KALIWUNGU",
            "nama_se": "IBS (INTEGRATED BANKING SYSTEM)",
            "sektor": "Sektor Keuangan",
            "tanggal_terbit": "2022-07-21",
            "url_tdpse_detail": "https://pse.komdigi.go.id/tdpse-detail/8453",
            "website": "-"
        },
        {
            "id": "9cb1abca-49ef-4a4b-9cc6-77dc83dd6d82",
            "nama_pse": "WANTEG SEKURITAS",
            "nama_se": "WEBSITE WANTEG",
            "sektor": "Sektor Keuangan",
            "tanggal_terbit": "2022-07-21",
            "url_tdpse_detail": "https://pse.komdigi.go.id/tdpse-detail/8455",
            "website": "wanteg.com"
        },
        {
            "id": "9cb1abf0-6fc7-4472-af47-5a93280918a1",
            "nama_pse": "BANK PERKREDITAN RAKYAT PERDANA LINTAS KHATULISTIWA",
            "nama_se": "WEBSITE BPR PERDANA LINTAS KHATULISTIWA",
            "sektor": "Sektor Keuangan",
            "tanggal_terbit": "2022-07-21",
            "url_tdpse_detail": "https://pse.komdigi.go.id/tdpse-detail/8478",
            "website": "bprperintis.wordpress.com"
        },
        {
            "id": "9cb1abf0-7bc2-4254-b646-9dc8f907ce6b",
            "nama_pse": "SOLUSI INTEGRASINDO",
            "nama_se": "APLIKASI VIRTUAL ROBOTIC PORT MANAGER",
            "sektor": "Sektor Teknologi Informasi dan Komunikasi",
            "tanggal_terbit": "2022-07-21",
            "url_tdpse_detail": "https://pse.komdigi.go.id/tdpse-detail/8484",
            "website": "pertaminaport.com"
        },
        {
            "id": "9cb1abbb-b8ac-44dd-b2b4-61ed4821bd9c",
            "nama_pse": "GROW INVESTMENTS INDONESIA",
            "nama_se": "WEBSITE",
            "sektor": "Sektor Keuangan",
            "tanggal_terbit": "2022-07-21",
            "url_tdpse_detail": "https://pse.komdigi.go.id/tdpse-detail/8485",
            "website": "ayersasia.com"
        },
        {
            "id": "9cb1abf0-7ea2-473a-b7e9-824a8463b22b",
            "nama_pse": "PT BPR BALUNG ARTHA GUNA",
            "nama_se": "CORE BANKING SYSTEM",
            "sektor": "Sektor Keuangan",
            "tanggal_terbit": "2022-07-21",
            "url_tdpse_detail": "https://pse.komdigi.go.id/tdpse-detail/8481",
            "website": "-"
        },
        {
            "id": "9cb1abca-640c-4058-ab47-34385c3de9ba",
            "nama_pse": "MEGA INOVASI JAYATAMA",
            "nama_se": "NINO911.ID",
            "sektor": "Sektor Perdagangan",
            "tanggal_terbit": "2022-07-21",
            "url_tdpse_detail": "https://pse.komdigi.go.id/tdpse-detail/8482",
            "website": "911car.id"
        },
        {
            "id": "9cb1abbb-ba80-4f77-a1ab-52586db74633",
            "nama_pse": "VALBURY ASIA FUTURES",
            "nama_se": "WEBSITE PT. VALBURY ASIA FUTURES",
            "sektor": "Sektor Perdagangan, Sektor Keuangan",
            "tanggal_terbit": "2022-07-21",
            "url_tdpse_detail": "https://pse.komdigi.go.id/tdpse-detail/8483",
            "website": "valbury.co.id"
        },
        {
            "id": "9cb1abca-6980-4c36-ae68-5247f835af38",
            "nama_pse": "PESAT AGHNI SOLUSI",
            "nama_se": "WEBSITE PT. PESAT AGHNI SOLUSI",
            "sektor": "Sektor Teknologi Informasi dan Komunikasi",
            "tanggal_terbit": "2022-07-21",
            "url_tdpse_detail": "https://pse.komdigi.go.id/tdpse-detail/8487",
            "website": "pasolusi.com"
        },
        {
            "id": "9cb1abbb-bc58-429c-9b50-fe9ced53b31d",
            "nama_pse": "INOTEC CIPTA SOLUSI",
            "nama_se": "MICAN",
            "sektor": "Sektor Teknologi Informasi dan Komunikasi",
            "tanggal_terbit": "2022-07-21",
            "url_tdpse_detail": "https://pse.komdigi.go.id/tdpse-detail/8486",
            "website": "mican.id"
        },
        {
            "id": "9cb1abca-6d96-41ec-822c-8beb32c2a241",
            "nama_pse": "BANK PERKREDITAN RAKYAT ARTA SWASEMBADA",
            "nama_se": "BANK PERKREDITAN RAKYAT ARTA SWASEMBADA",
            "sektor": "Sektor Keuangan",
            "tanggal_terbit": "2022-07-21",
            "url_tdpse_detail": "https://pse.komdigi.go.id/tdpse-detail/8489",
            "website": "assedamojokerto.wordpress.com"
        },
        {
            "id": "9cb1abf0-8178-4f43-9615-682afea69cc2",
            "nama_pse": "BANK PEREKONOMIAN RAKYAT LAMBANG GANDA",
            "nama_se": "BPR LAMBANG GANDA",
            "sektor": "Sektor Keuangan",
            "tanggal_terbit": "2022-07-21",
            "url_tdpse_detail": "https://pse.komdigi.go.id/tdpse-detail/8488",
            "website": "-"
        },
        {
            "id": "9cb1abf0-8496-41a5-8e6c-e40ee19836e9",
            "nama_pse": "MARTONO",
            "nama_se": "CLOUDBEDS",
            "sektor": "Sektor Perdagangan",
            "tanggal_terbit": "2022-07-21",
            "url_tdpse_detail": "https://pse.komdigi.go.id/tdpse-detail/8496",
            "website": "shinebnbcianjur.id"
        },
        {
            "id": "9cb1abca-728e-4255-a5af-f56c1fcf7a7e",
            "nama_pse": "KALBE FARMA",
            "nama_se": "WWW.PROVEN.KALBE.CO.ID",
            "sektor": "Sektor Kesehatan",
            "tanggal_terbit": "2022-07-21",
            "url_tdpse_detail": "https://pse.komdigi.go.id/tdpse-detail/8490",
            "website": "proven.kalbe.co.id"
        },
        {
            "id": "9cb1abbb-be5b-4f95-9c7b-f4684603f427",
            "nama_pse": "PESAT AGHNI SOLUSI",
            "nama_se": "WEB PT. PESAT AGHNI SOLUSI",
            "sektor": "Sektor Teknologi Informasi dan Komunikasi",
            "tanggal_terbit": "2022-07-21",
            "url_tdpse_detail": "https://pse.komdigi.go.id/tdpse-detail/8491",
            "website": "pasolusi.co.id"
        },
        {
            "id": "9cb1abca-7645-4a51-a33d-c741ceb61a7e",
            "nama_pse": "SOLUSI INTEGRASINDO",
            "nama_se": "WEBSITE JAQ AUTOMATION",
            "sektor": "Sektor Teknologi Informasi dan Komunikasi",
            "tanggal_terbit": "2022-07-21",
            "url_tdpse_detail": "https://pse.komdigi.go.id/tdpse-detail/8492",
            "website": "jaq-automation.com"
        },
        {
            "id": "9cb1abf0-891c-49f4-a98b-6bfc7b999949",
            "nama_pse": "MOBADIYA TEKNOLOGI GRUP",
            "nama_se": "DISOO",
            "sektor": "Sektor Perdagangan",
            "tanggal_terbit": "2022-07-21",
            "url_tdpse_detail": "https://pse.komdigi.go.id/tdpse-detail/8498",
            "website": "disoo.com"
        },
        {
            "id": "9cb1abca-7c8a-48a3-95c7-88b27165317c",
            "nama_pse": "BANK PERKREDITAN RAKYAT ARTAMAS",
            "nama_se": "PT. BPR ARTAMAS",
            "sektor": "Sektor Keuangan",
            "tanggal_terbit": "2022-07-21",
            "url_tdpse_detail": "https://pse.komdigi.go.id/tdpse-detail/8493",
            "website": "-"
        },
        {
            "id": "9cb1abf0-8c93-4519-b345-c8478ff27499",
            "nama_pse": "BANK PERKREDITAN RAKYAT BANKSAR DANA LOKA",
            "nama_se": "BPR BANKSAR DANA LOKA",
            "sektor": "Sektor Keuangan",
            "tanggal_terbit": "2022-07-21",
            "url_tdpse_detail": "https://pse.komdigi.go.id/tdpse-detail/8494",
            "website": "banksar.co.id"
        },
        {
            "id": "9cb1abf0-9043-416e-9e95-fd340458e424",
            "nama_pse": "JUARA KASIH SAYANG",
            "nama_se": "JUARAKASIHSAYANG.CO.ID",
            "sektor": "Sektor Perdagangan",
            "tanggal_terbit": "2022-07-21",
            "url_tdpse_detail": "https://pse.komdigi.go.id/tdpse-detail/8501",
            "website": "juarakasihsayang.co.id"
        },
        {
            "id": "9cb1abf0-96ae-4a30-b93f-90366afa4abe",
            "nama_pse": "BERSAMA BISA",
            "nama_se": "BISACPNS",
            "sektor": "Sektor Teknologi Informasi dan Komunikasi",
            "tanggal_terbit": "2022-07-21",
            "url_tdpse_detail": "https://pse.komdigi.go.id/tdpse-detail/8508",
            "website": "bisacpns.com"
        },
        {
            "id": "9cb1abca-81b6-4c42-8512-d25822590b4c",
            "nama_pse": "LANCAR TEKNOLOGI INDONESIA",
            "nama_se": "LANCARTECH",
            "sektor": "Sektor Teknologi Informasi dan Komunikasi",
            "tanggal_terbit": "2022-07-21",
            "url_tdpse_detail": "https://pse.komdigi.go.id/tdpse-detail/8497",
            "website": "lancartech.co.id"
        },
        {
            "id": "9cb1abf0-99ff-4954-a476-21463773c89e",
            "nama_pse": "HYUNDAI MOTORS INDONESIA",
            "nama_se": "CLICK-TO-BUY",
            "sektor": "Sektor Perdagangan",
            "tanggal_terbit": "2022-07-21",
            "url_tdpse_detail": "https://pse.komdigi.go.id/tdpse-detail/8500",
            "website": "clicktobuy.hyundai.com"
        },
        {
            "id": "9cb1abf0-9dbc-449c-ae9a-a79603f64b36",
            "nama_pse": "BERSAMA BISA",
            "nama_se": "BISAPPPK",
            "sektor": "Sektor Teknologi Informasi dan Komunikasi",
            "tanggal_terbit": "2022-07-21",
            "url_tdpse_detail": "https://pse.komdigi.go.id/tdpse-detail/8509",
            "website": "bisapppk.com"
        },
        {
            "id": "9cb1abbb-c036-4f9e-8f48-a29329e4dc61",
            "nama_pse": "ISTANA MITRA SENDANY",
            "nama_se": "HONDA MITRA GROUP",
            "sektor": "Sektor Perdagangan",
            "tanggal_terbit": "2022-07-21",
            "url_tdpse_detail": "https://pse.komdigi.go.id/tdpse-detail/8499",
            "website": "hondamitra.com"
        },
        {
            "id": "9cb1abca-8722-40f3-81dc-4cd3a02b25da",
            "nama_pse": "ASURANSI ALLIANZ LIFE INDONESIA",
            "nama_se": "ASN PORTAL",
            "sektor": "Sektor Keuangan",
            "tanggal_terbit": "2022-07-21",
            "url_tdpse_detail": "https://pse.komdigi.go.id/tdpse-detail/8502",
            "website": "allianzstarnetwork.com"
        },
        {
            "id": "9cb1abbb-c254-4ea8-b890-7372b340f79c",
            "nama_pse": "PESAT AGHNI SOLUSI",
            "nama_se": "WEB LAMA PT. PESAT AGHNI SOLUSI",
            "sektor": "Sektor Teknologi Informasi dan Komunikasi",
            "tanggal_terbit": "2022-07-21",
            "url_tdpse_detail": "https://pse.komdigi.go.id/tdpse-detail/8503",
            "website": "solusiteknis.com"
        },
        {
            "id": "9cb1abca-8bbc-490d-a384-15826f216d89",
            "nama_pse": "BANK PEREKONOMIAN RAKYAT MULIA YUGANTA INDONESIA",
            "nama_se": "PT BPR MULIA YUGANTA INDONESIA",
            "sektor": "Sektor Keuangan",
            "tanggal_terbit": "2022-07-21",
            "url_tdpse_detail": "https://pse.komdigi.go.id/tdpse-detail/8505",
            "website": "mybpr.com"
        },
        {
            "id": "9cb1abbb-c436-432e-8550-82379a1c76d0",
            "nama_pse": "INOVASI TEKNOLOGI MAKMUR",
            "nama_se": "FLASHCLOUD / INOVASI TEKNOLOGI MAKMUR",
            "sektor": "Sektor Teknologi Informasi dan Komunikasi",
            "tanggal_terbit": "2022-07-21",
            "url_tdpse_detail": "https://pse.komdigi.go.id/tdpse-detail/8507",
            "website": "flashcloud.id"
        },
        {
            "id": "9cb1abca-90dc-45aa-8c42-624434f1f16c",
            "nama_pse": "BANK PEREKONOMIAN RAKYAT DANA AMAN TIARA ABADI",
            "nama_se": "PENTA SYSTEM",
            "sektor": "Sektor Keuangan",
            "tanggal_terbit": "2022-07-21",
            "url_tdpse_detail": "https://pse.komdigi.go.id/tdpse-detail/8506",
            "website": "bprdata.co.id"
        },
        {
            "id": "9cb1abf0-a263-42d3-b9af-215a403be9a0",
            "nama_pse": "BANK PEREKONOMIAN RAKYAT HARTHA MURIATAMA",
            "nama_se": "PT ROYALMA PINTECH MANDIRI",
            "sektor": "Sektor Keuangan",
            "tanggal_terbit": "2022-07-21",
            "url_tdpse_detail": "https://pse.komdigi.go.id/tdpse-detail/8510",
            "website": "bprhmt.com"
        },
        {
            "id": "9cb1abca-94b7-44ff-aab6-29575a393b39",
            "nama_pse": "SINBAD KARYA PERDAGANGAN",
            "nama_se": "SINBAD",
            "sektor": "Sektor Perdagangan",
            "tanggal_terbit": "2022-07-21",
            "url_tdpse_detail": "https://pse.komdigi.go.id/tdpse-detail/8512",
            "website": "seller.sinbad.web.id"
        },
        {
            "id": "9cb1abbb-c613-48d6-893e-aebe7d449e9c",
            "nama_pse": "VOLTRAS TRAVEL",
            "nama_se": "VOLTRAS AGENT NETWORK",
            "sektor": "Sektor Perdagangan",
            "tanggal_terbit": "2022-07-21",
            "url_tdpse_detail": "https://pse.komdigi.go.id/tdpse-detail/8513",
            "website": "travelagent.co.id"
        },
        {
            "id": "9cb1abf0-a600-4544-8b02-335e67c92173",
            "nama_pse": "BANK PEREKONOMIAN RAKYAT TAHUAN GANDA",
            "nama_se": "PT. BANK PERKREDITAN RAKYAT TAHUAN GANDA",
            "sektor": "Sektor Keuangan",
            "tanggal_terbit": "2022-07-21",
            "url_tdpse_detail": "https://pse.komdigi.go.id/tdpse-detail/8511",
            "website": "-"
        },
        {
            "id": "9cb1abf0-ab02-4f11-b9ad-ce86a6df8650",
            "nama_pse": "BANK PERKREDITAN RAKYAT HARTARAYA CIPTAMULIA",
            "nama_se": "SOFTREFHA",
            "sektor": "Sektor Keuangan",
            "tanggal_terbit": "2022-07-21",
            "url_tdpse_detail": "https://pse.komdigi.go.id/tdpse-detail/8515",
            "website": "-"
        },
        {
            "id": "9cb1abca-98f1-4585-9ab9-3a385767e5f8",
            "nama_pse": "BANK PEREKONOMIAN RAKYAT KARTI CENTRA ARTHA",
            "nama_se": "BPRKCA.COM",
            "sektor": "Sektor Keuangan",
            "tanggal_terbit": "2022-07-21",
            "url_tdpse_detail": "https://pse.komdigi.go.id/tdpse-detail/8519",
            "website": "bprkca.com"
        },
        {
            "id": "9cb1abf0-af39-4b08-aebb-01216e10caaa",
            "nama_pse": "BANK PERKREDITAN RAKYAT LOKADANA SENTOSA",
            "nama_se": "BANK LOKADANA",
            "sektor": "Sektor Keuangan",
            "tanggal_terbit": "2022-07-21",
            "url_tdpse_detail": "https://pse.komdigi.go.id/tdpse-detail/8516",
            "website": "banklokadana.com"
        },
        {
            "id": "9cb1abca-9e7e-4864-b832-45b4b5144945",
            "nama_pse": "INCORE SYSTEMS SOLUTIONS",
            "nama_se": "TUGAS ID",
            "sektor": "Sektor Teknologi Informasi dan Komunikasi",
            "tanggal_terbit": "2022-07-21",
            "url_tdpse_detail": "https://pse.komdigi.go.id/tdpse-detail/8518",
            "website": "tugas.id"
        },
        {
            "id": "9cb1abf0-b423-4829-86c0-4cce9a6c1be2",
            "nama_pse": "BANK PERKREDITAN RAKYAT MAROBA ITE",
            "nama_se": "PT BPR MAROBA ITE",
            "sektor": "Sektor Keuangan",
            "tanggal_terbit": "2022-07-21",
            "url_tdpse_detail": "https://pse.komdigi.go.id/tdpse-detail/8517",
            "website": "bpr-marobaite.co.id"
        },
        {
            "id": "9cb1abca-a343-44ca-bbc5-a4f1623e4836",
            "nama_pse": "INOVASI TEKNOLOGI MAKMUR",
            "nama_se": "PT INOVASI TEKNOLOGI MAKMUR",
            "sektor": "Sektor Teknologi Informasi dan Komunikasi",
            "tanggal_terbit": "2022-07-21",
            "url_tdpse_detail": "https://pse.komdigi.go.id/tdpse-detail/8520",
            "website": "itm.co.id"
        },
        {
            "id": "9cb1abbb-c7ed-404f-8fc6-d001f823edf2",
            "nama_pse": "RUANG RAYA INDONESIA",
            "nama_se": "RUANGKERJA",
            "sektor": "Sektor Perdagangan, Sektor Teknologi Informasi dan Komunikasi",
            "tanggal_terbit": "2022-07-21",
            "url_tdpse_detail": "https://pse.komdigi.go.id/tdpse-detail/8521",
            "website": "ruangkerja.id"
        },
        {
            "id": "9cb1abbb-c9cb-4ce2-a677-efd0ea2f2247",
            "nama_pse": "FUNDO SUKSES BERSAMA",
            "nama_se": "FUNDO",
            "sektor": "Sektor Keuangan",
            "tanggal_terbit": "2022-07-21",
            "url_tdpse_detail": "https://pse.komdigi.go.id/tdpse-detail/8522",
            "website": "FUNDO.ID"
        },
        {
            "id": "9cb1abf0-ba8c-43c3-a1e3-4ceefa36abdf",
            "nama_pse": "REALTA CHAKRADARMA",
            "nama_se": "RHAPSODY HOSPITALITY MANAGEMENT SYSTEM",
            "sektor": "Sektor Teknologi Informasi dan Komunikasi",
            "tanggal_terbit": "2022-07-21",
            "url_tdpse_detail": "https://pse.komdigi.go.id/tdpse-detail/8534",
            "website": "cloud.co.id"
        },
        {
            "id": "9cb1abf0-bf5a-4037-b388-b7eddaaa308b",
            "nama_pse": "BANK PERKREDITAN RAKYAT TANJUNG PRATAMA",
            "nama_se": "BANK PERKREDITAN RAKYAT TANJUNG PRATAMA",
            "sektor": "Sektor Keuangan",
            "tanggal_terbit": "2022-07-21",
            "url_tdpse_detail": "https://pse.komdigi.go.id/tdpse-detail/8524",
            "website": "bprtanjungpratama.com"
        },
        {
            "id": "9cb1abbb-cbe0-4c20-8dc6-149c8bd371ad",
            "nama_pse": "HYUNDAI MOTORS INDONESIA",
            "nama_se": "HGCX (HYUNDAI GLOBAL CUSTOMER EXPERIENCE)",
            "sektor": "Sektor Teknologi Informasi dan Komunikasi",
            "tanggal_terbit": "2022-07-21",
            "url_tdpse_detail": "https://pse.komdigi.go.id/tdpse-detail/8523",
            "website": "ap.hyundaiglobalcx.com"
        },
        {
            "id": "9cb1abf0-c855-43af-921e-d0eb2c8738cf",
            "nama_pse": "MERKHA TEKNOLOGI INDONESIA",
            "nama_se": "MERKHA",
            "sektor": "Sektor Perdagangan",
            "tanggal_terbit": "2022-07-21",
            "url_tdpse_detail": "https://pse.komdigi.go.id/tdpse-detail/8525",
            "website": "merkha.com"
        },
        {
            "id": "9cb1abca-a84a-4ac6-9f2b-1e141f60d6fb",
            "nama_pse": "L7 SYSTEMS",
            "nama_se": "VENDIS SFA",
            "sektor": "Sektor Teknologi Informasi dan Komunikasi",
            "tanggal_terbit": "2022-07-21",
            "url_tdpse_detail": "https://pse.komdigi.go.id/tdpse-detail/8526",
            "website": "l7systems.net"
        }
    ],
    "processingTimeMs": 5,
    "query": "",
    "totalHits": 19121,
    "hitsPerPage": 50,
    "page": 228,
    "totalPages": 383
}