{
    "hits": [
        {
            "id": "9cb1ab7f-1797-44c8-b31f-1313819ef737",
            "nama_pse": "CV. SRKFOODS",
            "nama_se": "SPIKOERESEPKUNO.COM",
            "sektor": "Sektor Perdagangan, Sektor Perdagangan",
            "tanggal_terbit": "2021-10-26",
            "url_tdpse_detail": "https://pse.komdigi.go.id/tdpse-detail/2135",
            "website": "spikoeresepkuno.com"
        },
        {
            "id": "9cb1ab8f-3186-4ec0-b4d8-311e3e4cb044",
            "nama_pse": "PT Aplikasi Digital Asisten",
            "nama_se": "JOBSMAID",
            "sektor": "Sektor Teknologi Informasi dan Komunikasi, Sektor Teknologi Informasi dan Komunikasi",
            "tanggal_terbit": "2021-10-26",
            "url_tdpse_detail": "https://pse.komdigi.go.id/tdpse-detail/2141",
            "website": "jobsmaid.id"
        },
        {
            "id": "9cb1ab87-7677-496c-8957-9fa859c45652",
            "nama_pse": "CV. ANUGRAH PRATAMA",
            "nama_se": "ANUGRAHPRATAMA.COM",
            "sektor": "Sektor Perdagangan, Sektor Perdagangan, Sektor Teknologi Informasi dan Komunikasi, Sektor Teknologi Informasi dan Komunikasi",
            "tanggal_terbit": "2021-10-26",
            "url_tdpse_detail": "https://pse.komdigi.go.id/tdpse-detail/2143",
            "website": "anugrahpratama.com"
        },
        {
            "id": "9cb1ab7f-1baa-4a02-9df1-ef7bff6de2b2",
            "nama_pse": "INSATEK MAJU BERSAMA",
            "nama_se": "WEBSITE PERUSAHAAN",
            "sektor": "Sektor Perdagangan, Sektor Perdagangan, Sektor Energi dan Sumber Daya Mineral, Sektor Energi dan Sumber Daya Mineral, Sektor Kesehatan, Sektor Kesehatan, Sektor Teknologi Informasi dan Komunikasi, Sektor Teknologi Informasi dan Komunikasi",
            "tanggal_terbit": "2021-10-26",
            "url_tdpse_detail": "https://pse.komdigi.go.id/tdpse-detail/2155",
            "website": "insatek.id"
        },
        {
            "id": "9cb1ab8f-343b-4ddc-9ab4-c83738665178",
            "nama_pse": "PT. Max Interactives Technologies",
            "nama_se": "ZIPAY",
            "sektor": "Sektor Keuangan, Sektor Keuangan",
            "tanggal_terbit": "2021-10-26",
            "url_tdpse_detail": "https://pse.komdigi.go.id/tdpse-detail/2160",
            "website": "zipay.id"
        },
        {
            "id": "9cb1ab7f-1efb-4f5c-9655-f8b59299564c",
            "nama_pse": "PT Aplikasi Solusi Anak Bangsa",
            "nama_se": "TOKOMAID",
            "sektor": "Sektor Teknologi Informasi dan Komunikasi, Sektor Teknologi Informasi dan Komunikasi",
            "tanggal_terbit": "2021-10-26",
            "url_tdpse_detail": "https://pse.komdigi.go.id/tdpse-detail/2161",
            "website": "tokomaid.com"
        },
        {
            "id": "9cb1ab7f-2155-4a70-9c79-b2b275ff0d9a",
            "nama_pse": "PENERBIT BUKU ERLANGGA MAHAMERU",
            "nama_se": "E-LEARN ERLANGGA",
            "sektor": "Sektor Teknologi Informasi dan Komunikasi, Sektor Teknologi Informasi dan Komunikasi",
            "tanggal_terbit": "2021-10-26",
            "url_tdpse_detail": "https://pse.komdigi.go.id/tdpse-detail/2166",
            "website": "elearn.erlanggaonline.com"
        },
        {
            "id": "9cb1ab91-6660-4085-9d1b-5188de425128",
            "nama_pse": "EDRUS STRATEGI DIGITAL",
            "nama_se": "IMPORTIR.ORG",
            "sektor": "Sektor Perdagangan, Sektor Perdagangan",
            "tanggal_terbit": "2021-10-26",
            "url_tdpse_detail": "https://pse.komdigi.go.id/tdpse-detail/2026",
            "website": "Importir.org"
        },
        {
            "id": "9cb1aba9-0506-4d13-93d9-27c4e8e566e5",
            "nama_pse": "EDRUS STRATEGI DIGITAL",
            "nama_se": "IMPORTIR.ID",
            "sektor": "Sektor Perdagangan, Sektor Perdagangan",
            "tanggal_terbit": "2021-10-26",
            "url_tdpse_detail": "https://pse.komdigi.go.id/tdpse-detail/2157",
            "website": "Importir.id"
        },
        {
            "id": "9cb1ab91-963a-4595-8956-fec86c4d9c20",
            "nama_pse": "MIRAE ASSET SEKURITAS INDONESIA",
            "nama_se": "OPENACCOUNT WEB APP",
            "sektor": "Sektor Perdagangan, Sektor Perdagangan, Sektor Perdagangan, Sektor Perdagangan, Sektor Perdagangan, Sektor Perdagangan, Sektor Perdagangan, Sektor Perdagangan, Sektor Keuangan, Sektor Keuangan, Sektor Keuangan, Sektor Keuangan, Sektor Keuangan, Sektor Keuangan, Sektor Keuangan, Sektor Keuangan",
            "tanggal_terbit": "2021-10-26",
            "url_tdpse_detail": "https://pse.komdigi.go.id/tdpse-detail/2011",
            "website": "open.miraeasset.co.id"
        },
        {
            "id": "9cb1aba9-3a73-4bf8-8b23-a7a46c72bc49",
            "nama_pse": "ALLO BANK INDONESIA",
            "nama_se": "ALLO BANK WEB",
            "sektor": "Sektor Keuangan, Sektor Keuangan, Sektor Keuangan, Sektor Keuangan, Sektor Keuangan, Sektor Keuangan, Sektor Keuangan, Sektor Keuangan",
            "tanggal_terbit": "2021-10-26",
            "url_tdpse_detail": "https://pse.komdigi.go.id/tdpse-detail/2144",
            "website": "http://www.allobank.com"
        },
        {
            "id": "9cb1ab9e-f48c-4dc5-9158-03be6a604af8",
            "nama_pse": "ALLO BANK INDONESIA",
            "nama_se": "ALLO BANK EMAIL",
            "sektor": "Sektor Keuangan, Sektor Keuangan, Sektor Keuangan, Sektor Keuangan, Sektor Keuangan, Sektor Keuangan, Sektor Keuangan, Sektor Keuangan, Sektor Teknologi Informasi dan Komunikasi, Sektor Teknologi Informasi dan Komunikasi, Sektor Teknologi Informasi dan Komunikasi, Sektor Teknologi Informasi dan Komunikasi, Sektor Teknologi Informasi dan Komunikasi, Sektor Teknologi Informasi dan Komunikasi, Sektor Teknologi Informasi dan Komunikasi, Sektor Teknologi Informasi dan Komunikasi",
            "tanggal_terbit": "2021-10-26",
            "url_tdpse_detail": "https://pse.komdigi.go.id/tdpse-detail/2148",
            "website": "mail.allobank.com"
        },
        {
            "id": "9cb1aba9-48ee-42ee-9b44-674a943a8935",
            "nama_pse": "ALLO BANK INDONESIA",
            "nama_se": "ALLO BANK ALLO APP",
            "sektor": "Sektor Keuangan, Sektor Keuangan, Sektor Keuangan, Sektor Keuangan, Sektor Keuangan, Sektor Keuangan, Sektor Keuangan, Sektor Keuangan",
            "tanggal_terbit": "2021-10-26",
            "url_tdpse_detail": "https://pse.komdigi.go.id/tdpse-detail/2150",
            "website": "-"
        },
        {
            "id": "9cb1ab91-a349-40d7-9a97-bfd1d13f6390",
            "nama_pse": "ALLO BANK INDONESIA",
            "nama_se": "ALLO BANK VPN",
            "sektor": "Sektor Keuangan, Sektor Keuangan, Sektor Keuangan, Sektor Keuangan, Sektor Keuangan, Sektor Keuangan, Sektor Keuangan, Sektor Keuangan",
            "tanggal_terbit": "2021-10-26",
            "url_tdpse_detail": "https://pse.komdigi.go.id/tdpse-detail/2151",
            "website": "vpn.allobank.com"
        },
        {
            "id": "9cb1aba9-4c22-4237-92f3-837c10d301cd",
            "nama_pse": "ALLO BANK INDONESIA",
            "nama_se": "ALLO EXPLORE",
            "sektor": "Sektor Keuangan, Sektor Keuangan, Sektor Keuangan, Sektor Keuangan, Sektor Keuangan, Sektor Keuangan, Sektor Keuangan, Sektor Keuangan",
            "tanggal_terbit": "2021-10-26",
            "url_tdpse_detail": "https://pse.komdigi.go.id/tdpse-detail/2152",
            "website": "-"
        },
        {
            "id": "9cb1ab91-a762-438a-a4d7-25140606023d",
            "nama_pse": "ALLO BANK INDONESIA",
            "nama_se": "WEBSITE POIN",
            "sektor": "Sektor Keuangan, Sektor Keuangan, Sektor Keuangan, Sektor Keuangan, Sektor Keuangan, Sektor Keuangan, Sektor Keuangan, Sektor Keuangan",
            "tanggal_terbit": "2021-10-26",
            "url_tdpse_detail": "https://pse.komdigi.go.id/tdpse-detail/2154",
            "website": "uaticpmms.ctcorpmpc.com:18083/#/login"
        },
        {
            "id": "9cb1ab9f-0220-45eb-85f3-698d8de32d3b",
            "nama_pse": "NINETYNINE DIGITAL NIAGA",
            "nama_se": "99NINETYNINE",
            "sektor": "Sektor Perdagangan, Sektor Transportasi, Sektor Keuangan, Sektor Teknologi Informasi dan Komunikasi",
            "tanggal_terbit": "2021-10-26",
            "url_tdpse_detail": "https://pse.komdigi.go.id/tdpse-detail/2131",
            "website": "99ninetynine.com"
        },
        {
            "id": "9cb1ab9f-05c2-40d2-b81e-4fd0d74e6abe",
            "nama_pse": "ALAN DIGITAL INDONESIA",
            "nama_se": "BLI-GO! WORLD OF WONDER APP",
            "sektor": "Sektor Perdagangan, Sektor Transportasi, Sektor Pangan",
            "tanggal_terbit": "2021-10-26",
            "url_tdpse_detail": "https://pse.komdigi.go.id/tdpse-detail/2071",
            "website": "bli-go.com"
        },
        {
            "id": "9cb1ab91-ca4a-408d-9afa-90c4b4d67cc5",
            "nama_pse": "WELTEK HEALTHIN INDONESIA",
            "nama_se": "BUBIDAN",
            "sektor": "Sektor Perdagangan, Sektor Kesehatan",
            "tanggal_terbit": "2021-10-26",
            "url_tdpse_detail": "https://pse.komdigi.go.id/tdpse-detail/2070",
            "website": "weltek.id"
        },
        {
            "id": "9cb1ab91-de05-4c66-b421-4bd19da0d601",
            "nama_pse": "MITRA TELINDO NUSANTARA",
            "nama_se": "HAPPYDIGITAL.ID",
            "sektor": "Sektor Teknologi Informasi dan Komunikasi",
            "tanggal_terbit": "2021-10-26",
            "url_tdpse_detail": "https://pse.komdigi.go.id/tdpse-detail/2062",
            "website": "happydigital.id"
        },
        {
            "id": "9cb1ab9f-0db2-4347-b397-393d67a21089",
            "nama_pse": "SENTRA LANGIT FAJAR",
            "nama_se": "MUSIK GAMALIEL",
            "sektor": "Sektor Teknologi Informasi dan Komunikasi",
            "tanggal_terbit": "2021-10-26",
            "url_tdpse_detail": "https://pse.komdigi.go.id/tdpse-detail/2055",
            "website": "musikgamaliel.com"
        },
        {
            "id": "9cb1ab91-fd87-4dea-bfcb-8e14fe16e30e",
            "nama_pse": "MEDIA DOKTER INVESTAMA",
            "nama_se": "HALODOC",
            "sektor": "Sektor Kesehatan, Sektor Teknologi Informasi dan Komunikasi",
            "tanggal_terbit": "2021-10-26",
            "url_tdpse_detail": "https://pse.komdigi.go.id/tdpse-detail/2116",
            "website": "halodoc.com"
        },
        {
            "id": "9cb1ab9f-21fe-4b91-9b0d-64cb817a2688",
            "nama_pse": "INTEKNO RAYA",
            "nama_se": "DANAMERDEKA",
            "sektor": "Sektor Keuangan, Sektor Keuangan, Sektor Keuangan",
            "tanggal_terbit": "2021-10-26",
            "url_tdpse_detail": "https://pse.komdigi.go.id/tdpse-detail/2120",
            "website": "danamerdeka.co.id"
        },
        {
            "id": "9cb1ab9f-33bc-40bb-bfd4-b5ad30f41924",
            "nama_pse": "TERAS SEKAWAN BERSAMA",
            "nama_se": "TERASLIS",
            "sektor": "Sektor Kesehatan, Sektor Teknologi Informasi dan Komunikasi",
            "tanggal_terbit": "2021-10-26",
            "url_tdpse_detail": "https://pse.komdigi.go.id/tdpse-detail/2077",
            "website": "demo2.terassekawanbersama.co.id"
        },
        {
            "id": "9cb1ab9f-3578-449d-8489-16f6c16efd8f",
            "nama_pse": "BANK SAHABAT SAMPOERNA",
            "nama_se": "PDAJA.COM",
            "sektor": "Sektor Keuangan, Sektor Keuangan, Sektor Keuangan, Sektor Keuangan",
            "tanggal_terbit": "2021-10-26",
            "url_tdpse_detail": "https://pse.komdigi.go.id/tdpse-detail/2126",
            "website": "pdaja.com/"
        },
        {
            "id": "9cb1aba9-85c0-402c-8d02-30cbaff80e4b",
            "nama_pse": "BANK SAHABAT SAMPOERNA",
            "nama_se": "PDAJA.COM",
            "sektor": "Sektor Keuangan, Sektor Keuangan, Sektor Keuangan, Sektor Keuangan",
            "tanggal_terbit": "2021-10-26",
            "url_tdpse_detail": "https://pse.komdigi.go.id/tdpse-detail/2127",
            "website": "pdaja.com/"
        },
        {
            "id": "9cb1ab9f-377b-4e29-9b94-d8b5e7d8f452",
            "nama_pse": "INTAN PARIWARA",
            "nama_se": "INTAN ONLINE",
            "sektor": "Sektor Perdagangan",
            "tanggal_terbit": "2021-10-26",
            "url_tdpse_detail": "https://pse.komdigi.go.id/tdpse-detail/2145",
            "website": "siplah.intanonline.com"
        },
        {
            "id": "9cb1abaa-dccd-4a5b-b34d-a03a388c64dc",
            "nama_pse": "JASA ASIA GROUP",
            "nama_se": "ICHOOSE",
            "sektor": "Sektor Perdagangan, Sektor Teknologi Informasi dan Komunikasi",
            "tanggal_terbit": "2021-10-26",
            "url_tdpse_detail": "https://pse.komdigi.go.id/tdpse-detail/2103",
            "website": "ichooseasia.com/"
        },
        {
            "id": "9cb1ab94-0ecf-47ca-946b-bbd72ed162d2",
            "nama_pse": "PT Vinmo Digital Indonesia",
            "nama_se": "VINMO",
            "sektor": "Sektor Keuangan, Sektor Keuangan, Sektor Teknologi Informasi dan Komunikasi, Sektor Teknologi Informasi dan Komunikasi",
            "tanggal_terbit": "2021-10-26",
            "url_tdpse_detail": "https://pse.komdigi.go.id/tdpse-detail/2167",
            "website": "vinmo.co.id"
        },
        {
            "id": "9cb1ab62-743c-477d-9eb0-77b832917dfa",
            "nama_pse": "KESAN DIGITAL NUSANTARA",
            "nama_se": "KESAN (KEDAULATAN SANTRI)",
            "sektor": "Sektor Teknologi Informasi dan Komunikasi, Sektor Teknologi Informasi dan Komunikasi, Sektor Teknologi Informasi dan Komunikasi",
            "tanggal_terbit": "2021-10-12",
            "url_tdpse_detail": "https://pse.komdigi.go.id/tdpse-detail/1980",
            "website": "kesan.id"
        },
        {
            "id": "9cb1ab73-fa11-43b6-9af5-3bd4f0211e8b",
            "nama_pse": "ASIA SMART DIGITAL",
            "nama_se": "SMART-GT",
            "sektor": "Sektor Perdagangan, Sektor Perdagangan, Sektor Perdagangan, Sektor Perdagangan, Sektor Perdagangan",
            "tanggal_terbit": "2021-10-12",
            "url_tdpse_detail": "https://pse.komdigi.go.id/tdpse-detail/1991",
            "website": "ASIASMARTDIGITAL.CO.ID"
        },
        {
            "id": "9cb1ab74-8e12-41c9-8582-9e4ab5553c14",
            "nama_pse": "BAREKSA MARKETPLACE INDONESIA",
            "nama_se": "PT BAREKSA MARKETPLACE INDONESIA",
            "sektor": "Sektor Keuangan, Sektor Keuangan",
            "tanggal_terbit": "2021-10-12",
            "url_tdpse_detail": "https://pse.komdigi.go.id/tdpse-detail/1983",
            "website": "bareksa.com"
        },
        {
            "id": "9cb1ab6f-3dc1-474d-be34-1fcd2d4afaed",
            "nama_pse": "PERUSAHAAN PERSEROAN (PERSERO) PT. TELEKOMUNIKASI INDONESIA",
            "nama_se": "MYCARRIER",
            "sektor": "Sektor Teknologi Informasi dan Komunikasi, Sektor Teknologi Informasi dan Komunikasi, Sektor Teknologi Informasi dan Komunikasi, Sektor Teknologi Informasi dan Komunikasi",
            "tanggal_terbit": "2021-10-12",
            "url_tdpse_detail": "https://pse.komdigi.go.id/tdpse-detail/1990",
            "website": "mycarrier.telkom.co.id"
        },
        {
            "id": "9cb1ab69-3a6e-4319-991d-021ed934c775",
            "nama_pse": "BOS TOBOS INDONESIA",
            "nama_se": "BOS 2 BOS",
            "sektor": "Sektor Perdagangan, Sektor Perdagangan, Sektor Teknologi Informasi dan Komunikasi, Sektor Teknologi Informasi dan Komunikasi",
            "tanggal_terbit": "2021-10-12",
            "url_tdpse_detail": "https://pse.komdigi.go.id/tdpse-detail/1995",
            "website": "bos2bos.com"
        },
        {
            "id": "9cb1ab75-f0e6-4476-8c88-0f0d27b94a63",
            "nama_pse": "AUTOPEDIA SUKSES LESTARI",
            "nama_se": "CAROLINE.ID",
            "sektor": "Sektor Perdagangan, Sektor Perdagangan, Sektor Perdagangan",
            "tanggal_terbit": "2021-10-12",
            "url_tdpse_detail": "https://pse.komdigi.go.id/tdpse-detail/1993",
            "website": "caroline.id"
        },
        {
            "id": "9cb1ab69-44d6-45de-b662-953a7e60682d",
            "nama_pse": "PEMINDO MITRA SINERGI",
            "nama_se": "PEMMZ",
            "sektor": "Sektor Perdagangan, Sektor Perdagangan, Sektor Perdagangan, Sektor Teknologi Informasi dan Komunikasi, Sektor Teknologi Informasi dan Komunikasi, Sektor Teknologi Informasi dan Komunikasi",
            "tanggal_terbit": "2021-10-12",
            "url_tdpse_detail": "https://pse.komdigi.go.id/tdpse-detail/1988",
            "website": "pemmz.id"
        },
        {
            "id": "9cb1ab69-4fee-4d25-856e-30f0eb879d5b",
            "nama_pse": "DIGITAL VENTURE INTERNATIONAL",
            "nama_se": "GOODPASS APP \u0026 SCORE",
            "sektor": "Sektor Teknologi Informasi dan Komunikasi, Sektor Teknologi Informasi dan Komunikasi, Sektor Teknologi Informasi dan Komunikasi",
            "tanggal_terbit": "2021-10-12",
            "url_tdpse_detail": "https://pse.komdigi.go.id/tdpse-detail/1992",
            "website": "goodpass.id"
        },
        {
            "id": "9cb1ab69-5301-4f5d-b31b-3c308aed8945",
            "nama_pse": "CEK DATA DIGITAL",
            "nama_se": "CEK POLARIS",
            "sektor": "Sektor Perdagangan, Sektor Perdagangan, Sektor Teknologi Informasi dan Komunikasi, Sektor Teknologi Informasi dan Komunikasi",
            "tanggal_terbit": "2021-10-12",
            "url_tdpse_detail": "https://pse.komdigi.go.id/tdpse-detail/1984",
            "website": "cekpolaris.com"
        },
        {
            "id": "9cb1ab70-2f99-4172-a6ee-d650f3f62e12",
            "nama_pse": "SEMESTA INTEGRASI DIGITAL",
            "nama_se": "KARIER.MU",
            "sektor": "Sektor Teknologi Informasi dan Komunikasi, Sektor Teknologi Informasi dan Komunikasi, Sektor Teknologi Informasi dan Komunikasi",
            "tanggal_terbit": "2021-10-12",
            "url_tdpse_detail": "https://pse.komdigi.go.id/tdpse-detail/1985",
            "website": "karier.mu"
        },
        {
            "id": "9cb1ab69-5f2d-4249-8e0d-ce555e7811e6",
            "nama_pse": "TECKINDO PRIMA INOVASI",
            "nama_se": "FIRMAN ONLINE STORE",
            "sektor": "Sektor Perdagangan, Sektor Perdagangan, Sektor Perdagangan, Sektor Teknologi Informasi dan Komunikasi, Sektor Teknologi Informasi dan Komunikasi, Sektor Teknologi Informasi dan Komunikasi",
            "tanggal_terbit": "2021-10-12",
            "url_tdpse_detail": "https://pse.komdigi.go.id/tdpse-detail/1987",
            "website": "-"
        },
        {
            "id": "9cb1ab76-1eb0-454f-abaa-55430e48ed2b",
            "nama_pse": "MOBIL SATU ASIA",
            "nama_se": "MOBIL123",
            "sektor": "Sektor Perdagangan, Sektor Perdagangan, Sektor Perdagangan, Sektor Perdagangan",
            "tanggal_terbit": "2021-10-12",
            "url_tdpse_detail": "https://pse.komdigi.go.id/tdpse-detail/1989",
            "website": "mobil123.com"
        },
        {
            "id": "9cb1ab77-401f-4ad4-98c3-4712b5e38ab4",
            "nama_pse": "BAREKSA PORTAL INVESTASI",
            "nama_se": "PT BAREKSA PORTAL INVESTASI",
            "sektor": "Sektor Keuangan, Sektor Keuangan, Sektor Keuangan",
            "tanggal_terbit": "2021-10-12",
            "url_tdpse_detail": "https://pse.komdigi.go.id/tdpse-detail/1982",
            "website": "bareksa.com"
        },
        {
            "id": "9cb1ab77-4531-42d9-b2c7-82cbe8dfb257",
            "nama_pse": "MULTITREND INDO",
            "nama_se": "MOTHERCARE WEB DAN APP",
            "sektor": "Sektor Perdagangan, Sektor Perdagangan, Sektor Perdagangan",
            "tanggal_terbit": "2021-10-12",
            "url_tdpse_detail": "https://pse.komdigi.go.id/tdpse-detail/1975",
            "website": "mothercare.co.id"
        },
        {
            "id": "9cb1ab69-76e8-48b7-be09-77be71eef5b7",
            "nama_pse": "MULTITREND INDO",
            "nama_se": "MOTHERCARE APP",
            "sektor": "Sektor Perdagangan, Sektor Perdagangan, Sektor Perdagangan",
            "tanggal_terbit": "2021-10-12",
            "url_tdpse_detail": "https://pse.komdigi.go.id/tdpse-detail/1976",
            "website": "mothercare.co.id"
        },
        {
            "id": "9cb1ab76-34ad-4c02-8e97-aabce5a6c7a4",
            "nama_pse": "MULTITREND INDO",
            "nama_se": "ELC WEB",
            "sektor": "Sektor Perdagangan, Sektor Perdagangan, Sektor Perdagangan",
            "tanggal_terbit": "2021-10-12",
            "url_tdpse_detail": "https://pse.komdigi.go.id/tdpse-detail/1977",
            "website": "elc.co.id"
        },
        {
            "id": "9cb1ab69-79f6-4b17-b9d0-bd51bbdf4d86",
            "nama_pse": "MULTITREND INDO",
            "nama_se": "JUSTICE WEB",
            "sektor": "Sektor Perdagangan, Sektor Perdagangan, Sektor Perdagangan",
            "tanggal_terbit": "2021-10-12",
            "url_tdpse_detail": "https://pse.komdigi.go.id/tdpse-detail/1978",
            "website": "shopjustice.co.id"
        },
        {
            "id": "9cb1ab77-4771-4e22-8780-ecc85ea15d5f",
            "nama_pse": "MULTITREND INDO",
            "nama_se": "THE ENTERTAINER WEB",
            "sektor": "Sektor Perdagangan, Sektor Perdagangan, Sektor Perdagangan",
            "tanggal_terbit": "2021-10-12",
            "url_tdpse_detail": "https://pse.komdigi.go.id/tdpse-detail/1979",
            "website": "theentertainer.co.id"
        },
        {
            "id": "9cb1ab69-8994-4d5d-8923-6239457d84ae",
            "nama_pse": "VALUE STREAM INDONESIA",
            "nama_se": "MASAGO",
            "sektor": "Sektor Teknologi Informasi dan Komunikasi, Sektor Teknologi Informasi dan Komunikasi",
            "tanggal_terbit": "2021-10-12",
            "url_tdpse_detail": "https://pse.komdigi.go.id/tdpse-detail/1986",
            "website": "masago.id"
        },
        {
            "id": "9cb1ab8d-5fcc-4d5f-843f-4ba8a4e0b1d0",
            "nama_pse": "BENESSE INDONESIA",
            "nama_se": "WWW.SHIMAJIRO.ID",
            "sektor": "Sektor Perdagangan, Sektor Perdagangan",
            "tanggal_terbit": "2021-10-12",
            "url_tdpse_detail": "https://pse.komdigi.go.id/tdpse-detail/1994",
            "website": "SHIMAJIRO.ID"
        },
        {
            "id": "9cb1ab91-fb58-4707-9775-a8ea15425034",
            "nama_pse": "MOLADIN DIGITAL INDONESIA",
            "nama_se": "MOLADIN INDONESIA",
            "sektor": "Sektor Perdagangan, Sektor Transportasi, Sektor Keuangan",
            "tanggal_terbit": "2021-10-12",
            "url_tdpse_detail": "https://pse.komdigi.go.id/tdpse-detail/1981",
            "website": "moladin.com"
        }
    ],
    "processingTimeMs": 11,
    "query": "",
    "totalHits": 19121,
    "hitsPerPage": 50,
    "page": 345,
    "totalPages": 383
}