{
    "hits": [
        {
            "id": "9cb1abcd-7e64-4ca0-81f4-6544fb874d08",
            "nama_pse": "BANK PERKREDITAN RAKYAT OLYMPINDO PRIMADANA",
            "nama_se": "BPROLYMPINDO.CO.ID",
            "sektor": "Sektor Keuangan",
            "tanggal_terbit": "2022-07-25",
            "url_tdpse_detail": "https://pse.komdigi.go.id/tdpse-detail/8958",
            "website": "bprolympindo.co.id"
        },
        {
            "id": "9cb1abbd-6eaa-4e6c-80d1-25881ed162c5",
            "nama_pse": "ANALISA DATA SOLUSINDO",
            "nama_se": "MYFIEST",
            "sektor": "Sektor Perdagangan",
            "tanggal_terbit": "2022-07-25",
            "url_tdpse_detail": "https://pse.komdigi.go.id/tdpse-detail/8947",
            "website": "myfiest.id"
        },
        {
            "id": "9cb1abcd-81fa-4110-b523-f6e3cf5e21c0",
            "nama_pse": "ANALISA DATA SOLUSINDO",
            "nama_se": "FARMFIZ",
            "sektor": "Sektor Pangan",
            "tanggal_terbit": "2022-07-25",
            "url_tdpse_detail": "https://pse.komdigi.go.id/tdpse-detail/8948",
            "website": "farmfiz.com"
        },
        {
            "id": "9cb1abf3-81b0-4309-a781-d216454ce377",
            "nama_pse": "BANK PERKREDITAN RAKYAT TRI GUNUNG SELATAN",
            "nama_se": "WEBSITE RESMI PT BPR TRI GUNUNG SELATAN",
            "sektor": "Sektor Keuangan",
            "tanggal_terbit": "2022-07-25",
            "url_tdpse_detail": "https://pse.komdigi.go.id/tdpse-detail/8949",
            "website": "bprtrigunungselatan.com"
        },
        {
            "id": "9cb1abcd-8620-493b-8fa7-3c1581f0e4c5",
            "nama_pse": "KORPORA TRAININDO CONSULTANT",
            "nama_se": "PASTIPRESTASI.COM",
            "sektor": "Sektor Perdagangan",
            "tanggal_terbit": "2022-07-25",
            "url_tdpse_detail": "https://pse.komdigi.go.id/tdpse-detail/8953",
            "website": "pastiprestasi.com"
        },
        {
            "id": "9cb1abbd-7142-4584-aedb-22f0e23f828b",
            "nama_pse": "BANK PEREKONOMIAN RAKYAT TULUS",
            "nama_se": "IBS USSI",
            "sektor": "Sektor Keuangan",
            "tanggal_terbit": "2022-07-25",
            "url_tdpse_detail": "https://pse.komdigi.go.id/tdpse-detail/8951",
            "website": "bprtulus.com"
        },
        {
            "id": "9cb1abbd-72f9-4fea-9857-2b4500b5ec4e",
            "nama_pse": "ANALISA DATA SOLUSINDO",
            "nama_se": "RENTHOZ",
            "sektor": "Sektor Perdagangan",
            "tanggal_terbit": "2022-07-25",
            "url_tdpse_detail": "https://pse.komdigi.go.id/tdpse-detail/8952",
            "website": "renthoz.com"
        },
        {
            "id": "9cb1abbd-7547-4bc4-8131-9a26e6e1e855",
            "nama_pse": "BANK PERKREDITAN RAKYAT ANUGERAHDHARMA YUWANA BANYUWANGI",
            "nama_se": "PT. BPR ADY BANYUWANGI",
            "sektor": "Sektor Keuangan",
            "tanggal_terbit": "2022-07-25",
            "url_tdpse_detail": "https://pse.komdigi.go.id/tdpse-detail/8954",
            "website": "adybanyuwangi.co.id"
        },
        {
            "id": "9cb1abcd-8a81-4644-ab8f-ec864ed31ec1",
            "nama_pse": "LOYALTY PROGRAM INDONESIA",
            "nama_se": "QOINPAY",
            "sektor": "Sektor Teknologi Informasi dan Komunikasi",
            "tanggal_terbit": "2022-07-25",
            "url_tdpse_detail": "https://pse.komdigi.go.id/tdpse-detail/8955",
            "website": "-"
        },
        {
            "id": "9cb1abf3-85d1-42ac-88ec-7c88973f94b2",
            "nama_pse": "LIPPO GENERAL INSURANCE",
            "nama_se": "EBENEFIT GENERAL",
            "sektor": "Sektor Perdagangan",
            "tanggal_terbit": "2022-07-25",
            "url_tdpse_detail": "https://pse.komdigi.go.id/tdpse-detail/8960",
            "website": "ebenefit.id"
        },
        {
            "id": "9cb1abf3-8b28-4a95-b1ad-e328f428c924",
            "nama_pse": "SAMSUNG ELECTRONICS INDONESIA",
            "nama_se": "KNOX GUARD",
            "sektor": "Sektor Teknologi Informasi dan Komunikasi",
            "tanggal_terbit": "2022-07-25",
            "url_tdpse_detail": "https://pse.komdigi.go.id/tdpse-detail/8956",
            "website": "samsungknox.com"
        },
        {
            "id": "9cb1abcd-9020-4dd7-9f30-a712dd89a0d6",
            "nama_pse": "CENTRAL CREATIVE SOLUTION",
            "nama_se": "APP.MEDICLOUD.ID",
            "sektor": "Sektor Kesehatan",
            "tanggal_terbit": "2022-07-25",
            "url_tdpse_detail": "https://pse.komdigi.go.id/tdpse-detail/8957",
            "website": "medicloud.id"
        },
        {
            "id": "9cb1abcd-9466-453e-a72c-be557204dfef",
            "nama_pse": "ENERGI SELALU BARU",
            "nama_se": "SISTEM GANTI BATERAI",
            "sektor": "Sektor Transportasi, Sektor Teknologi Informasi dan Komunikasi",
            "tanggal_terbit": "2022-07-25",
            "url_tdpse_detail": "https://pse.komdigi.go.id/tdpse-detail/8962",
            "website": "voltaindonesia.com"
        },
        {
            "id": "9cb1abbd-77e3-4ec5-9791-d4bab88c4f74",
            "nama_pse": "LIPPO GENERAL INSURANCE",
            "nama_se": "EBENEFIT HEALTH",
            "sektor": "Sektor Perdagangan",
            "tanggal_terbit": "2022-07-25",
            "url_tdpse_detail": "https://pse.komdigi.go.id/tdpse-detail/8959",
            "website": "ebenefit.id"
        },
        {
            "id": "9cb1abbd-79d9-4aba-8379-30d2d90c5446",
            "nama_pse": "BANK PERKREDITAN RAKYAT CINCIN PERMATA ANDALAS",
            "nama_se": "SAK-ETAP",
            "sektor": "Sektor Keuangan",
            "tanggal_terbit": "2022-07-25",
            "url_tdpse_detail": "https://pse.komdigi.go.id/tdpse-detail/8961",
            "website": "-"
        },
        {
            "id": "9cb1abbd-7bc9-4b7c-ad34-44e8b86b5d0e",
            "nama_pse": "SOLID GOLD BERJANGKA",
            "nama_se": "PORTAL NEWS",
            "sektor": "Sektor Perdagangan, Sektor Keuangan",
            "tanggal_terbit": "2022-07-25",
            "url_tdpse_detail": "https://pse.komdigi.go.id/tdpse-detail/8964",
            "website": "sg-insight.com"
        },
        {
            "id": "9cb1abcd-a6a7-46fe-a414-8dbab9a28e1a",
            "nama_pse": "KORPORA TRAININDO CONSULTANT",
            "nama_se": "ONBODY.ID",
            "sektor": "Sektor Perdagangan",
            "tanggal_terbit": "2022-07-25",
            "url_tdpse_detail": "https://pse.komdigi.go.id/tdpse-detail/8965",
            "website": "onbody.id"
        },
        {
            "id": "9cb1abcd-aa4f-4d87-a771-6f486fbe3965",
            "nama_pse": "BANK PEREKONOMIAN RAKYAT HARI DEPAN",
            "nama_se": "WEBSITE COMPANY PROFIL BPR",
            "sektor": "Sektor Keuangan",
            "tanggal_terbit": "2022-07-25",
            "url_tdpse_detail": "https://pse.komdigi.go.id/tdpse-detail/8966",
            "website": "bprharidepan.net"
        },
        {
            "id": "9cb1abf3-909b-4b26-b207-35199fd5ca83",
            "nama_pse": "INKLUSI KEUANGAN NASIONAL",
            "nama_se": "BUTUH MODAL",
            "sektor": "Sektor Keuangan",
            "tanggal_terbit": "2022-07-25",
            "url_tdpse_detail": "https://pse.komdigi.go.id/tdpse-detail/8967",
            "website": "butuhmodal.co.id"
        },
        {
            "id": "9cb1abf3-94aa-48f3-b7ff-f997216ed802",
            "nama_pse": "KORPORA TRAININDO CONSULTANT",
            "nama_se": "SALESUNIVERSITY.ID",
            "sektor": "Sektor Perdagangan",
            "tanggal_terbit": "2022-07-25",
            "url_tdpse_detail": "https://pse.komdigi.go.id/tdpse-detail/8968",
            "website": "salesuniversity.id"
        },
        {
            "id": "9cb1abf3-982e-4d3e-8972-41db7979f8c9",
            "nama_pse": "SOLUSI PASTI INDONESIA",
            "nama_se": "KASPRO",
            "sektor": "Sektor Teknologi Informasi dan Komunikasi",
            "tanggal_terbit": "2022-07-25",
            "url_tdpse_detail": "https://pse.komdigi.go.id/tdpse-detail/8969",
            "website": "kaspro.id"
        },
        {
            "id": "9cb1abbd-7d96-4069-a008-2e783ea1b461",
            "nama_pse": "BANK PEREKONOMIAN RAKYAT DINAR PUSAKA",
            "nama_se": "BANK PERKREDITAN RAKYAT DINAR PUSAKA",
            "sektor": "Sektor Keuangan",
            "tanggal_terbit": "2022-07-25",
            "url_tdpse_detail": "https://pse.komdigi.go.id/tdpse-detail/8970",
            "website": "DINARPUSAKA.CO.ID"
        },
        {
            "id": "9cb1abbd-7f4d-4d39-bb32-1e6b089c9019",
            "nama_pse": "RONALD ROFIANDRI",
            "nama_se": "LEGISTERAKTIF.ID",
            "sektor": "Sektor Perdagangan",
            "tanggal_terbit": "2022-07-25",
            "url_tdpse_detail": "https://pse.komdigi.go.id/tdpse-detail/8971",
            "website": "Legisteraktif.id"
        },
        {
            "id": "9cb1abf3-9c07-4835-a8ba-a5982f90abf9",
            "nama_pse": "BAHTIAR MAKMUN",
            "nama_se": "THE INDONESIA ADVENTURE",
            "sektor": "Sektor Teknologi Informasi dan Komunikasi",
            "tanggal_terbit": "2022-07-25",
            "url_tdpse_detail": "https://pse.komdigi.go.id/tdpse-detail/8972",
            "website": "theindonesiaadventure.com"
        },
        {
            "id": "9cb1abcd-ae38-4913-8d2c-c7bc17fd3961",
            "nama_pse": "BANK PEREKONOMIAN RAKYAT NUR SEMESTA INDAH",
            "nama_se": "WEBSITE PT. BPR NUR SEMESTA INDAH",
            "sektor": "Sektor Keuangan",
            "tanggal_terbit": "2022-07-25",
            "url_tdpse_detail": "https://pse.komdigi.go.id/tdpse-detail/8973",
            "website": "bprnsi.co.id"
        },
        {
            "id": "9cb1abbd-818c-4422-b2aa-2987b627ee73",
            "nama_pse": "BANK PEREKONOMIAN RAKYAT GISAWA",
            "nama_se": "IBS CORE BANKING SYSTEM",
            "sektor": "Sektor Keuangan",
            "tanggal_terbit": "2022-07-25",
            "url_tdpse_detail": "https://pse.komdigi.go.id/tdpse-detail/8974",
            "website": "-"
        },
        {
            "id": "9cb1abcd-ba6d-4db5-a16d-2e56db0087bd",
            "nama_pse": "BIOVITAL VICTORIA INDONESIA",
            "nama_se": "WWW.BIOVITAL.CO.ID",
            "sektor": "Sektor Perdagangan",
            "tanggal_terbit": "2022-07-25",
            "url_tdpse_detail": "https://pse.komdigi.go.id/tdpse-detail/9015",
            "website": "biovital.co.id"
        },
        {
            "id": "9cb1abcd-bfd7-4fe8-b91f-3aa45790ce35",
            "nama_pse": "BANK PERKREDITAN RAKYAT BALI DANANIAGA",
            "nama_se": "IBS_07",
            "sektor": "Sektor Keuangan",
            "tanggal_terbit": "2022-07-25",
            "url_tdpse_detail": "https://pse.komdigi.go.id/tdpse-detail/8975",
            "website": "-"
        },
        {
            "id": "9cb1abcd-c2f3-4659-87c6-afcaaf52d410",
            "nama_pse": "PERTAMINA PATRA NIAGA",
            "nama_se": "DASHBOARD DIGITALISASI SPBU",
            "sektor": "Sektor Teknologi Informasi dan Komunikasi",
            "tanggal_terbit": "2022-07-25",
            "url_tdpse_detail": "https://pse.komdigi.go.id/tdpse-detail/8976",
            "website": "dashboard.spbu.id"
        },
        {
            "id": "9cb1abcd-c5b4-4000-b2dd-90de0eb67f96",
            "nama_pse": "BUMIPUTERA SEKURITAS",
            "nama_se": "BUMIPUTERA ONLINE TRADING (BPOT)",
            "sektor": "Sektor Keuangan",
            "tanggal_terbit": "2022-07-25",
            "url_tdpse_detail": "https://pse.komdigi.go.id/tdpse-detail/8977",
            "website": "bumiputerasekuritas.co.id"
        },
        {
            "id": "9cb1abf3-a01e-413b-af66-57df3f390289",
            "nama_pse": "SANTAI BERKUALITAS SYBERINDO",
            "nama_se": "SANBERCODE",
            "sektor": "Sektor Teknologi Informasi dan Komunikasi",
            "tanggal_terbit": "2022-07-25",
            "url_tdpse_detail": "https://pse.komdigi.go.id/tdpse-detail/8978",
            "website": "SANBERCODE.COM"
        },
        {
            "id": "9cb1abbd-83ad-40fe-aca1-ec2e160dd3be",
            "nama_pse": "PERTAMINA PATRA NIAGA",
            "nama_se": "INFORMS",
            "sektor": "Sektor Teknologi Informasi dan Komunikasi",
            "tanggal_terbit": "2022-07-25",
            "url_tdpse_detail": "https://pse.komdigi.go.id/tdpse-detail/8979",
            "website": "-"
        },
        {
            "id": "9cb1abcd-c870-45a8-b193-a99f08c3dbd4",
            "nama_pse": "SOLID GOLD BERJANGKA",
            "nama_se": "REGOLSGB",
            "sektor": "Sektor Perdagangan, Sektor Keuangan",
            "tanggal_terbit": "2022-07-25",
            "url_tdpse_detail": "https://pse.komdigi.go.id/tdpse-detail/8980",
            "website": "regol.solidgold.co.id"
        },
        {
            "id": "9cb1abf3-a3f2-480c-a112-05efea91ef99",
            "nama_pse": "BANK PEREKONOMIAN RAKYAT GISAWA",
            "nama_se": "WEBSITE PT. BPR GISAWA",
            "sektor": "Sektor Keuangan",
            "tanggal_terbit": "2022-07-25",
            "url_tdpse_detail": "https://pse.komdigi.go.id/tdpse-detail/8981",
            "website": "bprgisawa.co.id"
        },
        {
            "id": "9cb1abcd-cbc2-4e59-acde-01abcc963dac",
            "nama_pse": "BANK PEREKONOMIAN RAKYAT ROGOJAMPI ARTHA NIAGA",
            "nama_se": "PT BPR ROGOJAMPI ARTHA NIAGA",
            "sektor": "Sektor Keuangan",
            "tanggal_terbit": "2022-07-25",
            "url_tdpse_detail": "https://pse.komdigi.go.id/tdpse-detail/8982",
            "website": "bprrani.co.id"
        },
        {
            "id": "9cb1abf3-a7e5-4e32-a0a7-8d3ac408e8dd",
            "nama_pse": "BANK PEREKONOMIAN RAKYAT NUSAMBA TANJUNGSARI",
            "nama_se": "BPR NUSAMBA TANJUNGSARI",
            "sektor": "Sektor Keuangan",
            "tanggal_terbit": "2022-07-25",
            "url_tdpse_detail": "https://pse.komdigi.go.id/tdpse-detail/8983",
            "website": "bprnusamba-tanjungsari.com"
        },
        {
            "id": "9cb1abcd-d01d-453f-b566-b40b613cc358",
            "nama_pse": "SOLUSI SELLER INDONESIA",
            "nama_se": "SOLUSI SELLER INDONESIA",
            "sektor": "Sektor Teknologi Informasi dan Komunikasi",
            "tanggal_terbit": "2022-07-25",
            "url_tdpse_detail": "https://pse.komdigi.go.id/tdpse-detail/8984",
            "website": "bigseller.com"
        },
        {
            "id": "9cb1abbd-87b3-487d-aef0-094e0b9212b8",
            "nama_pse": "HONDA PROSPECT MOTOR",
            "nama_se": "WEBSITE HONDA INDONESIA",
            "sektor": "Sektor Perdagangan",
            "tanggal_terbit": "2022-07-25",
            "url_tdpse_detail": "https://pse.komdigi.go.id/tdpse-detail/8985",
            "website": "honda-indonesia.com"
        },
        {
            "id": "9cb1abf3-ac9a-4ed1-8d50-dc11c9368a51",
            "nama_pse": "BANK PEMBANGUNAN DAERAH BANTEN PERSERODA",
            "nama_se": "COORPORATE WEBSITE",
            "sektor": "Sektor Keuangan",
            "tanggal_terbit": "2022-07-25",
            "url_tdpse_detail": "https://pse.komdigi.go.id/tdpse-detail/8988",
            "website": "bankbanten.co.id"
        },
        {
            "id": "9cb1abbd-908d-4044-b0b5-232be2c9c548",
            "nama_pse": "ANALISA DATA SOLUSINDO",
            "nama_se": "BLAZT",
            "sektor": "Sektor Teknologi Informasi dan Komunikasi",
            "tanggal_terbit": "2022-07-25",
            "url_tdpse_detail": "https://pse.komdigi.go.id/tdpse-detail/8987",
            "website": "blazt.online"
        },
        {
            "id": "9cb1abf3-b1f0-4adf-96fc-2999acb99e01",
            "nama_pse": "SOLID GOLD BERJANGKA",
            "nama_se": "OFFICIAL WEBSITE",
            "sektor": "Sektor Perdagangan, Sektor Keuangan",
            "tanggal_terbit": "2022-07-25",
            "url_tdpse_detail": "https://pse.komdigi.go.id/tdpse-detail/8992",
            "website": "sg-berjangka.com"
        },
        {
            "id": "9cb1abbd-9c3b-4a91-a64c-8ee092bf21ac",
            "nama_pse": "HONDA PROSPECT MOTOR",
            "nama_se": "LEADS MANAGEMENT SYSTEM",
            "sektor": "Sektor Perdagangan",
            "tanggal_terbit": "2022-07-25",
            "url_tdpse_detail": "https://pse.komdigi.go.id/tdpse-detail/8990",
            "website": "lms.hpm.co.id"
        },
        {
            "id": "9cb1abcd-d342-42ee-b3dc-9f2155b0d155",
            "nama_pse": "ANALISA DATA SOLUSINDO",
            "nama_se": "ARTSKY",
            "sektor": "Sektor Teknologi Informasi dan Komunikasi",
            "tanggal_terbit": "2022-07-25",
            "url_tdpse_detail": "https://pse.komdigi.go.id/tdpse-detail/8989",
            "website": "artsky.cloud"
        },
        {
            "id": "9cb1abf3-c9e0-43f8-82b3-5136e2a6c92d",
            "nama_pse": "CYBERINDO SINERGI SISTEM",
            "nama_se": "NIMBUS9.TECH",
            "sektor": "Sektor Teknologi Informasi dan Komunikasi",
            "tanggal_terbit": "2022-07-25",
            "url_tdpse_detail": "https://pse.komdigi.go.id/tdpse-detail/8991",
            "website": "nimbus9.tech"
        },
        {
            "id": "9cb1abbd-a249-410d-bcec-0a1e4fa5ee9d",
            "nama_pse": "PATRA JASA",
            "nama_se": "WEBSITE PATRA HOTEL",
            "sektor": "Sektor Perdagangan",
            "tanggal_terbit": "2022-07-25",
            "url_tdpse_detail": "https://pse.komdigi.go.id/tdpse-detail/8997",
            "website": "patrahotelsandresorts.com"
        },
        {
            "id": "9cb1abbd-a81d-48dd-9235-a849ec148fef",
            "nama_pse": "SARANA DISTINDO MAKMUR",
            "nama_se": "DISTINDO.COM",
            "sektor": "Sektor Perdagangan",
            "tanggal_terbit": "2022-07-25",
            "url_tdpse_detail": "https://pse.komdigi.go.id/tdpse-detail/8993",
            "website": "distindo.com"
        },
        {
            "id": "9cb1abbd-ab9f-40d1-86ca-6bf83d16ff9e",
            "nama_pse": "BANK PERKREDITAN RAKYAT TRISURYA BUMINDO",
            "nama_se": "BETASOFT",
            "sektor": "Sektor Keuangan",
            "tanggal_terbit": "2022-07-25",
            "url_tdpse_detail": "https://pse.komdigi.go.id/tdpse-detail/8996",
            "website": "bprtrisuryalpg.co.id"
        },
        {
            "id": "9cb1abcd-d79a-4116-a63e-a5be58d4d4c2",
            "nama_pse": "SUSANTO BERSAUDARA INTERMEDIA PERS",
            "nama_se": "FAKTUALNEWS.CO",
            "sektor": "Sektor Teknologi Informasi dan Komunikasi",
            "tanggal_terbit": "2022-07-25",
            "url_tdpse_detail": "https://pse.komdigi.go.id/tdpse-detail/8998",
            "website": "faktualnews.co"
        },
        {
            "id": "9cb1abf3-d94e-40bc-aec3-3477bc419f5f",
            "nama_pse": "PATRA JASA",
            "nama_se": "WEBSITE HOTEL BALI",
            "sektor": "Sektor Perdagangan",
            "tanggal_terbit": "2022-07-25",
            "url_tdpse_detail": "https://pse.komdigi.go.id/tdpse-detail/8999",
            "website": "thepatrabali.com"
        },
        {
            "id": "9cb1abcd-db87-42a5-8c8a-8a65fdaa78b6",
            "nama_pse": "REYHAN PUTRA MANDIRI",
            "nama_se": "REMITPRO",
            "sektor": "Sektor Keuangan",
            "tanggal_terbit": "2022-07-25",
            "url_tdpse_detail": "https://pse.komdigi.go.id/tdpse-detail/9000",
            "website": "remitpro.id"
        }
    ],
    "processingTimeMs": 5,
    "query": "",
    "totalHits": 19131,
    "hitsPerPage": 50,
    "page": 221,
    "totalPages": 383
}