{
    "hits": [
        {
            "id": "9cb1abfd-744d-4300-9589-7dba57e2b6cc",
            "nama_pse": "IDE DEF GHI",
            "nama_se": "NUPOS",
            "sektor": "Sektor Teknologi Informasi dan Komunikasi",
            "tanggal_terbit": "2022-08-16",
            "url_tdpse_detail": "https://pse.komdigi.go.id/tdpse-detail/10436",
            "website": "nupos.id"
        },
        {
            "id": "9cb1abd7-9dd0-46d5-ba1d-fcd6a760b34a",
            "nama_pse": "CITIBANK, N.A.",
            "nama_se": "CITIDIRECT BE PORTAL",
            "sektor": "Sektor Keuangan",
            "tanggal_terbit": "2022-08-16",
            "url_tdpse_detail": "https://pse.komdigi.go.id/tdpse-detail/10437",
            "website": "citidirect.com"
        },
        {
            "id": "9cb1ac0c-4f1e-47ad-b1f6-4e75e5879bdc",
            "nama_pse": "INFORMATIKA TEKNOLOGI INDONESIA",
            "nama_se": "HRDPINTAR",
            "sektor": "Sektor Teknologi Informasi dan Komunikasi",
            "tanggal_terbit": "2022-08-16",
            "url_tdpse_detail": "https://pse.komdigi.go.id/tdpse-detail/10438",
            "website": "hrdpintar.com"
        },
        {
            "id": "9cb1ac0c-5348-413c-825f-736c24d656c3",
            "nama_pse": "CITIBANK, N.A.",
            "nama_se": "CITIFX PULSE",
            "sektor": "Sektor Keuangan",
            "tanggal_terbit": "2022-08-16",
            "url_tdpse_detail": "https://pse.komdigi.go.id/tdpse-detail/10439",
            "website": "citifxpulse.com"
        },
        {
            "id": "9cb1ac0c-56aa-45da-979d-feb16ae4a09b",
            "nama_pse": "CITIBANK, N.A.",
            "nama_se": "CITIBANK ONLINE",
            "sektor": "Sektor Keuangan",
            "tanggal_terbit": "2022-08-16",
            "url_tdpse_detail": "https://pse.komdigi.go.id/tdpse-detail/10440",
            "website": "citibank.co.id"
        },
        {
            "id": "9cb1ac0c-5dc1-4d5e-a4b8-6ed65b1e062c",
            "nama_pse": "IDEMAS SOLUSINDO SENTOSA",
            "nama_se": "ASETKITA",
            "sektor": "Sektor Teknologi Informasi dan Komunikasi",
            "tanggal_terbit": "2022-08-16",
            "url_tdpse_detail": "https://pse.komdigi.go.id/tdpse-detail/10442",
            "website": "asetkita.id"
        },
        {
            "id": "9cb1abfd-7b98-4636-8378-16849cb972fe",
            "nama_pse": "BANK PEMBIAYAAN RAKYAT SYARIAH FAJAR SEJAHTERA BALI",
            "nama_se": "WEBSITE",
            "sektor": "Sektor Keuangan",
            "tanggal_terbit": "2022-08-16",
            "url_tdpse_detail": "https://pse.komdigi.go.id/tdpse-detail/10446",
            "website": "bprsfajarbali.com"
        },
        {
            "id": "9cb1abd7-a576-48ea-96e0-cfe9e6145f6b",
            "nama_pse": "CITIBANK, N.A.",
            "nama_se": "GC MOBILE - INDONESIA",
            "sektor": "Sektor Keuangan",
            "tanggal_terbit": "2022-08-16",
            "url_tdpse_detail": "https://pse.komdigi.go.id/tdpse-detail/10447",
            "website": "citibank.co.id"
        },
        {
            "id": "9cb1ac0c-6180-4551-b75c-d67cbd3f3152",
            "nama_pse": "CITIBANK, N.A.",
            "nama_se": "CHAT CITIBANK",
            "sektor": "Sektor Keuangan",
            "tanggal_terbit": "2022-08-16",
            "url_tdpse_detail": "https://pse.komdigi.go.id/tdpse-detail/10448",
            "website": "citibank.co.id"
        },
        {
            "id": "9cb1abd7-a8de-4f18-9cdb-8c31ea5f544a",
            "nama_pse": "CITIBANK, N.A.",
            "nama_se": "CITI.NET",
            "sektor": "Sektor Keuangan",
            "tanggal_terbit": "2022-08-16",
            "url_tdpse_detail": "https://pse.komdigi.go.id/tdpse-detail/10449",
            "website": "citi.net"
        },
        {
            "id": "9cb1abfd-81ca-4373-860f-b8bee37a5465",
            "nama_pse": "CITIBANK, N.A.",
            "nama_se": "CITI.COM",
            "sektor": "Sektor Keuangan",
            "tanggal_terbit": "2022-08-16",
            "url_tdpse_detail": "https://pse.komdigi.go.id/tdpse-detail/10450",
            "website": "citi.com"
        },
        {
            "id": "9cb1abfd-850d-4a54-bba8-554d2c55ef4b",
            "nama_pse": "PENJAMINAN JAMKRINDO SYARIAH",
            "nama_se": "APLIKASI CEK KEABSAHAN SERTIFIKAT KAFALAH",
            "sektor": "Sektor Teknologi Informasi dan Komunikasi",
            "tanggal_terbit": "2022-08-16",
            "url_tdpse_detail": "https://pse.komdigi.go.id/tdpse-detail/10451",
            "website": "keabsahan.jamkrindosyariah.co.id"
        },
        {
            "id": "9cb1abfd-8901-410c-b165-130475e0fe47",
            "nama_pse": "CITIBANK, N.A.",
            "nama_se": "CITIBANK.COM",
            "sektor": "Sektor Keuangan",
            "tanggal_terbit": "2022-08-16",
            "url_tdpse_detail": "https://pse.komdigi.go.id/tdpse-detail/10452",
            "website": "citibank.com"
        },
        {
            "id": "9cb1abd7-acfb-4c61-baaa-0f675fa1fedb",
            "nama_pse": "CITIBANK, N.A.",
            "nama_se": "API SANDBOX",
            "sektor": "Sektor Keuangan",
            "tanggal_terbit": "2022-08-16",
            "url_tdpse_detail": "https://pse.komdigi.go.id/tdpse-detail/10453",
            "website": "citi.com"
        },
        {
            "id": "9cb1ac0c-64ed-46ec-961d-4bd0884554d5",
            "nama_pse": "CITIBANK, N.A.",
            "nama_se": "CITI CUSTOM REPORTING SYSTEM (CCRS)",
            "sektor": "Sektor Keuangan",
            "tanggal_terbit": "2022-08-16",
            "url_tdpse_detail": "https://pse.komdigi.go.id/tdpse-detail/10454",
            "website": "citidirect.com"
        },
        {
            "id": "9cb1ac0c-6858-4790-902b-127577638fab",
            "nama_pse": "CITIBANK, N.A.",
            "nama_se": "TTS CLIENT KNOWLEDGE CENTER",
            "sektor": "Sektor Keuangan",
            "tanggal_terbit": "2022-08-16",
            "url_tdpse_detail": "https://pse.komdigi.go.id/tdpse-detail/10455",
            "website": "citibank.com"
        },
        {
            "id": "9cb1abd7-b0e0-4ec9-a38e-8054b72b5a0d",
            "nama_pse": "RAJADATA PARAMA TRANSNETWORK",
            "nama_se": "RAJADATA",
            "sektor": "Sektor Teknologi Informasi dan Komunikasi",
            "tanggal_terbit": "2022-08-16",
            "url_tdpse_detail": "https://pse.komdigi.go.id/tdpse-detail/10456",
            "website": "rajadata.com"
        },
        {
            "id": "9cb1ac0c-6b9e-4f0a-bb38-612eab76a7d4",
            "nama_pse": "IQ EDUKASI",
            "nama_se": "COLEARN",
            "sektor": "Sektor Teknologi Informasi dan Komunikasi",
            "tanggal_terbit": "2022-08-16",
            "url_tdpse_detail": "https://pse.komdigi.go.id/tdpse-detail/10457",
            "website": "colearn.id"
        },
        {
            "id": "9cb1abd7-b719-4724-bb04-57b64a6cd731",
            "nama_pse": "JUPITER JALA ARTA",
            "nama_se": "JUPITER",
            "sektor": "Sektor Teknologi Informasi dan Komunikasi",
            "tanggal_terbit": "2022-08-16",
            "url_tdpse_detail": "https://pse.komdigi.go.id/tdpse-detail/10458",
            "website": "jupiterdc.com"
        },
        {
            "id": "9cb1abd7-bcdb-433a-88ce-3c63e11312c6",
            "nama_pse": "BANK PEMBIAYAAN RAKYAT SYARIAH RIYAL IRSYADI",
            "nama_se": "IBA",
            "sektor": "Sektor Keuangan",
            "tanggal_terbit": "2022-08-16",
            "url_tdpse_detail": "https://pse.komdigi.go.id/tdpse-detail/10461",
            "website": "-"
        },
        {
            "id": "9cb1ac0c-7029-48c3-bd7e-c0253043ba08",
            "nama_pse": "MULIA INOVASI DIGITAL",
            "nama_se": "DANAIN",
            "sektor": "Sektor Keuangan",
            "tanggal_terbit": "2022-08-16",
            "url_tdpse_detail": "https://pse.komdigi.go.id/tdpse-detail/10459",
            "website": "danain.co.id"
        },
        {
            "id": "9cb1abfd-905d-43af-8596-c0f6755a8247",
            "nama_pse": "ASEP ROHIMAT",
            "nama_se": "WEBSITE PRIBADI ASEP ROHIMAT",
            "sektor": "Sektor Teknologi Informasi dan Komunikasi",
            "tanggal_terbit": "2022-08-16",
            "url_tdpse_detail": "https://pse.komdigi.go.id/tdpse-detail/10460",
            "website": "aseprohimat.id"
        },
        {
            "id": "9cb1abfc-a968-4eed-a43a-f3ce6f3f14a1",
            "nama_pse": "TRIAS MITRA JAYA MANUNGGAL",
            "nama_se": "WEBSITE WWW.EPAYROLL.ID",
            "sektor": "Sektor Keuangan",
            "tanggal_terbit": "2022-08-15",
            "url_tdpse_detail": "https://pse.komdigi.go.id/tdpse-detail/10342",
            "website": "epayroll.id"
        },
        {
            "id": "9cb1abfc-cfef-4f85-9135-2eef7e5af605",
            "nama_pse": "EDUCA SISFOMEDIA INDONESIA",
            "nama_se": "GAMELAB INDONESIA",
            "sektor": "Sektor Teknologi Informasi dan Komunikasi",
            "tanggal_terbit": "2022-08-15",
            "url_tdpse_detail": "https://pse.komdigi.go.id/tdpse-detail/10339",
            "website": "gamelab.id"
        },
        {
            "id": "9cb1ac0b-d141-4218-a3d9-503ea8bc1b1b",
            "nama_pse": "DIAN AGUSTINI",
            "nama_se": "PELANGI INDODATA",
            "sektor": "Sektor Teknologi Informasi dan Komunikasi",
            "tanggal_terbit": "2022-08-15",
            "url_tdpse_detail": "https://pse.komdigi.go.id/tdpse-detail/10340",
            "website": "pelangi.co.id"
        },
        {
            "id": "9cb1ac0b-d4ed-4931-82fd-49e0f845e16c",
            "nama_pse": "BANK PEMBANGUNAN DAERAH SUMATERA SELATAN DAN BANGKA BELITUNG",
            "nama_se": "LAYANAN WEBSITE KORPORASI BANK SUMSEL BABEL",
            "sektor": "Sektor Keuangan",
            "tanggal_terbit": "2022-08-15",
            "url_tdpse_detail": "https://pse.komdigi.go.id/tdpse-detail/10341",
            "website": "banksumselbabel.com"
        },
        {
            "id": "9cb1ac0b-d823-43b7-8647-fb10040e313e",
            "nama_pse": "JPMORGAN CHASE BANK, N.A.",
            "nama_se": "JP MORGAN ACCESS INTERNET DAN JP MORGAN ACCESS MOBILE",
            "sektor": "Sektor Keuangan",
            "tanggal_terbit": "2022-08-15",
            "url_tdpse_detail": "https://pse.komdigi.go.id/tdpse-detail/10343",
            "website": "access.jpmorgan.com"
        },
        {
            "id": "9cb1ac0b-db36-43dc-bf83-8da942885ace",
            "nama_pse": "AEON CREDIT SERVICE INDONESIA",
            "nama_se": "AEON FAST (PEMBIAYAAN KONSUMEN) DAN ONLINE APPLICATION (PEMBIAYAAN KARTU KREDIT)",
            "sektor": "Sektor Keuangan",
            "tanggal_terbit": "2022-08-15",
            "url_tdpse_detail": "https://pse.komdigi.go.id/tdpse-detail/10344",
            "website": "aeon.co.id"
        },
        {
            "id": "9cb1abfc-dbec-4649-b00c-19386aaa5464",
            "nama_pse": "ASURANSI JIWA SEQUIS LIFE",
            "nama_se": "SOVERA",
            "sektor": "Sektor Keuangan",
            "tanggal_terbit": "2022-08-15",
            "url_tdpse_detail": "https://pse.komdigi.go.id/tdpse-detail/10349",
            "website": "sovera.sequis.co.id"
        },
        {
            "id": "9cb1abfc-e522-424d-bcb3-8b78bfa70bbf",
            "nama_pse": "NORE INOVASI",
            "nama_se": "NORE INOVASI",
            "sektor": "Sektor Teknologi Informasi dan Komunikasi",
            "tanggal_terbit": "2022-08-15",
            "url_tdpse_detail": "https://pse.komdigi.go.id/tdpse-detail/10346",
            "website": "nore.web.id"
        },
        {
            "id": "9cb1abfc-e9ac-4810-a920-c6f7fde950a6",
            "nama_pse": "YUREKA EDUKASI CIPTA",
            "nama_se": "YUREKA EDUCATION CENTER",
            "sektor": "Sektor Perdagangan",
            "tanggal_terbit": "2022-08-15",
            "url_tdpse_detail": "https://pse.komdigi.go.id/tdpse-detail/10348",
            "website": "yec.co.id"
        },
        {
            "id": "9cb1abfc-ed8d-4758-9547-3d359cf08e6b",
            "nama_pse": "DIGDAYA DUTA DIGITAL",
            "nama_se": "DENS.TV",
            "sektor": "Sektor Teknologi Informasi dan Komunikasi",
            "tanggal_terbit": "2022-08-15",
            "url_tdpse_detail": "https://pse.komdigi.go.id/tdpse-detail/10350",
            "website": "dens.tv"
        },
        {
            "id": "9cb1ac0b-e1af-4f74-833f-8c26dfbbdf2c",
            "nama_pse": "TRIBUN DIGITAL ONLINE",
            "nama_se": "TRIBUNJAKARTA.COM",
            "sektor": "Sektor Teknologi Informasi dan Komunikasi",
            "tanggal_terbit": "2022-08-15",
            "url_tdpse_detail": "https://pse.komdigi.go.id/tdpse-detail/10351",
            "website": "tribunjakarta.com"
        },
        {
            "id": "9cb1abd7-0f94-4ab9-862f-9aa8d97c7581",
            "nama_pse": "TRIBUN DIGITAL ONLINE",
            "nama_se": "TRIBUN-PANTURA.COM",
            "sektor": "Sektor Teknologi Informasi dan Komunikasi",
            "tanggal_terbit": "2022-08-15",
            "url_tdpse_detail": "https://pse.komdigi.go.id/tdpse-detail/10354",
            "website": "tribun-pantura.com"
        },
        {
            "id": "9cb1abd7-12f1-4e7e-bcb8-74e0e0c27181",
            "nama_pse": "TRIBUN DIGITAL ONLINE",
            "nama_se": "TRIBUNKEDIRI.COM",
            "sektor": "Sektor Teknologi Informasi dan Komunikasi",
            "tanggal_terbit": "2022-08-15",
            "url_tdpse_detail": "https://pse.komdigi.go.id/tdpse-detail/10355",
            "website": "tribunkediri.com"
        },
        {
            "id": "9cb1abfc-fb3a-43ea-8774-cedb43dc8946",
            "nama_pse": "TRIBUN DIGITAL ONLINE",
            "nama_se": "TRIBUNDIGITALBISNIS.COM",
            "sektor": "Sektor Teknologi Informasi dan Komunikasi",
            "tanggal_terbit": "2022-08-15",
            "url_tdpse_detail": "https://pse.komdigi.go.id/tdpse-detail/10356",
            "website": "tribundigitalbisnis.com"
        },
        {
            "id": "9cb1abd7-1709-4d56-998f-abaea529ef77",
            "nama_pse": "POINTO INTERNATIONAL XCHANGE",
            "nama_se": "QOINPAY WALLET",
            "sektor": "Sektor Teknologi Informasi dan Komunikasi",
            "tanggal_terbit": "2022-08-15",
            "url_tdpse_detail": "https://pse.komdigi.go.id/tdpse-detail/10357",
            "website": "qoinpay.id"
        },
        {
            "id": "9cb1ac0b-e4dc-4e88-9ce5-77d0d7471bc4",
            "nama_pse": "TRIBUN DIGITAL ONLINE",
            "nama_se": "TRIBUNPRABUMULIH.COM",
            "sektor": "Sektor Teknologi Informasi dan Komunikasi",
            "tanggal_terbit": "2022-08-15",
            "url_tdpse_detail": "https://pse.komdigi.go.id/tdpse-detail/10358",
            "website": "tribunprabumulih.com"
        },
        {
            "id": "9cb1abfc-ff16-4165-886d-be98933b9fd7",
            "nama_pse": "TRIBUN DIGITAL ONLINE",
            "nama_se": "TRIBUN PRABUMULIH",
            "sektor": "Sektor Teknologi Informasi dan Komunikasi",
            "tanggal_terbit": "2022-08-15",
            "url_tdpse_detail": "https://pse.komdigi.go.id/tdpse-detail/10359",
            "website": "sumsel.tribunnews.com"
        },
        {
            "id": "9cb1abd7-1b1d-4f2f-b24c-e8d69f6b4f5a",
            "nama_pse": "MICRO PIRANTI COMPUTER",
            "nama_se": "S-TRADE",
            "sektor": "Sektor Keuangan",
            "tanggal_terbit": "2022-08-15",
            "url_tdpse_detail": "https://pse.komdigi.go.id/tdpse-detail/10360",
            "website": "s-trade.co.id"
        },
        {
            "id": "9cb1abfd-0231-4396-892c-f58120082538",
            "nama_pse": "TRIBUN DIGITAL ONLINE",
            "nama_se": "TRIBUNPURWOKERTO.COM",
            "sektor": "Sektor Teknologi Informasi dan Komunikasi",
            "tanggal_terbit": "2022-08-15",
            "url_tdpse_detail": "https://pse.komdigi.go.id/tdpse-detail/10362",
            "website": "banyumas.tribunnews.com"
        },
        {
            "id": "9cb1ac0b-eb4c-49f7-b4ec-64a92d71c6ca",
            "nama_pse": "SIRIUS GLOBAL SINERGI",
            "nama_se": "PT. SIRIUS GLOBAL SINERGI",
            "sektor": "Sektor Perdagangan, Sektor Transportasi, Sektor Keuangan, Sektor Teknologi Informasi dan Komunikasi",
            "tanggal_terbit": "2022-08-15",
            "url_tdpse_detail": "https://pse.komdigi.go.id/tdpse-detail/10363",
            "website": "-"
        },
        {
            "id": "9cb1abd7-1f2f-4152-b46f-8a98d5254be4",
            "nama_pse": "LINGGA JAYA",
            "nama_se": "VOLTAGEN.ID",
            "sektor": "Sektor Perdagangan",
            "tanggal_terbit": "2022-08-15",
            "url_tdpse_detail": "https://pse.komdigi.go.id/tdpse-detail/10364",
            "website": "voltagen.id"
        },
        {
            "id": "9cb1ac0b-eec5-404d-b32a-2362a6c2dae8",
            "nama_pse": "TRIBUN DIGITAL ONLINE",
            "nama_se": "TRIBUNTRENDS.COM",
            "sektor": "Sektor Teknologi Informasi dan Komunikasi",
            "tanggal_terbit": "2022-08-15",
            "url_tdpse_detail": "https://pse.komdigi.go.id/tdpse-detail/10365",
            "website": "tribuntrends.com"
        },
        {
            "id": "9cb1abd7-2521-4eac-8c0f-b4d195bdcc7b",
            "nama_pse": "SOLUSI IDENTITAS TANDA TANGAN",
            "nama_se": "BYTEE",
            "sektor": "Sektor Keuangan",
            "tanggal_terbit": "2022-08-15",
            "url_tdpse_detail": "https://pse.komdigi.go.id/tdpse-detail/10367",
            "website": "bytee.co.id"
        },
        {
            "id": "9cb1abd7-2990-4bf9-a75a-b79f1c1d66ad",
            "nama_pse": "TRIBUN DIGITAL ONLINE",
            "nama_se": "SHOPPING.TRIBUNNEWS.COM",
            "sektor": "Sektor Teknologi Informasi dan Komunikasi",
            "tanggal_terbit": "2022-08-15",
            "url_tdpse_detail": "https://pse.komdigi.go.id/tdpse-detail/10366",
            "website": "shopping.tribunnews.com"
        },
        {
            "id": "9cb1abd7-2cdd-4f50-ab82-68fb176d0c35",
            "nama_pse": "SMART TECHNOLOGIES",
            "nama_se": "SMART TECHNOLOGIES",
            "sektor": "Sektor Teknologi Informasi dan Komunikasi",
            "tanggal_terbit": "2022-08-15",
            "url_tdpse_detail": "https://pse.komdigi.go.id/tdpse-detail/10370",
            "website": "smart-tech.co.id"
        },
        {
            "id": "9cb1ac0b-f249-417b-9159-a3ae3554ee30",
            "nama_pse": "TRIBUN DIGITAL ONLINE",
            "nama_se": "TRIBUN MAUMERE",
            "sektor": "Sektor Teknologi Informasi dan Komunikasi",
            "tanggal_terbit": "2022-08-15",
            "url_tdpse_detail": "https://pse.komdigi.go.id/tdpse-detail/10371",
            "website": "flores.tribunnews.com"
        },
        {
            "id": "9cb1abfd-232b-4db9-ab78-e34d45483888",
            "nama_pse": "TRIBUN DIGITAL ONLINE",
            "nama_se": "KUPANG.TRIBUNNEWS.COM",
            "sektor": "Sektor Teknologi Informasi dan Komunikasi",
            "tanggal_terbit": "2022-08-15",
            "url_tdpse_detail": "https://pse.komdigi.go.id/tdpse-detail/10372",
            "website": "kupang.tribunnews.com"
        },
        {
            "id": "9cb1ac0b-f53c-4420-8281-9323b42e99d9",
            "nama_pse": "SOFTWARE FARMER INDONESIA",
            "nama_se": "TOUCH-U.ID",
            "sektor": "Sektor Perdagangan",
            "tanggal_terbit": "2022-08-15",
            "url_tdpse_detail": "https://pse.komdigi.go.id/tdpse-detail/10373",
            "website": "Touch-U.id"
        }
    ],
    "processingTimeMs": 3,
    "query": "",
    "totalHits": 19131,
    "hitsPerPage": 50,
    "page": 198,
    "totalPages": 383
}