{
    "hits": [
        {
            "id": "9cb1abf4-b400-46ff-a21b-09e0c4a675e9",
            "nama_pse": "ASKARA SOLUSI LEGAL",
            "nama_se": "WEBSITE LEXGORITMA",
            "sektor": "Sektor Perdagangan",
            "tanggal_terbit": "2022-07-27",
            "url_tdpse_detail": "https://pse.komdigi.go.id/tdpse-detail/9124",
            "website": "lexgoritma.com"
        },
        {
            "id": "9cb1abf4-bb61-490b-b18d-90b564e90c58",
            "nama_pse": "MOBIL MOTOR NIAGA INDONESIA",
            "nama_se": "MM ONLINE",
            "sektor": "Sektor Perdagangan",
            "tanggal_terbit": "2022-07-27",
            "url_tdpse_detail": "https://pse.komdigi.go.id/tdpse-detail/9125",
            "website": "mmonline.id"
        },
        {
            "id": "9cb1abf4-cb36-4648-8eb7-083c1bd5200d",
            "nama_pse": "LOYAL MEMBER INDONESIA",
            "nama_se": "LOYAL.ID",
            "sektor": "Sektor Teknologi Informasi dan Komunikasi",
            "tanggal_terbit": "2022-07-27",
            "url_tdpse_detail": "https://pse.komdigi.go.id/tdpse-detail/9126",
            "website": "loyal.id"
        },
        {
            "id": "9cb1abf4-d195-4db1-b277-52785cce4dde",
            "nama_pse": "BANK PERKREDITAN RAKYAT NUSAMBA NGUNUT",
            "nama_se": "WEBSITE",
            "sektor": "Sektor Keuangan",
            "tanggal_terbit": "2022-07-27",
            "url_tdpse_detail": "https://pse.komdigi.go.id/tdpse-detail/9127",
            "website": "bprnusamba-ngunut.com"
        },
        {
            "id": "9cb1abbe-32d1-437b-815b-26b8fdd163db",
            "nama_pse": "PRIMA MEDIX NUSANTARA",
            "nama_se": "VIRTU DIGILAB",
            "sektor": "Sektor Kesehatan",
            "tanggal_terbit": "2022-07-27",
            "url_tdpse_detail": "https://pse.komdigi.go.id/tdpse-detail/9128",
            "website": "virtudigilab.com"
        },
        {
            "id": "9cb1abbe-34e1-4916-a8ac-1ee6aa2f77e6",
            "nama_pse": "PRIMA MEDIX NUSANTARA",
            "nama_se": "VIRTU HEALTH",
            "sektor": "Sektor Kesehatan",
            "tanggal_terbit": "2022-07-27",
            "url_tdpse_detail": "https://pse.komdigi.go.id/tdpse-detail/9135",
            "website": "virtuhealth.id"
        },
        {
            "id": "9cb1abf4-d4b8-4db4-aeb9-40f1b889e18a",
            "nama_pse": "BIOSKOP DIGITAL INDONESIA",
            "nama_se": "BIOSKOP ONLINE",
            "sektor": "Sektor Teknologi Informasi dan Komunikasi",
            "tanggal_terbit": "2022-07-27",
            "url_tdpse_detail": "https://pse.komdigi.go.id/tdpse-detail/9130",
            "website": "bioskoponline.com"
        },
        {
            "id": "9cb1abf4-dab6-4af2-8108-96a24d6d5e0e",
            "nama_pse": "BANK PEREKONOMIAN RAKYAT HANEDA MITRA USAHA",
            "nama_se": "WWW.BPRHANEDA.CO.ID",
            "sektor": "Sektor Keuangan",
            "tanggal_terbit": "2022-07-27",
            "url_tdpse_detail": "https://pse.komdigi.go.id/tdpse-detail/9132",
            "website": "bprhaneda.co.id"
        },
        {
            "id": "9cb1abce-a1f3-4ae9-9d73-43c6d0e12836",
            "nama_pse": "BILLION TECHNOLOGY",
            "nama_se": "KANTOR KITA",
            "sektor": "Sektor Teknologi Informasi dan Komunikasi",
            "tanggal_terbit": "2022-07-27",
            "url_tdpse_detail": "https://pse.komdigi.go.id/tdpse-detail/9131",
            "website": "kantorkita.co.id"
        },
        {
            "id": "9cb1abf4-e042-412d-aa72-ecb517aea6e8",
            "nama_pse": "DIGITAL HASANAH INDONESIA",
            "nama_se": "HASAN DIGITAL",
            "sektor": "Sektor Teknologi Informasi dan Komunikasi",
            "tanggal_terbit": "2022-07-27",
            "url_tdpse_detail": "https://pse.komdigi.go.id/tdpse-detail/9133",
            "website": "hasandigital.id"
        },
        {
            "id": "9cb1abbe-36cc-476c-8747-acfa46964d19",
            "nama_pse": "PRIMA MEDIX NUSANTARA",
            "nama_se": "PRIMAMEDIX",
            "sektor": "Sektor Kesehatan",
            "tanggal_terbit": "2022-07-27",
            "url_tdpse_detail": "https://pse.komdigi.go.id/tdpse-detail/9134",
            "website": "primamedix.net"
        },
        {
            "id": "9cb1abbe-39bd-456b-b236-500e5832f7ae",
            "nama_pse": "KARYA DIGITAL INDO",
            "nama_se": "WOILO",
            "sektor": "Sektor Teknologi Informasi dan Komunikasi",
            "tanggal_terbit": "2022-07-27",
            "url_tdpse_detail": "https://pse.komdigi.go.id/tdpse-detail/9136",
            "website": "woilo.com"
        },
        {
            "id": "9cb1abce-aacb-474b-96c5-1f0506e9f946",
            "nama_pse": "SUPRA PRIMATAMA NUSANTARA",
            "nama_se": "BIZNET METRONET",
            "sektor": "Sektor Teknologi Informasi dan Komunikasi",
            "tanggal_terbit": "2022-07-27",
            "url_tdpse_detail": "https://pse.komdigi.go.id/tdpse-detail/9137",
            "website": "metronet.biznetnetworks.com"
        },
        {
            "id": "9cb1abf4-ebf5-4320-96a1-d37c3e53be9c",
            "nama_pse": "DAVEL SURYA CIPTA",
            "nama_se": "WWW.DINOTIS.COM",
            "sektor": "Sektor Perdagangan",
            "tanggal_terbit": "2022-07-27",
            "url_tdpse_detail": "https://pse.komdigi.go.id/tdpse-detail/9139",
            "website": "dinotis.com"
        },
        {
            "id": "9cb1abbe-3e1d-4fb7-9c4c-9b83466cef6d",
            "nama_pse": "AIR MAS PERKASA",
            "nama_se": "AYOOKLIK SIPLAH",
            "sektor": "Sektor Teknologi Informasi dan Komunikasi",
            "tanggal_terbit": "2022-07-27",
            "url_tdpse_detail": "https://pse.komdigi.go.id/tdpse-detail/9140",
            "website": "siplah.ayooklik.id"
        },
        {
            "id": "9cb1abf4-f769-4e18-8ebd-c87ff6688891",
            "nama_pse": "AIR MAS PERKASA",
            "nama_se": "AYOOKLIK BELA",
            "sektor": "Sektor Teknologi Informasi dan Komunikasi",
            "tanggal_terbit": "2022-07-27",
            "url_tdpse_detail": "https://pse.komdigi.go.id/tdpse-detail/9141",
            "website": "bela.ayooklik.id"
        },
        {
            "id": "9cb1abce-b421-4504-a2ad-5a77f27d9379",
            "nama_pse": "BANK PERKREDITAN RAKYAT BADAN KREDIT KECAMATAN KOTA MAGELANG",
            "nama_se": "PT BPR BKK KOTA MAGELANG (PERSERODA)",
            "sektor": "Sektor Keuangan",
            "tanggal_terbit": "2022-07-27",
            "url_tdpse_detail": "https://pse.komdigi.go.id/tdpse-detail/9142",
            "website": "-"
        },
        {
            "id": "9cb1abf4-ff8c-4530-aad1-9e0799a814ce",
            "nama_pse": "PERUSAHAAN PERSEROAN (PERSERO) PT. TELEKOMUNIKASI INDONESIA",
            "nama_se": "LEGAL ANALYTICS",
            "sektor": "Sektor Teknologi Informasi dan Komunikasi",
            "tanggal_terbit": "2022-07-27",
            "url_tdpse_detail": "https://pse.komdigi.go.id/tdpse-detail/9144",
            "website": "legalanalytics.id"
        },
        {
            "id": "9cb1abce-b822-4b53-99f8-3b7686bf5743",
            "nama_pse": "PERUSAHAAN PERSEROAN (PERSERO) PT. TELEKOMUNIKASI INDONESIA",
            "nama_se": "SCN-HUB",
            "sektor": "Sektor Teknologi Informasi dan Komunikasi",
            "tanggal_terbit": "2022-07-27",
            "url_tdpse_detail": "https://pse.komdigi.go.id/tdpse-detail/9145",
            "website": "smartcitynusantara.id"
        },
        {
            "id": "9cb1abf5-0a3b-48b3-9481-d017d61edffc",
            "nama_pse": "BANK PERKREDITAN RAKYAT TAKERAN",
            "nama_se": "KOPERASI BANK PERKREDITAN RAKYAT TAKERAN",
            "sektor": "Sektor Keuangan",
            "tanggal_terbit": "2022-07-27",
            "url_tdpse_detail": "https://pse.komdigi.go.id/tdpse-detail/9146",
            "website": "-"
        },
        {
            "id": "9cb1abce-bb24-4855-926d-f6d538cdc357",
            "nama_pse": "PERUSAHAAN PERSEROAN (PERSERO) PT. TELEKOMUNIKASI INDONESIA",
            "nama_se": "WORKI",
            "sektor": "Sektor Teknologi Informasi dan Komunikasi",
            "tanggal_terbit": "2022-07-27",
            "url_tdpse_detail": "https://pse.komdigi.go.id/tdpse-detail/9151",
            "website": "worki.id"
        },
        {
            "id": "9cb1abf5-0d96-48e5-9d80-a40f344cde50",
            "nama_pse": "FOODS BEVERAGES INDONESIA",
            "nama_se": "WEBSITE F\u0026B INDONESIA (WWW.FBINDONESIA.COM)",
            "sektor": "Sektor Teknologi Informasi dan Komunikasi",
            "tanggal_terbit": "2022-07-27",
            "url_tdpse_detail": "https://pse.komdigi.go.id/tdpse-detail/9154",
            "website": "fbindonesia.com"
        },
        {
            "id": "9cb1abbe-4b12-48d4-a07f-168cde93d4a9",
            "nama_pse": "BANK PERKREDITAN RAKYAT GUNUNG MAS",
            "nama_se": "WEBSITE BPR GUNUNG MAS",
            "sektor": "Sektor Keuangan",
            "tanggal_terbit": "2022-07-27",
            "url_tdpse_detail": "https://pse.komdigi.go.id/tdpse-detail/9158",
            "website": "bprgunungmasklaten.com"
        },
        {
            "id": "9cb1abce-d00a-4e8a-b6e1-8678be66f924",
            "nama_pse": "RUANG HALAL INDONESIA",
            "nama_se": "RUANG HALAL",
            "sektor": "Sektor Perdagangan, Sektor Teknologi Informasi dan Komunikasi",
            "tanggal_terbit": "2022-07-27",
            "url_tdpse_detail": "https://pse.komdigi.go.id/tdpse-detail/9159",
            "website": "ruanghalal.com"
        },
        {
            "id": "9cb1abbe-4d4c-41b6-aef9-38fddf47d845",
            "nama_pse": "PERUSAHAAN PERSEROAN (PERSERO) PT. TELEKOMUNIKASI INDONESIA",
            "nama_se": "LOGEE FULFILLMENT",
            "sektor": "Sektor Perdagangan, Sektor Teknologi Informasi dan Komunikasi",
            "tanggal_terbit": "2022-07-27",
            "url_tdpse_detail": "https://pse.komdigi.go.id/tdpse-detail/9160",
            "website": "logeefulfillment.id"
        },
        {
            "id": "9cb1abbe-4f65-4982-8bee-265986c421c7",
            "nama_pse": "PERUSAHAAN PERSEROAN (PERSERO) PT. TELEKOMUNIKASI INDONESIA",
            "nama_se": "INRATE MEDIA RATING ANALYTICS",
            "sektor": "Sektor Teknologi Informasi dan Komunikasi",
            "tanggal_terbit": "2022-07-27",
            "url_tdpse_detail": "https://pse.komdigi.go.id/tdpse-detail/9161",
            "website": "urbanrate.id"
        },
        {
            "id": "9cb1abce-d3b2-494a-ada3-386d1d506a43",
            "nama_pse": "PD BPR BANK PASAR KOTA TEGAL ",
            "nama_se": "PD BPR BANK PASAR KOTA TEGAL",
            "sektor": "Sektor Keuangan",
            "tanggal_terbit": "2022-07-27",
            "url_tdpse_detail": "https://pse.komdigi.go.id/tdpse-detail/9162",
            "website": "bprbapastegal.co.id"
        },
        {
            "id": "9cb1abce-d6d1-4426-9005-05b6f6fb89c9",
            "nama_pse": "SAEBO TECH NOLOGY",
            "nama_se": "PT SAEBO TECHNOLOGY",
            "sektor": "Sektor Teknologi Informasi dan Komunikasi",
            "tanggal_terbit": "2022-07-27",
            "url_tdpse_detail": "https://pse.komdigi.go.id/tdpse-detail/9163",
            "website": "saebo.technology"
        },
        {
            "id": "9cb1abbe-5152-4a44-8b09-9cd1a7936db4",
            "nama_pse": "IMORA MOTOR",
            "nama_se": "WEBSITE RESMI DEALER HONDA JAKARTA CENTER \u0026 DEALER HONDA IMORA SENTUL",
            "sektor": "Sektor Perdagangan",
            "tanggal_terbit": "2022-07-27",
            "url_tdpse_detail": "https://pse.komdigi.go.id/tdpse-detail/9164",
            "website": "hondaimora.com"
        },
        {
            "id": "9cb1abf5-1d3e-458e-9a20-92b238e3bef9",
            "nama_pse": "CITRA SARI KENCANA",
            "nama_se": "OUFFICE.CO.ID",
            "sektor": "Sektor Perdagangan",
            "tanggal_terbit": "2022-07-27",
            "url_tdpse_detail": "https://pse.komdigi.go.id/tdpse-detail/9168",
            "website": "ouffice.co.id"
        },
        {
            "id": "9cb1abf5-2370-4cd3-91d7-d4dd9659ccbb",
            "nama_pse": "BANK PEREKONOMIAN RAKYAT DANA MITRA UTAMA",
            "nama_se": "BPRDMU",
            "sektor": "Sektor Keuangan",
            "tanggal_terbit": "2022-07-27",
            "url_tdpse_detail": "https://pse.komdigi.go.id/tdpse-detail/9169",
            "website": "bprdmu.com"
        },
        {
            "id": "9cb1abf5-280a-41be-b9f3-41191609e687",
            "nama_pse": "AFG VENTURA TEKNOLOGI",
            "nama_se": "PAYABLE.ID",
            "sektor": "Sektor Teknologi Informasi dan Komunikasi",
            "tanggal_terbit": "2022-07-27",
            "url_tdpse_detail": "https://pse.komdigi.go.id/tdpse-detail/9170",
            "website": "payable.id"
        },
        {
            "id": "9cb1abbe-579c-4b27-9295-4c77d7a99a1e",
            "nama_pse": "SURFGOLD",
            "nama_se": "TEAMFORCE.ID",
            "sektor": "Sektor Teknologi Informasi dan Komunikasi",
            "tanggal_terbit": "2022-07-27",
            "url_tdpse_detail": "https://pse.komdigi.go.id/tdpse-detail/9171",
            "website": "teamforce.id"
        },
        {
            "id": "9cb1abf5-2c02-4572-aa9f-996dea0d4cc6",
            "nama_pse": "BANK PEREKONOMIAN RAKYAT SINDANG BINAHARTA",
            "nama_se": "WWW.BPRSINDANGBINAHARTA.COM",
            "sektor": "Sektor Keuangan",
            "tanggal_terbit": "2022-07-27",
            "url_tdpse_detail": "https://pse.komdigi.go.id/tdpse-detail/9172",
            "website": "NS1.NIAGAHOSTER.COM"
        },
        {
            "id": "9cb1abbe-5bbd-478d-8ad4-d21c5a7cda62",
            "nama_pse": "BANK PEREKONOMIAN RAKYAT PURIDANA ARTHAMAS",
            "nama_se": "CLOUD.ATM28.NET",
            "sektor": "Sektor Keuangan",
            "tanggal_terbit": "2022-07-27",
            "url_tdpse_detail": "https://pse.komdigi.go.id/tdpse-detail/9185",
            "website": "bprpuridana.co.id"
        },
        {
            "id": "9cb1abbe-62ad-45e5-adc9-fcfafb020595",
            "nama_pse": "BILLION TECHNOLOGY",
            "nama_se": "JAGOWEB",
            "sektor": "Sektor Teknologi Informasi dan Komunikasi",
            "tanggal_terbit": "2022-07-27",
            "url_tdpse_detail": "https://pse.komdigi.go.id/tdpse-detail/9181",
            "website": "jagoweb.com"
        },
        {
            "id": "9cb1abf5-37b3-4798-9de7-e91aa0cc41b6",
            "nama_pse": "BILLION TECHNOLOGY",
            "nama_se": "JAGOWEBDESIGN",
            "sektor": "Sektor Teknologi Informasi dan Komunikasi",
            "tanggal_terbit": "2022-07-27",
            "url_tdpse_detail": "https://pse.komdigi.go.id/tdpse-detail/9182",
            "website": "jagowebdesign.com"
        },
        {
            "id": "9cb1abce-ed1f-45d3-b3d8-a5925879e86b",
            "nama_pse": "BANK PERKREDITAN RAKYAT MILALA",
            "nama_se": "BPR MILALA",
            "sektor": "Sektor Keuangan, Sektor Kesehatan",
            "tanggal_terbit": "2022-07-27",
            "url_tdpse_detail": "https://pse.komdigi.go.id/tdpse-detail/9189",
            "website": "bprmilala.com"
        },
        {
            "id": "9cb1abce-f1cf-4c5a-8e47-126fc0b00574",
            "nama_pse": "BILLION TECHNOLOGY",
            "nama_se": "WEB101",
            "sektor": "Sektor Teknologi Informasi dan Komunikasi",
            "tanggal_terbit": "2022-07-27",
            "url_tdpse_detail": "https://pse.komdigi.go.id/tdpse-detail/9183",
            "website": "web101.co.id"
        },
        {
            "id": "9cb1abf5-41e5-4738-997c-cb92d0c4b46c",
            "nama_pse": "SEMEN INDONESIA DISTRIBUTOR",
            "nama_se": "BAHANMATERIAL.COM",
            "sektor": "Sektor Perdagangan",
            "tanggal_terbit": "2022-07-27",
            "url_tdpse_detail": "https://pse.komdigi.go.id/tdpse-detail/9184",
            "website": "bahanmaterial.com"
        },
        {
            "id": "9cb1abf5-4764-4014-8333-fb49f81f8679",
            "nama_pse": "INTERJASA KREASI BROKERINDO",
            "nama_se": "PT INTERJASA KREASI BROKERINDO",
            "sektor": "Sektor Keuangan",
            "tanggal_terbit": "2022-07-27",
            "url_tdpse_detail": "https://pse.komdigi.go.id/tdpse-detail/9188",
            "website": "interjasabroker.co.id"
        },
        {
            "id": "9cb1abf5-4cfd-4d24-b2d0-c81461575fd4",
            "nama_pse": "BILLION TECHNOLOGY",
            "nama_se": "TECHNOGIS",
            "sektor": "Sektor Teknologi Informasi dan Komunikasi",
            "tanggal_terbit": "2022-07-27",
            "url_tdpse_detail": "https://pse.komdigi.go.id/tdpse-detail/9186",
            "website": "technogis.co.id"
        },
        {
            "id": "9cb1abce-f58c-42a3-b84d-0242b198b4d6",
            "nama_pse": "TRIPEDIA GLOBAL ADVENTURA",
            "nama_se": "TRIPWE SHOP",
            "sektor": "Sektor Perdagangan",
            "tanggal_terbit": "2022-07-27",
            "url_tdpse_detail": "https://pse.komdigi.go.id/tdpse-detail/9187",
            "website": "tripweshop.com"
        },
        {
            "id": "9cb1abbe-675a-4884-a992-e8582dd39519",
            "nama_pse": "PHILLIP FUTURES",
            "nama_se": "WEBSITE PT PHILLIP FUTURES",
            "sektor": "Sektor Keuangan",
            "tanggal_terbit": "2022-07-27",
            "url_tdpse_detail": "https://pse.komdigi.go.id/tdpse-detail/9190",
            "website": "phillipfutures.co.id"
        },
        {
            "id": "9cb1abbe-6b77-42c3-9ed3-ad032d2cbd6a",
            "nama_pse": "PHILLIP FUTURES",
            "nama_se": "CLIENT PORTAL PT PHILLIP FUTURES",
            "sektor": "Sektor Keuangan",
            "tanggal_terbit": "2022-07-27",
            "url_tdpse_detail": "https://pse.komdigi.go.id/tdpse-detail/9192",
            "website": "account.phillipfutures.co.id"
        },
        {
            "id": "9cb1abf5-534f-4b65-9469-9c377ebc43bd",
            "nama_pse": "PERUMDA BPR BANK JOGJA",
            "nama_se": "PERUMDA BPR BANK JOGJA",
            "sektor": "Sektor Keuangan",
            "tanggal_terbit": "2022-07-27",
            "url_tdpse_detail": "https://pse.komdigi.go.id/tdpse-detail/9194",
            "website": "bankjogja.com"
        },
        {
            "id": "9cb1abbe-6e16-4479-b891-246029aac95c",
            "nama_pse": "AFG VENTURA TEKNOLOGI",
            "nama_se": "PAYABLE",
            "sektor": "Sektor Teknologi Informasi dan Komunikasi",
            "tanggal_terbit": "2022-07-27",
            "url_tdpse_detail": "https://pse.komdigi.go.id/tdpse-detail/9195",
            "website": "payable.id"
        },
        {
            "id": "9cb1abce-fd33-4dcd-b87c-860ad52c3b42",
            "nama_pse": "PERUMDA BPR BANK JOGJA",
            "nama_se": "LOKET BANK JOGJA",
            "sektor": "Sektor Keuangan",
            "tanggal_terbit": "2022-07-27",
            "url_tdpse_detail": "https://pse.komdigi.go.id/tdpse-detail/9196",
            "website": "mib.bankjogja.com"
        },
        {
            "id": "9cb1abf5-57ab-43b4-b632-ed199dec216f",
            "nama_pse": "CENTRA BANGUN MANDIRI",
            "nama_se": "CENTRA BANGUN MANDIRI",
            "sektor": "Sektor Teknologi Informasi dan Komunikasi",
            "tanggal_terbit": "2022-07-27",
            "url_tdpse_detail": "https://pse.komdigi.go.id/tdpse-detail/9197",
            "website": "-"
        },
        {
            "id": "9cb1abf5-5b8b-49e5-8ffc-1812309d2bd6",
            "nama_pse": "PERUMDA BPR BANK JOGJA",
            "nama_se": "LOS PERUMDA BANK JOGJA",
            "sektor": "Sektor Keuangan",
            "tanggal_terbit": "2022-07-27",
            "url_tdpse_detail": "https://pse.komdigi.go.id/tdpse-detail/9198",
            "website": "cas.bankjogja.com"
        }
    ],
    "processingTimeMs": 6,
    "query": "",
    "totalHits": 19131,
    "hitsPerPage": 50,
    "page": 218,
    "totalPages": 383
}