{
    "hits": [
        {
            "id": "9cb1abca-ac61-46cb-85c9-36b6fdd031ff",
            "nama_pse": "REALTA CHAKRADARMA",
            "nama_se": "REALTA NET",
            "sektor": "Sektor Teknologi Informasi dan Komunikasi",
            "tanggal_terbit": "2022-07-21",
            "url_tdpse_detail": "https://pse.komdigi.go.id/tdpse-detail/8535",
            "website": "realta.net"
        },
        {
            "id": "9cb1abf0-d638-4053-a520-4c9369515206",
            "nama_pse": "BANK PEREKONOMIAN RAKYAT SURYA DANAKARYA",
            "nama_se": "PT BANK PERKREDITAN RAKYAT SURYA DANAKARYA",
            "sektor": "Sektor Keuangan",
            "tanggal_terbit": "2022-07-21",
            "url_tdpse_detail": "https://pse.komdigi.go.id/tdpse-detail/8529",
            "website": "suryadanakarya.co.id"
        },
        {
            "id": "9cb1abf0-df46-4fe3-a33f-020ee9b321a0",
            "nama_pse": "MOBADIYA TEKNOLOGI GRUP",
            "nama_se": "YUMMY ADVISOR",
            "sektor": "Sektor Perdagangan",
            "tanggal_terbit": "2022-07-21",
            "url_tdpse_detail": "https://pse.komdigi.go.id/tdpse-detail/8538",
            "website": "yummyadvisor.id"
        },
        {
            "id": "9cb1abf0-e351-48f4-8cf5-a8183b1ba61a",
            "nama_pse": "SINERGI BESTAMA INDONESIA",
            "nama_se": "MVICALL WEBSITE",
            "sektor": "Sektor Teknologi Informasi dan Komunikasi",
            "tanggal_terbit": "2022-07-21",
            "url_tdpse_detail": "https://pse.komdigi.go.id/tdpse-detail/8528",
            "website": "Mvicall.com"
        },
        {
            "id": "9cb1abca-b010-4e76-b149-47e8bd996692",
            "nama_pse": "SAMSUNG ELECTRONICS INDONESIA",
            "nama_se": "SAMSUNG PAY",
            "sektor": "Sektor Teknologi Informasi dan Komunikasi",
            "tanggal_terbit": "2022-07-21",
            "url_tdpse_detail": "https://pse.komdigi.go.id/tdpse-detail/8531",
            "website": "-"
        },
        {
            "id": "9cb1abbb-ce9c-42f8-a149-5ecea2fef1de",
            "nama_pse": "M. ILHAM RAHIM",
            "nama_se": "WARUNG DIGITAL",
            "sektor": "Sektor Perdagangan",
            "tanggal_terbit": "2022-07-21",
            "url_tdpse_detail": "https://pse.komdigi.go.id/tdpse-detail/8530",
            "website": "warungdigitalofficial.jualan.me"
        },
        {
            "id": "9cb1abbb-d11d-485f-9f5c-d59850cb72c8",
            "nama_pse": "REALTA CHAKRADARMA",
            "nama_se": "PT BISNIS SISTEM INDONESIA",
            "sektor": "Sektor Teknologi Informasi dan Komunikasi",
            "tanggal_terbit": "2022-07-21",
            "url_tdpse_detail": "https://pse.komdigi.go.id/tdpse-detail/8536",
            "website": "ptbsi.co.id"
        },
        {
            "id": "9cb1abf0-e6e6-45d3-bae0-90914dd340a1",
            "nama_pse": "NUSANTARA BONAPASOGIT",
            "nama_se": "TRANSFER LBBPRK",
            "sektor": "Sektor Keuangan",
            "tanggal_terbit": "2022-07-21",
            "url_tdpse_detail": "https://pse.komdigi.go.id/tdpse-detail/8532",
            "website": "pelaporan.id"
        },
        {
            "id": "9cb1abbb-d48d-4c20-b8b8-d7fe4dbd9094",
            "nama_pse": "BANK PERKREDITAN RAKYAT BADAN KREDIT KECAMATAN JEPARA (PERSERODA)",
            "nama_se": "WEBISTE",
            "sektor": "Sektor Teknologi Informasi dan Komunikasi",
            "tanggal_terbit": "2022-07-21",
            "url_tdpse_detail": "https://pse.komdigi.go.id/tdpse-detail/8533",
            "website": "bprbkkjepara.com"
        },
        {
            "id": "9cb1abca-b4a0-4674-8871-f11cd9376e9d",
            "nama_pse": "BPR SENTRAL MANDIRI",
            "nama_se": "WEBSITE",
            "sektor": "Sektor Keuangan",
            "tanggal_terbit": "2022-07-21",
            "url_tdpse_detail": "https://pse.komdigi.go.id/tdpse-detail/8537",
            "website": "bankbsm.com"
        },
        {
            "id": "9cb1abbb-d7cb-4810-aa97-3fed68cc1abb",
            "nama_pse": "PENDIDIKAN KEMENANGAN BERSAMA",
            "nama_se": "TAX ACADEMY INDONESIA - EDUKASI PERPAJAKAN",
            "sektor": "Sektor Perdagangan",
            "tanggal_terbit": "2022-07-21",
            "url_tdpse_detail": "https://pse.komdigi.go.id/tdpse-detail/8604",
            "website": "taxacademy.id"
        },
        {
            "id": "9cb1abbb-da62-4cd6-b12e-06cd98d8efa8",
            "nama_pse": "HYUNDAI MOTORS INDONESIA",
            "nama_se": "HYUNDAI BLUELINK",
            "sektor": "Sektor Teknologi Informasi dan Komunikasi",
            "tanggal_terbit": "2022-07-21",
            "url_tdpse_detail": "https://pse.komdigi.go.id/tdpse-detail/8539",
            "website": "-"
        },
        {
            "id": "9cb1abca-b994-49db-8404-3806b0f19eae",
            "nama_pse": "NUSANTARA GLOBAL INOVASI",
            "nama_se": "SI ANTENG",
            "sektor": "Sektor Transportasi, Sektor Teknologi Informasi dan Komunikasi",
            "tanggal_terbit": "2022-07-21",
            "url_tdpse_detail": "https://pse.komdigi.go.id/tdpse-detail/8540",
            "website": "brtnusantara.com"
        },
        {
            "id": "9cb1abf0-ec4c-4402-87ef-579e3fa53573",
            "nama_pse": "BANK PEREKONOMIAN RAKYAT BERKAT SEJATI",
            "nama_se": "WEBSITE RESMI PT BPR BERKAT SEJATI",
            "sektor": "Sektor Keuangan",
            "tanggal_terbit": "2022-07-21",
            "url_tdpse_detail": "https://pse.komdigi.go.id/tdpse-detail/8541",
            "website": "bprberkatsejati.com"
        },
        {
            "id": "9cb1abca-bf1f-4045-ad57-cc8a4669fdf7",
            "nama_pse": "MAGIC LIFE GLOBAL",
            "nama_se": "MAGIC LIFE GLOBAL",
            "sektor": "Sektor Teknologi Informasi dan Komunikasi",
            "tanggal_terbit": "2022-07-21",
            "url_tdpse_detail": "https://pse.komdigi.go.id/tdpse-detail/8542",
            "website": "magiclife.vip"
        },
        {
            "id": "9cb1abca-c860-41d9-9c2f-4973109a411a",
            "nama_pse": "BANK PERKREDITAN RAKYAT (KBPR) BABADAN ",
            "nama_se": "CBS",
            "sektor": "Sektor Keuangan",
            "tanggal_terbit": "2022-07-21",
            "url_tdpse_detail": "https://pse.komdigi.go.id/tdpse-detail/8545",
            "website": "-"
        },
        {
            "id": "9cb1abbb-dcf5-4ad8-9dc6-01b549f9fce3",
            "nama_pse": "MOBADIYA TEKNOLOGI GRUP",
            "nama_se": "ORDERPIN",
            "sektor": "Sektor Perdagangan",
            "tanggal_terbit": "2022-07-21",
            "url_tdpse_detail": "https://pse.komdigi.go.id/tdpse-detail/8543",
            "website": "orderpin.id"
        },
        {
            "id": "9cb1abf0-f228-41ab-a51e-e7017c082dfd",
            "nama_pse": "BANK PERKREDITAN RAKYAT NUSANTARA BONA PASOGIT 16",
            "nama_se": "PT BANK PERKREDITAN RAKYAT NUSANTARA BONA PASOGIT 16",
            "sektor": "Sektor Keuangan",
            "tanggal_terbit": "2022-07-21",
            "url_tdpse_detail": "https://pse.komdigi.go.id/tdpse-detail/8544",
            "website": "-"
        },
        {
            "id": "9cb1abbb-df6e-4118-928b-a098156125ff",
            "nama_pse": "BANK PEREKONOMIAN RAKYAT MITRA NATAPALA",
            "nama_se": "USSI BANDUNG",
            "sektor": "Sektor Keuangan",
            "tanggal_terbit": "2022-07-21",
            "url_tdpse_detail": "https://pse.komdigi.go.id/tdpse-detail/8546",
            "website": "-"
        },
        {
            "id": "9cb1abbb-e646-4335-b296-c7a2a7fe9adb",
            "nama_pse": "BANK PEREKONOMIAN RAKYAT REJEKI INSANI",
            "nama_se": "WEBSITE BPR REJEKI INSANI",
            "sektor": "Sektor Keuangan",
            "tanggal_terbit": "2022-07-21",
            "url_tdpse_detail": "https://pse.komdigi.go.id/tdpse-detail/8547",
            "website": "rejeki.insani.co.id"
        },
        {
            "id": "9cb1abbb-e8b3-4030-8ccd-db5e63bccc8a",
            "nama_pse": "MEDIA PUTRA NUSANTARA",
            "nama_se": "IDN TIMES",
            "sektor": "Sektor Teknologi Informasi dan Komunikasi",
            "tanggal_terbit": "2022-07-21",
            "url_tdpse_detail": "https://pse.komdigi.go.id/tdpse-detail/8548",
            "website": "idntimes.com"
        },
        {
            "id": "9cb1abbb-eb1a-4c60-8697-2b524a8c2ceb",
            "nama_pse": "INDODEV NIAGA INTERNET",
            "nama_se": "SUNFISH",
            "sektor": "Sektor Teknologi Informasi dan Komunikasi",
            "tanggal_terbit": "2022-07-21",
            "url_tdpse_detail": "https://pse.komdigi.go.id/tdpse-detail/8563",
            "website": "sfid.dataon.com"
        },
        {
            "id": "9cb1abf0-fcfd-436a-a630-ed48d58cea72",
            "nama_pse": "ADICIPTA INOVASI TEKNOLOGI",
            "nama_se": "CONFINS.ONE",
            "sektor": "Sektor Teknologi Informasi dan Komunikasi",
            "tanggal_terbit": "2022-07-21",
            "url_tdpse_detail": "https://pse.komdigi.go.id/tdpse-detail/8558",
            "website": "sgfa.confins.one"
        },
        {
            "id": "9cb1abca-d140-4437-a2ae-975f71c5097c",
            "nama_pse": "BANK PERKREDITAN RAKYAT MITRA BALI ARTHA MANDIRI",
            "nama_se": "PT. BANK PERKREDITAN RAKYAT MITRA BALI ARTHA MANDIRI",
            "sektor": "Sektor Keuangan",
            "tanggal_terbit": "2022-07-21",
            "url_tdpse_detail": "https://pse.komdigi.go.id/tdpse-detail/8549",
            "website": "bprmitrabaliarthamandiri.com"
        },
        {
            "id": "9cb1abf1-0298-41d3-9537-61eb56815234",
            "nama_pse": "FRANCISCUS ASISI PUWARA ANINDITA",
            "nama_se": "BREEZE",
            "sektor": "Sektor Teknologi Informasi dan Komunikasi",
            "tanggal_terbit": "2022-07-21",
            "url_tdpse_detail": "https://pse.komdigi.go.id/tdpse-detail/8550",
            "website": "breeze.id"
        },
        {
            "id": "9cb1abbb-ed7a-4a1a-b7c1-bf20546ccefc",
            "nama_pse": "BANK PERKREDITAN RAKYAT WAWAY LAMPUNG PERSERODA",
            "nama_se": "BANK WAWAY",
            "sektor": "Sektor Keuangan",
            "tanggal_terbit": "2022-07-21",
            "url_tdpse_detail": "https://pse.komdigi.go.id/tdpse-detail/8551",
            "website": "bankwawaylampung.com"
        },
        {
            "id": "9cb1abbb-efe3-40a1-bbee-673f36bf64d4",
            "nama_pse": "BANK PEREKONOMIAN RAKYAT TUNAS ARTHA BARU",
            "nama_se": "MARSTECH CORE BANKING",
            "sektor": "Sektor Keuangan",
            "tanggal_terbit": "2022-07-21",
            "url_tdpse_detail": "https://pse.komdigi.go.id/tdpse-detail/8552",
            "website": "-"
        },
        {
            "id": "9cb1abbb-f23c-4b2c-9b97-3908f5bdbf06",
            "nama_pse": "NUSANTARA GLOBAL INOVASI",
            "nama_se": "LUNPIA",
            "sektor": "Sektor Perdagangan, Sektor Transportasi, Sektor Teknologi Informasi dan Komunikasi",
            "tanggal_terbit": "2022-07-21",
            "url_tdpse_detail": "https://pse.komdigi.go.id/tdpse-detail/8554",
            "website": "-"
        },
        {
            "id": "9cb1abbb-f4f1-4422-98ba-926cdf0596dd",
            "nama_pse": "ESTU WEB HOST",
            "nama_se": "PT ESTU WEB HOST",
            "sektor": "Sektor Teknologi Informasi dan Komunikasi",
            "tanggal_terbit": "2022-07-21",
            "url_tdpse_detail": "https://pse.komdigi.go.id/tdpse-detail/8553",
            "website": "estuwebhost.com"
        },
        {
            "id": "9cb1abca-d541-4ef6-89f7-fdc58a625c3c",
            "nama_pse": "BANK PEREKONOMIAN RAKYAT MAHA BHOGA MARGA",
            "nama_se": "ASSIST CORE BANKING SYSTEM",
            "sektor": "Sektor Keuangan",
            "tanggal_terbit": "2022-07-21",
            "url_tdpse_detail": "https://pse.komdigi.go.id/tdpse-detail/8555",
            "website": "bprmahabhoga.com"
        },
        {
            "id": "9cb1abf1-065f-43bf-b55e-6a4a39f52c66",
            "nama_pse": "SIAPPTN",
            "nama_se": "SIAPPTN",
            "sektor": "Sektor Perdagangan",
            "tanggal_terbit": "2022-07-21",
            "url_tdpse_detail": "https://pse.komdigi.go.id/tdpse-detail/8557",
            "website": "siapptn.com"
        },
        {
            "id": "9cb1abf1-0a5d-462e-86af-1b19cc6180ed",
            "nama_pse": "WAGOMU KREATIF ASIA",
            "nama_se": "WAGOMU #JAPANESECLASS",
            "sektor": "Sektor Teknologi Informasi dan Komunikasi",
            "tanggal_terbit": "2022-07-21",
            "url_tdpse_detail": "https://pse.komdigi.go.id/tdpse-detail/8556",
            "website": "-"
        },
        {
            "id": "9cb1abca-d931-4384-8d8c-d19e939d5ffa",
            "nama_pse": "BANK PERKREDITAN RAKYAT CILEDUG DHANA SEMESTA",
            "nama_se": "WEBSITE BPR DHANA SEMESTA",
            "sektor": "Sektor Keuangan",
            "tanggal_terbit": "2022-07-21",
            "url_tdpse_detail": "https://pse.komdigi.go.id/tdpse-detail/8560",
            "website": "bprdhanasemesta.co.id"
        },
        {
            "id": "9cb1abca-dde9-4c6e-9248-303eb5f6ccea",
            "nama_pse": "WAGOMU KREATIF ASIA",
            "nama_se": "WAGOMU",
            "sektor": "Sektor Teknologi Informasi dan Komunikasi",
            "tanggal_terbit": "2022-07-21",
            "url_tdpse_detail": "https://pse.komdigi.go.id/tdpse-detail/8559",
            "website": "wagomu.co.id"
        },
        {
            "id": "9cb1abf1-0fb4-4473-b6d7-e90f9e0ecb6b",
            "nama_pse": "BAHAGIA LINTAS IKLAN",
            "nama_se": "BLINKZAP",
            "sektor": "Sektor Perdagangan",
            "tanggal_terbit": "2022-07-21",
            "url_tdpse_detail": "https://pse.komdigi.go.id/tdpse-detail/8562",
            "website": "blinkzap.com"
        },
        {
            "id": "9cb1abf1-1366-47e6-bfa8-5b007e3b4927",
            "nama_pse": "BANK PERKREDITAN RAKYAT SEKOLAH PERHOTELAN BALI",
            "nama_se": "IBS",
            "sektor": "Sektor Keuangan",
            "tanggal_terbit": "2022-07-21",
            "url_tdpse_detail": "https://pse.komdigi.go.id/tdpse-detail/8561",
            "website": "bprspb.com"
        },
        {
            "id": "9cb1abbb-f76b-403b-b525-23f76fb132ff",
            "nama_pse": "RNS NUSANTARA GROUP",
            "nama_se": "PT. RNS NUSANTARA GROUP",
            "sektor": "Sektor Perdagangan",
            "tanggal_terbit": "2022-07-21",
            "url_tdpse_detail": "https://pse.komdigi.go.id/tdpse-detail/8564",
            "website": "-"
        },
        {
            "id": "9cb1abbb-f9fb-46b9-981a-d1194eb3e53c",
            "nama_pse": "SARI SEGARA WINDU",
            "nama_se": "SARISEGARAPULSA",
            "sektor": "Sektor Perdagangan",
            "tanggal_terbit": "2022-07-21",
            "url_tdpse_detail": "https://pse.komdigi.go.id/tdpse-detail/8565",
            "website": "-"
        },
        {
            "id": "9cb1abbb-fcc5-44af-84c2-9ecc7c74db8d",
            "nama_pse": "BANK PERKREDITAN RAKYAT MOJOAGUNG PAHALAPAKTO",
            "nama_se": "PT BPR MOJOAGUNG PAHALAPAKTO",
            "sektor": "Sektor Keuangan",
            "tanggal_terbit": "2022-07-21",
            "url_tdpse_detail": "https://pse.komdigi.go.id/tdpse-detail/8566",
            "website": "bprmojoagungpahalapakto.co.id"
        },
        {
            "id": "9cb1abca-e198-4da0-b429-54c39eb9934e",
            "nama_pse": "MANDIRI TUNGGAL SEJAHTERA BERKARYA",
            "nama_se": "POPIT SNACK",
            "sektor": "Sektor Perdagangan, Sektor Teknologi Informasi dan Komunikasi, Sektor Pangan",
            "tanggal_terbit": "2022-07-21",
            "url_tdpse_detail": "https://pse.komdigi.go.id/tdpse-detail/8567",
            "website": "popitsnack.com"
        },
        {
            "id": "9cb1abca-e660-4ec7-a161-90c8af2b2789",
            "nama_pse": "BANK PEREKONOMIAN RAKYAT SUAR DATA",
            "nama_se": "BPR SUARDATA",
            "sektor": "Sektor Keuangan",
            "tanggal_terbit": "2022-07-21",
            "url_tdpse_detail": "https://pse.komdigi.go.id/tdpse-detail/8568",
            "website": "bprsuardata.com"
        },
        {
            "id": "9cb1abf1-1912-42b7-981d-9eb24fc4600f",
            "nama_pse": "ESTA KAPITAL FINTEK",
            "nama_se": "ESTA KAPITAL",
            "sektor": "Sektor Keuangan",
            "tanggal_terbit": "2022-07-21",
            "url_tdpse_detail": "https://pse.komdigi.go.id/tdpse-detail/8569",
            "website": "estakapital.co.id"
        },
        {
            "id": "9cb1abbc-0005-4d13-92c9-ef39f4ded7b0",
            "nama_pse": "BPR BANK SOLO",
            "nama_se": "WEBSITE COMPANY BANK SOLO",
            "sektor": "Sektor Teknologi Informasi dan Komunikasi",
            "tanggal_terbit": "2022-07-21",
            "url_tdpse_detail": "https://pse.komdigi.go.id/tdpse-detail/8570",
            "website": "banksolo.co.id"
        },
        {
            "id": "9cb1abca-ee5d-4b36-9a70-122deff3acdc",
            "nama_pse": "QUIPSTER MITRA SOLUSI",
            "nama_se": "QUIPSTER",
            "sektor": "Sektor Perdagangan, Sektor Transportasi, Sektor Teknologi Informasi dan Komunikasi",
            "tanggal_terbit": "2022-07-21",
            "url_tdpse_detail": "https://pse.komdigi.go.id/tdpse-detail/8571",
            "website": "-"
        },
        {
            "id": "9cb1abf1-1cb0-4a35-a284-cdc57f2f5294",
            "nama_pse": "WILLIS TOWERS WATSON INSURANCE BROKER INDONESIA",
            "nama_se": "AFFINITY TECHNOLOGY PLATFORM (ATP)",
            "sektor": "Sektor Keuangan",
            "tanggal_terbit": "2022-07-21",
            "url_tdpse_detail": "https://pse.komdigi.go.id/tdpse-detail/8576",
            "website": "-"
        },
        {
            "id": "9cb1abca-fa42-4c2c-9e65-f7604ca43bed",
            "nama_pse": "BPR BANK SOLO",
            "nama_se": "APLIKASI MOBILE BANKING BANK SOLO",
            "sektor": "Sektor Teknologi Informasi dan Komunikasi",
            "tanggal_terbit": "2022-07-21",
            "url_tdpse_detail": "https://pse.komdigi.go.id/tdpse-detail/8572",
            "website": "-"
        },
        {
            "id": "9cb1abbc-0262-4b11-83c0-bccc44132410",
            "nama_pse": "BANK PERKREDITAN RAKYAT BUMI HAYU",
            "nama_se": "SIPT-BPR BUMI HAYU",
            "sektor": "Sektor Keuangan",
            "tanggal_terbit": "2022-07-21",
            "url_tdpse_detail": "https://pse.komdigi.go.id/tdpse-detail/8573",
            "website": "-"
        },
        {
            "id": "9cb1abf1-1fc4-4c64-bbf7-dd8053a6a867",
            "nama_pse": "GAJI CERDAS INDONESIA",
            "nama_se": "SMART SALARY",
            "sektor": "Sektor Teknologi Informasi dan Komunikasi",
            "tanggal_terbit": "2022-07-21",
            "url_tdpse_detail": "https://pse.komdigi.go.id/tdpse-detail/8574",
            "website": "Smartsalarypro.com"
        },
        {
            "id": "9cb1abf1-2363-4d90-aa0b-bc7c2d97cf7b",
            "nama_pse": "TERA KREASI SEMESTA",
            "nama_se": "SIMPELPAS",
            "sektor": "Sektor Perdagangan",
            "tanggal_terbit": "2022-07-21",
            "url_tdpse_detail": "https://pse.komdigi.go.id/tdpse-detail/8581",
            "website": "-"
        },
        {
            "id": "9cb1abf1-271e-4232-a0e5-b197285b0acb",
            "nama_pse": "REJEKI BERKAH BERLIMPAH RUAH",
            "nama_se": "FDC DENTAL CLINIC",
            "sektor": "Sektor Kesehatan",
            "tanggal_terbit": "2022-07-21",
            "url_tdpse_detail": "https://pse.komdigi.go.id/tdpse-detail/8575",
            "website": "apps.fdcdentalclinic.co.id"
        }
    ],
    "processingTimeMs": 5,
    "query": "",
    "totalHits": 19121,
    "hitsPerPage": 50,
    "page": 229,
    "totalPages": 383
}