{
    "hits": [
        {
            "id": "9e1fc19b-b738-4714-b9e7-5f7a72929a16",
            "nama_pse": "YOSI UTAMA SEJAHTERA",
            "nama_se": "PT YOSI UTAMA SEJAHTERA",
            "sektor": "Sektor Teknologi Informasi dan Komunikasi",
            "tanggal_terbit": "2025-02-03",
            "url_tdpse_detail": "https://pse.komdigi.go.id/tdpse-detail/22258",
            "website": "jurnaldaerah.com"
        },
        {
            "id": "9e1f71f4-597d-4b86-b954-6b826ef63bd8",
            "nama_pse": "SARANA TRANSFORMASI DIGITAL",
            "nama_se": "midnusa",
            "sektor": "Sektor Teknologi Informasi dan Komunikasi",
            "tanggal_terbit": "2025-02-03",
            "url_tdpse_detail": "https://pse.komdigi.go.id/tdpse-detail/22256",
            "website": "midnusa.com"
        },
        {
            "id": "9e1e0131-6f4f-4b3b-b5d2-1909b79c06b7",
            "nama_pse": "RISE GRAFIKA",
            "nama_se": "RISE GRAFIKA",
            "sektor": "Sektor Teknologi Informasi dan Komunikasi",
            "tanggal_terbit": "2025-02-03",
            "url_tdpse_detail": "https://pse.komdigi.go.id/tdpse-detail/22242",
            "website": "rfrise.com"
        },
        {
            "id": "9e1e0122-731e-4ecc-8cee-1ca236e6aed6",
            "nama_pse": "KARYA LAKON UTAMA",
            "nama_se": "LAKON",
            "sektor": "Sektor Perdagangan, Sektor Teknologi Informasi dan Komunikasi",
            "tanggal_terbit": "2025-02-03",
            "url_tdpse_detail": "https://pse.komdigi.go.id/tdpse-detail/22241",
            "website": "lakonesia.com"
        },
        {
            "id": "9e1ee516-925a-40e8-a8c0-f141a8b8afa8",
            "nama_pse": "FANRUAN SOFTWARE INDONESIA",
            "nama_se": "PT FANRUAN SOFTWARE INDONESIA",
            "sektor": "Sektor Teknologi Informasi dan Komunikasi",
            "tanggal_terbit": "2025-02-03",
            "url_tdpse_detail": "https://pse.komdigi.go.id/tdpse-detail/22247",
            "website": "fanruan.com"
        },
        {
            "id": "9e1ec6f0-41bb-421e-9a6b-88dd71e65106",
            "nama_pse": "ROSITA",
            "nama_se": "APIGAMEHUB",
            "sektor": "Sektor Teknologi Informasi dan Komunikasi",
            "tanggal_terbit": "2025-02-03",
            "url_tdpse_detail": "https://pse.komdigi.go.id/tdpse-detail/22246",
            "website": "apigamehub.com"
        },
        {
            "id": "9e1eadbf-e0ee-420f-a9fa-897e2f20706f",
            "nama_pse": "INDONESIA DIGITAL EXCHANGE",
            "nama_se": "DIGITALEXCHANGE.ID",
            "sektor": "Sektor Perdagangan, Sektor Keuangan",
            "tanggal_terbit": "2025-02-03",
            "url_tdpse_detail": "https://pse.komdigi.go.id/tdpse-detail/22244",
            "website": "digitalexchange.id"
        },
        {
            "id": "9e1ead69-776a-4636-be2b-91713f4e44e3",
            "nama_pse": "PROTEMUS DANA BERSAMA",
            "nama_se": "PRODANA",
            "sektor": "Sektor Keuangan",
            "tanggal_terbit": "2025-02-03",
            "url_tdpse_detail": "https://pse.komdigi.go.id/tdpse-detail/22243",
            "website": "prodana.id"
        },
        {
            "id": "9e1ec1b2-23a4-4927-a87e-b6292f1e3c3b",
            "nama_pse": "ALDHITYA PRASETYA",
            "nama_se": "WARUNG KODING",
            "sektor": "Sektor Teknologi Informasi dan Komunikasi",
            "tanggal_terbit": "2025-02-03",
            "url_tdpse_detail": "https://pse.komdigi.go.id/tdpse-detail/22245",
            "website": "warungkoding.com"
        },
        {
            "id": "9e1fc3fc-5c15-440b-a7f0-c4c4a5c7c393",
            "nama_pse": "HERRU HARDIYANSAH",
            "nama_se": "seibukm.com",
            "sektor": "Sektor Teknologi Informasi dan Komunikasi",
            "tanggal_terbit": "2025-02-03",
            "url_tdpse_detail": "https://pse.komdigi.go.id/tdpse-detail/22259",
            "website": "sribukm.com"
        },
        {
            "id": "9e1c5bde-9531-4e6a-ae99-bdeca49dfde0",
            "nama_pse": "CODEWEB KREATIF INDONESIA",
            "nama_se": "CODENOM.COM",
            "sektor": "Sektor Teknologi Informasi dan Komunikasi",
            "tanggal_terbit": "2025-02-02",
            "url_tdpse_detail": "https://pse.komdigi.go.id/tdpse-detail/22236",
            "website": "codenom.com"
        },
        {
            "id": "9e1cb6c8-91bc-4872-bced-645c431074c2",
            "nama_pse": "SARANA BISNIS MAKMUR",
            "nama_se": "saranabisnis.com",
            "sektor": "Sektor Teknologi Informasi dan Komunikasi",
            "tanggal_terbit": "2025-02-02",
            "url_tdpse_detail": "https://pse.komdigi.go.id/tdpse-detail/22237",
            "website": "saranabisnis.com"
        },
        {
            "id": "9e1dad3e-0687-456e-a84e-09e786fdf306",
            "nama_pse": "CPULSA PAY TEKNOLOGI",
            "nama_se": "ENGINECP",
            "sektor": "Sektor Perdagangan",
            "tanggal_terbit": "2025-02-02",
            "url_tdpse_detail": "https://pse.komdigi.go.id/tdpse-detail/22239",
            "website": "enginecp.id"
        },
        {
            "id": "9e1db1f0-0992-4c1b-9536-d97e08b4152a",
            "nama_pse": "SENTOSA FARMA KASIH",
            "nama_se": "INDOHIS",
            "sektor": "Sektor Kesehatan",
            "tanggal_terbit": "2025-02-02",
            "url_tdpse_detail": "https://pse.komdigi.go.id/tdpse-detail/22240",
            "website": "indohis.com"
        },
        {
            "id": "9e1cde5c-e7ea-41f0-b35e-02bcec9a6279",
            "nama_pse": "DIGIFY KREASI SOLUSINDO",
            "nama_se": "pelatihanumkm.com",
            "sektor": "Sektor Perdagangan",
            "tanggal_terbit": "2025-02-02",
            "url_tdpse_detail": "https://pse.komdigi.go.id/tdpse-detail/22238",
            "website": "pelatihanumkm.com"
        },
        {
            "id": "9e1a144f-7b90-46b3-8065-4f8430c3cf2f",
            "nama_pse": "AZALEA LESTARI ELOK ABADI",
            "nama_se": "AZALEA KOI CIKARANG",
            "sektor": "Sektor Perdagangan",
            "tanggal_terbit": "2025-02-01",
            "url_tdpse_detail": "https://pse.komdigi.go.id/tdpse-detail/22229",
            "website": "azaleakoicikarang.id"
        },
        {
            "id": "9e1aa471-036a-44e6-9949-19965548a717",
            "nama_pse": "AYATEKNIK MEDIA GROUP",
            "nama_se": "PY AYATREKNIK MEDIA GROUP",
            "sektor": "Sektor Teknologi Informasi dan Komunikasi",
            "tanggal_terbit": "2025-02-01",
            "url_tdpse_detail": "https://pse.komdigi.go.id/tdpse-detail/22231",
            "website": "-"
        },
        {
            "id": "9e1aa99a-3f81-4f9d-92d2-e9b7ccdc9649",
            "nama_pse": "MEDIA CAKRAWALA GEMILANG TERANG",
            "nama_se": "KEJARFAKTA.CO",
            "sektor": "Sektor Teknologi Informasi dan Komunikasi",
            "tanggal_terbit": "2025-02-01",
            "url_tdpse_detail": "https://pse.komdigi.go.id/tdpse-detail/22232",
            "website": "kejarfakta.co"
        },
        {
            "id": "9e1a85f0-64f0-448d-bc23-76ce75d43bec",
            "nama_pse": "FAJAR SIDDIK SEBASTIAN",
            "nama_se": "LABGEN",
            "sektor": "Sektor Teknologi Informasi dan Komunikasi",
            "tanggal_terbit": "2025-02-01",
            "url_tdpse_detail": "https://pse.komdigi.go.id/tdpse-detail/22230",
            "website": "-"
        },
        {
            "id": "9e1abfa2-02d9-44ac-b194-36764bdbd030",
            "nama_pse": "EXPO LIMA CON",
            "nama_se": "PT EXPO LIMA CON",
            "sektor": "Sektor Teknologi Informasi dan Komunikasi",
            "tanggal_terbit": "2025-02-01",
            "url_tdpse_detail": "https://pse.komdigi.go.id/tdpse-detail/22233",
            "website": "-"
        },
        {
            "id": "9e1bd52f-cd73-41d5-8438-5d3f723181f1",
            "nama_pse": "HARMONI KONSELING INDONESIA",
            "nama_se": "EDUCOUNSELING",
            "sektor": "Sektor Teknologi Informasi dan Komunikasi",
            "tanggal_terbit": "2025-02-01",
            "url_tdpse_detail": "https://pse.komdigi.go.id/tdpse-detail/22235",
            "website": "educounseling.co.id"
        },
        {
            "id": "9e1b1ab7-6335-4ce4-bf2a-3c2169eea418",
            "nama_pse": "NORMAN DAVID RETTOB",
            "nama_se": "PT BANGGAI RAYA NET",
            "sektor": "Sektor Teknologi Informasi dan Komunikasi",
            "tanggal_terbit": "2025-02-01",
            "url_tdpse_detail": "https://pse.komdigi.go.id/tdpse-detail/22234",
            "website": "-"
        },
        {
            "id": "9e194168-a46a-48b7-a1ca-8415f33cebc6",
            "nama_pse": "DANS MULTI PRO",
            "nama_se": "DRIBBLE",
            "sektor": "Sektor Teknologi Informasi dan Komunikasi",
            "tanggal_terbit": "2025-01-31",
            "url_tdpse_detail": "https://pse.komdigi.go.id/tdpse-detail/22227",
            "website": "-"
        },
        {
            "id": "9e191d0e-5137-4da3-a60f-122d04796365",
            "nama_pse": "Mochammad Ma'sum",
            "nama_se": "VIEVIE HOUSE",
            "sektor": "Sektor Perdagangan",
            "tanggal_terbit": "2025-01-31",
            "url_tdpse_detail": "https://pse.komdigi.go.id/tdpse-detail/22226",
            "website": "vieviehouse.com"
        },
        {
            "id": "9e195ff2-d6c7-4f78-8d20-254409964148",
            "nama_pse": "IBIBO GROUP INDONESIA",
            "nama_se": "www.redbus.id",
            "sektor": "Sektor Perdagangan",
            "tanggal_terbit": "2025-01-31",
            "url_tdpse_detail": "https://pse.komdigi.go.id/tdpse-detail/22228",
            "website": "redbus.id"
        },
        {
            "id": "9e18de9f-57fc-425c-9ba6-609b4bda52d3",
            "nama_pse": "JUALAKU DIGITAL TEKNOLOGI",
            "nama_se": "JUALAKU",
            "sektor": "Sektor Teknologi Informasi dan Komunikasi",
            "tanggal_terbit": "2025-01-31",
            "url_tdpse_detail": "https://pse.komdigi.go.id/tdpse-detail/22223",
            "website": "jualaku.id"
        },
        {
            "id": "9e18c6ce-5bf1-4bfd-8243-e3d10082da15",
            "nama_pse": "OMIKRON SOLUSI KREATIF",
            "nama_se": "MEDINEX SIMRS-KLINIK",
            "sektor": "Sektor Kesehatan, Sektor Teknologi Informasi dan Komunikasi",
            "tanggal_terbit": "2025-01-31",
            "url_tdpse_detail": "https://pse.komdigi.go.id/tdpse-detail/22222",
            "website": "ptosk.com"
        },
        {
            "id": "9e17f438-36a3-4c89-aab9-c65c5884b5d5",
            "nama_pse": "BAHANA RINTISAN TEKNOLOGI",
            "nama_se": "GENMEDIK",
            "sektor": "Sektor Kesehatan, Sektor Teknologi Informasi dan Komunikasi",
            "tanggal_terbit": "2025-01-31",
            "url_tdpse_detail": "https://pse.komdigi.go.id/tdpse-detail/22221",
            "website": "clinic.genmedik.com"
        },
        {
            "id": "9e191cc8-49a0-4cf1-98b3-a242e0b5bb99",
            "nama_pse": "PANCA MODA HANDAL",
            "nama_se": "KOPERASI JASA PANCA MODA HANDAL",
            "sektor": "Sektor Transportasi",
            "tanggal_terbit": "2025-01-31",
            "url_tdpse_detail": "https://pse.komdigi.go.id/tdpse-detail/22225",
            "website": "-"
        },
        {
            "id": "9cb1ac57-e9d4-41c0-a82c-e7e6ebd80d91",
            "nama_pse": "SEMUA MAHIR TEKNOLOGI",
            "nama_se": "CODING STUDIO",
            "sektor": "Sektor Teknologi Informasi dan Komunikasi",
            "tanggal_terbit": "2025-01-31",
            "url_tdpse_detail": "https://pse.komdigi.go.id/tdpse-detail/22224",
            "website": "codingstudio.id"
        },
        {
            "id": "9e17e07c-6ccc-4530-bf73-720c9d04a662",
            "nama_pse": "MUHAMMAD AJI PANGESTU",
            "nama_se": "SISTEM INFORMASI MANAJEMEN PERAWATAN, PERBAIKAN, PENAMBAHAN ASET",
            "sektor": "Sektor Teknologi Informasi dan Komunikasi",
            "tanggal_terbit": "2025-01-30",
            "url_tdpse_detail": "https://pse.komdigi.go.id/tdpse-detail/22216",
            "website": "simr.polnes.ac.id"
        },
        {
            "id": "9e174f77-2630-4297-8be0-a24f15fd338d",
            "nama_pse": "NEU STAR TEKNOLOGI",
            "nama_se": "NEU STAR CLOUD VPS SERVICE",
            "sektor": "Sektor Teknologi Informasi dan Komunikasi",
            "tanggal_terbit": "2025-01-30",
            "url_tdpse_detail": "https://pse.komdigi.go.id/tdpse-detail/22212",
            "website": "-"
        },
        {
            "id": "9e1717b8-ee8f-41ba-98d7-194da92a74df",
            "nama_pse": "BARATASAYAN UTAMA",
            "nama_se": "THE SAMAYA SEMINYAK",
            "sektor": "Sektor Perdagangan",
            "tanggal_terbit": "2025-01-30",
            "url_tdpse_detail": "https://pse.komdigi.go.id/tdpse-detail/22205",
            "website": "thesamayabali.com"
        },
        {
            "id": "9e17ecee-c869-4272-8d57-80456cb1538b",
            "nama_pse": "MUHAMMAD AJI PANGESTU",
            "nama_se": "WEBSITE SEKOLAH SN 005 PALARAN",
            "sektor": "Sektor Teknologi Informasi dan Komunikasi",
            "tanggal_terbit": "2025-01-30",
            "url_tdpse_detail": "https://pse.komdigi.go.id/tdpse-detail/22220",
            "website": "sdn005palaran.siminat.my.id"
        },
        {
            "id": "9e172943-a1ed-4eee-9cd9-b295000afde4",
            "nama_pse": "XINARY RETAIL INDONESIA",
            "nama_se": "PT XINARY RETAIL INDONESIA",
            "sektor": "Sektor Perdagangan",
            "tanggal_terbit": "2025-01-30",
            "url_tdpse_detail": "https://pse.komdigi.go.id/tdpse-detail/22208",
            "website": "xymart.id"
        },
        {
            "id": "9e174014-0e41-414f-97ca-6085b0392f56",
            "nama_pse": "HIDUP MUDAH INDONESIA",
            "nama_se": "MUDAH INDONESIA",
            "sektor": "Sektor Perdagangan, Sektor Teknologi Informasi dan Komunikasi",
            "tanggal_terbit": "2025-01-30",
            "url_tdpse_detail": "https://pse.komdigi.go.id/tdpse-detail/22211",
            "website": "mudahindonesia.com"
        },
        {
            "id": "9e1752eb-1e1d-4f1b-95ce-76d5285208f6",
            "nama_pse": "RUMAH SAKIT FATMAWATI JAKARTA DITJEN PELAYANAN KESEHATAN",
            "nama_se": "SIMRSF",
            "sektor": "Sektor Kesehatan",
            "tanggal_terbit": "2025-01-30",
            "url_tdpse_detail": "https://pse.komdigi.go.id/tdpse-detail/22213",
            "website": "rs-fatmawati.go.id"
        },
        {
            "id": "9e17b700-e40a-496f-be56-5022df60418b",
            "nama_pse": "FINTEK DIGITAL CEMERLANG",
            "nama_se": "SHOPBIZ",
            "sektor": "Sektor Perdagangan, Sektor Teknologi Informasi dan Komunikasi",
            "tanggal_terbit": "2025-01-30",
            "url_tdpse_detail": "https://pse.komdigi.go.id/tdpse-detail/22214",
            "website": "shopbiz.id"
        },
        {
            "id": "9e17eb76-0f1d-40d5-8770-76f47c9910f8",
            "nama_pse": "MUHAMMAD AJI PANGESTU",
            "nama_se": "SISTEM INFORMASI AKUNTANSI UMKM",
            "sektor": "Sektor Teknologi Informasi dan Komunikasi",
            "tanggal_terbit": "2025-01-30",
            "url_tdpse_detail": "https://pse.komdigi.go.id/tdpse-detail/22219",
            "website": "akuntansi.minat.store"
        },
        {
            "id": "9e17e434-5434-4834-9bba-9ab84fcb5528",
            "nama_pse": "MUHAMMAD AJI PANGESTU",
            "nama_se": "SISTEM INFORMASI IURAN PERUMAHAN TERPADI",
            "sektor": "Sektor Teknologi Informasi dan Komunikasi",
            "tanggal_terbit": "2025-01-30",
            "url_tdpse_detail": "https://pse.komdigi.go.id/tdpse-detail/22217",
            "website": "eiuran.siminat.my.id"
        },
        {
            "id": "9e1722b2-25f5-4d37-a95d-4466dba8e544",
            "nama_pse": "DARINOL INOVASI INDONESIA",
            "nama_se": "GO GLOBAL INDONESIA",
            "sektor": "Sektor Teknologi Informasi dan Komunikasi",
            "tanggal_terbit": "2025-01-30",
            "url_tdpse_detail": "https://pse.komdigi.go.id/tdpse-detail/22206",
            "website": "go-global.id"
        },
        {
            "id": "9e16f0e8-b64b-4b62-ae43-bd63b1531d56",
            "nama_pse": "ARTHA KAYANA UTAMA",
            "nama_se": "TOKOEVENT",
            "sektor": "Sektor Perdagangan, Sektor Teknologi Informasi dan Komunikasi",
            "tanggal_terbit": "2025-01-30",
            "url_tdpse_detail": "https://pse.komdigi.go.id/tdpse-detail/22203",
            "website": "tokoevent.id"
        },
        {
            "id": "9e17270e-ac98-4c95-8663-dc57ed8b1856",
            "nama_pse": "NEU STAR TEKNOLOGI",
            "nama_se": "LAYANAN INTERNET LOKAL (RT RW NET)",
            "sektor": "Sektor Teknologi Informasi dan Komunikasi",
            "tanggal_terbit": "2025-01-30",
            "url_tdpse_detail": "https://pse.komdigi.go.id/tdpse-detail/22207",
            "website": "-"
        },
        {
            "id": "9e1738e0-654d-4f8f-8eb9-31d08af96016",
            "nama_pse": "IMPORTA JAYA ABADI",
            "nama_se": "IMPORTA AMI",
            "sektor": "Sektor Perdagangan",
            "tanggal_terbit": "2025-01-30",
            "url_tdpse_detail": "https://pse.komdigi.go.id/tdpse-detail/22209",
            "website": "-"
        },
        {
            "id": "9e17e9a5-d603-40e2-9ee1-e1b19615e88c",
            "nama_pse": "MUHAMMAD AJI PANGESTU",
            "nama_se": "SISTEM INFORMASI PEMETAAN UMKM",
            "sektor": "Sektor Teknologi Informasi dan Komunikasi",
            "tanggal_terbit": "2025-01-30",
            "url_tdpse_detail": "https://pse.komdigi.go.id/tdpse-detail/22218",
            "website": "pemetaanumkm.minat.store"
        },
        {
            "id": "9e16fd11-42fe-415c-89a6-e51fc74e0192",
            "nama_pse": "INDOLUXE AROMA BERKELAS",
            "nama_se": "NOBLE SCENT",
            "sektor": "Sektor Perdagangan",
            "tanggal_terbit": "2025-01-30",
            "url_tdpse_detail": "https://pse.komdigi.go.id/tdpse-detail/22204",
            "website": "noblescent.id"
        },
        {
            "id": "9e17daaf-fbd3-4f35-9abe-bbf233ea057c",
            "nama_pse": "FIRDAUS",
            "nama_se": "BOT STORE",
            "sektor": "Sektor Teknologi Informasi dan Komunikasi",
            "tanggal_terbit": "2025-01-30",
            "url_tdpse_detail": "https://pse.komdigi.go.id/tdpse-detail/22215",
            "website": "botstore.vip"
        },
        {
            "id": "9e10f15e-f836-4886-aa7b-9c1dc17c9244",
            "nama_pse": "LISTIO MEDIA TEKNOLOGI",
            "nama_se": "PT LISTIO MEDIA TEKNOLOGI",
            "sektor": "Sektor Perdagangan, Sektor Teknologi Informasi dan Komunikasi",
            "tanggal_terbit": "2025-01-27",
            "url_tdpse_detail": "https://pse.komdigi.go.id/tdpse-detail/22201",
            "website": "-"
        },
        {
            "id": "9e10f29c-c6a8-4a9e-b748-4a5abb4d8f39",
            "nama_pse": "REYBEN MULTIMEDIA INTERNATIONAL",
            "nama_se": "REYBEN ENTERTAINMENT",
            "sektor": "Sektor Teknologi Informasi dan Komunikasi",
            "tanggal_terbit": "2025-01-27",
            "url_tdpse_detail": "https://pse.komdigi.go.id/tdpse-detail/22202",
            "website": "reyben.co.id"
        },
        {
            "id": "9e0df2de-c419-4099-882c-b4db0d5190b1",
            "nama_pse": "SADAYA MEDIA UTAMA",
            "nama_se": "KUNINGAN SATU",
            "sektor": "Sektor Teknologi Informasi dan Komunikasi",
            "tanggal_terbit": "2025-01-26",
            "url_tdpse_detail": "https://pse.komdigi.go.id/tdpse-detail/22199",
            "website": "kuningansatu.com"
        }
    ],
    "processingTimeMs": 18,
    "query": "",
    "totalHits": 19131,
    "hitsPerPage": 50,
    "page": 10,
    "totalPages": 383
}