{
    "hits": [
        {
            "id": "9cb1ab91-6ea3-4a57-8039-6243e7167856",
            "nama_pse": "XDANA INVESTA INDONESIA",
            "nama_se": "XSAVER - APLIKASI REKSA DANA,  XDANA PRO - APLIKASI REKSA DANA,  XDANA SYARIAH - APLIKASI REKSA DANA, WEB - REKSA DANA ONLINE",
            "sektor": "Sektor Keuangan, Sektor Keuangan, Sektor Keuangan, Sektor Keuangan",
            "tanggal_terbit": "2021-05-17",
            "url_tdpse_detail": "https://pse.komdigi.go.id/tdpse-detail/1001",
            "website": "xdana.com"
        },
        {
            "id": "9cb1ab66-0e72-4831-ad8c-b3771c1a37dd",
            "nama_pse": "BANK OCBC NISP",
            "nama_se": "VELOCITY@OCBCNISP VERSI MOBILE",
            "sektor": "Sektor Keuangan, Sektor Keuangan, Sektor Keuangan, Sektor Keuangan, Sektor Keuangan, Sektor Keuangan",
            "tanggal_terbit": "2021-05-11",
            "url_tdpse_detail": "https://pse.komdigi.go.id/tdpse-detail/874",
            "website": "-"
        },
        {
            "id": "9cb1ab64-72ab-4111-b3a6-2a6672716374",
            "nama_pse": "BANK OCBC NISP",
            "nama_se": "WHISTLEBLOWING",
            "sektor": "Sektor Teknologi Informasi dan Komunikasi, Sektor Teknologi Informasi dan Komunikasi, Sektor Teknologi Informasi dan Komunikasi, Sektor Teknologi Informasi dan Komunikasi, Sektor Teknologi Informasi dan Komunikasi, Sektor Teknologi Informasi dan Komunikasi",
            "tanggal_terbit": "2021-05-11",
            "url_tdpse_detail": "https://pse.komdigi.go.id/tdpse-detail/876",
            "website": "whistleblowing.ocbcnisp.com"
        },
        {
            "id": "9cb1ab61-863e-4450-9ef1-cf5908830190",
            "nama_pse": "BANK OCBC NISP",
            "nama_se": "ONE DNA",
            "sektor": "Sektor Keuangan, Sektor Keuangan, Sektor Keuangan, Sektor Keuangan, Sektor Keuangan, Sektor Keuangan",
            "tanggal_terbit": "2021-05-11",
            "url_tdpse_detail": "https://pse.komdigi.go.id/tdpse-detail/877",
            "website": "ktaonline.ocbcnisp.com"
        },
        {
            "id": "9cb1ab61-884f-4016-b442-273876ba5510",
            "nama_pse": "BANK OCBC NISP",
            "nama_se": "RACHEL",
            "sektor": "Sektor Teknologi Informasi dan Komunikasi, Sektor Teknologi Informasi dan Komunikasi, Sektor Teknologi Informasi dan Komunikasi, Sektor Teknologi Informasi dan Komunikasi, Sektor Teknologi Informasi dan Komunikasi, Sektor Teknologi Informasi dan Komunikasi",
            "tanggal_terbit": "2021-05-11",
            "url_tdpse_detail": "https://pse.komdigi.go.id/tdpse-detail/879",
            "website": "taytb.com/rachel"
        },
        {
            "id": "9cb1ab61-8a0a-446c-a9a7-5844a5b7da8b",
            "nama_pse": "BANK OCBC NISP",
            "nama_se": "VIDEO CALL",
            "sektor": "Sektor Teknologi Informasi dan Komunikasi, Sektor Teknologi Informasi dan Komunikasi, Sektor Teknologi Informasi dan Komunikasi, Sektor Teknologi Informasi dan Komunikasi, Sektor Teknologi Informasi dan Komunikasi, Sektor Teknologi Informasi dan Komunikasi",
            "tanggal_terbit": "2021-05-11",
            "url_tdpse_detail": "https://pse.komdigi.go.id/tdpse-detail/880",
            "website": "videokyc.ocbcnicp.com"
        },
        {
            "id": "9cb1ab61-8cbb-45ac-92fa-99edf4a3a906",
            "nama_pse": "BANK OCBC NISP",
            "nama_se": "INTERNET BANKING",
            "sektor": "Sektor Keuangan, Sektor Keuangan, Sektor Keuangan, Sektor Keuangan, Sektor Keuangan, Sektor Keuangan",
            "tanggal_terbit": "2021-05-11",
            "url_tdpse_detail": "https://pse.komdigi.go.id/tdpse-detail/881",
            "website": "online.ocbcnisp.com/"
        },
        {
            "id": "9cb1ab64-750f-41e0-b903-0cf46d9d44a5",
            "nama_pse": "BANK OCBC NISP",
            "nama_se": "ONE MOBILE",
            "sektor": "Sektor Keuangan, Sektor Keuangan, Sektor Keuangan, Sektor Keuangan, Sektor Keuangan, Sektor Keuangan",
            "tanggal_terbit": "2021-05-11",
            "url_tdpse_detail": "https://pse.komdigi.go.id/tdpse-detail/882",
            "website": "-"
        },
        {
            "id": "9cb1ab61-92e6-443a-a77d-1fcf0966ad1f",
            "nama_pse": "BANK OCBC NISP",
            "nama_se": "API MANAGEMENT",
            "sektor": "Sektor Teknologi Informasi dan Komunikasi, Sektor Teknologi Informasi dan Komunikasi, Sektor Teknologi Informasi dan Komunikasi, Sektor Teknologi Informasi dan Komunikasi, Sektor Teknologi Informasi dan Komunikasi, Sektor Teknologi Informasi dan Komunikasi",
            "tanggal_terbit": "2021-05-11",
            "url_tdpse_detail": "https://pse.komdigi.go.id/tdpse-detail/883",
            "website": "api.ocbcnisp.com"
        },
        {
            "id": "9cb1ab61-95fb-48fc-8eb8-797eeae0c1f5",
            "nama_pse": "BANK OCBC NISP",
            "nama_se": "WEBSTATEMENT",
            "sektor": "Sektor Teknologi Informasi dan Komunikasi, Sektor Teknologi Informasi dan Komunikasi, Sektor Teknologi Informasi dan Komunikasi, Sektor Teknologi Informasi dan Komunikasi, Sektor Teknologi Informasi dan Komunikasi, Sektor Teknologi Informasi dan Komunikasi",
            "tanggal_terbit": "2021-05-11",
            "url_tdpse_detail": "https://pse.komdigi.go.id/tdpse-detail/884",
            "website": "online.ocbcnisp.com/statement/"
        },
        {
            "id": "9cb1ab66-1087-4ba9-9000-6c6e8b611ba2",
            "nama_pse": "BANK OCBC NISP",
            "nama_se": "WEB EXTERNAL",
            "sektor": "Sektor Teknologi Informasi dan Komunikasi, Sektor Teknologi Informasi dan Komunikasi, Sektor Teknologi Informasi dan Komunikasi, Sektor Teknologi Informasi dan Komunikasi, Sektor Teknologi Informasi dan Komunikasi, Sektor Teknologi Informasi dan Komunikasi",
            "tanggal_terbit": "2021-05-11",
            "url_tdpse_detail": "https://pse.komdigi.go.id/tdpse-detail/885",
            "website": "ocbcnisp.com"
        },
        {
            "id": "9cb1ab66-125c-44f7-a5ea-1dd23107d986",
            "nama_pse": "BANK OCBC NISP",
            "nama_se": "OCBC NISP ONE WALLET",
            "sektor": "Sektor Keuangan, Sektor Keuangan, Sektor Keuangan, Sektor Keuangan, Sektor Keuangan, Sektor Keuangan",
            "tanggal_terbit": "2021-05-11",
            "url_tdpse_detail": "https://pse.komdigi.go.id/tdpse-detail/886",
            "website": "-"
        },
        {
            "id": "9cb1ab61-9a67-48b4-96a5-84f38f07af54",
            "nama_pse": "EASY MANAGEMENT SYSTEMS",
            "nama_se": "PROGRESSIVE WEB APP - GAJIGESA",
            "sektor": "Sektor Teknologi Informasi dan Komunikasi",
            "tanggal_terbit": "2021-05-11",
            "url_tdpse_detail": "https://pse.komdigi.go.id/tdpse-detail/940",
            "website": "app.gajigesa.com"
        },
        {
            "id": "9cb1ab61-b81a-417f-8e15-f0166b35d639",
            "nama_pse": "KEPOO SOLUSI INDONESIA",
            "nama_se": "KEPOO",
            "sektor": "Sektor Perdagangan, Sektor Perdagangan, Sektor Teknologi Informasi dan Komunikasi, Sektor Teknologi Informasi dan Komunikasi",
            "tanggal_terbit": "2021-05-11",
            "url_tdpse_detail": "https://pse.komdigi.go.id/tdpse-detail/966",
            "website": "kepoo.id"
        },
        {
            "id": "9cb1ab69-c5ae-49b0-9273-611fdfdedb41",
            "nama_pse": "SEPULSA TEKNOLOGI INDONESIA",
            "nama_se": "ALTERRA BILLS SOLUTION",
            "sektor": "Sektor Perdagangan, Sektor Perdagangan",
            "tanggal_terbit": "2021-05-11",
            "url_tdpse_detail": "https://pse.komdigi.go.id/tdpse-detail/846",
            "website": "sepulsa.com, sentinel.alterra.id, elisian.alphabill.id"
        },
        {
            "id": "9cb1ab70-5a0a-42ef-926b-b99398394507",
            "nama_pse": "CREDOLAB INDONESIA SCORING",
            "nama_se": "CREDOLAB",
            "sektor": "Sektor Keuangan, Sektor Keuangan, Sektor Teknologi Informasi dan Komunikasi, Sektor Teknologi Informasi dan Komunikasi",
            "tanggal_terbit": "2021-05-11",
            "url_tdpse_detail": "https://pse.komdigi.go.id/tdpse-detail/872",
            "website": "credolab.com"
        },
        {
            "id": "9cb1ab62-57ab-4cfc-9a37-622d123a405c",
            "nama_pse": "ASTRA INTERNATIONAL",
            "nama_se": "WEBSITE ASTRA DAIHATSU",
            "sektor": "Sektor Perdagangan, Sektor Perdagangan",
            "tanggal_terbit": "2021-05-11",
            "url_tdpse_detail": "https://pse.komdigi.go.id/tdpse-detail/908",
            "website": "astra-daihatsu.id"
        },
        {
            "id": "9cb1ab62-5978-4c74-a2e7-4b70c4db2707",
            "nama_pse": "ASTRA INTERNATIONAL",
            "nama_se": "DAIHATSUKU",
            "sektor": "Sektor Perdagangan, Sektor Perdagangan",
            "tanggal_terbit": "2021-05-11",
            "url_tdpse_detail": "https://pse.komdigi.go.id/tdpse-detail/909",
            "website": "-"
        },
        {
            "id": "9cb1ab65-39b5-47a5-bd5a-47f3791b23e1",
            "nama_pse": "ASTRA INTERNATIONAL",
            "nama_se": "META",
            "sektor": "Sektor Perdagangan, Sektor Perdagangan, Sektor Teknologi Informasi dan Komunikasi, Sektor Teknologi Informasi dan Komunikasi",
            "tanggal_terbit": "2021-05-11",
            "url_tdpse_detail": "https://pse.komdigi.go.id/tdpse-detail/974",
            "website": "-"
        },
        {
            "id": "9cb1ab65-3b8e-4043-b0c8-60e7904a3341",
            "nama_pse": "ASTRA INTERNATIONAL",
            "nama_se": "ASTRAKU",
            "sektor": "Sektor Perdagangan, Sektor Perdagangan",
            "tanggal_terbit": "2021-05-11",
            "url_tdpse_detail": "https://pse.komdigi.go.id/tdpse-detail/975",
            "website": "-"
        },
        {
            "id": "9cb1ab62-5d16-496a-b5d7-afb8c1949277",
            "nama_pse": "ASTRA INTERNATIONAL",
            "nama_se": "BELIBARENG",
            "sektor": "Sektor Perdagangan, Sektor Perdagangan",
            "tanggal_terbit": "2021-05-11",
            "url_tdpse_detail": "https://pse.komdigi.go.id/tdpse-detail/976",
            "website": "belibareng.co.id"
        },
        {
            "id": "9cb1ab70-9c30-4fdf-b6be-2da0dd4c47f5",
            "nama_pse": "ASTRA INTERNATIONAL",
            "nama_se": "ORION",
            "sektor": "Sektor Perdagangan, Sektor Perdagangan, Sektor Teknologi Informasi dan Komunikasi, Sektor Teknologi Informasi dan Komunikasi",
            "tanggal_terbit": "2021-05-11",
            "url_tdpse_detail": "https://pse.komdigi.go.id/tdpse-detail/977",
            "website": "orion.astra.co.id"
        },
        {
            "id": "9cb1ab65-3d62-4523-84bf-9d6dedcf6155",
            "nama_pse": "ASTRA INTERNATIONAL",
            "nama_se": "MOTORKU X",
            "sektor": "Sektor Perdagangan, Sektor Perdagangan",
            "tanggal_terbit": "2021-05-11",
            "url_tdpse_detail": "https://pse.komdigi.go.id/tdpse-detail/978",
            "website": "-"
        },
        {
            "id": "9cb1ab65-4842-4222-af9e-62d803e4fb28",
            "nama_pse": "PRINTEROUS GLOBAL",
            "nama_se": "PRINTEROUS",
            "sektor": "Sektor Perdagangan, Sektor Perdagangan",
            "tanggal_terbit": "2021-05-11",
            "url_tdpse_detail": "https://pse.komdigi.go.id/tdpse-detail/887",
            "website": "printerous.com/"
        },
        {
            "id": "9cb1ab65-6309-487a-bbf8-951962873ac6",
            "nama_pse": "TIGASERANGKAI PUSTAKAMANDIRI",
            "nama_se": "TISERA.ID",
            "sektor": "Sektor Teknologi Informasi dan Komunikasi, Sektor Teknologi Informasi dan Komunikasi",
            "tanggal_terbit": "2021-05-11",
            "url_tdpse_detail": "https://pse.komdigi.go.id/tdpse-detail/903",
            "website": "tisera.id"
        },
        {
            "id": "9cb1ab71-0af4-4d22-9b1c-671b1424ff48",
            "nama_pse": "ASURANSI JIWA TASPEN",
            "nama_se": "MYTASPENLIFE",
            "sektor": "Sektor Teknologi Informasi dan Komunikasi, Sektor Teknologi Informasi dan Komunikasi",
            "tanggal_terbit": "2021-05-11",
            "url_tdpse_detail": "https://pse.komdigi.go.id/tdpse-detail/965",
            "website": "my.taspenlife.com"
        },
        {
            "id": "9cb1ab62-debd-467c-bf12-5d6ec8306c32",
            "nama_pse": "BOLTTECH DEVICE PROTECTION INDONESIA INVESTMENT",
            "nama_se": "BOLTTECH INSURTECH EXCHANGE",
            "sektor": "Sektor Perdagangan, Sektor Perdagangan, Sektor Teknologi Informasi dan Komunikasi, Sektor Teknologi Informasi dan Komunikasi",
            "tanggal_terbit": "2021-05-11",
            "url_tdpse_detail": "https://pse.komdigi.go.id/tdpse-detail/917",
            "website": "-"
        },
        {
            "id": "9cb1ab65-d7ec-43c8-976f-3011c29ac45f",
            "nama_pse": "BOLTTECH DEVICE PROTECTION INDONESIA INVESTMENT",
            "nama_se": "BOLTTECH INSURTECH EXCHANGE",
            "sektor": "Sektor Perdagangan, Sektor Perdagangan, Sektor Teknologi Informasi dan Komunikasi, Sektor Teknologi Informasi dan Komunikasi",
            "tanggal_terbit": "2021-05-11",
            "url_tdpse_detail": "https://pse.komdigi.go.id/tdpse-detail/918",
            "website": "-"
        },
        {
            "id": "9cb1ab71-6855-45cb-aea6-59b40f3d8f47",
            "nama_pse": "SEJAHTERA LUNARIA ANNUA",
            "nama_se": "SUPER FINANCIAL APP",
            "sektor": "Sektor Perdagangan, Sektor Perdagangan",
            "tanggal_terbit": "2021-05-11",
            "url_tdpse_detail": "https://pse.komdigi.go.id/tdpse-detail/955",
            "website": "koinworks.com"
        },
        {
            "id": "9cb1ab6a-7da4-4f3d-b7f9-c81a1c4938c5",
            "nama_pse": "ADVANCE INTELLIGENCE INDONESIA",
            "nama_se": "ADVANCE.AI",
            "sektor": "Sektor Teknologi Informasi dan Komunikasi, Sektor Teknologi Informasi dan Komunikasi",
            "tanggal_terbit": "2021-05-11",
            "url_tdpse_detail": "https://pse.komdigi.go.id/tdpse-detail/852",
            "website": "advance.ai"
        },
        {
            "id": "9cb1ab63-3335-47fa-818c-c87ca1c1ad3e",
            "nama_pse": "HARAPAN FINTECH INDONESIA",
            "nama_se": "KLIK KAMI",
            "sektor": "Sektor Keuangan, Sektor Keuangan",
            "tanggal_terbit": "2021-05-11",
            "url_tdpse_detail": "https://pse.komdigi.go.id/tdpse-detail/967",
            "website": "klikkami.co.id"
        },
        {
            "id": "9cb1ab6a-bad0-41d4-9403-e5cf8206dff7",
            "nama_pse": "INDONESIA BERSATU JAYA SEJAHTERA",
            "nama_se": "IBERMART",
            "sektor": "Sektor Perdagangan, Sektor Perdagangan",
            "tanggal_terbit": "2021-05-11",
            "url_tdpse_detail": "https://pse.komdigi.go.id/tdpse-detail/861",
            "website": "ibermart.co.id"
        },
        {
            "id": "9cb1ab63-494f-45b4-8dcb-65ae36a449d4",
            "nama_pse": "VISIONET INTERNASIONAL INOVASI",
            "nama_se": "OVO",
            "sektor": "Sektor Perdagangan, Sektor Perdagangan",
            "tanggal_terbit": "2021-05-11",
            "url_tdpse_detail": "https://pse.komdigi.go.id/tdpse-detail/855",
            "website": "ovo-marketplace.id"
        },
        {
            "id": "9cb1ab6a-d2d3-4d4a-97b9-b60e06ecce2a",
            "nama_pse": "PIALANG ASURANSI PROVIS MITRA SINERGI",
            "nama_se": "POLISMALL",
            "sektor": "Sektor Keuangan, Sektor Keuangan, Sektor Teknologi Informasi dan Komunikasi, Sektor Teknologi Informasi dan Komunikasi",
            "tanggal_terbit": "2021-05-11",
            "url_tdpse_detail": "https://pse.komdigi.go.id/tdpse-detail/898",
            "website": "cargo.polismall.com"
        },
        {
            "id": "9cb1ab63-6155-4587-a43d-4700bff1d957",
            "nama_pse": "STC NATURAL INDO",
            "nama_se": "HMART",
            "sektor": "Sektor Perdagangan, Sektor Perdagangan",
            "tanggal_terbit": "2021-05-11",
            "url_tdpse_detail": "https://pse.komdigi.go.id/tdpse-detail/854",
            "website": "hmart.co.id"
        },
        {
            "id": "9cb1ab6a-e04c-414a-b269-6837328d7cf9",
            "nama_pse": "VISIONET INTERNASIONAL",
            "nama_se": "OVO",
            "sektor": "Sektor Keuangan, Sektor Keuangan",
            "tanggal_terbit": "2021-05-11",
            "url_tdpse_detail": "https://pse.komdigi.go.id/tdpse-detail/954",
            "website": "ovo.id"
        },
        {
            "id": "9cb1ab63-6bd9-4ad9-a495-8fd9d1b1e914",
            "nama_pse": "PROTEKSI DIGITAL PIALANG ASURANSI",
            "nama_se": "PRODIGI",
            "sektor": "Sektor Keuangan, Sektor Keuangan",
            "tanggal_terbit": "2021-05-11",
            "url_tdpse_detail": "https://pse.komdigi.go.id/tdpse-detail/980",
            "website": "prodiginow.com"
        },
        {
            "id": "9cb1ab63-7a0e-44a0-9669-be02bab00a7a",
            "nama_pse": "BRANKAS TEKNOLOGI INDONESIA",
            "nama_se": "BRANKAS OPEN BANKING API PLATFORM",
            "sektor": "Sektor Teknologi Informasi dan Komunikasi, Sektor Teknologi Informasi dan Komunikasi",
            "tanggal_terbit": "2021-05-11",
            "url_tdpse_detail": "https://pse.komdigi.go.id/tdpse-detail/927",
            "website": "Brank.as"
        },
        {
            "id": "9cb1ab6a-e972-45cb-93c6-bc8658a31069",
            "nama_pse": "FORTE GLOBAL SEKURITAS",
            "nama_se": "FORTE ONLINE TRADING",
            "sektor": "Sektor Keuangan, Sektor Keuangan",
            "tanggal_terbit": "2021-05-11",
            "url_tdpse_detail": "https://pse.komdigi.go.id/tdpse-detail/859",
            "website": "-"
        },
        {
            "id": "9cb1ab6a-f34c-415d-a624-688a3c7171f3",
            "nama_pse": "INFRASTRUKTUR DIGITAL EDUKASI",
            "nama_se": "MYSCOOL",
            "sektor": "Sektor Teknologi Informasi dan Komunikasi, Sektor Teknologi Informasi dan Komunikasi",
            "tanggal_terbit": "2021-05-11",
            "url_tdpse_detail": "https://pse.komdigi.go.id/tdpse-detail/868",
            "website": "infraedukasi.com/"
        },
        {
            "id": "9cb1ab63-7e7d-4006-8bb3-2732cfc4683a",
            "nama_pse": "INFRASTRUKTUR DIGITAL EDUKASI",
            "nama_se": "QAMPUS",
            "sektor": "Sektor Teknologi Informasi dan Komunikasi, Sektor Teknologi Informasi dan Komunikasi",
            "tanggal_terbit": "2021-05-11",
            "url_tdpse_detail": "https://pse.komdigi.go.id/tdpse-detail/869",
            "website": "infraedukasi.com/"
        },
        {
            "id": "9cb1ab6a-f66a-4bd2-b036-2ad88dbcf9d3",
            "nama_pse": "OMARCO EDUSAV PRODUK",
            "nama_se": "EDUSAV",
            "sektor": "Sektor Perdagangan, Sektor Perdagangan, Sektor Keuangan, Sektor Keuangan",
            "tanggal_terbit": "2021-05-11",
            "url_tdpse_detail": "https://pse.komdigi.go.id/tdpse-detail/914",
            "website": "edusav.id"
        },
        {
            "id": "9cb1ab71-f7d3-498d-8bd8-97a0b0c9c77d",
            "nama_pse": "BINTANG PRIMA KARYA BERSAMA",
            "nama_se": "WWW.NINESTARS.ID",
            "sektor": "Sektor Perdagangan, Sektor Perdagangan",
            "tanggal_terbit": "2021-05-11",
            "url_tdpse_detail": "https://pse.komdigi.go.id/tdpse-detail/948",
            "website": "ninestars.id"
        },
        {
            "id": "9cb1ab63-89e5-4977-b146-876b382a4f4d",
            "nama_pse": "ASTRA HONDA MOTOR",
            "nama_se": "AHM CAREER",
            "sektor": "Sektor Teknologi Informasi dan Komunikasi, Sektor Teknologi Informasi dan Komunikasi, Sektor Teknologi Informasi dan Komunikasi",
            "tanggal_terbit": "2021-05-11",
            "url_tdpse_detail": "https://pse.komdigi.go.id/tdpse-detail/919",
            "website": "recruitment.astra-honda.com/index.html"
        },
        {
            "id": "9cb1ab63-9702-48e4-a869-79ae5fd65a84",
            "nama_pse": "MAJU BERSAMA KAFILAH",
            "nama_se": "KAFILAH.CO.ID",
            "sektor": "Sektor Perdagangan, Sektor Perdagangan, Sektor Keuangan, Sektor Keuangan",
            "tanggal_terbit": "2021-05-11",
            "url_tdpse_detail": "https://pse.komdigi.go.id/tdpse-detail/858",
            "website": "kafilah.co.id"
        },
        {
            "id": "9cb1ab63-99f2-4a0b-835e-c870510cab1b",
            "nama_pse": "MAJU BERSAMA KAFILAH",
            "nama_se": "KAFILAH.CO.ID",
            "sektor": "Sektor Perdagangan, Sektor Perdagangan, Sektor Keuangan, Sektor Keuangan",
            "tanggal_terbit": "2021-05-11",
            "url_tdpse_detail": "https://pse.komdigi.go.id/tdpse-detail/960",
            "website": "kafilah.co.id"
        },
        {
            "id": "9cb1ab72-21cf-4b71-9544-3c1f46983602",
            "nama_pse": "KONAKAMI DIGITAL INDONESIA",
            "nama_se": "DIGITALSCOMMUNITY.CO.ID",
            "sektor": "Sektor Perdagangan, Sektor Perdagangan",
            "tanggal_terbit": "2021-05-11",
            "url_tdpse_detail": "https://pse.komdigi.go.id/tdpse-detail/894",
            "website": "digitalscommunity.co.id"
        },
        {
            "id": "9cb1ab63-a953-424a-8164-91f67898dd93",
            "nama_pse": "EZEELINK INDONESIA",
            "nama_se": "EZEELINK",
            "sektor": "Sektor Keuangan, Sektor Keuangan",
            "tanggal_terbit": "2021-05-11",
            "url_tdpse_detail": "https://pse.komdigi.go.id/tdpse-detail/888",
            "website": "ezeelink.co.id"
        },
        {
            "id": "9cb1ab63-b43a-42c7-8d3e-0bc657256599",
            "nama_pse": "DANA PINJAMAN INKLUSIF",
            "nama_se": "PINJAMANGO",
            "sektor": "Sektor Keuangan, Sektor Keuangan, Sektor Teknologi Informasi dan Komunikasi, Sektor Teknologi Informasi dan Komunikasi",
            "tanggal_terbit": "2021-05-11",
            "url_tdpse_detail": "https://pse.komdigi.go.id/tdpse-detail/863",
            "website": "pinjamango.co.id"
        },
        {
            "id": "9cb1ab72-3689-468b-8745-a0ecbf72bb73",
            "nama_pse": "BANK PERMATA",
            "nama_se": "PERMATAMOBILE X",
            "sektor": "Sektor Keuangan, Sektor Keuangan",
            "tanggal_terbit": "2021-05-11",
            "url_tdpse_detail": "https://pse.komdigi.go.id/tdpse-detail/946",
            "website": "-"
        }
    ],
    "processingTimeMs": 9,
    "query": "",
    "totalHits": 19121,
    "hitsPerPage": 50,
    "page": 365,
    "totalPages": 383
}