{
    "hits": [
        {
            "id": "9cb1aba3-bfd5-49c6-8d9c-1491d6ad8d5d",
            "nama_pse": "KIOSON KOMERSIAL INDONESIA",
            "nama_se": "KIOSON MOBILE",
            "sektor": "Sektor Teknologi Informasi dan Komunikasi",
            "tanggal_terbit": "2022-06-20",
            "url_tdpse_detail": "https://pse.komdigi.go.id/tdpse-detail/4618",
            "website": "-"
        },
        {
            "id": "9cb1abad-ab40-4809-8650-09ec720cf1c4",
            "nama_pse": "TEKNOLOGI KARYA DIGITAL NUSA",
            "nama_se": "TKDN",
            "sektor": "Sektor Teknologi Informasi dan Komunikasi",
            "tanggal_terbit": "2022-06-20",
            "url_tdpse_detail": "https://pse.komdigi.go.id/tdpse-detail/4619",
            "website": "tkdn.co.id"
        },
        {
            "id": "9cb1abad-adc0-42fb-942b-d66520142ead",
            "nama_pse": "TEKNOLOGI KARYA DIGITAL NUSA",
            "nama_se": "TEKNOLOGI KARYA DIGITAL NUSA",
            "sektor": "Sektor Teknologi Informasi dan Komunikasi",
            "tanggal_terbit": "2022-06-20",
            "url_tdpse_detail": "https://pse.komdigi.go.id/tdpse-detail/4620",
            "website": "tkdn.co.id"
        },
        {
            "id": "9cb1ab98-35b0-4cc1-9256-75158e86d03e",
            "nama_pse": "L`OREAL INDONESIA",
            "nama_se": "WEBSITE – SFCC PLATFORM",
            "sektor": "Sektor Perdagangan",
            "tanggal_terbit": "2022-06-20",
            "url_tdpse_detail": "https://pse.komdigi.go.id/tdpse-detail/4621",
            "website": "yslbeauty.co.id"
        },
        {
            "id": "9cb1aba3-c1c3-4dd7-8866-230841a811ad",
            "nama_pse": "GAGAT APLIKASI WISATA",
            "nama_se": "GOWISATA",
            "sektor": "Sektor Perdagangan",
            "tanggal_terbit": "2022-06-20",
            "url_tdpse_detail": "https://pse.komdigi.go.id/tdpse-detail/4622",
            "website": "gagataplikasiwisata.com"
        },
        {
            "id": "9cb1ab98-37c1-45a3-af51-c159ac054ebc",
            "nama_pse": "KENALINKED INDONESIA GRUP",
            "nama_se": "KENALINKED INDONESIA",
            "sektor": "Sektor Teknologi Informasi dan Komunikasi",
            "tanggal_terbit": "2022-06-20",
            "url_tdpse_detail": "https://pse.komdigi.go.id/tdpse-detail/4623",
            "website": "kenalinked.com"
        },
        {
            "id": "9cb1ab98-39d4-40bb-960e-0a4576ef424b",
            "nama_pse": "SARANA BERITA NUSANTARA",
            "nama_se": "KALTENGONLINE",
            "sektor": "Sektor Teknologi Informasi dan Komunikasi",
            "tanggal_terbit": "2022-06-20",
            "url_tdpse_detail": "https://pse.komdigi.go.id/tdpse-detail/4624",
            "website": "kaltengonline.com"
        },
        {
            "id": "9cb1abad-afef-47bd-8d85-c852ddc0257b",
            "nama_pse": "JENDELA AKSES SEHAT",
            "nama_se": "FARMACARE",
            "sektor": "Sektor Perdagangan, Sektor Kesehatan",
            "tanggal_terbit": "2022-06-20",
            "url_tdpse_detail": "https://pse.komdigi.go.id/tdpse-detail/4625",
            "website": "app.farmacare.id"
        },
        {
            "id": "9cb1ab98-3cf6-400f-a88b-66e8c3c93e2d",
            "nama_pse": "WISE PAYMENTS INDONESIA",
            "nama_se": "WISE",
            "sektor": "Sektor Keuangan",
            "tanggal_terbit": "2022-06-20",
            "url_tdpse_detail": "https://pse.komdigi.go.id/tdpse-detail/4627",
            "website": "wise.com"
        },
        {
            "id": "9cb1abad-b1eb-41e3-9c9a-8d16bed2e9e9",
            "nama_pse": "PARFUM INDONESIA RAYA",
            "nama_se": "REY DE PARFUM",
            "sektor": "Sektor Perdagangan, Sektor Teknologi Informasi dan Komunikasi",
            "tanggal_terbit": "2022-06-20",
            "url_tdpse_detail": "https://pse.komdigi.go.id/tdpse-detail/4626",
            "website": "reydeparfum.com"
        },
        {
            "id": "9cb1abad-b3c6-44f3-a901-379403e38d3e",
            "nama_pse": "TOKO NFT NASIONAL",
            "nama_se": "TOKO NFT",
            "sektor": "Sektor Teknologi Informasi dan Komunikasi",
            "tanggal_terbit": "2022-06-20",
            "url_tdpse_detail": "https://pse.komdigi.go.id/tdpse-detail/4629",
            "website": "tokonft.shop"
        },
        {
            "id": "9cb1aba3-c41e-43a8-9704-7ab96d112468",
            "nama_pse": "HEXA OKE KREATIF INDONESIA",
            "nama_se": "HOKIGOLD (PREMIUM EXPERT ADVISOR SOFTWARE FOR TRADING)",
            "sektor": "Sektor Perdagangan",
            "tanggal_terbit": "2022-06-20",
            "url_tdpse_detail": "https://pse.komdigi.go.id/tdpse-detail/4630",
            "website": "pthoki.id"
        },
        {
            "id": "9cb1aba3-b37a-4b85-bd1a-2dae273652d5",
            "nama_pse": "ARTHA KENCANA TRANS",
            "nama_se": "PT ARTHA KENCANA TRANS",
            "sektor": "Sektor Transportasi",
            "tanggal_terbit": "2022-06-19",
            "url_tdpse_detail": "https://pse.komdigi.go.id/tdpse-detail/4606",
            "website": "arthakencanatrans.co.id"
        },
        {
            "id": "9cb1ab98-282e-45e4-827a-1d6ad76350b0",
            "nama_pse": "ENDY FRANDO SIMBOLON",
            "nama_se": "APLIKASI",
            "sektor": "Sektor Transportasi",
            "tanggal_terbit": "2022-06-19",
            "url_tdpse_detail": "https://pse.komdigi.go.id/tdpse-detail/4607",
            "website": "-"
        },
        {
            "id": "9cb1aba3-b911-4bf7-8000-6cf130635121",
            "nama_pse": "LEONARDO ARFREN TANAYA",
            "nama_se": "LAVIN TECHNOLOGIES",
            "sektor": "Sektor Teknologi Informasi dan Komunikasi",
            "tanggal_terbit": "2022-06-19",
            "url_tdpse_detail": "https://pse.komdigi.go.id/tdpse-detail/4608",
            "website": "-"
        },
        {
            "id": "9cb1ab98-2f0a-4477-94bf-08f78694f6f1",
            "nama_pse": "KAWANUA DIGITAL MULTIVERSE",
            "nama_se": "KAWANUADIGITAL.COM",
            "sektor": "Sektor Teknologi Informasi dan Komunikasi",
            "tanggal_terbit": "2022-06-19",
            "url_tdpse_detail": "https://pse.komdigi.go.id/tdpse-detail/4610",
            "website": "kawanuadigital.com"
        },
        {
            "id": "9cb1abad-9fc4-4597-b860-ce5d79a93707",
            "nama_pse": "WINDOW INDONESIA GROUP",
            "nama_se": "WINDOW OF INDONESIA",
            "sektor": "Sektor Perdagangan, Sektor Teknologi Informasi dan Komunikasi",
            "tanggal_terbit": "2022-06-19",
            "url_tdpse_detail": "https://pse.komdigi.go.id/tdpse-detail/4611",
            "website": "windowofindonesia.com"
        },
        {
            "id": "9cb1ab98-261a-4103-8f66-c0c80778fbfb",
            "nama_pse": "SURYA FAJAR INDONESIA",
            "nama_se": "SF INDONESIA",
            "sektor": "Sektor Perdagangan, Sektor Transportasi",
            "tanggal_terbit": "2022-06-18",
            "url_tdpse_detail": "https://pse.komdigi.go.id/tdpse-detail/4603",
            "website": "sf-international.id"
        },
        {
            "id": "9cb1aba3-aff8-4cf0-9249-be3334642986",
            "nama_pse": "ORDERPLIZZ INDONESIA MAJU",
            "nama_se": "ORDERPLIZZ",
            "sektor": "Sektor Pangan",
            "tanggal_terbit": "2022-06-18",
            "url_tdpse_detail": "https://pse.komdigi.go.id/tdpse-detail/4604",
            "website": "orderplizz.com"
        },
        {
            "id": "9cb1abad-92d0-4232-81a5-0c4c2cda2987",
            "nama_pse": "PUTRA MARITIM BERKAH",
            "nama_se": "PT.PUTRA MARITIM BERKAH",
            "sektor": "Sektor Perdagangan, Sektor Energi dan Sumber Daya Mineral, Sektor Transportasi, Sektor Teknologi Informasi dan Komunikasi",
            "tanggal_terbit": "2022-06-18",
            "url_tdpse_detail": "https://pse.komdigi.go.id/tdpse-detail/4605",
            "website": "-"
        },
        {
            "id": "9cb1aba3-81b2-498a-96e8-b2eaa1495dff",
            "nama_pse": "WILKA ENERGI SOLUSI",
            "nama_se": "WILKASTORE.CO.ID",
            "sektor": "Sektor Perdagangan, Sektor Energi dan Sumber Daya Mineral",
            "tanggal_terbit": "2022-06-17",
            "url_tdpse_detail": "https://pse.komdigi.go.id/tdpse-detail/4577",
            "website": "wilkapower.com"
        },
        {
            "id": "9cb1ab98-0ebb-4c8f-a894-00c2f68003f7",
            "nama_pse": "SARANA YUKTI BANDHANA",
            "nama_se": "JARINGAN MESIN LAYANAN PUBLIK OTOMATIS (JARINGAN MLPO)",
            "sektor": "Sektor Teknologi Informasi dan Komunikasi",
            "tanggal_terbit": "2022-06-17",
            "url_tdpse_detail": "https://pse.komdigi.go.id/tdpse-detail/4572",
            "website": "syb-online.com"
        },
        {
            "id": "9cb1aba3-867b-4bc8-862b-9ec49f554711",
            "nama_pse": "PERUSAHAAN PERSEROAN (PERSERO) PT. BANK RAKYAT INDONESIA",
            "nama_se": "DASHBOARD VIRTUAL ACCOUNT",
            "sektor": "Sektor Keuangan",
            "tanggal_terbit": "2022-06-17",
            "url_tdpse_detail": "https://pse.komdigi.go.id/tdpse-detail/4573",
            "website": "brivirtualdebit.id"
        },
        {
            "id": "9cb1abad-7dff-49b1-8fab-e6ec27a0d5ee",
            "nama_pse": "BITRAS",
            "nama_se": "BITRAS",
            "sektor": "Sektor Perdagangan, Sektor Transportasi, Sektor Teknologi Informasi dan Komunikasi, Sektor Pertahanan dan Keamanan",
            "tanggal_terbit": "2022-06-17",
            "url_tdpse_detail": "https://pse.komdigi.go.id/tdpse-detail/4574",
            "website": "bitras.com"
        },
        {
            "id": "9cb1abad-8037-48d5-aea9-cc6f87909642",
            "nama_pse": "MITRA DISTRIBUSI UTAMA",
            "nama_se": "JEMPOLKIOS",
            "sektor": "Sektor Teknologi Informasi dan Komunikasi",
            "tanggal_terbit": "2022-06-17",
            "url_tdpse_detail": "https://pse.komdigi.go.id/tdpse-detail/4575",
            "website": "jempolkios.co.id"
        },
        {
            "id": "9cb1ab98-1112-4c45-a335-e72030e04aaa",
            "nama_pse": "ALPHANOVATION DIGITAL TEKNINDO",
            "nama_se": "PAWOON POS",
            "sektor": "Sektor Teknologi Informasi dan Komunikasi",
            "tanggal_terbit": "2022-06-17",
            "url_tdpse_detail": "https://pse.komdigi.go.id/tdpse-detail/4576",
            "website": "pawoon.com"
        },
        {
            "id": "9cb1aba3-88f7-413b-8d97-4065be96c608",
            "nama_pse": "TRIBUN BERITA ONLINE",
            "nama_se": "TRIBUN DIGITAL ONLINE",
            "sektor": "Sektor Perdagangan, Sektor Teknologi Informasi dan Komunikasi",
            "tanggal_terbit": "2022-06-17",
            "url_tdpse_detail": "https://pse.komdigi.go.id/tdpse-detail/4579",
            "website": "Tribunnews.com"
        },
        {
            "id": "9cb1aba3-8b6e-45e7-bc5c-7023be8966e7",
            "nama_pse": "PUSAT STRATEGI DAN AKSELERASI PEMBANGUNAN INDONESIA MAJU",
            "nama_se": "UMKM LOMPAT KELAS ( E-UMKM.MY.ID )",
            "sektor": "Sektor Perdagangan, Sektor Energi dan Sumber Daya Mineral, Sektor Transportasi, Sektor Keuangan, Sektor Kesehatan, Sektor Teknologi Informasi dan Komunikasi, Sektor Pangan, Sektor Pertahanan dan Keamanan",
            "tanggal_terbit": "2022-06-17",
            "url_tdpse_detail": "https://pse.komdigi.go.id/tdpse-detail/4578",
            "website": "e-umkm.my.id"
        },
        {
            "id": "9cb1ab98-1382-42ba-b0ce-a535127ace67",
            "nama_pse": "ARKANA ADVANCE TECHNOLOGY",
            "nama_se": "BANG JAMIN",
            "sektor": "Sektor Perdagangan",
            "tanggal_terbit": "2022-06-17",
            "url_tdpse_detail": "https://pse.komdigi.go.id/tdpse-detail/4580",
            "website": "-"
        },
        {
            "id": "9cb1aba3-8dd3-471e-9f59-d65104248050",
            "nama_pse": "PURWANTO ASSET MANAGEMENT",
            "nama_se": "PURWANTOAM",
            "sektor": "Sektor Keuangan",
            "tanggal_terbit": "2022-06-17",
            "url_tdpse_detail": "https://pse.komdigi.go.id/tdpse-detail/4581",
            "website": "PURWANTO.CO.ID"
        },
        {
            "id": "9cb1aba2-5501-4fe2-b306-7e4ecfa4d3be",
            "nama_pse": "DESKTOPIP TEKNOLOGI INDONESIA",
            "nama_se": "QUBIQL",
            "sektor": "Sektor Teknologi Informasi dan Komunikasi",
            "tanggal_terbit": "2022-06-16",
            "url_tdpse_detail": "https://pse.komdigi.go.id/tdpse-detail/4558",
            "website": "qubiql.com"
        },
        {
            "id": "9cb1aba3-589e-4a90-819f-aa6cf1497e32",
            "nama_pse": "KHALILA TRADMED INDONESIA",
            "nama_se": "TRADMED",
            "sektor": "Sektor Perdagangan",
            "tanggal_terbit": "2022-06-16",
            "url_tdpse_detail": "https://pse.komdigi.go.id/tdpse-detail/4535",
            "website": "tradmed.co.id"
        },
        {
            "id": "9cb1abad-6b03-48c4-a62c-e28435c34941",
            "nama_pse": "ASURANSI MSIG INDONESIA",
            "nama_se": "MSIGONLINE",
            "sektor": "Sektor Keuangan",
            "tanggal_terbit": "2022-06-16",
            "url_tdpse_detail": "https://pse.komdigi.go.id/tdpse-detail/4525",
            "website": "msigonline.co.id"
        },
        {
            "id": "9cb1ab97-d60f-4384-9374-547693481f10",
            "nama_pse": "UANGKITA",
            "nama_se": "ONLINE PAYMENT POINT (OPP)",
            "sektor": "Sektor Teknologi Informasi dan Komunikasi",
            "tanggal_terbit": "2022-06-16",
            "url_tdpse_detail": "https://pse.komdigi.go.id/tdpse-detail/4534",
            "website": "ptuangkita.com"
        },
        {
            "id": "9cb1abad-728e-4c5c-85ad-dd72ed1c913b",
            "nama_pse": "PERUSAHAAN PERSEROAN (PERSERO) PT. BANK RAKYAT INDONESIA",
            "nama_se": "BRI CORPORATE BILLING MANAGEMENT",
            "sektor": "Sektor Keuangan",
            "tanggal_terbit": "2022-06-16",
            "url_tdpse_detail": "https://pse.komdigi.go.id/tdpse-detail/4537",
            "website": "cbm.bri.co.id"
        },
        {
            "id": "9cb1abad-752b-439d-bda7-ddbd087232e5",
            "nama_pse": "BAITULJANNAH INTERNATIONAL GROUP",
            "nama_se": "BAITULJANNAH",
            "sektor": "Sektor Teknologi Informasi dan Komunikasi",
            "tanggal_terbit": "2022-06-16",
            "url_tdpse_detail": "https://pse.komdigi.go.id/tdpse-detail/4538",
            "website": "baituljannah.com"
        },
        {
            "id": "9cb1ab97-dc3a-4821-8592-cd1bb99956aa",
            "nama_pse": "MEDIA ANTAR NUSA",
            "nama_se": "NUSAWORK HR",
            "sektor": "Sektor Teknologi Informasi dan Komunikasi",
            "tanggal_terbit": "2022-06-16",
            "url_tdpse_detail": "https://pse.komdigi.go.id/tdpse-detail/4540",
            "website": "nusawork.com"
        },
        {
            "id": "9cb1abad-7857-4c67-ba26-0326b74d329f",
            "nama_pse": "BUANA MAS SANJAYA",
            "nama_se": "SANDANGJAKARTA.COM",
            "sektor": "Sektor Perdagangan",
            "tanggal_terbit": "2022-06-16",
            "url_tdpse_detail": "https://pse.komdigi.go.id/tdpse-detail/4546",
            "website": "sandangjakarta.com"
        },
        {
            "id": "9cb1aba3-6be8-4280-8cda-3201fd07a9dc",
            "nama_pse": "PRIMA SYIRKAH INTERNATIONAL",
            "nama_se": "IMPORTIR.CO.ID",
            "sektor": "Sektor Perdagangan",
            "tanggal_terbit": "2022-06-16",
            "url_tdpse_detail": "https://pse.komdigi.go.id/tdpse-detail/4553",
            "website": "importir.co.id"
        },
        {
            "id": "9cb1ab97-e621-40be-aa4f-9b7bad5e8fc9",
            "nama_pse": "ANALOG LEGALHUB INDONESIA TECHNOLOGY SOLUTIONS",
            "nama_se": "CREDGENICS",
            "sektor": "Sektor Keuangan",
            "tanggal_terbit": "2022-06-16",
            "url_tdpse_detail": "https://pse.komdigi.go.id/tdpse-detail/4559",
            "website": "credgenics.com"
        },
        {
            "id": "9cb1aba3-6f22-4a88-a117-e433f326a53d",
            "nama_pse": "PRIMA SYIRKAH INTERNATIONAL",
            "nama_se": "TITIPORDER.COM",
            "sektor": "Sektor Perdagangan",
            "tanggal_terbit": "2022-06-16",
            "url_tdpse_detail": "https://pse.komdigi.go.id/tdpse-detail/4560",
            "website": "titiporder.com"
        },
        {
            "id": "9cb1abad-7add-4aa3-af20-193ff9dd4c69",
            "nama_pse": "NABITU TEKNOLOGI ISLAMI",
            "nama_se": "NABITU.ID",
            "sektor": "Sektor Keuangan",
            "tanggal_terbit": "2022-06-16",
            "url_tdpse_detail": "https://pse.komdigi.go.id/tdpse-detail/4561",
            "website": "nabitu.id"
        },
        {
            "id": "9cb1aba3-71f9-4029-b2a8-f332e5428a43",
            "nama_pse": "NUANSA UNGGUL BAHARI",
            "nama_se": "PT. NUANSA UNGGUL BAHARI",
            "sektor": "Sektor Perdagangan, Sektor Transportasi",
            "tanggal_terbit": "2022-06-16",
            "url_tdpse_detail": "https://pse.komdigi.go.id/tdpse-detail/4562",
            "website": "nuansaunggul.co.id"
        },
        {
            "id": "9cb1ab97-f590-43a4-a13c-ae9e4437208e",
            "nama_pse": "RUANG NYAMAN ABADI",
            "nama_se": "RUANGNYAMAN",
            "sektor": "Sektor Teknologi Informasi dan Komunikasi",
            "tanggal_terbit": "2022-06-16",
            "url_tdpse_detail": "https://pse.komdigi.go.id/tdpse-detail/4563",
            "website": "ruangnyaman.id"
        },
        {
            "id": "9cb1ab98-08ae-4788-8380-f75f456eceb4",
            "nama_pse": "LECTRO ENERGI SEMESTA",
            "nama_se": "LECTRO ENERGI SEMESTA",
            "sektor": "Sektor Perdagangan, Sektor Energi dan Sumber Daya Mineral, Sektor Teknologi Informasi dan Komunikasi",
            "tanggal_terbit": "2022-06-16",
            "url_tdpse_detail": "https://pse.komdigi.go.id/tdpse-detail/4564",
            "website": "Lectro.asia"
        },
        {
            "id": "9cb1aba3-7569-47a9-8354-691546873f78",
            "nama_pse": "PERUSAHAAN PERSEROAN (PERSERO) PT. BANK RAKYAT INDONESIA",
            "nama_se": "KREDIT EKSTRA CEPAT KUPEDES (KECEKU",
            "sektor": "Sektor Keuangan",
            "tanggal_terbit": "2022-06-16",
            "url_tdpse_detail": "https://pse.komdigi.go.id/tdpse-detail/4565",
            "website": "app.keceku.bri.co.id"
        },
        {
            "id": "9cb1aba3-7989-43dc-ab3c-fe208afbd21a",
            "nama_pse": "PERUSAHAAN PERSEROAN (PERSERO) PT. BANK RAKYAT INDONESIA",
            "nama_se": "STROBERI KASIR",
            "sektor": "Sektor Keuangan",
            "tanggal_terbit": "2022-06-16",
            "url_tdpse_detail": "https://pse.komdigi.go.id/tdpse-detail/4566",
            "website": "-"
        },
        {
            "id": "9cb1aba3-7c7a-4617-b917-12ed451feae6",
            "nama_pse": "PERUSAHAAN PERSEROAN (PERSERO) PT. BANK RAKYAT INDONESIA",
            "nama_se": "STROBERI TAGIHAN",
            "sektor": "Sektor Keuangan",
            "tanggal_terbit": "2022-06-16",
            "url_tdpse_detail": "https://pse.komdigi.go.id/tdpse-detail/4567",
            "website": "tagihan.stroberi.id"
        },
        {
            "id": "9cb1ab98-0abe-4e0c-813f-02c03a2f8481",
            "nama_pse": "AROMA MAKMUR SENTOSA",
            "nama_se": "PTAMS",
            "sektor": "Sektor Perdagangan",
            "tanggal_terbit": "2022-06-16",
            "url_tdpse_detail": "https://pse.komdigi.go.id/tdpse-detail/4568",
            "website": "ptams.id"
        },
        {
            "id": "9cb1ab98-0ca9-4693-a49a-e60d71857b5d",
            "nama_pse": "KOPERASI SIMPAN PINJAM PUSKOP CREDIT UNION INDONESIA SKD",
            "nama_se": "SMARTCU",
            "sektor": "Sektor Perdagangan",
            "tanggal_terbit": "2022-06-16",
            "url_tdpse_detail": "https://pse.komdigi.go.id/tdpse-detail/4569",
            "website": "smartcu.id"
        }
    ],
    "processingTimeMs": 4,
    "query": "",
    "totalHits": 19131,
    "hitsPerPage": 50,
    "page": 299,
    "totalPages": 383
}