{
    "hits": [
        {
            "id": "9e5f7248-19e7-40d9-9817-303b3f78de91",
            "nama_pse": "BEAUTE HAUL INDONESIA",
            "nama_se": "BEAUTYHAUL WEBSITE",
            "sektor": "Sektor Perdagangan, Sektor Teknologi Informasi dan Komunikasi",
            "tanggal_terbit": "2025-03-13",
            "url_tdpse_detail": "https://pse.komdigi.go.id/tdpse-detail/22722",
            "website": "beautyhaul.com"
        },
        {
            "id": "9e41629f-4f25-421d-aeab-fa9da6aeac45",
            "nama_pse": "SUPER PASAR RAKYAT INDONESIA",
            "nama_se": "PARI (PASAR RAKYAT INDONESIA)",
            "sektor": "Sektor Perdagangan, Sektor Teknologi Informasi dan Komunikasi",
            "tanggal_terbit": "2025-02-28",
            "url_tdpse_detail": "https://pse.komdigi.go.id/tdpse-detail/22554",
            "website": "pari.co.id"
        },
        {
            "id": "9e3d550b-6191-4c57-8371-e9be5364547b",
            "nama_pse": "AYO BANTU INDONESIA",
            "nama_se": "ayobantu",
            "sektor": "Sektor Teknologi Informasi dan Komunikasi",
            "tanggal_terbit": "2025-02-18",
            "url_tdpse_detail": "https://pse.komdigi.go.id/tdpse-detail/22423",
            "website": "ayobantu.com"
        },
        {
            "id": "9e3b1384-d272-4157-8756-cbdec7f591f9",
            "nama_pse": "ILHAM PERDANA",
            "nama_se": "ECOELITE",
            "sektor": "Sektor Perdagangan, Sektor Teknologi Informasi dan Komunikasi",
            "tanggal_terbit": "2025-02-17",
            "url_tdpse_detail": "https://pse.komdigi.go.id/tdpse-detail/22406",
            "website": "ecoelite.id"
        },
        {
            "id": "9e2e50a3-19e1-404b-8dfa-31b8fbd6cac3",
            "nama_pse": "MOH FITRA",
            "nama_se": "SPIRIT HOME SERVICE",
            "sektor": "Sektor Teknologi Informasi dan Komunikasi",
            "tanggal_terbit": "2025-02-11",
            "url_tdpse_detail": "https://pse.komdigi.go.id/tdpse-detail/22350",
            "website": "spirithomeservice.com"
        },
        {
            "id": "9dfb2bd8-2811-4613-83b0-47e018eedc1e",
            "nama_pse": "HICLOUD TECHNOLOGY INDONESIA",
            "nama_se": "HI CLOUD",
            "sektor": "Sektor Perdagangan, Sektor Teknologi Informasi dan Komunikasi",
            "tanggal_terbit": "2025-01-16",
            "url_tdpse_detail": "https://pse.komdigi.go.id/tdpse-detail/22123",
            "website": "hicloud.co.id"
        },
        {
            "id": "9db49ae2-7d40-411f-8b71-7e7c263881d8",
            "nama_pse": "TRUSTMETRIC TECHNOLOGIES INDONESIA",
            "nama_se": "TRUSTMETRIC",
            "sektor": "Sektor Teknologi Informasi dan Komunikasi",
            "tanggal_terbit": "2024-12-12",
            "url_tdpse_detail": "https://pse.komdigi.go.id/tdpse-detail/21753",
            "website": "trustmetric.co.id"
        },
        {
            "id": "9d70f2ba-b30b-4b63-9d42-5cb11c545c15",
            "nama_pse": "ISRON WIJAYA SAPUTRA",
            "nama_se": "SOSIAL GROW",
            "sektor": "Sektor Teknologi Informasi dan Komunikasi",
            "tanggal_terbit": "2024-11-08",
            "url_tdpse_detail": "https://pse.komdigi.go.id/tdpse-detail/21125",
            "website": "sosialgrow.com"
        },
        {
            "id": "9d5e3b60-2bb0-43d1-a218-913c64ee5a33",
            "nama_pse": "SKY PARKING UTAMA",
            "nama_se": "SKY MEMBERSHIP",
            "sektor": "Sektor Teknologi Informasi dan Komunikasi",
            "tanggal_terbit": "2024-10-30",
            "url_tdpse_detail": "https://pse.komdigi.go.id/tdpse-detail/20978",
            "website": "membership.skyparking.online"
        },
        {
            "id": "9cb1ac74-bed7-4dd7-8089-02517cd1e068",
            "nama_pse": "KOPI BINTANG INDONESIA",
            "nama_se": "TOMORO COFFEE",
            "sektor": "Sektor Perdagangan",
            "tanggal_terbit": "2024-10-29",
            "url_tdpse_detail": "https://pse.komdigi.go.id/tdpse-detail/20935",
            "website": "tomoro-coffee.id"
        },
        {
            "id": "9d359891-954e-445f-a6e2-5c36421ad85e",
            "nama_pse": "SESH ARTAPALA PRIMA",
            "nama_se": "SESH",
            "sektor": "Sektor Teknologi Informasi dan Komunikasi",
            "tanggal_terbit": "2024-10-10",
            "url_tdpse_detail": "https://pse.komdigi.go.id/tdpse-detail/20719",
            "website": "sesh.co.id"
        },
        {
            "id": "9d2385b9-7b22-4183-b630-a4f35d72c899",
            "nama_pse": "SANDY ADI SAPUTRA",
            "nama_se": "SANPAY",
            "sektor": "Sektor Perdagangan",
            "tanggal_terbit": "2024-10-01",
            "url_tdpse_detail": "https://pse.komdigi.go.id/tdpse-detail/20580",
            "website": "sanpayment.my.id"
        },
        {
            "id": "9cb1ac5c-bea1-4651-aaea-bd5061f0441d",
            "nama_pse": "BHRO HEALTHCARE INDONESIA",
            "nama_se": "BHRO",
            "sektor": "Sektor Kesehatan",
            "tanggal_terbit": "2024-09-27",
            "url_tdpse_detail": "https://pse.komdigi.go.id/tdpse-detail/20511",
            "website": "bhro.io"
        },
        {
            "id": "9cd35802-82ae-4f43-b8f9-eead5a419a13",
            "nama_pse": "MITRA KRIPTO SUKSES",
            "nama_se": "PT. MITRA KRIPTO SUKSES",
            "sektor": "Sektor Perdagangan",
            "tanggal_terbit": "2024-08-20",
            "url_tdpse_detail": "https://pse.komdigi.go.id/tdpse-detail/20830",
            "website": "kriptosukses.com"
        },
        {
            "id": "9ccf6fbc-014d-4aaa-a2ec-fad1b29aa3c5",
            "nama_pse": "TRANTOR TECH INDONESIA",
            "nama_se": "CAKE",
            "sektor": "Sektor Teknologi Informasi dan Komunikasi",
            "tanggal_terbit": "2024-08-20",
            "url_tdpse_detail": "https://pse.komdigi.go.id/tdpse-detail/20032",
            "website": "-"
        },
        {
            "id": "9cb1ac8b-4e21-4545-a20c-d05f3013edfa",
            "nama_pse": "BLUE ORIGIN ECOMMERCE",
            "nama_se": "MEMBERSON",
            "sektor": "Sektor Teknologi Informasi dan Komunikasi",
            "tanggal_terbit": "2024-08-01",
            "url_tdpse_detail": "https://pse.komdigi.go.id/tdpse-detail/19717",
            "website": "Blueorigin.co.id"
        },
        {
            "id": "9cb1ac74-4e46-412d-986d-9bad8bd8c327",
            "nama_pse": "MUHAMMAD AFRIYANO",
            "nama_se": "MIDWEB",
            "sektor": "Sektor Perdagangan",
            "tanggal_terbit": "2024-07-30",
            "url_tdpse_detail": "https://pse.komdigi.go.id/tdpse-detail/19685",
            "website": "midweb.co"
        },
        {
            "id": "9cb1ac5e-53d7-4a41-b0ec-7e79ddba1ce7",
            "nama_pse": "INDIPRO KARYA BERSAMA",
            "nama_se": "ROYALPAY",
            "sektor": "Sektor Teknologi Informasi dan Komunikasi",
            "tanggal_terbit": "2024-07-25",
            "url_tdpse_detail": "https://pse.komdigi.go.id/tdpse-detail/19615",
            "website": "RoyalPay.Id"
        },
        {
            "id": "9cb1ac5e-b674-479b-8299-39e2c903de75",
            "nama_pse": "MITRA BERKAH GLOBALINDO",
            "nama_se": "ONECARE",
            "sektor": "Sektor Kesehatan, Sektor Teknologi Informasi dan Komunikasi",
            "tanggal_terbit": "2024-07-23",
            "url_tdpse_detail": "https://pse.komdigi.go.id/tdpse-detail/19580",
            "website": "mitraberkah.id"
        },
        {
            "id": "9cb1ac5d-49c4-4a8c-86f4-0f0e0fa56819",
            "nama_pse": "HIFIRIYA MULTI GEMILANG",
            "nama_se": "BELANJA KUOTA",
            "sektor": "Sektor Perdagangan",
            "tanggal_terbit": "2024-07-03",
            "url_tdpse_detail": "https://pse.komdigi.go.id/tdpse-detail/19327",
            "website": "belanjakuota.id"
        },
        {
            "id": "9cb1ac87-ad65-40c4-a4ce-65d21ad45053",
            "nama_pse": "SIBIMA BERKARYA MANDIRI",
            "nama_se": "SIBIMA",
            "sektor": "Sektor Perdagangan, Sektor Teknologi Informasi dan Komunikasi",
            "tanggal_terbit": "2024-06-19",
            "url_tdpse_detail": "https://pse.komdigi.go.id/tdpse-detail/19301",
            "website": "sibima.id"
        },
        {
            "id": "9cb1ac88-447e-4a20-9c63-d65c2a0d1296",
            "nama_pse": "INTERNUSA TERUS JAYA",
            "nama_se": "WEBSITE (KLEANER INDONESIA)",
            "sektor": "Sektor Perdagangan",
            "tanggal_terbit": "2024-06-19",
            "url_tdpse_detail": "https://pse.komdigi.go.id/tdpse-detail/19304",
            "website": "kleaner.co.id"
        },
        {
            "id": "9cb1ac87-bb00-4631-95e3-d2c48c995f25",
            "nama_pse": "INDIVARA SEJAHTERA SUKSES MAKMUR",
            "nama_se": "WOI (WALLET OF INDIVARA)",
            "sektor": "Sektor Keuangan, Sektor Teknologi Informasi dan Komunikasi",
            "tanggal_terbit": "2024-06-12",
            "url_tdpse_detail": "https://pse.komdigi.go.id/tdpse-detail/19242",
            "website": "-"
        },
        {
            "id": "9cb1ac87-055a-481d-802f-78f4e56492a5",
            "nama_pse": "ASIA SPORT RETAIL",
            "nama_se": "FILA INDONESIA",
            "sektor": "Sektor Perdagangan",
            "tanggal_terbit": "2024-06-05",
            "url_tdpse_detail": "https://pse.komdigi.go.id/tdpse-detail/19144",
            "website": "fila.co.id"
        },
        {
            "id": "9cb1ac86-487e-4980-9103-3ea43d392044",
            "nama_pse": "TRANTOR TECH INDONESIA",
            "nama_se": "CAKERESUME",
            "sektor": "Sektor Teknologi Informasi dan Komunikasi",
            "tanggal_terbit": "2024-05-26",
            "url_tdpse_detail": "https://pse.komdigi.go.id/tdpse-detail/19034",
            "website": "cakeresume.com"
        },
        {
            "id": "9cb1ac6f-d0b2-4ad9-8d4b-b7d134eaef15",
            "nama_pse": "FIRST MONEY",
            "nama_se": "FIRST MONEY",
            "sektor": "Sektor Perdagangan",
            "tanggal_terbit": "2024-05-13",
            "url_tdpse_detail": "https://pse.komdigi.go.id/tdpse-detail/18900",
            "website": "firstmoney.com"
        },
        {
            "id": "9cb1ac84-e6ce-4a72-8056-7ea228d0907c",
            "nama_pse": "KUOTA PULSA INDONESIA",
            "nama_se": "KUOTA PULSA",
            "sektor": "Sektor Perdagangan",
            "tanggal_terbit": "2024-05-02",
            "url_tdpse_detail": "https://pse.komdigi.go.id/tdpse-detail/18800",
            "website": "kuotapulsa.com"
        },
        {
            "id": "9cb1ac84-2079-49bd-ab93-f52c55ce9e48",
            "nama_pse": "SOLUSI INOVASI DISRUPSI SYARIAH",
            "nama_se": "LEARNING MANAGEMENT SYSTEM HALAL SYARIAH ACADEMY",
            "sektor": "Sektor Teknologi Informasi dan Komunikasi",
            "tanggal_terbit": "2024-04-25",
            "url_tdpse_detail": "https://pse.komdigi.go.id/tdpse-detail/18706",
            "website": "lms.hasdemy.com"
        },
        {
            "id": "9cb1ac83-f45b-47c4-8980-f1dd95bfcf19",
            "nama_pse": "VINFAST AUTOMOBILE INDONESIA",
            "nama_se": "VINFAST",
            "sektor": "Sektor Teknologi Informasi dan Komunikasi",
            "tanggal_terbit": "2024-04-23",
            "url_tdpse_detail": "https://pse.komdigi.go.id/tdpse-detail/18681",
            "website": "-"
        },
        {
            "id": "9cb1ac6d-5b0b-426f-8f7a-a87067be8a84",
            "nama_pse": "GRAHA GAME UTAMA",
            "nama_se": "GRAHA GAME UTAMA",
            "sektor": "Sektor Teknologi Informasi dan Komunikasi",
            "tanggal_terbit": "2024-03-28",
            "url_tdpse_detail": "https://pse.komdigi.go.id/tdpse-detail/18471",
            "website": "grahagame.com"
        },
        {
            "id": "9cb1ac81-f13d-43d6-800f-755e90c41688",
            "nama_pse": "EKADANTA GANENDRA ONI",
            "nama_se": "DEWATA GALLERY",
            "sektor": "Sektor Perdagangan",
            "tanggal_terbit": "2024-03-22",
            "url_tdpse_detail": "https://pse.komdigi.go.id/tdpse-detail/18372",
            "website": "dewatagallery.com"
        },
        {
            "id": "9cb1ac7e-cec0-4965-9335-990dd672e1d0",
            "nama_pse": "VINFAST AUTOMOBILE INDONESIA",
            "nama_se": "VINFAST AUTOMOBILE WEBSITE",
            "sektor": "Sektor Perdagangan, Sektor Transportasi, Sektor Teknologi Informasi dan Komunikasi",
            "tanggal_terbit": "2024-03-05",
            "url_tdpse_detail": "https://pse.komdigi.go.id/tdpse-detail/18159",
            "website": "vinfastauto.eu"
        },
        {
            "id": "9cb1ac7e-d52f-4f85-85d0-d9aab0df0e17",
            "nama_pse": "VINFAST AUTOMOBILE INDONESIA",
            "nama_se": "VINFAST AUTOMOBILE",
            "sektor": "Sektor Perdagangan, Sektor Transportasi, Sektor Teknologi Informasi dan Komunikasi",
            "tanggal_terbit": "2024-03-05",
            "url_tdpse_detail": "https://pse.komdigi.go.id/tdpse-detail/18160",
            "website": "-"
        },
        {
            "id": "9cb1ac7e-df56-41f0-a403-bc90282933c8",
            "nama_pse": "VINFAST AUTOMOBILE INDONESIA",
            "nama_se": "VINFAST WEBSITE AUTOMOBILE",
            "sektor": "Sektor Perdagangan, Sektor Transportasi, Sektor Teknologi Informasi dan Komunikasi",
            "tanggal_terbit": "2024-03-05",
            "url_tdpse_detail": "https://pse.komdigi.go.id/tdpse-detail/18156",
            "website": "-"
        },
        {
            "id": "9cb1ac7e-e4b9-448f-a27b-b68ffc100f99",
            "nama_pse": "VINFAST AUTOMOBILE INDONESIA",
            "nama_se": "WEBSITE VINFAST AUTOMOBILE",
            "sektor": "Sektor Perdagangan, Sektor Transportasi, Sektor Teknologi Informasi dan Komunikasi",
            "tanggal_terbit": "2024-03-05",
            "url_tdpse_detail": "https://pse.komdigi.go.id/tdpse-detail/18157",
            "website": "-"
        },
        {
            "id": "9cb1ac55-faf8-499a-be8c-7bdac9ed49d9",
            "nama_pse": "VINFAST AUTOMOBILE INDONESIA",
            "nama_se": "VINFAST AUTOMOBILE ACCESSORIES",
            "sektor": "Sektor Perdagangan, Sektor Transportasi, Sektor Teknologi Informasi dan Komunikasi",
            "tanggal_terbit": "2024-02-28",
            "url_tdpse_detail": "https://pse.komdigi.go.id/tdpse-detail/18073",
            "website": "-"
        },
        {
            "id": "9cb1ac6a-ab3a-4a34-a685-bbd3d6659d47",
            "nama_pse": "VINFAST AUTOMOBILE INDONESIA",
            "nama_se": "VINFAST WEBSITE",
            "sektor": "Sektor Perdagangan, Sektor Transportasi, Sektor Teknologi Informasi dan Komunikasi",
            "tanggal_terbit": "2024-02-21",
            "url_tdpse_detail": "https://pse.komdigi.go.id/tdpse-detail/17873",
            "website": "vinfastauto.id"
        },
        {
            "id": "9cb1ac6a-5469-4c06-8cf7-55a375c31591",
            "nama_pse": "RAMAI TEKNOLOGI INDONESIA",
            "nama_se": "RAMAI.ONLINE",
            "sektor": "Sektor Perdagangan",
            "tanggal_terbit": "2024-02-16",
            "url_tdpse_detail": "https://pse.komdigi.go.id/tdpse-detail/17820",
            "website": "ramai.online"
        },
        {
            "id": "9cb1ac54-3bfa-408e-8594-5447364d362c",
            "nama_pse": "LEVELUP DIGITAL MEDIA",
            "nama_se": "GTNEST",
            "sektor": "Sektor Perdagangan, Sektor Teknologi Informasi dan Komunikasi",
            "tanggal_terbit": "2024-02-05",
            "url_tdpse_detail": "https://pse.komdigi.go.id/tdpse-detail/17654",
            "website": "-"
        },
        {
            "id": "9cb1ac54-3ecf-4120-955e-79b619a85a9a",
            "nama_pse": "MASTER BAGASI INDONESIA",
            "nama_se": "MASTER BAGASI",
            "sektor": "Sektor Perdagangan, Sektor Transportasi, Sektor Teknologi Informasi dan Komunikasi",
            "tanggal_terbit": "2024-01-24",
            "url_tdpse_detail": "https://pse.komdigi.go.id/tdpse-detail/17486",
            "website": "masterbagasi.com"
        },
        {
            "id": "9cb1ac66-5cff-49b1-bbaa-6442e2025d3f",
            "nama_pse": "CALERIE HEALTH INDONESIA",
            "nama_se": "CALERIELIFE",
            "sektor": "Sektor Perdagangan, Sektor Kesehatan",
            "tanggal_terbit": "2024-01-04",
            "url_tdpse_detail": "https://pse.komdigi.go.id/tdpse-detail/17205",
            "website": "calerie.com"
        },
        {
            "id": "9cb1ac52-b041-4503-a464-dad6292e495f",
            "nama_pse": "MEGA SHOPINTAR INDONESIA",
            "nama_se": "ATOME ID - SHOP NOW PAY LATER",
            "sektor": "Sektor Perdagangan",
            "tanggal_terbit": "2024-01-03",
            "url_tdpse_detail": "https://pse.komdigi.go.id/tdpse-detail/17168",
            "website": "shop.atome.id"
        },
        {
            "id": "9cb1ac65-391b-4430-aba4-2d4b1f508ce2",
            "nama_pse": "NUR WAHYU WICAKSONO",
            "nama_se": "PT KOTANOPAN TECHNO ELT",
            "sektor": "Sektor Perdagangan",
            "tanggal_terbit": "2023-12-21",
            "url_tdpse_detail": "https://pse.komdigi.go.id/tdpse-detail/16988",
            "website": "kotanopan.com"
        },
        {
            "id": "9cb1ac63-9298-4c19-8f5d-feaeac2fa063",
            "nama_pse": "GLOBAL SUKSES DIGITAL",
            "nama_se": "DOSS CAMERA \u0026 GADGET TOKO KAMERA ONLINE",
            "sektor": "Sektor Perdagangan, Sektor Teknologi Informasi dan Komunikasi",
            "tanggal_terbit": "2023-11-28",
            "url_tdpse_detail": "https://pse.komdigi.go.id/tdpse-detail/16660",
            "website": "doss.co.id"
        },
        {
            "id": "9cb1ac62-7948-4325-b028-3d94e2427e8b",
            "nama_pse": "USANA HEALTH SCIENCES INDONESIA",
            "nama_se": "USANA MOBILE HUB",
            "sektor": "Sektor Perdagangan",
            "tanggal_terbit": "2023-11-17",
            "url_tdpse_detail": "https://pse.komdigi.go.id/tdpse-detail/16514",
            "website": "-"
        },
        {
            "id": "9cb1ac76-642b-44ec-b1e8-c41e4880f85e",
            "nama_pse": "GAMES KARYA NUSANTARA",
            "nama_se": "WARDEKA",
            "sektor": "Sektor Teknologi Informasi dan Komunikasi",
            "tanggal_terbit": "2023-11-15",
            "url_tdpse_detail": "https://pse.komdigi.go.id/tdpse-detail/16479",
            "website": "-"
        },
        {
            "id": "9cb1ac75-2ad4-4d4d-b61f-f6960cbb8ee4",
            "nama_pse": "AVATEC SERVICES INDONESIA",
            "nama_se": "\"AVATEC BOSS (BUSINESS \u0026 OPERATING SUPPORT SYSTEM)\"",
            "sektor": "Sektor Teknologi Informasi dan Komunikasi",
            "tanggal_terbit": "2023-10-11",
            "url_tdpse_detail": "https://pse.komdigi.go.id/tdpse-detail/16208",
            "website": "tmrwpaypartner.tmrwbyuob.com"
        },
        {
            "id": "9cb1ac4d-93c7-47f1-ae0f-6ebc6ba1bdf4",
            "nama_pse": "SUNDAY INS INDONESIA",
            "nama_se": "ASURANSI ONLINE SUNDAY",
            "sektor": "Sektor Perdagangan, Sektor Teknologi Informasi dan Komunikasi",
            "tanggal_terbit": "2023-10-05",
            "url_tdpse_detail": "https://pse.komdigi.go.id/tdpse-detail/16153",
            "website": "retail.easysunday.co.id"
        },
        {
            "id": "9cb1ac29-6ed5-4bc1-99a6-6d4120e9d918",
            "nama_pse": "SAMUEL KRIPTO INDONESIA",
            "nama_se": "VONIX.ID",
            "sektor": "Sektor Perdagangan",
            "tanggal_terbit": "2023-09-19",
            "url_tdpse_detail": "https://pse.komdigi.go.id/tdpse-detail/15969",
            "website": "vonix.id"
        },
        {
            "id": "9cb1ac4b-2957-4797-b974-95e31bd16704",
            "nama_pse": "JOOB GLOBAL INDONESIA",
            "nama_se": "JOOB",
            "sektor": "Sektor Teknologi Informasi dan Komunikasi",
            "tanggal_terbit": "2023-09-12",
            "url_tdpse_detail": "https://pse.komdigi.go.id/tdpse-detail/15911",
            "website": "joob.asia"
        }
    ],
    "processingTimeMs": 2,
    "query": "",
    "totalHits": 248,
    "hitsPerPage": 50,
    "page": 1,
    "totalPages": 5
}