{
    "hits": [
        {
            "id": "9cb1ac60-c016-493d-b939-215340749d1a",
            "nama_pse": "SERAUNG CIPTA SARANA INFORMATIKA",
            "nama_se": "SMART PDAM",
            "sektor": "Sektor Energi dan Sumber Daya Mineral",
            "tanggal_terbit": "2023-10-05",
            "url_tdpse_detail": "https://pse.komdigi.go.id/tdpse-detail/16151",
            "website": "smartpdam.scsi.co.id"
        },
        {
            "id": "9cb1ac4c-9ec6-43e6-ab7c-1e904a1b349a",
            "nama_pse": "NURUL ASWAJA ANNAHDLIYYAH",
            "nama_se": "RME",
            "sektor": "Sektor Kesehatan",
            "tanggal_terbit": "2023-10-05",
            "url_tdpse_detail": "https://pse.komdigi.go.id/tdpse-detail/16154",
            "website": "rsnubabat.id"
        },
        {
            "id": "9cb1ac60-c303-44fd-ba39-627e410295ec",
            "nama_pse": "SINAR INOVASI PERSADA",
            "nama_se": "KPFY",
            "sektor": "Sektor Perdagangan",
            "tanggal_terbit": "2023-10-05",
            "url_tdpse_detail": "https://pse.komdigi.go.id/tdpse-detail/16156",
            "website": "KPFY.ID"
        },
        {
            "id": "9cb1ac4d-96ac-4d32-9428-08950dd9c146",
            "nama_pse": "DILAN TEKNOLOGI INDONESIA",
            "nama_se": "DILAN PORTAL",
            "sektor": "Sektor Perdagangan, Sektor Teknologi Informasi dan Komunikasi",
            "tanggal_terbit": "2023-10-05",
            "url_tdpse_detail": "https://pse.komdigi.go.id/tdpse-detail/16155",
            "website": "playground.dilan.id"
        },
        {
            "id": "9cb1ac60-c611-401a-b227-d4e39a9c3c4d",
            "nama_pse": "DILAN TEKNOLOGI INDONESIA",
            "nama_se": "DILAN TRUST CENTER",
            "sektor": "Sektor Teknologi Informasi dan Komunikasi",
            "tanggal_terbit": "2023-10-05",
            "url_tdpse_detail": "https://pse.komdigi.go.id/tdpse-detail/16157",
            "website": "trust.dilan.id"
        },
        {
            "id": "9cb1ac60-9ed2-4260-bdf7-811ecf6549db",
            "nama_pse": "SIMPAN PINJAM DAN PEMBIAYAAN SYARIAH KOPNUS INDONESIA",
            "nama_se": "OREN SYARIAH",
            "sektor": "Sektor Keuangan",
            "tanggal_terbit": "2023-10-04",
            "url_tdpse_detail": "https://pse.komdigi.go.id/tdpse-detail/16135",
            "website": "kopnussyariah.com"
        },
        {
            "id": "9cb1ac4d-48ea-4946-a980-908877f856a0",
            "nama_pse": "MOMENTUM GLOBAL PRATAMA",
            "nama_se": "TINKERLUST",
            "sektor": "Sektor Perdagangan, Sektor Teknologi Informasi dan Komunikasi",
            "tanggal_terbit": "2023-10-04",
            "url_tdpse_detail": "https://pse.komdigi.go.id/tdpse-detail/16117",
            "website": "tinkerlust.com"
        },
        {
            "id": "9cb1ac4c-6d4b-42aa-afde-4b56ce35b21b",
            "nama_pse": "KELUARGA SEHAT SEJAHTERA",
            "nama_se": "SISTEM INFORMASI RS KELUARGA SEHAT TAYU DAN REKAM MEDIK ELEKTRONIK",
            "sektor": "Sektor Kesehatan",
            "tanggal_terbit": "2023-10-04",
            "url_tdpse_detail": "https://pse.komdigi.go.id/tdpse-detail/16118",
            "website": "-"
        },
        {
            "id": "9cb1ac60-a226-4aec-a6ed-645f93a29f44",
            "nama_pse": "INDO KOALA REMITTANCE",
            "nama_se": "APLIKASI TRANSFEZ",
            "sektor": "Sektor Keuangan",
            "tanggal_terbit": "2023-10-04",
            "url_tdpse_detail": "https://pse.komdigi.go.id/tdpse-detail/16136",
            "website": "-"
        },
        {
            "id": "9cb1ac4d-4be1-4059-82b2-bbd2646b7f76",
            "nama_pse": "NURI GAYA CITRA",
            "nama_se": "MYNURI",
            "sektor": "Sektor Perdagangan, Sektor Teknologi Informasi dan Komunikasi",
            "tanggal_terbit": "2023-10-04",
            "url_tdpse_detail": "https://pse.komdigi.go.id/tdpse-detail/16119",
            "website": "nuriglobal.com"
        },
        {
            "id": "9cb1ac4d-5007-4b78-ae11-b62b4cbbc26f",
            "nama_pse": "JAKARTA TEKNOLOGI INFORMASI",
            "nama_se": "APP KLINIK 24 JAM",
            "sektor": "Sektor Kesehatan, Sektor Teknologi Informasi dan Komunikasi",
            "tanggal_terbit": "2023-10-04",
            "url_tdpse_detail": "https://pse.komdigi.go.id/tdpse-detail/16121",
            "website": "app.klinik24jam.com"
        },
        {
            "id": "9cb1ac60-a4ed-469a-ae79-3d886f290ba4",
            "nama_pse": "RUMAH SAKIT BHAYANGKARA KENDARI KEPOLISIAN NEGARA REPUBLIK INDONESIA KEPOLISIAN NEGARA REPUBLIK INDONESIA",
            "nama_se": "SIMKES KHANZA RS. BHAYANGKARA KENDARI",
            "sektor": "Sektor Kesehatan",
            "tanggal_terbit": "2023-10-04",
            "url_tdpse_detail": "https://pse.komdigi.go.id/tdpse-detail/16122",
            "website": "rsbkendari.id"
        },
        {
            "id": "9cb1ac4d-532b-4668-a98f-7db076d3f8f5",
            "nama_pse": "TALANG BHAKTI KENCANA",
            "nama_se": "SIMRS KHANZA RS RAYHAN",
            "sektor": "Sektor Kesehatan",
            "tanggal_terbit": "2023-10-04",
            "url_tdpse_detail": "https://pse.komdigi.go.id/tdpse-detail/16123",
            "website": "-"
        },
        {
            "id": "9cb1ac4d-55f8-4622-aba3-2d8fbdb59d1d",
            "nama_pse": "BANK BNP PARIBAS INDONESIA",
            "nama_se": "CORTEXFX",
            "sektor": "Sektor Teknologi Informasi dan Komunikasi",
            "tanggal_terbit": "2023-10-04",
            "url_tdpse_detail": "https://pse.komdigi.go.id/tdpse-detail/16124",
            "website": "-"
        },
        {
            "id": "9cb1ac60-a91f-4778-8727-0ffb180a356b",
            "nama_pse": "CAHAYA GIRI ANUGERAH",
            "nama_se": "SIMRS KHANZA",
            "sektor": "Sektor Kesehatan",
            "tanggal_terbit": "2023-10-04",
            "url_tdpse_detail": "https://pse.komdigi.go.id/tdpse-detail/16126",
            "website": "rsicahayagiri.com"
        },
        {
            "id": "9cb1ac60-ac72-4de7-b5b1-63a52fc362e6",
            "nama_pse": "BAKTI PEMUDA NUSANTARA",
            "nama_se": "BAKTPEMUDA",
            "sektor": "Sektor Teknologi Informasi dan Komunikasi",
            "tanggal_terbit": "2023-10-04",
            "url_tdpse_detail": "https://pse.komdigi.go.id/tdpse-detail/16127",
            "website": "baktipemuda.org"
        },
        {
            "id": "9cb1ac60-b0e8-42b3-a1d8-da96ada5fb84",
            "nama_pse": "RS PKU MUHAMMADIYAH SURABAYA",
            "nama_se": "SIMRS KHANZA RS. PKU MUHAMMADIYAH SURABAYA",
            "sektor": "Sektor Kesehatan",
            "tanggal_terbit": "2023-10-04",
            "url_tdpse_detail": "https://pse.komdigi.go.id/tdpse-detail/16128",
            "website": "rspkumusby.com"
        },
        {
            "id": "9cb1ac4d-6199-4c64-961d-97949877a330",
            "nama_pse": "ASTHA ERA ABADI",
            "nama_se": "AEAMEDCLINIC",
            "sektor": "Sektor Kesehatan",
            "tanggal_terbit": "2023-10-04",
            "url_tdpse_detail": "https://pse.komdigi.go.id/tdpse-detail/16129",
            "website": "-"
        },
        {
            "id": "9cb1ac4c-7067-46fb-9174-0e1ded408ee2",
            "nama_pse": "BAKTI PEMUDA NUSANTARA",
            "nama_se": "MENEBARKEBAIKAN",
            "sektor": "Sektor Teknologi Informasi dan Komunikasi",
            "tanggal_terbit": "2023-10-04",
            "url_tdpse_detail": "https://pse.komdigi.go.id/tdpse-detail/16130",
            "website": "menebarkebaikan.org"
        },
        {
            "id": "9cb1ac4c-73c3-49e6-a9ac-e15d7db00112",
            "nama_pse": "TANGGORAJO BULIAN HUSADA",
            "nama_se": "SIMRSMMB",
            "sektor": "Sektor Kesehatan",
            "tanggal_terbit": "2023-10-04",
            "url_tdpse_detail": "https://pse.komdigi.go.id/tdpse-detail/16131",
            "website": "-"
        },
        {
            "id": "9cb1ac4d-71e0-4248-a1d8-84ea96ff5b42",
            "nama_pse": "ASIH EKA ABADI",
            "nama_se": "AEAMEDSITE",
            "sektor": "Sektor Kesehatan",
            "tanggal_terbit": "2023-10-04",
            "url_tdpse_detail": "https://pse.komdigi.go.id/tdpse-detail/16132",
            "website": "-"
        },
        {
            "id": "9cb1ac4c-7cde-4255-b573-0a1d5463fba2",
            "nama_pse": "ARSA GEMA NUSANTARA",
            "nama_se": "WWW.ARSACREATIVE.CO.ID",
            "sektor": "Sektor Perdagangan, Sektor Teknologi Informasi dan Komunikasi",
            "tanggal_terbit": "2023-10-04",
            "url_tdpse_detail": "https://pse.komdigi.go.id/tdpse-detail/16133",
            "website": "arsacreative.co.id"
        },
        {
            "id": "9cb1ac4d-7597-46a1-9c04-6d1dac12e877",
            "nama_pse": "PROJADA DIGITAL SOLUTIONS",
            "nama_se": "SISTEM PEMBAYARAN JASA DESAIN GRAFIS DAN PEMBUATAN APLIKASI",
            "sektor": "Sektor Teknologi Informasi dan Komunikasi",
            "tanggal_terbit": "2023-10-04",
            "url_tdpse_detail": "https://pse.komdigi.go.id/tdpse-detail/16134",
            "website": "projada.com"
        },
        {
            "id": "9cb1ac60-b3ae-45f2-befe-75b88370fc8c",
            "nama_pse": "BANGKIT SUKSES MENDUNIA",
            "nama_se": "LIFE4WIN",
            "sektor": "Sektor Perdagangan",
            "tanggal_terbit": "2023-10-04",
            "url_tdpse_detail": "https://pse.komdigi.go.id/tdpse-detail/16138",
            "website": "life4win.net"
        },
        {
            "id": "9cb1ac4d-4065-4a18-8916-53cd9564ed82",
            "nama_pse": "NUSANTARA",
            "nama_se": "OREN PARTNER",
            "sektor": "Sektor Keuangan",
            "tanggal_terbit": "2023-10-04",
            "url_tdpse_detail": "https://pse.komdigi.go.id/tdpse-detail/16120",
            "website": "-"
        },
        {
            "id": "9cb1ac25-061f-40f3-86bb-961620588ec3",
            "nama_pse": "WAHANA ASLI INDONESIA",
            "nama_se": "WASLI",
            "sektor": "Sektor Transportasi",
            "tanggal_terbit": "2023-10-03",
            "url_tdpse_detail": "https://pse.komdigi.go.id/tdpse-detail/16116",
            "website": "wasliaja.com"
        },
        {
            "id": "9cb1ac4c-56d3-4271-a0be-4069fc092ea1",
            "nama_pse": "INDONESIA SOUQ AMANAH",
            "nama_se": "PENGEMBANGAN APLIKASI PERDAGANGAN MELALUI INTERNET (E-COMMERCE)",
            "sektor": "Sektor Perdagangan, Sektor Teknologi Informasi dan Komunikasi",
            "tanggal_terbit": "2023-10-03",
            "url_tdpse_detail": "https://pse.komdigi.go.id/tdpse-detail/16108",
            "website": "-"
        },
        {
            "id": "9cb1ac60-91df-4b72-8f60-6fdd63dfd320",
            "nama_pse": "YAPINDO JAYA ABADI",
            "nama_se": "NEO UK D3 RMIK",
            "sektor": "Sektor Teknologi Informasi dan Komunikasi",
            "tanggal_terbit": "2023-10-03",
            "url_tdpse_detail": "https://pse.komdigi.go.id/tdpse-detail/16109",
            "website": "-"
        },
        {
            "id": "9cb1ac4c-5aae-47bc-9295-78809b8dade8",
            "nama_pse": "YAPINDO JAYA ABADI",
            "nama_se": "NEO UK D3 RADIOLOGI",
            "sektor": "Sektor Teknologi Informasi dan Komunikasi",
            "tanggal_terbit": "2023-10-03",
            "url_tdpse_detail": "https://pse.komdigi.go.id/tdpse-detail/16110",
            "website": "-"
        },
        {
            "id": "9cb1ac60-984d-420d-8271-f426bd3192cd",
            "nama_pse": "YAPINDO JAYA ABADI",
            "nama_se": "NEO UK D3 SANITASI",
            "sektor": "Sektor Teknologi Informasi dan Komunikasi",
            "tanggal_terbit": "2023-10-03",
            "url_tdpse_detail": "https://pse.komdigi.go.id/tdpse-detail/16111",
            "website": "-"
        },
        {
            "id": "9cb1ac4d-3bc5-413c-95e1-e75832c3c3a0",
            "nama_pse": "BANANA NIAGA NATURA",
            "nama_se": "JUTSOO",
            "sektor": "Sektor Teknologi Informasi dan Komunikasi",
            "tanggal_terbit": "2023-10-03",
            "url_tdpse_detail": "https://pse.komdigi.go.id/tdpse-detail/16112",
            "website": "jutsoo.com"
        },
        {
            "id": "9cb1ac60-9be7-4702-933e-c89dae10badf",
            "nama_pse": "KILAU ANANDA BUANA",
            "nama_se": "NINJADIRECT.COM",
            "sektor": "Sektor Teknologi Informasi dan Komunikasi",
            "tanggal_terbit": "2023-10-03",
            "url_tdpse_detail": "https://pse.komdigi.go.id/tdpse-detail/16113",
            "website": "ninjadirect.com"
        },
        {
            "id": "9cb1ac4c-5eb6-4aff-9b3e-5a40febf8ef1",
            "nama_pse": "MUHAMAD FAUZZI NURHAQQIN",
            "nama_se": "ZAPBER ID PULSA",
            "sektor": "Sektor Perdagangan",
            "tanggal_terbit": "2023-10-03",
            "url_tdpse_detail": "https://pse.komdigi.go.id/tdpse-detail/16114",
            "website": "zapber.id"
        },
        {
            "id": "9cb1ac4c-6987-46f0-b631-07bea7ede75e",
            "nama_pse": "SOLUSI SINERGI DIGITAL",
            "nama_se": "ADAKITA",
            "sektor": "Sektor Teknologi Informasi dan Komunikasi",
            "tanggal_terbit": "2023-10-03",
            "url_tdpse_detail": "https://pse.komdigi.go.id/tdpse-detail/16115",
            "website": "adakita.id"
        },
        {
            "id": "9cb1ac26-2c24-4a49-80eb-dac078b96577",
            "nama_pse": "INTI SOLUSI DEVELOPER",
            "nama_se": "SIMANTEP (SISTEM INFORMASI MANAJEMEN TERINTEGRASI PUSKESMAS)",
            "sektor": "Sektor Kesehatan",
            "tanggal_terbit": "2023-10-02",
            "url_tdpse_detail": "https://pse.komdigi.go.id/tdpse-detail/16099",
            "website": "simantep.app"
        },
        {
            "id": "9cb1ac49-3cf2-4032-8a6f-081830547dcd",
            "nama_pse": "KANDARA DIGITA KREATIF",
            "nama_se": "KANDARA DIGITA KREATIF",
            "sektor": "Sektor Teknologi Informasi dan Komunikasi",
            "tanggal_terbit": "2023-10-02",
            "url_tdpse_detail": "https://pse.komdigi.go.id/tdpse-detail/16101",
            "website": "kandara.io"
        },
        {
            "id": "9cb1ac60-3316-4946-bbec-5028de5ab7e5",
            "nama_pse": "ANGKASA PURA LOGISTIK",
            "nama_se": "CARGOREG",
            "sektor": "Sektor Transportasi",
            "tanggal_terbit": "2023-10-02",
            "url_tdpse_detail": "https://pse.komdigi.go.id/tdpse-detail/16103",
            "website": "-"
        },
        {
            "id": "9cb1ac4d-0fce-47f8-9c6d-1be8536b2060",
            "nama_pse": "SUMMIT OTO FINANCE",
            "nama_se": "SUMMITOTOFINANCE.COM",
            "sektor": "Sektor Keuangan",
            "tanggal_terbit": "2023-10-02",
            "url_tdpse_detail": "https://pse.komdigi.go.id/tdpse-detail/16095",
            "website": "summitotofinance.com"
        },
        {
            "id": "9cb1ac60-64c7-4c15-9058-072acfc0ad73",
            "nama_pse": "ASURANSI JIWA INHEALTH INDONESIA",
            "nama_se": "MY PERSONAL CARE",
            "sektor": "Sektor Keuangan, Sektor Kesehatan",
            "tanggal_terbit": "2023-10-02",
            "url_tdpse_detail": "https://pse.komdigi.go.id/tdpse-detail/16096",
            "website": "mypersonalcare.inhealth.co.id"
        },
        {
            "id": "9cb1ac60-7b41-4c6a-8a69-59f21bd092d0",
            "nama_pse": "SWARNA PRIMA SEDAYA",
            "nama_se": "PT SWARNA PRIMA SEDAYA",
            "sektor": "Sektor Perdagangan",
            "tanggal_terbit": "2023-10-02",
            "url_tdpse_detail": "https://pse.komdigi.go.id/tdpse-detail/16094",
            "website": "swarnaprimasedaya.com"
        },
        {
            "id": "9cb1ac4c-45a4-46c2-8039-3a2697d99744",
            "nama_pse": "HYUNDAI MOTORS INDONESIA",
            "nama_se": "CONNEX",
            "sektor": "Sektor Teknologi Informasi dan Komunikasi",
            "tanggal_terbit": "2023-10-02",
            "url_tdpse_detail": "https://pse.komdigi.go.id/tdpse-detail/16097",
            "website": "-"
        },
        {
            "id": "9cb1ac4c-4949-4f9d-8b33-75ca153d4a0f",
            "nama_pse": "SOLARNET ANTAR NETWORK",
            "nama_se": "MY BRANCH (CABANGKU) - AGENKU",
            "sektor": "Sektor Teknologi Informasi dan Komunikasi",
            "tanggal_terbit": "2023-10-02",
            "url_tdpse_detail": "https://pse.komdigi.go.id/tdpse-detail/16098",
            "website": "-"
        },
        {
            "id": "9cb1ac60-8006-45b0-848f-2adb92427c04",
            "nama_pse": "SUMIATI PRIMA HUSADA",
            "nama_se": "SIMRS KHANZA",
            "sektor": "Sektor Kesehatan",
            "tanggal_terbit": "2023-10-02",
            "url_tdpse_detail": "https://pse.komdigi.go.id/tdpse-detail/16100",
            "website": "-"
        },
        {
            "id": "9cb1ac60-82a5-4340-8422-972702a345f8",
            "nama_pse": "UNIVERSITAS GADJAH MADA",
            "nama_se": "SIM KLINIK GADJAH MADA MEDICAL CENTER",
            "sektor": "Sektor Kesehatan",
            "tanggal_terbit": "2023-10-02",
            "url_tdpse_detail": "https://pse.komdigi.go.id/tdpse-detail/16102",
            "website": "gmc.ugm.ac.id"
        },
        {
            "id": "9cb1ac4d-2fb9-4e1a-84bc-8c1a7f9905c3",
            "nama_pse": "RADJOENG BERKAH ABADI",
            "nama_se": "PENYELENGGARA SARANA PELAKSANAAN TRANSAKSI DI PASAR UANG DAN PASAR VALUTA ASING",
            "sektor": "Sektor Teknologi Informasi dan Komunikasi",
            "tanggal_terbit": "2023-10-02",
            "url_tdpse_detail": "https://pse.komdigi.go.id/tdpse-detail/16104",
            "website": "-"
        },
        {
            "id": "9cb1ac4c-4f0d-421d-aa4e-afe4490ec6d2",
            "nama_pse": "YAPINDO JAYA ABADI",
            "nama_se": "NEO UK D3 KEBIDANAN",
            "sektor": "Sektor Teknologi Informasi dan Komunikasi",
            "tanggal_terbit": "2023-10-02",
            "url_tdpse_detail": "https://pse.komdigi.go.id/tdpse-detail/16105",
            "website": "-"
        },
        {
            "id": "9cb1ac60-89cb-468f-8de2-ab8488fa37c2",
            "nama_pse": "YAPINDO JAYA ABADI",
            "nama_se": "NEO UK D3 GIZI",
            "sektor": "Sektor Teknologi Informasi dan Komunikasi",
            "tanggal_terbit": "2023-10-02",
            "url_tdpse_detail": "https://pse.komdigi.go.id/tdpse-detail/16106",
            "website": "-"
        },
        {
            "id": "9cb1ac4d-3321-48ff-bf2b-b752651f8864",
            "nama_pse": "ALMAN",
            "nama_se": "HDSTORY",
            "sektor": "Sektor Teknologi Informasi dan Komunikasi",
            "tanggal_terbit": "2023-10-02",
            "url_tdpse_detail": "https://pse.komdigi.go.id/tdpse-detail/16107",
            "website": "-"
        },
        {
            "id": "9cb1ac60-78d5-40ed-b9f4-3e844d8809e1",
            "nama_pse": "INVITANKU SOLUSI DIGITAL",
            "nama_se": "INVITANKU",
            "sektor": "Sektor Teknologi Informasi dan Komunikasi",
            "tanggal_terbit": "2023-10-01",
            "url_tdpse_detail": "https://pse.komdigi.go.id/tdpse-detail/16093",
            "website": "invitanku.com"
        },
        {
            "id": "9cb1ac60-6f06-4c10-a166-7fdb3946ef59",
            "nama_pse": "WARTA ONE NEWS",
            "nama_se": "PT. WARTA ONE NEWS",
            "sektor": "Sektor Teknologi Informasi dan Komunikasi",
            "tanggal_terbit": "2023-09-30",
            "url_tdpse_detail": "https://pse.komdigi.go.id/tdpse-detail/16081",
            "website": "-"
        }
    ],
    "processingTimeMs": 5,
    "query": "",
    "totalHits": 19131,
    "hitsPerPage": 50,
    "page": 116,
    "totalPages": 383
}