{
    "hits": [
        {
            "id": "9cb1ab98-b891-42d2-b4fe-41980ac8a352",
            "nama_pse": "PERUSAHAAN PERSEROAN (PERSERO) PT. BANK RAKYAT INDONESIA",
            "nama_se": "BRI CERIA",
            "sektor": "Sektor Keuangan",
            "tanggal_terbit": "2022-06-24",
            "url_tdpse_detail": "https://pse.komdigi.go.id/tdpse-detail/4738",
            "website": "bri.co.id"
        },
        {
            "id": "9cb1abad-f262-4aaf-84fe-b099dd8b4119",
            "nama_pse": "SISTECH KHARISMA",
            "nama_se": "SISTECH KHARISMA SE",
            "sektor": "Sektor Teknologi Informasi dan Komunikasi",
            "tanggal_terbit": "2022-06-24",
            "url_tdpse_detail": "https://pse.komdigi.go.id/tdpse-detail/4739",
            "website": "sistechkharisma.com"
        },
        {
            "id": "9cb1ab98-bba1-4cb4-82d2-4ba1d728d133",
            "nama_pse": "BANTUDESA KARYA INDONESIA",
            "nama_se": "SHOP BANTUDESA",
            "sektor": "Sektor Perdagangan, Sektor Teknologi Informasi dan Komunikasi",
            "tanggal_terbit": "2022-06-24",
            "url_tdpse_detail": "https://pse.komdigi.go.id/tdpse-detail/4740",
            "website": "shop.bantudesa.com"
        },
        {
            "id": "9cb1aba4-0ddd-4c03-9124-179313a201e7",
            "nama_pse": "BANTUDESA KARYA INDONESIA",
            "nama_se": "BANTUDESA.COM",
            "sektor": "Sektor Teknologi Informasi dan Komunikasi",
            "tanggal_terbit": "2022-06-24",
            "url_tdpse_detail": "https://pse.komdigi.go.id/tdpse-detail/4741",
            "website": "bantudesa.com"
        },
        {
            "id": "9cb1aba4-1019-4644-acc1-0332f50a3a58",
            "nama_pse": "TUJJU BIO INDONESIA",
            "nama_se": "TUJJU MANAGEMENT SYSTEM (TMS)",
            "sektor": "Sektor Teknologi Informasi dan Komunikasi",
            "tanggal_terbit": "2022-06-24",
            "url_tdpse_detail": "https://pse.komdigi.go.id/tdpse-detail/4742",
            "website": "tujjumedia.com"
        },
        {
            "id": "9cb1ab98-be1c-44b8-8e4f-135d5f8a7c26",
            "nama_pse": "BERDUNIA DIGITAL TEKNOLOGI",
            "nama_se": "BERDU.ID",
            "sektor": "Sektor Teknologi Informasi dan Komunikasi",
            "tanggal_terbit": "2022-06-24",
            "url_tdpse_detail": "https://pse.komdigi.go.id/tdpse-detail/4744",
            "website": "berdu.id"
        },
        {
            "id": "9cb1ab98-c0d4-4c10-8e91-ccf14a60f988",
            "nama_pse": "BANK MIZUHO INDONESIA",
            "nama_se": "MGEB (MIZUHO GLOBAL ELECTRONIC BANKING)",
            "sektor": "Sektor Keuangan",
            "tanggal_terbit": "2022-06-24",
            "url_tdpse_detail": "https://pse.komdigi.go.id/tdpse-detail/4745",
            "website": "ffrontier.com"
        },
        {
            "id": "9cb1ab98-c380-470b-b9e8-b5f7c0f9345f",
            "nama_pse": "BANK MIZUHO INDONESIA",
            "nama_se": "BMI EXTERNAL WEB",
            "sektor": "Sektor Keuangan",
            "tanggal_terbit": "2022-06-24",
            "url_tdpse_detail": "https://pse.komdigi.go.id/tdpse-detail/4746",
            "website": "MizuhoBank.co.id"
        },
        {
            "id": "9cb1abad-f49e-41f1-8734-be51cd8accbb",
            "nama_pse": "BANK MIZUHO INDONESIA",
            "nama_se": "BMI LOCAL EBANKING",
            "sektor": "Sektor Keuangan",
            "tanggal_terbit": "2022-06-24",
            "url_tdpse_detail": "https://pse.komdigi.go.id/tdpse-detail/4748",
            "website": "BMI-ebanking.co.id"
        },
        {
            "id": "9cb1abad-f66a-4051-a4e8-318e59f1197b",
            "nama_pse": "GRAVEL TEKNOLOGI INDONESIA",
            "nama_se": "GRAVEL DULUR",
            "sektor": "Sektor Perdagangan, Sektor Teknologi Informasi dan Komunikasi",
            "tanggal_terbit": "2022-06-24",
            "url_tdpse_detail": "https://pse.komdigi.go.id/tdpse-detail/4749",
            "website": "gravel.co.id"
        },
        {
            "id": "9cb1aba4-1241-4be8-85f9-6e6cb064ff63",
            "nama_pse": "ADI UTAMA SYAHPUTRA",
            "nama_se": "DIENYCTRAVEL",
            "sektor": "Sektor Transportasi",
            "tanggal_terbit": "2022-06-24",
            "url_tdpse_detail": "https://pse.komdigi.go.id/tdpse-detail/4750",
            "website": "-"
        },
        {
            "id": "9cb1aba4-14b2-4e86-9175-93723572dae0",
            "nama_pse": "RULLY MULYADI",
            "nama_se": "PT LUBNA CELL EXPRESS",
            "sektor": "Sektor Perdagangan, Sektor Teknologi Informasi dan Komunikasi",
            "tanggal_terbit": "2022-06-24",
            "url_tdpse_detail": "https://pse.komdigi.go.id/tdpse-detail/4752",
            "website": "-"
        },
        {
            "id": "9cb1ab98-c6da-44b7-94b1-27de1dd17661",
            "nama_pse": "JAKARTA LIMOUSINE DAN RENTCAR",
            "nama_se": "JAKARTALIMOUSINE.COM",
            "sektor": "Sektor Transportasi",
            "tanggal_terbit": "2022-06-24",
            "url_tdpse_detail": "https://pse.komdigi.go.id/tdpse-detail/4753",
            "website": "jakartalimousine.com"
        },
        {
            "id": "9cb1ab98-c9c4-4486-80f4-e46737fb644f",
            "nama_pse": "JAKARTA LIMOUSINE DAN RENTCAR",
            "nama_se": "JAKARTALIMOUSINE WEB APPS",
            "sektor": "Sektor Transportasi",
            "tanggal_terbit": "2022-06-24",
            "url_tdpse_detail": "https://pse.komdigi.go.id/tdpse-detail/4754",
            "website": "jakartalimousine.com"
        },
        {
            "id": "9cb1ab98-b4e0-4456-969b-a9c182b952f1",
            "nama_pse": "PERUSAHAAN PERSEROAN (PERSERO) PT. BANK RAKYAT INDONESIA",
            "nama_se": "BRI SMART CAMPUS",
            "sektor": "Sektor Keuangan",
            "tanggal_terbit": "2022-06-24",
            "url_tdpse_detail": "https://pse.komdigi.go.id/tdpse-detail/4735",
            "website": "brismartcampus.id"
        },
        {
            "id": "9cb1aba3-e80b-4d5c-8022-2fe4872c317f",
            "nama_pse": "DUNIA BAYAR INDONESIA",
            "nama_se": "AIYO",
            "sektor": "Sektor Teknologi Informasi dan Komunikasi",
            "tanggal_terbit": "2022-06-23",
            "url_tdpse_detail": "https://pse.komdigi.go.id/tdpse-detail/4673",
            "website": "aiyo.id"
        },
        {
            "id": "9cb1abad-ce81-45cb-a2de-c6f0eff159a7",
            "nama_pse": "BIMA MULTI FINANCE",
            "nama_se": "BIMA MULTI FINANCE",
            "sektor": "Sektor Keuangan",
            "tanggal_terbit": "2022-06-23",
            "url_tdpse_detail": "https://pse.komdigi.go.id/tdpse-detail/4674",
            "website": "bimafinance.co.id"
        },
        {
            "id": "9cb1ab98-84e8-46c5-84b7-909997a704f1",
            "nama_pse": "PERUSAHAAN PERSEROAN (PERSERO) PT. BANK RAKYAT INDONESIA",
            "nama_se": "SBN ONLINE BRI",
            "sektor": "Sektor Keuangan",
            "tanggal_terbit": "2022-06-23",
            "url_tdpse_detail": "https://pse.komdigi.go.id/tdpse-detail/4682",
            "website": "sbn.bri.co.id"
        },
        {
            "id": "9cb1ab98-86e8-4c29-8c91-5d6f25bb8f34",
            "nama_pse": "LOKER KITA INDONESIA",
            "nama_se": "LOKERKITA.ID",
            "sektor": "Sektor Teknologi Informasi dan Komunikasi",
            "tanggal_terbit": "2022-06-23",
            "url_tdpse_detail": "https://pse.komdigi.go.id/tdpse-detail/4686",
            "website": "lokerkita.id"
        },
        {
            "id": "9cb1abad-d424-4ccf-9e3b-1ca64c7f83ae",
            "nama_pse": "PERUSAHAAN PERSEROAN (PERSERO) PT. BANK RAKYAT INDONESIA",
            "nama_se": "DIGIPAY002",
            "sektor": "Sektor Keuangan",
            "tanggal_terbit": "2022-06-23",
            "url_tdpse_detail": "https://pse.komdigi.go.id/tdpse-detail/4687",
            "website": "digipay002.id"
        },
        {
            "id": "9cb1ab98-8953-42f9-9084-61efed6dfdca",
            "nama_pse": "JODJO DIGITAL SULTENG",
            "nama_se": "JODJO CUSTOMER",
            "sektor": "Sektor Transportasi, Sektor Teknologi Informasi dan Komunikasi",
            "tanggal_terbit": "2022-06-23",
            "url_tdpse_detail": "https://pse.komdigi.go.id/tdpse-detail/4689",
            "website": "-"
        },
        {
            "id": "9cb1abad-d60f-4de5-9896-dfdcf2fa7263",
            "nama_pse": "BERKARYA INOVASI SEJAHTERA ABADI",
            "nama_se": "BEVANDER",
            "sektor": "Sektor Perdagangan",
            "tanggal_terbit": "2022-06-23",
            "url_tdpse_detail": "https://pse.komdigi.go.id/tdpse-detail/4692",
            "website": "bevander.com"
        },
        {
            "id": "9cb1abad-d7d1-43f4-ac8a-8bb75dffd4c4",
            "nama_pse": "TWOBA BOX INDONESIA",
            "nama_se": "TWOBABOX",
            "sektor": "Sektor Perdagangan",
            "tanggal_terbit": "2022-06-23",
            "url_tdpse_detail": "https://pse.komdigi.go.id/tdpse-detail/4691",
            "website": "-"
        },
        {
            "id": "9cb1abad-d9bb-4568-8848-7b7cbce3920e",
            "nama_pse": "CANDRA DIGITALINDO",
            "nama_se": "CANDIO",
            "sektor": "Sektor Teknologi Informasi dan Komunikasi",
            "tanggal_terbit": "2022-06-23",
            "url_tdpse_detail": "https://pse.komdigi.go.id/tdpse-detail/4690",
            "website": "candio.co.id"
        },
        {
            "id": "9cb1abad-db61-4593-b06f-a56515bb1b14",
            "nama_pse": "PERUSAHAAN PERSEROAN (PERSERO) PT. BANK RAKYAT INDONESIA",
            "nama_se": "GAJIAPPS",
            "sektor": "Sektor Keuangan",
            "tanggal_terbit": "2022-06-23",
            "url_tdpse_detail": "https://pse.komdigi.go.id/tdpse-detail/4693",
            "website": "member.gaji.id"
        },
        {
            "id": "9cb1aba3-ef6e-4ecf-942e-d7c95239e36b",
            "nama_pse": "JODJO DIGITAL SULTENG",
            "nama_se": "JODJO DRIVER",
            "sektor": "Sektor Transportasi, Sektor Teknologi Informasi dan Komunikasi",
            "tanggal_terbit": "2022-06-23",
            "url_tdpse_detail": "https://pse.komdigi.go.id/tdpse-detail/4694",
            "website": "-"
        },
        {
            "id": "9cb1abad-dd23-417c-90d7-42fb96ad5a78",
            "nama_pse": "PERUSAHAAN PERSEROAN (PERSERO) PT. BANK RAKYAT INDONESIA",
            "nama_se": "CERIA",
            "sektor": "Sektor Keuangan",
            "tanggal_terbit": "2022-06-23",
            "url_tdpse_detail": "https://pse.komdigi.go.id/tdpse-detail/4695",
            "website": "bri.co.id"
        },
        {
            "id": "9cb1abad-dec5-46cc-8acb-9cd42e4a0d52",
            "nama_pse": "PERUSAHAAN PERSEROAN (PERSERO) PT. BANK RAKYAT INDONESIA",
            "nama_se": "BRI CREDIT CARD MOBILE",
            "sektor": "Sektor Keuangan",
            "tanggal_terbit": "2022-06-23",
            "url_tdpse_detail": "https://pse.komdigi.go.id/tdpse-detail/4696",
            "website": "mobilecc.bri.co.id"
        },
        {
            "id": "9cb1aba3-f154-4004-aa6b-b5965b5eeb29",
            "nama_pse": "PERUSAHAAN PERSEROAN (PERSERO) PT. BANK RAKYAT INDONESIA",
            "nama_se": "MICROSITE KARTU KREDIT BRI",
            "sektor": "Sektor Keuangan",
            "tanggal_terbit": "2022-06-23",
            "url_tdpse_detail": "https://pse.komdigi.go.id/tdpse-detail/4697",
            "website": "Kartukredit.bri.co.id"
        },
        {
            "id": "9cb1abad-e0cc-40b1-abc7-140469a22892",
            "nama_pse": "PERUSAHAAN PERSEROAN (PERSERO) PT. BANK RAKYAT INDONESIA",
            "nama_se": "MICROSITE WEALTH MANAGEMENT BRI",
            "sektor": "Sektor Keuangan",
            "tanggal_terbit": "2022-06-23",
            "url_tdpse_detail": "https://pse.komdigi.go.id/tdpse-detail/4698",
            "website": "bri.co.id"
        },
        {
            "id": "9cb1abad-e28b-461b-91af-a9a02200d373",
            "nama_pse": "VIGO TECHNOLOGY INDONESIA",
            "nama_se": "ELEFIN",
            "sektor": "Sektor Perdagangan",
            "tanggal_terbit": "2022-06-23",
            "url_tdpse_detail": "https://pse.komdigi.go.id/tdpse-detail/4699",
            "website": "elefin.id"
        },
        {
            "id": "9cb1ab98-8d42-4ee6-bd3f-f70aad1303c5",
            "nama_pse": "PERUSAHAAN PERSEROAN (PERSERO) PT. BANK RAKYAT INDONESIA",
            "nama_se": "LAYANAN PERBANKAN DIGITAL APLIKASI WEB BRI ECOPAY",
            "sektor": "Sektor Keuangan",
            "tanggal_terbit": "2022-06-23",
            "url_tdpse_detail": "https://pse.komdigi.go.id/tdpse-detail/4700",
            "website": "commercialcard.bri.co.id"
        },
        {
            "id": "9cb1abad-e430-43bf-a185-c60eaf15112e",
            "nama_pse": "PERUSAHAAN PERSEROAN (PERSERO) PT. BANK RAKYAT INDONESIA",
            "nama_se": "INTERNET BANKING WEB BANK BRI",
            "sektor": "Sektor Keuangan",
            "tanggal_terbit": "2022-06-23",
            "url_tdpse_detail": "https://pse.komdigi.go.id/tdpse-detail/4701",
            "website": "Ib.bri.co.id"
        },
        {
            "id": "9cb1abad-e5ee-4ef2-9a11-6b85369770b0",
            "nama_pse": "EFFRENSINDO KENCANA",
            "nama_se": "AGOES DJOENAEDI HARSOBISONO",
            "sektor": "Sektor Perdagangan",
            "tanggal_terbit": "2022-06-23",
            "url_tdpse_detail": "https://pse.komdigi.go.id/tdpse-detail/4702",
            "website": "genetek.co.id"
        },
        {
            "id": "9cb1ab98-903a-4112-8472-e3c26b8ae20e",
            "nama_pse": "SMART MULTI TRADE",
            "nama_se": "YUKLIK",
            "sektor": "Sektor Perdagangan, Sektor Teknologi Informasi dan Komunikasi",
            "tanggal_terbit": "2022-06-23",
            "url_tdpse_detail": "https://pse.komdigi.go.id/tdpse-detail/4703",
            "website": "yuklik.id"
        },
        {
            "id": "9cb1ab98-92aa-4165-8b8b-44800d500de3",
            "nama_pse": "BOS SOLUSI WISATA",
            "nama_se": "BOSWISATA",
            "sektor": "Sektor Perdagangan, Sektor Teknologi Informasi dan Komunikasi",
            "tanggal_terbit": "2022-06-23",
            "url_tdpse_detail": "https://pse.komdigi.go.id/tdpse-detail/4704",
            "website": "boswisata.com"
        },
        {
            "id": "9cb1ab98-97c9-4f65-af7e-98b71e349bfc",
            "nama_pse": "GROWSIRE KARYA INDONESIA",
            "nama_se": "GROWSIRE",
            "sektor": "Sektor Perdagangan",
            "tanggal_terbit": "2022-06-23",
            "url_tdpse_detail": "https://pse.komdigi.go.id/tdpse-detail/4707",
            "website": "growsir-e.com"
        },
        {
            "id": "9cb1aba3-f3ed-41ba-a7aa-32e4af676235",
            "nama_pse": "RAYSPID INDONESIA",
            "nama_se": "MALLRAYSPEED",
            "sektor": "Sektor Perdagangan, Sektor Transportasi, Sektor Teknologi Informasi dan Komunikasi",
            "tanggal_terbit": "2022-06-23",
            "url_tdpse_detail": "https://pse.komdigi.go.id/tdpse-detail/4709",
            "website": "mallrayspeed.com"
        },
        {
            "id": "9cb1ab98-9c8a-4246-8032-d13a4e532de8",
            "nama_pse": "FAZPASS INTEGRASI INDONESIA",
            "nama_se": "FAZPASS",
            "sektor": "Sektor Teknologi Informasi dan Komunikasi",
            "tanggal_terbit": "2022-06-23",
            "url_tdpse_detail": "https://pse.komdigi.go.id/tdpse-detail/4712",
            "website": "fazpass.com"
        },
        {
            "id": "9cb1aba3-f705-4890-a597-6d1b23bc713b",
            "nama_pse": "PORTAL BUANA MEDIA",
            "nama_se": "PORTAL BUANA ASIA",
            "sektor": "Sektor Teknologi Informasi dan Komunikasi",
            "tanggal_terbit": "2022-06-23",
            "url_tdpse_detail": "https://pse.komdigi.go.id/tdpse-detail/4711",
            "website": "PORTALBUANANEW.ASIA"
        },
        {
            "id": "9cb1ab98-9edd-4dfa-b787-e343f999e63a",
            "nama_pse": "PORTAL BUANA MEDIA",
            "nama_se": "PORTAL BUANA MEDIA",
            "sektor": "Sektor Teknologi Informasi dan Komunikasi",
            "tanggal_terbit": "2022-06-23",
            "url_tdpse_detail": "https://pse.komdigi.go.id/tdpse-detail/4713",
            "website": "PORTALBUANANEW.COM"
        },
        {
            "id": "9cb1aba3-fc0e-4e0a-bc09-4f524e338750",
            "nama_pse": "USAHA KITA MILYARAN",
            "nama_se": "KELASBERBAYAR",
            "sektor": "Sektor Teknologi Informasi dan Komunikasi",
            "tanggal_terbit": "2022-06-23",
            "url_tdpse_detail": "https://pse.komdigi.go.id/tdpse-detail/4714",
            "website": "kelasberbayar.com"
        },
        {
            "id": "9cb1abad-e7a5-472f-b867-e56abf51c182",
            "nama_pse": "SOLUSI KREATIF ANAK INDONESIA",
            "nama_se": "SLEEKTIV.COM \u0026 SLEEKTIV PRO",
            "sektor": "Sektor Teknologi Informasi dan Komunikasi",
            "tanggal_terbit": "2022-06-23",
            "url_tdpse_detail": "https://pse.komdigi.go.id/tdpse-detail/4715",
            "website": "sleektiv.com"
        },
        {
            "id": "9cb1ab98-a4ec-4aa6-827d-78424e2475bc",
            "nama_pse": "DUA CERITA INDOMEDIA",
            "nama_se": "PT DUA CERITA INDOMEDIA",
            "sektor": "Sektor Teknologi Informasi dan Komunikasi",
            "tanggal_terbit": "2022-06-23",
            "url_tdpse_detail": "https://pse.komdigi.go.id/tdpse-detail/4716",
            "website": "wartaduta.com"
        },
        {
            "id": "9cb1ab98-a745-4542-bbce-3d67367de34c",
            "nama_pse": "DUA CERITA INDOMEDIA",
            "nama_se": "DUA CERITA INDOMEDIA",
            "sektor": "Sektor Teknologi Informasi dan Komunikasi",
            "tanggal_terbit": "2022-06-23",
            "url_tdpse_detail": "https://pse.komdigi.go.id/tdpse-detail/4717",
            "website": "wartaduta.com"
        },
        {
            "id": "9cb1aba3-fe5f-46f4-94ad-023b8f763460",
            "nama_pse": "DUA CERITA INDOMEDIA",
            "nama_se": "WARTADUTA",
            "sektor": "Sektor Teknologi Informasi dan Komunikasi",
            "tanggal_terbit": "2022-06-23",
            "url_tdpse_detail": "https://pse.komdigi.go.id/tdpse-detail/4718",
            "website": "wartaduta.com"
        },
        {
            "id": "9cb1ab98-a9b6-44c0-a490-2bb19a221cd3",
            "nama_pse": "DIGITAL ONLINE TERUS",
            "nama_se": "GARENG TOPUP",
            "sektor": "Sektor Perdagangan",
            "tanggal_terbit": "2022-06-23",
            "url_tdpse_detail": "https://pse.komdigi.go.id/tdpse-detail/4719",
            "website": "garengtopup.com"
        },
        {
            "id": "9cb1ab98-62f0-4fb2-9804-815f401280dc",
            "nama_pse": "ASTRA DIGITAL ARTA",
            "nama_se": "ASTRAPAY",
            "sektor": "Sektor Keuangan, Sektor Teknologi Informasi dan Komunikasi",
            "tanggal_terbit": "2022-06-22",
            "url_tdpse_detail": "https://pse.komdigi.go.id/tdpse-detail/4655",
            "website": "astrapay.com"
        },
        {
            "id": "9cb1abac-a060-4adf-8560-1f505492ec9b",
            "nama_pse": "INOVASI TERDEPAN NUSANTARA",
            "nama_se": "360KREDI",
            "sektor": "Sektor Keuangan",
            "tanggal_terbit": "2022-06-22",
            "url_tdpse_detail": "https://pse.komdigi.go.id/tdpse-detail/4657",
            "website": "360kredi.id"
        },
        {
            "id": "9cb1aba3-d56b-47b5-a719-2241e1517ec3",
            "nama_pse": "SEMAR DIGITALISASI NEGERI",
            "nama_se": "RAJADINGIN",
            "sektor": "Sektor Perdagangan, Sektor Transportasi, Sektor Kesehatan",
            "tanggal_terbit": "2022-06-22",
            "url_tdpse_detail": "https://pse.komdigi.go.id/tdpse-detail/4652",
            "website": "rajadingin.com"
        }
    ],
    "processingTimeMs": 51,
    "query": "",
    "totalHits": 19121,
    "hitsPerPage": 50,
    "page": 297,
    "totalPages": 383
}