{
    "hits": [
        {
            "id": "9cb1ac4a-6be0-40d6-b6d7-222112c9a039",
            "nama_pse": "SOLUSI ADMINISTRASI TUNTAS",
            "nama_se": "BUKAOFFICE",
            "sektor": "Sektor Perdagangan, Sektor Teknologi Informasi dan Komunikasi",
            "tanggal_terbit": "2023-09-02",
            "url_tdpse_detail": "https://pse.komdigi.go.id/tdpse-detail/15814",
            "website": "bukaoffice.com"
        },
        {
            "id": "9cb1ac3a-fd9b-4bca-bdb5-9e569f544fac",
            "nama_pse": "ASURANSI BINA DANA ARTA",
            "nama_se": "YOONA CHATBOT",
            "sektor": "Sektor Keuangan",
            "tanggal_terbit": "2023-09-01",
            "url_tdpse_detail": "https://pse.komdigi.go.id/tdpse-detail/15807",
            "website": "-"
        },
        {
            "id": "9cb1ac4a-4d30-4d13-8c50-4909ceb85d2e",
            "nama_pse": "BIOSYS DIGITAL INDONESIA",
            "nama_se": "BIOSYS",
            "sektor": "Sektor Teknologi Informasi dan Komunikasi",
            "tanggal_terbit": "2023-09-01",
            "url_tdpse_detail": "https://pse.komdigi.go.id/tdpse-detail/15803",
            "website": "biosys.id"
        },
        {
            "id": "9cb1ac28-6815-46af-ba22-9f1dc4105424",
            "nama_pse": "RUBIC KIRANA SOLUSINDO",
            "nama_se": "OMR",
            "sektor": "Sektor Kesehatan",
            "tanggal_terbit": "2023-09-01",
            "url_tdpse_detail": "https://pse.komdigi.go.id/tdpse-detail/15800",
            "website": "-"
        },
        {
            "id": "9cb1ac28-6b36-4486-b631-f3dfc14dddde",
            "nama_pse": "VOID GAME INDONESIA",
            "nama_se": "VOIDGAME",
            "sektor": "Sektor Perdagangan, Sektor Teknologi Informasi dan Komunikasi",
            "tanggal_terbit": "2023-09-01",
            "url_tdpse_detail": "https://pse.komdigi.go.id/tdpse-detail/15801",
            "website": "voidgame.store"
        },
        {
            "id": "9cb1ac3b-05ed-4f31-bdcb-2ca0a57a145f",
            "nama_pse": "PERTAMINA BINA MEDIKA IHC",
            "nama_se": "SIRUP RUMAH SAKIT PERTAMINA RANTAU",
            "sektor": "Sektor Kesehatan",
            "tanggal_terbit": "2023-09-01",
            "url_tdpse_detail": "https://pse.komdigi.go.id/tdpse-detail/15802",
            "website": "-"
        },
        {
            "id": "9cb1ac3b-0a7a-4c64-aadb-69a9e4217511",
            "nama_pse": "AMELIA HUSADA UTAMA",
            "nama_se": "SISTEM MANAJEMEN INFORMASI RUMAH SAKIT",
            "sektor": "Sektor Kesehatan",
            "tanggal_terbit": "2023-09-01",
            "url_tdpse_detail": "https://pse.komdigi.go.id/tdpse-detail/15804",
            "website": "-"
        },
        {
            "id": "9cb1ac4a-62e5-4b12-a906-8f902fa37712",
            "nama_pse": "KRAKATAU MEDIKA",
            "nama_se": "SISTEM INFORMASI TERPADU MANAJEMEN PASIEN (SITMAPAS)",
            "sektor": "Sektor Kesehatan",
            "tanggal_terbit": "2023-09-01",
            "url_tdpse_detail": "https://pse.komdigi.go.id/tdpse-detail/15805",
            "website": "krakataumedika.com"
        },
        {
            "id": "9cb1ac4a-65e3-4199-9528-504de9edd59d",
            "nama_pse": "CENTRAL RESERVASI SISTEM",
            "nama_se": "BOOKINGINA",
            "sektor": "Sektor Perdagangan",
            "tanggal_terbit": "2023-09-01",
            "url_tdpse_detail": "https://pse.komdigi.go.id/tdpse-detail/15806",
            "website": "bookingina.com"
        },
        {
            "id": "9cb1ac28-6fc6-4c28-bb05-dd58fe2befff",
            "nama_pse": "SEROVA SOLUSI TEKNOLOGI",
            "nama_se": "SIMRS SEROVA",
            "sektor": "Sektor Kesehatan, Sektor Teknologi Informasi dan Komunikasi",
            "tanggal_terbit": "2023-09-01",
            "url_tdpse_detail": "https://pse.komdigi.go.id/tdpse-detail/15808",
            "website": "-"
        },
        {
            "id": "9cb1ac28-7b72-46c8-ba5b-5b4e8313410b",
            "nama_pse": "SOLUSI ADMINISTRASI HUKUM",
            "nama_se": "SAH! INDONESIA",
            "sektor": "Sektor Teknologi Informasi dan Komunikasi",
            "tanggal_terbit": "2023-09-01",
            "url_tdpse_detail": "https://pse.komdigi.go.id/tdpse-detail/15809",
            "website": "sahindonesia.com"
        },
        {
            "id": "9cb1ac4a-68f1-4c26-b171-c4d59db79983",
            "nama_pse": "SURYA INDAH NUSA PRATAMA",
            "nama_se": "HTTPS://WWW.SURYAINDAHNUSA.COM/",
            "sektor": "Sektor Perdagangan",
            "tanggal_terbit": "2023-09-01",
            "url_tdpse_detail": "https://pse.komdigi.go.id/tdpse-detail/15810",
            "website": "suryaindahnusa.com"
        },
        {
            "id": "9cb1ac26-68b1-4730-a045-5a2988af7b0f",
            "nama_pse": "RUMAH SAKIT KHUSUS IBU DAN ANAK KAHYANGAN",
            "nama_se": "SISMRS RSKIA KAHYANGAN",
            "sektor": "Sektor Kesehatan",
            "tanggal_terbit": "2023-08-31",
            "url_tdpse_detail": "https://pse.komdigi.go.id/tdpse-detail/15792",
            "website": "rskia-kahyangan.com"
        },
        {
            "id": "9cb1ac3b-01a0-4690-94b8-acaeea474616",
            "nama_pse": "MATEREE NUSANTARA UTAMA",
            "nama_se": "MATEREE.ID",
            "sektor": "Sektor Perdagangan, Sektor Teknologi Informasi dan Komunikasi",
            "tanggal_terbit": "2023-08-31",
            "url_tdpse_detail": "https://pse.komdigi.go.id/tdpse-detail/18443",
            "website": "materee.co"
        },
        {
            "id": "9cb1ac39-585a-4fed-aaf1-62c53fc327f7",
            "nama_pse": "SLEEKFLOW TECHNOLOGIES INDONESIA",
            "nama_se": "SLEEKFLOW TECHNOLOGIES INDONESIA",
            "sektor": "Sektor Teknologi Informasi dan Komunikasi",
            "tanggal_terbit": "2023-08-31",
            "url_tdpse_detail": "https://pse.komdigi.go.id/tdpse-detail/15787",
            "website": "sleekflow.io"
        },
        {
            "id": "9cb1ac3a-e2b4-4eda-8e41-16c20376dc34",
            "nama_pse": "DATAKARMA TEKNOLOGI INDONESIA",
            "nama_se": "DATAKARMA TEKNOLOGI INDONESIA",
            "sektor": "Sektor Perdagangan, Sektor Teknologi Informasi dan Komunikasi",
            "tanggal_terbit": "2023-08-31",
            "url_tdpse_detail": "https://pse.komdigi.go.id/tdpse-detail/15783",
            "website": "ptdtin.com"
        },
        {
            "id": "9cb1ac3a-f387-4ab1-bf07-23447daa2777",
            "nama_pse": "RIZKI KAUNANG JAYA",
            "nama_se": "BIMA NUSANTARA",
            "sektor": "Sektor Teknologi Informasi dan Komunikasi",
            "tanggal_terbit": "2023-08-31",
            "url_tdpse_detail": "https://pse.komdigi.go.id/tdpse-detail/15781",
            "website": "bimanusantara.id"
        },
        {
            "id": "9cb1ac4a-298c-46b6-a173-5a46ad559901",
            "nama_pse": "ONG SOLUTION",
            "nama_se": "LUMON MALL",
            "sektor": "Sektor Perdagangan",
            "tanggal_terbit": "2023-08-31",
            "url_tdpse_detail": "https://pse.komdigi.go.id/tdpse-detail/15782",
            "website": "lumonmall.com"
        },
        {
            "id": "9cb1ac3a-f7c4-4f05-b5fb-46ebe76b07ae",
            "nama_pse": "ALGOSTUDIO",
            "nama_se": "TOKO FARMCARE",
            "sektor": "Sektor Perdagangan, Sektor Pangan",
            "tanggal_terbit": "2023-08-31",
            "url_tdpse_detail": "https://pse.komdigi.go.id/tdpse-detail/15785",
            "website": "yarafarmcare.com"
        },
        {
            "id": "9cb1ac28-4607-4a3d-b395-137a4e6a9040",
            "nama_pse": "PERTAMINA BINA MEDIKA IHC",
            "nama_se": "SIRUP RS PERTAMINA SORONG",
            "sektor": "Sektor Kesehatan",
            "tanggal_terbit": "2023-08-31",
            "url_tdpse_detail": "https://pse.komdigi.go.id/tdpse-detail/15786",
            "website": "-"
        },
        {
            "id": "9cb1ac4a-302f-4277-b556-5ee55b381814",
            "nama_pse": "PERTAMINA BINA MEDIKA IHC",
            "nama_se": "IHC OSS (ONE SOLUTION SYSTEM)\tRUMAH SAKIT PERTAMINA JAYA",
            "sektor": "Sektor Kesehatan",
            "tanggal_terbit": "2023-08-31",
            "url_tdpse_detail": "https://pse.komdigi.go.id/tdpse-detail/15793",
            "website": "-"
        },
        {
            "id": "9cb1ac4a-34a3-4cf1-be8c-0d0cff1a5b95",
            "nama_pse": "MAP AKTIF ADIPERKASA",
            "nama_se": "WWW.STEVEMADDEN.ID",
            "sektor": "Sektor Perdagangan",
            "tanggal_terbit": "2023-08-31",
            "url_tdpse_detail": "https://pse.komdigi.go.id/tdpse-detail/15788",
            "website": "stevemadden.id"
        },
        {
            "id": "9cb1ac3a-faa8-4574-97d4-c87b41eddbca",
            "nama_pse": "GREATCODE SUKSES BERSAMA",
            "nama_se": "RUANGSEHAT",
            "sektor": "Sektor Kesehatan",
            "tanggal_terbit": "2023-08-31",
            "url_tdpse_detail": "https://pse.komdigi.go.id/tdpse-detail/15789",
            "website": "-"
        },
        {
            "id": "9cb1ac4a-3773-4ca5-8670-1d16f3ea3771",
            "nama_pse": "NUSANTARA SEBELAS MEDIKA",
            "nama_se": "SINUSA KLINIK NSM",
            "sektor": "Sektor Kesehatan",
            "tanggal_terbit": "2023-08-31",
            "url_tdpse_detail": "https://pse.komdigi.go.id/tdpse-detail/15790",
            "website": "-"
        },
        {
            "id": "9cb1ac4a-3a35-435d-856a-4aa26ec4691f",
            "nama_pse": "SUMBER HARUMAN NUSANTARA",
            "nama_se": "LAYANAN PENGURUSAN IZIN USAHA \u0026 LEGALITAS USAHA",
            "sektor": "Sektor Perdagangan",
            "tanggal_terbit": "2023-08-31",
            "url_tdpse_detail": "https://pse.komdigi.go.id/tdpse-detail/15791",
            "website": "Alllegal.site"
        },
        {
            "id": "9cb1ac28-51d1-4fe6-9d05-e92633cd6261",
            "nama_pse": "ALGOSTUDIO",
            "nama_se": "YARACONNECT",
            "sektor": "Sektor Perdagangan, Sektor Pangan",
            "tanggal_terbit": "2023-08-31",
            "url_tdpse_detail": "https://pse.komdigi.go.id/tdpse-detail/15794",
            "website": "yaradigital.com"
        },
        {
            "id": "9cb1ac4a-4216-4adc-8234-b8965d7aca3c",
            "nama_pse": "SRI HARTAMAS SUKSES",
            "nama_se": "MYWORKARZ",
            "sektor": "Sektor Teknologi Informasi dan Komunikasi",
            "tanggal_terbit": "2023-08-31",
            "url_tdpse_detail": "https://pse.komdigi.go.id/tdpse-detail/15795",
            "website": "myworkarz.com"
        },
        {
            "id": "9cb1ac28-59b9-491d-b1f0-823146226e26",
            "nama_pse": "HOKI KLUB INDONESIA",
            "nama_se": "HOKI KLUB INDONESIA",
            "sektor": "Sektor Perdagangan",
            "tanggal_terbit": "2023-08-31",
            "url_tdpse_detail": "https://pse.komdigi.go.id/tdpse-detail/15796",
            "website": "hokimakmurabadi.com"
        },
        {
            "id": "9cb1ac28-5fa8-441b-9952-46fe55261549",
            "nama_pse": "ILHAM PRATAMA INDONESIA PERSADA",
            "nama_se": "HTTPS://WWW.ILHAMPRATAMA.CO.ID",
            "sektor": "Sektor Perdagangan",
            "tanggal_terbit": "2023-08-31",
            "url_tdpse_detail": "https://pse.komdigi.go.id/tdpse-detail/15797",
            "website": "ilhampratama.co.id"
        },
        {
            "id": "9cb1ac4a-48a4-4339-96b5-355ffe25f40c",
            "nama_pse": "SARTI",
            "nama_se": "MAIL",
            "sektor": "Sektor Teknologi Informasi dan Komunikasi",
            "tanggal_terbit": "2023-08-31",
            "url_tdpse_detail": "https://pse.komdigi.go.id/tdpse-detail/15798",
            "website": "-"
        },
        {
            "id": "9cb1ac28-6421-4981-bb55-355524c0d00a",
            "nama_pse": "MEDIA PETE INDONESIA",
            "nama_se": "PETENEWS.CO.ID",
            "sektor": "Sektor Teknologi Informasi dan Komunikasi",
            "tanggal_terbit": "2023-08-31",
            "url_tdpse_detail": "https://pse.komdigi.go.id/tdpse-detail/15799",
            "website": "petenews.co.id"
        },
        {
            "id": "9cb1ac35-9ddd-46cc-9792-faecb08ad1f9",
            "nama_pse": "TIRTAGAMA APLIKASI GLOBAL",
            "nama_se": "TAGTAG",
            "sektor": "Sektor Teknologi Informasi dan Komunikasi",
            "tanggal_terbit": "2023-08-30",
            "url_tdpse_detail": "https://pse.komdigi.go.id/tdpse-detail/15780",
            "website": "tagtag.gg"
        },
        {
            "id": "9cb1ac47-efc2-4b78-bfac-a2d8154d42c8",
            "nama_pse": "LIN DIKARA PRAKASA",
            "nama_se": "LIN DIKARA SOLUTION ECOSYSTEM",
            "sektor": "Sektor Teknologi Informasi dan Komunikasi",
            "tanggal_terbit": "2023-08-30",
            "url_tdpse_detail": "https://pse.komdigi.go.id/tdpse-detail/15777",
            "website": "lindikara.co.id"
        },
        {
            "id": "9cb1ac27-8f89-4ea6-b5b7-64db1615fe56",
            "nama_pse": "BANTU TEKNOLOGI DIGITAL",
            "nama_se": "BANTUDAGANG.COM",
            "sektor": "Sektor Teknologi Informasi dan Komunikasi",
            "tanggal_terbit": "2023-08-30",
            "url_tdpse_detail": "https://pse.komdigi.go.id/tdpse-detail/15771",
            "website": "bantudagang.com"
        },
        {
            "id": "9cb1ac4a-1c58-48f1-8566-eba35743813a",
            "nama_pse": "NEWS ANTARA GROUP",
            "nama_se": "NEWSANTARA.CO.ID",
            "sektor": "Sektor Teknologi Informasi dan Komunikasi",
            "tanggal_terbit": "2023-08-30",
            "url_tdpse_detail": "https://pse.komdigi.go.id/tdpse-detail/15770",
            "website": "newsantara.co.id"
        },
        {
            "id": "9cb1ac3a-eaf2-4365-88cf-b3eb255c0aa4",
            "nama_pse": "BILLFAZZ TEKNOLOGI NUSANTARA",
            "nama_se": "BILLFAZZ.COM",
            "sektor": "Sektor Teknologi Informasi dan Komunikasi",
            "tanggal_terbit": "2023-08-30",
            "url_tdpse_detail": "https://pse.komdigi.go.id/tdpse-detail/15772",
            "website": "billfazz.com"
        },
        {
            "id": "9cb1ac3a-ef32-4032-8db2-7e2f3e12a7b4",
            "nama_pse": "MITRA TRANSAKSI INDONESIA",
            "nama_se": "YOKKEBIZ",
            "sektor": "Sektor Teknologi Informasi dan Komunikasi",
            "tanggal_terbit": "2023-08-30",
            "url_tdpse_detail": "https://pse.komdigi.go.id/tdpse-detail/15773",
            "website": "-"
        },
        {
            "id": "9cb1ac28-3d7e-4fb8-9603-04720b82ad01",
            "nama_pse": "RUMAH SAKIT PELABUHAN",
            "nama_se": "SIMRS RS PELABUHAN JAKARTA",
            "sektor": "Sektor Kesehatan",
            "tanggal_terbit": "2023-08-30",
            "url_tdpse_detail": "https://pse.komdigi.go.id/tdpse-detail/15774",
            "website": "-"
        },
        {
            "id": "9cb1ac4a-1feb-475d-8dcd-6140cd30ca34",
            "nama_pse": "INTERKONEKSI INDO TEKNOLOGI",
            "nama_se": "INFINITY LINKS SAAS PLATFORM",
            "sektor": "Sektor Teknologi Informasi dan Komunikasi",
            "tanggal_terbit": "2023-08-30",
            "url_tdpse_detail": "https://pse.komdigi.go.id/tdpse-detail/15776",
            "website": "infin80linx.co.id"
        },
        {
            "id": "9cb1ac4a-22a4-448e-911e-b2dfe8983fb5",
            "nama_pse": "BUDI AGUNG",
            "nama_se": "SIMBA",
            "sektor": "Sektor Kesehatan",
            "tanggal_terbit": "2023-08-30",
            "url_tdpse_detail": "https://pse.komdigi.go.id/tdpse-detail/15775",
            "website": "rsbudiagung.com"
        },
        {
            "id": "9cb1ac4a-2574-4649-adb1-e552877f44c5",
            "nama_pse": "KICK PRICE INC",
            "nama_se": "THE FRAGRANCE SHOP",
            "sektor": "Sektor Perdagangan",
            "tanggal_terbit": "2023-08-30",
            "url_tdpse_detail": "https://pse.komdigi.go.id/tdpse-detail/15778",
            "website": "thefragranceshopinc.com"
        },
        {
            "id": "9cb1ac28-06e2-41a3-9f6e-47f75d3212b4",
            "nama_pse": "RUMAH SAKIT UMUM DAERAH AL IHSAN PROVINSI JAWA BARAT",
            "nama_se": "SIMRS DEBAS",
            "sektor": "Sektor Kesehatan",
            "tanggal_terbit": "2023-08-29",
            "url_tdpse_detail": "https://pse.komdigi.go.id/tdpse-detail/15751",
            "website": "rsudalihsan.com"
        },
        {
            "id": "9cb1ac3a-9210-4f9d-a09d-f024e4eb36d3",
            "nama_pse": "PERTAMINA BINA MEDIKA IHC",
            "nama_se": "SIM KLINIK PERTAMINA PLUMPANG",
            "sektor": "Sektor Kesehatan",
            "tanggal_terbit": "2023-08-29",
            "url_tdpse_detail": "https://pse.komdigi.go.id/tdpse-detail/15753",
            "website": "-"
        },
        {
            "id": "9cb1ac4a-03ae-420c-b06e-47cfe9cbcf3f",
            "nama_pse": "ANANDA GLOBAL INDONESIA",
            "nama_se": "RGAMESTORE",
            "sektor": "Sektor Perdagangan, Sektor Teknologi Informasi dan Komunikasi",
            "tanggal_terbit": "2023-08-29",
            "url_tdpse_detail": "https://pse.komdigi.go.id/tdpse-detail/15750",
            "website": "rgamestore.com"
        },
        {
            "id": "9cb1ac28-1165-4d0c-a72d-00daf1892107",
            "nama_pse": "PERTAMINA BINA MEDIKA IHC",
            "nama_se": "OSS IHC RUMAH SAKIT OTAK \u0026 JANTUNG BIRINGKANAYA",
            "sektor": "Sektor Kesehatan",
            "tanggal_terbit": "2023-08-29",
            "url_tdpse_detail": "https://pse.komdigi.go.id/tdpse-detail/15752",
            "website": "-"
        },
        {
            "id": "9cb1ac4a-0ceb-4da9-8f21-49bd90396af4",
            "nama_pse": "PERTAMINA BINA MEDIKA IHC",
            "nama_se": "SIRUP RUMAH SAKIT PERTAMINA PANGKALAN BRANDAN",
            "sektor": "Sektor Kesehatan",
            "tanggal_terbit": "2023-08-29",
            "url_tdpse_detail": "https://pse.komdigi.go.id/tdpse-detail/15761",
            "website": "-"
        },
        {
            "id": "9cb1ac28-18df-4c01-b1c4-423a561caad0",
            "nama_pse": "RUMAH SAKIT PELABUHAN",
            "nama_se": "SIMOP RS PELABUHAN JAKARTA",
            "sektor": "Sektor Kesehatan",
            "tanggal_terbit": "2023-08-29",
            "url_tdpse_detail": "https://pse.komdigi.go.id/tdpse-detail/15754",
            "website": "-"
        },
        {
            "id": "9cb1ac3a-99e4-4d2e-8dbd-2d4552d8b001",
            "nama_pse": "PERTAMINA BINA MEDIKA IHC",
            "nama_se": "SIM KLINIK PERTAMINA BSD",
            "sektor": "Sektor Kesehatan",
            "tanggal_terbit": "2023-08-29",
            "url_tdpse_detail": "https://pse.komdigi.go.id/tdpse-detail/15762",
            "website": "-"
        },
        {
            "id": "9cb1ac3a-b2d7-4c79-95d6-2d4433852fe6",
            "nama_pse": "AGRIVA TEKNOLOGI NUSANTARA",
            "nama_se": "DESAPEDIA",
            "sektor": "Sektor Teknologi Informasi dan Komunikasi",
            "tanggal_terbit": "2023-08-29",
            "url_tdpse_detail": "https://pse.komdigi.go.id/tdpse-detail/15760",
            "website": "desapedia.co.id"
        },
        {
            "id": "9cb1ac28-2520-4cc8-978c-c12323d2b7a8",
            "nama_pse": "RSJD DR RM SOEDJARWADI PROVINSI JAWA TENGAH",
            "nama_se": "SIM RS SOEDJARWADI",
            "sektor": "Sektor Kesehatan",
            "tanggal_terbit": "2023-08-29",
            "url_tdpse_detail": "https://pse.komdigi.go.id/tdpse-detail/15757",
            "website": "rsjd-sujarwadi.jatengprov.go.id"
        }
    ],
    "processingTimeMs": 2,
    "query": "",
    "totalHits": 19121,
    "hitsPerPage": 50,
    "page": 122,
    "totalPages": 383
}