{
    "hits": [
        {
            "id": "9e67ea29-15c8-454e-882f-2bbf5387e038",
            "nama_pse": "JOHAN HERMAWAN",
            "nama_se": "AJP ENTERTAINMENT",
            "sektor": "Sektor Perdagangan, Sektor Teknologi Informasi dan Komunikasi",
            "tanggal_terbit": "2025-03-11",
            "url_tdpse_detail": "https://pse.komdigi.go.id/tdpse-detail/22695",
            "website": "-"
        },
        {
            "id": "9e67f510-2064-4f6a-a89d-a0cd100368d0",
            "nama_pse": "GEMA BUDAYA SILA",
            "nama_se": "GEMABULA",
            "sektor": "Sektor Perdagangan",
            "tanggal_terbit": "2025-03-11",
            "url_tdpse_detail": "https://pse.komdigi.go.id/tdpse-detail/22696",
            "website": "gemabula.biz.id"
        },
        {
            "id": "9e67f53f-f2dd-4dda-9073-205f6d373095",
            "nama_pse": "NEXA DIGITAL TEKNOLOGI",
            "nama_se": "nexadigitek",
            "sektor": "Sektor Perdagangan",
            "tanggal_terbit": "2025-03-11",
            "url_tdpse_detail": "https://pse.komdigi.go.id/tdpse-detail/22697",
            "website": "nexadigitek.biz.id"
        },
        {
            "id": "9e67f5d3-6a64-4522-a87e-6757ec6b141a",
            "nama_pse": "SERASI BERSAMA MANDIRI",
            "nama_se": "SERMAND",
            "sektor": "Sektor Perdagangan",
            "tanggal_terbit": "2025-03-11",
            "url_tdpse_detail": "https://pse.komdigi.go.id/tdpse-detail/22698",
            "website": "sermand.biz.id"
        },
        {
            "id": "9e6815a2-f160-4b49-8f2c-29ba2d203aa7",
            "nama_pse": "WAHANA BINTANG MEDIA",
            "nama_se": "KLIKWARTA.COM",
            "sektor": "Sektor Teknologi Informasi dan Komunikasi",
            "tanggal_terbit": "2025-03-11",
            "url_tdpse_detail": "https://pse.komdigi.go.id/tdpse-detail/22699",
            "website": "klikwarta.com"
        },
        {
            "id": "9e682fe1-419b-46af-9a60-f73bfa2fc528",
            "nama_pse": "SIKUMBANG JAYA MANDIRI",
            "nama_se": "saungnews.co",
            "sektor": "Sektor Teknologi Informasi dan Komunikasi",
            "tanggal_terbit": "2025-03-11",
            "url_tdpse_detail": "https://pse.komdigi.go.id/tdpse-detail/22700",
            "website": "saungnews.co"
        },
        {
            "id": "9e68578e-cf87-4483-899c-7c8f6faf32be",
            "nama_pse": "DOLPHIN TEKNOLOGI KESEHATAN",
            "nama_se": "DOLPHINHEALTHTECH",
            "sektor": "Sektor Teknologi Informasi dan Komunikasi",
            "tanggal_terbit": "2025-03-11",
            "url_tdpse_detail": "https://pse.komdigi.go.id/tdpse-detail/22701",
            "website": "dolphinhealthtech.co.id"
        },
        {
            "id": "9e685cae-d874-440f-b739-e3d70084c6b1",
            "nama_pse": "MUHAMMAD SYAFRIL HIDAYAYULLAH",
            "nama_se": "akunmu.id",
            "sektor": "Sektor Perdagangan, Sektor Teknologi Informasi dan Komunikasi",
            "tanggal_terbit": "2025-03-11",
            "url_tdpse_detail": "https://pse.komdigi.go.id/tdpse-detail/22702",
            "website": "akunmu.id"
        },
        {
            "id": "9e69678c-cf46-4c7d-b734-b2aa67787215",
            "nama_pse": "TEKNOLOGI AWAN SEJAHTERA",
            "nama_se": "AWATECH",
            "sektor": "Sektor Perdagangan",
            "tanggal_terbit": "2025-03-11",
            "url_tdpse_detail": "https://pse.komdigi.go.id/tdpse-detail/22711",
            "website": "awatech.biz.id"
        },
        {
            "id": "9e6555ab-d02f-4e81-850d-1525d4f89a9d",
            "nama_pse": "HYPER CLOUD HOST",
            "nama_se": "HYPERCLOUDHOST",
            "sektor": "Sektor Teknologi Informasi dan Komunikasi",
            "tanggal_terbit": "2025-03-10",
            "url_tdpse_detail": "https://pse.komdigi.go.id/tdpse-detail/22674",
            "website": "hypercloudhost.com"
        },
        {
            "id": "9e6544e1-ef6d-470b-b436-e069f63b0fd7",
            "nama_pse": "BURSA KOMODITI DAN DERIVATIF INDONESIA",
            "nama_se": "MT5",
            "sektor": "Sektor Perdagangan",
            "tanggal_terbit": "2025-03-10",
            "url_tdpse_detail": "https://pse.komdigi.go.id/tdpse-detail/22673",
            "website": "-"
        },
        {
            "id": "9e657912-a9e1-4201-8e86-7602ad5b7b34",
            "nama_pse": "LANGIT INDONESIA BERJANGKA",
            "nama_se": "www.koinsayang.com/futures",
            "sektor": "Sektor Perdagangan",
            "tanggal_terbit": "2025-03-10",
            "url_tdpse_detail": "https://pse.komdigi.go.id/tdpse-detail/22676",
            "website": "-"
        },
        {
            "id": "9e6527bd-b5aa-4062-bd79-434a92e8a815",
            "nama_pse": "BURSA KOMODITI DAN DERIVATIF INDONESIA",
            "nama_se": "ALKANZ",
            "sektor": "Sektor Perdagangan",
            "tanggal_terbit": "2025-03-10",
            "url_tdpse_detail": "https://pse.komdigi.go.id/tdpse-detail/22672",
            "website": "-"
        },
        {
            "id": "9e651f0d-48c5-418f-83b0-5212c9d71ef3",
            "nama_pse": "INDONESIA CLEARING HOUSE",
            "nama_se": "CITRA",
            "sektor": "Sektor Perdagangan",
            "tanggal_terbit": "2025-03-10",
            "url_tdpse_detail": "https://pse.komdigi.go.id/tdpse-detail/22670",
            "website": "ich.co.id"
        },
        {
            "id": "9e652643-6676-4a39-bc25-823ae19be008",
            "nama_pse": "INDONESIA CLEARING HOUSE",
            "nama_se": "DIGITAL GOLD",
            "sektor": "Sektor Perdagangan",
            "tanggal_terbit": "2025-03-10",
            "url_tdpse_detail": "https://pse.komdigi.go.id/tdpse-detail/22671",
            "website": "-"
        },
        {
            "id": "9e655a2d-839e-40a4-9c72-64f9ddae873c",
            "nama_pse": "GLOBAL INFOTECH SOLUTION",
            "nama_se": "GLOBAL INFOTECH SOLUTION",
            "sektor": "Sektor Perdagangan, Sektor Teknologi Informasi dan Komunikasi",
            "tanggal_terbit": "2025-03-10",
            "url_tdpse_detail": "https://pse.komdigi.go.id/tdpse-detail/22675",
            "website": "global-infotech.co.id"
        },
        {
            "id": "9e659233-23ab-48a7-ba03-eb9ddf7134d4",
            "nama_pse": "ICDX LOGISTIK BERIKAT",
            "nama_se": "EPACT",
            "sektor": "Sektor Perdagangan",
            "tanggal_terbit": "2025-03-10",
            "url_tdpse_detail": "https://pse.komdigi.go.id/tdpse-detail/22677",
            "website": "-"
        },
        {
            "id": "9e6594b2-2526-41a5-ae4b-bdaefb26715f",
            "nama_pse": "SOLUSI KAMPUS INDONESIA",
            "nama_se": "MCAMPUS",
            "sektor": "Sektor Teknologi Informasi dan Komunikasi",
            "tanggal_terbit": "2025-03-10",
            "url_tdpse_detail": "https://pse.komdigi.go.id/tdpse-detail/22678",
            "website": "mcampus.id"
        },
        {
            "id": "9e66463b-f44c-405a-91d6-d7a3499d4f66",
            "nama_pse": "BERITA JURNAL KOTA",
            "nama_se": "BERITA JURNAL KOTA",
            "sektor": "Sektor Perdagangan",
            "tanggal_terbit": "2025-03-10",
            "url_tdpse_detail": "https://pse.komdigi.go.id/tdpse-detail/22679",
            "website": "beritajurnalkota.com"
        },
        {
            "id": "9e629190-7d48-4bff-af84-67d78439653d",
            "nama_pse": "JUALI",
            "nama_se": "RUMAH ILHAM.NET",
            "sektor": "Sektor Teknologi Informasi dan Komunikasi",
            "tanggal_terbit": "2025-03-09",
            "url_tdpse_detail": "https://pse.komdigi.go.id/tdpse-detail/22665",
            "website": "-"
        },
        {
            "id": "9e637e16-edff-484d-b69c-5abab0c5b8b0",
            "nama_pse": "CAKRAWALA TELEMEDIA NUSANTARA",
            "nama_se": "PRESS CORNER INDONESIA",
            "sektor": "Sektor Teknologi Informasi dan Komunikasi",
            "tanggal_terbit": "2025-03-09",
            "url_tdpse_detail": "https://pse.komdigi.go.id/tdpse-detail/22666",
            "website": "presscorner.id"
        },
        {
            "id": "9e63a528-ba9f-4407-a15d-b29435674609",
            "nama_pse": "TOBBY SEPTALDI",
            "nama_se": "ASJAPAY",
            "sektor": "Sektor Perdagangan",
            "tanggal_terbit": "2025-03-09",
            "url_tdpse_detail": "https://pse.komdigi.go.id/tdpse-detail/22667",
            "website": "-"
        },
        {
            "id": "9e63aa97-faa4-45d7-96b0-5d9ee1b83037",
            "nama_pse": "M. RIFQI WILDAN FIRDAUS",
            "nama_se": "LAYANAN INTERNET LOKAL ( RT RW NET )",
            "sektor": "Sektor Teknologi Informasi dan Komunikasi",
            "tanggal_terbit": "2025-03-09",
            "url_tdpse_detail": "https://pse.komdigi.go.id/tdpse-detail/22668",
            "website": "-"
        },
        {
            "id": "9e63e795-732f-45ce-91b9-d89fdf2c3197",
            "nama_pse": "CREATIVA MITRA PRATAMA",
            "nama_se": "E-COMMERCE",
            "sektor": "Sektor Perdagangan",
            "tanggal_terbit": "2025-03-09",
            "url_tdpse_detail": "https://pse.komdigi.go.id/tdpse-detail/22669",
            "website": "profelio.id"
        },
        {
            "id": "9e61a4b3-df7f-4a35-a73e-053a52556d19",
            "nama_pse": "SYECH MUNAWAR",
            "nama_se": "terra net nusantara",
            "sektor": "Sektor Perdagangan, Sektor Teknologi Informasi dan Komunikasi",
            "tanggal_terbit": "2025-03-08",
            "url_tdpse_detail": "https://pse.komdigi.go.id/tdpse-detail/22664",
            "website": "terranetnusantara.blogspot.co.id"
        },
        {
            "id": "9e5f7248-08b2-41e1-b832-b828b5a2e2df",
            "nama_pse": "AHMAD ZAENUDIN",
            "nama_se": "SIRAME",
            "sektor": "Sektor Teknologi Informasi dan Komunikasi",
            "tanggal_terbit": "2025-03-07",
            "url_tdpse_detail": "https://pse.komdigi.go.id/tdpse-detail/22656",
            "website": "sukarame.id"
        },
        {
            "id": "9e5f8698-b98e-45e8-8936-711d6a50851a",
            "nama_pse": "BERKAH ANDRIANI MEDIA",
            "nama_se": "harianinfonews.com",
            "sektor": "Sektor Teknologi Informasi dan Komunikasi",
            "tanggal_terbit": "2025-03-07",
            "url_tdpse_detail": "https://pse.komdigi.go.id/tdpse-detail/22657",
            "website": "harianinfonews.com"
        },
        {
            "id": "9e5f7248-2552-488c-88a9-c9209dfb1f0e",
            "nama_pse": "RAYHAN RIFYAL HERDYANSYAH",
            "nama_se": "SKYTECHINDO",
            "sektor": "Sektor Perdagangan, Sektor Teknologi Informasi dan Komunikasi",
            "tanggal_terbit": "2025-03-07",
            "url_tdpse_detail": "https://pse.komdigi.go.id/tdpse-detail/22658",
            "website": "skytechindonet.blogspot.co.id"
        },
        {
            "id": "9e5fc6c7-1c5d-4a37-af80-e063ed30fdcf",
            "nama_pse": "GODRINKS BALI INDONESIA",
            "nama_se": "GODRINKS INDONESIA",
            "sektor": "Sektor Perdagangan",
            "tanggal_terbit": "2025-03-07",
            "url_tdpse_detail": "https://pse.komdigi.go.id/tdpse-detail/22659",
            "website": "godrinks.com"
        },
        {
            "id": "9e5fd9ff-2244-4193-97e3-a7d9e2ccbf45",
            "nama_pse": "CST SOLUSI INDONESIA",
            "nama_se": "STROOM",
            "sektor": "Sektor Perdagangan, Sektor Energi dan Sumber Daya Mineral, Sektor Teknologi Informasi dan Komunikasi",
            "tanggal_terbit": "2025-03-07",
            "url_tdpse_detail": "https://pse.komdigi.go.id/tdpse-detail/22660",
            "website": "-"
        },
        {
            "id": "9e60112a-945a-4a28-ba74-4f2051ba9030",
            "nama_pse": "GEMINTANG MULYA ABADI",
            "nama_se": "CV GEMINTANG MULYA ABADI",
            "sektor": "Sektor Perdagangan",
            "tanggal_terbit": "2025-03-07",
            "url_tdpse_detail": "https://pse.komdigi.go.id/tdpse-detail/22661",
            "website": "gemawisata.com"
        },
        {
            "id": "9e604107-83ba-4f21-9d64-1168bed4df81",
            "nama_pse": "BENWAY CONSULTANT INDONESIA",
            "nama_se": "BENWAY CONSULTANT INDONESIA",
            "sektor": "Sektor Perdagangan",
            "tanggal_terbit": "2025-03-07",
            "url_tdpse_detail": "https://pse.komdigi.go.id/tdpse-detail/22662",
            "website": "pindahkredit.com"
        },
        {
            "id": "9e6056ff-5dac-481e-b4aa-8987e22a083e",
            "nama_pse": "MITRA BROTHER NETWORK",
            "nama_se": "SERVER",
            "sektor": "Sektor Teknologi Informasi dan Komunikasi",
            "tanggal_terbit": "2025-03-07",
            "url_tdpse_detail": "https://pse.komdigi.go.id/tdpse-detail/22663",
            "website": "-"
        },
        {
            "id": "9e5c6343-12bb-48e6-bea9-5ac79226bbba",
            "nama_pse": "STEPITILOPA",
            "nama_se": "starnet",
            "sektor": "Sektor Perdagangan, Sektor Teknologi Informasi dan Komunikasi",
            "tanggal_terbit": "2025-03-06",
            "url_tdpse_detail": "https://pse.komdigi.go.id/tdpse-detail/22640",
            "website": "starnet-internet.blogspot.co.id"
        },
        {
            "id": "9e5d1b0f-15aa-4ced-8a12-4e0d293dee44",
            "nama_pse": "LEON PAYMENT SOLUSINDO",
            "nama_se": "ADA PULSA",
            "sektor": "Sektor Perdagangan",
            "tanggal_terbit": "2025-03-06",
            "url_tdpse_detail": "https://pse.komdigi.go.id/tdpse-detail/22641",
            "website": "adapulsa.id"
        },
        {
            "id": "9e5d4702-f9f2-42fe-9d10-d9f1a72ee37c",
            "nama_pse": "FERNANDO ALBERT DAMANIK",
            "nama_se": "nusantara news today",
            "sektor": "Sektor Teknologi Informasi dan Komunikasi",
            "tanggal_terbit": "2025-03-06",
            "url_tdpse_detail": "https://pse.komdigi.go.id/tdpse-detail/22642",
            "website": "nusantaranews-today.com"
        },
        {
            "id": "9e5d4f13-b591-4b13-acf1-9bd0431fbf45",
            "nama_pse": "CROP INSPIRASI DIGITAL",
            "nama_se": "CROPCLINIC",
            "sektor": "Sektor Kesehatan",
            "tanggal_terbit": "2025-03-06",
            "url_tdpse_detail": "https://pse.komdigi.go.id/tdpse-detail/22643",
            "website": "-"
        },
        {
            "id": "9e5d4fba-49f1-4bf0-89c0-c6838701a862",
            "nama_pse": "VALDEC MANAJEMEN GROUP",
            "nama_se": "VALDEC MANAJEMEN GROUP",
            "sektor": "Sektor Perdagangan",
            "tanggal_terbit": "2025-03-06",
            "url_tdpse_detail": "https://pse.komdigi.go.id/tdpse-detail/22644",
            "website": "valdeclegal.id"
        },
        {
            "id": "9e5d7258-450b-4093-9060-fca7327e376c",
            "nama_pse": "FINDIT TECHNOLOGY SERVICES",
            "nama_se": "FINDIT.ID",
            "sektor": "Sektor Teknologi Informasi dan Komunikasi",
            "tanggal_terbit": "2025-03-06",
            "url_tdpse_detail": "https://pse.komdigi.go.id/tdpse-detail/22645",
            "website": "findit.id"
        },
        {
            "id": "9e5d7bd5-ffaa-41db-8ac8-f6e93a69dde8",
            "nama_pse": "DEKORUMA INOVASI LESTARI",
            "nama_se": "DEKORUMA: FURNITURE \u0026 INTERIOR",
            "sektor": "Sektor Perdagangan",
            "tanggal_terbit": "2025-03-06",
            "url_tdpse_detail": "https://pse.komdigi.go.id/tdpse-detail/22646",
            "website": "-"
        },
        {
            "id": "9e5d8981-4869-41be-a4c3-c18018a2d93e",
            "nama_pse": "GARMIN INDONESIA DISTRIBUTION",
            "nama_se": "GARMIN CONNECT MOBILE",
            "sektor": "Sektor Teknologi Informasi dan Komunikasi",
            "tanggal_terbit": "2025-03-06",
            "url_tdpse_detail": "https://pse.komdigi.go.id/tdpse-detail/22647",
            "website": "connect.garmin.com"
        },
        {
            "id": "9e5d9697-8100-4204-936a-86c682f5c4bd",
            "nama_pse": "MASSIVE INOVASI TEKNOKREASI",
            "nama_se": "COMPOSYN",
            "sektor": "Sektor Teknologi Informasi dan Komunikasi",
            "tanggal_terbit": "2025-03-06",
            "url_tdpse_detail": "https://pse.komdigi.go.id/tdpse-detail/22648",
            "website": "mmint.id"
        },
        {
            "id": "9e5da42d-97a1-465d-9d36-e61d70264db7",
            "nama_pse": "FLASH PAY INDONESIA",
            "nama_se": "https://www.flashpay.co.id",
            "sektor": "Sektor Keuangan",
            "tanggal_terbit": "2025-03-06",
            "url_tdpse_detail": "https://pse.komdigi.go.id/tdpse-detail/22649",
            "website": "flashpay.co.id"
        },
        {
            "id": "9e5da47a-382d-4be6-b997-0a4f6fc9e557",
            "nama_pse": "PRUDENTIAL LIFE ASSURANCE",
            "nama_se": "PRUSERVICES",
            "sektor": "Sektor Keuangan",
            "tanggal_terbit": "2025-03-06",
            "url_tdpse_detail": "https://pse.komdigi.go.id/tdpse-detail/22650",
            "website": "pruservices.prudential.co.id"
        },
        {
            "id": "9e5da4b8-dbd4-4f1a-8812-78d8caf5f051",
            "nama_pse": "Moladin Finance Indonesia",
            "nama_se": "MOFI DEALER APP",
            "sektor": "Sektor Keuangan",
            "tanggal_terbit": "2025-03-06",
            "url_tdpse_detail": "https://pse.komdigi.go.id/tdpse-detail/22651",
            "website": "mofi.id"
        },
        {
            "id": "9e5da80b-4467-47bb-b059-f48ced2b2525",
            "nama_pse": "EASY MANAGEMENT SYSTEMS",
            "nama_se": "KREDIMALL",
            "sektor": "Sektor Perdagangan",
            "tanggal_terbit": "2025-03-06",
            "url_tdpse_detail": "https://pse.komdigi.go.id/tdpse-detail/22652",
            "website": "kredimall.com"
        },
        {
            "id": "9e5db7bc-f93f-4281-87ed-21491e9d789a",
            "nama_pse": "LING LING MANAGEMENT",
            "nama_se": "HOKILIVE",
            "sektor": "Sektor Teknologi Informasi dan Komunikasi",
            "tanggal_terbit": "2025-03-06",
            "url_tdpse_detail": "https://pse.komdigi.go.id/tdpse-detail/22653",
            "website": "hokilive.live"
        },
        {
            "id": "9e5dc2a8-bf35-4592-b269-41795b06d0a0",
            "nama_pse": "BERLIAN CAHAYA TEKNOLOGI",
            "nama_se": "PT BERLIAN CAHAYA TEKNOLOGI",
            "sektor": "Sektor Perdagangan",
            "tanggal_terbit": "2025-03-06",
            "url_tdpse_detail": "https://pse.komdigi.go.id/tdpse-detail/22654",
            "website": "pt-bct.com"
        },
        {
            "id": "9e5e1e14-169b-4b52-9b50-628b80915c5c",
            "nama_pse": "SINERGI NUSANTARA KREATIF",
            "nama_se": "YAYASAN SINERGI NUSANTARA KREATIF",
            "sektor": "Sektor Perdagangan, Sektor Transportasi, Sektor Teknologi Informasi dan Komunikasi, Sektor Pangan",
            "tanggal_terbit": "2025-03-06",
            "url_tdpse_detail": "https://pse.komdigi.go.id/tdpse-detail/22655",
            "website": "sinerginusantarakreatif.org"
        },
        {
            "id": "9e5b55f2-0405-4876-94e1-717b7bc1fcc0",
            "nama_pse": "DIGITAS SOLUSI INDONESIA",
            "nama_se": "DIGITAS",
            "sektor": "Sektor Teknologi Informasi dan Komunikasi",
            "tanggal_terbit": "2025-03-05",
            "url_tdpse_detail": "https://pse.komdigi.go.id/tdpse-detail/22621",
            "website": "digitasolusindo.com"
        }
    ],
    "processingTimeMs": 1,
    "query": "",
    "totalHits": 19131,
    "hitsPerPage": 50,
    "page": 2,
    "totalPages": 383
}