{
    "hits": [
        {
            "id": "9cb1abe9-00d4-4856-907e-8411b82e7153",
            "nama_pse": "CHOIRI ARDI NUR ROHMAD",
            "nama_se": "JADIG - JAJAN DIGITAL",
            "sektor": "Sektor Teknologi Informasi dan Komunikasi",
            "tanggal_terbit": "2022-07-20",
            "url_tdpse_detail": "https://pse.komdigi.go.id/tdpse-detail/7332",
            "website": "jadigjajandigital.webtoko.net"
        },
        {
            "id": "9cb1abe9-03ed-483d-842f-8b66854ad205",
            "nama_pse": "BANK PEREKONOMIAN RAKYAT NUSANTARA BONA PASOGIT DUA PULUH TUJUH",
            "nama_se": "WEBSITE",
            "sektor": "Sektor Keuangan",
            "tanggal_terbit": "2022-07-20",
            "url_tdpse_detail": "https://pse.komdigi.go.id/tdpse-detail/7333",
            "website": "bprnbp27.com"
        },
        {
            "id": "9cb1abb7-aeb5-424c-ac34-52acacde9954",
            "nama_pse": "BURSA EFEK INDONESIA",
            "nama_se": "IDX RECORD",
            "sektor": "Sektor Keuangan",
            "tanggal_terbit": "2022-07-20",
            "url_tdpse_detail": "https://pse.komdigi.go.id/tdpse-detail/7335",
            "website": "idxrecord.idx.co.id"
        },
        {
            "id": "9cb1abb7-b0d9-474c-832e-b01dd08f1b6a",
            "nama_pse": "HANWHA LIFE INSURANCE INDONESIA",
            "nama_se": "SALES ILUSTRATION SYSTEM",
            "sektor": "Sektor Keuangan",
            "tanggal_terbit": "2022-07-20",
            "url_tdpse_detail": "https://pse.komdigi.go.id/tdpse-detail/7336",
            "website": "sis.hanwhalife.co.id"
        },
        {
            "id": "9cb1abc3-25c4-4689-a6bd-dc2126e1dbd9",
            "nama_pse": "BANK PEMBIAYAAN RAKYAT SYARIAH TAMAN INDAH DARUSSALAM",
            "nama_se": "ISLAMIC BANKING APLICATION",
            "sektor": "Sektor Keuangan",
            "tanggal_terbit": "2022-07-20",
            "url_tdpse_detail": "https://pse.komdigi.go.id/tdpse-detail/7337",
            "website": "bprstamanindah.co.id"
        },
        {
            "id": "9cb1abe9-06ab-4fbf-b916-9358d5a1caa7",
            "nama_pse": "ANGKASA PRIMA SOLUSI",
            "nama_se": "APS",
            "sektor": "Sektor Transportasi, Sektor Teknologi Informasi dan Komunikasi",
            "tanggal_terbit": "2022-07-20",
            "url_tdpse_detail": "https://pse.komdigi.go.id/tdpse-detail/7534",
            "website": "apsolusi.com"
        },
        {
            "id": "9cb1abc3-297a-400a-8806-ef480a88e842",
            "nama_pse": "BANK PERKREDITAN RAKYAT NUSANTARA BONA PASOGIT 32",
            "nama_se": "PT BPR NUSANTARA BONA PASOGIT 32",
            "sektor": "Sektor Keuangan",
            "tanggal_terbit": "2022-07-20",
            "url_tdpse_detail": "https://pse.komdigi.go.id/tdpse-detail/7382",
            "website": "bprnbp32.com"
        },
        {
            "id": "9cb1abb7-b50e-40e6-a275-518facca0150",
            "nama_pse": "BANK PERKREDITAN RAKYAT GURU JATENG",
            "nama_se": "BANK GURU JATENG",
            "sektor": "Sektor Keuangan",
            "tanggal_terbit": "2022-07-20",
            "url_tdpse_detail": "https://pse.komdigi.go.id/tdpse-detail/7338",
            "website": "-"
        },
        {
            "id": "9cb1abc3-2c02-4ed0-b68e-ac8ac59a2aa9",
            "nama_pse": "BANK PEMBANGUNAN DAERAH KALIMANTAN TENGAH",
            "nama_se": "APLIKASI PAJAK DAERAH ONLINE",
            "sektor": "Sektor Keuangan",
            "tanggal_terbit": "2022-07-20",
            "url_tdpse_detail": "https://pse.komdigi.go.id/tdpse-detail/7339",
            "website": "-"
        },
        {
            "id": "9cb1abc3-2ecd-4601-95da-3b57b677dd6b",
            "nama_pse": "ADE NOVIT ROMADLON",
            "nama_se": "KONTERGO",
            "sektor": "Sektor Perdagangan",
            "tanggal_terbit": "2022-07-20",
            "url_tdpse_detail": "https://pse.komdigi.go.id/tdpse-detail/7341",
            "website": "kontergo.com"
        },
        {
            "id": "9cb1abc3-30dd-4061-bb6b-8417a697dd99",
            "nama_pse": "BANK PEREKONOMIAN RAKYAT SARASWATI EKA BUMI",
            "nama_se": "WEBSITE BPR SARASWATI",
            "sektor": "Sektor Keuangan",
            "tanggal_terbit": "2022-07-20",
            "url_tdpse_detail": "https://pse.komdigi.go.id/tdpse-detail/7342",
            "website": "bprsaraswatiekabumi.co.id"
        },
        {
            "id": "9cb1abe9-099a-4221-a7a8-f31b15e8ad04",
            "nama_pse": "BANK PEREKONOMIAN RAKYAT KARYAJATNIKA SADAYA",
            "nama_se": "SURVEYOR BPRKS",
            "sektor": "Sektor Keuangan",
            "tanggal_terbit": "2022-07-20",
            "url_tdpse_detail": "https://pse.komdigi.go.id/tdpse-detail/7343",
            "website": "-"
        },
        {
            "id": "9cb1abe9-0cb6-433a-87fe-debe7f47f665",
            "nama_pse": "TOPINDO LUCKY SPORTS",
            "nama_se": "TOPGOLF.CO.ID",
            "sektor": "Sektor Perdagangan",
            "tanggal_terbit": "2022-07-20",
            "url_tdpse_detail": "https://pse.komdigi.go.id/tdpse-detail/7384",
            "website": "topgolf.co.id"
        },
        {
            "id": "9cb1abc3-33f9-4646-8a45-d78522bb60e1",
            "nama_pse": "SPARKOO TECHNOLOGIES INDONESIA",
            "nama_se": "HUAWEI CLOUD",
            "sektor": "Sektor Perdagangan, Sektor Teknologi Informasi dan Komunikasi",
            "tanggal_terbit": "2022-07-20",
            "url_tdpse_detail": "https://pse.komdigi.go.id/tdpse-detail/7349",
            "website": "Huaweicloud.com"
        },
        {
            "id": "9cb1abb7-b7a5-48e1-975e-8aeb6c03c508",
            "nama_pse": "PT. BPR DANA SELARAS SENTOSA",
            "nama_se": "BPR DARSA",
            "sektor": "Sektor Keuangan",
            "tanggal_terbit": "2022-07-20",
            "url_tdpse_detail": "https://pse.komdigi.go.id/tdpse-detail/7361",
            "website": "bprdarsa.co.id"
        },
        {
            "id": "9cb1abb7-b9a8-4204-9c90-f4bfa61e42f1",
            "nama_pse": "BANK PEREKONOMIAN RAKYAT KEMBANG PARAMA",
            "nama_se": "WEBSITE BPR KEMBANG PARAMA",
            "sektor": "Sektor Keuangan, Sektor Teknologi Informasi dan Komunikasi",
            "tanggal_terbit": "2022-07-20",
            "url_tdpse_detail": "https://pse.komdigi.go.id/tdpse-detail/7346",
            "website": "kembangparama.com"
        },
        {
            "id": "9cb1abb7-bb8e-4879-a709-022f80e4849e",
            "nama_pse": "BANK PERKREDITAN RAKYAT KRANJI KRIDA SEJAHTERA",
            "nama_se": "BPR KKS WEB BASE",
            "sektor": "Sektor Keuangan",
            "tanggal_terbit": "2022-07-20",
            "url_tdpse_detail": "https://pse.komdigi.go.id/tdpse-detail/7344",
            "website": "-"
        },
        {
            "id": "9cb1abe9-0fb7-46f9-b5b6-8042191e7172",
            "nama_pse": "DIANTARA INTER MEDIA",
            "nama_se": "DIANTARA INTER MEDIA",
            "sektor": "Sektor Teknologi Informasi dan Komunikasi",
            "tanggal_terbit": "2022-07-20",
            "url_tdpse_detail": "https://pse.komdigi.go.id/tdpse-detail/7347",
            "website": "diantara.co.id"
        },
        {
            "id": "9cb1abb7-bd9d-4a8c-9324-199d800574af",
            "nama_pse": "BANK PEREKONOMIAN RAKYAT ARTHA NUSANTARA ABADI",
            "nama_se": "IG BPR ANA",
            "sektor": "Sektor Keuangan",
            "tanggal_terbit": "2022-07-20",
            "url_tdpse_detail": "https://pse.komdigi.go.id/tdpse-detail/7345",
            "website": "-"
        },
        {
            "id": "9cb1abe9-1748-4374-801f-cc8a2f85e85a",
            "nama_pse": "BELAJAR ONLINE SELAMANYA",
            "nama_se": "LARUNO",
            "sektor": "Sektor Perdagangan",
            "tanggal_terbit": "2022-07-20",
            "url_tdpse_detail": "https://pse.komdigi.go.id/tdpse-detail/7348",
            "website": "laruno.id"
        },
        {
            "id": "9cb1abc3-36b4-4389-8fd1-707ec081f977",
            "nama_pse": "BANK PEREKONOMIAN RAKYAT RAP GANDA",
            "nama_se": "PT. BPR RAP GANDA",
            "sektor": "Sektor Keuangan",
            "tanggal_terbit": "2022-07-20",
            "url_tdpse_detail": "https://pse.komdigi.go.id/tdpse-detail/7354",
            "website": "bankrapganda.com"
        },
        {
            "id": "9cb1abe9-1f3d-4a8f-a76e-c4ee3461e0d5",
            "nama_pse": "BANK PERKREDITAN RAKYAT DUTA ADIARTA",
            "nama_se": "WEBSITE  BPR DUTA ADIARTA",
            "sektor": "Sektor Teknologi Informasi dan Komunikasi",
            "tanggal_terbit": "2022-07-20",
            "url_tdpse_detail": "https://pse.komdigi.go.id/tdpse-detail/7350",
            "website": "bprdutaadiarta.co.id"
        },
        {
            "id": "9cb1abb7-bf9d-416b-af48-3f86698e25ce",
            "nama_pse": "BANK PEREKONOMIAN RAKYAT KANCANA DEWATA MAHADHANA",
            "nama_se": "WWW.BPRKANCANA.COM",
            "sektor": "Sektor Keuangan",
            "tanggal_terbit": "2022-07-20",
            "url_tdpse_detail": "https://pse.komdigi.go.id/tdpse-detail/7355",
            "website": "bprkancana.com"
        },
        {
            "id": "9cb1abe9-265b-4747-ad56-f363a008babe",
            "nama_pse": "PAKAR LAYANAN TANPA BATAS",
            "nama_se": "CERDIKIAWAN",
            "sektor": "Sektor Teknologi Informasi dan Komunikasi",
            "tanggal_terbit": "2022-07-20",
            "url_tdpse_detail": "https://pse.komdigi.go.id/tdpse-detail/7352",
            "website": "cerdikiawan.com"
        },
        {
            "id": "9cb1abc3-3f49-4140-a833-7b3fc2f920bf",
            "nama_pse": "BANK PEMBANGUNAN DAERAH KALIMANTAN TENGAH",
            "nama_se": "SMS BANKING",
            "sektor": "Sektor Keuangan",
            "tanggal_terbit": "2022-07-20",
            "url_tdpse_detail": "https://pse.komdigi.go.id/tdpse-detail/7351",
            "website": "-"
        },
        {
            "id": "9cb1abe9-296b-4952-84a6-0a1debf85669",
            "nama_pse": "BANK PEREKONOMIAN RAKYAT LESTARI BALI",
            "nama_se": "LAKU PANDAI (AGENT)",
            "sektor": "Sektor Keuangan",
            "tanggal_terbit": "2022-07-20",
            "url_tdpse_detail": "https://pse.komdigi.go.id/tdpse-detail/7353",
            "website": "lakupandai-agent.bprlestari.com"
        },
        {
            "id": "9cb1abe9-2e98-4925-ba40-89d2ebdc3aa6",
            "nama_pse": "ANANTARUPA YAESA SUPTESU JAGARTI",
            "nama_se": "LOKAPALA",
            "sektor": "Sektor Teknologi Informasi dan Komunikasi",
            "tanggal_terbit": "2022-07-20",
            "url_tdpse_detail": "https://pse.komdigi.go.id/tdpse-detail/7525",
            "website": "lokapala.melon.id"
        },
        {
            "id": "9cb1abb7-c1a8-4381-80ca-e44a90d290ff",
            "nama_pse": "SARANA SULUT VENTURA",
            "nama_se": "INFORMASI, PUBLIKASI DAN KOMUNIKASI PT. SARANA SULUT VENTURA",
            "sektor": "Sektor Keuangan",
            "tanggal_terbit": "2022-07-20",
            "url_tdpse_detail": "https://pse.komdigi.go.id/tdpse-detail/7356",
            "website": "-"
        },
        {
            "id": "9cb1abe9-33e2-4f83-ba41-3d2bc92cf7d6",
            "nama_pse": "BANK PERKREDITAN RAKYAT BADAN KREDIT KECAMATAN KEBUMEN (PERSERODA)",
            "nama_se": "BPRBKKKEBUMEN.CO.ID",
            "sektor": "Sektor Keuangan",
            "tanggal_terbit": "2022-07-20",
            "url_tdpse_detail": "https://pse.komdigi.go.id/tdpse-detail/7359",
            "website": "bprbkkkebumen.co.id"
        },
        {
            "id": "9cb1abc3-4323-4cd9-94ef-22b1ab524a55",
            "nama_pse": "BANK PERKREDITAN RAKYAT SINAR MITRA SEJAHTERA",
            "nama_se": "WEBSITE PT BPR SINAR MITRA SEJAHTERA",
            "sektor": "Sektor Keuangan",
            "tanggal_terbit": "2022-07-20",
            "url_tdpse_detail": "https://pse.komdigi.go.id/tdpse-detail/7357",
            "website": "bprsms.co.id"
        },
        {
            "id": "9cb1abe9-3967-42b9-a34d-c291fbb5bb35",
            "nama_pse": "ANGKASA PRIMA SOLUSI",
            "nama_se": "APS PREMIUM VALET",
            "sektor": "Sektor Teknologi Informasi dan Komunikasi",
            "tanggal_terbit": "2022-07-20",
            "url_tdpse_detail": "https://pse.komdigi.go.id/tdpse-detail/7498",
            "website": "apsolusi.com"
        },
        {
            "id": "9cb1abb7-c4fa-49fc-97c6-8158a5d8ffa6",
            "nama_pse": "BANK PERKREDITAN RAKYAT TAPIN SELATAN",
            "nama_se": "BANK TAPIN",
            "sektor": "Sektor Perdagangan",
            "tanggal_terbit": "2022-07-20",
            "url_tdpse_detail": "https://pse.komdigi.go.id/tdpse-detail/7358",
            "website": "banktapin.co.id"
        },
        {
            "id": "9cb1abc3-468a-419a-b191-c98be6845dfc",
            "nama_pse": "MERCATO DIGITAL ASIA",
            "nama_se": "TANAMDUIT",
            "sektor": "Sektor Perdagangan, Sektor Keuangan",
            "tanggal_terbit": "2022-07-20",
            "url_tdpse_detail": "https://pse.komdigi.go.id/tdpse-detail/7362",
            "website": "tanamduit.com"
        },
        {
            "id": "9cb1abb7-c71e-4da6-8516-9b34a26743a2",
            "nama_pse": "SALAM PACIFIC INDONESIA LINES",
            "nama_se": "MYSPIL",
            "sektor": "Sektor Transportasi",
            "tanggal_terbit": "2022-07-20",
            "url_tdpse_detail": "https://pse.komdigi.go.id/tdpse-detail/7364",
            "website": "myspil.com"
        },
        {
            "id": "9cb1abc3-4944-4b63-b889-86e7aae29282",
            "nama_pse": "BANK PEREKONOMIAN RAKYAT NAGA",
            "nama_se": "WEBMAIL PT. BPR NAGA",
            "sektor": "Sektor Keuangan",
            "tanggal_terbit": "2022-07-20",
            "url_tdpse_detail": "https://pse.komdigi.go.id/tdpse-detail/7360",
            "website": "bprnaga.co.id"
        },
        {
            "id": "9cb1abe9-3cca-4114-84d3-ecbe7298a617",
            "nama_pse": "BANK PEMBANGUNAN DAERAH KALIMANTAN TENGAH",
            "nama_se": "VIRTUAL ACCOUNT",
            "sektor": "Sektor Keuangan",
            "tanggal_terbit": "2022-07-20",
            "url_tdpse_detail": "https://pse.komdigi.go.id/tdpse-detail/7708",
            "website": "-"
        },
        {
            "id": "9cb1abc3-4b6f-42bd-a7f2-5f4d03b5ce16",
            "nama_pse": "BANK PERKREDITAN RAKYAT PUSPA KENCANA",
            "nama_se": "PT BPR PUSPA KENCANA",
            "sektor": "Sektor Keuangan",
            "tanggal_terbit": "2022-07-20",
            "url_tdpse_detail": "https://pse.komdigi.go.id/tdpse-detail/7363",
            "website": "-"
        },
        {
            "id": "9cb1abe9-a303-4e73-9305-722d9668a9c1",
            "nama_pse": "BANK PEREKONOMIAN RAKYAT SADHU ARTHA",
            "nama_se": "WWW.BPRSADHUARTHA.COM",
            "sektor": "Sektor Teknologi Informasi dan Komunikasi",
            "tanggal_terbit": "2022-07-20",
            "url_tdpse_detail": "https://pse.komdigi.go.id/tdpse-detail/7425",
            "website": "hostinger.com"
        },
        {
            "id": "9cb1abc3-4e01-4a28-8559-f8aa2b7e8dca",
            "nama_pse": "BURSA EFEK INDONESIA",
            "nama_se": "APLIKASI E-RKAT",
            "sektor": "Sektor Keuangan",
            "tanggal_terbit": "2022-07-20",
            "url_tdpse_detail": "https://pse.komdigi.go.id/tdpse-detail/7367",
            "website": "erkatpm.co.id"
        },
        {
            "id": "9cb1abe9-4ef3-4555-9083-21db0e31d5b2",
            "nama_pse": "BANK PEREKONOMIAN RAKYAT LESTARI BALI",
            "nama_se": "LAKU PANDAI (NASABAH)",
            "sektor": "Sektor Keuangan",
            "tanggal_terbit": "2022-07-20",
            "url_tdpse_detail": "https://pse.komdigi.go.id/tdpse-detail/7372",
            "website": "lakupandai.bprlestari.com"
        },
        {
            "id": "9cb1abc3-5b6c-4b7b-a5ab-0e0a1af881b4",
            "nama_pse": "HANWHA LIFE INSURANCE INDONESIA",
            "nama_se": "CORPORATE WEB PT HANWHA LIFE INSURANCE INDONESIA",
            "sektor": "Sektor Keuangan",
            "tanggal_terbit": "2022-07-20",
            "url_tdpse_detail": "https://pse.komdigi.go.id/tdpse-detail/7373",
            "website": "hanwhalife.co.id"
        },
        {
            "id": "9cb1abc3-5e4a-401d-95ac-399280a2d8d3",
            "nama_pse": "BPR BAHTERAMAS KOLAKA UTARA",
            "nama_se": "PD. BPR BAHTERAMAS KOLAKA UTARA",
            "sektor": "Sektor Keuangan",
            "tanggal_terbit": "2022-07-20",
            "url_tdpse_detail": "https://pse.komdigi.go.id/tdpse-detail/7375",
            "website": "-"
        },
        {
            "id": "9cb1abc3-60db-4e5d-8fe1-d36dde59e525",
            "nama_pse": "BANK PERKREDITAN RAKYAT ARTA MAS SURAKARTA",
            "nama_se": "WEBSITE PT BANK PERKREDITAN RAKYAT ARTA MAS SURAKARTA",
            "sektor": "Sektor Keuangan",
            "tanggal_terbit": "2022-07-20",
            "url_tdpse_detail": "https://pse.komdigi.go.id/tdpse-detail/7368",
            "website": "artamassurakarta.com"
        },
        {
            "id": "9cb1abe9-52a3-4a49-9a6c-f41aa13e1846",
            "nama_pse": "BANK PEREKONOMIAN RAKYAT MITRA PRIMALESTARI",
            "nama_se": "WEBSITE PT BPR MITRA PRIMALESTARI",
            "sektor": "Sektor Keuangan",
            "tanggal_terbit": "2022-07-20",
            "url_tdpse_detail": "https://pse.komdigi.go.id/tdpse-detail/7374",
            "website": "-"
        },
        {
            "id": "9cb1abb7-c916-4a00-a7e7-4e77fd58c3d1",
            "nama_pse": "BANK PERKREDITAN RAKYAT NUSANTARA BONA PASOGIT 28",
            "nama_se": "PTBPRNBP28.CO.ID",
            "sektor": "Sektor Keuangan",
            "tanggal_terbit": "2022-07-20",
            "url_tdpse_detail": "https://pse.komdigi.go.id/tdpse-detail/7370",
            "website": "ptbprnbp28.co.id"
        },
        {
            "id": "9cb1abe9-564c-4b3a-aa92-26807ea9b2e2",
            "nama_pse": "BANK PERKREDITAN RAKYAT BANK PURWA ARTHA PERSERODA",
            "nama_se": "BANK PURWA ARTHA",
            "sektor": "Sektor Keuangan",
            "tanggal_terbit": "2022-07-20",
            "url_tdpse_detail": "https://pse.komdigi.go.id/tdpse-detail/7369",
            "website": "purwaartha.id"
        },
        {
            "id": "9cb1abb7-cb32-438d-839c-d279fb847f8d",
            "nama_pse": "AKU CINTA INDONESIA RAYA",
            "nama_se": "VIUIT BISNIS",
            "sektor": "Sektor Perdagangan",
            "tanggal_terbit": "2022-07-20",
            "url_tdpse_detail": "https://pse.komdigi.go.id/tdpse-detail/7371",
            "website": "viuit.id"
        },
        {
            "id": "9cb1abb7-cd05-4837-a02c-d2d591842e49",
            "nama_pse": "NUR FAHMI",
            "nama_se": "DIPO - AGEN PULSA NASIONAL",
            "sektor": "Sektor Perdagangan",
            "tanggal_terbit": "2022-07-20",
            "url_tdpse_detail": "https://pse.komdigi.go.id/tdpse-detail/7376",
            "website": "-"
        },
        {
            "id": "9cb1abe9-593f-407f-b3d3-c29e5a14e8b0",
            "nama_pse": "NUTECH INTEGRASI",
            "nama_se": "SOLUSI SISTEM NUTECH INTEGASI",
            "sektor": "Sektor Teknologi Informasi dan Komunikasi",
            "tanggal_terbit": "2022-07-20",
            "url_tdpse_detail": "https://pse.komdigi.go.id/tdpse-detail/7381",
            "website": "nutech-integrasi.com"
        },
        {
            "id": "9cb1abc3-63d5-4df3-b410-8522a18b042c",
            "nama_pse": "BANK PERKREDITAN RAKYAT KUSUMA MANDALA",
            "nama_se": "BANKING SMART SYSTEM",
            "sektor": "Sektor Keuangan",
            "tanggal_terbit": "2022-07-20",
            "url_tdpse_detail": "https://pse.komdigi.go.id/tdpse-detail/7378",
            "website": "bprkusumamandala.com"
        }
    ],
    "processingTimeMs": 5,
    "query": "",
    "totalHits": 19131,
    "hitsPerPage": 50,
    "page": 234,
    "totalPages": 383
}