{
    "hits": [
        {
            "id": "9cb1ab80-ba7f-4453-9bfd-75d8a3c4a5d7",
            "nama_pse": "MIKASUGI",
            "nama_se": "AKTIVITAS PEMROGRAMAN KOMPUTER LAINNYA",
            "sektor": "Sektor Perdagangan, Sektor Perdagangan",
            "tanggal_terbit": "2021-12-08",
            "url_tdpse_detail": "https://pse.komdigi.go.id/tdpse-detail/2665",
            "website": "-"
        },
        {
            "id": "9cb1ab78-ee34-4716-9286-2f9901c310f5",
            "nama_pse": "MIDAZPAY DIGITAL INDONESIA",
            "nama_se": "MIDAZPAY",
            "sektor": "Sektor Keuangan, Sektor Keuangan, Sektor Teknologi Informasi dan Komunikasi, Sektor Teknologi Informasi dan Komunikasi",
            "tanggal_terbit": "2021-12-08",
            "url_tdpse_detail": "https://pse.komdigi.go.id/tdpse-detail/2657",
            "website": "midazpay.id"
        },
        {
            "id": "9cb1ab83-a9f6-48e8-9c95-5a1a0df78d92",
            "nama_pse": "SARANA PACTINDO",
            "nama_se": "PAC CASH",
            "sektor": "Sektor Teknologi Informasi dan Komunikasi, Sektor Teknologi Informasi dan Komunikasi",
            "tanggal_terbit": "2021-12-08",
            "url_tdpse_detail": "https://pse.komdigi.go.id/tdpse-detail/2673",
            "website": "pactindo.com"
        },
        {
            "id": "9cb1ab88-accd-4854-814f-7a645a94c82d",
            "nama_pse": "ARTHA INVESTA TEKNOLOGI",
            "nama_se": "WEBSITE PT ARTHA INVESTA TEKNOLOGI (INVEST.CERMATI.COM)",
            "sektor": "Sektor Keuangan, Sektor Keuangan",
            "tanggal_terbit": "2021-12-08",
            "url_tdpse_detail": "https://pse.komdigi.go.id/tdpse-detail/2677",
            "website": "invest.cermati.com"
        },
        {
            "id": "9cb1ab6a-12bb-43ff-a6c6-8348606233ee",
            "nama_pse": "SRC INDONESIA SEMBILAN",
            "nama_se": "AYO MITRA BY SRC",
            "sektor": "Sektor Perdagangan, Sektor Perdagangan, Sektor Perdagangan",
            "tanggal_terbit": "2021-12-07",
            "url_tdpse_detail": "https://pse.komdigi.go.id/tdpse-detail/2655",
            "website": "-"
        },
        {
            "id": "9cb1ab70-3f25-4f44-91f9-f88b3a89d441",
            "nama_pse": "BUMI SANTOSA CEMERLANG",
            "nama_se": "BSC CRYPTO",
            "sektor": "Sektor Perdagangan, Sektor Perdagangan, Sektor Perdagangan",
            "tanggal_terbit": "2021-12-07",
            "url_tdpse_detail": "https://pse.komdigi.go.id/tdpse-detail/2645",
            "website": "bumisantosacemerlang.com"
        },
        {
            "id": "9cb1ab76-f4f7-4357-91f9-2a7afa67aa91",
            "nama_pse": "METAVERSE INDO JAYA",
            "nama_se": "PT. METAVERSE INDO JAYA",
            "sektor": "Sektor Perdagangan, Sektor Perdagangan, Sektor Teknologi Informasi dan Komunikasi, Sektor Teknologi Informasi dan Komunikasi",
            "tanggal_terbit": "2021-12-07",
            "url_tdpse_detail": "https://pse.komdigi.go.id/tdpse-detail/2643",
            "website": "cindrum.com"
        },
        {
            "id": "9cb1ab7f-dcf1-49e9-a1ed-041f07cd02d9",
            "nama_pse": "TELEAKSES SOLUSINDO",
            "nama_se": "CONTACT CENTER MANAGEMENT SYSTEM",
            "sektor": "Sektor Teknologi Informasi dan Komunikasi, Sektor Teknologi Informasi dan Komunikasi",
            "tanggal_terbit": "2021-12-07",
            "url_tdpse_detail": "https://pse.komdigi.go.id/tdpse-detail/2654",
            "website": "tel-access.biz"
        },
        {
            "id": "9cb1ab78-1ce9-4037-a1b0-3659db26fcad",
            "nama_pse": "HANATEKINDO MULIA ABADI",
            "nama_se": "TOKOEXPRESS.COM",
            "sektor": "Sektor Perdagangan, Sektor Perdagangan, Sektor Keuangan, Sektor Keuangan, Sektor Kesehatan, Sektor Kesehatan, Sektor Teknologi Informasi dan Komunikasi, Sektor Teknologi Informasi dan Komunikasi",
            "tanggal_terbit": "2021-12-07",
            "url_tdpse_detail": "https://pse.komdigi.go.id/tdpse-detail/2649",
            "website": "hanatekindo.co.id"
        },
        {
            "id": "9cb1ab80-7a47-447d-b371-404d3b6a60b0",
            "nama_pse": "DANA KINI INDONESIA",
            "nama_se": "WEBSITE ADMINISTRASI / BACKEND PLATFORM P2P LENDING DANAKINI",
            "sektor": "Sektor Keuangan, Sektor Keuangan",
            "tanggal_terbit": "2021-12-07",
            "url_tdpse_detail": "https://pse.komdigi.go.id/tdpse-detail/2650",
            "website": "ops.danakini.co.id"
        },
        {
            "id": "9cb1ab80-7fa8-4ac7-8496-49e49c409ec8",
            "nama_pse": "DANA KINI INDONESIA",
            "nama_se": "PLATFORM MOBILE APPS ISO P2P LENDING DANAKINI",
            "sektor": "Sektor Keuangan, Sektor Keuangan",
            "tanggal_terbit": "2021-12-07",
            "url_tdpse_detail": "https://pse.komdigi.go.id/tdpse-detail/2651",
            "website": "-"
        },
        {
            "id": "9cb1ab78-c460-454b-a865-8eea2f75b66a",
            "nama_pse": "DANA KINI INDONESIA",
            "nama_se": "PLATFORM MOBILLEAPPS ANDROID P2P LENDING DANAKINI",
            "sektor": "Sektor Keuangan, Sektor Keuangan",
            "tanggal_terbit": "2021-12-07",
            "url_tdpse_detail": "https://pse.komdigi.go.id/tdpse-detail/2652",
            "website": "-"
        },
        {
            "id": "9cb1ab80-8c0f-42f4-955a-4344628bcec7",
            "nama_pse": "BORONG TEKNOLOGI INDONESIA",
            "nama_se": "BORONG",
            "sektor": "Sektor Perdagangan, Sektor Perdagangan, Sektor Teknologi Informasi dan Komunikasi, Sektor Teknologi Informasi dan Komunikasi",
            "tanggal_terbit": "2021-12-07",
            "url_tdpse_detail": "https://pse.komdigi.go.id/tdpse-detail/2644",
            "website": "borong.co.id"
        },
        {
            "id": "9cb1ab88-b031-40b7-b08e-c1282819a9c1",
            "nama_pse": "TOKO RUMAHAN INDONESIA",
            "nama_se": "TOKORUMAHAN",
            "sektor": "Sektor Perdagangan, Sektor Perdagangan, Sektor Teknologi Informasi dan Komunikasi, Sektor Teknologi Informasi dan Komunikasi",
            "tanggal_terbit": "2021-12-07",
            "url_tdpse_detail": "https://pse.komdigi.go.id/tdpse-detail/2656",
            "website": "tokorumahan.com"
        },
        {
            "id": "9cb1ab80-ab11-4cb2-b5dc-59b2c8b86b21",
            "nama_pse": "SIPLAH NET INDONESIA",
            "nama_se": "SIPLAH NET INDONESIA",
            "sektor": "Sektor Perdagangan",
            "tanggal_terbit": "2021-12-07",
            "url_tdpse_detail": "https://pse.komdigi.go.id/tdpse-detail/2636",
            "website": "siplah.net"
        },
        {
            "id": "9cb1ab88-b36d-4fa4-baaf-41f700ccac88",
            "nama_pse": "KRESNA PANDU PRATAMA",
            "nama_se": "SELLULOSA.ID",
            "sektor": "Sektor Teknologi Informasi dan Komunikasi, Sektor Teknologi Informasi dan Komunikasi",
            "tanggal_terbit": "2021-12-07",
            "url_tdpse_detail": "https://pse.komdigi.go.id/tdpse-detail/2637",
            "website": "sellulosa.id"
        },
        {
            "id": "9cb1ab88-b6cc-4ce6-821f-6315a629cff1",
            "nama_pse": "PEOPLE INTELLIGENCE INDONESIA",
            "nama_se": "GREATDAY HR",
            "sektor": "Sektor Teknologi Informasi dan Komunikasi, Sektor Teknologi Informasi dan Komunikasi",
            "tanggal_terbit": "2021-12-07",
            "url_tdpse_detail": "https://pse.komdigi.go.id/tdpse-detail/2638",
            "website": "greatdayhr.com"
        },
        {
            "id": "9cb1ab80-ae41-459d-bc99-0ba35cdb3a6c",
            "nama_pse": "PEOPLE INTELLIGENCE INDONESIA",
            "nama_se": "BENEFITS BY GREATDAY HR",
            "sektor": "Sektor Teknologi Informasi dan Komunikasi, Sektor Teknologi Informasi dan Komunikasi",
            "tanggal_terbit": "2021-12-07",
            "url_tdpse_detail": "https://pse.komdigi.go.id/tdpse-detail/2640",
            "website": "benefitsapp.id"
        },
        {
            "id": "9cb1ab80-bd56-4e21-9f21-cb5f4907d61b",
            "nama_pse": "ZENITH TEKNOPROFIT INVESTAMA",
            "nama_se": "SOFTWARE / APLIKASI ELEKTRONIK BY ZTI",
            "sektor": "Sektor Perdagangan, Sektor Perdagangan, Sektor Teknologi Informasi dan Komunikasi, Sektor Teknologi Informasi dan Komunikasi",
            "tanggal_terbit": "2021-12-07",
            "url_tdpse_detail": "https://pse.komdigi.go.id/tdpse-detail/2642",
            "website": "-"
        },
        {
            "id": "9cb1ab85-0d4a-441b-9bcc-967f0fc1c67d",
            "nama_pse": "DWIDA JAYA TAMA",
            "nama_se": "JUALAN KITA .COM",
            "sektor": "Sektor Perdagangan, Sektor Perdagangan, Sektor Energi dan Sumber Daya Mineral, Sektor Energi dan Sumber Daya Mineral, Sektor Keuangan, Sektor Keuangan, Sektor Kesehatan, Sektor Kesehatan, Sektor Teknologi Informasi dan Komunikasi, Sektor Teknologi Informasi dan Komunikasi",
            "tanggal_terbit": "2021-12-07",
            "url_tdpse_detail": "https://pse.komdigi.go.id/tdpse-detail/2648",
            "website": "dwidajayatama.com"
        },
        {
            "id": "9cb1ab86-46a2-473a-a8c2-bed16ffa4056",
            "nama_pse": "ADASIA TECHNOLOGY INDONESIA",
            "nama_se": "ANYMIND GROUP",
            "sektor": "Sektor Teknologi Informasi dan Komunikasi, Sektor Teknologi Informasi dan Komunikasi",
            "tanggal_terbit": "2021-12-07",
            "url_tdpse_detail": "https://pse.komdigi.go.id/tdpse-detail/2653",
            "website": "anymindgroup.com"
        },
        {
            "id": "9cb1ab88-2903-478b-91c4-e584e9ea256b",
            "nama_pse": "SOLUSI ANAK SAKTI",
            "nama_se": "SOLUSI BANKING SAKTI (SBS)",
            "sektor": "Sektor Keuangan, Sektor Keuangan, Sektor Keuangan, Sektor Teknologi Informasi dan Komunikasi, Sektor Teknologi Informasi dan Komunikasi, Sektor Teknologi Informasi dan Komunikasi",
            "tanggal_terbit": "2021-12-06",
            "url_tdpse_detail": "https://pse.komdigi.go.id/tdpse-detail/2634",
            "website": "sbs-app.solusisakti.id"
        },
        {
            "id": "9cb1ab80-9e8c-4a43-a928-2b28f369949a",
            "nama_pse": "DINAMIKA TIGA PILAR",
            "nama_se": "AUTOPRO SYSTEM",
            "sektor": "Sektor Perdagangan, Sektor Perdagangan",
            "tanggal_terbit": "2021-12-06",
            "url_tdpse_detail": "https://pse.komdigi.go.id/tdpse-detail/2631",
            "website": "-"
        },
        {
            "id": "9cb1ab88-a301-43cd-9e17-15bf16b1a3eb",
            "nama_pse": "DINAMIKA TIGA PILAR",
            "nama_se": "WWW.OCYDIA.COM",
            "sektor": "Sektor Perdagangan, Sektor Perdagangan",
            "tanggal_terbit": "2021-12-06",
            "url_tdpse_detail": "https://pse.komdigi.go.id/tdpse-detail/2632",
            "website": "ocydia.com"
        },
        {
            "id": "9cb1ab80-a6c5-4568-a7ac-f76125563437",
            "nama_pse": "Abadi Jaya Selalu",
            "nama_se": "TOKO ONLINEKU",
            "sektor": "Sektor Perdagangan, Sektor Perdagangan",
            "tanggal_terbit": "2021-12-06",
            "url_tdpse_detail": "https://pse.komdigi.go.id/tdpse-detail/2627",
            "website": "abadijayaselalu.my.id"
        },
        {
            "id": "9cb1ab80-a906-4ae1-80aa-e75890e3ddfc",
            "nama_pse": "PELITA INOVASI INTERNUSA",
            "nama_se": "ENTERPRISE RESOURCES PLANNING PELITA",
            "sektor": "Sektor Perdagangan, Sektor Perdagangan, Sektor Teknologi Informasi dan Komunikasi, Sektor Teknologi Informasi dan Komunikasi",
            "tanggal_terbit": "2021-12-06",
            "url_tdpse_detail": "https://pse.komdigi.go.id/tdpse-detail/2628",
            "website": "pi2.co.id"
        },
        {
            "id": "9cb1ab78-d674-48a6-bc90-21ac240804be",
            "nama_pse": "VOILAMODA ARYA NAWASENA",
            "nama_se": "VOILA.ID",
            "sektor": "Sektor Perdagangan, Sektor Perdagangan",
            "tanggal_terbit": "2021-12-06",
            "url_tdpse_detail": "https://pse.komdigi.go.id/tdpse-detail/2635",
            "website": "voila.id"
        },
        {
            "id": "9cb1ab78-dac8-4a76-b32f-0dde9de60cdc",
            "nama_pse": "NANDUNG EKO PRASETYO",
            "nama_se": "VPNNEO",
            "sektor": "Sektor Teknologi Informasi dan Komunikasi, Sektor Teknologi Informasi dan Komunikasi",
            "tanggal_terbit": "2021-12-06",
            "url_tdpse_detail": "https://pse.komdigi.go.id/tdpse-detail/2633",
            "website": "vpnneo.id"
        },
        {
            "id": "9cb1ab95-66e2-4c66-9f35-81b8dfced57e",
            "nama_pse": "TELEKOMUNIKASI SELULAR",
            "nama_se": "TELKOMSEL FLEETSIGHT",
            "sektor": "Sektor Teknologi Informasi dan Komunikasi, Sektor Teknologi Informasi dan Komunikasi, Sektor Teknologi Informasi dan Komunikasi, Sektor Teknologi Informasi dan Komunikasi, Sektor Teknologi Informasi dan Komunikasi, Sektor Teknologi Informasi dan Komunikasi, Sektor Teknologi Informasi dan Komunikasi, Sektor Teknologi Informasi dan Komunikasi, Sektor Teknologi Informasi dan Komunikasi, Sektor Teknologi Informasi dan Komunikasi, Sektor Teknologi Informasi dan Komunikasi",
            "tanggal_terbit": "2021-12-06",
            "url_tdpse_detail": "https://pse.komdigi.go.id/tdpse-detail/2629",
            "website": "login.fleetsight.co.id"
        },
        {
            "id": "9cb1ab88-a64d-48d2-a96c-48873f5e64d7",
            "nama_pse": "ARIF BUDIMAN",
            "nama_se": "CHL LOGISTIK",
            "sektor": "Sektor Transportasi, Sektor Transportasi",
            "tanggal_terbit": "2021-12-05",
            "url_tdpse_detail": "https://pse.komdigi.go.id/tdpse-detail/2626",
            "website": "chllogistik.com"
        },
        {
            "id": "9cb1ab9e-3a14-45a2-bef0-cca803b766cb",
            "nama_pse": "SINAR DIGITAL TERDEPAN",
            "nama_se": "XENDIT",
            "sektor": "Sektor Keuangan, Sektor Keuangan",
            "tanggal_terbit": "2021-12-05",
            "url_tdpse_detail": "https://pse.komdigi.go.id/tdpse-detail/3163",
            "website": "xendit.co"
        },
        {
            "id": "9cb1ab78-d321-4091-854b-b71d9d22ba08",
            "nama_pse": "MEDIA SWARA PENDIDIKAN",
            "nama_se": "SWARAPENDIDIKAN.CO.ID",
            "sektor": "Sektor Teknologi Informasi dan Komunikasi, Sektor Teknologi Informasi dan Komunikasi",
            "tanggal_terbit": "2021-12-04",
            "url_tdpse_detail": "https://pse.komdigi.go.id/tdpse-detail/2620",
            "website": "swarapendidikan.co.id"
        },
        {
            "id": "9cb1ab88-9b40-4053-8ef9-a947c23847e0",
            "nama_pse": "LUSI SUSANTI",
            "nama_se": "HARTATI GROUP",
            "sektor": "Sektor Perdagangan, Sektor Perdagangan",
            "tanggal_terbit": "2021-12-04",
            "url_tdpse_detail": "https://pse.komdigi.go.id/tdpse-detail/2622",
            "website": "-"
        },
        {
            "id": "9cb1ab88-9fb2-41ac-bab2-810519405f50",
            "nama_pse": "ANDRI SIBARANI",
            "nama_se": "TIGALAP",
            "sektor": "Sektor Perdagangan, Sektor Perdagangan",
            "tanggal_terbit": "2021-12-04",
            "url_tdpse_detail": "https://pse.komdigi.go.id/tdpse-detail/2623",
            "website": "tokopedia.link/tigalap"
        },
        {
            "id": "9cb1ab7e-2e3c-40db-aedb-500ef834d8ad",
            "nama_pse": "DKSH INDONESIA",
            "nama_se": "DKSH DISCOVER",
            "sektor": "Sektor Perdagangan, Sektor Perdagangan",
            "tanggal_terbit": "2021-12-04",
            "url_tdpse_detail": "https://pse.komdigi.go.id/tdpse-detail/2621",
            "website": "dkshdiscover.com/pim/en/"
        },
        {
            "id": "9cb1ab8d-d4c2-40c2-8d2f-e2865e6be2d3",
            "nama_pse": "CEPI ALI ANWARI",
            "nama_se": "ANWARI MEDIA DIGITAL",
            "sektor": "Sektor Perdagangan, Sektor Perdagangan, Sektor Teknologi Informasi dan Komunikasi, Sektor Teknologi Informasi dan Komunikasi",
            "tanggal_terbit": "2021-12-04",
            "url_tdpse_detail": "https://pse.komdigi.go.id/tdpse-detail/2624",
            "website": "anwarimedia.com"
        },
        {
            "id": "9cb1ab80-6624-4820-a47f-ec7aeed363da",
            "nama_pse": "BANGUN DIGITAL NUSANTARA",
            "nama_se": "BDN",
            "sektor": "Sektor Perdagangan, Sektor Perdagangan",
            "tanggal_terbit": "2021-12-03",
            "url_tdpse_detail": "https://pse.komdigi.go.id/tdpse-detail/2619",
            "website": "sriwijaya.bdn.id"
        },
        {
            "id": "9cb1ab88-92fe-45cc-9e7a-d02911e952b9",
            "nama_pse": "CAHAYA RIZKI SAHABAT ANREG",
            "nama_se": "ANREG LEGALITAS",
            "sektor": "Sektor Perdagangan, Sektor Perdagangan, Sektor Teknologi Informasi dan Komunikasi, Sektor Teknologi Informasi dan Komunikasi",
            "tanggal_terbit": "2021-12-03",
            "url_tdpse_detail": "https://pse.komdigi.go.id/tdpse-detail/2618",
            "website": "anreg-legalitas.com"
        },
        {
            "id": "9cb1ab6a-6734-47c1-ace3-ff7f81256939",
            "nama_pse": "KOTA HADIAH INDONESIA",
            "nama_se": "REWARD CITY",
            "sektor": "Sektor Perdagangan, Sektor Perdagangan",
            "tanggal_terbit": "2021-12-02",
            "url_tdpse_detail": "https://pse.komdigi.go.id/tdpse-detail/2603",
            "website": "REWARDCITY.CO.ID"
        },
        {
            "id": "9cb1ab63-d4fc-4076-9e13-1d38633680bb",
            "nama_pse": "BANK CENTRAL ASIA",
            "nama_se": "KLIKBCA BISNIS INTEGRATED SOLUTION",
            "sektor": "Sektor Keuangan, Sektor Keuangan, Sektor Keuangan",
            "tanggal_terbit": "2021-12-02",
            "url_tdpse_detail": "https://pse.komdigi.go.id/tdpse-detail/2585",
            "website": "klikbca.com"
        },
        {
            "id": "9cb1ab6b-5eab-4cd5-a7f6-fb4c138d65c1",
            "nama_pse": "BANK CENTRAL ASIA",
            "nama_se": "EBRANCH",
            "sektor": "Sektor Keuangan, Sektor Keuangan, Sektor Keuangan",
            "tanggal_terbit": "2021-12-02",
            "url_tdpse_detail": "https://pse.komdigi.go.id/tdpse-detail/2612",
            "website": "-"
        },
        {
            "id": "9cb1ab6e-0f6c-4b0b-b398-1ec06cdf0514",
            "nama_pse": "KREATIVA MEDIKA SEJAHTERA",
            "nama_se": "KLIKDIALISIS",
            "sektor": "Sektor Teknologi Informasi dan Komunikasi, Sektor Teknologi Informasi dan Komunikasi",
            "tanggal_terbit": "2021-12-02",
            "url_tdpse_detail": "https://pse.komdigi.go.id/tdpse-detail/2595",
            "website": "klikdialisis.com"
        },
        {
            "id": "9cb1ab76-1793-4097-8f9d-a1d232088f21",
            "nama_pse": "NALANIRA NUSWANTARA MEDIKA",
            "nama_se": "HAMILKU.ID",
            "sektor": "Sektor Keuangan, Sektor Keuangan, Sektor Kesehatan, Sektor Kesehatan, Sektor Teknologi Informasi dan Komunikasi, Sektor Teknologi Informasi dan Komunikasi",
            "tanggal_terbit": "2021-12-02",
            "url_tdpse_detail": "https://pse.komdigi.go.id/tdpse-detail/2597",
            "website": "hamilku.id"
        },
        {
            "id": "9cb1ab77-51de-43ba-be9d-5458107e7b4b",
            "nama_pse": "MITRA ERA GLOBAL",
            "nama_se": "WWW.MALESER.COM",
            "sektor": "Sektor Perdagangan, Sektor Perdagangan",
            "tanggal_terbit": "2021-12-02",
            "url_tdpse_detail": "https://pse.komdigi.go.id/tdpse-detail/2586",
            "website": "maleser.com"
        },
        {
            "id": "9cb1ab77-3be2-48f8-ac70-3b6b934ec915",
            "nama_pse": "PANEN TATAGRIYA INDONESIA",
            "nama_se": "HTTPS://WWW.ILM.ID",
            "sektor": "Sektor Perdagangan, Sektor Perdagangan",
            "tanggal_terbit": "2021-12-02",
            "url_tdpse_detail": "https://pse.komdigi.go.id/tdpse-detail/2592",
            "website": "ilm.id"
        },
        {
            "id": "9cb1ab78-09aa-439c-a8bd-ea4ddf82d2d7",
            "nama_pse": "ASURANSI JASA INDONESIA",
            "nama_se": "APLIKASI SIAP",
            "sektor": "Sektor Keuangan, Sektor Keuangan",
            "tanggal_terbit": "2021-12-02",
            "url_tdpse_detail": "https://pse.komdigi.go.id/tdpse-detail/2608",
            "website": "siap.asuransijasindo.co.id"
        },
        {
            "id": "9cb1ab87-aea9-4551-9261-9e664f755583",
            "nama_pse": "ASURANSI JASA INDONESIA",
            "nama_se": "SIMANTEP",
            "sektor": "Sektor Keuangan, Sektor Keuangan",
            "tanggal_terbit": "2021-12-02",
            "url_tdpse_detail": "https://pse.komdigi.go.id/tdpse-detail/2611",
            "website": "simantep.asuransijasindo.co.id"
        },
        {
            "id": "9cb1ab7f-cffa-4455-9037-04bc5b4a7e54",
            "nama_pse": "ASURANSI JASA INDONESIA",
            "nama_se": "APLIKASI MEDCARE",
            "sektor": "Sektor Keuangan, Sektor Keuangan, Sektor Kesehatan, Sektor Kesehatan",
            "tanggal_terbit": "2021-12-02",
            "url_tdpse_detail": "https://pse.komdigi.go.id/tdpse-detail/2615",
            "website": "medcare.asuransijasindo.co.id"
        },
        {
            "id": "9cb1ab78-72fe-4fad-9ed2-4836a0ce77a3",
            "nama_pse": "SENTRA VIDYA UTAMA",
            "nama_se": "SIAKAD CLOUD",
            "sektor": "Sektor Teknologi Informasi dan Komunikasi, Sektor Teknologi Informasi dan Komunikasi",
            "tanggal_terbit": "2021-12-02",
            "url_tdpse_detail": "https://pse.komdigi.go.id/tdpse-detail/2584",
            "website": "siakadcloud.com"
        },
        {
            "id": "9cb1ab78-8958-4c79-922c-2d3f8fb71e5d",
            "nama_pse": "NURCHOLIS",
            "nama_se": "CEMPLUNG.COM",
            "sektor": "Sektor Teknologi Informasi dan Komunikasi, Sektor Teknologi Informasi dan Komunikasi",
            "tanggal_terbit": "2021-12-02",
            "url_tdpse_detail": "https://pse.komdigi.go.id/tdpse-detail/2588",
            "website": "cemplung.com"
        }
    ],
    "processingTimeMs": 8,
    "query": "",
    "totalHits": 19121,
    "hitsPerPage": 50,
    "page": 333,
    "totalPages": 383
}