{
    "hits": [
        {
            "id": "9cb1ab90-9859-463c-b200-5aae67cf3cc3",
            "nama_pse": "PT Internusa Digital Investasi",
            "nama_se": "INTERFUND",
            "sektor": "Sektor Teknologi Informasi dan Komunikasi, Sektor Teknologi Informasi dan Komunikasi",
            "tanggal_terbit": "2021-11-08",
            "url_tdpse_detail": "https://pse.komdigi.go.id/tdpse-detail/2359",
            "website": "internusacapital.com"
        },
        {
            "id": "9cb1ab9e-2c45-458c-b845-726629927fc0",
            "nama_pse": "PT Teknologi Pintar Solusindo",
            "nama_se": "KEBUNALI",
            "sektor": "Sektor Teknologi Informasi dan Komunikasi, Sektor Teknologi Informasi dan Komunikasi, Sektor Pangan, Sektor Pangan",
            "tanggal_terbit": "2021-11-08",
            "url_tdpse_detail": "https://pse.komdigi.go.id/tdpse-detail/2363",
            "website": "hostingceria.com"
        },
        {
            "id": "9cb1ab90-a0d5-4396-893f-f571d870fcae",
            "nama_pse": "PT Teknologi Pintar Solusindo",
            "nama_se": "PINTAR",
            "sektor": "Sektor Teknologi Informasi dan Komunikasi, Sektor Teknologi Informasi dan Komunikasi",
            "tanggal_terbit": "2021-11-08",
            "url_tdpse_detail": "https://pse.komdigi.go.id/tdpse-detail/2364",
            "website": "hostingceria.com"
        },
        {
            "id": "9cb1ab9e-2e02-4607-a2e8-56af246f2c85",
            "nama_pse": "SOLUSI SIRKULAR INDONESIA",
            "nama_se": "KOINPACK",
            "sektor": "Sektor Perdagangan, Sektor Perdagangan",
            "tanggal_terbit": "2021-11-08",
            "url_tdpse_detail": "https://pse.komdigi.go.id/tdpse-detail/2365",
            "website": "koinpack.id"
        },
        {
            "id": "9cb1ab9e-2fd1-43bf-825d-479d1dd719cc",
            "nama_pse": "PT GIAT BANGUN INDONESIA",
            "nama_se": "PAZEMO",
            "sektor": "Sektor Teknologi Informasi dan Komunikasi, Sektor Teknologi Informasi dan Komunikasi",
            "tanggal_terbit": "2021-11-08",
            "url_tdpse_detail": "https://pse.komdigi.go.id/tdpse-detail/2366",
            "website": "pazemo.com"
        },
        {
            "id": "9cb1ab9e-3226-417c-a54d-c66630f2d614",
            "nama_pse": "PT. Delapan Delapan News",
            "nama_se": "88NEWS",
            "sektor": "Sektor Teknologi Informasi dan Komunikasi, Sektor Teknologi Informasi dan Komunikasi",
            "tanggal_terbit": "2021-11-08",
            "url_tdpse_detail": "https://pse.komdigi.go.id/tdpse-detail/2367",
            "website": "medan88news.com"
        },
        {
            "id": "9cb1ab90-a334-4808-8e02-06f379a70eef",
            "nama_pse": "PT. Delapan Delapan News",
            "nama_se": "88NEWS",
            "sektor": "Sektor Teknologi Informasi dan Komunikasi, Sektor Teknologi Informasi dan Komunikasi",
            "tanggal_terbit": "2021-11-08",
            "url_tdpse_detail": "https://pse.komdigi.go.id/tdpse-detail/2368",
            "website": "medan88news.com"
        },
        {
            "id": "9cb1ab9e-3407-4f43-9431-e4432a35057d",
            "nama_pse": "PT PERUPA SIBER INFORMATIKA",
            "nama_se": "PERUPA",
            "sektor": "Sektor Teknologi Informasi dan Komunikasi, Sektor Teknologi Informasi dan Komunikasi",
            "tanggal_terbit": "2021-11-08",
            "url_tdpse_detail": "https://pse.komdigi.go.id/tdpse-detail/2371",
            "website": "perupa.co"
        },
        {
            "id": "9cb1aba8-efef-46d6-86a7-fe77d6433ca6",
            "nama_pse": "GEMANUSA SENTRA TEKNOLOGI",
            "nama_se": "WANIPIRO",
            "sektor": "Sektor Perdagangan, Sektor Perdagangan, Sektor Teknologi Informasi dan Komunikasi, Sektor Teknologi Informasi dan Komunikasi",
            "tanggal_terbit": "2021-11-08",
            "url_tdpse_detail": "https://pse.komdigi.go.id/tdpse-detail/2321",
            "website": "wanipiro.com"
        },
        {
            "id": "9cb1ab91-3c58-4c5f-a9eb-9be617f475a7",
            "nama_pse": "KREDIT UTAMA FINTECH INDONESIA",
            "nama_se": "LOGIN RUPIAH CEPAT",
            "sektor": "Sektor Keuangan, Sektor Keuangan, Sektor Teknologi Informasi dan Komunikasi, Sektor Teknologi Informasi dan Komunikasi",
            "tanggal_terbit": "2021-11-08",
            "url_tdpse_detail": "https://pse.komdigi.go.id/tdpse-detail/2369",
            "website": "kufi.rupiahcepatweb.com/login"
        },
        {
            "id": "9cb1ab91-3fc1-49e3-b431-72ef64525d29",
            "nama_pse": "KREDIT UTAMA FINTECH INDONESIA",
            "nama_se": "LOGIN RUPIAH CEPAT",
            "sektor": "Sektor Keuangan, Sektor Keuangan, Sektor Teknologi Informasi dan Komunikasi, Sektor Teknologi Informasi dan Komunikasi",
            "tanggal_terbit": "2021-11-08",
            "url_tdpse_detail": "https://pse.komdigi.go.id/tdpse-detail/2370",
            "website": "kufi-ind.rupiahcepatweb.com/login"
        },
        {
            "id": "9cb1aba9-030e-48fa-8851-0c2eb273fced",
            "nama_pse": "ASTRA KREASI DIGITAL",
            "nama_se": "MOXA MABROOR",
            "sektor": "Sektor Perdagangan, Sektor Perdagangan",
            "tanggal_terbit": "2021-11-08",
            "url_tdpse_detail": "https://pse.komdigi.go.id/tdpse-detail/2273",
            "website": "-"
        },
        {
            "id": "9cb1ab91-9ae0-4724-a821-d0e0991be277",
            "nama_pse": "MIRAE ASSET SEKURITAS INDONESIA",
            "nama_se": "NAVI",
            "sektor": "Sektor Keuangan, Sektor Keuangan, Sektor Keuangan, Sektor Keuangan, Sektor Keuangan, Sektor Keuangan, Sektor Keuangan, Sektor Keuangan",
            "tanggal_terbit": "2021-11-08",
            "url_tdpse_detail": "https://pse.komdigi.go.id/tdpse-detail/2340",
            "website": "navi.miraeasset.co.id"
        },
        {
            "id": "9cb1ab9e-f690-4f4b-93da-8f3987d9cf29",
            "nama_pse": "PT Linxchat Global Indonesia",
            "nama_se": "PLATFORM SOCIAL COMMERCE",
            "sektor": "Sektor Perdagangan, Sektor Perdagangan, Sektor Teknologi Informasi dan Komunikasi, Sektor Teknologi Informasi dan Komunikasi",
            "tanggal_terbit": "2021-11-08",
            "url_tdpse_detail": "https://pse.komdigi.go.id/tdpse-detail/2342",
            "website": "linx.chat"
        },
        {
            "id": "9cb1ab9e-f88d-4129-a5aa-02765704eb68",
            "nama_pse": "GAJI PINTAR INDONESIA",
            "nama_se": "WAGELY",
            "sektor": "Sektor Keuangan, Sektor Keuangan, Sektor Teknologi Informasi dan Komunikasi, Sektor Teknologi Informasi dan Komunikasi",
            "tanggal_terbit": "2021-11-08",
            "url_tdpse_detail": "https://pse.komdigi.go.id/tdpse-detail/2357",
            "website": "wagely.id"
        },
        {
            "id": "9cb1aba9-56f2-44a9-a14b-2b0bda238d88",
            "nama_pse": "DAPUR LOGAM",
            "nama_se": "DAPURLOGAM.COM",
            "sektor": "Sektor Perdagangan, Sektor Perdagangan",
            "tanggal_terbit": "2021-11-08",
            "url_tdpse_detail": "https://pse.komdigi.go.id/tdpse-detail/2372",
            "website": "dapurlogam.com"
        },
        {
            "id": "9cb1ab91-b690-4d39-b09e-97b563b176b2",
            "nama_pse": "JIDOKA SYSTEM INDONESIA",
            "nama_se": "JS3",
            "sektor": "Sektor Teknologi Informasi dan Komunikasi, Sektor Teknologi Informasi dan Komunikasi",
            "tanggal_terbit": "2021-11-08",
            "url_tdpse_detail": "https://pse.komdigi.go.id/tdpse-detail/2347",
            "website": "jidokasystem.co.id"
        },
        {
            "id": "9cb1aba9-5c4b-4c01-a705-051bcd20c5e6",
            "nama_pse": "JIDOKA SYSTEM INDONESIA",
            "nama_se": "ME INTERACTION",
            "sektor": "Sektor Teknologi Informasi dan Komunikasi, Sektor Teknologi Informasi dan Komunikasi",
            "tanggal_terbit": "2021-11-08",
            "url_tdpse_detail": "https://pse.komdigi.go.id/tdpse-detail/2351",
            "website": "jidokasystem.co.id"
        },
        {
            "id": "9cb1ab91-d22c-44b9-8e25-a2fd7471607d",
            "nama_pse": "WELTEK HEALTHIN INDONESIA",
            "nama_se": "BUBIDAN",
            "sektor": "Sektor Perdagangan, Sektor Kesehatan",
            "tanggal_terbit": "2021-11-08",
            "url_tdpse_detail": "https://pse.komdigi.go.id/tdpse-detail/2291",
            "website": "weltek.id"
        },
        {
            "id": "9cb1ab9f-09cc-4fff-8230-8fe76b3066c2",
            "nama_pse": "JARAMBA MOBILITAS NUSANTARA",
            "nama_se": "APLIKASI WEB JARAMBA",
            "sektor": "Sektor Transportasi, Sektor Teknologi Informasi dan Komunikasi",
            "tanggal_terbit": "2021-11-08",
            "url_tdpse_detail": "https://pse.komdigi.go.id/tdpse-detail/2341",
            "website": "Apps.jaramba.id"
        },
        {
            "id": "9cb1ab9f-0f84-4a80-8ea8-ccb61cdecafd",
            "nama_pse": "ASURANSI BINTANG",
            "nama_se": "WEBSITE WWW.ASURANSIBINTANG.COM",
            "sektor": "Sektor Keuangan, Sektor Teknologi Informasi dan Komunikasi",
            "tanggal_terbit": "2021-11-08",
            "url_tdpse_detail": "https://pse.komdigi.go.id/tdpse-detail/2277",
            "website": "asuransibintang.com"
        },
        {
            "id": "9cb1aba9-6a38-45fd-af9c-3c6fe35aaba2",
            "nama_pse": "SHOPLINE TECHNOLOGY INDONESIA",
            "nama_se": "SHOPLINE",
            "sektor": "Sektor Perdagangan",
            "tanggal_terbit": "2021-11-08",
            "url_tdpse_detail": "https://pse.komdigi.go.id/tdpse-detail/2338",
            "website": "shopline.co.id"
        },
        {
            "id": "9cb1aba9-70f7-49ae-bed2-5d9bc83bbe22",
            "nama_pse": "AVRIST ASSURANCE",
            "nama_se": "AVRIST ECOMMERCE",
            "sektor": "Sektor Keuangan",
            "tanggal_terbit": "2021-11-08",
            "url_tdpse_detail": "https://pse.komdigi.go.id/tdpse-detail/2281",
            "website": "shop.avrist.com"
        },
        {
            "id": "9cb1aba9-7304-4351-9da6-771de92b6dbb",
            "nama_pse": "AVRIST ASSURANCE",
            "nama_se": "AVRIST CUSTOMER PORTAL",
            "sektor": "Sektor Keuangan",
            "tanggal_terbit": "2021-11-08",
            "url_tdpse_detail": "https://pse.komdigi.go.id/tdpse-detail/2288",
            "website": "My.Avrist.com"
        },
        {
            "id": "9cb1aba9-7534-482d-8e7d-c47da09b6976",
            "nama_pse": "AVRIST ASSURANCE",
            "nama_se": "AVRIST MEDICAL GATE",
            "sektor": "Sektor Keuangan",
            "tanggal_terbit": "2021-11-08",
            "url_tdpse_detail": "https://pse.komdigi.go.id/tdpse-detail/2289",
            "website": "-"
        },
        {
            "id": "9cb1ab9f-18a3-41b3-a8b1-eded5cff1b5c",
            "nama_pse": "AVRIST ASSURANCE",
            "nama_se": "AVRIST BLOG",
            "sektor": "Sektor Keuangan",
            "tanggal_terbit": "2021-11-08",
            "url_tdpse_detail": "https://pse.komdigi.go.id/tdpse-detail/2292",
            "website": "http://avrist.com/lifeguide/"
        },
        {
            "id": "9cb1ab9f-1ab1-4e47-be04-ed5449cfb27d",
            "nama_pse": "AVRIST ASSURANCE",
            "nama_se": "AVRIST PINTAR – ADMIN",
            "sektor": "Sektor Keuangan",
            "tanggal_terbit": "2021-11-08",
            "url_tdpse_detail": "https://pse.komdigi.go.id/tdpse-detail/2294",
            "website": "http://agent.avrist.com/pintar"
        },
        {
            "id": "9cb1aba9-7759-4676-aa35-1da19433d58d",
            "nama_pse": "AVRIST ASSURANCE",
            "nama_se": "APLIKASI MOBILE - AVRIST PINTAR",
            "sektor": "Sektor Keuangan",
            "tanggal_terbit": "2021-11-08",
            "url_tdpse_detail": "https://pse.komdigi.go.id/tdpse-detail/2295",
            "website": "-"
        },
        {
            "id": "9cb1ab92-6995-4700-a1e2-c84f7c5ad5ea",
            "nama_pse": "MULTIMEDIA NUSANTARA",
            "nama_se": "MEDIAHUB BROADCAST SERVICE",
            "sektor": "Sektor Teknologi Informasi dan Komunikasi, Sektor Teknologi Informasi dan Komunikasi, Sektor Teknologi Informasi dan Komunikasi",
            "tanggal_terbit": "2021-11-08",
            "url_tdpse_detail": "https://pse.komdigi.go.id/tdpse-detail/2290",
            "website": "mediahub.co.id"
        },
        {
            "id": "9cb1ab64-a5e5-47cf-a3ca-df3c8dc9f7b1",
            "nama_pse": "SIGMA CIPTA CARAKA",
            "nama_se": "FLOU CLOUD",
            "sektor": "Sektor Perdagangan, Sektor Perdagangan, Sektor Teknologi Informasi dan Komunikasi, Sektor Teknologi Informasi dan Komunikasi",
            "tanggal_terbit": "2021-11-01",
            "url_tdpse_detail": "https://pse.komdigi.go.id/tdpse-detail/2190",
            "website": "floucloud.id"
        },
        {
            "id": "9cb1ab6a-4903-4031-86e8-411e3f7fbc45",
            "nama_pse": "EDRUS SAFTA ANUGERAH",
            "nama_se": "AMBASSADOR.ID",
            "sektor": "Sektor Perdagangan, Sektor Perdagangan",
            "tanggal_terbit": "2021-11-01",
            "url_tdpse_detail": "https://pse.komdigi.go.id/tdpse-detail/2181",
            "website": "Ambassador.id"
        },
        {
            "id": "9cb1ab73-5eec-4e13-bf99-93cdfbe5f37e",
            "nama_pse": "ANGGADA DUTA WISESA",
            "nama_se": "PENGADAAN.COM",
            "sektor": "Sektor Perdagangan, Sektor Perdagangan",
            "tanggal_terbit": "2021-11-01",
            "url_tdpse_detail": "https://pse.komdigi.go.id/tdpse-detail/2262",
            "website": "pengadaan.com"
        },
        {
            "id": "9cb1ab67-18bc-488b-abd3-071a4c48a95b",
            "nama_pse": "BANK NEO COMMERCE",
            "nama_se": "MOBILE BANKING NEO+",
            "sektor": "Sektor Keuangan, Sektor Keuangan, Sektor Keuangan, Sektor Keuangan",
            "tanggal_terbit": "2021-11-01",
            "url_tdpse_detail": "https://pse.komdigi.go.id/tdpse-detail/2250",
            "website": "bankneocommerce.co.id"
        },
        {
            "id": "9cb1ab6d-732e-4d1e-8fd7-33ceee705c85",
            "nama_pse": "PASAR RAKYAT INDONESIA",
            "nama_se": "PASAR RAKYAT INDONESIA",
            "sektor": "Sektor Perdagangan, Sektor Perdagangan, Sektor Teknologi Informasi dan Komunikasi, Sektor Teknologi Informasi dan Komunikasi",
            "tanggal_terbit": "2021-11-01",
            "url_tdpse_detail": "https://pse.komdigi.go.id/tdpse-detail/2255",
            "website": "pasarrakyatindonesia.com"
        },
        {
            "id": "9cb1ab75-bf33-4a32-8f8a-aeda7c96178f",
            "nama_pse": "SENTRALWATCH PERKASA INTERNASIONAL",
            "nama_se": "URBAN ICON INDONESIA",
            "sektor": "Sektor Perdagangan, Sektor Perdagangan, Sektor Perdagangan",
            "tanggal_terbit": "2021-11-01",
            "url_tdpse_detail": "https://pse.komdigi.go.id/tdpse-detail/2202",
            "website": "https:/www.urbanicon.co.id/"
        },
        {
            "id": "9cb1ab6f-ecb9-4183-bcd4-236364e7e40f",
            "nama_pse": "HAGO KREATIF INDONESIA",
            "nama_se": "HAGO",
            "sektor": "Sektor Teknologi Informasi dan Komunikasi, Sektor Teknologi Informasi dan Komunikasi, Sektor Teknologi Informasi dan Komunikasi, Sektor Teknologi Informasi dan Komunikasi",
            "tanggal_terbit": "2021-11-01",
            "url_tdpse_detail": "https://pse.komdigi.go.id/tdpse-detail/2209",
            "website": "-"
        },
        {
            "id": "9cb1ab76-155d-4bf8-b533-47587a3c31c7",
            "nama_pse": "KITA SERBA DIGITAL",
            "nama_se": "BISAKERJA.CO.ID",
            "sektor": "Sektor Teknologi Informasi dan Komunikasi, Sektor Teknologi Informasi dan Komunikasi",
            "tanggal_terbit": "2021-11-01",
            "url_tdpse_detail": "https://pse.komdigi.go.id/tdpse-detail/2192",
            "website": "BISAKERJA.CO.ID"
        },
        {
            "id": "9cb1ab69-5643-4779-a55a-2f9ac8a6ba7f",
            "nama_pse": "KITA SERBA DIGITAL",
            "nama_se": "SIAPLAH.CO.ID",
            "sektor": "Sektor Teknologi Informasi dan Komunikasi, Sektor Teknologi Informasi dan Komunikasi",
            "tanggal_terbit": "2021-11-01",
            "url_tdpse_detail": "https://pse.komdigi.go.id/tdpse-detail/2193",
            "website": "SIAPLAH.CO.ID"
        },
        {
            "id": "9cb1ab69-a5b1-4ebd-b705-b7ccee1029e4",
            "nama_pse": "SEPADAN MITRA TEKNOLOGI",
            "nama_se": "WWW.BONAPP.ID",
            "sektor": "Sektor Teknologi Informasi dan Komunikasi, Sektor Teknologi Informasi dan Komunikasi",
            "tanggal_terbit": "2021-11-01",
            "url_tdpse_detail": "https://pse.komdigi.go.id/tdpse-detail/2194",
            "website": "bonapp.id"
        },
        {
            "id": "9cb1ab69-b9a2-4f36-81a7-4d22929ba340",
            "nama_pse": "METRA - NET",
            "nama_se": "XOOPLY",
            "sektor": "Sektor Perdagangan, Sektor Perdagangan, Sektor Perdagangan",
            "tanggal_terbit": "2021-11-01",
            "url_tdpse_detail": "https://pse.komdigi.go.id/tdpse-detail/2220",
            "website": "xooply.id"
        },
        {
            "id": "9cb1ab76-90e7-44ea-bfc2-538078d84383",
            "nama_pse": "MEDIA INDONUSA",
            "nama_se": "FASPAY SENDME",
            "sektor": "Sektor Keuangan, Sektor Keuangan, Sektor Keuangan",
            "tanggal_terbit": "2021-11-01",
            "url_tdpse_detail": "https://pse.komdigi.go.id/tdpse-detail/2213",
            "website": "faspay.co.id"
        },
        {
            "id": "9cb1ab77-6ac0-4d2a-a098-220ea4581a10",
            "nama_pse": "HARTA TAHTA SUKARIA",
            "nama_se": "SAWERIA",
            "sektor": "Sektor Teknologi Informasi dan Komunikasi, Sektor Teknologi Informasi dan Komunikasi, Sektor Teknologi Informasi dan Komunikasi",
            "tanggal_terbit": "2021-11-01",
            "url_tdpse_detail": "https://pse.komdigi.go.id/tdpse-detail/2219",
            "website": "saweria.co"
        },
        {
            "id": "9cb1ab77-6dd2-49ff-a85d-43d9f544f114",
            "nama_pse": "LEGALKU SERVICIA CORPORA",
            "nama_se": "LEGALKU DIGITAL",
            "sektor": "Sektor Teknologi Informasi dan Komunikasi, Sektor Teknologi Informasi dan Komunikasi",
            "tanggal_terbit": "2021-11-01",
            "url_tdpse_detail": "https://pse.komdigi.go.id/tdpse-detail/2212",
            "website": "legalku.com"
        },
        {
            "id": "9cb1ab76-9e5b-40b2-88cd-58bf9efb98c5",
            "nama_pse": "ORI SERVICES INDONESIA",
            "nama_se": "SLASH",
            "sektor": "Sektor Perdagangan, Sektor Perdagangan, Sektor Teknologi Informasi dan Komunikasi, Sektor Teknologi Informasi dan Komunikasi",
            "tanggal_terbit": "2021-11-01",
            "url_tdpse_detail": "https://pse.komdigi.go.id/tdpse-detail/2183",
            "website": "getslash.id"
        },
        {
            "id": "9cb1ab76-b0b2-437f-9dca-de36980ec9a5",
            "nama_pse": "ASURANSI JIWA INHEALTH INDONESIA",
            "nama_se": "MI CARE",
            "sektor": "Sektor Kesehatan, Sektor Kesehatan",
            "tanggal_terbit": "2021-11-01",
            "url_tdpse_detail": "https://pse.komdigi.go.id/tdpse-detail/2263",
            "website": "MANDIRIINHEALTH.CO.ID"
        },
        {
            "id": "9cb1ab7f-3c73-40c2-a512-22e1a9f18ccd",
            "nama_pse": "ASURANSI JIWA INHEALTH INDONESIA",
            "nama_se": "PELKES ONLINE",
            "sektor": "Sektor Kesehatan, Sektor Kesehatan",
            "tanggal_terbit": "2021-11-01",
            "url_tdpse_detail": "https://pse.komdigi.go.id/tdpse-detail/2264",
            "website": "MANDIRIINHEALTH.CO.ID"
        },
        {
            "id": "9cb1ab7f-40b4-4538-80e7-e09aeb9fb53a",
            "nama_pse": "ASURANSI JIWA INHEALTH INDONESIA",
            "nama_se": "FIS",
            "sektor": "Sektor Kesehatan, Sektor Kesehatan",
            "tanggal_terbit": "2021-11-01",
            "url_tdpse_detail": "https://pse.komdigi.go.id/tdpse-detail/2266",
            "website": "MANDIRIINHEALTH.CO.ID"
        },
        {
            "id": "9cb1ab7f-4389-4f03-904d-7150d75518ea",
            "nama_pse": "ASURANSI JIWA INHEALTH INDONESIA",
            "nama_se": "MARKIS",
            "sektor": "Sektor Kesehatan, Sektor Kesehatan",
            "tanggal_terbit": "2021-11-01",
            "url_tdpse_detail": "https://pse.komdigi.go.id/tdpse-detail/2267",
            "website": "MANDIRIINHEALTH.CO.ID"
        },
        {
            "id": "9cb1ab7f-5ce9-4917-bff3-84acf16d4b26",
            "nama_pse": "BIMINI LONGEVITY INDONESIA",
            "nama_se": "HONESTDOCS",
            "sektor": "Sektor Kesehatan, Sektor Kesehatan",
            "tanggal_terbit": "2021-11-01",
            "url_tdpse_detail": "https://pse.komdigi.go.id/tdpse-detail/2182",
            "website": "honestdocs.id"
        },
        {
            "id": "9cb1ab76-be4d-4e89-94df-80ef7a7f03b2",
            "nama_pse": "TIGA TOKEN DIGITAL",
            "nama_se": "NEFTIPEDIA",
            "sektor": "Sektor Perdagangan, Sektor Perdagangan",
            "tanggal_terbit": "2021-11-01",
            "url_tdpse_detail": "https://pse.komdigi.go.id/tdpse-detail/2231",
            "website": "neftipedia.com"
        }
    ],
    "processingTimeMs": 63,
    "query": "",
    "totalHits": 19131,
    "hitsPerPage": 50,
    "page": 340,
    "totalPages": 383
}