{
    "hits": [
        {
            "id": "9e4eff30-ea21-4477-b138-34ccbfff7b63",
            "nama_pse": "ERA TUNAS HARAPAN",
            "nama_se": "ERA TUNAS HARAPAN PLS",
            "sektor": "Sektor Perdagangan",
            "tanggal_terbit": "2025-02-27",
            "url_tdpse_detail": "https://pse.komdigi.go.id/tdpse-detail/22514",
            "website": "-"
        },
        {
            "id": "9e4f095c-de31-44a9-a508-b376c746fa7a",
            "nama_pse": "TRIBUNE MEDIA INDONESIA",
            "nama_se": "TRIBUNEINDONESIA",
            "sektor": "Sektor Teknologi Informasi dan Komunikasi",
            "tanggal_terbit": "2025-02-27",
            "url_tdpse_detail": "https://pse.komdigi.go.id/tdpse-detail/22516",
            "website": "tribuneindonesia.com"
        },
        {
            "id": "9e4f0c5b-8b07-4f28-be61-4c0e42776b0a",
            "nama_pse": "SURYA REZEKI INDAH",
            "nama_se": "SURYA REZEKI INDAH",
            "sektor": "Sektor Perdagangan",
            "tanggal_terbit": "2025-02-27",
            "url_tdpse_detail": "https://pse.komdigi.go.id/tdpse-detail/22517",
            "website": "-"
        },
        {
            "id": "9e4f3d14-9b0c-4d7a-8923-c3f10a9ed9e8",
            "nama_pse": "ECOE DIGITAL PERDANA",
            "nama_se": "ECOELITE",
            "sektor": "Sektor Perdagangan, Sektor Teknologi Informasi dan Komunikasi",
            "tanggal_terbit": "2025-02-27",
            "url_tdpse_detail": "https://pse.komdigi.go.id/tdpse-detail/22525",
            "website": "ecoelite.id"
        },
        {
            "id": "9e4f4e2b-84ed-49c5-983b-b79ad74ba812",
            "nama_pse": "NIAGA ANEKA MODE",
            "nama_se": "ROTELLI",
            "sektor": "Sektor Perdagangan",
            "tanggal_terbit": "2025-02-27",
            "url_tdpse_detail": "https://pse.komdigi.go.id/tdpse-detail/22526",
            "website": "rotellishoes-fashion.com"
        },
        {
            "id": "9e4f529a-3e7d-49ef-88a7-fb72e386b7c5",
            "nama_pse": "PANCA SAMUDRA BUMI",
            "nama_se": "IZINPEDIA",
            "sektor": "Sektor Perdagangan, Sektor Teknologi Informasi dan Komunikasi",
            "tanggal_terbit": "2025-02-27",
            "url_tdpse_detail": "https://pse.komdigi.go.id/tdpse-detail/22527",
            "website": "izinpedia.com"
        },
        {
            "id": "9e4fe4bf-73dc-4a45-9055-de37d155ab33",
            "nama_pse": "MISBAH GROUP TELEKOMUNIKASI",
            "nama_se": "MISBAH GROUP TELEKOMUNIKASI  PT",
            "sektor": "Sektor Teknologi Informasi dan Komunikasi",
            "tanggal_terbit": "2025-02-27",
            "url_tdpse_detail": "https://pse.komdigi.go.id/tdpse-detail/22540",
            "website": "-"
        },
        {
            "id": "9e4feb42-3655-4129-b3a7-a8f0b6932807",
            "nama_pse": "MISBAH GROUP TELEKOMUNIKASI",
            "nama_se": "MISBAH GROUP TELEKOMUNIKASI PT",
            "sektor": "Sektor Teknologi Informasi dan Komunikasi",
            "tanggal_terbit": "2025-02-27",
            "url_tdpse_detail": "https://pse.komdigi.go.id/tdpse-detail/22541",
            "website": "-"
        },
        {
            "id": "9e4ffea8-ead6-4709-b265-640eb3ac5980",
            "nama_pse": "JARINGAN ARTHA SAMUDRA",
            "nama_se": "SAMUDRA CHANDLER",
            "sektor": "Sektor Perdagangan",
            "tanggal_terbit": "2025-02-27",
            "url_tdpse_detail": "https://pse.komdigi.go.id/tdpse-detail/22542",
            "website": "samudrachandler.com"
        },
        {
            "id": "9e4d32e9-1b90-4b24-ba0a-d108de7794a7",
            "nama_pse": "MEDIATAMA NAGARI NUSANTARA",
            "nama_se": "SOROT ISTANA NEWS.COM",
            "sektor": "Sektor Teknologi Informasi dan Komunikasi",
            "tanggal_terbit": "2025-02-26",
            "url_tdpse_detail": "https://pse.komdigi.go.id/tdpse-detail/22496",
            "website": "sorotistananews.com"
        },
        {
            "id": "9e4d7fb8-d888-48b5-a0ec-789a8770bc76",
            "nama_pse": "OCTAF CIPTA KREASI",
            "nama_se": "OCTAF CIPTA KREASI",
            "sektor": "Sektor Perdagangan",
            "tanggal_terbit": "2025-02-26",
            "url_tdpse_detail": "https://pse.komdigi.go.id/tdpse-detail/22501",
            "website": "octafkreasi.com"
        },
        {
            "id": "9e4da9a9-edd6-46be-84e8-762b5ff328ca",
            "nama_pse": "RODA EXPRESS SUKSES MANDIRI",
            "nama_se": "oonains.com",
            "sektor": "Sektor Teknologi Informasi dan Komunikasi",
            "tanggal_terbit": "2025-02-26",
            "url_tdpse_detail": "https://pse.komdigi.go.id/tdpse-detail/22509",
            "website": "oonains.com"
        },
        {
            "id": "9e4da3f9-bdce-479b-a2d2-da8afc844d32",
            "nama_pse": "AURORA TEKNO GLOBAL",
            "nama_se": "PAM PAYMENT",
            "sektor": "Sektor Teknologi Informasi dan Komunikasi",
            "tanggal_terbit": "2025-02-26",
            "url_tdpse_detail": "https://pse.komdigi.go.id/tdpse-detail/22508",
            "website": "pdam-payment.aurorasystem.co.id"
        },
        {
            "id": "9e4d3fa3-0d4e-47e5-b243-9259977d2f71",
            "nama_pse": "NIAGA ANEKA MODE",
            "nama_se": "GOSH",
            "sektor": "Sektor Perdagangan",
            "tanggal_terbit": "2025-02-26",
            "url_tdpse_detail": "https://pse.komdigi.go.id/tdpse-detail/22497",
            "website": "goshshoes-fashion.com"
        },
        {
            "id": "9e4d31f0-61e4-40fa-b18e-322353d8815e",
            "nama_pse": "TRANSFORMASI EKSISTENSI DIGITAL",
            "nama_se": "OBBIDY",
            "sektor": "Sektor Teknologi Informasi dan Komunikasi",
            "tanggal_terbit": "2025-02-26",
            "url_tdpse_detail": "https://pse.komdigi.go.id/tdpse-detail/22494",
            "website": "obbidy.com"
        },
        {
            "id": "9e4c4016-1ecf-4831-a65e-05cf1f57893a",
            "nama_pse": "SULISTIYO",
            "nama_se": "AL PULSA",
            "sektor": "Sektor Perdagangan",
            "tanggal_terbit": "2025-02-26",
            "url_tdpse_detail": "https://pse.komdigi.go.id/tdpse-detail/22486",
            "website": "alpulsa.my.id"
        },
        {
            "id": "9e4cdf43-7e17-48a3-803f-b25a0d5798df",
            "nama_pse": "GROSIR SOLUSI INDO",
            "nama_se": "GROSINDO",
            "sektor": "Sektor Perdagangan",
            "tanggal_terbit": "2025-02-26",
            "url_tdpse_detail": "https://pse.komdigi.go.id/tdpse-detail/22487",
            "website": "grosindo.my.id"
        },
        {
            "id": "9e4d0bd5-596d-4799-9cfe-eab5610a8cc4",
            "nama_pse": "DIBUILTADI TEKNOLOGI KREATIF",
            "nama_se": "DIBUILTADI",
            "sektor": "Sektor Teknologi Informasi dan Komunikasi",
            "tanggal_terbit": "2025-02-26",
            "url_tdpse_detail": "https://pse.komdigi.go.id/tdpse-detail/22488",
            "website": "dibuiltadi.com"
        },
        {
            "id": "9e41629f-8ffd-4ec4-9314-05e7a98af8b2",
            "nama_pse": "CATERPILLAR FINANCE INDONESIA",
            "nama_se": "MYCATFINANCIAL",
            "sektor": "Sektor Keuangan",
            "tanggal_terbit": "2025-02-26",
            "url_tdpse_detail": "https://pse.komdigi.go.id/tdpse-detail/22489",
            "website": "catfinancial.my.salesforce.com"
        },
        {
            "id": "9e4162a0-ebed-4aec-ad1f-8a22552bbfe4",
            "nama_pse": "BANK PEREKONOMIAN RAKYAT ARTHA KARYA USAHA",
            "nama_se": "AKU MOBILE",
            "sektor": "Sektor Keuangan",
            "tanggal_terbit": "2025-02-26",
            "url_tdpse_detail": "https://pse.komdigi.go.id/tdpse-detail/22490",
            "website": "-"
        },
        {
            "id": "9e4d10e8-edc4-4d21-b29c-2408f9aea5d5",
            "nama_pse": "MEDIA ZULINDO MAJU",
            "nama_se": "KAPUASNEWS.COM",
            "sektor": "Sektor Teknologi Informasi dan Komunikasi",
            "tanggal_terbit": "2025-02-26",
            "url_tdpse_detail": "https://pse.komdigi.go.id/tdpse-detail/22491",
            "website": "kapuasnews.com"
        },
        {
            "id": "9e4d142f-51ab-4d3e-8a4a-aab05ba9956c",
            "nama_pse": "GENERASI DUA KARYA",
            "nama_se": "PT GENERASI DUA KARYA",
            "sektor": "Sektor Perdagangan",
            "tanggal_terbit": "2025-02-26",
            "url_tdpse_detail": "https://pse.komdigi.go.id/tdpse-detail/22492",
            "website": "-"
        },
        {
            "id": "9e4d6022-16fc-4a49-a774-c4875398899b",
            "nama_pse": "MEDIA ZULINDO MAJU",
            "nama_se": "PENAMERAH.CO.ID",
            "sektor": "Sektor Teknologi Informasi dan Komunikasi",
            "tanggal_terbit": "2025-02-26",
            "url_tdpse_detail": "https://pse.komdigi.go.id/tdpse-detail/22499",
            "website": "penamerah.co.id"
        },
        {
            "id": "9e4d242e-68ab-43b9-b560-5f5e422d2dae",
            "nama_pse": "INFRA DIGITAL NUSANTARA",
            "nama_se": "PELAJAR",
            "sektor": "Sektor Teknologi Informasi dan Komunikasi",
            "tanggal_terbit": "2025-02-26",
            "url_tdpse_detail": "https://pse.komdigi.go.id/tdpse-detail/22493",
            "website": "-"
        },
        {
            "id": "9e4d832d-fd30-4457-ba73-683a0f75e0c1",
            "nama_pse": "TIAS BASLEY SINERGI",
            "nama_se": "TIAS",
            "sektor": "Sektor Teknologi Informasi dan Komunikasi",
            "tanggal_terbit": "2025-02-26",
            "url_tdpse_detail": "https://pse.komdigi.go.id/tdpse-detail/22502",
            "website": "tias.co.id"
        },
        {
            "id": "9e4d8511-aa01-495a-8530-253a84961307",
            "nama_pse": "MURI DIGITAL GRUP INTERNASIONAL",
            "nama_se": "MURI DIGITAL GRUP INTERNASIONAL",
            "sektor": "Sektor Teknologi Informasi dan Komunikasi",
            "tanggal_terbit": "2025-02-26",
            "url_tdpse_detail": "https://pse.komdigi.go.id/tdpse-detail/22503",
            "website": "muridigital.co.id"
        },
        {
            "id": "9e4d92c4-e908-43fb-a54f-ca9ad7b05af0",
            "nama_pse": "IDLINK NUSANTARA TERPADU",
            "nama_se": "IDLINK NUSANTARA TERPADU",
            "sektor": "Sektor Perdagangan, Sektor Transportasi, Sektor Teknologi Informasi dan Komunikasi",
            "tanggal_terbit": "2025-02-26",
            "url_tdpse_detail": "https://pse.komdigi.go.id/tdpse-detail/22504",
            "website": "idlink.co.id"
        },
        {
            "id": "9e4162a0-aaff-4825-ba50-133fcb59c014",
            "nama_pse": "IREN MEDIA SIBER",
            "nama_se": "jatanras-newsdotcom",
            "sektor": "Sektor Teknologi Informasi dan Komunikasi, Sektor Pertahanan dan Keamanan",
            "tanggal_terbit": "2025-02-26",
            "url_tdpse_detail": "https://pse.komdigi.go.id/tdpse-detail/22505",
            "website": "kincirnews.com"
        },
        {
            "id": "9e4d97c4-84db-4883-a730-7e7dae864fc9",
            "nama_pse": "WASTEFORCHANGE ALAM INDONESIA",
            "nama_se": "WEBSITE WASTE4CHANGE",
            "sektor": "Sektor Teknologi Informasi dan Komunikasi",
            "tanggal_terbit": "2025-02-26",
            "url_tdpse_detail": "https://pse.komdigi.go.id/tdpse-detail/22506",
            "website": "waste4change.com"
        },
        {
            "id": "9e4da089-48cb-4806-ae1d-ccdf89a1f530",
            "nama_pse": "NAWASENA SANGGA KREASI",
            "nama_se": "nawasena",
            "sektor": "Sektor Transportasi",
            "tanggal_terbit": "2025-02-26",
            "url_tdpse_detail": "https://pse.komdigi.go.id/tdpse-detail/22507",
            "website": "keindahanjawabali.com"
        },
        {
            "id": "9e4dd26c-fa4a-45ba-aaec-bf4532f4813a",
            "nama_pse": "NIAGA ANEKA MODE",
            "nama_se": "BELLAGIO",
            "sektor": "Sektor Perdagangan",
            "tanggal_terbit": "2025-02-26",
            "url_tdpse_detail": "https://pse.komdigi.go.id/tdpse-detail/22510",
            "website": "bellagioshoes-fashion.com"
        },
        {
            "id": "9e4e2f5c-b7d7-46eb-a071-e95294e0266c",
            "nama_pse": "AC ALFANA TEKNIK",
            "nama_se": "ACAKSERVICE.COM",
            "sektor": "Sektor Perdagangan, Sektor Transportasi, Sektor Teknologi Informasi dan Komunikasi",
            "tanggal_terbit": "2025-02-26",
            "url_tdpse_detail": "https://pse.komdigi.go.id/tdpse-detail/22511",
            "website": "-"
        },
        {
            "id": "9e4b35e9-6339-41b7-b54b-dacfea9fd9db",
            "nama_pse": "CITRA BERKAH SOLUSI",
            "nama_se": "LMS (LABORATORIUM MANAGEMENT SYSTEM) CITRA",
            "sektor": "Sektor Kesehatan",
            "tanggal_terbit": "2025-02-25",
            "url_tdpse_detail": "https://pse.komdigi.go.id/tdpse-detail/22472",
            "website": "citraberkahsolusi.com"
        },
        {
            "id": "9e4b1b30-95c5-41e5-90d4-b44268ac49be",
            "nama_pse": "ECOE DIGITAL PERDANA",
            "nama_se": "ISIPLAY",
            "sektor": "Sektor Perdagangan, Sektor Teknologi Informasi dan Komunikasi",
            "tanggal_terbit": "2025-02-25",
            "url_tdpse_detail": "https://pse.komdigi.go.id/tdpse-detail/22471",
            "website": "isiplay.id"
        },
        {
            "id": "9e4b3bd8-2901-4a49-a42f-2e1cc77bf683",
            "nama_pse": "PORTAL AJAIB SEKAWAN",
            "nama_se": "ERROR CODE AGENCY",
            "sektor": "Sektor Teknologi Informasi dan Komunikasi",
            "tanggal_terbit": "2025-02-25",
            "url_tdpse_detail": "https://pse.komdigi.go.id/tdpse-detail/22473",
            "website": "errorcode.agency"
        },
        {
            "id": "9e4b5268-c2f7-42a1-b89c-38ec82db8a82",
            "nama_pse": "ADHIKARYA CIPTA PERSADA",
            "nama_se": "METATRADER 5",
            "sektor": "Sektor Perdagangan",
            "tanggal_terbit": "2025-02-25",
            "url_tdpse_detail": "https://pse.komdigi.go.id/tdpse-detail/22474",
            "website": "acp2.co.id"
        },
        {
            "id": "9e4b7c87-9cc5-482c-b06c-29be652d5896",
            "nama_pse": "KUSUMA SAMPURNA MULIA",
            "nama_se": "KUSUMA STORE APP",
            "sektor": "Sektor Perdagangan",
            "tanggal_terbit": "2025-02-25",
            "url_tdpse_detail": "https://pse.komdigi.go.id/tdpse-detail/22475",
            "website": "-"
        },
        {
            "id": "9e4b7f7a-a082-4cc0-a0ff-85a34fdb3453",
            "nama_pse": "RIZKY MUSTHOFA",
            "nama_se": "APLIKASI WEBSITE LANDING PAGES BUILDER",
            "sektor": "Sektor Teknologi Informasi dan Komunikasi",
            "tanggal_terbit": "2025-02-25",
            "url_tdpse_detail": "https://pse.komdigi.go.id/tdpse-detail/22476",
            "website": "-"
        },
        {
            "id": "9e4b81a8-55e7-404f-8de4-808aa9caf552",
            "nama_pse": "APLIKASI KARYA LOGIKA",
            "nama_se": "RHEA",
            "sektor": "Sektor Teknologi Informasi dan Komunikasi",
            "tanggal_terbit": "2025-02-25",
            "url_tdpse_detail": "https://pse.komdigi.go.id/tdpse-detail/22477",
            "website": "-"
        },
        {
            "id": "9e4b84c4-8045-40a6-b182-3b4620dd1332",
            "nama_pse": "ORBIS DAYA ASIA",
            "nama_se": "PT ORBIS DAYA ASIA",
            "sektor": "Sektor Teknologi Informasi dan Komunikasi",
            "tanggal_terbit": "2025-02-25",
            "url_tdpse_detail": "https://pse.komdigi.go.id/tdpse-detail/22478",
            "website": "orbisway.com"
        },
        {
            "id": "9e41629e-e019-4ec8-adf4-e21317e5af46",
            "nama_pse": "YEPPOSKIN INDONESIA GLOBAL",
            "nama_se": "YEPPOSKIN",
            "sektor": "Sektor Perdagangan",
            "tanggal_terbit": "2025-02-25",
            "url_tdpse_detail": "https://pse.komdigi.go.id/tdpse-detail/22479",
            "website": "yepposkin.com"
        },
        {
            "id": "9e4b996b-5e43-4f7b-9f4d-b46ffc3be184",
            "nama_pse": "KOKOH MITRA DATA",
            "nama_se": "PT. KOKOH MITRA DATA",
            "sektor": "Sektor Teknologi Informasi dan Komunikasi",
            "tanggal_terbit": "2025-02-25",
            "url_tdpse_detail": "https://pse.komdigi.go.id/tdpse-detail/22480",
            "website": "-"
        },
        {
            "id": "9e4ba07e-6c1d-45a2-894f-00f056a17245",
            "nama_pse": "MITRA GAMERS TEKNOLOGI",
            "nama_se": "MITRA GAMERS TEKNOLOGI",
            "sektor": "Sektor Perdagangan",
            "tanggal_terbit": "2025-02-25",
            "url_tdpse_detail": "https://pse.komdigi.go.id/tdpse-detail/22481",
            "website": "mitragamers.com"
        },
        {
            "id": "9e4ba6ad-febb-4da9-9a74-af7817db22bc",
            "nama_pse": "BLITZ ELECTRIC MOBILITY",
            "nama_se": "BLITZ DRIVER",
            "sektor": "Sektor Transportasi",
            "tanggal_terbit": "2025-02-25",
            "url_tdpse_detail": "https://pse.komdigi.go.id/tdpse-detail/22482",
            "website": "-"
        },
        {
            "id": "9e4bfad1-43f4-46fd-bf2a-e6915992e06e",
            "nama_pse": "DIGITAL KREASI INTERMEDIA",
            "nama_se": "DIGITAL KREASI INTERMEDIA",
            "sektor": "Sektor Teknologi Informasi dan Komunikasi",
            "tanggal_terbit": "2025-02-25",
            "url_tdpse_detail": "https://pse.komdigi.go.id/tdpse-detail/22483",
            "website": "digitalkreasiintermedia.com"
        },
        {
            "id": "9e4bfd57-5856-4f70-8f22-5f172ba0e0bd",
            "nama_pse": "ANUGERAH ANAK NUSANTARA",
            "nama_se": "SIAPPGO",
            "sektor": "Sektor Perdagangan, Sektor Teknologi Informasi dan Komunikasi",
            "tanggal_terbit": "2025-02-25",
            "url_tdpse_detail": "https://pse.komdigi.go.id/tdpse-detail/22484",
            "website": "-"
        },
        {
            "id": "9e4c0fd4-4df1-4399-b700-1a7c1f598ca2",
            "nama_pse": "TRANS TEKNO INDO",
            "nama_se": "TRANSTEKNO",
            "sektor": "Sektor Perdagangan",
            "tanggal_terbit": "2025-02-25",
            "url_tdpse_detail": "https://pse.komdigi.go.id/tdpse-detail/22485",
            "website": "transtekno.my.id"
        },
        {
            "id": "9e490398-b26a-490c-a8c8-c8ce2a13534d",
            "nama_pse": "PAYWATCH SOLUTIONS INDONESIA",
            "nama_se": "PAYWATCH E COMMERCE",
            "sektor": "Sektor Perdagangan",
            "tanggal_terbit": "2025-02-24",
            "url_tdpse_detail": "https://pse.komdigi.go.id/tdpse-detail/22465",
            "website": "bypaywatch.co.id"
        },
        {
            "id": "9e49001c-3bac-4a4a-ac02-5bb5bda6e7fc",
            "nama_pse": "WAWAN CELLULAR INDONESIA",
            "nama_se": "CNET",
            "sektor": "Sektor Perdagangan, Sektor Teknologi Informasi dan Komunikasi",
            "tanggal_terbit": "2025-02-24",
            "url_tdpse_detail": "https://pse.komdigi.go.id/tdpse-detail/22464",
            "website": "ptwci-cnet.id"
        },
        {
            "id": "9e491710-1d2a-436e-bca5-a09831ca7dd2",
            "nama_pse": "INTERAKTIF INTERNASIONAL",
            "nama_se": "INTERACTIVE KULINERBIZ",
            "sektor": "Sektor Teknologi Informasi dan Komunikasi",
            "tanggal_terbit": "2025-02-24",
            "url_tdpse_detail": "https://pse.komdigi.go.id/tdpse-detail/22466",
            "website": "kuliner.biz"
        }
    ],
    "processingTimeMs": 1,
    "query": "",
    "totalHits": 19131,
    "hitsPerPage": 50,
    "page": 5,
    "totalPages": 383
}