{
    "hits": [
        {
            "id": "9cb1ac47-ba39-4831-9822-1d0c4f1dcefc",
            "nama_pse": "FREEDOM SUCCESS NETWORK",
            "nama_se": "DIDIN DWI WIJAYANTO",
            "sektor": "Sektor Teknologi Informasi dan Komunikasi",
            "tanggal_terbit": "2023-07-19",
            "url_tdpse_detail": "https://pse.komdigi.go.id/tdpse-detail/15337",
            "website": "-"
        },
        {
            "id": "9cb1ac47-c19a-45c1-9272-2118c68b9f88",
            "nama_pse": "TRAPIM JAYA GEMILANG",
            "nama_se": "TRAPIM",
            "sektor": "Sektor Teknologi Informasi dan Komunikasi",
            "tanggal_terbit": "2023-07-19",
            "url_tdpse_detail": "https://pse.komdigi.go.id/tdpse-detail/15338",
            "website": "trapim.com"
        },
        {
            "id": "9cb1ac37-cb2f-43de-b2c9-f62ad6a053c8",
            "nama_pse": "KARTO",
            "nama_se": "MYLABAPP",
            "sektor": "Sektor Kesehatan",
            "tanggal_terbit": "2023-07-19",
            "url_tdpse_detail": "https://pse.komdigi.go.id/tdpse-detail/15339",
            "website": "-"
        },
        {
            "id": "9cb1ac25-5eed-4263-b3f9-d1b35007bf5b",
            "nama_pse": "SOECHI LINES",
            "nama_se": "WWW.SOECHI.COM",
            "sektor": "Sektor Energi dan Sumber Daya Mineral, Sektor Transportasi",
            "tanggal_terbit": "2023-07-18",
            "url_tdpse_detail": "https://pse.komdigi.go.id/tdpse-detail/15321",
            "website": "soechi.com"
        },
        {
            "id": "9cb1ac25-6948-44c8-b2c6-615324bb8ff8",
            "nama_pse": "RUMAH SAKIT MUHAMMADIYAH AHMAD DAHLAN",
            "nama_se": "RME RSM AHMAD DAHLAN",
            "sektor": "Sektor Kesehatan",
            "tanggal_terbit": "2023-07-18",
            "url_tdpse_detail": "https://pse.komdigi.go.id/tdpse-detail/15324",
            "website": "rsmadkotakediri.com"
        },
        {
            "id": "9cb1ac37-baa2-4250-9f1b-94f794e4a967",
            "nama_pse": "DICKY FIRMAN DWIRAHARDJA",
            "nama_se": "RELASI MEDIA",
            "sektor": "Sektor Teknologi Informasi dan Komunikasi",
            "tanggal_terbit": "2023-07-18",
            "url_tdpse_detail": "https://pse.komdigi.go.id/tdpse-detail/15328",
            "website": "relasimedia.co.id"
        },
        {
            "id": "9cb1ac25-6de4-42d5-8265-018b6505bc8a",
            "nama_pse": "SEGITIGA SAMA SISI",
            "nama_se": "SESASI DATA",
            "sektor": "Sektor Teknologi Informasi dan Komunikasi",
            "tanggal_terbit": "2023-07-18",
            "url_tdpse_detail": "https://pse.komdigi.go.id/tdpse-detail/15323",
            "website": "simdata.website"
        },
        {
            "id": "9cb1ac25-7486-4df2-b318-dc84a36d8333",
            "nama_pse": "CANDAKA TIGA UTAMA",
            "nama_se": "CTUTAMA.ID",
            "sektor": "Sektor Perdagangan, Sektor Teknologi Informasi dan Komunikasi",
            "tanggal_terbit": "2023-07-18",
            "url_tdpse_detail": "https://pse.komdigi.go.id/tdpse-detail/15322",
            "website": "ctutama.id"
        },
        {
            "id": "9cb1ac25-7b8b-4005-975f-145761bfc51e",
            "nama_pse": "ESANDAR ARTHAMAS BERJANGKA",
            "nama_se": "ESANDAR.CO.ID",
            "sektor": "Sektor Perdagangan",
            "tanggal_terbit": "2023-07-18",
            "url_tdpse_detail": "https://pse.komdigi.go.id/tdpse-detail/15325",
            "website": "esandar.co.id"
        },
        {
            "id": "9cb1ac25-8146-4711-b52f-e28211ffb137",
            "nama_pse": "MUBAROKAH DIGITAL NUSANTARA",
            "nama_se": "MUBAROKAH",
            "sektor": "Sektor Teknologi Informasi dan Komunikasi",
            "tanggal_terbit": "2023-07-18",
            "url_tdpse_detail": "https://pse.komdigi.go.id/tdpse-detail/15326",
            "website": "mubarokah.com"
        },
        {
            "id": "9cb1ac25-8806-43aa-940c-9f8a5155dde0",
            "nama_pse": "DESSERTA FAKTORI GELATO",
            "nama_se": "ALMONDTREE CAKES",
            "sektor": "Sektor Perdagangan",
            "tanggal_terbit": "2023-07-18",
            "url_tdpse_detail": "https://pse.komdigi.go.id/tdpse-detail/15327",
            "website": "almondtreecakes.com"
        },
        {
            "id": "9cb1ac47-a373-41eb-b4a1-256016daf6b6",
            "nama_pse": "FAYZA SOLUSI BERSAMA",
            "nama_se": "YANBU",
            "sektor": "Sektor Perdagangan, Sektor Teknologi Informasi dan Komunikasi",
            "tanggal_terbit": "2023-07-18",
            "url_tdpse_detail": "https://pse.komdigi.go.id/tdpse-detail/15329",
            "website": "fayzalink.com"
        },
        {
            "id": "9cb1ac37-c1c2-4448-9ba7-8c21aab07e7d",
            "nama_pse": "KHAZANAH HIJAU INDONESIA",
            "nama_se": "REKOSISTEM",
            "sektor": "Sektor Teknologi Informasi dan Komunikasi",
            "tanggal_terbit": "2023-07-18",
            "url_tdpse_detail": "https://pse.komdigi.go.id/tdpse-detail/15330",
            "website": "rekosistem.com"
        },
        {
            "id": "9cb1ac25-955b-4a8b-a332-ddc7958988d4",
            "nama_pse": "JAYA DIGITAL PROPERTI",
            "nama_se": "FIT HUB",
            "sektor": "Sektor Perdagangan",
            "tanggal_terbit": "2023-07-18",
            "url_tdpse_detail": "https://pse.komdigi.go.id/tdpse-detail/15331",
            "website": "fithub.id"
        },
        {
            "id": "9cb1ac37-c494-40d0-8117-88b970af9321",
            "nama_pse": "MGAME INTER NATIONAL",
            "nama_se": "MGAME",
            "sektor": "Sektor Perdagangan",
            "tanggal_terbit": "2023-07-18",
            "url_tdpse_detail": "https://pse.komdigi.go.id/tdpse-detail/15332",
            "website": "mgame.id"
        },
        {
            "id": "9cb1ac47-ae1e-4880-b9b9-47349224c9d4",
            "nama_pse": "MGAME INTER NATIONAL",
            "nama_se": "BELI GAME ONLINE",
            "sektor": "Sektor Perdagangan",
            "tanggal_terbit": "2023-07-18",
            "url_tdpse_detail": "https://pse.komdigi.go.id/tdpse-detail/15333",
            "website": "beligame.online"
        },
        {
            "id": "9cb1ac47-b1e2-493e-a63d-6669269c9ce3",
            "nama_pse": "NICHOLAS PERTIWI KONSULTAN",
            "nama_se": "NPC OFFICE",
            "sektor": "Sektor Perdagangan",
            "tanggal_terbit": "2023-07-18",
            "url_tdpse_detail": "https://pse.komdigi.go.id/tdpse-detail/15334",
            "website": "npcoffice.com"
        },
        {
            "id": "9cb1ac24-e7c1-4f26-80f0-5478d9bfa44d",
            "nama_pse": "MULTI OCEAN SHIPYARD",
            "nama_se": "MULTIOCEANSHIPYARD",
            "sektor": "Sektor Transportasi",
            "tanggal_terbit": "2023-07-14",
            "url_tdpse_detail": "https://pse.komdigi.go.id/tdpse-detail/15313",
            "website": "multioceanshipyard.com"
        },
        {
            "id": "9cb1ac37-5b52-47dc-87d1-00c569ea3388",
            "nama_pse": "PRODIA WIDYAHUSADA",
            "nama_se": "MY REFERRAL LAB",
            "sektor": "Sektor Kesehatan",
            "tanggal_terbit": "2023-07-14",
            "url_tdpse_detail": "https://pse.komdigi.go.id/tdpse-detail/15312",
            "website": "rlsportal.prodia.co.id"
        },
        {
            "id": "9cb1ac37-a8ac-4d44-a81e-d19a437845f3",
            "nama_pse": "KEN BROTHERS INDONESIA",
            "nama_se": "BROTHERS TECHNOLOGY",
            "sektor": "Sektor Teknologi Informasi dan Komunikasi",
            "tanggal_terbit": "2023-07-14",
            "url_tdpse_detail": "https://pse.komdigi.go.id/tdpse-detail/15310",
            "website": "brothers.co.id"
        },
        {
            "id": "9cb1ac47-8300-4308-8894-097dcc3561dc",
            "nama_pse": "PESAN ANTAR BARANG",
            "nama_se": "PESAN ANTAR BARANG",
            "sektor": "Sektor Perdagangan, Sektor Transportasi, Sektor Teknologi Informasi dan Komunikasi",
            "tanggal_terbit": "2023-07-14",
            "url_tdpse_detail": "https://pse.komdigi.go.id/tdpse-detail/15311",
            "website": "-"
        },
        {
            "id": "9cb1ac47-9124-4466-89d3-328abcaa33f4",
            "nama_pse": "BRAWIJAYA TEKNOLOGI INDONESIA",
            "nama_se": "BRAWIJAYA TEKNOLOGI INDONESIA",
            "sektor": "Sektor Teknologi Informasi dan Komunikasi",
            "tanggal_terbit": "2023-07-14",
            "url_tdpse_detail": "https://pse.komdigi.go.id/tdpse-detail/15314",
            "website": "btind.co.id"
        },
        {
            "id": "9cb1ac25-562a-4578-9c0a-14ac0a1f0cbe",
            "nama_pse": "MEDIKA HUSADA",
            "nama_se": "LIRACARE",
            "sektor": "Sektor Kesehatan",
            "tanggal_terbit": "2023-07-14",
            "url_tdpse_detail": "https://pse.komdigi.go.id/tdpse-detail/15315",
            "website": "liramedika.com"
        },
        {
            "id": "9cb1ac46-4b5f-4b8c-b82a-a72925795900",
            "nama_pse": "ADARA PRIMA INTERNASIONAL",
            "nama_se": "CHANEL BEAUTY INDONESIA",
            "sektor": "Sektor Perdagangan",
            "tanggal_terbit": "2023-07-13",
            "url_tdpse_detail": "https://pse.komdigi.go.id/tdpse-detail/15300",
            "website": "id-eshop.chanel.com"
        },
        {
            "id": "9cb1ac25-1aef-41f1-be60-c46379d919a4",
            "nama_pse": "BALI DHARMA MEDISTRA",
            "nama_se": "SIMRS",
            "sektor": "Sektor Kesehatan",
            "tanggal_terbit": "2023-07-13",
            "url_tdpse_detail": "https://pse.komdigi.go.id/tdpse-detail/15296",
            "website": "rsbalimeddenpasar.id"
        },
        {
            "id": "9cb1ac25-2ed2-4b52-9855-fccd6657d2ec",
            "nama_pse": "ADEV NATURAL INDONESIA",
            "nama_se": "ADEV BUSINESS CONSOLE",
            "sektor": "Sektor Perdagangan",
            "tanggal_terbit": "2023-07-13",
            "url_tdpse_detail": "https://pse.komdigi.go.id/tdpse-detail/15297",
            "website": "adev.co.id"
        },
        {
            "id": "9cb1ac25-3263-44e5-b034-a2aa9f02be97",
            "nama_pse": "VOLINDO RITEL INDONESIA",
            "nama_se": "VOLCOM INDONESIA ONLINE STORE (VIOS)",
            "sektor": "Sektor Perdagangan",
            "tanggal_terbit": "2023-07-13",
            "url_tdpse_detail": "https://pse.komdigi.go.id/tdpse-detail/15298",
            "website": "volcom.co.id"
        },
        {
            "id": "9cb1ac25-3761-42fb-95e6-070855b04f5c",
            "nama_pse": "KHEMAL ANDRIAS",
            "nama_se": "NXG INSTITUTE",
            "sektor": "Sektor Teknologi Informasi dan Komunikasi",
            "tanggal_terbit": "2023-07-13",
            "url_tdpse_detail": "https://pse.komdigi.go.id/tdpse-detail/15295",
            "website": "nxg.institute"
        },
        {
            "id": "9cb1ac47-675b-401c-b3d8-574960ba93e0",
            "nama_pse": "IQVIA SOLUTIONS INDONESIA",
            "nama_se": "IQVIA HOSPITAL INFORMATION SYSTEM",
            "sektor": "Sektor Kesehatan",
            "tanggal_terbit": "2023-07-13",
            "url_tdpse_detail": "https://pse.komdigi.go.id/tdpse-detail/15301",
            "website": "iqvia.com"
        },
        {
            "id": "9cb1ac47-6b37-4860-9f7c-30917990c6d5",
            "nama_pse": "SMART TELECOM",
            "nama_se": "1ENGAGE",
            "sektor": "Sektor Teknologi Informasi dan Komunikasi",
            "tanggal_terbit": "2023-07-13",
            "url_tdpse_detail": "https://pse.komdigi.go.id/tdpse-detail/15302",
            "website": "1engage.ai"
        },
        {
            "id": "9cb1ac37-a030-441b-abb3-6dd860b0cfb7",
            "nama_pse": "SCORPIONS INTERNASIONAL MEDIAGROUP",
            "nama_se": "LONTAR SINGOSARI",
            "sektor": "Sektor Teknologi Informasi dan Komunikasi",
            "tanggal_terbit": "2023-07-13",
            "url_tdpse_detail": "https://pse.komdigi.go.id/tdpse-detail/15299",
            "website": "lontarsingosari.com"
        },
        {
            "id": "9cb1ac47-6dc4-45d9-aa83-adb479575e23",
            "nama_pse": "LIFE VITAE INDONESIA",
            "nama_se": "LIFEVITAE",
            "sektor": "Sektor Teknologi Informasi dan Komunikasi",
            "tanggal_terbit": "2023-07-13",
            "url_tdpse_detail": "https://pse.komdigi.go.id/tdpse-detail/15303",
            "website": "lifevitae.co"
        },
        {
            "id": "9cb1ac47-70ad-4cb3-902a-ae470575aae4",
            "nama_pse": "TEKNOLOGI BANGUNAN BERJAYA",
            "nama_se": "ARKOPAY.COM",
            "sektor": "Sektor Perdagangan, Sektor Teknologi Informasi dan Komunikasi",
            "tanggal_terbit": "2023-07-13",
            "url_tdpse_detail": "https://pse.komdigi.go.id/tdpse-detail/15305",
            "website": "Arkopay.com"
        },
        {
            "id": "9cb1ac37-a3c0-4b4c-8d51-fec0e1f73fd0",
            "nama_pse": "MEDIA REALITA SATU",
            "nama_se": "MEDIA REALITA SATU",
            "sektor": "Sektor Teknologi Informasi dan Komunikasi",
            "tanggal_terbit": "2023-07-13",
            "url_tdpse_detail": "https://pse.komdigi.go.id/tdpse-detail/15308",
            "website": "mediarealitasatu.com"
        },
        {
            "id": "9cb1ac25-3dfa-4ac0-86de-1c168461e911",
            "nama_pse": "TOP SMART",
            "nama_se": "ELINK",
            "sektor": "Sektor Kesehatan",
            "tanggal_terbit": "2023-07-13",
            "url_tdpse_detail": "https://pse.komdigi.go.id/tdpse-detail/15306",
            "website": "-"
        },
        {
            "id": "9cb1ac25-417b-4832-bde5-769f9c829815",
            "nama_pse": "ADWAN DWI SASONO",
            "nama_se": "MEDILIS HEALTH SYSTEM",
            "sektor": "Sektor Kesehatan",
            "tanggal_terbit": "2023-07-13",
            "url_tdpse_detail": "https://pse.komdigi.go.id/tdpse-detail/15307",
            "website": "-"
        },
        {
            "id": "9cb1ac23-9f81-4a02-afdf-4dce5f5d0fa7",
            "nama_pse": "PARAMITHA ADIKARYA TEKNOLOGI",
            "nama_se": "TRANSYS",
            "sektor": "Sektor Perdagangan, Sektor Transportasi",
            "tanggal_terbit": "2023-07-12",
            "url_tdpse_detail": "https://pse.komdigi.go.id/tdpse-detail/15291",
            "website": "paratekno.com"
        },
        {
            "id": "9cb1ac23-b373-4167-839b-bf7269066ee7",
            "nama_pse": "SERVER PULSA MASTERLOAD8",
            "nama_se": "MASTERLOAD8",
            "sektor": "Sektor Perdagangan, Sektor Teknologi Informasi dan Komunikasi",
            "tanggal_terbit": "2023-07-12",
            "url_tdpse_detail": "https://pse.komdigi.go.id/tdpse-detail/15293",
            "website": "-"
        },
        {
            "id": "9cb1ac37-81d8-4777-9e7e-398d318cfd56",
            "nama_pse": "BINTANG KARTIKA INTERNASIONAL MEDIA GROUP",
            "nama_se": "SURYA KENCANA NEWS",
            "sektor": "Sektor Teknologi Informasi dan Komunikasi",
            "tanggal_terbit": "2023-07-12",
            "url_tdpse_detail": "https://pse.komdigi.go.id/tdpse-detail/15283",
            "website": "-"
        },
        {
            "id": "9cb1ac47-43a6-40aa-88ed-60c54082402a",
            "nama_pse": "KABIN KITA TOP",
            "nama_se": "KABIN KITA TOP",
            "sektor": "Sektor Perdagangan, Sektor Transportasi, Sektor Teknologi Informasi dan Komunikasi",
            "tanggal_terbit": "2023-07-12",
            "url_tdpse_detail": "https://pse.komdigi.go.id/tdpse-detail/15284",
            "website": "-"
        },
        {
            "id": "9cb1ac37-94c2-4f55-ac95-85662d5fa9c8",
            "nama_pse": "EL HAKIM",
            "nama_se": "RS KHUSUS BEDAH RAWAMANGUN",
            "sektor": "Sektor Kesehatan",
            "tanggal_terbit": "2023-07-12",
            "url_tdpse_detail": "https://pse.komdigi.go.id/tdpse-detail/15285",
            "website": "rsrawamangun.com"
        },
        {
            "id": "9cb1ac47-5910-475a-8b31-4f8888217b96",
            "nama_pse": "SELUAS TANAH MERAH",
            "nama_se": "SELUAS TANAH MERAH",
            "sektor": "Sektor Teknologi Informasi dan Komunikasi",
            "tanggal_terbit": "2023-07-12",
            "url_tdpse_detail": "https://pse.komdigi.go.id/tdpse-detail/15290",
            "website": "tanahmerah.co.id"
        },
        {
            "id": "9cb1ac47-5bc8-4d1d-ac13-982774a1c135",
            "nama_pse": "KHEMAL ANDRIAS",
            "nama_se": "NEXT GENERATION INDONESIA",
            "sektor": "Sektor Teknologi Informasi dan Komunikasi",
            "tanggal_terbit": "2023-07-12",
            "url_tdpse_detail": "https://pse.komdigi.go.id/tdpse-detail/15289",
            "website": "nxgindonesia.or.id"
        },
        {
            "id": "9cb1ac25-23de-4241-a612-662920a91df1",
            "nama_pse": "PRODIA WIDYAHUSADA",
            "nama_se": "PRODIA FOR DOCTOR",
            "sektor": "Sektor Kesehatan",
            "tanggal_terbit": "2023-07-12",
            "url_tdpse_detail": "https://pse.komdigi.go.id/tdpse-detail/15288",
            "website": "-"
        },
        {
            "id": "9cb1ac37-9880-42e9-a36a-1c1d5065d316",
            "nama_pse": "PRODIA WIDYAHUSADA",
            "nama_se": "MY CORPORATE LAB",
            "sektor": "Sektor Kesehatan",
            "tanggal_terbit": "2023-07-12",
            "url_tdpse_detail": "https://pse.komdigi.go.id/tdpse-detail/15287",
            "website": "ccportal.prodia.co.id"
        },
        {
            "id": "9cb1ac47-6353-4b12-a5d7-72b9f2d53c41",
            "nama_pse": "SUARA INDEPENDEN JURNALIS INDONESIA",
            "nama_se": "SIJI.OR.ID",
            "sektor": "Sektor Teknologi Informasi dan Komunikasi",
            "tanggal_terbit": "2023-07-12",
            "url_tdpse_detail": "https://pse.komdigi.go.id/tdpse-detail/15294",
            "website": "siji.or.id"
        },
        {
            "id": "9cb1ac47-0e18-4699-b81f-3601907745e1",
            "nama_pse": "GLOBAL INVESTA CAKRAWALA",
            "nama_se": "GICTRADE",
            "sektor": "Sektor Teknologi Informasi dan Komunikasi",
            "tanggal_terbit": "2023-07-11",
            "url_tdpse_detail": "https://pse.komdigi.go.id/tdpse-detail/15272",
            "website": "gicindonesia.com"
        },
        {
            "id": "9cb1ac47-1536-4f1d-a73a-fc318ffec83d",
            "nama_pse": "BINTANG KARTIKA INTERNASIONAL MEDIA GROUP",
            "nama_se": "HARIAN INDONESIA",
            "sektor": "Sektor Teknologi Informasi dan Komunikasi",
            "tanggal_terbit": "2023-07-11",
            "url_tdpse_detail": "https://pse.komdigi.go.id/tdpse-detail/15280",
            "website": "-"
        },
        {
            "id": "9cb1ac47-321b-4bb6-8e44-2d629c280e9e",
            "nama_pse": "RESTU IBU UTAMA",
            "nama_se": "IHOSPITAL RS RESTU IBU",
            "sektor": "Sektor Kesehatan",
            "tanggal_terbit": "2023-07-11",
            "url_tdpse_detail": "https://pse.komdigi.go.id/tdpse-detail/15269",
            "website": "simrs.restuibu.co.id"
        },
        {
            "id": "9cb1ac47-3967-457e-bbc3-2c573e50eb12",
            "nama_pse": "BADAN WAKAF SULTAN AGUNG",
            "nama_se": "SIMRS RSIGM SULA",
            "sektor": "Sektor Kesehatan",
            "tanggal_terbit": "2023-07-11",
            "url_tdpse_detail": "https://pse.komdigi.go.id/tdpse-detail/15273",
            "website": "-"
        }
    ],
    "processingTimeMs": 3,
    "query": "",
    "totalHits": 19121,
    "hitsPerPage": 50,
    "page": 131,
    "totalPages": 383
}