{
    "hits": [
        {
            "id": "9cb1ac06-4b76-44ae-b6ed-ae3c17fed6a3",
            "nama_pse": "ABUDI CIPTA KREASI",
            "nama_se": "AKTIVITAS PEMROGRAMAN KOMPUTER LAINNYA",
            "sektor": "Sektor Teknologi Informasi dan Komunikasi",
            "tanggal_terbit": "2022-11-08",
            "url_tdpse_detail": "https://pse.komdigi.go.id/tdpse-detail/12178",
            "website": "-"
        },
        {
            "id": "9cb1ac03-edac-4e05-8d2d-abce6795df86",
            "nama_pse": "FERY FERDIAN",
            "nama_se": "OUTFIT CLAIM",
            "sektor": "Sektor Teknologi Informasi dan Komunikasi",
            "tanggal_terbit": "2022-10-12",
            "url_tdpse_detail": "https://pse.komdigi.go.id/tdpse-detail/11772",
            "website": "-"
        },
        {
            "id": "9cb1abde-bfec-43f8-8ae4-a42f18151b6c",
            "nama_pse": "NURILLAH ABDUL AZIS",
            "nama_se": "SHOPEEPAY",
            "sektor": "Sektor Perdagangan",
            "tanggal_terbit": "2022-10-07",
            "url_tdpse_detail": "https://pse.komdigi.go.id/tdpse-detail/11596",
            "website": "Shopee.com"
        },
        {
            "id": "9cb1ac02-0d80-4f2d-adb6-6158439ad561",
            "nama_pse": "VIUNIC BEAUTY STORE",
            "nama_se": "TIKTOK",
            "sektor": "Sektor Perdagangan",
            "tanggal_terbit": "2022-09-27",
            "url_tdpse_detail": "https://pse.komdigi.go.id/tdpse-detail/11374",
            "website": "tiktok.com"
        },
        {
            "id": "9cb1ac02-10d7-439f-b669-6dea104745da",
            "nama_pse": "VIUNIC BEAUTY STORE",
            "nama_se": "SHOPEE, TOKOPEDIA, INSTAGRAM, BUKALAPAK, TIKTOK",
            "sektor": "Sektor Perdagangan",
            "tanggal_terbit": "2022-09-27",
            "url_tdpse_detail": "https://pse.komdigi.go.id/tdpse-detail/11376",
            "website": "-"
        },
        {
            "id": "9cb1abdc-52d2-407b-a7e0-9ecabe7fe65d",
            "nama_pse": "BERSERAH BERSYUKUR BERUSAHA",
            "nama_se": "AYOSTORE",
            "sektor": "Sektor Teknologi Informasi dan Komunikasi",
            "tanggal_terbit": "2022-09-20",
            "url_tdpse_detail": "https://pse.komdigi.go.id/tdpse-detail/11259",
            "website": "Ayostore.id"
        },
        {
            "id": "9cb1abff-be48-491b-a52f-0de38a911ced",
            "nama_pse": "BRILLIANT FUTURE TECHNOLOGY",
            "nama_se": "CANDY",
            "sektor": "Sektor Teknologi Informasi dan Komunikasi",
            "tanggal_terbit": "2022-09-05",
            "url_tdpse_detail": "https://pse.komdigi.go.id/tdpse-detail/10931",
            "website": "candylive.xyz"
        },
        {
            "id": "9cb1aba6-239b-41ad-bf38-2ffd6593f60d",
            "nama_pse": "BRILLIANT FUTURE TECHNOLOGY",
            "nama_se": "CANDY LIVE",
            "sektor": "Sektor Teknologi Informasi dan Komunikasi",
            "tanggal_terbit": "2022-09-05",
            "url_tdpse_detail": "https://pse.komdigi.go.id/tdpse-detail/5405",
            "website": "candylive.xyz"
        },
        {
            "id": "9cb1abda-3cb3-49c0-9462-335d0c084936",
            "nama_pse": "BRILLIANT FUTURE TECHNOLOGY",
            "nama_se": "MANGO",
            "sektor": "Sektor Teknologi Informasi dan Komunikasi",
            "tanggal_terbit": "2022-09-05",
            "url_tdpse_detail": "https://pse.komdigi.go.id/tdpse-detail/10934",
            "website": "mangolive.net"
        },
        {
            "id": "9cb1abfe-4976-40ef-8ec9-d2291f8d9e29",
            "nama_pse": "LIONARDI URSAPUTRA PRATAMA",
            "nama_se": "DUSUNLOWOK.WEB.ID",
            "sektor": "Sektor Perdagangan, Sektor Teknologi Informasi dan Komunikasi",
            "tanggal_terbit": "2022-08-19",
            "url_tdpse_detail": "https://pse.komdigi.go.id/tdpse-detail/10603",
            "website": "dusunlowok.web.id"
        },
        {
            "id": "9cb1abd7-c0ba-490b-aef6-5429b77063ac",
            "nama_pse": "KARYA TEMAN INDONESIA",
            "nama_se": "TEMANKASIR",
            "sektor": "Sektor Teknologi Informasi dan Komunikasi",
            "tanggal_terbit": "2022-08-17",
            "url_tdpse_detail": "https://pse.komdigi.go.id/tdpse-detail/10462",
            "website": "temankasir.com"
        },
        {
            "id": "9cb1ac0b-0a62-4213-aabc-0c851c39ceed",
            "nama_pse": "RUMAH TERNAK NUSANTARA",
            "nama_se": "PT RUMAH TERNAK NUSANTARA",
            "sektor": "Sektor Perdagangan, Sektor Pangan",
            "tanggal_terbit": "2022-08-09",
            "url_tdpse_detail": "https://pse.komdigi.go.id/tdpse-detail/10151",
            "website": "-"
        },
        {
            "id": "9cb1abd1-90fe-45df-94f3-360f3021dba2",
            "nama_pse": "TEKNOLOGI USAHA SUKSES BERSAMA",
            "nama_se": "DOKUSIGN MANAJEMEN DOKUMEN DIGITAL DAN TANDATANGAN ELEKTRONIK UNTUK PRIBADI DAN ORGANISASI",
            "sektor": "Sektor Teknologi Informasi dan Komunikasi",
            "tanggal_terbit": "2022-07-30",
            "url_tdpse_detail": "https://pse.komdigi.go.id/tdpse-detail/9444",
            "website": "dokusign.id"
        },
        {
            "id": "9cb1abd0-f03f-4e0e-85ba-db1532c578c8",
            "nama_pse": "BANK PERKREDITAN RAKYAT ARTHA DAYA",
            "nama_se": "PT BPR ARTHA DAYA",
            "sektor": "Sektor Keuangan",
            "tanggal_terbit": "2022-07-29",
            "url_tdpse_detail": "https://pse.komdigi.go.id/tdpse-detail/9365",
            "website": "bprarthadaya.com"
        },
        {
            "id": "9cb1abf4-825e-4c54-bb2f-ad7ac8d6ed00",
            "nama_pse": "BOYAA INTERACTIVE INDONESIA",
            "nama_se": "DOMINO GAPLE BOYA:QIUQIU CAPSA",
            "sektor": "Sektor Teknologi Informasi dan Komunikasi",
            "tanggal_terbit": "2022-07-27",
            "url_tdpse_detail": "https://pse.komdigi.go.id/tdpse-detail/9107",
            "website": "boyaa.id"
        },
        {
            "id": "9cb1abbe-3c25-4651-90cc-449083ffa787",
            "nama_pse": "BOYAA INTERACTIVE INDONESIA",
            "nama_se": "POKER PRO.ID",
            "sektor": "Sektor Teknologi Informasi dan Komunikasi",
            "tanggal_terbit": "2022-07-27",
            "url_tdpse_detail": "https://pse.komdigi.go.id/tdpse-detail/9138",
            "website": "vip.boyaa.com"
        },
        {
            "id": "9cb1abbd-b811-4ba3-91ab-e0d8d61954b3",
            "nama_pse": "BOYAA INTERACTIVE INDONESIA",
            "nama_se": "POKER TEXAS BOYAA",
            "sektor": "Sektor Teknologi Informasi dan Komunikasi",
            "tanggal_terbit": "2022-07-26",
            "url_tdpse_detail": "https://pse.komdigi.go.id/tdpse-detail/9045",
            "website": "boyaa.id"
        },
        {
            "id": "9cb1abbd-89ca-4dd1-a188-4c230c92eeef",
            "nama_pse": "BOYAA INTERACTIVE INDONESIA",
            "nama_se": "DOMINO QIUQIU 99 BOYAA QQ KIU",
            "sektor": "Sektor Teknologi Informasi dan Komunikasi",
            "tanggal_terbit": "2022-07-25",
            "url_tdpse_detail": "https://pse.komdigi.go.id/tdpse-detail/8986",
            "website": "-"
        },
        {
            "id": "9cb1abcd-7471-4879-9595-c0f71ec90055",
            "nama_pse": "TEKNOLOGI USAHA SUKSES BERSAMA",
            "nama_se": "HOOKUM",
            "sektor": "Sektor Teknologi Informasi dan Komunikasi",
            "tanggal_terbit": "2022-07-25",
            "url_tdpse_detail": "https://pse.komdigi.go.id/tdpse-detail/8941",
            "website": "hookum.id"
        },
        {
            "id": "9cb1abcc-7a9b-46e3-9b84-73994a36c0ef",
            "nama_pse": "BANK PEREKONOMIAN RAKYAT BADAN KREDIT KECAMATAN TASIKMADU PERSERODA KABUPATEN KARANGANYAR",
            "nama_se": "WHATSAPP BANKING SYSTEM",
            "sektor": "Sektor Keuangan",
            "tanggal_terbit": "2022-07-22",
            "url_tdpse_detail": "https://pse.komdigi.go.id/tdpse-detail/8757",
            "website": "-"
        },
        {
            "id": "9cb1abf2-f6c4-4fcb-ad8c-f24607344e66",
            "nama_pse": "INDAH YATAMA",
            "nama_se": "IYA165",
            "sektor": "Sektor Teknologi Informasi dan Komunikasi",
            "tanggal_terbit": "2022-07-22",
            "url_tdpse_detail": "https://pse.komdigi.go.id/tdpse-detail/8858",
            "website": "iya165.com"
        },
        {
            "id": "9cb1abcb-4ab5-4c46-8cd6-de79fd37070e",
            "nama_pse": "BANK PERKREDITAN RAKYAT DANA SANGGAU MANDIRI",
            "nama_se": "WEBSITE BPR DSM",
            "sektor": "Sektor Keuangan",
            "tanggal_terbit": "2022-07-21",
            "url_tdpse_detail": "https://pse.komdigi.go.id/tdpse-detail/8599",
            "website": "wordpress.com"
        },
        {
            "id": "9cb1abf1-53cc-4570-a80e-02ec355e0a34",
            "nama_pse": "BPR BANK SOLO",
            "nama_se": "WHATSAPP BANKING SYSTEM BANK SOLO",
            "sektor": "Sektor Teknologi Informasi dan Komunikasi",
            "tanggal_terbit": "2022-07-21",
            "url_tdpse_detail": "https://pse.komdigi.go.id/tdpse-detail/8617",
            "website": "-"
        },
        {
            "id": "9cb1abf1-d259-411a-bc8d-44000b88192d",
            "nama_pse": "BANK PERKREDITAN RAKYAT BANK DAERAH KARANGANYAR PERSERODA",
            "nama_se": "WHAT.IF WHATSAPP NOTIFICATION PT. BPR BANK DAERAH KARANGANYAR (PERSERODA)",
            "sektor": "Sektor Keuangan",
            "tanggal_terbit": "2022-07-21",
            "url_tdpse_detail": "https://pse.komdigi.go.id/tdpse-detail/8678",
            "website": "-"
        },
        {
            "id": "9cb1abb7-b2ed-4a56-b735-acb81b2c7ccc",
            "nama_pse": "BANK PEREKONOMIAN RAKYAT ARTHA NUSANTARA ABADI",
            "nama_se": "FACEBOOK BPR ANA",
            "sektor": "Sektor Keuangan",
            "tanggal_terbit": "2022-07-20",
            "url_tdpse_detail": "https://pse.komdigi.go.id/tdpse-detail/7334",
            "website": "-"
        },
        {
            "id": "9cb1abe9-4885-4071-898d-9929b45f34a5",
            "nama_pse": "BANK PEREKONOMIAN RAKYAT ARTHA NUSANTARA ABADI",
            "nama_se": "WHATSAPP BPR ANA - 082223755562",
            "sektor": "Sektor Keuangan",
            "tanggal_terbit": "2022-07-20",
            "url_tdpse_detail": "https://pse.komdigi.go.id/tdpse-detail/7365",
            "website": "-"
        },
        {
            "id": "9cb1abe9-8d24-4dda-be8b-46b02c7ff032",
            "nama_pse": "BANK PEREKONOMIAN RAKYAT ARTHA NUSANTARA ABADI",
            "nama_se": "WHATSAPP BPR ANA - 081222554596",
            "sektor": "Sektor Keuangan",
            "tanggal_terbit": "2022-07-20",
            "url_tdpse_detail": "https://pse.komdigi.go.id/tdpse-detail/7406",
            "website": "-"
        },
        {
            "id": "9cb1abb8-669b-4c37-b3e4-5545e870f839",
            "nama_pse": "BANK PEREKONOMIAN RAKYAT MERTOYUDAN MAKMUR",
            "nama_se": "INSTAGRAM",
            "sektor": "Sektor Keuangan",
            "tanggal_terbit": "2022-07-20",
            "url_tdpse_detail": "https://pse.komdigi.go.id/tdpse-detail/7538",
            "website": "-"
        },
        {
            "id": "9cb1abc4-17a9-482f-904d-e282ef760854",
            "nama_pse": "BANK PERKREDITAN RAKYAT KARYA BAKTI SEJAHTERA",
            "nama_se": "BPR KBS (INSTAGRAM)",
            "sektor": "Sektor Keuangan",
            "tanggal_terbit": "2022-07-20",
            "url_tdpse_detail": "https://pse.komdigi.go.id/tdpse-detail/7570",
            "website": "instagram.com"
        },
        {
            "id": "9cb1abba-91f1-4b25-af62-462ca3e413eb",
            "nama_pse": "SANDINA ABADI NUSANTARA",
            "nama_se": "WORLDCOIN",
            "sektor": "Sektor Perdagangan, Sektor Teknologi Informasi dan Komunikasi",
            "tanggal_terbit": "2022-07-20",
            "url_tdpse_detail": "https://pse.komdigi.go.id/tdpse-detail/8161",
            "website": "worldcoin.org"
        },
        {
            "id": "9cb1abc8-8571-4544-9fcb-d6e24b2f19c5",
            "nama_pse": "SANDINA ABADI NUSANTARA",
            "nama_se": "WORLDCOIN.ORG",
            "sektor": "Sektor Perdagangan, Sektor Teknologi Informasi dan Komunikasi",
            "tanggal_terbit": "2022-07-20",
            "url_tdpse_detail": "https://pse.komdigi.go.id/tdpse-detail/8216",
            "website": "worldcoin.org"
        },
        {
            "id": "9cb1abef-9476-4fd0-ad16-cf886728180f",
            "nama_pse": "DEWANDARU NUSANTARA",
            "nama_se": "SIPPSI",
            "sektor": "Sektor Teknologi Informasi dan Komunikasi",
            "tanggal_terbit": "2022-07-20",
            "url_tdpse_detail": "https://pse.komdigi.go.id/tdpse-detail/8354",
            "website": "sippsi.id"
        },
        {
            "id": "9cb1abb5-5c36-40ad-a311-5c920611f9a5",
            "nama_pse": "BANK MANDIRI TASPEN",
            "nama_se": "WHATSAPP BANKING",
            "sektor": "Sektor Keuangan",
            "tanggal_terbit": "2022-07-19",
            "url_tdpse_detail": "https://pse.komdigi.go.id/tdpse-detail/6641",
            "website": "panel.damcorp.id"
        },
        {
            "id": "9cb1abe6-d2bd-41f8-8b2b-9c7953c3cafd",
            "nama_pse": "INTERNUSA TERUS JAYA",
            "nama_se": "YOUTUBE (KLEANER INDONESIA)",
            "sektor": "Sektor Perdagangan",
            "tanggal_terbit": "2022-07-19",
            "url_tdpse_detail": "https://pse.komdigi.go.id/tdpse-detail/7019",
            "website": "-"
        },
        {
            "id": "9cb1abe7-e8a1-417a-922a-c7d6848a5b7f",
            "nama_pse": "USSI",
            "nama_se": "IBSS CORE BANKING SYSTEM",
            "sektor": "Sektor Teknologi Informasi dan Komunikasi",
            "tanggal_terbit": "2022-07-19",
            "url_tdpse_detail": "https://pse.komdigi.go.id/tdpse-detail/7192",
            "website": "ussipgs.com"
        },
        {
            "id": "9cb1abb5-93d2-4425-a16a-80b20009797c",
            "nama_pse": "USSI PINBUK PRIMA SOFTWARE",
            "nama_se": "IBS CORE BANKING SYSTEM",
            "sektor": "Sektor Teknologi Informasi dan Komunikasi",
            "tanggal_terbit": "2022-07-19",
            "url_tdpse_detail": "https://pse.komdigi.go.id/tdpse-detail/6715",
            "website": "ussi-software.com"
        },
        {
            "id": "9cb1abb6-fcc0-4ed8-bcdf-6c66ac55db0d",
            "nama_pse": "KIOS TEKNOLOGI INDONESIA",
            "nama_se": "CENTER KIOSIN",
            "sektor": "Sektor Perdagangan, Sektor Teknologi Informasi dan Komunikasi",
            "tanggal_terbit": "2022-07-19",
            "url_tdpse_detail": "https://pse.komdigi.go.id/tdpse-detail/7129",
            "website": "center.kiosindonesia.com"
        },
        {
            "id": "9cb1abb7-488a-4d54-8653-a8132470d2b1",
            "nama_pse": "KIOS TEKNOLOGI INDONESIA",
            "nama_se": "HOST KIOSINDONESIA",
            "sektor": "Sektor Perdagangan, Sektor Teknologi Informasi dan Komunikasi",
            "tanggal_terbit": "2022-07-19",
            "url_tdpse_detail": "https://pse.komdigi.go.id/tdpse-detail/7202",
            "website": "host.kiosindonesia.com"
        },
        {
            "id": "9cb1aba8-56aa-4f8c-87e2-31fc01ce07ed",
            "nama_pse": "BANK PERKREDITAN RAKYAT SUPRA ARTAPERSADA",
            "nama_se": "WHATSAPP BUSINESS BPR SUPRA",
            "sektor": "Sektor Keuangan",
            "tanggal_terbit": "2022-07-18",
            "url_tdpse_detail": "https://pse.komdigi.go.id/tdpse-detail/6137",
            "website": "chat.wappin.id"
        },
        {
            "id": "9cb1abb3-1d5e-4e09-b8ad-98c6c61caec7",
            "nama_pse": "BANK PEREKONOMIAN RAKYAT SURYA UTAMA",
            "nama_se": "WHATSAPP PT BPR SURYA UTAMA",
            "sektor": "Sektor Keuangan",
            "tanggal_terbit": "2022-07-18",
            "url_tdpse_detail": "https://pse.komdigi.go.id/tdpse-detail/6335",
            "website": "-"
        },
        {
            "id": "9cb1aba8-ab74-43fb-a80d-25e8dc01c4b2",
            "nama_pse": "BANK PERKREDITAN RAKYAT MODERN EXPRESS SULAWESI SELATAN",
            "nama_se": "DIGITAL MODERN (DIGIMOD) E-COLLECTION - BPR MODERN EXPRESS SULAWESI SELATAN",
            "sektor": "Sektor Keuangan",
            "tanggal_terbit": "2022-07-18",
            "url_tdpse_detail": "https://pse.komdigi.go.id/tdpse-detail/6218",
            "website": "-"
        },
        {
            "id": "9cb1abb2-910e-45c4-aca2-4d66313e39f7",
            "nama_pse": "BANK PERKREDITAN RAKYAT MODERN EXPRESS SULAWESI SELATAN",
            "nama_se": "WEBSITE PERUSAHAAN BPR MODERN EXPRESS SULAWESI SELATAN",
            "sektor": "Sektor Keuangan",
            "tanggal_terbit": "2022-07-18",
            "url_tdpse_detail": "https://pse.komdigi.go.id/tdpse-detail/6190",
            "website": "bprmodex-sulsel.com"
        },
        {
            "id": "9cb1abb2-9836-4267-b3ba-423d9bfd63bc",
            "nama_pse": "BANK PERKREDITAN RAKYAT MODERN EXPRESS SULAWESI SELATAN",
            "nama_se": "DIGITAL MODERN (DIGIMOD) E-LOAN - BPR MODERN EXPRESS SULAWESI SELATAN",
            "sektor": "Sektor Keuangan",
            "tanggal_terbit": "2022-07-18",
            "url_tdpse_detail": "https://pse.komdigi.go.id/tdpse-detail/6197",
            "website": "digimod.bprmodernmakassar.com"
        },
        {
            "id": "9cb1abb3-df99-48a0-be21-437489b5e26f",
            "nama_pse": "BANK PERKREDITAN RAKYAT MODERN EXPRESS SULAWESI SELATAN",
            "nama_se": "SMS MACROKIOSK (OTP) - BPR MODERN EXPRESS SULAWESI SELATAN",
            "sektor": "Sektor Keuangan",
            "tanggal_terbit": "2022-07-18",
            "url_tdpse_detail": "https://pse.komdigi.go.id/tdpse-detail/6229",
            "website": "boldpass.com"
        },
        {
            "id": "9cb1abb2-b8ac-420e-8a10-a7c915c63b4b",
            "nama_pse": "BANK PERKREDITAN RAKYAT MODERN EXPRESS SULAWESI SELATAN",
            "nama_se": "DIGITAL MODERN (DIGIMOD) E-LOAN CUSTOMER -  BPR MODERN EXPRESS SULAWESI SELATAN",
            "sektor": "Sektor Keuangan",
            "tanggal_terbit": "2022-07-18",
            "url_tdpse_detail": "https://pse.komdigi.go.id/tdpse-detail/6208",
            "website": "kredit.bprmodernmakassar.com"
        },
        {
            "id": "9cb1abbf-af6b-4d17-9186-975206d17524",
            "nama_pse": "PALUGADA SUMBER SUKSES",
            "nama_se": "WEBSITE FLASALE",
            "sektor": "Sektor Perdagangan, Sektor Teknologi Informasi dan Komunikasi",
            "tanggal_terbit": "2022-07-18",
            "url_tdpse_detail": "https://pse.komdigi.go.id/tdpse-detail/6506",
            "website": "flasale.co"
        },
        {
            "id": "9cb1aba7-ed52-41c7-be6e-080fb5ab2581",
            "nama_pse": "PALUGADA SUMBER SUKSES",
            "nama_se": "APLIKASI FKIOS",
            "sektor": "Sektor Perdagangan, Sektor Teknologi Informasi dan Komunikasi",
            "tanggal_terbit": "2022-07-16",
            "url_tdpse_detail": "https://pse.komdigi.go.id/tdpse-detail/5966",
            "website": "fkios.io"
        },
        {
            "id": "9cb1ab9c-a049-478d-8bee-2f10d86d41af",
            "nama_pse": "BANK PERKREDITAN RAKYAT PALU LOKADANA UTAMA",
            "nama_se": "WHATSAPP BISNIS - BPR PALU LOKADANA UTAMA",
            "sektor": "Sektor Keuangan",
            "tanggal_terbit": "2022-07-15",
            "url_tdpse_detail": "https://pse.komdigi.go.id/tdpse-detail/5825",
            "website": "panel.damcorp.id"
        },
        {
            "id": "9cb1ab9c-cd8e-4008-9324-c734df771ee5",
            "nama_pse": "BANK PEREKONOMIAN RAKYAT KARYAJATNIKA SADAYA",
            "nama_se": "WA BUSINESS BPRKS",
            "sektor": "Sektor Keuangan",
            "tanggal_terbit": "2022-07-15",
            "url_tdpse_detail": "https://pse.komdigi.go.id/tdpse-detail/5880",
            "website": "panel.damcorp.id"
        },
        {
            "id": "9cb1aba7-6136-48e3-8b03-fd0f29c65aec",
            "nama_pse": "KIMOPAY TEKNOLOGI DIGITAL",
            "nama_se": "KIMOPAY",
            "sektor": "Sektor Perdagangan",
            "tanggal_terbit": "2022-07-15",
            "url_tdpse_detail": "https://pse.komdigi.go.id/tdpse-detail/5827",
            "website": "-"
        }
    ],
    "processingTimeMs": 1,
    "query": "",
    "totalHits": 414,
    "hitsPerPage": 50,
    "page": 6,
    "totalPages": 9
}