{
    "hits": [
        {
            "id": "9cb1abbf-00dd-437d-b8df-3e98b48c6b18",
            "nama_pse": "BANK PEMBANGUNAN DAERAH JAWA TIMUR",
            "nama_se": "JATIM ELEKTRONIK TRANSFER SISTEM (JETS)",
            "sektor": "Sektor Keuangan, Sektor Teknologi Informasi dan Komunikasi",
            "tanggal_terbit": "2022-07-18",
            "url_tdpse_detail": "https://pse.komdigi.go.id/tdpse-detail/6361",
            "website": "jets.bankjatim.co.id"
        },
        {
            "id": "9cb1abb3-2ee3-4d6c-bee8-2a1d4855c6f0",
            "nama_pse": "AHMAD AUFA MUSTAHDI",
            "nama_se": "SUBANG PEDIA",
            "sektor": "Sektor Perdagangan",
            "tanggal_terbit": "2022-07-18",
            "url_tdpse_detail": "https://pse.komdigi.go.id/tdpse-detail/6363",
            "website": "subangpedia.com"
        },
        {
            "id": "9cb1abb3-31e2-4ab5-983f-6ef177f50278",
            "nama_pse": "BANK PERKREDITAN RAKYAT MODERN EXPRESS JATENG",
            "nama_se": "DIGITAL MODERN (DIGIMOD) E-LOAN CUSTOMER-BPR MODERN EXPRESS JATENG",
            "sektor": "Sektor Keuangan",
            "tanggal_terbit": "2022-07-18",
            "url_tdpse_detail": "https://pse.komdigi.go.id/tdpse-detail/6364",
            "website": "kredit.bprmodernsemarang.com"
        },
        {
            "id": "9cb1abb3-36ef-4ab7-ac6a-89472e92bb81",
            "nama_pse": "BANK PEMBANGUNAN DAERAH JAWA TIMUR",
            "nama_se": "E-MAIL BANK JATIM",
            "sektor": "Sektor Keuangan, Sektor Teknologi Informasi dan Komunikasi",
            "tanggal_terbit": "2022-07-18",
            "url_tdpse_detail": "https://pse.komdigi.go.id/tdpse-detail/6365",
            "website": "mail.bankjatim.co.id"
        },
        {
            "id": "9cb1abb3-3905-4464-a5c4-ec65ba97a34d",
            "nama_pse": "BANK PERKREDITAN RAKYAT MODERN EXPRESS JATENG",
            "nama_se": "DIGITAL MODERN (DIGIMOD) E-COLLECTION-BPR MODERN EXPRESS JATENG",
            "sektor": "Sektor Keuangan",
            "tanggal_terbit": "2022-07-18",
            "url_tdpse_detail": "https://pse.komdigi.go.id/tdpse-detail/6368",
            "website": "-"
        },
        {
            "id": "9cb1abb4-6481-4656-b3e0-d6d85da855fa",
            "nama_pse": "BANK PEREKONOMIAN RAKYAT SURYA YUDHAKENCANA",
            "nama_se": "BSY TRANSAKSI DIGITAL (TD)",
            "sektor": "Sektor Keuangan",
            "tanggal_terbit": "2022-07-18",
            "url_tdpse_detail": "https://pse.komdigi.go.id/tdpse-detail/6370",
            "website": "-"
        },
        {
            "id": "9cb1abb3-3d4b-40fd-8bf3-f18682c77aa9",
            "nama_pse": "BANK PEREKONOMIAN RAKYAT CINDE WILIS",
            "nama_se": "WEBSITE BPR WILIS",
            "sektor": "Sektor Keuangan",
            "tanggal_terbit": "2022-07-18",
            "url_tdpse_detail": "https://pse.komdigi.go.id/tdpse-detail/6423",
            "website": "bprwilis.co.id"
        },
        {
            "id": "9cb1abb3-3f62-41cf-89a9-90d73c479f2a",
            "nama_pse": "BANK PEMBANGUNAN DAERAH JAWA TIMUR",
            "nama_se": "MARKETING ACTION PROGRAM (MAP)",
            "sektor": "Sektor Keuangan, Sektor Teknologi Informasi dan Komunikasi",
            "tanggal_terbit": "2022-07-18",
            "url_tdpse_detail": "https://pse.komdigi.go.id/tdpse-detail/6367",
            "website": "map.bankjatim.co.id"
        },
        {
            "id": "9cb1abbf-03ee-4924-b645-bfc183ab053e",
            "nama_pse": "BANK PEMBANGUNAN DAERAH JAWA TIMUR",
            "nama_se": "VENDOR MANAGEMENT SYSTEM",
            "sektor": "Sektor Keuangan, Sektor Teknologi Informasi dan Komunikasi",
            "tanggal_terbit": "2022-07-18",
            "url_tdpse_detail": "https://pse.komdigi.go.id/tdpse-detail/6371",
            "website": "vms.bankjatim.co.id"
        },
        {
            "id": "9cb1abbf-0636-4966-9ef8-38724fd3c5a2",
            "nama_pse": "BANK RAYA INDONESIA",
            "nama_se": "API SDM BANK RAYA",
            "sektor": "Sektor Keuangan",
            "tanggal_terbit": "2022-07-18",
            "url_tdpse_detail": "https://pse.komdigi.go.id/tdpse-detail/6378",
            "website": "api.sdm-mobile.bankraya.co.id"
        },
        {
            "id": "9cb1abbf-0813-4915-b6f3-d3325e405a7e",
            "nama_pse": "SINERGI DIGITAL PUTRA",
            "nama_se": "SINERGI",
            "sektor": "Sektor Perdagangan, Sektor Teknologi Informasi dan Komunikasi",
            "tanggal_terbit": "2022-07-18",
            "url_tdpse_detail": "https://pse.komdigi.go.id/tdpse-detail/6399",
            "website": "-"
        },
        {
            "id": "9cb1abb3-4163-41a8-aa81-016ae595563b",
            "nama_pse": "BANK PEREKONOMIAN RAKYAT JUWANA ARTHA SENTOSA",
            "nama_se": "PT. BPR JUWANA ARTHA SENTOSA",
            "sektor": "Sektor Keuangan",
            "tanggal_terbit": "2022-07-18",
            "url_tdpse_detail": "https://pse.komdigi.go.id/tdpse-detail/6375",
            "website": "bprjas.com"
        },
        {
            "id": "9cb1abb3-5eb0-4a42-b105-54a838a5b88f",
            "nama_pse": "SAE GERBANG PEMBAYARAN",
            "nama_se": "SAEPAY",
            "sektor": "Sektor Keuangan",
            "tanggal_terbit": "2022-07-18",
            "url_tdpse_detail": "https://pse.komdigi.go.id/tdpse-detail/6401",
            "website": "saepay.id"
        },
        {
            "id": "9cb1abb3-61e4-42f4-b668-a15d312380f3",
            "nama_pse": "JARI SOLUSI INTERNATIONAL",
            "nama_se": "JARI MOBILE COLLECTION",
            "sektor": "Sektor Perdagangan",
            "tanggal_terbit": "2022-07-18",
            "url_tdpse_detail": "https://pse.komdigi.go.id/tdpse-detail/6404",
            "website": "jari.co.id"
        },
        {
            "id": "9cb1abb3-64c1-4342-951e-943c3cedc982",
            "nama_pse": "NDAN BABAN SOBANA",
            "nama_se": "TOPUP KUOTA",
            "sektor": "Sektor Perdagangan",
            "tanggal_terbit": "2022-07-18",
            "url_tdpse_detail": "https://pse.komdigi.go.id/tdpse-detail/6403",
            "website": "topupkuota.com"
        },
        {
            "id": "9cb1abb4-76ea-4982-9a6d-d76844789497",
            "nama_pse": "NEQODE RETHA INDONESIA",
            "nama_se": "SEKOLAH MODERN",
            "sektor": "Sektor Teknologi Informasi dan Komunikasi",
            "tanggal_terbit": "2022-07-18",
            "url_tdpse_detail": "https://pse.komdigi.go.id/tdpse-detail/6402",
            "website": "sekolahmodern.com"
        },
        {
            "id": "9cb1abb4-79aa-4e18-94b9-65d0357f9433",
            "nama_pse": "RICHNITAS GLOBAL SEJAHTERA",
            "nama_se": "RICHNITY",
            "sektor": "Sektor Perdagangan",
            "tanggal_terbit": "2022-07-18",
            "url_tdpse_detail": "https://pse.komdigi.go.id/tdpse-detail/6454",
            "website": "richnity.com"
        },
        {
            "id": "9cb1abb3-67b0-4ce4-918b-e8e65089d56e",
            "nama_pse": "RELIANCEINTEGRASI DUNIA ANDA",
            "nama_se": "ABHOME APPS",
            "sektor": "Sektor Teknologi Informasi dan Komunikasi",
            "tanggal_terbit": "2022-07-18",
            "url_tdpse_detail": "https://pse.komdigi.go.id/tdpse-detail/6405",
            "website": "-"
        },
        {
            "id": "9cb1abbf-2079-494c-86cb-15441b6ac1bf",
            "nama_pse": "NEQODE RETHA INDONESIA",
            "nama_se": "ABSEN AJA",
            "sektor": "Sektor Teknologi Informasi dan Komunikasi",
            "tanggal_terbit": "2022-07-18",
            "url_tdpse_detail": "https://pse.komdigi.go.id/tdpse-detail/6406",
            "website": "absenaja.com"
        },
        {
            "id": "9cb1abb3-6a49-4cc5-b717-5f706eadbf79",
            "nama_pse": "PENTA SOFTWARE INDONESIA",
            "nama_se": "PENTASI KONSULTASI",
            "sektor": "Sektor Teknologi Informasi dan Komunikasi",
            "tanggal_terbit": "2022-07-18",
            "url_tdpse_detail": "https://pse.komdigi.go.id/tdpse-detail/6407",
            "website": "pentasi.net"
        },
        {
            "id": "9cb1abb3-6ca6-454b-a96f-49669437521a",
            "nama_pse": "MUDA HITAKARYA SEJAHTERA",
            "nama_se": "DDENGINE",
            "sektor": "Sektor Perdagangan",
            "tanggal_terbit": "2022-07-18",
            "url_tdpse_detail": "https://pse.komdigi.go.id/tdpse-detail/6408",
            "website": "ddpulsaengine.com"
        },
        {
            "id": "9cb1abb4-7fc7-4cf4-9982-131d2551757e",
            "nama_pse": "KB FINANSIA MULTI FINANCE",
            "nama_se": "KPHUB",
            "sektor": "Sektor Keuangan, Sektor Teknologi Informasi dan Komunikasi",
            "tanggal_terbit": "2022-07-18",
            "url_tdpse_detail": "https://pse.komdigi.go.id/tdpse-detail/6409",
            "website": "Kreditplus.com"
        },
        {
            "id": "9cb1abb4-85ac-40b1-b1a9-5de23ec75c0c",
            "nama_pse": "BANK PERKREDITAN RAKYAT CITRA DANA MANDIRI",
            "nama_se": "BANK PERKREDITAN RAKYAT CITRA DANA MANDIRI",
            "sektor": "Sektor Keuangan",
            "tanggal_terbit": "2022-07-18",
            "url_tdpse_detail": "https://pse.komdigi.go.id/tdpse-detail/6410",
            "website": "bankcitra.co.id"
        },
        {
            "id": "9cb1abbf-2544-471e-bb3e-65d5d5dac36d",
            "nama_pse": "BANK PEREKONOMIAN RAKYAT SURYA YUDHAKENCANA",
            "nama_se": "EMAIL PERUSAHAAN",
            "sektor": "Sektor Keuangan",
            "tanggal_terbit": "2022-07-18",
            "url_tdpse_detail": "https://pse.komdigi.go.id/tdpse-detail/6413",
            "website": "suryayudha.id"
        },
        {
            "id": "9cb1abbf-27d6-433c-9e70-66083c92399f",
            "nama_pse": "LAYANAN INTEGRASI TEKNOLOGI",
            "nama_se": "VOLTARA",
            "sektor": "Sektor Energi dan Sumber Daya Mineral",
            "tanggal_terbit": "2022-07-18",
            "url_tdpse_detail": "https://pse.komdigi.go.id/tdpse-detail/6411",
            "website": "voltara.id"
        },
        {
            "id": "9cb1abbf-2eaf-43a4-a534-f8bd49f32734",
            "nama_pse": "BANK RAYA INDONESIA",
            "nama_se": "CORPORATE MANAGEMENT SYSTEM",
            "sektor": "Sektor Keuangan",
            "tanggal_terbit": "2022-07-18",
            "url_tdpse_detail": "https://pse.komdigi.go.id/tdpse-detail/6412",
            "website": "cms.bankraya.co.id"
        },
        {
            "id": "9cb1abb4-88a1-4189-8479-815eca86998e",
            "nama_pse": "MEGA CENTRAL FINANCE",
            "nama_se": "MACF",
            "sektor": "Sektor Keuangan",
            "tanggal_terbit": "2022-07-18",
            "url_tdpse_detail": "https://pse.komdigi.go.id/tdpse-detail/6466",
            "website": "mcf.co.id"
        },
        {
            "id": "9cb1abb3-71be-4ac5-b825-073692b86613",
            "nama_pse": "NEQODE RETHA INDONESIA",
            "nama_se": "SEKOLAHMODERN",
            "sektor": "Sektor Teknologi Informasi dan Komunikasi",
            "tanggal_terbit": "2022-07-18",
            "url_tdpse_detail": "https://pse.komdigi.go.id/tdpse-detail/6415",
            "website": "sekolahmodern.com"
        },
        {
            "id": "9cb1abb4-914b-42a4-8e3d-f22f8a212553",
            "nama_pse": "PRO LEGAL INDONESIA",
            "nama_se": "WEBSITE KANTORPENGACARA.CO",
            "sektor": "Sektor Perdagangan",
            "tanggal_terbit": "2022-07-18",
            "url_tdpse_detail": "https://pse.komdigi.go.id/tdpse-detail/6416",
            "website": "kantorpengacara.co"
        },
        {
            "id": "9cb1abb3-745f-49e0-bdc8-0370a7cc3452",
            "nama_pse": "BANK PERKREDITAN RAKYAT PROFIDANA PARAMITRA",
            "nama_se": "IBS CORE BANKING USSI",
            "sektor": "Sektor Keuangan",
            "tanggal_terbit": "2022-07-18",
            "url_tdpse_detail": "https://pse.komdigi.go.id/tdpse-detail/6417",
            "website": "bprprofidana.com"
        },
        {
            "id": "9cb1abb3-76e6-4868-87ec-0013b824cc39",
            "nama_pse": "TRANS NEWS CORPORA",
            "nama_se": "CNNINDONESIA.COM",
            "sektor": "Sektor Teknologi Informasi dan Komunikasi",
            "tanggal_terbit": "2022-07-18",
            "url_tdpse_detail": "https://pse.komdigi.go.id/tdpse-detail/6418",
            "website": "cnnindonesia.com"
        },
        {
            "id": "9cb1abb3-7e8b-4f0f-8aa8-9da8d331fa12",
            "nama_pse": "BPR DANAMASTER BAHTERA",
            "nama_se": "BPR ECASH",
            "sektor": "Sektor Keuangan",
            "tanggal_terbit": "2022-07-18",
            "url_tdpse_detail": "https://pse.komdigi.go.id/tdpse-detail/6420",
            "website": "bprdanamasterbahtera.co.id"
        },
        {
            "id": "9cb1abbf-3e5a-47b0-9c08-aebea297b316",
            "nama_pse": "KB FINANSIA MULTI FINANCE",
            "nama_se": "SALLY",
            "sektor": "Sektor Keuangan, Sektor Teknologi Informasi dan Komunikasi",
            "tanggal_terbit": "2022-07-18",
            "url_tdpse_detail": "https://pse.komdigi.go.id/tdpse-detail/6419",
            "website": "kreditplus.com"
        },
        {
            "id": "9cb1abb3-83f3-4721-972d-91f7fb7561ff",
            "nama_pse": "BPR BKK PURWOKERTO PERSERODA",
            "nama_se": "WEBSITE PROFIL PERUSAHAAN",
            "sektor": "Sektor Keuangan",
            "tanggal_terbit": "2022-07-18",
            "url_tdpse_detail": "https://pse.komdigi.go.id/tdpse-detail/6427",
            "website": "bprbkk-pwt.co.id"
        },
        {
            "id": "9cb1abb4-942a-4c02-a5ff-9d11589c4b84",
            "nama_pse": "TALKINDO SELAKSA ANUGRAH",
            "nama_se": "BREADTALK DELIVERY",
            "sektor": "Sektor Perdagangan, Sektor Pangan",
            "tanggal_terbit": "2022-07-18",
            "url_tdpse_detail": "https://pse.komdigi.go.id/tdpse-detail/6422",
            "website": "btdelivery.com"
        },
        {
            "id": "9cb1abb4-9707-49f3-9210-529d55d9e2e1",
            "nama_pse": "BANK RAYA INDONESIA",
            "nama_se": "DASHBOARD PINANG PERFORMA",
            "sektor": "Sektor Keuangan",
            "tanggal_terbit": "2022-07-18",
            "url_tdpse_detail": "https://pse.komdigi.go.id/tdpse-detail/6421",
            "website": "dashboard.pinang-performa.bankraya.co.id"
        },
        {
            "id": "9cb1abbf-4295-4b51-aff4-726f7f1a84ef",
            "nama_pse": "KISAH KARYA KAMI",
            "nama_se": "KISAH KAMI INVITATION",
            "sektor": "Sektor Teknologi Informasi dan Komunikasi",
            "tanggal_terbit": "2022-07-18",
            "url_tdpse_detail": "https://pse.komdigi.go.id/tdpse-detail/6425",
            "website": "kisahkami.com"
        },
        {
            "id": "9cb1abb4-99a7-4a21-b956-828f4f578a13",
            "nama_pse": "BANK PERKREDITAN RAKYAT BANTORU PERINTIS",
            "nama_se": "WEBSITE",
            "sektor": "Sektor Keuangan",
            "tanggal_terbit": "2022-07-18",
            "url_tdpse_detail": "https://pse.komdigi.go.id/tdpse-detail/6424",
            "website": "bprbantoruperintis.com"
        },
        {
            "id": "9cb1abb3-88cb-4ec4-ac12-95d8266f0bd5",
            "nama_pse": "MAKO ANUGERAH KREASINDO",
            "nama_se": "MAKO CAKE \u0026 BAKERY DELIVERY",
            "sektor": "Sektor Perdagangan, Sektor Pangan",
            "tanggal_terbit": "2022-07-18",
            "url_tdpse_detail": "https://pse.komdigi.go.id/tdpse-detail/6426",
            "website": "mako.id"
        },
        {
            "id": "9cb1abb4-9fb9-4361-8bd9-0d0824ae8f95",
            "nama_pse": "ASURANSI JASA INDONESIA",
            "nama_se": "APLIKASI VIRTUAL CLAIM POSINDO",
            "sektor": "Sektor Keuangan",
            "tanggal_terbit": "2022-07-18",
            "url_tdpse_detail": "https://pse.komdigi.go.id/tdpse-detail/6430",
            "website": "klaimposindo.asuransijasindo.co.id"
        },
        {
            "id": "9cb1abb4-a2b2-4e4a-8f6e-7559deae8042",
            "nama_pse": "BANK PERKREDITAN RAKYAT INDOMITRA ARTHA PERTIWI",
            "nama_se": "BANK PERKREDITAN RAKYAT INDOMITRA ARTHA PERTIWI",
            "sektor": "Sektor Keuangan",
            "tanggal_terbit": "2022-07-18",
            "url_tdpse_detail": "https://pse.komdigi.go.id/tdpse-detail/6429",
            "website": "bprindomitraarthapertiwi.co.id"
        },
        {
            "id": "9cb1abbf-44c4-4950-a0ea-3c5c2d975e94",
            "nama_pse": "PRO LEGAL INDONESIA",
            "nama_se": "WEBSITE PROLEGAL.ID",
            "sektor": "Sektor Perdagangan",
            "tanggal_terbit": "2022-07-18",
            "url_tdpse_detail": "https://pse.komdigi.go.id/tdpse-detail/6428",
            "website": "prolegal.id"
        },
        {
            "id": "9cb1abbf-4765-436d-809f-8ce8139c5b6c",
            "nama_pse": "SMART CONSULTING",
            "nama_se": "WEBSITE SMART CONSULTING",
            "sektor": "Sektor Perdagangan",
            "tanggal_terbit": "2022-07-18",
            "url_tdpse_detail": "https://pse.komdigi.go.id/tdpse-detail/6431",
            "website": "Smartcolaw.com"
        },
        {
            "id": "9cb1abbf-4a5d-431f-adf2-0f4fec848e05",
            "nama_pse": "AHMAD HASAN BAJUBER",
            "nama_se": "SOBAT ONLINE INDONESIA",
            "sektor": "Sektor Teknologi Informasi dan Komunikasi",
            "tanggal_terbit": "2022-07-18",
            "url_tdpse_detail": "https://pse.komdigi.go.id/tdpse-detail/6433",
            "website": "sobatonline.bukaolshop.site"
        },
        {
            "id": "9cb1abb4-a5d4-4037-95ca-ae513a37dad1",
            "nama_pse": "OTTO MENARA GLOBALINDO",
            "nama_se": "MCEASY",
            "sektor": "Sektor Transportasi",
            "tanggal_terbit": "2022-07-18",
            "url_tdpse_detail": "https://pse.komdigi.go.id/tdpse-detail/6432",
            "website": "mceasy.co.id"
        },
        {
            "id": "9cb1abb4-a8d0-44a4-a70c-7ddafdb7f927",
            "nama_pse": "KB FINANSIA MULTI FINANCE",
            "nama_se": "DEASY",
            "sektor": "Sektor Keuangan, Sektor Teknologi Informasi dan Komunikasi",
            "tanggal_terbit": "2022-07-18",
            "url_tdpse_detail": "https://pse.komdigi.go.id/tdpse-detail/6434",
            "website": "kreditplus.com"
        },
        {
            "id": "9cb1abb3-8b19-4f41-9fca-22429c02eeec",
            "nama_pse": "ROYAL PANCAPERSADA ANUGERAH",
            "nama_se": "ROPPAN DELIVERY",
            "sektor": "Sektor Perdagangan, Sektor Pangan",
            "tanggal_terbit": "2022-07-18",
            "url_tdpse_detail": "https://pse.komdigi.go.id/tdpse-detail/6436",
            "website": "roppandelivery.com"
        },
        {
            "id": "9cb1abb3-8d67-4747-a968-8007ac151b5c",
            "nama_pse": "BANK RAYA INDONESIA",
            "nama_se": "RAYA API",
            "sektor": "Sektor Keuangan",
            "tanggal_terbit": "2022-07-18",
            "url_tdpse_detail": "https://pse.komdigi.go.id/tdpse-detail/6435",
            "website": "developers.bankraya.co.id"
        },
        {
            "id": "9cb1abbf-4ced-4475-9a6e-69f651c78d69",
            "nama_pse": "BANK PEREKONOMIAN RAKYAT SURYA YUDHAKENCANA",
            "nama_se": "I-BSY",
            "sektor": "Sektor Keuangan",
            "tanggal_terbit": "2022-07-18",
            "url_tdpse_detail": "https://pse.komdigi.go.id/tdpse-detail/6440",
            "website": "ibsy.suryayudha.id"
        },
        {
            "id": "9cb1abb3-8fd9-4e5a-8de7-eb65c4e4b842",
            "nama_pse": "MAYBANK INDONESIA FINANCE",
            "nama_se": "KARIR PT MAYBANK INDONESIA FINANCE",
            "sektor": "Sektor Keuangan",
            "tanggal_terbit": "2022-07-18",
            "url_tdpse_detail": "https://pse.komdigi.go.id/tdpse-detail/6442",
            "website": "karir.maybankfinance.co.id"
        }
    ],
    "processingTimeMs": 3,
    "query": "",
    "totalHits": 19121,
    "hitsPerPage": 50,
    "page": 273,
    "totalPages": 383
}