{
    "hits": [
        {
            "id": "9cb1ac14-d030-4374-b61a-4b4baf63910e",
            "nama_pse": "LIMA BENUA KONEKSINDO",
            "nama_se": "LIMABENUA.COM",
            "sektor": "Sektor Perdagangan",
            "tanggal_terbit": "2022-11-08",
            "url_tdpse_detail": "https://pse.komdigi.go.id/tdpse-detail/12172",
            "website": "limabenua.com"
        },
        {
            "id": "9cb1ac06-4836-4698-bca1-1538fa0e8f81",
            "nama_pse": "INDO HR",
            "nama_se": "HIREDTODAY",
            "sektor": "Sektor Teknologi Informasi dan Komunikasi",
            "tanggal_terbit": "2022-11-08",
            "url_tdpse_detail": "https://pse.komdigi.go.id/tdpse-detail/12173",
            "website": "hiredtoday.com"
        },
        {
            "id": "9cb1ac06-4ece-4579-8662-77e354b7e263",
            "nama_pse": "ABUDI CIPTA KREASI",
            "nama_se": "PORTAL WEB DAN PLATFORM DIGITAL",
            "sektor": "Sektor Teknologi Informasi dan Komunikasi",
            "tanggal_terbit": "2022-11-08",
            "url_tdpse_detail": "https://pse.komdigi.go.id/tdpse-detail/12179",
            "website": "-"
        },
        {
            "id": "9cb1abfa-3f4d-43b5-aa7b-96674f8298a4",
            "nama_pse": "OYO ROOMS INDONESIA",
            "nama_se": "PT. OYO ROOMS INDONESIA",
            "sektor": "Sektor Perdagangan",
            "tanggal_terbit": "2022-11-07",
            "url_tdpse_detail": "https://pse.komdigi.go.id/tdpse-detail/9852",
            "website": "oyorooms.com"
        },
        {
            "id": "9cb1abe1-bf35-4b1e-b4b0-7ff6d9e760a8",
            "nama_pse": "CAHAYA SUKSES INSANI",
            "nama_se": "PT. CAHAYA SUKSES INSANI",
            "sektor": "Sektor Perdagangan, Sektor Keuangan, Sektor Teknologi Informasi dan Komunikasi",
            "tanggal_terbit": "2022-11-07",
            "url_tdpse_detail": "https://pse.komdigi.go.id/tdpse-detail/12145",
            "website": "Berkah150.com"
        },
        {
            "id": "9cb1ac06-2476-4906-9dc5-731c0add95f7",
            "nama_pse": "KOINWORKS MANAJEMEN KONSULTASI",
            "nama_se": "BRUANG",
            "sektor": "Sektor Perdagangan, Sektor Teknologi Informasi dan Komunikasi",
            "tanggal_terbit": "2022-11-07",
            "url_tdpse_detail": "https://pse.komdigi.go.id/tdpse-detail/12146",
            "website": "bruang.id"
        },
        {
            "id": "9cb1ac06-27ba-4910-8fc5-2a1974075adc",
            "nama_pse": "TOP KARIR MULTINUSA",
            "nama_se": "TOP KARIR MULTINUSA",
            "sektor": "Sektor Teknologi Informasi dan Komunikasi",
            "tanggal_terbit": "2022-11-07",
            "url_tdpse_detail": "https://pse.komdigi.go.id/tdpse-detail/12147",
            "website": "-"
        },
        {
            "id": "9cb1ac06-304c-41a3-a7f4-8b2298d021cf",
            "nama_pse": "FENOMENAL BISNIS INTERNASIONAL",
            "nama_se": "V PAY",
            "sektor": "Sektor Teknologi Informasi dan Komunikasi",
            "tanggal_terbit": "2022-11-07",
            "url_tdpse_detail": "https://pse.komdigi.go.id/tdpse-detail/12148",
            "website": "fenomenabisnis.co.id"
        },
        {
            "id": "9cb1abe1-c262-486d-915b-70bda04f1417",
            "nama_pse": "HUMAN RESOURCE MANUFAKTUR INDONESIA",
            "nama_se": "HR MANUFAKTUR",
            "sektor": "Sektor Teknologi Informasi dan Komunikasi",
            "tanggal_terbit": "2022-11-07",
            "url_tdpse_detail": "https://pse.komdigi.go.id/tdpse-detail/12149",
            "website": "hrmanufaktur.com"
        },
        {
            "id": "9cb1ac14-a7be-482d-8ed6-26608a981df3",
            "nama_pse": "BULLION ECOSYSTEM INTERNATIONAL",
            "nama_se": "METALGO TICKET",
            "sektor": "Sektor Perdagangan",
            "tanggal_terbit": "2022-11-07",
            "url_tdpse_detail": "https://pse.komdigi.go.id/tdpse-detail/12150",
            "website": "ticket.metalgo.co"
        },
        {
            "id": "9cb1ac06-347d-48fb-b163-57c200e61d3b",
            "nama_pse": "TJHIN KIT LIONG",
            "nama_se": "KERENDANG",
            "sektor": "Sektor Perdagangan",
            "tanggal_terbit": "2022-11-07",
            "url_tdpse_detail": "https://pse.komdigi.go.id/tdpse-detail/12151",
            "website": "-"
        },
        {
            "id": "9cb1ac14-ab4e-4d2e-b6f9-4aa483931967",
            "nama_pse": "MENN TEKNOLOGI INDONESIA",
            "nama_se": "MENNCONNECT.COM",
            "sektor": "Sektor Teknologi Informasi dan Komunikasi",
            "tanggal_terbit": "2022-11-07",
            "url_tdpse_detail": "https://pse.komdigi.go.id/tdpse-detail/12152",
            "website": "mennconnect.com"
        },
        {
            "id": "9cb1abe1-c5f2-4b0d-913a-c177b5e597c7",
            "nama_pse": "SWIFT SOLUTION INDONESIA",
            "nama_se": "SYNCARGO",
            "sektor": "Sektor Transportasi, Sektor Teknologi Informasi dan Komunikasi",
            "tanggal_terbit": "2022-11-07",
            "url_tdpse_detail": "https://pse.komdigi.go.id/tdpse-detail/12153",
            "website": "syncargo.com"
        },
        {
            "id": "9cb1ac06-37bd-4398-bd65-9b291a838c9a",
            "nama_pse": "RODA DJATI TRANS LOGISTIK",
            "nama_se": "RODADJATI.COM",
            "sektor": "Sektor Transportasi",
            "tanggal_terbit": "2022-11-07",
            "url_tdpse_detail": "https://pse.komdigi.go.id/tdpse-detail/12154",
            "website": "rodadjati.com"
        },
        {
            "id": "9cb1ac06-3aed-46bc-9397-668090066dc4",
            "nama_pse": "CIMB NIAGA AUTO FINANCE",
            "nama_se": "CNAF MOBILE",
            "sektor": "Sektor Keuangan",
            "tanggal_terbit": "2022-11-07",
            "url_tdpse_detail": "https://pse.komdigi.go.id/tdpse-detail/12155",
            "website": "mobile.cnaf.co.id"
        },
        {
            "id": "9cb1ac14-9792-4aa2-af48-22c63cc46f3a",
            "nama_pse": "TAUFIK",
            "nama_se": "TOPIK.ID",
            "sektor": "Sektor Teknologi Informasi dan Komunikasi",
            "tanggal_terbit": "2022-11-06",
            "url_tdpse_detail": "https://pse.komdigi.go.id/tdpse-detail/12137",
            "website": "topik.id"
        },
        {
            "id": "9cb1ac06-18fe-43a8-bdc5-f4ab509cba9e",
            "nama_pse": "INTERNUSA MEDIA GROUP",
            "nama_se": "KABARNUSA24",
            "sektor": "Sektor Teknologi Informasi dan Komunikasi",
            "tanggal_terbit": "2022-11-06",
            "url_tdpse_detail": "https://pse.komdigi.go.id/tdpse-detail/12138",
            "website": "-"
        },
        {
            "id": "9cb1ac14-a407-4d25-a7a7-7ef397ef060a",
            "nama_pse": "GLOBAL GAME INTERNUSA",
            "nama_se": "INA.GAME",
            "sektor": "Sektor Teknologi Informasi dan Komunikasi",
            "tanggal_terbit": "2022-11-06",
            "url_tdpse_detail": "https://pse.komdigi.go.id/tdpse-detail/12144",
            "website": "ina.game"
        },
        {
            "id": "9cb1ac06-1593-4eaf-8d0b-416a4bafc92a",
            "nama_pse": "OMAH TEKNOLOGI INDONESIA",
            "nama_se": "BUKUDIGITALKU.COM",
            "sektor": "Sektor Perdagangan, Sektor Teknologi Informasi dan Komunikasi",
            "tanggal_terbit": "2022-11-05",
            "url_tdpse_detail": "https://pse.komdigi.go.id/tdpse-detail/12136",
            "website": "ns.jagoanhosting.com"
        },
        {
            "id": "9cb1ac05-fa42-49b5-8a2f-c5ca383a4575",
            "nama_pse": "SULASTRI",
            "nama_se": "MKY - PENGINGAT PELANGGAN",
            "sektor": "Sektor Teknologi Informasi dan Komunikasi",
            "tanggal_terbit": "2022-11-04",
            "url_tdpse_detail": "https://pse.komdigi.go.id/tdpse-detail/12123",
            "website": "mky.my.id"
        },
        {
            "id": "9cb1ac05-fe8e-43a4-8d4d-7ec2685da93d",
            "nama_pse": "EEZEE TECHNOLOGIES INDONESIA",
            "nama_se": "EEZEE IN-HOUSE SYSTEM.",
            "sektor": "Sektor Perdagangan, Sektor Teknologi Informasi dan Komunikasi",
            "tanggal_terbit": "2022-11-04",
            "url_tdpse_detail": "https://pse.komdigi.go.id/tdpse-detail/12124",
            "website": "eezee.co"
        },
        {
            "id": "9cb1ac06-01b3-44c8-a51b-b76204da65b2",
            "nama_pse": "KIWOOM SEKURITAS INDONESIA",
            "nama_se": "BIZEQUITY OMS CLIENT",
            "sektor": "Sektor Teknologi Informasi dan Komunikasi",
            "tanggal_terbit": "2022-11-04",
            "url_tdpse_detail": "https://pse.komdigi.go.id/tdpse-detail/12125",
            "website": "-"
        },
        {
            "id": "9cb1ac06-04dd-48e6-baa8-7e32afddb871",
            "nama_pse": "HOREGO BANGUN INDONESIA",
            "nama_se": "HOREGO",
            "sektor": "Sektor Perdagangan",
            "tanggal_terbit": "2022-11-04",
            "url_tdpse_detail": "https://pse.komdigi.go.id/tdpse-detail/12126",
            "website": "HOREGO.ID"
        },
        {
            "id": "9cb1ac14-85c2-4974-98db-ffe3d588a2d4",
            "nama_pse": "ONE ASIA TEKNOLOGI",
            "nama_se": "ONEASIA.ID",
            "sektor": "Sektor Teknologi Informasi dan Komunikasi",
            "tanggal_terbit": "2022-11-04",
            "url_tdpse_detail": "https://pse.komdigi.go.id/tdpse-detail/12127",
            "website": "oneasia.id"
        },
        {
            "id": "9cb1abe1-ae49-4b2f-9dd1-377efb325165",
            "nama_pse": "ETHIS FINTEK INDONESIA",
            "nama_se": "ETHIS.CO.ID",
            "sektor": "Sektor Keuangan",
            "tanggal_terbit": "2022-11-04",
            "url_tdpse_detail": "https://pse.komdigi.go.id/tdpse-detail/12128",
            "website": "Ethis.co.id"
        },
        {
            "id": "9cb1ac06-085b-4f37-81a5-68752f949f9c",
            "nama_pse": "ORBIT TANAH AIRKU",
            "nama_se": "OTAQU.ID",
            "sektor": "Sektor Teknologi Informasi dan Komunikasi",
            "tanggal_terbit": "2022-11-04",
            "url_tdpse_detail": "https://pse.komdigi.go.id/tdpse-detail/12130",
            "website": "otaqu.id"
        },
        {
            "id": "9cb1ac06-0ba9-4e7b-904f-64ff84ffebc0",
            "nama_pse": "SMARTOSC DIGITAL INDONESIA",
            "nama_se": "SMARTOSC DIGITAL INDONESIA",
            "sektor": "Sektor Perdagangan, Sektor Teknologi Informasi dan Komunikasi",
            "tanggal_terbit": "2022-11-04",
            "url_tdpse_detail": "https://pse.komdigi.go.id/tdpse-detail/12131",
            "website": "smartosc.co.id"
        },
        {
            "id": "9cb1ac14-93ba-464c-b9b3-d0bf972f7ade",
            "nama_pse": "SOLUSI DOMPET INDONESIA",
            "nama_se": "HITPAY",
            "sektor": "Sektor Keuangan",
            "tanggal_terbit": "2022-11-04",
            "url_tdpse_detail": "https://pse.komdigi.go.id/tdpse-detail/12132",
            "website": "hitpayapp.com"
        },
        {
            "id": "9cb1abe1-b8f7-44f5-8c7b-edbca6a2a0bb",
            "nama_pse": "RUANG LINTAS SIBER",
            "nama_se": "DUNGOPO",
            "sektor": "Sektor Perdagangan",
            "tanggal_terbit": "2022-11-04",
            "url_tdpse_detail": "https://pse.komdigi.go.id/tdpse-detail/12133",
            "website": "dungopo.id"
        },
        {
            "id": "9cb1ac06-0ec9-4de5-9945-72fd6e2a3cb6",
            "nama_pse": "SAMSUNG ELECTRONICS INDONESIA",
            "nama_se": "VD BILLING (SAMSUNG CHECKOUT FOR SMARTTV)",
            "sektor": "Sektor Teknologi Informasi dan Komunikasi",
            "tanggal_terbit": "2022-11-04",
            "url_tdpse_detail": "https://pse.komdigi.go.id/tdpse-detail/12134",
            "website": "-"
        },
        {
            "id": "9cb1ac06-1278-458f-891b-9d20072e5a84",
            "nama_pse": "SAMSUNG ELECTRONICS INDONESIA",
            "nama_se": "·SAMSUNGHEALTH",
            "sektor": "Sektor Teknologi Informasi dan Komunikasi",
            "tanggal_terbit": "2022-11-04",
            "url_tdpse_detail": "https://pse.komdigi.go.id/tdpse-detail/12135",
            "website": "-"
        },
        {
            "id": "9cb1ac05-e28d-43fe-ba01-ffad469d3a07",
            "nama_pse": "KOPERASI KONSUMEN PAMANDIRI",
            "nama_se": "PAMANDIRI MOBILE",
            "sektor": "Sektor Perdagangan, Sektor Keuangan",
            "tanggal_terbit": "2022-11-03",
            "url_tdpse_detail": "https://pse.komdigi.go.id/tdpse-detail/12101",
            "website": "pamandiri.com"
        },
        {
            "id": "9cb1ac14-6558-41a3-a459-bb9dee3bb09d",
            "nama_pse": "KOPERASI KONSUMEN PAMANDIRI",
            "nama_se": "PAMANDIRI APPS",
            "sektor": "Sektor Perdagangan, Sektor Keuangan",
            "tanggal_terbit": "2022-11-03",
            "url_tdpse_detail": "https://pse.komdigi.go.id/tdpse-detail/12102",
            "website": "apps.pamandiri.com"
        },
        {
            "id": "9cb1ac05-e622-4c76-a293-71ccaa109125",
            "nama_pse": "KLIK DIGITAL NUSANTARA",
            "nama_se": "MAKE WEB EASY",
            "sektor": "Sektor Teknologi Informasi dan Komunikasi",
            "tanggal_terbit": "2022-11-03",
            "url_tdpse_detail": "https://pse.komdigi.go.id/tdpse-detail/12108",
            "website": "makewebeasy.com"
        },
        {
            "id": "9cb1ac05-e946-4bc3-a6d2-f520322e2dbb",
            "nama_pse": "DAN PEMBIAYAAN SYARIAH NUSA UMMAT SEJAHTERA",
            "nama_se": "KSPPS NUSA UMMAT SEJAHTERA",
            "sektor": "Sektor Keuangan",
            "tanggal_terbit": "2022-11-03",
            "url_tdpse_detail": "https://pse.komdigi.go.id/tdpse-detail/12103",
            "website": "ksppsnus.com"
        },
        {
            "id": "9cb1ac05-eca5-48c2-908e-2e769610f806",
            "nama_pse": "SUPRIYADI",
            "nama_se": "EDUARSIP",
            "sektor": "Sektor Teknologi Informasi dan Komunikasi",
            "tanggal_terbit": "2022-11-03",
            "url_tdpse_detail": "https://pse.komdigi.go.id/tdpse-detail/12104",
            "website": "edursip.id"
        },
        {
            "id": "9cb1ac14-693a-4ae5-874c-80c1703020b9",
            "nama_pse": "SATU EKSPOR INDONESIA",
            "nama_se": "1EXPORT",
            "sektor": "Sektor Perdagangan",
            "tanggal_terbit": "2022-11-03",
            "url_tdpse_detail": "https://pse.komdigi.go.id/tdpse-detail/12105",
            "website": "1export.com"
        },
        {
            "id": "9cb1ac14-6cd1-4fd1-a89b-0800d8debef9",
            "nama_pse": "GIORDANO INDONESIA",
            "nama_se": "GIORDANO INDONESIA",
            "sektor": "Sektor Perdagangan",
            "tanggal_terbit": "2022-11-03",
            "url_tdpse_detail": "https://pse.komdigi.go.id/tdpse-detail/12106",
            "website": "giordano.com"
        },
        {
            "id": "9cb1ac14-702a-41ec-9ed6-2aceec040119",
            "nama_pse": "ROYAL GARUDA META SEMESTA",
            "nama_se": "PLATFORM JASA PERMAINAN STRATEGI SEPAK BOLA",
            "sektor": "Sektor Teknologi Informasi dan Komunikasi",
            "tanggal_terbit": "2022-11-03",
            "url_tdpse_detail": "https://pse.komdigi.go.id/tdpse-detail/12107",
            "website": "garudaeleven.com"
        },
        {
            "id": "9cb1ac05-efc8-4ab6-850c-fcf127337226",
            "nama_pse": "SAMSUNG ELECTRONICS INDONESIA",
            "nama_se": "FHUB/CALENDAR",
            "sektor": "Sektor Teknologi Informasi dan Komunikasi",
            "tanggal_terbit": "2022-11-03",
            "url_tdpse_detail": "https://pse.komdigi.go.id/tdpse-detail/12110",
            "website": "-"
        },
        {
            "id": "9cb1ac05-f310-453e-88a3-4f896c547ede",
            "nama_pse": "KEBENARAN KESEHATAN DARI ALAM",
            "nama_se": "HTTPS://SESA.ID",
            "sektor": "Sektor Perdagangan",
            "tanggal_terbit": "2022-11-03",
            "url_tdpse_detail": "https://pse.komdigi.go.id/tdpse-detail/12111",
            "website": "sesa.id"
        },
        {
            "id": "9cb1abe1-93e4-4019-bacb-24d57547b63d",
            "nama_pse": "TEMAN SETIA SEJAHTERA",
            "nama_se": "TSMEDIA.ID",
            "sektor": "Sektor Perdagangan",
            "tanggal_terbit": "2022-11-03",
            "url_tdpse_detail": "https://pse.komdigi.go.id/tdpse-detail/12112",
            "website": "tsmedia.id"
        },
        {
            "id": "9cb1abe1-a659-4799-90a2-36f90d991493",
            "nama_pse": "SAMSUNG ELECTRONICS INDONESIA",
            "nama_se": "VD SSO (SAMSUNG ACCOUNT FOR SMART TV)",
            "sektor": "Sektor Teknologi Informasi dan Komunikasi",
            "tanggal_terbit": "2022-11-03",
            "url_tdpse_detail": "https://pse.komdigi.go.id/tdpse-detail/12120",
            "website": "-"
        },
        {
            "id": "9cb1abe1-aac2-4ecf-b71e-55a2646070d3",
            "nama_pse": "SAMSUNG ELECTRONICS INDONESIA",
            "nama_se": "AUTOSETUP - BACKUP AND RESTORE",
            "sektor": "Sektor Teknologi Informasi dan Komunikasi",
            "tanggal_terbit": "2022-11-03",
            "url_tdpse_detail": "https://pse.komdigi.go.id/tdpse-detail/12121",
            "website": "-"
        },
        {
            "id": "9cb1ac05-f6af-4a11-af09-a237b376e6dc",
            "nama_pse": "NATURA HERBALIZE INDONESIA",
            "nama_se": "NATURA HERBALIZE INDONESIA",
            "sektor": "Sektor Perdagangan",
            "tanggal_terbit": "2022-11-03",
            "url_tdpse_detail": "https://pse.komdigi.go.id/tdpse-detail/12122",
            "website": "naturaherbalize.com"
        },
        {
            "id": "9cb1aba2-17e5-4bc7-a391-20995a97b15d",
            "nama_pse": "PUMA SPORTS INDONESIA",
            "nama_se": "PUMA  SHOES  AND  APPAREL",
            "sektor": "Sektor Perdagangan",
            "tanggal_terbit": "2022-11-02",
            "url_tdpse_detail": "https://pse.komdigi.go.id/tdpse-detail/4202",
            "website": "id.puma.com"
        },
        {
            "id": "9cb1ac05-c13a-4a47-b4fc-6cbe2b7ab35d",
            "nama_pse": "ASURANSI INTRA ASIA",
            "nama_se": "WEBSITE INTRA ASIA",
            "sektor": "Sektor Teknologi Informasi dan Komunikasi",
            "tanggal_terbit": "2022-11-02",
            "url_tdpse_detail": "https://pse.komdigi.go.id/tdpse-detail/12080",
            "website": "intraasia.id"
        },
        {
            "id": "9cb1ac14-59cc-49ae-bb01-f09dc3ce0776",
            "nama_pse": "HENNY KARTIKA WATI",
            "nama_se": "DBUMBU2022",
            "sektor": "Sektor Perdagangan",
            "tanggal_terbit": "2022-11-02",
            "url_tdpse_detail": "https://pse.komdigi.go.id/tdpse-detail/12081",
            "website": "-"
        },
        {
            "id": "9cb1ac05-c48c-4a47-9a9f-660d82a214a0",
            "nama_pse": "TERNAK UANG INDONESIA",
            "nama_se": "TERNAK UANG",
            "sektor": "Sektor Teknologi Informasi dan Komunikasi",
            "tanggal_terbit": "2022-11-02",
            "url_tdpse_detail": "https://pse.komdigi.go.id/tdpse-detail/12082",
            "website": "ternakuang.id"
        },
        {
            "id": "9cb1abe1-83f5-47db-8706-6b821bac29c6",
            "nama_pse": "APLIKASI LINTAS BANGSA",
            "nama_se": "EXPENSE MANAGEMENT SYSTEM (EMS)",
            "sektor": "Sektor Teknologi Informasi dan Komunikasi",
            "tanggal_terbit": "2022-11-02",
            "url_tdpse_detail": "https://pse.komdigi.go.id/tdpse-detail/12083",
            "website": "-"
        }
    ],
    "processingTimeMs": 4,
    "query": "",
    "totalHits": 19121,
    "hitsPerPage": 50,
    "page": 172,
    "totalPages": 383
}