{
    "hits": [
        {
            "id": "9cb1ab71-cd8d-45c1-905d-5511aa459705",
            "nama_pse": "IZI DATA INDONESIA",
            "nama_se": "IZIDATA",
            "sektor": "Sektor Teknologi Informasi dan Komunikasi, Sektor Teknologi Informasi dan Komunikasi",
            "tanggal_terbit": "2021-05-18",
            "url_tdpse_detail": "https://pse.komdigi.go.id/tdpse-detail/1005",
            "website": "creditizi.id"
        },
        {
            "id": "9cb1ab63-65dc-4083-ab43-9e5626cf81e1",
            "nama_pse": "ASURANSI JIWA MANULIFE INDONESIA",
            "nama_se": "MIINFO",
            "sektor": "Sektor Keuangan, Sektor Keuangan",
            "tanggal_terbit": "2021-05-18",
            "url_tdpse_detail": "https://pse.komdigi.go.id/tdpse-detail/1012",
            "website": "miinfo.manulife.co.id/idcws/login"
        },
        {
            "id": "9cb1ab63-67c0-4c5e-b792-99377a0d6232",
            "nama_pse": "HERBA PENAWAR ALWAHIDA INDONESIA",
            "nama_se": "HNI.ID",
            "sektor": "Sektor Perdagangan, Sektor Perdagangan",
            "tanggal_terbit": "2021-05-18",
            "url_tdpse_detail": "https://pse.komdigi.go.id/tdpse-detail/1010",
            "website": "hni.id"
        },
        {
            "id": "9cb1ab63-6dc5-4827-a35f-72413067fbf8",
            "nama_pse": "HARMONI NIAGA INFORMATIKA",
            "nama_se": "HALMALL",
            "sektor": "Sektor Perdagangan, Sektor Perdagangan",
            "tanggal_terbit": "2021-05-18",
            "url_tdpse_detail": "https://pse.komdigi.go.id/tdpse-detail/1006",
            "website": "halmall.id"
        },
        {
            "id": "9cb1ab63-9c76-4249-9473-6a266f6c4fe9",
            "nama_pse": "FWD INSURANCE INDONESIA",
            "nama_se": "CORPORATE WEB",
            "sektor": "Sektor Teknologi Informasi dan Komunikasi, Sektor Teknologi Informasi dan Komunikasi, Sektor Teknologi Informasi dan Komunikasi",
            "tanggal_terbit": "2021-05-18",
            "url_tdpse_detail": "https://pse.komdigi.go.id/tdpse-detail/1029",
            "website": "fwd.co.id"
        },
        {
            "id": "9cb1ab6b-0867-4aae-8d59-ddb1171d1b9b",
            "nama_pse": "FWD INSURANCE INDONESIA",
            "nama_se": "FWD SMART/NEW BUSINESS",
            "sektor": "Sektor Teknologi Informasi dan Komunikasi, Sektor Teknologi Informasi dan Komunikasi, Sektor Teknologi Informasi dan Komunikasi",
            "tanggal_terbit": "2021-05-18",
            "url_tdpse_detail": "https://pse.komdigi.go.id/tdpse-detail/1032",
            "website": "-"
        },
        {
            "id": "9cb1ab63-9eb0-430b-9846-7e96f2176600",
            "nama_pse": "FWD INSURANCE INDONESIA",
            "nama_se": "FWD MOBILE",
            "sektor": "Sektor Keuangan, Sektor Keuangan, Sektor Keuangan",
            "tanggal_terbit": "2021-05-18",
            "url_tdpse_detail": "https://pse.komdigi.go.id/tdpse-detail/1033",
            "website": "-"
        },
        {
            "id": "9cb1ab72-02b8-48bc-84e5-f4d291de078a",
            "nama_pse": "FWD INSURANCE INDONESIA",
            "nama_se": "CORPORATE CARE PORTALS",
            "sektor": "Sektor Keuangan, Sektor Keuangan, Sektor Keuangan",
            "tanggal_terbit": "2021-05-18",
            "url_tdpse_detail": "https://pse.komdigi.go.id/tdpse-detail/1034",
            "website": "-"
        },
        {
            "id": "9cb1ab6b-0b84-451e-b2f7-cb9e35b9b712",
            "nama_pse": "FWD INSURANCE INDONESIA",
            "nama_se": "IFWD",
            "sektor": "Sektor Keuangan, Sektor Keuangan, Sektor Keuangan",
            "tanggal_terbit": "2021-05-18",
            "url_tdpse_detail": "https://pse.komdigi.go.id/tdpse-detail/1036",
            "website": "ifwd.co.id"
        },
        {
            "id": "9cb1ab63-a11b-4f7f-8f7e-3913782fc948",
            "nama_pse": "FWD INSURANCE INDONESIA",
            "nama_se": "FWD MAX",
            "sektor": "Sektor Keuangan, Sektor Keuangan, Sektor Keuangan",
            "tanggal_terbit": "2021-05-18",
            "url_tdpse_detail": "https://pse.komdigi.go.id/tdpse-detail/1038",
            "website": "-"
        },
        {
            "id": "9cb1ab72-0580-4576-878b-c830eb43c69f",
            "nama_pse": "FWD INSURANCE INDONESIA",
            "nama_se": "CUSTOMER PORTAL",
            "sektor": "Sektor Keuangan, Sektor Keuangan, Sektor Keuangan",
            "tanggal_terbit": "2021-05-18",
            "url_tdpse_detail": "https://pse.komdigi.go.id/tdpse-detail/1041",
            "website": "portal.fwd.co.id/eservices/"
        },
        {
            "id": "9cb1ab72-08dc-4e2c-a141-f59485af37b2",
            "nama_pse": "FWD INSURANCE INDONESIA",
            "nama_se": "AFFILIATES",
            "sektor": "Sektor Keuangan, Sektor Keuangan, Sektor Keuangan",
            "tanggal_terbit": "2021-05-18",
            "url_tdpse_detail": "https://pse.komdigi.go.id/tdpse-detail/1042",
            "website": "-"
        },
        {
            "id": "9cb1ab6b-0e64-4cda-a59c-c0ca1646fb06",
            "nama_pse": "FWD INSURANCE INDONESIA",
            "nama_se": "FWDI SERVICES",
            "sektor": "Sektor Keuangan, Sektor Keuangan, Sektor Keuangan",
            "tanggal_terbit": "2021-05-18",
            "url_tdpse_detail": "https://pse.komdigi.go.id/tdpse-detail/1043",
            "website": "services.fwdinsurance.co.id/customer"
        },
        {
            "id": "9cb1ab63-a39b-4d04-95ab-16bb33f92190",
            "nama_pse": "FWD INSURANCE INDONESIA",
            "nama_se": "FWDI AGENCY",
            "sektor": "Sektor Keuangan, Sektor Keuangan, Sektor Keuangan",
            "tanggal_terbit": "2021-05-18",
            "url_tdpse_detail": "https://pse.komdigi.go.id/tdpse-detail/1044",
            "website": "agency.fwdinsurance.co.id"
        },
        {
            "id": "9cb1ab72-0b73-4080-b301-4b16a17a3801",
            "nama_pse": "FWD INSURANCE INDONESIA",
            "nama_se": "FWDI BANCA",
            "sektor": "Sektor Keuangan, Sektor Keuangan, Sektor Keuangan",
            "tanggal_terbit": "2021-05-18",
            "url_tdpse_detail": "https://pse.komdigi.go.id/tdpse-detail/1045",
            "website": "services.fwdinsurance.co.id/bancassurance"
        },
        {
            "id": "9cb1ab63-ae7d-4d65-a07d-db14c1de0b20",
            "nama_pse": "PINTAR INOVASI DIGITAL",
            "nama_se": "ASETKU",
            "sektor": "Sektor Keuangan, Sektor Keuangan, Sektor Keuangan",
            "tanggal_terbit": "2021-05-18",
            "url_tdpse_detail": "https://pse.komdigi.go.id/tdpse-detail/1020",
            "website": "asetku.co.id"
        },
        {
            "id": "9cb1ab63-ebcb-4672-94c3-b57c98174885",
            "nama_pse": "WAHANA MAKMUR SEJATI",
            "nama_se": "WAHANA HONDA",
            "sektor": "Sektor Perdagangan, Sektor Perdagangan",
            "tanggal_terbit": "2021-05-18",
            "url_tdpse_detail": "https://pse.komdigi.go.id/tdpse-detail/1026",
            "website": "-"
        },
        {
            "id": "9cb1ab72-69bb-4922-a26a-6bdfee179eb5",
            "nama_pse": "SOLUSI FINANSIALKU INDONESIA",
            "nama_se": "FINANSIALKU.COM",
            "sektor": "Sektor Keuangan, Sektor Keuangan",
            "tanggal_terbit": "2021-05-18",
            "url_tdpse_detail": "https://pse.komdigi.go.id/tdpse-detail/1030",
            "website": "Finansialku.com"
        },
        {
            "id": "9cb1ab72-882c-4b44-b99e-ef538751ddb4",
            "nama_pse": "BANK COMMONWEALTH",
            "nama_se": "COMMBANK MOBILE",
            "sektor": "Sektor Keuangan, Sektor Keuangan, Sektor Keuangan",
            "tanggal_terbit": "2021-05-18",
            "url_tdpse_detail": "https://pse.komdigi.go.id/tdpse-detail/1028",
            "website": "-"
        },
        {
            "id": "9cb1ab72-8a55-415a-be0b-b9ffb55dd6b6",
            "nama_pse": "BANK COMMONWEALTH",
            "nama_se": "COMMBANK CASHFLOW",
            "sektor": "Sektor Keuangan, Sektor Keuangan, Sektor Keuangan",
            "tanggal_terbit": "2021-05-18",
            "url_tdpse_detail": "https://pse.komdigi.go.id/tdpse-detail/1037",
            "website": "-"
        },
        {
            "id": "9cb1ab6b-bfb5-4631-a620-02a6647cd875",
            "nama_pse": "DIGIKOP CIPTA INDONESIA",
            "nama_se": "PRODIGIKOP",
            "sektor": "Sektor Perdagangan, Sektor Perdagangan",
            "tanggal_terbit": "2021-05-18",
            "url_tdpse_detail": "https://pse.komdigi.go.id/tdpse-detail/1019",
            "website": "prodigikop.com"
        },
        {
            "id": "9cb1ab72-9995-4e88-a753-402e870f275c",
            "nama_pse": "SIMPAN PINJAM DANA KESUKSESAN INDONESIA",
            "nama_se": "DANA SIAP",
            "sektor": "Sektor Teknologi Informasi dan Komunikasi, Sektor Teknologi Informasi dan Komunikasi",
            "tanggal_terbit": "2021-05-18",
            "url_tdpse_detail": "https://pse.komdigi.go.id/tdpse-detail/1035",
            "website": "danasiap.com"
        },
        {
            "id": "9cb1ab64-325f-4614-abd7-5bb5a9817492",
            "nama_pse": "MACQUARIE SEKURITAS INDONESIA",
            "nama_se": "FIDESSA AMMA",
            "sektor": "Sektor Keuangan, Sektor Keuangan",
            "tanggal_terbit": "2021-05-18",
            "url_tdpse_detail": "https://pse.komdigi.go.id/tdpse-detail/1039",
            "website": "-"
        },
        {
            "id": "9cb1ab6b-cff6-4419-bc35-d8130fe710d9",
            "nama_pse": "MACQUARIE SEKURITAS INDONESIA",
            "nama_se": "SYN",
            "sektor": "Sektor Keuangan, Sektor Keuangan",
            "tanggal_terbit": "2021-05-18",
            "url_tdpse_detail": "https://pse.komdigi.go.id/tdpse-detail/1040",
            "website": "-"
        },
        {
            "id": "9cb1ab6b-d9b6-49b8-af84-502de84185ad",
            "nama_pse": "NITIFESE GLOBAL HORIZON",
            "nama_se": "HOLIDAY GIFT HUNTER",
            "sektor": "Sektor Perdagangan, Sektor Perdagangan",
            "tanggal_terbit": "2021-05-18",
            "url_tdpse_detail": "https://pse.komdigi.go.id/tdpse-detail/1007",
            "website": "holidaygifthunter.com"
        },
        {
            "id": "9cb1ab6b-dcc3-4db0-9464-6292bdeff011",
            "nama_pse": "POWER SISTEM INTEGRASI",
            "nama_se": "POWERSISTEM.CO.ID",
            "sektor": "Sektor Perdagangan, Sektor Perdagangan, Sektor Teknologi Informasi dan Komunikasi, Sektor Teknologi Informasi dan Komunikasi",
            "tanggal_terbit": "2021-05-18",
            "url_tdpse_detail": "https://pse.komdigi.go.id/tdpse-detail/1016",
            "website": "powersistem.co.id"
        },
        {
            "id": "9cb1ab6b-df84-4a70-8e52-daac552a77d3",
            "nama_pse": "ELITE PROXY SISTEM",
            "nama_se": "ELITEPROXY.CO.ID",
            "sektor": "Sektor Perdagangan, Sektor Perdagangan, Sektor Perdagangan, Sektor Teknologi Informasi dan Komunikasi, Sektor Teknologi Informasi dan Komunikasi, Sektor Teknologi Informasi dan Komunikasi",
            "tanggal_terbit": "2021-05-18",
            "url_tdpse_detail": "https://pse.komdigi.go.id/tdpse-detail/1017",
            "website": "eliteproxy.co.id"
        },
        {
            "id": "9cb1ab64-3f98-4b6e-8ce9-e004f059dfef",
            "nama_pse": "INDONESIA DIGITAL IDENTITY",
            "nama_se": "VIDA (HTTPS://WWW.VIDA.ID/)",
            "sektor": "Sektor Teknologi Informasi dan Komunikasi, Sektor Teknologi Informasi dan Komunikasi",
            "tanggal_terbit": "2021-05-18",
            "url_tdpse_detail": "https://pse.komdigi.go.id/tdpse-detail/1008",
            "website": "vida.id"
        },
        {
            "id": "9cb1ab6c-1346-4929-9429-21e6eb44651a",
            "nama_pse": "AJAIB ASET MANAJEMEN",
            "nama_se": "AJAIB MANAJER INVESTASI",
            "sektor": "Sektor Keuangan, Sektor Keuangan",
            "tanggal_terbit": "2021-05-18",
            "url_tdpse_detail": "https://pse.komdigi.go.id/tdpse-detail/1031",
            "website": "ajaib.co.id/"
        },
        {
            "id": "9cb1ab6c-1b3f-427e-bc83-82b03f821b0c",
            "nama_pse": "PONNY BEAUTE INDONESIA",
            "nama_se": "PONNY BEAUTE",
            "sektor": "Sektor Perdagangan, Sektor Perdagangan",
            "tanggal_terbit": "2021-05-18",
            "url_tdpse_detail": "https://pse.komdigi.go.id/tdpse-detail/1011",
            "website": "ponnybeaute.co.id"
        },
        {
            "id": "9cb1ab72-af69-4ddd-bcba-babe95b73b44",
            "nama_pse": "BUSSAN AUTO FINANCE",
            "nama_se": "BUSSAN AUTO FINANCE (BAF) MOBILE",
            "sektor": "Sektor Keuangan, Sektor Keuangan",
            "tanggal_terbit": "2021-05-18",
            "url_tdpse_detail": "https://pse.komdigi.go.id/tdpse-detail/1022",
            "website": "http://sandia.baf.id"
        },
        {
            "id": "9cb1ab6c-26a7-4fdf-8549-2a3eac75467b",
            "nama_pse": "SUCOR SEKURITAS",
            "nama_se": "SPOT NEW GENERATION_DESKTOP _MOBILE",
            "sektor": "Sektor Keuangan, Sektor Keuangan",
            "tanggal_terbit": "2021-05-18",
            "url_tdpse_detail": "https://pse.komdigi.go.id/tdpse-detail/1021",
            "website": "sucorsekuritas.com"
        },
        {
            "id": "9cb1ab72-b195-4e93-b025-66f9740ce9dd",
            "nama_pse": "SUCOR SEKURITAS",
            "nama_se": "WEBSITE",
            "sektor": "Sektor Keuangan, Sektor Keuangan",
            "tanggal_terbit": "2021-05-18",
            "url_tdpse_detail": "https://pse.komdigi.go.id/tdpse-detail/1023",
            "website": "sucorsekuritas.com"
        },
        {
            "id": "9cb1ab6c-2cc4-4374-bfec-ae7cd5eb5339",
            "nama_pse": "SUCOR SEKURITAS",
            "nama_se": "EFORM SUCOR SEKURITAS",
            "sektor": "Sektor Keuangan, Sektor Keuangan",
            "tanggal_terbit": "2021-05-18",
            "url_tdpse_detail": "https://pse.komdigi.go.id/tdpse-detail/1024",
            "website": "sucorsekuritas.com"
        },
        {
            "id": "9cb1ab72-c125-4a21-909d-c6d80dffb869",
            "nama_pse": "ORIENTE MAS SEJAHTERA",
            "nama_se": "FINMAS",
            "sektor": "Sektor Keuangan",
            "tanggal_terbit": "2021-05-18",
            "url_tdpse_detail": "https://pse.komdigi.go.id/tdpse-detail/1027",
            "website": "finmas.co.id"
        },
        {
            "id": "9cb1ab8d-a61c-4757-896d-0b57a3983e45",
            "nama_pse": "ADASIA TECHNOLOGY INDONESIA",
            "nama_se": "ANYDIGITAL",
            "sektor": "Sektor Teknologi Informasi dan Komunikasi, Sektor Teknologi Informasi dan Komunikasi",
            "tanggal_terbit": "2021-05-18",
            "url_tdpse_detail": "https://pse.komdigi.go.id/tdpse-detail/1013",
            "website": "anydigital.co.id"
        },
        {
            "id": "9cb1ab9e-e130-4204-b3df-ed9d81be079f",
            "nama_pse": "PERSADA SENTRA SERVISINDO",
            "nama_se": "DUNIAPERKAKAS.CO.ID",
            "sektor": "Sektor Perdagangan, Sektor Perdagangan, Sektor Teknologi Informasi dan Komunikasi, Sektor Teknologi Informasi dan Komunikasi",
            "tanggal_terbit": "2021-05-18",
            "url_tdpse_detail": "https://pse.komdigi.go.id/tdpse-detail/1015",
            "website": "duniaperkakas.co.id"
        },
        {
            "id": "9cb1ab91-719a-4d5f-8000-3ad7edcf6e4b",
            "nama_pse": "DHASATRA MONEYTRANSFER",
            "nama_se": "STARPAY",
            "sektor": "Sektor Keuangan, Sektor Keuangan, Sektor Keuangan, Sektor Teknologi Informasi dan Komunikasi, Sektor Teknologi Informasi dan Komunikasi, Sektor Teknologi Informasi dan Komunikasi",
            "tanggal_terbit": "2021-05-18",
            "url_tdpse_detail": "https://pse.komdigi.go.id/tdpse-detail/1018",
            "website": "dhasatra.com"
        },
        {
            "id": "9cb1ab64-582d-4de6-8d13-389ba174dca6",
            "nama_pse": "JULO TEKNOLOGI FINANSIAL",
            "nama_se": "JULO (WEBSITE)",
            "sektor": "Sektor Keuangan, Sektor Keuangan, Sektor Keuangan",
            "tanggal_terbit": "2021-05-18",
            "url_tdpse_detail": "https://pse.komdigi.go.id/tdpse-detail/1046",
            "website": "julo.co.id"
        },
        {
            "id": "9cb1ab65-2012-43a4-b6b1-40aebb5cddd1",
            "nama_pse": "TOKOBAGUS",
            "nama_se": "OLX AUTOS DEALER",
            "sektor": "Sektor Perdagangan, Sektor Perdagangan",
            "tanggal_terbit": "2021-05-17",
            "url_tdpse_detail": "https://pse.komdigi.go.id/tdpse-detail/986",
            "website": "dealer.olxautos.co.id"
        },
        {
            "id": "9cb1ab70-8504-4840-b1cd-efb80c4df0bc",
            "nama_pse": "ASURANSI TUGU PRATAMA INDONESIA",
            "nama_se": "WWW.TUGU.COM",
            "sektor": "Sektor Keuangan, Sektor Keuangan, Sektor Keuangan, Sektor Keuangan",
            "tanggal_terbit": "2021-05-17",
            "url_tdpse_detail": "https://pse.komdigi.go.id/tdpse-detail/988",
            "website": "tugu.com"
        },
        {
            "id": "9cb1ab71-0dc0-44a2-9f13-5914185ecb81",
            "nama_pse": "MATAHARI PUTRA PRIMA",
            "nama_se": "HTTPS://SHOP.HYPERMART.CO.ID/HYPERMART/",
            "sektor": "Sektor Perdagangan, Sektor Perdagangan",
            "tanggal_terbit": "2021-05-17",
            "url_tdpse_detail": "https://pse.komdigi.go.id/tdpse-detail/999",
            "website": "shop.hypermart.co.id"
        },
        {
            "id": "9cb1ab65-6748-4020-a49d-6e5389651196",
            "nama_pse": "MATAHARI PUTRA PRIMA",
            "nama_se": "HYPERMART",
            "sektor": "Sektor Perdagangan, Sektor Perdagangan",
            "tanggal_terbit": "2021-05-17",
            "url_tdpse_detail": "https://pse.komdigi.go.id/tdpse-detail/1000",
            "website": "-"
        },
        {
            "id": "9cb1ab71-5c00-48f6-b5e9-61f897fcbf41",
            "nama_pse": "PIONIR MAHAKARYA TEKNOLOGI",
            "nama_se": "FINFINI",
            "sektor": "Sektor Perdagangan, Sektor Perdagangan, Sektor Perdagangan, Sektor Perdagangan",
            "tanggal_terbit": "2021-05-17",
            "url_tdpse_detail": "https://pse.komdigi.go.id/tdpse-detail/1002",
            "website": "finfini.com/"
        },
        {
            "id": "9cb1ab6b-e645-408f-ae31-e9d13dfbb19e",
            "nama_pse": "AYO TECHNO IDEA",
            "nama_se": "NGORDER",
            "sektor": "Sektor Teknologi Informasi dan Komunikasi, Sektor Teknologi Informasi dan Komunikasi, Sektor Teknologi Informasi dan Komunikasi",
            "tanggal_terbit": "2021-05-17",
            "url_tdpse_detail": "https://pse.komdigi.go.id/tdpse-detail/998",
            "website": "ngorder.id"
        },
        {
            "id": "9cb1ab6b-e82b-4173-b086-06d6ae5b3aac",
            "nama_pse": "CROWDDANA TEKNOLOGI INDONUSA",
            "nama_se": "CROWDDANA",
            "sektor": "Sektor Keuangan, Sektor Keuangan, Sektor Teknologi Informasi dan Komunikasi, Sektor Teknologi Informasi dan Komunikasi",
            "tanggal_terbit": "2021-05-17",
            "url_tdpse_detail": "https://pse.komdigi.go.id/tdpse-detail/1004",
            "website": "crowddana.id"
        },
        {
            "id": "9cb1ab6b-f347-4c0d-822c-5fb258996bee",
            "nama_pse": "BANK ARTHA GRAHA INTERNASIONAL",
            "nama_se": "AGI MOBILE",
            "sektor": "Sektor Keuangan, Sektor Keuangan",
            "tanggal_terbit": "2021-05-17",
            "url_tdpse_detail": "https://pse.komdigi.go.id/tdpse-detail/990",
            "website": "-"
        },
        {
            "id": "9cb1ab6b-fa5e-41ce-a69c-e64fd88d1413",
            "nama_pse": "BANK ARTHA GRAHA INTERNASIONAL",
            "nama_se": "INTERNET BANKING RETAIL",
            "sektor": "Sektor Keuangan, Sektor Keuangan",
            "tanggal_terbit": "2021-05-17",
            "url_tdpse_detail": "https://pse.komdigi.go.id/tdpse-detail/991",
            "website": "Ib.bankarthagraha.co.id"
        },
        {
            "id": "9cb1ab6b-feb5-4d2d-ae59-deb6f97a93a8",
            "nama_pse": "BANK ARTHA GRAHA INTERNASIONAL",
            "nama_se": "INTERNET BANKING CORPORATE",
            "sektor": "Sektor Keuangan, Sektor Keuangan",
            "tanggal_terbit": "2021-05-17",
            "url_tdpse_detail": "https://pse.komdigi.go.id/tdpse-detail/992",
            "website": "Ib.bankarthagraha.co.id/cib"
        },
        {
            "id": "9cb1ab6c-0392-4353-bd8b-b2985af0eb1a",
            "nama_pse": "BANK ARTHA GRAHA INTERNASIONAL",
            "nama_se": "LAKU PANDAI",
            "sektor": "Sektor Keuangan, Sektor Keuangan",
            "tanggal_terbit": "2021-05-17",
            "url_tdpse_detail": "https://pse.komdigi.go.id/tdpse-detail/993",
            "website": "-"
        }
    ],
    "processingTimeMs": 38,
    "query": "",
    "totalHits": 19131,
    "hitsPerPage": 50,
    "page": 364,
    "totalPages": 383
}