{
    "hits": [
        {
            "id": "9cb1ac0c-864a-45e7-8f85-eb979299449a",
            "nama_pse": "BERKAH USAHA DANIEL",
            "nama_se": "WEBSITE \u0026 APLIKASI IATEK UNSRI",
            "sektor": "Sektor Perdagangan, Sektor Teknologi Informasi dan Komunikasi",
            "tanggal_terbit": "2022-08-18",
            "url_tdpse_detail": "https://pse.komdigi.go.id/tdpse-detail/10473",
            "website": "iatekunsri.com"
        },
        {
            "id": "9cb1abd7-d105-4aac-adac-c31c77844b92",
            "nama_pse": "ABADI SEJAHTERA FINANSINDO",
            "nama_se": "SINGA",
            "sektor": "Sektor Keuangan",
            "tanggal_terbit": "2022-08-18",
            "url_tdpse_detail": "https://pse.komdigi.go.id/tdpse-detail/10475",
            "website": "singa.id"
        },
        {
            "id": "9cb1abfd-a9f7-4a93-a396-a64476c2ced6",
            "nama_pse": "MASS RAPID TRANSIT JAKARTA PERSERODA",
            "nama_se": "DINA",
            "sektor": "Sektor Transportasi",
            "tanggal_terbit": "2022-08-18",
            "url_tdpse_detail": "https://pse.komdigi.go.id/tdpse-detail/10478",
            "website": "textphone.jakartamrt.co.id"
        },
        {
            "id": "9cb1ac0c-895d-452e-85b4-c1b6e9111fca",
            "nama_pse": "BANK PEMBIAYAAN RAKYAT SYARIAH MUAMALAH CILEGON",
            "nama_se": "ISLAMIC BANKING APPLICATION (IBA)",
            "sektor": "Sektor Keuangan",
            "tanggal_terbit": "2022-08-18",
            "url_tdpse_detail": "https://pse.komdigi.go.id/tdpse-detail/10476",
            "website": "-"
        },
        {
            "id": "9cb1ac0c-8c34-4425-9ebc-0f61a24ab8ef",
            "nama_pse": "ANUGERAH TETAP ABADI",
            "nama_se": "GRASS",
            "sektor": "Sektor Perdagangan",
            "tanggal_terbit": "2022-08-18",
            "url_tdpse_detail": "https://pse.komdigi.go.id/tdpse-detail/10479",
            "website": "grass.atacorp.id"
        },
        {
            "id": "9cb1abfd-ad9a-48d8-a803-27f9dcda8ace",
            "nama_pse": "DELMAN DATA TEKNOLOGI",
            "nama_se": "DELMAN DATA LAB",
            "sektor": "Sektor Teknologi Informasi dan Komunikasi",
            "tanggal_terbit": "2022-08-18",
            "url_tdpse_detail": "https://pse.komdigi.go.id/tdpse-detail/10480",
            "website": "cloud.delman.io"
        },
        {
            "id": "9cb1abfd-b144-4bc0-be80-673798db2718",
            "nama_pse": "ANUGERAH TETAP ABADI",
            "nama_se": "RETROSS",
            "sektor": "Sektor Perdagangan",
            "tanggal_terbit": "2022-08-18",
            "url_tdpse_detail": "https://pse.komdigi.go.id/tdpse-detail/10483",
            "website": "retross.com"
        },
        {
            "id": "9cb1ac0c-8f2b-4c45-95d5-670221df159d",
            "nama_pse": "ASURANSI KERUGIAN JASA RAHARJA",
            "nama_se": "JRKU",
            "sektor": "Sektor Keuangan",
            "tanggal_terbit": "2022-08-18",
            "url_tdpse_detail": "https://pse.komdigi.go.id/tdpse-detail/10484",
            "website": "jrku.jasaraharja.co.id"
        },
        {
            "id": "9cb1abd7-d6ac-489e-a65c-98c732d6ec7c",
            "nama_pse": "ASURANSI KERUGIAN JASA RAHARJA",
            "nama_se": "CORPORATE WEBSITE",
            "sektor": "Sektor Keuangan",
            "tanggal_terbit": "2022-08-18",
            "url_tdpse_detail": "https://pse.komdigi.go.id/tdpse-detail/10485",
            "website": "jasaraharja.co.id"
        },
        {
            "id": "9cb1ac0c-9c9b-4eed-b810-267ae29a804e",
            "nama_pse": "ASURANSI KERUGIAN JASA RAHARJA",
            "nama_se": "E-PROCUREMENT",
            "sektor": "Sektor Keuangan",
            "tanggal_terbit": "2022-08-18",
            "url_tdpse_detail": "https://pse.komdigi.go.id/tdpse-detail/10486",
            "website": "eprocurement.jasaraharja.co.id"
        },
        {
            "id": "9cb1ac0c-aa6e-4aab-be7c-fc087bde730b",
            "nama_pse": "BANK PEMBANGUNAN DAERAH SUMATERA SELATAN DAN BANGKA BELITUNG",
            "nama_se": "LAYANAN BSBPRO",
            "sektor": "Sektor Keuangan",
            "tanggal_terbit": "2022-08-18",
            "url_tdpse_detail": "https://pse.komdigi.go.id/tdpse-detail/10487",
            "website": "banksumselbabel.com"
        },
        {
            "id": "9cb1abd7-f0da-4473-a33e-6b062d38adc6",
            "nama_pse": "BANK PEMBANGUNAN DAERAH SUMATERA SELATAN DAN BANGKA BELITUNG",
            "nama_se": "LAYANAN CUSTOMER ON BOARDING DEVELOPMENT",
            "sektor": "Sektor Keuangan",
            "tanggal_terbit": "2022-08-18",
            "url_tdpse_detail": "https://pse.komdigi.go.id/tdpse-detail/10490",
            "website": "banksumselbabel.com"
        },
        {
            "id": "9cb1ac0c-ae5b-435c-8506-6bbfddd92c24",
            "nama_pse": "BANK PEMBANGUNAN DAERAH SUMATERA SELATAN DAN BANGKA BELITUNG",
            "nama_se": "LAYANAN DEVELOPMENT UNTUK MOBILE BANKING DAN INTERNET BANKING",
            "sektor": "Sektor Keuangan",
            "tanggal_terbit": "2022-08-18",
            "url_tdpse_detail": "https://pse.komdigi.go.id/tdpse-detail/10491",
            "website": "banksumselbabel.com"
        },
        {
            "id": "9cb1abfd-b4f7-468d-a38e-701a32873dc0",
            "nama_pse": "BANK PEMBIAYAAN RAKYAT SYARIAH GAJAHTONGGA KOTOPILIANG",
            "nama_se": "PT BANK PEMBIAYAAN RAKYAT SYARIAH GAJAHTONGGA KOTOPILIANG",
            "sektor": "Sektor Keuangan",
            "tanggal_terbit": "2022-08-18",
            "url_tdpse_detail": "https://pse.komdigi.go.id/tdpse-detail/10493",
            "website": "-"
        },
        {
            "id": "9cb1abfd-bad4-4c67-a4a7-61acbc968ca9",
            "nama_pse": "TRIBUN BERITA ONLINE",
            "nama_se": "TRIBUNNEWSWIKI.COM",
            "sektor": "Sektor Teknologi Informasi dan Komunikasi",
            "tanggal_terbit": "2022-08-18",
            "url_tdpse_detail": "https://pse.komdigi.go.id/tdpse-detail/10501",
            "website": "tribunnewswiki.com"
        },
        {
            "id": "9cb1abfd-bed5-49bf-bd62-daa02b0850e3",
            "nama_pse": "BANK PEMBANGUNAN DAERAH SUMATERA SELATAN DAN BANGKA BELITUNG",
            "nama_se": "DIGISIGN BANK SUMSELBABEL",
            "sektor": "Sektor Keuangan",
            "tanggal_terbit": "2022-08-18",
            "url_tdpse_detail": "https://pse.komdigi.go.id/tdpse-detail/10494",
            "website": "banksumselbabel.com"
        },
        {
            "id": "9cb1abfd-c25d-47de-be7f-7121a171dd22",
            "nama_pse": "BANK PEMBANGUNAN DAERAH SUMATERA SELATAN DAN BANGKA BELITUNG",
            "nama_se": "EFORM BANK SUMSELBABEL",
            "sektor": "Sektor Keuangan",
            "tanggal_terbit": "2022-08-18",
            "url_tdpse_detail": "https://pse.komdigi.go.id/tdpse-detail/10495",
            "website": "banksumselbabel.com"
        },
        {
            "id": "9cb1abfd-c5ca-4322-bc93-069f28eaf2cd",
            "nama_pse": "PAPAYA TECH INDONESIA",
            "nama_se": "PAPAYA  LIVE",
            "sektor": "Sektor Teknologi Informasi dan Komunikasi",
            "tanggal_terbit": "2022-08-18",
            "url_tdpse_detail": "https://pse.komdigi.go.id/tdpse-detail/10496",
            "website": "papayaent.com"
        },
        {
            "id": "9cb1ac0c-b358-4334-b923-fbb71ec7158c",
            "nama_pse": "BANK PEMBANGUNAN DAERAH SUMATERA SELATAN DAN BANGKA BELITUNG",
            "nama_se": "E-PROCUREMENT BANK SUMSELBABEL",
            "sektor": "Sektor Keuangan",
            "tanggal_terbit": "2022-08-18",
            "url_tdpse_detail": "https://pse.komdigi.go.id/tdpse-detail/10497",
            "website": "banksumselbabel.com"
        },
        {
            "id": "9cb1abd7-fe1d-4ded-8471-0fd2765d1f89",
            "nama_pse": "BANK PEMBIAYAAN RAKYAT SYARIAH CILEGON MANDIRI",
            "nama_se": "ISLAMIC BANKING APPLICATION",
            "sektor": "Sektor Keuangan",
            "tanggal_terbit": "2022-08-18",
            "url_tdpse_detail": "https://pse.komdigi.go.id/tdpse-detail/10498",
            "website": "bprs-cilegonmandiri.com"
        },
        {
            "id": "9cb1abfd-c8f8-4850-a9d8-9e85df037324",
            "nama_pse": "TRIBUN DIGITAL ONLINE",
            "nama_se": "PT. TRIBUN DIGITAL ONLINE",
            "sektor": "Sektor Teknologi Informasi dan Komunikasi",
            "tanggal_terbit": "2022-08-18",
            "url_tdpse_detail": "https://pse.komdigi.go.id/tdpse-detail/10499",
            "website": "tribunnews.com"
        },
        {
            "id": "9cb1abfd-cd4b-4149-8800-81d1cf73876a",
            "nama_pse": "BANK PEMBANGUNAN DAERAH SUMATERA SELATAN DAN BANGKA BELITUNG",
            "nama_se": "INTERNET BANKING BANK SUMSELBABEL",
            "sektor": "Sektor Keuangan",
            "tanggal_terbit": "2022-08-18",
            "url_tdpse_detail": "https://pse.komdigi.go.id/tdpse-detail/10500",
            "website": "banksumselbabel.com"
        },
        {
            "id": "9cb1abfd-d232-4d24-8bd8-e523c7fb1625",
            "nama_pse": "BANK PEMBANGUNAN DAERAH SUMATERA SELATAN DAN BANGKA BELITUNG",
            "nama_se": "LAKU PANDAI BANK SUMSELBABEL",
            "sektor": "Sektor Keuangan",
            "tanggal_terbit": "2022-08-18",
            "url_tdpse_detail": "https://pse.komdigi.go.id/tdpse-detail/10502",
            "website": "banksumselbabel.com"
        },
        {
            "id": "9cb1ac0c-b6b7-4cea-9331-4ac560ebdeea",
            "nama_pse": "QERJA MANFAAT BANGSA",
            "nama_se": "JOBSID",
            "sektor": "Sektor Teknologi Informasi dan Komunikasi",
            "tanggal_terbit": "2022-08-18",
            "url_tdpse_detail": "https://pse.komdigi.go.id/tdpse-detail/10503",
            "website": "jobs.id"
        },
        {
            "id": "9cb1ac0c-b9dd-4134-bf63-5e4b5c8685ef",
            "nama_pse": "BANK PEMBIAYAAN RAKYAT SYARIAH BINA AMANAH SATRIA",
            "nama_se": "ISLAMIC BANKING APPLICATION",
            "sektor": "Sektor Keuangan, Sektor Teknologi Informasi dan Komunikasi",
            "tanggal_terbit": "2022-08-18",
            "url_tdpse_detail": "https://pse.komdigi.go.id/tdpse-detail/10506",
            "website": "bprsbas.co.id"
        },
        {
            "id": "9cb1abd8-0186-411d-ba10-e7d600c39ed6",
            "nama_pse": "BANK PEMBANGUNAN DAERAH SUMATERA SELATAN DAN BANGKA BELITUNG",
            "nama_se": "LAWAN FRAUD BANK SUMSELBABEL",
            "sektor": "Sektor Keuangan",
            "tanggal_terbit": "2022-08-18",
            "url_tdpse_detail": "https://pse.komdigi.go.id/tdpse-detail/10504",
            "website": "banksumselbabel.com"
        },
        {
            "id": "9cb1abd8-0554-4ebb-b69b-7debbc7d48af",
            "nama_pse": "BANK PEMBANGUNAN DAERAH SUMATERA SELATAN DAN BANGKA BELITUNG",
            "nama_se": "SURAT ELEKTRONIK BANK SUMSELBABEL",
            "sektor": "Sektor Keuangan",
            "tanggal_terbit": "2022-08-18",
            "url_tdpse_detail": "https://pse.komdigi.go.id/tdpse-detail/10505",
            "website": "banksumselbabel.com"
        },
        {
            "id": "9cb1ac0c-bd3d-46a0-a971-c780c65a2c5b",
            "nama_pse": "BANK PEMBANGUNAN DAERAH SUMATERA SELATAN DAN BANGKA BELITUNG",
            "nama_se": "LAYANAN MOBILE BANKING BANK SUMSEL BABEL",
            "sektor": "Sektor Keuangan",
            "tanggal_terbit": "2022-08-18",
            "url_tdpse_detail": "https://pse.komdigi.go.id/tdpse-detail/10507",
            "website": "banksumselbabel.com"
        },
        {
            "id": "9cb1abfd-d531-4eec-8957-029a42358e0f",
            "nama_pse": "NORE INOVASI",
            "nama_se": "UKM LOKAL",
            "sektor": "Sektor Teknologi Informasi dan Komunikasi",
            "tanggal_terbit": "2022-08-18",
            "url_tdpse_detail": "https://pse.komdigi.go.id/tdpse-detail/10534",
            "website": "ukmlokal.com"
        },
        {
            "id": "9cb1ac0c-c0ec-411c-99bb-53f914853fc9",
            "nama_pse": "BANK PEMBANGUNAN DAERAH SUMATERA SELATAN DAN BANGKA BELITUNG",
            "nama_se": "LAYANAN OPEN API BANK SUMSEL BABEL",
            "sektor": "Sektor Keuangan",
            "tanggal_terbit": "2022-08-18",
            "url_tdpse_detail": "https://pse.komdigi.go.id/tdpse-detail/10508",
            "website": "banksumselbabel.com"
        },
        {
            "id": "9cb1abd8-0931-4527-a0a0-eed6080c807e",
            "nama_pse": "BANK PEMBANGUNAN DAERAH SUMATERA SELATAN DAN BANGKA BELITUNG",
            "nama_se": "LAYANAN DEVELOPMENT OPEN API BANK SUMSEL BABEL BAGI MITRA",
            "sektor": "Sektor Keuangan",
            "tanggal_terbit": "2022-08-18",
            "url_tdpse_detail": "https://pse.komdigi.go.id/tdpse-detail/10509",
            "website": "banksumselbabel.com"
        },
        {
            "id": "9cb1abfd-d933-4159-a2b0-5525a1768ff6",
            "nama_pse": "BANK PEMBANGUNAN DAERAH SUMATERA SELATAN DAN BANGKA BELITUNG",
            "nama_se": "LAYANAN RAMAHZAKAT BANK SUMSEL BABEL",
            "sektor": "Sektor Keuangan",
            "tanggal_terbit": "2022-08-18",
            "url_tdpse_detail": "https://pse.komdigi.go.id/tdpse-detail/10510",
            "website": "banksumselbabel.com"
        },
        {
            "id": "9cb1ac0c-c3c1-42bb-a5bb-e671597e2999",
            "nama_pse": "SANTAI BERKUALITAS SYBERINDO",
            "nama_se": "DIRORY.COM",
            "sektor": "Sektor Perdagangan, Sektor Teknologi Informasi dan Komunikasi",
            "tanggal_terbit": "2022-08-18",
            "url_tdpse_detail": "https://pse.komdigi.go.id/tdpse-detail/10511",
            "website": "dirory.com"
        },
        {
            "id": "9cb1abd8-0d70-43f4-af48-83f8076900fa",
            "nama_pse": "BANK PEMBANGUNAN DAERAH SUMATERA SELATAN DAN BANGKA BELITUNG",
            "nama_se": "LAYANAN VIRTUAL ACCOUNT BANK SUMSEL BABEL",
            "sektor": "Sektor Keuangan",
            "tanggal_terbit": "2022-08-18",
            "url_tdpse_detail": "https://pse.komdigi.go.id/tdpse-detail/10512",
            "website": "banksumselbabel.com"
        },
        {
            "id": "9cb1abd8-12d9-4f12-9b1f-018c5b698b24",
            "nama_pse": "TRIBUN BERITA ONLINE",
            "nama_se": "TRIBUNSTYLE.COM",
            "sektor": "Sektor Teknologi Informasi dan Komunikasi",
            "tanggal_terbit": "2022-08-18",
            "url_tdpse_detail": "https://pse.komdigi.go.id/tdpse-detail/10513",
            "website": "tribunstyle.com"
        },
        {
            "id": "9cb1abfd-e291-4aa8-a4cb-f08cc8a63a8c",
            "nama_pse": "BANK PEMBANGUNAN DAERAH SUMATERA SELATAN DAN BANGKA BELITUNG",
            "nama_se": "LAYANAN DEVELOPMENT VIRTUAL ACCOUNT BANK SUMSEL BABEL",
            "sektor": "Sektor Keuangan",
            "tanggal_terbit": "2022-08-18",
            "url_tdpse_detail": "https://pse.komdigi.go.id/tdpse-detail/10514",
            "website": "banksumselbabel.com"
        },
        {
            "id": "9cb1abd8-16bf-4d91-9e15-704d8e91cfb6",
            "nama_pse": "TRIBUN BERITA ONLINE",
            "nama_se": "TRIBUNTRAVEL.COM",
            "sektor": "Sektor Teknologi Informasi dan Komunikasi",
            "tanggal_terbit": "2022-08-18",
            "url_tdpse_detail": "https://pse.komdigi.go.id/tdpse-detail/10515",
            "website": "tribuntravel.com"
        },
        {
            "id": "9cb1abfd-e948-45ff-b1bd-ea2469124554",
            "nama_pse": "BANK PEMBANGUNAN DAERAH SUMATERA SELATAN DAN BANGKA BELITUNG",
            "nama_se": "LAYANAN BSBCALL",
            "sektor": "Sektor Keuangan",
            "tanggal_terbit": "2022-08-18",
            "url_tdpse_detail": "https://pse.komdigi.go.id/tdpse-detail/10516",
            "website": "banksumselbabel.com"
        },
        {
            "id": "9cb1abfd-eca4-4dee-a87a-ebe74a8ffc38",
            "nama_pse": "BANK PEMBIAYAAN RAKYAT SYARIAH HARTA INSAN KARIMAH PARAHYANGAN",
            "nama_se": "ISLAMIC CORE BANKING SYSTEM",
            "sektor": "Sektor Keuangan",
            "tanggal_terbit": "2022-08-18",
            "url_tdpse_detail": "https://pse.komdigi.go.id/tdpse-detail/10517",
            "website": "hikparahyangan.co.id"
        },
        {
            "id": "9cb1ac0c-c6a7-466a-abfc-efb7120f9d39",
            "nama_pse": "BANK PEMBIAYAAN RAKYAT SYARIAH BINA AMANAH SATRIA",
            "nama_se": "ISLAMIC BANKING APPLICATION (IBA)",
            "sektor": "Sektor Keuangan",
            "tanggal_terbit": "2022-08-18",
            "url_tdpse_detail": "https://pse.komdigi.go.id/tdpse-detail/10518",
            "website": "bprsbas.co.id"
        },
        {
            "id": "9cb1abfd-f0c8-4ee5-85f8-20bc4ec347f5",
            "nama_pse": "TRIBUN BERITA ONLINE",
            "nama_se": "TRIBUNWOW.COM",
            "sektor": "Sektor Teknologi Informasi dan Komunikasi",
            "tanggal_terbit": "2022-08-18",
            "url_tdpse_detail": "https://pse.komdigi.go.id/tdpse-detail/10519",
            "website": "tribunwow.com"
        },
        {
            "id": "9cb1abfd-f423-45ad-845f-6463a2bb9fee",
            "nama_pse": "TRIBUN BERITA ONLINE",
            "nama_se": "TRIBUNNEWSMAKER.COM",
            "sektor": "Sektor Teknologi Informasi dan Komunikasi",
            "tanggal_terbit": "2022-08-18",
            "url_tdpse_detail": "https://pse.komdigi.go.id/tdpse-detail/10520",
            "website": "tribunnewsmaker.com"
        },
        {
            "id": "9cb1ac0c-c960-4601-816d-d3f380cb6086",
            "nama_pse": "TRIBUN BERITA ONLINE",
            "nama_se": "TRIBUN-VIDEO.COM",
            "sektor": "Sektor Teknologi Informasi dan Komunikasi",
            "tanggal_terbit": "2022-08-18",
            "url_tdpse_detail": "https://pse.komdigi.go.id/tdpse-detail/10521",
            "website": "tribun-video.com"
        },
        {
            "id": "9cb1ac0c-cc95-4f29-b2e6-79be5078de58",
            "nama_pse": "TRIBUN BERITA ONLINE",
            "nama_se": "TRIBUNJUALBELI.COM",
            "sektor": "Sektor Teknologi Informasi dan Komunikasi",
            "tanggal_terbit": "2022-08-18",
            "url_tdpse_detail": "https://pse.komdigi.go.id/tdpse-detail/10522",
            "website": "tribunjualbeli.com"
        },
        {
            "id": "9cb1abd8-1b8d-4b8c-8809-81db2e0b2774",
            "nama_pse": "TRIBUN BERITA ONLINE",
            "nama_se": "TRIBUNJAKARTA.COM",
            "sektor": "Sektor Teknologi Informasi dan Komunikasi",
            "tanggal_terbit": "2022-08-18",
            "url_tdpse_detail": "https://pse.komdigi.go.id/tdpse-detail/10523",
            "website": "tribunjakarta.com"
        },
        {
            "id": "9cb1abfd-f9d8-4df8-8f12-1657a82051dc",
            "nama_pse": "BANK PEREKONOMIAN RAKYAT SYARIAH TANMIYA ARTHA",
            "nama_se": "PT TEKNOLOGI REKACIPTA DIGITAL",
            "sektor": "Sektor Keuangan",
            "tanggal_terbit": "2022-08-18",
            "url_tdpse_detail": "https://pse.komdigi.go.id/tdpse-detail/10525",
            "website": "-"
        },
        {
            "id": "9cb1abfd-fcea-4e0d-bfe2-d16755843e04",
            "nama_pse": "TRIBUN BERITA ONLINE",
            "nama_se": "WARTAKOTALIVE.COM",
            "sektor": "Sektor Teknologi Informasi dan Komunikasi",
            "tanggal_terbit": "2022-08-18",
            "url_tdpse_detail": "https://pse.komdigi.go.id/tdpse-detail/10524",
            "website": "wartakotalive.com"
        },
        {
            "id": "9cb1abd8-23bd-41fa-9deb-2919327b8841",
            "nama_pse": "ABADI FINAL KREASI",
            "nama_se": "METACO.GG",
            "sektor": "Sektor Teknologi Informasi dan Komunikasi",
            "tanggal_terbit": "2022-08-18",
            "url_tdpse_detail": "https://pse.komdigi.go.id/tdpse-detail/10526",
            "website": "metaco.gg"
        },
        {
            "id": "9cb1ac0c-cf7c-4c8f-a5fe-08b2b4b39e68",
            "nama_pse": "TRIBUN BERITA ONLINE",
            "nama_se": "TRIBUNNEWSBOGOR.COM",
            "sektor": "Sektor Teknologi Informasi dan Komunikasi",
            "tanggal_terbit": "2022-08-18",
            "url_tdpse_detail": "https://pse.komdigi.go.id/tdpse-detail/10527",
            "website": "tribunnewsbogor.com"
        },
        {
            "id": "9cb1ac0c-d361-46f7-bc9a-350790973e28",
            "nama_pse": "TRIBUN BERITA ONLINE",
            "nama_se": "TRIBUNSOLO.COM",
            "sektor": "Sektor Teknologi Informasi dan Komunikasi",
            "tanggal_terbit": "2022-08-18",
            "url_tdpse_detail": "https://pse.komdigi.go.id/tdpse-detail/10528",
            "website": "tribunsolo.com"
        }
    ],
    "processingTimeMs": 5,
    "query": "",
    "totalHits": 19131,
    "hitsPerPage": 50,
    "page": 196,
    "totalPages": 383
}