{
    "hits": [
        {
            "id": "9cb1ac6f-71bb-4aa1-978f-3f0c594a6a52",
            "nama_pse": "LINGGA STORE JAYA",
            "nama_se": "LINGGA STORE",
            "sektor": "Sektor Perdagangan",
            "tanggal_terbit": "2024-05-09",
            "url_tdpse_detail": "https://pse.komdigi.go.id/tdpse-detail/18867",
            "website": "lingga-store.com"
        },
        {
            "id": "9cb1ac5a-fb2c-4829-b2b7-8aa7958ac697",
            "nama_pse": "NAZEEFA INTER MEDIA",
            "nama_se": "KUANTANXPRESS.ID",
            "sektor": "Sektor Teknologi Informasi dan Komunikasi",
            "tanggal_terbit": "2024-05-09",
            "url_tdpse_detail": "https://pse.komdigi.go.id/tdpse-detail/18868",
            "website": "kuantanxpress.id"
        },
        {
            "id": "9cb1ac5a-fe2e-47e6-97fa-0c39869fdbe4",
            "nama_pse": "HAGA MENDHENA NUSANTARA",
            "nama_se": "SISTEM INFORMASI MANAJEMEN PUSKESMAS",
            "sektor": "Sektor Kesehatan",
            "tanggal_terbit": "2024-05-09",
            "url_tdpse_detail": "https://pse.komdigi.go.id/tdpse-detail/18871",
            "website": "-"
        },
        {
            "id": "9cb1ac6f-bd14-40f2-b267-69abcaa63f79",
            "nama_pse": "NAZEEFA INTER MEDIA",
            "nama_se": "INEWS77.ID",
            "sektor": "Sektor Teknologi Informasi dan Komunikasi",
            "tanggal_terbit": "2024-05-09",
            "url_tdpse_detail": "https://pse.komdigi.go.id/tdpse-detail/18869",
            "website": "inews77.id"
        },
        {
            "id": "9cb1ac5b-0174-4ddd-a0c7-c1bc1747a1e5",
            "nama_pse": "NAZEEFA INTER MEDIA",
            "nama_se": "JEJAKKRIMINAL.CO.ID",
            "sektor": "Sektor Teknologi Informasi dan Komunikasi",
            "tanggal_terbit": "2024-05-09",
            "url_tdpse_detail": "https://pse.komdigi.go.id/tdpse-detail/18870",
            "website": "jejakkriminal.co.id"
        },
        {
            "id": "9cb1ac85-636f-4629-b2ae-4cf0a9ecd0fa",
            "nama_pse": "NAZEEFA INTER MEDIA",
            "nama_se": "HARIANINFORMASI.COM",
            "sektor": "Sektor Teknologi Informasi dan Komunikasi",
            "tanggal_terbit": "2024-05-09",
            "url_tdpse_detail": "https://pse.komdigi.go.id/tdpse-detail/18872",
            "website": "harianinformasi.com"
        },
        {
            "id": "9cb1ac6f-c065-4f01-b871-8427f9c8a02d",
            "nama_pse": "LAPAK SEJAHTERA ABADI",
            "nama_se": "LAPAKSEA.ID",
            "sektor": "Sektor Perdagangan, Sektor Teknologi Informasi dan Komunikasi",
            "tanggal_terbit": "2024-05-09",
            "url_tdpse_detail": "https://pse.komdigi.go.id/tdpse-detail/18873",
            "website": "lapaksea.id"
        },
        {
            "id": "9cb1ac5b-04e3-41d6-8f45-a8bcb5bd673a",
            "nama_pse": "MUHAMAD AFIFUDIN ALFARISI",
            "nama_se": "GOODERS.ID",
            "sektor": "Sektor Teknologi Informasi dan Komunikasi",
            "tanggal_terbit": "2024-05-09",
            "url_tdpse_detail": "https://pse.komdigi.go.id/tdpse-detail/18874",
            "website": "gooders.id"
        },
        {
            "id": "9cb1ac5b-0969-45d4-bcfe-2fc0fd8bef4b",
            "nama_pse": "MUHAMMAD AJI PANGESTU",
            "nama_se": "SISTEM INFORMASI SENAT AKADEMIK",
            "sektor": "Sektor Teknologi Informasi dan Komunikasi",
            "tanggal_terbit": "2024-05-09",
            "url_tdpse_detail": "https://pse.komdigi.go.id/tdpse-detail/18875",
            "website": "senat.polnes.ac.id"
        },
        {
            "id": "9cb1ac85-6731-4fc8-b627-91d035eb4074",
            "nama_pse": "MUHAMMAD AJI PANGESTU",
            "nama_se": "SISTEM INFORMASI KERJASAMA POLITEKNIK NEGERI SAMARINDA",
            "sektor": "Sektor Teknologi Informasi dan Komunikasi",
            "tanggal_terbit": "2024-05-09",
            "url_tdpse_detail": "https://pse.komdigi.go.id/tdpse-detail/18876",
            "website": "kerjasama.eminat.store"
        },
        {
            "id": "9cb1ac5b-0ca4-4c48-8844-362dea58420a",
            "nama_pse": "PACUNEWS MEDIA GLOBAL",
            "nama_se": "PACUNEWS.COM",
            "sektor": "Sektor Teknologi Informasi dan Komunikasi",
            "tanggal_terbit": "2024-05-09",
            "url_tdpse_detail": "https://pse.komdigi.go.id/tdpse-detail/18877",
            "website": "PacuNews.com"
        },
        {
            "id": "9cb1ac5b-0fb5-4830-b49a-c4ba662bed0c",
            "nama_pse": "ANDRIAN INTER MEDIA",
            "nama_se": "TRANS-NEWS.ID",
            "sektor": "Sektor Teknologi Informasi dan Komunikasi",
            "tanggal_terbit": "2024-05-09",
            "url_tdpse_detail": "https://pse.komdigi.go.id/tdpse-detail/18878",
            "website": "trans-news.id"
        },
        {
            "id": "9cb1ac5b-12f3-4158-b2d2-2127e772f1e4",
            "nama_pse": "LKP Master Course",
            "nama_se": "KAREBASIDENRENG.ONLINE",
            "sektor": "Sektor Perdagangan, Sektor Teknologi Informasi dan Komunikasi",
            "tanggal_terbit": "2024-05-09",
            "url_tdpse_detail": "https://pse.komdigi.go.id/tdpse-detail/18879",
            "website": "-"
        },
        {
            "id": "9cb1ac47-5532-4996-a57e-6882b3c71dd1",
            "nama_pse": "PEEBA GLOBAL INDONESIA",
            "nama_se": "PEEBA",
            "sektor": "Sektor Teknologi Informasi dan Komunikasi",
            "tanggal_terbit": "2024-05-08",
            "url_tdpse_detail": "https://pse.komdigi.go.id/tdpse-detail/15286",
            "website": "peeba.id"
        },
        {
            "id": "9cb1ac81-74dc-41cf-b190-69acdd679fea",
            "nama_pse": "TATACIPTA TEKNOLOGI INDONESIA",
            "nama_se": "MEDICAL RECORD PLUS (MR+)",
            "sektor": "Sektor Kesehatan",
            "tanggal_terbit": "2024-05-08",
            "url_tdpse_detail": "https://pse.komdigi.go.id/tdpse-detail/18855",
            "website": "-"
        },
        {
            "id": "9cb1ac59-e993-4786-ba7c-e441aad46b93",
            "nama_pse": "INNOCREATIVE",
            "nama_se": "RSGMP",
            "sektor": "Sektor Kesehatan",
            "tanggal_terbit": "2024-05-08",
            "url_tdpse_detail": "https://pse.komdigi.go.id/tdpse-detail/18850",
            "website": "-"
        },
        {
            "id": "9cb1ac83-cb70-41ca-b6a2-8eda863a7525",
            "nama_pse": "SALVUS PRIMA NIAGA",
            "nama_se": "FOMO",
            "sektor": "Sektor Perdagangan",
            "tanggal_terbit": "2024-05-08",
            "url_tdpse_detail": "https://pse.komdigi.go.id/tdpse-detail/18854",
            "website": "explorefomo.id"
        },
        {
            "id": "9cb1ac6f-93c0-4a7f-8127-b3d116d3462d",
            "nama_pse": "EMUDHRA TECHNOLOGIES INDONESIA",
            "nama_se": "EMSIGNER",
            "sektor": "Sektor Teknologi Informasi dan Komunikasi",
            "tanggal_terbit": "2024-05-08",
            "url_tdpse_detail": "https://pse.komdigi.go.id/tdpse-detail/18851",
            "website": "emudhra.com"
        },
        {
            "id": "9cb1ac6f-9fc1-4fa4-bebe-9e5cc39b1301",
            "nama_pse": "SECQURE TEKNOLOGI ASIA",
            "nama_se": "SECQURE",
            "sektor": "Sektor Teknologi Informasi dan Komunikasi",
            "tanggal_terbit": "2024-05-08",
            "url_tdpse_detail": "https://pse.komdigi.go.id/tdpse-detail/18856",
            "website": "secqure.co"
        },
        {
            "id": "9cb1ac6f-a2b7-4ebb-ac10-85fabe019ae9",
            "nama_pse": "TERANG INFORMATION INDONESIA",
            "nama_se": "PT. TERANG INFORMATION INDONESIA",
            "sektor": "Sektor Perdagangan",
            "tanggal_terbit": "2024-05-08",
            "url_tdpse_detail": "https://pse.komdigi.go.id/tdpse-detail/18848",
            "website": "-"
        },
        {
            "id": "9cb1ac85-34bf-4b9f-99c7-142fcba38d4a",
            "nama_pse": "ARDI JAYA SOLUSINDO",
            "nama_se": "AJS PAYMENT",
            "sektor": "Sektor Perdagangan",
            "tanggal_terbit": "2024-05-08",
            "url_tdpse_detail": "https://pse.komdigi.go.id/tdpse-detail/18847",
            "website": "-"
        },
        {
            "id": "9cb1ac5a-ee33-4033-9ddf-04a999b3b431",
            "nama_pse": "AMERTA PERINA DIGITAMA",
            "nama_se": "LVNG",
            "sektor": "Sektor Kesehatan",
            "tanggal_terbit": "2024-05-08",
            "url_tdpse_detail": "https://pse.komdigi.go.id/tdpse-detail/18849",
            "website": "lvng.id"
        },
        {
            "id": "9cb1ac6f-a5c1-4fdb-98fd-6f8d3c98c433",
            "nama_pse": "DELTA GIRI WACANA",
            "nama_se": "DGW SOLUTION",
            "sektor": "Sektor Teknologi Informasi dan Komunikasi, Sektor Pangan",
            "tanggal_terbit": "2024-05-08",
            "url_tdpse_detail": "https://pse.komdigi.go.id/tdpse-detail/18852",
            "website": "-"
        },
        {
            "id": "9cb1ac5a-f192-44b1-81a2-a676865ca839",
            "nama_pse": "GERALDYKU LORA SWARA",
            "nama_se": "GERALDYKU LORA SWARA",
            "sektor": "Sektor Teknologi Informasi dan Komunikasi",
            "tanggal_terbit": "2024-05-08",
            "url_tdpse_detail": "https://pse.komdigi.go.id/tdpse-detail/18853",
            "website": "-"
        },
        {
            "id": "9cb1ac5a-f48e-47ae-b195-5d912aea6631",
            "nama_pse": "DAYU MEDIA SEMESTA",
            "nama_se": "FAKTAINVESTIGASI.COM",
            "sektor": "Sektor Teknologi Informasi dan Komunikasi",
            "tanggal_terbit": "2024-05-08",
            "url_tdpse_detail": "https://pse.komdigi.go.id/tdpse-detail/18857",
            "website": "faktainvestigasi.com"
        },
        {
            "id": "9cb1ac6f-a8ee-4a1f-9101-ae783b73b228",
            "nama_pse": "FANDY GROUP INDONESIA",
            "nama_se": "DHAYU SERVERS",
            "sektor": "Sektor Teknologi Informasi dan Komunikasi",
            "tanggal_terbit": "2024-05-08",
            "url_tdpse_detail": "https://pse.komdigi.go.id/tdpse-detail/18859",
            "website": "dhayuservers.web.id"
        },
        {
            "id": "9cb1ac85-44c2-49ce-84e2-7fb97a792e35",
            "nama_pse": "RIO SADEWA",
            "nama_se": "MATAHACKER.ID",
            "sektor": "Sektor Teknologi Informasi dan Komunikasi",
            "tanggal_terbit": "2024-05-08",
            "url_tdpse_detail": "https://pse.komdigi.go.id/tdpse-detail/18860",
            "website": "matahacker.id"
        },
        {
            "id": "9cb1ac85-4b02-4dcd-aa02-bd697eb17da8",
            "nama_pse": "AHLI KARYA IMPROOVI TEKNOLOGI",
            "nama_se": "TALENTMARKET.ID",
            "sektor": "Sektor Teknologi Informasi dan Komunikasi",
            "tanggal_terbit": "2024-05-08",
            "url_tdpse_detail": "https://pse.komdigi.go.id/tdpse-detail/18861",
            "website": "talentmarket.id"
        },
        {
            "id": "9cb1ac6f-b18e-4e84-8418-540bfca92253",
            "nama_pse": "DAYU MEDIA SEMESTA",
            "nama_se": "CAKRAINVESTIGASI.COM",
            "sektor": "Sektor Teknologi Informasi dan Komunikasi",
            "tanggal_terbit": "2024-05-08",
            "url_tdpse_detail": "https://pse.komdigi.go.id/tdpse-detail/18862",
            "website": "cakrainvestigasi.com"
        },
        {
            "id": "9cb1ac85-4eaa-4dc2-8539-3b5e52044011",
            "nama_pse": "CIHUY TEKNOLOGI INDONESIA",
            "nama_se": "CIHUY APPS",
            "sektor": "Sektor Perdagangan, Sektor Transportasi",
            "tanggal_terbit": "2024-05-08",
            "url_tdpse_detail": "https://pse.komdigi.go.id/tdpse-detail/18863",
            "website": "cihuyapps.com"
        },
        {
            "id": "9cb1ac85-51c8-4d7c-aa48-8fb1e37db5be",
            "nama_pse": "ARIO GLOBAL SOLUTION",
            "nama_se": "BATTERY BIRD",
            "sektor": "Sektor Teknologi Informasi dan Komunikasi",
            "tanggal_terbit": "2024-05-08",
            "url_tdpse_detail": "https://pse.komdigi.go.id/tdpse-detail/18864",
            "website": "batterybird.com"
        },
        {
            "id": "9cb1ac85-54fe-4306-af01-22c380c465b0",
            "nama_pse": "ARDI JAYA SOLUSINDO",
            "nama_se": "AJSPAY",
            "sektor": "Sektor Perdagangan",
            "tanggal_terbit": "2024-05-08",
            "url_tdpse_detail": "https://pse.komdigi.go.id/tdpse-detail/18865",
            "website": "ajs.id"
        },
        {
            "id": "9cb1ac6f-b974-4502-9350-e9e22598b028",
            "nama_pse": "PUTU DITA INDRAPRATAMA KADER",
            "nama_se": "AKSARA POS SYSTEM",
            "sektor": "Sektor Kesehatan, Sektor Teknologi Informasi dan Komunikasi",
            "tanggal_terbit": "2024-05-08",
            "url_tdpse_detail": "https://pse.komdigi.go.id/tdpse-detail/18866",
            "website": "aksaratech.com"
        },
        {
            "id": "9cb1ac6d-784e-4d7c-93f9-f0f0f692ad48",
            "nama_pse": "ELEKTRON REKA PRATAMA",
            "nama_se": "ELEKTRON MEDITECH",
            "sektor": "Sektor Teknologi Informasi dan Komunikasi",
            "tanggal_terbit": "2024-05-07",
            "url_tdpse_detail": "https://pse.komdigi.go.id/tdpse-detail/18841",
            "website": "-"
        },
        {
            "id": "9cb1ac5a-ca0b-4429-afab-f623f704bf0d",
            "nama_pse": "MODERN ABADI",
            "nama_se": "FAVO",
            "sektor": "Sektor Perdagangan, Sektor Teknologi Informasi dan Komunikasi",
            "tanggal_terbit": "2024-05-07",
            "url_tdpse_detail": "https://pse.komdigi.go.id/tdpse-detail/18846",
            "website": "favo.id"
        },
        {
            "id": "9cb1ac85-185d-4587-b951-f25248b6b241",
            "nama_pse": "AXA INSURANCE INDONESIA",
            "nama_se": "AXA MYINSURANCE",
            "sektor": "Sektor Keuangan",
            "tanggal_terbit": "2024-05-07",
            "url_tdpse_detail": "https://pse.komdigi.go.id/tdpse-detail/18837",
            "website": "myinsurance.axa.co.id"
        },
        {
            "id": "9cb1ac6f-7fa3-4411-b7a9-57833a0dfe8f",
            "nama_pse": "AIRPAY INTERNATIONAL INDONESIA",
            "nama_se": "SHOPEEPAY",
            "sektor": "Sektor Keuangan",
            "tanggal_terbit": "2024-05-07",
            "url_tdpse_detail": "https://pse.komdigi.go.id/tdpse-detail/18838",
            "website": "-"
        },
        {
            "id": "9cb1ac85-262b-4193-95a4-bac947cb6979",
            "nama_pse": "SIRIUS WIRA PERSADA",
            "nama_se": "SIRIUS WIRA PERSADA",
            "sektor": "Sektor Perdagangan, Sektor Teknologi Informasi dan Komunikasi",
            "tanggal_terbit": "2024-05-07",
            "url_tdpse_detail": "https://pse.komdigi.go.id/tdpse-detail/18835",
            "website": "mysirius.id"
        },
        {
            "id": "9cb1ac5a-dff1-40b0-a6d6-bcaab277fba5",
            "nama_pse": "ZAINAL MUTTAQIN",
            "nama_se": "SIM KLINIK PEMUDA MEDIKA SEJAHTERA",
            "sektor": "Sektor Kesehatan",
            "tanggal_terbit": "2024-05-07",
            "url_tdpse_detail": "https://pse.komdigi.go.id/tdpse-detail/18836",
            "website": "-"
        },
        {
            "id": "9cb1ac6f-90e0-49e7-a2db-430ca8d8b78d",
            "nama_pse": "PUTRA MANDIRI PULSA",
            "nama_se": "PM PULSA",
            "sektor": "Sektor Perdagangan",
            "tanggal_terbit": "2024-05-07",
            "url_tdpse_detail": "https://pse.komdigi.go.id/tdpse-detail/18839",
            "website": "-"
        },
        {
            "id": "9cb1ac85-2e98-4603-828e-818391777a50",
            "nama_pse": "MITRA PELITA TERANGI BANGSA",
            "nama_se": "MPTB",
            "sektor": "Sektor Teknologi Informasi dan Komunikasi",
            "tanggal_terbit": "2024-05-07",
            "url_tdpse_detail": "https://pse.komdigi.go.id/tdpse-detail/18840",
            "website": "-"
        },
        {
            "id": "9cb1ac5a-e787-43d9-9965-9d32b862dd29",
            "nama_pse": "BISNIS WARALABA INDONESIA",
            "nama_se": "BISNISWARALABAINDONESIA.COM",
            "sektor": "Sektor Perdagangan",
            "tanggal_terbit": "2024-05-07",
            "url_tdpse_detail": "https://pse.komdigi.go.id/tdpse-detail/18842",
            "website": "bisniswaralabaindonesia.com"
        },
        {
            "id": "9cb1ac85-31bc-4cbf-a84a-3724d89310e4",
            "nama_pse": "NURULFIKRI BINA PRESTASI",
            "nama_se": "ANALISIS DATA RAPOR DAN ALUMNI NURUL FIKRI (ANDARA NF)",
            "sektor": "Sektor Teknologi Informasi dan Komunikasi",
            "tanggal_terbit": "2024-05-07",
            "url_tdpse_detail": "https://pse.komdigi.go.id/tdpse-detail/18843",
            "website": "andara.bimbelnurulfikri.id"
        },
        {
            "id": "9cb1ac6f-9b44-41f8-a32d-296a7e0454b3",
            "nama_pse": "KERTHI BALI SANTHI",
            "nama_se": "COMPANY PROFILE PERUSAHAAN UMUM DAERAH KERTHI BALI SANTHI",
            "sektor": "Sektor Teknologi Informasi dan Komunikasi",
            "tanggal_terbit": "2024-05-07",
            "url_tdpse_detail": "https://pse.komdigi.go.id/tdpse-detail/18845",
            "website": "kbsdigital.co.id"
        },
        {
            "id": "9cb1ac6a-bcd8-4760-8496-c0c527a5852a",
            "nama_pse": "KIRIMAN DANA PANDAI",
            "nama_se": "KYRIM",
            "sektor": "Sektor Keuangan",
            "tanggal_terbit": "2024-05-06",
            "url_tdpse_detail": "https://pse.komdigi.go.id/tdpse-detail/18822",
            "website": "kyrim.co.id"
        },
        {
            "id": "9cb1ac5a-8683-4554-80ac-af4ed388a786",
            "nama_pse": "PERTA LIFE INSURANCE",
            "nama_se": "PERTALIFE CARE",
            "sektor": "Sektor Keuangan",
            "tanggal_terbit": "2024-05-06",
            "url_tdpse_detail": "https://pse.komdigi.go.id/tdpse-detail/18823",
            "website": "-"
        },
        {
            "id": "9cb1ac6f-74dd-46e2-b1ff-f09734d6a1ce",
            "nama_pse": "BFI FINANCE INDONESIA",
            "nama_se": "GENFI",
            "sektor": "Sektor Keuangan",
            "tanggal_terbit": "2024-05-06",
            "url_tdpse_detail": "https://pse.komdigi.go.id/tdpse-detail/18824",
            "website": "-"
        },
        {
            "id": "9cb1ac85-1184-40af-ab72-ae996f42f388",
            "nama_pse": "TENCENT TECHNOLOGY INDONESIA",
            "nama_se": "TENCENTCLOUD.COM",
            "sektor": "Sektor Teknologi Informasi dan Komunikasi",
            "tanggal_terbit": "2024-05-06",
            "url_tdpse_detail": "https://pse.komdigi.go.id/tdpse-detail/18827",
            "website": "tencentcloud.com"
        },
        {
            "id": "9cb1ac5a-bf44-4581-9475-c5d3dd94cc94",
            "nama_pse": "HEXACON UTAMA INDONESIA",
            "nama_se": "PT HEXACON UTAMA INDONESIA",
            "sektor": "Sektor Perdagangan",
            "tanggal_terbit": "2024-05-06",
            "url_tdpse_detail": "https://pse.komdigi.go.id/tdpse-detail/18825",
            "website": "grchexacon.co.id"
        },
        {
            "id": "9cb1ac5a-c6bf-41ee-8ec1-d74095d97814",
            "nama_pse": "SPRINT ASIA TECHNOLOGY",
            "nama_se": "SPRINT RESULTICKS",
            "sektor": "Sektor Teknologi Informasi dan Komunikasi",
            "tanggal_terbit": "2024-05-06",
            "url_tdpse_detail": "https://pse.komdigi.go.id/tdpse-detail/18828",
            "website": "resulticks.com"
        }
    ],
    "processingTimeMs": 29,
    "query": "",
    "totalHits": 19131,
    "hitsPerPage": 50,
    "page": 68,
    "totalPages": 383
}