{
    "hits": [
        {
            "id": "9cb1ab7d-d545-4d05-b077-108635c4be88",
            "nama_pse": "BANK CIMB NIAGA",
            "nama_se": "API GATEWAY",
            "sektor": "Sektor Keuangan, Sektor Keuangan, Sektor Keuangan, Sektor Keuangan, Sektor Keuangan",
            "tanggal_terbit": "2021-06-02",
            "url_tdpse_detail": "https://pse.komdigi.go.id/tdpse-detail/1222",
            "website": "api.cimbniaga.co.id"
        },
        {
            "id": "9cb1ab85-defe-45a5-a0a2-81f605a789c9",
            "nama_pse": "BANK CIMB NIAGA",
            "nama_se": "CHATBOT (OCTOCHAT)",
            "sektor": "Sektor Keuangan, Sektor Keuangan, Sektor Keuangan, Sektor Keuangan, Sektor Keuangan",
            "tanggal_terbit": "2021-06-02",
            "url_tdpse_detail": "https://pse.komdigi.go.id/tdpse-detail/1223",
            "website": "-"
        },
        {
            "id": "9cb1ab85-e122-43bb-85c4-41d751369341",
            "nama_pse": "BANK CIMB NIAGA",
            "nama_se": "OCTO FRIENDS",
            "sektor": "Sektor Keuangan, Sektor Keuangan, Sektor Keuangan, Sektor Keuangan, Sektor Keuangan",
            "tanggal_terbit": "2021-06-02",
            "url_tdpse_detail": "https://pse.komdigi.go.id/tdpse-detail/1313",
            "website": "octofriends.cimbniaga.co.id"
        },
        {
            "id": "9cb1ab85-e4ca-4eba-af71-87d357e9b405",
            "nama_pse": "BANK CIMB NIAGA",
            "nama_se": "CONSUMER MICROSITE",
            "sektor": "Sektor Keuangan, Sektor Keuangan, Sektor Keuangan, Sektor Keuangan, Sektor Keuangan",
            "tanggal_terbit": "2021-06-02",
            "url_tdpse_detail": "https://pse.komdigi.go.id/tdpse-detail/1315",
            "website": "cards-loan.cimbniaga.co.id"
        },
        {
            "id": "9cb1ab85-e959-4647-89a3-e6780d2fedfb",
            "nama_pse": "BANK CIMB NIAGA",
            "nama_se": "POINXTRA GALLERY",
            "sektor": "Sektor Keuangan, Sektor Keuangan, Sektor Keuangan, Sektor Keuangan, Sektor Keuangan",
            "tanggal_terbit": "2021-06-02",
            "url_tdpse_detail": "https://pse.komdigi.go.id/tdpse-detail/1316",
            "website": "poinxtra.cimbniaga.co.id"
        },
        {
            "id": "9cb1ab8d-7a2e-4a39-ae11-a1f110cd0c28",
            "nama_pse": "BANK CIMB NIAGA",
            "nama_se": "CC E-FORM",
            "sektor": "Sektor Keuangan, Sektor Keuangan, Sektor Keuangan, Sektor Keuangan, Sektor Keuangan",
            "tanggal_terbit": "2021-06-02",
            "url_tdpse_detail": "https://pse.komdigi.go.id/tdpse-detail/1317",
            "website": "ccdci.cimbniaga.co.id"
        },
        {
            "id": "9cb1ab86-278a-43d7-bd02-9eed8415a291",
            "nama_pse": "HARMONI DINAMIK INDONESIA",
            "nama_se": "WWW.HDISTORE.COM",
            "sektor": "Sektor Perdagangan, Sektor Perdagangan",
            "tanggal_terbit": "2021-06-02",
            "url_tdpse_detail": "https://pse.komdigi.go.id/tdpse-detail/1226",
            "website": "HDISTORE.COM"
        },
        {
            "id": "9cb1ab7e-07ea-4d70-a6aa-4ebbd867b859",
            "nama_pse": "ADASIA TECHNOLOGY INDONESIA",
            "nama_se": "ANYFACTORY",
            "sektor": "Sektor Teknologi Informasi dan Komunikasi, Sektor Teknologi Informasi dan Komunikasi",
            "tanggal_terbit": "2021-06-02",
            "url_tdpse_detail": "https://pse.komdigi.go.id/tdpse-detail/1095",
            "website": "anyfactory.co.id"
        },
        {
            "id": "9cb1ab7e-0ce9-4917-8ef2-5d8b060b7486",
            "nama_pse": "ADASIA TECHNOLOGY INDONESIA",
            "nama_se": "ANYTAG",
            "sektor": "Sektor Perdagangan, Sektor Teknologi Informasi dan Komunikasi, Sektor Teknologi Informasi dan Komunikasi",
            "tanggal_terbit": "2021-06-02",
            "url_tdpse_detail": "https://pse.komdigi.go.id/tdpse-detail/1096",
            "website": "anytag.jp"
        },
        {
            "id": "9cb1ab66-6602-4e22-919b-75429c5790cb",
            "nama_pse": "BINAARTHA SEKURITAS",
            "nama_se": "BINAARTHA ONLINE TRADING",
            "sektor": "Sektor Keuangan, Sektor Keuangan, Sektor Keuangan, Sektor Keuangan, Sektor Keuangan, Sektor Keuangan, Sektor Keuangan",
            "tanggal_terbit": "2021-06-02",
            "url_tdpse_detail": "https://pse.komdigi.go.id/tdpse-detail/1117",
            "website": "onlinetrading.binaartha.com"
        },
        {
            "id": "9cb1ab9e-3795-49f7-9cba-6b7ab8fef3c5",
            "nama_pse": "MARGA NUSANTARA JAYA",
            "nama_se": "E-DISTRIBUTOR",
            "sektor": "Sektor Perdagangan, Sektor Perdagangan",
            "tanggal_terbit": "2021-06-02",
            "url_tdpse_detail": "https://pse.komdigi.go.id/tdpse-detail/1079",
            "website": "-"
        },
        {
            "id": "9cb1ab8f-d77b-43a9-a58c-9260f3b554ad",
            "nama_pse": "SURYARAYA RUBBERINDO INDUSTRIES",
            "nama_se": "WEBSITE FDRTIRE.COM",
            "sektor": "Sektor Teknologi Informasi dan Komunikasi, Sektor Teknologi Informasi dan Komunikasi",
            "tanggal_terbit": "2021-06-02",
            "url_tdpse_detail": "https://pse.komdigi.go.id/tdpse-detail/1369",
            "website": "fdrtire.com"
        },
        {
            "id": "9cb1aba9-0f3e-4f83-a050-f1bd1df721a0",
            "nama_pse": "ANUGERAH LESTARI TEKNOKREASI",
            "nama_se": "ALTERNATE APPS",
            "sektor": "Sektor Teknologi Informasi dan Komunikasi, Sektor Teknologi Informasi dan Komunikasi",
            "tanggal_terbit": "2021-06-02",
            "url_tdpse_detail": "https://pse.komdigi.go.id/tdpse-detail/1354",
            "website": "anugerahlestariteknokreasi.id"
        },
        {
            "id": "9cb1ab91-7719-40c2-8c95-01ab65675e8c",
            "nama_pse": "DHASATRA MONEYTRANSFER",
            "nama_se": "PAY-U",
            "sektor": "Sektor Keuangan, Sektor Keuangan, Sektor Keuangan, Sektor Teknologi Informasi dan Komunikasi, Sektor Teknologi Informasi dan Komunikasi, Sektor Teknologi Informasi dan Komunikasi",
            "tanggal_terbit": "2021-06-02",
            "url_tdpse_detail": "https://pse.komdigi.go.id/tdpse-detail/1151",
            "website": "dhasatra.com"
        },
        {
            "id": "9cb1ab91-7ae1-4b56-abb2-bcc8b82afaac",
            "nama_pse": "FINNET INDONESIA",
            "nama_se": "FINPAY",
            "sektor": "Sektor Keuangan, Sektor Keuangan, Sektor Keuangan, Sektor Keuangan",
            "tanggal_terbit": "2021-06-02",
            "url_tdpse_detail": "https://pse.komdigi.go.id/tdpse-detail/1097",
            "website": "Finpay.id"
        },
        {
            "id": "9cb1ab91-80d9-4922-a285-eba8240560c0",
            "nama_pse": "FINNET INDONESIA",
            "nama_se": "FINPAY MONEY",
            "sektor": "Sektor Keuangan, Sektor Keuangan, Sektor Keuangan, Sektor Keuangan",
            "tanggal_terbit": "2021-06-02",
            "url_tdpse_detail": "https://pse.komdigi.go.id/tdpse-detail/1099",
            "website": "-"
        },
        {
            "id": "9cb1ab91-85db-4510-b691-afbcbd854e7f",
            "nama_pse": "FINNET INDONESIA",
            "nama_se": "SISTEM AGGREGATOR PULSA PREPAID ALL OPERATOR",
            "sektor": "Sektor Perdagangan, Sektor Perdagangan, Sektor Perdagangan, Sektor Perdagangan",
            "tanggal_terbit": "2021-06-02",
            "url_tdpse_detail": "https://pse.komdigi.go.id/tdpse-detail/1113",
            "website": "-"
        },
        {
            "id": "9cb1ab91-8927-4b2a-a155-989a79d0f8da",
            "nama_pse": "SATRIA ABADI TERPADU",
            "nama_se": "DIGITAL B2B AGGREGATOR",
            "sektor": "Sektor Perdagangan, Sektor Perdagangan, Sektor Teknologi Informasi dan Komunikasi, Sektor Teknologi Informasi dan Komunikasi",
            "tanggal_terbit": "2021-06-02",
            "url_tdpse_detail": "https://pse.komdigi.go.id/tdpse-detail/1105",
            "website": "tokopedia.com/partner"
        },
        {
            "id": "9cb1aba9-2efc-49ae-b514-f36b2c42b639",
            "nama_pse": "MIRAE ASSET SEKURITAS INDONESIA",
            "nama_se": "OPENACCOUNT WEB APP",
            "sektor": "Sektor Perdagangan, Sektor Perdagangan, Sektor Perdagangan, Sektor Perdagangan, Sektor Perdagangan, Sektor Perdagangan, Sektor Perdagangan, Sektor Perdagangan, Sektor Keuangan, Sektor Keuangan, Sektor Keuangan, Sektor Keuangan, Sektor Keuangan, Sektor Keuangan, Sektor Keuangan, Sektor Keuangan",
            "tanggal_terbit": "2021-06-02",
            "url_tdpse_detail": "https://pse.komdigi.go.id/tdpse-detail/1115",
            "website": "open.miraeasset.co.id"
        },
        {
            "id": "9cb1ab91-8c72-42c5-b83e-22714f363cd2",
            "nama_pse": "MIRAE ASSET SEKURITAS INDONESIA",
            "nama_se": "MAXFUND",
            "sektor": "Sektor Keuangan, Sektor Keuangan, Sektor Keuangan, Sektor Keuangan, Sektor Keuangan, Sektor Keuangan, Sektor Keuangan, Sektor Keuangan",
            "tanggal_terbit": "2021-06-02",
            "url_tdpse_detail": "https://pse.komdigi.go.id/tdpse-detail/1118",
            "website": "max.miraeasset.co.id"
        },
        {
            "id": "9cb1ab91-8f72-4671-850c-8f0e45363185",
            "nama_pse": "MIRAE ASSET SEKURITAS INDONESIA",
            "nama_se": "NEO HOTS",
            "sektor": "Sektor Perdagangan, Sektor Perdagangan, Sektor Perdagangan, Sektor Perdagangan, Sektor Perdagangan, Sektor Perdagangan, Sektor Perdagangan, Sektor Perdagangan, Sektor Keuangan, Sektor Keuangan, Sektor Keuangan, Sektor Keuangan, Sektor Keuangan, Sektor Keuangan, Sektor Keuangan, Sektor Keuangan",
            "tanggal_terbit": "2021-06-02",
            "url_tdpse_detail": "https://pse.komdigi.go.id/tdpse-detail/1119",
            "website": "-"
        },
        {
            "id": "9cb1ab91-92ae-423f-902b-ef2da2826f06",
            "nama_pse": "MIRAE ASSET SEKURITAS INDONESIA",
            "nama_se": "HOTS",
            "sektor": "Sektor Perdagangan, Sektor Perdagangan, Sektor Perdagangan, Sektor Perdagangan, Sektor Perdagangan, Sektor Perdagangan, Sektor Perdagangan, Sektor Perdagangan, Sektor Keuangan, Sektor Keuangan, Sektor Keuangan, Sektor Keuangan, Sektor Keuangan, Sektor Keuangan, Sektor Keuangan, Sektor Keuangan",
            "tanggal_terbit": "2021-06-02",
            "url_tdpse_detail": "https://pse.komdigi.go.id/tdpse-detail/1120",
            "website": "-"
        },
        {
            "id": "9cb1ab9e-e302-4d90-9919-4ee29aacb979",
            "nama_pse": "MIRAE ASSET SEKURITAS INDONESIA",
            "nama_se": "WEB MIRAE ASSET",
            "sektor": "Sektor Perdagangan, Sektor Perdagangan, Sektor Perdagangan, Sektor Perdagangan, Sektor Perdagangan, Sektor Perdagangan, Sektor Perdagangan, Sektor Perdagangan, Sektor Keuangan, Sektor Keuangan, Sektor Keuangan, Sektor Keuangan, Sektor Keuangan, Sektor Keuangan, Sektor Keuangan, Sektor Keuangan",
            "tanggal_terbit": "2021-06-02",
            "url_tdpse_detail": "https://pse.komdigi.go.id/tdpse-detail/1121",
            "website": "hots.miraeasset.co.id"
        },
        {
            "id": "9cb1aba9-3223-4e8f-ac35-b9b5bf9f0eef",
            "nama_pse": "POIN OPTIMA SISTEM",
            "nama_se": "TOKOPOS",
            "sektor": "Sektor Perdagangan, Sektor Perdagangan, Sektor Teknologi Informasi dan Komunikasi, Sektor Teknologi Informasi dan Komunikasi",
            "tanggal_terbit": "2021-06-02",
            "url_tdpse_detail": "https://pse.komdigi.go.id/tdpse-detail/1116",
            "website": "toqopos.com"
        },
        {
            "id": "9cb1aba9-34db-4475-a3b5-32086097787e",
            "nama_pse": "MANPRO TEKNOLOGI INDONESIA",
            "nama_se": "MANPRO",
            "sektor": "Sektor Teknologi Informasi dan Komunikasi, Sektor Teknologi Informasi dan Komunikasi",
            "tanggal_terbit": "2021-06-02",
            "url_tdpse_detail": "https://pse.komdigi.go.id/tdpse-detail/1216",
            "website": "MANPRO.ID"
        },
        {
            "id": "9cb1ab91-9de9-486b-87b5-a9f8afd92579",
            "nama_pse": "SAMPINGAN MITRA INDONESIA",
            "nama_se": "SAMPINGAN",
            "sektor": "Sektor Teknologi Informasi dan Komunikasi, Sektor Teknologi Informasi dan Komunikasi, Sektor Teknologi Informasi dan Komunikasi",
            "tanggal_terbit": "2021-06-02",
            "url_tdpse_detail": "https://pse.komdigi.go.id/tdpse-detail/1389",
            "website": "sampingan.co.id"
        },
        {
            "id": "9cb1aba9-9413-4b89-953d-b4286886ec0c",
            "nama_pse": "PERUSAHAAN PERSEROAN (PERSERO) PT. BANK MANDIRI",
            "nama_se": "NEW CORPORATE WEB SITE",
            "sektor": "Sektor Keuangan, Sektor Keuangan, Sektor Keuangan, Sektor Keuangan, Sektor Keuangan, Sektor Keuangan, Sektor Keuangan, Sektor Keuangan, Sektor Keuangan, Sektor Keuangan, Sektor Keuangan, Sektor Keuangan",
            "tanggal_terbit": "2021-06-02",
            "url_tdpse_detail": "https://pse.komdigi.go.id/tdpse-detail/1100",
            "website": "bankmandiri.co.id"
        },
        {
            "id": "9cb1ab92-1f7d-4a9c-8caf-5af988963f99",
            "nama_pse": "PERUSAHAAN PERSEROAN (PERSERO) PT. BANK MANDIRI",
            "nama_se": "ONLINE CUSTODY",
            "sektor": "Sektor Keuangan, Sektor Keuangan, Sektor Keuangan, Sektor Keuangan, Sektor Keuangan, Sektor Keuangan, Sektor Keuangan, Sektor Keuangan, Sektor Keuangan, Sektor Keuangan, Sektor Keuangan, Sektor Keuangan",
            "tanggal_terbit": "2021-06-02",
            "url_tdpse_detail": "https://pse.komdigi.go.id/tdpse-detail/1180",
            "website": "custody.bankmandiri.co.id"
        },
        {
            "id": "9cb1aba9-9682-403f-aeef-36508170676d",
            "nama_pse": "PERUSAHAAN PERSEROAN (PERSERO) PT. BANK MANDIRI",
            "nama_se": "EWORKPLACE - DASHBOARD DANA HIBAH UI (MBAS)",
            "sektor": "Sektor Keuangan, Sektor Keuangan, Sektor Keuangan, Sektor Keuangan, Sektor Keuangan, Sektor Keuangan, Sektor Keuangan, Sektor Keuangan, Sektor Keuangan, Sektor Keuangan, Sektor Keuangan, Sektor Keuangan",
            "tanggal_terbit": "2021-06-02",
            "url_tdpse_detail": "https://pse.komdigi.go.id/tdpse-detail/1181",
            "website": "eworkplace.bankmandiri.co.id/#/ui-dashboard/institusi"
        },
        {
            "id": "9cb1ab9f-42ef-4230-b975-d36e8fa4f565",
            "nama_pse": "PERUSAHAAN PERSEROAN (PERSERO) PT. BANK MANDIRI",
            "nama_se": "EWORKPLACE - DASHBOARD VA KEMENKEU (GOVERNMENT DIGITAL DASHBOARD)",
            "sektor": "Sektor Keuangan, Sektor Keuangan, Sektor Keuangan, Sektor Keuangan, Sektor Keuangan, Sektor Keuangan, Sektor Keuangan, Sektor Keuangan, Sektor Keuangan, Sektor Keuangan, Sektor Keuangan, Sektor Keuangan",
            "tanggal_terbit": "2021-06-02",
            "url_tdpse_detail": "https://pse.komdigi.go.id/tdpse-detail/1182",
            "website": "eworkplace.bankmandiri.co.id/#/gov-dashboard/"
        },
        {
            "id": "9cb1ab92-22d6-4478-823e-7004718ebf44",
            "nama_pse": "PERUSAHAAN PERSEROAN (PERSERO) PT. BANK MANDIRI",
            "nama_se": "MHAS (MANDIRI HOSPITAL APPLICATION)",
            "sektor": "Sektor Keuangan, Sektor Keuangan, Sektor Keuangan, Sektor Keuangan, Sektor Keuangan, Sektor Keuangan, Sektor Keuangan, Sektor Keuangan, Sektor Keuangan, Sektor Keuangan, Sektor Keuangan, Sektor Keuangan",
            "tanggal_terbit": "2021-06-02",
            "url_tdpse_detail": "https://pse.komdigi.go.id/tdpse-detail/1183",
            "website": "newmhas.bankmandiri.co.id"
        },
        {
            "id": "9cb1ab9f-44c1-4d7c-9b02-0c1409983b1f",
            "nama_pse": "PERUSAHAAN PERSEROAN (PERSERO) PT. BANK MANDIRI",
            "nama_se": "MANDIRI RECONCILIATION PORTAL (MRP)",
            "sektor": "Sektor Keuangan, Sektor Keuangan, Sektor Keuangan, Sektor Keuangan, Sektor Keuangan, Sektor Keuangan, Sektor Keuangan, Sektor Keuangan, Sektor Keuangan, Sektor Keuangan, Sektor Keuangan, Sektor Keuangan",
            "tanggal_terbit": "2021-06-02",
            "url_tdpse_detail": "https://pse.komdigi.go.id/tdpse-detail/1184",
            "website": "mrp.bankmandiri.co.id"
        },
        {
            "id": "9cb1aba9-986d-4b89-97a6-0fd9fbf189e7",
            "nama_pse": "PERUSAHAAN PERSEROAN (PERSERO) PT. BANK MANDIRI",
            "nama_se": "MEP REKON",
            "sektor": "Sektor Keuangan, Sektor Keuangan, Sektor Keuangan, Sektor Keuangan, Sektor Keuangan, Sektor Keuangan, Sektor Keuangan, Sektor Keuangan, Sektor Keuangan, Sektor Keuangan, Sektor Keuangan, Sektor Keuangan",
            "tanggal_terbit": "2021-06-02",
            "url_tdpse_detail": "https://pse.komdigi.go.id/tdpse-detail/1185",
            "website": "mep-recon.com"
        },
        {
            "id": "9cb1ab92-26f8-4700-bc83-36944bc36ba4",
            "nama_pse": "PERUSAHAAN PERSEROAN (PERSERO) PT. BANK MANDIRI",
            "nama_se": "MHAS 1.0 (GLOBAL INNOVATION TECHNOLOGY)",
            "sektor": "Sektor Keuangan, Sektor Keuangan, Sektor Keuangan, Sektor Keuangan, Sektor Keuangan, Sektor Keuangan, Sektor Keuangan, Sektor Keuangan, Sektor Keuangan, Sektor Keuangan, Sektor Keuangan, Sektor Keuangan",
            "tanggal_terbit": "2021-06-02",
            "url_tdpse_detail": "https://pse.komdigi.go.id/tdpse-detail/1186",
            "website": "mhasdashboard.bankmandiri.co.id"
        },
        {
            "id": "9cb1ab9f-467a-4aa0-b1a0-f19cafa8b20c",
            "nama_pse": "PERUSAHAAN PERSEROAN (PERSERO) PT. BANK MANDIRI",
            "nama_se": "MARS EUC",
            "sektor": "Sektor Keuangan, Sektor Keuangan, Sektor Keuangan, Sektor Keuangan, Sektor Keuangan, Sektor Keuangan, Sektor Keuangan, Sektor Keuangan, Sektor Keuangan, Sektor Keuangan, Sektor Keuangan, Sektor Keuangan",
            "tanggal_terbit": "2021-06-02",
            "url_tdpse_detail": "https://pse.komdigi.go.id/tdpse-detail/1187",
            "website": "mars.rshs.or.id;  csa-rsmh.1.6/index.php"
        },
        {
            "id": "9cb1ab92-2caa-46fd-ab51-f97da79d7bae",
            "nama_pse": "PERUSAHAAN PERSEROAN (PERSERO) PT. BANK MANDIRI",
            "nama_se": "WEBSITE MANDIRI KARTU KREDIT",
            "sektor": "Sektor Keuangan, Sektor Keuangan, Sektor Keuangan, Sektor Keuangan, Sektor Keuangan, Sektor Keuangan, Sektor Keuangan, Sektor Keuangan, Sektor Keuangan, Sektor Keuangan, Sektor Keuangan, Sektor Keuangan",
            "tanggal_terbit": "2021-06-02",
            "url_tdpse_detail": "https://pse.komdigi.go.id/tdpse-detail/1188",
            "website": "mandirikartukredit.com"
        },
        {
            "id": "9cb1ab9f-483e-4016-93c6-b0d333508d7d",
            "nama_pse": "PERUSAHAAN PERSEROAN (PERSERO) PT. BANK MANDIRI",
            "nama_se": "APLIKASI MANDIRI AGEN LAKU PANDAI - BRANCHLESS BANKING",
            "sektor": "Sektor Keuangan, Sektor Keuangan, Sektor Keuangan, Sektor Keuangan, Sektor Keuangan, Sektor Keuangan, Sektor Keuangan, Sektor Keuangan, Sektor Keuangan, Sektor Keuangan, Sektor Keuangan, Sektor Keuangan",
            "tanggal_terbit": "2021-06-02",
            "url_tdpse_detail": "https://pse.komdigi.go.id/tdpse-detail/1189",
            "website": "-"
        },
        {
            "id": "9cb1ab92-2ed3-4b21-9644-2467388caece",
            "nama_pse": "PERUSAHAAN PERSEROAN (PERSERO) PT. BANK MANDIRI",
            "nama_se": "MFSCM (MANDIRI FINANCIAL SUPPLY CHAIN MANAGEMENT)",
            "sektor": "Sektor Keuangan, Sektor Keuangan, Sektor Keuangan, Sektor Keuangan, Sektor Keuangan, Sektor Keuangan, Sektor Keuangan, Sektor Keuangan, Sektor Keuangan, Sektor Keuangan, Sektor Keuangan, Sektor Keuangan",
            "tanggal_terbit": "2021-06-02",
            "url_tdpse_detail": "https://pse.komdigi.go.id/tdpse-detail/1190",
            "website": "https://corp.scm.bankmandiri.co.id; https://fin.scm.bankmandiri.co.id"
        },
        {
            "id": "9cb1aba9-9a60-4e38-ba79-e17bb21fc378",
            "nama_pse": "PERUSAHAAN PERSEROAN (PERSERO) PT. BANK MANDIRI",
            "nama_se": "MSC SGO (MANDIRI SUPPLY CHAIN )",
            "sektor": "Sektor Keuangan, Sektor Keuangan, Sektor Keuangan, Sektor Keuangan, Sektor Keuangan, Sektor Keuangan, Sektor Keuangan, Sektor Keuangan, Sektor Keuangan, Sektor Keuangan, Sektor Keuangan, Sektor Keuangan",
            "tanggal_terbit": "2021-06-02",
            "url_tdpse_detail": "https://pse.komdigi.go.id/tdpse-detail/1191",
            "website": "scm.bankmandiri.co.id"
        },
        {
            "id": "9cb1ab9f-4a3b-4515-a052-783529ccee38",
            "nama_pse": "PERUSAHAAN PERSEROAN (PERSERO) PT. BANK MANDIRI",
            "nama_se": "MGT (MANDIRI GLOBAL TRADE) 2.0",
            "sektor": "Sektor Keuangan, Sektor Keuangan, Sektor Keuangan, Sektor Keuangan, Sektor Keuangan, Sektor Keuangan, Sektor Keuangan, Sektor Keuangan, Sektor Keuangan, Sektor Keuangan, Sektor Keuangan, Sektor Keuangan",
            "tanggal_terbit": "2021-06-02",
            "url_tdpse_detail": "https://pse.komdigi.go.id/tdpse-detail/1192",
            "website": "bg.bankmandiri.co.id/login"
        },
        {
            "id": "9cb1ab92-3173-46f5-be29-97d5d01c4f8f",
            "nama_pse": "PERUSAHAAN PERSEROAN (PERSERO) PT. BANK MANDIRI",
            "nama_se": "MGT (MANDIRI GLOBAL TRADE; NEW)",
            "sektor": "Sektor Keuangan, Sektor Keuangan, Sektor Keuangan, Sektor Keuangan, Sektor Keuangan, Sektor Keuangan, Sektor Keuangan, Sektor Keuangan, Sektor Keuangan, Sektor Keuangan, Sektor Keuangan, Sektor Keuangan",
            "tanggal_terbit": "2021-06-02",
            "url_tdpse_detail": "https://pse.komdigi.go.id/tdpse-detail/1193",
            "website": "trade.bankmandiri.co.id"
        },
        {
            "id": "9cb1ab92-339a-4c14-b64c-e5f828507358",
            "nama_pse": "PERUSAHAAN PERSEROAN (PERSERO) PT. BANK MANDIRI",
            "nama_se": "BANK @ WORK",
            "sektor": "Sektor Keuangan, Sektor Keuangan, Sektor Keuangan, Sektor Keuangan, Sektor Keuangan, Sektor Keuangan, Sektor Keuangan, Sektor Keuangan, Sektor Keuangan, Sektor Keuangan, Sektor Keuangan, Sektor Keuangan",
            "tanggal_terbit": "2021-06-02",
            "url_tdpse_detail": "https://pse.komdigi.go.id/tdpse-detail/1196",
            "website": "https://abisgajian.id; https://abisgajian.co.id; https://abisgajian.com; https://benefits.bankmandiri.co.id; https://benefitsdev.bankmandiri.co.id"
        },
        {
            "id": "9cb1ab9f-4c9e-4219-8352-01c6b0e3876e",
            "nama_pse": "PERUSAHAAN PERSEROAN (PERSERO) PT. BANK MANDIRI",
            "nama_se": "LIVIN' BY MANDIRI",
            "sektor": "Sektor Keuangan, Sektor Keuangan, Sektor Keuangan, Sektor Keuangan, Sektor Keuangan, Sektor Keuangan, Sektor Keuangan, Sektor Keuangan, Sektor Keuangan, Sektor Keuangan, Sektor Keuangan, Sektor Keuangan",
            "tanggal_terbit": "2021-06-02",
            "url_tdpse_detail": "https://pse.komdigi.go.id/tdpse-detail/1197",
            "website": "ibank.bankmandiri.co.id"
        },
        {
            "id": "9cb1ab9f-4e5e-4e37-8cf3-91a120e36bf3",
            "nama_pse": "PERUSAHAAN PERSEROAN (PERSERO) PT. BANK MANDIRI",
            "nama_se": "APLIKASI API PORTAL",
            "sektor": "Sektor Keuangan, Sektor Keuangan, Sektor Keuangan, Sektor Keuangan, Sektor Keuangan, Sektor Keuangan, Sektor Keuangan, Sektor Keuangan, Sektor Keuangan, Sektor Keuangan, Sektor Keuangan, Sektor Keuangan",
            "tanggal_terbit": "2021-06-02",
            "url_tdpse_detail": "https://pse.komdigi.go.id/tdpse-detail/1198",
            "website": "developer.bankmandiri.co.id "
        },
        {
            "id": "9cb1aba9-9c70-4955-9384-215ef7110444",
            "nama_pse": "PERUSAHAAN PERSEROAN (PERSERO) PT. BANK MANDIRI",
            "nama_se": "SERVICE API BANK MANDIRI PRODUCTION",
            "sektor": "Sektor Keuangan, Sektor Keuangan, Sektor Keuangan, Sektor Keuangan, Sektor Keuangan, Sektor Keuangan, Sektor Keuangan, Sektor Keuangan, Sektor Keuangan, Sektor Keuangan, Sektor Keuangan, Sektor Keuangan",
            "tanggal_terbit": "2021-06-02",
            "url_tdpse_detail": "https://pse.komdigi.go.id/tdpse-detail/1199",
            "website": "-"
        },
        {
            "id": "9cb1aba9-9e7b-41b1-ba61-2539fa369a43",
            "nama_pse": "PERUSAHAAN PERSEROAN (PERSERO) PT. BANK MANDIRI",
            "nama_se": "SERVICE API BANK MANDIRI SANDBOX",
            "sektor": "Sektor Keuangan, Sektor Keuangan, Sektor Keuangan, Sektor Keuangan, Sektor Keuangan, Sektor Keuangan, Sektor Keuangan, Sektor Keuangan, Sektor Keuangan, Sektor Keuangan, Sektor Keuangan, Sektor Keuangan",
            "tanggal_terbit": "2021-06-02",
            "url_tdpse_detail": "https://pse.komdigi.go.id/tdpse-detail/1200",
            "website": "-"
        },
        {
            "id": "9cb1aba9-a06f-4007-b8c8-43abd9d37764",
            "nama_pse": "PERUSAHAAN PERSEROAN (PERSERO) PT. BANK MANDIRI",
            "nama_se": "FIESTA POINT MICROSITE",
            "sektor": "Sektor Keuangan, Sektor Keuangan, Sektor Keuangan, Sektor Keuangan, Sektor Keuangan, Sektor Keuangan, Sektor Keuangan, Sektor Keuangan, Sektor Keuangan, Sektor Keuangan, Sektor Keuangan, Sektor Keuangan",
            "tanggal_terbit": "2021-06-02",
            "url_tdpse_detail": "https://pse.komdigi.go.id/tdpse-detail/1201",
            "website": "fiestapoin.bankmandiri.co.id"
        },
        {
            "id": "9cb1aba9-a248-4057-b0bc-d517546c1659",
            "nama_pse": "PERUSAHAAN PERSEROAN (PERSERO) PT. BANK MANDIRI",
            "nama_se": "LMS MOBILE (JOSS)",
            "sektor": "Sektor Keuangan, Sektor Keuangan, Sektor Keuangan, Sektor Keuangan, Sektor Keuangan, Sektor Keuangan, Sektor Keuangan, Sektor Keuangan, Sektor Keuangan, Sektor Keuangan, Sektor Keuangan, Sektor Keuangan",
            "tanggal_terbit": "2021-06-02",
            "url_tdpse_detail": "https://pse.komdigi.go.id/tdpse-detail/1202",
            "website": "-"
        },
        {
            "id": "9cb1aba9-a469-4136-bb7a-e845d880ebfe",
            "nama_pse": "PERUSAHAAN PERSEROAN (PERSERO) PT. BANK MANDIRI",
            "nama_se": "ONLINE ONBOARDING",
            "sektor": "Sektor Keuangan, Sektor Keuangan, Sektor Keuangan, Sektor Keuangan, Sektor Keuangan, Sektor Keuangan, Sektor Keuangan, Sektor Keuangan, Sektor Keuangan, Sektor Keuangan, Sektor Keuangan, Sektor Keuangan",
            "tanggal_terbit": "2021-06-02",
            "url_tdpse_detail": "https://pse.komdigi.go.id/tdpse-detail/1203",
            "website": "join.bankmandiri.co.id"
        },
        {
            "id": "9cb1ab92-35f4-4b39-8611-08ab1bc3bb41",
            "nama_pse": "PERUSAHAAN PERSEROAN (PERSERO) PT. BANK MANDIRI",
            "nama_se": "APLIKASI PINJAMAN MODAL",
            "sektor": "Sektor Keuangan, Sektor Keuangan, Sektor Keuangan, Sektor Keuangan, Sektor Keuangan, Sektor Keuangan, Sektor Keuangan, Sektor Keuangan, Sektor Keuangan, Sektor Keuangan, Sektor Keuangan, Sektor Keuangan",
            "tanggal_terbit": "2021-06-02",
            "url_tdpse_detail": "https://pse.komdigi.go.id/tdpse-detail/1204",
            "website": "pinjamanmodal.bankmandiri.co.id "
        }
    ],
    "processingTimeMs": 10,
    "query": "",
    "totalHits": 19121,
    "hitsPerPage": 50,
    "page": 362,
    "totalPages": 383
}