{
    "hits": [
        {
            "id": "9cb1abe4-02f0-4b54-9226-316c228a8111",
            "nama_pse": "FARID MUSTOFA",
            "nama_se": "KOCRID CELL",
            "sektor": "Sektor Perdagangan",
            "tanggal_terbit": "2022-07-19",
            "url_tdpse_detail": "https://pse.komdigi.go.id/tdpse-detail/6594",
            "website": "kocridcell.net"
        },
        {
            "id": "9cb1abe4-0cd8-4cbd-8da4-e5fcd2525272",
            "nama_pse": "BANK PEREKONOMIAN RAKYAT ABDI WARGA MULIA",
            "nama_se": "CORE BANKING",
            "sektor": "Sektor Keuangan",
            "tanggal_terbit": "2022-07-19",
            "url_tdpse_detail": "https://pse.komdigi.go.id/tdpse-detail/6595",
            "website": "-"
        },
        {
            "id": "9cb1abbf-f0f6-44c0-a8d1-a8d9b8ca26d2",
            "nama_pse": "BANK PERKREDITAN RAKYAT KERTHA WARGA",
            "nama_se": "PT BPR KERTHA WARGA",
            "sektor": "Sektor Keuangan",
            "tanggal_terbit": "2022-07-19",
            "url_tdpse_detail": "https://pse.komdigi.go.id/tdpse-detail/6596",
            "website": "-"
        },
        {
            "id": "9cb1abb5-32b1-41ec-9408-349d47ffc1c8",
            "nama_pse": "BANK PEREKONOMIAN RAKYAT GUNUNG RIZKI PUSAKA UTAMA",
            "nama_se": "WEBSITE BPR GUNUNG RIZKI",
            "sektor": "Sektor Keuangan",
            "tanggal_terbit": "2022-07-19",
            "url_tdpse_detail": "https://pse.komdigi.go.id/tdpse-detail/6597",
            "website": "gunungrizki.com"
        },
        {
            "id": "9cb1abbf-f320-4332-b670-5e26c30fca74",
            "nama_pse": "INDAH LOGISTIK INTERNASIONAL",
            "nama_se": "MARKETINGILIEXPRESS.COM",
            "sektor": "Sektor Teknologi Informasi dan Komunikasi",
            "tanggal_terbit": "2022-07-19",
            "url_tdpse_detail": "https://pse.komdigi.go.id/tdpse-detail/6598",
            "website": "marketingiliexpress.com"
        },
        {
            "id": "9cb1abbf-f5c1-4834-a762-b68b158b3f1a",
            "nama_pse": "MUHAMMAD ISNAINI RACHMAN",
            "nama_se": "BAKHOEL ONLINE",
            "sektor": "Sektor Perdagangan",
            "tanggal_terbit": "2022-07-19",
            "url_tdpse_detail": "https://pse.komdigi.go.id/tdpse-detail/6601",
            "website": "-"
        },
        {
            "id": "9cb1abe4-1287-413b-b9be-579e0eb2b419",
            "nama_pse": "BANK CENTRAL ASIA",
            "nama_se": "WEBSITE REGISTRASI BYC",
            "sektor": "Sektor Keuangan",
            "tanggal_terbit": "2022-07-19",
            "url_tdpse_detail": "https://pse.komdigi.go.id/tdpse-detail/6602",
            "website": "byc.bca.co.id"
        },
        {
            "id": "9cb1abe4-16bc-4325-9753-3251cdeda27c",
            "nama_pse": "DAYA DIMENSI INDONESIA",
            "nama_se": "ODYSSEY",
            "sektor": "Sektor Teknologi Informasi dan Komunikasi",
            "tanggal_terbit": "2022-07-19",
            "url_tdpse_detail": "https://pse.komdigi.go.id/tdpse-detail/6642",
            "website": "odyssey.co.id"
        },
        {
            "id": "9cb1abb5-34ff-4d2b-8acd-6c08fd2d5969",
            "nama_pse": "ANUGERAH LESTARI TEKNOKREASI",
            "nama_se": "ALTERNATE CBS",
            "sektor": "Sektor Teknologi Informasi dan Komunikasi",
            "tanggal_terbit": "2022-07-19",
            "url_tdpse_detail": "https://pse.komdigi.go.id/tdpse-detail/6600",
            "website": "-"
        },
        {
            "id": "9cb1abb5-37a7-4574-b70b-2e09ce631356",
            "nama_pse": "DELIMA SELARAS",
            "nama_se": "BETTERCHOCOLATETHANNEVER",
            "sektor": "Sektor Perdagangan, Sektor Pangan",
            "tanggal_terbit": "2022-07-19",
            "url_tdpse_detail": "https://pse.komdigi.go.id/tdpse-detail/6603",
            "website": "betterchocolatethannever.com"
        },
        {
            "id": "9cb1abe4-1a26-43dd-bf30-f592a9b5e494",
            "nama_pse": "KEBIJAKAN INDONESIA RAYA",
            "nama_se": "KEBIJAKAN.CO.ID",
            "sektor": "Sektor Teknologi Informasi dan Komunikasi",
            "tanggal_terbit": "2022-07-19",
            "url_tdpse_detail": "https://pse.komdigi.go.id/tdpse-detail/6604",
            "website": "Kebijakan.co.id"
        },
        {
            "id": "9cb1abbf-f8cf-42fc-9825-34d5ac2019d8",
            "nama_pse": "BANK PEREKONOMIAN RAKYAT DANA MITRA SEJAHTERA",
            "nama_se": "WEBSITE",
            "sektor": "Sektor Keuangan",
            "tanggal_terbit": "2022-07-19",
            "url_tdpse_detail": "https://pse.komdigi.go.id/tdpse-detail/6610",
            "website": "bankdms.co.id"
        },
        {
            "id": "9cb1abe4-2dc3-42ea-9c7a-a1ae463e5fc1",
            "nama_pse": "AMMANA FINTEK SYARIAH",
            "nama_se": "AMMANA",
            "sektor": "Sektor Keuangan, Sektor Teknologi Informasi dan Komunikasi",
            "tanggal_terbit": "2022-07-19",
            "url_tdpse_detail": "https://pse.komdigi.go.id/tdpse-detail/6622",
            "website": "ammana.id"
        },
        {
            "id": "9cb1abe4-31e5-46f2-bc42-3eb0320f98aa",
            "nama_pse": "MOAMER KHADAFI",
            "nama_se": "QUOTA MURMER",
            "sektor": "Sektor Perdagangan",
            "tanggal_terbit": "2022-07-19",
            "url_tdpse_detail": "https://pse.komdigi.go.id/tdpse-detail/6605",
            "website": "quotamurmer.com"
        },
        {
            "id": "9cb1abb5-39c5-4a47-87cb-15574fba4c08",
            "nama_pse": "BANK RAYA INDONESIA",
            "nama_se": "API PARTNER BANK RAYA",
            "sektor": "Sektor Keuangan",
            "tanggal_terbit": "2022-07-19",
            "url_tdpse_detail": "https://pse.komdigi.go.id/tdpse-detail/6606",
            "website": "api.bankraya.co.id"
        },
        {
            "id": "9cb1abbf-fb10-47aa-9b49-45a418cb5ab1",
            "nama_pse": "KAYA RAYA TURUN TEMURUN",
            "nama_se": "PRESTISA E-COMMERCE",
            "sektor": "Sektor Perdagangan",
            "tanggal_terbit": "2022-07-19",
            "url_tdpse_detail": "https://pse.komdigi.go.id/tdpse-detail/6607",
            "website": "prestisa.com"
        },
        {
            "id": "9cb1abb5-3bcb-40e4-a6dd-0ab4519dae10",
            "nama_pse": "BANK PERKREDITAN RAKYAT BANK DAERAH GIANYAR",
            "nama_se": "GOBANKING",
            "sektor": "Sektor Keuangan",
            "tanggal_terbit": "2022-07-19",
            "url_tdpse_detail": "https://pse.komdigi.go.id/tdpse-detail/6608",
            "website": "-"
        },
        {
            "id": "9cb1abb5-3da1-468b-bc5b-4e08ae2d338d",
            "nama_pse": "PERUSAHAAN PERSEROAN (PERSERO) PT. BANK RAKYAT INDONESIA",
            "nama_se": "BRI SMART BILLING",
            "sektor": "Sektor Keuangan",
            "tanggal_terbit": "2022-07-19",
            "url_tdpse_detail": "https://pse.komdigi.go.id/tdpse-detail/6609",
            "website": "brismartbilling.id"
        },
        {
            "id": "9cb1abbf-fdf0-4cfb-83cb-314330cdd830",
            "nama_pse": "BANK CENTRAL ASIA",
            "nama_se": "APLIKASI BCA YOUNG COMMUNITY",
            "sektor": "Sektor Keuangan",
            "tanggal_terbit": "2022-07-19",
            "url_tdpse_detail": "https://pse.komdigi.go.id/tdpse-detail/6614",
            "website": "-"
        },
        {
            "id": "9cb1abb5-3f68-4255-adb3-24b8216cf04b",
            "nama_pse": "KEBIJAKAN INDONESIA RAYA",
            "nama_se": "KEBIJAKAN.CO.ID - ARAH JURNALISME BERKUALITAS DAN INDEPENDEN",
            "sektor": "Sektor Teknologi Informasi dan Komunikasi",
            "tanggal_terbit": "2022-07-19",
            "url_tdpse_detail": "https://pse.komdigi.go.id/tdpse-detail/6611",
            "website": "Kebijakan.co.id"
        },
        {
            "id": "9cb1abe4-363c-4afc-a6a7-ea1d63de20ad",
            "nama_pse": "BANK PERKREDITAN RAKYAT PHIDECTAMA ABEPURA",
            "nama_se": "DEJAYO",
            "sektor": "Sektor Keuangan",
            "tanggal_terbit": "2022-07-19",
            "url_tdpse_detail": "https://pse.komdigi.go.id/tdpse-detail/6615",
            "website": "-"
        },
        {
            "id": "9cb1abb5-4127-4440-afd5-2373df2c072b",
            "nama_pse": "BANK PERKREDITAN RAKYAT GIANYAR PARTASEDANA",
            "nama_se": "IBS CORE USSI",
            "sektor": "Sektor Keuangan",
            "tanggal_terbit": "2022-07-19",
            "url_tdpse_detail": "https://pse.komdigi.go.id/tdpse-detail/6613",
            "website": "bprgianyar.com"
        },
        {
            "id": "9cb1abc0-01b6-4731-a07e-a0d352ef2232",
            "nama_pse": "BANK RAYA INDONESIA",
            "nama_se": "API DEV PARTNER BANK RAYA",
            "sektor": "Sektor Keuangan",
            "tanggal_terbit": "2022-07-19",
            "url_tdpse_detail": "https://pse.komdigi.go.id/tdpse-detail/6612",
            "website": "api.dev.bankraya.co.id"
        },
        {
            "id": "9cb1abe4-3b5b-4e0b-8e35-383b485b57d5",
            "nama_pse": "NUSANTARA BINA ARTHA",
            "nama_se": "CORPORATE WEBSITE",
            "sektor": "Sektor Teknologi Informasi dan Komunikasi",
            "tanggal_terbit": "2022-07-19",
            "url_tdpse_detail": "https://pse.komdigi.go.id/tdpse-detail/6656",
            "website": "nbagroup.co.id"
        },
        {
            "id": "9cb1abb5-4334-46fd-b4d3-cafa2c655a54",
            "nama_pse": "BANK PERKREDITAN RAKYAT PUSKUSA BALIDWIPA",
            "nama_se": "BANKING SMART SYSTEM",
            "sektor": "Sektor Keuangan",
            "tanggal_terbit": "2022-07-19",
            "url_tdpse_detail": "https://pse.komdigi.go.id/tdpse-detail/6616",
            "website": "bprpuskusa.com"
        },
        {
            "id": "9cb1abe4-433e-42f1-a434-a8ff25d5bde1",
            "nama_pse": "BANK PEREKONOMIAN RAKYAT UTOMO MANUNGGAL SEJAHTERA LAMPUNG",
            "nama_se": "UTOMOBILE",
            "sektor": "Sektor Keuangan",
            "tanggal_terbit": "2022-07-19",
            "url_tdpse_detail": "https://pse.komdigi.go.id/tdpse-detail/6617",
            "website": "utomobank.co.id"
        },
        {
            "id": "9cb1abb5-4505-4d40-867b-fc4ecbc5cd38",
            "nama_pse": "BANK PEREKONOMIAN RAKYAT HOKI",
            "nama_se": "IBS VIRTUAL ACCOUNT",
            "sektor": "Sektor Keuangan",
            "tanggal_terbit": "2022-07-19",
            "url_tdpse_detail": "https://pse.komdigi.go.id/tdpse-detail/6618",
            "website": "hokibank.co.id"
        },
        {
            "id": "9cb1abb5-46e4-46bd-ac4a-1d3d10a19cbf",
            "nama_pse": "JUSTIKA SOLUSI INDONESIA",
            "nama_se": "EASYBIZ",
            "sektor": "Sektor Perdagangan, Sektor Teknologi Informasi dan Komunikasi",
            "tanggal_terbit": "2022-07-19",
            "url_tdpse_detail": "https://pse.komdigi.go.id/tdpse-detail/6620",
            "website": "easybiz.id"
        },
        {
            "id": "9cb1abc0-060f-4ac5-8396-60bcdb122f56",
            "nama_pse": "KAYA RAYA TURUN TEMURUN",
            "nama_se": "LOVE FTW",
            "sektor": "Sektor Perdagangan",
            "tanggal_terbit": "2022-07-19",
            "url_tdpse_detail": "https://pse.komdigi.go.id/tdpse-detail/6621",
            "website": "loveftw.com"
        },
        {
            "id": "9cb1abe4-4996-46f0-9356-ecfc67832a5c",
            "nama_pse": "LINDUNGI BUMI NUSANTARA",
            "nama_se": "LINDUNGIHUTAN",
            "sektor": "Sektor Teknologi Informasi dan Komunikasi",
            "tanggal_terbit": "2022-07-19",
            "url_tdpse_detail": "https://pse.komdigi.go.id/tdpse-detail/6626",
            "website": "lindungihutan.com"
        },
        {
            "id": "9cb1abe4-4f8c-43f5-a55b-7127f5cde1be",
            "nama_pse": "BANK PERKREDITAN RAKYAT KRISNA YUNA DANA",
            "nama_se": "BSS (BANKING SMART SYSTEM)",
            "sektor": "Sektor Keuangan",
            "tanggal_terbit": "2022-07-19",
            "url_tdpse_detail": "https://pse.komdigi.go.id/tdpse-detail/6623",
            "website": "bprkrisnayunadana.com"
        },
        {
            "id": "9cb1abb5-48a1-46fc-aebd-275392918adb",
            "nama_pse": "BANK PERKREDITAN RAKYAT BANK DAERAH GIANYAR",
            "nama_se": "WEBSITE BANK DAERAH GIANYAR",
            "sektor": "Sektor Keuangan",
            "tanggal_terbit": "2022-07-19",
            "url_tdpse_detail": "https://pse.komdigi.go.id/tdpse-detail/6625",
            "website": "bdgianyar.co.id"
        },
        {
            "id": "9cb1abb5-4ac7-495e-8832-d710e33d61f5",
            "nama_pse": "BANK PERKREDITAN RAKYAT CEPER",
            "nama_se": "WEBSITE",
            "sektor": "Sektor Keuangan",
            "tanggal_terbit": "2022-07-19",
            "url_tdpse_detail": "https://pse.komdigi.go.id/tdpse-detail/6624",
            "website": "bprceperklaten.com"
        },
        {
            "id": "9cb1abb5-4c86-4eb7-93e5-d45c0ac07ee9",
            "nama_pse": "DIGITAL ONLINE TERUS",
            "nama_se": "LAYANAN DIGITAL",
            "sektor": "Sektor Perdagangan, Sektor Teknologi Informasi dan Komunikasi",
            "tanggal_terbit": "2022-07-19",
            "url_tdpse_detail": "https://pse.komdigi.go.id/tdpse-detail/6627",
            "website": "layanandigital.com"
        },
        {
            "id": "9cb1abb5-4e65-4773-add0-533e7bf148a7",
            "nama_pse": "BANK PEREKONOMIAN RAKYAT SURYA YUDHA",
            "nama_se": "WEBSITE",
            "sektor": "Sektor Keuangan",
            "tanggal_terbit": "2022-07-19",
            "url_tdpse_detail": "https://pse.komdigi.go.id/tdpse-detail/6629",
            "website": "bprsuryayudha.id"
        },
        {
            "id": "9cb1abc0-0c97-469b-a3b9-44bbdbc5cc45",
            "nama_pse": "BANK PERKREDITAN RAKYAT PEDUNGAN",
            "nama_se": "BPR PEDUNGAN",
            "sektor": "Sektor Keuangan",
            "tanggal_terbit": "2022-07-19",
            "url_tdpse_detail": "https://pse.komdigi.go.id/tdpse-detail/6630",
            "website": "bprpedungan.com"
        },
        {
            "id": "9cb1abe4-53ba-4f28-8f95-e1548ce14bcc",
            "nama_pse": "SOLUSI KARYA UGAHARI",
            "nama_se": "PRIVATE CLOUD SERVICE",
            "sektor": "Sektor Teknologi Informasi dan Komunikasi",
            "tanggal_terbit": "2022-07-19",
            "url_tdpse_detail": "https://pse.komdigi.go.id/tdpse-detail/6628",
            "website": "-"
        },
        {
            "id": "9cb1abc0-0fc2-4fbf-a491-70beedb92beb",
            "nama_pse": "BANK PERKREDITAN RAKYAT KARYA BERSAMA UGAHARI",
            "nama_se": "BPR KARYA BERSAMA UGAHARI",
            "sektor": "Sektor Keuangan",
            "tanggal_terbit": "2022-07-19",
            "url_tdpse_detail": "https://pse.komdigi.go.id/tdpse-detail/6637",
            "website": "bprkbu.co.id"
        },
        {
            "id": "9cb1abc0-1383-47d9-99b7-0a78edb39b3c",
            "nama_pse": "BANK PERKREDITAN RAKYAT CAHAYA INTAN MANDIRI",
            "nama_se": "CV FOKUS SOLUSI UTAMA",
            "sektor": "Sektor Keuangan",
            "tanggal_terbit": "2022-07-19",
            "url_tdpse_detail": "https://pse.komdigi.go.id/tdpse-detail/6638",
            "website": "-"
        },
        {
            "id": "9cb1abe4-5861-4f33-a8c2-bdf0784c487e",
            "nama_pse": "WEBULL SEKURITAS INDONESIA",
            "nama_se": "S21 PLUS",
            "sektor": "Sektor Keuangan",
            "tanggal_terbit": "2022-07-19",
            "url_tdpse_detail": "https://pse.komdigi.go.id/tdpse-detail/6631",
            "website": "mahastra-andalan-sekuritas.com"
        },
        {
            "id": "9cb1abc0-16e6-4db0-8576-165dafabcee8",
            "nama_pse": "ADMIN PAJAK TEKNOLOGI",
            "nama_se": "ADMINPAJAK.COM",
            "sektor": "Sektor Keuangan",
            "tanggal_terbit": "2022-07-19",
            "url_tdpse_detail": "https://pse.komdigi.go.id/tdpse-detail/6636",
            "website": "adminpajak.com"
        },
        {
            "id": "9cb1abe4-5f40-4efd-84b5-17cf220d3f93",
            "nama_pse": "HINO FINANCE INDONESIA",
            "nama_se": "CORPORATE WEBSITE HINO FINANCE INDONESIA",
            "sektor": "Sektor Keuangan",
            "tanggal_terbit": "2022-07-19",
            "url_tdpse_detail": "https://pse.komdigi.go.id/tdpse-detail/6632",
            "website": "hinofinance.co.id"
        },
        {
            "id": "9cb1abb5-520b-4db8-8725-671d7b6acc80",
            "nama_pse": "BANK PERKREDITAN RAKYAT BERKAH PAKTO",
            "nama_se": "BPR BERKAH PAKTO",
            "sektor": "Sektor Keuangan",
            "tanggal_terbit": "2022-07-19",
            "url_tdpse_detail": "https://pse.komdigi.go.id/tdpse-detail/6634",
            "website": "BPRBERKAHPAKTO.CO.ID"
        },
        {
            "id": "9cb1abb5-5401-4bbe-aff8-07a5dbd55600",
            "nama_pse": "BANK PERKREDITAN RAKYAT PARASARI SIBANG",
            "nama_se": "BANGKING SMART SYSTEM",
            "sektor": "Sektor Keuangan",
            "tanggal_terbit": "2022-07-19",
            "url_tdpse_detail": "https://pse.komdigi.go.id/tdpse-detail/6635",
            "website": "bankparasarisibang.co.id"
        },
        {
            "id": "9cb1abb5-579d-4da3-9b40-6c57066510d2",
            "nama_pse": "BANK PERKREDITAN RAKYAT TAPA",
            "nama_se": "BANKING SMART SYSTEM",
            "sektor": "Sektor Keuangan",
            "tanggal_terbit": "2022-07-19",
            "url_tdpse_detail": "https://pse.komdigi.go.id/tdpse-detail/6639",
            "website": "bprtapa.com"
        },
        {
            "id": "9cb1abe4-67e9-4d84-afa4-ce69d0f7253a",
            "nama_pse": "JAAP NITI SUMITO",
            "nama_se": "ATRIUM HOSTING",
            "sektor": "Sektor Teknologi Informasi dan Komunikasi",
            "tanggal_terbit": "2022-07-19",
            "url_tdpse_detail": "https://pse.komdigi.go.id/tdpse-detail/6643",
            "website": "atriumhosting.com"
        },
        {
            "id": "9cb1abe4-6b7a-4b1b-ab13-4b7ba9fda00e",
            "nama_pse": "TECHSCAPE DATA CENTER",
            "nama_se": "TECHSCAPE",
            "sektor": "Sektor Teknologi Informasi dan Komunikasi",
            "tanggal_terbit": "2022-07-19",
            "url_tdpse_detail": "https://pse.komdigi.go.id/tdpse-detail/6646",
            "website": "techscape.com"
        },
        {
            "id": "9cb1abb5-5ec6-43ed-b874-9f42980e6977",
            "nama_pse": "HINO FINANCE INDONESIA",
            "nama_se": "APLIKASI HINO IN THE BOX",
            "sektor": "Sektor Keuangan",
            "tanggal_terbit": "2022-07-19",
            "url_tdpse_detail": "https://pse.komdigi.go.id/tdpse-detail/6645",
            "website": "hinofinance.co.id"
        },
        {
            "id": "9cb1abc0-1cb3-4f38-8cac-cf5bd7163dd5",
            "nama_pse": "BANK PERKREDITAN RAKYAT BANK DAERAH GIANYAR",
            "nama_se": "API BANK DAERAH GIANYAR",
            "sektor": "Sektor Keuangan",
            "tanggal_terbit": "2022-07-19",
            "url_tdpse_detail": "https://pse.komdigi.go.id/tdpse-detail/6647",
            "website": "ssl.bdgianyar.co.id"
        },
        {
            "id": "9cb1abc0-2531-441a-827e-b3e45fcbd2e5",
            "nama_pse": "BANK PEREKONOMIAN RAKYAT HOKI",
            "nama_se": "IBS BRANCHLESS",
            "sektor": "Sektor Keuangan",
            "tanggal_terbit": "2022-07-19",
            "url_tdpse_detail": "https://pse.komdigi.go.id/tdpse-detail/6651",
            "website": "hokibank.co.id"
        }
    ],
    "processingTimeMs": 128,
    "query": "",
    "totalHits": 19121,
    "hitsPerPage": 50,
    "page": 254,
    "totalPages": 383
}