{
    "hits": [
        {
            "id": "9cb1ac55-5e98-4baa-b656-5eccccc24d1d",
            "nama_pse": "MEDIA DETIK DUA EMPAT JAM",
            "nama_se": "DETIK24JAM.COM",
            "sektor": "Sektor Teknologi Informasi dan Komunikasi",
            "tanggal_terbit": "2024-02-12",
            "url_tdpse_detail": "https://pse.komdigi.go.id/tdpse-detail/17758",
            "website": "detik24jam.com"
        },
        {
            "id": "9cb1ac69-e4ef-45a1-8c7f-b92bcd9c4d38",
            "nama_pse": "PALUGADA SUMBER SUKSES",
            "nama_se": "PLATFORM DIGITAL",
            "sektor": "Sektor Perdagangan, Sektor Teknologi Informasi dan Komunikasi",
            "tanggal_terbit": "2024-02-12",
            "url_tdpse_detail": "https://pse.komdigi.go.id/tdpse-detail/17759",
            "website": "-"
        },
        {
            "id": "9cb1ac55-3eea-406d-8220-3b6fe7da0d30",
            "nama_pse": "INDOPAY MULTISINERGI",
            "nama_se": "PEMROGAMAN KOMPUTER",
            "sektor": "Sektor Teknologi Informasi dan Komunikasi",
            "tanggal_terbit": "2024-02-09",
            "url_tdpse_detail": "https://pse.komdigi.go.id/tdpse-detail/17719",
            "website": "-"
        },
        {
            "id": "9cb1ac7d-6f5c-4738-b817-022d1d21c48d",
            "nama_pse": "INDOPAY MULTISINERGI",
            "nama_se": "PERDAGANGAN VIA INTERNET",
            "sektor": "Sektor Perdagangan, Sektor Teknologi Informasi dan Komunikasi",
            "tanggal_terbit": "2024-02-09",
            "url_tdpse_detail": "https://pse.komdigi.go.id/tdpse-detail/17718",
            "website": "-"
        },
        {
            "id": "9cb1ac69-b370-4d99-acca-dc55e07c594d",
            "nama_pse": "INDOPAY MULTISINERGI",
            "nama_se": "PENYEDIA INFORMASI DIGITAL",
            "sektor": "Sektor Teknologi Informasi dan Komunikasi",
            "tanggal_terbit": "2024-02-09",
            "url_tdpse_detail": "https://pse.komdigi.go.id/tdpse-detail/17720",
            "website": "-"
        },
        {
            "id": "9cb1ac69-a7e5-4548-b970-9daef5536f36",
            "nama_pse": "GLOBAL PLATFORM TECHNOLOGY",
            "nama_se": "SIMRSGPT",
            "sektor": "Sektor Kesehatan, Sektor Teknologi Informasi dan Komunikasi",
            "tanggal_terbit": "2024-02-08",
            "url_tdpse_detail": "https://pse.komdigi.go.id/tdpse-detail/17712",
            "website": "-"
        },
        {
            "id": "9cb1ac69-6188-4fdb-8618-d22bfeef2cde",
            "nama_pse": "MARIO FOKUS GRAFIKA",
            "nama_se": "FOKUSINVESTIGASI.COM",
            "sektor": "Sektor Teknologi Informasi dan Komunikasi",
            "tanggal_terbit": "2024-02-05",
            "url_tdpse_detail": "https://pse.komdigi.go.id/tdpse-detail/17679",
            "website": "fokusinvestigasi.com"
        },
        {
            "id": "9cb1ac69-7a79-47cd-9431-6d397bd5d57c",
            "nama_pse": "SUKO NUGROHO",
            "nama_se": "SMART SISTEM REKAM MEDIS ELEKTRONIK KESEHATAN",
            "sektor": "Sektor Kesehatan",
            "tanggal_terbit": "2024-02-05",
            "url_tdpse_detail": "https://pse.komdigi.go.id/tdpse-detail/17681",
            "website": "-"
        },
        {
            "id": "9cb1ac7d-0f03-4ef2-966d-63647eba3e16",
            "nama_pse": "INDOPAY MULTISINERGI",
            "nama_se": "PENGIRIMAN BARANG",
            "sektor": "Sektor Perdagangan, Sektor Teknologi Informasi dan Komunikasi",
            "tanggal_terbit": "2024-02-05",
            "url_tdpse_detail": "https://pse.komdigi.go.id/tdpse-detail/17660",
            "website": "-"
        },
        {
            "id": "9cb1ac7d-147d-4866-ba30-488e58388836",
            "nama_pse": "INDOPAY MULTISINERGI",
            "nama_se": "JASA ANGKUTAN SEWA",
            "sektor": "Sektor Perdagangan, Sektor Teknologi Informasi dan Komunikasi",
            "tanggal_terbit": "2024-02-05",
            "url_tdpse_detail": "https://pse.komdigi.go.id/tdpse-detail/17661",
            "website": "-"
        },
        {
            "id": "9cb1ac69-505b-4a3a-881e-19782fd5771c",
            "nama_pse": "INDOPAY MULTISINERGI",
            "nama_se": "PENJUALAN IKAN HIAS",
            "sektor": "Sektor Perdagangan",
            "tanggal_terbit": "2024-02-05",
            "url_tdpse_detail": "https://pse.komdigi.go.id/tdpse-detail/17666",
            "website": "-"
        },
        {
            "id": "9cb1ac54-fae2-4a1b-83b1-1ecc170e1005",
            "nama_pse": "INDOPAY MULTISINERGI",
            "nama_se": "PELAYANAN PIRANTI LUNAK",
            "sektor": "Sektor Teknologi Informasi dan Komunikasi",
            "tanggal_terbit": "2024-02-05",
            "url_tdpse_detail": "https://pse.komdigi.go.id/tdpse-detail/17668",
            "website": "-"
        },
        {
            "id": "9cb1ac54-e7ae-4230-968f-a1e6094c2aa8",
            "nama_pse": "INDOPAY MULTISINERGI",
            "nama_se": "PENJUALAN PULSA/TOKEN LISTRIK",
            "sektor": "Sektor Perdagangan, Sektor Teknologi Informasi dan Komunikasi",
            "tanggal_terbit": "2024-02-05",
            "url_tdpse_detail": "https://pse.komdigi.go.id/tdpse-detail/17652",
            "website": "-"
        },
        {
            "id": "9cb1ac54-ecf1-485c-be51-47832c77824e",
            "nama_pse": "INDOPAY MULTISINERGI",
            "nama_se": "JASA PERJALANAN WISATA",
            "sektor": "Sektor Transportasi",
            "tanggal_terbit": "2024-02-05",
            "url_tdpse_detail": "https://pse.komdigi.go.id/tdpse-detail/17659",
            "website": "-"
        },
        {
            "id": "9cb1ac54-ea2d-4b23-9c78-29a59904d650",
            "nama_pse": "INDOPAY MULTISINERGI",
            "nama_se": "PENJUALAN TIKET",
            "sektor": "Sektor Teknologi Informasi dan Komunikasi",
            "tanggal_terbit": "2024-02-05",
            "url_tdpse_detail": "https://pse.komdigi.go.id/tdpse-detail/17657",
            "website": "-"
        },
        {
            "id": "9cb1ac54-f7ba-450c-98ad-65f0fde1408e",
            "nama_pse": "INDOPAY MULTISINERGI",
            "nama_se": "PEMASANGAN PENDINGIN",
            "sektor": "Sektor Perdagangan",
            "tanggal_terbit": "2024-02-05",
            "url_tdpse_detail": "https://pse.komdigi.go.id/tdpse-detail/17665",
            "website": "-"
        },
        {
            "id": "9cb1ac7c-e796-4f04-8d48-a475b851128b",
            "nama_pse": "MICROFAZZ DIGITAL TEKNOLOGI",
            "nama_se": "TOKEN MICROFAZZ",
            "sektor": "Sektor Teknologi Informasi dan Komunikasi",
            "tanggal_terbit": "2024-02-03",
            "url_tdpse_detail": "https://pse.komdigi.go.id/tdpse-detail/17625",
            "website": "-"
        },
        {
            "id": "9cb1ac54-5fb7-480f-a661-be91fba8a94f",
            "nama_pse": "USSI",
            "nama_se": "BANK SUMEDANG ONLINE",
            "sektor": "Sektor Teknologi Informasi dan Komunikasi",
            "tanggal_terbit": "2024-01-25",
            "url_tdpse_detail": "https://pse.komdigi.go.id/tdpse-detail/17499",
            "website": "-"
        },
        {
            "id": "9cb1ac7c-1c2a-4aa9-a6d4-29e4278c3735",
            "nama_pse": "USSI",
            "nama_se": "BANK NATASHA MOBILE ONLINE",
            "sektor": "Sektor Teknologi Informasi dan Komunikasi",
            "tanggal_terbit": "2024-01-25",
            "url_tdpse_detail": "https://pse.komdigi.go.id/tdpse-detail/17500",
            "website": "-"
        },
        {
            "id": "9cb1ac67-2fd6-4654-9784-5b7ae114a78f",
            "nama_pse": "CENDRAWASIH CERMAI",
            "nama_se": "DITOKO BALI",
            "sektor": "Sektor Perdagangan",
            "tanggal_terbit": "2024-01-18",
            "url_tdpse_detail": "https://pse.komdigi.go.id/tdpse-detail/17400",
            "website": "ditokobali.com"
        },
        {
            "id": "9cb1ac67-13b0-4451-b940-5cdd10814a15",
            "nama_pse": "ELANG ENAU",
            "nama_se": "DITOKO PALEMBANG",
            "sektor": "Sektor Perdagangan",
            "tanggal_terbit": "2024-01-17",
            "url_tdpse_detail": "https://pse.komdigi.go.id/tdpse-detail/17375",
            "website": "ditokopalembang.com"
        },
        {
            "id": "9cb1ac65-e792-44ec-b9c3-b1cf3f30431f",
            "nama_pse": "ADHITAMA PUTRA PANDAWA",
            "nama_se": "ADHITAMA PUTRA PANDAWA",
            "sektor": "Sektor Perdagangan",
            "tanggal_terbit": "2024-01-08",
            "url_tdpse_detail": "https://pse.komdigi.go.id/tdpse-detail/17272",
            "website": "adhitamaputarpanaadawa.id"
        },
        {
            "id": "9cb1ac79-ef85-4a35-89a0-70f1b1065709",
            "nama_pse": "LEMBAGA PELATIHAN KERJA SWASTA YUNITA",
            "nama_se": "LPKS YUNITA",
            "sektor": "Sektor Teknologi Informasi dan Komunikasi",
            "tanggal_terbit": "2023-12-30",
            "url_tdpse_detail": "https://pse.komdigi.go.id/tdpse-detail/17121",
            "website": "lpksyunita.com"
        },
        {
            "id": "9cb1ac77-1c8b-47a6-8d3b-34a585e77994",
            "nama_pse": "GHAFI PUTRA PERKASA",
            "nama_se": "DEEP INSIGHT",
            "sektor": "Sektor Perdagangan",
            "tanggal_terbit": "2023-11-24",
            "url_tdpse_detail": "https://pse.komdigi.go.id/tdpse-detail/18666",
            "website": "-"
        },
        {
            "id": "9cb1ac62-e177-445f-8bd5-888aa38d4bee",
            "nama_pse": "ELITE INDONESIA",
            "nama_se": "SIMRS ELITE INDONESIA",
            "sektor": "Sektor Kesehatan",
            "tanggal_terbit": "2023-11-21",
            "url_tdpse_detail": "https://pse.komdigi.go.id/tdpse-detail/16542",
            "website": "-"
        },
        {
            "id": "9cb1ac76-69c4-4bc0-a116-3af9a3604ede",
            "nama_pse": "RM. MUH. ABDUL ROUF",
            "nama_se": "RAJASA DIAN KONSULTAN",
            "sektor": "Sektor Perdagangan, Sektor Transportasi, Sektor Teknologi Informasi dan Komunikasi",
            "tanggal_terbit": "2023-11-16",
            "url_tdpse_detail": "https://pse.komdigi.go.id/tdpse-detail/16489",
            "website": "-"
        },
        {
            "id": "9cb1ac62-4043-4fde-8402-705e425b7141",
            "nama_pse": "ELITE INDONESIA",
            "nama_se": "ELITEMEDICA",
            "sektor": "Sektor Kesehatan",
            "tanggal_terbit": "2023-11-11",
            "url_tdpse_detail": "https://pse.komdigi.go.id/tdpse-detail/16649",
            "website": "-"
        },
        {
            "id": "9cb1ac61-7d29-425b-9b92-0ac332661b06",
            "nama_pse": "RADJA INOVASI INDONESIA",
            "nama_se": "JABALPRO",
            "sektor": "Sektor Perdagangan",
            "tanggal_terbit": "2023-10-23",
            "url_tdpse_detail": "https://pse.komdigi.go.id/tdpse-detail/16334",
            "website": "jabalpro.id"
        },
        {
            "id": "9cb1ac29-2894-44fa-bb59-b1d31122bbd5",
            "nama_pse": "USSI",
            "nama_se": "BANK KLATEN MOBILE",
            "sektor": "Sektor Teknologi Informasi dan Komunikasi",
            "tanggal_terbit": "2023-09-12",
            "url_tdpse_detail": "https://pse.komdigi.go.id/tdpse-detail/15914",
            "website": "-"
        },
        {
            "id": "9cb1ac4b-1f28-4d7f-8844-c75e1cd28790",
            "nama_pse": "USSI",
            "nama_se": "BANK BOYOLALI MOBILE",
            "sektor": "Sektor Teknologi Informasi dan Komunikasi",
            "tanggal_terbit": "2023-09-11",
            "url_tdpse_detail": "https://pse.komdigi.go.id/tdpse-detail/15905",
            "website": "-"
        },
        {
            "id": "9cb1ac29-21bc-4b9b-920d-d50ad76579d1",
            "nama_pse": "USSI",
            "nama_se": "BANK KARANGANYAR MOBILE",
            "sektor": "Sektor Teknologi Informasi dan Komunikasi",
            "tanggal_terbit": "2023-09-11",
            "url_tdpse_detail": "https://pse.komdigi.go.id/tdpse-detail/15906",
            "website": "-"
        },
        {
            "id": "9cb1ac28-d54c-46a1-9e7f-c1aef74f1a02",
            "nama_pse": "USSI",
            "nama_se": "BANK BINTARA MOBILE",
            "sektor": "Sektor Teknologi Informasi dan Komunikasi",
            "tanggal_terbit": "2023-09-08",
            "url_tdpse_detail": "https://pse.komdigi.go.id/tdpse-detail/15887",
            "website": "-"
        },
        {
            "id": "9cb1ac3a-cdc9-4cb7-b487-692852d7192f",
            "nama_pse": "USSI",
            "nama_se": "BAHTERA MOBILE ONLINE",
            "sektor": "Sektor Teknologi Informasi dan Komunikasi",
            "tanggal_terbit": "2023-08-29",
            "url_tdpse_detail": "https://pse.komdigi.go.id/tdpse-detail/15755",
            "website": "-"
        },
        {
            "id": "9cb1ac3a-2b93-4a91-8eed-aa79877a01fd",
            "nama_pse": "USSI",
            "nama_se": "BAHARTA MOBILE ONLINE",
            "sektor": "Sektor Teknologi Informasi dan Komunikasi",
            "tanggal_terbit": "2023-08-25",
            "url_tdpse_detail": "https://pse.komdigi.go.id/tdpse-detail/15700",
            "website": "-"
        },
        {
            "id": "9cb1ac22-6e45-4697-8360-a227e74f1c2e",
            "nama_pse": "PERTAMINA BINA MEDIKA IHC",
            "nama_se": "SISTEM INFORMASI RUMAH SAKIT PERTAMEDIKA ( SIRUP )",
            "sektor": "Sektor Kesehatan",
            "tanggal_terbit": "2023-08-23",
            "url_tdpse_detail": "https://pse.komdigi.go.id/tdpse-detail/15657",
            "website": "-"
        },
        {
            "id": "9cb1ac27-93a1-432c-8255-dfb98c463ce7",
            "nama_pse": "USSI",
            "nama_se": "BWM MOBILE ONLINE",
            "sektor": "Sektor Teknologi Informasi dan Komunikasi",
            "tanggal_terbit": "2023-08-23",
            "url_tdpse_detail": "https://pse.komdigi.go.id/tdpse-detail/15661",
            "website": "-"
        },
        {
            "id": "9cb1ac26-cbfa-4f3e-acfa-b2cf0c079ab1",
            "nama_pse": "VISI SINARMAS PERKASA",
            "nama_se": "ECOFOREST",
            "sektor": "Sektor Perdagangan",
            "tanggal_terbit": "2023-08-14",
            "url_tdpse_detail": "https://pse.komdigi.go.id/tdpse-detail/15549",
            "website": "ecoforest.co.id"
        },
        {
            "id": "9cb1ac46-f8ff-4146-a0cf-7f25e0f422ad",
            "nama_pse": "USSI",
            "nama_se": "BUD MOBILE",
            "sektor": "Sektor Teknologi Informasi dan Komunikasi",
            "tanggal_terbit": "2023-07-06",
            "url_tdpse_detail": "https://pse.komdigi.go.id/tdpse-detail/15238",
            "website": "-"
        },
        {
            "id": "9cb1ac45-763a-4cb1-8f2b-74d23b54e452",
            "nama_pse": "USSI",
            "nama_se": "BPR ONLINE",
            "sektor": "Sektor Teknologi Informasi dan Komunikasi",
            "tanggal_terbit": "2023-06-13",
            "url_tdpse_detail": "https://pse.komdigi.go.id/tdpse-detail/15005",
            "website": "-"
        },
        {
            "id": "9cb1ac35-f26a-4b27-b6af-654ebef0538f",
            "nama_pse": "USSI",
            "nama_se": "BMT TA'AWUN MOBILE",
            "sektor": "Sektor Teknologi Informasi dan Komunikasi",
            "tanggal_terbit": "2023-06-13",
            "url_tdpse_detail": "https://pse.komdigi.go.id/tdpse-detail/15009",
            "website": "-"
        },
        {
            "id": "9cb1ac45-8db1-4798-9c7d-b1240859071e",
            "nama_pse": "USSI",
            "nama_se": "BMT TA'AWUN MOBILE ONLINE",
            "sektor": "Sektor Teknologi Informasi dan Komunikasi",
            "tanggal_terbit": "2023-06-13",
            "url_tdpse_detail": "https://pse.komdigi.go.id/tdpse-detail/15015",
            "website": "-"
        },
        {
            "id": "9cb1ac35-e3c6-4a45-bd6b-ebdb84d51640",
            "nama_pse": "USSI",
            "nama_se": "BPR KERTARAHARJA MOBILE ONLINE",
            "sektor": "Sektor Teknologi Informasi dan Komunikasi",
            "tanggal_terbit": "2023-06-12",
            "url_tdpse_detail": "https://pse.komdigi.go.id/tdpse-detail/15000",
            "website": "-"
        },
        {
            "id": "9cb1ac23-8c0c-4ec4-b4ce-6fc9340a2532",
            "nama_pse": "USSI",
            "nama_se": "BPR GUNUNG SLAMET",
            "sektor": "Sektor Teknologi Informasi dan Komunikasi",
            "tanggal_terbit": "2023-06-12",
            "url_tdpse_detail": "https://pse.komdigi.go.id/tdpse-detail/14995",
            "website": "-"
        },
        {
            "id": "9cb1ac45-5044-4605-a704-97164e2b8442",
            "nama_pse": "USSI",
            "nama_se": "BMT STIF SYENTRA",
            "sektor": "Sektor Teknologi Informasi dan Komunikasi",
            "tanggal_terbit": "2023-06-09",
            "url_tdpse_detail": "https://pse.komdigi.go.id/tdpse-detail/14981",
            "website": "-"
        },
        {
            "id": "9cb1ac35-c55e-4c46-a2f2-e3662b36cfb9",
            "nama_pse": "USSI",
            "nama_se": "BMT ARTHA GALUNGGUNG",
            "sektor": "Sektor Teknologi Informasi dan Komunikasi",
            "tanggal_terbit": "2023-06-09",
            "url_tdpse_detail": "https://pse.komdigi.go.id/tdpse-detail/14983",
            "website": "-"
        },
        {
            "id": "9cb1ac35-b191-4d48-acf0-fe0779a1c562",
            "nama_pse": "TUMBUH TEKNOLOGI FINANSIAL",
            "nama_se": "TUMBUH PLATFORM",
            "sektor": "Sektor Teknologi Informasi dan Komunikasi",
            "tanggal_terbit": "2023-06-08",
            "url_tdpse_detail": "https://pse.komdigi.go.id/tdpse-detail/14960",
            "website": "tumbuh.dev"
        },
        {
            "id": "9cb1ac35-b4f4-4fba-aebd-9cd83276a745",
            "nama_pse": "USSI",
            "nama_se": "BMT PERMATA MOBILE",
            "sektor": "Sektor Teknologi Informasi dan Komunikasi",
            "tanggal_terbit": "2023-06-08",
            "url_tdpse_detail": "https://pse.komdigi.go.id/tdpse-detail/14963",
            "website": "-"
        },
        {
            "id": "9cb1ac45-3e5c-439e-95ce-29aeeda83df4",
            "nama_pse": "USSI",
            "nama_se": "BMT NUSANTARA JAYA SEJAHTERA",
            "sektor": "Sektor Teknologi Informasi dan Komunikasi",
            "tanggal_terbit": "2023-06-08",
            "url_tdpse_detail": "https://pse.komdigi.go.id/tdpse-detail/14962",
            "website": "-"
        },
        {
            "id": "9cb1ac23-603c-4236-9a63-f6a3c232cb2e",
            "nama_pse": "USSI",
            "nama_se": "BMT NU PRISEWU MOBILE",
            "sektor": "Sektor Teknologi Informasi dan Komunikasi",
            "tanggal_terbit": "2023-06-07",
            "url_tdpse_detail": "https://pse.komdigi.go.id/tdpse-detail/14955",
            "website": "-"
        },
        {
            "id": "9cb1ac35-a104-440a-9a11-121eb132b6e5",
            "nama_pse": "USSI",
            "nama_se": "BMT KUM3 SORONG ONLINE",
            "sektor": "Sektor Teknologi Informasi dan Komunikasi",
            "tanggal_terbit": "2023-06-07",
            "url_tdpse_detail": "https://pse.komdigi.go.id/tdpse-detail/14950",
            "website": "-"
        }
    ],
    "processingTimeMs": 0,
    "query": "",
    "totalHits": 414,
    "hitsPerPage": 50,
    "page": 4,
    "totalPages": 9
}