{
    "hits": [
        {
            "id": "9cb1ab6b-5eab-4cd5-a7f6-fb4c138d65c1",
            "nama_pse": "BANK CENTRAL ASIA",
            "nama_se": "EBRANCH",
            "sektor": "Sektor Keuangan, Sektor Keuangan, Sektor Keuangan",
            "tanggal_terbit": "2021-12-02",
            "url_tdpse_detail": "https://pse.komdigi.go.id/tdpse-detail/2612",
            "website": "-"
        },
        {
            "id": "9cb1ab6e-0f6c-4b0b-b398-1ec06cdf0514",
            "nama_pse": "KREATIVA MEDIKA SEJAHTERA",
            "nama_se": "KLIKDIALISIS",
            "sektor": "Sektor Teknologi Informasi dan Komunikasi, Sektor Teknologi Informasi dan Komunikasi",
            "tanggal_terbit": "2021-12-02",
            "url_tdpse_detail": "https://pse.komdigi.go.id/tdpse-detail/2595",
            "website": "klikdialisis.com"
        },
        {
            "id": "9cb1ab76-1793-4097-8f9d-a1d232088f21",
            "nama_pse": "NALANIRA NUSWANTARA MEDIKA",
            "nama_se": "HAMILKU.ID",
            "sektor": "Sektor Keuangan, Sektor Keuangan, Sektor Kesehatan, Sektor Kesehatan, Sektor Teknologi Informasi dan Komunikasi, Sektor Teknologi Informasi dan Komunikasi",
            "tanggal_terbit": "2021-12-02",
            "url_tdpse_detail": "https://pse.komdigi.go.id/tdpse-detail/2597",
            "website": "hamilku.id"
        },
        {
            "id": "9cb1ab77-51de-43ba-be9d-5458107e7b4b",
            "nama_pse": "MITRA ERA GLOBAL",
            "nama_se": "WWW.MALESER.COM",
            "sektor": "Sektor Perdagangan, Sektor Perdagangan",
            "tanggal_terbit": "2021-12-02",
            "url_tdpse_detail": "https://pse.komdigi.go.id/tdpse-detail/2586",
            "website": "maleser.com"
        },
        {
            "id": "9cb1ab77-3be2-48f8-ac70-3b6b934ec915",
            "nama_pse": "PANEN TATAGRIYA INDONESIA",
            "nama_se": "HTTPS://WWW.ILM.ID",
            "sektor": "Sektor Perdagangan, Sektor Perdagangan",
            "tanggal_terbit": "2021-12-02",
            "url_tdpse_detail": "https://pse.komdigi.go.id/tdpse-detail/2592",
            "website": "ilm.id"
        },
        {
            "id": "9cb1ab78-09aa-439c-a8bd-ea4ddf82d2d7",
            "nama_pse": "ASURANSI JASA INDONESIA",
            "nama_se": "APLIKASI SIAP",
            "sektor": "Sektor Keuangan, Sektor Keuangan",
            "tanggal_terbit": "2021-12-02",
            "url_tdpse_detail": "https://pse.komdigi.go.id/tdpse-detail/2608",
            "website": "siap.asuransijasindo.co.id"
        },
        {
            "id": "9cb1ab87-aea9-4551-9261-9e664f755583",
            "nama_pse": "ASURANSI JASA INDONESIA",
            "nama_se": "SIMANTEP",
            "sektor": "Sektor Keuangan, Sektor Keuangan",
            "tanggal_terbit": "2021-12-02",
            "url_tdpse_detail": "https://pse.komdigi.go.id/tdpse-detail/2611",
            "website": "simantep.asuransijasindo.co.id"
        },
        {
            "id": "9cb1ab7f-cffa-4455-9037-04bc5b4a7e54",
            "nama_pse": "ASURANSI JASA INDONESIA",
            "nama_se": "APLIKASI MEDCARE",
            "sektor": "Sektor Keuangan, Sektor Keuangan, Sektor Kesehatan, Sektor Kesehatan",
            "tanggal_terbit": "2021-12-02",
            "url_tdpse_detail": "https://pse.komdigi.go.id/tdpse-detail/2615",
            "website": "medcare.asuransijasindo.co.id"
        },
        {
            "id": "9cb1ab78-72fe-4fad-9ed2-4836a0ce77a3",
            "nama_pse": "SENTRA VIDYA UTAMA",
            "nama_se": "SIAKAD CLOUD",
            "sektor": "Sektor Teknologi Informasi dan Komunikasi, Sektor Teknologi Informasi dan Komunikasi",
            "tanggal_terbit": "2021-12-02",
            "url_tdpse_detail": "https://pse.komdigi.go.id/tdpse-detail/2584",
            "website": "siakadcloud.com"
        },
        {
            "id": "9cb1ab78-8958-4c79-922c-2d3f8fb71e5d",
            "nama_pse": "NURCHOLIS",
            "nama_se": "CEMPLUNG.COM",
            "sektor": "Sektor Teknologi Informasi dan Komunikasi, Sektor Teknologi Informasi dan Komunikasi",
            "tanggal_terbit": "2021-12-02",
            "url_tdpse_detail": "https://pse.komdigi.go.id/tdpse-detail/2588",
            "website": "cemplung.com"
        },
        {
            "id": "9cb1ab80-5062-4944-8c96-511df0a35695",
            "nama_pse": "NURCHOLIS",
            "nama_se": "INDOPLACES.COM",
            "sektor": "Sektor Teknologi Informasi dan Komunikasi, Sektor Teknologi Informasi dan Komunikasi",
            "tanggal_terbit": "2021-12-02",
            "url_tdpse_detail": "https://pse.komdigi.go.id/tdpse-detail/2589",
            "website": "indoplaces.com"
        },
        {
            "id": "9cb1ab78-9f37-493d-bbeb-8cb03e365deb",
            "nama_pse": "KUSTODIAN SENTRAL EFEK INDONESIA",
            "nama_se": "WEBSITE PT KUSTODIAN SENTRAL EFEK INDONESIA",
            "sektor": "Sektor Keuangan, Sektor Keuangan, Sektor Keuangan, Sektor Keuangan, Sektor Keuangan, Sektor Keuangan, Sektor Keuangan, Sektor Keuangan, Sektor Keuangan, Sektor Keuangan",
            "tanggal_terbit": "2021-12-02",
            "url_tdpse_detail": "https://pse.komdigi.go.id/tdpse-detail/2580",
            "website": "ksei.co.id"
        },
        {
            "id": "9cb1ab88-5f37-48ca-ac16-0f3e57722259",
            "nama_pse": "KUSTODIAN SENTRAL EFEK INDONESIA",
            "nama_se": "EMITEN AREA",
            "sektor": "Sektor Keuangan, Sektor Keuangan, Sektor Keuangan, Sektor Keuangan, Sektor Keuangan, Sektor Keuangan, Sektor Keuangan, Sektor Keuangan, Sektor Keuangan, Sektor Keuangan",
            "tanggal_terbit": "2021-12-02",
            "url_tdpse_detail": "https://pse.komdigi.go.id/tdpse-detail/2582",
            "website": "online.ksei.co.id"
        },
        {
            "id": "9cb1ab88-62a6-460a-991b-0a22fc10e936",
            "nama_pse": "KUSTODIAN SENTRAL EFEK INDONESIA",
            "nama_se": "S-MULTIVEST",
            "sektor": "Sektor Keuangan, Sektor Keuangan, Sektor Keuangan, Sektor Keuangan, Sektor Keuangan, Sektor Keuangan, Sektor Keuangan, Sektor Keuangan, Sektor Keuangan, Sektor Keuangan",
            "tanggal_terbit": "2021-12-02",
            "url_tdpse_detail": "https://pse.komdigi.go.id/tdpse-detail/2599",
            "website": "tapera.ksei.co.id"
        },
        {
            "id": "9cb1ab88-64fe-4714-8de2-cee866e498c0",
            "nama_pse": "DAMOS HANGGARA",
            "nama_se": "SPEAKAPP",
            "sektor": "Sektor Teknologi Informasi dan Komunikasi, Sektor Teknologi Informasi dan Komunikasi",
            "tanggal_terbit": "2021-12-02",
            "url_tdpse_detail": "https://pse.komdigi.go.id/tdpse-detail/2581",
            "website": "speakapp.me"
        },
        {
            "id": "9cb1ab78-a47c-4425-9355-397f934be968",
            "nama_pse": "DAMOS HANGGARA",
            "nama_se": "TRUSTI",
            "sektor": "Sektor Teknologi Informasi dan Komunikasi, Sektor Teknologi Informasi dan Komunikasi",
            "tanggal_terbit": "2021-12-02",
            "url_tdpse_detail": "https://pse.komdigi.go.id/tdpse-detail/2583",
            "website": "trusti.id"
        },
        {
            "id": "9cb1ab78-a733-411c-9e9f-29e2eba4d1a1",
            "nama_pse": "BANK DKI",
            "nama_se": "WEBSITE BANK DKI",
            "sektor": "Sektor Keuangan, Sektor Keuangan",
            "tanggal_terbit": "2021-12-02",
            "url_tdpse_detail": "https://pse.komdigi.go.id/tdpse-detail/2596",
            "website": "bankdki.co.id"
        },
        {
            "id": "9cb1ab78-aafc-43c2-81d5-34d5dd3a11d6",
            "nama_pse": "BANK DKI",
            "nama_se": "E-FORM (KMG \u0026 KPR)",
            "sektor": "Sektor Keuangan, Sektor Keuangan",
            "tanggal_terbit": "2021-12-02",
            "url_tdpse_detail": "https://pse.komdigi.go.id/tdpse-detail/2598",
            "website": "eform.bankdki.co.id"
        },
        {
            "id": "9cb1ab80-7196-4837-8556-6bca38ecf1cc",
            "nama_pse": "BANK DKI",
            "nama_se": "E-PROCUREMENT",
            "sektor": "Sektor Keuangan, Sektor Keuangan",
            "tanggal_terbit": "2021-12-02",
            "url_tdpse_detail": "https://pse.komdigi.go.id/tdpse-detail/2601",
            "website": "eproc.bankdki.co.id"
        },
        {
            "id": "9cb1ab88-67e4-48b0-837a-5ab21c3c0bf6",
            "nama_pse": "BANK DKI",
            "nama_se": "JAKONE MOBILE",
            "sektor": "Sektor Keuangan, Sektor Keuangan",
            "tanggal_terbit": "2021-12-02",
            "url_tdpse_detail": "https://pse.komdigi.go.id/tdpse-detail/2602",
            "website": "-"
        },
        {
            "id": "9cb1ab78-aecc-4995-9675-43eec065e610",
            "nama_pse": "BANK DKI",
            "nama_se": "JAKONE ERTE",
            "sektor": "Sektor Keuangan, Sektor Keuangan",
            "tanggal_terbit": "2021-12-02",
            "url_tdpse_detail": "https://pse.komdigi.go.id/tdpse-detail/2604",
            "website": "jakoneerteweb.bankdki.co.id"
        },
        {
            "id": "9cb1ab80-73cb-407c-a454-4964dcfc2a1c",
            "nama_pse": "BANK DKI",
            "nama_se": "CMS",
            "sektor": "Sektor Keuangan, Sektor Keuangan",
            "tanggal_terbit": "2021-12-02",
            "url_tdpse_detail": "https://pse.komdigi.go.id/tdpse-detail/2605",
            "website": "cms.bankdki.co.id"
        },
        {
            "id": "9cb1ab88-6a24-463a-91e6-57d488fd0794",
            "nama_pse": "BANK DKI",
            "nama_se": "JAKARTA XPLORE",
            "sektor": "Sektor Keuangan, Sektor Keuangan",
            "tanggal_terbit": "2021-12-02",
            "url_tdpse_detail": "https://pse.komdigi.go.id/tdpse-detail/2607",
            "website": "-"
        },
        {
            "id": "9cb1ab88-6c33-41f9-8906-c776d0e32995",
            "nama_pse": "BANK DKI",
            "nama_se": "JAKONE BILL",
            "sektor": "Sektor Keuangan, Sektor Keuangan",
            "tanggal_terbit": "2021-12-02",
            "url_tdpse_detail": "https://pse.komdigi.go.id/tdpse-detail/2609",
            "website": "billingsystem.bankdki.co.id"
        },
        {
            "id": "9cb1ab88-6e9b-45cc-9c57-904e9d42a03d",
            "nama_pse": "BANK DKI",
            "nama_se": "LAKU PANDAI",
            "sektor": "Sektor Keuangan, Sektor Keuangan",
            "tanggal_terbit": "2021-12-02",
            "url_tdpse_detail": "https://pse.komdigi.go.id/tdpse-detail/2610",
            "website": "-"
        },
        {
            "id": "9cb1ab78-bf1a-40fd-921e-69256b87ad62",
            "nama_pse": "DANA KINI INDONESIA",
            "nama_se": "WEBSITE PLATFORM P2P LENDING DANAKINI - P2P.DANAKINI.CO.ID",
            "sektor": "Sektor Keuangan, Sektor Keuangan",
            "tanggal_terbit": "2021-12-02",
            "url_tdpse_detail": "https://pse.komdigi.go.id/tdpse-detail/2593",
            "website": "p2p.danakini.co.id"
        },
        {
            "id": "9cb1ab80-8200-430c-a5cb-efa98ab1008e",
            "nama_pse": "CAKRAWALA BORNEO SINERGI",
            "nama_se": "BORNEOTRIP",
            "sektor": "Sektor Teknologi Informasi dan Komunikasi, Sektor Teknologi Informasi dan Komunikasi",
            "tanggal_terbit": "2021-12-02",
            "url_tdpse_detail": "https://pse.komdigi.go.id/tdpse-detail/2587",
            "website": "borneotrip.id"
        },
        {
            "id": "9cb1ab80-8559-4d48-82ed-cc5b72ce6715",
            "nama_pse": "JARET NUSA KARYA",
            "nama_se": "INTERNET",
            "sektor": "Sektor Teknologi Informasi dan Komunikasi, Sektor Teknologi Informasi dan Komunikasi",
            "tanggal_terbit": "2021-12-02",
            "url_tdpse_detail": "https://pse.komdigi.go.id/tdpse-detail/2600",
            "website": "jaretnews.com"
        },
        {
            "id": "9cb1ab78-cac8-4a98-af78-bd4c10e212f0",
            "nama_pse": "ASURANSI TOKIO MARINE INDONESIA",
            "nama_se": "SITUS PENJUALAN PRODUK ASURANSI",
            "sektor": "Sektor Keuangan, Sektor Keuangan",
            "tanggal_terbit": "2021-12-02",
            "url_tdpse_detail": "https://pse.komdigi.go.id/tdpse-detail/2606",
            "website": "tokiomarine.co.id"
        },
        {
            "id": "9cb1ab88-833b-451c-b7d7-1a26b24f6585",
            "nama_pse": "DUNIA BOGA INDONESIA",
            "nama_se": "PT DUNIA BOGA INDONESIA",
            "sektor": "Sektor Perdagangan, Sektor Perdagangan",
            "tanggal_terbit": "2021-12-02",
            "url_tdpse_detail": "https://pse.komdigi.go.id/tdpse-detail/2613",
            "website": "bakingworld.id"
        },
        {
            "id": "9cb1ab88-8c12-44a2-9375-49bfac161ec6",
            "nama_pse": "TEKNOLOGI CAKRA INTERNASIONAL",
            "nama_se": "INTERCONNECTDATA",
            "sektor": "Sektor Teknologi Informasi dan Komunikasi, Sektor Teknologi Informasi dan Komunikasi",
            "tanggal_terbit": "2021-12-02",
            "url_tdpse_detail": "https://pse.komdigi.go.id/tdpse-detail/2616",
            "website": "interconnectdata.com"
        },
        {
            "id": "9cb1ab80-8872-4b5b-9359-c7d8324fced6",
            "nama_pse": "RAJA SURYADARMA MULTIMEDIA",
            "nama_se": "K1NG UNIVERSE",
            "sektor": "Sektor Teknologi Informasi dan Komunikasi, Sektor Teknologi Informasi dan Komunikasi",
            "tanggal_terbit": "2021-12-02",
            "url_tdpse_detail": "https://pse.komdigi.go.id/tdpse-detail/2614",
            "website": "k1nguniverse.com"
        },
        {
            "id": "9cb1ab8d-c9ed-4bb4-ba40-c5743b1a112f",
            "nama_pse": "SAYUR UNTUK SEMUA",
            "nama_se": "SEGARI",
            "sektor": "Sektor Perdagangan, Sektor Perdagangan",
            "tanggal_terbit": "2021-12-02",
            "url_tdpse_detail": "https://pse.komdigi.go.id/tdpse-detail/2617",
            "website": "segari.id"
        },
        {
            "id": "9cb1aba9-2bb2-4c2b-8a4b-7335206037a0",
            "nama_pse": "CENTRAL ASIA FINANCIAL",
            "nama_se": "JAGAWISATA",
            "sektor": "Sektor Keuangan, Sektor Keuangan",
            "tanggal_terbit": "2021-12-02",
            "url_tdpse_detail": "https://pse.komdigi.go.id/tdpse-detail/2590",
            "website": "jagawisata.com"
        },
        {
            "id": "9cb1ab92-0f63-4b5f-b252-3e9d9781087c",
            "nama_pse": "DIGITAL INDONESIA INVESTAMA",
            "nama_se": "BAQAT",
            "sektor": "Sektor Teknologi Informasi dan Komunikasi",
            "tanggal_terbit": "2021-12-02",
            "url_tdpse_detail": "https://pse.komdigi.go.id/tdpse-detail/2591",
            "website": "baqat.id"
        },
        {
            "id": "9cb1aba9-89ae-4f7c-8076-69e8fe6ba56b",
            "nama_pse": "TIHANG BANUA BORNEO",
            "nama_se": "TIHANG BANUA BORNEO",
            "sektor": "Sektor Perdagangan, Sektor Perdagangan, Sektor Perdagangan",
            "tanggal_terbit": "2021-12-02",
            "url_tdpse_detail": "https://pse.komdigi.go.id/tdpse-detail/2594",
            "website": "dietalase.co.id"
        },
        {
            "id": "9cb1ab63-c5ba-42f4-a9cd-7d8305421cab",
            "nama_pse": "BANK CENTRAL ASIA",
            "nama_se": "BCA MOBILE",
            "sektor": "Sektor Keuangan, Sektor Keuangan, Sektor Keuangan",
            "tanggal_terbit": "2021-12-01",
            "url_tdpse_detail": "https://pse.komdigi.go.id/tdpse-detail/2553",
            "website": "-"
        },
        {
            "id": "9cb1ab72-4666-405f-9b0c-2d8f67a15021",
            "nama_pse": "BANK CENTRAL ASIA",
            "nama_se": "KLIKBCA INDIVIDU",
            "sektor": "Sektor Keuangan, Sektor Keuangan, Sektor Keuangan",
            "tanggal_terbit": "2021-12-01",
            "url_tdpse_detail": "https://pse.komdigi.go.id/tdpse-detail/2554",
            "website": "klikbca.com"
        },
        {
            "id": "9cb1ab6b-4f98-43d1-97e1-07cd5bfd9fe5",
            "nama_pse": "BANK CENTRAL ASIA",
            "nama_se": "MYBCA",
            "sektor": "Sektor Keuangan, Sektor Keuangan, Sektor Keuangan",
            "tanggal_terbit": "2021-12-01",
            "url_tdpse_detail": "https://pse.komdigi.go.id/tdpse-detail/2555",
            "website": "mybca.bca.co.id"
        },
        {
            "id": "9cb1ab72-4c9e-452e-bdf0-e1c3cc28fff2",
            "nama_pse": "BANK CENTRAL ASIA",
            "nama_se": "WELMA",
            "sektor": "Sektor Keuangan, Sektor Keuangan, Sektor Keuangan",
            "tanggal_terbit": "2021-12-01",
            "url_tdpse_detail": "https://pse.komdigi.go.id/tdpse-detail/2556",
            "website": "-"
        },
        {
            "id": "9cb1ab6b-52bf-45aa-8a6b-010c8267a61d",
            "nama_pse": "BANK CENTRAL ASIA",
            "nama_se": "SAKUKU",
            "sektor": "Sektor Keuangan, Sektor Keuangan, Sektor Keuangan",
            "tanggal_terbit": "2021-12-01",
            "url_tdpse_detail": "https://pse.komdigi.go.id/tdpse-detail/2558",
            "website": "-"
        },
        {
            "id": "9cb1ab72-54b7-4913-abd9-86488685070b",
            "nama_pse": "BANK CENTRAL ASIA",
            "nama_se": "KLIKBCA BISNIS",
            "sektor": "Sektor Keuangan, Sektor Keuangan, Sektor Keuangan",
            "tanggal_terbit": "2021-12-01",
            "url_tdpse_detail": "https://pse.komdigi.go.id/tdpse-detail/2559",
            "website": "klikbca.com"
        },
        {
            "id": "9cb1ab6b-5656-491b-a35e-d8705af66101",
            "nama_pse": "BANK CENTRAL ASIA",
            "nama_se": "ONEKLIK",
            "sektor": "Sektor Keuangan, Sektor Keuangan, Sektor Keuangan",
            "tanggal_terbit": "2021-12-01",
            "url_tdpse_detail": "https://pse.komdigi.go.id/tdpse-detail/2560",
            "website": "klikbca.com"
        },
        {
            "id": "9cb1ab72-5aa4-498f-b5ef-bfbac4b00fa8",
            "nama_pse": "BANK CENTRAL ASIA",
            "nama_se": "API BCA",
            "sektor": "Sektor Keuangan, Sektor Keuangan, Sektor Keuangan",
            "tanggal_terbit": "2021-12-01",
            "url_tdpse_detail": "https://pse.komdigi.go.id/tdpse-detail/2561",
            "website": "developer.bca.co.id"
        },
        {
            "id": "9cb1ab63-c869-4154-a28a-3d759ba2bd60",
            "nama_pse": "BANK CENTRAL ASIA",
            "nama_se": "APOS BCA",
            "sektor": "Sektor Keuangan, Sektor Keuangan, Sektor Keuangan",
            "tanggal_terbit": "2021-12-01",
            "url_tdpse_detail": "https://pse.komdigi.go.id/tdpse-detail/2562",
            "website": "-"
        },
        {
            "id": "9cb1ab72-5d52-4b37-9702-f174b5a2557c",
            "nama_pse": "BANK CENTRAL ASIA",
            "nama_se": "MERCHANT BCA",
            "sektor": "Sektor Keuangan, Sektor Keuangan, Sektor Keuangan",
            "tanggal_terbit": "2021-12-01",
            "url_tdpse_detail": "https://pse.komdigi.go.id/tdpse-detail/2563",
            "website": "-"
        },
        {
            "id": "9cb1ab63-cf21-49ce-8932-d573c4aacfb1",
            "nama_pse": "BANK CENTRAL ASIA",
            "nama_se": "QR MERCHANT SERVICE",
            "sektor": "Sektor Keuangan, Sektor Keuangan, Sektor Keuangan",
            "tanggal_terbit": "2021-12-01",
            "url_tdpse_detail": "https://pse.komdigi.go.id/tdpse-detail/2564",
            "website": "klikbca.com"
        },
        {
            "id": "9cb1ab6b-59cd-4e6e-b3f3-d65211a12473",
            "nama_pse": "BANK CENTRAL ASIA",
            "nama_se": "HALO BCA",
            "sektor": "Sektor Keuangan, Sektor Keuangan, Sektor Keuangan",
            "tanggal_terbit": "2021-12-01",
            "url_tdpse_detail": "https://pse.komdigi.go.id/tdpse-detail/2571",
            "website": "-"
        },
        {
            "id": "9cb1ab72-6160-4e58-9780-03ccc9d4e000",
            "nama_pse": "BANK CENTRAL ASIA",
            "nama_se": "VINDI (FINANCIAL DIARY)",
            "sektor": "Sektor Keuangan, Sektor Keuangan, Sektor Keuangan",
            "tanggal_terbit": "2021-12-01",
            "url_tdpse_detail": "https://pse.komdigi.go.id/tdpse-detail/2572",
            "website": "-"
        },
        {
            "id": "9cb1ab72-6370-4e60-906d-5cd3e2ae920e",
            "nama_pse": "BANK CENTRAL ASIA",
            "nama_se": "BCA KLIKPAY",
            "sektor": "Sektor Keuangan, Sektor Keuangan, Sektor Keuangan",
            "tanggal_terbit": "2021-12-01",
            "url_tdpse_detail": "https://pse.komdigi.go.id/tdpse-detail/2573",
            "website": "klikbca.com"
        }
    ],
    "processingTimeMs": 11,
    "query": "",
    "totalHits": 19131,
    "hitsPerPage": 50,
    "page": 334,
    "totalPages": 383
}