{
    "hits": [
        {
            "id": "9cb1ac77-5d93-4245-9ea5-2f5d5d9d632b",
            "nama_pse": "HASNA MEDIKA BHAKTI GARUT",
            "nama_se": "HAMIS GARUT",
            "sektor": "Sektor Kesehatan",
            "tanggal_terbit": "2023-11-29",
            "url_tdpse_detail": "https://pse.komdigi.go.id/tdpse-detail/16676",
            "website": "-"
        },
        {
            "id": "9cb1ac77-605b-4900-9860-9db95fa4be23",
            "nama_pse": "MEBISO EKOSISTEM RAIH KESUKSESAN",
            "nama_se": "MEBISO.COM",
            "sektor": "Sektor Perdagangan, Sektor Teknologi Informasi dan Komunikasi",
            "tanggal_terbit": "2023-11-29",
            "url_tdpse_detail": "https://pse.komdigi.go.id/tdpse-detail/16672",
            "website": "MEBISO.COM"
        },
        {
            "id": "9cb1ac63-b11f-4f6d-a79b-6af77cd30550",
            "nama_pse": "BENGKEL APLIKASI NUSANTARA",
            "nama_se": "SIMAKDIS",
            "sektor": "Sektor Teknologi Informasi dan Komunikasi",
            "tanggal_terbit": "2023-11-29",
            "url_tdpse_detail": "https://pse.komdigi.go.id/tdpse-detail/16674",
            "website": "simakdis.id"
        },
        {
            "id": "9cb1ac50-3345-475b-acd1-f7c7d4bd9417",
            "nama_pse": "JANTUNG SEHAT MADYOPURO",
            "nama_se": "HAMIS MALANG",
            "sektor": "Sektor Kesehatan",
            "tanggal_terbit": "2023-11-29",
            "url_tdpse_detail": "https://pse.komdigi.go.id/tdpse-detail/16675",
            "website": "-"
        },
        {
            "id": "9cb1ac63-b50f-4778-9fb7-7365682fa0f4",
            "nama_pse": "BENGKEL APLIKASI NUSANTARA",
            "nama_se": "HIJRAH CORE BANKING",
            "sektor": "Sektor Teknologi Informasi dan Komunikasi",
            "tanggal_terbit": "2023-11-29",
            "url_tdpse_detail": "https://pse.komdigi.go.id/tdpse-detail/16677",
            "website": "hijrah.tech"
        },
        {
            "id": "9cb1ac63-c067-4540-8e94-646447787063",
            "nama_pse": "WIFKAIN TEKNOLOGI INDONESIA",
            "nama_se": "WIFKAIN",
            "sektor": "Sektor Perdagangan, Sektor Teknologi Informasi dan Komunikasi",
            "tanggal_terbit": "2023-11-29",
            "url_tdpse_detail": "https://pse.komdigi.go.id/tdpse-detail/16684",
            "website": "wifkain.co.id"
        },
        {
            "id": "9cb1ac50-368a-47b7-b211-f157a8a81783",
            "nama_pse": "HASNA MEDIKA CIANJUR",
            "nama_se": "HAMIS CIANJUR",
            "sektor": "Sektor Kesehatan",
            "tanggal_terbit": "2023-11-29",
            "url_tdpse_detail": "https://pse.komdigi.go.id/tdpse-detail/16679",
            "website": "-"
        },
        {
            "id": "9cb1ac50-3abc-4534-81de-6016368e13bd",
            "nama_pse": "BENGKEL APLIKASI NUSANTARA",
            "nama_se": "DIGITREN",
            "sektor": "Sektor Teknologi Informasi dan Komunikasi",
            "tanggal_terbit": "2023-11-29",
            "url_tdpse_detail": "https://pse.komdigi.go.id/tdpse-detail/16678",
            "website": "-"
        },
        {
            "id": "9cb1ac50-3e57-49fb-8eac-30859449c7f9",
            "nama_pse": "ERRY DEWANTO CERIA",
            "nama_se": "ESYST EDC",
            "sektor": "Sektor Kesehatan",
            "tanggal_terbit": "2023-11-29",
            "url_tdpse_detail": "https://pse.komdigi.go.id/tdpse-detail/16680",
            "website": "-"
        },
        {
            "id": "9cb1ac63-c4b8-48de-8ab4-007742d0707d",
            "nama_pse": "ALVI DIGITAL SOLUTIONS",
            "nama_se": "SIMPEL",
            "sektor": "Sektor Kesehatan, Sektor Teknologi Informasi dan Komunikasi",
            "tanggal_terbit": "2023-11-29",
            "url_tdpse_detail": "https://pse.komdigi.go.id/tdpse-detail/16681",
            "website": "simpelon.id"
        },
        {
            "id": "9cb1ac77-67d2-44dd-812f-f7efae3dc377",
            "nama_pse": "HASNA MEDIKA BAKTI MAJALENGKA",
            "nama_se": "HAMIS MAJALENGKA",
            "sektor": "Sektor Kesehatan",
            "tanggal_terbit": "2023-11-29",
            "url_tdpse_detail": "https://pse.komdigi.go.id/tdpse-detail/16683",
            "website": "-"
        },
        {
            "id": "9cb1ac63-c7f6-47d7-819a-09cccc0558c3",
            "nama_pse": "DOCQUITY GLOBAL INDONESIA",
            "nama_se": "DOCQUITY - JEJARING PARA DOKTER",
            "sektor": "Sektor Perdagangan",
            "tanggal_terbit": "2023-11-29",
            "url_tdpse_detail": "https://pse.komdigi.go.id/tdpse-detail/16685",
            "website": "-"
        },
        {
            "id": "9cb1ac63-cbbd-49f6-a079-14621216cdbb",
            "nama_pse": "HASNA MEDIKA BAKTI SUBANG",
            "nama_se": "HAMIS SUBANG",
            "sektor": "Sektor Kesehatan",
            "tanggal_terbit": "2023-11-29",
            "url_tdpse_detail": "https://pse.komdigi.go.id/tdpse-detail/16686",
            "website": "-"
        },
        {
            "id": "9cb1ac77-6a65-4939-8c57-dc4e837db947",
            "nama_pse": "DIGINET MEDIA",
            "nama_se": "APLIKASI SIMPUS",
            "sektor": "Sektor Kesehatan",
            "tanggal_terbit": "2023-11-29",
            "url_tdpse_detail": "https://pse.komdigi.go.id/tdpse-detail/16688",
            "website": "-"
        },
        {
            "id": "9cb1ac77-6dd7-4cce-be16-ed21883f5f0c",
            "nama_pse": "SIMRS HOSPITAL MANAGEMENT SYSTEM",
            "nama_se": "ABIYOSOFT.COM",
            "sektor": "Sektor Teknologi Informasi dan Komunikasi",
            "tanggal_terbit": "2023-11-29",
            "url_tdpse_detail": "https://pse.komdigi.go.id/tdpse-detail/16687",
            "website": "ABIYOSOFT.COM"
        },
        {
            "id": "9cb1ac63-cfa0-43fa-bd9c-4098841e8278",
            "nama_pse": "INTERAKTIF INTERNASIONAL",
            "nama_se": "INTERACTIVE MYRETAIL",
            "sektor": "Sektor Perdagangan, Sektor Teknologi Informasi dan Komunikasi",
            "tanggal_terbit": "2023-11-29",
            "url_tdpse_detail": "https://pse.komdigi.go.id/tdpse-detail/16689",
            "website": "interactive.co.id"
        },
        {
            "id": "9cb1ac77-70b6-46fe-a45f-494490b696b0",
            "nama_pse": "MAJU FINANSIAL DIGITAL",
            "nama_se": "DUKUNGG",
            "sektor": "Sektor Teknologi Informasi dan Komunikasi",
            "tanggal_terbit": "2023-11-29",
            "url_tdpse_detail": "https://pse.komdigi.go.id/tdpse-detail/16690",
            "website": "dukungg.id"
        },
        {
            "id": "9cb1ac77-7336-4626-b320-5289c08ad316",
            "nama_pse": "CLAFIN DENTA MEDIKA",
            "nama_se": "KANTOR ELEKTRONIK KLINIK GIGI",
            "sektor": "Sektor Kesehatan",
            "tanggal_terbit": "2023-11-29",
            "url_tdpse_detail": "https://pse.komdigi.go.id/tdpse-detail/16691",
            "website": "-"
        },
        {
            "id": "9cb1ac63-d2d2-45f5-97d2-b1a18c07cd7c",
            "nama_pse": "PIXTO DIGITAL FUTURES",
            "nama_se": "PT PIXTO DIGITAL FUTURES",
            "sektor": "Sektor Teknologi Informasi dan Komunikasi",
            "tanggal_terbit": "2023-11-29",
            "url_tdpse_detail": "https://pse.komdigi.go.id/tdpse-detail/16692",
            "website": "pidies.com"
        },
        {
            "id": "9cb1ac77-769c-45c3-a7f3-fca98abbcfa7",
            "nama_pse": "AGLEES MITRA INDONESIA",
            "nama_se": "AGLEES INDONESIA",
            "sektor": "Sektor Perdagangan",
            "tanggal_terbit": "2023-11-29",
            "url_tdpse_detail": "https://pse.komdigi.go.id/tdpse-detail/16693",
            "website": "-"
        },
        {
            "id": "9cb1ac77-79f2-41ee-a09d-0e581a51dfdf",
            "nama_pse": "PHORVOL ARAS TECHNOLOGY",
            "nama_se": "SIMPUS-ARAS",
            "sektor": "Sektor Kesehatan, Sektor Teknologi Informasi dan Komunikasi",
            "tanggal_terbit": "2023-11-29",
            "url_tdpse_detail": "https://pse.komdigi.go.id/tdpse-detail/16694",
            "website": "-"
        },
        {
            "id": "9cb1ac63-d5d0-4db1-a0fa-62a6641a4a66",
            "nama_pse": "BASECAMP GAMERS INDONESIA",
            "nama_se": "BASECAMP GAMERS",
            "sektor": "Sektor Perdagangan, Sektor Teknologi Informasi dan Komunikasi",
            "tanggal_terbit": "2023-11-29",
            "url_tdpse_detail": "https://pse.komdigi.go.id/tdpse-detail/16695",
            "website": "basecampgamers.com"
        },
        {
            "id": "9cb1ac63-85b1-482b-a6c6-6c578d23ae61",
            "nama_pse": "GENERASI RUMAH PRODUKTIF",
            "nama_se": "GENRUPRO",
            "sektor": "Sektor Teknologi Informasi dan Komunikasi",
            "tanggal_terbit": "2023-11-28",
            "url_tdpse_detail": "https://pse.komdigi.go.id/tdpse-detail/18664",
            "website": "genrupro.com"
        },
        {
            "id": "9cb1ac62-4ece-4f08-88e2-a7ff8f6dc136",
            "nama_pse": "ETERNAL INDONESIA KREATIF",
            "nama_se": "ETERNAL",
            "sektor": "Sektor Perdagangan, Sektor Teknologi Informasi dan Komunikasi",
            "tanggal_terbit": "2023-11-28",
            "url_tdpse_detail": "https://pse.komdigi.go.id/tdpse-detail/16667",
            "website": "ETERNALORGANIZER.COM"
        },
        {
            "id": "9cb1ac77-3551-47a2-bd3f-6dec736b5475",
            "nama_pse": "RUMAH SAKIT ISLAM NUSA TENGGARA BARAT",
            "nama_se": "SIMRS KHANZA RSI SITI HAJAR MATARAM",
            "sektor": "Sektor Kesehatan",
            "tanggal_terbit": "2023-11-28",
            "url_tdpse_detail": "https://pse.komdigi.go.id/tdpse-detail/16636",
            "website": "-"
        },
        {
            "id": "9cb1ac50-07f1-4adb-8022-8d146f7f8195",
            "nama_pse": "JABARTEK MEDIA UTAMA",
            "nama_se": "JABARONLINE.COM",
            "sektor": "Sektor Teknologi Informasi dan Komunikasi",
            "tanggal_terbit": "2023-11-28",
            "url_tdpse_detail": "https://pse.komdigi.go.id/tdpse-detail/16633",
            "website": "JABARONLINE.COM"
        },
        {
            "id": "9cb1ac63-7f57-4bcc-aa46-f7af34e0cde1",
            "nama_pse": "JABARTEK MEDIA UTAMA",
            "nama_se": "JABARONLIN.COM",
            "sektor": "Sektor Teknologi Informasi dan Komunikasi",
            "tanggal_terbit": "2023-11-28",
            "url_tdpse_detail": "https://pse.komdigi.go.id/tdpse-detail/16634",
            "website": "JABARONLIN.COM"
        },
        {
            "id": "9cb1ac50-0b63-44d9-9d0b-646a8cff7c41",
            "nama_pse": "NUR INTEGRASI DIGITAL ELEKTRONIK",
            "nama_se": "BAYUNGAJA.COM",
            "sektor": "Sektor Teknologi Informasi dan Komunikasi",
            "tanggal_terbit": "2023-11-28",
            "url_tdpse_detail": "https://pse.komdigi.go.id/tdpse-detail/16635",
            "website": "bayungaja.com"
        },
        {
            "id": "9cb1ac63-822e-461c-8ed8-7f2ccb1f4865",
            "nama_pse": "BALI PUTRA INDONESIA",
            "nama_se": "SIKONCANG",
            "sektor": "Sektor Teknologi Informasi dan Komunikasi",
            "tanggal_terbit": "2023-11-28",
            "url_tdpse_detail": "https://pse.komdigi.go.id/tdpse-detail/16637",
            "website": "debest.co.id"
        },
        {
            "id": "9cb1ac77-436f-4e8d-9a53-26f0c937dc75",
            "nama_pse": "RYANNAUFAL MEDICAL CENTRE",
            "nama_se": "CLINFOS",
            "sektor": "Sektor Kesehatan",
            "tanggal_terbit": "2023-11-28",
            "url_tdpse_detail": "https://pse.komdigi.go.id/tdpse-detail/16639",
            "website": "-"
        },
        {
            "id": "9cb1ac77-462b-48ae-adcf-65c6a2bd66e7",
            "nama_pse": "PERTAMINA BINA MEDIKA IHC",
            "nama_se": "IHC TELEMED",
            "sektor": "Sektor Kesehatan",
            "tanggal_terbit": "2023-11-28",
            "url_tdpse_detail": "https://pse.komdigi.go.id/tdpse-detail/16640",
            "website": "-"
        },
        {
            "id": "9cb1ac50-0e46-4e1f-b218-bde60e667fa6",
            "nama_pse": "DHARMA CHOERIAH HUSADA",
            "nama_se": "HAMIS KUNINGAN",
            "sektor": "Sektor Kesehatan",
            "tanggal_terbit": "2023-11-28",
            "url_tdpse_detail": "https://pse.komdigi.go.id/tdpse-detail/16638",
            "website": "-"
        },
        {
            "id": "9cb1ac77-4969-4bde-ac51-79768d89671f",
            "nama_pse": "HIBRA GLOBAL PERKASA",
            "nama_se": "AHLAN INDONESIA",
            "sektor": "Sektor Teknologi Informasi dan Komunikasi",
            "tanggal_terbit": "2023-11-28",
            "url_tdpse_detail": "https://pse.komdigi.go.id/tdpse-detail/16646",
            "website": "AHLANINDONESIA.COM"
        },
        {
            "id": "9cb1ac50-1172-417d-bf5d-9901e8bec638",
            "nama_pse": "TRITRANS SINERGI INDONESIA",
            "nama_se": "WETRANS",
            "sektor": "Sektor Transportasi",
            "tanggal_terbit": "2023-11-28",
            "url_tdpse_detail": "https://pse.komdigi.go.id/tdpse-detail/16641",
            "website": "Tritrans.id"
        },
        {
            "id": "9cb1ac50-175d-462d-bdf5-1d118153d01c",
            "nama_pse": "DARUS SYIFA' SURABAYA",
            "nama_se": "DAFHIS",
            "sektor": "Sektor Teknologi Informasi dan Komunikasi",
            "tanggal_terbit": "2023-11-28",
            "url_tdpse_detail": "https://pse.komdigi.go.id/tdpse-detail/16932",
            "website": "rsidarussyifa.co.id"
        },
        {
            "id": "9cb1ac50-1a0a-49bf-a25d-69538d0c8bd1",
            "nama_pse": "BENGKEL APLIKASI NUSANTARA",
            "nama_se": "BMT MOBILE",
            "sektor": "Sektor Teknologi Informasi dan Komunikasi",
            "tanggal_terbit": "2023-11-28",
            "url_tdpse_detail": "https://pse.komdigi.go.id/tdpse-detail/16647",
            "website": "-"
        },
        {
            "id": "9cb1ac77-4cbe-40a6-a291-c5dce060b8a2",
            "nama_pse": "EDIGY DJAYA GLOBAL",
            "nama_se": "KERJA.TOKYO",
            "sektor": "Sektor Teknologi Informasi dan Komunikasi",
            "tanggal_terbit": "2023-11-28",
            "url_tdpse_detail": "https://pse.komdigi.go.id/tdpse-detail/16650",
            "website": "kerja.tokyo"
        },
        {
            "id": "9cb1ac77-500e-4c9a-9ba6-bd1138cd2abb",
            "nama_pse": "ACCESS MOBILE INDONESIA",
            "nama_se": "CLIOCRM",
            "sektor": "Sektor Teknologi Informasi dan Komunikasi",
            "tanggal_terbit": "2023-11-28",
            "url_tdpse_detail": "https://pse.komdigi.go.id/tdpse-detail/16654",
            "website": "cliocrm.com"
        },
        {
            "id": "9cb1ac50-1d66-42a0-b790-588e13d12718",
            "nama_pse": "RUMAH SAKIT UMUM DAERAH SEKARWANGI",
            "nama_se": "SIMRS RSUD SEKARWANGI",
            "sektor": "Sektor Kesehatan",
            "tanggal_terbit": "2023-11-28",
            "url_tdpse_detail": "https://pse.komdigi.go.id/tdpse-detail/16653",
            "website": "-"
        },
        {
            "id": "9cb1ac63-887c-438f-9ec7-6cc0c47cf804",
            "nama_pse": "ZENSUNG SOFTWARE INDONESIA",
            "nama_se": "ZENSUNG PARROT PLATFORM",
            "sektor": "Sektor Teknologi Informasi dan Komunikasi",
            "tanggal_terbit": "2023-11-28",
            "url_tdpse_detail": "https://pse.komdigi.go.id/tdpse-detail/16655",
            "website": "-"
        },
        {
            "id": "9cb1ac77-53af-4926-9bb0-b98b6ddb5975",
            "nama_pse": "BANK OCBC NISP",
            "nama_se": "NYALA BISNIS MERCHANT",
            "sektor": "Sektor Teknologi Informasi dan Komunikasi",
            "tanggal_terbit": "2023-11-28",
            "url_tdpse_detail": "https://pse.komdigi.go.id/tdpse-detail/16656",
            "website": "-"
        },
        {
            "id": "9cb1ac50-2053-4759-a08d-245b3a1ae77c",
            "nama_pse": "SMART PRABAWATAMA INDONESIA",
            "nama_se": "SMARTMR",
            "sektor": "Sektor Kesehatan",
            "tanggal_terbit": "2023-11-28",
            "url_tdpse_detail": "https://pse.komdigi.go.id/tdpse-detail/16657",
            "website": "smartmr.id"
        },
        {
            "id": "9cb1ac50-233a-4844-802c-9e897a6376fd",
            "nama_pse": "PC24 TELEKOMUNIKASI INDONESIA",
            "nama_se": "REKAM MEDIS ELEKTRONIK PULPA",
            "sektor": "Sektor Kesehatan, Sektor Teknologi Informasi dan Komunikasi",
            "tanggal_terbit": "2023-11-28",
            "url_tdpse_detail": "https://pse.komdigi.go.id/tdpse-detail/16658",
            "website": "PULPA.id"
        },
        {
            "id": "9cb1ac63-8c47-44a1-a4b4-0703096bac99",
            "nama_pse": "MORP LAKSANA KREASI INDONESIA",
            "nama_se": "MINISTRY OF ROLEPLAY",
            "sektor": "Sektor Teknologi Informasi dan Komunikasi",
            "tanggal_terbit": "2023-11-28",
            "url_tdpse_detail": "https://pse.komdigi.go.id/tdpse-detail/16659",
            "website": "morp.id"
        },
        {
            "id": "9cb1ac63-955a-4242-a709-51d6e57f9424",
            "nama_pse": "PETRO GRAHA MEDIKA",
            "nama_se": "SIPGM",
            "sektor": "Sektor Kesehatan",
            "tanggal_terbit": "2023-11-28",
            "url_tdpse_detail": "https://pse.komdigi.go.id/tdpse-detail/16661",
            "website": "-"
        },
        {
            "id": "9cb1ac50-263a-4c5c-ac84-756948bed0ce",
            "nama_pse": "MADIRA AMANAH MEDIKA",
            "nama_se": "ERM AMANAH 2",
            "sektor": "Sektor Kesehatan",
            "tanggal_terbit": "2023-11-28",
            "url_tdpse_detail": "https://pse.komdigi.go.id/tdpse-detail/16662",
            "website": "-"
        },
        {
            "id": "9cb1ac63-9dbe-4810-b366-8f20187b4318",
            "nama_pse": "BIMA TECHNOLOGIES",
            "nama_se": "SISTEM INFORMASI KESEHATAN (SIMKES)",
            "sektor": "Sektor Kesehatan",
            "tanggal_terbit": "2023-11-28",
            "url_tdpse_detail": "https://pse.komdigi.go.id/tdpse-detail/16663",
            "website": "simkes.jemberkab.go.id"
        },
        {
            "id": "9cb1ac50-2947-4b1a-97f2-75338fc581d9",
            "nama_pse": "BINTANG JANTUNG MALANG",
            "nama_se": "HAMIS PACCE",
            "sektor": "Sektor Kesehatan",
            "tanggal_terbit": "2023-11-28",
            "url_tdpse_detail": "https://pse.komdigi.go.id/tdpse-detail/16664",
            "website": "-"
        },
        {
            "id": "9cb1ac77-5828-4a53-9432-4ff2c99f8e90",
            "nama_pse": "NUR IHSAN",
            "nama_se": "JISOFT KLINIKA",
            "sektor": "Sektor Kesehatan",
            "tanggal_terbit": "2023-11-28",
            "url_tdpse_detail": "https://pse.komdigi.go.id/tdpse-detail/16665",
            "website": "-"
        },
        {
            "id": "9cb1ac50-2c93-4e2b-a431-037e90f6886c",
            "nama_pse": "PERSEK. PPMT BANK MATA INDONESIA",
            "nama_se": "SIRSAINUN",
            "sektor": "Sektor Kesehatan",
            "tanggal_terbit": "2023-11-28",
            "url_tdpse_detail": "https://pse.komdigi.go.id/tdpse-detail/18667",
            "website": "-"
        }
    ],
    "processingTimeMs": 2,
    "query": "",
    "totalHits": 19131,
    "hitsPerPage": 50,
    "page": 106,
    "totalPages": 383
}