{
    "hits": [
        {
            "id": "9cb1abc0-6fc2-475e-a3a7-2963b249aa47",
            "nama_pse": "SOCIOLLA RITEL INDONESIA",
            "nama_se": "CARASUN: TROPICAL SKIN EXPERT",
            "sektor": "Sektor Perdagangan",
            "tanggal_terbit": "2022-07-19",
            "url_tdpse_detail": "https://pse.komdigi.go.id/tdpse-detail/6714",
            "website": "carasunbeauty.com"
        },
        {
            "id": "9cb1abe4-d0c1-4807-944e-4efc00333156",
            "nama_pse": "INVESTA HIPA TEKNOLOGI",
            "nama_se": "HIPAJAK",
            "sektor": "Sektor Keuangan, Sektor Teknologi Informasi dan Komunikasi",
            "tanggal_terbit": "2022-07-19",
            "url_tdpse_detail": "https://pse.komdigi.go.id/tdpse-detail/6716",
            "website": "hipajak.id"
        },
        {
            "id": "9cb1abc0-7245-4642-8fff-fd96879a0d46",
            "nama_pse": "BANK SYARIAH INDONESIA",
            "nama_se": "BSI SMART",
            "sektor": "Sektor Keuangan",
            "tanggal_terbit": "2022-07-19",
            "url_tdpse_detail": "https://pse.komdigi.go.id/tdpse-detail/6719",
            "website": "smartagent.bankbsi.co.id"
        },
        {
            "id": "9cb1abc0-74c5-4df6-aab9-dd65e91d4a79",
            "nama_pse": "KOPERASI JASA BANK PEREKONOMIAN RAKYAT JETIS",
            "nama_se": "COREBANKING SISTEM",
            "sektor": "Sektor Keuangan",
            "tanggal_terbit": "2022-07-19",
            "url_tdpse_detail": "https://pse.komdigi.go.id/tdpse-detail/6721",
            "website": "-"
        },
        {
            "id": "9cb1abc0-769a-40d0-ae5d-88cb59f5acda",
            "nama_pse": "NUSANTARA BINA ARTHA",
            "nama_se": "BPR NUSUMMA GROUP WEBSITE",
            "sektor": "Sektor Keuangan, Sektor Teknologi Informasi dan Komunikasi",
            "tanggal_terbit": "2022-07-19",
            "url_tdpse_detail": "https://pse.komdigi.go.id/tdpse-detail/6722",
            "website": "-"
        },
        {
            "id": "9cb1abe4-d4f8-4ef1-a5e1-39a392bbed4e",
            "nama_pse": "INA GATA PERSADA",
            "nama_se": "INAGATA",
            "sektor": "Sektor Teknologi Informasi dan Komunikasi",
            "tanggal_terbit": "2022-07-19",
            "url_tdpse_detail": "https://pse.komdigi.go.id/tdpse-detail/6723",
            "website": "edupongo.com"
        },
        {
            "id": "9cb1abe4-db73-4a0e-a2b6-8dcb3c0b2287",
            "nama_pse": "BANK PEREKONOMIAN RAKYAT SUKAWATI PANCAKANTI",
            "nama_se": "SATU SIGMA",
            "sektor": "Sektor Keuangan",
            "tanggal_terbit": "2022-07-19",
            "url_tdpse_detail": "https://pse.komdigi.go.id/tdpse-detail/6726",
            "website": "bprkanti.com"
        },
        {
            "id": "9cb1abc0-7bc2-4ba7-8dee-397b89c3072e",
            "nama_pse": "SOCIOLLA RITEL INDONESIA",
            "nama_se": "COSRX ID: SITUS RESMI PRODUK \u0026 INFORMASI COSRX INDONESIA",
            "sektor": "Sektor Perdagangan",
            "tanggal_terbit": "2022-07-19",
            "url_tdpse_detail": "https://pse.komdigi.go.id/tdpse-detail/6727",
            "website": "cosrx.id"
        },
        {
            "id": "9cb1abe4-e078-4ca8-b4a6-291850e3e7db",
            "nama_pse": "BANK PERKREDITAN RAKYAT BALERONG BUNTA",
            "nama_se": "BPR BALERONG BUNTA",
            "sektor": "Sektor Keuangan",
            "tanggal_terbit": "2022-07-19",
            "url_tdpse_detail": "https://pse.komdigi.go.id/tdpse-detail/6728",
            "website": "-"
        },
        {
            "id": "9cb1abb5-962d-48e7-844b-1c37c069faf1",
            "nama_pse": "BANK PEREKONOMIAN RAKYAT ARTHA NUSANTARA ABADI",
            "nama_se": "WWW.BPRARTHANUSANTARAABADI.COM",
            "sektor": "Sektor Keuangan",
            "tanggal_terbit": "2022-07-19",
            "url_tdpse_detail": "https://pse.komdigi.go.id/tdpse-detail/6739",
            "website": "bprarthanusantaraabadi.com"
        },
        {
            "id": "9cb1abb5-9c67-47cb-96db-6511e2a459da",
            "nama_pse": "ASURANSI JASA INDONESIA",
            "nama_se": "WEBAPP JASINDO",
            "sektor": "Sektor Keuangan",
            "tanggal_terbit": "2022-07-19",
            "url_tdpse_detail": "https://pse.komdigi.go.id/tdpse-detail/6729",
            "website": "webapp.asuransijasindo.co.id"
        },
        {
            "id": "9cb1abc0-7de9-4124-8010-5d1316b4831d",
            "nama_pse": "BANK PERKREDITAN RAKYAT TANGGO RAJO PERSERODA",
            "nama_se": "BPRTANGGORAJOPERSERODA",
            "sektor": "Sektor Keuangan",
            "tanggal_terbit": "2022-07-19",
            "url_tdpse_detail": "https://pse.komdigi.go.id/tdpse-detail/6730",
            "website": "-"
        },
        {
            "id": "9cb1abe4-e6d6-49cd-b002-f0981c22ceba",
            "nama_pse": "BANK PERKREDITAN RAKYAT SUAR ARTHA DHARMA",
            "nama_se": "USSI PINBUK PRIMA SOFTWARE",
            "sektor": "Sektor Keuangan",
            "tanggal_terbit": "2022-07-19",
            "url_tdpse_detail": "https://pse.komdigi.go.id/tdpse-detail/6731",
            "website": "bprsuar.com"
        },
        {
            "id": "9cb1abe4-ebba-4f98-8efa-429d8e58df97",
            "nama_pse": "NUSANTARA GLOBAL INOVASI",
            "nama_se": "TRANS SEMARANG",
            "sektor": "Sektor Transportasi, Sektor Teknologi Informasi dan Komunikasi",
            "tanggal_terbit": "2022-07-19",
            "url_tdpse_detail": "https://pse.komdigi.go.id/tdpse-detail/6733",
            "website": "brtsemarang.com"
        },
        {
            "id": "9cb1abb5-a235-4f07-b547-201c93115e5c",
            "nama_pse": "ADVO MATRIKS INDONESIA",
            "nama_se": "CEKCEPAT",
            "sektor": "Sektor Kesehatan, Sektor Teknologi Informasi dan Komunikasi",
            "tanggal_terbit": "2022-07-19",
            "url_tdpse_detail": "https://pse.komdigi.go.id/tdpse-detail/6734",
            "website": "cekcepat.com"
        },
        {
            "id": "9cb1abb5-a516-4cc0-8e80-45876ff147e6",
            "nama_pse": "BANK PERKREDITAN RAKYAT AMERTA SARI",
            "nama_se": "PT BANK PERKREDITAN RAKYAT AMERTA SARI",
            "sektor": "Sektor Keuangan",
            "tanggal_terbit": "2022-07-19",
            "url_tdpse_detail": "https://pse.komdigi.go.id/tdpse-detail/6735",
            "website": "-"
        },
        {
            "id": "9cb1abc0-80b6-42e6-9e0f-150b09280bea",
            "nama_pse": "BANK PERKREDITAN RAKYAT MODERN EXPRESS PAPUA BARAT",
            "nama_se": "DIGITAL MODERN (DIGIMOD) E-LOAN - BPR MODERN EXPRESS PAPUA BARAT",
            "sektor": "Sektor Keuangan",
            "tanggal_terbit": "2022-07-19",
            "url_tdpse_detail": "https://pse.komdigi.go.id/tdpse-detail/6736",
            "website": "digimod.bprmodernpapua.com"
        },
        {
            "id": "9cb1abb5-ab1c-4c18-b4f7-8f9f8117134f",
            "nama_pse": "BANK KB BUKOPIN",
            "nama_se": "BSMART",
            "sektor": "Sektor Keuangan",
            "tanggal_terbit": "2022-07-19",
            "url_tdpse_detail": "https://pse.komdigi.go.id/tdpse-detail/6737",
            "website": "bsmart.bukopin.co.id"
        },
        {
            "id": "9cb1abc0-82ad-461f-aba2-17f778196b52",
            "nama_pse": "PERMAI INDO SOLUSI",
            "nama_se": "KIOS PERMAI",
            "sektor": "Sektor Perdagangan",
            "tanggal_terbit": "2022-07-19",
            "url_tdpse_detail": "https://pse.komdigi.go.id/tdpse-detail/6738",
            "website": "kiospermai.com"
        },
        {
            "id": "9cb1abc0-850b-48d4-810f-33376884fc50",
            "nama_pse": "BANK PEREKONOMIAN RAKYAT LESCA DANA BATAM",
            "nama_se": "LESCADANA",
            "sektor": "Sektor Keuangan",
            "tanggal_terbit": "2022-07-19",
            "url_tdpse_detail": "https://pse.komdigi.go.id/tdpse-detail/6740",
            "website": "banklescadana.co.id"
        },
        {
            "id": "9cb1abe4-f18a-45d8-8e08-1656d34529f4",
            "nama_pse": "ASURANSI SIMAS JIWA",
            "nama_se": "SIJISALESFORCE.SIMASJIWA.COM",
            "sektor": "Sektor Keuangan",
            "tanggal_terbit": "2022-07-19",
            "url_tdpse_detail": "https://pse.komdigi.go.id/tdpse-detail/6741",
            "website": "simasjiwa.com"
        },
        {
            "id": "9cb1abe4-f66b-4589-99c7-9b63003c7b27",
            "nama_pse": "UNGGUL CAHYA SAPUTRA",
            "nama_se": "PORTAL AHLIWEB.COM",
            "sektor": "Sektor Teknologi Informasi dan Komunikasi",
            "tanggal_terbit": "2022-07-19",
            "url_tdpse_detail": "https://pse.komdigi.go.id/tdpse-detail/6742",
            "website": "ahliweb.com"
        },
        {
            "id": "9cb1abe4-fdd4-4a5e-b130-9c120c6cc499",
            "nama_pse": "SAEFUL ARIFIN",
            "nama_se": "KALIPULSA",
            "sektor": "Sektor Perdagangan",
            "tanggal_terbit": "2022-07-19",
            "url_tdpse_detail": "https://pse.komdigi.go.id/tdpse-detail/6743",
            "website": "KALIPULSA.COM"
        },
        {
            "id": "9cb1abb5-ad64-4aac-92b6-854295cf94d5",
            "nama_pse": "BANK PEREKONOMIAN RAKYAT SURYA UTAMA",
            "nama_se": "INSTAGRAM PT BPR SURYA UTAMA (PT_BPR_SURYA_UTAMA)",
            "sektor": "Sektor Keuangan",
            "tanggal_terbit": "2022-07-19",
            "url_tdpse_detail": "https://pse.komdigi.go.id/tdpse-detail/6744",
            "website": "-"
        },
        {
            "id": "9cb1abc0-8942-46cb-891e-fb08c804aa64",
            "nama_pse": "ANTI IKLAN KOSONG",
            "nama_se": "TRAVIKR",
            "sektor": "Sektor Perdagangan, Sektor Teknologi Informasi dan Komunikasi",
            "tanggal_terbit": "2022-07-19",
            "url_tdpse_detail": "https://pse.komdigi.go.id/tdpse-detail/6752",
            "website": "travikr.com"
        },
        {
            "id": "9cb1abe5-0159-432c-8fc7-4b805c3b80b1",
            "nama_pse": "BANK PERKREDITAN RAKYAT LABUHAN DANA SENTOSA",
            "nama_se": "PT BPR LABUHAN DANA SENTOSA",
            "sektor": "Sektor Keuangan",
            "tanggal_terbit": "2022-07-19",
            "url_tdpse_detail": "https://pse.komdigi.go.id/tdpse-detail/6745",
            "website": "banklds.com"
        },
        {
            "id": "9cb1abc0-8bba-4209-a2f2-46e28c505e99",
            "nama_pse": "PT BPR HAMINDO NATAMAKMUR",
            "nama_se": "BPR HAMINDO NATAMAKMUR",
            "sektor": "Sektor Keuangan",
            "tanggal_terbit": "2022-07-19",
            "url_tdpse_detail": "https://pse.komdigi.go.id/tdpse-detail/6746",
            "website": "-"
        },
        {
            "id": "9cb1abe5-062a-42ea-9905-2647b99b49b9",
            "nama_pse": "ISTANA BANDUNG RAYA MOTOR",
            "nama_se": "OFFICIAL WEBSITE DEALER HONDA IBRM",
            "sektor": "Sektor Perdagangan",
            "tanggal_terbit": "2022-07-19",
            "url_tdpse_detail": "https://pse.komdigi.go.id/tdpse-detail/6748",
            "website": "hondaibrm.co.id"
        },
        {
            "id": "9cb1abc0-8ed8-4cc0-9a87-c5b2f57adba0",
            "nama_pse": "BANK SYARIAH INDONESIA",
            "nama_se": "WEBFORM BSI",
            "sektor": "Sektor Keuangan",
            "tanggal_terbit": "2022-07-19",
            "url_tdpse_detail": "https://pse.komdigi.go.id/tdpse-detail/6747",
            "website": "webform.bankbsi.co.id"
        },
        {
            "id": "9cb1abb5-af59-44e7-a723-0e5c286270ff",
            "nama_pse": "TEKNOLOGI EDUKASI INDONESIA",
            "nama_se": "LUARSEKOLAH",
            "sektor": "Sektor Perdagangan, Sektor Teknologi Informasi dan Komunikasi",
            "tanggal_terbit": "2022-07-19",
            "url_tdpse_detail": "https://pse.komdigi.go.id/tdpse-detail/6749",
            "website": "luarsekolah.com"
        },
        {
            "id": "9cb1abc0-966d-4755-b511-48ca1acf7185",
            "nama_pse": "BANK PERKREDITAN RAKYAT TAYU DUTAPERSADA",
            "nama_se": "WEBSITE",
            "sektor": "Sektor Keuangan",
            "tanggal_terbit": "2022-07-19",
            "url_tdpse_detail": "https://pse.komdigi.go.id/tdpse-detail/6750",
            "website": "tayudutapersada.site"
        },
        {
            "id": "9cb1abe5-0967-4f67-af99-6812b9366add",
            "nama_pse": "BANK PERKREDITAN RAKYAT ARTHABUDAYA",
            "nama_se": "WEBSITE BPR ARTHABUDAYA",
            "sektor": "Sektor Keuangan",
            "tanggal_terbit": "2022-07-19",
            "url_tdpse_detail": "https://pse.komdigi.go.id/tdpse-detail/6751",
            "website": "-"
        },
        {
            "id": "9cb1abc0-a8c0-4327-b391-9a318a692afc",
            "nama_pse": "PATRA JASA",
            "nama_se": "WEBSITE PATRAJASA",
            "sektor": "Sektor Perdagangan",
            "tanggal_terbit": "2022-07-19",
            "url_tdpse_detail": "https://pse.komdigi.go.id/tdpse-detail/6788",
            "website": "patra-jasa.com"
        },
        {
            "id": "9cb1abc0-ab90-4f87-bde0-560c6e381eb7",
            "nama_pse": "WADAH IDE NAGARA",
            "nama_se": "IDEKEN",
            "sektor": "Sektor Teknologi Informasi dan Komunikasi",
            "tanggal_terbit": "2022-07-19",
            "url_tdpse_detail": "https://pse.komdigi.go.id/tdpse-detail/6753",
            "website": "idekeen.id"
        },
        {
            "id": "9cb1abb5-b1e6-4c40-a0bf-d3e09f053097",
            "nama_pse": "ADVO MATRIKS INDONESIA",
            "nama_se": "ADVOSQUARE",
            "sektor": "Sektor Teknologi Informasi dan Komunikasi",
            "tanggal_terbit": "2022-07-19",
            "url_tdpse_detail": "https://pse.komdigi.go.id/tdpse-detail/6754",
            "website": "advosquare.com"
        },
        {
            "id": "9cb1abe5-1179-4b81-8335-3316ef98c700",
            "nama_pse": "LUTFHY SUSI ANGGRAENY",
            "nama_se": "AHLIPULSA.COM",
            "sektor": "Sektor Perdagangan",
            "tanggal_terbit": "2022-07-19",
            "url_tdpse_detail": "https://pse.komdigi.go.id/tdpse-detail/6755",
            "website": "ahlipulsa.com"
        },
        {
            "id": "9cb1abc0-adc2-4ed7-9f95-a2cec436f6ee",
            "nama_pse": "UNGGUL CAHYA SAPUTRA",
            "nama_se": "PORTAL AHLIWEB.CO.ID",
            "sektor": "Sektor Teknologi Informasi dan Komunikasi",
            "tanggal_terbit": "2022-07-19",
            "url_tdpse_detail": "https://pse.komdigi.go.id/tdpse-detail/6757",
            "website": "ahliweb.co.id"
        },
        {
            "id": "9cb1abb5-b3d3-40e9-9f66-3470969984a3",
            "nama_pse": "TUAS MAS MANDIRI DIGITAL PAYMENT",
            "nama_se": "BILPAY",
            "sektor": "Sektor Keuangan",
            "tanggal_terbit": "2022-07-19",
            "url_tdpse_detail": "https://pse.komdigi.go.id/tdpse-detail/6759",
            "website": "bilgy.co.id"
        },
        {
            "id": "9cb1abe5-1e85-4c73-b949-af89eb10220f",
            "nama_pse": "BANK PERKREDITAN RAKYAT MODERN EXPRESS PAPUA BARAT",
            "nama_se": "DIGITAL MODERN (DIGIMOD) E-LOAN CUSTOMER-BPR MODERN EXPRESS PAPUA BARAT",
            "sektor": "Sektor Keuangan",
            "tanggal_terbit": "2022-07-19",
            "url_tdpse_detail": "https://pse.komdigi.go.id/tdpse-detail/6758",
            "website": "kredit.bprmodernpapua.com"
        },
        {
            "id": "9cb1abc0-afd4-4fab-9b66-e6bdefd11cbf",
            "nama_pse": "BANK PERKREDITAN RAKYAT SAPTACRISTY UTAMA",
            "nama_se": "BANKING SMART SYSTEM",
            "sektor": "Sektor Keuangan",
            "tanggal_terbit": "2022-07-19",
            "url_tdpse_detail": "https://pse.komdigi.go.id/tdpse-detail/6760",
            "website": "bprcristy.co.id"
        },
        {
            "id": "9cb1abe5-2347-4246-a438-74ff09a86cf7",
            "nama_pse": "STUDIO KAMI MANDIRI",
            "nama_se": "JOUMPA",
            "sektor": "Sektor Perdagangan, Sektor Teknologi Informasi dan Komunikasi",
            "tanggal_terbit": "2022-07-19",
            "url_tdpse_detail": "https://pse.komdigi.go.id/tdpse-detail/6761",
            "website": "joumpa.com"
        },
        {
            "id": "9cb1abc0-b1b1-42d4-93a4-6e1e74c8704f",
            "nama_pse": "BANK PEREKONOMIAN RAKYAT KITA",
            "nama_se": "IBS USSI",
            "sektor": "Sektor Keuangan",
            "tanggal_terbit": "2022-07-19",
            "url_tdpse_detail": "https://pse.komdigi.go.id/tdpse-detail/6762",
            "website": "bprkita.com"
        },
        {
            "id": "9cb1abb5-b5e2-4ecb-af26-7c9e6c3d0116",
            "nama_pse": "KALS CORPORA INDONESIA",
            "nama_se": "ZMNOW.ID",
            "sektor": "Sektor Perdagangan",
            "tanggal_terbit": "2022-07-19",
            "url_tdpse_detail": "https://pse.komdigi.go.id/tdpse-detail/6771",
            "website": "zmnow.id"
        },
        {
            "id": "9cb1abb5-b7d1-4353-a8ad-06b9bf59f4b1",
            "nama_pse": "HELPIO GLOVIN TEKNOLOGI",
            "nama_se": "UBIKLAN.COM",
            "sektor": "Sektor Teknologi Informasi dan Komunikasi",
            "tanggal_terbit": "2022-07-19",
            "url_tdpse_detail": "https://pse.komdigi.go.id/tdpse-detail/6774",
            "website": "ubiklan.com"
        },
        {
            "id": "9cb1abb5-b985-451e-a760-189909c294f1",
            "nama_pse": "BLA BLA TECH",
            "nama_se": "ITULOH",
            "sektor": "Sektor Perdagangan, Sektor Teknologi Informasi dan Komunikasi",
            "tanggal_terbit": "2022-07-19",
            "url_tdpse_detail": "https://pse.komdigi.go.id/tdpse-detail/6763",
            "website": "ituloh.co"
        },
        {
            "id": "9cb1abb5-bc2f-41a5-b0dd-64d0f6c97960",
            "nama_pse": "BANK PERKREDITAN RAKYAT SINARGUNA SEJAHTERA",
            "nama_se": "ARCHIPELAGO DIGITAL STUDIO",
            "sektor": "Sektor Keuangan",
            "tanggal_terbit": "2022-07-19",
            "url_tdpse_detail": "https://pse.komdigi.go.id/tdpse-detail/6764",
            "website": "bprsinargunasejahtera.com"
        },
        {
            "id": "9cb1abb5-be10-4685-bdc7-376c6c4eb6a9",
            "nama_pse": "MUHAMMAD ADAM SANTOSO",
            "nama_se": "MADOTS",
            "sektor": "Sektor Teknologi Informasi dan Komunikasi",
            "tanggal_terbit": "2022-07-19",
            "url_tdpse_detail": "https://pse.komdigi.go.id/tdpse-detail/6765",
            "website": "madots.id"
        },
        {
            "id": "9cb1abc0-b640-4638-8940-abb31f6c42fc",
            "nama_pse": "ISTANA BANDUNG RAYA MOTOR",
            "nama_se": "OFFICIAL WEBSITE MAIN DEALER HONDA BANDUNG CENTER",
            "sektor": "Sektor Perdagangan",
            "tanggal_terbit": "2022-07-19",
            "url_tdpse_detail": "https://pse.komdigi.go.id/tdpse-detail/6767",
            "website": "hondabandungcenter.com"
        },
        {
            "id": "9cb1abe5-2d50-49f2-bce8-cd47af18f360",
            "nama_pse": "BANK PEREKONOMIAN RAKYAT BUANA AGRIBISNIS",
            "nama_se": "BANK BUANA AGRIBISNIS",
            "sektor": "Sektor Keuangan",
            "tanggal_terbit": "2022-07-19",
            "url_tdpse_detail": "https://pse.komdigi.go.id/tdpse-detail/6804",
            "website": "bprbuanaagribisnis.co.id"
        },
        {
            "id": "9cb1abe5-35bc-4a41-beda-17fb2257c75c",
            "nama_pse": "ADVO MATRIKS INDONESIA",
            "nama_se": "ADVOSHIELD",
            "sektor": "Sektor Teknologi Informasi dan Komunikasi",
            "tanggal_terbit": "2022-07-19",
            "url_tdpse_detail": "https://pse.komdigi.go.id/tdpse-detail/6768",
            "website": "advoshield.com"
        }
    ],
    "processingTimeMs": 14,
    "query": "",
    "totalHits": 19121,
    "hitsPerPage": 50,
    "page": 256,
    "totalPages": 383
}