{
    "hits": [
        {
            "id": "9cb1ab81-7587-4b13-a93b-959e999dc36a",
            "nama_pse": "WAHYU SUJATMIKO",
            "nama_se": "CLOUD STORAGE",
            "sektor": "Sektor Teknologi Informasi dan Komunikasi, Sektor Teknologi Informasi dan Komunikasi, Sektor Teknologi Informasi dan Komunikasi",
            "tanggal_terbit": "2022-02-22",
            "url_tdpse_detail": "https://pse.komdigi.go.id/tdpse-detail/3341",
            "website": "-"
        },
        {
            "id": "9cb1ab89-f49e-4176-beec-b5ddbf6fcf6c",
            "nama_pse": "SMARKT SOLUSI INDONESIA",
            "nama_se": "SMARKT ONLINE",
            "sektor": "Sektor Perdagangan, Sektor Perdagangan",
            "tanggal_terbit": "2022-02-22",
            "url_tdpse_detail": "https://pse.komdigi.go.id/tdpse-detail/3343",
            "website": "smarkt.online"
        },
        {
            "id": "9cb1ab7a-cabe-484f-b77d-eaf79bdc9bf9",
            "nama_pse": "KESEHATAN HEWAN PELIHARAAN PAWLYCLINIC",
            "nama_se": "PAWLYCLINIC",
            "sektor": "Sektor Teknologi Informasi dan Komunikasi, Sektor Teknologi Informasi dan Komunikasi",
            "tanggal_terbit": "2022-02-22",
            "url_tdpse_detail": "https://pse.komdigi.go.id/tdpse-detail/3330",
            "website": "pawlyclinic.co.id"
        },
        {
            "id": "9cb1ab82-a5b4-4bdd-bb77-255d2e424b5f",
            "nama_pse": "NOMURA RESEARCH INSTITUTE INDONESIA",
            "nama_se": "NOMURA RESEARCH INSTITUTE INDONESIA",
            "sektor": "Sektor Teknologi Informasi dan Komunikasi, Sektor Teknologi Informasi dan Komunikasi",
            "tanggal_terbit": "2022-02-22",
            "url_tdpse_detail": "https://pse.komdigi.go.id/tdpse-detail/3340",
            "website": "nri.co.id"
        },
        {
            "id": "9cb1ab82-e6d2-4007-9e19-2dcef5d416d9",
            "nama_pse": "EASY CRYPTO INDONESIA",
            "nama_se": "EASYCRYPTO.COM",
            "sektor": "Sektor Perdagangan, Sektor Perdagangan, Sektor Teknologi Informasi dan Komunikasi, Sektor Teknologi Informasi dan Komunikasi",
            "tanggal_terbit": "2022-02-22",
            "url_tdpse_detail": "https://pse.komdigi.go.id/tdpse-detail/3329",
            "website": "easycrypto.com"
        },
        {
            "id": "9cb1ab7b-1895-4455-a7d6-6042409283b5",
            "nama_pse": "DEVITRA RIONALDI",
            "nama_se": "NO IDEA FEMALE",
            "sektor": "Sektor Perdagangan, Sektor Perdagangan",
            "tanggal_terbit": "2022-02-22",
            "url_tdpse_detail": "https://pse.komdigi.go.id/tdpse-detail/3335",
            "website": "-"
        },
        {
            "id": "9cb1ab7b-2100-4600-a172-198dd3e992bb",
            "nama_pse": "PLUS ENAM DUA GROUP",
            "nama_se": "DATABASE BINAAN PLUS ENAM DUA GROUP",
            "sektor": "Sektor Perdagangan, Sektor Perdagangan, Sektor Teknologi Informasi dan Komunikasi, Sektor Teknologi Informasi dan Komunikasi",
            "tanggal_terbit": "2022-02-22",
            "url_tdpse_detail": "https://pse.komdigi.go.id/tdpse-detail/3344",
            "website": "http://getnutritionplus.com"
        },
        {
            "id": "9cb1ab82-f51c-4e67-9c95-a8723ce7a8a2",
            "nama_pse": "PLUS ENAM DUA GROUP",
            "nama_se": "PLUS ENAM DUA GROUP",
            "sektor": "Sektor Perdagangan, Sektor Perdagangan, Sektor Teknologi Informasi dan Komunikasi, Sektor Teknologi Informasi dan Komunikasi",
            "tanggal_terbit": "2022-02-22",
            "url_tdpse_detail": "https://pse.komdigi.go.id/tdpse-detail/3345",
            "website": "http://getnutritionplus.com"
        },
        {
            "id": "9cb1ab8a-db3e-4ced-b749-a012a4c909ce",
            "nama_pse": "PLUS ENAM DUA GROUP",
            "nama_se": "PLUS ENAM DUA",
            "sektor": "Sektor Perdagangan, Sektor Perdagangan",
            "tanggal_terbit": "2022-02-22",
            "url_tdpse_detail": "https://pse.komdigi.go.id/tdpse-detail/3346",
            "website": "mai-groups.com"
        },
        {
            "id": "9cb1ab7b-2592-4cca-8aa9-63ac23ffb441",
            "nama_pse": "INDONESIA CREATORS ECONOMY",
            "nama_se": "WEBSITE",
            "sektor": "Sektor Teknologi Informasi dan Komunikasi, Sektor Teknologi Informasi dan Komunikasi",
            "tanggal_terbit": "2022-02-22",
            "url_tdpse_detail": "https://pse.komdigi.go.id/tdpse-detail/3331",
            "website": "ice.id"
        },
        {
            "id": "9cb1ab7b-2b5c-4ecc-b6d1-8516bc65c0cf",
            "nama_pse": "GLOBAL INDO MULTIMEDIA",
            "nama_se": "CASHPLUS.ID",
            "sektor": "Sektor Keuangan, Sektor Keuangan, Sektor Teknologi Informasi dan Komunikasi, Sektor Teknologi Informasi dan Komunikasi",
            "tanggal_terbit": "2022-02-22",
            "url_tdpse_detail": "https://pse.komdigi.go.id/tdpse-detail/3342",
            "website": "cashplus.id"
        },
        {
            "id": "9cb1ab82-fceb-4991-a4b9-54dcefe66468",
            "nama_pse": "INVESTAMA DANA INDONESIA",
            "nama_se": "INVESTAMA DANA INDONESIA",
            "sektor": "Sektor Teknologi Informasi dan Komunikasi, Sektor Teknologi Informasi dan Komunikasi",
            "tanggal_terbit": "2022-02-22",
            "url_tdpse_detail": "https://pse.komdigi.go.id/tdpse-detail/3332",
            "website": "-"
        },
        {
            "id": "9cb1ab7b-2f3c-4e12-a73d-b7f890bfbc3e",
            "nama_pse": "SINERGI TEKNO MEDIKA",
            "nama_se": "HOMECLINIC",
            "sektor": "Sektor Kesehatan, Sektor Kesehatan, Sektor Teknologi Informasi dan Komunikasi, Sektor Teknologi Informasi dan Komunikasi",
            "tanggal_terbit": "2022-02-22",
            "url_tdpse_detail": "https://pse.komdigi.go.id/tdpse-detail/3336",
            "website": "-"
        },
        {
            "id": "9cb1ab83-00f7-401f-9817-19b9fd995360",
            "nama_pse": "MAP FTL ADIPERKASA",
            "nama_se": "WWW.FOOTLOCKER.ID",
            "sektor": "Sektor Perdagangan, Sektor Perdagangan",
            "tanggal_terbit": "2022-02-22",
            "url_tdpse_detail": "https://pse.komdigi.go.id/tdpse-detail/3337",
            "website": "footlocker.id"
        },
        {
            "id": "9cb1ab6d-4613-4cb1-a141-4d0dbb4497f5",
            "nama_pse": "RUMAH MEBEL NUSANTARA",
            "nama_se": "WWW.IKEA.CO.ID",
            "sektor": "Sektor Perdagangan, Sektor Perdagangan",
            "tanggal_terbit": "2022-02-21",
            "url_tdpse_detail": "https://pse.komdigi.go.id/tdpse-detail/3328",
            "website": "ikea.co.id"
        },
        {
            "id": "9cb1ab89-cc57-46e0-8081-e3c0a6ebc4c7",
            "nama_pse": "HOTEL INDONESIA NATOUR",
            "nama_se": "WWW.JELAJAHIN.ID",
            "sektor": "Sektor Perdagangan, Sektor Perdagangan",
            "tanggal_terbit": "2022-02-21",
            "url_tdpse_detail": "https://pse.komdigi.go.id/tdpse-detail/3324",
            "website": "jelajahin.id"
        },
        {
            "id": "9cb1ab7a-50fa-4581-bfa2-e77a9221b294",
            "nama_pse": "HASTINAPURA MAKMUR SEJAHTERA",
            "nama_se": "HFX6.1",
            "sektor": "Sektor Perdagangan, Sektor Perdagangan, Sektor Teknologi Informasi dan Komunikasi, Sektor Teknologi Informasi dan Komunikasi",
            "tanggal_terbit": "2022-02-21",
            "url_tdpse_detail": "https://pse.komdigi.go.id/tdpse-detail/3321",
            "website": "hastinapurafx.com"
        },
        {
            "id": "9cb1ab8a-652e-46e6-8701-2a1ee6425c82",
            "nama_pse": "DIGITAL MALL INDONESIA",
            "nama_se": "DIGITAL MALL INDONESIA",
            "sektor": "Sektor Perdagangan, Sektor Perdagangan",
            "tanggal_terbit": "2022-02-21",
            "url_tdpse_detail": "https://pse.komdigi.go.id/tdpse-detail/3325",
            "website": "dimall.id"
        },
        {
            "id": "9cb1ab82-e073-4e31-9990-18e7d82b90de",
            "nama_pse": "NARINDO SOLUSI TELEKOMUNIKASI",
            "nama_se": "NARINDO BILLER (NABILA)",
            "sektor": "Sektor Perdagangan, Sektor Perdagangan, Sektor Keuangan, Sektor Keuangan, Sektor Teknologi Informasi dan Komunikasi, Sektor Teknologi Informasi dan Komunikasi",
            "tanggal_terbit": "2022-02-21",
            "url_tdpse_detail": "https://pse.komdigi.go.id/tdpse-detail/3326",
            "website": "narindo.com"
        },
        {
            "id": "9cb1ab82-e410-46cb-97e4-47980d7418c1",
            "nama_pse": "NARINDO SOLUSI TELEKOMUNIKASI",
            "nama_se": "NABILA (NARINDO BILLING ASSISTANCE)",
            "sektor": "Sektor Perdagangan, Sektor Perdagangan, Sektor Keuangan, Sektor Keuangan, Sektor Teknologi Informasi dan Komunikasi, Sektor Teknologi Informasi dan Komunikasi",
            "tanggal_terbit": "2022-02-21",
            "url_tdpse_detail": "https://pse.komdigi.go.id/tdpse-detail/3327",
            "website": "narindo.com"
        },
        {
            "id": "9cb1ab82-f85b-4a1a-883f-0fdd5b9c71a9",
            "nama_pse": "SAKALAGUNA SEMESTA",
            "nama_se": "SERBADA",
            "sektor": "Sektor Perdagangan, Sektor Perdagangan",
            "tanggal_terbit": "2022-02-21",
            "url_tdpse_detail": "https://pse.komdigi.go.id/tdpse-detail/3323",
            "website": "serbada.id"
        },
        {
            "id": "9cb1ab7e-26f4-48b1-9527-ef78a67e6c4b",
            "nama_pse": "IRON ASSET INDONESIA",
            "nama_se": "EC2 SERVICE / AYO KITA APP SERVICE",
            "sektor": "Sektor Perdagangan, Sektor Perdagangan",
            "tanggal_terbit": "2022-02-21",
            "url_tdpse_detail": "https://pse.komdigi.go.id/tdpse-detail/3322",
            "website": "-"
        },
        {
            "id": "9cb1ab79-09d1-42b7-8906-e709feccec8d",
            "nama_pse": "MEDIA NARASI JARINGAN RAKYAT",
            "nama_se": "WWW.BHAYANGKARA.NEWS",
            "sektor": "Sektor Teknologi Informasi dan Komunikasi, Sektor Teknologi Informasi dan Komunikasi, Sektor Teknologi Informasi dan Komunikasi",
            "tanggal_terbit": "2022-02-20",
            "url_tdpse_detail": "https://pse.komdigi.go.id/tdpse-detail/3320",
            "website": "bhayangkara.news"
        },
        {
            "id": "9cb1ab7b-1d83-4a96-9a75-86a6295c3918",
            "nama_pse": "ELANG MEMEGA INDONESIA",
            "nama_se": "WWW.ELANGMEMEGANEWS.ONLINE",
            "sektor": "Sektor Teknologi Informasi dan Komunikasi, Sektor Teknologi Informasi dan Komunikasi",
            "tanggal_terbit": "2022-02-20",
            "url_tdpse_detail": "https://pse.komdigi.go.id/tdpse-detail/3319",
            "website": "elangmemeganews.online"
        },
        {
            "id": "9cb1ab81-94ef-4d6b-86d2-24d37ef67e9b",
            "nama_pse": "MEDIA KKR GROUP",
            "nama_se": "KABAR KEDIRI RAYA",
            "sektor": "Sektor Teknologi Informasi dan Komunikasi, Sektor Teknologi Informasi dan Komunikasi",
            "tanggal_terbit": "2022-02-19",
            "url_tdpse_detail": "https://pse.komdigi.go.id/tdpse-detail/3317",
            "website": "kabarkediriraya.com"
        },
        {
            "id": "9cb1ab82-f0e1-4d0f-8f04-5102a1daa84f",
            "nama_pse": "MITRA INDOJAYA TEKNOLOGI",
            "nama_se": "WALLBLOCK TECHNOLOGY",
            "sektor": "Sektor Teknologi Informasi dan Komunikasi, Sektor Teknologi Informasi dan Komunikasi",
            "tanggal_terbit": "2022-02-19",
            "url_tdpse_detail": "https://pse.komdigi.go.id/tdpse-detail/3318",
            "website": "wallblock.co.id"
        },
        {
            "id": "9cb1ab78-b301-4149-b54a-479599bd009e",
            "nama_pse": "BANK MUAMALAT INDONESIA",
            "nama_se": "AUTOMATIC TELLER MACHINE (ATM)",
            "sektor": "Sektor Keuangan, Sektor Keuangan",
            "tanggal_terbit": "2022-02-18",
            "url_tdpse_detail": "https://pse.komdigi.go.id/tdpse-detail/3305",
            "website": "bankmuamalat.co.id"
        },
        {
            "id": "9cb1ab80-7833-4ac3-b5d6-b926b20fe666",
            "nama_pse": "BANK MUAMALAT INDONESIA",
            "nama_se": "LAYANAN HOST TO HOST WEB SERVICE",
            "sektor": "Sektor Keuangan, Sektor Keuangan",
            "tanggal_terbit": "2022-02-18",
            "url_tdpse_detail": "https://pse.komdigi.go.id/tdpse-detail/3307",
            "website": "bankmuamalat.co.id"
        },
        {
            "id": "9cb1ab88-7955-4473-ade2-d14dfabe7091",
            "nama_pse": "BANK MUAMALAT INDONESIA",
            "nama_se": "QRIS ACQUIRING",
            "sektor": "Sektor Keuangan, Sektor Keuangan",
            "tanggal_terbit": "2022-02-18",
            "url_tdpse_detail": "https://pse.komdigi.go.id/tdpse-detail/3310",
            "website": "bankmuamalat.co.id"
        },
        {
            "id": "9cb1ab78-b93c-4f99-b8c6-d56eb0399a34",
            "nama_pse": "BANK MUAMALAT INDONESIA",
            "nama_se": "MUAMALAT DIN",
            "sektor": "Sektor Keuangan, Sektor Keuangan",
            "tanggal_terbit": "2022-02-18",
            "url_tdpse_detail": "https://pse.komdigi.go.id/tdpse-detail/3311",
            "website": "bankmuamalat.co.id"
        },
        {
            "id": "9cb1ab88-7d64-4bcb-b500-66d042f98762",
            "nama_pse": "BANK MUAMALAT INDONESIA",
            "nama_se": "INTERNET BANKING MUAMALAT",
            "sektor": "Sektor Keuangan, Sektor Keuangan",
            "tanggal_terbit": "2022-02-18",
            "url_tdpse_detail": "https://pse.komdigi.go.id/tdpse-detail/3312",
            "website": "bankmuamalat.co.id"
        },
        {
            "id": "9cb1ab81-9a67-4dff-8607-02dc14e4d3d4",
            "nama_pse": "ALLO FRESH INDONESIA",
            "nama_se": "ALLOFRESH",
            "sektor": "Sektor Teknologi Informasi dan Komunikasi, Sektor Teknologi Informasi dan Komunikasi",
            "tanggal_terbit": "2022-02-18",
            "url_tdpse_detail": "https://pse.komdigi.go.id/tdpse-detail/3306",
            "website": "allofresh.id"
        },
        {
            "id": "9cb1ab7a-e3c8-43da-9552-01e031321fb1",
            "nama_pse": "CHANDRA KARYA PRAMUKA",
            "nama_se": "HTTPS://CHANDRA-KARYA.COM/",
            "sektor": "Sektor Perdagangan, Sektor Perdagangan",
            "tanggal_terbit": "2022-02-18",
            "url_tdpse_detail": "https://pse.komdigi.go.id/tdpse-detail/3313",
            "website": "chandra-karya.com"
        },
        {
            "id": "9cb1ab7a-f013-465e-8c87-2ae003dc235a",
            "nama_pse": "ARCHIPELAGO INTERNATIONAL INDONESIA",
            "nama_se": "ARCHIPELAGO ONLINE BOOKING",
            "sektor": "Sektor Perdagangan, Sektor Perdagangan, Sektor Perdagangan, Sektor Teknologi Informasi dan Komunikasi, Sektor Teknologi Informasi dan Komunikasi, Sektor Teknologi Informasi dan Komunikasi",
            "tanggal_terbit": "2022-02-18",
            "url_tdpse_detail": "https://pse.komdigi.go.id/tdpse-detail/3314",
            "website": "simplebooking.travel"
        },
        {
            "id": "9cb1ab8a-9bd8-4e9a-b490-36f9d3857768",
            "nama_pse": "GENSET RAMAH LINGKUNGAN",
            "nama_se": "PT GENSET RAMAH LINGKUNGAN",
            "sektor": "Sektor Perdagangan, Sektor Perdagangan",
            "tanggal_terbit": "2022-02-18",
            "url_tdpse_detail": "https://pse.komdigi.go.id/tdpse-detail/3300",
            "website": "genset.co.id"
        },
        {
            "id": "9cb1ab7b-06ac-4159-ab90-07ddcde52825",
            "nama_pse": "LINTAU NET INDONESIA",
            "nama_se": "LINTAU NET INDONESIA",
            "sektor": "Sektor Perdagangan, Sektor Perdagangan, Sektor Teknologi Informasi dan Komunikasi, Sektor Teknologi Informasi dan Komunikasi",
            "tanggal_terbit": "2022-02-18",
            "url_tdpse_detail": "https://pse.komdigi.go.id/tdpse-detail/3293",
            "website": "-"
        },
        {
            "id": "9cb1ab8a-b560-42f7-bcc5-d540f6f37021",
            "nama_pse": "LINTAU NET INDONESIA",
            "nama_se": "WEB DESIGN",
            "sektor": "Sektor Teknologi Informasi dan Komunikasi, Sektor Teknologi Informasi dan Komunikasi",
            "tanggal_terbit": "2022-02-18",
            "url_tdpse_detail": "https://pse.komdigi.go.id/tdpse-detail/3294",
            "website": "-"
        },
        {
            "id": "9cb1ab8a-b800-4e48-8307-b45c3ae0dd76",
            "nama_pse": "LINTAU NET INDONESIA",
            "nama_se": "AKTIVITAS TELEKOMUNIKASI DENGAN KABEL",
            "sektor": "Sektor Teknologi Informasi dan Komunikasi, Sektor Teknologi Informasi dan Komunikasi",
            "tanggal_terbit": "2022-02-18",
            "url_tdpse_detail": "https://pse.komdigi.go.id/tdpse-detail/3295",
            "website": "-"
        },
        {
            "id": "9cb1ab82-af12-4f74-a14b-dd834e900586",
            "nama_pse": "LINTAU NET INDONESIA",
            "nama_se": "AKTIVITAS TELEKOMUNIKASI TANPA KABEL",
            "sektor": "Sektor Perdagangan, Sektor Perdagangan, Sektor Teknologi Informasi dan Komunikasi, Sektor Teknologi Informasi dan Komunikasi",
            "tanggal_terbit": "2022-02-18",
            "url_tdpse_detail": "https://pse.komdigi.go.id/tdpse-detail/3296",
            "website": "-"
        },
        {
            "id": "9cb1ab82-b852-44fa-b90a-59d14677f8de",
            "nama_pse": "LINTAU NET INDONESIA",
            "nama_se": "PERDAGANGAN BESAR PERALATAN TELEKOMUNIKASI",
            "sektor": "Sektor Perdagangan, Sektor Perdagangan, Sektor Teknologi Informasi dan Komunikasi, Sektor Teknologi Informasi dan Komunikasi",
            "tanggal_terbit": "2022-02-18",
            "url_tdpse_detail": "https://pse.komdigi.go.id/tdpse-detail/3297",
            "website": "-"
        },
        {
            "id": "9cb1ab82-bb3c-46bd-b817-1d1afd4fb843",
            "nama_pse": "LINTAU NET INDONESIA",
            "nama_se": "JASA INTERNET TELEPONI UNTUK KEPERLUAN PUBLIK (ITKP)",
            "sektor": "Sektor Teknologi Informasi dan Komunikasi, Sektor Teknologi Informasi dan Komunikasi",
            "tanggal_terbit": "2022-02-18",
            "url_tdpse_detail": "https://pse.komdigi.go.id/tdpse-detail/3298",
            "website": "-"
        },
        {
            "id": "9cb1ab7b-1098-40af-af25-610aa1cbac1b",
            "nama_pse": "JAYA DATA SEMESTA",
            "nama_se": "JDS DATA PLATFORM",
            "sektor": "Sektor Teknologi Informasi dan Komunikasi, Sektor Teknologi Informasi dan Komunikasi",
            "tanggal_terbit": "2022-02-18",
            "url_tdpse_detail": "https://pse.komdigi.go.id/tdpse-detail/3301",
            "website": "-"
        },
        {
            "id": "9cb1ab8a-d74c-4197-9220-1e2d6ec91152",
            "nama_pse": "KUNCIE PINTAR NUSANTARA",
            "nama_se": "KUNCIE",
            "sektor": "Sektor Teknologi Informasi dan Komunikasi, Sektor Teknologi Informasi dan Komunikasi",
            "tanggal_terbit": "2022-02-18",
            "url_tdpse_detail": "https://pse.komdigi.go.id/tdpse-detail/3302",
            "website": "kuncie.com"
        },
        {
            "id": "9cb1ab82-ed3c-4e68-a769-c5ea881fc707",
            "nama_pse": "TEMAS SHIPPING",
            "nama_se": "KLIKTEMAS",
            "sektor": "Sektor Transportasi, Sektor Transportasi",
            "tanggal_terbit": "2022-02-18",
            "url_tdpse_detail": "https://pse.komdigi.go.id/tdpse-detail/3309",
            "website": "kliktemas.com"
        },
        {
            "id": "9cb1ab8a-d94f-4887-bde4-93cd165eaafb",
            "nama_pse": "M. REZA NUR IHSAN NUGRAHA",
            "nama_se": "ZONA 2D NETWORKS",
            "sektor": "Sektor Perdagangan, Sektor Perdagangan, Sektor Teknologi Informasi dan Komunikasi, Sektor Teknologi Informasi dan Komunikasi",
            "tanggal_terbit": "2022-02-18",
            "url_tdpse_detail": "https://pse.komdigi.go.id/tdpse-detail/3308",
            "website": "-"
        },
        {
            "id": "9cb1ab7b-1684-4689-9d60-bc2eb86967aa",
            "nama_pse": "BALAKOSA JAYA ABADI",
            "nama_se": "AFTAPAY",
            "sektor": "Sektor Perdagangan, Sektor Perdagangan",
            "tanggal_terbit": "2022-02-18",
            "url_tdpse_detail": "https://pse.komdigi.go.id/tdpse-detail/3316",
            "website": "-"
        },
        {
            "id": "9cb1ab83-9fd1-44b5-8331-bca1fb6b2707",
            "nama_pse": "MSIG LIFE INSURANCE INDONESIA",
            "nama_se": "VEGA BY SINARMAS MSIG LIFE",
            "sektor": "Sektor Keuangan, Sektor Keuangan",
            "tanggal_terbit": "2022-02-18",
            "url_tdpse_detail": "https://pse.komdigi.go.id/tdpse-detail/3304",
            "website": "sinarmasmsiglife.co.id"
        },
        {
            "id": "9cb1aba9-6472-4851-9f40-659fd3af126e",
            "nama_pse": "SHIPPINDO TEKNOLOGI LOGISTIK",
            "nama_se": "ATOOR.COM",
            "sektor": "Sektor Perdagangan",
            "tanggal_terbit": "2022-02-18",
            "url_tdpse_detail": "https://pse.komdigi.go.id/tdpse-detail/3303",
            "website": "atoor.com"
        },
        {
            "id": "9cb1ab9f-3d04-4038-9ae9-49e0b86a6024",
            "nama_pse": "GLOBAL INOVASI STRATEGIS",
            "nama_se": "ASIK APLIKASI PELAKU USAHA MIKRO KOTA BANDUNG",
            "sektor": "Sektor Perdagangan, Sektor Perdagangan, Sektor Teknologi Informasi dan Komunikasi, Sektor Teknologi Informasi dan Komunikasi",
            "tanggal_terbit": "2022-02-18",
            "url_tdpse_detail": "https://pse.komdigi.go.id/tdpse-detail/3299",
            "website": "asik.official.id"
        },
        {
            "id": "9cb1ab7f-2ddc-4cf9-acae-a4e51f4dc176",
            "nama_pse": "RANTAI MAS MEBELINDO",
            "nama_se": "RAJAMEBEL.ID",
            "sektor": "Sektor Perdagangan, Sektor Perdagangan",
            "tanggal_terbit": "2022-02-17",
            "url_tdpse_detail": "https://pse.komdigi.go.id/tdpse-detail/3281",
            "website": "rajamebel.id"
        }
    ],
    "processingTimeMs": 10,
    "query": "",
    "totalHits": 19121,
    "hitsPerPage": 50,
    "page": 320,
    "totalPages": 383
}