{
    "hits": [
        {
            "id": "9cb1abd2-1223-4ed9-b49c-062b2e048ba2",
            "nama_pse": "RELIANCE CAPITAL MANAGEMENT",
            "nama_se": "WEBSITE ECOSYSTEM",
            "sektor": "Sektor Keuangan",
            "tanggal_terbit": "2022-08-01",
            "url_tdpse_detail": "https://pse.komdigi.go.id/tdpse-detail/9514",
            "website": "relianceku.com"
        },
        {
            "id": "9cb1abf8-911d-4660-a49a-a848bbcec8f1",
            "nama_pse": "MUHAMMAD AJI PANGESTU",
            "nama_se": "EMINAT",
            "sektor": "Sektor Teknologi Informasi dan Komunikasi",
            "tanggal_terbit": "2022-08-01",
            "url_tdpse_detail": "https://pse.komdigi.go.id/tdpse-detail/9515",
            "website": "eminat.store"
        },
        {
            "id": "9cb1abd2-1777-4e21-a4ed-2dc155fdd55b",
            "nama_pse": "KOMPAK INDOPOLA",
            "nama_se": "YOUTUBE KOMPAK INDOPOLA",
            "sektor": "Sektor Perdagangan",
            "tanggal_terbit": "2022-08-01",
            "url_tdpse_detail": "https://pse.komdigi.go.id/tdpse-detail/9516",
            "website": "kompak.co.id"
        },
        {
            "id": "9cb1abd2-1b5e-42d8-b973-7d3782545525",
            "nama_pse": "AZZAM DIGITAL MEDIA",
            "nama_se": "CORONG NUSANTARA",
            "sektor": "Sektor Teknologi Informasi dan Komunikasi",
            "tanggal_terbit": "2022-08-01",
            "url_tdpse_detail": "https://pse.komdigi.go.id/tdpse-detail/9519",
            "website": "corongnusantara.com"
        },
        {
            "id": "9cb1abf7-5f48-4d8a-bb0c-2ac0973e3fb4",
            "nama_pse": "SARANA USAHA SEJAHTERA INSANPALAPA",
            "nama_se": "MYTELKOMEDIKA",
            "sektor": "Sektor Kesehatan",
            "tanggal_terbit": "2022-08-01",
            "url_tdpse_detail": "https://pse.komdigi.go.id/tdpse-detail/9520",
            "website": "-"
        },
        {
            "id": "9cb1abf7-625e-4a51-9069-1f7aa43c4ae5",
            "nama_pse": "FEDEX EXPRESS INTERNATIONAL",
            "nama_se": "FEDEX",
            "sektor": "Sektor Transportasi, Sektor Teknologi Informasi dan Komunikasi",
            "tanggal_terbit": "2022-08-01",
            "url_tdpse_detail": "https://pse.komdigi.go.id/tdpse-detail/9521",
            "website": "fedex.com"
        },
        {
            "id": "9cb1abd2-1ef9-43a3-ae1a-4808f4569de3",
            "nama_pse": "KOMPAK INDOPOLA",
            "nama_se": "TWITTER KOMPAK INDOPOLA",
            "sektor": "Sektor Perdagangan",
            "tanggal_terbit": "2022-08-01",
            "url_tdpse_detail": "https://pse.komdigi.go.id/tdpse-detail/9522",
            "website": "kompak.co.id"
        },
        {
            "id": "9cb1abf8-93f4-46de-933f-913acce625f0",
            "nama_pse": "SARANA USAHA SEJAHTERA INSANPALAPA",
            "nama_se": "WEBSITE TELKOMEDIKA",
            "sektor": "Sektor Kesehatan",
            "tanggal_terbit": "2022-08-01",
            "url_tdpse_detail": "https://pse.komdigi.go.id/tdpse-detail/9523",
            "website": "telkomedika.co.id"
        },
        {
            "id": "9cb1abd2-2245-4d2a-b33b-9e11f9db981b",
            "nama_pse": "KOMPAK INDOPOLA",
            "nama_se": "LINKEDIN KOMPAK INDOPOLA",
            "sektor": "Sektor Perdagangan",
            "tanggal_terbit": "2022-08-01",
            "url_tdpse_detail": "https://pse.komdigi.go.id/tdpse-detail/9525",
            "website": "kompak.co.id"
        },
        {
            "id": "9cb1abf7-655d-4a0e-beed-3ed05875793b",
            "nama_pse": "PEMUDA INOVASI TEKNOLOGI",
            "nama_se": "CHATBIZ",
            "sektor": "Sektor Teknologi Informasi dan Komunikasi",
            "tanggal_terbit": "2022-08-01",
            "url_tdpse_detail": "https://pse.komdigi.go.id/tdpse-detail/9524",
            "website": "chatbiz.id"
        },
        {
            "id": "9cb1abf8-97d2-4784-bd31-2d0b25dcdef5",
            "nama_pse": "DIGITEK MAKMUR PANGESTU",
            "nama_se": "WORKAY",
            "sektor": "Sektor Keuangan, Sektor Teknologi Informasi dan Komunikasi",
            "tanggal_terbit": "2022-08-01",
            "url_tdpse_detail": "https://pse.komdigi.go.id/tdpse-detail/9526",
            "website": "workay.id"
        },
        {
            "id": "9cb1abd2-2a32-4687-996b-817cbf0eafae",
            "nama_pse": "KARTONO",
            "nama_se": "ELLA FROZE",
            "sektor": "Sektor Teknologi Informasi dan Komunikasi",
            "tanggal_terbit": "2022-08-01",
            "url_tdpse_detail": "https://pse.komdigi.go.id/tdpse-detail/9532",
            "website": "ellafroze.com"
        },
        {
            "id": "9cb1abd2-30ff-483e-b774-d0f85b63f5be",
            "nama_pse": "INDOTECHNO DIGITAL KOMPUTASI",
            "nama_se": "PLASAWEBHOST",
            "sektor": "Sektor Teknologi Informasi dan Komunikasi",
            "tanggal_terbit": "2022-08-01",
            "url_tdpse_detail": "https://pse.komdigi.go.id/tdpse-detail/9528",
            "website": "plasawebhost.com"
        },
        {
            "id": "9cb1abd2-39a2-433b-9a79-3d96625de330",
            "nama_pse": "INFINITI MEDIA NETWORK",
            "nama_se": "RUBRIK WISATA",
            "sektor": "Sektor Teknologi Informasi dan Komunikasi",
            "tanggal_terbit": "2022-08-01",
            "url_tdpse_detail": "https://pse.komdigi.go.id/tdpse-detail/9529",
            "website": "rubrikwisata.com"
        },
        {
            "id": "9cb1abd2-3cc9-4836-8ee0-dfdc5842f406",
            "nama_pse": "BANK PERKREDITAN RAKYAT MAGGA JAYA UTAMA",
            "nama_se": "BANKMAJU",
            "sektor": "Sektor Keuangan",
            "tanggal_terbit": "2022-08-01",
            "url_tdpse_detail": "https://pse.komdigi.go.id/tdpse-detail/9530",
            "website": "bankmaju.com"
        },
        {
            "id": "9cb1abd2-4686-4dfc-8d47-9d5dc26666fe",
            "nama_pse": "INFINITI MEDIA NETWORK",
            "nama_se": "TRAVELSPROMO",
            "sektor": "Sektor Teknologi Informasi dan Komunikasi",
            "tanggal_terbit": "2022-08-01",
            "url_tdpse_detail": "https://pse.komdigi.go.id/tdpse-detail/9531",
            "website": "travelspromo.com"
        },
        {
            "id": "9cb1abf7-6865-4ef4-9efd-5ceae73a3077",
            "nama_pse": "DOMPET ELEKTRONIK INDONESIA",
            "nama_se": "IPAY",
            "sektor": "Sektor Keuangan",
            "tanggal_terbit": "2022-08-01",
            "url_tdpse_detail": "https://pse.komdigi.go.id/tdpse-detail/9583",
            "website": "-"
        },
        {
            "id": "9cb1abd2-4ae9-4106-8c72-46f498c1cc22",
            "nama_pse": "INFINITI MEDIA NETWORK",
            "nama_se": "IDETRIPS",
            "sektor": "Sektor Teknologi Informasi dan Komunikasi",
            "tanggal_terbit": "2022-08-01",
            "url_tdpse_detail": "https://pse.komdigi.go.id/tdpse-detail/9533",
            "website": "idetrips.com"
        },
        {
            "id": "9cb1abf8-9b79-4287-ad5f-5ab8a16ef35e",
            "nama_pse": "FEDEX EXPRESS INTERNATIONAL",
            "nama_se": "TNT",
            "sektor": "Sektor Transportasi, Sektor Teknologi Informasi dan Komunikasi",
            "tanggal_terbit": "2022-08-01",
            "url_tdpse_detail": "https://pse.komdigi.go.id/tdpse-detail/9534",
            "website": "tnt.com"
        },
        {
            "id": "9cb1abf8-9e9f-4ffe-b696-54fce0ff271d",
            "nama_pse": "BANK PEMBIAYAAN RAKYAT SYARIAH HARTA INSAN KARIMAH SURAKARTA",
            "nama_se": "WEB PORTAL",
            "sektor": "Sektor Keuangan",
            "tanggal_terbit": "2022-08-01",
            "url_tdpse_detail": "https://pse.komdigi.go.id/tdpse-detail/9535",
            "website": "bprshiksurakarta.co.id"
        },
        {
            "id": "9cb1abf8-a1eb-4355-ac64-807311e26302",
            "nama_pse": "MYPO SOLUSI INDONESIA",
            "nama_se": "MYPO",
            "sektor": "Sektor Teknologi Informasi dan Komunikasi",
            "tanggal_terbit": "2022-08-01",
            "url_tdpse_detail": "https://pse.komdigi.go.id/tdpse-detail/9540",
            "website": "preorder.mypo.app"
        },
        {
            "id": "9cb1abf8-a5c5-4acf-9432-2c637bc428f0",
            "nama_pse": "DXPORTABLE AMATIR RADIO",
            "nama_se": "DXPORTABLE AMATIR RADIO",
            "sektor": "Sektor Perdagangan, Sektor Teknologi Informasi dan Komunikasi",
            "tanggal_terbit": "2022-08-01",
            "url_tdpse_detail": "https://pse.komdigi.go.id/tdpse-detail/9536",
            "website": "dxportable.com"
        },
        {
            "id": "9cb1abf8-ab5e-4bbe-9c0c-a20a6f23be38",
            "nama_pse": "ACHMAD DADANG NUR HIDAYANTO",
            "nama_se": "SIMULASIKAN",
            "sektor": "Sektor Teknologi Informasi dan Komunikasi",
            "tanggal_terbit": "2022-08-01",
            "url_tdpse_detail": "https://pse.komdigi.go.id/tdpse-detail/9538",
            "website": "simulasikan.com"
        },
        {
            "id": "9cb1abf7-6b1c-461c-bd86-0caf3eb844d6",
            "nama_pse": "BALIBIASA INDAHKOLEKSI",
            "nama_se": "BIASAGROUP",
            "sektor": "Sektor Perdagangan",
            "tanggal_terbit": "2022-08-01",
            "url_tdpse_detail": "https://pse.komdigi.go.id/tdpse-detail/9539",
            "website": "biasagroup.com"
        },
        {
            "id": "9cb1abf8-aef0-4a49-983a-4667ca6bf2a4",
            "nama_pse": "BUANACITRA INTERNUSA",
            "nama_se": "BAGASI",
            "sektor": "Sektor Perdagangan",
            "tanggal_terbit": "2022-08-01",
            "url_tdpse_detail": "https://pse.komdigi.go.id/tdpse-detail/9544",
            "website": "bagasiku.com"
        },
        {
            "id": "9cb1abf7-86e6-4173-aa6d-d08b24b24e55",
            "nama_pse": "PRUDENTA SOLUSINDO",
            "nama_se": "PRUDENTA BUSINESS ADVISORY",
            "sektor": "Sektor Perdagangan",
            "tanggal_terbit": "2022-08-01",
            "url_tdpse_detail": "https://pse.komdigi.go.id/tdpse-detail/9571",
            "website": "putranto-alliance.com"
        },
        {
            "id": "9cb1abd2-8e9d-49d7-afa8-6d439d2e27d8",
            "nama_pse": "ADICIPTA INOVASI TEKNOLOGI",
            "nama_se": "WEBSITE PERUSAHAAN PT ADICIPTA INOVASI TEKNOLOGI",
            "sektor": "Sektor Teknologi Informasi dan Komunikasi",
            "tanggal_terbit": "2022-08-01",
            "url_tdpse_detail": "https://pse.komdigi.go.id/tdpse-detail/9603",
            "website": "ad-ins.com"
        },
        {
            "id": "9cb1abf9-2954-4c8a-86ab-b851a0e5c338",
            "nama_pse": "FEDEX EXPRESS INTERNATIONAL",
            "nama_se": "SENSEAWARE",
            "sektor": "Sektor Transportasi, Sektor Teknologi Informasi dan Komunikasi",
            "tanggal_terbit": "2022-08-01",
            "url_tdpse_detail": "https://pse.komdigi.go.id/tdpse-detail/9616",
            "website": "senseaware.com"
        },
        {
            "id": "9cb1abc0-9b89-4b34-a300-a3e67eeee737",
            "nama_pse": "NITOZA INDONESIA MANDIRI",
            "nama_se": "KAMPUNG MERAH PUTIH",
            "sektor": "Sektor Teknologi Informasi dan Komunikasi",
            "tanggal_terbit": "2022-08-01",
            "url_tdpse_detail": "https://pse.komdigi.go.id/tdpse-detail/9518",
            "website": "kampungmerahputih.com"
        },
        {
            "id": "9cb1abe7-9a12-4b83-87f5-26e8d4f8734d",
            "nama_pse": "INFINITE BUSINESS SYNERGY",
            "nama_se": "INFINITE DIGITAL SECURITY",
            "sektor": "Sektor Teknologi Informasi dan Komunikasi",
            "tanggal_terbit": "2022-08-01",
            "url_tdpse_detail": "https://pse.komdigi.go.id/tdpse-detail/9543",
            "website": "infinids.id"
        },
        {
            "id": "9cb1abf6-ad73-4733-a11e-7801a11aa62f",
            "nama_pse": "TECHNOMEDIA INTERKOM CEMERLANG",
            "nama_se": "EDUFECTA",
            "sektor": "Sektor Perdagangan",
            "tanggal_terbit": "2022-08-01",
            "url_tdpse_detail": "https://pse.komdigi.go.id/tdpse-detail/9588",
            "website": "edufecta.com"
        },
        {
            "id": "9cb1abf7-3815-4b9e-bfad-082572862af2",
            "nama_pse": "KREATORKU INDONESIA",
            "nama_se": "ARXIST",
            "sektor": "Sektor Teknologi Informasi dan Komunikasi",
            "tanggal_terbit": "2022-07-31",
            "url_tdpse_detail": "https://pse.komdigi.go.id/tdpse-detail/9480",
            "website": "arxist.id"
        },
        {
            "id": "9cb1abb7-72f2-4774-bd80-a008c96fe3aa",
            "nama_pse": "BANK PEMBANGUNAN DAERAH SULAWESI UTARA GORONTALO",
            "nama_se": "BSGDIRECT",
            "sektor": "Sektor Keuangan",
            "tanggal_terbit": "2022-07-31",
            "url_tdpse_detail": "https://pse.komdigi.go.id/tdpse-detail/9446",
            "website": "banksulutgo.co.id"
        },
        {
            "id": "9cb1abe8-5c29-4da6-8536-53b64074393c",
            "nama_pse": "BANK PEMBANGUNAN DAERAH SULAWESI UTARA GORONTALO",
            "nama_se": "BSGTOUCH",
            "sektor": "Sektor Keuangan",
            "tanggal_terbit": "2022-07-31",
            "url_tdpse_detail": "https://pse.komdigi.go.id/tdpse-detail/9447",
            "website": "-"
        },
        {
            "id": "9cb1abe8-65a8-49b0-806c-ebea18b2e2c2",
            "nama_pse": "BANK PEMBANGUNAN DAERAH SULAWESI UTARA GORONTALO",
            "nama_se": "E-LEARNING BANK SULUTGO",
            "sektor": "Sektor Teknologi Informasi dan Komunikasi",
            "tanggal_terbit": "2022-07-31",
            "url_tdpse_detail": "https://pse.komdigi.go.id/tdpse-detail/9448",
            "website": "banksulutgo.co.id"
        },
        {
            "id": "9cb1abb7-7ded-46a1-876b-86839a2e4ae8",
            "nama_pse": "BANK PEMBANGUNAN DAERAH SULAWESI UTARA GORONTALO",
            "nama_se": "E-SPTPD BANK SULUTGO",
            "sektor": "Sektor Teknologi Informasi dan Komunikasi",
            "tanggal_terbit": "2022-07-31",
            "url_tdpse_detail": "https://pse.komdigi.go.id/tdpse-detail/9449",
            "website": "banksulutgo.co.id"
        },
        {
            "id": "9cb1abe8-6d61-41d9-96b5-df9900a9f76f",
            "nama_pse": "BANK PEMBANGUNAN DAERAH SULAWESI UTARA GORONTALO",
            "nama_se": "KNOWLEDGE MANAGEMENT SYSTEM",
            "sektor": "Sektor Teknologi Informasi dan Komunikasi",
            "tanggal_terbit": "2022-07-31",
            "url_tdpse_detail": "https://pse.komdigi.go.id/tdpse-detail/9450",
            "website": "banksulutgo.co.id"
        },
        {
            "id": "9cb1abe8-7482-42bf-8732-e3522d6c68bf",
            "nama_pse": "BANK PEMBANGUNAN DAERAH SULAWESI UTARA GORONTALO",
            "nama_se": "BSGKASDA",
            "sektor": "Sektor Teknologi Informasi dan Komunikasi",
            "tanggal_terbit": "2022-07-31",
            "url_tdpse_detail": "https://pse.komdigi.go.id/tdpse-detail/9451",
            "website": "banksulutgo.co.id"
        },
        {
            "id": "9cb1abe8-784b-41f1-8a89-c589d5b1db22",
            "nama_pse": "BANK PEMBANGUNAN DAERAH SULAWESI UTARA GORONTALO",
            "nama_se": "E-ABSEN BSG",
            "sektor": "Sektor Teknologi Informasi dan Komunikasi",
            "tanggal_terbit": "2022-07-31",
            "url_tdpse_detail": "https://pse.komdigi.go.id/tdpse-detail/9452",
            "website": "banksulutgo.co.id"
        },
        {
            "id": "9cb1abf5-f956-45fe-af6d-1648d2e46a40",
            "nama_pse": "BANK PERKREDITAN RAKYAT KRIAN NUSANTARA",
            "nama_se": "KRIAN NUSANTARA DIGITAL",
            "sektor": "Sektor Keuangan",
            "tanggal_terbit": "2022-07-31",
            "url_tdpse_detail": "https://pse.komdigi.go.id/tdpse-detail/9456",
            "website": "kriannusantara.co.id"
        },
        {
            "id": "9cb1abf7-0c76-476b-a984-0e3e9cdba849",
            "nama_pse": "FAUZ SANJITA GEMILANG",
            "nama_se": "QURBAN QITA",
            "sektor": "Sektor Perdagangan",
            "tanggal_terbit": "2022-07-31",
            "url_tdpse_detail": "https://pse.komdigi.go.id/tdpse-detail/9445",
            "website": "qurbanqita.com"
        },
        {
            "id": "9cb1abf7-10e4-41ff-b5cc-ea13631d7800",
            "nama_pse": "IMPRESI MEDIA KITA",
            "nama_se": "SATUIMPRESI.COM",
            "sektor": "Sektor Teknologi Informasi dan Komunikasi",
            "tanggal_terbit": "2022-07-31",
            "url_tdpse_detail": "https://pse.komdigi.go.id/tdpse-detail/9453",
            "website": "satuimpresi.com"
        },
        {
            "id": "9cb1abd1-a00d-4ae2-9d54-13611fab8b2d",
            "nama_pse": "ASURANSI UMUM MEGA",
            "nama_se": "WEB TRAVEL",
            "sektor": "Sektor Perdagangan",
            "tanggal_terbit": "2022-07-31",
            "url_tdpse_detail": "https://pse.komdigi.go.id/tdpse-detail/9454",
            "website": "megatravel.co.id"
        },
        {
            "id": "9cb1abf7-13d7-4900-87b1-d36fc3d24ee5",
            "nama_pse": "TUNKU ABDULLAH S",
            "nama_se": "TWNKU",
            "sektor": "Sektor Teknologi Informasi dan Komunikasi",
            "tanggal_terbit": "2022-07-31",
            "url_tdpse_detail": "https://pse.komdigi.go.id/tdpse-detail/9455",
            "website": "twnku.com"
        },
        {
            "id": "9cb1abf7-17b1-4662-b0d8-7bf0006601fc",
            "nama_pse": "RAHMAT HIDAYAT",
            "nama_se": "WAJADA",
            "sektor": "Sektor Teknologi Informasi dan Komunikasi",
            "tanggal_terbit": "2022-07-31",
            "url_tdpse_detail": "https://pse.komdigi.go.id/tdpse-detail/9457",
            "website": "wajada.id"
        },
        {
            "id": "9cb1abd1-a4f3-4f02-96fc-e392c8cc20bb",
            "nama_pse": "ASURANSI SIMAS INSURTECH",
            "nama_se": "PEGA ICS PEGA.SIMASINSURTECH.COM",
            "sektor": "Sektor Keuangan",
            "tanggal_terbit": "2022-07-31",
            "url_tdpse_detail": "https://pse.komdigi.go.id/tdpse-detail/9458",
            "website": "simasinsurtech.com"
        },
        {
            "id": "9cb1abd1-a919-4a14-91d3-04823992b92a",
            "nama_pse": "FUAD RIZALDY",
            "nama_se": "HADIRKU",
            "sektor": "Sektor Teknologi Informasi dan Komunikasi",
            "tanggal_terbit": "2022-07-31",
            "url_tdpse_detail": "https://pse.komdigi.go.id/tdpse-detail/9459",
            "website": "-"
        },
        {
            "id": "9cb1abf7-1b85-429e-80b0-fea917478298",
            "nama_pse": "ASURANSI SIMAS INSURTECH",
            "nama_se": "CLAIM WEBSITE SIMASINSURTECH.ID",
            "sektor": "Sektor Keuangan",
            "tanggal_terbit": "2022-07-31",
            "url_tdpse_detail": "https://pse.komdigi.go.id/tdpse-detail/9460",
            "website": "simasinsurtech.com"
        },
        {
            "id": "9cb1abf7-1e91-4e24-b057-290f4eb3025b",
            "nama_pse": "SAMALA SERASI UNGGUL",
            "nama_se": "RUMAHSIAPKERJA.COM",
            "sektor": "Sektor Perdagangan",
            "tanggal_terbit": "2022-07-31",
            "url_tdpse_detail": "https://pse.komdigi.go.id/tdpse-detail/9465",
            "website": "rumahsiapkerja.com"
        },
        {
            "id": "9cb1abd1-ade5-4e35-8b5f-497ea0299a78",
            "nama_pse": "FUAD RIZALDY",
            "nama_se": "HADIRKU MOBILE",
            "sektor": "Sektor Teknologi Informasi dan Komunikasi",
            "tanggal_terbit": "2022-07-31",
            "url_tdpse_detail": "https://pse.komdigi.go.id/tdpse-detail/9461",
            "website": "presensi.palukota.go.id"
        }
    ],
    "processingTimeMs": 6,
    "query": "",
    "totalHits": 19131,
    "hitsPerPage": 50,
    "page": 213,
    "totalPages": 383
}