{
    "hits": [
        {
            "id": "9cb1ab9b-c5e5-4fb7-948c-7c42b2eb1b5d",
            "nama_pse": "VROMEDIA INFORMATIKA TEKNOLOGI",
            "nama_se": "COVIT",
            "sektor": "Sektor Teknologi Informasi dan Komunikasi",
            "tanggal_terbit": "2022-07-14",
            "url_tdpse_detail": "https://pse.komdigi.go.id/tdpse-detail/5564",
            "website": "co.vit.co.id"
        },
        {
            "id": "9cb1ab9b-c84f-4ab9-8e90-8a0a63ff6ded",
            "nama_pse": "FRIARSO SETO",
            "nama_se": "HJI AGENT/RENTAL",
            "sektor": "Sektor Perdagangan, Sektor Transportasi",
            "tanggal_terbit": "2022-07-14",
            "url_tdpse_detail": "https://pse.komdigi.go.id/tdpse-detail/5565",
            "website": "-"
        },
        {
            "id": "9cb1ab9b-ca79-43bc-b920-45de4cdb855b",
            "nama_pse": "SIAPA DIA INDONESIA",
            "nama_se": "SIAPA DIA CRAWLER",
            "sektor": "Sektor Teknologi Informasi dan Komunikasi",
            "tanggal_terbit": "2022-07-14",
            "url_tdpse_detail": "https://pse.komdigi.go.id/tdpse-detail/5568",
            "website": "-"
        },
        {
            "id": "9cb1aba6-9d38-424d-81cb-5b3ff56b622e",
            "nama_pse": "ACHILLES ADVANCED SYSTEMS",
            "nama_se": "ONLINEPAJAK",
            "sektor": "Sektor Perdagangan, Sektor Teknologi Informasi dan Komunikasi",
            "tanggal_terbit": "2022-07-14",
            "url_tdpse_detail": "https://pse.komdigi.go.id/tdpse-detail/5569",
            "website": "online-pajak.id"
        },
        {
            "id": "9cb1abb0-85c9-4462-8db0-82220e826bf0",
            "nama_pse": "XTRA MENDAHULUKAN LAYANAN",
            "nama_se": "XML MOBILE",
            "sektor": "Sektor Perdagangan",
            "tanggal_terbit": "2022-07-14",
            "url_tdpse_detail": "https://pse.komdigi.go.id/tdpse-detail/5570",
            "website": "xmltronik.com"
        },
        {
            "id": "9cb1ab9b-cc7b-46ad-b743-f143f29c53f2",
            "nama_pse": "AKADEMI META INTERNASIONAL",
            "nama_se": "METASIGN SOFTWARE",
            "sektor": "Sektor Perdagangan",
            "tanggal_terbit": "2022-07-14",
            "url_tdpse_detail": "https://pse.komdigi.go.id/tdpse-detail/5571",
            "website": "signalpremium.co"
        },
        {
            "id": "9cb1abb0-87e0-481a-bf37-2f8688305dc7",
            "nama_pse": "BANK PERKREDITAN RAKYAT PALU LOKADANA UTAMA",
            "nama_se": "WEBSITE RESMI PT. BPR PALU LOKAKADANA UTAMA",
            "sektor": "Sektor Keuangan",
            "tanggal_terbit": "2022-07-14",
            "url_tdpse_detail": "https://pse.komdigi.go.id/tdpse-detail/5584",
            "website": "bprpalu.com"
        },
        {
            "id": "9cb1aba6-9f9a-4d7f-80cc-7c27ba937d8b",
            "nama_pse": "PT. BANK PEMBANGUNAN DAERAH JAWA BARAT DAN BANTEN TBK (BANK BJB)",
            "nama_se": "LMS BANK BJB",
            "sektor": "Sektor Keuangan",
            "tanggal_terbit": "2022-07-14",
            "url_tdpse_detail": "https://pse.komdigi.go.id/tdpse-detail/5572",
            "website": "-"
        },
        {
            "id": "9cb1aba6-a1af-4c4f-92ff-f4b61851aa2b",
            "nama_pse": "BANK PERKREDITAN RAKYAT VII KOTO",
            "nama_se": "PT BPR VII KOTO",
            "sektor": "Sektor Keuangan",
            "tanggal_terbit": "2022-07-14",
            "url_tdpse_detail": "https://pse.komdigi.go.id/tdpse-detail/5574",
            "website": "ptbprviikoto.page.tl"
        },
        {
            "id": "9cb1aba6-a36d-4ddb-aabd-d7a5eecbf82c",
            "nama_pse": "BNI ASSET MANAGEMENT",
            "nama_se": "WEBSITE PERUSAHAAN PT BNI ASSET MANAGEMENT",
            "sektor": "Sektor Keuangan",
            "tanggal_terbit": "2022-07-14",
            "url_tdpse_detail": "https://pse.komdigi.go.id/tdpse-detail/5575",
            "website": "bni-am.co.id"
        },
        {
            "id": "9cb1abb0-89c9-461d-86e7-df4dc2111402",
            "nama_pse": "BANK PEMBANGUNAN DAERAH SULAWESI SELATAN DAN SULAWESI BARAT",
            "nama_se": "INTERNET BANKING \u0026 MOBILE BANKING BANK SULSELBAR",
            "sektor": "Sektor Teknologi Informasi dan Komunikasi",
            "tanggal_terbit": "2022-07-14",
            "url_tdpse_detail": "https://pse.komdigi.go.id/tdpse-detail/5576",
            "website": "ib.banksulselbar.co.id"
        },
        {
            "id": "9cb1aba6-a55d-4113-9e34-36d833643a5e",
            "nama_pse": "NATURA PRIMA BEAUTY",
            "nama_se": "NATURAWORLD",
            "sektor": "Sektor Perdagangan",
            "tanggal_terbit": "2022-07-14",
            "url_tdpse_detail": "https://pse.komdigi.go.id/tdpse-detail/5628",
            "website": "naturaworld.co.id"
        },
        {
            "id": "9cb1aba6-a70b-408a-85a4-43eea0ac6795",
            "nama_pse": "DUTA ABADIPRIMANTARA",
            "nama_se": "FLORENCE WEBSITE",
            "sektor": "Sektor Teknologi Informasi dan Komunikasi",
            "tanggal_terbit": "2022-07-14",
            "url_tdpse_detail": "https://pse.komdigi.go.id/tdpse-detail/5577",
            "website": "florence.id"
        },
        {
            "id": "9cb1abb0-8b9b-46b6-93c3-9340e37cc681",
            "nama_pse": "CHOLID QIWAMUDIN",
            "nama_se": "KUMPULAN SERVER",
            "sektor": "Sektor Perdagangan",
            "tanggal_terbit": "2022-07-14",
            "url_tdpse_detail": "https://pse.komdigi.go.id/tdpse-detail/5578",
            "website": "kumpulanserver.com"
        },
        {
            "id": "9cb1aba6-a8f9-4ca6-ae92-f7c4f80c4bd6",
            "nama_pse": "BANK PEMBANGUNAN DAERAH SULAWESI SELATAN DAN SULAWESI BARAT",
            "nama_se": "WEBSITE BANK SULSELBAR",
            "sektor": "Sektor Teknologi Informasi dan Komunikasi",
            "tanggal_terbit": "2022-07-14",
            "url_tdpse_detail": "https://pse.komdigi.go.id/tdpse-detail/5579",
            "website": "banksulselbar.co.id"
        },
        {
            "id": "9cb1abb0-8d95-4504-b16f-3932e8e9bab1",
            "nama_pse": "PRIMA DIGITAMA MEDIA",
            "nama_se": "ETAB TECHNOLOGIES",
            "sektor": "Sektor Teknologi Informasi dan Komunikasi",
            "tanggal_terbit": "2022-07-14",
            "url_tdpse_detail": "https://pse.komdigi.go.id/tdpse-detail/5644",
            "website": "etabtech.com"
        },
        {
            "id": "9cb1abb0-8f56-4dec-9481-fd990cbc62b7",
            "nama_pse": "DUTA ABADIPRIMANTARA",
            "nama_se": "DAP OFFICIAL WEBSITE",
            "sektor": "Sektor Teknologi Informasi dan Komunikasi",
            "tanggal_terbit": "2022-07-14",
            "url_tdpse_detail": "https://pse.komdigi.go.id/tdpse-detail/5581",
            "website": "dap.id"
        },
        {
            "id": "9cb1ab9b-cf2a-43c9-8974-6d396e6ed40e",
            "nama_pse": "BANK PEMBANGUNAN DAERAH SULAWESI SELATAN DAN SULAWESI BARAT",
            "nama_se": "CMS BANKSULSELBAR",
            "sektor": "Sektor Teknologi Informasi dan Komunikasi",
            "tanggal_terbit": "2022-07-14",
            "url_tdpse_detail": "https://pse.komdigi.go.id/tdpse-detail/5580",
            "website": "cms.banksulselbar.co.id"
        },
        {
            "id": "9cb1ab9b-d1b7-4dd3-80f0-838abbe0e321",
            "nama_pse": "BANK PERKREDITAN RAKYAT PALU LOKADANA UTAMA",
            "nama_se": "DIGIMOD E-LOAN",
            "sektor": "Sektor Keuangan",
            "tanggal_terbit": "2022-07-14",
            "url_tdpse_detail": "https://pse.komdigi.go.id/tdpse-detail/5583",
            "website": "digimod.bprpalu.com"
        },
        {
            "id": "9cb1ab9b-d422-4a1c-b5a1-f959ed6de4b7",
            "nama_pse": "GLOBAL WING SEUNG",
            "nama_se": "WWW.GLOWING.CO.ID",
            "sektor": "Sektor Perdagangan",
            "tanggal_terbit": "2022-07-14",
            "url_tdpse_detail": "https://pse.komdigi.go.id/tdpse-detail/5585",
            "website": "glowing.co.id"
        },
        {
            "id": "9cb1abb0-9107-409b-b347-25522b2f85e8",
            "nama_pse": "MILLENIA DHARMA INSANI",
            "nama_se": "WWW.ONEONCO.CO.ID ATAU ONE ONCO",
            "sektor": "Sektor Kesehatan",
            "tanggal_terbit": "2022-07-14",
            "url_tdpse_detail": "https://pse.komdigi.go.id/tdpse-detail/5593",
            "website": "-"
        },
        {
            "id": "9cb1abb0-92b4-45c9-bdba-cbe913e0ea39",
            "nama_pse": "SAKA GLOBAL PERKASA",
            "nama_se": "SAKAGO",
            "sektor": "Sektor Transportasi",
            "tanggal_terbit": "2022-07-14",
            "url_tdpse_detail": "https://pse.komdigi.go.id/tdpse-detail/5592",
            "website": "sakago.id"
        },
        {
            "id": "9cb1aba6-ab34-42a7-8415-5fe60898a570",
            "nama_pse": "PRAWEDA CIPTAKARSA INFORMATIKA",
            "nama_se": "JITU RTGS",
            "sektor": "Sektor Keuangan",
            "tanggal_terbit": "2022-07-14",
            "url_tdpse_detail": "https://pse.komdigi.go.id/tdpse-detail/5595",
            "website": "-"
        },
        {
            "id": "9cb1aba6-ad29-41ba-b6c4-4c266b72c3d7",
            "nama_pse": "WILDAN FATUROHMAN",
            "nama_se": "PULSA HOKI",
            "sektor": "Sektor Perdagangan",
            "tanggal_terbit": "2022-07-14",
            "url_tdpse_detail": "https://pse.komdigi.go.id/tdpse-detail/5597",
            "website": "pulsahoki.com"
        },
        {
            "id": "9cb1abb0-948e-4fbd-a669-d9d630982d3e",
            "nama_pse": "DUTA ABADIPRIMANTARA",
            "nama_se": "SIMPLYBED WEBSITE",
            "sektor": "Sektor Perdagangan, Sektor Teknologi Informasi dan Komunikasi",
            "tanggal_terbit": "2022-07-14",
            "url_tdpse_detail": "https://pse.komdigi.go.id/tdpse-detail/5598",
            "website": "simplybed.com"
        },
        {
            "id": "9cb1aba6-aed7-45de-ab96-1ee53a8a30c7",
            "nama_pse": "SAKA GLOBAL PERKASA",
            "nama_se": "APLIKASI SAKAGO",
            "sektor": "Sektor Transportasi, Sektor Teknologi Informasi dan Komunikasi",
            "tanggal_terbit": "2022-07-14",
            "url_tdpse_detail": "https://pse.komdigi.go.id/tdpse-detail/5596",
            "website": "app.sakago.id"
        },
        {
            "id": "9cb1abb0-97a1-477f-b099-578ec97b9971",
            "nama_pse": "SUZUKI FINANCE INDONESIA",
            "nama_se": "WEBSITE",
            "sektor": "Sektor Keuangan",
            "tanggal_terbit": "2022-07-14",
            "url_tdpse_detail": "https://pse.komdigi.go.id/tdpse-detail/5600",
            "website": "sfi.co.id"
        },
        {
            "id": "9cb1ab9b-e100-43e0-b850-8b15d341bd29",
            "nama_pse": "NUSA SURYA CIPTADANA",
            "nama_se": "WEBSITE NSC FINANCE",
            "sektor": "Sektor Keuangan",
            "tanggal_terbit": "2022-07-14",
            "url_tdpse_detail": "https://pse.komdigi.go.id/tdpse-detail/5599",
            "website": "nscfinance.com"
        },
        {
            "id": "9cb1aba6-b0ab-4858-94eb-17385257b5a6",
            "nama_pse": "PRAWEDA CIPTAKARSA INFORMATIKA",
            "nama_se": "JITU SSSS",
            "sektor": "Sektor Keuangan",
            "tanggal_terbit": "2022-07-14",
            "url_tdpse_detail": "https://pse.komdigi.go.id/tdpse-detail/5601",
            "website": "-"
        },
        {
            "id": "9cb1abb0-9a4d-43a6-b6cf-c74d66a8dee1",
            "nama_pse": "PRAWEDA CIPTAKARSA INFORMATIKA",
            "nama_se": "JITU SKN",
            "sektor": "Sektor Keuangan",
            "tanggal_terbit": "2022-07-14",
            "url_tdpse_detail": "https://pse.komdigi.go.id/tdpse-detail/5603",
            "website": "-"
        },
        {
            "id": "9cb1aba6-b44f-440c-9de7-46f338637e0b",
            "nama_pse": "BANK CENTRAL ASIA",
            "nama_se": "RUMAHSAYA BCA",
            "sektor": "Sektor Keuangan",
            "tanggal_terbit": "2022-07-14",
            "url_tdpse_detail": "https://pse.komdigi.go.id/tdpse-detail/5604",
            "website": "rumahsaya.bca.co.id"
        },
        {
            "id": "9cb1ab9b-e4a0-4a6f-85d7-0114ecb68755",
            "nama_pse": "PRAWEDA CIPTAKARSA INFORMATIKA",
            "nama_se": "SOLAR PLATFORM (SEQUENTIAL OBJECT LIBRARY AND APPLICATION REPOSITORY)",
            "sektor": "Sektor Keuangan",
            "tanggal_terbit": "2022-07-14",
            "url_tdpse_detail": "https://pse.komdigi.go.id/tdpse-detail/5605",
            "website": "-"
        },
        {
            "id": "9cb1ab9b-e831-43d1-b05d-3ca514841880",
            "nama_pse": "BANK CENTRAL ASIA",
            "nama_se": "RUMAHSAYA.BCA.CO.ID",
            "sektor": "Sektor Keuangan",
            "tanggal_terbit": "2022-07-14",
            "url_tdpse_detail": "https://pse.komdigi.go.id/tdpse-detail/5606",
            "website": "rumahsaya.bca.co.id"
        },
        {
            "id": "9cb1aba6-b65a-4b4a-a483-83d61f424c3e",
            "nama_pse": "BANK CENTRAL ASIA",
            "nama_se": "SITUS CORPORATE BCA",
            "sektor": "Sektor Keuangan",
            "tanggal_terbit": "2022-07-14",
            "url_tdpse_detail": "https://pse.komdigi.go.id/tdpse-detail/5607",
            "website": "bca.co.id"
        },
        {
            "id": "9cb1ab9b-eb29-49c0-874e-5e4d157aea20",
            "nama_pse": "PRIMA SYIRKAH INTERNATIONAL",
            "nama_se": "TITIPKIRIM.COM",
            "sektor": "Sektor Perdagangan",
            "tanggal_terbit": "2022-07-14",
            "url_tdpse_detail": "https://pse.komdigi.go.id/tdpse-detail/5608",
            "website": "titipkirim.com"
        },
        {
            "id": "9cb1aba6-b81d-43dd-84ee-3ae3b13e0a50",
            "nama_pse": "BANDING KEUANGAN DIGITAL",
            "nama_se": "BANDINGINAJA",
            "sektor": "Sektor Keuangan",
            "tanggal_terbit": "2022-07-14",
            "url_tdpse_detail": "https://pse.komdigi.go.id/tdpse-detail/5609",
            "website": "bandinginaja.id"
        },
        {
            "id": "9cb1ab9b-ef66-4202-85b9-ccb557ccdd1b",
            "nama_pse": "BANK CENTRAL ASIA",
            "nama_se": "WEBFORM SITUS BCA",
            "sektor": "Sektor Keuangan",
            "tanggal_terbit": "2022-07-14",
            "url_tdpse_detail": "https://pse.komdigi.go.id/tdpse-detail/5610",
            "website": "webform.bca.co.id"
        },
        {
            "id": "9cb1aba6-ba33-4972-8074-82b71a5345f2",
            "nama_pse": "SARANA JABAR VENTURA",
            "nama_se": "SARANA JABAR VENTURA",
            "sektor": "Sektor Keuangan",
            "tanggal_terbit": "2022-07-14",
            "url_tdpse_detail": "https://pse.komdigi.go.id/tdpse-detail/5611",
            "website": "saranajabarventura.co.id"
        },
        {
            "id": "9cb1aba6-bc14-4515-88c9-2502cb8a66a8",
            "nama_pse": "TEKNOLOGI MEDIA MEDIKA",
            "nama_se": "ASSIST.ID",
            "sektor": "Sektor Kesehatan, Sektor Teknologi Informasi dan Komunikasi",
            "tanggal_terbit": "2022-07-14",
            "url_tdpse_detail": "https://pse.komdigi.go.id/tdpse-detail/5612",
            "website": "essensial.assist.id"
        },
        {
            "id": "9cb1ab9b-f266-4953-af32-65f677899afe",
            "nama_pse": "BANK CENTRAL ASIA",
            "nama_se": "SITUS EXPO",
            "sektor": "Sektor Keuangan",
            "tanggal_terbit": "2022-07-14",
            "url_tdpse_detail": "https://pse.komdigi.go.id/tdpse-detail/5613",
            "website": "expo.bca.co.id"
        },
        {
            "id": "9cb1abb0-9c72-400a-9c4d-65e1727fab1d",
            "nama_pse": "SIAKU HARAPAN BERSAMA",
            "nama_se": "SIAKU",
            "sektor": "Sektor Perdagangan, Sektor Teknologi Informasi dan Komunikasi",
            "tanggal_terbit": "2022-07-14",
            "url_tdpse_detail": "https://pse.komdigi.go.id/tdpse-detail/5614",
            "website": "-"
        },
        {
            "id": "9cb1abb0-9e78-4fe9-9efd-9fa30e1d4bef",
            "nama_pse": "GRYA SMART MANDIRI",
            "nama_se": "WWW.SMARTTEAM.ID",
            "sektor": "Sektor Perdagangan",
            "tanggal_terbit": "2022-07-14",
            "url_tdpse_detail": "https://pse.komdigi.go.id/tdpse-detail/5615",
            "website": "smartteam.id"
        },
        {
            "id": "9cb1ab9b-f843-49f8-9d25-7da077d93a29",
            "nama_pse": "DUTA ABADIPRIMANTARA",
            "nama_se": "SIMPLYBLOX WEBSITE",
            "sektor": "Sektor Perdagangan, Sektor Teknologi Informasi dan Komunikasi",
            "tanggal_terbit": "2022-07-14",
            "url_tdpse_detail": "https://pse.komdigi.go.id/tdpse-detail/5623",
            "website": "simplyblox.com"
        },
        {
            "id": "9cb1ab9b-fb14-4c82-bd59-2fa781cadb69",
            "nama_pse": "BANK PERKREDITAN RAKYAT LUMBUNG PITIH NAGARI TALAWI SAKATO",
            "nama_se": "PT.BPR LPN TALAWI SAKATO",
            "sektor": "Sektor Perdagangan",
            "tanggal_terbit": "2022-07-14",
            "url_tdpse_detail": "https://pse.komdigi.go.id/tdpse-detail/5622",
            "website": "-"
        },
        {
            "id": "9cb1aba6-bde6-41d0-a648-c97a0e96ad78",
            "nama_pse": "MEGA CENTRAL FINANCE",
            "nama_se": "WEB PORTAL MCF",
            "sektor": "Sektor Keuangan",
            "tanggal_terbit": "2022-07-14",
            "url_tdpse_detail": "https://pse.komdigi.go.id/tdpse-detail/5619",
            "website": "mcf.co.id"
        },
        {
            "id": "9cb1aba6-bfdb-479e-8cc0-844e66aa0c9c",
            "nama_pse": "BANK PERKREDITAN RAKYAT ANTAR RUMEKSA ARTA",
            "nama_se": "INTEGRATED MICROBANKING SYSTEM",
            "sektor": "Sektor Keuangan",
            "tanggal_terbit": "2022-07-14",
            "url_tdpse_detail": "https://pse.komdigi.go.id/tdpse-detail/5624",
            "website": "-"
        },
        {
            "id": "9cb1ab9b-fe0a-449a-b0f8-0f7c0d3a9846",
            "nama_pse": "BANK CENTRAL ASIA",
            "nama_se": "SITUS BCA SOLITAIRE \u0026 PRIORITAS 1",
            "sektor": "Sektor Keuangan",
            "tanggal_terbit": "2022-07-14",
            "url_tdpse_detail": "https://pse.komdigi.go.id/tdpse-detail/5625",
            "website": "prioritas.bca.co.id"
        },
        {
            "id": "9cb1ab9c-0197-4fea-9845-4aa072e1f6ed",
            "nama_pse": "BANK CENTRAL ASIA",
            "nama_se": "SITUS BCA SOLITAIRE \u0026 PRIORITAS 2",
            "sektor": "Sektor Keuangan",
            "tanggal_terbit": "2022-07-14",
            "url_tdpse_detail": "https://pse.komdigi.go.id/tdpse-detail/5626",
            "website": "prioritas.bca.co.id"
        },
        {
            "id": "9cb1aba6-c20b-4b95-9dc3-69657f50a0fe",
            "nama_pse": "MEGA CAPITAL SEKURITAS",
            "nama_se": "INVESTASIKU",
            "sektor": "Sektor Keuangan",
            "tanggal_terbit": "2022-07-14",
            "url_tdpse_detail": "https://pse.komdigi.go.id/tdpse-detail/5627",
            "website": "investasiku.id"
        },
        {
            "id": "9cb1aba6-c3e0-4c1b-b782-ed4a0dcda238",
            "nama_pse": "BANK PEMBIAYAAN RAKYAT SYARIAH MASYARAKAT LINTAU BUO MALIBU",
            "nama_se": "MALIBU",
            "sektor": "Sektor Keuangan",
            "tanggal_terbit": "2022-07-14",
            "url_tdpse_detail": "https://pse.komdigi.go.id/tdpse-detail/5629",
            "website": "-"
        }
    ],
    "processingTimeMs": 4,
    "query": "",
    "totalHits": 19131,
    "hitsPerPage": 50,
    "page": 283,
    "totalPages": 383
}