{
    "hits": [
        {
            "id": "9cb1abf9-e32b-435f-af6c-c7b947d6b449",
            "nama_pse": "HYPEFAST KARYA NUSANTARA",
            "nama_se": "LUXCRIME OFFICIAL",
            "sektor": "Sektor Perdagangan",
            "tanggal_terbit": "2022-08-26",
            "url_tdpse_detail": "https://pse.komdigi.go.id/tdpse-detail/9745",
            "website": "luxcrime.com"
        },
        {
            "id": "9cb1abfe-b64f-4a24-8665-0564f0b14cb8",
            "nama_pse": "HYPEFAST KARYA NUSANTARA",
            "nama_se": "CESSA NATURAL",
            "sektor": "Sektor Perdagangan",
            "tanggal_terbit": "2022-08-26",
            "url_tdpse_detail": "https://pse.komdigi.go.id/tdpse-detail/10695",
            "website": "cessanatural.com"
        },
        {
            "id": "9cb1abfd-485d-4361-ba2a-38db73fba051",
            "nama_pse": "HYPEFAST KARYA NUSANTARA",
            "nama_se": "BOHOPANNA INDONESIA",
            "sektor": "Sektor Perdagangan",
            "tanggal_terbit": "2022-08-26",
            "url_tdpse_detail": "https://pse.komdigi.go.id/tdpse-detail/10397",
            "website": "bohopanna.id"
        },
        {
            "id": "9cb1abd8-f590-4b06-a5f7-fc5b35c4231e",
            "nama_pse": "HYPEFAST KARYA NUSANTARA",
            "nama_se": "NOORE GLOBAL",
            "sektor": "Sektor Perdagangan",
            "tanggal_terbit": "2022-08-23",
            "url_tdpse_detail": "https://pse.komdigi.go.id/tdpse-detail/10691",
            "website": "nooresportglobal.com"
        },
        {
            "id": "9cb1abfc-d47f-44e3-af60-be912baca43b",
            "nama_pse": "ASURANSI JIWA SEQUIS LIFE",
            "nama_se": "PORTAL MIKRO SEQUIS SEJAHTERA",
            "sektor": "Sektor Keuangan",
            "tanggal_terbit": "2022-08-15",
            "url_tdpse_detail": "https://pse.komdigi.go.id/tdpse-detail/10347",
            "website": "mikrosejahtera.sequis.co.id"
        },
        {
            "id": "9cb1abd5-71c1-478f-a815-0bafab95d851",
            "nama_pse": "SEEKMI GLOBAL SERVICES",
            "nama_se": "SEEKMI",
            "sektor": "Sektor Teknologi Informasi dan Komunikasi",
            "tanggal_terbit": "2022-08-08",
            "url_tdpse_detail": "https://pse.komdigi.go.id/tdpse-detail/10062",
            "website": "seekmi.com"
        },
        {
            "id": "9cb1abd2-cf5d-4b42-9b6c-8f9ec87eda5f",
            "nama_pse": "LABA KITA BERSAMA",
            "nama_se": "LABAMU",
            "sektor": "Sektor Keuangan",
            "tanggal_terbit": "2022-08-02",
            "url_tdpse_detail": "https://pse.komdigi.go.id/tdpse-detail/9649",
            "website": "labamu.co.id"
        },
        {
            "id": "9cb1abd1-dcb8-4b99-9c91-8c629bccd84b",
            "nama_pse": "HYPEFAST KARYA NUSANTARA",
            "nama_se": "HYPEFAST.ID",
            "sektor": "Sektor Perdagangan",
            "tanggal_terbit": "2022-08-01",
            "url_tdpse_detail": "https://pse.komdigi.go.id/tdpse-detail/9485",
            "website": "hypefast.id"
        },
        {
            "id": "9cb1abd1-fce6-44f9-9a7e-153b4b4183e0",
            "nama_pse": "HYPEFAST KARYA NUSANTARA",
            "nama_se": "CALLA THE LABEL",
            "sektor": "Sektor Perdagangan",
            "tanggal_terbit": "2022-08-01",
            "url_tdpse_detail": "https://pse.komdigi.go.id/tdpse-detail/9509",
            "website": "callathelabel.com"
        },
        {
            "id": "9cb1abd2-2662-425d-955c-2de53dc6ea84",
            "nama_pse": "HYPEFAST KARYA NUSANTARA",
            "nama_se": "RIUGHNECK 1991",
            "sektor": "Sektor Perdagangan",
            "tanggal_terbit": "2022-08-01",
            "url_tdpse_detail": "https://pse.komdigi.go.id/tdpse-detail/9527",
            "website": "roughneck1991.co.id"
        },
        {
            "id": "9cb1abd2-4f0c-49f4-b127-433a114160a9",
            "nama_pse": "HYPEFAST KARYA NUSANTARA",
            "nama_se": "ROUGHNECK 1991",
            "sektor": "Sektor Perdagangan",
            "tanggal_terbit": "2022-08-01",
            "url_tdpse_detail": "https://pse.komdigi.go.id/tdpse-detail/9537",
            "website": "roughneck1991.co.id"
        },
        {
            "id": "9cb1abf6-a6e3-4c3b-be4f-8831902bdd47",
            "nama_pse": "HARMONI DINAMIKA SOLUSI",
            "nama_se": "FUSE",
            "sektor": "Sektor Teknologi Informasi dan Komunikasi",
            "tanggal_terbit": "2022-07-29",
            "url_tdpse_detail": "https://pse.komdigi.go.id/tdpse-detail/9373",
            "website": "-"
        },
        {
            "id": "9cb1abd0-e352-4455-acd9-0c31e1eae95a",
            "nama_pse": "BASIS INOVASI GLOBAL",
            "nama_se": "BASE OFFICIAL",
            "sektor": "Sektor Perdagangan",
            "tanggal_terbit": "2022-07-29",
            "url_tdpse_detail": "https://pse.komdigi.go.id/tdpse-detail/9362",
            "website": "base.co.id"
        },
        {
            "id": "9cb1abce-6c1a-45ca-b755-4f9daec532dd",
            "nama_pse": "APLIKASI KARYA ANAK MILENIAL",
            "nama_se": "CREVA DIGITAL SYSTEM",
            "sektor": "Sektor Teknologi Informasi dan Komunikasi",
            "tanggal_terbit": "2022-07-26",
            "url_tdpse_detail": "https://pse.komdigi.go.id/tdpse-detail/9082",
            "website": "-"
        },
        {
            "id": "9cb1abc2-e5f6-445b-a5d8-136c500305de",
            "nama_pse": "BAHASO INTERMEDIA CAKRAWALA",
            "nama_se": "BAHASO.COM",
            "sektor": "Sektor Teknologi Informasi dan Komunikasi",
            "tanggal_terbit": "2022-07-21",
            "url_tdpse_detail": "https://pse.komdigi.go.id/tdpse-detail/8376",
            "website": "Bahaso.com"
        },
        {
            "id": "9cb1abcb-5a78-4ca8-8d21-d2ea2da62f7c",
            "nama_pse": "PEMBAYARAN LINTAS USAHA SUKSES",
            "nama_se": "SIJITU",
            "sektor": "Sektor Teknologi Informasi dan Komunikasi",
            "tanggal_terbit": "2022-07-21",
            "url_tdpse_detail": "https://pse.komdigi.go.id/tdpse-detail/8614",
            "website": "sijitu.co.id"
        },
        {
            "id": "9cb1abb7-2d0e-470c-9958-454db27fa894",
            "nama_pse": "TENCENT TECHNOLOGY INDONESIA",
            "nama_se": "JOOX MUSIC",
            "sektor": "Sektor Teknologi Informasi dan Komunikasi",
            "tanggal_terbit": "2022-07-20",
            "url_tdpse_detail": "https://pse.komdigi.go.id/tdpse-detail/7437",
            "website": "joox.com"
        },
        {
            "id": "9cb1abeb-203a-4ea4-a829-ae0cfae96c56",
            "nama_pse": "INDIVARA SEJAHTERA SUKSES MAKMUR",
            "nama_se": "WOI (WALLET OF INDIVARA)",
            "sektor": "Sektor Keuangan, Sektor Teknologi Informasi dan Komunikasi",
            "tanggal_terbit": "2022-07-20",
            "url_tdpse_detail": "https://pse.komdigi.go.id/tdpse-detail/7674",
            "website": "-"
        },
        {
            "id": "9cb1abc5-2a8e-4fcd-9c3d-ef562baf6be9",
            "nama_pse": "AIA FINANCIAL",
            "nama_se": "AIA EMPLOYEE BENEFITS",
            "sektor": "Sektor Keuangan",
            "tanggal_terbit": "2022-07-20",
            "url_tdpse_detail": "https://pse.komdigi.go.id/tdpse-detail/7695",
            "website": "employeebenefits.aia-financial.co.id"
        },
        {
            "id": "9cb1abec-1c37-4885-ac6d-5c7cf6d50e09",
            "nama_pse": "AIA FINANCIAL",
            "nama_se": "AIA INDONESIA MY AIA",
            "sektor": "Sektor Keuangan",
            "tanggal_terbit": "2022-07-20",
            "url_tdpse_detail": "https://pse.komdigi.go.id/tdpse-detail/7826",
            "website": "aia-financial.co.id"
        },
        {
            "id": "9cb1abba-a782-4f4c-90b9-dad2b1d6a4e1",
            "nama_pse": "FASHION ESERVICES INDONESIA",
            "nama_se": "ZALORA.CO.ID",
            "sektor": "Sektor Perdagangan",
            "tanggal_terbit": "2022-07-20",
            "url_tdpse_detail": "https://pse.komdigi.go.id/tdpse-detail/8185",
            "website": "zalora.co.id"
        },
        {
            "id": "9cb1abc8-5fc3-4e98-a7e3-03223c7c7c16",
            "nama_pse": "FASHION MARKETPLACE INDONESIA",
            "nama_se": "ZALORA (WEBSITE)",
            "sektor": "Sektor Perdagangan",
            "tanggal_terbit": "2022-07-20",
            "url_tdpse_detail": "https://pse.komdigi.go.id/tdpse-detail/8189",
            "website": "zalora.co.id"
        },
        {
            "id": "9cb1abe4-6473-46d4-91ea-48988648eba6",
            "nama_pse": "HYPEFAST KARYA NUSANTARA",
            "nama_se": "NONA",
            "sektor": "Sektor Perdagangan",
            "tanggal_terbit": "2022-07-19",
            "url_tdpse_detail": "https://pse.komdigi.go.id/tdpse-detail/6633",
            "website": "nona.id"
        },
        {
            "id": "9cb1abb6-ac96-48bc-942b-58254f619fe9",
            "nama_pse": "BIMASAKTI MULTI SINERGI",
            "nama_se": "BANTENPAY",
            "sektor": "Sektor Perdagangan, Sektor Keuangan",
            "tanggal_terbit": "2022-07-19",
            "url_tdpse_detail": "https://pse.komdigi.go.id/tdpse-detail/7029",
            "website": "-"
        },
        {
            "id": "9cb1abb5-d83f-40b4-b3ff-d6cc8f25032d",
            "nama_pse": "BIMASAKTI MULTI SINERGI",
            "nama_se": "COOP PAY",
            "sektor": "Sektor Perdagangan, Sektor Keuangan",
            "tanggal_terbit": "2022-07-19",
            "url_tdpse_detail": "https://pse.komdigi.go.id/tdpse-detail/6809",
            "website": "-"
        },
        {
            "id": "9cb1abe5-787e-4229-a027-72f701a1737a",
            "nama_pse": "BIMASAKTI MULTI SINERGI",
            "nama_se": "DELTAPAY",
            "sektor": "Sektor Perdagangan, Sektor Keuangan",
            "tanggal_terbit": "2022-07-19",
            "url_tdpse_detail": "https://pse.komdigi.go.id/tdpse-detail/6821",
            "website": "-"
        },
        {
            "id": "9cb1abe8-69f2-4714-bc12-2cb6fbb6ba79",
            "nama_pse": "T. SAIFUDDIN",
            "nama_se": "SURATPLUS",
            "sektor": "Sektor Teknologi Informasi dan Komunikasi",
            "tanggal_terbit": "2022-07-19",
            "url_tdpse_detail": "https://pse.komdigi.go.id/tdpse-detail/7248",
            "website": "suratplus.com"
        },
        {
            "id": "9cb1abb7-16ce-48fb-be77-bc111af40614",
            "nama_pse": "TELEKOMUNIKASI SELULAR",
            "nama_se": "CONDOR HEROES",
            "sektor": "Sektor Teknologi Informasi dan Komunikasi",
            "tanggal_terbit": "2022-07-19",
            "url_tdpse_detail": "https://pse.komdigi.go.id/tdpse-detail/7159",
            "website": "condorheroes.duniagames.co.id"
        },
        {
            "id": "9cb1abc2-2139-48d9-a541-fbd992cf71a0",
            "nama_pse": "TELEKOMUNIKASI SELULAR",
            "nama_se": "SHELLFIRE",
            "sektor": "Sektor Teknologi Informasi dan Komunikasi",
            "tanggal_terbit": "2022-07-19",
            "url_tdpse_detail": "https://pse.komdigi.go.id/tdpse-detail/7135",
            "website": "-"
        },
        {
            "id": "9cb1abb4-8b77-41c2-8539-8a33b2b69e93",
            "nama_pse": "MEDIGO TEKNOLOGI KESEHATAN",
            "nama_se": "KLINIKPINTAR",
            "sektor": "Sektor Kesehatan",
            "tanggal_terbit": "2022-07-18",
            "url_tdpse_detail": "https://pse.komdigi.go.id/tdpse-detail/6414",
            "website": "klinikpintar.id"
        },
        {
            "id": "9cb1abb5-0b2e-4c66-a9c0-41edb8c251f8",
            "nama_pse": "NUON DIGITAL INDONESIA",
            "nama_se": "PORTAL WEB/PLATOFRM DIGITAL",
            "sektor": "Sektor Teknologi Informasi dan Komunikasi",
            "tanggal_terbit": "2022-07-18",
            "url_tdpse_detail": "https://pse.komdigi.go.id/tdpse-detail/6529",
            "website": "mainbro.co.id"
        },
        {
            "id": "9cb1ab9c-9ccd-43c0-9e8f-abca58b2156e",
            "nama_pse": "ASURANSI RAMA SATRIA WIBAWA",
            "nama_se": "WEBSITE RAMAINS",
            "sektor": "Sektor Keuangan",
            "tanggal_terbit": "2022-07-15",
            "url_tdpse_detail": "https://pse.komdigi.go.id/tdpse-detail/5819",
            "website": "ramains.com"
        },
        {
            "id": "9cb1ab9b-8765-4ff4-9dac-b9e3a728edc6",
            "nama_pse": "DANADIPA SEJAHTERA FINANSIAL",
            "nama_se": "WEBSITE REKSA DANA ONLINE DANADIPA",
            "sektor": "Sektor Keuangan",
            "tanggal_terbit": "2022-07-13",
            "url_tdpse_detail": "https://pse.komdigi.go.id/tdpse-detail/5477",
            "website": "danadipa-finansial.co.id"
        },
        {
            "id": "9cb1ab9a-3d76-4d09-9472-11025e3dc6ca",
            "nama_pse": "AMINDOWAY JAYA",
            "nama_se": "AMWAY.ID",
            "sektor": "Sektor Perdagangan",
            "tanggal_terbit": "2022-07-12",
            "url_tdpse_detail": "https://pse.komdigi.go.id/tdpse-detail/5356",
            "website": "amway.id"
        },
        {
            "id": "9cb1aba5-bb6c-4bb8-b1be-d8fa5be33916",
            "nama_pse": "ARCHOR TEKNOLOGI DIGITAL",
            "nama_se": "QOALAPLUS.COM",
            "sektor": "Sektor Keuangan",
            "tanggal_terbit": "2022-07-11",
            "url_tdpse_detail": "https://pse.komdigi.go.id/tdpse-detail/5271",
            "website": "qoalaplus.com"
        },
        {
            "id": "9cb1ab99-703d-450d-a040-dbc4ddc3ee5d",
            "nama_pse": "ILHAM ARNOMO",
            "nama_se": "IKLANKAN.COM",
            "sektor": "Sektor Perdagangan, Sektor Teknologi Informasi dan Komunikasi",
            "tanggal_terbit": "2022-06-30",
            "url_tdpse_detail": "https://pse.komdigi.go.id/tdpse-detail/4967",
            "website": "iklankan.com"
        },
        {
            "id": "9cb1abae-1572-49cc-bb61-dce84feccc56",
            "nama_pse": "ATMA MERAKI NUSANTARA",
            "nama_se": "ATMA",
            "sektor": "Sektor Perdagangan, Sektor Teknologi Informasi dan Komunikasi",
            "tanggal_terbit": "2022-06-27",
            "url_tdpse_detail": "https://pse.komdigi.go.id/tdpse-detail/4789",
            "website": "atma.co.id"
        },
        {
            "id": "9cb1ab98-9a29-446f-bf8e-9b761afc8095",
            "nama_pse": "FASHION ESERVICES INDONESIA",
            "nama_se": "ZALORA",
            "sektor": "Sektor Perdagangan",
            "tanggal_terbit": "2022-06-23",
            "url_tdpse_detail": "https://pse.komdigi.go.id/tdpse-detail/4708",
            "website": "zalora.co.id"
        },
        {
            "id": "9cb1ab98-9573-4e33-b052-40690bd21598",
            "nama_pse": "FASHION MARKETPLACE INDONESIA",
            "nama_se": "ZALORA",
            "sektor": "Sektor Perdagangan",
            "tanggal_terbit": "2022-06-23",
            "url_tdpse_detail": "https://pse.komdigi.go.id/tdpse-detail/4705",
            "website": "zalora.co.id"
        },
        {
            "id": "9cb1aba3-d848-48e8-a58e-2312e7d9c288",
            "nama_pse": "ANNARINDO MULIA ABADI",
            "nama_se": "KONSULDONG",
            "sektor": "Sektor Kesehatan",
            "tanggal_terbit": "2022-06-22",
            "url_tdpse_detail": "https://pse.komdigi.go.id/tdpse-detail/4653",
            "website": "konsuldong.com"
        },
        {
            "id": "9cb1aba2-a0e5-4d09-a32c-ea29871472dd",
            "nama_pse": "LILI STYLE INDONESIA",
            "nama_se": "LILI STYLE",
            "sektor": "Sektor Perdagangan",
            "tanggal_terbit": "2022-06-13",
            "url_tdpse_detail": "https://pse.komdigi.go.id/tdpse-detail/4339",
            "website": "lili.style"
        },
        {
            "id": "9cb1ab96-7322-48b2-a5c3-de417872bb5f",
            "nama_pse": "ERA FARMA INDONESIA",
            "nama_se": "WELLINGS INDONESIA",
            "sektor": "Sektor Perdagangan",
            "tanggal_terbit": "2022-06-08",
            "url_tdpse_detail": "https://pse.komdigi.go.id/tdpse-detail/4291",
            "website": "wellings.id"
        },
        {
            "id": "9cb1ab96-7752-421d-a396-e7b301e25b74",
            "nama_pse": "RINGKAS ASIA TECHNOLOGY",
            "nama_se": "RINGKAS",
            "sektor": "Sektor Perdagangan, Sektor Teknologi Informasi dan Komunikasi",
            "tanggal_terbit": "2022-06-08",
            "url_tdpse_detail": "https://pse.komdigi.go.id/tdpse-detail/4295",
            "website": "ringkas.co.id"
        },
        {
            "id": "9cb1aba2-6543-4ebd-979b-f979d1a585b6",
            "nama_pse": "RINGKAS ASIA TECHNOLOGY",
            "nama_se": "RINGKAS.",
            "sektor": "Sektor Perdagangan, Sektor Teknologi Informasi dan Komunikasi",
            "tanggal_terbit": "2022-06-08",
            "url_tdpse_detail": "https://pse.komdigi.go.id/tdpse-detail/4297",
            "website": "ringkas.co.id"
        },
        {
            "id": "9cb1abac-8f06-4281-8676-dcd9eb6ee404",
            "nama_pse": "MNC GUNA USAHA INDONESIA",
            "nama_se": "MOTION CREDIT",
            "sektor": "Sektor Keuangan",
            "tanggal_terbit": "2022-06-07",
            "url_tdpse_detail": "https://pse.komdigi.go.id/tdpse-detail/4252",
            "website": "MotionCredit.id"
        },
        {
            "id": "9cb1ab96-3fe4-4e5b-9ed2-ce0198d9666c",
            "nama_pse": "INTERNUSA TERUS JAYA",
            "nama_se": "WEBSITE (KLEANER INDONESIA)",
            "sektor": "Sektor Perdagangan",
            "tanggal_terbit": "2022-06-06",
            "url_tdpse_detail": "https://pse.komdigi.go.id/tdpse-detail/4237",
            "website": "kleaner.co.id"
        },
        {
            "id": "9cb1ab97-c008-4fc4-b3d2-e85dbb6ac7f2",
            "nama_pse": "EFORIA FURNITUR INDONESIA",
            "nama_se": "MORE FURNITURE",
            "sektor": "Sektor Perdagangan",
            "tanggal_terbit": "2022-05-20",
            "url_tdpse_detail": "https://pse.komdigi.go.id/tdpse-detail/4512",
            "website": "morefurniture.id"
        },
        {
            "id": "9cb1ab96-c1ee-4b53-9f91-140ad66ba750",
            "nama_pse": "IBIBO GROUP INDONESIA",
            "nama_se": "WWW.REDBUS.ID",
            "sektor": "Sektor Perdagangan",
            "tanggal_terbit": "2022-05-17",
            "url_tdpse_detail": "https://pse.komdigi.go.id/tdpse-detail/4362",
            "website": "redbus.id"
        },
        {
            "id": "9cb1abad-401d-4726-8147-ab5e6a5bc83d",
            "nama_pse": "KAWAN LAMA SEJAHTERA",
            "nama_se": "KAWAN LAMA",
            "sektor": "Sektor Perdagangan",
            "tanggal_terbit": "2022-05-12",
            "url_tdpse_detail": "https://pse.komdigi.go.id/tdpse-detail/4457",
            "website": "kawanlama.com"
        },
        {
            "id": "9cb1aba3-9f17-422a-a7f3-fab3d4574210",
            "nama_pse": "TELEKOMUNIKASI SELULAR",
            "nama_se": "FEED",
            "sektor": "Sektor Teknologi Informasi dan Komunikasi",
            "tanggal_terbit": "2022-04-21",
            "url_tdpse_detail": "https://pse.komdigi.go.id/tdpse-detail/4593",
            "website": "feed.co.id"
        }
    ],
    "processingTimeMs": 1,
    "query": "",
    "totalHits": 248,
    "hitsPerPage": 50,
    "page": 3,
    "totalPages": 5
}