{
    "hits": [
        {
            "id": "9cb1ac6c-f190-4ea0-9aed-4190f4cec4d6",
            "nama_pse": "MONITOR DELAPAN ENAM",
            "nama_se": "MONITOR86.COM",
            "sektor": "Sektor Teknologi Informasi dan Komunikasi",
            "tanggal_terbit": "2024-03-20",
            "url_tdpse_detail": "https://pse.komdigi.go.id/tdpse-detail/18336",
            "website": "monitor86.com"
        },
        {
            "id": "9cb1ac57-a581-46e0-b855-53cc0454e3e0",
            "nama_pse": "EMBRIO SINERGI",
            "nama_se": "E-KLINIK MANJUR",
            "sektor": "Sektor Kesehatan",
            "tanggal_terbit": "2024-03-16",
            "url_tdpse_detail": "https://pse.komdigi.go.id/tdpse-detail/18282",
            "website": "-"
        },
        {
            "id": "9cb1ac6c-b241-4b42-ba6c-5c6f016ec32a",
            "nama_pse": "SATONDA MEDIA GROUP",
            "nama_se": "SATONDAPOST.COM",
            "sektor": "Sektor Teknologi Informasi dan Komunikasi",
            "tanggal_terbit": "2024-03-16",
            "url_tdpse_detail": "https://pse.komdigi.go.id/tdpse-detail/18283",
            "website": "satondapost.com"
        },
        {
            "id": "9cb1ac81-67a0-4de3-8f46-197d2c3bda84",
            "nama_pse": "RAGAM RAJAWALI NUSANTARA",
            "nama_se": "RAGAMRAJAWALINUSANTARA.COM",
            "sektor": "Sektor Teknologi Informasi dan Komunikasi",
            "tanggal_terbit": "2024-03-16",
            "url_tdpse_detail": "https://pse.komdigi.go.id/tdpse-detail/18281",
            "website": "ragamrajawalinusantara.com"
        },
        {
            "id": "9cb1ac6c-af39-4934-8b12-9b7412799842",
            "nama_pse": "GLOBAL MULTI DATA",
            "nama_se": "GLOBAL MULTI DATA RT RW NET",
            "sektor": "Sektor Teknologi Informasi dan Komunikasi",
            "tanggal_terbit": "2024-03-15",
            "url_tdpse_detail": "https://pse.komdigi.go.id/tdpse-detail/18271",
            "website": "-"
        },
        {
            "id": "9cb1ac80-f04a-4e15-b979-f0b885827ea8",
            "nama_pse": "PELITA ACEH NEWS",
            "nama_se": "PELITAACEH.CO.ID",
            "sektor": "Sektor Teknologi Informasi dan Komunikasi",
            "tanggal_terbit": "2024-03-12",
            "url_tdpse_detail": "https://pse.komdigi.go.id/tdpse-detail/18235",
            "website": "pelitaaceh.co.id"
        },
        {
            "id": "9cb1ac80-ce40-49fe-88f7-970440226198",
            "nama_pse": "BAGUS JUDISTIRAH",
            "nama_se": "WP INSTALL",
            "sektor": "Sektor Perdagangan, Sektor Teknologi Informasi dan Komunikasi",
            "tanggal_terbit": "2024-03-09",
            "url_tdpse_detail": "https://pse.komdigi.go.id/tdpse-detail/18221",
            "website": "wpinstall.id"
        },
        {
            "id": "9cb1ac57-57d1-49ac-88b1-f9a63b9d60f1",
            "nama_pse": "MEDIA HARIAN MALUKU",
            "nama_se": "HARIANMALUKU.COM",
            "sektor": "Sektor Teknologi Informasi dan Komunikasi",
            "tanggal_terbit": "2024-03-09",
            "url_tdpse_detail": "https://pse.komdigi.go.id/tdpse-detail/18213",
            "website": "harianmaluku.com"
        },
        {
            "id": "9cb1ac6c-6eb9-4d45-8d82-8c2a082461f6",
            "nama_pse": "MITRA SAGARA MEDIKA",
            "nama_se": "SIMKLINIK SAGARA",
            "sektor": "Sektor Kesehatan",
            "tanggal_terbit": "2024-03-09",
            "url_tdpse_detail": "https://pse.komdigi.go.id/tdpse-detail/18222",
            "website": "-"
        },
        {
            "id": "9cb1ac57-5302-4c76-8efc-5f251d969ec6",
            "nama_pse": "SUYONO YOYONG",
            "nama_se": "FBC SYSTEM",
            "sektor": "Sektor Teknologi Informasi dan Komunikasi",
            "tanggal_terbit": "2024-03-08",
            "url_tdpse_detail": "https://pse.komdigi.go.id/tdpse-detail/18207",
            "website": "-"
        },
        {
            "id": "9cb1ac80-a9fc-4a38-bd7c-9207367aa09d",
            "nama_pse": "KELUARGA BAHAGIA",
            "nama_se": "GRHA SIM-RS",
            "sektor": "Sektor Kesehatan",
            "tanggal_terbit": "2024-03-08",
            "url_tdpse_detail": "https://pse.komdigi.go.id/tdpse-detail/18209",
            "website": "-"
        },
        {
            "id": "9cb1ac80-807f-4181-9ac3-53757f147187",
            "nama_pse": "MARCOARISTO",
            "nama_se": "GUNUNGKU",
            "sektor": "Sektor Teknologi Informasi dan Komunikasi",
            "tanggal_terbit": "2024-03-06",
            "url_tdpse_detail": "https://pse.komdigi.go.id/tdpse-detail/18182",
            "website": "-"
        },
        {
            "id": "9cb1ac6b-d106-43ae-90ed-87fb8fbba1b9",
            "nama_pse": "SIMPANG TIGA CEGER",
            "nama_se": "ABI",
            "sektor": "Sektor Perdagangan, Sektor Teknologi Informasi dan Komunikasi",
            "tanggal_terbit": "2024-03-01",
            "url_tdpse_detail": "https://pse.komdigi.go.id/tdpse-detail/18110",
            "website": "-"
        },
        {
            "id": "9cb1ac56-724d-45f1-bde7-c1e7dab6a4a6",
            "nama_pse": "INDOPAY DIGITAL SERVICES",
            "nama_se": "PENYEDIAAN JASA PEMBAYARAN KEPADA PENGGUNA AKHIR",
            "sektor": "Sektor Teknologi Informasi dan Komunikasi",
            "tanggal_terbit": "2024-02-26",
            "url_tdpse_detail": "https://pse.komdigi.go.id/tdpse-detail/17989",
            "website": "-"
        },
        {
            "id": "9cb1ac6b-53e2-4f5f-bd79-ef3db0337b6b",
            "nama_pse": "INDOPAY DIGITAL SERVICES",
            "nama_se": "JASA PERJALANAN WISATA LAINNYA",
            "sektor": "Sektor Perdagangan, Sektor Transportasi, Sektor Teknologi Informasi dan Komunikasi",
            "tanggal_terbit": "2024-02-26",
            "url_tdpse_detail": "https://pse.komdigi.go.id/tdpse-detail/17992",
            "website": "-"
        },
        {
            "id": "9cb1ac7f-56a8-4412-a05b-01edd176d3a8",
            "nama_pse": "INDOPAY DIGITAL SERVICES",
            "nama_se": "PEMBIAYAAN YANG DISELENGGARAKAN SECARA KONVENSIONAL",
            "sektor": "Sektor Teknologi Informasi dan Komunikasi",
            "tanggal_terbit": "2024-02-26",
            "url_tdpse_detail": "https://pse.komdigi.go.id/tdpse-detail/17988",
            "website": "-"
        },
        {
            "id": "9cb1ac56-7c08-4186-bbcf-6d69ec89cabb",
            "nama_pse": "INDOPAY DIGITAL SERVICES",
            "nama_se": "USAHA JASA PELAYANAN PENGIRIMAN BARANG YANG DILAKUKAN SECARA KOMERSIAL",
            "sektor": "Sektor Transportasi",
            "tanggal_terbit": "2024-02-26",
            "url_tdpse_detail": "https://pse.komdigi.go.id/tdpse-detail/17990",
            "website": "-"
        },
        {
            "id": "9cb1ac56-7efa-46f6-8e47-6ddbca8335f8",
            "nama_pse": "INDOPAY DIGITAL SERVICES",
            "nama_se": "PEMESANAN DAN PENJUALAN TIKET ANGKUTAN",
            "sektor": "Sektor Perdagangan, Sektor Teknologi Informasi dan Komunikasi",
            "tanggal_terbit": "2024-02-26",
            "url_tdpse_detail": "https://pse.komdigi.go.id/tdpse-detail/17991",
            "website": "-"
        },
        {
            "id": "9cb1ac56-8850-4685-8839-8084c889d778",
            "nama_pse": "MICROFAZZ DIGITAL TEKNOLOGI",
            "nama_se": "AKTIVITAS KURIR",
            "sektor": "Sektor Transportasi, Sektor Teknologi Informasi dan Komunikasi",
            "tanggal_terbit": "2024-02-26",
            "url_tdpse_detail": "https://pse.komdigi.go.id/tdpse-detail/18000",
            "website": "-"
        },
        {
            "id": "9cb1ac6b-56ed-472b-8ec9-af0ed49d567f",
            "nama_pse": "MICROFAZZ DIGITAL TEKNOLOGI",
            "nama_se": "USAHA YANG MENERIMA KOMISI",
            "sektor": "Sektor Perdagangan, Sektor Teknologi Informasi dan Komunikasi",
            "tanggal_terbit": "2024-02-26",
            "url_tdpse_detail": "https://pse.komdigi.go.id/tdpse-detail/17993",
            "website": "-"
        },
        {
            "id": "9cb1ac56-828e-40ff-8127-149f5e469028",
            "nama_pse": "MICROFAZZ DIGITAL TEKNOLOGI",
            "nama_se": "PERDAGANGAN BESAR BERBAGAI MACAM BARANG",
            "sektor": "Sektor Perdagangan",
            "tanggal_terbit": "2024-02-26",
            "url_tdpse_detail": "https://pse.komdigi.go.id/tdpse-detail/17995",
            "website": "-"
        },
        {
            "id": "9cb1ac7f-5d80-4afd-b090-070c12541394",
            "nama_pse": "MICROFAZZ DIGITAL TEKNOLOGI",
            "nama_se": "ANGKUTAN SEWA KHUSUS",
            "sektor": "Sektor Transportasi, Sektor Teknologi Informasi dan Komunikasi",
            "tanggal_terbit": "2024-02-26",
            "url_tdpse_detail": "https://pse.komdigi.go.id/tdpse-detail/17998",
            "website": "-"
        },
        {
            "id": "9cb1ac6b-6963-45e6-a968-c0239fc46dbf",
            "nama_pse": "MICROFAZZ DIGITAL TEKNOLOGI",
            "nama_se": "AKTIVITAS AGEN PERJALANAN LAINNYA",
            "sektor": "Sektor Perdagangan, Sektor Teknologi Informasi dan Komunikasi",
            "tanggal_terbit": "2024-02-26",
            "url_tdpse_detail": "https://pse.komdigi.go.id/tdpse-detail/18008",
            "website": "-"
        },
        {
            "id": "9cb1ac6b-5ff3-4564-b95b-7639c4554833",
            "nama_pse": "MICROFAZZ DIGITAL TEKNOLOGI",
            "nama_se": "PERANTARA MONETER LAINNYA",
            "sektor": "Sektor Perdagangan, Sektor Teknologi Informasi dan Komunikasi",
            "tanggal_terbit": "2024-02-26",
            "url_tdpse_detail": "https://pse.komdigi.go.id/tdpse-detail/18003",
            "website": "-"
        },
        {
            "id": "9cb1ac56-96e6-4c21-8922-f4239810c3ff",
            "nama_pse": "MICROFAZZ DIGITAL TEKNOLOGI",
            "nama_se": "PERUSAHAAN PEMBIAYAAN KONVENSIONAL",
            "sektor": "Sektor Perdagangan, Sektor Teknologi Informasi dan Komunikasi",
            "tanggal_terbit": "2024-02-26",
            "url_tdpse_detail": "https://pse.komdigi.go.id/tdpse-detail/18005",
            "website": "-"
        },
        {
            "id": "9cb1ac6b-663b-4466-9d13-7b430f7419cd",
            "nama_pse": "MICROFAZZ DIGITAL TEKNOLOGI",
            "nama_se": "PENYEDIA JASA PEMBAYARAN (PJP)",
            "sektor": "Sektor Teknologi Informasi dan Komunikasi",
            "tanggal_terbit": "2024-02-26",
            "url_tdpse_detail": "https://pse.komdigi.go.id/tdpse-detail/18007",
            "website": "-"
        },
        {
            "id": "9cb1ac7f-59d1-4ff3-929c-656e8a3702e1",
            "nama_pse": "MICROFAZZ DIGITAL TEKNOLOGI",
            "nama_se": "PERDAGANGAN BESAR PERALATAN TELEKOMUNIKASI",
            "sektor": "Sektor Perdagangan",
            "tanggal_terbit": "2024-02-26",
            "url_tdpse_detail": "https://pse.komdigi.go.id/tdpse-detail/17994",
            "website": "-"
        },
        {
            "id": "9cb1ac56-9a01-4906-a364-9953d9a1e5f1",
            "nama_pse": "MICROFAZZ DIGITAL TEKNOLOGI",
            "nama_se": "JASA RESERVASI LAINNYA",
            "sektor": "Sektor Perdagangan, Sektor Teknologi Informasi dan Komunikasi",
            "tanggal_terbit": "2024-02-26",
            "url_tdpse_detail": "https://pse.komdigi.go.id/tdpse-detail/18009",
            "website": "-"
        },
        {
            "id": "9cb1ac6b-5d15-470b-91a6-b5d9c4ff064a",
            "nama_pse": "MICROFAZZ DIGITAL TEKNOLOGI",
            "nama_se": "PLATFORM DIGITAL TANPA TUJUAN KOMERSIAL",
            "sektor": "Sektor Teknologi Informasi dan Komunikasi",
            "tanggal_terbit": "2024-02-26",
            "url_tdpse_detail": "https://pse.komdigi.go.id/tdpse-detail/18002",
            "website": "-"
        },
        {
            "id": "9cb1ac56-8bb4-4445-9917-d170dd938613",
            "nama_pse": "MICROFAZZ DIGITAL TEKNOLOGI",
            "nama_se": "AKTIVITAS PEMROGRAMAN KOMPUTER LAINNYA",
            "sektor": "Sektor Teknologi Informasi dan Komunikasi",
            "tanggal_terbit": "2024-02-26",
            "url_tdpse_detail": "https://pse.komdigi.go.id/tdpse-detail/18001",
            "website": "-"
        },
        {
            "id": "9cb1ac7f-68c4-4f6a-9d35-1345f31c1ee3",
            "nama_pse": "PIXINDO DIGITAL COMMUNICATION",
            "nama_se": "PERDAGANGAN BESAR PERALATAN TELEKOMUNIKASI",
            "sektor": "Sektor Perdagangan",
            "tanggal_terbit": "2024-02-26",
            "url_tdpse_detail": "https://pse.komdigi.go.id/tdpse-detail/18013",
            "website": "-"
        },
        {
            "id": "9cb1ac7f-6dc0-4f1b-ac59-c4800888c6e8",
            "nama_pse": "PIXINDO DIGITAL COMMUNICATION",
            "nama_se": "AKTIVITAS KURIR",
            "sektor": "Sektor Transportasi",
            "tanggal_terbit": "2024-02-26",
            "url_tdpse_detail": "https://pse.komdigi.go.id/tdpse-detail/18017",
            "website": "-"
        },
        {
            "id": "9cb1ac6b-6fa2-4978-b41b-24632579ccaa",
            "nama_pse": "PIXINDO DIGITAL COMMUNICATION",
            "nama_se": "PEMROGRAMAN KOMPUTER",
            "sektor": "Sektor Teknologi Informasi dan Komunikasi",
            "tanggal_terbit": "2024-02-26",
            "url_tdpse_detail": "https://pse.komdigi.go.id/tdpse-detail/18019",
            "website": "-"
        },
        {
            "id": "9cb1ac6b-72cb-429b-8bae-efed101453c2",
            "nama_pse": "PIXINDO DIGITAL COMMUNICATION",
            "nama_se": "PORTAL WEB TANPA TUJUAN KOMERSIAL",
            "sektor": "Sektor Teknologi Informasi dan Komunikasi",
            "tanggal_terbit": "2024-02-26",
            "url_tdpse_detail": "https://pse.komdigi.go.id/tdpse-detail/18020",
            "website": "-"
        },
        {
            "id": "9cb1ac56-a8dd-485c-a43e-b52f9b9fa26f",
            "nama_pse": "PIXINDO DIGITAL COMMUNICATION",
            "nama_se": "PERANTARA MONETER LAINNYA",
            "sektor": "Sektor Teknologi Informasi dan Komunikasi",
            "tanggal_terbit": "2024-02-26",
            "url_tdpse_detail": "https://pse.komdigi.go.id/tdpse-detail/18022",
            "website": "-"
        },
        {
            "id": "9cb1ac7f-7bab-40fe-9add-8f168822d93f",
            "nama_pse": "PIXINDO DIGITAL COMMUNICATION",
            "nama_se": "PERUSAHAAN PEMBIAYAAN KONVENSIONAL",
            "sektor": "Sektor Teknologi Informasi dan Komunikasi",
            "tanggal_terbit": "2024-02-26",
            "url_tdpse_detail": "https://pse.komdigi.go.id/tdpse-detail/18023",
            "website": "-"
        },
        {
            "id": "9cb1ac56-aed5-465f-95d7-5887cd1392e2",
            "nama_pse": "PIXINDO DIGITAL COMMUNICATION",
            "nama_se": "AKTIVITAS AGEN PERJALANAN LAINNYA",
            "sektor": "Sektor Perdagangan",
            "tanggal_terbit": "2024-02-26",
            "url_tdpse_detail": "https://pse.komdigi.go.id/tdpse-detail/18025",
            "website": "-"
        },
        {
            "id": "9cb1ac6b-786d-4ccb-a0e0-acde0404f45b",
            "nama_pse": "PIXINDO DIGITAL COMMUNICATION",
            "nama_se": "JASA RESERVASI LAINNYA YBDI YTDL",
            "sektor": "Sektor Transportasi, Sektor Teknologi Informasi dan Komunikasi",
            "tanggal_terbit": "2024-02-26",
            "url_tdpse_detail": "https://pse.komdigi.go.id/tdpse-detail/18026",
            "website": "-"
        },
        {
            "id": "9cb1ac56-9cb1-45c1-b688-b0ad3f9d9fae",
            "nama_pse": "PIXINDO DIGITAL COMMUNICATION",
            "nama_se": "AKTIVITAS PENUNJANG TENAGA LISTRIK",
            "sektor": "Sektor Perdagangan, Sektor Teknologi Informasi dan Komunikasi",
            "tanggal_terbit": "2024-02-26",
            "url_tdpse_detail": "https://pse.komdigi.go.id/tdpse-detail/18011",
            "website": "-"
        },
        {
            "id": "9cb1ac56-9f6d-4d80-8130-f926f522f4de",
            "nama_pse": "PIXINDO DIGITAL COMMUNICATION",
            "nama_se": "PERDAGANGAN BESAR BERBAGAI MACAM BARANG",
            "sektor": "Sektor Perdagangan",
            "tanggal_terbit": "2024-02-26",
            "url_tdpse_detail": "https://pse.komdigi.go.id/tdpse-detail/18015",
            "website": "-"
        },
        {
            "id": "9cb1ac56-a276-450a-9baf-a0f91c6e82e4",
            "nama_pse": "PIXINDO DIGITAL COMMUNICATION",
            "nama_se": "ANGKUTAN SEWA KHUSUS",
            "sektor": "Sektor Transportasi",
            "tanggal_terbit": "2024-02-26",
            "url_tdpse_detail": "https://pse.komdigi.go.id/tdpse-detail/18016",
            "website": "-"
        },
        {
            "id": "9cb1ac56-a583-4bff-8ad2-c239324e109a",
            "nama_pse": "PIXINDO DIGITAL COMMUNICATION",
            "nama_se": "AKTIVITAS TELEKOMUNIKASI LAINNYA",
            "sektor": "Sektor Teknologi Informasi dan Komunikasi",
            "tanggal_terbit": "2024-02-26",
            "url_tdpse_detail": "https://pse.komdigi.go.id/tdpse-detail/18018",
            "website": "-"
        },
        {
            "id": "9cb1ac56-abda-46af-8485-8890d60b6755",
            "nama_pse": "PIXINDO DIGITAL COMMUNICATION",
            "nama_se": "PENYEDIA JASA PEMBAYARAN (PJP)",
            "sektor": "Sektor Teknologi Informasi dan Komunikasi",
            "tanggal_terbit": "2024-02-26",
            "url_tdpse_detail": "https://pse.komdigi.go.id/tdpse-detail/18024",
            "website": "-"
        },
        {
            "id": "9cb1ac6b-389d-4d9f-9375-3b695e0377c0",
            "nama_pse": "INDOPAY DIGITAL SERVICES",
            "nama_se": "PENUNJANG TENAGA LISTRIK",
            "sektor": "Sektor Teknologi Informasi dan Komunikasi",
            "tanggal_terbit": "2024-02-24",
            "url_tdpse_detail": "https://pse.komdigi.go.id/tdpse-detail/17964",
            "website": "-"
        },
        {
            "id": "9cb1ac6b-3b71-4d44-9f42-4a6576a3134c",
            "nama_pse": "INDOPAY DIGITAL SERVICES",
            "nama_se": "PERDAGANGAN BESAR PERALATAN TELEKOMUNIKASI",
            "sektor": "Sektor Perdagangan",
            "tanggal_terbit": "2024-02-24",
            "url_tdpse_detail": "https://pse.komdigi.go.id/tdpse-detail/17965",
            "website": "-"
        },
        {
            "id": "9cb1ac6b-43c0-42b0-aef6-b41c30c503a3",
            "nama_pse": "INDOPAY DIGITAL SERVICES",
            "nama_se": "PERANTARA MONETER LAINNYA",
            "sektor": "Sektor Teknologi Informasi dan Komunikasi",
            "tanggal_terbit": "2024-02-24",
            "url_tdpse_detail": "https://pse.komdigi.go.id/tdpse-detail/17971",
            "website": "-"
        },
        {
            "id": "9cb1ac7f-3e06-4650-97fc-c7d9116028bd",
            "nama_pse": "INDOPAY DIGITAL SERVICES",
            "nama_se": "PERDAGANGAN BESAR BERBAGAI MACAM BARANG",
            "sektor": "Sektor Perdagangan",
            "tanggal_terbit": "2024-02-24",
            "url_tdpse_detail": "https://pse.komdigi.go.id/tdpse-detail/17967",
            "website": "-"
        },
        {
            "id": "9cb1ac6b-473c-4a3c-bf59-e1847bbd984e",
            "nama_pse": "INDOPAY DIGITAL SERVICES",
            "nama_se": "PEMROGRAMAN KOMPUTER",
            "sektor": "Sektor Teknologi Informasi dan Komunikasi",
            "tanggal_terbit": "2024-02-24",
            "url_tdpse_detail": "https://pse.komdigi.go.id/tdpse-detail/17973",
            "website": "-"
        },
        {
            "id": "9cb1ac56-3e49-46ad-ac73-433b65b5e99a",
            "nama_pse": "INDOPAY DIGITAL SERVICES",
            "nama_se": "ANGKUTAN SEWA KHUSUS",
            "sektor": "Sektor Transportasi",
            "tanggal_terbit": "2024-02-24",
            "url_tdpse_detail": "https://pse.komdigi.go.id/tdpse-detail/17968",
            "website": "-"
        },
        {
            "id": "9cb1ac56-416a-4ff8-84d0-aa51f2939e41",
            "nama_pse": "INDOPAY DIGITAL SERVICES",
            "nama_se": "AKTIVITAS TELEKOMUNIKASI LAINNYA",
            "sektor": "Sektor Teknologi Informasi dan Komunikasi",
            "tanggal_terbit": "2024-02-24",
            "url_tdpse_detail": "https://pse.komdigi.go.id/tdpse-detail/17969",
            "website": "-"
        }
    ],
    "processingTimeMs": 1,
    "query": "",
    "totalHits": 414,
    "hitsPerPage": 50,
    "page": 2,
    "totalPages": 9
}