{
    "hits": [
        {
            "id": "9dd47509-b96c-4acf-9bfd-ddf35a86ba64",
            "nama_pse": "NUR WAHYU WICAKSONO",
            "nama_se": "KOTANOPAN TECHNO ELT",
            "sektor": "Sektor Teknologi Informasi dan Komunikasi",
            "tanggal_terbit": "2024-12-28",
            "url_tdpse_detail": "https://pse.komdigi.go.id/tdpse-detail/21938",
            "website": "kotanopan.co.id"
        },
        {
            "id": "9dd42f39-e0de-489a-a44c-85a1c041a5eb",
            "nama_pse": "AMAR NETWORK MEDIA",
            "nama_se": "PT AMAR NETWORK MEDIA",
            "sektor": "Sektor Teknologi Informasi dan Komunikasi",
            "tanggal_terbit": "2024-12-28",
            "url_tdpse_detail": "https://pse.komdigi.go.id/tdpse-detail/21936",
            "website": "-"
        },
        {
            "id": "9dd3acf5-116b-45d8-b2db-da3321100182",
            "nama_pse": "ARUNIKA INDO MIRATAMA",
            "nama_se": "AIM CONSULTANT",
            "sektor": "Sektor Perdagangan",
            "tanggal_terbit": "2024-12-28",
            "url_tdpse_detail": "https://pse.komdigi.go.id/tdpse-detail/21935",
            "website": "aim-consultant.id"
        },
        {
            "id": "9dd2f8a6-737f-4eeb-95af-3ae496f4359a",
            "nama_pse": "SPEAKLAH CREATIVE HUB",
            "nama_se": "SPEAKLAH CREATIVE HUB",
            "sektor": "Sektor Teknologi Informasi dan Komunikasi",
            "tanggal_terbit": "2024-12-27",
            "url_tdpse_detail": "https://pse.komdigi.go.id/tdpse-detail/21932",
            "website": "-"
        },
        {
            "id": "9dd26480-d2eb-4f71-ad90-7a9c0d6e7880",
            "nama_pse": "VICTORIA INVESTAMA",
            "nama_se": "MY VICTORIA",
            "sektor": "Sektor Keuangan",
            "tanggal_terbit": "2024-12-27",
            "url_tdpse_detail": "https://pse.komdigi.go.id/tdpse-detail/21929",
            "website": "myvictoria.co.id"
        },
        {
            "id": "9dd2ef7b-ada7-48ad-b9ce-3bcc54a17e6d",
            "nama_pse": "BLUD SMK 2 KOLAKA",
            "nama_se": "BLUD SMK 2 KOLAKA",
            "sektor": "Sektor Teknologi Informasi dan Komunikasi",
            "tanggal_terbit": "2024-12-27",
            "url_tdpse_detail": "https://pse.komdigi.go.id/tdpse-detail/21931",
            "website": "-"
        },
        {
            "id": "9dd2ba32-799a-43da-9039-6261d0b4e4e8",
            "nama_pse": "CREDIT SOLUTIONS INDONESIA",
            "nama_se": "CSI DIGITAL COLLECTION SYSTEM",
            "sektor": "Sektor Teknologi Informasi dan Komunikasi",
            "tanggal_terbit": "2024-12-27",
            "url_tdpse_detail": "https://pse.komdigi.go.id/tdpse-detail/21930",
            "website": "-"
        },
        {
            "id": "9dd30296-af63-46e0-94bd-6199b9c20089",
            "nama_pse": "BERSAMA LEBIH SEMANGAT SEJAHTERA",
            "nama_se": "IRWAN EDWARD URLOLO",
            "sektor": "Sektor Perdagangan",
            "tanggal_terbit": "2024-12-27",
            "url_tdpse_detail": "https://pse.komdigi.go.id/tdpse-detail/21933",
            "website": "squad.co.id"
        },
        {
            "id": "9dd24bd4-9ea5-48ed-9dbe-2dc1c73f3e0e",
            "nama_pse": "MULTI MEDIKA MAHADATA",
            "nama_se": "dokteremr",
            "sektor": "Sektor Kesehatan",
            "tanggal_terbit": "2024-12-27",
            "url_tdpse_detail": "https://pse.komdigi.go.id/tdpse-detail/21927",
            "website": "dokteremr.com"
        },
        {
            "id": "9dd258f2-24bd-48e6-982f-7f44a1ed4185",
            "nama_pse": "SUPARDI NETHANEL HUSAIN",
            "nama_se": "SUPARDI NETHANEL HUSAIN",
            "sektor": "Sektor Perdagangan, Sektor Teknologi Informasi dan Komunikasi",
            "tanggal_terbit": "2024-12-27",
            "url_tdpse_detail": "https://pse.komdigi.go.id/tdpse-detail/21928",
            "website": "zanio.co.id"
        },
        {
            "id": "9dd31d90-e6eb-4c9c-9d29-e1fde4193449",
            "nama_pse": "CIPTA KARYA MINING TRADER",
            "nama_se": "PT. CIPTA KARYA MINING TRADER",
            "sektor": "Sektor Perdagangan, Sektor Energi dan Sumber Daya Mineral, Sektor Transportasi, Sektor Teknologi Informasi dan Komunikasi",
            "tanggal_terbit": "2024-12-27",
            "url_tdpse_detail": "https://pse.komdigi.go.id/tdpse-detail/21934",
            "website": "ciptakaryaminingtrader.websites.co.in"
        },
        {
            "id": "9dd24b36-6d29-42e6-a82e-127eed414983",
            "nama_pse": "ISIDAYA MITRA KUALIVA",
            "nama_se": "isidaya",
            "sektor": "Sektor Teknologi Informasi dan Komunikasi",
            "tanggal_terbit": "2024-12-27",
            "url_tdpse_detail": "https://pse.komdigi.go.id/tdpse-detail/21926",
            "website": "isidaya.com"
        },
        {
            "id": "9dd07fb6-1ea7-4f9e-9f24-41ceecb1bf44",
            "nama_pse": "LILI STYLE INDONESIA",
            "nama_se": "LILI STYLE",
            "sektor": "Sektor Perdagangan",
            "tanggal_terbit": "2024-12-26",
            "url_tdpse_detail": "https://pse.komdigi.go.id/tdpse-detail/21919",
            "website": "lili.style"
        },
        {
            "id": "9dd0dd47-d0f7-42c5-8974-e391f716acc4",
            "nama_pse": "MAX PROPERTY INDONESIA",
            "nama_se": "MAX PROPERTY INDONESIA",
            "sektor": "Sektor Perdagangan",
            "tanggal_terbit": "2024-12-26",
            "url_tdpse_detail": "https://pse.komdigi.go.id/tdpse-detail/21920",
            "website": "premaxpro.com"
        },
        {
            "id": "9dd068cc-0f93-4b56-84d5-33e0789ee28a",
            "nama_pse": "NACONDA JAYA ABADI",
            "nama_se": "liputanmetrosumut.com",
            "sektor": "Sektor Teknologi Informasi dan Komunikasi",
            "tanggal_terbit": "2024-12-26",
            "url_tdpse_detail": "https://pse.komdigi.go.id/tdpse-detail/21916",
            "website": "liputanmetrosumut.com"
        },
        {
            "id": "9dd0f6e4-abf0-497d-abbc-645b13e2ff6a",
            "nama_pse": "ELGIBOR SOLUSI DIGITAL",
            "nama_se": "SISTRACK.ID",
            "sektor": "Sektor Transportasi, Sektor Teknologi Informasi dan Komunikasi",
            "tanggal_terbit": "2024-12-26",
            "url_tdpse_detail": "https://pse.komdigi.go.id/tdpse-detail/21923",
            "website": "sistrack.id"
        },
        {
            "id": "9dd07cc0-1280-4338-8411-14e62c8f927f",
            "nama_pse": "ANDA RIS INVESTAMA JAYA INDONESIA",
            "nama_se": "cakrarepublik.com",
            "sektor": "Sektor Teknologi Informasi dan Komunikasi",
            "tanggal_terbit": "2024-12-26",
            "url_tdpse_detail": "https://pse.komdigi.go.id/tdpse-detail/21918",
            "website": "cakrarepublik.com"
        },
        {
            "id": "9dd0efab-9813-43df-8c01-b469873b2a9b",
            "nama_pse": "ERFA DIGITAL SOLUTION",
            "nama_se": "ERFADIGITAL",
            "sektor": "Sektor Perdagangan",
            "tanggal_terbit": "2024-12-26",
            "url_tdpse_detail": "https://pse.komdigi.go.id/tdpse-detail/21922",
            "website": "erfadigital.com"
        },
        {
            "id": "9dd05e67-2808-433d-9ba7-379c61fda4bd",
            "nama_pse": "DELTAMAS SURYA INDAH MULIA",
            "nama_se": "deltamas-toyota.co.id",
            "sektor": "Sektor Perdagangan",
            "tanggal_terbit": "2024-12-26",
            "url_tdpse_detail": "https://pse.komdigi.go.id/tdpse-detail/21915",
            "website": "deltamas-toyota.co.id"
        },
        {
            "id": "9dd0eaf8-33af-4904-93ae-04c19994b850",
            "nama_pse": "DERAP KEADILAN GROUP",
            "nama_se": "detikpost.id",
            "sektor": "Sektor Teknologi Informasi dan Komunikasi",
            "tanggal_terbit": "2024-12-26",
            "url_tdpse_detail": "https://pse.komdigi.go.id/tdpse-detail/21921",
            "website": "detikpost.id"
        },
        {
            "id": "9dd1674f-72a3-4970-b4cd-a5cb81da6674",
            "nama_pse": "MEGA MINERAL GLOBAL",
            "nama_se": "MEGA MINERAL GLOBAL",
            "sektor": "Sektor Perdagangan, Sektor Energi dan Sumber Daya Mineral, Sektor Transportasi",
            "tanggal_terbit": "2024-12-26",
            "url_tdpse_detail": "https://pse.komdigi.go.id/tdpse-detail/21925",
            "website": "megamineralglobal.websites.co.in"
        },
        {
            "id": "9dd07252-92e9-4a31-9c77-f81cd3699067",
            "nama_pse": "CONSULTA DIGITAL INDONESIA",
            "nama_se": "CRMKU",
            "sektor": "Sektor Teknologi Informasi dan Komunikasi",
            "tanggal_terbit": "2024-12-26",
            "url_tdpse_detail": "https://pse.komdigi.go.id/tdpse-detail/21917",
            "website": "crmku.id"
        },
        {
            "id": "9dd0f833-c145-4ce3-84ff-5ce8d7d9662d",
            "nama_pse": "PASAR SAYUR DIGITAL",
            "nama_se": "PETANIKU.COM",
            "sektor": "Sektor Perdagangan, Sektor Teknologi Informasi dan Komunikasi",
            "tanggal_terbit": "2024-12-26",
            "url_tdpse_detail": "https://pse.komdigi.go.id/tdpse-detail/21924",
            "website": "petaniku.com"
        },
        {
            "id": "9dd0536e-92cd-4c2a-ad3e-385506bc785f",
            "nama_pse": "CAKRA DATA INDONUSA",
            "nama_se": "CAKRA DATA INDONUSA",
            "sektor": "Sektor Teknologi Informasi dan Komunikasi",
            "tanggal_terbit": "2024-12-26",
            "url_tdpse_detail": "https://pse.komdigi.go.id/tdpse-detail/21914",
            "website": "-"
        },
        {
            "id": "9dcf5150-a8a9-4cda-8ba9-98199c2958c4",
            "nama_pse": "MOBILE SAT SET",
            "nama_se": "MOBILESATSET",
            "sektor": "Sektor Perdagangan, Sektor Teknologi Informasi dan Komunikasi",
            "tanggal_terbit": "2024-12-25",
            "url_tdpse_detail": "https://pse.komdigi.go.id/tdpse-detail/21913",
            "website": "mobilesatset.com"
        },
        {
            "id": "9dcb872e-3468-4c2f-bb48-e260f2013fa8",
            "nama_pse": "YUANQUAN STEEL INDONESIA",
            "nama_se": "BAHAN BANGUNAN INDONESIA BAJA",
            "sektor": "Sektor Perdagangan",
            "tanggal_terbit": "2024-12-24",
            "url_tdpse_detail": "https://pse.komdigi.go.id/tdpse-detail/21900",
            "website": "-"
        },
        {
            "id": "9dcc73f4-87bf-45ce-a401-680ece0a982b",
            "nama_pse": "HANWHA LIFE INSURANCE INDONESIA",
            "nama_se": "BIZ PARTNER PORTAL",
            "sektor": "Sektor Keuangan",
            "tanggal_terbit": "2024-12-24",
            "url_tdpse_detail": "https://pse.komdigi.go.id/tdpse-detail/21904",
            "website": "bizportal.hanwhalife.co.id"
        },
        {
            "id": "9dccfb5e-b5a9-4a4d-97e6-c7ca85d2df2e",
            "nama_pse": "METRO MEDIA CORPORA",
            "nama_se": "radarcenter.info",
            "sektor": "Sektor Teknologi Informasi dan Komunikasi",
            "tanggal_terbit": "2024-12-24",
            "url_tdpse_detail": "https://pse.komdigi.go.id/tdpse-detail/21909",
            "website": "radarcenter.info"
        },
        {
            "id": "9dccac07-00c8-4b95-ad10-3bcf1c6a2ee1",
            "nama_pse": "DU AZ SOLUSI",
            "nama_se": "eLearning LAPOR! Layanan Aspirasi dan Pengaduan Online Rakyat",
            "sektor": "Sektor Teknologi Informasi dan Komunikasi",
            "tanggal_terbit": "2024-12-24",
            "url_tdpse_detail": "https://pse.komdigi.go.id/tdpse-detail/21908",
            "website": "belajar.lapor.go.id"
        },
        {
            "id": "9dcb95a7-7734-4bba-b5db-e9fea4a14024",
            "nama_pse": "PRADITA PRATAMA PUTRA",
            "nama_se": "ARUNIKA BLOOMS",
            "sektor": "Sektor Perdagangan",
            "tanggal_terbit": "2024-12-24",
            "url_tdpse_detail": "https://pse.komdigi.go.id/tdpse-detail/21901",
            "website": "arunikablooms.com"
        },
        {
            "id": "9dcc22c4-9bb3-4bdd-ae05-0a7e82ab55bc",
            "nama_pse": "LUMBUNG ARTHA KITA",
            "nama_se": "lubkita.com",
            "sektor": "Sektor Perdagangan, Sektor Teknologi Informasi dan Komunikasi",
            "tanggal_terbit": "2024-12-24",
            "url_tdpse_detail": "https://pse.komdigi.go.id/tdpse-detail/21902",
            "website": "lubkita.com"
        },
        {
            "id": "9dcc57c7-24e2-42d2-a761-1dd507f93587",
            "nama_pse": "ISIRUMA SENI INDONESIA",
            "nama_se": "isiruma",
            "sektor": "Sektor Perdagangan",
            "tanggal_terbit": "2024-12-24",
            "url_tdpse_detail": "https://pse.komdigi.go.id/tdpse-detail/21903",
            "website": "isiruma.co.id"
        },
        {
            "id": "9dcc748b-2223-4bcc-8d00-08520d4b596c",
            "nama_pse": "HANWHA LIFE INSURANCE INDONESIA",
            "nama_se": "ORANGE PLANNER",
            "sektor": "Sektor Keuangan",
            "tanggal_terbit": "2024-12-24",
            "url_tdpse_detail": "https://pse.komdigi.go.id/tdpse-detail/21905",
            "website": "orange.hanwhalife.co.id"
        },
        {
            "id": "9dcc7500-b084-4e21-b78b-f4892325d661",
            "nama_pse": "DINAMIKA PRIMA SERVITAMA",
            "nama_se": "DINAMIKA PRIMA SERVITAMA",
            "sektor": "Sektor Keuangan",
            "tanggal_terbit": "2024-12-24",
            "url_tdpse_detail": "https://pse.komdigi.go.id/tdpse-detail/21906",
            "website": "dinamikaprima.com"
        },
        {
            "id": "9dcca71a-7fbe-475e-9a8a-5657e866772f",
            "nama_pse": "ADHIE NUGROHO AZWI",
            "nama_se": "LAYANAN INTERNET LOKAL ( RT RW NET )",
            "sektor": "Sektor Teknologi Informasi dan Komunikasi",
            "tanggal_terbit": "2024-12-24",
            "url_tdpse_detail": "https://pse.komdigi.go.id/tdpse-detail/21907",
            "website": "-"
        },
        {
            "id": "9dccfd2e-fe5d-41ed-ac3f-3d67ca7f8f32",
            "nama_pse": "HELIOS INFORMATIKA NUSANTARA",
            "nama_se": "KOUVENTA",
            "sektor": "Sektor Teknologi Informasi dan Komunikasi",
            "tanggal_terbit": "2024-12-24",
            "url_tdpse_detail": "https://pse.komdigi.go.id/tdpse-detail/21910",
            "website": "kouventa.ai"
        },
        {
            "id": "9dcd6a8a-33d4-4f6b-80cb-97f8c85e1dce",
            "nama_pse": "AWM STAR LIFE",
            "nama_se": "AWM STAR LIFE",
            "sektor": "Sektor Perdagangan",
            "tanggal_terbit": "2024-12-24",
            "url_tdpse_detail": "https://pse.komdigi.go.id/tdpse-detail/21911",
            "website": "awmstarlife-official.co.id"
        },
        {
            "id": "9dcd7ff7-03be-4894-bb2f-9a45eccdcedd",
            "nama_pse": "WAHYU HIDAYAT",
            "nama_se": "REATRIX SHOP",
            "sektor": "Sektor Perdagangan",
            "tanggal_terbit": "2024-12-24",
            "url_tdpse_detail": "https://pse.komdigi.go.id/tdpse-detail/21912",
            "website": "reatrixshop.biz.id"
        },
        {
            "id": "9dcb72e3-ece7-4abd-a7c1-8a4987a68599",
            "nama_pse": "WENDI LIPALDO",
            "nama_se": "JIANET LAYANAN INTERNET LOKAL",
            "sektor": "Sektor Perdagangan, Sektor Teknologi Informasi dan Komunikasi",
            "tanggal_terbit": "2024-12-23",
            "url_tdpse_detail": "https://pse.komdigi.go.id/tdpse-detail/21899",
            "website": "-"
        },
        {
            "id": "9dcae509-0fae-41fe-a41c-9ace76d14127",
            "nama_pse": "FASHION MARKETPLACE INDONESIA",
            "nama_se": "ZALORA (APLIKASI KONSUMEN)",
            "sektor": "Sektor Perdagangan",
            "tanggal_terbit": "2024-12-23",
            "url_tdpse_detail": "https://pse.komdigi.go.id/tdpse-detail/21896",
            "website": "-"
        },
        {
            "id": "9cb1ac32-1ed9-41fd-aa8e-f10f3e2a1f40",
            "nama_pse": "PROMETHEUS BERBAGI TEKNOLOGI",
            "nama_se": "PAROIN ID",
            "sektor": "Sektor Teknologi Informasi dan Komunikasi",
            "tanggal_terbit": "2024-12-23",
            "url_tdpse_detail": "https://pse.komdigi.go.id/tdpse-detail/21897",
            "website": "paroin.id"
        },
        {
            "id": "9dcb5b19-a85c-4f99-a002-ed7bdf9463fc",
            "nama_pse": "AJANG UDAN",
            "nama_se": "CAHAYANET",
            "sektor": "Sektor Perdagangan, Sektor Teknologi Informasi dan Komunikasi",
            "tanggal_terbit": "2024-12-23",
            "url_tdpse_detail": "https://pse.komdigi.go.id/tdpse-detail/21898",
            "website": "-"
        },
        {
            "id": "9dcac9ad-1ee0-499c-99be-e93644316ea7",
            "nama_pse": "JAVA KOSMETINDO MANDIRI",
            "nama_se": "JAVA",
            "sektor": "Sektor Perdagangan",
            "tanggal_terbit": "2024-12-23",
            "url_tdpse_detail": "https://pse.komdigi.go.id/tdpse-detail/21895",
            "website": "chellyskin.com"
        },
        {
            "id": "9dca4294-29e7-4b68-ab6f-48b93ca5bc07",
            "nama_pse": "HUAWEI TECH INVESTMENT",
            "nama_se": "HUAWEI OFFICIAL ONLINE STORE INDONESIA",
            "sektor": "Sektor Perdagangan",
            "tanggal_terbit": "2024-12-23",
            "url_tdpse_detail": "https://pse.komdigi.go.id/tdpse-detail/21892",
            "website": "consumer.huawei.com"
        },
        {
            "id": "9dcaab2f-4224-4bc0-8012-33e7d61d5bcf",
            "nama_pse": "TRIMEGAH KARYA PRATAMA",
            "nama_se": "WEBCOMMERCE ULTRA VOUCHER",
            "sektor": "Sektor Perdagangan",
            "tanggal_terbit": "2024-12-23",
            "url_tdpse_detail": "https://pse.komdigi.go.id/tdpse-detail/21893",
            "website": "ultravoucher.co.id"
        },
        {
            "id": "9dcac5df-6c98-4fa7-bd59-98facedcb9c2",
            "nama_pse": "WIBTA DOT COM",
            "nama_se": "wibta",
            "sektor": "Sektor Teknologi Informasi dan Komunikasi",
            "tanggal_terbit": "2024-12-23",
            "url_tdpse_detail": "https://pse.komdigi.go.id/tdpse-detail/21894",
            "website": "wibta.com"
        },
        {
            "id": "9dc80b2d-dcbe-4c7c-b358-57b17d1d93d6",
            "nama_pse": "MUARA OESAHA DUA ARAH",
            "nama_se": "MOEDASOFT",
            "sektor": "Sektor Kesehatan, Sektor Teknologi Informasi dan Komunikasi",
            "tanggal_terbit": "2024-12-22",
            "url_tdpse_detail": "https://pse.komdigi.go.id/tdpse-detail/21889",
            "website": "moedasoft.com"
        },
        {
            "id": "9dc890e6-6bec-48f5-ad44-34e102cb2fb3",
            "nama_pse": "CENDEKIA RISET NUSANTARA",
            "nama_se": "QUISION",
            "sektor": "Sektor Teknologi Informasi dan Komunikasi",
            "tanggal_terbit": "2024-12-22",
            "url_tdpse_detail": "https://pse.komdigi.go.id/tdpse-detail/21890",
            "website": "quision.id"
        },
        {
            "id": "9dc8ced9-dde0-4b81-a437-64423fab6435",
            "nama_pse": "TRIVEM ADDE ALFAN",
            "nama_se": "ZENIUS MOBILE",
            "sektor": "Sektor Perdagangan",
            "tanggal_terbit": "2024-12-22",
            "url_tdpse_detail": "https://pse.komdigi.go.id/tdpse-detail/21891",
            "website": "-"
        },
        {
            "id": "9dc66c7b-afe6-4b39-b6ff-241ba2c8932a",
            "nama_pse": "SAHABAT MULTI MEDIA",
            "nama_se": "sahabatpolri.id",
            "sektor": "Sektor Teknologi Informasi dan Komunikasi",
            "tanggal_terbit": "2024-12-21",
            "url_tdpse_detail": "https://pse.komdigi.go.id/tdpse-detail/21885",
            "website": "sahabatpolri.id"
        }
    ],
    "processingTimeMs": 1,
    "query": "",
    "totalHits": 19131,
    "hitsPerPage": 50,
    "page": 16,
    "totalPages": 383
}