{
    "hits": [
        {
            "id": "9cb1ac85-20fe-4a49-ade0-7d6a81383b20",
            "nama_pse": "ABU BAKR ASSIDDIQ",
            "nama_se": "SIMRS KHANZA RSKB HEART AND SURGERY",
            "sektor": "Sektor Kesehatan",
            "tanggal_terbit": "2024-05-06",
            "url_tdpse_detail": "https://pse.komdigi.go.id/tdpse-detail/18829",
            "website": "-"
        },
        {
            "id": "9cb1ac6f-8711-4cb6-a5e4-935cbfd5bbe6",
            "nama_pse": "INTI OPTIMA TEKNOLOGI",
            "nama_se": "SURVEI INTERAKTIF ELEKTRONIK",
            "sektor": "Sektor Teknologi Informasi dan Komunikasi",
            "tanggal_terbit": "2024-05-06",
            "url_tdpse_detail": "https://pse.komdigi.go.id/tdpse-detail/18831",
            "website": "intioptima.com"
        },
        {
            "id": "9cb1ac5a-d13f-4885-ab18-a89bcdc7b1ad",
            "nama_pse": "AMBIL GAJI DULUAN",
            "nama_se": "ATOER",
            "sektor": "Sektor Teknologi Informasi dan Komunikasi",
            "tanggal_terbit": "2024-05-06",
            "url_tdpse_detail": "https://pse.komdigi.go.id/tdpse-detail/18830",
            "website": "-"
        },
        {
            "id": "9cb1ac6f-8a83-439e-b3f9-4c7c542e15aa",
            "nama_pse": "NARENDRA ARGA MULYA",
            "nama_se": "PT NARENDRA ARGA MULYA",
            "sektor": "Sektor Teknologi Informasi dan Komunikasi",
            "tanggal_terbit": "2024-05-06",
            "url_tdpse_detail": "https://pse.komdigi.go.id/tdpse-detail/18832",
            "website": "-"
        },
        {
            "id": "9cb1ac5a-d9f2-42a5-83f7-04c6d3a84c90",
            "nama_pse": "ANTAREJA NUSANTARA RESOURCES",
            "nama_se": "CREATIVE DIGITAL SHOP",
            "sektor": "Sektor Perdagangan",
            "tanggal_terbit": "2024-05-06",
            "url_tdpse_detail": "https://pse.komdigi.go.id/tdpse-detail/18833",
            "website": "creativeds.shop"
        },
        {
            "id": "9cb1ac6f-8dcc-43c7-bfe5-ed1f4a3b3fff",
            "nama_pse": "AKTIVA MULTI INOVASI",
            "nama_se": "TIGADIGIT",
            "sektor": "Sektor Teknologi Informasi dan Komunikasi",
            "tanggal_terbit": "2024-05-06",
            "url_tdpse_detail": "https://pse.komdigi.go.id/tdpse-detail/18834",
            "website": "tigadigit.id"
        },
        {
            "id": "9cb1ac5a-bc23-4278-b394-4133b3a24475",
            "nama_pse": "VISION PULSA MULTIPAYMENT",
            "nama_se": "VISIONPULSA",
            "sektor": "Sektor Perdagangan",
            "tanggal_terbit": "2024-05-05",
            "url_tdpse_detail": "https://pse.komdigi.go.id/tdpse-detail/18821",
            "website": "-"
        },
        {
            "id": "9cb1ac5a-b13c-44dc-8b01-4086e9478483",
            "nama_pse": "BERANI DIGITAL INDONESIA",
            "nama_se": "BERANI DIGITAL ID",
            "sektor": "Sektor Teknologi Informasi dan Komunikasi",
            "tanggal_terbit": "2024-05-04",
            "url_tdpse_detail": "https://pse.komdigi.go.id/tdpse-detail/18817",
            "website": "beranidigital.id"
        },
        {
            "id": "9cb1ac5a-b4fa-4730-90db-454cf9dcc636",
            "nama_pse": "BERKAT ADONAY NETWORK",
            "nama_se": "ADONAY.NET",
            "sektor": "Sektor Teknologi Informasi dan Komunikasi",
            "tanggal_terbit": "2024-05-04",
            "url_tdpse_detail": "https://pse.komdigi.go.id/tdpse-detail/18818",
            "website": "-"
        },
        {
            "id": "9cb1ac6f-77fa-4ad6-9417-0f10d5a53345",
            "nama_pse": "LOKA DIGITAL NIAGA",
            "nama_se": "ACARAKOO.COM",
            "sektor": "Sektor Teknologi Informasi dan Komunikasi",
            "tanggal_terbit": "2024-05-04",
            "url_tdpse_detail": "https://pse.komdigi.go.id/tdpse-detail/18819",
            "website": "acarakoo.com"
        },
        {
            "id": "9cb1ac6f-7c87-40a9-ba26-6200f8b9de21",
            "nama_pse": "DARI TEKNOLOGI INDONESIA",
            "nama_se": "WEBSEKOLAH.CO.ID",
            "sektor": "Sektor Teknologi Informasi dan Komunikasi",
            "tanggal_terbit": "2024-05-04",
            "url_tdpse_detail": "https://pse.komdigi.go.id/tdpse-detail/18820",
            "website": "websekolah.co.id"
        },
        {
            "id": "9cb1ac83-ad15-49dc-b0e9-f42c8e2d255b",
            "nama_pse": "LUMA SOLUSI DIGITAL",
            "nama_se": "PLEXO",
            "sektor": "Sektor Kesehatan, Sektor Teknologi Informasi dan Komunikasi",
            "tanggal_terbit": "2024-05-03",
            "url_tdpse_detail": "https://pse.komdigi.go.id/tdpse-detail/18813",
            "website": "plexo.id"
        },
        {
            "id": "9cb1ac84-ea18-4169-bed6-f219171abfd9",
            "nama_pse": "DUA SAHABAT TEKNOLOGI INDONESIA",
            "nama_se": "DUSATEK PORTAL",
            "sektor": "Sektor Perdagangan",
            "tanggal_terbit": "2024-05-03",
            "url_tdpse_detail": "https://pse.komdigi.go.id/tdpse-detail/18802",
            "website": "IGI.dusatek.com"
        },
        {
            "id": "9cb1ac6f-6bd5-4892-804c-6a5edea6af0b",
            "nama_pse": "SMART WIKAN PROFESIONAL",
            "nama_se": "WELOJE.ID",
            "sektor": "Sektor Teknologi Informasi dan Komunikasi",
            "tanggal_terbit": "2024-05-03",
            "url_tdpse_detail": "https://pse.komdigi.go.id/tdpse-detail/18803",
            "website": "weloje.id"
        },
        {
            "id": "9cb1ac6f-6ec3-455f-988f-08a65251a36f",
            "nama_pse": "SUZUKI INDOMOBIL SALES",
            "nama_se": "MYSUZUKI",
            "sektor": "Sektor Perdagangan",
            "tanggal_terbit": "2024-05-03",
            "url_tdpse_detail": "https://pse.komdigi.go.id/tdpse-detail/18804",
            "website": "mysuzuki.id"
        },
        {
            "id": "9cb1ac5a-a0a0-448a-90ad-5b6c9a0f1f80",
            "nama_pse": "INDOHADETAMA",
            "nama_se": "LICA",
            "sektor": "Sektor Kesehatan",
            "tanggal_terbit": "2024-05-03",
            "url_tdpse_detail": "https://pse.komdigi.go.id/tdpse-detail/18805",
            "website": "lica.co.id"
        },
        {
            "id": "9cb1ac84-ed0d-49fb-abd8-a3bae325b670",
            "nama_pse": "HEKSA ELEMEN MANASA",
            "nama_se": "HEKSAELEMENT",
            "sektor": "Sektor Perdagangan",
            "tanggal_terbit": "2024-05-03",
            "url_tdpse_detail": "https://pse.komdigi.go.id/tdpse-detail/18806",
            "website": "heksaelement.com"
        },
        {
            "id": "9cb1ac5a-a3bb-4529-894f-e60759161ee0",
            "nama_pse": "Doni Budiono dan Rekan",
            "nama_se": "PDB LAW FIRM",
            "sektor": "Sektor Teknologi Informasi dan Komunikasi",
            "tanggal_terbit": "2024-05-03",
            "url_tdpse_detail": "https://pse.komdigi.go.id/tdpse-detail/18807",
            "website": "pdb-lawfirm.id"
        },
        {
            "id": "9cb1ac5a-a720-4527-ad11-553402514d93",
            "nama_pse": "GERAI ANAK NEGERI",
            "nama_se": "GERAI KUOTA",
            "sektor": "Sektor Perdagangan",
            "tanggal_terbit": "2024-05-03",
            "url_tdpse_detail": "https://pse.komdigi.go.id/tdpse-detail/18809",
            "website": "geraikuota.com"
        },
        {
            "id": "9cb1ac84-f10c-4466-b900-bde129e2af5b",
            "nama_pse": "KKP DONI BUDIONO, ST., SE., AK",
            "nama_se": "KJA/KKP DONI BUDIONO",
            "sektor": "Sektor Teknologi Informasi dan Komunikasi",
            "tanggal_terbit": "2024-05-03",
            "url_tdpse_detail": "https://pse.komdigi.go.id/tdpse-detail/18810",
            "website": "kjakkp-db.id"
        },
        {
            "id": "9cb1ac84-f537-431d-84ab-5258c704d110",
            "nama_pse": "DAMAI INOVASI INDONESIA",
            "nama_se": "DAMAIINOVASI",
            "sektor": "Sektor Perdagangan",
            "tanggal_terbit": "2024-05-03",
            "url_tdpse_detail": "https://pse.komdigi.go.id/tdpse-detail/18811",
            "website": "damaiinovasi.com"
        },
        {
            "id": "9cb1ac84-f965-46b2-9e0a-3c2dbf451688",
            "nama_pse": "TEKNOLOGI CHIKARA KREATIF",
            "nama_se": "CHIKARACRAFT",
            "sektor": "Sektor Perdagangan",
            "tanggal_terbit": "2024-05-03",
            "url_tdpse_detail": "https://pse.komdigi.go.id/tdpse-detail/18812",
            "website": "chikaracraft.com"
        },
        {
            "id": "9cb1ac5a-ae01-4326-a44f-deb0772a07fa",
            "nama_pse": "HARAPAN PUTRA SONAR",
            "nama_se": "SONARMATRIX",
            "sektor": "Sektor Perdagangan",
            "tanggal_terbit": "2024-05-03",
            "url_tdpse_detail": "https://pse.komdigi.go.id/tdpse-detail/18814",
            "website": "sonarmatrix.com"
        },
        {
            "id": "9cb1ac84-ff2d-4686-bc5d-3bb92db92287",
            "nama_pse": "SEMAR MAJA INTEKNO",
            "nama_se": "SEMARVIRTUAL",
            "sektor": "Sektor Perdagangan",
            "tanggal_terbit": "2024-05-03",
            "url_tdpse_detail": "https://pse.komdigi.go.id/tdpse-detail/18815",
            "website": "semarvirtual.com"
        },
        {
            "id": "9cb1ac85-034e-4211-9877-bf8170f46da4",
            "nama_pse": "JADI MUDAH NUSANTARA",
            "nama_se": "JADI MUDAH RME",
            "sektor": "Sektor Kesehatan",
            "tanggal_terbit": "2024-05-03",
            "url_tdpse_detail": "https://pse.komdigi.go.id/tdpse-detail/18816",
            "website": "jadimudah.id"
        },
        {
            "id": "9cb1ac5a-4f6e-414a-9964-2ccd60c1b1c9",
            "nama_pse": "ASIA PRO BERJANGKA",
            "nama_se": "REGISTRASI PENERIMAAN NASABAH SECARA ELEKTRONIK ONLINE",
            "sektor": "Sektor Keuangan",
            "tanggal_terbit": "2024-05-02",
            "url_tdpse_detail": "https://pse.komdigi.go.id/tdpse-detail/18783",
            "website": "asiaprofx.com"
        },
        {
            "id": "9cb1ac84-77f2-4104-a17c-c1ec4bd42a29",
            "nama_pse": "BERSAMA DIGITAL INDONESIARAJA",
            "nama_se": "BERSAMA DIGITAL",
            "sektor": "Sektor Perdagangan",
            "tanggal_terbit": "2024-05-02",
            "url_tdpse_detail": "https://pse.komdigi.go.id/tdpse-detail/18788",
            "website": "bersamadigital.net"
        },
        {
            "id": "9cb1ac84-7c15-4309-bb47-313999daefa1",
            "nama_pse": "SOLUSIUTAMA TEKNO BROKER ASURANSI",
            "nama_se": "IGLOO.CO.ID",
            "sektor": "Sektor Keuangan",
            "tanggal_terbit": "2024-05-02",
            "url_tdpse_detail": "https://pse.komdigi.go.id/tdpse-detail/18784",
            "website": "igloo.co.id"
        },
        {
            "id": "9cb1ac84-8407-46ef-9c15-b01667ab6d35",
            "nama_pse": "SOLUSIUTAMA TEKNO BROKER ASURANSI",
            "nama_se": "IGNITE",
            "sektor": "Sektor Keuangan",
            "tanggal_terbit": "2024-05-02",
            "url_tdpse_detail": "https://pse.komdigi.go.id/tdpse-detail/18785",
            "website": "-"
        },
        {
            "id": "9cb1ac5a-70e7-4332-9517-072e0caaa492",
            "nama_pse": "BURDAH MUTIARA AFIAH",
            "nama_se": "SISTEM KLINIK",
            "sektor": "Sektor Kesehatan",
            "tanggal_terbit": "2024-05-02",
            "url_tdpse_detail": "https://pse.komdigi.go.id/tdpse-detail/18777",
            "website": "-"
        },
        {
            "id": "9cb1ac5a-74eb-48a3-a9f2-5421c1541905",
            "nama_pse": "ARTHA DIGITAL INTERNATIONAL",
            "nama_se": "ARTHAQU",
            "sektor": "Sektor Teknologi Informasi dan Komunikasi",
            "tanggal_terbit": "2024-05-02",
            "url_tdpse_detail": "https://pse.komdigi.go.id/tdpse-detail/18775",
            "website": "arthaqu.id"
        },
        {
            "id": "9cb1ac5a-787d-4334-b12b-0bb5b8c27b9b",
            "nama_pse": "ABDULLAH",
            "nama_se": "JENGKOL ONLINE",
            "sektor": "Sektor Perdagangan",
            "tanggal_terbit": "2024-05-02",
            "url_tdpse_detail": "https://pse.komdigi.go.id/tdpse-detail/18776",
            "website": "jengkolonline.com"
        },
        {
            "id": "9cb1ac5a-7bb7-431b-9377-304e785c91e3",
            "nama_pse": "POWER NETWORKING INDONESIA",
            "nama_se": "PT POWERNET",
            "sektor": "Sektor Teknologi Informasi dan Komunikasi",
            "tanggal_terbit": "2024-05-02",
            "url_tdpse_detail": "https://pse.komdigi.go.id/tdpse-detail/18778",
            "website": "-"
        },
        {
            "id": "9cb1ac84-c60c-4219-93c4-1a828d1d7ef1",
            "nama_pse": "POWER NETWORKING INDONESIA",
            "nama_se": "PT POWERNETWORKING",
            "sektor": "Sektor Teknologi Informasi dan Komunikasi",
            "tanggal_terbit": "2024-05-02",
            "url_tdpse_detail": "https://pse.komdigi.go.id/tdpse-detail/18779",
            "website": "-"
        },
        {
            "id": "9cb1ac6f-653c-42bb-8f2e-5bcf67a82e17",
            "nama_pse": "POWER NETWORKING INDONESIA",
            "nama_se": "PT POWERNETWORK",
            "sektor": "Sektor Teknologi Informasi dan Komunikasi",
            "tanggal_terbit": "2024-05-02",
            "url_tdpse_detail": "https://pse.komdigi.go.id/tdpse-detail/18780",
            "website": "-"
        },
        {
            "id": "9cb1ac5a-7f8b-4255-87be-fdcc6e0a502e",
            "nama_pse": "POWER NETWORKING INDONESIA",
            "nama_se": "PTPOWER",
            "sektor": "Sektor Teknologi Informasi dan Komunikasi",
            "tanggal_terbit": "2024-05-02",
            "url_tdpse_detail": "https://pse.komdigi.go.id/tdpse-detail/18781",
            "website": "-"
        },
        {
            "id": "9cb1ac84-c98a-4e8f-bc7f-83283fa93d69",
            "nama_pse": "POWER NETWORKING INDONESIA",
            "nama_se": "POWER",
            "sektor": "Sektor Teknologi Informasi dan Komunikasi",
            "tanggal_terbit": "2024-05-02",
            "url_tdpse_detail": "https://pse.komdigi.go.id/tdpse-detail/18782",
            "website": "-"
        },
        {
            "id": "9cb1ac5a-833b-4841-a6cc-5d94deb22f94",
            "nama_pse": "PERUSAHAAN PERSEROAN (PERSERO) PT. BANK TABUNGAN NEGARA",
            "nama_se": "BTN INTERNET BANKING BUSINESS (BTN IBB)",
            "sektor": "Sektor Keuangan",
            "tanggal_terbit": "2024-05-02",
            "url_tdpse_detail": "https://pse.komdigi.go.id/tdpse-detail/18786",
            "website": "ibbisnis.btn.co.id"
        },
        {
            "id": "9cb1ac5a-8a3f-436f-97fd-597264aafe8c",
            "nama_pse": "POSMA LAMBOY HUTABARAT",
            "nama_se": "TOPUPGAMING",
            "sektor": "Sektor Perdagangan, Sektor Teknologi Informasi dan Komunikasi",
            "tanggal_terbit": "2024-05-02",
            "url_tdpse_detail": "https://pse.komdigi.go.id/tdpse-detail/18787",
            "website": "topupgaming.com"
        },
        {
            "id": "9cb1ac5a-8dbd-4017-a4f7-a6263fefd234",
            "nama_pse": "MUGI WARAS",
            "nama_se": "SIM KLINIK MUGIYO WARAS",
            "sektor": "Sektor Kesehatan",
            "tanggal_terbit": "2024-05-02",
            "url_tdpse_detail": "https://pse.komdigi.go.id/tdpse-detail/18789",
            "website": "-"
        },
        {
            "id": "9cb1ac84-cd50-496c-b736-62667de89da3",
            "nama_pse": "NATADANA SOLUSI PRIMA",
            "nama_se": "IADMIN",
            "sektor": "Sektor Teknologi Informasi dan Komunikasi",
            "tanggal_terbit": "2024-05-02",
            "url_tdpse_detail": "https://pse.komdigi.go.id/tdpse-detail/18791",
            "website": "iadmin.co.id"
        },
        {
            "id": "9cb1ac5a-9140-4f29-9d13-a4215b6cdef3",
            "nama_pse": "EKA MAS REPUBLIK",
            "nama_se": "MYROCKET",
            "sektor": "Sektor Teknologi Informasi dan Komunikasi",
            "tanggal_terbit": "2024-05-02",
            "url_tdpse_detail": "https://pse.komdigi.go.id/tdpse-detail/18790",
            "website": "-"
        },
        {
            "id": "9cb1ac5a-947f-43e8-a93f-9e6a3eac6d41",
            "nama_pse": "EKA MAS REPUBLIK",
            "nama_se": "HTTPS://WWW.MYREPUBLIC.CO.ID/",
            "sektor": "Sektor Teknologi Informasi dan Komunikasi",
            "tanggal_terbit": "2024-05-02",
            "url_tdpse_detail": "https://pse.komdigi.go.id/tdpse-detail/18792",
            "website": "myrepublic.co.id"
        },
        {
            "id": "9cb1ac84-d5b8-484e-8e83-7e6669110c46",
            "nama_pse": "BIRU BERKAH BALI",
            "nama_se": "BIRU BERKAH BALI",
            "sektor": "Sektor Teknologi Informasi dan Komunikasi",
            "tanggal_terbit": "2024-05-02",
            "url_tdpse_detail": "https://pse.komdigi.go.id/tdpse-detail/18793",
            "website": "-"
        },
        {
            "id": "9cb1ac84-db6b-41e3-a822-abf8e4b10298",
            "nama_pse": "NIZAR LUGATIO PRATAMA",
            "nama_se": "MICROBOY STORE",
            "sektor": "Sektor Perdagangan",
            "tanggal_terbit": "2024-05-02",
            "url_tdpse_detail": "https://pse.komdigi.go.id/tdpse-detail/18794",
            "website": "microboystore.com"
        },
        {
            "id": "9cb1ac84-df66-4e0c-b84b-d3c1df420ca9",
            "nama_pse": "KINO TEKNOLOGI NUSANTARA",
            "nama_se": "GOPASTI DAN PASTIPAY",
            "sektor": "Sektor Transportasi",
            "tanggal_terbit": "2024-05-02",
            "url_tdpse_detail": "https://pse.komdigi.go.id/tdpse-detail/18796",
            "website": "-"
        },
        {
            "id": "9cb1ac5a-97e2-49f0-8ba1-d1e5fdecb2de",
            "nama_pse": "PRATAMA SOLUSI TEKNOLOGI",
            "nama_se": "PRATAMA SOLUSI TEKNOLOGI",
            "sektor": "Sektor Perdagangan, Sektor Teknologi Informasi dan Komunikasi",
            "tanggal_terbit": "2024-05-02",
            "url_tdpse_detail": "https://pse.komdigi.go.id/tdpse-detail/18797",
            "website": "pratamatechsolution.co.id"
        },
        {
            "id": "9cb1ac84-e362-4a96-bc8d-f28dfb886d79",
            "nama_pse": "CHRISTOPHER PRATAMA DJAYA",
            "nama_se": "DENTAL CLINIC APP",
            "sektor": "Sektor Teknologi Informasi dan Komunikasi",
            "tanggal_terbit": "2024-05-02",
            "url_tdpse_detail": "https://pse.komdigi.go.id/tdpse-detail/18798",
            "website": "-"
        },
        {
            "id": "9cb1ac5a-9ac2-45fd-95cf-e7ad97cae719",
            "nama_pse": "NURALIFAH",
            "nama_se": "ATHIFA.NET",
            "sektor": "Sektor Perdagangan",
            "tanggal_terbit": "2024-05-02",
            "url_tdpse_detail": "https://pse.komdigi.go.id/tdpse-detail/18799",
            "website": "-"
        },
        {
            "id": "9cb1ac6f-6839-4eb7-a05e-bc9ed1056538",
            "nama_pse": "ARDY WISUDAWAN ARITONANG",
            "nama_se": "JASA PERIZINAN",
            "sektor": "Sektor Teknologi Informasi dan Komunikasi",
            "tanggal_terbit": "2024-05-02",
            "url_tdpse_detail": "https://pse.komdigi.go.id/tdpse-detail/18801",
            "website": "oss-nib.com"
        }
    ],
    "processingTimeMs": 1,
    "query": "",
    "totalHits": 19131,
    "hitsPerPage": 50,
    "page": 69,
    "totalPages": 383
}