{
    "hits": [
        {
            "id": "9cb1ac71-afa1-4b3c-ba5e-28400fc0f837",
            "nama_pse": "AZKAL MULTI PAYMENT",
            "nama_se": "AZKALMULTIPAYMENT",
            "sektor": "Sektor Perdagangan",
            "tanggal_terbit": "2024-06-09",
            "url_tdpse_detail": "https://pse.komdigi.go.id/tdpse-detail/19194",
            "website": "-"
        },
        {
            "id": "9cb1ac5c-a004-4d87-bc1a-c7b624e275c6",
            "nama_pse": "ANDA RIS INVESTAMA JAYA INDONESIA",
            "nama_se": "GARUDASAKTI.ID",
            "sektor": "Sektor Teknologi Informasi dan Komunikasi",
            "tanggal_terbit": "2024-06-09",
            "url_tdpse_detail": "https://pse.komdigi.go.id/tdpse-detail/19195",
            "website": "garudasakti.id"
        },
        {
            "id": "9cb1ac87-01df-45d6-b47a-49aeafcf51c5",
            "nama_pse": "YAYASAN PEMUKASAKTI MANISINDAH",
            "nama_se": "HOSPITAL MANAGEMENT SYSTEM",
            "sektor": "Sektor Kesehatan",
            "tanggal_terbit": "2024-06-08",
            "url_tdpse_detail": "https://pse.komdigi.go.id/tdpse-detail/19186",
            "website": "-"
        },
        {
            "id": "9cb1ac87-68ea-4eb7-8c4b-964a7665834e",
            "nama_pse": "YAPINDO JAYA ABADI",
            "nama_se": "SIMBUS PTN",
            "sektor": "Sektor Teknologi Informasi dan Komunikasi",
            "tanggal_terbit": "2024-06-08",
            "url_tdpse_detail": "https://pse.komdigi.go.id/tdpse-detail/19187",
            "website": "simbusptn.com"
        },
        {
            "id": "9cb1ac71-a227-47f9-a4e4-f25c730097e2",
            "nama_pse": "YAPINDO JAYA ABADI",
            "nama_se": "MASUK APOTEKER",
            "sektor": "Sektor Teknologi Informasi dan Komunikasi",
            "tanggal_terbit": "2024-06-08",
            "url_tdpse_detail": "https://pse.komdigi.go.id/tdpse-detail/19188",
            "website": "masukapoteker.com"
        },
        {
            "id": "9cb1ac5c-9759-4cd3-9695-d76b3a160782",
            "nama_pse": "YAPINDO JAYA ABADI",
            "nama_se": "NEO SUPER APP",
            "sektor": "Sektor Teknologi Informasi dan Komunikasi",
            "tanggal_terbit": "2024-06-08",
            "url_tdpse_detail": "https://pse.komdigi.go.id/tdpse-detail/19189",
            "website": "-"
        },
        {
            "id": "9cb1ac71-a5c7-4c9d-962d-42e9e8e88f94",
            "nama_pse": "YAPINDO JAYA ABADI",
            "nama_se": "M3 SUPER APP",
            "sektor": "Sektor Teknologi Informasi dan Komunikasi",
            "tanggal_terbit": "2024-06-08",
            "url_tdpse_detail": "https://pse.komdigi.go.id/tdpse-detail/19190",
            "website": "-"
        },
        {
            "id": "9cb1ac87-6d50-4f79-8c15-b5d3184b7530",
            "nama_pse": "BUKIT MAS ABADI",
            "nama_se": "OPUSONE.ID",
            "sektor": "Sektor Perdagangan",
            "tanggal_terbit": "2024-06-08",
            "url_tdpse_detail": "https://pse.komdigi.go.id/tdpse-detail/19191",
            "website": "opusone.id"
        },
        {
            "id": "9cb1ac5c-9c96-4649-adb6-01cc7da76a4a",
            "nama_pse": "RAHMA ADI PRATAMA",
            "nama_se": "INGETIN.ID",
            "sektor": "Sektor Teknologi Informasi dan Komunikasi",
            "tanggal_terbit": "2024-06-08",
            "url_tdpse_detail": "https://pse.komdigi.go.id/tdpse-detail/19192",
            "website": "ingetinid.com"
        },
        {
            "id": "9cb1ac86-4cfc-4a2b-8ae4-64cbb9f1967d",
            "nama_pse": "PRAKARIS MULYA TEKNIK",
            "nama_se": "KLINIK TEKNOLOGI SISTEM",
            "sektor": "Sektor Kesehatan, Sektor Teknologi Informasi dan Komunikasi",
            "tanggal_terbit": "2024-06-07",
            "url_tdpse_detail": "https://pse.komdigi.go.id/tdpse-detail/19185",
            "website": "Prakarismulyateknik.com"
        },
        {
            "id": "9cb1ac87-3b36-4049-a500-556ef9ba3145",
            "nama_pse": "SUKMA UMKM DIGITAL",
            "nama_se": "CYBERPERS.COM",
            "sektor": "Sektor Teknologi Informasi dan Komunikasi",
            "tanggal_terbit": "2024-06-07",
            "url_tdpse_detail": "https://pse.komdigi.go.id/tdpse-detail/19171",
            "website": "cyberpers.com"
        },
        {
            "id": "9cb1ac5c-8458-4379-8a1d-b8f8daca1e00",
            "nama_pse": "KONSULTAN NUSANTARA BERBAKAT",
            "nama_se": "DYNAMO",
            "sektor": "Sektor Teknologi Informasi dan Komunikasi",
            "tanggal_terbit": "2024-06-07",
            "url_tdpse_detail": "https://pse.komdigi.go.id/tdpse-detail/19172",
            "website": "dynamodynamo.com"
        },
        {
            "id": "9cb1ac87-3ec1-401b-9bd0-364722a9d3c9",
            "nama_pse": "SUKMA UMKM DIGITAL",
            "nama_se": "SUKMAUMKMDIGITAL.COM",
            "sektor": "Sektor Teknologi Informasi dan Komunikasi",
            "tanggal_terbit": "2024-06-07",
            "url_tdpse_detail": "https://pse.komdigi.go.id/tdpse-detail/19173",
            "website": "sukmaumkmdigital.com"
        },
        {
            "id": "9cb1ac87-43a2-44f4-8502-1a727dafc24e",
            "nama_pse": "SUKMA UMKM DIGITAL",
            "nama_se": "REPORTERDESA.COM",
            "sektor": "Sektor Teknologi Informasi dan Komunikasi",
            "tanggal_terbit": "2024-06-07",
            "url_tdpse_detail": "https://pse.komdigi.go.id/tdpse-detail/19174",
            "website": "reporterdesa.com"
        },
        {
            "id": "9cb1ac87-46e4-430c-a54e-db9d794a26e7",
            "nama_pse": "TRIGANA AIR SERVICE",
            "nama_se": "WEBSITE PERUSAHAAN",
            "sektor": "Sektor Transportasi",
            "tanggal_terbit": "2024-06-07",
            "url_tdpse_detail": "https://pse.komdigi.go.id/tdpse-detail/19177",
            "website": "trigana-air.com"
        },
        {
            "id": "9cb1ac87-4bbf-4098-9b8d-a67de6d89f89",
            "nama_pse": "TIGA JAWARA INDONESIA",
            "nama_se": "JAWARA MEMBERS",
            "sektor": "Sektor Teknologi Informasi dan Komunikasi",
            "tanggal_terbit": "2024-06-07",
            "url_tdpse_detail": "https://pse.komdigi.go.id/tdpse-detail/19175",
            "website": "Jawarangantar.id"
        },
        {
            "id": "9cb1ac5c-885d-4182-8b02-ab723a09fb56",
            "nama_pse": "SUKMA UMKM DIGITAL",
            "nama_se": "SUKMA.CO.ID",
            "sektor": "Sektor Teknologi Informasi dan Komunikasi",
            "tanggal_terbit": "2024-06-07",
            "url_tdpse_detail": "https://pse.komdigi.go.id/tdpse-detail/19176",
            "website": "-"
        },
        {
            "id": "9cb1ac71-8ab8-4d5d-91b9-6cbd1370cab9",
            "nama_pse": "ASTA PIJAR KREASI TEKNOLOGI",
            "nama_se": "SMARTWORK",
            "sektor": "Sektor Teknologi Informasi dan Komunikasi",
            "tanggal_terbit": "2024-06-07",
            "url_tdpse_detail": "https://pse.komdigi.go.id/tdpse-detail/19178",
            "website": "smartwork.id"
        },
        {
            "id": "9cb1ac5c-8baa-4ccc-8228-456240465668",
            "nama_pse": "BIAN DIGITAL INDONESIA",
            "nama_se": "INCOME VIRTUAL",
            "sektor": "Sektor Perdagangan, Sektor Teknologi Informasi dan Komunikasi",
            "tanggal_terbit": "2024-06-07",
            "url_tdpse_detail": "https://pse.komdigi.go.id/tdpse-detail/19180",
            "website": "incomevirtuall.com"
        },
        {
            "id": "9cb1ac87-4f42-4ac3-bfa5-5d0f5e269982",
            "nama_pse": "PERCAYA TEKNOLOGI DIGITAL",
            "nama_se": "TRUSTTECH DIGITAL",
            "sektor": "Sektor Teknologi Informasi dan Komunikasi",
            "tanggal_terbit": "2024-06-07",
            "url_tdpse_detail": "https://pse.komdigi.go.id/tdpse-detail/19179",
            "website": "Trusttech.com"
        },
        {
            "id": "9cb1ac71-8e57-478c-9608-a6d53e90ec9f",
            "nama_pse": "LEVELUP DIGITAL MEDIA",
            "nama_se": "GTNEST",
            "sektor": "Sektor Perdagangan, Sektor Teknologi Informasi dan Komunikasi",
            "tanggal_terbit": "2024-06-07",
            "url_tdpse_detail": "https://pse.komdigi.go.id/tdpse-detail/19181",
            "website": "gtnest.com"
        },
        {
            "id": "9cb1ac71-9215-4b63-a6f7-1fd14b8bdffe",
            "nama_pse": "SARANA MEDIA NASIONAL",
            "nama_se": "PELOSOK JABAR",
            "sektor": "Sektor Teknologi Informasi dan Komunikasi",
            "tanggal_terbit": "2024-06-07",
            "url_tdpse_detail": "https://pse.komdigi.go.id/tdpse-detail/19182",
            "website": "pelosojabar.com"
        },
        {
            "id": "9cb1ac71-95c1-4999-a1c6-c76fc33a95c4",
            "nama_pse": "GENESIS DIGITAL PAYMENT",
            "nama_se": "G-GO",
            "sektor": "Sektor Perdagangan",
            "tanggal_terbit": "2024-06-07",
            "url_tdpse_detail": "https://pse.komdigi.go.id/tdpse-detail/19183",
            "website": "-"
        },
        {
            "id": "9cb1ac71-99d4-4451-a2d3-c48c41b6e786",
            "nama_pse": "RIFKA MEDIA TRAVELLINDO",
            "nama_se": "MAHAGANEWS.COM",
            "sektor": "Sektor Teknologi Informasi dan Komunikasi",
            "tanggal_terbit": "2024-06-07",
            "url_tdpse_detail": "https://pse.komdigi.go.id/tdpse-detail/19184",
            "website": "mahaganews.com"
        },
        {
            "id": "9cb1ac5c-6860-4b73-860f-17aa30a75235",
            "nama_pse": "SURYA ANUGRAH MULYA",
            "nama_se": "METATRADER 4",
            "sektor": "Sektor Perdagangan, Sektor Keuangan",
            "tanggal_terbit": "2024-06-06",
            "url_tdpse_detail": "https://pse.komdigi.go.id/tdpse-detail/19155",
            "website": "surya-am.id"
        },
        {
            "id": "9cb1ac71-65ba-41e1-9431-dec211919538",
            "nama_pse": "PHINCON",
            "nama_se": "PHINCON",
            "sektor": "Sektor Teknologi Informasi dan Komunikasi",
            "tanggal_terbit": "2024-06-06",
            "url_tdpse_detail": "https://pse.komdigi.go.id/tdpse-detail/19163",
            "website": "-"
        },
        {
            "id": "9cb1ac87-14d5-43a2-bb9b-164d60bfb91d",
            "nama_pse": "KADEK ARIS SAPUTRA MULYA",
            "nama_se": "KATALOG MUMU",
            "sektor": "Sektor Perdagangan",
            "tanggal_terbit": "2024-06-06",
            "url_tdpse_detail": "https://pse.komdigi.go.id/tdpse-detail/19154",
            "website": "MUMUBRANDEDBAG.ID"
        },
        {
            "id": "9cb1ac5c-7571-4b3b-bef3-824f19115f2e",
            "nama_pse": "ASIDO BIMA",
            "nama_se": "ASIDO BIMA",
            "sektor": "Sektor Perdagangan",
            "tanggal_terbit": "2024-06-06",
            "url_tdpse_detail": "https://pse.komdigi.go.id/tdpse-detail/19156",
            "website": "-"
        },
        {
            "id": "9cb1ac87-199b-4e47-80cb-4d1c35cc68a6",
            "nama_pse": "MEDIA KOMUNIKASI INFORMASI",
            "nama_se": "KEPALADOSA.ID",
            "sektor": "Sektor Teknologi Informasi dan Komunikasi",
            "tanggal_terbit": "2024-06-06",
            "url_tdpse_detail": "https://pse.komdigi.go.id/tdpse-detail/19157",
            "website": "kepaladosa.id"
        },
        {
            "id": "9cb1ac5c-7d52-424b-8a4b-1447b50c2b44",
            "nama_pse": "MEDIA KOMUNIKASI INFORMASI",
            "nama_se": "SURAT.CO.ID",
            "sektor": "Sektor Teknologi Informasi dan Komunikasi",
            "tanggal_terbit": "2024-06-06",
            "url_tdpse_detail": "https://pse.komdigi.go.id/tdpse-detail/19158",
            "website": "surat.co.id"
        },
        {
            "id": "9cb1ac87-2406-4c40-9016-4ebd9869cede",
            "nama_pse": "KARYA MULTIMEDIA",
            "nama_se": "EKLINIK",
            "sektor": "Sektor Kesehatan, Sektor Teknologi Informasi dan Komunikasi",
            "tanggal_terbit": "2024-06-06",
            "url_tdpse_detail": "https://pse.komdigi.go.id/tdpse-detail/19159",
            "website": "-"
        },
        {
            "id": "9cb1ac87-284e-4a40-b64b-831011d696d0",
            "nama_pse": "PORTAL AJAIB SEKAWAN",
            "nama_se": "PAYSINI",
            "sektor": "Sektor Teknologi Informasi dan Komunikasi",
            "tanggal_terbit": "2024-06-06",
            "url_tdpse_detail": "https://pse.komdigi.go.id/tdpse-detail/19160",
            "website": "paysini.com"
        },
        {
            "id": "9cb1ac5c-80fa-4dca-b2ac-0e80eab9c0a2",
            "nama_pse": "MEDIA KOMUNIKASI INFORMASI",
            "nama_se": "SIAP86.CO.ID",
            "sektor": "Sektor Teknologi Informasi dan Komunikasi",
            "tanggal_terbit": "2024-06-06",
            "url_tdpse_detail": "https://pse.komdigi.go.id/tdpse-detail/19161",
            "website": "siap86.co.id"
        },
        {
            "id": "9cb1ac71-6968-4e94-8af9-5db25659b726",
            "nama_pse": "HARMONY UNTUK INDONESIA",
            "nama_se": "MYHARMONY",
            "sektor": "Sektor Teknologi Informasi dan Komunikasi",
            "tanggal_terbit": "2024-06-06",
            "url_tdpse_detail": "https://pse.komdigi.go.id/tdpse-detail/19162",
            "website": "-"
        },
        {
            "id": "9cb1ac87-2f97-49cc-960b-10826bde6a22",
            "nama_pse": "JASA AMANAH BERKAH",
            "nama_se": "AMANAH WEB DIGITAL",
            "sektor": "Sektor Teknologi Informasi dan Komunikasi",
            "tanggal_terbit": "2024-06-06",
            "url_tdpse_detail": "https://pse.komdigi.go.id/tdpse-detail/19164",
            "website": "amanahmultimedia.id"
        },
        {
            "id": "9cb1ac71-6d5e-4577-a89a-53649e2e1c0f",
            "nama_pse": "DISINI DIGITAL TEKNOLOGI",
            "nama_se": "PT DISINI DIGITAL TEKNOLOGI",
            "sektor": "Sektor Teknologi Informasi dan Komunikasi",
            "tanggal_terbit": "2024-06-06",
            "url_tdpse_detail": "https://pse.komdigi.go.id/tdpse-detail/19165",
            "website": "paydisini.co.id"
        },
        {
            "id": "9cb1ac71-7f2c-4efa-b503-42ed90b5afc2",
            "nama_pse": "DUPOIN FUTURES INDONESIA",
            "nama_se": "PT DUPOIN FUTURES INDONESIA",
            "sektor": "Sektor Perdagangan",
            "tanggal_terbit": "2024-06-06",
            "url_tdpse_detail": "https://pse.komdigi.go.id/tdpse-detail/19166",
            "website": "dupoin.co.id"
        },
        {
            "id": "9cb1ac87-3323-45ce-b157-fd1ab72bdd6b",
            "nama_pse": "JASA AMANAH BERKAH",
            "nama_se": "JASA AMANAH BERKAH",
            "sektor": "Sektor Teknologi Informasi dan Komunikasi",
            "tanggal_terbit": "2024-06-06",
            "url_tdpse_detail": "https://pse.komdigi.go.id/tdpse-detail/19167",
            "website": "jasaamanahberkah.com"
        },
        {
            "id": "9cb1ac71-83a9-4fed-8967-0c2a6de18e50",
            "nama_pse": "FATRIAFIZ LAW FIRM",
            "nama_se": "FATRIAFIZ.ID",
            "sektor": "Sektor Perdagangan, Sektor Teknologi Informasi dan Komunikasi",
            "tanggal_terbit": "2024-06-06",
            "url_tdpse_detail": "https://pse.komdigi.go.id/tdpse-detail/19168",
            "website": "fatriafiz.id"
        },
        {
            "id": "9cb1ac71-8775-4488-bc23-6723c7cfb3e7",
            "nama_pse": "SAMUDERA SEHAT ABADI",
            "nama_se": "SAMUDERA SEHAT ABADI",
            "sektor": "Sektor Perdagangan",
            "tanggal_terbit": "2024-06-06",
            "url_tdpse_detail": "https://pse.komdigi.go.id/tdpse-detail/19169",
            "website": "viiva.co.id"
        },
        {
            "id": "9cb1ac87-3770-4b16-bfbc-e487b93a52d3",
            "nama_pse": "LAHIR BARU TEKNOLOGI",
            "nama_se": "JARVIS",
            "sektor": "Sektor Teknologi Informasi dan Komunikasi",
            "tanggal_terbit": "2024-06-06",
            "url_tdpse_detail": "https://pse.komdigi.go.id/tdpse-detail/19170",
            "website": "jar-vis.com"
        },
        {
            "id": "9cb1ac86-daf2-4636-9105-aaa107f60f4f",
            "nama_pse": "ALI AZHAR DAMARROSYDI",
            "nama_se": "AAD TODAY",
            "sektor": "Sektor Teknologi Informasi dan Komunikasi",
            "tanggal_terbit": "2024-06-05",
            "url_tdpse_detail": "https://pse.komdigi.go.id/tdpse-detail/19146",
            "website": "aadtoday.com"
        },
        {
            "id": "9cb1ac86-f631-4057-87d6-f6e68660741f",
            "nama_pse": "HORIZON MULTI INTERNASIONAL",
            "nama_se": "HI REMIT",
            "sektor": "Sektor Keuangan",
            "tanggal_terbit": "2024-06-05",
            "url_tdpse_detail": "https://pse.komdigi.go.id/tdpse-detail/19148",
            "website": "hiremit.com"
        },
        {
            "id": "9cb1ac71-4f6d-4553-a354-55c2f6841a91",
            "nama_pse": "BLOCKCHAIN TECHNOLOGY NUSANTARA",
            "nama_se": "BLOCKCHAIN TECHNOLOGY NUSANTARA",
            "sektor": "Sektor Perdagangan, Sektor Transportasi, Sektor Teknologi Informasi dan Komunikasi",
            "tanggal_terbit": "2024-06-05",
            "url_tdpse_detail": "https://pse.komdigi.go.id/tdpse-detail/19145",
            "website": "engineblockchain.io"
        },
        {
            "id": "9cb1ac87-0882-4341-98b5-9037bc078f6a",
            "nama_pse": "STAR REACHERS INDONESIA",
            "nama_se": "EPSILON RETAIL MEDIA",
            "sektor": "Sektor Teknologi Informasi dan Komunikasi",
            "tanggal_terbit": "2024-06-05",
            "url_tdpse_detail": "https://pse.komdigi.go.id/tdpse-detail/19153",
            "website": "citrusad.com"
        },
        {
            "id": "9cb1ac87-0c27-4b93-9984-81da0dbc5602",
            "nama_pse": "CITRA ESTETIKA",
            "nama_se": "SISTEM KLINIK CITRA ESTETIKA",
            "sektor": "Sektor Kesehatan",
            "tanggal_terbit": "2024-06-05",
            "url_tdpse_detail": "https://pse.komdigi.go.id/tdpse-detail/19147",
            "website": "-"
        },
        {
            "id": "9cb1ac5c-6534-46b6-a72d-302a8ae17fd3",
            "nama_pse": "SAFELOG INOVASI NUSANTARA",
            "nama_se": "SAFELOG AI",
            "sektor": "Sektor Teknologi Informasi dan Komunikasi",
            "tanggal_terbit": "2024-06-05",
            "url_tdpse_detail": "https://pse.komdigi.go.id/tdpse-detail/19151",
            "website": "safelogai.com"
        },
        {
            "id": "9cb1ac71-53c5-41a5-8795-f4627f0151ce",
            "nama_pse": "JARFIS BONGSOIKROMO KONSULTASI",
            "nama_se": "TRIMEDIS",
            "sektor": "Sektor Kesehatan",
            "tanggal_terbit": "2024-06-05",
            "url_tdpse_detail": "https://pse.komdigi.go.id/tdpse-detail/19149",
            "website": "trimedis.id"
        },
        {
            "id": "9cb1ac71-5930-4371-9c87-8d60974b21fc",
            "nama_pse": "GLOBAL DIGITAL INDOKREASI",
            "nama_se": "LAPAKGAMING WEBSITE",
            "sektor": "Sektor Teknologi Informasi dan Komunikasi",
            "tanggal_terbit": "2024-06-05",
            "url_tdpse_detail": "https://pse.komdigi.go.id/tdpse-detail/19150",
            "website": "LAPAKGAMING.COM"
        },
        {
            "id": "9cb1ac5c-725e-4dbb-aa90-3a4cddfd9278",
            "nama_pse": "DIGITALISASI PEMUDA INDONESIA",
            "nama_se": "DIGITAL SKOLA",
            "sektor": "Sektor Teknologi Informasi dan Komunikasi",
            "tanggal_terbit": "2024-06-05",
            "url_tdpse_detail": "https://pse.komdigi.go.id/tdpse-detail/19152",
            "website": "digitalskola.com"
        }
    ],
    "processingTimeMs": 22,
    "query": "",
    "totalHits": 19131,
    "hitsPerPage": 50,
    "page": 62,
    "totalPages": 383
}