{
    "hits": [
        {
            "id": "9cb1ab8d-3b72-4507-9874-fee7d346221c",
            "nama_pse": "VENTENY MATAHARI INDONESIA",
            "nama_se": "VENTENY",
            "sektor": "Sektor Perdagangan, Sektor Perdagangan, Sektor Perdagangan, Sektor Teknologi Informasi dan Komunikasi, Sektor Teknologi Informasi dan Komunikasi, Sektor Teknologi Informasi dan Komunikasi",
            "tanggal_terbit": "2021-02-25",
            "url_tdpse_detail": "https://pse.komdigi.go.id/tdpse-detail/246",
            "website": "venteny.co.id"
        },
        {
            "id": "9cb1ab85-c5af-4cca-8130-ff44b83fd77c",
            "nama_pse": "SOOPLAI INDONESIA PRATAMA",
            "nama_se": "SOOPLAI",
            "sektor": "Sektor Perdagangan, Sektor Perdagangan",
            "tanggal_terbit": "2021-02-25",
            "url_tdpse_detail": "https://pse.komdigi.go.id/tdpse-detail/253",
            "website": "sooplai.com"
        },
        {
            "id": "9cb1ab85-c88d-4e32-93de-83b9150b3f68",
            "nama_pse": "AXIATA DIGITAL SERVICES INDONESIA",
            "nama_se": "WWW.MYBOOST.ID",
            "sektor": "Sektor Perdagangan, Sektor Perdagangan",
            "tanggal_terbit": "2021-02-25",
            "url_tdpse_detail": "https://pse.komdigi.go.id/tdpse-detail/237",
            "website": "myboost.id"
        },
        {
            "id": "9cb1ab8d-5885-481d-a530-88a2dcf913ae",
            "nama_pse": "AIGENS TECHNOLOGY INDONESIA",
            "nama_se": "CONTACLESS MENU",
            "sektor": "Sektor Teknologi Informasi dan Komunikasi, Sektor Teknologi Informasi dan Komunikasi",
            "tanggal_terbit": "2021-02-25",
            "url_tdpse_detail": "https://pse.komdigi.go.id/tdpse-detail/251",
            "website": "aigens.com"
        },
        {
            "id": "9cb1ab7d-c1c2-4639-bfe6-469a44f372e2",
            "nama_pse": "VISI EMAS INDONESIA",
            "nama_se": "PAYDINAR",
            "sektor": "Sektor Perdagangan, Sektor Perdagangan",
            "tanggal_terbit": "2021-02-25",
            "url_tdpse_detail": "https://pse.komdigi.go.id/tdpse-detail/241",
            "website": "paydinar.id"
        },
        {
            "id": "9cb1ab7d-c744-474e-b24e-1b25bb54ae1e",
            "nama_pse": "ASTRA GRAPHIA",
            "nama_se": "ICARE",
            "sektor": "Sektor Perdagangan, Sektor Perdagangan",
            "tanggal_terbit": "2021-02-25",
            "url_tdpse_detail": "https://pse.komdigi.go.id/tdpse-detail/257",
            "website": "-"
        },
        {
            "id": "9cb1ab85-d3fb-43fa-be6a-0117fb81c4c9",
            "nama_pse": "PIRANTI ALPHABET PERKASA",
            "nama_se": "PAPITUPI SYARIAH",
            "sektor": "Sektor Keuangan, Sektor Keuangan",
            "tanggal_terbit": "2021-02-25",
            "url_tdpse_detail": "https://pse.komdigi.go.id/tdpse-detail/240",
            "website": "papitupisyariah.com"
        },
        {
            "id": "9cb1ab8d-682b-4d24-8a6c-0570e6b49855",
            "nama_pse": "ECOMMET ONLINE INDONESIA",
            "nama_se": "ZIPX",
            "sektor": "Sektor Perdagangan, Sektor Perdagangan",
            "tanggal_terbit": "2021-02-25",
            "url_tdpse_detail": "https://pse.komdigi.go.id/tdpse-detail/258",
            "website": "id.ZipX.com"
        },
        {
            "id": "9cb1ab8d-7cca-403e-b274-9a7ed8fe1c5d",
            "nama_pse": "MODAL ANAK BANGSA",
            "nama_se": "BENIH BERSAMA",
            "sektor": "Sektor Keuangan, Sektor Keuangan",
            "tanggal_terbit": "2021-02-25",
            "url_tdpse_detail": "https://pse.komdigi.go.id/tdpse-detail/236",
            "website": "benihbersama.id"
        },
        {
            "id": "9cb1ab7d-de42-4e3e-a3e5-bec5d31a379f",
            "nama_pse": "VISI TEKNOLOGI DIGITAL",
            "nama_se": "GARAPIN",
            "sektor": "Sektor Perdagangan, Sektor Perdagangan, Sektor Teknologi Informasi dan Komunikasi, Sektor Teknologi Informasi dan Komunikasi",
            "tanggal_terbit": "2021-02-25",
            "url_tdpse_detail": "https://pse.komdigi.go.id/tdpse-detail/242",
            "website": "garap.in"
        },
        {
            "id": "9cb1ab85-f58b-43ef-b18c-ee63788681d0",
            "nama_pse": "VISI TEKNOLOGI DIGITAL",
            "nama_se": "GARAPIN",
            "sektor": "Sektor Perdagangan, Sektor Perdagangan, Sektor Teknologi Informasi dan Komunikasi, Sektor Teknologi Informasi dan Komunikasi",
            "tanggal_terbit": "2021-02-25",
            "url_tdpse_detail": "https://pse.komdigi.go.id/tdpse-detail/243",
            "website": "garap.in"
        },
        {
            "id": "9cb1ab8d-86e4-4fd5-8146-e6accb67e164",
            "nama_pse": "SOLUSI TEKNO KONSULTAN",
            "nama_se": "SOLUSI LEGALINDO",
            "sektor": "Sektor Teknologi Informasi dan Komunikasi, Sektor Teknologi Informasi dan Komunikasi",
            "tanggal_terbit": "2021-02-25",
            "url_tdpse_detail": "https://pse.komdigi.go.id/tdpse-detail/244",
            "website": "solusilegalindo.co.id"
        },
        {
            "id": "9cb1ab8d-8de2-4c11-b500-2a6f4cd912df",
            "nama_pse": "PENTASADA ANDALAN KELOLA",
            "nama_se": "PAOLA.ID",
            "sektor": "Sektor Perdagangan, Sektor Perdagangan",
            "tanggal_terbit": "2021-02-25",
            "url_tdpse_detail": "https://pse.komdigi.go.id/tdpse-detail/248",
            "website": "paola.id"
        },
        {
            "id": "9cb1ab7d-e61b-4260-ac71-59a75422e24f",
            "nama_pse": "AKTIVAKU INVESTAMA TEKNOLOGI",
            "nama_se": "AKTIVAKU",
            "sektor": "Sektor Keuangan, Sektor Keuangan",
            "tanggal_terbit": "2021-02-25",
            "url_tdpse_detail": "https://pse.komdigi.go.id/tdpse-detail/250",
            "website": "aktivaku.com, aktivaku.id"
        },
        {
            "id": "9cb1ab8d-931f-43e2-862d-ef00478c4c1e",
            "nama_pse": "USER ACQUISITION INDONESIA",
            "nama_se": "COINVESTASI",
            "sektor": "Sektor Teknologi Informasi dan Komunikasi",
            "tanggal_terbit": "2021-02-25",
            "url_tdpse_detail": "https://pse.komdigi.go.id/tdpse-detail/256",
            "website": "coinvestasi.com"
        },
        {
            "id": "9cb1ab86-1900-48f7-84dd-9952ffc297af",
            "nama_pse": "GRAB TEKNOLOGI INDONESIA",
            "nama_se": "APLIKASI GRAB",
            "sektor": "Sektor Perdagangan, Sektor Perdagangan",
            "tanggal_terbit": "2021-02-25",
            "url_tdpse_detail": "https://pse.komdigi.go.id/tdpse-detail/254",
            "website": "grab.com"
        },
        {
            "id": "9cb1ab86-ae81-43b1-b542-94c4a8abfe25",
            "nama_pse": "HEKSA SOLUTION INSURANCE",
            "nama_se": "HEKSA INSURANCE",
            "sektor": "Sektor Keuangan, Sektor Keuangan",
            "tanggal_terbit": "2021-02-25",
            "url_tdpse_detail": "https://pse.komdigi.go.id/tdpse-detail/210",
            "website": "heksainsurance.co.id"
        },
        {
            "id": "9cb1abaa-c97d-495d-ac37-38984e6cbb43",
            "nama_pse": "MAP AKTIF ADIPERKASA",
            "nama_se": "TSHIRT-GLD.COM",
            "sektor": "Sektor Perdagangan, Sektor Perdagangan",
            "tanggal_terbit": "2021-02-25",
            "url_tdpse_detail": "https://pse.komdigi.go.id/tdpse-detail/223",
            "website": "tshirt-gld.com"
        },
        {
            "id": "9cb1ab93-5ef0-49d4-93dd-a8db66be5383",
            "nama_pse": "MAP AKTIF ADIPERKASA",
            "nama_se": "PLANETSPORTS.ASIA",
            "sektor": "Sektor Perdagangan, Sektor Perdagangan",
            "tanggal_terbit": "2021-02-25",
            "url_tdpse_detail": "https://pse.komdigi.go.id/tdpse-detail/226",
            "website": "planetsports.asia"
        },
        {
            "id": "9cb1aba0-378e-4e76-9e28-2adbbdf9630d",
            "nama_pse": "MAP AKTIF ADIPERKASA",
            "nama_se": "SKECHERS.ID",
            "sektor": "Sektor Perdagangan, Sektor Perdagangan",
            "tanggal_terbit": "2021-02-25",
            "url_tdpse_detail": "https://pse.komdigi.go.id/tdpse-detail/227",
            "website": "skechers.id"
        },
        {
            "id": "9cb1ab93-6267-4519-ae56-bc18586569d5",
            "nama_pse": "MAP AKTIF ADIPERKASA",
            "nama_se": "KIDZSTATION.ASIA",
            "sektor": "Sektor Perdagangan, Sektor Perdagangan",
            "tanggal_terbit": "2021-02-25",
            "url_tdpse_detail": "https://pse.komdigi.go.id/tdpse-detail/228",
            "website": "kidzstation.asia"
        },
        {
            "id": "9cb1aba0-394c-4cbd-9082-ef0978c6505a",
            "nama_pse": "MAP AKTIF ADIPERKASA",
            "nama_se": "CROCS.CO.ID",
            "sektor": "Sektor Perdagangan, Sektor Perdagangan",
            "tanggal_terbit": "2021-02-25",
            "url_tdpse_detail": "https://pse.komdigi.go.id/tdpse-detail/229",
            "website": "crocs.co.id"
        },
        {
            "id": "9cb1aba0-3b12-4822-a835-7385762aba72",
            "nama_pse": "MAP AKTIF ADIPERKASA",
            "nama_se": "REEBOK.ID",
            "sektor": "Sektor Perdagangan, Sektor Perdagangan",
            "tanggal_terbit": "2021-02-25",
            "url_tdpse_detail": "https://pse.komdigi.go.id/tdpse-detail/230",
            "website": "reebok.id"
        },
        {
            "id": "9cb1abaa-cc11-45cd-9823-e2e39dbecf0e",
            "nama_pse": "MAP AKTIF ADIPERKASA",
            "nama_se": "NEWBALANCE.CO.ID",
            "sektor": "Sektor Perdagangan, Sektor Perdagangan",
            "tanggal_terbit": "2021-02-25",
            "url_tdpse_detail": "https://pse.komdigi.go.id/tdpse-detail/231",
            "website": "newbalance.co.id"
        },
        {
            "id": "9cb1ab85-5eba-4c13-8421-53b55ccfa3eb",
            "nama_pse": "KITA BISA INDONESIA",
            "nama_se": "KITABISA",
            "sektor": "Sektor Teknologi Informasi dan Komunikasi, Sektor Teknologi Informasi dan Komunikasi",
            "tanggal_terbit": "2021-02-25",
            "url_tdpse_detail": "https://pse.komdigi.go.id/tdpse-detail/187",
            "website": "id.kitabisa.com"
        },
        {
            "id": "9cb1abad-8f53-4ffd-bdf8-e302f454ae5f",
            "nama_pse": "SAHABAT SAMPULO INFOTAMA",
            "nama_se": "WARUNG SAHABAT SAMPULO",
            "sektor": "Sektor Perdagangan, Sektor Teknologi Informasi dan Komunikasi, Sektor Pangan",
            "tanggal_terbit": "2021-02-25",
            "url_tdpse_detail": "https://pse.komdigi.go.id/tdpse-detail/4601",
            "website": "sahabatsampulo.tokosip.com"
        },
        {
            "id": "9cb1ab83-5a22-47b3-915a-2a826fe70ba7",
            "nama_pse": "FM DIGITAL SOLUTION",
            "nama_se": "FLASH MOBILE",
            "sektor": "Sektor Teknologi Informasi dan Komunikasi, Sektor Teknologi Informasi dan Komunikasi",
            "tanggal_terbit": "2021-02-24",
            "url_tdpse_detail": "https://pse.komdigi.go.id/tdpse-detail/140",
            "website": "flashmobile.co.id"
        },
        {
            "id": "9cb1ab83-cfd4-4072-91e1-370ba305d700",
            "nama_pse": "DANA ASET NUSANTARA ANDALAN",
            "nama_se": "AQUITY",
            "sektor": "Sektor Teknologi Informasi dan Komunikasi, Sektor Teknologi Informasi dan Komunikasi",
            "tanggal_terbit": "2021-02-24",
            "url_tdpse_detail": "https://pse.komdigi.go.id/tdpse-detail/153",
            "website": "-"
        },
        {
            "id": "9cb1ab83-d2d8-4c31-93ca-f7d9155c97db",
            "nama_pse": "MYROBIN INDONESIA TEKNOLOGI",
            "nama_se": "HTTPS://MYROBIN.ID",
            "sektor": "Sektor Teknologi Informasi dan Komunikasi, Sektor Teknologi Informasi dan Komunikasi",
            "tanggal_terbit": "2021-02-24",
            "url_tdpse_detail": "https://pse.komdigi.go.id/tdpse-detail/132",
            "website": "myrobin.id"
        },
        {
            "id": "9cb1ab7c-0718-43c8-99f1-531a2fedbf39",
            "nama_pse": "JAYA BERDIKARI TEKNOLOGI INFORMATIKA",
            "nama_se": "HIBERLIN.CO.ID",
            "sektor": "Sektor Perdagangan, Sektor Perdagangan",
            "tanggal_terbit": "2021-02-24",
            "url_tdpse_detail": "https://pse.komdigi.go.id/tdpse-detail/133",
            "website": "Hiberlin.co.id"
        },
        {
            "id": "9cb1ab7c-1887-408b-b1f8-7896ec5884f1",
            "nama_pse": "DIGITAL OTOMOTIF INDONESIA",
            "nama_se": "GARASI.ID",
            "sektor": "Sektor Perdagangan, Sektor Perdagangan",
            "tanggal_terbit": "2021-02-24",
            "url_tdpse_detail": "https://pse.komdigi.go.id/tdpse-detail/164",
            "website": "garasi.id"
        },
        {
            "id": "9cb1ab8c-0e11-4521-831d-c73d8f3a0d79",
            "nama_pse": "ASURANSI JIWA SEQUIS LIFE",
            "nama_se": "SUPERYOU",
            "sektor": "Sektor Keuangan, Sektor Keuangan",
            "tanggal_terbit": "2021-02-24",
            "url_tdpse_detail": "https://pse.komdigi.go.id/tdpse-detail/137",
            "website": "superyou.co.id"
        },
        {
            "id": "9cb1ab7c-71f2-4c2c-af51-ad4b7146fc08",
            "nama_pse": "SOLUSI RESERVASI SEHAT",
            "nama_se": "BOOKINGDOKTER",
            "sektor": "Sektor Kesehatan, Sektor Kesehatan",
            "tanggal_terbit": "2021-02-24",
            "url_tdpse_detail": "https://pse.komdigi.go.id/tdpse-detail/135",
            "website": "bookingdokter.com"
        },
        {
            "id": "9cb1ab84-5984-4408-9b41-e01fea213ec6",
            "nama_pse": "PASARPOLIS INDONESIA",
            "nama_se": "PASARPOLIS INSURANCE TECH",
            "sektor": "Sektor Perdagangan, Sektor Perdagangan",
            "tanggal_terbit": "2021-02-24",
            "url_tdpse_detail": "https://pse.komdigi.go.id/tdpse-detail/171",
            "website": "pasarpolis.io"
        },
        {
            "id": "9cb1ab7c-91d5-40fd-b3df-8504c6bf2e0c",
            "nama_pse": "LABA KISAH KARUNIA",
            "nama_se": "LABABOOK",
            "sektor": "Sektor Keuangan, Sektor Keuangan, Sektor Teknologi Informasi dan Komunikasi, Sektor Teknologi Informasi dan Komunikasi",
            "tanggal_terbit": "2021-02-24",
            "url_tdpse_detail": "https://pse.komdigi.go.id/tdpse-detail/139",
            "website": "lababook.com"
        },
        {
            "id": "9cb1ab8c-41a5-4023-af96-a6d9f12d348d",
            "nama_pse": "KB FINANSIA MULTI FINANCE",
            "nama_se": "KREDIT PLUS MOBILE",
            "sektor": "Sektor Keuangan, Sektor Keuangan, Sektor Teknologi Informasi dan Komunikasi, Sektor Teknologi Informasi dan Komunikasi",
            "tanggal_terbit": "2021-02-24",
            "url_tdpse_detail": "https://pse.komdigi.go.id/tdpse-detail/148",
            "website": "app.kreditplus.com"
        },
        {
            "id": "9cb1ab8c-44a9-4947-b61a-ced2c2d4232b",
            "nama_pse": "KB FINANSIA MULTI FINANCE",
            "nama_se": "KREDIT PLUS EXPRESS",
            "sektor": "Sektor Keuangan, Sektor Keuangan, Sektor Teknologi Informasi dan Komunikasi, Sektor Teknologi Informasi dan Komunikasi",
            "tanggal_terbit": "2021-02-24",
            "url_tdpse_detail": "https://pse.komdigi.go.id/tdpse-detail/149",
            "website": "kpexpress.id"
        },
        {
            "id": "9cb1ab84-7ffe-4210-9c1b-fc4fcf4b3a5b",
            "nama_pse": "KB FINANSIA MULTI FINANCE",
            "nama_se": "KREDITMU",
            "sektor": "Sektor Keuangan, Sektor Keuangan, Sektor Teknologi Informasi dan Komunikasi, Sektor Teknologi Informasi dan Komunikasi",
            "tanggal_terbit": "2021-02-24",
            "url_tdpse_detail": "https://pse.komdigi.go.id/tdpse-detail/150",
            "website": "kreditmu.com"
        },
        {
            "id": "9cb1ab84-a2e8-4b70-b147-e31ee7dab8c5",
            "nama_pse": "SIMPAN PINJAM BINA MAJU BESAR",
            "nama_se": "DOMPETKU",
            "sektor": "Sektor Keuangan, Sektor Keuangan",
            "tanggal_terbit": "2021-02-24",
            "url_tdpse_detail": "https://pse.komdigi.go.id/tdpse-detail/163",
            "website": "-"
        },
        {
            "id": "9cb1ab7c-ae2f-466e-abfc-613aa423adef",
            "nama_pse": "TEMPRINA MEDIA GRAFIKA",
            "nama_se": "JPSTORE.ID",
            "sektor": "Sektor Perdagangan, Sektor Perdagangan",
            "tanggal_terbit": "2021-02-24",
            "url_tdpse_detail": "https://pse.komdigi.go.id/tdpse-detail/134",
            "website": "jpstore.id"
        },
        {
            "id": "9cb1ab7c-bc21-4f5e-a7e4-c44571604690",
            "nama_pse": "GGPIN INDONESIA MAKMUR",
            "nama_se": "GGPIN",
            "sektor": "Sektor Teknologi Informasi dan Komunikasi, Sektor Teknologi Informasi dan Komunikasi",
            "tanggal_terbit": "2021-02-24",
            "url_tdpse_detail": "https://pse.komdigi.go.id/tdpse-detail/136",
            "website": "ggpin.id"
        },
        {
            "id": "9cb1ab84-c1a1-4620-b5a5-9bde3b6e6b5b",
            "nama_pse": "SOLUSI MASAK INDONESIA",
            "nama_se": "YEAHMESHI",
            "sektor": "Sektor Perdagangan, Sektor Perdagangan",
            "tanggal_terbit": "2021-02-24",
            "url_tdpse_detail": "https://pse.komdigi.go.id/tdpse-detail/130",
            "website": "yeahmeshi.com"
        },
        {
            "id": "9cb1ab8c-8343-46c9-839e-d55d7633e766",
            "nama_pse": "KISA TRAVELINDO PRISTAMA",
            "nama_se": "KISATOUR",
            "sektor": "Sektor Perdagangan, Sektor Perdagangan, Sektor Transportasi, Sektor Transportasi, Sektor Keuangan, Sektor Keuangan, Sektor Teknologi Informasi dan Komunikasi, Sektor Teknologi Informasi dan Komunikasi",
            "tanggal_terbit": "2021-02-24",
            "url_tdpse_detail": "https://pse.komdigi.go.id/tdpse-detail/131",
            "website": "kisatour.id"
        },
        {
            "id": "9cb1ab84-cbae-4a55-b9f1-af2519efd4d0",
            "nama_pse": "BBX DIGITAL TEKNOLOGI",
            "nama_se": "BBXFINTECH.CO.ID",
            "sektor": "Sektor Keuangan, Sektor Keuangan, Sektor Teknologi Informasi dan Komunikasi, Sektor Teknologi Informasi dan Komunikasi",
            "tanggal_terbit": "2021-02-24",
            "url_tdpse_detail": "https://pse.komdigi.go.id/tdpse-detail/155",
            "website": "bbxfintech.co.id"
        },
        {
            "id": "9cb1ab84-d7d0-4f2f-ae84-a447ca80ef9f",
            "nama_pse": "AIRUDDER INFORMATION TECHNOLOGY",
            "nama_se": "AIRUDDER AI ROBOT",
            "sektor": "Sektor Teknologi Informasi dan Komunikasi, Sektor Teknologi Informasi dan Komunikasi, Sektor Teknologi Informasi dan Komunikasi, Sektor Teknologi Informasi dan Komunikasi, Sektor Teknologi Informasi dan Komunikasi, Sektor Teknologi Informasi dan Komunikasi",
            "tanggal_terbit": "2021-02-24",
            "url_tdpse_detail": "https://pse.komdigi.go.id/tdpse-detail/152",
            "website": "calling.airudder.com"
        },
        {
            "id": "9cb1ab7c-e26e-402d-96c3-cddcc636a652",
            "nama_pse": "KIENS KAPUPON INTERNASIONAL",
            "nama_se": "SISTEM JARINGAN MULTILEVEL MARKETING",
            "sektor": "Sektor Perdagangan, Sektor Perdagangan, Sektor Teknologi Informasi dan Komunikasi, Sektor Teknologi Informasi dan Komunikasi",
            "tanggal_terbit": "2021-02-24",
            "url_tdpse_detail": "https://pse.komdigi.go.id/tdpse-detail/154",
            "website": "kiens.co.id"
        },
        {
            "id": "9cb1ab7c-e9e1-40e5-a7e6-1288b7b815fb",
            "nama_pse": "BLOCKBUSTER MEDIA VISUAL",
            "nama_se": "KLAKLIK",
            "sektor": "Sektor Teknologi Informasi dan Komunikasi, Sektor Teknologi Informasi dan Komunikasi",
            "tanggal_terbit": "2021-02-24",
            "url_tdpse_detail": "https://pse.komdigi.go.id/tdpse-detail/167",
            "website": "klaklik.com"
        },
        {
            "id": "9cb1ab7c-ee02-40fa-ab95-72381b3f500e",
            "nama_pse": "WALLETKU INDOMPET INDONESIA",
            "nama_se": "WALLETKU",
            "sektor": "Sektor Perdagangan, Sektor Perdagangan, Sektor Keuangan, Sektor Keuangan",
            "tanggal_terbit": "2021-02-24",
            "url_tdpse_detail": "https://pse.komdigi.go.id/tdpse-detail/144",
            "website": "walletku.com"
        },
        {
            "id": "9cb1ab85-16a6-4b80-87d6-dcd69ebb9052",
            "nama_pse": "REVOLUSI CITA EDUKASI",
            "nama_se": "REVOU",
            "sektor": "Sektor Teknologi Informasi dan Komunikasi, Sektor Teknologi Informasi dan Komunikasi",
            "tanggal_terbit": "2021-02-24",
            "url_tdpse_detail": "https://pse.komdigi.go.id/tdpse-detail/146",
            "website": "revou.co"
        },
        {
            "id": "9cb1ab8c-a5de-4a52-bf40-ea331a2b0983",
            "nama_pse": "MOOJOL PATRIOT INDONESIA",
            "nama_se": "MOOJOL",
            "sektor": "Sektor Transportasi, Sektor Transportasi",
            "tanggal_terbit": "2021-02-24",
            "url_tdpse_detail": "https://pse.komdigi.go.id/tdpse-detail/161",
            "website": "moojol.com"
        }
    ],
    "processingTimeMs": 9,
    "query": "",
    "totalHits": 19131,
    "hitsPerPage": 50,
    "page": 380,
    "totalPages": 383
}