{
    "hits": [
        {
            "id": "9d3ff32d-d31f-4005-b863-81464343ddf5",
            "nama_pse": "XYNEXIS INTERNATIONAL",
            "nama_se": "PT XYNEXIS INTERNATIONAL",
            "sektor": "Sektor Teknologi Informasi dan Komunikasi",
            "tanggal_terbit": "2024-10-15",
            "url_tdpse_detail": "https://pse.komdigi.go.id/tdpse-detail/20781",
            "website": "xynexis.com"
        },
        {
            "id": "9d3feb3f-8f3f-4342-9263-34e9280e6ff4",
            "nama_pse": "ANUGERAH DIGITAL INDONESIA",
            "nama_se": "SOLUSIKU",
            "sektor": "Sektor Keuangan",
            "tanggal_terbit": "2024-10-15",
            "url_tdpse_detail": "https://pse.komdigi.go.id/tdpse-detail/20780",
            "website": "solusi-ku.id"
        },
        {
            "id": "9d3f9a81-91e9-491f-aae2-376dd3312356",
            "nama_pse": "COSMORIA SOLUSI BISNIS",
            "nama_se": "cosmoria.biz.id",
            "sektor": "Sektor Perdagangan, Sektor Teknologi Informasi dan Komunikasi",
            "tanggal_terbit": "2024-10-15",
            "url_tdpse_detail": "https://pse.komdigi.go.id/tdpse-detail/20771",
            "website": "cosmoria.biz.id"
        },
        {
            "id": "9d404826-441a-4a3c-b886-b929d128283c",
            "nama_pse": "GALIH ROSWANDI",
            "nama_se": "BAYWIRA MAJU BERSAMA",
            "sektor": "Sektor Teknologi Informasi dan Komunikasi",
            "tanggal_terbit": "2024-10-15",
            "url_tdpse_detail": "https://pse.komdigi.go.id/tdpse-detail/20784",
            "website": "kedain.roswandi.com"
        },
        {
            "id": "9cb1ac86-51ee-461b-8809-d0d7c8865ce3",
            "nama_pse": "RUSUNDA MEDIKA ABADI",
            "nama_se": "EMR RUSUNDA",
            "sektor": "Sektor Kesehatan",
            "tanggal_terbit": "2024-10-15",
            "url_tdpse_detail": "https://pse.komdigi.go.id/tdpse-detail/20776",
            "website": "emrrusunda.com"
        },
        {
            "id": "9d3e1b5c-20c9-486d-958d-280df9ab21ef",
            "nama_pse": "GLOBAL UNGGUL MANDIRI",
            "nama_se": "PAXEL",
            "sektor": "Sektor Perdagangan",
            "tanggal_terbit": "2024-10-14",
            "url_tdpse_detail": "https://pse.komdigi.go.id/tdpse-detail/20764",
            "website": "-"
        },
        {
            "id": "9d3d86ed-958a-40c9-9d45-6257929da845",
            "nama_pse": "CANGGU VACATION AGENT",
            "nama_se": "CANGGU VACATION AGENT",
            "sektor": "Sektor Perdagangan",
            "tanggal_terbit": "2024-10-14",
            "url_tdpse_detail": "https://pse.komdigi.go.id/tdpse-detail/20756",
            "website": "cangguagency.com"
        },
        {
            "id": "9d3e01a2-4eee-47b0-b8a8-54a7a2837351",
            "nama_pse": "DWIE KOMPUTER JABAR",
            "nama_se": "LAYANAN INTERNET LOKAL (RT RW NET) DWIE KOMPUTER JABAR",
            "sektor": "Sektor Teknologi Informasi dan Komunikasi",
            "tanggal_terbit": "2024-10-14",
            "url_tdpse_detail": "https://pse.komdigi.go.id/tdpse-detail/20761",
            "website": "-"
        },
        {
            "id": "9d3df64a-e2f2-40ae-a829-95058fd707bf",
            "nama_pse": "GINESIA DIGITAL INDONESIA",
            "nama_se": "GINESIA DIGITAL INDONESIA",
            "sektor": "Sektor Teknologi Informasi dan Komunikasi",
            "tanggal_terbit": "2024-10-14",
            "url_tdpse_detail": "https://pse.komdigi.go.id/tdpse-detail/20760",
            "website": "pustakadigital.id"
        },
        {
            "id": "9d3e1b75-68ae-4810-83b8-f7f838b36b50",
            "nama_pse": "GLOBAL UNGGUL MANDIRI",
            "nama_se": "PAXELMARKET.CO",
            "sektor": "Sektor Perdagangan",
            "tanggal_terbit": "2024-10-14",
            "url_tdpse_detail": "https://pse.komdigi.go.id/tdpse-detail/20765",
            "website": "paxelmarket.co"
        },
        {
            "id": "9d3d579f-d2e3-4e5c-a5ef-829c7eb2800c",
            "nama_pse": "HUNTER SMITH NUSANTARA",
            "nama_se": "HUNTER",
            "sektor": "Sektor Teknologi Informasi dan Komunikasi",
            "tanggal_terbit": "2024-10-14",
            "url_tdpse_detail": "https://pse.komdigi.go.id/tdpse-detail/20753",
            "website": "-"
        },
        {
            "id": "9d3d762d-8687-4c3f-abe0-f658af8df34d",
            "nama_pse": "OMNI CLOUD INDONESIA",
            "nama_se": "OMNI CLOUD",
            "sektor": "Sektor Teknologi Informasi dan Komunikasi",
            "tanggal_terbit": "2024-10-14",
            "url_tdpse_detail": "https://pse.komdigi.go.id/tdpse-detail/20755",
            "website": "wwww.omnicloud.co.id"
        },
        {
            "id": "9d3dd6f9-36f1-46b2-a9d2-a28a0ab47e7f",
            "nama_pse": "HITS MEDIA GRUP",
            "nama_se": "HITS MEDIA - AGENSI PEMASARAN DIGITAL",
            "sektor": "Sektor Perdagangan, Sektor Teknologi Informasi dan Komunikasi",
            "tanggal_terbit": "2024-10-14",
            "url_tdpse_detail": "https://pse.komdigi.go.id/tdpse-detail/20759",
            "website": "hitsmedia.org"
        },
        {
            "id": "9d3da1c0-29b2-4ded-96dd-133d6ba5953a",
            "nama_pse": "TRANSFORMASI RUMAH DIGITAL",
            "nama_se": "WEBSITE PT TRANSFORMASI RUMAH DIGITAL",
            "sektor": "Sektor Teknologi Informasi dan Komunikasi",
            "tanggal_terbit": "2024-10-14",
            "url_tdpse_detail": "https://pse.komdigi.go.id/tdpse-detail/20757",
            "website": "transformasirumahdigital.com"
        },
        {
            "id": "9d3dcb46-eb98-4614-9025-902634300f0e",
            "nama_pse": "PROGO PUNCAK GROUP",
            "nama_se": "PINJAMWINWIN",
            "sektor": "Sektor Keuangan",
            "tanggal_terbit": "2024-10-14",
            "url_tdpse_detail": "https://pse.komdigi.go.id/tdpse-detail/20758",
            "website": "pinjamwinwin.com"
        },
        {
            "id": "9d3d74db-22bc-47ff-9807-2830f795bc6a",
            "nama_pse": "HERDINA METATECH SINERGI",
            "nama_se": "WEB PROFIL - HMS",
            "sektor": "Sektor Teknologi Informasi dan Komunikasi",
            "tanggal_terbit": "2024-10-14",
            "url_tdpse_detail": "https://pse.komdigi.go.id/tdpse-detail/20754",
            "website": "hdnmetatech.com"
        },
        {
            "id": "9d3e099f-1fec-4575-9ad5-36d75abf71f8",
            "nama_pse": "VAST HORIZON INTERNATIONAL",
            "nama_se": "SKEDUL APP",
            "sektor": "Sektor Perdagangan",
            "tanggal_terbit": "2024-10-14",
            "url_tdpse_detail": "https://pse.komdigi.go.id/tdpse-detail/20763",
            "website": "-"
        },
        {
            "id": "9d3e21fb-7209-4511-8dc9-1855d37baeac",
            "nama_pse": "DIGITAL TEKNOLOGI SEJAHTERA",
            "nama_se": "WEBSITE BURSA KAMERA PROFESIONAL",
            "sektor": "Sektor Perdagangan",
            "tanggal_terbit": "2024-10-14",
            "url_tdpse_detail": "https://pse.komdigi.go.id/tdpse-detail/20766",
            "website": "-"
        },
        {
            "id": "9d3e4567-5d23-4875-aee4-3786453f8311",
            "nama_pse": "HITS MEDIA GRUP",
            "nama_se": "KONTER ONLINE OTOMATIS 24 JAM DISTRIBUTOR PULSA, KUOTA INTERNET, TOKEN LISTRIK, BAYAR PDAM, TAGIHAN, TOP UP, MURAH TANPA RIBET, OTOMATIS 24 JAM.",
            "sektor": "Sektor Perdagangan",
            "tanggal_terbit": "2024-10-14",
            "url_tdpse_detail": "https://pse.komdigi.go.id/tdpse-detail/20767",
            "website": "autopulsa24jam.com"
        },
        {
            "id": "9d3e7673-ef10-4b71-9937-b299a83e54e5",
            "nama_pse": "HITS MEDIA GRUP",
            "nama_se": "PENJAHITS OCTAVIA - PENJAHIT BRIDAL PROFESIONAL MALANG",
            "sektor": "Sektor Perdagangan",
            "tanggal_terbit": "2024-10-14",
            "url_tdpse_detail": "https://pse.komdigi.go.id/tdpse-detail/20768",
            "website": "penjahitsoctavia.com"
        },
        {
            "id": "9d3ea8a9-27a8-4404-8c0d-b01d2c3cd416",
            "nama_pse": "EDU MEDIA DIGITAL",
            "nama_se": "EDUCAMPUS",
            "sektor": "Sektor Teknologi Informasi dan Komunikasi",
            "tanggal_terbit": "2024-10-14",
            "url_tdpse_detail": "https://pse.komdigi.go.id/tdpse-detail/20769",
            "website": "edumediadigital.co.id"
        },
        {
            "id": "9d3e03b9-e2c5-49b8-abcb-a99a29cae19d",
            "nama_pse": "I MADE SUPARDI ARTHA",
            "nama_se": "PORTOLABS",
            "sektor": "Sektor Perdagangan, Sektor Teknologi Informasi dan Komunikasi",
            "tanggal_terbit": "2024-10-14",
            "url_tdpse_detail": "https://pse.komdigi.go.id/tdpse-detail/20762",
            "website": "portolabs.id"
        },
        {
            "id": "9d3be284-01bc-444a-b04b-0fbab9b7882e",
            "nama_pse": "TREND TECH GLOBAL",
            "nama_se": "CV TREND TECH GLOBAL",
            "sektor": "Sektor Perdagangan",
            "tanggal_terbit": "2024-10-13",
            "url_tdpse_detail": "https://pse.komdigi.go.id/tdpse-detail/20752",
            "website": "trendtechttglobal.com"
        },
        {
            "id": "9d394911-12ef-4e74-9644-02eaaa86d046",
            "nama_pse": "YEYEN DAMAYANTI",
            "nama_se": "LAYANAN PENYEDIA INTERNET LOKAL RT RW NET ( ZONA NET )",
            "sektor": "Sektor Teknologi Informasi dan Komunikasi",
            "tanggal_terbit": "2024-10-12",
            "url_tdpse_detail": "https://pse.komdigi.go.id/tdpse-detail/20744",
            "website": "-"
        },
        {
            "id": "9d39a4ad-090a-426b-a612-32ab318ee051",
            "nama_pse": "DASH DIGITAL INDONESIA",
            "nama_se": "SEHAT ID",
            "sektor": "Sektor Kesehatan, Sektor Teknologi Informasi dan Komunikasi",
            "tanggal_terbit": "2024-10-12",
            "url_tdpse_detail": "https://pse.komdigi.go.id/tdpse-detail/20746",
            "website": "dashdigital.id"
        },
        {
            "id": "9d39f061-05ad-4316-91e2-31d089c940fb",
            "nama_pse": "MEDIA MISTERI NUSANTARA",
            "nama_se": "MEDIA MISTERI NUSANTARA",
            "sektor": "Sektor Teknologi Informasi dan Komunikasi",
            "tanggal_terbit": "2024-10-12",
            "url_tdpse_detail": "https://pse.komdigi.go.id/tdpse-detail/20748",
            "website": "mediamisterinusantara.com"
        },
        {
            "id": "9d39cb91-a7af-4c22-bd11-53ea1cd16718",
            "nama_pse": "NENG VIRA WULANSARI",
            "nama_se": "LAYANAN PENYEDIA INTERNET LOKAL RT RW NET ( ZFM NET )",
            "sektor": "Sektor Teknologi Informasi dan Komunikasi",
            "tanggal_terbit": "2024-10-12",
            "url_tdpse_detail": "https://pse.komdigi.go.id/tdpse-detail/20747",
            "website": "-"
        },
        {
            "id": "9d39f5b3-7487-41ec-a83d-b36f2d5a3801",
            "nama_pse": "ERLANGGA FICAHYA PUTRA",
            "nama_se": "ERLANGGA STORE",
            "sektor": "Sektor Perdagangan",
            "tanggal_terbit": "2024-10-12",
            "url_tdpse_detail": "https://pse.komdigi.go.id/tdpse-detail/20749",
            "website": "erlangga.com"
        },
        {
            "id": "9d39fd33-e63b-41e0-bb37-d231e3aa1b75",
            "nama_pse": "TRI MUKTI NUSANTARA SOLUTION",
            "nama_se": "PT. TRI MUKTI NUSANTARA SOLUTION",
            "sektor": "Sektor Perdagangan, Sektor Teknologi Informasi dan Komunikasi",
            "tanggal_terbit": "2024-10-12",
            "url_tdpse_detail": "https://pse.komdigi.go.id/tdpse-detail/20750",
            "website": "trimuktisolution.my.id"
        },
        {
            "id": "9d3a20e4-ccdd-49a7-8e47-ab08a6980dfd",
            "nama_pse": "RADJA POS MEDIA",
            "nama_se": "NUSANTARA NEWS",
            "sektor": "Sektor Teknologi Informasi dan Komunikasi",
            "tanggal_terbit": "2024-10-12",
            "url_tdpse_detail": "https://pse.komdigi.go.id/tdpse-detail/20751",
            "website": "nusantaranews88.com"
        },
        {
            "id": "9d396c1c-1d91-41ca-9252-3850966540bc",
            "nama_pse": "INILAH KABAR NUSANTARA",
            "nama_se": "inilahkabarnusantara.com",
            "sektor": "Sektor Teknologi Informasi dan Komunikasi",
            "tanggal_terbit": "2024-10-12",
            "url_tdpse_detail": "https://pse.komdigi.go.id/tdpse-detail/20745",
            "website": "inilahkabarnusantara.com"
        },
        {
            "id": "9d37dcf7-3b2b-45bf-8384-a6f7b366b330",
            "nama_pse": "PANASONIC GOBEL LIFE SOLUTIONS SALES INDONESIA",
            "nama_se": "PT PANASONIC GOBEL LIFE SOLUTIONS SALES INDONESIA",
            "sektor": "Sektor Perdagangan",
            "tanggal_terbit": "2024-10-11",
            "url_tdpse_detail": "https://pse.komdigi.go.id/tdpse-detail/20738",
            "website": "panasonic.net"
        },
        {
            "id": "9d379a33-4f5b-4454-b7b6-f2e702d2a55c",
            "nama_pse": "IWAN SETIAWAN",
            "nama_se": "LAYANAN INTERNET LOKAL (RT RW NET)",
            "sektor": "Sektor Teknologi Informasi dan Komunikasi",
            "tanggal_terbit": "2024-10-11",
            "url_tdpse_detail": "https://pse.komdigi.go.id/tdpse-detail/20735",
            "website": "-"
        },
        {
            "id": "9d37c48f-e841-43ef-8a91-486f9190e7d2",
            "nama_pse": "DESTINASI COMPUTINDO",
            "nama_se": "DESTINASI KLINIK",
            "sektor": "Sektor Teknologi Informasi dan Komunikasi",
            "tanggal_terbit": "2024-10-11",
            "url_tdpse_detail": "https://pse.komdigi.go.id/tdpse-detail/20737",
            "website": "destinasiklinik.id"
        },
        {
            "id": "9d3750c3-cbb0-4e80-859f-bfd68f5953c5",
            "nama_pse": "KANG SAGALA ENDAH",
            "nama_se": "KANG CONVERT",
            "sektor": "Sektor Perdagangan",
            "tanggal_terbit": "2024-10-11",
            "url_tdpse_detail": "https://pse.komdigi.go.id/tdpse-detail/20730",
            "website": "kangconvert.com"
        },
        {
            "id": "9d379902-25a9-4509-8951-40cd18c117a3",
            "nama_pse": "BAHASA KINERJA UTAMA",
            "nama_se": "STETHOSOUL",
            "sektor": "Sektor Kesehatan, Sektor Teknologi Informasi dan Komunikasi",
            "tanggal_terbit": "2024-10-11",
            "url_tdpse_detail": "https://pse.komdigi.go.id/tdpse-detail/20734",
            "website": "stethosoul.id"
        },
        {
            "id": "9d376ace-501c-400b-adc5-7aa0ddc34aef",
            "nama_pse": "BANK NANO SYARIAH",
            "nama_se": "AIRA E-BIZBANKING",
            "sektor": "Sektor Keuangan",
            "tanggal_terbit": "2024-10-11",
            "url_tdpse_detail": "https://pse.komdigi.go.id/tdpse-detail/20731",
            "website": "-"
        },
        {
            "id": "9d376da7-eaeb-4062-92dc-17a97f239148",
            "nama_pse": "APPLEDORE MGILANGJANUAR LAB",
            "nama_se": "AUTOBACKLINK",
            "sektor": "Sektor Teknologi Informasi dan Komunikasi",
            "tanggal_terbit": "2024-10-11",
            "url_tdpse_detail": "https://pse.komdigi.go.id/tdpse-detail/20732",
            "website": "autoback.link"
        },
        {
            "id": "9d37e39f-55ba-4bfc-9cdd-8e652164fe53",
            "nama_pse": "ABHAYA EKA ASTITI",
            "nama_se": "AEAMEDCLINIC3",
            "sektor": "Sektor Kesehatan",
            "tanggal_terbit": "2024-10-11",
            "url_tdpse_detail": "https://pse.komdigi.go.id/tdpse-detail/20740",
            "website": "-"
        },
        {
            "id": "9d379b3b-d48b-407f-ac3f-3adfeb1b96bb",
            "nama_pse": "KITA DIGDAYA SELAMANYA",
            "nama_se": "KITA DIGDAYA SELAMANYA",
            "sektor": "Sektor Perdagangan",
            "tanggal_terbit": "2024-10-11",
            "url_tdpse_detail": "https://pse.komdigi.go.id/tdpse-detail/20736",
            "website": "kdsoffice.com"
        },
        {
            "id": "9d3774f3-5ec6-4243-b067-01d40549d3b7",
            "nama_pse": "MENTARI DANA SOLUSI",
            "nama_se": "MODESOFI",
            "sektor": "Sektor Perdagangan",
            "tanggal_terbit": "2024-10-11",
            "url_tdpse_detail": "https://pse.komdigi.go.id/tdpse-detail/20733",
            "website": "modesofi.com"
        },
        {
            "id": "9d37dfeb-3d0b-4148-9bae-2c4469bf25c2",
            "nama_pse": "SBCS INDONESIA",
            "nama_se": "WEBSITE PT SBCS INDONESIA",
            "sektor": "Sektor Teknologi Informasi dan Komunikasi",
            "tanggal_terbit": "2024-10-11",
            "url_tdpse_detail": "https://pse.komdigi.go.id/tdpse-detail/20739",
            "website": "sbcs.co.id"
        },
        {
            "id": "9d37e837-123b-4ac6-8333-b94b3c79d47f",
            "nama_pse": "VEXA DIGITAL SOLUTIONS",
            "nama_se": "VEXA DIGITAL SOLUTIONS",
            "sektor": "Sektor Perdagangan",
            "tanggal_terbit": "2024-10-11",
            "url_tdpse_detail": "https://pse.komdigi.go.id/tdpse-detail/20741",
            "website": "vexagame.com"
        },
        {
            "id": "9d383361-8867-4c0a-b6d9-07607f0cd388",
            "nama_pse": "ECHA PERMATA SOLUTION",
            "nama_se": "PT. ECHA PERMATA SOLUTION",
            "sektor": "Sektor Perdagangan, Sektor Teknologi Informasi dan Komunikasi",
            "tanggal_terbit": "2024-10-11",
            "url_tdpse_detail": "https://pse.komdigi.go.id/tdpse-detail/20743",
            "website": "echasolution.my.id"
        },
        {
            "id": "9d37e846-5b70-4e3b-a06b-e658ea33c344",
            "nama_pse": "IZUL JAYA SOLUTION",
            "nama_se": "PT. IZUL JAYA SOLUTION",
            "sektor": "Sektor Perdagangan, Sektor Teknologi Informasi dan Komunikasi",
            "tanggal_terbit": "2024-10-11",
            "url_tdpse_detail": "https://pse.komdigi.go.id/tdpse-detail/20742",
            "website": "izulsolution.my.id"
        },
        {
            "id": "9d358a26-f14a-47e9-ac07-3385cf281d1e",
            "nama_pse": "WAHANA MAKMUR SEJATI",
            "nama_se": "WANDA FLP",
            "sektor": "Sektor Teknologi Informasi dan Komunikasi",
            "tanggal_terbit": "2024-10-10",
            "url_tdpse_detail": "https://pse.komdigi.go.id/tdpse-detail/20716",
            "website": "wanda-flp.wahanaartha.com"
        },
        {
            "id": "9d36171a-32f4-4e59-ab82-415b49433101",
            "nama_pse": "DIGITAL ALFA TEKNOLOGI ASIA",
            "nama_se": "RECOM - FIXED ASSET MANAGEMENT \u0026 TRACKING SYSTEM",
            "sektor": "Sektor Teknologi Informasi dan Komunikasi",
            "tanggal_terbit": "2024-10-10",
            "url_tdpse_detail": "https://pse.komdigi.go.id/tdpse-detail/20728",
            "website": "recom-at.com"
        },
        {
            "id": "9d359a92-1c48-4f24-8c64-c2650616cc11",
            "nama_pse": "WAHANA MAKMUR SEJATI",
            "nama_se": "WANDA DMS AHASS",
            "sektor": "Sektor Teknologi Informasi dan Komunikasi",
            "tanggal_terbit": "2024-10-10",
            "url_tdpse_detail": "https://pse.komdigi.go.id/tdpse-detail/20720",
            "website": "wanda-ahass.wahanaartha.com"
        },
        {
            "id": "9d35c51d-3f64-4ddf-90e1-a1d715e4deef",
            "nama_pse": "NAN DARMA KANIGARA",
            "nama_se": "POOLAPACK",
            "sektor": "Sektor Perdagangan, Sektor Teknologi Informasi dan Komunikasi",
            "tanggal_terbit": "2024-10-10",
            "url_tdpse_detail": "https://pse.komdigi.go.id/tdpse-detail/20722",
            "website": "poolapack.co.id"
        },
        {
            "id": "9d35970f-2b54-4bf1-918c-37dd83730df7",
            "nama_pse": "WAHANA MAKMUR SEJATI",
            "nama_se": "WANDA DMS DEALER",
            "sektor": "Sektor Teknologi Informasi dan Komunikasi",
            "tanggal_terbit": "2024-10-10",
            "url_tdpse_detail": "https://pse.komdigi.go.id/tdpse-detail/20718",
            "website": "wanda-dealer.wahanaartha.com"
        }
    ],
    "processingTimeMs": 2,
    "query": "",
    "totalHits": 19131,
    "hitsPerPage": 50,
    "page": 33,
    "totalPages": 383
}