{
    "hits": [
        {
            "id": "9cb1ab89-74f2-4801-9cff-14ceae4f40c2",
            "nama_pse": "D' FAMILY TECHNOLOGY",
            "nama_se": "CV DFAMILY TECHNOLOGY",
            "sektor": "Sektor Teknologi Informasi dan Komunikasi, Sektor Teknologi Informasi dan Komunikasi",
            "tanggal_terbit": "2021-12-26",
            "url_tdpse_detail": "https://pse.komdigi.go.id/tdpse-detail/2881",
            "website": "-"
        },
        {
            "id": "9cb1ab89-786a-47c8-aab1-3dcbe771e4d1",
            "nama_pse": "D' FAMILY TECHNOLOGY",
            "nama_se": "AKTIVITAS PENGOLAHAN DATA CV DFAMILY TECHNOLOGY",
            "sektor": "Sektor Teknologi Informasi dan Komunikasi, Sektor Teknologi Informasi dan Komunikasi",
            "tanggal_terbit": "2021-12-26",
            "url_tdpse_detail": "https://pse.komdigi.go.id/tdpse-detail/2882",
            "website": "-"
        },
        {
            "id": "9cb1ab81-652d-4498-9b77-c44c34d4d047",
            "nama_pse": "D' FAMILY TECHNOLOGY",
            "nama_se": "JASA KONTEN SMS PREMIUM CV DFAMILY TECHNOLOGY",
            "sektor": "Sektor Teknologi Informasi dan Komunikasi, Sektor Teknologi Informasi dan Komunikasi",
            "tanggal_terbit": "2021-12-26",
            "url_tdpse_detail": "https://pse.komdigi.go.id/tdpse-detail/2883",
            "website": "-"
        },
        {
            "id": "9cb1ab79-a777-41d5-b523-776656f1cf55",
            "nama_pse": "D' FAMILY TECHNOLOGY",
            "nama_se": "AKTIVITAS KONSULTASI KOMPUTER",
            "sektor": "Sektor Teknologi Informasi dan Komunikasi, Sektor Teknologi Informasi dan Komunikasi",
            "tanggal_terbit": "2021-12-26",
            "url_tdpse_detail": "https://pse.komdigi.go.id/tdpse-detail/2884",
            "website": "-"
        },
        {
            "id": "9cb1ab7e-40ca-4fce-87a6-562579316e64",
            "nama_pse": "MOCHAMAD IWAN SETIYAWAN",
            "nama_se": "VENTA COMPUTINDI",
            "sektor": "Sektor Perdagangan, Sektor Perdagangan, Sektor Teknologi Informasi dan Komunikasi, Sektor Teknologi Informasi dan Komunikasi",
            "tanggal_terbit": "2021-12-26",
            "url_tdpse_detail": "https://pse.komdigi.go.id/tdpse-detail/2879",
            "website": "-"
        },
        {
            "id": "9cb1ab79-354f-4a6e-a6e2-6585d819153f",
            "nama_pse": "TEKNOLOGI KITA SEJAHTERA",
            "nama_se": "EKSIST",
            "sektor": "Sektor Perdagangan, Sektor Perdagangan, Sektor Teknologi Informasi dan Komunikasi, Sektor Teknologi Informasi dan Komunikasi",
            "tanggal_terbit": "2021-12-25",
            "url_tdpse_detail": "https://pse.komdigi.go.id/tdpse-detail/2878",
            "website": "eksist.id"
        },
        {
            "id": "9cb1ab79-9995-41e5-ba44-9ea098b72c89",
            "nama_pse": "PANACEA TECHNOLOGY INDONESIA",
            "nama_se": "WWW.PTPANACEA.ID",
            "sektor": "Sektor Teknologi Informasi dan Komunikasi, Sektor Teknologi Informasi dan Komunikasi",
            "tanggal_terbit": "2021-12-25",
            "url_tdpse_detail": "https://pse.komdigi.go.id/tdpse-detail/2876",
            "website": "ptpanacea.id"
        },
        {
            "id": "9cb1ab89-7090-4ecb-882a-ed3d1dcd35e2",
            "nama_pse": "OXYGEN TECHNOLOGY INDONESIA",
            "nama_se": "WWW.PTOXYGEN.ID",
            "sektor": "Sektor Teknologi Informasi dan Komunikasi, Sektor Teknologi Informasi dan Komunikasi",
            "tanggal_terbit": "2021-12-25",
            "url_tdpse_detail": "https://pse.komdigi.go.id/tdpse-detail/2877",
            "website": "ptoxygen.id"
        },
        {
            "id": "9cb1ab65-0c5f-4049-9823-ea95e341da8b",
            "nama_pse": "SRC INDONESIA SEMBILAN",
            "nama_se": "MY AYO BY SRC",
            "sektor": "Sektor Perdagangan, Sektor Perdagangan, Sektor Perdagangan",
            "tanggal_terbit": "2021-12-24",
            "url_tdpse_detail": "https://pse.komdigi.go.id/tdpse-detail/2875",
            "website": "-"
        },
        {
            "id": "9cb1ab70-9320-48d1-b09b-4830ec25c245",
            "nama_pse": "SENTRA TEKNOLEGAL INDONESIA",
            "nama_se": "WWW.LEGALSPACE.ID",
            "sektor": "Sektor Teknologi Informasi dan Komunikasi, Sektor Teknologi Informasi dan Komunikasi",
            "tanggal_terbit": "2021-12-24",
            "url_tdpse_detail": "https://pse.komdigi.go.id/tdpse-detail/2872",
            "website": "legalspace.id"
        },
        {
            "id": "9cb1ab70-c9df-43e4-bd26-47080a22866d",
            "nama_pse": "PRINTEROUS GLOBAL",
            "nama_se": "PRINTEROUS",
            "sektor": "Sektor Perdagangan, Sektor Perdagangan",
            "tanggal_terbit": "2021-12-24",
            "url_tdpse_detail": "https://pse.komdigi.go.id/tdpse-detail/2870",
            "website": "printerous.com"
        },
        {
            "id": "9cb1ab80-f722-4355-ab47-5226c1d1c924",
            "nama_pse": "MYVENUS NETWORK INDONESIA",
            "nama_se": "MY VENUS",
            "sektor": "Sektor Kesehatan, Sektor Kesehatan, Sektor Kesehatan",
            "tanggal_terbit": "2021-12-24",
            "url_tdpse_detail": "https://pse.komdigi.go.id/tdpse-detail/2874",
            "website": "myvenus.co.id"
        },
        {
            "id": "9cb1ab81-36f7-4a6b-94e7-f3ac6326077c",
            "nama_pse": "SURYA CLOUD TECHNOLOGY",
            "nama_se": "JOBPEDIA",
            "sektor": "Sektor Teknologi Informasi dan Komunikasi, Sektor Teknologi Informasi dan Komunikasi",
            "tanggal_terbit": "2021-12-24",
            "url_tdpse_detail": "https://pse.komdigi.go.id/tdpse-detail/2867",
            "website": "jobpedia.co.id"
        },
        {
            "id": "9cb1ab81-399d-4de8-a2b5-20796c0a847e",
            "nama_pse": "SURYA CLOUD TECHNOLOGY",
            "nama_se": "ADLINK.ID - SHORTEN URLS AND EARN MONEY",
            "sektor": "Sektor Teknologi Informasi dan Komunikasi, Sektor Teknologi Informasi dan Komunikasi",
            "tanggal_terbit": "2021-12-24",
            "url_tdpse_detail": "https://pse.komdigi.go.id/tdpse-detail/2868",
            "website": "adlink.id"
        },
        {
            "id": "9cb1ab81-5d0b-455a-9c1d-d757f01e9a19",
            "nama_pse": "VATAR MEDIA RAYA",
            "nama_se": "MEDIV",
            "sektor": "Sektor Perdagangan, Sektor Perdagangan",
            "tanggal_terbit": "2021-12-24",
            "url_tdpse_detail": "https://pse.komdigi.go.id/tdpse-detail/2873",
            "website": "-"
        },
        {
            "id": "9cb1ab79-9ce7-4585-b77c-7519e3b7e416",
            "nama_pse": "GLOBAL GAME INTERNUSA",
            "nama_se": "BATGAME",
            "sektor": "Sektor Teknologi Informasi dan Komunikasi, Sektor Teknologi Informasi dan Komunikasi",
            "tanggal_terbit": "2021-12-24",
            "url_tdpse_detail": "https://pse.komdigi.go.id/tdpse-detail/2871",
            "website": "batgame.id"
        },
        {
            "id": "9cb1ab7c-c0bd-4e0c-b49c-1a96e45746f1",
            "nama_pse": "LKP Master Course",
            "nama_se": "MASTER COURSE",
            "sektor": "Sektor Perdagangan, Sektor Perdagangan, Sektor Teknologi Informasi dan Komunikasi, Sektor Teknologi Informasi dan Komunikasi",
            "tanggal_terbit": "2021-12-24",
            "url_tdpse_detail": "https://pse.komdigi.go.id/tdpse-detail/2869",
            "website": "mastercourse.ac.id"
        },
        {
            "id": "9cb1ab64-7b9b-4db7-8ea5-e2d82b31e79e",
            "nama_pse": "MITRA EDUKASI NUSANTARA",
            "nama_se": "TOKOGRAMEDIA",
            "sektor": "Sektor Perdagangan, Sektor Perdagangan",
            "tanggal_terbit": "2021-12-23",
            "url_tdpse_detail": "https://pse.komdigi.go.id/tdpse-detail/2861",
            "website": "tokogramedia.com"
        },
        {
            "id": "9cb1ab65-612d-4e1c-96b3-d19aab734a4d",
            "nama_pse": "PINVA FINANSIAL TEKNOLOGI",
            "nama_se": "PINVA",
            "sektor": "Sektor Keuangan, Sektor Keuangan, Sektor Teknologi Informasi dan Komunikasi, Sektor Teknologi Informasi dan Komunikasi",
            "tanggal_terbit": "2021-12-23",
            "url_tdpse_detail": "https://pse.komdigi.go.id/tdpse-detail/2865",
            "website": "PINVA.ID"
        },
        {
            "id": "9cb1ab74-4f21-4ac1-b559-487908e9220d",
            "nama_pse": "BANK PEREKONOMIAN RAKYAT SURYA YUDHAKENCANA",
            "nama_se": "ATM ISSUER",
            "sektor": "Sektor Teknologi Informasi dan Komunikasi, Sektor Teknologi Informasi dan Komunikasi",
            "tanggal_terbit": "2021-12-23",
            "url_tdpse_detail": "https://pse.komdigi.go.id/tdpse-detail/2862",
            "website": "suryayudha.id"
        },
        {
            "id": "9cb1ab77-c8c4-4673-b7b1-623d2d6b87b6",
            "nama_pse": "AGROBISNIS BANTEN MANDIRI",
            "nama_se": "PLAZABANTEN",
            "sektor": "Sektor Perdagangan, Sektor Perdagangan",
            "tanggal_terbit": "2021-12-23",
            "url_tdpse_detail": "https://pse.komdigi.go.id/tdpse-detail/2864",
            "website": "plazabanten.com"
        },
        {
            "id": "9cb1ab79-92bc-49a6-8654-639c777d284c",
            "nama_pse": "TIGA DAYA DIGITAL INDONESIA",
            "nama_se": "MEDAPP (MEDICAL APPOINTMENT)",
            "sektor": "Sektor Kesehatan, Sektor Kesehatan, Sektor Teknologi Informasi dan Komunikasi, Sektor Teknologi Informasi dan Komunikasi",
            "tanggal_terbit": "2021-12-23",
            "url_tdpse_detail": "https://pse.komdigi.go.id/tdpse-detail/2866",
            "website": "-"
        },
        {
            "id": "9cb1ab89-6668-40bc-9032-7184ce5a94e2",
            "nama_pse": "JENDELA PRIMA INDONESIA",
            "nama_se": "MILI",
            "sektor": "Sektor Perdagangan, Sektor Perdagangan",
            "tanggal_terbit": "2021-12-23",
            "url_tdpse_detail": "https://pse.komdigi.go.id/tdpse-detail/2863",
            "website": "mymili.id"
        },
        {
            "id": "9cb1ab6b-626e-45af-8d5d-0e5067ac3a6c",
            "nama_pse": "BANK CENTRAL ASIA",
            "nama_se": "APLIKASI KEYBCA (SOFT TOKEN)",
            "sektor": "Sektor Keuangan, Sektor Keuangan, Sektor Keuangan",
            "tanggal_terbit": "2021-12-22",
            "url_tdpse_detail": "https://pse.komdigi.go.id/tdpse-detail/2857",
            "website": "-"
        },
        {
            "id": "9cb1ab6f-c321-4272-b584-6bc3cdf1e25e",
            "nama_pse": "KIRIM EMAIL INDONESIA",
            "nama_se": "UTAS",
            "sektor": "Sektor Teknologi Informasi dan Komunikasi, Sektor Teknologi Informasi dan Komunikasi, Sektor Teknologi Informasi dan Komunikasi",
            "tanggal_terbit": "2021-12-22",
            "url_tdpse_detail": "https://pse.komdigi.go.id/tdpse-detail/2849",
            "website": "utas.co"
        },
        {
            "id": "9cb1ab76-e4c7-4d70-9665-7e8980db3ede",
            "nama_pse": "PINTARNYA SOLUSI TEKNOLOGI",
            "nama_se": "PINTAR",
            "sektor": "Sektor Perdagangan, Sektor Perdagangan",
            "tanggal_terbit": "2021-12-22",
            "url_tdpse_detail": "https://pse.komdigi.go.id/tdpse-detail/2848",
            "website": "pintarnya.com"
        },
        {
            "id": "9cb1ab79-27fd-4ecb-870d-dd5aa44f05ac",
            "nama_pse": "SOLUSI ANDALAN KREASI TEKNOLOGI INDONESIA",
            "nama_se": "PT SOLUSI ANDALAN KREASI TEKNOLOGI INDONESIA",
            "sektor": "Sektor Teknologi Informasi dan Komunikasi, Sektor Teknologi Informasi dan Komunikasi",
            "tanggal_terbit": "2021-12-22",
            "url_tdpse_detail": "https://pse.komdigi.go.id/tdpse-detail/2842",
            "website": "-"
        },
        {
            "id": "9cb1ab79-2e9a-4c3d-9957-ff0050b35303",
            "nama_pse": "BUMI TENGUYUN SEJAHTERA",
            "nama_se": "BULUNGAN TV",
            "sektor": "Sektor Teknologi Informasi dan Komunikasi, Sektor Teknologi Informasi dan Komunikasi",
            "tanggal_terbit": "2021-12-22",
            "url_tdpse_detail": "https://pse.komdigi.go.id/tdpse-detail/2855",
            "website": "bulungantv.id"
        },
        {
            "id": "9cb1ab89-18eb-4d4f-9d6e-cdcf6a0fc1e1",
            "nama_pse": "HEMA MEDHAJAYA",
            "nama_se": "WEBSTORE / WEBSITE",
            "sektor": "Sektor Perdagangan, Sektor Perdagangan",
            "tanggal_terbit": "2021-12-22",
            "url_tdpse_detail": "https://pse.komdigi.go.id/tdpse-detail/2840",
            "website": "ns1.niagahoster.com"
        },
        {
            "id": "9cb1ab89-4603-4d6e-98a1-65cc1284a303",
            "nama_pse": "PERUSAHAAN PERSEROAN (PERSERO) PT. BANK TABUNGAN NEGARA",
            "nama_se": "WEBSITE KARTU SUKA SUKA BTN",
            "sektor": "Sektor Keuangan, Sektor Keuangan, Sektor Keuangan, Sektor Keuangan",
            "tanggal_terbit": "2021-12-22",
            "url_tdpse_detail": "https://pse.komdigi.go.id/tdpse-detail/2836",
            "website": "kartusukasuka.btn.co.id"
        },
        {
            "id": "9cb1ab89-4a0b-4f16-ad2e-b184a1ef6bc6",
            "nama_pse": "PERUSAHAAN PERSEROAN (PERSERO) PT. BANK TABUNGAN NEGARA",
            "nama_se": "WEBSITE POIN SPECTA BTN",
            "sektor": "Sektor Keuangan, Sektor Keuangan, Sektor Keuangan, Sektor Keuangan",
            "tanggal_terbit": "2021-12-22",
            "url_tdpse_detail": "https://pse.komdigi.go.id/tdpse-detail/2837",
            "website": "poinspekta.btn.co.id"
        },
        {
            "id": "9cb1ab89-4c4b-4996-b6fa-6f5749423096",
            "nama_pse": "PERUSAHAAN PERSEROAN (PERSERO) PT. BANK TABUNGAN NEGARA",
            "nama_se": "BTN CREDIT CARD MOBILE",
            "sektor": "Sektor Keuangan, Sektor Keuangan, Sektor Keuangan, Sektor Keuangan",
            "tanggal_terbit": "2021-12-22",
            "url_tdpse_detail": "https://pse.komdigi.go.id/tdpse-detail/2838",
            "website": "-"
        },
        {
            "id": "9cb1ab81-2993-4dc9-9b0e-42545965d601",
            "nama_pse": "PERUSAHAAN PERSEROAN (PERSERO) PT. BANK TABUNGAN NEGARA",
            "nama_se": "BTN PROPERTI MOBILE",
            "sektor": "Sektor Keuangan, Sektor Keuangan, Sektor Keuangan, Sektor Keuangan",
            "tanggal_terbit": "2021-12-22",
            "url_tdpse_detail": "https://pse.komdigi.go.id/tdpse-detail/2839",
            "website": "-"
        },
        {
            "id": "9cb1ab89-4ebc-4212-b4b0-e851621c05d9",
            "nama_pse": "PERUSAHAAN PERSEROAN (PERSERO) PT. BANK TABUNGAN NEGARA",
            "nama_se": "BTN SMART RESIDENCE",
            "sektor": "Sektor Keuangan, Sektor Keuangan, Sektor Keuangan, Sektor Keuangan",
            "tanggal_terbit": "2021-12-22",
            "url_tdpse_detail": "https://pse.komdigi.go.id/tdpse-detail/2841",
            "website": "-"
        },
        {
            "id": "9cb1ab79-58a0-4bf2-b1a6-3086830af72b",
            "nama_pse": "PERUSAHAAN PERSEROAN (PERSERO) PT. BANK TABUNGAN NEGARA",
            "nama_se": "BTN MOBILE TOKEN",
            "sektor": "Sektor Keuangan, Sektor Keuangan, Sektor Keuangan, Sektor Keuangan",
            "tanggal_terbit": "2021-12-22",
            "url_tdpse_detail": "https://pse.komdigi.go.id/tdpse-detail/2850",
            "website": "-"
        },
        {
            "id": "9cb1ab79-5bf4-4601-ae1e-913d9ee86cda",
            "nama_pse": "PERUSAHAAN PERSEROAN (PERSERO) PT. BANK TABUNGAN NEGARA",
            "nama_se": "BTN VIRTUAL WEB BRANCH",
            "sektor": "Sektor Keuangan, Sektor Keuangan, Sektor Keuangan, Sektor Keuangan",
            "tanggal_terbit": "2021-12-22",
            "url_tdpse_detail": "https://pse.komdigi.go.id/tdpse-detail/2852",
            "website": "virtualbranch.btn.co.id"
        },
        {
            "id": "9cb1ab81-2bda-4254-b7d3-5b348880f039",
            "nama_pse": "PERUSAHAAN PERSEROAN (PERSERO) PT. BANK TABUNGAN NEGARA",
            "nama_se": "BTN ONLINE OPEN ACCOUNT",
            "sektor": "Sektor Keuangan, Sektor Keuangan, Sektor Keuangan, Sektor Keuangan",
            "tanggal_terbit": "2021-12-22",
            "url_tdpse_detail": "https://pse.komdigi.go.id/tdpse-detail/2853",
            "website": "virtualbranch.btn.co.id/open-account"
        },
        {
            "id": "9cb1ab89-50f6-4209-97ef-0b0d0e127dd3",
            "nama_pse": "PERUSAHAAN PERSEROAN (PERSERO) PT. BANK TABUNGAN NEGARA",
            "nama_se": "WEBSITE BTN PRIORITAS",
            "sektor": "Sektor Keuangan, Sektor Keuangan, Sektor Keuangan, Sektor Keuangan",
            "tanggal_terbit": "2021-12-22",
            "url_tdpse_detail": "https://pse.komdigi.go.id/tdpse-detail/2854",
            "website": "btnprioritas.btn.co.id"
        },
        {
            "id": "9cb1ab79-7dc9-405c-a08b-87884b5bad2e",
            "nama_pse": "DATA ANDALAN UTAMA",
            "nama_se": "DATA UTAMA",
            "sektor": "Sektor Teknologi Informasi dan Komunikasi, Sektor Teknologi Informasi dan Komunikasi",
            "tanggal_terbit": "2021-12-22",
            "url_tdpse_detail": "https://pse.komdigi.go.id/tdpse-detail/2835",
            "website": "datautama.com"
        },
        {
            "id": "9cb1ab79-8c71-431f-bb81-7b1cfdab6ca1",
            "nama_pse": "AWADAH AKAR MIMPI",
            "nama_se": "TOKO AWADAH",
            "sektor": "Sektor Perdagangan, Sektor Perdagangan",
            "tanggal_terbit": "2021-12-22",
            "url_tdpse_detail": "https://pse.komdigi.go.id/tdpse-detail/2858",
            "website": "-"
        },
        {
            "id": "9cb1ab89-5dfe-4340-a14d-c6086729b625",
            "nama_pse": "SAEBO TECH NOLOGY",
            "nama_se": "SAEBO TECHNOLOGY",
            "sektor": "Sektor Teknologi Informasi dan Komunikasi, Sektor Teknologi Informasi dan Komunikasi",
            "tanggal_terbit": "2021-12-22",
            "url_tdpse_detail": "https://pse.komdigi.go.id/tdpse-detail/2843",
            "website": "saebo.technology/"
        },
        {
            "id": "9cb1ab81-51ee-4253-a7ff-52508a7e5402",
            "nama_pse": "APLIKASI TRISNA SEJATI",
            "nama_se": "MARURAH",
            "sektor": "Sektor Perdagangan, Sektor Perdagangan, Sektor Perdagangan, Sektor Teknologi Informasi dan Komunikasi, Sektor Teknologi Informasi dan Komunikasi, Sektor Teknologi Informasi dan Komunikasi",
            "tanggal_terbit": "2021-12-22",
            "url_tdpse_detail": "https://pse.komdigi.go.id/tdpse-detail/2846",
            "website": "-"
        },
        {
            "id": "9cb1ab81-560c-44d8-9fc8-8e57d4c023b9",
            "nama_pse": "SIMPATI",
            "nama_se": "NUSANTARA",
            "sektor": "Sektor Perdagangan, Sektor Perdagangan",
            "tanggal_terbit": "2021-12-22",
            "url_tdpse_detail": "https://pse.komdigi.go.id/tdpse-detail/2851",
            "website": "tokokasur.com"
        },
        {
            "id": "9cb1ab89-6053-446a-b5d9-b1b983fca266",
            "nama_pse": "KONSUMEN MITRA BINA JAYA BERDIKARI",
            "nama_se": "MBJB MOBILE",
            "sektor": "Sektor Keuangan, Sektor Keuangan",
            "tanggal_terbit": "2021-12-22",
            "url_tdpse_detail": "https://pse.komdigi.go.id/tdpse-detail/2856",
            "website": "mitrabjb.id"
        },
        {
            "id": "9cb1ab89-6310-4c2b-9403-d26acb791fc0",
            "nama_pse": "VATAR MEDIA RAYA",
            "nama_se": "DAV",
            "sektor": "Sektor Perdagangan, Sektor Perdagangan",
            "tanggal_terbit": "2021-12-22",
            "url_tdpse_detail": "https://pse.komdigi.go.id/tdpse-detail/2859",
            "website": "-"
        },
        {
            "id": "9cb1ab7b-d7a9-4819-9e6c-d1d2293ad680",
            "nama_pse": "AVODAH ROYAL MULIA",
            "nama_se": "MAUBELAJARAPA.COM",
            "sektor": "Sektor Teknologi Informasi dan Komunikasi, Sektor Teknologi Informasi dan Komunikasi",
            "tanggal_terbit": "2021-12-22",
            "url_tdpse_detail": "https://pse.komdigi.go.id/tdpse-detail/2844",
            "website": "maubelajarapa.com"
        },
        {
            "id": "9cb1ab8d-54d3-432d-923b-961586b35bb7",
            "nama_pse": "ARE TEKNOLOGI KREASI",
            "nama_se": "AR\u0026CO",
            "sektor": "Sektor Perdagangan, Sektor Perdagangan",
            "tanggal_terbit": "2021-12-22",
            "url_tdpse_detail": "https://pse.komdigi.go.id/tdpse-detail/2860",
            "website": "ar-innovation.com"
        },
        {
            "id": "9cb1ab88-722b-4e3f-bc65-f0b457775142",
            "nama_pse": "TIGA AKAR MIMPI",
            "nama_se": "MINDSTORES",
            "sektor": "Sektor Perdagangan, Sektor Perdagangan",
            "tanggal_terbit": "2021-12-21",
            "url_tdpse_detail": "https://pse.komdigi.go.id/tdpse-detail/2832",
            "website": "mymindstores.com"
        },
        {
            "id": "9cb1ab88-a94d-4f37-b0af-41d0ed8dfd4f",
            "nama_pse": "ELITE PERMAI METAL WORKS",
            "nama_se": "ELITE PERMAI SHOP",
            "sektor": "Sektor Perdagangan, Sektor Perdagangan",
            "tanggal_terbit": "2021-12-21",
            "url_tdpse_detail": "https://pse.komdigi.go.id/tdpse-detail/2827",
            "website": "elitepermaishop.com"
        },
        {
            "id": "9cb1ab80-ef14-4cd3-9ed1-63013e10e08b",
            "nama_pse": "MITRA ERA TEKNOLOGI",
            "nama_se": "EMET",
            "sektor": "Sektor Teknologi Informasi dan Komunikasi, Sektor Teknologi Informasi dan Komunikasi",
            "tanggal_terbit": "2021-12-21",
            "url_tdpse_detail": "https://pse.komdigi.go.id/tdpse-detail/2820",
            "website": "emet.id"
        }
    ],
    "processingTimeMs": 9,
    "query": "",
    "totalHits": 19131,
    "hitsPerPage": 50,
    "page": 329,
    "totalPages": 383
}