{
    "hits": [
        {
            "id": "9dc4d6c9-b1aa-47fe-8197-a3ddf88b966d",
            "nama_pse": "HOOPI TEKNOLOGI INDONESIA",
            "nama_se": "HOOPI WEBSITE",
            "sektor": "Sektor Teknologi Informasi dan Komunikasi",
            "tanggal_terbit": "2024-12-20",
            "url_tdpse_detail": "https://pse.komdigi.go.id/tdpse-detail/21878",
            "website": "hoopi.xyz"
        },
        {
            "id": "9dc3d3db-fc40-4640-98a5-2f3bb3504994",
            "nama_pse": "TEKNO HARMONI DIGITAL",
            "nama_se": "harmodig",
            "sektor": "Sektor Perdagangan, Sektor Teknologi Informasi dan Komunikasi",
            "tanggal_terbit": "2024-12-20",
            "url_tdpse_detail": "https://pse.komdigi.go.id/tdpse-detail/21865",
            "website": "harmodig.biz.id"
        },
        {
            "id": "9dc426fc-be99-4098-95ba-8a5d4abcac9b",
            "nama_pse": "JARINGAN MEDIA PRIANGAN",
            "nama_se": "PT JARINGAN MEDIA PRIANGAN",
            "sektor": "Sektor Teknologi Informasi dan Komunikasi",
            "tanggal_terbit": "2024-12-20",
            "url_tdpse_detail": "https://pse.komdigi.go.id/tdpse-detail/21867",
            "website": "-"
        },
        {
            "id": "9dc42850-a97d-462a-abeb-8b3c05a55578",
            "nama_pse": "LIPPO GENERAL INSURANCE",
            "nama_se": "MYGO+",
            "sektor": "Sektor Keuangan",
            "tanggal_terbit": "2024-12-20",
            "url_tdpse_detail": "https://pse.komdigi.go.id/tdpse-detail/21868",
            "website": "-"
        },
        {
            "id": "9dc42eba-b200-4248-a286-c62f1e5bd75f",
            "nama_pse": "AHMAD EFENDI",
            "nama_se": "JARINGAN RT RW NET",
            "sektor": "Sektor Teknologi Informasi dan Komunikasi",
            "tanggal_terbit": "2024-12-20",
            "url_tdpse_detail": "https://pse.komdigi.go.id/tdpse-detail/21869",
            "website": "-"
        },
        {
            "id": "9dc44916-3080-4673-b854-60787b4d07f6",
            "nama_pse": "KONSEP INOVASI MARVEL",
            "nama_se": "YAPOS",
            "sektor": "Sektor Teknologi Informasi dan Komunikasi",
            "tanggal_terbit": "2024-12-20",
            "url_tdpse_detail": "https://pse.komdigi.go.id/tdpse-detail/21871",
            "website": "yapos.id"
        },
        {
            "id": "9dc49d99-453a-46e5-9ed1-8dac72014893",
            "nama_pse": "ALIFSMART MULIA SEJAHTERA",
            "nama_se": "ALIFSMART",
            "sektor": "Sektor Perdagangan, Sektor Teknologi Informasi dan Komunikasi, Sektor Pangan",
            "tanggal_terbit": "2024-12-20",
            "url_tdpse_detail": "https://pse.komdigi.go.id/tdpse-detail/21873",
            "website": "alifsmart.co.id"
        },
        {
            "id": "9dc4d10e-2bb6-40d2-bc7d-93913ce47d22",
            "nama_pse": "PURI DIGITAL OUTPUT",
            "nama_se": "SISTEM PENGOLAHAN DATA TERINTEGRASI",
            "sektor": "Sektor Teknologi Informasi dan Komunikasi",
            "tanggal_terbit": "2024-12-20",
            "url_tdpse_detail": "https://pse.komdigi.go.id/tdpse-detail/21877",
            "website": "-"
        },
        {
            "id": "9dc53909-2d9d-40e9-9c81-e6e5d0e8a16a",
            "nama_pse": "ZELL ACCES NETWORK",
            "nama_se": "PT ZELL ACCES NETWORK",
            "sektor": "Sektor Teknologi Informasi dan Komunikasi",
            "tanggal_terbit": "2024-12-20",
            "url_tdpse_detail": "https://pse.komdigi.go.id/tdpse-detail/21881",
            "website": "-"
        },
        {
            "id": "9dc442a3-1c17-47d7-ad0c-795c649afed5",
            "nama_pse": "INSPIRASI BISNIS NUSANTARA",
            "nama_se": "APLIKASI HAUS!",
            "sektor": "Sektor Perdagangan",
            "tanggal_terbit": "2024-12-20",
            "url_tdpse_detail": "https://pse.komdigi.go.id/tdpse-detail/21870",
            "website": "-"
        },
        {
            "id": "9dc4c0e0-8180-40c2-8b98-0462d977439c",
            "nama_pse": "GLAFIDSYA RMA GROUP",
            "nama_se": "IMS GLAFIDSYA",
            "sektor": "Sektor Perdagangan, Sektor Kesehatan",
            "tanggal_terbit": "2024-12-20",
            "url_tdpse_detail": "https://pse.komdigi.go.id/tdpse-detail/21875",
            "website": "glafidsyamedika.com"
        },
        {
            "id": "9dc4f7d2-c101-4c02-b47f-b5ed7b98b389",
            "nama_pse": "HYPEFAST KARYA NUSANTARA",
            "nama_se": "KOZE INDONESIA",
            "sektor": "Sektor Perdagangan",
            "tanggal_terbit": "2024-12-20",
            "url_tdpse_detail": "https://pse.komdigi.go.id/tdpse-detail/21879",
            "website": "kozeid.com"
        },
        {
            "id": "9dc52006-4a76-4619-9876-fddc9c480a23",
            "nama_pse": "MEDIA MENTAYA MANDIRI",
            "nama_se": "mentayapos.co.id",
            "sektor": "Sektor Teknologi Informasi dan Komunikasi",
            "tanggal_terbit": "2024-12-20",
            "url_tdpse_detail": "https://pse.komdigi.go.id/tdpse-detail/21880",
            "website": "mentayapos.co.id"
        },
        {
            "id": "9dc229f3-a3cc-4e91-a3bd-7145922af24d",
            "nama_pse": "PCMEDIA INDO ACCESS",
            "nama_se": "PT PCMEDIA INDO ACCESS",
            "sektor": "Sektor Teknologi Informasi dan Komunikasi",
            "tanggal_terbit": "2024-12-19",
            "url_tdpse_detail": "https://pse.komdigi.go.id/tdpse-detail/21846",
            "website": "pcmedia.my.id"
        },
        {
            "id": "9dc2934f-502f-465c-bc32-c687130a83fa",
            "nama_pse": "TEPIBOJONEGORO DIGITAL STUDIO",
            "nama_se": "TEPIBOJONEGORO",
            "sektor": "Sektor Teknologi Informasi dan Komunikasi",
            "tanggal_terbit": "2024-12-19",
            "url_tdpse_detail": "https://pse.komdigi.go.id/tdpse-detail/21850",
            "website": "tepibojonegoro.com"
        },
        {
            "id": "9dc31e1a-2fa0-4b2f-8551-c56c41a49f01",
            "nama_pse": "TAP LINK PAY",
            "nama_se": "TAP LINK PAY",
            "sektor": "Sektor Perdagangan",
            "tanggal_terbit": "2024-12-19",
            "url_tdpse_detail": "https://pse.komdigi.go.id/tdpse-detail/21862",
            "website": "taplink.co.id"
        },
        {
            "id": "9dc2af42-efeb-4f81-97e1-86694381104c",
            "nama_pse": "SANDBOX GLOBAL TECH",
            "nama_se": "SGT POS",
            "sektor": "Sektor Teknologi Informasi dan Komunikasi",
            "tanggal_terbit": "2024-12-19",
            "url_tdpse_detail": "https://pse.komdigi.go.id/tdpse-detail/21853",
            "website": "-"
        },
        {
            "id": "9dc261de-1d1f-4cbd-8ce8-b7e44e750b89",
            "nama_pse": "APOTEK TIRTA MANDIRI",
            "nama_se": "APOTEK TIRTA MANDIRI",
            "sektor": "Sektor Kesehatan",
            "tanggal_terbit": "2024-12-19",
            "url_tdpse_detail": "https://pse.komdigi.go.id/tdpse-detail/21849",
            "website": "apotek.tirta.co.id"
        },
        {
            "id": "9dc2e8c4-cd25-4f88-a2bf-28ec7f113eeb",
            "nama_pse": "RADIKA DIGITAL SOLUSINDO",
            "nama_se": "RADISIGN",
            "sektor": "Sektor Teknologi Informasi dan Komunikasi",
            "tanggal_terbit": "2024-12-19",
            "url_tdpse_detail": "https://pse.komdigi.go.id/tdpse-detail/21857",
            "website": "dikadigi.id"
        },
        {
            "id": "9dc2ce1c-574c-4ed8-ae5b-fca76df2be03",
            "nama_pse": "DAYARANUM KARYA BIJAKSANA",
            "nama_se": "ARIF (ATRIUM INFORMASI) BY DAYARANUM",
            "sektor": "Sektor Teknologi Informasi dan Komunikasi",
            "tanggal_terbit": "2024-12-19",
            "url_tdpse_detail": "https://pse.komdigi.go.id/tdpse-detail/21855",
            "website": "dayaranum.id"
        },
        {
            "id": "9dc2d834-f8b3-4589-b270-5c03db0f865e",
            "nama_pse": "ELUCKYGAME TECHNOLOGY ASIA",
            "nama_se": "ELUCKYGAME",
            "sektor": "Sektor Teknologi Informasi dan Komunikasi",
            "tanggal_terbit": "2024-12-19",
            "url_tdpse_detail": "https://pse.komdigi.go.id/tdpse-detail/21856",
            "website": "eluckygame.com"
        },
        {
            "id": "9dc2a287-f860-48cb-9d41-b61ac4d576ee",
            "nama_pse": "RODA EXPRESS SUKSES MANDIRI",
            "nama_se": "PT RODA EXPRESS SUKSES MANDIRI",
            "sektor": "Sektor Perdagangan, Sektor Transportasi",
            "tanggal_terbit": "2024-12-19",
            "url_tdpse_detail": "https://pse.komdigi.go.id/tdpse-detail/21852",
            "website": "rodextrip.com"
        },
        {
            "id": "9dc29f3a-54b0-4761-ba4e-3eab4c4dd9d5",
            "nama_pse": "INDONESIA COMNETS PLUS",
            "nama_se": "MY ICON+",
            "sektor": "Sektor Teknologi Informasi dan Komunikasi",
            "tanggal_terbit": "2024-12-19",
            "url_tdpse_detail": "https://pse.komdigi.go.id/tdpse-detail/21851",
            "website": "-"
        },
        {
            "id": "9dc3113a-2702-4bd6-87fe-302f7bf923e1",
            "nama_pse": "PUTRA BANGSA MUTIARA GLOBAL",
            "nama_se": "PUTRA BANGSA MUTIARA GLOBAL",
            "sektor": "Sektor Perdagangan",
            "tanggal_terbit": "2024-12-19",
            "url_tdpse_detail": "https://pse.komdigi.go.id/tdpse-detail/21861",
            "website": "putrabangsamutiara.com"
        },
        {
            "id": "9dc2523b-ef8f-4927-a324-f6310f650dc4",
            "nama_pse": "FATAHILLAH ANUGERAH NIBRAS",
            "nama_se": "GUDANG ONLINE NIBRAS",
            "sektor": "Sektor Perdagangan",
            "tanggal_terbit": "2024-12-19",
            "url_tdpse_detail": "https://pse.komdigi.go.id/tdpse-detail/21847",
            "website": "gudangonlinenibras.co.id"
        },
        {
            "id": "9dc3047f-a2b9-4765-ac48-0a97f7c170de",
            "nama_pse": "TOKOPEDIA",
            "nama_se": "TOKOPEDIA AND SHOP SELLER CENTER APP",
            "sektor": "Sektor Perdagangan",
            "tanggal_terbit": "2024-12-19",
            "url_tdpse_detail": "https://pse.komdigi.go.id/tdpse-detail/21860",
            "website": "-"
        },
        {
            "id": "9dc33afe-b97a-445d-a9e5-b6c7c4864e64",
            "nama_pse": "TOKOPEDIA",
            "nama_se": "TOKOPEDIA AND SHOP SELLER CENTER",
            "sektor": "Sektor Perdagangan",
            "tanggal_terbit": "2024-12-19",
            "url_tdpse_detail": "https://pse.komdigi.go.id/tdpse-detail/21864",
            "website": "seller-id.tokopedia.com"
        },
        {
            "id": "9dc33466-c076-4458-9720-13e9c7b82e54",
            "nama_pse": "URUSWEB DIGITAL INDONESIA",
            "nama_se": "WEBSITE PENYEDIA LAYANAN JASA PEMBUATAN DAN PENGELOLAAN WEBSITE",
            "sektor": "Sektor Teknologi Informasi dan Komunikasi",
            "tanggal_terbit": "2024-12-19",
            "url_tdpse_detail": "https://pse.komdigi.go.id/tdpse-detail/21863",
            "website": "urusweb.com"
        },
        {
            "id": "9dc2548d-f09d-4be1-a6e9-68f78e582e4e",
            "nama_pse": "TONEKAN NIAT BAIKMU",
            "nama_se": "UMROHIN",
            "sektor": "Sektor Transportasi, Sektor Teknologi Informasi dan Komunikasi",
            "tanggal_terbit": "2024-12-19",
            "url_tdpse_detail": "https://pse.komdigi.go.id/tdpse-detail/21848",
            "website": "umroh.in"
        },
        {
            "id": "9dc2f078-8f4a-45c6-a54c-c287e0969965",
            "nama_pse": "BIZPRO LEGALTECH INTERNATIONAL",
            "nama_se": "LEGAL EDUTECH INTELLECTUAL PROPERTY",
            "sektor": "Sektor Teknologi Informasi dan Komunikasi",
            "tanggal_terbit": "2024-12-19",
            "url_tdpse_detail": "https://pse.komdigi.go.id/tdpse-detail/21858",
            "website": "leip.co.id"
        },
        {
            "id": "9dc2c5ac-bbf6-4cd7-9b52-647c02143306",
            "nama_pse": "DATA SINERGITAMA JAYA",
            "nama_se": "ELITE CLOUD MANAGED SERVICES",
            "sektor": "Sektor Teknologi Informasi dan Komunikasi",
            "tanggal_terbit": "2024-12-19",
            "url_tdpse_detail": "https://pse.komdigi.go.id/tdpse-detail/21854",
            "website": "-"
        },
        {
            "id": "9dc0aca8-f06e-4539-a18e-05141713516c",
            "nama_pse": "GARUDA BASWARA INTERNASIONAL",
            "nama_se": "JOBJEPANG.COM",
            "sektor": "Sektor Teknologi Informasi dan Komunikasi",
            "tanggal_terbit": "2024-12-18",
            "url_tdpse_detail": "https://pse.komdigi.go.id/tdpse-detail/21839",
            "website": "jobjepang.com"
        },
        {
            "id": "9dc06ae7-c1bc-4241-9038-53bd5e7bf2f1",
            "nama_pse": "KUSMANTO NET MEDIA",
            "nama_se": "PT KUSMANTO NET MEDIA",
            "sektor": "Sektor Teknologi Informasi dan Komunikasi",
            "tanggal_terbit": "2024-12-18",
            "url_tdpse_detail": "https://pse.komdigi.go.id/tdpse-detail/21835",
            "website": "-"
        },
        {
            "id": "9dc05fd2-c757-48bc-ad80-90a27e510638",
            "nama_pse": "INFINITY DIGITAL CREATIVE",
            "nama_se": "LEGAZY",
            "sektor": "Sektor Perdagangan, Sektor Teknologi Informasi dan Komunikasi",
            "tanggal_terbit": "2024-12-18",
            "url_tdpse_detail": "https://pse.komdigi.go.id/tdpse-detail/21831",
            "website": "legazy.co.id"
        },
        {
            "id": "9dc0a7ed-34c1-4adb-9903-499ead76b507",
            "nama_pse": "SENTRAL INOVASI RAYA",
            "nama_se": "JOB PORTAL DARING",
            "sektor": "Sektor Teknologi Informasi dan Komunikasi",
            "tanggal_terbit": "2024-12-18",
            "url_tdpse_detail": "https://pse.komdigi.go.id/tdpse-detail/21838",
            "website": "yes.co.id"
        },
        {
            "id": "9dc0706f-719c-4fa4-bece-af0c20f8da50",
            "nama_pse": "NUKRAN",
            "nama_se": "OI WOBO NET",
            "sektor": "Sektor Teknologi Informasi dan Komunikasi",
            "tanggal_terbit": "2024-12-18",
            "url_tdpse_detail": "https://pse.komdigi.go.id/tdpse-detail/21836",
            "website": "-"
        },
        {
            "id": "9dbfee54-14c2-4ed8-b0ba-3f0a13408b5c",
            "nama_pse": "ELMA KURNIA AESTHETIC",
            "nama_se": "SIM ELMASKIN",
            "sektor": "Sektor Kesehatan, Sektor Teknologi Informasi dan Komunikasi",
            "tanggal_terbit": "2024-12-18",
            "url_tdpse_detail": "https://pse.komdigi.go.id/tdpse-detail/21828",
            "website": "elmaskin.id"
        },
        {
            "id": "9dc06137-be29-4f19-89e4-68d74ce0582b",
            "nama_pse": "MUHAMAD NURHUSAENI",
            "nama_se": "AA NET",
            "sektor": "Sektor Teknologi Informasi dan Komunikasi",
            "tanggal_terbit": "2024-12-18",
            "url_tdpse_detail": "https://pse.komdigi.go.id/tdpse-detail/21833",
            "website": "-"
        },
        {
            "id": "9dbfef12-e12f-45c6-9a4e-ca22882ebc23",
            "nama_pse": "ELMA KURNIA AESTHETIC",
            "nama_se": "SIM ELMASKIN",
            "sektor": "Sektor Kesehatan, Sektor Teknologi Informasi dan Komunikasi",
            "tanggal_terbit": "2024-12-18",
            "url_tdpse_detail": "https://pse.komdigi.go.id/tdpse-detail/21829",
            "website": "elmaskin.id"
        },
        {
            "id": "9dc03b18-e2a0-49c8-b4c8-900fd7840af9",
            "nama_pse": "INFORMASI DIGITAL MANDIRI",
            "nama_se": "NIULOVE",
            "sektor": "Sektor Teknologi Informasi dan Komunikasi",
            "tanggal_terbit": "2024-12-18",
            "url_tdpse_detail": "https://pse.komdigi.go.id/tdpse-detail/21830",
            "website": "niulove.id"
        },
        {
            "id": "9dc060ee-9c04-4c1c-b95d-4530fb31837b",
            "nama_pse": "KREASI INDAH ALAM",
            "nama_se": "SITUS WEB",
            "sektor": "Sektor Perdagangan",
            "tanggal_terbit": "2024-12-18",
            "url_tdpse_detail": "https://pse.komdigi.go.id/tdpse-detail/21832",
            "website": "thebathaholic.com"
        },
        {
            "id": "9dbfcd6c-c4a0-4bd7-b86c-5e3e3d9be7b3",
            "nama_pse": "GOLDEN MULIA SEJAHTERA",
            "nama_se": "GOMS",
            "sektor": "Sektor Perdagangan",
            "tanggal_terbit": "2024-12-18",
            "url_tdpse_detail": "https://pse.komdigi.go.id/tdpse-detail/21827",
            "website": "goms.app"
        },
        {
            "id": "9dc10bc8-6f2d-4e3d-bd56-ee1793ee0769",
            "nama_pse": "FAN JAYA PALNAM",
            "nama_se": "krimsus.com",
            "sektor": "Sektor Teknologi Informasi dan Komunikasi",
            "tanggal_terbit": "2024-12-18",
            "url_tdpse_detail": "https://pse.komdigi.go.id/tdpse-detail/21843",
            "website": "-"
        },
        {
            "id": "9dc0ad4c-533e-4ec8-b220-8bf76fa4dce8",
            "nama_pse": "WARUNG BALI INDONESIA",
            "nama_se": "WOW BOOZE",
            "sektor": "Sektor Perdagangan",
            "tanggal_terbit": "2024-12-18",
            "url_tdpse_detail": "https://pse.komdigi.go.id/tdpse-detail/21840",
            "website": "wowbooze.com"
        },
        {
            "id": "9dc062fd-4f43-482a-951c-55fe8fb1ad12",
            "nama_pse": "ADMINISTRASI MEDIKA",
            "nama_se": "MYADMEDIK@",
            "sektor": "Sektor Kesehatan, Sektor Teknologi Informasi dan Komunikasi",
            "tanggal_terbit": "2024-12-18",
            "url_tdpse_detail": "https://pse.komdigi.go.id/tdpse-detail/21834",
            "website": "mobileapps.admedika.co.id"
        },
        {
            "id": "9dc0ccd1-672f-4750-8c2e-59dec3bf061c",
            "nama_pse": "LEJEL SHOPPING",
            "nama_se": "lejel.co.id",
            "sektor": "Sektor Perdagangan",
            "tanggal_terbit": "2024-12-18",
            "url_tdpse_detail": "https://pse.komdigi.go.id/tdpse-detail/21841",
            "website": "lejel.co.id"
        },
        {
            "id": "9dc10aa9-74de-48a4-913e-acbe155b0f18",
            "nama_pse": "CUCU KUSNANDAR",
            "nama_se": "GG HASAN NETWORK",
            "sektor": "Sektor Teknologi Informasi dan Komunikasi",
            "tanggal_terbit": "2024-12-18",
            "url_tdpse_detail": "https://pse.komdigi.go.id/tdpse-detail/21842",
            "website": "-"
        },
        {
            "id": "9dc078b8-b026-4355-a58b-67783d0b4aa4",
            "nama_pse": "PESONA ELEGAN ABADI",
            "nama_se": "roseallday.co",
            "sektor": "Sektor Perdagangan",
            "tanggal_terbit": "2024-12-18",
            "url_tdpse_detail": "https://pse.komdigi.go.id/tdpse-detail/21837",
            "website": "roseallday.co"
        },
        {
            "id": "9dc143b7-d386-4bca-bece-ac58a9347d96",
            "nama_pse": "SUHERMAN",
            "nama_se": "CBT NETWORK",
            "sektor": "Sektor Teknologi Informasi dan Komunikasi",
            "tanggal_terbit": "2024-12-18",
            "url_tdpse_detail": "https://pse.komdigi.go.id/tdpse-detail/21844",
            "website": "-"
        },
        {
            "id": "9dbe98ed-13f7-4425-af2f-840ef4426540",
            "nama_pse": "RADHIKA MANDIRI",
            "nama_se": "CV RADHIKA MANDIRI",
            "sektor": "Sektor Teknologi Informasi dan Komunikasi",
            "tanggal_terbit": "2024-12-17",
            "url_tdpse_detail": "https://pse.komdigi.go.id/tdpse-detail/21817",
            "website": "-"
        }
    ],
    "processingTimeMs": 0,
    "query": "",
    "totalHits": 19121,
    "hitsPerPage": 50,
    "page": 17,
    "totalPages": 383
}