{
    "hits": [
        {
            "id": "9cb1ac01-df91-46b9-95d9-1eedffc4c9c0",
            "nama_pse": "AMMANA FINTEK SYARIAH",
            "nama_se": "AMMANA MOBILE IOS APPLICATION",
            "sektor": "Sektor Keuangan, Sektor Teknologi Informasi dan Komunikasi",
            "tanggal_terbit": "2022-09-26",
            "url_tdpse_detail": "https://pse.komdigi.go.id/tdpse-detail/11351",
            "website": "-"
        },
        {
            "id": "9cb1ac10-8945-4370-a33d-1048aaf891a1",
            "nama_pse": "AMMANA FINTEK SYARIAH",
            "nama_se": "AMMANA LENDER",
            "sektor": "Sektor Keuangan, Sektor Teknologi Informasi dan Komunikasi",
            "tanggal_terbit": "2022-09-26",
            "url_tdpse_detail": "https://pse.komdigi.go.id/tdpse-detail/11352",
            "website": "-"
        },
        {
            "id": "9cb1ac01-e31e-4d04-9716-3e5cd666e0ab",
            "nama_pse": "HASJRAT ABADI",
            "nama_se": "HASJRAT TOYOTA",
            "sektor": "Sektor Perdagangan",
            "tanggal_terbit": "2022-09-26",
            "url_tdpse_detail": "https://pse.komdigi.go.id/tdpse-detail/11354",
            "website": "hasjrat-toyota.co.id"
        },
        {
            "id": "9cb1abdd-204a-4172-9454-7242eb89a4e7",
            "nama_pse": "QUANTUM INFRA SOLUSINDO",
            "nama_se": "MEDINFRAS",
            "sektor": "Sektor Kesehatan, Sektor Teknologi Informasi dan Komunikasi",
            "tanggal_terbit": "2022-09-26",
            "url_tdpse_detail": "https://pse.komdigi.go.id/tdpse-detail/11355",
            "website": "medinfras.com"
        },
        {
            "id": "9cb1ac10-8c25-426e-8752-0501cdde94d9",
            "nama_pse": "VIVA MEDIKA KONSULTAN",
            "nama_se": "SIMRS VMK",
            "sektor": "Sektor Kesehatan",
            "tanggal_terbit": "2022-09-26",
            "url_tdpse_detail": "https://pse.komdigi.go.id/tdpse-detail/11356",
            "website": "ptvmk.com"
        },
        {
            "id": "9cb1ac10-8f32-42c4-a49e-0dd88dd6c96e",
            "nama_pse": "INFO CRYPTO MEDIA",
            "nama_se": "PT. INFO CRYPTO MEDIA",
            "sektor": "Sektor Teknologi Informasi dan Komunikasi",
            "tanggal_terbit": "2022-09-26",
            "url_tdpse_detail": "https://pse.komdigi.go.id/tdpse-detail/11357",
            "website": "infocrypto.id"
        },
        {
            "id": "9cb1aba5-257b-4f69-910c-2d66fee03d15",
            "nama_pse": "KITA SIAP SEJAHTERA",
            "nama_se": "INPINJAMAN",
            "sektor": "Sektor Keuangan",
            "tanggal_terbit": "2022-09-26",
            "url_tdpse_detail": "https://pse.komdigi.go.id/tdpse-detail/5140",
            "website": "inpinjaman.com"
        },
        {
            "id": "9cb1aba5-2e6b-4cb2-aed8-b8d65c1c7b4f",
            "nama_pse": "MEDIPLUS KARYA INDONESIA",
            "nama_se": "MEDIPLUS",
            "sektor": "Sektor Kesehatan, Sektor Teknologi Informasi dan Komunikasi",
            "tanggal_terbit": "2022-09-26",
            "url_tdpse_detail": "https://pse.komdigi.go.id/tdpse-detail/5150",
            "website": "mediplusindonesia.co.id"
        },
        {
            "id": "9cb1aba5-5f4c-4ddc-a2e4-3ba047224123",
            "nama_pse": "BANGKIT BINA JAYA",
            "nama_se": "NGEKLIK.ID",
            "sektor": "Sektor Perdagangan",
            "tanggal_terbit": "2022-09-26",
            "url_tdpse_detail": "https://pse.komdigi.go.id/tdpse-detail/5419",
            "website": "ngeklik.id"
        },
        {
            "id": "9cb1abdd-0ab4-42ea-a5bb-e36a4cec3220",
            "nama_pse": "SUKACITA TEKNOLOGI INDONESIA",
            "nama_se": "COSMART",
            "sektor": "Sektor Perdagangan",
            "tanggal_terbit": "2022-09-26",
            "url_tdpse_detail": "https://pse.komdigi.go.id/tdpse-detail/11343",
            "website": "cosmart.id"
        },
        {
            "id": "9cb1abb2-c6a2-4bfb-9612-078307f62e91",
            "nama_pse": "ASURANSI ARTARINDO",
            "nama_se": "WEBSITE ARTARINDO",
            "sektor": "Sektor Keuangan",
            "tanggal_terbit": "2022-09-26",
            "url_tdpse_detail": "https://pse.komdigi.go.id/tdpse-detail/6217",
            "website": "artarindo.co.id"
        },
        {
            "id": "9cb1abe5-28d3-484f-b1cd-22d2a3ce94a6",
            "nama_pse": "KIOS PERMAI TEKNOLOGI",
            "nama_se": "FORUM BERITA",
            "sektor": "Sektor Teknologi Informasi dan Komunikasi",
            "tanggal_terbit": "2022-09-26",
            "url_tdpse_detail": "https://pse.komdigi.go.id/tdpse-detail/6766",
            "website": "forumberita.com"
        },
        {
            "id": "9cb1abe5-3eab-4731-a51a-1674443a68eb",
            "nama_pse": "KIOS PERMAI TEKNOLOGI",
            "nama_se": "REDIBAYAR",
            "sektor": "Sektor Perdagangan",
            "tanggal_terbit": "2022-09-26",
            "url_tdpse_detail": "https://pse.komdigi.go.id/tdpse-detail/6772",
            "website": "redibayar.com"
        },
        {
            "id": "9cb1abb8-129a-4e5f-8740-3d4e259383d8",
            "nama_pse": "BANK PEREKONOMIAN RAKYAT NUSANTARA BONA PASOGIT SEMBILAN BELAS",
            "nama_se": "NBP SYS, SMA, SISCHA, DOMPET NBP, BANTU JUAL, CAS",
            "sektor": "Sektor Keuangan, Sektor Teknologi Informasi dan Komunikasi",
            "tanggal_terbit": "2022-09-26",
            "url_tdpse_detail": "https://pse.komdigi.go.id/tdpse-detail/7432",
            "website": "bprnbp19.co.id"
        },
        {
            "id": "9cb1abdd-3551-4f7e-b705-e07ac850669c",
            "nama_pse": "MJF SUKSES SEJAHTERA",
            "nama_se": "MJF PAY",
            "sektor": "Sektor Perdagangan",
            "tanggal_terbit": "2022-09-26",
            "url_tdpse_detail": "https://pse.komdigi.go.id/tdpse-detail/11368",
            "website": "-"
        },
        {
            "id": "9cb1abdd-3cb6-4f58-80a6-200086c0ca0b",
            "nama_pse": "KARYA OKLIK MANDIRI",
            "nama_se": "OKLIK",
            "sektor": "Sektor Perdagangan, Sektor Transportasi, Sektor Teknologi Informasi dan Komunikasi",
            "tanggal_terbit": "2022-09-26",
            "url_tdpse_detail": "https://pse.komdigi.go.id/tdpse-detail/11369",
            "website": "-"
        },
        {
            "id": "9cb1ac10-8059-4c65-a988-32ea6235b483",
            "nama_pse": "NUR HIDAYAH SEHAT MANDIRI",
            "nama_se": "SIMRSNH",
            "sektor": "Sektor Kesehatan",
            "tanggal_terbit": "2022-09-26",
            "url_tdpse_detail": "https://pse.komdigi.go.id/tdpse-detail/11341",
            "website": "-"
        },
        {
            "id": "9cb1ac10-76c8-4ecf-9308-1cb3b47d7feb",
            "nama_pse": "GARUT DIGITAL MULTIMEDIA",
            "nama_se": "SWARA GARUT",
            "sektor": "Sektor Teknologi Informasi dan Komunikasi",
            "tanggal_terbit": "2022-09-23",
            "url_tdpse_detail": "https://pse.komdigi.go.id/tdpse-detail/11329",
            "website": "swaragarut.com"
        },
        {
            "id": "9cb1ac10-79bf-43be-9a10-2c9dc1c8408b",
            "nama_pse": "GARUT DIGITAL MULTIMEDIA",
            "nama_se": "REDAKSI GARUT",
            "sektor": "Sektor Teknologi Informasi dan Komunikasi",
            "tanggal_terbit": "2022-09-23",
            "url_tdpse_detail": "https://pse.komdigi.go.id/tdpse-detail/11330",
            "website": "redaksigarut.com"
        },
        {
            "id": "9cb1ac01-c25a-4050-b76a-5dc6073f5da2",
            "nama_pse": "INTERMEDIA MITRA NUSANTARA",
            "nama_se": "PRIANGAN GROUP",
            "sektor": "Sektor Teknologi Informasi dan Komunikasi",
            "tanggal_terbit": "2022-09-23",
            "url_tdpse_detail": "https://pse.komdigi.go.id/tdpse-detail/11331",
            "website": "priangan.or.id"
        },
        {
            "id": "9cb1ac01-c529-4eb2-9f61-06e1e7e6959d",
            "nama_pse": "GEO TEKNIK CONSULTANT",
            "nama_se": "KORAN GARUT",
            "sektor": "Sektor Teknologi Informasi dan Komunikasi",
            "tanggal_terbit": "2022-09-23",
            "url_tdpse_detail": "https://pse.komdigi.go.id/tdpse-detail/11332",
            "website": "korangarut.com"
        },
        {
            "id": "9cb1abdc-f7bb-42e0-b4cf-ae45b63d3f10",
            "nama_pse": "GEO TEKNIK CONSULTANT",
            "nama_se": "BERITA GARUT",
            "sektor": "Sektor Teknologi Informasi dan Komunikasi",
            "tanggal_terbit": "2022-09-23",
            "url_tdpse_detail": "https://pse.komdigi.go.id/tdpse-detail/11333",
            "website": "beritagarut.com"
        },
        {
            "id": "9cb1abdc-fc5d-4d56-ab40-43edd30f79f0",
            "nama_pse": "UDARA UNTUK SEMUA",
            "nama_se": "FAIRATMOS",
            "sektor": "Sektor Teknologi Informasi dan Komunikasi",
            "tanggal_terbit": "2022-09-23",
            "url_tdpse_detail": "https://pse.komdigi.go.id/tdpse-detail/11334",
            "website": "fairatmos.com"
        },
        {
            "id": "9cb1ac01-ca52-4124-9617-89a072cdbb71",
            "nama_pse": "JALAN BERSAMA KAMU",
            "nama_se": "KUYTRIPS.COM",
            "sektor": "Sektor Transportasi, Sektor Teknologi Informasi dan Komunikasi",
            "tanggal_terbit": "2022-09-23",
            "url_tdpse_detail": "https://pse.komdigi.go.id/tdpse-detail/11335",
            "website": "kuytrips.com"
        },
        {
            "id": "9cb1ac01-d22c-4822-9cd5-4d1f56142979",
            "nama_pse": "OPTICAL PARTNERS INDONESIA",
            "nama_se": "DIABOLOCOM | ORDERS CHANNEL",
            "sektor": "Sektor Kesehatan",
            "tanggal_terbit": "2022-09-23",
            "url_tdpse_detail": "https://pse.komdigi.go.id/tdpse-detail/11336",
            "website": "diabolocom.com"
        },
        {
            "id": "9cb1abdd-005d-4a7f-add5-0dab312250aa",
            "nama_pse": "ANNORA MULTI INTECH",
            "nama_se": "K-WEATHER POLLUTANT CONTROL",
            "sektor": "Sektor Kesehatan, Sektor Teknologi Informasi dan Komunikasi, Sektor Pertahanan dan Keamanan",
            "tanggal_terbit": "2022-09-23",
            "url_tdpse_detail": "https://pse.komdigi.go.id/tdpse-detail/11337",
            "website": "-"
        },
        {
            "id": "9cb1ac01-d56f-4699-9b49-96eff14e15d4",
            "nama_pse": "DARUT TAUHID PEDULI",
            "nama_se": "DT PEDULI APPLICATION",
            "sektor": "Sektor Keuangan",
            "tanggal_terbit": "2022-09-23",
            "url_tdpse_detail": "https://pse.komdigi.go.id/tdpse-detail/11338",
            "website": "dtpeduli.org"
        },
        {
            "id": "9cb1abdd-0418-46ed-98ca-4a2a081fec18",
            "nama_pse": "JAVA FESTIVAL PRODUCTION",
            "nama_se": "JFP.EVENTS",
            "sektor": "Sektor Perdagangan",
            "tanggal_terbit": "2022-09-23",
            "url_tdpse_detail": "https://pse.komdigi.go.id/tdpse-detail/11339",
            "website": "JFP.Events"
        },
        {
            "id": "9cb1ac01-80d2-43f0-a3a6-307e8ac304cd",
            "nama_pse": "EASY EAT INDONESIA",
            "nama_se": "EASY EAT",
            "sektor": "Sektor Teknologi Informasi dan Komunikasi, Sektor Pangan",
            "tanggal_terbit": "2022-09-22",
            "url_tdpse_detail": "https://pse.komdigi.go.id/tdpse-detail/11287",
            "website": "try.easyeat.id"
        },
        {
            "id": "9cb1ac01-83e2-493f-b77d-103d4186211c",
            "nama_pse": "GLOBAL HAYCAB ABADI",
            "nama_se": "HAYCAB",
            "sektor": "Sektor Transportasi, Sektor Teknologi Informasi dan Komunikasi",
            "tanggal_terbit": "2022-09-22",
            "url_tdpse_detail": "https://pse.komdigi.go.id/tdpse-detail/11288",
            "website": "Haycabgo.com"
        },
        {
            "id": "9cb1abdc-a7ac-4188-bbd3-9c3dceb9330e",
            "nama_pse": "ERA DIGITAL MEDIA",
            "nama_se": "TEBAK.ID",
            "sektor": "Sektor Teknologi Informasi dan Komunikasi",
            "tanggal_terbit": "2022-09-22",
            "url_tdpse_detail": "https://pse.komdigi.go.id/tdpse-detail/11289",
            "website": "tebak.id"
        },
        {
            "id": "9cb1ac01-86d4-42b1-8ddb-122ae45583bf",
            "nama_pse": "SATU NUSA TEKNOLOGI",
            "nama_se": "SATU NUSA TEKNOLOGI",
            "sektor": "Sektor Teknologi Informasi dan Komunikasi",
            "tanggal_terbit": "2022-09-22",
            "url_tdpse_detail": "https://pse.komdigi.go.id/tdpse-detail/11290",
            "website": "satunusatech.com"
        },
        {
            "id": "9cb1ac10-3ee6-4708-8ede-bac2c1408663",
            "nama_pse": "ERA DIGITAL MEDIA",
            "nama_se": "SMARTGAME.ID",
            "sektor": "Sektor Teknologi Informasi dan Komunikasi",
            "tanggal_terbit": "2022-09-22",
            "url_tdpse_detail": "https://pse.komdigi.go.id/tdpse-detail/11291",
            "website": "smartgame.id"
        },
        {
            "id": "9cb1abdc-ac14-4c41-be9e-50e5942c7b4c",
            "nama_pse": "SATU NUSA TEKNOLOGI",
            "nama_se": "NIAGA KAMI",
            "sektor": "Sektor Teknologi Informasi dan Komunikasi",
            "tanggal_terbit": "2022-09-22",
            "url_tdpse_detail": "https://pse.komdigi.go.id/tdpse-detail/11292",
            "website": "niagakami.com"
        },
        {
            "id": "9cb1abdc-afee-467f-9c18-9dc9415c8bad",
            "nama_pse": "AKUR PRATAMA",
            "nama_se": "YOGYA ONLINE",
            "sektor": "Sektor Perdagangan",
            "tanggal_terbit": "2022-09-22",
            "url_tdpse_detail": "https://pse.komdigi.go.id/tdpse-detail/11294",
            "website": "yogyaonline.co.id"
        },
        {
            "id": "9cb1ac01-89d0-4c6f-9ba6-9b90a98df014",
            "nama_pse": "AYOTERNAK SEJAHTERA INDONESIA",
            "nama_se": "AYOTERNAK.ID",
            "sektor": "Sektor Perdagangan",
            "tanggal_terbit": "2022-09-22",
            "url_tdpse_detail": "https://pse.komdigi.go.id/tdpse-detail/11295",
            "website": "ayoternak.id"
        },
        {
            "id": "9cb1abdc-b2e0-4b5a-8b81-9b2cc5dd3448",
            "nama_pse": "ANNORA MULTI INTECH",
            "nama_se": "OJEK ONLINE",
            "sektor": "Sektor Perdagangan, Sektor Transportasi, Sektor Teknologi Informasi dan Komunikasi",
            "tanggal_terbit": "2022-09-22",
            "url_tdpse_detail": "https://pse.komdigi.go.id/tdpse-detail/11293",
            "website": "-"
        },
        {
            "id": "9cb1ac10-41b1-432f-9a71-7c17240e4261",
            "nama_pse": "REALITA MEDIA NUSANTARA",
            "nama_se": "DIGITALISASI SISTEM INFORMASI DAN MANAJEMEN SEKOLAH",
            "sektor": "Sektor Teknologi Informasi dan Komunikasi",
            "tanggal_terbit": "2022-09-22",
            "url_tdpse_detail": "https://pse.komdigi.go.id/tdpse-detail/11296",
            "website": "-"
        },
        {
            "id": "9cb1abdc-b72f-46b3-8bde-24858f1fc298",
            "nama_pse": "REALITA MEDIA NUSANTARA",
            "nama_se": "KABAR GARUT",
            "sektor": "Sektor Teknologi Informasi dan Komunikasi",
            "tanggal_terbit": "2022-09-22",
            "url_tdpse_detail": "https://pse.komdigi.go.id/tdpse-detail/11297",
            "website": "kabargarut.com"
        },
        {
            "id": "9cb1ac01-8e9d-40cf-ab8a-094291efa53a",
            "nama_pse": "IDHOSTING DIGITAL NUSANTARA",
            "nama_se": "HOMESCHOOLING.SCH.ID",
            "sektor": "Sektor Teknologi Informasi dan Komunikasi",
            "tanggal_terbit": "2022-09-22",
            "url_tdpse_detail": "https://pse.komdigi.go.id/tdpse-detail/11298",
            "website": "homeschooling.sch.id"
        },
        {
            "id": "9cb1ac01-91e6-4609-b0e5-5f1afdc0fee6",
            "nama_pse": "IDHOSTING DIGITAL NUSANTARA",
            "nama_se": "PRIANGAN.SCH.ID",
            "sektor": "Sektor Teknologi Informasi dan Komunikasi",
            "tanggal_terbit": "2022-09-22",
            "url_tdpse_detail": "https://pse.komdigi.go.id/tdpse-detail/11299",
            "website": "priangan.sch.id"
        },
        {
            "id": "9cb1abdc-bb0f-47bd-806e-d5259aea47e1",
            "nama_pse": "IDHOSTING DIGITAL NUSANTARA",
            "nama_se": "RUANGBELAJAR.SCH.ID",
            "sektor": "Sektor Teknologi Informasi dan Komunikasi",
            "tanggal_terbit": "2022-09-22",
            "url_tdpse_detail": "https://pse.komdigi.go.id/tdpse-detail/11300",
            "website": "ruangbelajar.sch.id"
        },
        {
            "id": "9cb1ac01-9547-4132-8b29-178c7953303a",
            "nama_pse": "IDHOSTING DIGITAL NUSANTARA",
            "nama_se": "BOARDINGSCHOOL.SCH.ID",
            "sektor": "Sektor Teknologi Informasi dan Komunikasi",
            "tanggal_terbit": "2022-09-22",
            "url_tdpse_detail": "https://pse.komdigi.go.id/tdpse-detail/11301",
            "website": "boardingschool.sch.id"
        },
        {
            "id": "9cb1ac10-4490-4e48-817a-9f2da909bfde",
            "nama_pse": "JKB NETWORK DIGITAL MEDIA",
            "nama_se": "HARIAN NUSANTARA",
            "sektor": "Sektor Teknologi Informasi dan Komunikasi",
            "tanggal_terbit": "2022-09-22",
            "url_tdpse_detail": "https://pse.komdigi.go.id/tdpse-detail/11302",
            "website": "hariannusantara.id"
        },
        {
            "id": "9cb1abdc-bf8f-4170-85a7-104ef4b2eea0",
            "nama_pse": "KONSUMEN TRANSMEDIA",
            "nama_se": "TRANSSHOP.ID",
            "sektor": "Sektor Perdagangan",
            "tanggal_terbit": "2022-09-22",
            "url_tdpse_detail": "https://pse.komdigi.go.id/tdpse-detail/11303",
            "website": "transshop.id"
        },
        {
            "id": "9cb1ac10-4868-48ee-a899-3d1f5b233e02",
            "nama_pse": "JKB NETWORK DIGITAL MEDIA",
            "nama_se": "CITIZEN JOURNALISM",
            "sektor": "Sektor Teknologi Informasi dan Komunikasi",
            "tanggal_terbit": "2022-09-22",
            "url_tdpse_detail": "https://pse.komdigi.go.id/tdpse-detail/11304",
            "website": "citizenjournalism.id"
        },
        {
            "id": "9cb1abdc-c359-4927-9197-51ca13b9fd25",
            "nama_pse": "JKB NETWORK DIGITAL MEDIA",
            "nama_se": "DINAMIKA POST",
            "sektor": "Sektor Teknologi Informasi dan Komunikasi",
            "tanggal_terbit": "2022-09-22",
            "url_tdpse_detail": "https://pse.komdigi.go.id/tdpse-detail/11305",
            "website": "dinamikapost.com"
        },
        {
            "id": "9cb1ac10-4bb9-465a-94ad-32b499b7bbb9",
            "nama_pse": "OTO KLIX INDONESIA",
            "nama_se": "OTOKLIX.COM",
            "sektor": "Sektor Perdagangan, Sektor Teknologi Informasi dan Komunikasi",
            "tanggal_terbit": "2022-09-22",
            "url_tdpse_detail": "https://pse.komdigi.go.id/tdpse-detail/11308",
            "website": "otoklix.com"
        },
        {
            "id": "9cb1ac01-98c8-44c5-90d9-f00697b793c5",
            "nama_pse": "QLCOM SOLUSI BISNIS",
            "nama_se": "FASTKES",
            "sektor": "Sektor Kesehatan",
            "tanggal_terbit": "2022-09-22",
            "url_tdpse_detail": "https://pse.komdigi.go.id/tdpse-detail/11310",
            "website": "fastkes.com"
        },
        {
            "id": "9cb1ac01-9bbb-4d14-a809-1f372b010221",
            "nama_pse": "DWI ERAWAN MULUS RAHAYU",
            "nama_se": "ABBY KHEKEY",
            "sektor": "Sektor Perdagangan",
            "tanggal_terbit": "2022-09-22",
            "url_tdpse_detail": "https://pse.komdigi.go.id/tdpse-detail/11306",
            "website": "-"
        }
    ],
    "processingTimeMs": 4,
    "query": "",
    "totalHits": 19131,
    "hitsPerPage": 50,
    "page": 182,
    "totalPages": 383
}