{
    "hits": [
        {
            "id": "9cb1ac7c-9560-4d8f-8f09-019d8afe5935",
            "nama_pse": "WILMAR CONSULTANCY SERVICES",
            "nama_se": "FARMER OPERATIONS MANAGEMENT SYSTEM",
            "sektor": "Sektor Pangan",
            "tanggal_terbit": "2024-01-31",
            "url_tdpse_detail": "https://pse.komdigi.go.id/tdpse-detail/17592",
            "website": "-"
        },
        {
            "id": "9cb1ac7c-98b0-40d1-8d29-9b34d610a2ea",
            "nama_pse": "DCREO MAKMUR ABADI",
            "nama_se": "AKTIVITAS KONSULTASI KOMPUTER \u0026 MANAJEMEN FASILITAS KOMPUTER",
            "sektor": "Sektor Teknologi Informasi dan Komunikasi",
            "tanggal_terbit": "2024-01-31",
            "url_tdpse_detail": "https://pse.komdigi.go.id/tdpse-detail/17591",
            "website": "-"
        },
        {
            "id": "9cb1ac68-782c-4153-84a7-b7ca24f7ecfd",
            "nama_pse": "DCREO MAKMUR ABADI",
            "nama_se": "KEGIATAN LAYANAN KONSULTASI, PERANCANGAN DAN PEMBUATAN SOLUSI SISTEM TERINTEGRASI",
            "sektor": "Sektor Teknologi Informasi dan Komunikasi",
            "tanggal_terbit": "2024-01-31",
            "url_tdpse_detail": "https://pse.komdigi.go.id/tdpse-detail/17593",
            "website": "-"
        },
        {
            "id": "9cb1ac7c-a668-4efa-8348-f8bb7e0c693c",
            "nama_pse": "KLINIK PRATAMA UNIMUS",
            "nama_se": "KLINIKPRATAMAMU",
            "sektor": "Sektor Kesehatan",
            "tanggal_terbit": "2024-01-31",
            "url_tdpse_detail": "https://pse.komdigi.go.id/tdpse-detail/17595",
            "website": "-"
        },
        {
            "id": "9cb1ac68-7bdf-4791-9829-f1dfd83496cb",
            "nama_pse": "ZIPPY INTER POLAR",
            "nama_se": "ZIPPY",
            "sektor": "Sektor Perdagangan",
            "tanggal_terbit": "2024-01-31",
            "url_tdpse_detail": "https://pse.komdigi.go.id/tdpse-detail/17596",
            "website": "-"
        },
        {
            "id": "9cb1ac54-9e08-44e4-80fc-039fee0a2d63",
            "nama_pse": "GRAHADHIKA SARANA PURNAJATI",
            "nama_se": "MIS : MIRACLE INFORMATION SYSTEM",
            "sektor": "Sektor Kesehatan",
            "tanggal_terbit": "2024-01-30",
            "url_tdpse_detail": "https://pse.komdigi.go.id/tdpse-detail/17564",
            "website": "-"
        },
        {
            "id": "9cb1ac7c-6319-4d8e-8859-8a598265bfeb",
            "nama_pse": "TRI NUSA TEKNOLOGI",
            "nama_se": "WWW.CLINIVE.COM",
            "sektor": "Sektor Kesehatan, Sektor Teknologi Informasi dan Komunikasi",
            "tanggal_terbit": "2024-01-30",
            "url_tdpse_detail": "https://pse.komdigi.go.id/tdpse-detail/17565",
            "website": "clinive.com"
        },
        {
            "id": "9cb1ac7c-6d4b-4e6a-9186-d08485a1d7a5",
            "nama_pse": "BIG MEDIA TECHNOLOGY",
            "nama_se": "MIMO LIVE",
            "sektor": "Sektor Teknologi Informasi dan Komunikasi",
            "tanggal_terbit": "2024-01-30",
            "url_tdpse_detail": "https://pse.komdigi.go.id/tdpse-detail/17566",
            "website": "app.mimolive.vip"
        },
        {
            "id": "9cb1ac7c-70a2-4310-8a1f-8d68fe02cac9",
            "nama_pse": "MASTER GROUP INDONESIA",
            "nama_se": "MORTGAGE MASTER",
            "sektor": "Sektor Teknologi Informasi dan Komunikasi",
            "tanggal_terbit": "2024-01-30",
            "url_tdpse_detail": "https://pse.komdigi.go.id/tdpse-detail/17569",
            "website": "mortgagemaster.co.id"
        },
        {
            "id": "9cb1ac7c-73c9-4cad-9264-f161eb484f1f",
            "nama_pse": "EXCITECH TEKNOLOGI INDONESIA",
            "nama_se": "MENU-KITA.COM",
            "sektor": "Sektor Teknologi Informasi dan Komunikasi",
            "tanggal_terbit": "2024-01-30",
            "url_tdpse_detail": "https://pse.komdigi.go.id/tdpse-detail/17567",
            "website": "menu-kita.com"
        },
        {
            "id": "9cb1ac54-a0a2-4c5a-90f3-88dcf7f9cb41",
            "nama_pse": "HORIZON TECHNOLOGY DIGITAL",
            "nama_se": "HORIZON GAME",
            "sektor": "Sektor Teknologi Informasi dan Komunikasi",
            "tanggal_terbit": "2024-01-30",
            "url_tdpse_detail": "https://pse.komdigi.go.id/tdpse-detail/17568",
            "website": "horizongame.net"
        },
        {
            "id": "9cb1ac7c-773b-4337-b284-1756f8860aa5",
            "nama_pse": "INSAN HARAPAN BUNDA",
            "nama_se": "SISTEM INFORMASI MANAJEMEN RUMAH SAKIT (SIMRS)",
            "sektor": "Sektor Teknologi Informasi dan Komunikasi",
            "tanggal_terbit": "2024-01-30",
            "url_tdpse_detail": "https://pse.komdigi.go.id/tdpse-detail/17570",
            "website": "-"
        },
        {
            "id": "9cb1ac68-62a2-4f62-b6e3-8d6a870ea05c",
            "nama_pse": "EWAN JAYA KASTARA",
            "nama_se": "EWAN JAYA KASTARA",
            "sektor": "Sektor Kesehatan",
            "tanggal_terbit": "2024-01-30",
            "url_tdpse_detail": "https://pse.komdigi.go.id/tdpse-detail/17571",
            "website": "ewanjaya.com"
        },
        {
            "id": "9cb1ac54-a432-4646-9283-716797e4f0e9",
            "nama_pse": "MUHAMMAD ARIF",
            "nama_se": "KAPUAS POST",
            "sektor": "Sektor Teknologi Informasi dan Komunikasi",
            "tanggal_terbit": "2024-01-30",
            "url_tdpse_detail": "https://pse.komdigi.go.id/tdpse-detail/17572",
            "website": "kapuaspost.web.id"
        },
        {
            "id": "9cb1ac54-a9d0-4ef4-b08b-724204f546f6",
            "nama_pse": "MITRA ANDALAN SUKSESINDO",
            "nama_se": "ANDALAN CONSULTING",
            "sektor": "Sektor Perdagangan",
            "tanggal_terbit": "2024-01-30",
            "url_tdpse_detail": "https://pse.komdigi.go.id/tdpse-detail/17573",
            "website": "andalanconsulting.com"
        },
        {
            "id": "9cb1ac68-69e5-4fcd-8065-8c7b64e14211",
            "nama_pse": "GLOBAL TRUSTINDO MULIA",
            "nama_se": "EASYTRUST",
            "sektor": "Sektor Perdagangan",
            "tanggal_terbit": "2024-01-30",
            "url_tdpse_detail": "https://pse.komdigi.go.id/tdpse-detail/17574",
            "website": "easytrust.id"
        },
        {
            "id": "9cb1ac54-ae09-418d-a909-390881ef0c41",
            "nama_pse": "SOLUSI CERDAS BERKUALITAS",
            "nama_se": "SMART HOSPITAL",
            "sektor": "Sektor Kesehatan",
            "tanggal_terbit": "2024-01-30",
            "url_tdpse_detail": "https://pse.komdigi.go.id/tdpse-detail/17575",
            "website": "-"
        },
        {
            "id": "9cb1ac68-6db9-4fd6-8c39-91ced9b32689",
            "nama_pse": "REKAN SUKSES USAHAMU",
            "nama_se": "IZINKU.CO.ID",
            "sektor": "Sektor Teknologi Informasi dan Komunikasi",
            "tanggal_terbit": "2024-01-30",
            "url_tdpse_detail": "https://pse.komdigi.go.id/tdpse-detail/17576",
            "website": "izinku.co.id"
        },
        {
            "id": "9cb1ac7c-7b0a-4413-b6b5-430886665b26",
            "nama_pse": "INDIE PARTNERSHIP DIGITECH",
            "nama_se": "INDIE PARTNERSHIP",
            "sektor": "Sektor Perdagangan, Sektor Teknologi Informasi dan Komunikasi",
            "tanggal_terbit": "2024-01-30",
            "url_tdpse_detail": "https://pse.komdigi.go.id/tdpse-detail/17578",
            "website": "indiepartnership.tech"
        },
        {
            "id": "9cb1ac7c-7e43-4b09-b3e6-a8bec07491a0",
            "nama_pse": "PROMEDIA PUNGGAWA SATU",
            "nama_se": "PROPS",
            "sektor": "Sektor Teknologi Informasi dan Komunikasi",
            "tanggal_terbit": "2024-01-30",
            "url_tdpse_detail": "https://pse.komdigi.go.id/tdpse-detail/17577",
            "website": "props.id"
        },
        {
            "id": "9cb1ac54-b18f-48bd-bae1-4a616d841d3b",
            "nama_pse": "BISNIS MULTIMEDIA TELEKOMUNIKASI",
            "nama_se": "PAYSTORE",
            "sektor": "Sektor Perdagangan",
            "tanggal_terbit": "2024-01-30",
            "url_tdpse_detail": "https://pse.komdigi.go.id/tdpse-detail/17580",
            "website": "-"
        },
        {
            "id": "9cb1ac54-b43f-4133-b3e0-0dbd22f41172",
            "nama_pse": "DCREO MAKMUR ABADI",
            "nama_se": "WEBSITE",
            "sektor": "Sektor Perdagangan",
            "tanggal_terbit": "2024-01-30",
            "url_tdpse_detail": "https://pse.komdigi.go.id/tdpse-detail/17581",
            "website": "-"
        },
        {
            "id": "9cb1ac7c-8608-4395-8648-acc3f73c8923",
            "nama_pse": "BSH HOME APPLIANCES",
            "nama_se": "HOME CONNECT",
            "sektor": "Sektor Teknologi Informasi dan Komunikasi",
            "tanggal_terbit": "2024-01-30",
            "url_tdpse_detail": "https://pse.komdigi.go.id/tdpse-detail/17582",
            "website": "-"
        },
        {
            "id": "9cb1ac7c-8a2e-42af-9b49-79ba12f136f4",
            "nama_pse": "TIAL NUSANTARA GROUP",
            "nama_se": "SIMRS",
            "sektor": "Sektor Teknologi Informasi dan Komunikasi",
            "tanggal_terbit": "2024-01-30",
            "url_tdpse_detail": "https://pse.komdigi.go.id/tdpse-detail/17583",
            "website": "-"
        },
        {
            "id": "9cb1ac68-717e-4f87-b4b5-869c3a3b6076",
            "nama_pse": "SATU NUSA TEKNOLOGI",
            "nama_se": "SNT",
            "sektor": "Sektor Teknologi Informasi dan Komunikasi",
            "tanggal_terbit": "2024-01-30",
            "url_tdpse_detail": "https://pse.komdigi.go.id/tdpse-detail/17584",
            "website": "-"
        },
        {
            "id": "9cb1ac68-363e-45f3-a480-891e0dc666a9",
            "nama_pse": "INDOFAST FUTURE TECHNOLOGY",
            "nama_se": "INDOFAST",
            "sektor": "Sektor Teknologi Informasi dan Komunikasi",
            "tanggal_terbit": "2024-01-29",
            "url_tdpse_detail": "https://pse.komdigi.go.id/tdpse-detail/17546",
            "website": "-"
        },
        {
            "id": "9cb1ac54-8d53-4cd4-be35-dd28210a6a50",
            "nama_pse": "AKBAR BERSAMA",
            "nama_se": "SIMNETRA1",
            "sektor": "Sektor Kesehatan",
            "tanggal_terbit": "2024-01-29",
            "url_tdpse_detail": "https://pse.komdigi.go.id/tdpse-detail/17548",
            "website": "-"
        },
        {
            "id": "9cb1ac68-3980-4dc8-bc66-cacf28eb111b",
            "nama_pse": "FARRA EKATAMA SOLUSI",
            "nama_se": "TANIIN.ID",
            "sektor": "Sektor Teknologi Informasi dan Komunikasi",
            "tanggal_terbit": "2024-01-29",
            "url_tdpse_detail": "https://pse.komdigi.go.id/tdpse-detail/17547",
            "website": "taniin.id"
        },
        {
            "id": "9cb1ac54-900f-4566-92ae-1a9e9db78c45",
            "nama_pse": "AKBAR BERSAMA",
            "nama_se": "SIMNETRA2",
            "sektor": "Sektor Kesehatan",
            "tanggal_terbit": "2024-01-29",
            "url_tdpse_detail": "https://pse.komdigi.go.id/tdpse-detail/17549",
            "website": "-"
        },
        {
            "id": "9cb1ac7c-47b7-4cad-95e3-04cfdbd65971",
            "nama_pse": "AISHY AND SONS",
            "nama_se": "AISHY DMS",
            "sektor": "Sektor Kesehatan",
            "tanggal_terbit": "2024-01-29",
            "url_tdpse_detail": "https://pse.komdigi.go.id/tdpse-detail/17552",
            "website": "aishyandsons.com"
        },
        {
            "id": "9cb1ac54-928f-40dc-b672-ae4b2f611375",
            "nama_pse": "HAVO TEKNOLOGI PINTAR",
            "nama_se": "HAVO",
            "sektor": "Sektor Perdagangan",
            "tanggal_terbit": "2024-01-29",
            "url_tdpse_detail": "https://pse.komdigi.go.id/tdpse-detail/17550",
            "website": "SHOP.HAVO.CO.ID"
        },
        {
            "id": "9cb1ac7c-4b83-41f3-ace5-458074e31451",
            "nama_pse": "SULIS DIANTO",
            "nama_se": "BENING FOTOCOPY \u0026 PRINTING",
            "sektor": "Sektor Teknologi Informasi dan Komunikasi",
            "tanggal_terbit": "2024-01-29",
            "url_tdpse_detail": "https://pse.komdigi.go.id/tdpse-detail/17551",
            "website": "-"
        },
        {
            "id": "9cb1ac7c-4f57-4a1d-937a-0f45b1b11432",
            "nama_pse": "SULIS DIANTO",
            "nama_se": "PENYEDIA JASA LAYANAN INTERNET LOKAL (RT/RW NET PEDESAAN)",
            "sektor": "Sektor Teknologi Informasi dan Komunikasi",
            "tanggal_terbit": "2024-01-29",
            "url_tdpse_detail": "https://pse.komdigi.go.id/tdpse-detail/17553",
            "website": "-"
        },
        {
            "id": "9cb1ac68-3ddd-429a-93c1-4e6ae1b71416",
            "nama_pse": "PERTAMINA MAINTENANCE AND CONSTRUCTION",
            "nama_se": "PT PERTAMINA MAINTENANCE AND CONSTRUCTION",
            "sektor": "Sektor Teknologi Informasi dan Komunikasi",
            "tanggal_terbit": "2024-01-29",
            "url_tdpse_detail": "https://pse.komdigi.go.id/tdpse-detail/17554",
            "website": "pertamc.com"
        },
        {
            "id": "9cb1ac7c-5f17-4958-af98-9ce4d558f0d2",
            "nama_pse": "DIGITAL EDUCATION INDONESIA",
            "nama_se": "DIGITAL EDUCATION INDONESIA",
            "sektor": "Sektor Teknologi Informasi dan Komunikasi",
            "tanggal_terbit": "2024-01-29",
            "url_tdpse_detail": "https://pse.komdigi.go.id/tdpse-detail/17558",
            "website": "digitaleducation.id"
        },
        {
            "id": "9cb1ac54-9831-4edb-9f53-1b1e8579e3fb",
            "nama_pse": "INDONESIA MAKAN UDANG",
            "nama_se": "JALA.TECH/HARVEST",
            "sektor": "Sektor Teknologi Informasi dan Komunikasi, Sektor Pangan",
            "tanggal_terbit": "2024-01-29",
            "url_tdpse_detail": "https://pse.komdigi.go.id/tdpse-detail/17557",
            "website": "-"
        },
        {
            "id": "9cb1ac54-9b0a-4b59-b79b-ed22af0c4647",
            "nama_pse": "PENYIARAN MIMBAR TIMUR",
            "nama_se": "MIMBARTIMUR.COM",
            "sektor": "Sektor Teknologi Informasi dan Komunikasi",
            "tanggal_terbit": "2024-01-29",
            "url_tdpse_detail": "https://pse.komdigi.go.id/tdpse-detail/17560",
            "website": "mimbartimur.com"
        },
        {
            "id": "9cb1ac68-458a-40de-9c4d-4483d89fa5f6",
            "nama_pse": "PANCA TEKNOLOGI INDONESIA",
            "nama_se": "HUGAF",
            "sektor": "Sektor Kesehatan, Sektor Teknologi Informasi dan Komunikasi",
            "tanggal_terbit": "2024-01-29",
            "url_tdpse_detail": "https://pse.komdigi.go.id/tdpse-detail/17561",
            "website": "hugaf.com"
        },
        {
            "id": "9cb1ac68-4a28-4e65-abdb-328a80e6ab78",
            "nama_pse": "JEJAK KOMPUTASI NUSANTARA",
            "nama_se": "SISTIM INFORMASI KLINIK MATA KAMBANG",
            "sektor": "Sektor Kesehatan",
            "tanggal_terbit": "2024-01-29",
            "url_tdpse_detail": "https://pse.komdigi.go.id/tdpse-detail/17562",
            "website": "-"
        },
        {
            "id": "9cb1ac4f-4822-4ff4-85d3-cd517973790d",
            "nama_pse": "BESTURI DELTA MEDIKA",
            "nama_se": "SIMRS RSMMC",
            "sektor": "Sektor Kesehatan",
            "tanggal_terbit": "2024-01-29",
            "url_tdpse_detail": "https://pse.komdigi.go.id/tdpse-detail/17559",
            "website": "rsmmcsby.co.id"
        },
        {
            "id": "9cb1ac54-875e-44d3-bd0f-d4181c937ed3",
            "nama_pse": "ANUGRAH RAHAYU MEDISTRA",
            "nama_se": "PROLABLIS",
            "sektor": "Sektor Kesehatan",
            "tanggal_terbit": "2024-01-28",
            "url_tdpse_detail": "https://pse.komdigi.go.id/tdpse-detail/17541",
            "website": "-"
        },
        {
            "id": "9cb1ac7c-414e-46da-b447-95400036763c",
            "nama_pse": "RUSMA EKO FIDDY RIZARTA",
            "nama_se": "ALPHA CARE",
            "sektor": "Sektor Teknologi Informasi dan Komunikasi",
            "tanggal_terbit": "2024-01-28",
            "url_tdpse_detail": "https://pse.komdigi.go.id/tdpse-detail/17542",
            "website": "alphalogic.web.id"
        },
        {
            "id": "9cb1ac54-8a27-420c-a255-16c861b46c6c",
            "nama_pse": "RIZKI SLAMET NUGROHO",
            "nama_se": "HEVA ELECTRONIC MEDICAL RECORD",
            "sektor": "Sektor Kesehatan",
            "tanggal_terbit": "2024-01-28",
            "url_tdpse_detail": "https://pse.komdigi.go.id/tdpse-detail/17543",
            "website": "heva.co.id"
        },
        {
            "id": "9cb1ac7c-44a3-40e2-94c3-1ad39fc29b5e",
            "nama_pse": "PANDAWA SOLUSI TEKNOLOGI",
            "nama_se": "MEDIKKU.ID",
            "sektor": "Sektor Kesehatan",
            "tanggal_terbit": "2024-01-28",
            "url_tdpse_detail": "https://pse.komdigi.go.id/tdpse-detail/17544",
            "website": "-"
        },
        {
            "id": "9cb1ac68-300a-4b17-8f6a-abda55f500cf",
            "nama_pse": "BIAN DIGITAL INDONESIA",
            "nama_se": "25 RIBU AJA",
            "sektor": "Sektor Perdagangan, Sektor Teknologi Informasi dan Komunikasi",
            "tanggal_terbit": "2024-01-28",
            "url_tdpse_detail": "https://pse.komdigi.go.id/tdpse-detail/17545",
            "website": "25ribuaja.com"
        },
        {
            "id": "9cb1ac54-8442-446d-8599-bee243b5a2d6",
            "nama_pse": "NYANHOSTING SOLUSI WEBSITE",
            "nama_se": "NYANHOSTING - WEB HOSTING DAN DOMAIN REGISTRASI",
            "sektor": "Sektor Teknologi Informasi dan Komunikasi",
            "tanggal_terbit": "2024-01-27",
            "url_tdpse_detail": "https://pse.komdigi.go.id/tdpse-detail/17539",
            "website": "nyanhosting.id"
        },
        {
            "id": "9cb1ac68-2d23-4034-84a7-70bd92b5b12d",
            "nama_pse": "HAFIZ QADRIL",
            "nama_se": "FIZZPEDIA",
            "sektor": "Sektor Perdagangan",
            "tanggal_terbit": "2024-01-27",
            "url_tdpse_detail": "https://pse.komdigi.go.id/tdpse-detail/17540",
            "website": "fizzpedia.com"
        },
        {
            "id": "9cb1ac68-13b9-4a62-9691-77c032cda7ed",
            "nama_pse": "KREATRIP ARSA DIGITAL",
            "nama_se": "KOMUNITRIP",
            "sektor": "Sektor Perdagangan",
            "tanggal_terbit": "2024-01-26",
            "url_tdpse_detail": "https://pse.komdigi.go.id/tdpse-detail/17521",
            "website": "komunitrip.com"
        },
        {
            "id": "9cb1ac7c-3440-4fa4-ac70-a359cd01956a",
            "nama_pse": "NETWORK LAPANLAPAN GROUP",
            "nama_se": "PAYMENT LAPANLAPAN",
            "sektor": "Sektor Perdagangan",
            "tanggal_terbit": "2024-01-26",
            "url_tdpse_detail": "https://pse.komdigi.go.id/tdpse-detail/17522",
            "website": "-"
        },
        {
            "id": "9cb1ac68-16b6-4cd3-b730-c16b40098c60",
            "nama_pse": "NETWORK LAPANLAPAN GROUP",
            "nama_se": "LAPAN LAPAN GROUP",
            "sektor": "Sektor Teknologi Informasi dan Komunikasi",
            "tanggal_terbit": "2024-01-26",
            "url_tdpse_detail": "https://pse.komdigi.go.id/tdpse-detail/17523",
            "website": "-"
        }
    ],
    "processingTimeMs": 1,
    "query": "",
    "totalHits": 19131,
    "hitsPerPage": 50,
    "page": 89,
    "totalPages": 383
}