{
    "hits": [
        {
            "id": "9cb1abf7-c57d-473d-ae02-660cca492c32",
            "nama_pse": "DARWINBOX DIGITAL SOLUTIONS",
            "nama_se": "DARWINBOX",
            "sektor": "Sektor Teknologi Informasi dan Komunikasi",
            "tanggal_terbit": "2022-08-02",
            "url_tdpse_detail": "https://pse.komdigi.go.id/tdpse-detail/9632",
            "website": "darwinbox.com"
        },
        {
            "id": "9cb1abd2-bced-42be-9c8e-f2554e0f4ee5",
            "nama_pse": "ASEP ROHIMAT",
            "nama_se": "TIDAK TERSEDIA ATAU SUDAH TIDAK BERJALAN",
            "sektor": "Sektor Teknologi Informasi dan Komunikasi",
            "tanggal_terbit": "2022-08-02",
            "url_tdpse_detail": "https://pse.komdigi.go.id/tdpse-detail/9634",
            "website": "-"
        },
        {
            "id": "9cb1abd2-c0a0-4736-bd6a-0d315bdf95e9",
            "nama_pse": "OPTIMA EDUKASI PRESTASI",
            "nama_se": "PRIMAINDISOFT",
            "sektor": "Sektor Teknologi Informasi dan Komunikasi",
            "tanggal_terbit": "2022-08-02",
            "url_tdpse_detail": "https://pse.komdigi.go.id/tdpse-detail/9638",
            "website": "primaindisoft.com"
        },
        {
            "id": "9cb1abd2-c725-4f6a-81d4-dc3730eea48d",
            "nama_pse": "ASEP ROHIMAT",
            "nama_se": "SUDAH TIDAK ADA",
            "sektor": "Sektor Teknologi Informasi dan Komunikasi",
            "tanggal_terbit": "2022-08-02",
            "url_tdpse_detail": "https://pse.komdigi.go.id/tdpse-detail/9635",
            "website": "-"
        },
        {
            "id": "9cb1abf7-c992-47f4-9262-bc5646ce4f96",
            "nama_pse": "TEKNOLOGI INTEGRASI ARMADA",
            "nama_se": "FLEETIFY.ID",
            "sektor": "Sektor Transportasi, Sektor Teknologi Informasi dan Komunikasi",
            "tanggal_terbit": "2022-08-02",
            "url_tdpse_detail": "https://pse.komdigi.go.id/tdpse-detail/9636",
            "website": "fleetify.id"
        },
        {
            "id": "9cb1abf7-cc46-4802-8395-e9d4b02cb9d9",
            "nama_pse": "ASEP ROHIMAT",
            "nama_se": "TIDAK ADA",
            "sektor": "Sektor Teknologi Informasi dan Komunikasi",
            "tanggal_terbit": "2022-08-02",
            "url_tdpse_detail": "https://pse.komdigi.go.id/tdpse-detail/9637",
            "website": "-"
        },
        {
            "id": "9cb1abf9-4ca4-4d6b-9235-4187f0a2685b",
            "nama_pse": "ASEP ROHIMAT",
            "nama_se": "TIDAK TERSEDIA LAGI",
            "sektor": "Sektor Teknologi Informasi dan Komunikasi",
            "tanggal_terbit": "2022-08-02",
            "url_tdpse_detail": "https://pse.komdigi.go.id/tdpse-detail/9639",
            "website": "-"
        },
        {
            "id": "9cb1abd2-cacc-45fc-9ae8-eded7c6e8bb9",
            "nama_pse": "MUCHAMMAD DZANUR RAGIL PUTRA",
            "nama_se": "DZANUR TECH",
            "sektor": "Sektor Teknologi Informasi dan Komunikasi",
            "tanggal_terbit": "2022-08-02",
            "url_tdpse_detail": "https://pse.komdigi.go.id/tdpse-detail/9640",
            "website": "dzanur.com"
        },
        {
            "id": "9cb1abf7-cf24-4697-9406-95dd96961392",
            "nama_pse": "MUCHAMMAD DZANUR RAGIL PUTRA",
            "nama_se": "SMAN 9 TANGERANG",
            "sektor": "Sektor Teknologi Informasi dan Komunikasi",
            "tanggal_terbit": "2022-08-02",
            "url_tdpse_detail": "https://pse.komdigi.go.id/tdpse-detail/9641",
            "website": "sman9tangerang.sch.id"
        },
        {
            "id": "9cb1abf7-d1cc-4c31-9ac3-dec587213706",
            "nama_pse": "D \u0026 B INDONESIA",
            "nama_se": "WEBSITE",
            "sektor": "Sektor Perdagangan",
            "tanggal_terbit": "2022-08-02",
            "url_tdpse_detail": "https://pse.komdigi.go.id/tdpse-detail/9642",
            "website": "dnb.co.id"
        },
        {
            "id": "9cb1abf7-d48c-4fbe-a71b-91005a6891fe",
            "nama_pse": "TARA TIANA",
            "nama_se": "TARA TIANA",
            "sektor": "Sektor Perdagangan, Sektor Teknologi Informasi dan Komunikasi",
            "tanggal_terbit": "2022-08-02",
            "url_tdpse_detail": "https://pse.komdigi.go.id/tdpse-detail/9643",
            "website": "taratiana.com"
        },
        {
            "id": "9cb1abf7-dc49-46bd-84ed-546754fb5dbb",
            "nama_pse": "NUSANTARA GLOBAL INOVASI",
            "nama_se": "SIP TB",
            "sektor": "Sektor Transportasi, Sektor Teknologi Informasi dan Komunikasi",
            "tanggal_terbit": "2022-08-02",
            "url_tdpse_detail": "https://pse.komdigi.go.id/tdpse-detail/9648",
            "website": "brtnusantara.com"
        },
        {
            "id": "9cb1abf9-51b3-4072-bd4d-6953eb29ed1b",
            "nama_pse": "WARGA PANTAI MUTIARA",
            "nama_se": "APLIKASI RTRW",
            "sektor": "Sektor Keuangan",
            "tanggal_terbit": "2022-08-02",
            "url_tdpse_detail": "https://pse.komdigi.go.id/tdpse-detail/9650",
            "website": "rt-rw.id"
        },
        {
            "id": "9cb1abd2-d360-4050-9367-4340605734ee",
            "nama_pse": "NUSANTARA MUDA TEKNOLOGI MAKMUR",
            "nama_se": "BANGUN!",
            "sektor": "Sektor Teknologi Informasi dan Komunikasi",
            "tanggal_terbit": "2022-08-02",
            "url_tdpse_detail": "https://pse.komdigi.go.id/tdpse-detail/9668",
            "website": "Bangun.app"
        },
        {
            "id": "9cb1abf7-e43a-44de-a4d6-9ba1e2b40346",
            "nama_pse": "POWER CRED TECHNOLOGIES",
            "nama_se": "POWERCRED",
            "sektor": "Sektor Teknologi Informasi dan Komunikasi",
            "tanggal_terbit": "2022-08-02",
            "url_tdpse_detail": "https://pse.komdigi.go.id/tdpse-detail/9655",
            "website": "powercred.io"
        },
        {
            "id": "9cb1abf9-5c82-49a9-a2cf-86558c5d06e5",
            "nama_pse": "SURYASOFT KONSULTAMA",
            "nama_se": "WWW.SURYASOFT.COM",
            "sektor": "Sektor Teknologi Informasi dan Komunikasi",
            "tanggal_terbit": "2022-08-02",
            "url_tdpse_detail": "https://pse.komdigi.go.id/tdpse-detail/9660",
            "website": "suryasoft.com"
        },
        {
            "id": "9cb1abf7-e76b-45d4-8b03-1e53b7a1459d",
            "nama_pse": "CIPTA MEGASWARA TELEVISI",
            "nama_se": "PT CIPTA MEGASWARA TELEVISI",
            "sektor": "Sektor Teknologi Informasi dan Komunikasi",
            "tanggal_terbit": "2022-08-02",
            "url_tdpse_detail": "https://pse.komdigi.go.id/tdpse-detail/9664",
            "website": "moview.id"
        },
        {
            "id": "9cb1abf9-65b9-4734-bf99-f3cb1f47521d",
            "nama_pse": "IMRON FAUJI",
            "nama_se": "IMZI STUDIO CORP",
            "sektor": "Sektor Teknologi Informasi dan Komunikasi",
            "tanggal_terbit": "2022-08-02",
            "url_tdpse_detail": "https://pse.komdigi.go.id/tdpse-detail/9665",
            "website": "uqro.net"
        },
        {
            "id": "9cb1abf9-6a2a-42b3-8241-59a3aac279c0",
            "nama_pse": "PERKAKASKU MULTI CEMERLANG",
            "nama_se": "PERKAKASKU",
            "sektor": "Sektor Perdagangan",
            "tanggal_terbit": "2022-08-02",
            "url_tdpse_detail": "https://pse.komdigi.go.id/tdpse-detail/9666",
            "website": "perkakasku.com"
        },
        {
            "id": "9cb1ac08-1c9a-483c-b7c7-eb55f46bcbd3",
            "nama_pse": "M AFFIF MUKHLASHIN",
            "nama_se": "BLUEMEDA",
            "sektor": "Sektor Teknologi Informasi dan Komunikasi",
            "tanggal_terbit": "2022-08-02",
            "url_tdpse_detail": "https://pse.komdigi.go.id/tdpse-detail/9667",
            "website": "bluemeda.web.id"
        },
        {
            "id": "9cb1abd2-da84-4d2b-8590-711194d3451e",
            "nama_pse": "KONSEP HASIL INDONESIA",
            "nama_se": "LUXOFOOD",
            "sektor": "Sektor Perdagangan, Sektor Teknologi Informasi dan Komunikasi",
            "tanggal_terbit": "2022-08-02",
            "url_tdpse_detail": "https://pse.komdigi.go.id/tdpse-detail/9669",
            "website": "luxofood.com"
        },
        {
            "id": "9cb1abd2-dfeb-4476-96ea-36e8b4621e51",
            "nama_pse": "BUSUR MEDIA INDONESIA",
            "nama_se": "BUSURHOST",
            "sektor": "Sektor Teknologi Informasi dan Komunikasi",
            "tanggal_terbit": "2022-08-02",
            "url_tdpse_detail": "https://pse.komdigi.go.id/tdpse-detail/9670",
            "website": "busurhost.com"
        },
        {
            "id": "9cb1abd2-e49c-4fc7-9e72-512d48d78d94",
            "nama_pse": "BANK PEREKONOMIAN RAKYAT DANA MULIA SEJAHTERA",
            "nama_se": "HTTP://WWW.DANAMULIASEJAHTERA.COM/",
            "sektor": "Sektor Keuangan",
            "tanggal_terbit": "2022-08-02",
            "url_tdpse_detail": "https://pse.komdigi.go.id/tdpse-detail/9673",
            "website": "danamuliasejahtera.com"
        },
        {
            "id": "9cb1abf9-6ffb-4e98-a721-11284fa9fa75",
            "nama_pse": "BANK PERKREDITAN RAKYAT KIMI SANDA",
            "nama_se": "CORE BANKING SYSTEM",
            "sektor": "Sektor Keuangan",
            "tanggal_terbit": "2022-08-02",
            "url_tdpse_detail": "https://pse.komdigi.go.id/tdpse-detail/9672",
            "website": "-"
        },
        {
            "id": "9cb1abf9-7366-4e9a-852d-ad37f7c69895",
            "nama_pse": "BUSUR MEDIA INDONESIA",
            "nama_se": "BUSURMEDIA",
            "sektor": "Sektor Teknologi Informasi dan Komunikasi",
            "tanggal_terbit": "2022-08-02",
            "url_tdpse_detail": "https://pse.komdigi.go.id/tdpse-detail/9674",
            "website": "busur.co.id"
        },
        {
            "id": "9cb1ac08-2021-4273-9d42-7a76e3e9e9b8",
            "nama_pse": "APLIKASI LIBURAN INDONESIA",
            "nama_se": "HOLIGO",
            "sektor": "Sektor Keuangan, Sektor Teknologi Informasi dan Komunikasi",
            "tanggal_terbit": "2022-08-02",
            "url_tdpse_detail": "https://pse.komdigi.go.id/tdpse-detail/9675",
            "website": "holigo.co.id"
        },
        {
            "id": "9cb1ac08-2337-4679-bc1a-e28b91a8ef1f",
            "nama_pse": "MEGAHMULIA MANDIRITAMA",
            "nama_se": "SAJI APLIKASI RESTORAN",
            "sektor": "Sektor Perdagangan, Sektor Teknologi Informasi dan Komunikasi",
            "tanggal_terbit": "2022-08-02",
            "url_tdpse_detail": "https://pse.komdigi.go.id/tdpse-detail/9676",
            "website": "tentangsaji.com"
        },
        {
            "id": "9cb1abf9-76df-4d39-a820-e884a346ebbc",
            "nama_pse": "JOJO NOMIC INDONESIA",
            "nama_se": "JOJONOMIC",
            "sektor": "Sektor Teknologi Informasi dan Komunikasi",
            "tanggal_terbit": "2022-08-02",
            "url_tdpse_detail": "https://pse.komdigi.go.id/tdpse-detail/9678",
            "website": "jojonomic.com"
        },
        {
            "id": "9cb1ac08-2649-4260-ab46-29ffbee9bc19",
            "nama_pse": "CUKUP SATU ILMU TEPAT",
            "nama_se": "SATU ILMU",
            "sektor": "Sektor Teknologi Informasi dan Komunikasi",
            "tanggal_terbit": "2022-08-02",
            "url_tdpse_detail": "https://pse.komdigi.go.id/tdpse-detail/9680",
            "website": "satuilmu.com"
        },
        {
            "id": "9cb1abd2-f3bd-4b30-8cf2-1ce4079a5b12",
            "nama_pse": "UNGGUL PAWENANG SENTOSA",
            "nama_se": "PEMELIHARAAN INSTALASI LISTRIK",
            "sektor": "Sektor Energi dan Sumber Daya Mineral",
            "tanggal_terbit": "2022-08-02",
            "url_tdpse_detail": "https://pse.komdigi.go.id/tdpse-detail/9681",
            "website": "upscompany.co.id"
        },
        {
            "id": "9cb1abf9-8594-40b0-8cd6-6e634c577fe6",
            "nama_pse": "ANTRA KUSUMA NENGGALA",
            "nama_se": "CEKFAKTUR.COM",
            "sektor": "Sektor Perdagangan",
            "tanggal_terbit": "2022-08-02",
            "url_tdpse_detail": "https://pse.komdigi.go.id/tdpse-detail/9682",
            "website": "cekfaktur.com"
        },
        {
            "id": "9cb1abf9-88e2-4745-8816-c10583d5169c",
            "nama_pse": "DIGIMEDIA ANDALAN NUSANTARA",
            "nama_se": "DUITOLOGI",
            "sektor": "Sektor Teknologi Informasi dan Komunikasi",
            "tanggal_terbit": "2022-08-02",
            "url_tdpse_detail": "https://pse.komdigi.go.id/tdpse-detail/9683",
            "website": "duitologi.com"
        },
        {
            "id": "9cb1abf9-8e4e-4b15-8ba0-73dabbe35a82",
            "nama_pse": "FAISAL RIZA",
            "nama_se": "TERAS KUOTA",
            "sektor": "Sektor Keuangan",
            "tanggal_terbit": "2022-08-02",
            "url_tdpse_detail": "https://pse.komdigi.go.id/tdpse-detail/9684",
            "website": "teraskuota.com"
        },
        {
            "id": "9cb1abf9-9259-4403-9412-85b6ebe474bd",
            "nama_pse": "HANAFIA USMAN",
            "nama_se": "GIDOHAE.COM",
            "sektor": "Sektor Teknologi Informasi dan Komunikasi",
            "tanggal_terbit": "2022-08-02",
            "url_tdpse_detail": "https://pse.komdigi.go.id/tdpse-detail/9686",
            "website": "gidohae.com"
        },
        {
            "id": "9cb1ac08-2c64-4795-b26e-1840e4c16d3a",
            "nama_pse": "ERISTA DWATIGA TEKNOLOGI",
            "nama_se": "ERISTA",
            "sektor": "Sektor Teknologi Informasi dan Komunikasi",
            "tanggal_terbit": "2022-08-02",
            "url_tdpse_detail": "https://pse.komdigi.go.id/tdpse-detail/9687",
            "website": "erista.io"
        },
        {
            "id": "9cb1abf9-9571-463e-a3a6-5d704a65584a",
            "nama_pse": "ASURANSI JIWA MANULIFE INDONESIA",
            "nama_se": "MILEARN",
            "sektor": "Sektor Keuangan",
            "tanggal_terbit": "2022-08-02",
            "url_tdpse_detail": "https://pse.komdigi.go.id/tdpse-detail/9688",
            "website": "milearn.codemi.co.id"
        },
        {
            "id": "9cb1abd2-f70e-4571-ad99-6df10851bcc1",
            "nama_pse": "VINCENT SURYANTO",
            "nama_se": "VIERIS ID",
            "sektor": "Sektor Perdagangan",
            "tanggal_terbit": "2022-08-02",
            "url_tdpse_detail": "https://pse.komdigi.go.id/tdpse-detail/9689",
            "website": "vieris.my.id"
        },
        {
            "id": "9cb1abd2-fb02-4415-9a01-ed496f34474e",
            "nama_pse": "ASURANSI JIWA MANULIFE INDONESIA",
            "nama_se": "ESOLUTION",
            "sektor": "Sektor Keuangan",
            "tanggal_terbit": "2022-08-02",
            "url_tdpse_detail": "https://pse.komdigi.go.id/tdpse-detail/9690",
            "website": "-"
        },
        {
            "id": "9cb1ac08-2f23-4b61-a2f5-17ae6fe06008",
            "nama_pse": "MARKPLUS INDONESIA",
            "nama_se": "WWW.LEARNING.MARKPLUSINSTITUTE.COM/",
            "sektor": "Sektor Teknologi Informasi dan Komunikasi",
            "tanggal_terbit": "2022-08-02",
            "url_tdpse_detail": "https://pse.komdigi.go.id/tdpse-detail/9691",
            "website": "markplusinstitute.com"
        },
        {
            "id": "9cb1abf9-9acb-4d81-853b-366f85aadea6",
            "nama_pse": "PORTAL JATIM MEDIA",
            "nama_se": "CV PORTAL JATIM MEDIA",
            "sektor": "Sektor Teknologi Informasi dan Komunikasi",
            "tanggal_terbit": "2022-08-02",
            "url_tdpse_detail": "https://pse.komdigi.go.id/tdpse-detail/9693",
            "website": "portalcommunication.com"
        },
        {
            "id": "9cb1ac08-3215-4667-899f-9b92c21e6ab7",
            "nama_pse": "ANUGRAH KARYA INDONESIA",
            "nama_se": "EHR SYSTEM LIVE",
            "sektor": "Sektor Teknologi Informasi dan Komunikasi",
            "tanggal_terbit": "2022-08-02",
            "url_tdpse_detail": "https://pse.komdigi.go.id/tdpse-detail/9694",
            "website": "hrindo.id"
        },
        {
            "id": "9cb1abd2-ffc5-4e90-b13e-7587e2ad64c2",
            "nama_pse": "INTEGRASI PRODUKTIVITAS INDONESIA",
            "nama_se": "LINK PRODUCTIVE",
            "sektor": "Sektor Perdagangan, Sektor Teknologi Informasi dan Komunikasi",
            "tanggal_terbit": "2022-08-02",
            "url_tdpse_detail": "https://pse.komdigi.go.id/tdpse-detail/9696",
            "website": "linkproductive.com"
        },
        {
            "id": "9cb1ac08-359a-490f-9e9f-a0ffe8485915",
            "nama_pse": "ASURANSI JIWA MANULIFE INDONESIA",
            "nama_se": "CWS INDIVIDU",
            "sektor": "Sektor Keuangan",
            "tanggal_terbit": "2022-08-02",
            "url_tdpse_detail": "https://pse.komdigi.go.id/tdpse-detail/9697",
            "website": "mi-account.manulife.co.id"
        },
        {
            "id": "9cb1ac08-3912-48c1-b754-db54e29b086a",
            "nama_pse": "ASURANSI JIWA MANULIFE INDONESIA",
            "nama_se": "CWS GLH",
            "sektor": "Sektor Keuangan",
            "tanggal_terbit": "2022-08-02",
            "url_tdpse_detail": "https://pse.komdigi.go.id/tdpse-detail/9700",
            "website": "miaccount.manulife.co.id"
        },
        {
            "id": "9cb1abd3-0a80-449e-818b-c16a1a0ca6b0",
            "nama_pse": "CAKRAWALA PUTRA NUSANTARA",
            "nama_se": "COALSYS",
            "sektor": "Sektor Teknologi Informasi dan Komunikasi",
            "tanggal_terbit": "2022-08-02",
            "url_tdpse_detail": "https://pse.komdigi.go.id/tdpse-detail/9701",
            "website": "coalsys.sadix.com"
        },
        {
            "id": "9cb1ac08-3c38-4bd7-9d22-200553728be5",
            "nama_pse": "DADI BANGUN NUSA",
            "nama_se": "SELISO",
            "sektor": "Sektor Teknologi Informasi dan Komunikasi",
            "tanggal_terbit": "2022-08-02",
            "url_tdpse_detail": "https://pse.komdigi.go.id/tdpse-detail/9702",
            "website": "seliso.chat"
        },
        {
            "id": "9cb1ac08-4415-49a6-a1fe-72277d3042fd",
            "nama_pse": "SINERGI KARYA SEJAHTERA",
            "nama_se": "PT SINERGI KARYA SEJAHTERA",
            "sektor": "Sektor Perdagangan",
            "tanggal_terbit": "2022-08-02",
            "url_tdpse_detail": "https://pse.komdigi.go.id/tdpse-detail/9705",
            "website": "sinergikarya.co.id"
        },
        {
            "id": "9cb1abd3-0e6f-436a-bca1-ee85fa6471a1",
            "nama_pse": "LOG KAR INDONESIA",
            "nama_se": "APLIKASI LOGKAR",
            "sektor": "Sektor Perdagangan",
            "tanggal_terbit": "2022-08-02",
            "url_tdpse_detail": "https://pse.komdigi.go.id/tdpse-detail/9706",
            "website": "logkar.com"
        },
        {
            "id": "9cb1abf9-a25b-47ca-937a-ebd72762ce94",
            "nama_pse": "KOMPAK INDOPOLA",
            "nama_se": "WEBSITE TRAINING",
            "sektor": "Sektor Perdagangan",
            "tanggal_terbit": "2022-08-02",
            "url_tdpse_detail": "https://pse.komdigi.go.id/tdpse-detail/9709",
            "website": "kompaklibrary.com"
        },
        {
            "id": "9cb1abf9-a85b-4e97-a775-9925f592d71a",
            "nama_pse": "Enterpro",
            "nama_se": "ENTEPRO",
            "sektor": "Sektor Teknologi Informasi dan Komunikasi",
            "tanggal_terbit": "2022-08-02",
            "url_tdpse_detail": "https://pse.komdigi.go.id/tdpse-detail/9707",
            "website": "entepro.id"
        }
    ],
    "processingTimeMs": 4,
    "query": "",
    "totalHits": 19131,
    "hitsPerPage": 50,
    "page": 211,
    "totalPages": 383
}