{
    "hits": [
        {
            "id": "9cb1ac84-b6d1-4097-9297-54767b0c1725",
            "nama_pse": "POWER NETWORKING INDONESIA",
            "nama_se": "PT POWER NETWORKING",
            "sektor": "Sektor Perdagangan",
            "tanggal_terbit": "2024-05-01",
            "url_tdpse_detail": "https://pse.komdigi.go.id/tdpse-detail/18771",
            "website": "-"
        },
        {
            "id": "9cb1ac5a-5f50-4b98-8762-941cec4d69c0",
            "nama_pse": "RANDY AL FIYAN",
            "nama_se": "WEWESTORE.ID",
            "sektor": "Sektor Teknologi Informasi dan Komunikasi",
            "tanggal_terbit": "2024-05-01",
            "url_tdpse_detail": "https://pse.komdigi.go.id/tdpse-detail/18763",
            "website": "wewestore.id"
        },
        {
            "id": "9cb1ac6f-3fad-4bd1-a5de-8260ae1bdec9",
            "nama_pse": "TRANS LINK INTERNASIONAL",
            "nama_se": "MISBAH GROUP",
            "sektor": "Sektor Teknologi Informasi dan Komunikasi",
            "tanggal_terbit": "2024-05-01",
            "url_tdpse_detail": "https://pse.komdigi.go.id/tdpse-detail/18764",
            "website": "-"
        },
        {
            "id": "9cb1ac6f-4874-4c9b-b406-ecf370b3e29f",
            "nama_pse": "ZAN MICRO SYSTEM",
            "nama_se": "FASTBOOK ONLINE",
            "sektor": "Sektor Perdagangan",
            "tanggal_terbit": "2024-05-01",
            "url_tdpse_detail": "https://pse.komdigi.go.id/tdpse-detail/18765",
            "website": "zmsweb.com"
        },
        {
            "id": "9cb1ac5a-62b2-48b4-a2d7-c654134a8a2d",
            "nama_pse": "PERORANGAN BINA USAHA",
            "nama_se": "PERORANGAN.CO.ID",
            "sektor": "Sektor Teknologi Informasi dan Komunikasi",
            "tanggal_terbit": "2024-05-01",
            "url_tdpse_detail": "https://pse.komdigi.go.id/tdpse-detail/18766",
            "website": "Perorangan.co.id"
        },
        {
            "id": "9cb1ac5a-65d6-4ed3-b540-7e2a6f1e3d0c",
            "nama_pse": "OCEAN SHELL TRAVELERS",
            "nama_se": "OSTREVELLERS.COM",
            "sektor": "Sektor Transportasi",
            "tanggal_terbit": "2024-05-01",
            "url_tdpse_detail": "https://pse.komdigi.go.id/tdpse-detail/18767",
            "website": "ostravelers.com"
        },
        {
            "id": "9cb1ac6f-5231-4131-98a0-c022e09092af",
            "nama_pse": "JGM MEETQUEST DIGITECH",
            "nama_se": "QUESTERTWIT",
            "sektor": "Sektor Teknologi Informasi dan Komunikasi",
            "tanggal_terbit": "2024-05-01",
            "url_tdpse_detail": "https://pse.komdigi.go.id/tdpse-detail/18768",
            "website": "questertwit.com"
        },
        {
            "id": "9cb1ac6f-5526-4c19-a813-6eb4ee21c13c",
            "nama_pse": "TRANS LINK INTERNASIONAL",
            "nama_se": "TLI-MISBAH GROUP",
            "sektor": "Sektor Teknologi Informasi dan Komunikasi",
            "tanggal_terbit": "2024-05-01",
            "url_tdpse_detail": "https://pse.komdigi.go.id/tdpse-detail/18769",
            "website": "-"
        },
        {
            "id": "9cb1ac6f-5893-4367-9ddb-9b6aaecef0e2",
            "nama_pse": "POWER NETWORKING INDONESIA",
            "nama_se": "PT POWER NETWORKING INDONESIA",
            "sektor": "Sektor Teknologi Informasi dan Komunikasi",
            "tanggal_terbit": "2024-05-01",
            "url_tdpse_detail": "https://pse.komdigi.go.id/tdpse-detail/18770",
            "website": "-"
        },
        {
            "id": "9cb1ac84-be78-44ea-a443-7905b8186553",
            "nama_pse": "GROUND HANDLING SERVICE",
            "nama_se": "PT. GROUND HANDLING SERVICE",
            "sektor": "Sektor Transportasi",
            "tanggal_terbit": "2024-05-01",
            "url_tdpse_detail": "https://pse.komdigi.go.id/tdpse-detail/18774",
            "website": "-"
        },
        {
            "id": "9cb1ac84-bab0-4397-ab59-236db369d8a8",
            "nama_pse": "POWER NETWORKING INDONESIA",
            "nama_se": "PT POWER NETWORKING INDONESIAA",
            "sektor": "Sektor Teknologi Informasi dan Komunikasi",
            "tanggal_terbit": "2024-05-01",
            "url_tdpse_detail": "https://pse.komdigi.go.id/tdpse-detail/18772",
            "website": "-"
        },
        {
            "id": "9cb1ac5a-6ce3-42e1-b83f-8dee5265de88",
            "nama_pse": "JALALUDDIN MEDIA SOLUTION",
            "nama_se": "PT JALLUDDIN MEDIA SOLUTION",
            "sektor": "Sektor Teknologi Informasi dan Komunikasi",
            "tanggal_terbit": "2024-05-01",
            "url_tdpse_detail": "https://pse.komdigi.go.id/tdpse-detail/18773",
            "website": "-"
        },
        {
            "id": "9cb1ac6f-270a-483c-8d60-8b7882f4f3eb",
            "nama_pse": "BFI FINANCE INDONESIA",
            "nama_se": "SQUARE",
            "sektor": "Sektor Keuangan",
            "tanggal_terbit": "2024-04-30",
            "url_tdpse_detail": "https://pse.komdigi.go.id/tdpse-detail/18749",
            "website": "-"
        },
        {
            "id": "9cb1ac84-73e1-405e-98c5-3da2a35d95bb",
            "nama_pse": "EMPAT RELASI AGUNG",
            "nama_se": "FOURPIONEERS",
            "sektor": "Sektor Perdagangan",
            "tanggal_terbit": "2024-04-30",
            "url_tdpse_detail": "https://pse.komdigi.go.id/tdpse-detail/18754",
            "website": "fourpioneer.com"
        },
        {
            "id": "9cb1ac84-6cfc-4a6e-945b-1f18318e117b",
            "nama_pse": "ELEMENT PAYMENT SOLUTIONS",
            "nama_se": "ELEMENT PAY",
            "sektor": "Sektor Teknologi Informasi dan Komunikasi",
            "tanggal_terbit": "2024-04-30",
            "url_tdpse_detail": "https://pse.komdigi.go.id/tdpse-detail/18750",
            "website": "elementpay.io"
        },
        {
            "id": "9cb1ac84-707f-451b-9ec4-c8f4800745e3",
            "nama_pse": "IDDO BRIAN ADDI OKTAMA",
            "nama_se": "E-ARTAMARA",
            "sektor": "Sektor Kesehatan",
            "tanggal_terbit": "2024-04-30",
            "url_tdpse_detail": "https://pse.komdigi.go.id/tdpse-detail/18751",
            "website": "-"
        },
        {
            "id": "9cb1ac6f-30a7-4960-807a-907a5868aa02",
            "nama_pse": "INFORSYS INDONESIA",
            "nama_se": "INFORSYS",
            "sektor": "Sektor Teknologi Informasi dan Komunikasi",
            "tanggal_terbit": "2024-04-30",
            "url_tdpse_detail": "https://pse.komdigi.go.id/tdpse-detail/18752",
            "website": "inforsys.co.id"
        },
        {
            "id": "9cb1ac5a-5273-4add-a1e4-c97b2b6483c3",
            "nama_pse": "DELTA UNGGUL SELARAS",
            "nama_se": "DELTA FANTASY",
            "sektor": "Sektor Perdagangan",
            "tanggal_terbit": "2024-04-30",
            "url_tdpse_detail": "https://pse.komdigi.go.id/tdpse-detail/18753",
            "website": "deltafantasyworld.com"
        },
        {
            "id": "9cb1ac5a-55ce-4495-a748-db7f7e673a25",
            "nama_pse": "PANGLIMA PUJI NUSANTARA",
            "nama_se": "PANGLIMA PUJI NUSANTARA",
            "sektor": "Sektor Perdagangan",
            "tanggal_terbit": "2024-04-30",
            "url_tdpse_detail": "https://pse.komdigi.go.id/tdpse-detail/18755",
            "website": "-"
        },
        {
            "id": "9cb1ac6f-3415-4896-90c4-cd4acca00190",
            "nama_pse": "IMPIAN NADA INTEGRA",
            "nama_se": "NADAGAMES",
            "sektor": "Sektor Perdagangan",
            "tanggal_terbit": "2024-04-30",
            "url_tdpse_detail": "https://pse.komdigi.go.id/tdpse-detail/18756",
            "website": "gamenada.com"
        },
        {
            "id": "9cb1ac6f-384e-48d6-9286-f5a89d270549",
            "nama_pse": "SERTIFIKASI ANDALAN KITA",
            "nama_se": "SERTIFIKASI ANDALAN KITA",
            "sektor": "Sektor Perdagangan, Sektor Teknologi Informasi dan Komunikasi",
            "tanggal_terbit": "2024-04-30",
            "url_tdpse_detail": "https://pse.komdigi.go.id/tdpse-detail/18760",
            "website": "sbujkskk-andalankita.com"
        },
        {
            "id": "9cb1ac5a-5907-41e1-bb97-921ac581f42b",
            "nama_pse": "PASTI LABA SOLUSI TEKNOLOGI",
            "nama_se": "REKALABA",
            "sektor": "Sektor Perdagangan, Sektor Teknologi Informasi dan Komunikasi",
            "tanggal_terbit": "2024-04-30",
            "url_tdpse_detail": "https://pse.komdigi.go.id/tdpse-detail/18757",
            "website": "rekalaba.com"
        },
        {
            "id": "9cb1ac6f-3c37-4b0a-9650-e2ee61746581",
            "nama_pse": "MULTINDO MANDIRI PERKASA",
            "nama_se": "SAVEPLUS",
            "sektor": "Sektor Perdagangan, Sektor Teknologi Informasi dan Komunikasi",
            "tanggal_terbit": "2024-04-30",
            "url_tdpse_detail": "https://pse.komdigi.go.id/tdpse-detail/18759",
            "website": "saveplus.co.id"
        },
        {
            "id": "9cb1ac84-9d7f-4527-bded-4d80a0308a84",
            "nama_pse": "TOYO BUSINESS ENGINEERING INDONESIA",
            "nama_se": "WEVOX",
            "sektor": "Sektor Teknologi Informasi dan Komunikasi",
            "tanggal_terbit": "2024-04-30",
            "url_tdpse_detail": "https://pse.komdigi.go.id/tdpse-detail/18758",
            "website": "wevox.io"
        },
        {
            "id": "9cb1ac84-ae1e-4092-b1d1-2e40e4f53f3c",
            "nama_pse": "AKASA MEDIA KOMUNIKA",
            "nama_se": "RELOAD PULSA",
            "sektor": "Sektor Perdagangan, Sektor Teknologi Informasi dan Komunikasi",
            "tanggal_terbit": "2024-04-30",
            "url_tdpse_detail": "https://pse.komdigi.go.id/tdpse-detail/18761",
            "website": "reloadpulsa.co.id"
        },
        {
            "id": "9cb1ac5a-5c2a-4a3e-9175-acde14ff469e",
            "nama_pse": "BIMA KARYA SAGARA",
            "nama_se": "BIMO.ID (RT RWNET)",
            "sektor": "Sektor Teknologi Informasi dan Komunikasi",
            "tanggal_terbit": "2024-04-30",
            "url_tdpse_detail": "https://pse.komdigi.go.id/tdpse-detail/18762",
            "website": "-"
        },
        {
            "id": "9cb1ac84-6476-4ccc-9ca3-b415a7c8a6e3",
            "nama_pse": "IBERMART INDONESIA BERSATU",
            "nama_se": "IBERMART",
            "sektor": "Sektor Perdagangan",
            "tanggal_terbit": "2024-04-29",
            "url_tdpse_detail": "https://pse.komdigi.go.id/tdpse-detail/18745",
            "website": "ibermart.my.id"
        },
        {
            "id": "9cb1ac84-1c9a-4c23-8b58-dfad397b6a68",
            "nama_pse": "ZAINAL ATIQQUROHMAN",
            "nama_se": "RME SMART-KLINIK",
            "sektor": "Sektor Kesehatan",
            "tanggal_terbit": "2024-04-29",
            "url_tdpse_detail": "https://pse.komdigi.go.id/tdpse-detail/18738",
            "website": "smart-klinik.com"
        },
        {
            "id": "9cb1ac6e-df9f-44d7-a328-d94d521b7fd7",
            "nama_pse": "DYANDRA PROMOSINDO",
            "nama_se": "DYANDRA TIKET",
            "sektor": "Sektor Teknologi Informasi dan Komunikasi",
            "tanggal_terbit": "2024-04-29",
            "url_tdpse_detail": "https://pse.komdigi.go.id/tdpse-detail/18740",
            "website": "dyandratiket.com"
        },
        {
            "id": "9cb1ac5a-33ba-4a52-9433-17e766813dc5",
            "nama_pse": "BACA BERITA SIBER",
            "nama_se": "BACABERITA.CO.ID",
            "sektor": "Sektor Teknologi Informasi dan Komunikasi",
            "tanggal_terbit": "2024-04-29",
            "url_tdpse_detail": "https://pse.komdigi.go.id/tdpse-detail/18731",
            "website": "Bacaberita.co.id"
        },
        {
            "id": "9cb1ac84-34eb-4657-8bd4-d2913a63dfef",
            "nama_pse": "LENDANA DIGITALINDO NUSANTARA",
            "nama_se": "PEKERJA MIGRAN",
            "sektor": "Sektor Keuangan",
            "tanggal_terbit": "2024-04-29",
            "url_tdpse_detail": "https://pse.komdigi.go.id/tdpse-detail/18733",
            "website": "pekerjamigran.com"
        },
        {
            "id": "9cb1ac6f-0ad3-4e35-80a1-1b6d36115069",
            "nama_pse": "LENDANA DIGITALINDO NUSANTARA",
            "nama_se": "LENDANA",
            "sektor": "Sektor Keuangan",
            "tanggal_terbit": "2024-04-29",
            "url_tdpse_detail": "https://pse.komdigi.go.id/tdpse-detail/18734",
            "website": "lendana.id"
        },
        {
            "id": "9cb1ac5a-2772-4df5-8e6a-17518c5a41ab",
            "nama_pse": "AINO INDONESIA",
            "nama_se": "AINO INDONESIAN",
            "sektor": "Sektor Transportasi, Sektor Keuangan",
            "tanggal_terbit": "2024-04-29",
            "url_tdpse_detail": "https://pse.komdigi.go.id/tdpse-detail/18735",
            "website": "-"
        },
        {
            "id": "9cb1ac84-4d0e-40ac-b6e1-8c03c45447f2",
            "nama_pse": "VASCOMM SOLUSI TEKNOLOGI",
            "nama_se": "KELOLAHR",
            "sektor": "Sektor Teknologi Informasi dan Komunikasi",
            "tanggal_terbit": "2024-04-29",
            "url_tdpse_detail": "https://pse.komdigi.go.id/tdpse-detail/18736",
            "website": "kelolahr.id"
        },
        {
            "id": "9cb1ac6f-1de5-4721-bd7f-bd5ef4a22b5c",
            "nama_pse": "ZAID AKHDAR BARAKA",
            "nama_se": "KANALASINTERIOR.ID",
            "sektor": "Sektor Perdagangan",
            "tanggal_terbit": "2024-04-29",
            "url_tdpse_detail": "https://pse.komdigi.go.id/tdpse-detail/18737",
            "website": "kanalasinterior.id"
        },
        {
            "id": "9cb1ac6f-211f-429f-a5f6-bd656b1778fe",
            "nama_pse": "GYATSO MOBILE RELOAD",
            "nama_se": "RC_PAY",
            "sektor": "Sektor Perdagangan",
            "tanggal_terbit": "2024-04-29",
            "url_tdpse_detail": "https://pse.komdigi.go.id/tdpse-detail/18739",
            "website": "-"
        },
        {
            "id": "9cb1ac6f-2415-4d09-89a1-5dcefdd35f59",
            "nama_pse": "AMINDOWAY JAYA",
            "nama_se": "AMWAY.ID",
            "sektor": "Sektor Perdagangan",
            "tanggal_terbit": "2024-04-29",
            "url_tdpse_detail": "https://pse.komdigi.go.id/tdpse-detail/18746",
            "website": "Amway.id"
        },
        {
            "id": "9cb1ac84-5bdc-4afd-a766-fb69067507b5",
            "nama_pse": "PUTO MANDIRI UTAMA",
            "nama_se": "PUNRIMA",
            "sektor": "Sektor Teknologi Informasi dan Komunikasi",
            "tanggal_terbit": "2024-04-29",
            "url_tdpse_detail": "https://pse.komdigi.go.id/tdpse-detail/18741",
            "website": "-"
        },
        {
            "id": "9cb1ac6f-29f1-459f-bcb9-872abe0f0f17",
            "nama_pse": "ESOFTDREAM SOLUSI BISNIS",
            "nama_se": "ESOFTDREAM",
            "sektor": "Sektor Teknologi Informasi dan Komunikasi",
            "tanggal_terbit": "2024-04-29",
            "url_tdpse_detail": "https://pse.komdigi.go.id/tdpse-detail/18742",
            "website": "esoftdream.net"
        },
        {
            "id": "9cb1ac84-5ff0-4217-9308-cf19c76e8221",
            "nama_pse": "BUMI OPTIMA SOLUSI",
            "nama_se": "BUMI OPTIMA",
            "sektor": "Sektor Perdagangan",
            "tanggal_terbit": "2024-04-29",
            "url_tdpse_detail": "https://pse.komdigi.go.id/tdpse-detail/18743",
            "website": "bumioptima.com"
        },
        {
            "id": "9cb1ac5a-42e7-4cb3-9ba6-b533500103dc",
            "nama_pse": "CENTRA ARTHA TEKNOLOGI",
            "nama_se": "CENTRA WORLD",
            "sektor": "Sektor Perdagangan",
            "tanggal_terbit": "2024-04-29",
            "url_tdpse_detail": "https://pse.komdigi.go.id/tdpse-detail/18744",
            "website": "centraworlds.com"
        },
        {
            "id": "9cb1ac5a-4962-4a97-8e43-1ceb59c5c332",
            "nama_pse": "WELLDONESKILLS NAWARA PRATAMA",
            "nama_se": "WELLDONESKILLS NAWARA PRATAMA",
            "sektor": "Sektor Perdagangan, Sektor Teknologi Informasi dan Komunikasi",
            "tanggal_terbit": "2024-04-29",
            "url_tdpse_detail": "https://pse.komdigi.go.id/tdpse-detail/18747",
            "website": "-"
        },
        {
            "id": "9cb1ac84-69e8-4166-ae1f-6d259df6e564",
            "nama_pse": "DARMAJAYA DIGITAL SOLUSI",
            "nama_se": "SIPBE METADESA",
            "sektor": "Sektor Teknologi Informasi dan Komunikasi",
            "tanggal_terbit": "2024-04-29",
            "url_tdpse_detail": "https://pse.komdigi.go.id/tdpse-detail/18748",
            "website": "metadesa.id"
        },
        {
            "id": "9cb1ac6f-1533-47a3-96dc-dda30c326900",
            "nama_pse": "ERA DIGITAL NEWS",
            "nama_se": "ERADIGITALNEWS.COM",
            "sektor": "Sektor Teknologi Informasi dan Komunikasi",
            "tanggal_terbit": "2024-04-28",
            "url_tdpse_detail": "https://pse.komdigi.go.id/tdpse-detail/18729",
            "website": "eradigitalnews.com"
        },
        {
            "id": "9cb1ac6f-1832-48f4-884d-864c2bb9ab11",
            "nama_pse": "SAHABAT DIGITAL NUSANTARA",
            "nama_se": "SAHABAT KONTER",
            "sektor": "Sektor Perdagangan, Sektor Teknologi Informasi dan Komunikasi",
            "tanggal_terbit": "2024-04-28",
            "url_tdpse_detail": "https://pse.komdigi.go.id/tdpse-detail/18730",
            "website": "sahabatkonter.co.id"
        },
        {
            "id": "9cb1ac84-4153-4a1f-92bc-507cf51d6231",
            "nama_pse": "LANGKIBO",
            "nama_se": "HOPE",
            "sektor": "Sektor Kesehatan",
            "tanggal_terbit": "2024-04-27",
            "url_tdpse_detail": "https://pse.komdigi.go.id/tdpse-detail/18728",
            "website": "-"
        },
        {
            "id": "9cb1ac6f-1238-41a5-a040-9048f9e634ea",
            "nama_pse": "DIGITAL NUSANTARA MAHAJAYA",
            "nama_se": "DIGANTARA MAHAJAYA",
            "sektor": "Sektor Perdagangan",
            "tanggal_terbit": "2024-04-27",
            "url_tdpse_detail": "https://pse.komdigi.go.id/tdpse-detail/18725",
            "website": "digantara.tech"
        },
        {
            "id": "9cb1ac84-3a6d-48a9-a233-088f2a7511f6",
            "nama_pse": "LAKSANA JAYA NETWORK",
            "nama_se": "LAKSANA JAYA NETWORK",
            "sektor": "Sektor Teknologi Informasi dan Komunikasi",
            "tanggal_terbit": "2024-04-27",
            "url_tdpse_detail": "https://pse.komdigi.go.id/tdpse-detail/18726",
            "website": "-"
        },
        {
            "id": "9cb1ac5a-305b-498c-b20f-f960ce421a6a",
            "nama_pse": "DATA FORTUNA SOLUTION",
            "nama_se": "KLINIK PRATAMA MELANIA",
            "sektor": "Sektor Kesehatan, Sektor Teknologi Informasi dan Komunikasi",
            "tanggal_terbit": "2024-04-27",
            "url_tdpse_detail": "https://pse.komdigi.go.id/tdpse-detail/18727",
            "website": "klinikpratamamelania.com"
        },
        {
            "id": "9cb1ac6c-8124-4a64-99c6-35b344ebcea9",
            "nama_pse": "REZEKI PIRANTI SEJAHTERA",
            "nama_se": "TECHMEDIS",
            "sektor": "Sektor Teknologi Informasi dan Komunikasi",
            "tanggal_terbit": "2024-04-26",
            "url_tdpse_detail": "https://pse.komdigi.go.id/tdpse-detail/18716",
            "website": "rsudaekkanopan.com"
        }
    ],
    "processingTimeMs": 3,
    "query": "",
    "totalHits": 19131,
    "hitsPerPage": 50,
    "page": 70,
    "totalPages": 383
}