{
    "hits": [
        {
            "id": "9cb1ab94-a8b8-48ed-9b3b-0ead74a135b5",
            "nama_pse": "SAKTI PERKAKAS NUSANTARA",
            "nama_se": "SAKTITOOLS.COM",
            "sektor": "Sektor Perdagangan, Sektor Teknologi Informasi dan Komunikasi",
            "tanggal_terbit": "2022-04-05",
            "url_tdpse_detail": "https://pse.komdigi.go.id/tdpse-detail/3779",
            "website": "saktitools.com"
        },
        {
            "id": "9cb1aba1-2a12-4340-a174-3ca8c5e4c66d",
            "nama_pse": "DIMO PAY INDONESIA",
            "nama_se": "VERIFICATION AND IDENTIFICATION AGGREGATOR SERVICE",
            "sektor": "Sektor Teknologi Informasi dan Komunikasi",
            "tanggal_terbit": "2022-04-05",
            "url_tdpse_detail": "https://pse.komdigi.go.id/tdpse-detail/3769",
            "website": "dimo.co.id"
        },
        {
            "id": "9cb1ab94-f88f-44c2-8b60-7989ddaaac8f",
            "nama_pse": "JATI NEGARA TEKNOLOGI INDONESIA",
            "nama_se": "PLATFORM ELECTRONIC PEER TO PEER OPERATIONAL",
            "sektor": "Sektor Perdagangan, Sektor Teknologi Informasi dan Komunikasi",
            "tanggal_terbit": "2022-04-05",
            "url_tdpse_detail": "https://pse.komdigi.go.id/tdpse-detail/3780",
            "website": "peppo.co.id"
        },
        {
            "id": "9cb1aba0-4975-4844-ba31-cee3dd9d0b42",
            "nama_pse": "SUMBER INFORMASI TERPERINCI",
            "nama_se": "SUMINTER.ID",
            "sektor": "Sektor Perdagangan",
            "tanggal_terbit": "2022-04-04",
            "url_tdpse_detail": "https://pse.komdigi.go.id/tdpse-detail/3767",
            "website": "suminter.id"
        },
        {
            "id": "9cb1ab93-dfbb-4c86-91ee-e45ea7682cb8",
            "nama_pse": "WIDIA EVA SARI",
            "nama_se": "WIDIA EVA SARI",
            "sektor": "Sektor Perdagangan",
            "tanggal_terbit": "2022-04-04",
            "url_tdpse_detail": "https://pse.komdigi.go.id/tdpse-detail/3762",
            "website": "-"
        },
        {
            "id": "9cb1ab94-0317-40d1-9c18-9f333690531f",
            "nama_pse": "MOTION CRYPTO TECHNOLOGY",
            "nama_se": "MOTION CRYPTO",
            "sektor": "Sektor Perdagangan",
            "tanggal_terbit": "2022-04-04",
            "url_tdpse_detail": "https://pse.komdigi.go.id/tdpse-detail/3768",
            "website": "motioncrypto.id"
        },
        {
            "id": "9cb1ab94-0608-4191-b857-713dfa19d799",
            "nama_pse": "TEKNOLOGI ASET DIGITAL",
            "nama_se": "SISTEM ELEKTRONIK BLOCKNOM",
            "sektor": "Sektor Teknologi Informasi dan Komunikasi",
            "tanggal_terbit": "2022-04-04",
            "url_tdpse_detail": "https://pse.komdigi.go.id/tdpse-detail/3763",
            "website": "blocknom.com"
        },
        {
            "id": "9cb1ab94-08ac-40f3-ad52-2134daefd296",
            "nama_pse": "GLOBAL CARS INDONESIA",
            "nama_se": "CAR24.CO.ID",
            "sektor": "Sektor Perdagangan",
            "tanggal_terbit": "2022-04-04",
            "url_tdpse_detail": "https://pse.komdigi.go.id/tdpse-detail/3764",
            "website": "car24.co.id"
        },
        {
            "id": "9cb1abab-3c79-46b9-8fb0-dd420901b267",
            "nama_pse": "PLUANG EMAS SEJAHTERA",
            "nama_se": "PLUANG",
            "sektor": "Sektor Perdagangan",
            "tanggal_terbit": "2022-04-04",
            "url_tdpse_detail": "https://pse.komdigi.go.id/tdpse-detail/3761",
            "website": "pluang.com"
        },
        {
            "id": "9cb1abab-5807-4db0-ac0e-3f811acdd0d3",
            "nama_pse": "GOPAPUA CARSTENZ SISTEGRA",
            "nama_se": "OPPA",
            "sektor": "Sektor Perdagangan, Sektor Transportasi, Sektor Teknologi Informasi dan Komunikasi",
            "tanggal_terbit": "2022-04-04",
            "url_tdpse_detail": "https://pse.komdigi.go.id/tdpse-detail/3765",
            "website": "-"
        },
        {
            "id": "9cb1abab-7b9e-49ea-b8d4-6bb87138cf54",
            "nama_pse": "TOEKOKU NIAGA DIGITAL",
            "nama_se": "TOEKOKU",
            "sektor": "Sektor Teknologi Informasi dan Komunikasi",
            "tanggal_terbit": "2022-04-04",
            "url_tdpse_detail": "https://pse.komdigi.go.id/tdpse-detail/3760",
            "website": "toekoku.id"
        },
        {
            "id": "9cb1ab94-b9d3-4e25-a05e-59182502037b",
            "nama_pse": "VALBURY ASIA FUTURES",
            "nama_se": "APLIKASI VALBURY ASIA FUTURES",
            "sektor": "Sektor Keuangan",
            "tanggal_terbit": "2022-04-04",
            "url_tdpse_detail": "https://pse.komdigi.go.id/tdpse-detail/3758",
            "website": "valbury.com"
        },
        {
            "id": "9cb1ab94-bc63-4d34-a7cd-097346548705",
            "nama_pse": "VALBURY ASIA FUTURES",
            "nama_se": "APLIKASI VALBURY ASIA FUTURES (VALBURY APPS)",
            "sektor": "Sektor Keuangan",
            "tanggal_terbit": "2022-04-04",
            "url_tdpse_detail": "https://pse.komdigi.go.id/tdpse-detail/3759",
            "website": "valbury.com"
        },
        {
            "id": "9cb1abab-e184-4dcb-b1bc-643551b5232f",
            "nama_pse": "TEAK PALACE INDONESIA",
            "nama_se": "TEAK PALACE INDONESIA",
            "sektor": "Sektor Perdagangan",
            "tanggal_terbit": "2022-04-04",
            "url_tdpse_detail": "https://pse.komdigi.go.id/tdpse-detail/3766",
            "website": "teakpalace.com"
        },
        {
            "id": "9cb1aba0-7089-48b3-b113-42098131adbf",
            "nama_pse": "BISH TEKNOLOGI LESTARI",
            "nama_se": "PERDAGANGAN MELALUI SISTEM ELEKTRONIK",
            "sektor": "Sektor Perdagangan, Sektor Kesehatan, Sektor Pertahanan dan Keamanan",
            "tanggal_terbit": "2022-04-03",
            "url_tdpse_detail": "https://pse.komdigi.go.id/tdpse-detail/3755",
            "website": "-"
        },
        {
            "id": "9cb1ab94-38f1-4293-b87d-079c53dd4b4e",
            "nama_pse": "FAJAR HIDAYAT",
            "nama_se": "UKAMERS",
            "sektor": "Sektor Teknologi Informasi dan Komunikasi",
            "tanggal_terbit": "2022-04-03",
            "url_tdpse_detail": "https://pse.komdigi.go.id/tdpse-detail/3754",
            "website": "ukamers.com"
        },
        {
            "id": "9cb1abab-ce26-429d-a043-8746acb3b59e",
            "nama_pse": "FAWZ FINANSIAL INDONESIA",
            "nama_se": "IKUTIN",
            "sektor": "Sektor Teknologi Informasi dan Komunikasi",
            "tanggal_terbit": "2022-04-03",
            "url_tdpse_detail": "https://pse.komdigi.go.id/tdpse-detail/3756",
            "website": "ikutin.id"
        },
        {
            "id": "9cb1aba1-34d0-4447-abee-dc1b35ab0636",
            "nama_pse": "FAWZ FINANSIAL INDONESIA",
            "nama_se": "IKUTIN.ID",
            "sektor": "Sektor Teknologi Informasi dan Komunikasi",
            "tanggal_terbit": "2022-04-03",
            "url_tdpse_detail": "https://pse.komdigi.go.id/tdpse-detail/3757",
            "website": "ikutin.id"
        },
        {
            "id": "9cb1aba9-b839-42e4-82ee-57c28887e7b8",
            "nama_pse": "RAHMAT DENI",
            "nama_se": "D'BANCAH_STORE",
            "sektor": "Sektor Perdagangan, Sektor Perdagangan, Sektor Keuangan, Sektor Keuangan",
            "tanggal_terbit": "2022-04-02",
            "url_tdpse_detail": "https://pse.komdigi.go.id/tdpse-detail/3751",
            "website": "-"
        },
        {
            "id": "9cb1ab94-9428-4208-82e2-b52a099896fb",
            "nama_pse": "SUGIH BERKAH FUTURES",
            "nama_se": "SUGIHBERKAHFUTURES.COM",
            "sektor": "Sektor Perdagangan",
            "tanggal_terbit": "2022-04-02",
            "url_tdpse_detail": "https://pse.komdigi.go.id/tdpse-detail/3753",
            "website": "Sugihberkahfutures.com"
        },
        {
            "id": "9cb1aba9-ba48-4ce4-805e-18d53b88e1dc",
            "nama_pse": "RISMAWAN",
            "nama_se": "RN STUDIO",
            "sektor": "Sektor Teknologi Informasi dan Komunikasi, Sektor Teknologi Informasi dan Komunikasi",
            "tanggal_terbit": "2022-04-01",
            "url_tdpse_detail": "https://pse.komdigi.go.id/tdpse-detail/3742",
            "website": "reeztro.com"
        },
        {
            "id": "9cb1ab9f-85ad-47a7-9f0e-bb5f9167d438",
            "nama_pse": "ASA TECHNOVASINDO",
            "nama_se": "DMC INDONESIA",
            "sektor": "Sektor Teknologi Informasi dan Komunikasi, Sektor Teknologi Informasi dan Komunikasi, Sektor Teknologi Informasi dan Komunikasi, Sektor Teknologi Informasi dan Komunikasi, Sektor Teknologi Informasi dan Komunikasi, Sektor Teknologi Informasi dan Komunikasi",
            "tanggal_terbit": "2022-04-01",
            "url_tdpse_detail": "https://pse.komdigi.go.id/tdpse-detail/3737",
            "website": "digitalmarketingconsultant.id"
        },
        {
            "id": "9cb1aba9-be0c-48cc-905e-79f6c266336b",
            "nama_pse": "ASA TECHNOVASINDO",
            "nama_se": "E-TICKET",
            "sektor": "Sektor Teknologi Informasi dan Komunikasi, Sektor Teknologi Informasi dan Komunikasi, Sektor Teknologi Informasi dan Komunikasi, Sektor Teknologi Informasi dan Komunikasi, Sektor Teknologi Informasi dan Komunikasi, Sektor Teknologi Informasi dan Komunikasi",
            "tanggal_terbit": "2022-04-01",
            "url_tdpse_detail": "https://pse.komdigi.go.id/tdpse-detail/3739",
            "website": "-"
        },
        {
            "id": "9cb1ab9f-8868-4f3f-b144-e04f239c37c1",
            "nama_pse": "ASA TECHNOVASINDO",
            "nama_se": "INTERNET OF THINGS",
            "sektor": "Sektor Teknologi Informasi dan Komunikasi, Sektor Teknologi Informasi dan Komunikasi, Sektor Teknologi Informasi dan Komunikasi, Sektor Teknologi Informasi dan Komunikasi, Sektor Teknologi Informasi dan Komunikasi, Sektor Teknologi Informasi dan Komunikasi",
            "tanggal_terbit": "2022-04-01",
            "url_tdpse_detail": "https://pse.komdigi.go.id/tdpse-detail/3740",
            "website": "asatechnovasindo.com"
        },
        {
            "id": "9cb1ab9f-8b28-4209-a2eb-c167b4c5b17f",
            "nama_pse": "ASA TECHNOVASINDO",
            "nama_se": "SOFTWARE DISTRIBUTIONS",
            "sektor": "Sektor Teknologi Informasi dan Komunikasi, Sektor Teknologi Informasi dan Komunikasi, Sektor Teknologi Informasi dan Komunikasi, Sektor Teknologi Informasi dan Komunikasi, Sektor Teknologi Informasi dan Komunikasi, Sektor Teknologi Informasi dan Komunikasi",
            "tanggal_terbit": "2022-04-01",
            "url_tdpse_detail": "https://pse.komdigi.go.id/tdpse-detail/3741",
            "website": "asatechnovasindo.com"
        },
        {
            "id": "9cb1ab92-6cc8-427c-929f-2ab90330c2a1",
            "nama_pse": "ASA TECHNOVASINDO",
            "nama_se": "IT CONSULTANT",
            "sektor": "Sektor Teknologi Informasi dan Komunikasi, Sektor Teknologi Informasi dan Komunikasi, Sektor Teknologi Informasi dan Komunikasi, Sektor Teknologi Informasi dan Komunikasi, Sektor Teknologi Informasi dan Komunikasi, Sektor Teknologi Informasi dan Komunikasi",
            "tanggal_terbit": "2022-04-01",
            "url_tdpse_detail": "https://pse.komdigi.go.id/tdpse-detail/3743",
            "website": "asatechnovasindo.com"
        },
        {
            "id": "9cb1ab9f-8e2a-4d25-84bf-7547ee43e666",
            "nama_pse": "ASA TECHNOVASINDO",
            "nama_se": "KONSULTASI KOMPUTER DAN MANAJEMEN FASILITAS KOMPUTER",
            "sektor": "Sektor Teknologi Informasi dan Komunikasi, Sektor Teknologi Informasi dan Komunikasi, Sektor Teknologi Informasi dan Komunikasi, Sektor Teknologi Informasi dan Komunikasi, Sektor Teknologi Informasi dan Komunikasi, Sektor Teknologi Informasi dan Komunikasi",
            "tanggal_terbit": "2022-04-01",
            "url_tdpse_detail": "https://pse.komdigi.go.id/tdpse-detail/3744",
            "website": "asatechnovasindo.com"
        },
        {
            "id": "9cb1ab92-7049-4798-982d-1e163111cdaf",
            "nama_pse": "ASA TECHNOVASINDO",
            "nama_se": "APLIKASI PERDAGANGAN MELALUI INTERNET (E-COMMERCE)",
            "sektor": "Sektor Teknologi Informasi dan Komunikasi, Sektor Teknologi Informasi dan Komunikasi, Sektor Teknologi Informasi dan Komunikasi, Sektor Teknologi Informasi dan Komunikasi, Sektor Teknologi Informasi dan Komunikasi, Sektor Teknologi Informasi dan Komunikasi",
            "tanggal_terbit": "2022-04-01",
            "url_tdpse_detail": "https://pse.komdigi.go.id/tdpse-detail/3745",
            "website": "asatechnovasindo.com"
        },
        {
            "id": "9cb1ab92-7346-4125-86f7-0eac38cf4679",
            "nama_pse": "ASA TECHNOVASINDO",
            "nama_se": "AKTIVITAS PEMROGRAMAN KOMPUTER",
            "sektor": "Sektor Teknologi Informasi dan Komunikasi, Sektor Teknologi Informasi dan Komunikasi, Sektor Teknologi Informasi dan Komunikasi, Sektor Teknologi Informasi dan Komunikasi, Sektor Teknologi Informasi dan Komunikasi, Sektor Teknologi Informasi dan Komunikasi",
            "tanggal_terbit": "2022-04-01",
            "url_tdpse_detail": "https://pse.komdigi.go.id/tdpse-detail/3746",
            "website": "asatechnovasindo.com"
        },
        {
            "id": "9cb1ab9f-9095-44cc-b947-98811653f4d7",
            "nama_pse": "ASA TECHNOVASINDO",
            "nama_se": "DATA PROCESS",
            "sektor": "Sektor Teknologi Informasi dan Komunikasi, Sektor Teknologi Informasi dan Komunikasi, Sektor Teknologi Informasi dan Komunikasi, Sektor Teknologi Informasi dan Komunikasi, Sektor Teknologi Informasi dan Komunikasi, Sektor Teknologi Informasi dan Komunikasi",
            "tanggal_terbit": "2022-04-01",
            "url_tdpse_detail": "https://pse.komdigi.go.id/tdpse-detail/3747",
            "website": "asatechnovasindo.com"
        },
        {
            "id": "9cb1aba9-c009-4ce2-b4fb-bc7102f9f3c2",
            "nama_pse": "ASA TECHNOVASINDO",
            "nama_se": "WEB DAN/ATAU PLATFORM DIGITAL DENGAN TUJUAN KOMERSIAL",
            "sektor": "Sektor Teknologi Informasi dan Komunikasi, Sektor Teknologi Informasi dan Komunikasi, Sektor Teknologi Informasi dan Komunikasi, Sektor Teknologi Informasi dan Komunikasi, Sektor Teknologi Informasi dan Komunikasi, Sektor Teknologi Informasi dan Komunikasi",
            "tanggal_terbit": "2022-04-01",
            "url_tdpse_detail": "https://pse.komdigi.go.id/tdpse-detail/3748",
            "website": "asatechnovasindo.com"
        },
        {
            "id": "9cb1ab92-7638-4463-bbad-428c72e14f08",
            "nama_pse": "GAMERTOGAMER GLOBAL GROUP",
            "nama_se": "G2G",
            "sektor": "Sektor Perdagangan, Sektor Perdagangan, Sektor Perdagangan",
            "tanggal_terbit": "2022-04-01",
            "url_tdpse_detail": "https://pse.komdigi.go.id/tdpse-detail/3749",
            "website": "g2g.com"
        },
        {
            "id": "9cb1ab92-79bd-409e-8cfa-3d6c24b22fd2",
            "nama_pse": "DONKIB",
            "nama_se": "DONKIB.COM",
            "sektor": "Sektor Perdagangan, Sektor Perdagangan, Sektor Teknologi Informasi dan Komunikasi, Sektor Teknologi Informasi dan Komunikasi",
            "tanggal_terbit": "2022-04-01",
            "url_tdpse_detail": "https://pse.komdigi.go.id/tdpse-detail/3750",
            "website": "donkib.com"
        },
        {
            "id": "9cb1abaa-52bc-4fd8-90cf-8f8e60129739",
            "nama_pse": "INDO NUSA DANA",
            "nama_se": "PAYMENT AGGREGATOR IND",
            "sektor": "Sektor Keuangan",
            "tanggal_terbit": "2022-04-01",
            "url_tdpse_detail": "https://pse.komdigi.go.id/tdpse-detail/3733",
            "website": "pay2u.co.id"
        },
        {
            "id": "9cb1abaa-6d32-4e27-aabc-8bc281706c55",
            "nama_pse": "SAPTAKARSA PRIMA",
            "nama_se": "GUDANG FURNITURE",
            "sektor": "Sektor Perdagangan, Sektor Perdagangan",
            "tanggal_terbit": "2022-04-01",
            "url_tdpse_detail": "https://pse.komdigi.go.id/tdpse-detail/3738",
            "website": "gudangfurniture.com"
        },
        {
            "id": "9cb1ab92-e6d0-4494-aa35-706159ce69e7",
            "nama_pse": "ANEKA JURAGAN MATERIAL",
            "nama_se": "JURAGANMATERIAL.ID",
            "sektor": "Sektor Perdagangan, Sektor Perdagangan, Sektor Transportasi, Sektor Transportasi, Sektor Teknologi Informasi dan Komunikasi, Sektor Teknologi Informasi dan Komunikasi",
            "tanggal_terbit": "2022-04-01",
            "url_tdpse_detail": "https://pse.komdigi.go.id/tdpse-detail/3735",
            "website": "juraganmaterial.id"
        },
        {
            "id": "9cb1ab92-f6fa-4dd5-975f-2e4b92fe2390",
            "nama_pse": "WAHYU SUJATMIKO",
            "nama_se": "AKTIVITAS HOSTING",
            "sektor": "Sektor Teknologi Informasi dan Komunikasi, Sektor Teknologi Informasi dan Komunikasi",
            "tanggal_terbit": "2022-04-01",
            "url_tdpse_detail": "https://pse.komdigi.go.id/tdpse-detail/3734",
            "website": "tensaiteknologi.my.id"
        },
        {
            "id": "9cb1ab93-00e5-4f56-bffb-6b4ca78432cc",
            "nama_pse": "HUNGRYY SERVICES INDONESIA",
            "nama_se": "HUNGRYY",
            "sektor": "Sektor Teknologi Informasi dan Komunikasi, Sektor Teknologi Informasi dan Komunikasi, Sektor Pangan, Sektor Pangan",
            "tanggal_terbit": "2022-04-01",
            "url_tdpse_detail": "https://pse.komdigi.go.id/tdpse-detail/3736",
            "website": "hungryy.id"
        },
        {
            "id": "9cb1abaa-b3b7-48fd-ad11-d8704b87eb16",
            "nama_pse": "LOTTE SHOPPING INDONESIA",
            "nama_se": "LOTTE GROSIR",
            "sektor": "Sektor Perdagangan, Sektor Perdagangan",
            "tanggal_terbit": "2022-04-01",
            "url_tdpse_detail": "https://pse.komdigi.go.id/tdpse-detail/3732",
            "website": "-"
        },
        {
            "id": "9cb1aba9-e466-4d2a-9b8e-5df2beb9e33c",
            "nama_pse": "BANK CAPITAL INDONESIA",
            "nama_se": "INTERNET BANKING BISNIS",
            "sektor": "Sektor Keuangan, Sektor Keuangan, Sektor Keuangan",
            "tanggal_terbit": "2022-03-31",
            "url_tdpse_detail": "https://pse.komdigi.go.id/tdpse-detail/3717",
            "website": "capitalbiz.bankcapital.co.id"
        },
        {
            "id": "9cb1ab9f-d1b4-42e9-8b75-f9c1a5b7e6ad",
            "nama_pse": "BANK CAPITAL INDONESIA",
            "nama_se": "INTERNET BANKING",
            "sektor": "Sektor Keuangan, Sektor Keuangan, Sektor Keuangan",
            "tanggal_terbit": "2022-03-31",
            "url_tdpse_detail": "https://pse.komdigi.go.id/tdpse-detail/3718",
            "website": "capitalnet.bankcapital.co.id"
        },
        {
            "id": "9cb1ab92-a447-4bf0-843d-ea695c587767",
            "nama_pse": "BANK CAPITAL INDONESIA",
            "nama_se": "CAPITAL MOBILE BANKING",
            "sektor": "Sektor Keuangan, Sektor Keuangan, Sektor Keuangan",
            "tanggal_terbit": "2022-03-31",
            "url_tdpse_detail": "https://pse.komdigi.go.id/tdpse-detail/3719",
            "website": "-"
        },
        {
            "id": "9cb1ab9f-d379-43af-bd30-2aaf30340d86",
            "nama_pse": "BANK CAPITAL INDONESIA",
            "nama_se": "WEBSITE BANK CAPITAL",
            "sektor": "Sektor Keuangan, Sektor Keuangan, Sektor Keuangan",
            "tanggal_terbit": "2022-03-31",
            "url_tdpse_detail": "https://pse.komdigi.go.id/tdpse-detail/3722",
            "website": "bankcapital.co.id"
        },
        {
            "id": "9cb1ab92-c5d8-433c-bade-315de02a9fe5",
            "nama_pse": "XFERS INDONESIA TEKNOLOGI",
            "nama_se": "XFERS PAYMENT GATEWAY",
            "sektor": "Sektor Keuangan, Sektor Keuangan",
            "tanggal_terbit": "2022-03-31",
            "url_tdpse_detail": "https://pse.komdigi.go.id/tdpse-detail/3723",
            "website": "xfers.com"
        },
        {
            "id": "9cb1ab9f-e2e6-45cc-8ade-65ce08843bd9",
            "nama_pse": "MAXIMAX SUKSES MAKMUR",
            "nama_se": "ORBIT-1",
            "sektor": "Sektor Perdagangan, Sektor Perdagangan",
            "tanggal_terbit": "2022-03-31",
            "url_tdpse_detail": "https://pse.komdigi.go.id/tdpse-detail/3720",
            "website": "orbit-1.co.id"
        },
        {
            "id": "9cb1ab92-ccc9-4462-8e85-0e066c5fd9ae",
            "nama_pse": "LIM, ANTON YUWONO",
            "nama_se": "WOLACOM",
            "sektor": "Sektor Perdagangan, Sektor Perdagangan, Sektor Teknologi Informasi dan Komunikasi, Sektor Teknologi Informasi dan Komunikasi",
            "tanggal_terbit": "2022-03-31",
            "url_tdpse_detail": "https://pse.komdigi.go.id/tdpse-detail/3730",
            "website": "wolacom.com"
        },
        {
            "id": "9cb1ab9f-e918-4305-bbed-f210251553b5",
            "nama_pse": "ALFIE RENALDY",
            "nama_se": "APAYMENTS",
            "sektor": "Sektor Perdagangan, Sektor Perdagangan, Sektor Teknologi Informasi dan Komunikasi, Sektor Teknologi Informasi dan Komunikasi",
            "tanggal_terbit": "2022-03-31",
            "url_tdpse_detail": "https://pse.komdigi.go.id/tdpse-detail/3712",
            "website": "apayments.id"
        },
        {
            "id": "9cb1ab9f-ebe5-4d78-be59-003e2cd27faa",
            "nama_pse": "ICHSAN ABDI S.PD",
            "nama_se": "KINAN CLOTHING COMPANY",
            "sektor": "Sektor Perdagangan, Sektor Perdagangan",
            "tanggal_terbit": "2022-03-31",
            "url_tdpse_detail": "https://pse.komdigi.go.id/tdpse-detail/3714",
            "website": "Kinan.kinara.go.id"
        },
        {
            "id": "9cb1ab9f-f9cb-4cf3-b8e8-87eb05aae057",
            "nama_pse": "LINGKAR TAQWA VISION",
            "nama_se": "LINGKAR TV DIGITAL",
            "sektor": "Sektor Teknologi Informasi dan Komunikasi, Sektor Teknologi Informasi dan Komunikasi",
            "tanggal_terbit": "2022-03-31",
            "url_tdpse_detail": "https://pse.komdigi.go.id/tdpse-detail/3724",
            "website": "lingkartv.com"
        },
        {
            "id": "9cb1ab9f-ff17-4c65-be84-2f81ba6dfeae",
            "nama_pse": "LINGKAR MEDIA PERS",
            "nama_se": "LINGKARJATENG.ID",
            "sektor": "Sektor Teknologi Informasi dan Komunikasi, Sektor Teknologi Informasi dan Komunikasi",
            "tanggal_terbit": "2022-03-31",
            "url_tdpse_detail": "https://pse.komdigi.go.id/tdpse-detail/3715",
            "website": "lingkarjateng.id"
        }
    ],
    "processingTimeMs": 7,
    "query": "",
    "totalHits": 19131,
    "hitsPerPage": 50,
    "page": 312,
    "totalPages": 383
}