{
    "hits": [
        {
            "id": "9cb1ab97-a748-4c37-92b6-f68cb236b370",
            "nama_pse": "MITRA DISTRIBUSI UTAMA",
            "nama_se": "JEMPOL KIOS",
            "sektor": "Sektor Teknologi Informasi dan Komunikasi",
            "tanggal_terbit": "2022-05-19",
            "url_tdpse_detail": "https://pse.komdigi.go.id/tdpse-detail/4488",
            "website": "jempolkios.co.id"
        },
        {
            "id": "9cb1aba3-345d-4ab6-b1eb-4ffac3bf306e",
            "nama_pse": "BROWNMIX FACTORY INDONESIA",
            "nama_se": "BROWNMIX FACTORY INDONESIA",
            "sektor": "Sektor Perdagangan",
            "tanggal_terbit": "2022-05-19",
            "url_tdpse_detail": "https://pse.komdigi.go.id/tdpse-detail/4493",
            "website": "-"
        },
        {
            "id": "9cb1aba3-3750-418c-a65d-d530364314df",
            "nama_pse": "FORMI UNTUNG BERSAMA",
            "nama_se": "FORMI",
            "sektor": "Sektor Kesehatan",
            "tanggal_terbit": "2022-05-19",
            "url_tdpse_detail": "https://pse.komdigi.go.id/tdpse-detail/4494",
            "website": "formi.id"
        },
        {
            "id": "9cb1aba3-39f7-45b9-ba88-635736b90443",
            "nama_pse": "KERINCI MERANGIN HIDRO",
            "nama_se": "PT KERINCI MERANGIN HIDRO",
            "sektor": "Sektor Energi dan Sumber Daya Mineral",
            "tanggal_terbit": "2022-05-19",
            "url_tdpse_detail": "https://pse.komdigi.go.id/tdpse-detail/4495",
            "website": "-"
        },
        {
            "id": "9cb1aba3-3c05-4c58-b1de-ec1090c4d1f8",
            "nama_pse": "ESTRELLA DUABELAS INDONESIA",
            "nama_se": "HOTEL SWIFT INN AEROPOLIS JAKARTA",
            "sektor": "Sektor Perdagangan",
            "tanggal_terbit": "2022-05-19",
            "url_tdpse_detail": "https://pse.komdigi.go.id/tdpse-detail/4496",
            "website": "swiftinns.com"
        },
        {
            "id": "9cb1ab97-ae78-45a0-b767-0b29572efc24",
            "nama_pse": "BERSAMA MILIK BANGSA",
            "nama_se": "PUNYABERSAMA.ID",
            "sektor": "Sektor Keuangan",
            "tanggal_terbit": "2022-05-19",
            "url_tdpse_detail": "https://pse.komdigi.go.id/tdpse-detail/4497",
            "website": "beta2.punyabersama.id"
        },
        {
            "id": "9cb1aba3-3f77-40f3-a5a0-61c6bd8b0ed0",
            "nama_pse": "SWIFT SOLUTION INDONESIA",
            "nama_se": "ANDALIN TRADE",
            "sektor": "Sektor Perdagangan, Sektor Teknologi Informasi dan Komunikasi",
            "tanggal_terbit": "2022-05-19",
            "url_tdpse_detail": "https://pse.komdigi.go.id/tdpse-detail/4498",
            "website": "trade.andalin.com"
        },
        {
            "id": "9cb1aba3-4351-459a-b302-33cd59364cf9",
            "nama_pse": "ADIFA MEDIA KARYA",
            "nama_se": "AMK BUKU STORE",
            "sektor": "Sektor Perdagangan",
            "tanggal_terbit": "2022-05-19",
            "url_tdpse_detail": "https://pse.komdigi.go.id/tdpse-detail/4499",
            "website": "adifamedia.web.id"
        },
        {
            "id": "9cb1ab97-b207-40f8-951d-83e81afb72e2",
            "nama_pse": "ADIFA MEDIA KARYA",
            "nama_se": "AMK  TENOLOGI \u0026 KOMPUTER",
            "sektor": "Sektor Teknologi Informasi dan Komunikasi",
            "tanggal_terbit": "2022-05-19",
            "url_tdpse_detail": "https://pse.komdigi.go.id/tdpse-detail/4500",
            "website": "adifamedia.web.id"
        },
        {
            "id": "9cb1abad-5621-4cc1-8327-2c69cad0e31b",
            "nama_pse": "ADIFA MEDIA KARYA",
            "nama_se": "AMK ATK",
            "sektor": "Sektor Perdagangan",
            "tanggal_terbit": "2022-05-19",
            "url_tdpse_detail": "https://pse.komdigi.go.id/tdpse-detail/4502",
            "website": "adifamedia.web.id"
        },
        {
            "id": "9cb1ab97-b5ce-4ed6-9034-c62bde28dec4",
            "nama_pse": "ADIFA MEDIA KARYA",
            "nama_se": "AMK  BOOK STORE",
            "sektor": "Sektor Perdagangan",
            "tanggal_terbit": "2022-05-19",
            "url_tdpse_detail": "https://pse.komdigi.go.id/tdpse-detail/4503",
            "website": "adifamedia.web.id"
        },
        {
            "id": "9cb1ab97-babd-4a95-abf8-2dcbe716cbb2",
            "nama_pse": "ADIFA MEDIA KARYA",
            "nama_se": "AMK   TOP UP \u0026 PAYMENT",
            "sektor": "Sektor Teknologi Informasi dan Komunikasi",
            "tanggal_terbit": "2022-05-19",
            "url_tdpse_detail": "https://pse.komdigi.go.id/tdpse-detail/4504",
            "website": "adifamedia.web.id"
        },
        {
            "id": "9cb1ab97-bd74-4095-9e28-623ad2a4a98e",
            "nama_pse": "INTISMAC INDONESIA GROUP",
            "nama_se": "SISFO MANAJEMEN SEKOLAH DIGITALKU - (MSD)",
            "sektor": "Sektor Teknologi Informasi dan Komunikasi",
            "tanggal_terbit": "2022-05-19",
            "url_tdpse_detail": "https://pse.komdigi.go.id/tdpse-detail/4505",
            "website": "intismacindonesia.com"
        },
        {
            "id": "9cb1abad-5a09-4caa-9634-47b0e8f2d63b",
            "nama_pse": "INTISMAC INDONESIA GROUP",
            "nama_se": "SISFO MANAJEMEN SEKOLAH DIGITALKU - MSD",
            "sektor": "Sektor Teknologi Informasi dan Komunikasi",
            "tanggal_terbit": "2022-05-19",
            "url_tdpse_detail": "https://pse.komdigi.go.id/tdpse-detail/4506",
            "website": "intismacindonesia.com"
        },
        {
            "id": "9cb1aba2-a416-42f6-af2a-1b7c948d6e0e",
            "nama_pse": "SELALU SIAP SOLUSI",
            "nama_se": "KIRIMINAJA COM",
            "sektor": "Sektor Teknologi Informasi dan Komunikasi",
            "tanggal_terbit": "2022-05-18",
            "url_tdpse_detail": "https://pse.komdigi.go.id/tdpse-detail/4348",
            "website": "kiriminaja.com"
        },
        {
            "id": "9cb1aba3-2e03-4a2c-97cf-6e0d1584df75",
            "nama_pse": "IBF NET INDONESIA",
            "nama_se": "ETIJARA",
            "sektor": "Sektor Perdagangan, Sektor Teknologi Informasi dan Komunikasi",
            "tanggal_terbit": "2022-05-18",
            "url_tdpse_detail": "https://pse.komdigi.go.id/tdpse-detail/4484",
            "website": "etijara.id"
        },
        {
            "id": "9cb1ab97-a0ed-4f74-a9a4-39a0588443a0",
            "nama_pse": "HARMONY CLOUD SYSTEMS",
            "nama_se": "ZIPHR",
            "sektor": "Sektor Teknologi Informasi dan Komunikasi",
            "tanggal_terbit": "2022-05-18",
            "url_tdpse_detail": "https://pse.komdigi.go.id/tdpse-detail/4486",
            "website": "app.ziphr.co"
        },
        {
            "id": "9cb1ab97-a3f0-452b-b72c-941426ebb730",
            "nama_pse": "ASURANSI JIWA SEAINSURE",
            "nama_se": "SEAINSURE WEBSITE",
            "sektor": "Sektor Keuangan",
            "tanggal_terbit": "2022-05-18",
            "url_tdpse_detail": "https://pse.komdigi.go.id/tdpse-detail/4487",
            "website": "seainsure.co.id"
        },
        {
            "id": "9cb1ab97-ab2c-4fe3-b61e-ec696f4e56b1",
            "nama_pse": "RELASI MAHAKARYA WIJAYA",
            "nama_se": "RMW APPS",
            "sektor": "Sektor Perdagangan, Sektor Teknologi Informasi dan Komunikasi",
            "tanggal_terbit": "2022-05-18",
            "url_tdpse_detail": "https://pse.komdigi.go.id/tdpse-detail/4489",
            "website": "rmwapps.com"
        },
        {
            "id": "9cb1abad-5175-4186-8f2f-8b8af362cde4",
            "nama_pse": "GARENA INDONESIA",
            "nama_se": "INFORMATION PAGE APLIKASI GAMES (FREE FIRE, ARENA OF VALOR, CALL OF DUTY MOBILE)",
            "sektor": "Sektor Teknologi Informasi dan Komunikasi",
            "tanggal_terbit": "2022-05-18",
            "url_tdpse_detail": "https://pse.komdigi.go.id/tdpse-detail/4490",
            "website": "garena.co.id"
        },
        {
            "id": "9cb1aba3-3077-4c21-b118-dff836d5a8e0",
            "nama_pse": "EMILIANUS SAMSON",
            "nama_se": "EAGLE JEK",
            "sektor": "Sektor Transportasi, Sektor Teknologi Informasi dan Komunikasi",
            "tanggal_terbit": "2022-05-18",
            "url_tdpse_detail": "https://pse.komdigi.go.id/tdpse-detail/4491",
            "website": "-"
        },
        {
            "id": "9cb1aba3-3291-4396-86fa-276bac5d29a8",
            "nama_pse": "TEKNOLOGI KULINER KEKINIAN",
            "nama_se": "RUNCHISE",
            "sektor": "Sektor Teknologi Informasi dan Komunikasi",
            "tanggal_terbit": "2022-05-18",
            "url_tdpse_detail": "https://pse.komdigi.go.id/tdpse-detail/4492",
            "website": "runchise.com"
        },
        {
            "id": "9cb1ab97-9d44-4460-b7d6-d91408abe78b",
            "nama_pse": "KOMUNAL FINANSIAL INDONESIA",
            "nama_se": "KOMUNAL CORE SYSTEM",
            "sektor": "Sektor Keuangan",
            "tanggal_terbit": "2022-05-18",
            "url_tdpse_detail": "https://pse.komdigi.go.id/tdpse-detail/4485",
            "website": "komunal.co.id"
        },
        {
            "id": "9cb1aba2-b48f-40f4-9c91-d8f5b44db0ba",
            "nama_pse": "DOCTOR ANYWHERE INDONESIA",
            "nama_se": "DOCTOR ANYWHERE INDONESIA",
            "sektor": "Sektor Kesehatan, Sektor Teknologi Informasi dan Komunikasi",
            "tanggal_terbit": "2022-05-17",
            "url_tdpse_detail": "https://pse.komdigi.go.id/tdpse-detail/4357",
            "website": "doctoranywhere.co.id"
        },
        {
            "id": "9cb1abac-fe9e-4b0c-b7f9-7eaaa4b1709c",
            "nama_pse": "AIDAN CONSULTANCY SERVICES",
            "nama_se": "JASA KONSULTANSI BADAN USAHA PENGEMBANGAN SISTEM INFORMASI MANAJEMEN CONTINUOUS AUDITING CONTINUOUS MONITORING",
            "sektor": "Sektor Keuangan, Sektor Teknologi Informasi dan Komunikasi",
            "tanggal_terbit": "2022-05-17",
            "url_tdpse_detail": "https://pse.komdigi.go.id/tdpse-detail/4358",
            "website": "lkpp.go.id"
        },
        {
            "id": "9cb1aba2-b767-4c43-8258-a410c6635a03",
            "nama_pse": "AIDAN CONSULTANCY SERVICES",
            "nama_se": "SISTEM INFORMASI MANAJEMEN CONTINUOUS AUDITING CONTINUOUS MONITORING (SIM-CACM)",
            "sektor": "Sektor Keuangan, Sektor Teknologi Informasi dan Komunikasi",
            "tanggal_terbit": "2022-05-17",
            "url_tdpse_detail": "https://pse.komdigi.go.id/tdpse-detail/4359",
            "website": "lkpp.go.id"
        },
        {
            "id": "9cb1ab96-cbd5-4bd5-9eb1-21a3dc6ebd02",
            "nama_pse": "PERUSAHAAN PERSEROAN (PERSERO) PT. BANK RAKYAT INDONESIA",
            "nama_se": "SENYUM MOBILE",
            "sektor": "Sektor Keuangan",
            "tanggal_terbit": "2022-05-17",
            "url_tdpse_detail": "https://pse.komdigi.go.id/tdpse-detail/4364",
            "website": "umi.bri.co.id"
        },
        {
            "id": "9cb1aba2-e21e-458f-9652-ab36f2168e43",
            "nama_pse": "ZURICH ASURANSI INDONESIA",
            "nama_se": "TRAVELLIN",
            "sektor": "Sektor Keuangan",
            "tanggal_terbit": "2022-05-17",
            "url_tdpse_detail": "https://pse.komdigi.go.id/tdpse-detail/4386",
            "website": "travellin.co.id"
        },
        {
            "id": "9cb1ab97-6db7-4677-9a84-3585a7df55b6",
            "nama_pse": "INMOBI INDONESIA TECHNOLOGIES",
            "nama_se": "DEMAND SIDE PLATFORM",
            "sektor": "Sektor Teknologi Informasi dan Komunikasi",
            "tanggal_terbit": "2022-05-17",
            "url_tdpse_detail": "https://pse.komdigi.go.id/tdpse-detail/4453",
            "website": "dsp.inmobi.com"
        },
        {
            "id": "9cb1aba3-1caf-4de9-bc1c-c50546f015d9",
            "nama_pse": "HADEKA MULTISOLUTION",
            "nama_se": "HDK.ID",
            "sektor": "Sektor Perdagangan, Sektor Teknologi Informasi dan Komunikasi",
            "tanggal_terbit": "2022-05-17",
            "url_tdpse_detail": "https://pse.komdigi.go.id/tdpse-detail/4460",
            "website": "hdk-solution.id"
        },
        {
            "id": "9cb1ab97-8902-406d-ae04-e63a728c9a21",
            "nama_pse": "CETEKU KARYA UTAMA",
            "nama_se": "PSE",
            "sektor": "Sektor Perdagangan, Sektor Keuangan, Sektor Pangan",
            "tanggal_terbit": "2022-05-17",
            "url_tdpse_detail": "https://pse.komdigi.go.id/tdpse-detail/4474",
            "website": "-"
        },
        {
            "id": "9cb1abad-4d6b-4f3e-96c6-adb1cbf56e2b",
            "nama_pse": "SAIFU RAMDHANI",
            "nama_se": "SICATRA",
            "sektor": "Sektor Teknologi Informasi dan Komunikasi",
            "tanggal_terbit": "2022-05-17",
            "url_tdpse_detail": "https://pse.komdigi.go.id/tdpse-detail/4475",
            "website": "idwebhost.com"
        },
        {
            "id": "9cb1abad-4f66-48d1-b021-7c6f8cb2a08b",
            "nama_pse": "BIIZAA ASIA TECHNOLOGY",
            "nama_se": "BIIZAA ASIA TECHNOLOGY",
            "sektor": "Sektor Teknologi Informasi dan Komunikasi",
            "tanggal_terbit": "2022-05-17",
            "url_tdpse_detail": "https://pse.komdigi.go.id/tdpse-detail/4476",
            "website": "biizaa.com"
        },
        {
            "id": "9cb1aba3-28cc-4cde-8124-1cccf8ecbd71",
            "nama_pse": "BIIZAA ASIA TECHNOLOGY",
            "nama_se": "BIIZAA E COMMERCE",
            "sektor": "Sektor Perdagangan, Sektor Teknologi Informasi dan Komunikasi",
            "tanggal_terbit": "2022-05-17",
            "url_tdpse_detail": "https://pse.komdigi.go.id/tdpse-detail/4477",
            "website": "lawyermu.com"
        },
        {
            "id": "9cb1ab97-8c39-485c-a3bd-56bda3f1810e",
            "nama_pse": "BIIZAA ASIA TECHNOLOGY",
            "nama_se": "BIIZAA SOFTWARE",
            "sektor": "Sektor Teknologi Informasi dan Komunikasi",
            "tanggal_terbit": "2022-05-17",
            "url_tdpse_detail": "https://pse.komdigi.go.id/tdpse-detail/4478",
            "website": "biizaa.com"
        },
        {
            "id": "9cb1ab97-8f4f-4331-804e-4033fa10072c",
            "nama_pse": "BIIZAA ASIA TECHNOLOGY",
            "nama_se": "BIIZAA.COM",
            "sektor": "Sektor Teknologi Informasi dan Komunikasi",
            "tanggal_terbit": "2022-05-17",
            "url_tdpse_detail": "https://pse.komdigi.go.id/tdpse-detail/4479",
            "website": "biizaa.com"
        },
        {
            "id": "9cb1ab97-9687-4c43-a4b7-f8d900d29a54",
            "nama_pse": "MAHADIKA SOLUSINDO TEKNOLOGI",
            "nama_se": "ALLOPAY",
            "sektor": "Sektor Perdagangan",
            "tanggal_terbit": "2022-05-17",
            "url_tdpse_detail": "https://pse.komdigi.go.id/tdpse-detail/4481",
            "website": "allotech.id"
        },
        {
            "id": "9cb1ab97-98d0-43b7-bde6-5940d6d0d37c",
            "nama_pse": "EVOS ESPORTS INDONESIA",
            "nama_se": "EVOS",
            "sektor": "Sektor Perdagangan",
            "tanggal_terbit": "2022-05-17",
            "url_tdpse_detail": "https://pse.komdigi.go.id/tdpse-detail/4482",
            "website": "shop.evos.gg.id"
        },
        {
            "id": "9cb1aba3-2ad7-4a11-8b8d-93fdf78329fa",
            "nama_pse": "JBA INDONESIA",
            "nama_se": "JBA INDONESIA – BALAI LELANG OTOMOTIF NO.1",
            "sektor": "Sektor Keuangan",
            "tanggal_terbit": "2022-05-17",
            "url_tdpse_detail": "https://pse.komdigi.go.id/tdpse-detail/4483",
            "website": "jba.co.id"
        },
        {
            "id": "9cb1abad-4b6e-4fa0-8d69-6838968c0d12",
            "nama_pse": "UNINET MEDIA GLOBAL",
            "nama_se": "UNINET MARKETING SERVICES",
            "sektor": "Sektor Teknologi Informasi dan Komunikasi",
            "tanggal_terbit": "2022-05-16",
            "url_tdpse_detail": "https://pse.komdigi.go.id/tdpse-detail/4153",
            "website": "uninetmg.com"
        },
        {
            "id": "9cb1abad-4981-4778-acbd-d90a9555a19b",
            "nama_pse": "YUSUF FAISAL",
            "nama_se": "KORNET INTER MEDIA",
            "sektor": "Sektor Teknologi Informasi dan Komunikasi",
            "tanggal_terbit": "2022-05-15",
            "url_tdpse_detail": "https://pse.komdigi.go.id/tdpse-detail/4471",
            "website": "-"
        },
        {
            "id": "9cb1ab97-8227-40db-b106-1936fd0b195e",
            "nama_pse": "PASAR MIKRO GLOBAL",
            "nama_se": "PASAR MIKRO",
            "sektor": "Sektor Perdagangan, Sektor Teknologi Informasi dan Komunikasi",
            "tanggal_terbit": "2022-05-15",
            "url_tdpse_detail": "https://pse.komdigi.go.id/tdpse-detail/4472",
            "website": "pasarmikro.id"
        },
        {
            "id": "9cb1aba3-2675-470b-86c7-ac85eacb019f",
            "nama_pse": "SAKTI KINERJA KOLABORASINDO",
            "nama_se": "SAKTI",
            "sektor": "Sektor Teknologi Informasi dan Komunikasi",
            "tanggal_terbit": "2022-05-14",
            "url_tdpse_detail": "https://pse.komdigi.go.id/tdpse-detail/4470",
            "website": "ptskk.id"
        },
        {
            "id": "9cb1aba2-adf9-491d-a8b6-66a59ff72b6d",
            "nama_pse": "MEDLINX ASIA TEKNOLOGI",
            "nama_se": "FARMAZI",
            "sektor": "Sektor Kesehatan, Sektor Teknologi Informasi dan Komunikasi",
            "tanggal_terbit": "2022-05-13",
            "url_tdpse_detail": "https://pse.komdigi.go.id/tdpse-detail/4354",
            "website": "Farmazi.id"
        },
        {
            "id": "9cb1aba3-1455-457f-9cd3-17d85bfd65f2",
            "nama_pse": "INMOBI INDONESIA TECHNOLOGIES",
            "nama_se": "SWISH SHOPPING FOLDER",
            "sektor": "Sektor Perdagangan",
            "tanggal_terbit": "2022-05-13",
            "url_tdpse_detail": "https://pse.komdigi.go.id/tdpse-detail/4452",
            "website": "-"
        },
        {
            "id": "9cb1aba3-2085-410a-915a-ee876b0d4da3",
            "nama_pse": "NINGRAT MUDA MANDIRI",
            "nama_se": "NINGRAT MUDA MANDIRI",
            "sektor": "Sektor Transportasi",
            "tanggal_terbit": "2022-05-13",
            "url_tdpse_detail": "https://pse.komdigi.go.id/tdpse-detail/4463",
            "website": "ningratmudamandiri.com"
        },
        {
            "id": "9cb1ab97-799a-4c60-b835-57e5e3120e0d",
            "nama_pse": "MONEX INVESTINDO FUTURES",
            "nama_se": "MIFX",
            "sektor": "Sektor Keuangan",
            "tanggal_terbit": "2022-05-13",
            "url_tdpse_detail": "https://pse.komdigi.go.id/tdpse-detail/4464",
            "website": "mifx.com"
        },
        {
            "id": "9cb1abad-43ba-4e65-9e2c-839f73caedde",
            "nama_pse": "TOKBAN GRAHA TEKNOLOGI",
            "nama_se": "TOKBAN",
            "sektor": "Sektor Perdagangan, Sektor Transportasi, Sektor Teknologi Informasi dan Komunikasi",
            "tanggal_terbit": "2022-05-13",
            "url_tdpse_detail": "https://pse.komdigi.go.id/tdpse-detail/4465",
            "website": "tokban.com"
        },
        {
            "id": "9cb1abad-4799-4f5c-ae9e-f661863abd61",
            "nama_pse": "KULINER INOVATIF INDONESIA",
            "nama_se": "DISHSERVE",
            "sektor": "Sektor Perdagangan",
            "tanggal_terbit": "2022-05-13",
            "url_tdpse_detail": "https://pse.komdigi.go.id/tdpse-detail/4468",
            "website": "dishserve.com"
        },
        {
            "id": "9cb1aba3-234b-4973-a7c5-89f7e461b8e9",
            "nama_pse": "TANA HULU TERBAIK",
            "nama_se": "TANA HULU TERBAIK",
            "sektor": "Sektor Pertahanan dan Keamanan",
            "tanggal_terbit": "2022-05-13",
            "url_tdpse_detail": "https://pse.komdigi.go.id/tdpse-detail/4469",
            "website": "-"
        }
    ],
    "processingTimeMs": 5,
    "query": "",
    "totalHits": 19121,
    "hitsPerPage": 50,
    "page": 304,
    "totalPages": 383
}