{
    "hits": [
        {
            "id": "9cb1ac80-e633-47f8-b534-df2503ef2b82",
            "nama_pse": "RUMAH SAKIT GRAHA BUNDA IDI",
            "nama_se": "SIMRS GRAHA",
            "sektor": "Sektor Kesehatan",
            "tanggal_terbit": "2024-03-12",
            "url_tdpse_detail": "https://pse.komdigi.go.id/tdpse-detail/18233",
            "website": "rsgrahabunda.com"
        },
        {
            "id": "9cb1ac57-7107-43e6-bb21-0fa78b22d17e",
            "nama_pse": "UNTUNG BERSAMA TERUS MENERUS",
            "nama_se": "FAST CLINIC",
            "sektor": "Sektor Kesehatan",
            "tanggal_terbit": "2024-03-12",
            "url_tdpse_detail": "https://pse.komdigi.go.id/tdpse-detail/18234",
            "website": "-"
        },
        {
            "id": "9cb1ac57-6df2-47b0-83b8-db398dbb04af",
            "nama_pse": "BABA MARKET NUSANTARA",
            "nama_se": "BABA MARKET",
            "sektor": "Sektor Perdagangan",
            "tanggal_terbit": "2024-03-12",
            "url_tdpse_detail": "https://pse.komdigi.go.id/tdpse-detail/18231",
            "website": "babamarket.co.id"
        },
        {
            "id": "9cb1ac57-659d-4e68-a591-cb74824f7fca",
            "nama_pse": "SHEYNA SUKSES SEJAHTERA",
            "nama_se": "SHEYNA SUKSSES SEJAHTERA",
            "sektor": "Sektor Perdagangan",
            "tanggal_terbit": "2024-03-11",
            "url_tdpse_detail": "https://pse.komdigi.go.id/tdpse-detail/18226",
            "website": "sheynasutera.com"
        },
        {
            "id": "9cb1ac57-688c-4b48-884f-84463c3ccc40",
            "nama_pse": "TEKNOLOGI PORTAL BERJUALAN",
            "nama_se": "AWAN - TASPEN LIFE",
            "sektor": "Sektor Teknologi Informasi dan Komunikasi",
            "tanggal_terbit": "2024-03-11",
            "url_tdpse_detail": "https://pse.komdigi.go.id/tdpse-detail/18227",
            "website": "taspen.life"
        },
        {
            "id": "9cb1ac57-5f80-4ba1-85bb-25df784b7fde",
            "nama_pse": "MITRA KONSULTAN BISNIS",
            "nama_se": "MITRA KONSULTAN BISNIS",
            "sektor": "Sektor Perdagangan",
            "tanggal_terbit": "2024-03-10",
            "url_tdpse_detail": "https://pse.komdigi.go.id/tdpse-detail/18224",
            "website": "mitrakonsultanbisnis.com"
        },
        {
            "id": "9cb1ac57-62aa-4288-874c-f2828b2fce76",
            "nama_pse": "RETRO UPS GROUP",
            "nama_se": "PT. RETRO UPS GROUP",
            "sektor": "Sektor Teknologi Informasi dan Komunikasi",
            "tanggal_terbit": "2024-03-10",
            "url_tdpse_detail": "https://pse.komdigi.go.id/tdpse-detail/18225",
            "website": "-"
        },
        {
            "id": "9cb1ac6c-6aa7-4d30-8caa-b8629b076ba9",
            "nama_pse": "TEKNOLOGI PORTAL BERJUALAN",
            "nama_se": "KARTU DIGITAL",
            "sektor": "Sektor Teknologi Informasi dan Komunikasi",
            "tanggal_terbit": "2024-03-09",
            "url_tdpse_detail": "https://pse.komdigi.go.id/tdpse-detail/18219",
            "website": "kartu.digital"
        },
        {
            "id": "9cb1ac57-5a71-4387-872f-e30a57f1292e",
            "nama_pse": "MITRA MUPAY INDONESIA",
            "nama_se": "MITRA MUPAY INDONESIA",
            "sektor": "Sektor Perdagangan, Sektor Teknologi Informasi dan Komunikasi",
            "tanggal_terbit": "2024-03-09",
            "url_tdpse_detail": "https://pse.komdigi.go.id/tdpse-detail/18214",
            "website": "mitra-mupay.com"
        },
        {
            "id": "9cb1ac6c-650a-4910-a35a-8bfc2e9c8b38",
            "nama_pse": "JATAYU ENTERTAINMENT GROUP",
            "nama_se": "HARIANJATIM.ID",
            "sektor": "Sektor Teknologi Informasi dan Komunikasi",
            "tanggal_terbit": "2024-03-09",
            "url_tdpse_detail": "https://pse.komdigi.go.id/tdpse-detail/18215",
            "website": "harianjatim.id"
        },
        {
            "id": "9cb1ac80-b68b-4bde-a94a-604b98e6b101",
            "nama_pse": "IMAM SHODIQ",
            "nama_se": "CABNET (HOME INTERNET SERVICE)",
            "sektor": "Sektor Teknologi Informasi dan Komunikasi",
            "tanggal_terbit": "2024-03-09",
            "url_tdpse_detail": "https://pse.komdigi.go.id/tdpse-detail/18216",
            "website": "-"
        },
        {
            "id": "9cb1ac80-b962-4928-9c51-8aeac92a38df",
            "nama_pse": "PUJI PRIONO",
            "nama_se": "ICHA RT RW NET",
            "sektor": "Sektor Teknologi Informasi dan Komunikasi",
            "tanggal_terbit": "2024-03-09",
            "url_tdpse_detail": "https://pse.komdigi.go.id/tdpse-detail/18217",
            "website": "-"
        },
        {
            "id": "9cb1ac80-c35f-4ec8-9f2b-7c390cae8063",
            "nama_pse": "PROTOKO AMANAH TEKNOLOGI",
            "nama_se": "PROTOKO - PROFESIONAL TOKO ONLINE",
            "sektor": "Sektor Teknologi Informasi dan Komunikasi",
            "tanggal_terbit": "2024-03-09",
            "url_tdpse_detail": "https://pse.komdigi.go.id/tdpse-detail/18218",
            "website": "semuacerdas.com"
        },
        {
            "id": "9cb1ac80-cac7-46b6-b15f-7819aa384ee4",
            "nama_pse": "TEKNOLOGI PORTAL BERJUALAN",
            "nama_se": "AWAN",
            "sektor": "Sektor Teknologi Informasi dan Komunikasi",
            "tanggal_terbit": "2024-03-09",
            "url_tdpse_detail": "https://pse.komdigi.go.id/tdpse-detail/18220",
            "website": "awan.enterprises"
        },
        {
            "id": "9cb1ac7f-931a-4f40-838c-fd2c9082b6f3",
            "nama_pse": "WAHANA SISTEM INFORMASI",
            "nama_se": "VLEXIO",
            "sektor": "Sektor Kesehatan",
            "tanggal_terbit": "2024-03-08",
            "url_tdpse_detail": "https://pse.komdigi.go.id/tdpse-detail/18205",
            "website": "-"
        },
        {
            "id": "9cb1ac6c-2fd9-4820-92a0-3c0a30c01ad8",
            "nama_pse": "NATHANAEL FREDERICKO WIBAWANTO",
            "nama_se": "CLINIC CARE",
            "sektor": "Sektor Kesehatan",
            "tanggal_terbit": "2024-03-08",
            "url_tdpse_detail": "https://pse.komdigi.go.id/tdpse-detail/18208",
            "website": "clinic-care.lumenz.id"
        },
        {
            "id": "9cb1ac57-4d0c-4f33-aded-6b8358731f0e",
            "nama_pse": "REJEKI GUSTAMAN JAYA MAKMUR SENTOSA",
            "nama_se": "ZAHE DIGIPAY",
            "sektor": "Sektor Perdagangan",
            "tanggal_terbit": "2024-03-08",
            "url_tdpse_detail": "https://pse.komdigi.go.id/tdpse-detail/18202",
            "website": "-"
        },
        {
            "id": "9cb1ac6c-5cfa-4468-ae92-44fc1a11fb5a",
            "nama_pse": "PRIYANTO",
            "nama_se": "THE CLINIC BEAUTYLOSOPHY",
            "sektor": "Sektor Kesehatan",
            "tanggal_terbit": "2024-03-08",
            "url_tdpse_detail": "https://pse.komdigi.go.id/tdpse-detail/18206",
            "website": "sistem-theclinic.com"
        },
        {
            "id": "9cb1ac80-aebc-460d-b3b1-525c18075910",
            "nama_pse": "TIRTANA MEDIKAL KLINIK",
            "nama_se": "TIRTANA MEDIKAL",
            "sektor": "Sektor Kesehatan",
            "tanggal_terbit": "2024-03-08",
            "url_tdpse_detail": "https://pse.komdigi.go.id/tdpse-detail/18210",
            "website": "-"
        },
        {
            "id": "9cb1ac80-b370-464b-b4f0-1e37822514ac",
            "nama_pse": "KLINIK PRATAMA RAWAT JALAN YEMIMA MEDIKA",
            "nama_se": "KLINIK IO",
            "sektor": "Sektor Kesehatan",
            "tanggal_terbit": "2024-03-08",
            "url_tdpse_detail": "https://pse.komdigi.go.id/tdpse-detail/18211",
            "website": "-"
        },
        {
            "id": "9cb1ac6c-6250-4cc7-a38f-c36d50936fdc",
            "nama_pse": "MEDIA BPPKRI BERANTAS",
            "nama_se": "BPPKRIBERANTAS.COM",
            "sektor": "Sektor Teknologi Informasi dan Komunikasi",
            "tanggal_terbit": "2024-03-08",
            "url_tdpse_detail": "https://pse.komdigi.go.id/tdpse-detail/18212",
            "website": "bppkriberantas.com"
        },
        {
            "id": "9cb1ac57-4feb-43a8-8831-a0686a5ff524",
            "nama_pse": "DEWI RETNO WATI",
            "nama_se": "GREVINASKINCARE",
            "sektor": "Sektor Perdagangan, Sektor Kesehatan",
            "tanggal_terbit": "2024-03-08",
            "url_tdpse_detail": "https://pse.komdigi.go.id/tdpse-detail/18203",
            "website": "grevinaskincare.com"
        },
        {
            "id": "9cb1ac57-42dd-4a9e-8c32-663edee6bbc3",
            "nama_pse": "MEDIA NANGGROE BERSAMA",
            "nama_se": "MEDIANANGGROE.COM",
            "sektor": "Sektor Teknologi Informasi dan Komunikasi",
            "tanggal_terbit": "2024-03-07",
            "url_tdpse_detail": "https://pse.komdigi.go.id/tdpse-detail/18196",
            "website": "mediananggroe.com"
        },
        {
            "id": "9cb1ac57-4625-4a4d-beb7-3a1fbe5cd5e4",
            "nama_pse": "CHANNEL NUSANTARA NEWS INDONESIA",
            "nama_se": "CHANNELNUSANTARA.COM",
            "sektor": "Sektor Teknologi Informasi dan Komunikasi",
            "tanggal_terbit": "2024-03-07",
            "url_tdpse_detail": "https://pse.komdigi.go.id/tdpse-detail/18197",
            "website": "channelnusantara.com"
        },
        {
            "id": "9cb1ac6c-5a65-4096-b1ca-01f4542dabb6",
            "nama_pse": "SUTAJAYA BAKTI USADA",
            "nama_se": "SIM TERBUKA",
            "sektor": "Sektor Kesehatan",
            "tanggal_terbit": "2024-03-07",
            "url_tdpse_detail": "https://pse.komdigi.go.id/tdpse-detail/18200",
            "website": "sindangsehat.com"
        },
        {
            "id": "9cb1ac80-9873-4d55-85ea-2ea95f9b483f",
            "nama_pse": "DLOEWANG ANEKA SERATAMA",
            "nama_se": "TUKONIAE",
            "sektor": "Sektor Perdagangan",
            "tanggal_terbit": "2024-03-07",
            "url_tdpse_detail": "https://pse.komdigi.go.id/tdpse-detail/18201",
            "website": "tukoniae.com"
        },
        {
            "id": "9cb1ac80-8a3c-4b7d-b9e7-4d1d185719fb",
            "nama_pse": "DIGITAL LULU DAPHIA",
            "nama_se": "EBUNDAAISYAH",
            "sektor": "Sektor Kesehatan",
            "tanggal_terbit": "2024-03-07",
            "url_tdpse_detail": "https://pse.komdigi.go.id/tdpse-detail/18191",
            "website": "-"
        },
        {
            "id": "9cb1ac57-400d-4e72-998a-e4019b586939",
            "nama_pse": "MELODIVA MUSIC GATEWAY",
            "nama_se": "MELODIVA",
            "sektor": "Sektor Teknologi Informasi dan Komunikasi",
            "tanggal_terbit": "2024-03-07",
            "url_tdpse_detail": "https://pse.komdigi.go.id/tdpse-detail/18190",
            "website": "melodiva.co.id"
        },
        {
            "id": "9cb1ac6c-4b80-4391-ab23-6b027fc8e130",
            "nama_pse": "MAXILLA CITRA DENTA",
            "nama_se": "APLIKASI REKAM MEDIS MAXILLA",
            "sektor": "Sektor Kesehatan",
            "tanggal_terbit": "2024-03-07",
            "url_tdpse_detail": "https://pse.komdigi.go.id/tdpse-detail/18192",
            "website": "-"
        },
        {
            "id": "9cb1ac6c-4e8b-4dc0-80ec-f5cec74cde73",
            "nama_pse": "GOTEKNOLOGI DATA INDONESIA",
            "nama_se": "LIS",
            "sektor": "Sektor Kesehatan, Sektor Teknologi Informasi dan Komunikasi",
            "tanggal_terbit": "2024-03-07",
            "url_tdpse_detail": "https://pse.komdigi.go.id/tdpse-detail/18193",
            "website": "lis.soppeng.go.id"
        },
        {
            "id": "9cb1ac6c-57ba-42bd-9f79-21f6a23751cd",
            "nama_pse": "IRMAWATI",
            "nama_se": "SAHABAT KLINIKKU",
            "sektor": "Sektor Kesehatan, Sektor Teknologi Informasi dan Komunikasi",
            "tanggal_terbit": "2024-03-07",
            "url_tdpse_detail": "https://pse.komdigi.go.id/tdpse-detail/18198",
            "website": "klinikku.my.id"
        },
        {
            "id": "9cb1ac80-945b-40d3-91c6-1d984b5fcda9",
            "nama_pse": "ESTETIKA MATA GROUP",
            "nama_se": "SIM KLINIK EMG",
            "sektor": "Sektor Kesehatan",
            "tanggal_terbit": "2024-03-07",
            "url_tdpse_detail": "https://pse.komdigi.go.id/tdpse-detail/18199",
            "website": "app.drharyoklinikmata.com"
        },
        {
            "id": "9cb1ac6c-54ab-4e39-9055-783457d61158",
            "nama_pse": "GONGSIN INTERNASIONAL TRANSINDO",
            "nama_se": "JAKPAT",
            "sektor": "Sektor Teknologi Informasi dan Komunikasi",
            "tanggal_terbit": "2024-03-07",
            "url_tdpse_detail": "https://pse.komdigi.go.id/tdpse-detail/18195",
            "website": "jakpat.net"
        },
        {
            "id": "9cb1ac57-31df-468a-a34c-971338851f48",
            "nama_pse": "ABDUL GAMAL",
            "nama_se": "DBMEDIS",
            "sektor": "Sektor Teknologi Informasi dan Komunikasi",
            "tanggal_terbit": "2024-03-06",
            "url_tdpse_detail": "https://pse.komdigi.go.id/tdpse-detail/18181",
            "website": "idi-batam.com"
        },
        {
            "id": "9cb1ac57-09dd-461d-ae0d-ef2a86d8ef2e",
            "nama_pse": "IBNU SINA SYARIAH",
            "nama_se": "SIMRS IBNU SINA SYARIAH",
            "sektor": "Sektor Kesehatan",
            "tanggal_terbit": "2024-03-06",
            "url_tdpse_detail": "https://pse.komdigi.go.id/tdpse-detail/18178",
            "website": "-"
        },
        {
            "id": "9cb1ac80-7cf3-4bcf-b936-6c2cd636bbd6",
            "nama_pse": "WAHYU DIGITAL INTERNATIONAL",
            "nama_se": "WAHYUSIGN",
            "sektor": "Sektor Perdagangan",
            "tanggal_terbit": "2024-03-06",
            "url_tdpse_detail": "https://pse.komdigi.go.id/tdpse-detail/18175",
            "website": "wahyusign.com"
        },
        {
            "id": "9cb1ac6c-3d7b-4c08-a6b8-977adf713389",
            "nama_pse": "KOMUNAL TEKNOLOGI INDONESIA",
            "nama_se": "CORE BANKING SYSTEM KAIROS",
            "sektor": "Sektor Teknologi Informasi dan Komunikasi",
            "tanggal_terbit": "2024-03-06",
            "url_tdpse_detail": "https://pse.komdigi.go.id/tdpse-detail/18177",
            "website": "kairoscbs.com"
        },
        {
            "id": "9cb1ac57-2b27-4bd3-be68-87a6eff5ab71",
            "nama_pse": "ASA INDONESIA",
            "nama_se": "INDOPAYROLL",
            "sektor": "Sektor Teknologi Informasi dan Komunikasi",
            "tanggal_terbit": "2024-03-06",
            "url_tdpse_detail": "https://pse.komdigi.go.id/tdpse-detail/18180",
            "website": "-"
        },
        {
            "id": "9cb1ac57-2e07-4122-af2e-5440d2b3f230",
            "nama_pse": "ARISH KONSULTAN",
            "nama_se": "ARISH KONSULTAN",
            "sektor": "Sektor Perdagangan",
            "tanggal_terbit": "2024-03-06",
            "url_tdpse_detail": "https://pse.komdigi.go.id/tdpse-detail/18179",
            "website": "Arishkonsultan.com"
        },
        {
            "id": "9cb1ac6c-416b-4abf-9230-2ca2732f85de",
            "nama_pse": "BUNGKER CORP",
            "nama_se": "PULEH.ID",
            "sektor": "Sektor Teknologi Informasi dan Komunikasi",
            "tanggal_terbit": "2024-03-06",
            "url_tdpse_detail": "https://pse.komdigi.go.id/tdpse-detail/18183",
            "website": "puleh.id"
        },
        {
            "id": "9cb1ac57-34bf-412a-b224-3523d477aee8",
            "nama_pse": "PANDUMEDIA MULYA SEJAHTERA",
            "nama_se": "MYPANDUMEDIA",
            "sektor": "Sektor Teknologi Informasi dan Komunikasi",
            "tanggal_terbit": "2024-03-06",
            "url_tdpse_detail": "https://pse.komdigi.go.id/tdpse-detail/18186",
            "website": "-"
        },
        {
            "id": "9cb1ac57-3752-4ea0-be1f-f1ca8c10887a",
            "nama_pse": "KETUT MENDRA",
            "nama_se": "AELL",
            "sektor": "Sektor Kesehatan",
            "tanggal_terbit": "2024-03-06",
            "url_tdpse_detail": "https://pse.komdigi.go.id/tdpse-detail/18184",
            "website": "aell.co"
        },
        {
            "id": "9cb1ac57-3a16-4f68-a74f-1e2187e23ed3",
            "nama_pse": "BINTANG AMIN HUSADA",
            "nama_se": "SIM RME RSPBA",
            "sektor": "Sektor Kesehatan",
            "tanggal_terbit": "2024-03-06",
            "url_tdpse_detail": "https://pse.komdigi.go.id/tdpse-detail/18185",
            "website": "-"
        },
        {
            "id": "9cb1ac80-8e2b-4945-9844-9665cbdc9c86",
            "nama_pse": "INFORMASI DIGITAL MANDIRI",
            "nama_se": "VSIM",
            "sektor": "Sektor Teknologi Informasi dan Komunikasi",
            "tanggal_terbit": "2024-03-06",
            "url_tdpse_detail": "https://pse.komdigi.go.id/tdpse-detail/18188",
            "website": "-"
        },
        {
            "id": "9cb1ac6c-4898-4674-ae14-319424d5b564",
            "nama_pse": "TAKAPEDIA",
            "nama_se": "TAKAPEDIA",
            "sektor": "Sektor Perdagangan",
            "tanggal_terbit": "2024-03-06",
            "url_tdpse_detail": "https://pse.komdigi.go.id/tdpse-detail/18189",
            "website": "takapedia.com"
        },
        {
            "id": "9cb1ac6c-394d-4def-b41a-9a660547cf08",
            "nama_pse": "PEFINDO BIRO KREDIT",
            "nama_se": "IDFRAUD PREVENTION",
            "sektor": "Sektor Keuangan",
            "tanggal_terbit": "2024-03-06",
            "url_tdpse_detail": "https://pse.komdigi.go.id/tdpse-detail/18176",
            "website": "idfraudscore.id"
        },
        {
            "id": "9cb1ac67-24e2-43ad-88f1-c8e15256d084",
            "nama_pse": "AAN AGUS SANTOSO",
            "nama_se": "AESTHETIC CLINIC SYSTEM",
            "sektor": "Sektor Kesehatan",
            "tanggal_terbit": "2024-03-05",
            "url_tdpse_detail": "https://pse.komdigi.go.id/tdpse-detail/18155",
            "website": "puspo.cloud"
        },
        {
            "id": "9cb1ac6c-292a-4084-ab88-ae0a896381b6",
            "nama_pse": "BERKAH INTEGRAL SOLUSI",
            "nama_se": "SISTEM INFORMASI MANAJEMEN RUMAH SAKIT TERINTEGRASI (SIMRS INTEGRA)",
            "sektor": "Sektor Teknologi Informasi dan Komunikasi",
            "tanggal_terbit": "2024-03-05",
            "url_tdpse_detail": "https://pse.komdigi.go.id/tdpse-detail/18165",
            "website": "-"
        },
        {
            "id": "9cb1ac57-1444-4d32-9e5c-29c17e8dce17",
            "nama_pse": "MITRA MEDIKA INSANI MEDAN",
            "nama_se": "SIMRS HIS AMPLAS",
            "sektor": "Sektor Kesehatan",
            "tanggal_terbit": "2024-03-05",
            "url_tdpse_detail": "https://pse.komdigi.go.id/tdpse-detail/18153",
            "website": "mitramedika-amplas.co.id"
        },
        {
            "id": "9cb1ac80-693e-4562-bce8-1c949179c3a7",
            "nama_pse": "MOHAGA RAJAWALI PERS",
            "nama_se": "TEKAB86.COM",
            "sektor": "Sektor Teknologi Informasi dan Komunikasi",
            "tanggal_terbit": "2024-03-05",
            "url_tdpse_detail": "https://pse.komdigi.go.id/tdpse-detail/18162",
            "website": "tekab86.com"
        }
    ],
    "processingTimeMs": 1,
    "query": "",
    "totalHits": 19131,
    "hitsPerPage": 50,
    "page": 79,
    "totalPages": 383
}