{
    "hits": [
        {
            "id": "9cb1ab8a-499d-4b9d-879e-45d71f6b70d3",
            "nama_pse": "BWL INDONESIA",
            "nama_se": "WWW.BWLGROUP.COM",
            "sektor": "Sektor Perdagangan, Sektor Perdagangan",
            "tanggal_terbit": "2022-02-08",
            "url_tdpse_detail": "https://pse.komdigi.go.id/tdpse-detail/3194",
            "website": "bwlgroup.com"
        },
        {
            "id": "9cb1ab7a-a9fa-4fbc-b7c3-c33fc96c4f3e",
            "nama_pse": "FAMINDO BURSA INDONESIA",
            "nama_se": "CRYPTOKUN",
            "sektor": "Sektor Perdagangan, Sektor Perdagangan, Sektor Keuangan, Sektor Keuangan",
            "tanggal_terbit": "2022-02-08",
            "url_tdpse_detail": "https://pse.komdigi.go.id/tdpse-detail/3196",
            "website": "cryptokun.com"
        },
        {
            "id": "9cb1ab8a-62b3-4ced-8a0d-84de3c9ada00",
            "nama_pse": "KARYA TEKNOLOGI ANDALAN",
            "nama_se": "KELOLAYUK",
            "sektor": "Sektor Teknologi Informasi dan Komunikasi, Sektor Teknologi Informasi dan Komunikasi",
            "tanggal_terbit": "2022-02-08",
            "url_tdpse_detail": "https://pse.komdigi.go.id/tdpse-detail/3192",
            "website": "Kelolayuk.com"
        },
        {
            "id": "9cb1ab7a-cd32-4dd5-abfe-c2d98b633d41",
            "nama_pse": "BINA ARTHA VENTURA",
            "nama_se": "BAVKU",
            "sektor": "Sektor Keuangan, Sektor Keuangan",
            "tanggal_terbit": "2022-02-08",
            "url_tdpse_detail": "https://pse.komdigi.go.id/tdpse-detail/3197",
            "website": "bina-artha.com"
        },
        {
            "id": "9cb1ab82-752b-45d9-af29-0fd89e257c6b",
            "nama_pse": "META INOVASI DIGITAL",
            "nama_se": "METAPRO",
            "sektor": "Sektor Perdagangan, Sektor Perdagangan",
            "tanggal_terbit": "2022-02-08",
            "url_tdpse_detail": "https://pse.komdigi.go.id/tdpse-detail/3193",
            "website": "-"
        },
        {
            "id": "9cb1ab82-7a29-4967-bf75-23981e771524",
            "nama_pse": "MONIT TEKNOLOGI INDONESIA",
            "nama_se": "MONIT",
            "sektor": "Sektor Teknologi Informasi dan Komunikasi, Sektor Teknologi Informasi dan Komunikasi",
            "tanggal_terbit": "2022-02-08",
            "url_tdpse_detail": "https://pse.komdigi.go.id/tdpse-detail/3198",
            "website": "monit.id"
        },
        {
            "id": "9cb1ab8a-848f-4579-8925-6f5346c6c4e6",
            "nama_pse": "SMART TANI SUBAK",
            "nama_se": "SUBAK TANI",
            "sektor": "Sektor Perdagangan, Sektor Perdagangan",
            "tanggal_terbit": "2022-02-08",
            "url_tdpse_detail": "https://pse.komdigi.go.id/tdpse-detail/3199",
            "website": "smarttanisubak.id"
        },
        {
            "id": "9cb1ab7a-c81c-446e-b63b-d4216b5f274e",
            "nama_pse": "GRAMEDIA ASRI MEDIA",
            "nama_se": "GRAMEDIA.COM",
            "sektor": "Sektor Perdagangan, Sektor Perdagangan",
            "tanggal_terbit": "2022-02-07",
            "url_tdpse_detail": "https://pse.komdigi.go.id/tdpse-detail/3178",
            "website": "gramedia.com"
        },
        {
            "id": "9cb1ab74-1f97-41ea-b0fb-7cbd42239b56",
            "nama_pse": "MOKA TEKNOLOGI INDONESIA",
            "nama_se": "MOKAPOS",
            "sektor": "Sektor Perdagangan, Sektor Perdagangan, Sektor Perdagangan",
            "tanggal_terbit": "2022-02-07",
            "url_tdpse_detail": "https://pse.komdigi.go.id/tdpse-detail/3184",
            "website": "mokapos.com"
        },
        {
            "id": "9cb1ab7a-8c48-45e5-99fc-00026df0ea1c",
            "nama_pse": "SOLUSI KREASI DIGITAL",
            "nama_se": "KENDALI",
            "sektor": "Sektor Teknologi Informasi dan Komunikasi, Sektor Teknologi Informasi dan Komunikasi",
            "tanggal_terbit": "2022-02-07",
            "url_tdpse_detail": "https://pse.komdigi.go.id/tdpse-detail/3188",
            "website": "web.kendali.app"
        },
        {
            "id": "9cb1ab82-4d0f-4506-9ffe-0dd18e53a7a0",
            "nama_pse": "ABBOTINDO BERKAT BERSAMA",
            "nama_se": "TOKO FURNITURE ONLINE",
            "sektor": "Sektor Perdagangan, Sektor Perdagangan",
            "tanggal_terbit": "2022-02-07",
            "url_tdpse_detail": "https://pse.komdigi.go.id/tdpse-detail/3186",
            "website": "abbotfurniture.co.id"
        },
        {
            "id": "9cb1ab82-68e7-423a-be82-ed4882b1628e",
            "nama_pse": "ASTRA TEKNOLOGI NUSANTARA",
            "nama_se": "AUTO TRADE NUSANTARA",
            "sektor": "Sektor Keuangan, Sektor Keuangan",
            "tanggal_terbit": "2022-02-07",
            "url_tdpse_detail": "https://pse.komdigi.go.id/tdpse-detail/3179",
            "website": "ibsinternational.co.id"
        },
        {
            "id": "9cb1ab7a-d410-4bc0-96b1-23748589ab3d",
            "nama_pse": "LINIMUDA INSPIRASI NEGERI",
            "nama_se": "MYSKILL.ID",
            "sektor": "Sektor Perdagangan, Sektor Perdagangan, Sektor Teknologi Informasi dan Komunikasi, Sektor Teknologi Informasi dan Komunikasi",
            "tanggal_terbit": "2022-02-07",
            "url_tdpse_detail": "https://pse.komdigi.go.id/tdpse-detail/3180",
            "website": "myskill.id"
        },
        {
            "id": "9cb1ab8a-6d87-430c-8154-38bd89983ac9",
            "nama_pse": "LINIMUDA INSPIRASI NEGERI",
            "nama_se": "SIMULASIKU",
            "sektor": "Sektor Perdagangan, Sektor Perdagangan, Sektor Teknologi Informasi dan Komunikasi, Sektor Teknologi Informasi dan Komunikasi",
            "tanggal_terbit": "2022-02-07",
            "url_tdpse_detail": "https://pse.komdigi.go.id/tdpse-detail/3183",
            "website": "simulasiku.id"
        },
        {
            "id": "9cb1ab8a-71b3-424c-af08-3312cb7368dc",
            "nama_pse": "DAM KORPORINDO DIGITAL",
            "nama_se": "DAM KORPORINDO DIGITAL",
            "sektor": "Sektor Teknologi Informasi dan Komunikasi, Sektor Teknologi Informasi dan Komunikasi",
            "tanggal_terbit": "2022-02-07",
            "url_tdpse_detail": "https://pse.komdigi.go.id/tdpse-detail/3185",
            "website": "damcorp.id"
        },
        {
            "id": "9cb1ab8a-7555-443d-b163-861a00a23d11",
            "nama_pse": "AGENCY KOMUNITAS INDOSYSTEM NETWORK INDONESIA",
            "nama_se": "WWW.BERITATERUPDATE.ONLINE",
            "sektor": "Sektor Teknologi Informasi dan Komunikasi, Sektor Teknologi Informasi dan Komunikasi, Sektor Teknologi Informasi dan Komunikasi",
            "tanggal_terbit": "2022-02-07",
            "url_tdpse_detail": "https://pse.komdigi.go.id/tdpse-detail/3189",
            "website": "beritaterupdate.online"
        },
        {
            "id": "9cb1ab9e-42c8-4475-b52d-6b20d400e478",
            "nama_pse": "SANG SAKA GEMILANG",
            "nama_se": "MYGO",
            "sektor": "Sektor Transportasi, Sektor Transportasi, Sektor Teknologi Informasi dan Komunikasi, Sektor Teknologi Informasi dan Komunikasi",
            "tanggal_terbit": "2022-02-07",
            "url_tdpse_detail": "https://pse.komdigi.go.id/tdpse-detail/3187",
            "website": "mygo.id"
        },
        {
            "id": "9cb1ab91-698c-48dc-8480-1aef92f7fa96",
            "nama_pse": "AMAAN INDONESIA SEJAHTERA",
            "nama_se": "APLIKASI AMAAN",
            "sektor": "Sektor Perdagangan, Sektor Perdagangan, Sektor Teknologi Informasi dan Komunikasi, Sektor Teknologi Informasi dan Komunikasi",
            "tanggal_terbit": "2022-02-07",
            "url_tdpse_detail": "https://pse.komdigi.go.id/tdpse-detail/3182",
            "website": "amaan.co.id"
        },
        {
            "id": "9cb1ab8a-6a67-4692-b353-f2e14aef0f9a",
            "nama_pse": "FATMA NURFITA SARI",
            "nama_se": "CAHAYA BARU",
            "sektor": "Sektor Perdagangan, Sektor Perdagangan",
            "tanggal_terbit": "2022-02-06",
            "url_tdpse_detail": "https://pse.komdigi.go.id/tdpse-detail/3177",
            "website": "-"
        },
        {
            "id": "9cb1ab67-2853-4f09-aaf6-f01e311643a3",
            "nama_pse": "KAIDAH NETWORK SUKSES BERSAMA",
            "nama_se": "KAIDAH NETWORK",
            "sektor": "Sektor Perdagangan, Sektor Perdagangan, Sektor Perdagangan, Sektor Perdagangan",
            "tanggal_terbit": "2022-02-05",
            "url_tdpse_detail": "https://pse.komdigi.go.id/tdpse-detail/3174",
            "website": "k-dha.com"
        },
        {
            "id": "9cb1ab6d-c334-4924-9814-cf294fbc89bc",
            "nama_pse": "MOKA TEKNOLOGI INDONESIA",
            "nama_se": "GOSTORE (LAYANAN MARKETPLACE)",
            "sektor": "Sektor Perdagangan, Sektor Perdagangan, Sektor Perdagangan",
            "tanggal_terbit": "2022-02-05",
            "url_tdpse_detail": "https://pse.komdigi.go.id/tdpse-detail/3172",
            "website": "mygostore.id"
        },
        {
            "id": "9cb1ab82-32d4-4665-b89b-76b344638920",
            "nama_pse": "EMKOP FORINDO TEKNOLOGI",
            "nama_se": "EMKOP",
            "sektor": "Sektor Keuangan, Sektor Keuangan",
            "tanggal_terbit": "2022-02-05",
            "url_tdpse_detail": "https://pse.komdigi.go.id/tdpse-detail/3173",
            "website": "emkop.co.id"
        },
        {
            "id": "9cb1ab67-8fda-4b89-9861-d7ea835f033b",
            "nama_pse": "PDAM TIRTANADI",
            "nama_se": "APLIKASI PEMBAYARAN REKENING ONLINE PDAM TIRTANADI",
            "sektor": "Sektor Teknologi Informasi dan Komunikasi, Sektor Teknologi Informasi dan Komunikasi",
            "tanggal_terbit": "2022-02-04",
            "url_tdpse_detail": "https://pse.komdigi.go.id/tdpse-detail/3169",
            "website": "-"
        },
        {
            "id": "9cb1ab67-bf16-403f-b812-db425df3436b",
            "nama_pse": "VISIONEA TEKNOLOGI PERKASA",
            "nama_se": "VISION EAGLE",
            "sektor": "Sektor Perdagangan, Sektor Perdagangan",
            "tanggal_terbit": "2022-02-04",
            "url_tdpse_detail": "https://pse.komdigi.go.id/tdpse-detail/3167",
            "website": "vision88.id"
        },
        {
            "id": "9cb1ab75-391d-4088-8841-eae8aeda2483",
            "nama_pse": "DAGANGAN KARYA INDONESIA",
            "nama_se": "DAGANGAN DAN WWW.DAGANGAN.COM",
            "sektor": "Sektor Perdagangan, Sektor Perdagangan",
            "tanggal_terbit": "2022-02-04",
            "url_tdpse_detail": "https://pse.komdigi.go.id/tdpse-detail/3171",
            "website": "dagangan.com"
        },
        {
            "id": "9cb1ab82-639b-4b86-8c54-0e2b99624d56",
            "nama_pse": "CAHAYA DUA OFTIC",
            "nama_se": "CAHAYADUAOPTIK.COM",
            "sektor": "Sektor Teknologi Informasi dan Komunikasi, Sektor Teknologi Informasi dan Komunikasi",
            "tanggal_terbit": "2022-02-04",
            "url_tdpse_detail": "https://pse.komdigi.go.id/tdpse-detail/3168",
            "website": "cahayaduaoptik.com"
        },
        {
            "id": "9cb1ab82-6d2d-4444-93d1-f2f34602ed4a",
            "nama_pse": "MULTIFILING MITRA INDONESIA",
            "nama_se": "DIGITAL SOLUTION",
            "sektor": "Sektor Perdagangan, Sektor Perdagangan, Sektor Transportasi, Sektor Transportasi, Sektor Kesehatan, Sektor Kesehatan, Sektor Teknologi Informasi dan Komunikasi, Sektor Teknologi Informasi dan Komunikasi, Sektor Pangan, Sektor Pangan",
            "tanggal_terbit": "2022-02-04",
            "url_tdpse_detail": "https://pse.komdigi.go.id/tdpse-detail/3170",
            "website": "mmi.co.id"
        },
        {
            "id": "9cb1ab7a-bfa2-47e1-aef2-ba04ecc258bb",
            "nama_pse": "GEMILANG PRO INDONESIA",
            "nama_se": "AUTOGP (EXPERT ANALYZE SOFTWARE FOR TRADING)",
            "sektor": "Sektor Perdagangan, Sektor Perdagangan, Sektor Teknologi Informasi dan Komunikasi, Sektor Teknologi Informasi dan Komunikasi",
            "tanggal_terbit": "2022-02-03",
            "url_tdpse_detail": "https://pse.komdigi.go.id/tdpse-detail/3160",
            "website": "goldenpro.id"
        },
        {
            "id": "9cb1ab6e-da74-4eba-a106-d489de769390",
            "nama_pse": "DEPOGUNA BANGUNAN ONLINE",
            "nama_se": "DBO",
            "sektor": "Sektor Teknologi Informasi dan Komunikasi, Sektor Teknologi Informasi dan Komunikasi",
            "tanggal_terbit": "2022-02-03",
            "url_tdpse_detail": "https://pse.komdigi.go.id/tdpse-detail/3161",
            "website": "dbo.id"
        },
        {
            "id": "9cb1ab82-5690-43e7-8ddd-c8a2d37a9d71",
            "nama_pse": "RUANG DAGANG INTERNASIONAL",
            "nama_se": "CREDIMART",
            "sektor": "Sektor Perdagangan, Sektor Perdagangan",
            "tanggal_terbit": "2022-02-03",
            "url_tdpse_detail": "https://pse.komdigi.go.id/tdpse-detail/3158",
            "website": "credimart.id"
        },
        {
            "id": "9cb1ab82-5f11-497e-9681-b5b556e68a31",
            "nama_pse": "BUCCHERI INDONESIA",
            "nama_se": "WWW.BUCCHERI.COM",
            "sektor": "Sektor Perdagangan, Sektor Perdagangan",
            "tanggal_terbit": "2022-02-03",
            "url_tdpse_detail": "https://pse.komdigi.go.id/tdpse-detail/3159",
            "website": "buccheri.com"
        },
        {
            "id": "9cb1ab7a-c1b5-4453-a7ae-5eb00046c322",
            "nama_pse": "APLIKASI PALING BERGUNA",
            "nama_se": "MONEESA",
            "sektor": "Sektor Teknologi Informasi dan Komunikasi, Sektor Teknologi Informasi dan Komunikasi",
            "tanggal_terbit": "2022-02-03",
            "url_tdpse_detail": "https://pse.komdigi.go.id/tdpse-detail/3162",
            "website": "moneesa.com"
        },
        {
            "id": "9cb1ab7a-c383-47fd-af2d-d6f6f52fc64a",
            "nama_pse": "APLIKASI PALING BERGUNA",
            "nama_se": "RIZKANNA",
            "sektor": "Sektor Teknologi Informasi dan Komunikasi, Sektor Teknologi Informasi dan Komunikasi",
            "tanggal_terbit": "2022-02-03",
            "url_tdpse_detail": "https://pse.komdigi.go.id/tdpse-detail/3165",
            "website": "rizkanna.com"
        },
        {
            "id": "9cb1ab8a-681d-4e45-a8c5-a1709766e52a",
            "nama_pse": "AYUK TEGAR INDONESIA",
            "nama_se": "AYUK TEGAR INDONESIA",
            "sektor": "Sektor Perdagangan, Sektor Perdagangan, Sektor Transportasi, Sektor Transportasi, Sektor Teknologi Informasi dan Komunikasi, Sektor Teknologi Informasi dan Komunikasi",
            "tanggal_terbit": "2022-02-03",
            "url_tdpse_detail": "https://pse.komdigi.go.id/tdpse-detail/3164",
            "website": "-"
        },
        {
            "id": "9cb1ab82-610c-443f-963a-d6f5a7ba5be4",
            "nama_pse": "LINTAS DATA TEKNOLOGI",
            "nama_se": "LINTAS DATA TEKNOLOGI",
            "sektor": "Sektor Teknologi Informasi dan Komunikasi, Sektor Teknologi Informasi dan Komunikasi",
            "tanggal_terbit": "2022-02-03",
            "url_tdpse_detail": "https://pse.komdigi.go.id/tdpse-detail/3166",
            "website": "ldt.co.id"
        },
        {
            "id": "9cb1ab6f-d57b-4992-83e9-6ebb1ffab4d9",
            "nama_pse": "JOGJAKITA MULTI ANDALAN",
            "nama_se": "JOGJAKITA",
            "sektor": "Sektor Perdagangan, Sektor Perdagangan, Sektor Perdagangan, Sektor Transportasi, Sektor Transportasi, Sektor Transportasi, Sektor Teknologi Informasi dan Komunikasi, Sektor Teknologi Informasi dan Komunikasi, Sektor Teknologi Informasi dan Komunikasi",
            "tanggal_terbit": "2022-02-02",
            "url_tdpse_detail": "https://pse.komdigi.go.id/tdpse-detail/3155",
            "website": "jogjakita.co.id"
        },
        {
            "id": "9cb1ab8a-33f0-44dd-9b8c-d0e87475f54a",
            "nama_pse": "BINAMANDIRI MULIARAHARJA",
            "nama_se": "GETSTAFF.ID",
            "sektor": "Sektor Teknologi Informasi dan Komunikasi, Sektor Teknologi Informasi dan Komunikasi",
            "tanggal_terbit": "2022-02-02",
            "url_tdpse_detail": "https://pse.komdigi.go.id/tdpse-detail/3151",
            "website": "getstaff.id"
        },
        {
            "id": "9cb1ab8a-5fbe-49ff-a6e0-6afb0783acfa",
            "nama_pse": "MAHARDIKA DIGITAL DISTRIBUSI",
            "nama_se": "HTTPS://GUDANG2GO.COM/",
            "sektor": "Sektor Teknologi Informasi dan Komunikasi, Sektor Teknologi Informasi dan Komunikasi",
            "tanggal_terbit": "2022-02-02",
            "url_tdpse_detail": "https://pse.komdigi.go.id/tdpse-detail/3152",
            "website": "gudang2go.com"
        },
        {
            "id": "9cb1ab82-513a-4a06-8ab6-e9bc5f93b540",
            "nama_pse": "SURABAYA JERSEY INDONESIA",
            "nama_se": "WEBSITE PENJUALAN PRODUK DARI SUBJERSEY",
            "sektor": "Sektor Perdagangan, Sektor Perdagangan",
            "tanggal_terbit": "2022-02-02",
            "url_tdpse_detail": "https://pse.komdigi.go.id/tdpse-detail/3150",
            "website": "subjersey.com"
        },
        {
            "id": "9cb1ab82-5345-4aa8-a889-f0507f1b118c",
            "nama_pse": "RUANG DAGANG INTERNASIONAL",
            "nama_se": "CREDIBOOK",
            "sektor": "Sektor Keuangan, Sektor Keuangan",
            "tanggal_terbit": "2022-02-02",
            "url_tdpse_detail": "https://pse.komdigi.go.id/tdpse-detail/3157",
            "website": "credibook.com"
        },
        {
            "id": "9cb1ab7a-ae48-4b38-94bf-9a67fa7dca1d",
            "nama_pse": "ROOJAI SERVICES INDONESIA",
            "nama_se": "ROOJAI.CO.ID",
            "sektor": "Sektor Perdagangan, Sektor Perdagangan",
            "tanggal_terbit": "2022-02-02",
            "url_tdpse_detail": "https://pse.komdigi.go.id/tdpse-detail/3156",
            "website": "roojai.co.id"
        },
        {
            "id": "9cb1ab82-5a4a-49c6-91cb-789d29a05bb9",
            "nama_pse": "NATTA FAZA INTERNASIONAL",
            "nama_se": "NATTA FAZA INTERNASIONAL",
            "sektor": "Sektor Perdagangan, Sektor Perdagangan",
            "tanggal_terbit": "2022-02-02",
            "url_tdpse_detail": "https://pse.komdigi.go.id/tdpse-detail/3153",
            "website": "natta.id"
        },
        {
            "id": "9cb1ab7a-bd96-492a-a113-1cdac8650103",
            "nama_pse": "MEDIA KABA DUOBALEH",
            "nama_se": "KABA12.COM",
            "sektor": "Sektor Teknologi Informasi dan Komunikasi, Sektor Teknologi Informasi dan Komunikasi",
            "tanggal_terbit": "2022-02-02",
            "url_tdpse_detail": "https://pse.komdigi.go.id/tdpse-detail/3154",
            "website": "kaba12.co.id"
        },
        {
            "id": "9cb1ab8a-4ede-49d3-9dc1-1efdeb27f194",
            "nama_pse": "KARYASAMA JENIUS INDONESIA",
            "nama_se": "X-BOT",
            "sektor": "Sektor Perdagangan, Sektor Perdagangan",
            "tanggal_terbit": "2022-02-01",
            "url_tdpse_detail": "https://pse.komdigi.go.id/tdpse-detail/3148",
            "website": "Ximpletrade.com"
        },
        {
            "id": "9cb1ab8a-555d-4be9-ad01-2721be8bbb31",
            "nama_pse": "KARYASAMA JENIUS INDONESIA",
            "nama_se": "X-BOT ( EXPERT ANALYZER SOFTWARE FOR TRADING )",
            "sektor": "Sektor Perdagangan, Sektor Perdagangan",
            "tanggal_terbit": "2022-02-01",
            "url_tdpse_detail": "https://pse.komdigi.go.id/tdpse-detail/3149",
            "website": "Ximpletrade.com"
        },
        {
            "id": "9cb1ab7a-9bec-472e-8bff-53e91685aded",
            "nama_pse": "ABBOTINDO BERKAT BERSAMA",
            "nama_se": "TOKO FURNITURE ONLINE",
            "sektor": "Sektor Perdagangan, Sektor Perdagangan",
            "tanggal_terbit": "2022-02-01",
            "url_tdpse_detail": "https://pse.komdigi.go.id/tdpse-detail/3147",
            "website": "abbotfurniture.co.id"
        },
        {
            "id": "9cb1ab76-5772-49c5-a818-5f7ca6faa1b0",
            "nama_pse": "MEDIA DIMENSI TEKNOLOGI INDONESIA",
            "nama_se": "ETIMETRAC",
            "sektor": "Sektor Teknologi Informasi dan Komunikasi, Sektor Teknologi Informasi dan Komunikasi, Sektor Teknologi Informasi dan Komunikasi",
            "tanggal_terbit": "2022-01-31",
            "url_tdpse_detail": "https://pse.komdigi.go.id/tdpse-detail/3143",
            "website": "etimetrac.id"
        },
        {
            "id": "9cb1ab78-5e5d-4baf-8c40-d6e1e10172e9",
            "nama_pse": "TABSQUARE SMART SOLUTIONS",
            "nama_se": "TABSQUARE",
            "sektor": "Sektor Perdagangan, Sektor Perdagangan, Sektor Perdagangan",
            "tanggal_terbit": "2022-01-31",
            "url_tdpse_detail": "https://pse.komdigi.go.id/tdpse-detail/3136",
            "website": "tabsquare.ai"
        },
        {
            "id": "9cb1ab80-2fce-42dc-b60c-6a9126fd30e4",
            "nama_pse": "SENTRA VIDYA UTAMA",
            "nama_se": "SEVIMA GOFEEDERCLOUD",
            "sektor": "Sektor Teknologi Informasi dan Komunikasi, Sektor Teknologi Informasi dan Komunikasi",
            "tanggal_terbit": "2022-01-31",
            "url_tdpse_detail": "https://pse.komdigi.go.id/tdpse-detail/3134",
            "website": "gofeedercloud.com"
        },
        {
            "id": "9cb1ab88-31b4-4d69-9253-991ac8f33d81",
            "nama_pse": "SENTRA VIDYA UTAMA",
            "nama_se": "SEVIMA EDLINK",
            "sektor": "Sektor Teknologi Informasi dan Komunikasi, Sektor Teknologi Informasi dan Komunikasi",
            "tanggal_terbit": "2022-01-31",
            "url_tdpse_detail": "https://pse.komdigi.go.id/tdpse-detail/3135",
            "website": "edlink.id"
        }
    ],
    "processingTimeMs": 7,
    "query": "",
    "totalHits": 19131,
    "hitsPerPage": 50,
    "page": 323,
    "totalPages": 383
}