{
    "hits": [
        {
            "id": "9cb1ab7f-9dfb-4da6-b806-34d1cb3720eb",
            "nama_pse": "EBDESK TEKNOLOGI",
            "nama_se": "EBDESK INQURIO",
            "sektor": "Sektor Teknologi Informasi dan Komunikasi, Sektor Teknologi Informasi dan Komunikasi",
            "tanggal_terbit": "2022-01-21",
            "url_tdpse_detail": "https://pse.komdigi.go.id/tdpse-detail/3090",
            "website": "ebdesk.com"
        },
        {
            "id": "9cb1ab78-914b-4434-9743-5e87508abdd7",
            "nama_pse": "CAKRAWALA NUSANTARA TEKNOLOGI",
            "nama_se": "ECOMMERCE E-RETAIL TOMONET (TOMONET.CO.ID)",
            "sektor": "Sektor Perdagangan, Sektor Perdagangan",
            "tanggal_terbit": "2022-01-21",
            "url_tdpse_detail": "https://pse.komdigi.go.id/tdpse-detail/3091",
            "website": "tomonet.co.id"
        },
        {
            "id": "9cb1ab82-0659-440b-b048-106b6c1f9876",
            "nama_pse": "AKSELERAN KEUANGAN INKLUSIF INDONESIA",
            "nama_se": "AKSELERAN",
            "sektor": "Sektor Keuangan, Sektor Keuangan",
            "tanggal_terbit": "2022-01-21",
            "url_tdpse_detail": "https://pse.komdigi.go.id/tdpse-detail/3089",
            "website": "akseleran.co.id"
        },
        {
            "id": "9cb1ab8a-1be3-42fb-aa6e-6804a07105b3",
            "nama_pse": "HANSEN CHRYSTIAN",
            "nama_se": "ZENON ELEKTRONIK",
            "sektor": "Sektor Perdagangan, Sektor Perdagangan",
            "tanggal_terbit": "2022-01-21",
            "url_tdpse_detail": "https://pse.komdigi.go.id/tdpse-detail/3083",
            "website": "-"
        },
        {
            "id": "9cb1ab7a-539d-4f0d-a86d-8ed09d93c8fa",
            "nama_pse": "DOM PIZZA INDONESIA",
            "nama_se": "DOMINOS.CO.ID",
            "sektor": "Sektor Perdagangan, Sektor Perdagangan",
            "tanggal_terbit": "2022-01-21",
            "url_tdpse_detail": "https://pse.komdigi.go.id/tdpse-detail/3084",
            "website": "dominos.co.id"
        },
        {
            "id": "9cb1ab82-2317-4448-a60f-af4ead92b2b6",
            "nama_pse": "PLESIRAN DIGITAL INDONESIA",
            "nama_se": "PLESIRAN",
            "sektor": "Sektor Perdagangan, Sektor Perdagangan, Sektor Transportasi, Sektor Transportasi",
            "tanggal_terbit": "2022-01-21",
            "url_tdpse_detail": "https://pse.komdigi.go.id/tdpse-detail/3085",
            "website": "plesiran.co"
        },
        {
            "id": "9cb1ab7a-63ff-481f-a2cb-68fc2e13f865",
            "nama_pse": "PLESIRAN DIGITAL INDONESIA",
            "nama_se": "PLESIRAN TRANSPORTASI",
            "sektor": "Sektor Perdagangan, Sektor Perdagangan, Sektor Transportasi, Sektor Transportasi, Sektor Teknologi Informasi dan Komunikasi, Sektor Teknologi Informasi dan Komunikasi",
            "tanggal_terbit": "2022-01-21",
            "url_tdpse_detail": "https://pse.komdigi.go.id/tdpse-detail/3086",
            "website": "plesiran.co"
        },
        {
            "id": "9cb1ab7a-713a-45f7-bdb4-2f4bb684642a",
            "nama_pse": "RT/RW INTERNET",
            "nama_se": "DAUN TECH INDO",
            "sektor": "Sektor Teknologi Informasi dan Komunikasi, Sektor Teknologi Informasi dan Komunikasi, Sektor Teknologi Informasi dan Komunikasi",
            "tanggal_terbit": "2022-01-21",
            "url_tdpse_detail": "https://pse.komdigi.go.id/tdpse-detail/3088",
            "website": "-"
        },
        {
            "id": "9cb1ab9f-0793-4f2d-b60e-e800fee65cfd",
            "nama_pse": "WELTEK HEALTHIN INDONESIA",
            "nama_se": "WELTEK HEALTHIN INDONESIA",
            "sektor": "Sektor Kesehatan, Sektor Teknologi Informasi dan Komunikasi",
            "tanggal_terbit": "2022-01-21",
            "url_tdpse_detail": "https://pse.komdigi.go.id/tdpse-detail/3087",
            "website": "weltek.id"
        },
        {
            "id": "9cb1ab81-bdd3-4eaf-96cb-d6b0ff46969a",
            "nama_pse": "CLEVERADS",
            "nama_se": "HTTP://CLEVERADS.CO.ID/ID/HOME.HTML",
            "sektor": "Sektor Teknologi Informasi dan Komunikasi, Sektor Teknologi Informasi dan Komunikasi",
            "tanggal_terbit": "2022-01-20",
            "url_tdpse_detail": "https://pse.komdigi.go.id/tdpse-detail/3081",
            "website": "http://cleverads.co.id/id/home.html"
        },
        {
            "id": "9cb1ab8a-18d9-44a5-8165-0e1390849336",
            "nama_pse": "DENY AGUNG FITRIANTO",
            "nama_se": "LEGALMU DIGITAL INDONESIA",
            "sektor": "Sektor Perdagangan, Sektor Perdagangan",
            "tanggal_terbit": "2022-01-20",
            "url_tdpse_detail": "https://pse.komdigi.go.id/tdpse-detail/3082",
            "website": "legalmu.com"
        },
        {
            "id": "9cb1ab69-5b1b-47f2-a16c-4bd9ead07166",
            "nama_pse": "DATA CITRA MANDIRI",
            "nama_se": "WWW.IBOX.CO.ID",
            "sektor": "Sektor Perdagangan, Sektor Perdagangan, Sektor Teknologi Informasi dan Komunikasi, Sektor Teknologi Informasi dan Komunikasi",
            "tanggal_terbit": "2022-01-19",
            "url_tdpse_detail": "https://pse.komdigi.go.id/tdpse-detail/3079",
            "website": "ibox.co.id"
        },
        {
            "id": "9cb1ab77-888f-444f-aa15-ae4c8fb07d87",
            "nama_pse": "FSP AKADEMI PRO",
            "nama_se": "EAST FAHRENHEIT",
            "sektor": "Sektor Perdagangan, Sektor Perdagangan",
            "tanggal_terbit": "2022-01-19",
            "url_tdpse_detail": "https://pse.komdigi.go.id/tdpse-detail/3063",
            "website": "fspakademipro.com"
        },
        {
            "id": "9cb1ab78-7e26-4bf4-978e-765aff044cff",
            "nama_pse": "SAKA UNITI INDONESIA",
            "nama_se": "GOKOMODO E-PROCUREMENT",
            "sektor": "Sektor Teknologi Informasi dan Komunikasi, Sektor Teknologi Informasi dan Komunikasi",
            "tanggal_terbit": "2022-01-19",
            "url_tdpse_detail": "https://pse.komdigi.go.id/tdpse-detail/3072",
            "website": "gokomodo.com"
        },
        {
            "id": "9cb1ab78-c835-44a2-8d7d-70ed1e1c97c5",
            "nama_pse": "SURYA BERSATU INDONESIA",
            "nama_se": "SURYA BERSATU INDONESIA",
            "sektor": "Sektor Perdagangan, Sektor Teknologi Informasi dan Komunikasi",
            "tanggal_terbit": "2022-01-19",
            "url_tdpse_detail": "https://pse.komdigi.go.id/tdpse-detail/3064",
            "website": "subernesia.co.id"
        },
        {
            "id": "9cb1ab79-965f-4d31-a507-12d2246c4437",
            "nama_pse": "REYCOM DOCUMENT SOLUSI",
            "nama_se": "RDS EXPRESS",
            "sektor": "Sektor Transportasi, Sektor Transportasi",
            "tanggal_terbit": "2022-01-19",
            "url_tdpse_detail": "https://pse.komdigi.go.id/tdpse-detail/3078",
            "website": "-"
        },
        {
            "id": "9cb1ab79-db85-45e3-8c73-e5376cfce283",
            "nama_pse": "SYNGENTA INDONESIA",
            "nama_se": "SYNGENTA PETANI",
            "sektor": "Sektor Perdagangan, Sektor Perdagangan, Sektor Teknologi Informasi dan Komunikasi, Sektor Teknologi Informasi dan Komunikasi",
            "tanggal_terbit": "2022-01-19",
            "url_tdpse_detail": "https://pse.komdigi.go.id/tdpse-detail/3070",
            "website": "-"
        },
        {
            "id": "9cb1ab7a-2477-41b6-a4c2-d79d63e76e72",
            "nama_pse": "TIKI JALUR NUGRAHA EKAKURIR",
            "nama_se": "PESONA - PESANAN OLEH-OLEH NUSANTARA",
            "sektor": "Sektor Perdagangan, Sektor Perdagangan",
            "tanggal_terbit": "2022-01-19",
            "url_tdpse_detail": "https://pse.komdigi.go.id/tdpse-detail/3077",
            "website": "pesonanusantara.co.id"
        },
        {
            "id": "9cb1ab89-daaa-4210-ab85-2282f765c741",
            "nama_pse": "ARTHA SUPREMASI TEKNOLOGI",
            "nama_se": "PINJAMANIA",
            "sektor": "Sektor Keuangan, Sektor Keuangan",
            "tanggal_terbit": "2022-01-19",
            "url_tdpse_detail": "https://pse.komdigi.go.id/tdpse-detail/3069",
            "website": "pinjamania.com"
        },
        {
            "id": "9cb1ab89-ddbb-43d4-b376-5d9e037304af",
            "nama_pse": "BINA NUSA INDONESIA",
            "nama_se": "KINGKONG APP",
            "sektor": "Sektor Teknologi Informasi dan Komunikasi, Sektor Teknologi Informasi dan Komunikasi",
            "tanggal_terbit": "2022-01-19",
            "url_tdpse_detail": "https://pse.komdigi.go.id/tdpse-detail/3068",
            "website": "-"
        },
        {
            "id": "9cb1ab7a-3fc4-43ed-8034-4b749626f1b8",
            "nama_pse": "KULINER MAJU CEMERLANG",
            "nama_se": "COOKLINER",
            "sektor": "Sektor Perdagangan, Sektor Perdagangan, Sektor Teknologi Informasi dan Komunikasi, Sektor Teknologi Informasi dan Komunikasi, Sektor Pangan, Sektor Pangan",
            "tanggal_terbit": "2022-01-19",
            "url_tdpse_detail": "https://pse.komdigi.go.id/tdpse-detail/3071",
            "website": "cookliner.com"
        },
        {
            "id": "9cb1ab89-feb2-41af-b8d1-4988c0c936f3",
            "nama_pse": "DEO PEMBAYARAN NASIONAL",
            "nama_se": "DEOTRANS",
            "sektor": "Sektor Teknologi Informasi dan Komunikasi, Sektor Teknologi Informasi dan Komunikasi",
            "tanggal_terbit": "2022-01-19",
            "url_tdpse_detail": "https://pse.komdigi.go.id/tdpse-detail/3073",
            "website": "deotrans.com"
        },
        {
            "id": "9cb1ab8a-06c5-4bfd-b007-70ecb2cf27b8",
            "nama_pse": "MACROSCOPE BERDIKARI NUSANTARA",
            "nama_se": "MACROSCOPE",
            "sektor": "Sektor Perdagangan, Sektor Perdagangan, Sektor Perdagangan",
            "tanggal_terbit": "2022-01-19",
            "url_tdpse_detail": "https://pse.komdigi.go.id/tdpse-detail/3065",
            "website": "macroscope.id"
        },
        {
            "id": "9cb1ab8a-0c71-42de-99eb-51fdd400a852",
            "nama_pse": "ROMY AMURHA",
            "nama_se": "OMKURIR",
            "sektor": "Sektor Transportasi, Sektor Transportasi",
            "tanggal_terbit": "2022-01-19",
            "url_tdpse_detail": "https://pse.komdigi.go.id/tdpse-detail/3066",
            "website": "-"
        },
        {
            "id": "9cb1ab7a-4361-4821-833e-5914dccbd2a1",
            "nama_pse": "DASA KARYA INDONESIA",
            "nama_se": "CARINIH.COM",
            "sektor": "Sektor Perdagangan, Sektor Perdagangan, Sektor Teknologi Informasi dan Komunikasi, Sektor Teknologi Informasi dan Komunikasi",
            "tanggal_terbit": "2022-01-19",
            "url_tdpse_detail": "https://pse.komdigi.go.id/tdpse-detail/3080",
            "website": "carinih.com"
        },
        {
            "id": "9cb1ab8a-1111-4c43-90fc-88fedd8d5cfb",
            "nama_pse": "INOVASI PUTRA PERTAMA",
            "nama_se": "BELANJASMART",
            "sektor": "Sektor Perdagangan, Sektor Perdagangan",
            "tanggal_terbit": "2022-01-19",
            "url_tdpse_detail": "https://pse.komdigi.go.id/tdpse-detail/3074",
            "website": "belanjasmart.id"
        },
        {
            "id": "9cb1ab82-0adf-406b-82d9-4e1bad7c79dc",
            "nama_pse": "ODEO TEKNOLOGI INDONESIA",
            "nama_se": "ODEO",
            "sektor": "Sektor Teknologi Informasi dan Komunikasi, Sektor Teknologi Informasi dan Komunikasi",
            "tanggal_terbit": "2022-01-19",
            "url_tdpse_detail": "https://pse.komdigi.go.id/tdpse-detail/3075",
            "website": "odeo.co.id"
        },
        {
            "id": "9cb1ab8a-165e-421b-a55c-66138263e4e7",
            "nama_pse": "AJAIB TEKNOLOGI INDONESIA",
            "nama_se": "AJAIB",
            "sektor": "Sektor Perdagangan, Sektor Perdagangan, Sektor Keuangan, Sektor Keuangan",
            "tanggal_terbit": "2022-01-19",
            "url_tdpse_detail": "https://pse.komdigi.go.id/tdpse-detail/3076",
            "website": "ajaib.co.id"
        },
        {
            "id": "9cb1ab9f-25cb-4f9d-aede-a3ceb96d83db",
            "nama_pse": "INTEKNO RAYA",
            "nama_se": "BOOSTER",
            "sektor": "Sektor Keuangan, Sektor Keuangan, Sektor Keuangan",
            "tanggal_terbit": "2022-01-19",
            "url_tdpse_detail": "https://pse.komdigi.go.id/tdpse-detail/3067",
            "website": "boosterku.co.id"
        },
        {
            "id": "9cb1ab80-610a-4a7d-8652-82e2cc8c473f",
            "nama_pse": "BRI ASURANSI INDONESIA",
            "nama_se": "BRINS MOBILE",
            "sektor": "Sektor Keuangan, Sektor Keuangan",
            "tanggal_terbit": "2022-01-17",
            "url_tdpse_detail": "https://pse.komdigi.go.id/tdpse-detail/3055",
            "website": "brinsaman.com"
        },
        {
            "id": "9cb1ab7a-2ac6-4d6e-bc38-cf5e85336fc7",
            "nama_pse": "MAJU FINANSIAL DIGITAL",
            "nama_se": "AIGIS",
            "sektor": "Sektor Teknologi Informasi dan Komunikasi, Sektor Teknologi Informasi dan Komunikasi",
            "tanggal_terbit": "2022-01-17",
            "url_tdpse_detail": "https://pse.komdigi.go.id/tdpse-detail/3059",
            "website": "aigis.id"
        },
        {
            "id": "9cb1ab81-d76c-4bb8-9255-98cf91027b7c",
            "nama_pse": "DB KLIK",
            "nama_se": "DBKLIK",
            "sektor": "Sektor Perdagangan, Sektor Perdagangan",
            "tanggal_terbit": "2022-01-17",
            "url_tdpse_detail": "https://pse.komdigi.go.id/tdpse-detail/3058",
            "website": "dbklik.co.id"
        },
        {
            "id": "9cb1ab7a-31f4-42af-9e51-37bfcf957def",
            "nama_pse": "TRANS CIBUBUR PROPERTY",
            "nama_se": "TRANS SHOPPING MALL GROUP",
            "sektor": "Sektor Perdagangan, Sektor Perdagangan",
            "tanggal_terbit": "2022-01-17",
            "url_tdpse_detail": "https://pse.komdigi.go.id/tdpse-detail/3060",
            "website": "transshoppingmall.com"
        },
        {
            "id": "9cb1ab81-f3aa-4f9b-acd6-2f410f2cb81c",
            "nama_pse": "HIDUP IDEAL SEJAHTERA",
            "nama_se": "IDEAL",
            "sektor": "Sektor Teknologi Informasi dan Komunikasi, Sektor Teknologi Informasi dan Komunikasi",
            "tanggal_terbit": "2022-01-17",
            "url_tdpse_detail": "https://pse.komdigi.go.id/tdpse-detail/3057",
            "website": "idealindonesia.com"
        },
        {
            "id": "9cb1ab81-fc21-4a2f-9bc1-24b7fa1aba43",
            "nama_pse": "SKYLINE MEDIA NUSANTARA",
            "nama_se": "OKEFLIX.COM",
            "sektor": "Sektor Perdagangan, Sektor Perdagangan, Sektor Teknologi Informasi dan Komunikasi, Sektor Teknologi Informasi dan Komunikasi",
            "tanggal_terbit": "2022-01-17",
            "url_tdpse_detail": "https://pse.komdigi.go.id/tdpse-detail/3061",
            "website": "okeflix.com"
        },
        {
            "id": "9cb1ab81-ff39-458c-88df-871b3b00695e",
            "nama_pse": "ZAKI YAMANI",
            "nama_se": "PAPADZUL.CO.ID (PAPADZUL SMM PANEL)",
            "sektor": "Sektor Perdagangan, Sektor Perdagangan, Sektor Perdagangan",
            "tanggal_terbit": "2022-01-17",
            "url_tdpse_detail": "https://pse.komdigi.go.id/tdpse-detail/3062",
            "website": "papadzul.com"
        },
        {
            "id": "9cb1ab7e-663a-4d5e-b3b1-1c5de23cb92b",
            "nama_pse": "STOCKBIT SEKURITAS DIGITAL",
            "nama_se": "STOCKBIT ONLINE TRADING",
            "sektor": "Sektor Keuangan, Sektor Keuangan",
            "tanggal_terbit": "2022-01-17",
            "url_tdpse_detail": "https://pse.komdigi.go.id/tdpse-detail/3056",
            "website": "stockbit.com"
        },
        {
            "id": "9cb1ab78-7aac-437d-a1de-043cc269166c",
            "nama_pse": "GLOBAL TRANSPOR SOLUSI",
            "nama_se": "EURORA",
            "sektor": "Sektor Perdagangan, Sektor Perdagangan, Sektor Teknologi Informasi dan Komunikasi, Sektor Teknologi Informasi dan Komunikasi",
            "tanggal_terbit": "2022-01-15",
            "url_tdpse_detail": "https://pse.komdigi.go.id/tdpse-detail/3051",
            "website": "eurora.com"
        },
        {
            "id": "9cb1ab89-f899-4a5f-9f38-3a0850c6ebdc",
            "nama_pse": "ARDWEBHOST ZAHIRA MEDIA",
            "nama_se": "SISTEM ELEKTRONIK PT ARDWEBHOST ZAHIRA MEDIA",
            "sektor": "Sektor Teknologi Informasi dan Komunikasi, Sektor Teknologi Informasi dan Komunikasi",
            "tanggal_terbit": "2022-01-15",
            "url_tdpse_detail": "https://pse.komdigi.go.id/tdpse-detail/3053",
            "website": "ardwebhost.com"
        },
        {
            "id": "9cb1ab81-e6eb-4bc9-ba5f-207adcd10411",
            "nama_pse": "VPS PULSA MITRA SOLUSI",
            "nama_se": "VPS PULSA",
            "sektor": "Sektor Perdagangan, Sektor Perdagangan",
            "tanggal_terbit": "2022-01-15",
            "url_tdpse_detail": "https://pse.komdigi.go.id/tdpse-detail/3052",
            "website": "centertrx.com"
        },
        {
            "id": "9cb1ab81-d4c0-4700-8424-a4d5f3e18ce0",
            "nama_pse": "BINAWAN INTI UTAMA",
            "nama_se": "JOBSHUB.ID",
            "sektor": "Sektor Kesehatan, Sektor Kesehatan, Sektor Teknologi Informasi dan Komunikasi, Sektor Teknologi Informasi dan Komunikasi",
            "tanggal_terbit": "2022-01-14",
            "url_tdpse_detail": "https://pse.komdigi.go.id/tdpse-detail/3049",
            "website": "jobshub.id"
        },
        {
            "id": "9cb1ab89-f0e5-4ed9-9981-6e23656c9dfd",
            "nama_pse": "WOOK GLOBAL TECHNOLOGY",
            "nama_se": "WOOK APP",
            "sektor": "Sektor Perdagangan, Sektor Perdagangan, Sektor Perdagangan",
            "tanggal_terbit": "2022-01-14",
            "url_tdpse_detail": "https://pse.komdigi.go.id/tdpse-detail/3048",
            "website": "wook.id"
        },
        {
            "id": "9cb1ab81-e0d9-40a2-b377-1df4a17e553f",
            "nama_pse": "RUMAHNET INTERNUSA",
            "nama_se": "RUMAH HOSTING",
            "sektor": "Sektor Teknologi Informasi dan Komunikasi, Sektor Teknologi Informasi dan Komunikasi",
            "tanggal_terbit": "2022-01-14",
            "url_tdpse_detail": "https://pse.komdigi.go.id/tdpse-detail/3047",
            "website": "rumahhosting.com"
        },
        {
            "id": "9cb1ab89-fb2c-42ab-9cf2-2d1c1cf01b57",
            "nama_pse": "NANA SUPRIATNA",
            "nama_se": "HR-MANAGEMENT SYSTEM",
            "sektor": "Sektor Perdagangan, Sektor Perdagangan, Sektor Transportasi, Sektor Transportasi, Sektor Keuangan, Sektor Keuangan, Sektor Kesehatan, Sektor Kesehatan, Sektor Teknologi Informasi dan Komunikasi, Sektor Teknologi Informasi dan Komunikasi, Sektor Pangan, Sektor Pangan",
            "tanggal_terbit": "2022-01-14",
            "url_tdpse_detail": "https://pse.komdigi.go.id/tdpse-detail/3050",
            "website": "warungiptek.com"
        },
        {
            "id": "9cb1ab79-d5f2-461c-89cb-335169f35748",
            "nama_pse": "INDO MEDIA INVESTAMA",
            "nama_se": "GASPOL!",
            "sektor": "Sektor Perdagangan, Sektor Perdagangan, Sektor Teknologi Informasi dan Komunikasi, Sektor Teknologi Informasi dan Komunikasi",
            "tanggal_terbit": "2022-01-13",
            "url_tdpse_detail": "https://pse.komdigi.go.id/tdpse-detail/3039",
            "website": "gaspol.co.id"
        },
        {
            "id": "9cb1ab81-d1e3-4219-adb7-f27eb4902308",
            "nama_pse": "TUKANG JAGA LILIN",
            "nama_se": "TAUNYAPROFIT99",
            "sektor": "Sektor Teknologi Informasi dan Komunikasi, Sektor Teknologi Informasi dan Komunikasi",
            "tanggal_terbit": "2022-01-13",
            "url_tdpse_detail": "https://pse.komdigi.go.id/tdpse-detail/3042",
            "website": "taunyaprofit99.com"
        },
        {
            "id": "9cb1ab7a-28cd-4ff9-8df8-b29da482dab3",
            "nama_pse": "SUGI KRIPTO HARTANA",
            "nama_se": "ADABYBIT",
            "sektor": "Sektor Perdagangan, Sektor Perdagangan, Sektor Teknologi Informasi dan Komunikasi, Sektor Teknologi Informasi dan Komunikasi",
            "tanggal_terbit": "2022-01-13",
            "url_tdpse_detail": "https://pse.komdigi.go.id/tdpse-detail/3044",
            "website": "adabybit.com"
        },
        {
            "id": "9cb1ab7a-2d35-4e4b-b1b5-dfb3a678eba3",
            "nama_pse": "DWI LEGASI NUSANTARA",
            "nama_se": "KMART",
            "sektor": "Sektor Perdagangan, Sektor Perdagangan, Sektor Kesehatan, Sektor Kesehatan",
            "tanggal_terbit": "2022-01-13",
            "url_tdpse_detail": "https://pse.komdigi.go.id/tdpse-detail/3043",
            "website": "k-mart.co.id"
        },
        {
            "id": "9cb1ab81-dda0-4778-9dc8-fdeabc528ca4",
            "nama_pse": "ELKA SOLUTION NUSANTARA",
            "nama_se": "PT. ELKA SOLUTION NUSANTARA",
            "sektor": "Sektor Perdagangan, Sektor Perdagangan, Sektor Teknologi Informasi dan Komunikasi, Sektor Teknologi Informasi dan Komunikasi",
            "tanggal_terbit": "2022-01-13",
            "url_tdpse_detail": "https://pse.komdigi.go.id/tdpse-detail/3040",
            "website": "blanjasmart.co.id"
        },
        {
            "id": "9cb1ab7e-8240-45ef-9318-fe54b3a57480",
            "nama_pse": "WAHANA OTTOMITRA MULTIARTHA TBK",
            "nama_se": "CORPORATE WEBSITE WOM FINANCE",
            "sektor": "Sektor Keuangan, Sektor Keuangan",
            "tanggal_terbit": "2022-01-13",
            "url_tdpse_detail": "https://pse.komdigi.go.id/tdpse-detail/3046",
            "website": "wom.co.id"
        }
    ],
    "processingTimeMs": 7,
    "query": "",
    "totalHits": 19131,
    "hitsPerPage": 50,
    "page": 325,
    "totalPages": 383
}