{
    "hits": [
        {
            "id": "9cb1abaf-2e71-4f07-961f-dab79da1696e",
            "nama_pse": "POHON LEMON INDONESIA",
            "nama_se": "SMARTKLIKS.ID",
            "sektor": "Sektor Perdagangan",
            "tanggal_terbit": "2022-07-10",
            "url_tdpse_detail": "https://pse.komdigi.go.id/tdpse-detail/5258",
            "website": "Smartkliks.id"
        },
        {
            "id": "9cb1abaf-857f-4821-8096-11ecf21c2e43",
            "nama_pse": "AKSATA WISATA TRAVEL",
            "nama_se": "AKSATAWISATA.COM",
            "sektor": "Sektor Perdagangan, Sektor Transportasi",
            "tanggal_terbit": "2022-07-10",
            "url_tdpse_detail": "https://pse.komdigi.go.id/tdpse-detail/5256",
            "website": "aksatawisata.com"
        },
        {
            "id": "9cb1abaf-8804-416f-bc0e-eff53443c663",
            "nama_pse": "TARA TIANA",
            "nama_se": "WEBSITE COMPANY PROFILE",
            "sektor": "Sektor Perdagangan, Sektor Teknologi Informasi dan Komunikasi",
            "tanggal_terbit": "2022-07-10",
            "url_tdpse_detail": "https://pse.komdigi.go.id/tdpse-detail/5257",
            "website": "bluehost.com"
        },
        {
            "id": "9cb1aba5-af91-417a-bbb8-71e81cd7a7d2",
            "nama_pse": "CIPTA ASET DIGITAL",
            "nama_se": "CIPT ASET DIGITAAL",
            "sektor": "Sektor Perdagangan, Sektor Teknologi Informasi dan Komunikasi",
            "tanggal_terbit": "2022-07-10",
            "url_tdpse_detail": "https://pse.komdigi.go.id/tdpse-detail/5269",
            "website": "ciptaasetdigital.co.id"
        },
        {
            "id": "9cb1aba5-b263-46d9-bd02-082439ab175b",
            "nama_pse": "DEBRIAN RUHUT SARAGIH",
            "nama_se": "SOLUSI DIAGRAM (SOLUGRAM.COM)",
            "sektor": "Sektor Teknologi Informasi dan Komunikasi",
            "tanggal_terbit": "2022-07-10",
            "url_tdpse_detail": "https://pse.komdigi.go.id/tdpse-detail/5259",
            "website": "solugram.com"
        },
        {
            "id": "9cb1aba5-b4d5-4534-bbc7-8b9d199e9df9",
            "nama_pse": "ANDY NUGROHO",
            "nama_se": "BACKLINK.CO.ID",
            "sektor": "Sektor Perdagangan",
            "tanggal_terbit": "2022-07-10",
            "url_tdpse_detail": "https://pse.komdigi.go.id/tdpse-detail/5260",
            "website": "backlink.co.id"
        },
        {
            "id": "9cb1abaf-8a2a-4f70-9bfc-1968f3f7250a",
            "nama_pse": "OLGA ASSIRAQ",
            "nama_se": "APOTEK",
            "sektor": "Sektor Perdagangan",
            "tanggal_terbit": "2022-07-10",
            "url_tdpse_detail": "https://pse.komdigi.go.id/tdpse-detail/5261",
            "website": "-"
        },
        {
            "id": "9cb1aba5-b70c-422a-9220-3ae82c862e1e",
            "nama_pse": "PROPERTY 21",
            "nama_se": "PROPERTY21",
            "sektor": "Sektor Teknologi Informasi dan Komunikasi",
            "tanggal_terbit": "2022-07-10",
            "url_tdpse_detail": "https://pse.komdigi.go.id/tdpse-detail/5262",
            "website": "-"
        },
        {
            "id": "9cb1ab9a-ac34-4337-a3b1-957175287462",
            "nama_pse": "PERMID TEKNIK GROUP",
            "nama_se": "SERVICE KULKAS, MESIN CUCI, AC, TV, POMPA AIR, DISPENSER",
            "sektor": "Sektor Perdagangan, Sektor Teknologi Informasi dan Komunikasi",
            "tanggal_terbit": "2022-07-10",
            "url_tdpse_detail": "https://pse.komdigi.go.id/tdpse-detail/5266",
            "website": "permidteknik.com"
        },
        {
            "id": "9cb1ab9a-ae0e-445f-a27f-d78b8d970b49",
            "nama_pse": "EVINDOTAMA JAYA INTERNUSA",
            "nama_se": "ANTIVIRUS",
            "sektor": "Sektor Teknologi Informasi dan Komunikasi",
            "tanggal_terbit": "2022-07-10",
            "url_tdpse_detail": "https://pse.komdigi.go.id/tdpse-detail/5263",
            "website": "evindotama.com"
        },
        {
            "id": "9cb1aba5-b935-42e5-8579-3f2fe8db0f5e",
            "nama_pse": "EVINDOTAMA JAYA INTERNUSA",
            "nama_se": "WEBSITE",
            "sektor": "Sektor Teknologi Informasi dan Komunikasi",
            "tanggal_terbit": "2022-07-10",
            "url_tdpse_detail": "https://pse.komdigi.go.id/tdpse-detail/5264",
            "website": "evindotama.com"
        },
        {
            "id": "9cb1abaf-8d55-45eb-9a4c-9963f40b5948",
            "nama_pse": "EVINDOTAMA JAYA INTERNUSA",
            "nama_se": "AKSESORIS KOMPUTER",
            "sektor": "Sektor Teknologi Informasi dan Komunikasi",
            "tanggal_terbit": "2022-07-10",
            "url_tdpse_detail": "https://pse.komdigi.go.id/tdpse-detail/5265",
            "website": "evindotama.com"
        },
        {
            "id": "9cb1ab9a-afed-4379-8003-e272e2d5b179",
            "nama_pse": "UNITED TRACTORS",
            "nama_se": "UNITED TRACTORS E-PROCUREMENT",
            "sektor": "Sektor Perdagangan",
            "tanggal_terbit": "2022-07-10",
            "url_tdpse_detail": "https://pse.komdigi.go.id/tdpse-detail/5267",
            "website": "eproc.unitedtractors.com"
        },
        {
            "id": "9cb1ab9a-b1f6-4dac-9856-98218048741b",
            "nama_pse": "DIGITAL AUTO SEJAHTERA",
            "nama_se": "BENGKEL MANIA",
            "sektor": "Sektor Perdagangan",
            "tanggal_terbit": "2022-07-10",
            "url_tdpse_detail": "https://pse.komdigi.go.id/tdpse-detail/5268",
            "website": "bengkelmania.com"
        },
        {
            "id": "9cb1ab9a-b3c5-4a4b-ad14-aff2e6eac901",
            "nama_pse": "VANDY PRATAMA",
            "nama_se": "TRAVEL",
            "sektor": "Sektor Transportasi",
            "tanggal_terbit": "2022-07-10",
            "url_tdpse_detail": "https://pse.komdigi.go.id/tdpse-detail/5270",
            "website": "-"
        },
        {
            "id": "9cb1abaf-7c67-42c0-b363-dff6aa6ba484",
            "nama_pse": "NASRUL ANSORI",
            "nama_se": "APLIKASI JODOH AYONIKAH",
            "sektor": "Sektor Teknologi Informasi dan Komunikasi",
            "tanggal_terbit": "2022-07-09",
            "url_tdpse_detail": "https://pse.komdigi.go.id/tdpse-detail/5251",
            "website": "ayonikah.com"
        },
        {
            "id": "9cb1ab9a-a6a2-4ff0-bc8d-907fa327a65c",
            "nama_pse": "NASRUL ANSORI",
            "nama_se": "APLIKASI JODOH APPJODOH",
            "sektor": "Sektor Teknologi Informasi dan Komunikasi",
            "tanggal_terbit": "2022-07-09",
            "url_tdpse_detail": "https://pse.komdigi.go.id/tdpse-detail/5252",
            "website": "appjodoh.com"
        },
        {
            "id": "9cb1abaf-7f08-4116-ae59-68fe1b2dccaa",
            "nama_pse": "NASRUL ANSORI",
            "nama_se": "IKLAN MOBIL BEKAS SIMOBIL.ID",
            "sektor": "Sektor Teknologi Informasi dan Komunikasi",
            "tanggal_terbit": "2022-07-09",
            "url_tdpse_detail": "https://pse.komdigi.go.id/tdpse-detail/5253",
            "website": "simobil.id"
        },
        {
            "id": "9cb1aba5-ac8f-4c01-abb5-6bf7c893afce",
            "nama_pse": "GLOBAL OTOMAT DIGITAL",
            "nama_se": "WISEREE",
            "sektor": "Sektor Teknologi Informasi dan Komunikasi",
            "tanggal_terbit": "2022-07-09",
            "url_tdpse_detail": "https://pse.komdigi.go.id/tdpse-detail/5254",
            "website": "wiseree.com"
        },
        {
            "id": "9cb1ab9a-a970-4829-9c78-4e25f7b0417b",
            "nama_pse": "AZIMA TEKNOLOGI INFORKASI",
            "nama_se": "ZELFORS",
            "sektor": "Sektor Perdagangan, Sektor Teknologi Informasi dan Komunikasi",
            "tanggal_terbit": "2022-07-09",
            "url_tdpse_detail": "https://pse.komdigi.go.id/tdpse-detail/5255",
            "website": "zelfors.com"
        },
        {
            "id": "9cb1aba5-51f6-4152-9937-c8bef6e43376",
            "nama_pse": "NATURAL FOODS SUKSES MAKMUR",
            "nama_se": "NATURAL FOODS SUKSES MAKMUR",
            "sektor": "Sektor Perdagangan",
            "tanggal_terbit": "2022-07-08",
            "url_tdpse_detail": "https://pse.komdigi.go.id/tdpse-detail/5210",
            "website": "nswfood.co.id"
        },
        {
            "id": "9cb1ab9a-5739-4010-9cd6-77e525f680bd",
            "nama_pse": "DAKSA ADHIMUKTI SAKTI HARSAYA",
            "nama_se": "DASH SPORTS",
            "sektor": "Sektor Perdagangan",
            "tanggal_terbit": "2022-07-08",
            "url_tdpse_detail": "https://pse.komdigi.go.id/tdpse-detail/5234",
            "website": "dashsports.id"
        },
        {
            "id": "9cb1aba5-5c6b-4d60-89b4-c2a8d7d23536",
            "nama_pse": "KOMPAS CYBER MEDIA",
            "nama_se": "KOMPAS.COM",
            "sektor": "Sektor Teknologi Informasi dan Komunikasi",
            "tanggal_terbit": "2022-07-08",
            "url_tdpse_detail": "https://pse.komdigi.go.id/tdpse-detail/5203",
            "website": "kompas.com"
        },
        {
            "id": "9cb1ab9a-5d5a-42f7-915d-b36f3cc55515",
            "nama_pse": "STAR REACHERS INDONESIA",
            "nama_se": "EPSILON PEOPLECLOUD DIGITAL MEDIA SOLUTION (DMS)",
            "sektor": "Sektor Teknologi Informasi dan Komunikasi",
            "tanggal_terbit": "2022-07-08",
            "url_tdpse_detail": "https://pse.komdigi.go.id/tdpse-detail/5227",
            "website": "access.conversantmedia.com"
        },
        {
            "id": "9cb1aba5-6799-4f74-80de-fad6b8af061b",
            "nama_pse": "STAR REACHERS INDONESIA",
            "nama_se": "EPSILON PEOPLECLOUD DIGITAL MEDIA SOLUTION(DMS)",
            "sektor": "Sektor Teknologi Informasi dan Komunikasi",
            "tanggal_terbit": "2022-07-08",
            "url_tdpse_detail": "https://pse.komdigi.go.id/tdpse-detail/5247",
            "website": "epsilon.com"
        },
        {
            "id": "9cb1abaf-4b51-4c53-990d-0d8dde830cdb",
            "nama_pse": "BUYINGKLUB GLOBAL INTERNASIONAL",
            "nama_se": "TOKO ONLINE BUYINGKLUB",
            "sektor": "Sektor Perdagangan",
            "tanggal_terbit": "2022-07-08",
            "url_tdpse_detail": "https://pse.komdigi.go.id/tdpse-detail/5202",
            "website": "idnbuyingclub.com"
        },
        {
            "id": "9cb1ab9a-77dc-4579-b4e9-2af6ba9a15c6",
            "nama_pse": "ASURANSI BRI LIFE",
            "nama_se": "MY AGENCY SYARIAH",
            "sektor": "Sektor Keuangan",
            "tanggal_terbit": "2022-07-08",
            "url_tdpse_detail": "https://pse.komdigi.go.id/tdpse-detail/5204",
            "website": "-"
        },
        {
            "id": "9cb1abaf-4e0d-460e-9c91-258a8913bde1",
            "nama_pse": "ASURANSI BRI LIFE",
            "nama_se": "MY CUSTOMER SYARIAH",
            "sektor": "Sektor Keuangan",
            "tanggal_terbit": "2022-07-08",
            "url_tdpse_detail": "https://pse.komdigi.go.id/tdpse-detail/5206",
            "website": "-"
        },
        {
            "id": "9cb1aba5-7bea-4f8d-8dd5-613f72eca2a7",
            "nama_pse": "MAKIN JAYA AGUNG",
            "nama_se": "MAKIN JAYA AGUNG",
            "sektor": "Sektor Perdagangan, Sektor Kesehatan",
            "tanggal_terbit": "2022-07-08",
            "url_tdpse_detail": "https://pse.komdigi.go.id/tdpse-detail/5207",
            "website": "mjagaharu.co.id"
        },
        {
            "id": "9cb1abaf-50d8-45c5-9670-c20c9222e3ce",
            "nama_pse": "ADITYA ARDI NUGRAHA",
            "nama_se": "GELEMBUNG",
            "sektor": "Sektor Teknologi Informasi dan Komunikasi",
            "tanggal_terbit": "2022-07-08",
            "url_tdpse_detail": "https://pse.komdigi.go.id/tdpse-detail/5208",
            "website": "gelembung.my.id"
        },
        {
            "id": "9cb1ab9a-7ab5-455a-8eb7-cf78183c6b3e",
            "nama_pse": "ASURANSI BRI LIFE",
            "nama_se": "MY LIFE SYARIAH",
            "sektor": "Sektor Keuangan",
            "tanggal_terbit": "2022-07-08",
            "url_tdpse_detail": "https://pse.komdigi.go.id/tdpse-detail/5209",
            "website": "-"
        },
        {
            "id": "9cb1abaf-536d-4214-81f2-8ce114f161bc",
            "nama_pse": "BANK SYARIAH INDONESIA",
            "nama_se": "CUSTOMER PORTFOLIO MANAGEMENT (CPM)",
            "sektor": "Sektor Keuangan",
            "tanggal_terbit": "2022-07-08",
            "url_tdpse_detail": "https://pse.komdigi.go.id/tdpse-detail/5211",
            "website": "cpm.bankbsi.co.id"
        },
        {
            "id": "9cb1aba5-810e-4430-aa7c-a386caece5b7",
            "nama_pse": "XDC INDONESIA",
            "nama_se": "PT. XDC INDONESIA",
            "sektor": "Sektor Perdagangan",
            "tanggal_terbit": "2022-07-08",
            "url_tdpse_detail": "https://pse.komdigi.go.id/tdpse-detail/5213",
            "website": "paradisestore.id"
        },
        {
            "id": "9cb1aba5-83f9-4852-94ab-ef615104160a",
            "nama_pse": "MAYBANK INDONESIA FINANCE",
            "nama_se": "MLELANG",
            "sektor": "Sektor Keuangan",
            "tanggal_terbit": "2022-07-08",
            "url_tdpse_detail": "https://pse.komdigi.go.id/tdpse-detail/5215",
            "website": "-"
        },
        {
            "id": "9cb1aba5-8998-474c-95a0-e57680514634",
            "nama_pse": "MEGAXUS INFOTECH",
            "nama_se": "DUNIAPP.COM (WEBSITE/PLATFORM UNTUK KONTEN DIGITAL, APLIKASI MOBILE GAME)",
            "sektor": "Sektor Teknologi Informasi dan Komunikasi",
            "tanggal_terbit": "2022-07-08",
            "url_tdpse_detail": "https://pse.komdigi.go.id/tdpse-detail/5217",
            "website": "duniapp.com"
        },
        {
            "id": "9cb1aba5-8c3f-4258-a993-b6369937d02c",
            "nama_pse": "MAXS DIGITAL TEKNOLOGI",
            "nama_se": "PT MAXS DIGITAL TEKNOLOGI",
            "sektor": "Sektor Teknologi Informasi dan Komunikasi",
            "tanggal_terbit": "2022-07-08",
            "url_tdpse_detail": "https://pse.komdigi.go.id/tdpse-detail/5218",
            "website": "maxspos.com"
        },
        {
            "id": "9cb1aba5-9627-4d0b-8c5c-f975bbc2c4fe",
            "nama_pse": "MEGAXUS INFOTECH",
            "nama_se": "MEGAXUS.COM",
            "sektor": "Sektor Teknologi Informasi dan Komunikasi",
            "tanggal_terbit": "2022-07-08",
            "url_tdpse_detail": "https://pse.komdigi.go.id/tdpse-detail/5220",
            "website": "megaxus.com"
        },
        {
            "id": "9cb1abaf-55fd-4b8b-a4d8-b6dfe8e99f9d",
            "nama_pse": "MEGAXUS INFOTECH",
            "nama_se": "MEGAXUS INFOTECH",
            "sektor": "Sektor Teknologi Informasi dan Komunikasi",
            "tanggal_terbit": "2022-07-08",
            "url_tdpse_detail": "https://pse.komdigi.go.id/tdpse-detail/5219",
            "website": "megaxus.com"
        },
        {
            "id": "9cb1ab9a-8368-44a4-84d8-762ccf733291",
            "nama_pse": "MEGAXUS INFOTECH",
            "nama_se": "MEGAXUS PAYMENT",
            "sektor": "Sektor Teknologi Informasi dan Komunikasi",
            "tanggal_terbit": "2022-07-08",
            "url_tdpse_detail": "https://pse.komdigi.go.id/tdpse-detail/5221",
            "website": "Bill.megaxus.co.id"
        },
        {
            "id": "9cb1aba5-98e6-41a6-a808-dffd28f8e8cf",
            "nama_pse": "LYTO DATARINDO FORTUNA",
            "nama_se": "LYTO",
            "sektor": "Sektor Teknologi Informasi dan Komunikasi",
            "tanggal_terbit": "2022-07-08",
            "url_tdpse_detail": "https://pse.komdigi.go.id/tdpse-detail/5222",
            "website": "lytogame.com"
        },
        {
            "id": "9cb1ab9a-85e0-47dc-b8c4-281c35344cf0",
            "nama_pse": "SIAPBOS BORNEO NUSANTARA",
            "nama_se": "SIAPBOS",
            "sektor": "Sektor Teknologi Informasi dan Komunikasi",
            "tanggal_terbit": "2022-07-08",
            "url_tdpse_detail": "https://pse.komdigi.go.id/tdpse-detail/5223",
            "website": "-"
        },
        {
            "id": "9cb1abaf-5955-4aa3-90b4-a74ff72327d0",
            "nama_pse": "VROMEDIA INFORMATIKA TEKNOLOGI",
            "nama_se": "ADVIT",
            "sektor": "Sektor Teknologi Informasi dan Komunikasi",
            "tanggal_terbit": "2022-07-08",
            "url_tdpse_detail": "https://pse.komdigi.go.id/tdpse-detail/5224",
            "website": "-"
        },
        {
            "id": "9cb1aba5-9b6c-45e4-bdc0-c48bca670804",
            "nama_pse": "ANILO ADIKARYA SENTOSA",
            "nama_se": "CONNECTBANK",
            "sektor": "Sektor Teknologi Informasi dan Komunikasi",
            "tanggal_terbit": "2022-07-08",
            "url_tdpse_detail": "https://pse.komdigi.go.id/tdpse-detail/5225",
            "website": "connectbank.id"
        },
        {
            "id": "9cb1ab9a-8ad5-439b-8422-8d82c939f49d",
            "nama_pse": "ANILO ADIKARYA SENTOSA",
            "nama_se": "TIJAROH",
            "sektor": "Sektor Teknologi Informasi dan Komunikasi",
            "tanggal_terbit": "2022-07-08",
            "url_tdpse_detail": "https://pse.komdigi.go.id/tdpse-detail/5226",
            "website": "tijaroh.id"
        },
        {
            "id": "9cb1aba5-9da6-4d6f-bf8a-f4b7b0e3a7ae",
            "nama_pse": "ANILO ADIKARYA SENTOSA",
            "nama_se": "INNOVATIONKIT",
            "sektor": "Sektor Teknologi Informasi dan Komunikasi",
            "tanggal_terbit": "2022-07-08",
            "url_tdpse_detail": "https://pse.komdigi.go.id/tdpse-detail/5228",
            "website": "innovationkit.id"
        },
        {
            "id": "9cb1ab9a-8d53-4a01-9234-b51cba1fc9dc",
            "nama_pse": "MEDIATAMA PROMO INDONESIA",
            "nama_se": "MEDIATAMA PROMO INDONESIA",
            "sektor": "Sektor Perdagangan",
            "tanggal_terbit": "2022-07-08",
            "url_tdpse_detail": "https://pse.komdigi.go.id/tdpse-detail/5229",
            "website": "mediatamapro.co.id"
        },
        {
            "id": "9cb1ab9a-9020-4f8b-95eb-0d9030af2ae9",
            "nama_pse": "ANILO ADIKARYA SENTOSA",
            "nama_se": "KARYAANILO",
            "sektor": "Sektor Teknologi Informasi dan Komunikasi",
            "tanggal_terbit": "2022-07-08",
            "url_tdpse_detail": "https://pse.komdigi.go.id/tdpse-detail/5230",
            "website": "karyaanilo.com"
        },
        {
            "id": "9cb1abaf-5bcc-4574-b7d0-6e6a511b6e9c",
            "nama_pse": "PITOHUI GLOBAL INDOTEK",
            "nama_se": "P-CURE NEO",
            "sektor": "Sektor Kesehatan, Sektor Teknologi Informasi dan Komunikasi",
            "tanggal_terbit": "2022-07-08",
            "url_tdpse_detail": "https://pse.komdigi.go.id/tdpse-detail/5231",
            "website": "-"
        },
        {
            "id": "9cb1ab9a-9246-4d92-8940-661033f25816",
            "nama_pse": "AFIN KARYA AMIGA",
            "nama_se": "AFIN",
            "sektor": "Sektor Teknologi Informasi dan Komunikasi",
            "tanggal_terbit": "2022-07-08",
            "url_tdpse_detail": "https://pse.komdigi.go.id/tdpse-detail/5233",
            "website": "afin.co.id"
        },
        {
            "id": "9cb1abaf-6119-4e95-8e6a-892776b6522f",
            "nama_pse": "CATURNUSA SEJAHTERA FINANCE",
            "nama_se": "WEBSITE PT CATURNUSA SEJAHTERA FINANCE",
            "sektor": "Sektor Keuangan",
            "tanggal_terbit": "2022-07-08",
            "url_tdpse_detail": "https://pse.komdigi.go.id/tdpse-detail/5235",
            "website": "paylater.co.id"
        }
    ],
    "processingTimeMs": 4,
    "query": "",
    "totalHits": 19121,
    "hitsPerPage": 50,
    "page": 289,
    "totalPages": 383
}