{
    "hits": [
        {
            "id": "9cb1ab62-6e1e-44de-ab76-dc30927a01f2",
            "nama_pse": "ANUGERAH BINTANG INSANI",
            "nama_se": "FOODNESIA",
            "sektor": "Sektor Perdagangan, Sektor Perdagangan, Sektor Perdagangan",
            "tanggal_terbit": "2021-04-14",
            "url_tdpse_detail": "https://pse.komdigi.go.id/tdpse-detail/458",
            "website": "foodnesia.Id"
        },
        {
            "id": "9cb1ab70-cfce-4074-9a92-da0030964664",
            "nama_pse": "SARI COFFEE INDONESIA",
            "nama_se": "STARBUCKS.CO.ID",
            "sektor": "Sektor Perdagangan, Sektor Perdagangan",
            "tanggal_terbit": "2021-04-14",
            "url_tdpse_detail": "https://pse.komdigi.go.id/tdpse-detail/455",
            "website": "starbucks.co.id"
        },
        {
            "id": "9cb1ab65-4a91-4ee3-bb47-6612917437bc",
            "nama_pse": "SARI COFFEE INDONESIA",
            "nama_se": "SBUXCARD.COM",
            "sektor": "Sektor Perdagangan, Sektor Perdagangan, Sektor Teknologi Informasi dan Komunikasi",
            "tanggal_terbit": "2021-04-14",
            "url_tdpse_detail": "https://pse.komdigi.go.id/tdpse-detail/457",
            "website": "sbuxcard.com"
        },
        {
            "id": "9cb1ab70-d436-416f-9cc5-a58833ac55b8",
            "nama_pse": "CENTRAL PLOTTER INDONESIA",
            "nama_se": "BLIAJA.COM",
            "sektor": "Sektor Perdagangan, Sektor Perdagangan, Sektor Perdagangan",
            "tanggal_terbit": "2021-04-14",
            "url_tdpse_detail": "https://pse.komdigi.go.id/tdpse-detail/454",
            "website": "bliaja.com"
        },
        {
            "id": "9cb1ab65-4ea6-4271-a081-90d644e61dcc",
            "nama_pse": "MNC KABEL MEDIACOM",
            "nama_se": "MNC PLAY",
            "sektor": "Sektor Teknologi Informasi dan Komunikasi, Sektor Teknologi Informasi dan Komunikasi",
            "tanggal_terbit": "2021-04-14",
            "url_tdpse_detail": "https://pse.komdigi.go.id/tdpse-detail/461",
            "website": "mncplay.id"
        },
        {
            "id": "9cb1ab83-98e2-4fb4-b2ce-b59a7138288a",
            "nama_pse": "MSIG LIFE INSURANCE INDONESIA",
            "nama_se": "SITUS PERUSAHAAN (CORPORATE WEBSITE) PT ASURANSI JIWA SINARMAS MSIG TBK.",
            "sektor": "Sektor Keuangan, Sektor Keuangan",
            "tanggal_terbit": "2021-04-14",
            "url_tdpse_detail": "https://pse.komdigi.go.id/tdpse-detail/450",
            "website": "sinarmasmsiglife.co.id/"
        },
        {
            "id": "9cb1ab83-af9c-46f2-ac6c-454e5e8c05c4",
            "nama_pse": "Simpan Pinjam Persik Kuning Indonesia",
            "nama_se": "PASTI BANTU",
            "sektor": "Sektor Keuangan, Sektor Keuangan",
            "tanggal_terbit": "2021-04-14",
            "url_tdpse_detail": "https://pse.komdigi.go.id/tdpse-detail/442",
            "website": "-"
        },
        {
            "id": "9cb1ab8b-c950-4fb3-8452-22e395b2af23",
            "nama_pse": "MEDIKA KOMUNIKA TEKNOLOGI",
            "nama_se": "HALLOBUMIL",
            "sektor": "Sektor Kesehatan, Sektor Kesehatan, Sektor Teknologi Informasi dan Komunikasi, Sektor Teknologi Informasi dan Komunikasi",
            "tanggal_terbit": "2021-04-14",
            "url_tdpse_detail": "https://pse.komdigi.go.id/tdpse-detail/445",
            "website": "hallobumil.id"
        },
        {
            "id": "9cb1ab7c-7edc-4afb-8713-9cfb31729faa",
            "nama_pse": "HARSYA REMITINDO",
            "nama_se": "IKI PAY",
            "sektor": "Sektor Keuangan, Sektor Keuangan",
            "tanggal_terbit": "2021-04-14",
            "url_tdpse_detail": "https://pse.komdigi.go.id/tdpse-detail/437",
            "website": "harsya.com"
        },
        {
            "id": "9cb1ab8c-372d-41fa-b1b3-a8f5fa49e6a1",
            "nama_pse": "ZOOM INFOTEK TELESINDO",
            "nama_se": "TOKOZOOM",
            "sektor": "Sektor Perdagangan, Sektor Perdagangan",
            "tanggal_terbit": "2021-04-14",
            "url_tdpse_detail": "https://pse.komdigi.go.id/tdpse-detail/435",
            "website": "tokozoom.com"
        },
        {
            "id": "9cb1ab7c-b31f-4fe0-bab3-8dc41bd1c6bc",
            "nama_pse": "LOGISKLIK GEMILANG INDONESIA",
            "nama_se": "LOGISKLIK",
            "sektor": "Sektor Transportasi, Sektor Transportasi, Sektor Teknologi Informasi dan Komunikasi, Sektor Teknologi Informasi dan Komunikasi",
            "tanggal_terbit": "2021-04-14",
            "url_tdpse_detail": "https://pse.komdigi.go.id/tdpse-detail/463",
            "website": "logisklik.com"
        },
        {
            "id": "9cb1ab8d-2103-49a7-85a7-6f1b69132762",
            "nama_pse": "BAREKSA INOVASI DIGITAL",
            "nama_se": "PT BAREKSA INOVASI DIGITAL",
            "sektor": "Sektor Perdagangan, Sektor Perdagangan",
            "tanggal_terbit": "2021-04-14",
            "url_tdpse_detail": "https://pse.komdigi.go.id/tdpse-detail/456",
            "website": "bareksa.com"
        },
        {
            "id": "9cb1ab7d-bcf0-43b1-9cd3-3aa5f867c512",
            "nama_pse": "SIMPAN PINJAM ALPUKAT SEJAHTERA INDONESIA",
            "nama_se": "JELAS BERSAMA",
            "sektor": "Sektor Keuangan, Sektor Keuangan",
            "tanggal_terbit": "2021-04-14",
            "url_tdpse_detail": "https://pse.komdigi.go.id/tdpse-detail/441",
            "website": "-"
        },
        {
            "id": "9cb1ab7e-00da-457e-841c-1236889cc2d9",
            "nama_pse": "PINDUIT TEKNOLOGI INDONESIA",
            "nama_se": "PINTEK.ID",
            "sektor": "Sektor Keuangan, Sektor Keuangan, Sektor Teknologi Informasi dan Komunikasi, Sektor Teknologi Informasi dan Komunikasi",
            "tanggal_terbit": "2021-04-14",
            "url_tdpse_detail": "https://pse.komdigi.go.id/tdpse-detail/436",
            "website": "pintek.id"
        },
        {
            "id": "9cb1aba9-cbc1-4057-93ee-554adb27cea2",
            "nama_pse": "DITOKO DIBELI DIJUAL",
            "nama_se": "DITOKO DIBELI DIJUAL",
            "sektor": "Sektor Perdagangan, Sektor Perdagangan",
            "tanggal_terbit": "2021-04-14",
            "url_tdpse_detail": "https://pse.komdigi.go.id/tdpse-detail/448",
            "website": "ditoko.com"
        },
        {
            "id": "9cb1aba9-cf1a-45f5-8da7-24dd6d519291",
            "nama_pse": "BARESHAL ANUGRAH SEJAHTERA",
            "nama_se": "L \u0026 E LIVING",
            "sektor": "Sektor Perdagangan, Sektor Perdagangan",
            "tanggal_terbit": "2021-04-14",
            "url_tdpse_detail": "https://pse.komdigi.go.id/tdpse-detail/466",
            "website": "l-eliving.com"
        },
        {
            "id": "9cb1ab9f-960e-4bc7-88a2-af86033007d3",
            "nama_pse": "CNAINDO TEKNOLOGI",
            "nama_se": "NYMPH SYSTEM",
            "sektor": "Sektor Perdagangan, Sektor Perdagangan",
            "tanggal_terbit": "2021-04-14",
            "url_tdpse_detail": "https://pse.komdigi.go.id/tdpse-detail/467",
            "website": "http://www.cnaindo.com/"
        },
        {
            "id": "9cb1ab61-c8d5-4b38-9822-710dddda31c2",
            "nama_pse": "BANK AMAR INDONESIA",
            "nama_se": "TUNAIKU",
            "sektor": "Sektor Keuangan, Sektor Keuangan",
            "tanggal_terbit": "2021-04-09",
            "url_tdpse_detail": "https://pse.komdigi.go.id/tdpse-detail/419",
            "website": "tunaiku.com"
        },
        {
            "id": "9cb1ab64-b3ff-4a27-a705-540a121f0f3c",
            "nama_pse": "BUKA PENGADAAN INDONESIA",
            "nama_se": "BUKAPENGADAAN",
            "sektor": "Sektor Teknologi Informasi dan Komunikasi, Sektor Teknologi Informasi dan Komunikasi",
            "tanggal_terbit": "2021-04-09",
            "url_tdpse_detail": "https://pse.komdigi.go.id/tdpse-detail/417",
            "website": "bukalapak.com/bukapengadaan"
        },
        {
            "id": "9cb1ab69-ec08-46c6-a344-e6e6855e5d2d",
            "nama_pse": "JALA LINTAS MEDIA",
            "nama_se": "PT. JALA LINTAS MEDIA",
            "sektor": "Sektor Teknologi Informasi dan Komunikasi, Sektor Teknologi Informasi dan Komunikasi",
            "tanggal_terbit": "2021-04-09",
            "url_tdpse_detail": "https://pse.komdigi.go.id/tdpse-detail/430",
            "website": "https://jlm.net.id/ ;; https://bnetfit.id/"
        },
        {
            "id": "9cb1ab70-794c-4bf5-8ec3-474fc6e7aa14",
            "nama_pse": "SOLUSI DATA MADANI",
            "nama_se": "AMANAT NAGARI",
            "sektor": "Sektor Teknologi Informasi dan Komunikasi, Sektor Teknologi Informasi dan Komunikasi",
            "tanggal_terbit": "2021-04-09",
            "url_tdpse_detail": "https://pse.komdigi.go.id/tdpse-detail/426",
            "website": "-"
        },
        {
            "id": "9cb1ab65-1c62-4dba-b639-9bb0545d49cd",
            "nama_pse": "MNC ASSET MANAGEMENT",
            "nama_se": "MOTIONFUNDS",
            "sektor": "Sektor Keuangan, Sektor Keuangan, Sektor Keuangan, Sektor Keuangan",
            "tanggal_terbit": "2021-04-09",
            "url_tdpse_detail": "https://pse.komdigi.go.id/tdpse-detail/432",
            "website": "motionfunds.id"
        },
        {
            "id": "9cb1ab65-1e5e-40f0-9c82-2ae02bd47274",
            "nama_pse": "SEPTO SUDIRO PERKASA",
            "nama_se": "MYINDOQURBAN",
            "sektor": "Sektor Perdagangan, Sektor Perdagangan, Sektor Transportasi, Sektor Transportasi, Sektor Teknologi Informasi dan Komunikasi, Sektor Teknologi Informasi dan Komunikasi",
            "tanggal_terbit": "2021-04-09",
            "url_tdpse_detail": "https://pse.komdigi.go.id/tdpse-detail/428",
            "website": "myindoqurban.com"
        },
        {
            "id": "9cb1ab65-21dd-4743-89ea-7d3010a4c3ce",
            "nama_pse": "ASURANSI CAKRAWALA PROTEKSI INDONESIA",
            "nama_se": "ACP ONLINE WEB PORTAL",
            "sektor": "Sektor Keuangan, Sektor Keuangan",
            "tanggal_terbit": "2021-04-09",
            "url_tdpse_detail": "https://pse.komdigi.go.id/tdpse-detail/424",
            "website": "cakrawalaproteksi.com"
        },
        {
            "id": "9cb1ab65-23b2-4eda-bd88-26a0a982a721",
            "nama_pse": "SIMPAN PINJAM BERSAMA SATU BERKAH",
            "nama_se": "KSP BERSAMA SATU BERKAH",
            "sektor": "Sektor Teknologi Informasi dan Komunikasi, Sektor Teknologi Informasi dan Komunikasi",
            "tanggal_terbit": "2021-04-09",
            "url_tdpse_detail": "https://pse.komdigi.go.id/tdpse-detail/416",
            "website": "bsbksp.org"
        },
        {
            "id": "9cb1ab70-8167-4046-8987-c0df4ff48a32",
            "nama_pse": "ASURANSI SIMAS JIWA",
            "nama_se": "WWW.KLIKASURANSIKU.COM",
            "sektor": "Sektor Keuangan, Sektor Keuangan",
            "tanggal_terbit": "2021-04-09",
            "url_tdpse_detail": "https://pse.komdigi.go.id/tdpse-detail/422",
            "website": "klikasuransiku.com / https://klikasuransiku.com"
        },
        {
            "id": "9cb1ab65-295d-404d-9970-905303fa4a17",
            "nama_pse": "SOLUSI KECERDASAN BUATAN",
            "nama_se": "KELASKODING.ID",
            "sektor": "Sektor Teknologi Informasi dan Komunikasi, Sektor Teknologi Informasi dan Komunikasi",
            "tanggal_terbit": "2021-04-09",
            "url_tdpse_detail": "https://pse.komdigi.go.id/tdpse-detail/425",
            "website": "kelaskoding.id"
        },
        {
            "id": "9cb1ab65-3252-4956-b7b7-c01db59ae023",
            "nama_pse": "KOPERASI JASA BERKAT MANDIRI BERSATU",
            "nama_se": "KSP BERKAT MANDIRI BERSATU",
            "sektor": "Sektor Keuangan, Sektor Keuangan",
            "tanggal_terbit": "2021-04-09",
            "url_tdpse_detail": "https://pse.komdigi.go.id/tdpse-detail/431",
            "website": "kspbmb.com"
        },
        {
            "id": "9cb1ab62-3fec-4fce-8e0c-94b76dd874f2",
            "nama_pse": "GRIYA DANAKU DIGITAL INVESTAMA",
            "nama_se": "PRAMDANA.CO,ID",
            "sektor": "Sektor Keuangan, Sektor Keuangan",
            "tanggal_terbit": "2021-04-09",
            "url_tdpse_detail": "https://pse.komdigi.go.id/tdpse-detail/427",
            "website": "Pramdana.co.id"
        },
        {
            "id": "9cb1ab6a-07d2-43e3-8871-551f1ffa1680",
            "nama_pse": "INVESTASI BERSAMA BANGSA INDONESIA",
            "nama_se": "JULIZAR",
            "sektor": "Sektor Keuangan, Sektor Keuangan, Sektor Teknologi Informasi dan Komunikasi, Sektor Teknologi Informasi dan Komunikasi",
            "tanggal_terbit": "2021-04-09",
            "url_tdpse_detail": "https://pse.komdigi.go.id/tdpse-detail/420",
            "website": "julizar.id"
        },
        {
            "id": "9cb1ab8b-f793-40ec-a976-12ee1b3d320f",
            "nama_pse": "MNC OTT NETWORK",
            "nama_se": "VISIONPLUS.ID",
            "sektor": "Sektor Teknologi Informasi dan Komunikasi, Sektor Teknologi Informasi dan Komunikasi, Sektor Teknologi Informasi dan Komunikasi",
            "tanggal_terbit": "2021-04-09",
            "url_tdpse_detail": "https://pse.komdigi.go.id/tdpse-detail/415",
            "website": "visionplus.id"
        },
        {
            "id": "9cb1ab8c-b139-489d-9355-36739cf42fde",
            "nama_pse": "KOKOH INTI AREBAMA",
            "nama_se": "MITRARUMA",
            "sektor": "Sektor Perdagangan, Sektor Perdagangan, Sektor Teknologi Informasi dan Komunikasi, Sektor Teknologi Informasi dan Komunikasi",
            "tanggal_terbit": "2021-04-09",
            "url_tdpse_detail": "https://pse.komdigi.go.id/tdpse-detail/423",
            "website": "mitraruma.com"
        },
        {
            "id": "9cb1ab7d-b7da-4b96-ae55-3ee228a06daf",
            "nama_pse": "YOUNG LIVING INDONESIA",
            "nama_se": "YOUNG LIVING",
            "sektor": "Sektor Perdagangan, Sektor Perdagangan",
            "tanggal_terbit": "2021-04-09",
            "url_tdpse_detail": "https://pse.komdigi.go.id/tdpse-detail/433",
            "website": "youngliving.com/id_ID"
        },
        {
            "id": "9cb1ab86-2305-4a2d-a80f-2632ce2871a3",
            "nama_pse": "BURSA HUKUM DIGITAL DAN TEKNOLOGI",
            "nama_se": "BURSA HUKUM",
            "sektor": "Sektor Teknologi Informasi dan Komunikasi, Sektor Teknologi Informasi dan Komunikasi",
            "tanggal_terbit": "2021-04-09",
            "url_tdpse_detail": "https://pse.komdigi.go.id/tdpse-detail/421",
            "website": "bursahukum.co.id/"
        },
        {
            "id": "9cb1aba1-8acd-4247-9867-253e54679ee6",
            "nama_pse": "SEJAHTERA JAYA GEMILANG",
            "nama_se": "COM.ANGEL.LOAN",
            "sektor": "Sektor Teknologi Informasi dan Komunikasi",
            "tanggal_terbit": "2021-04-09",
            "url_tdpse_detail": "https://pse.komdigi.go.id/tdpse-detail/429",
            "website": "kspsjg.com"
        },
        {
            "id": "9cb1ab66-2e49-4421-93f1-c67ecb8ef8d1",
            "nama_pse": "GREAT EASTERN GENERAL INSURANCE INDONESIA",
            "nama_se": "AFFINITY EXCHANGE (AX)",
            "sektor": "Sektor Keuangan, Sektor Keuangan",
            "tanggal_terbit": "2021-03-31",
            "url_tdpse_detail": "https://pse.komdigi.go.id/tdpse-detail/414",
            "website": "greataxchange.greateasterngeneral.com"
        },
        {
            "id": "9cb1ab64-9298-4353-bbff-2b52e3f13fcf",
            "nama_pse": "BANK AMAR INDONESIA",
            "nama_se": "AMAR BANK",
            "sektor": "Sektor Keuangan, Sektor Keuangan",
            "tanggal_terbit": "2021-03-31",
            "url_tdpse_detail": "https://pse.komdigi.go.id/tdpse-detail/408",
            "website": "amarbank.co.id"
        },
        {
            "id": "9cb1ab64-c369-4650-a20c-36c137b973fd",
            "nama_pse": "PARTNER SEJATI ABADI",
            "nama_se": "NIAGARA INDONESIA",
            "sektor": "Sektor Perdagangan, Sektor Perdagangan",
            "tanggal_terbit": "2021-03-31",
            "url_tdpse_detail": "https://pse.komdigi.go.id/tdpse-detail/409",
            "website": "niagara.my.id"
        },
        {
            "id": "9cb1ab64-da94-4058-b62f-8b19bd7802d9",
            "nama_pse": "SARIMELATI KENCANA",
            "nama_se": "PIZZA HUT INDONESIA",
            "sektor": "Sektor Perdagangan, Sektor Perdagangan",
            "tanggal_terbit": "2021-03-31",
            "url_tdpse_detail": "https://pse.komdigi.go.id/tdpse-detail/410",
            "website": "pizzahut.co.id"
        },
        {
            "id": "9cb1ab62-36b9-4ec2-a58d-c63a0f260ca1",
            "nama_pse": "PELITA MEDIA INDONESIA",
            "nama_se": "E-COMMERCE",
            "sektor": "Sektor Perdagangan, Sektor Perdagangan",
            "tanggal_terbit": "2021-03-31",
            "url_tdpse_detail": "https://pse.komdigi.go.id/tdpse-detail/413",
            "website": "niagahoster.co.id/"
        },
        {
            "id": "9cb1ab8b-6a97-452a-82d4-3affefec5841",
            "nama_pse": "OTORAJA NETWORK INDONESIA",
            "nama_se": "OTORAJA BIZ",
            "sektor": "Sektor Teknologi Informasi dan Komunikasi, Sektor Teknologi Informasi dan Komunikasi",
            "tanggal_terbit": "2021-03-31",
            "url_tdpse_detail": "https://pse.komdigi.go.id/tdpse-detail/407",
            "website": "otoraja.id"
        },
        {
            "id": "9cb1ab8d-49e0-47fc-b035-83b7732ba939",
            "nama_pse": "LIPUTAN ENAM DOT COM",
            "nama_se": "KAPANLAGI YOUNIVERSE",
            "sektor": "Sektor Teknologi Informasi dan Komunikasi, Sektor Teknologi Informasi dan Komunikasi",
            "tanggal_terbit": "2021-03-31",
            "url_tdpse_detail": "https://pse.komdigi.go.id/tdpse-detail/411",
            "website": "www.kapanlagi.com , www.bola.net , www.otosia.com , www.merdeka.com , www.liputan6.com , www.bola.com , www.fimela.com"
        },
        {
            "id": "9cb1ab64-9bd1-48a8-a00a-1dc97641cadb",
            "nama_pse": "ALPHA KREASI JAYA",
            "nama_se": "ALPHABILL",
            "sektor": "Sektor Perdagangan, Sektor Perdagangan",
            "tanggal_terbit": "2021-03-16",
            "url_tdpse_detail": "https://pse.komdigi.go.id/tdpse-detail/405",
            "website": "-"
        },
        {
            "id": "9cb1ab64-bdb0-4359-9127-23b80a166c2b",
            "nama_pse": "ASURANSI RAKSA PRATIKARA",
            "nama_se": "RAKSAONLINE",
            "sektor": "Sektor Keuangan, Sektor Keuangan",
            "tanggal_terbit": "2021-03-16",
            "url_tdpse_detail": "https://pse.komdigi.go.id/tdpse-detail/403",
            "website": "raksaonline.com"
        },
        {
            "id": "9cb1ab64-e987-4b28-8519-d9712f61d3b6",
            "nama_pse": "HITECH SMART SOLUTION",
            "nama_se": "HI-TECH SMART SOLUTION AI CALL-CENTER",
            "sektor": "Sektor Teknologi Informasi dan Komunikasi, Sektor Teknologi Informasi dan Komunikasi, Sektor Teknologi Informasi dan Komunikasi",
            "tanggal_terbit": "2021-03-16",
            "url_tdpse_detail": "https://pse.komdigi.go.id/tdpse-detail/401",
            "website": "smartsolutions.sg"
        },
        {
            "id": "9cb1ab62-25b2-4ad5-9c25-21dc52d0379e",
            "nama_pse": "INFONESIA MEGA NUSANTARA",
            "nama_se": "BITUBI",
            "sektor": "Sektor Perdagangan, Sektor Perdagangan, Sektor Energi dan Sumber Daya Mineral, Sektor Energi dan Sumber Daya Mineral, Sektor Transportasi, Sektor Transportasi, Sektor Teknologi Informasi dan Komunikasi, Sektor Teknologi Informasi dan Komunikasi",
            "tanggal_terbit": "2021-03-16",
            "url_tdpse_detail": "https://pse.komdigi.go.id/tdpse-detail/400",
            "website": "BITUBI.ID"
        },
        {
            "id": "9cb1ab62-2ec5-4543-aae4-530d500ef1a1",
            "nama_pse": "LAKULOKA DIGITAL INDONESIA",
            "nama_se": "LAKULOKA",
            "sektor": "Sektor Perdagangan, Sektor Perdagangan, Sektor Keuangan, Sektor Keuangan, Sektor Teknologi Informasi dan Komunikasi, Sektor Teknologi Informasi dan Komunikasi",
            "tanggal_terbit": "2021-03-16",
            "url_tdpse_detail": "https://pse.komdigi.go.id/tdpse-detail/397",
            "website": "lakuloka.id"
        },
        {
            "id": "9cb1ab62-316f-477e-8440-9edb1092f2d1",
            "nama_pse": "KOMUNITAS CERDAS INDONESIA",
            "nama_se": "VIPLUS",
            "sektor": "Sektor Teknologi Informasi dan Komunikasi, Sektor Teknologi Informasi dan Komunikasi",
            "tanggal_terbit": "2021-03-16",
            "url_tdpse_detail": "https://pse.komdigi.go.id/tdpse-detail/402",
            "website": "viplus.id"
        },
        {
            "id": "9cb1ab62-3b48-43ad-bc97-2311992dc3f0",
            "nama_pse": "SOLUSI DATA MADANI",
            "nama_se": "DIGIDESA",
            "sektor": "Sektor Teknologi Informasi dan Komunikasi, Sektor Teknologi Informasi dan Komunikasi",
            "tanggal_terbit": "2021-03-16",
            "url_tdpse_detail": "https://pse.komdigi.go.id/tdpse-detail/404",
            "website": "digidesa.com"
        },
        {
            "id": "9cb1ab7b-8a45-44b7-bf36-5732050e2766",
            "nama_pse": "BCA FINANCE",
            "nama_se": "KKB BCA VIRTUAL MALL",
            "sektor": "Sektor Perdagangan, Sektor Perdagangan, Sektor Perdagangan, Sektor Perdagangan",
            "tanggal_terbit": "2021-03-16",
            "url_tdpse_detail": "https://pse.komdigi.go.id/tdpse-detail/406",
            "website": "Kreditkerenbanget.com"
        }
    ],
    "processingTimeMs": 22,
    "query": "",
    "totalHits": 19121,
    "hitsPerPage": 50,
    "page": 375,
    "totalPages": 383
}