{
    "hits": [
        {
            "id": "9dc060ee-9c04-4c1c-b95d-4530fb31837b",
            "nama_pse": "KREASI INDAH ALAM",
            "nama_se": "SITUS WEB",
            "sektor": "Sektor Perdagangan",
            "tanggal_terbit": "2024-12-18",
            "url_tdpse_detail": "https://pse.komdigi.go.id/tdpse-detail/21832",
            "website": "thebathaholic.com"
        },
        {
            "id": "9dbfcd6c-c4a0-4bd7-b86c-5e3e3d9be7b3",
            "nama_pse": "GOLDEN MULIA SEJAHTERA",
            "nama_se": "GOMS",
            "sektor": "Sektor Perdagangan",
            "tanggal_terbit": "2024-12-18",
            "url_tdpse_detail": "https://pse.komdigi.go.id/tdpse-detail/21827",
            "website": "goms.app"
        },
        {
            "id": "9dc10bc8-6f2d-4e3d-bd56-ee1793ee0769",
            "nama_pse": "FAN JAYA PALNAM",
            "nama_se": "krimsus.com",
            "sektor": "Sektor Teknologi Informasi dan Komunikasi",
            "tanggal_terbit": "2024-12-18",
            "url_tdpse_detail": "https://pse.komdigi.go.id/tdpse-detail/21843",
            "website": "-"
        },
        {
            "id": "9dc0ad4c-533e-4ec8-b220-8bf76fa4dce8",
            "nama_pse": "WARUNG BALI INDONESIA",
            "nama_se": "WOW BOOZE",
            "sektor": "Sektor Perdagangan",
            "tanggal_terbit": "2024-12-18",
            "url_tdpse_detail": "https://pse.komdigi.go.id/tdpse-detail/21840",
            "website": "wowbooze.com"
        },
        {
            "id": "9dc062fd-4f43-482a-951c-55fe8fb1ad12",
            "nama_pse": "ADMINISTRASI MEDIKA",
            "nama_se": "MYADMEDIK@",
            "sektor": "Sektor Kesehatan, Sektor Teknologi Informasi dan Komunikasi",
            "tanggal_terbit": "2024-12-18",
            "url_tdpse_detail": "https://pse.komdigi.go.id/tdpse-detail/21834",
            "website": "mobileapps.admedika.co.id"
        },
        {
            "id": "9dc0ccd1-672f-4750-8c2e-59dec3bf061c",
            "nama_pse": "LEJEL SHOPPING",
            "nama_se": "lejel.co.id",
            "sektor": "Sektor Perdagangan",
            "tanggal_terbit": "2024-12-18",
            "url_tdpse_detail": "https://pse.komdigi.go.id/tdpse-detail/21841",
            "website": "lejel.co.id"
        },
        {
            "id": "9dc10aa9-74de-48a4-913e-acbe155b0f18",
            "nama_pse": "CUCU KUSNANDAR",
            "nama_se": "GG HASAN NETWORK",
            "sektor": "Sektor Teknologi Informasi dan Komunikasi",
            "tanggal_terbit": "2024-12-18",
            "url_tdpse_detail": "https://pse.komdigi.go.id/tdpse-detail/21842",
            "website": "-"
        },
        {
            "id": "9dc078b8-b026-4355-a58b-67783d0b4aa4",
            "nama_pse": "PESONA ELEGAN ABADI",
            "nama_se": "roseallday.co",
            "sektor": "Sektor Perdagangan",
            "tanggal_terbit": "2024-12-18",
            "url_tdpse_detail": "https://pse.komdigi.go.id/tdpse-detail/21837",
            "website": "roseallday.co"
        },
        {
            "id": "9dc143b7-d386-4bca-bece-ac58a9347d96",
            "nama_pse": "SUHERMAN",
            "nama_se": "CBT NETWORK",
            "sektor": "Sektor Teknologi Informasi dan Komunikasi",
            "tanggal_terbit": "2024-12-18",
            "url_tdpse_detail": "https://pse.komdigi.go.id/tdpse-detail/21844",
            "website": "-"
        },
        {
            "id": "9dbe98ed-13f7-4425-af2f-840ef4426540",
            "nama_pse": "RADHIKA MANDIRI",
            "nama_se": "CV RADHIKA MANDIRI",
            "sektor": "Sektor Teknologi Informasi dan Komunikasi",
            "tanggal_terbit": "2024-12-17",
            "url_tdpse_detail": "https://pse.komdigi.go.id/tdpse-detail/21817",
            "website": "-"
        },
        {
            "id": "9dbea73e-e408-4aea-bb3b-a78aecd73303",
            "nama_pse": "BOSS DAZZ ABADI",
            "nama_se": "BOSS TOPUP",
            "sektor": "Sektor Perdagangan",
            "tanggal_terbit": "2024-12-17",
            "url_tdpse_detail": "https://pse.komdigi.go.id/tdpse-detail/21818",
            "website": "bosstopup.id"
        },
        {
            "id": "9dbe7ce8-2fa9-4f9e-8ae1-37d984271e10",
            "nama_pse": "ALFATIH PERMATA NETWORK",
            "nama_se": "PT ALFATIH PERMATA NETWORK",
            "sektor": "Sektor Teknologi Informasi dan Komunikasi",
            "tanggal_terbit": "2024-12-17",
            "url_tdpse_detail": "https://pse.komdigi.go.id/tdpse-detail/21811",
            "website": "-"
        },
        {
            "id": "9dbebaaf-f4de-4d75-b09c-0f6b2031f7a1",
            "nama_pse": "IBANTU SOLUSI SYARIAH",
            "nama_se": "SOFTWARE AS A SERVICES (SAAS) BERBASIS BLOCKCHAIN UNTUK DIGITAL PHILANTHROPY (PBX)",
            "sektor": "Sektor Teknologi Informasi dan Komunikasi",
            "tanggal_terbit": "2024-12-17",
            "url_tdpse_detail": "https://pse.komdigi.go.id/tdpse-detail/21820",
            "website": "pbxgive.co"
        },
        {
            "id": "9dbec993-7621-4be6-9a97-eb5c694c7b66",
            "nama_pse": "CITRA BATARA TUNGGAL",
            "nama_se": "RME MONALISA",
            "sektor": "Sektor Kesehatan",
            "tanggal_terbit": "2024-12-17",
            "url_tdpse_detail": "https://pse.komdigi.go.id/tdpse-detail/21822",
            "website": "klinikmonalisa.id"
        },
        {
            "id": "9dbf3fea-abab-4df4-9503-fb6a953b9961",
            "nama_pse": "IIM MUSLIM",
            "nama_se": "CIMALENCER NETWORK",
            "sektor": "Sektor Teknologi Informasi dan Komunikasi",
            "tanggal_terbit": "2024-12-17",
            "url_tdpse_detail": "https://pse.komdigi.go.id/tdpse-detail/21826",
            "website": "-"
        },
        {
            "id": "9dbf1d9e-4959-41cd-b711-366c4aa7b5c3",
            "nama_pse": "GLOBAL BISNIS KONSULTASI",
            "nama_se": "ONIK SOLUTION",
            "sektor": "Sektor Teknologi Informasi dan Komunikasi",
            "tanggal_terbit": "2024-12-17",
            "url_tdpse_detail": "https://pse.komdigi.go.id/tdpse-detail/21824",
            "website": "oniksolution.com"
        },
        {
            "id": "9dbf2da6-0f6d-476a-99e1-bea457077fd0",
            "nama_pse": "FAJAR HIDAYAT",
            "nama_se": "ELEVASI DIGITAL",
            "sektor": "Sektor Teknologi Informasi dan Komunikasi",
            "tanggal_terbit": "2024-12-17",
            "url_tdpse_detail": "https://pse.komdigi.go.id/tdpse-detail/21825",
            "website": "elevasidigital.com"
        },
        {
            "id": "9dbebb02-bc35-47a8-8a7a-05c5dfffba97",
            "nama_pse": "HYPEFAST KARYA NUSANTARA",
            "nama_se": "BOHOPANNA",
            "sektor": "Sektor Perdagangan",
            "tanggal_terbit": "2024-12-17",
            "url_tdpse_detail": "https://pse.komdigi.go.id/tdpse-detail/21821",
            "website": "bohopanna.id"
        },
        {
            "id": "9dbe4a74-ce23-4c60-97ee-85e0227be696",
            "nama_pse": "ROLING DARAJAT",
            "nama_se": "KARYALAKSANA NETWORK",
            "sektor": "Sektor Teknologi Informasi dan Komunikasi",
            "tanggal_terbit": "2024-12-17",
            "url_tdpse_detail": "https://pse.komdigi.go.id/tdpse-detail/21806",
            "website": "-"
        },
        {
            "id": "9dbe53f5-0c29-49fc-a380-88f007dcc786",
            "nama_pse": "EVENTCHI INDONESIA PMA",
            "nama_se": "chi.app",
            "sektor": "Sektor Teknologi Informasi dan Komunikasi",
            "tanggal_terbit": "2024-12-17",
            "url_tdpse_detail": "https://pse.komdigi.go.id/tdpse-detail/21807",
            "website": "chi.app"
        },
        {
            "id": "9dbe9455-ddcf-4897-95b2-947fae0eef6b",
            "nama_pse": "MAHARDIKA NET MEDIA",
            "nama_se": "PT MAHARDIKA NET MEDIA",
            "sektor": "Sektor Teknologi Informasi dan Komunikasi",
            "tanggal_terbit": "2024-12-17",
            "url_tdpse_detail": "https://pse.komdigi.go.id/tdpse-detail/21815",
            "website": "-"
        },
        {
            "id": "9dbe6057-055b-40b3-8cd9-953c3a13c82e",
            "nama_pse": "MAXAM TELEKOMUNIKASI INDONESIA",
            "nama_se": "PT MAXAM TELEKOMUNIKASI INDONESIA",
            "sektor": "Sektor Teknologi Informasi dan Komunikasi",
            "tanggal_terbit": "2024-12-17",
            "url_tdpse_detail": "https://pse.komdigi.go.id/tdpse-detail/21809",
            "website": "-"
        },
        {
            "id": "9dbe67cb-0d49-4688-b340-71555b9736f8",
            "nama_pse": "BHRO HEALTHCARE INDONESIA",
            "nama_se": "BHRO",
            "sektor": "Sektor Perdagangan, Sektor Kesehatan",
            "tanggal_terbit": "2024-12-17",
            "url_tdpse_detail": "https://pse.komdigi.go.id/tdpse-detail/21810",
            "website": "bhro.io"
        },
        {
            "id": "9dbe93f4-7a15-437c-b3fe-891e7da37daf",
            "nama_pse": "MULATO SUWASONO MEIDI",
            "nama_se": "MYIOTBOX",
            "sektor": "Sektor Teknologi Informasi dan Komunikasi",
            "tanggal_terbit": "2024-12-17",
            "url_tdpse_detail": "https://pse.komdigi.go.id/tdpse-detail/21814",
            "website": "myiotbox.com"
        },
        {
            "id": "9dbe9461-d6f8-487c-92b9-46e8d15d2274",
            "nama_pse": "SEJAHTERA MEMBANGUN NEGERI",
            "nama_se": "SMN TRADING",
            "sektor": "Sektor Perdagangan",
            "tanggal_terbit": "2024-12-17",
            "url_tdpse_detail": "https://pse.komdigi.go.id/tdpse-detail/21816",
            "website": "-"
        },
        {
            "id": "9dbe5a0b-64fb-43aa-a8c3-97a571d79f1e",
            "nama_pse": "MUSLIM SERATUS SATU",
            "nama_se": "MUSLIM101",
            "sektor": "Sektor Teknologi Informasi dan Komunikasi",
            "tanggal_terbit": "2024-12-17",
            "url_tdpse_detail": "https://pse.komdigi.go.id/tdpse-detail/21808",
            "website": "muslim101.id"
        },
        {
            "id": "9dbeb5a7-896c-4258-9323-c26a1ca7d35f",
            "nama_pse": "INTEGRITY INDONESIA",
            "nama_se": "ARANEA",
            "sektor": "Sektor Teknologi Informasi dan Komunikasi",
            "tanggal_terbit": "2024-12-17",
            "url_tdpse_detail": "https://pse.komdigi.go.id/tdpse-detail/21819",
            "website": "aranea-global.com"
        },
        {
            "id": "9dbeef92-9b33-4111-a316-1588d3821169",
            "nama_pse": "SOLUSI DIGITAL PLUS",
            "nama_se": "SURATPLUS",
            "sektor": "Sektor Teknologi Informasi dan Komunikasi",
            "tanggal_terbit": "2024-12-17",
            "url_tdpse_detail": "https://pse.komdigi.go.id/tdpse-detail/21823",
            "website": "suratplus.com"
        },
        {
            "id": "9dbe01cc-532c-4238-985d-2791beba05a8",
            "nama_pse": "BENUA PERKASA MEDIA",
            "nama_se": "BERITA BENUA",
            "sektor": "Sektor Perdagangan, Sektor Teknologi Informasi dan Komunikasi",
            "tanggal_terbit": "2024-12-17",
            "url_tdpse_detail": "https://pse.komdigi.go.id/tdpse-detail/21805",
            "website": "beritabenua.com"
        },
        {
            "id": "9dbcac7e-1dc0-4546-88f5-42da68e82e44",
            "nama_pse": "MOZA LIWA WIDITA",
            "nama_se": "ECHOFFICE",
            "sektor": "Sektor Teknologi Informasi dan Komunikasi",
            "tanggal_terbit": "2024-12-16",
            "url_tdpse_detail": "https://pse.komdigi.go.id/tdpse-detail/21803",
            "website": "echoffice.com"
        },
        {
            "id": "9dbc8eb7-5d45-4d45-9eba-7dfd470c09d1",
            "nama_pse": "PUTERA MARWAH BERSAUDARA",
            "nama_se": "RME KLINIK UTAMA DR. UENG",
            "sektor": "Sektor Kesehatan",
            "tanggal_terbit": "2024-12-16",
            "url_tdpse_detail": "https://pse.komdigi.go.id/tdpse-detail/21801",
            "website": "-"
        },
        {
            "id": "9dbc4b2e-52ab-4bf8-9acb-0e976460f9be",
            "nama_pse": "INSPIRA DIAGNOSTIK INDONESIA",
            "nama_se": "iLis",
            "sektor": "Sektor Kesehatan",
            "tanggal_terbit": "2024-12-16",
            "url_tdpse_detail": "https://pse.komdigi.go.id/tdpse-detail/21798",
            "website": "apps.inspira.center"
        },
        {
            "id": "9dbd55b1-52a7-48b3-806d-b6c84b4c3eeb",
            "nama_pse": "HABNI MUBAROK",
            "nama_se": "JASA JUAL KEMBALI JATSA TELEKOMUNIKASI",
            "sektor": "Sektor Teknologi Informasi dan Komunikasi",
            "tanggal_terbit": "2024-12-16",
            "url_tdpse_detail": "https://pse.komdigi.go.id/tdpse-detail/21804",
            "website": "-"
        },
        {
            "id": "9dbc54d0-fb1e-46f7-8f2e-de61a5449e29",
            "nama_pse": "BABEH NET",
            "nama_se": "LAYANAN INTERNET LOKAL ( RT RW NET )",
            "sektor": "Sektor Teknologi Informasi dan Komunikasi",
            "tanggal_terbit": "2024-12-16",
            "url_tdpse_detail": "https://pse.komdigi.go.id/tdpse-detail/21800",
            "website": "-"
        },
        {
            "id": "9dbc2bf3-4fa7-4daa-8644-279e6c1ea767",
            "nama_pse": "MASTORE SINERGI UTAMA",
            "nama_se": "MASTORE",
            "sektor": "Sektor Perdagangan, Sektor Pangan",
            "tanggal_terbit": "2024-12-16",
            "url_tdpse_detail": "https://pse.komdigi.go.id/tdpse-detail/21797",
            "website": "mastore.id"
        },
        {
            "id": "9dbca6ab-8b70-4c08-9871-105e413dcf42",
            "nama_pse": "PRIME ANALYTICS INDONESIA",
            "nama_se": "PRIME",
            "sektor": "Sektor Keuangan",
            "tanggal_terbit": "2024-12-16",
            "url_tdpse_detail": "https://pse.komdigi.go.id/tdpse-detail/21802",
            "website": "prime-analytics.ai"
        },
        {
            "id": "9dbc51c3-ff84-4cef-aea8-31aa37b31c10",
            "nama_pse": "ARIF RAHMAN HAKIM",
            "nama_se": "GAMESTONE",
            "sektor": "Sektor Perdagangan",
            "tanggal_terbit": "2024-12-16",
            "url_tdpse_detail": "https://pse.komdigi.go.id/tdpse-detail/21799",
            "website": "gamestone.id"
        },
        {
            "id": "9dbae597-4255-4e8a-b983-ca817fd52aab",
            "nama_pse": "ENO CYBER SENTINEL",
            "nama_se": "ENO CYBER SENTINEL",
            "sektor": "Sektor Teknologi Informasi dan Komunikasi",
            "tanggal_terbit": "2024-12-15",
            "url_tdpse_detail": "https://pse.komdigi.go.id/tdpse-detail/21793",
            "website": "enosys.id"
        },
        {
            "id": "9dbb35c3-91c6-4737-813a-930c2276fb02",
            "nama_pse": "ARIPIN NET TEKNOLOGI",
            "nama_se": "ARIPIN NET TEKNOLOGI",
            "sektor": "Sektor Teknologi Informasi dan Komunikasi",
            "tanggal_terbit": "2024-12-15",
            "url_tdpse_detail": "https://pse.komdigi.go.id/tdpse-detail/21795",
            "website": "-"
        },
        {
            "id": "9dba42db-b053-4082-9f79-ff381184db68",
            "nama_pse": "JALALUDDIN",
            "nama_se": "MASUDY",
            "sektor": "Sektor Teknologi Informasi dan Komunikasi",
            "tanggal_terbit": "2024-12-15",
            "url_tdpse_detail": "https://pse.komdigi.go.id/tdpse-detail/21792",
            "website": "-"
        },
        {
            "id": "9dbb207b-5ffd-410d-90ac-d285f5b2793e",
            "nama_pse": "HARZUKIL",
            "nama_se": "RAKAN PULSA",
            "sektor": "Sektor Perdagangan",
            "tanggal_terbit": "2024-12-15",
            "url_tdpse_detail": "https://pse.komdigi.go.id/tdpse-detail/21794",
            "website": "rakanpulsa.com"
        },
        {
            "id": "9dbb4b72-c599-4a1b-8639-1bfa5b12d5b8",
            "nama_pse": "SUARA MITRA NUSANTARA",
            "nama_se": "suaramitranusantara.com",
            "sektor": "Sektor Teknologi Informasi dan Komunikasi",
            "tanggal_terbit": "2024-12-15",
            "url_tdpse_detail": "https://pse.komdigi.go.id/tdpse-detail/21796",
            "website": "suaramitranusantara.com"
        },
        {
            "id": "9db9aa55-a35c-455b-bad5-4a272697c937",
            "nama_pse": "DIBS GLOBAL DIGITAL",
            "nama_se": "WARLOC",
            "sektor": "Sektor Perdagangan, Sektor Teknologi Informasi dan Komunikasi",
            "tanggal_terbit": "2024-12-15",
            "url_tdpse_detail": "https://pse.komdigi.go.id/tdpse-detail/21791",
            "website": "warloc.app"
        },
        {
            "id": "9db86fd5-731e-465c-85e9-5c57230ec625",
            "nama_pse": "KEISHA KEINZEMA GROUP",
            "nama_se": "PT KEISHA KEINZEMA GROUP",
            "sektor": "Sektor Teknologi Informasi dan Komunikasi",
            "tanggal_terbit": "2024-12-14",
            "url_tdpse_detail": "https://pse.komdigi.go.id/tdpse-detail/21787",
            "website": "-"
        },
        {
            "id": "9db8e042-becf-4365-b015-d3f7c2362f4f",
            "nama_pse": "ANGGITA RANDI PRAPMIKO",
            "nama_se": "PT GLOBAL TECHNOLOGY PRATAMA",
            "sektor": "Sektor Teknologi Informasi dan Komunikasi",
            "tanggal_terbit": "2024-12-14",
            "url_tdpse_detail": "https://pse.komdigi.go.id/tdpse-detail/21790",
            "website": "serviceprinterpanggilan.com"
        },
        {
            "id": "9db88890-7ca7-47d6-888b-fb5bc2d820b1",
            "nama_pse": "MOCHAMMAD CHOIRUL ANAM",
            "nama_se": "invi.id",
            "sektor": "Sektor Teknologi Informasi dan Komunikasi",
            "tanggal_terbit": "2024-12-14",
            "url_tdpse_detail": "https://pse.komdigi.go.id/tdpse-detail/21788",
            "website": "invi.id"
        },
        {
            "id": "9db857be-c54d-421f-b393-60aa877a5dbd",
            "nama_pse": "REALITA MANDIRI GROUP",
            "nama_se": "realitaupdate24jam.com",
            "sektor": "Sektor Teknologi Informasi dan Komunikasi",
            "tanggal_terbit": "2024-12-14",
            "url_tdpse_detail": "https://pse.komdigi.go.id/tdpse-detail/21786",
            "website": "realitaupdate24jam.com"
        },
        {
            "id": "9db8a7b7-d76f-4f0a-b5d1-90d74ffb4d0a",
            "nama_pse": "JUMADIL AWAL",
            "nama_se": "TOKOWEBPEDIA INDONESIA",
            "sektor": "Sektor Teknologi Informasi dan Komunikasi",
            "tanggal_terbit": "2024-12-14",
            "url_tdpse_detail": "https://pse.komdigi.go.id/tdpse-detail/21789",
            "website": "my.tokowebpedia.com"
        },
        {
            "id": "9db6be91-3523-4d85-b0bf-1f2f806a2207",
            "nama_pse": "MANDIRI DIGITAL INTEGRASI",
            "nama_se": "FREIGHTHUB",
            "sektor": "Sektor Transportasi",
            "tanggal_terbit": "2024-12-13",
            "url_tdpse_detail": "https://pse.komdigi.go.id/tdpse-detail/21779",
            "website": "freight-hub.co"
        },
        {
            "id": "9db634cb-0a25-4569-9dca-76023899faac",
            "nama_pse": "SAMUDRA MUTIARA SATRIA",
            "nama_se": "pewarta.tv",
            "sektor": "Sektor Teknologi Informasi dan Komunikasi",
            "tanggal_terbit": "2024-12-13",
            "url_tdpse_detail": "https://pse.komdigi.go.id/tdpse-detail/21770",
            "website": "-"
        }
    ],
    "processingTimeMs": 23,
    "query": "",
    "totalHits": 19131,
    "hitsPerPage": 50,
    "page": 18,
    "totalPages": 383
}