{
    "hits": [
        {
            "id": "9cb1abb0-40d5-4f6c-9ceb-d4ff1b115d21",
            "nama_pse": "TERA KREASI SEMESTA",
            "nama_se": "BATUSTORE",
            "sektor": "Sektor Perdagangan",
            "tanggal_terbit": "2022-07-13",
            "url_tdpse_detail": "https://pse.komdigi.go.id/tdpse-detail/5506",
            "website": "batustore.com"
        },
        {
            "id": "9cb1aba6-6e70-4fc1-a523-76c8c749da3b",
            "nama_pse": "ADIRA DINAMIKA MULTI FINANCE",
            "nama_se": "MOMOBIL.ID",
            "sektor": "Sektor Keuangan",
            "tanggal_terbit": "2022-07-13",
            "url_tdpse_detail": "https://pse.komdigi.go.id/tdpse-detail/5507",
            "website": "momobil.id"
        },
        {
            "id": "9cb1abb0-4455-4a94-8a52-9fb6d7234461",
            "nama_pse": "ISAN TECHNOLOGY INDONESIA",
            "nama_se": "AGRION TRADER",
            "sektor": "Sektor Keuangan, Sektor Teknologi Informasi dan Komunikasi",
            "tanggal_terbit": "2022-07-13",
            "url_tdpse_detail": "https://pse.komdigi.go.id/tdpse-detail/5508",
            "website": "-"
        },
        {
            "id": "9cb1aba6-70ee-4ce2-aa24-0a62e8a8f1fa",
            "nama_pse": "VIVA MEDIKA",
            "nama_se": "VIVA MEDIKA",
            "sektor": "Sektor Kesehatan",
            "tanggal_terbit": "2022-07-13",
            "url_tdpse_detail": "https://pse.komdigi.go.id/tdpse-detail/5509",
            "website": "Vivamedika.id"
        },
        {
            "id": "9cb1abb0-466b-4b99-ae44-edf6d05da262",
            "nama_pse": "TERA KREASI SEMESTA",
            "nama_se": "SAHABATBAYAR",
            "sektor": "Sektor Perdagangan",
            "tanggal_terbit": "2022-07-13",
            "url_tdpse_detail": "https://pse.komdigi.go.id/tdpse-detail/5511",
            "website": "sahabatbayar.com"
        },
        {
            "id": "9cb1aba6-7367-415e-98a9-e9c47b3ced60",
            "nama_pse": "VIVA MEDIKA",
            "nama_se": "VIVA MEDIKA APPS",
            "sektor": "Sektor Kesehatan",
            "tanggal_terbit": "2022-07-13",
            "url_tdpse_detail": "https://pse.komdigi.go.id/tdpse-detail/5512",
            "website": "vivamedika.id"
        },
        {
            "id": "9cb1aba6-75fd-4440-853a-c6430a8c70d1",
            "nama_pse": "TERA KREASI SEMESTA",
            "nama_se": "BAKULAN ELEKTRIK",
            "sektor": "Sektor Perdagangan",
            "tanggal_terbit": "2022-07-13",
            "url_tdpse_detail": "https://pse.komdigi.go.id/tdpse-detail/5513",
            "website": "bakulanelektrik.com"
        },
        {
            "id": "9cb1abb0-485f-47b0-85c0-bb0321b4fd7e",
            "nama_pse": "BANK MEGA SYARIAH",
            "nama_se": "M-SYARIAH",
            "sektor": "Sektor Keuangan",
            "tanggal_terbit": "2022-07-13",
            "url_tdpse_detail": "https://pse.komdigi.go.id/tdpse-detail/5514",
            "website": "-"
        },
        {
            "id": "9cb1abb0-4af3-4868-a04f-b720eb88b637",
            "nama_pse": "ASURANSI UMUM BCA",
            "nama_se": "WEBSITE BCAINSURANCE",
            "sektor": "Sektor Keuangan",
            "tanggal_terbit": "2022-07-13",
            "url_tdpse_detail": "https://pse.komdigi.go.id/tdpse-detail/5515",
            "website": "bcainsurance.co.id"
        },
        {
            "id": "9cb1abb0-4d14-4368-8198-6b7b1688f769",
            "nama_pse": "ASURANSI UMUM BCA",
            "nama_se": "BCAINSURANCE MOBILE APPS",
            "sektor": "Sektor Keuangan",
            "tanggal_terbit": "2022-07-13",
            "url_tdpse_detail": "https://pse.komdigi.go.id/tdpse-detail/5516",
            "website": "-"
        },
        {
            "id": "9cb1aba6-78b0-4596-bdd8-8ca729a4d373",
            "nama_pse": "ASURANSI UMUM BCA",
            "nama_se": "FLEXAS",
            "sektor": "Sektor Keuangan",
            "tanggal_terbit": "2022-07-13",
            "url_tdpse_detail": "https://pse.komdigi.go.id/tdpse-detail/5517",
            "website": "flexas.bcainsurance.co.id"
        },
        {
            "id": "9cb1ab9b-9037-4d45-8927-775aa5a6d23d",
            "nama_pse": "ASURANSI UMUM BCA",
            "nama_se": "TRAVEL INSURANCE AGENT",
            "sektor": "Sektor Keuangan",
            "tanggal_terbit": "2022-07-13",
            "url_tdpse_detail": "https://pse.komdigi.go.id/tdpse-detail/5518",
            "website": "travelagent.bcainsurance.co.id"
        },
        {
            "id": "9cb1abb0-4f69-4533-97c9-e592eec6afe3",
            "nama_pse": "HOSTINGAN AWAN INDONESIA",
            "nama_se": "HOSTINGAN",
            "sektor": "Sektor Teknologi Informasi dan Komunikasi",
            "tanggal_terbit": "2022-07-13",
            "url_tdpse_detail": "https://pse.komdigi.go.id/tdpse-detail/5519",
            "website": "hostingan.id"
        },
        {
            "id": "9cb1ab9b-96a2-4f3b-8839-902c0b3f6a38",
            "nama_pse": "FUNSOFT MOBINDO INDONESIA",
            "nama_se": "NOVELME1",
            "sektor": "Sektor Teknologi Informasi dan Komunikasi",
            "tanggal_terbit": "2022-07-13",
            "url_tdpse_detail": "https://pse.komdigi.go.id/tdpse-detail/5520",
            "website": "novelme.com"
        },
        {
            "id": "9cb1ab9b-98c8-44f0-9f16-9ccb67d65533",
            "nama_pse": "NUSANTARA OLAH DIGITAL",
            "nama_se": "VERTAL",
            "sektor": "Sektor Perdagangan, Sektor Teknologi Informasi dan Komunikasi",
            "tanggal_terbit": "2022-07-13",
            "url_tdpse_detail": "https://pse.komdigi.go.id/tdpse-detail/5522",
            "website": "vertal.co.id"
        },
        {
            "id": "9cb1abb0-5891-4ec9-b4d1-089dcc14ce70",
            "nama_pse": "ANUGERAH BINTANG INSANI",
            "nama_se": "JURAGANDISKON",
            "sektor": "Sektor Perdagangan, Sektor Teknologi Informasi dan Komunikasi",
            "tanggal_terbit": "2022-07-13",
            "url_tdpse_detail": "https://pse.komdigi.go.id/tdpse-detail/5523",
            "website": "juragandiskon.id"
        },
        {
            "id": "9cb1abb0-5ac7-4e2d-99e3-633bfbfa8d73",
            "nama_pse": "SATRIA MEDIA TEKNOLOGI",
            "nama_se": "SATRIA MEDIA TEKNOLOGI",
            "sektor": "Sektor Perdagangan, Sektor Teknologi Informasi dan Komunikasi",
            "tanggal_terbit": "2022-07-13",
            "url_tdpse_detail": "https://pse.komdigi.go.id/tdpse-detail/5525",
            "website": "satriacorp.id"
        },
        {
            "id": "9cb1abb0-5d14-4508-8aa7-f93116758b67",
            "nama_pse": "SATRIA MEDIA TEKNOLOGI",
            "nama_se": "SATRIACORP.ID",
            "sektor": "Sektor Teknologi Informasi dan Komunikasi",
            "tanggal_terbit": "2022-07-13",
            "url_tdpse_detail": "https://pse.komdigi.go.id/tdpse-detail/5526",
            "website": "satriacorp.id"
        },
        {
            "id": "9cb1aba6-7e11-4f5c-9165-f54f9e1b2f8d",
            "nama_pse": "HENDRA",
            "nama_se": "MITRA SERVER TRANSAKSI",
            "sektor": "Sektor Perdagangan",
            "tanggal_terbit": "2022-07-13",
            "url_tdpse_detail": "https://pse.komdigi.go.id/tdpse-detail/5527",
            "website": "Pulsaku.info"
        },
        {
            "id": "9cb1aba6-6c0f-49c4-9b17-00a98fbe6542",
            "nama_pse": "MIRAE ASSET SEKURITAS INDONESIA",
            "nama_se": "FUND CORPORATE",
            "sektor": "Sektor Keuangan",
            "tanggal_terbit": "2022-07-13",
            "url_tdpse_detail": "https://pse.komdigi.go.id/tdpse-detail/5505",
            "website": "miraeasset.co.id"
        },
        {
            "id": "9cb1aba6-7b41-471f-b7dc-3de3abd69d5c",
            "nama_pse": "IKI KARUNIA INDONESIA",
            "nama_se": "PIJAR",
            "sektor": "Sektor Keuangan",
            "tanggal_terbit": "2022-07-13",
            "url_tdpse_detail": "https://pse.komdigi.go.id/tdpse-detail/5521",
            "website": "pijar.com"
        },
        {
            "id": "9cb1ab99-17c5-4880-ab99-3a894ebeff46",
            "nama_pse": "KALBE FARMA",
            "nama_se": "WWW.KALBEMED.COM ATAU KALBEMED",
            "sektor": "Sektor Kesehatan",
            "tanggal_terbit": "2022-07-12",
            "url_tdpse_detail": "https://pse.komdigi.go.id/tdpse-detail/5338",
            "website": "kalbemed.com"
        },
        {
            "id": "9cb1aba5-429b-4615-aeb7-5f44afb80d92",
            "nama_pse": "INTI RAYA DIGITAL",
            "nama_se": "YIHAA.ID",
            "sektor": "Sektor Perdagangan",
            "tanggal_terbit": "2022-07-12",
            "url_tdpse_detail": "https://pse.komdigi.go.id/tdpse-detail/5421",
            "website": "Yihaa.id"
        },
        {
            "id": "9cb1aba5-a99f-4000-a216-4e8c81f07441",
            "nama_pse": "BANK JABAR BANTEN SYARIAH",
            "nama_se": "IB CASH MASLAHAH (CASH MANAGEMENT SYSTEM)",
            "sektor": "Sektor Keuangan",
            "tanggal_terbit": "2022-07-12",
            "url_tdpse_detail": "https://pse.komdigi.go.id/tdpse-detail/5415",
            "website": "ibcash.bjbsyariah.co.id"
        },
        {
            "id": "9cb1ab9a-9fa0-437c-b6fc-44c25dcbedc0",
            "nama_pse": "BANK JABAR BANTEN SYARIAH",
            "nama_se": "IB CASH MASALAHAN - ADMIN (CASH MANAGEMENT SYSTEM)",
            "sektor": "Sektor Keuangan",
            "tanggal_terbit": "2022-07-12",
            "url_tdpse_detail": "https://pse.komdigi.go.id/tdpse-detail/5416",
            "website": "ibcash-admin.bjbsyariah.co.id"
        },
        {
            "id": "9cb1ab9a-e214-415e-8c2b-9118bd7021a0",
            "nama_pse": "CSM CORPORATAMA",
            "nama_se": "CSM CORPORATAMA (WEBSITE GROUP)",
            "sektor": "Sektor Transportasi",
            "tanggal_terbit": "2022-07-12",
            "url_tdpse_detail": "https://pse.komdigi.go.id/tdpse-detail/5328",
            "website": "csmgroup.co.id"
        },
        {
            "id": "9cb1abaf-a9df-48ea-9b5d-dfd7855f91a7",
            "nama_pse": "FORE KOPI INDONESIA",
            "nama_se": "FORE COFFEE",
            "sektor": "Sektor Perdagangan",
            "tanggal_terbit": "2022-07-12",
            "url_tdpse_detail": "https://pse.komdigi.go.id/tdpse-detail/5333",
            "website": "fore.coffee"
        },
        {
            "id": "9cb1abaf-b4f6-48ef-928e-2efb81e81cc8",
            "nama_pse": "PUSTAKA INSAN MADANI",
            "nama_se": "INSANMADANIONLINE",
            "sektor": "Sektor Perdagangan",
            "tanggal_terbit": "2022-07-12",
            "url_tdpse_detail": "https://pse.komdigi.go.id/tdpse-detail/5325",
            "website": "insanmadanionline.com"
        },
        {
            "id": "9cb1ab9a-f80e-45a7-a121-a0dbe8968840",
            "nama_pse": "PERUSAHAAN PERSEROAN (PERSERO) PT. BANK RAKYAT INDONESIA",
            "nama_se": "APLIKASI BRISIM",
            "sektor": "Sektor Keuangan",
            "tanggal_terbit": "2022-07-12",
            "url_tdpse_detail": "https://pse.komdigi.go.id/tdpse-detail/5326",
            "website": "brisim.bri.co.id"
        },
        {
            "id": "9cb1abaf-b6bb-48a5-8e70-55adf279d4a5",
            "nama_pse": "MULTI PRATAMA ASIA",
            "nama_se": "MPA E-COMMERCE",
            "sektor": "Sektor Perdagangan, Sektor Keuangan, Sektor Teknologi Informasi dan Komunikasi",
            "tanggal_terbit": "2022-07-12",
            "url_tdpse_detail": "https://pse.komdigi.go.id/tdpse-detail/5327",
            "website": "multipratamaasiashop.jualan.me"
        },
        {
            "id": "9cb1ab9a-fb9a-493c-987f-ccfbe954cd9e",
            "nama_pse": "ZURICH ASURANSI INDONESIA",
            "nama_se": "AUTOCILLIN MOBILE CLAIM",
            "sektor": "Sektor Keuangan",
            "tanggal_terbit": "2022-07-12",
            "url_tdpse_detail": "https://pse.komdigi.go.id/tdpse-detail/5329",
            "website": "-"
        },
        {
            "id": "9cb1aba5-f024-4ed3-9c6a-5a20702382d0",
            "nama_pse": "BNI MULTIFINANCE",
            "nama_se": "WEBSITE BNI MULTIFINANCE",
            "sektor": "Sektor Keuangan",
            "tanggal_terbit": "2022-07-12",
            "url_tdpse_detail": "https://pse.komdigi.go.id/tdpse-detail/5332",
            "website": "bnimultifinance.co.id"
        },
        {
            "id": "9cb1abaf-b8bf-4a0b-b58f-feae6a6a40c6",
            "nama_pse": "KRAKATAU CITRA ADHIYANA",
            "nama_se": "IMADANI",
            "sektor": "Sektor Teknologi Informasi dan Komunikasi",
            "tanggal_terbit": "2022-07-12",
            "url_tdpse_detail": "https://pse.komdigi.go.id/tdpse-detail/5330",
            "website": "madani-tech.com"
        },
        {
            "id": "9cb1aba5-f23a-4c05-a7a7-228930394efe",
            "nama_pse": "TAKARI KOKOH SEJAHTERA",
            "nama_se": "WEBSITE PERUSAHAAN",
            "sektor": "Sektor Keuangan",
            "tanggal_terbit": "2022-07-12",
            "url_tdpse_detail": "https://pse.komdigi.go.id/tdpse-detail/5331",
            "website": "takari.co.id"
        },
        {
            "id": "9cb1ab9a-fe5a-4d07-93e2-3b920ab8dd1c",
            "nama_pse": "BNI MULTIFINANCE",
            "nama_se": "WEBSIE BNI MULTIFINANCE",
            "sektor": "Sektor Keuangan",
            "tanggal_terbit": "2022-07-12",
            "url_tdpse_detail": "https://pse.komdigi.go.id/tdpse-detail/5334",
            "website": "bnimultifinance.co.id"
        },
        {
            "id": "9cb1abaf-baab-40a5-be5b-752656922e05",
            "nama_pse": "ZURICH ASURANSI INDONESIA",
            "nama_se": "MEDICILLIN",
            "sektor": "Sektor Keuangan",
            "tanggal_terbit": "2022-07-12",
            "url_tdpse_detail": "https://pse.komdigi.go.id/tdpse-detail/5335",
            "website": "medicillin.com"
        },
        {
            "id": "9cb1ab9b-010d-41db-ad49-315532d4c778",
            "nama_pse": "TREETAN NUSANTARA NETWORK",
            "nama_se": "TREETAN",
            "sektor": "Sektor Teknologi Informasi dan Komunikasi",
            "tanggal_terbit": "2022-07-12",
            "url_tdpse_detail": "https://pse.komdigi.go.id/tdpse-detail/5336",
            "website": "treetan.com"
        },
        {
            "id": "9cb1abaf-be96-45f2-8aec-503a70e020ff",
            "nama_pse": "OMPULS GROUP",
            "nama_se": "OMAH PULSA",
            "sektor": "Sektor Perdagangan, Sektor Teknologi Informasi dan Komunikasi",
            "tanggal_terbit": "2022-07-12",
            "url_tdpse_detail": "https://pse.komdigi.go.id/tdpse-detail/5337",
            "website": "omahpulsa.com"
        },
        {
            "id": "9cb1abaf-c061-48a8-beb4-3a7a669d8d46",
            "nama_pse": "ASURANSI JIWA SEQUIS LIFE",
            "nama_se": "WEBSITE SEQUIS",
            "sektor": "Sektor Keuangan",
            "tanggal_terbit": "2022-07-12",
            "url_tdpse_detail": "https://pse.komdigi.go.id/tdpse-detail/5339",
            "website": "sequis.co.id"
        },
        {
            "id": "9cb1ab9b-03f0-439d-bb91-fc457cecef55",
            "nama_pse": "SRIWIJAYA UTAMA KARYA",
            "nama_se": "SRIWIJAYA HOST",
            "sektor": "Sektor Teknologi Informasi dan Komunikasi",
            "tanggal_terbit": "2022-07-12",
            "url_tdpse_detail": "https://pse.komdigi.go.id/tdpse-detail/5340",
            "website": "sriwijayahost.id"
        },
        {
            "id": "9cb1ab9b-06a9-40ee-8a09-3089a7d15967",
            "nama_pse": "PERUSAHAAN PERSEROAN (PERSERO) PT. TELEKOMUNIKASI INDONESIA",
            "nama_se": "LOGEE TRUCKER",
            "sektor": "Sektor Transportasi, Sektor Teknologi Informasi dan Komunikasi",
            "tanggal_terbit": "2022-07-12",
            "url_tdpse_detail": "https://pse.komdigi.go.id/tdpse-detail/5341",
            "website": "logeetrans.com"
        },
        {
            "id": "9cb1ab9b-09ae-439b-87aa-7ab551458beb",
            "nama_pse": "PERUSAHAAN PERSEROAN (PERSERO) PT. TELEKOMUNIKASI INDONESIA",
            "nama_se": "LOGEE DRIVER",
            "sektor": "Sektor Transportasi, Sektor Teknologi Informasi dan Komunikasi",
            "tanggal_terbit": "2022-07-12",
            "url_tdpse_detail": "https://pse.komdigi.go.id/tdpse-detail/5342",
            "website": "logeetrans.com"
        },
        {
            "id": "9cb1abaf-c2ca-4ba2-aab4-66cc92603cae",
            "nama_pse": "MNC GUNA USAHA INDONESIA",
            "nama_se": "WEBSITE MNC LEASING",
            "sektor": "Sektor Keuangan",
            "tanggal_terbit": "2022-07-12",
            "url_tdpse_detail": "https://pse.komdigi.go.id/tdpse-detail/5343",
            "website": "mncleasing.com"
        },
        {
            "id": "9cb1abaf-c508-4810-ada7-f1c5a138b219",
            "nama_pse": "ACHILLES FINANCIAL SYSTEMS",
            "nama_se": "ONLINEPAJAK",
            "sektor": "Sektor Perdagangan, Sektor Keuangan",
            "tanggal_terbit": "2022-07-12",
            "url_tdpse_detail": "https://pse.komdigi.go.id/tdpse-detail/5344",
            "website": "online-pajak.id"
        },
        {
            "id": "9cb1abaf-c6eb-428b-8f3f-0471bb758e2d",
            "nama_pse": "BFI FINANCE INDONESIA",
            "nama_se": "WEBSITE BFI FINANCE",
            "sektor": "Sektor Keuangan",
            "tanggal_terbit": "2022-07-12",
            "url_tdpse_detail": "https://pse.komdigi.go.id/tdpse-detail/5345",
            "website": "bfi.co.id"
        },
        {
            "id": "9cb1ab9b-10db-440e-9ef9-1965d533b490",
            "nama_pse": "FRIARSO SETO",
            "nama_se": "HUTAMA JAYA INDONESIA",
            "sektor": "Sektor Perdagangan",
            "tanggal_terbit": "2022-07-12",
            "url_tdpse_detail": "https://pse.komdigi.go.id/tdpse-detail/5346",
            "website": "-"
        },
        {
            "id": "9cb1ab9b-13c8-4ffa-bf18-c62784966d06",
            "nama_pse": "MITSUBISHI HC CAPITAL AND FINANCE INDONESIA",
            "nama_se": "LEASING AND FINANCE ADVANCED MANAGEMENT PORTAL (LAMP)",
            "sektor": "Sektor Keuangan",
            "tanggal_terbit": "2022-07-12",
            "url_tdpse_detail": "https://pse.komdigi.go.id/tdpse-detail/5349",
            "website": "-"
        },
        {
            "id": "9cb1abaf-cb3e-47c2-ba64-88f1c818289e",
            "nama_pse": "ASURANSI UMUM BUMIPUTERA MUDA 1967",
            "nama_se": "ASURANSI UMUM BUMIPUTERA MUDA 1967",
            "sektor": "Sektor Perdagangan",
            "tanggal_terbit": "2022-07-12",
            "url_tdpse_detail": "https://pse.komdigi.go.id/tdpse-detail/5351",
            "website": "bumida.co.id"
        },
        {
            "id": "9cb1abaf-cd0f-4979-9168-718fc1178c12",
            "nama_pse": "MONETIZE INDONESIA",
            "nama_se": "UPSTATION.ASIA",
            "sektor": "Sektor Perdagangan, Sektor Teknologi Informasi dan Komunikasi",
            "tanggal_terbit": "2022-07-12",
            "url_tdpse_detail": "https://pse.komdigi.go.id/tdpse-detail/5348",
            "website": "upstation.asia"
        },
        {
            "id": "9cb1ab9b-16b7-4efb-b118-36bef4f37fb7",
            "nama_pse": "MAO THARA INTERNASIONAL",
            "nama_se": "MAO THARA INTERNASIONAL",
            "sektor": "Sektor Perdagangan",
            "tanggal_terbit": "2022-07-12",
            "url_tdpse_detail": "https://pse.komdigi.go.id/tdpse-detail/5352",
            "website": "mao.co.id"
        }
    ],
    "processingTimeMs": 3,
    "query": "",
    "totalHits": 19131,
    "hitsPerPage": 50,
    "page": 286,
    "totalPages": 383
}