{
    "hits": [
        {
            "id": "9cb1ac7f-49af-42db-af65-59335eb6fcd0",
            "nama_pse": "CIPTA MEDIKA INFORMASI",
            "nama_se": "PRIMACARE",
            "sektor": "Sektor Kesehatan",
            "tanggal_terbit": "2024-02-24",
            "url_tdpse_detail": "https://pse.komdigi.go.id/tdpse-detail/17975",
            "website": "primacare.ai"
        },
        {
            "id": "9cb1ac6b-32ea-42f1-9072-aadb3b5e119f",
            "nama_pse": "SOBAT QURAN LAMPUNG",
            "nama_se": "SOBAT QURAN",
            "sektor": "Sektor Teknologi Informasi dan Komunikasi",
            "tanggal_terbit": "2024-02-24",
            "url_tdpse_detail": "https://pse.komdigi.go.id/tdpse-detail/17960",
            "website": "-"
        },
        {
            "id": "9cb1ac6b-3ebb-44cb-a68e-a840fa97ec34",
            "nama_pse": "OLIVIA AJENG PS",
            "nama_se": "SMART MOBILE",
            "sektor": "Sektor Perdagangan",
            "tanggal_terbit": "2024-02-24",
            "url_tdpse_detail": "https://pse.komdigi.go.id/tdpse-detail/17966",
            "website": "escomsmart.com"
        },
        {
            "id": "9cb1ac56-4443-4247-85b0-8bb2cb03b8de",
            "nama_pse": "INFINITI AMANAH INDONESIA",
            "nama_se": "INFINITI AMANAH INDONESIA",
            "sektor": "Sektor Perdagangan, Sektor Teknologi Informasi dan Komunikasi",
            "tanggal_terbit": "2024-02-24",
            "url_tdpse_detail": "https://pse.komdigi.go.id/tdpse-detail/17974",
            "website": "izinamanah.com"
        },
        {
            "id": "9cb1ac7e-fb20-43ba-885d-02ae0e698994",
            "nama_pse": "RUMAH SAKIT UMUM DAERAH RATU ZALECHA",
            "nama_se": "SIMRS KHANZA RSUD RATU ZALECHA",
            "sektor": "Sektor Kesehatan",
            "tanggal_terbit": "2024-02-23",
            "url_tdpse_detail": "https://pse.komdigi.go.id/tdpse-detail/17931",
            "website": "rsraza.banjarkab.go.id"
        },
        {
            "id": "9cb1ac6b-19e4-4b05-9741-f9b9afb3cfec",
            "nama_pse": "MAHARDHIKA",
            "nama_se": "SISTEM INFORMASI MANAJEMEN APOTEK MANDIRI",
            "sektor": "Sektor Kesehatan",
            "tanggal_terbit": "2024-02-23",
            "url_tdpse_detail": "https://pse.komdigi.go.id/tdpse-detail/17934",
            "website": "-"
        },
        {
            "id": "9cb1ac56-0cf4-4a4e-a06a-23a94682109b",
            "nama_pse": "XIAOMI COMMUNICATIONS INDONESIA",
            "nama_se": "MI STORE",
            "sektor": "Sektor Perdagangan",
            "tanggal_terbit": "2024-02-23",
            "url_tdpse_detail": "https://pse.komdigi.go.id/tdpse-detail/17936",
            "website": "-"
        },
        {
            "id": "9cb1ac6b-0878-4c0e-adb2-010b5540e45d",
            "nama_pse": "FAUZAN ATTANA",
            "nama_se": "12MANTES",
            "sektor": "Sektor Teknologi Informasi dan Komunikasi",
            "tanggal_terbit": "2024-02-23",
            "url_tdpse_detail": "https://pse.komdigi.go.id/tdpse-detail/17921",
            "website": "-"
        },
        {
            "id": "9cb1ac6b-1277-4c54-81f2-ee00b4b5e95d",
            "nama_pse": "PALUGADA SUMBER SUKSES",
            "nama_se": "PERDAGANGAN ECERAN MELALUI MEDIA BARANG PERLENGKAPAN RUMAH TANGGA DAN DAPUR",
            "sektor": "Sektor Perdagangan",
            "tanggal_terbit": "2024-02-23",
            "url_tdpse_detail": "https://pse.komdigi.go.id/tdpse-detail/17927",
            "website": "-"
        },
        {
            "id": "9cb1ac7f-0496-4c85-9d6e-a7c11c0a70a4",
            "nama_pse": "PRO MEDIKA",
            "nama_se": "SAP RUMAH SAKIT",
            "sektor": "Sektor Teknologi Informasi dan Komunikasi",
            "tanggal_terbit": "2024-02-23",
            "url_tdpse_detail": "https://pse.komdigi.go.id/tdpse-detail/17935",
            "website": "-"
        },
        {
            "id": "9cb1ac6b-1ce3-4689-9409-4575cf086873",
            "nama_pse": "DELIK MEDIA INDONESIA",
            "nama_se": "DELIK MEDIA INDONESIA",
            "sektor": "Sektor Teknologi Informasi dan Komunikasi",
            "tanggal_terbit": "2024-02-23",
            "url_tdpse_detail": "https://pse.komdigi.go.id/tdpse-detail/17938",
            "website": "deliknews.com"
        },
        {
            "id": "9cb1ac7f-22b7-4f05-be2d-574e84110219",
            "nama_pse": "ROYAL RESORTS INTERNATIONAL",
            "nama_se": "YUKTAMASYA.COM",
            "sektor": "Sektor Perdagangan",
            "tanggal_terbit": "2024-02-23",
            "url_tdpse_detail": "https://pse.komdigi.go.id/tdpse-detail/17948",
            "website": "yuktamasya.com"
        },
        {
            "id": "9cb1ac7f-28ff-4b69-a744-2ad26fb45896",
            "nama_pse": "RAYCARE HEALTH SOLUTION",
            "nama_se": "RAYCARE SMS (SMART MEDICAL SYSTEM)",
            "sektor": "Sektor Kesehatan",
            "tanggal_terbit": "2024-02-23",
            "url_tdpse_detail": "https://pse.komdigi.go.id/tdpse-detail/17953",
            "website": "-"
        },
        {
            "id": "9cb1ac7e-e85b-45a0-95d4-7b0690cebbca",
            "nama_pse": "FOKUS SOLUSI PROTEKSI",
            "nama_se": "PT FOKUS SOLUSI PROTEKSI (WEBSITE PORTAL.FSP.CO.ID)",
            "sektor": "Sektor Keuangan",
            "tanggal_terbit": "2024-02-23",
            "url_tdpse_detail": "https://pse.komdigi.go.id/tdpse-detail/17949",
            "website": "portal.fsp.co.id"
        },
        {
            "id": "9cb1ac7e-bbab-4e40-9205-9f8801a08309",
            "nama_pse": "DUTA META GRAHA",
            "nama_se": "YADRI",
            "sektor": "Sektor Teknologi Informasi dan Komunikasi",
            "tanggal_terbit": "2024-02-22",
            "url_tdpse_detail": "https://pse.komdigi.go.id/tdpse-detail/17900",
            "website": "Yadri.id"
        },
        {
            "id": "9cb1ac7e-cb22-4bef-b0ee-f2e5ebeb8aab",
            "nama_pse": "MUHAMMAD HUSAINI",
            "nama_se": "FASKESGO",
            "sektor": "Sektor Kesehatan, Sektor Teknologi Informasi dan Komunikasi",
            "tanggal_terbit": "2024-02-22",
            "url_tdpse_detail": "https://pse.komdigi.go.id/tdpse-detail/17908",
            "website": "faskesgo.id"
        },
        {
            "id": "9cb1ac55-f033-4f2a-b052-b5033e94e93e",
            "nama_pse": "SUMBER ANOM INDONESIA",
            "nama_se": "ODOO ERP",
            "sektor": "Sektor Perdagangan, Sektor Kesehatan",
            "tanggal_terbit": "2024-02-22",
            "url_tdpse_detail": "https://pse.komdigi.go.id/tdpse-detail/17905",
            "website": "sumberanom.id"
        },
        {
            "id": "9cb1ac7e-c707-4db5-9d92-a058826c0463",
            "nama_pse": "FINN TEKNOLOGI INDONESIA",
            "nama_se": "FINN",
            "sektor": "Sektor Teknologi Informasi dan Komunikasi",
            "tanggal_terbit": "2024-02-22",
            "url_tdpse_detail": "https://pse.komdigi.go.id/tdpse-detail/17907",
            "website": "finn-app.com"
        },
        {
            "id": "9cb1ac55-f3d8-4374-8af8-73defc459e9e",
            "nama_pse": "RAHYANA DIGITAL GROUP",
            "nama_se": "RAHYANA PAYMENT",
            "sektor": "Sektor Perdagangan",
            "tanggal_terbit": "2024-02-22",
            "url_tdpse_detail": "https://pse.komdigi.go.id/tdpse-detail/17911",
            "website": "-"
        },
        {
            "id": "9cb1ac55-f703-4b87-8dc8-aeae05ba6990",
            "nama_pse": "RAHYANA DIGITAL GROUP",
            "nama_se": "RAHYANA STORE",
            "sektor": "Sektor Perdagangan",
            "tanggal_terbit": "2024-02-22",
            "url_tdpse_detail": "https://pse.komdigi.go.id/tdpse-detail/17912",
            "website": "-"
        },
        {
            "id": "9cb1ac55-ff66-4de0-be07-f76194c28956",
            "nama_pse": "GEMILANG PIRANTI NUSANTARA",
            "nama_se": "GEMILANG PIRANTI NUSANTARA",
            "sektor": "Sektor Kesehatan, Sektor Teknologi Informasi dan Komunikasi",
            "tanggal_terbit": "2024-02-22",
            "url_tdpse_detail": "https://pse.komdigi.go.id/tdpse-detail/17916",
            "website": "gemilangpirantinusantara.id"
        },
        {
            "id": "9cb1ac56-030c-4aae-a2c0-27ffcd8e2c67",
            "nama_pse": "PULSABAYAR SINAR PANBERSI",
            "nama_se": "API PULSABAYAR - 2",
            "sektor": "Sektor Perdagangan, Sektor Teknologi Informasi dan Komunikasi",
            "tanggal_terbit": "2024-02-22",
            "url_tdpse_detail": "https://pse.komdigi.go.id/tdpse-detail/17917",
            "website": "-"
        },
        {
            "id": "9cb1ac56-0693-4143-9d1e-34179210ff75",
            "nama_pse": "ICHITECH DIGITAL MEDIA GROUP",
            "nama_se": "ISTIQOMAH RELOAD",
            "sektor": "Sektor Perdagangan, Sektor Teknologi Informasi dan Komunikasi",
            "tanggal_terbit": "2024-02-22",
            "url_tdpse_detail": "https://pse.komdigi.go.id/tdpse-detail/17918",
            "website": "istiqomahreload.otoreport.com"
        },
        {
            "id": "9cb1ac6b-0487-40e1-9dc3-77f604a864d7",
            "nama_pse": "PULSABAYAR SINAR PANBERSI",
            "nama_se": "WEBSITE PULSABAYAR",
            "sektor": "Sektor Perdagangan, Sektor Teknologi Informasi dan Komunikasi",
            "tanggal_terbit": "2024-02-22",
            "url_tdpse_detail": "https://pse.komdigi.go.id/tdpse-detail/17919",
            "website": "pulsabayar.co.id"
        },
        {
            "id": "9cb1ac56-098a-452e-8f7e-038f6f6613cd",
            "nama_pse": "MATAHARI SINAR PANBERSI",
            "nama_se": "WEBREPORT \u0026 API NJPULSA",
            "sektor": "Sektor Perdagangan, Sektor Teknologi Informasi dan Komunikasi",
            "tanggal_terbit": "2024-02-22",
            "url_tdpse_detail": "https://pse.komdigi.go.id/tdpse-detail/17920",
            "website": "report.njpulsareload.co.id"
        },
        {
            "id": "9cb1ac6b-0124-4573-888a-41686c6aae33",
            "nama_pse": "PULSABAYAR SINAR PANBERSI",
            "nama_se": "API PULSABAYAR - 1",
            "sektor": "Sektor Perdagangan, Sektor Teknologi Informasi dan Komunikasi",
            "tanggal_terbit": "2024-02-22",
            "url_tdpse_detail": "https://pse.komdigi.go.id/tdpse-detail/17915",
            "website": "api.pulsabayar.com"
        },
        {
            "id": "9cb1ac6a-fa58-4344-bf0e-4b17c4e2f854",
            "nama_pse": "FWD INSURANCE INDONESIA",
            "nama_se": "CHATBOT SERVICING \u0026 DIGITAL COMMERCE",
            "sektor": "Sektor Keuangan",
            "tanggal_terbit": "2024-02-22",
            "url_tdpse_detail": "https://pse.komdigi.go.id/tdpse-detail/17914",
            "website": "-"
        },
        {
            "id": "9cb1ac6a-cb27-47cb-8c1b-1b68c6478f40",
            "nama_pse": "OPTO LUMBUNG SEJAHTERA",
            "nama_se": "SCARLETT",
            "sektor": "Sektor Perdagangan",
            "tanggal_terbit": "2024-02-21",
            "url_tdpse_detail": "https://pse.komdigi.go.id/tdpse-detail/17884",
            "website": "scarlett.id"
        },
        {
            "id": "9cb1ac6a-b28c-47ac-9221-2d94f7337737",
            "nama_pse": "AMANAH BISNIS INDONESIA",
            "nama_se": "SAFT TAX",
            "sektor": "Sektor Perdagangan, Sektor Teknologi Informasi dan Komunikasi",
            "tanggal_terbit": "2024-02-21",
            "url_tdpse_detail": "https://pse.komdigi.go.id/tdpse-detail/17875",
            "website": "safttax.com"
        },
        {
            "id": "9cb1ac7e-6a83-44f1-a15d-3e41af29da5d",
            "nama_pse": "ITC AUTO MULTI FINANCE",
            "nama_se": "PT ITC AUTO MULTI FINANCE",
            "sektor": "Sektor Keuangan",
            "tanggal_terbit": "2024-02-21",
            "url_tdpse_detail": "https://pse.komdigi.go.id/tdpse-detail/17867",
            "website": "iaf.co.id"
        },
        {
            "id": "9cb1ac6a-a808-45c9-9669-3e2d4e9f7244",
            "nama_pse": "PANDU MITRA INSANI",
            "nama_se": "SIMRS KHANZA RS PMI SULTRA",
            "sektor": "Sektor Kesehatan",
            "tanggal_terbit": "2024-02-21",
            "url_tdpse_detail": "https://pse.komdigi.go.id/tdpse-detail/17868",
            "website": "-"
        },
        {
            "id": "9cb1ac7e-80d8-4103-b7b0-bf3003a102b1",
            "nama_pse": "POP JASA INDONESIA",
            "nama_se": "POP JASA INDONESIA",
            "sektor": "Sektor Perdagangan, Sektor Teknologi Informasi dan Komunikasi",
            "tanggal_terbit": "2024-02-21",
            "url_tdpse_detail": "https://pse.komdigi.go.id/tdpse-detail/17869",
            "website": "popjasa.id"
        },
        {
            "id": "9cb1ac55-d5ea-4c44-a595-e27f38938370",
            "nama_pse": "POP JASA INDONESIA",
            "nama_se": "JASAMURA",
            "sektor": "Sektor Perdagangan, Sektor Teknologi Informasi dan Komunikasi",
            "tanggal_terbit": "2024-02-21",
            "url_tdpse_detail": "https://pse.komdigi.go.id/tdpse-detail/17870",
            "website": "jasamura.id"
        },
        {
            "id": "9cb1ac6a-aec5-408b-8a97-d8a93edc7f70",
            "nama_pse": "BUDI MEDIKA SEJAHTERA",
            "nama_se": "TERAMEDIK",
            "sektor": "Sektor Kesehatan",
            "tanggal_terbit": "2024-02-21",
            "url_tdpse_detail": "https://pse.komdigi.go.id/tdpse-detail/17871",
            "website": "rsbudimedika.com"
        },
        {
            "id": "9cb1ac55-d925-447d-a122-20fe1f76754e",
            "nama_pse": "AMANAH BISNIS INDONESIA",
            "nama_se": "SAFT INDONESIA",
            "sektor": "Sektor Perdagangan, Sektor Teknologi Informasi dan Komunikasi",
            "tanggal_terbit": "2024-02-21",
            "url_tdpse_detail": "https://pse.komdigi.go.id/tdpse-detail/17872",
            "website": "jasakonsultanpajak.co.id"
        },
        {
            "id": "9cb1ac7e-8574-4d7b-95a9-f19fb8a6a398",
            "nama_pse": "BINA MITRA HUSADA",
            "nama_se": "SIRAMA",
            "sektor": "Sektor Kesehatan",
            "tanggal_terbit": "2024-02-21",
            "url_tdpse_detail": "https://pse.komdigi.go.id/tdpse-detail/17874",
            "website": "-"
        },
        {
            "id": "9cb1ac6a-b594-4065-a154-990301b9df4c",
            "nama_pse": "BANTU BANTU TEKNOLOGI",
            "nama_se": "KITA BANTU TEKNOLOGI",
            "sektor": "Sektor Teknologi Informasi dan Komunikasi",
            "tanggal_terbit": "2024-02-21",
            "url_tdpse_detail": "https://pse.komdigi.go.id/tdpse-detail/17876",
            "website": "ktbantu.id"
        },
        {
            "id": "9cb1ac6a-b983-4f9e-b6c5-9e138bab9fa8",
            "nama_pse": "DERAP KEADILAN GROUP",
            "nama_se": "DERAPKEADILAN.COM",
            "sektor": "Sektor Teknologi Informasi dan Komunikasi",
            "tanggal_terbit": "2024-02-21",
            "url_tdpse_detail": "https://pse.komdigi.go.id/tdpse-detail/17877",
            "website": "derapkeadilan.com"
        },
        {
            "id": "9cb1ac55-dbeb-4636-9773-d640b176d0c7",
            "nama_pse": "KARUSATA SARANA INDONESIA",
            "nama_se": "EKLINIKPRO.COM SISTEM REKAM MEDIS ONLINE",
            "sektor": "Sektor Kesehatan",
            "tanggal_terbit": "2024-02-21",
            "url_tdpse_detail": "https://pse.komdigi.go.id/tdpse-detail/17879",
            "website": "EKLINIKPRO.com"
        },
        {
            "id": "9cb1ac6a-c41e-4fa1-a7ca-a2db2c530c94",
            "nama_pse": "OPTO LUMBUNG SEJAHTERA",
            "nama_se": "SCARLETT WHITENING",
            "sektor": "Sektor Perdagangan",
            "tanggal_terbit": "2024-02-21",
            "url_tdpse_detail": "https://pse.komdigi.go.id/tdpse-detail/17880",
            "website": "scarlettwhitening.com"
        },
        {
            "id": "9cb1ac6a-d544-4b30-9e4d-719d6e4e866b",
            "nama_pse": "MITRA SEJAHTERA MEMBANGUN BANGSA",
            "nama_se": "RITX SMART FARMING",
            "sektor": "Sektor Teknologi Informasi dan Komunikasi",
            "tanggal_terbit": "2024-02-21",
            "url_tdpse_detail": "https://pse.komdigi.go.id/tdpse-detail/17889",
            "website": "ritxbertani.com"
        },
        {
            "id": "9cb1ac7e-aad8-47e5-a165-f2ba7f45c013",
            "nama_pse": "RAVALINDO MEGAH PERKASA",
            "nama_se": "GLAMON.ID",
            "sektor": "Sektor Perdagangan",
            "tanggal_terbit": "2024-02-21",
            "url_tdpse_detail": "https://pse.komdigi.go.id/tdpse-detail/17892",
            "website": "glamon.id"
        },
        {
            "id": "9cb1ac7e-910f-4dad-90fd-7c917108c607",
            "nama_pse": "CAR CLASSIFIEDS INDONESIA",
            "nama_se": "CARMUDI.CO.ID",
            "sektor": "Sektor Perdagangan",
            "tanggal_terbit": "2024-02-21",
            "url_tdpse_detail": "https://pse.komdigi.go.id/tdpse-detail/17896",
            "website": "-"
        },
        {
            "id": "9cb1ac55-e343-43f3-a04c-2ef45361f5f8",
            "nama_pse": "AL FATH MANDIRI",
            "nama_se": "ALLKLINIK",
            "sektor": "Sektor Teknologi Informasi dan Komunikasi",
            "tanggal_terbit": "2024-02-21",
            "url_tdpse_detail": "https://pse.komdigi.go.id/tdpse-detail/17888",
            "website": "allklinik.com"
        },
        {
            "id": "9cb1ac6a-dc2e-42b7-b9c6-ea6e9a3d5887",
            "nama_pse": "JOLIE LIVIA",
            "nama_se": "SISTEM INFORMASI KLINIK UTAMA SAKTI MEDIKA",
            "sektor": "Sektor Kesehatan",
            "tanggal_terbit": "2024-02-21",
            "url_tdpse_detail": "https://pse.komdigi.go.id/tdpse-detail/17895",
            "website": "-"
        },
        {
            "id": "9cb1ac6a-d909-4a9f-836b-4e30778ebdc4",
            "nama_pse": "POSMA LAMBOY HUTABARAT",
            "nama_se": "RAJAPAY",
            "sektor": "Sektor Perdagangan, Sektor Teknologi Informasi dan Komunikasi",
            "tanggal_terbit": "2024-02-21",
            "url_tdpse_detail": "https://pse.komdigi.go.id/tdpse-detail/17890",
            "website": "rajapay.co.id"
        },
        {
            "id": "9cb1ac7e-a6ff-4f1c-8d6b-593c04f00155",
            "nama_pse": "HARTONO ISTANA TEKNOLOGI",
            "nama_se": "POLYTRON",
            "sektor": "Sektor Perdagangan",
            "tanggal_terbit": "2024-02-21",
            "url_tdpse_detail": "https://pse.komdigi.go.id/tdpse-detail/17891",
            "website": "polytron.co.id"
        },
        {
            "id": "9cb1ac55-e61d-44d0-9fa1-07885483243d",
            "nama_pse": "TEMPO DIGITAL NUSANTARA",
            "nama_se": "TEMPO SCAN HOME DELIVERY (TSHD)",
            "sektor": "Sektor Perdagangan",
            "tanggal_terbit": "2024-02-21",
            "url_tdpse_detail": "https://pse.komdigi.go.id/tdpse-detail/17894",
            "website": "temposcanhomedelivery.com"
        },
        {
            "id": "9cb1ac6a-df49-4612-9157-ee51011e8f81",
            "nama_pse": "SISTRACK SOLUSINDO",
            "nama_se": "HARAPAN.ID",
            "sektor": "Sektor Teknologi Informasi dan Komunikasi",
            "tanggal_terbit": "2024-02-21",
            "url_tdpse_detail": "https://pse.komdigi.go.id/tdpse-detail/17897",
            "website": "harapan.id"
        },
        {
            "id": "9cb1ac7e-b3e3-40be-a7e9-af07a721fae2",
            "nama_pse": "ENOCYA NURDIN MEDIKA",
            "nama_se": "SIMPEL",
            "sektor": "Sektor Kesehatan",
            "tanggal_terbit": "2024-02-21",
            "url_tdpse_detail": "https://pse.komdigi.go.id/tdpse-detail/17898",
            "website": "-"
        }
    ],
    "processingTimeMs": 1,
    "query": "",
    "totalHits": 19131,
    "hitsPerPage": 50,
    "page": 83,
    "totalPages": 383
}