{
    "hits": [
        {
            "id": "9cb1abb6-6deb-470a-96cf-52936fe77ed9",
            "nama_pse": "SAKKEN GROUP",
            "nama_se": "SAKKEN CARE",
            "sektor": "Sektor Perdagangan, Sektor Teknologi Informasi dan Komunikasi",
            "tanggal_terbit": "2022-07-19",
            "url_tdpse_detail": "https://pse.komdigi.go.id/tdpse-detail/6982",
            "website": "sakkencare.com"
        },
        {
            "id": "9cb1abe6-bb92-4575-a30f-bb5eae3ed305",
            "nama_pse": "I MADE OCY DARMA PUTRA",
            "nama_se": "DATENSHI",
            "sektor": "Sektor Teknologi Informasi dan Komunikasi",
            "tanggal_terbit": "2022-07-19",
            "url_tdpse_detail": "https://pse.komdigi.go.id/tdpse-detail/6983",
            "website": "datenshi.pw"
        },
        {
            "id": "9cb1abc1-9dc3-4561-be16-631a46005976",
            "nama_pse": "SUKSES INTERNET PROMOSI",
            "nama_se": "WEBSITE",
            "sektor": "Sektor Perdagangan",
            "tanggal_terbit": "2022-07-19",
            "url_tdpse_detail": "https://pse.komdigi.go.id/tdpse-detail/7015",
            "website": "theconversion.com"
        },
        {
            "id": "9cb1abb6-70a6-467e-bb08-f4d60cf425ef",
            "nama_pse": "ISTANA MOBIL SURABAYA INDAH",
            "nama_se": "OFFICIAL WEBSITE HONDA SURABAYA CENTER",
            "sektor": "Sektor Perdagangan",
            "tanggal_terbit": "2022-07-19",
            "url_tdpse_detail": "https://pse.komdigi.go.id/tdpse-detail/7004",
            "website": "hondasurabayacenter.com"
        },
        {
            "id": "9cb1abb6-7330-4327-9fa3-b817bf6a34b5",
            "nama_pse": "BANK PERKREDITAN RAKYAT UTOMO MANUNGGAL SEJAHTERA SUMSEL",
            "nama_se": "WEBSITE RESMI PT. BPR UTOMO MANUNGGAL SEJAHTERA SUMSEL",
            "sektor": "Sektor Keuangan",
            "tanggal_terbit": "2022-07-19",
            "url_tdpse_detail": "https://pse.komdigi.go.id/tdpse-detail/7002",
            "website": "utomobanksumsel.co.id"
        },
        {
            "id": "9cb1abe6-bfac-4148-b653-e2ef609e550c",
            "nama_pse": "PT Bank Perkreditan Rakyat Niji",
            "nama_se": "PT BPR NIJI",
            "sektor": "Sektor Keuangan",
            "tanggal_terbit": "2022-07-19",
            "url_tdpse_detail": "https://pse.komdigi.go.id/tdpse-detail/6985",
            "website": "bprniji.com"
        },
        {
            "id": "9cb1abe6-c412-4502-a018-293672bfef63",
            "nama_pse": "KODELOKUS SOAREKA INDONESIA",
            "nama_se": "SHALATKU",
            "sektor": "Sektor Teknologi Informasi dan Komunikasi",
            "tanggal_terbit": "2022-07-19",
            "url_tdpse_detail": "https://pse.komdigi.go.id/tdpse-detail/6986",
            "website": "kodelokus.com"
        },
        {
            "id": "9cb1abb6-7ea0-4cb6-8eb8-1c510f0c783e",
            "nama_pse": "BANK PEMBANGUNAN DAERAH RIAU KEPRI SYARIAH PERSERODA",
            "nama_se": "EMAIL CORPORATE BANK RIAU KEPRI",
            "sektor": "Sektor Keuangan",
            "tanggal_terbit": "2022-07-19",
            "url_tdpse_detail": "https://pse.komdigi.go.id/tdpse-detail/6996",
            "website": "mail.bankriaukepri.co.id"
        },
        {
            "id": "9cb1abc1-9fa4-4220-8982-d03b01886974",
            "nama_pse": "BANK PERKREDITAN RAKYAT UKABIMA GRAZIA",
            "nama_se": "WEBSITE BPR UKABIMA GRAZIA",
            "sektor": "Sektor Keuangan",
            "tanggal_terbit": "2022-07-19",
            "url_tdpse_detail": "https://pse.komdigi.go.id/tdpse-detail/6987",
            "website": "bprgrazia.com"
        },
        {
            "id": "9cb1abe6-c7e2-4884-815a-b2f9e6f6b9cf",
            "nama_pse": "MDTV MEDIA TECHNOLOGIES",
            "nama_se": "NETVISIMEDIA",
            "sektor": "Sektor Teknologi Informasi dan Komunikasi",
            "tanggal_terbit": "2022-07-19",
            "url_tdpse_detail": "https://pse.komdigi.go.id/tdpse-detail/6988",
            "website": "netvisimedia.co.id"
        },
        {
            "id": "9cb1abe6-cb8f-4000-8bfe-537f1b09a9ee",
            "nama_pse": "ASURANSI SINAR MAS",
            "nama_se": "APLIKASI ASURANSI SINAR MAS ONLINE",
            "sektor": "Sektor Keuangan",
            "tanggal_terbit": "2022-07-19",
            "url_tdpse_detail": "https://pse.komdigi.go.id/tdpse-detail/7010",
            "website": "sinarmas.co.id"
        },
        {
            "id": "9cb1abc1-a160-4f7d-ab31-f0c1aca074b4",
            "nama_pse": "BANK PERKREDITAN RAKYAT TALABUMI SUNGGAL",
            "nama_se": "BPR TALABUMI SUNGGAL",
            "sektor": "Sektor Keuangan",
            "tanggal_terbit": "2022-07-19",
            "url_tdpse_detail": "https://pse.komdigi.go.id/tdpse-detail/6989",
            "website": "bprtalabumisunggal.com"
        },
        {
            "id": "9cb1abc1-a33a-40ac-a1c2-46198ac8912b",
            "nama_pse": "BANK PERKREDITAN RAKYAT BADAN KREDIT KECAMATAN JAWA TENGAH PERSERODA",
            "nama_se": "IBS CORE BANKING SYSTEM",
            "sektor": "Sektor Keuangan",
            "tanggal_terbit": "2022-07-19",
            "url_tdpse_detail": "https://pse.komdigi.go.id/tdpse-detail/6994",
            "website": "-"
        },
        {
            "id": "9cb1abc1-a567-4d5a-8d0e-a52650e3d40e",
            "nama_pse": "INSIGHT INOVASI INDONESIA",
            "nama_se": "AYOINSIGHT",
            "sektor": "Sektor Keuangan, Sektor Teknologi Informasi dan Komunikasi",
            "tanggal_terbit": "2022-07-19",
            "url_tdpse_detail": "https://pse.komdigi.go.id/tdpse-detail/6990",
            "website": "ayoinsights.id"
        },
        {
            "id": "9cb1abc1-a7d9-4fff-837d-868f5ba39b23",
            "nama_pse": "JASA BERKARYA SUKSES SEJAHTERA",
            "nama_se": "WEBSITE KOPERASI JASA BERKARYA SUKSES SEJAHTERA",
            "sektor": "Sektor Keuangan",
            "tanggal_terbit": "2022-07-19",
            "url_tdpse_detail": "https://pse.komdigi.go.id/tdpse-detail/6992",
            "website": "koperasiberkaryasukses.com"
        },
        {
            "id": "9cb1abb6-8cb5-44ea-a8ba-5ae7e29e3b00",
            "nama_pse": "BANK RAYA INDONESIA",
            "nama_se": "WEBSITE PARTNERSHIP PINANG PERFORMA",
            "sektor": "Sektor Keuangan",
            "tanggal_terbit": "2022-07-19",
            "url_tdpse_detail": "https://pse.komdigi.go.id/tdpse-detail/6991",
            "website": "partnership.pinang-performa.bankraya.co.id"
        },
        {
            "id": "9cb1abb6-8fc4-4138-abad-3ce105882ad8",
            "nama_pse": "BIMASAKTI MULTI SINERGI",
            "nama_se": "SIPIKA",
            "sektor": "Sektor Perdagangan, Sektor Keuangan",
            "tanggal_terbit": "2022-07-19",
            "url_tdpse_detail": "https://pse.komdigi.go.id/tdpse-detail/6993",
            "website": "-"
        },
        {
            "id": "9cb1abb6-9498-4e51-baf4-c8f04a3246b2",
            "nama_pse": "BANK PERKREDITAN RAKYAT MODERN EXPRESS SULTRA",
            "nama_se": "WEBSITE PERUSAHAAN BPR MODERN EXPRESS SULTRA",
            "sektor": "Sektor Keuangan",
            "tanggal_terbit": "2022-07-19",
            "url_tdpse_detail": "https://pse.komdigi.go.id/tdpse-detail/6995",
            "website": "bprmodex-sultra.com"
        },
        {
            "id": "9cb1abb6-9746-4ad7-873d-c194cb0286a4",
            "nama_pse": "BANK PERKREDITAN RAKYAT PANDE ARTHA DEWATA",
            "nama_se": "WWW.BPRPANDE.COM",
            "sektor": "Sektor Keuangan",
            "tanggal_terbit": "2022-07-19",
            "url_tdpse_detail": "https://pse.komdigi.go.id/tdpse-detail/6998",
            "website": "bprpande.com"
        },
        {
            "id": "9cb1abc1-a9ca-4b4a-8a84-4056f86d4906",
            "nama_pse": "BANK PEMBIAYAAN RAKYAT SYARIAH VITKA CENTRAL",
            "nama_se": "PT BPR SYARIAH VITKA CENTRAL",
            "sektor": "Sektor Keuangan",
            "tanggal_terbit": "2022-07-19",
            "url_tdpse_detail": "https://pse.komdigi.go.id/tdpse-detail/7000",
            "website": "bprsvitkacentral.com"
        },
        {
            "id": "9cb1abc1-abdb-4549-8dc0-c5f3e1fe3ecc",
            "nama_pse": "BANK PEREKONOMIAN RAKYAT ENGGAL MAKMUR ADI SANTOSO",
            "nama_se": "HTTP://ENGGALMAKMURADISANTOSO.COM/",
            "sektor": "Sektor Keuangan",
            "tanggal_terbit": "2022-07-19",
            "url_tdpse_detail": "https://pse.komdigi.go.id/tdpse-detail/7018",
            "website": "enggalmakmuradisantoso.com"
        },
        {
            "id": "9cb1abc1-adaa-4ce0-b326-ecf54e5438a3",
            "nama_pse": "INTI CAKRAWALA CITRA",
            "nama_se": "MITRA INDOGROSIR",
            "sektor": "Sektor Perdagangan",
            "tanggal_terbit": "2022-07-19",
            "url_tdpse_detail": "https://pse.komdigi.go.id/tdpse-detail/7001",
            "website": "mitraindogrosir.co.id"
        },
        {
            "id": "9cb1abb6-9934-4ed0-bff2-193f6b9602f0",
            "nama_pse": "ASURANSI SIMAS INSURTECH",
            "nama_se": "WEBSITE ASURANSI SIMAS INSURTECH",
            "sektor": "Sektor Keuangan",
            "tanggal_terbit": "2022-07-19",
            "url_tdpse_detail": "https://pse.komdigi.go.id/tdpse-detail/7012",
            "website": "simasinsurtech.com"
        },
        {
            "id": "9cb1abc1-afc5-43e4-b4d7-82b37a76bcae",
            "nama_pse": "BANK PERKREDITAN RAKYAT RATNA ARTHA PUSAKA",
            "nama_se": "WEBSITE BPR RATNA ARTHA PUSAKA",
            "sektor": "Sektor Keuangan",
            "tanggal_terbit": "2022-07-19",
            "url_tdpse_detail": "https://pse.komdigi.go.id/tdpse-detail/7003",
            "website": "bprratna.com"
        },
        {
            "id": "9cb1abc1-b211-4bf4-85a9-0b5d1656fb17",
            "nama_pse": "BIMASAKTI MULTI SINERGI",
            "nama_se": "UTTAMAPAY",
            "sektor": "Sektor Perdagangan, Sektor Keuangan",
            "tanggal_terbit": "2022-07-19",
            "url_tdpse_detail": "https://pse.komdigi.go.id/tdpse-detail/7005",
            "website": "-"
        },
        {
            "id": "9cb1abb6-9b1d-47f1-827e-0a9d30e3ef58",
            "nama_pse": "BANK PERKREDITAN RAKYAT UKABIMA GRAZIA",
            "nama_se": "WEB BPR UKABIMA GRAZIA",
            "sektor": "Sektor Keuangan",
            "tanggal_terbit": "2022-07-19",
            "url_tdpse_detail": "https://pse.komdigi.go.id/tdpse-detail/7006",
            "website": "ukabima-grazia.co.id"
        },
        {
            "id": "9cb1abc1-b40d-4f62-849f-11dd7f90cc89",
            "nama_pse": "BANK CENTRAL ASIA",
            "nama_se": "EBRANCH BCA (WEB)",
            "sektor": "Sektor Keuangan",
            "tanggal_terbit": "2022-07-19",
            "url_tdpse_detail": "https://pse.komdigi.go.id/tdpse-detail/7032",
            "website": "ebranch.bca.co.id"
        },
        {
            "id": "9cb1abc1-b610-4077-97a6-7df721522e5e",
            "nama_pse": "BANK RAYA INDONESIA",
            "nama_se": "WEBSITE DAN API PINANG PERFORMA",
            "sektor": "Sektor Keuangan",
            "tanggal_terbit": "2022-07-19",
            "url_tdpse_detail": "https://pse.komdigi.go.id/tdpse-detail/7009",
            "website": "pinang-performa.bankraya.co.id"
        },
        {
            "id": "9cb1abe6-cf08-4c2d-9575-9b8e76a3e888",
            "nama_pse": "BANK CENTRAL ASIA",
            "nama_se": "ACS 3DS DEBIT SECONDARY DR",
            "sektor": "Sektor Keuangan",
            "tanggal_terbit": "2022-07-19",
            "url_tdpse_detail": "https://pse.komdigi.go.id/tdpse-detail/7033",
            "website": "3dsecuredebit2.klikbca.com"
        },
        {
            "id": "9cb1abc1-bb8c-4179-afbf-a89ff3ad6c95",
            "nama_pse": "BANK PEREKONOMIAN RAKYAT LESTARI BALI",
            "nama_se": "LESTARINET",
            "sektor": "Sektor Keuangan",
            "tanggal_terbit": "2022-07-19",
            "url_tdpse_detail": "https://pse.komdigi.go.id/tdpse-detail/7011",
            "website": "lestarinet.bprlestari.com"
        },
        {
            "id": "9cb1abc1-bddd-49aa-bee8-ed9572a62dea",
            "nama_pse": "BANK CENTRAL ASIA",
            "nama_se": "EBRANCH BCA (WEB) - 2",
            "sektor": "Sektor Keuangan",
            "tanggal_terbit": "2022-07-19",
            "url_tdpse_detail": "https://pse.komdigi.go.id/tdpse-detail/7035",
            "website": "ebranch.bca.co.id"
        },
        {
            "id": "9cb1abb6-9cfc-47bf-a704-c69dc5340b28",
            "nama_pse": "NUSANTARA BONAPASOGIT",
            "nama_se": "SAVING MOBILE APLICATION",
            "sektor": "Sektor Keuangan",
            "tanggal_terbit": "2022-07-19",
            "url_tdpse_detail": "https://pse.komdigi.go.id/tdpse-detail/7013",
            "website": "-"
        },
        {
            "id": "9cb1abc1-c079-4af7-9578-deadd01f5db7",
            "nama_pse": "BANK PERKREDITAN RAKYAT MODERN EXPRESS PAPUA BARAT",
            "nama_se": "DIGITAL MODERN (DIGIMOD) E-COLLECTION-BPR MODERN EXPRESS PAPUA BARAT",
            "sektor": "Sektor Keuangan",
            "tanggal_terbit": "2022-07-19",
            "url_tdpse_detail": "https://pse.komdigi.go.id/tdpse-detail/7014",
            "website": "-"
        },
        {
            "id": "9cb1abb6-9ed0-471c-bd32-f3f8f404520a",
            "nama_pse": "YAKIN BERTUMBUH SEKURITAS",
            "nama_se": "JOIN MOBILE 2 (ANDROID, IPAD OS, IPHONE OS)",
            "sektor": "Sektor Keuangan",
            "tanggal_terbit": "2022-07-19",
            "url_tdpse_detail": "https://pse.komdigi.go.id/tdpse-detail/7023",
            "website": "-"
        },
        {
            "id": "9cb1abc1-c407-40fc-a17f-c5e984300fd1",
            "nama_pse": "LEGAL NUSANTARA INDONESIA",
            "nama_se": "LENUS.ID",
            "sektor": "Sektor Perdagangan",
            "tanggal_terbit": "2022-07-19",
            "url_tdpse_detail": "https://pse.komdigi.go.id/tdpse-detail/7016",
            "website": "LENUS.ID"
        },
        {
            "id": "9cb1abb6-a2b2-4388-b3f2-71b2566ae680",
            "nama_pse": "BANK CENTRAL ASIA",
            "nama_se": "EBRANCH BCA (WEB) - 3",
            "sektor": "Sektor Keuangan",
            "tanggal_terbit": "2022-07-19",
            "url_tdpse_detail": "https://pse.komdigi.go.id/tdpse-detail/7036",
            "website": "ebranch.bca.co.id"
        },
        {
            "id": "9cb1abc1-c602-409f-997f-6778fc3cf85d",
            "nama_pse": "BIMASAKTI MULTI SINERGI",
            "nama_se": "SHARIAPAY",
            "sektor": "Sektor Perdagangan, Sektor Keuangan",
            "tanggal_terbit": "2022-07-19",
            "url_tdpse_detail": "https://pse.komdigi.go.id/tdpse-detail/7017",
            "website": "-"
        },
        {
            "id": "9cb1abe6-d61e-410f-9ee0-64d86f933a31",
            "nama_pse": "XL AXIATA",
            "nama_se": "SISTERNET",
            "sektor": "Sektor Teknologi Informasi dan Komunikasi",
            "tanggal_terbit": "2022-07-19",
            "url_tdpse_detail": "https://pse.komdigi.go.id/tdpse-detail/7020",
            "website": "sisternet.co.id"
        },
        {
            "id": "9cb1abc1-c7d9-4cb3-84fa-2ec8cd2bafb7",
            "nama_pse": "SINERGI KINAN MEDIKA",
            "nama_se": "SISTEM PENDAFTARAN MYLAB TEBET",
            "sektor": "Sektor Kesehatan",
            "tanggal_terbit": "2022-07-19",
            "url_tdpse_detail": "https://pse.komdigi.go.id/tdpse-detail/7021",
            "website": "mylab.co.id"
        },
        {
            "id": "9cb1abb6-a478-4f56-8e92-66e758017239",
            "nama_pse": "KARYA RITEL NUSANTARA",
            "nama_se": "PAYPOIN",
            "sektor": "Sektor Perdagangan",
            "tanggal_terbit": "2022-07-19",
            "url_tdpse_detail": "https://pse.komdigi.go.id/tdpse-detail/7022",
            "website": "paypoin.co.id"
        },
        {
            "id": "9cb1abb6-a669-4984-9906-6281fc1e4a25",
            "nama_pse": "KODELOKUS SOAREKA INDONESIA",
            "nama_se": "KAMUSKU",
            "sektor": "Sektor Teknologi Informasi dan Komunikasi",
            "tanggal_terbit": "2022-07-19",
            "url_tdpse_detail": "https://pse.komdigi.go.id/tdpse-detail/7025",
            "website": "kodelokus.com"
        },
        {
            "id": "9cb1abb6-a8e1-4651-858f-106fcedaf082",
            "nama_pse": "BIMASAKTI MULTI SINERGI",
            "nama_se": "MEGA PAY",
            "sektor": "Sektor Perdagangan, Sektor Keuangan",
            "tanggal_terbit": "2022-07-19",
            "url_tdpse_detail": "https://pse.komdigi.go.id/tdpse-detail/7024",
            "website": "-"
        },
        {
            "id": "9cb1abb6-aaa8-41a7-8324-bd9307584164",
            "nama_pse": "BANK RAYA INDONESIA",
            "nama_se": "API PINANG RITEL",
            "sektor": "Sektor Keuangan",
            "tanggal_terbit": "2022-07-19",
            "url_tdpse_detail": "https://pse.komdigi.go.id/tdpse-detail/7026",
            "website": "api.pinang-ritel.bankraya.co.id"
        },
        {
            "id": "9cb1abe6-dd93-4875-9a60-0c4ab6f5a4aa",
            "nama_pse": "RUMAHWEB INDONESIA",
            "nama_se": "RUMAHWEB",
            "sektor": "Sektor Teknologi Informasi dan Komunikasi",
            "tanggal_terbit": "2022-07-19",
            "url_tdpse_detail": "https://pse.komdigi.go.id/tdpse-detail/7028",
            "website": "rumahweb.com"
        },
        {
            "id": "9cb1abc1-ca91-45e5-97a8-7dd56500a0f0",
            "nama_pse": "INTI CAKRAWALA CITRA",
            "nama_se": "TOKO MANDIRI INDOGROSIR",
            "sektor": "Sektor Perdagangan",
            "tanggal_terbit": "2022-07-19",
            "url_tdpse_detail": "https://pse.komdigi.go.id/tdpse-detail/7027",
            "website": "-"
        },
        {
            "id": "9cb1abe6-e479-4813-98da-8fdde076713f",
            "nama_pse": "BANK PEREKONOMIAN RAKYAT TRIHASTA PRASODJO",
            "nama_se": "WEBSITE BPR TRIHASTA PRASODJO",
            "sektor": "Sektor Keuangan",
            "tanggal_terbit": "2022-07-19",
            "url_tdpse_detail": "https://pse.komdigi.go.id/tdpse-detail/7030",
            "website": "bprtrihasta.co.id"
        },
        {
            "id": "9cb1abe6-e994-4426-a147-8d8d4276d76e",
            "nama_pse": "BANK PERKREDITAN RAKYAT MITRA PARAHYANGAN",
            "nama_se": "BPR MITRA PARAHYANGAN",
            "sektor": "Sektor Keuangan",
            "tanggal_terbit": "2022-07-19",
            "url_tdpse_detail": "https://pse.komdigi.go.id/tdpse-detail/7031",
            "website": "-"
        },
        {
            "id": "9cb1abe6-eea6-453f-b2a2-30f6b919f1a9",
            "nama_pse": "APRILLIA DWI DAYANI",
            "nama_se": "BUMIGORASHOP",
            "sektor": "Sektor Perdagangan",
            "tanggal_terbit": "2022-07-19",
            "url_tdpse_detail": "https://pse.komdigi.go.id/tdpse-detail/7047",
            "website": "bumigorashop.com"
        },
        {
            "id": "9cb1abb6-aecd-4ae0-9ff1-2793f897ed28",
            "nama_pse": "BUSINESS ECLOUD INDONESIA INFORMATION TECHNOLOGY",
            "nama_se": "WEB ELECTRONIC DATA INTERCHANGE",
            "sektor": "Sektor Teknologi Informasi dan Komunikasi",
            "tanggal_terbit": "2022-07-19",
            "url_tdpse_detail": "https://pse.komdigi.go.id/tdpse-detail/7034",
            "website": "-"
        },
        {
            "id": "9cb1abc1-ccaf-4ace-bc53-99d6abb93028",
            "nama_pse": "BANK PERKREDITAN RAKYAT BUMI BANDUNG KENCANA",
            "nama_se": "WEBSITE PT. BPR BUMI BANDUNG KENCANA",
            "sektor": "Sektor Keuangan",
            "tanggal_terbit": "2022-07-19",
            "url_tdpse_detail": "https://pse.komdigi.go.id/tdpse-detail/7037",
            "website": "bprbbk.com"
        }
    ],
    "processingTimeMs": 5,
    "query": "",
    "totalHits": 19121,
    "hitsPerPage": 50,
    "page": 261,
    "totalPages": 383
}