{
    "hits": [
        {
            "id": "9cd5a060-a837-403e-ae00-1631c60138c3",
            "nama_pse": "KASNARIA BR PERANGIN-ANGIN",
            "nama_se": "LAYANAN INTERNET LOKAL",
            "sektor": "Sektor Teknologi Informasi dan Komunikasi",
            "tanggal_terbit": "2024-08-23",
            "url_tdpse_detail": "https://pse.komdigi.go.id/tdpse-detail/20092",
            "website": "-"
        },
        {
            "id": "9cd554d2-59fe-45e8-92d9-671edda6913c",
            "nama_pse": "PRO INT DINAMIKA",
            "nama_se": "PRO-INT PAYROLL OUTSOURCING",
            "sektor": "Sektor Teknologi Informasi dan Komunikasi",
            "tanggal_terbit": "2024-08-23",
            "url_tdpse_detail": "https://pse.komdigi.go.id/tdpse-detail/20087",
            "website": "payouts.pro-int.com"
        },
        {
            "id": "9cd5732c-ae2d-4c1a-9552-653ee7b82483",
            "nama_pse": "INFORMASI DIGITAL MANDIRI",
            "nama_se": "JANDOLE",
            "sektor": "Sektor Teknologi Informasi dan Komunikasi",
            "tanggal_terbit": "2024-08-23",
            "url_tdpse_detail": "https://pse.komdigi.go.id/tdpse-detail/20090",
            "website": "-"
        },
        {
            "id": "9cd5392a-0189-486e-8be8-092c9bea8d4a",
            "nama_pse": "PRO INT DINAMIKA",
            "nama_se": "PRO-INT BUSINESS PROCESS EXCELLENCE",
            "sektor": "Sektor Teknologi Informasi dan Komunikasi",
            "tanggal_terbit": "2024-08-23",
            "url_tdpse_detail": "https://pse.komdigi.go.id/tdpse-detail/20086",
            "website": "BPE.pro-int.com"
        },
        {
            "id": "9cd57269-eb52-4c8e-b137-2ac39b8d9d16",
            "nama_pse": "PANEN KAPITAL BERJANGKA",
            "nama_se": "PSE PANEN KAPITAL BERJANGKA",
            "sektor": "Sektor Perdagangan",
            "tanggal_terbit": "2024-08-23",
            "url_tdpse_detail": "https://pse.komdigi.go.id/tdpse-detail/20089",
            "website": "-"
        },
        {
            "id": "9cb3bdde-d4e7-42e5-ad91-0793f03094be",
            "nama_pse": "ERAFONE ARTHA RETAILINDO",
            "nama_se": "www.erafone.com",
            "sektor": "Sektor Perdagangan",
            "tanggal_terbit": "2024-08-23",
            "url_tdpse_detail": "https://pse.komdigi.go.id/tdpse-detail/20088",
            "website": "erafone.com"
        },
        {
            "id": "9cd51145-786b-4493-826c-ac6c3a323bc5",
            "nama_pse": "INDITEK GLOBAL MEDIKA",
            "nama_se": "MENTORE.ID",
            "sektor": "Sektor Kesehatan, Sektor Teknologi Informasi dan Komunikasi",
            "tanggal_terbit": "2024-08-23",
            "url_tdpse_detail": "https://pse.komdigi.go.id/tdpse-detail/20083",
            "website": "-"
        },
        {
            "id": "9cd53347-a8f0-455b-bc68-189aa93641d3",
            "nama_pse": "PRO INT DINAMIKA",
            "nama_se": "PRO-INT PROJECT MANAGEMENT",
            "sektor": "Sektor Teknologi Informasi dan Komunikasi",
            "tanggal_terbit": "2024-08-23",
            "url_tdpse_detail": "https://pse.komdigi.go.id/tdpse-detail/20085",
            "website": "project.pro-int.com"
        },
        {
            "id": "9cd35802-c789-4db6-a72c-b1fa21ee25bd",
            "nama_pse": "TEKNOBIT SOLUSINDO",
            "nama_se": "TEKNOBIT",
            "sektor": "Sektor Kesehatan, Sektor Teknologi Informasi dan Komunikasi",
            "tanggal_terbit": "2024-08-22",
            "url_tdpse_detail": "https://pse.komdigi.go.id/tdpse-detail/20069",
            "website": "-"
        },
        {
            "id": "9cd2f96d-16b5-4899-86ba-e2cfaf8c2bd2",
            "nama_pse": "ABIYASA SINERGI SEJAHTERA",
            "nama_se": ": CV ABIYASA SINERGI SEJAHTERA",
            "sektor": "Sektor Perdagangan",
            "tanggal_terbit": "2024-08-22",
            "url_tdpse_detail": "https://pse.komdigi.go.id/tdpse-detail/20063",
            "website": "-"
        },
        {
            "id": "9cd20dfb-8da7-40dc-9199-0b57bf45aafe",
            "nama_pse": "JAWA NUSANTARA ORGANISATION",
            "nama_se": "JNONEWS.COM",
            "sektor": "Sektor Teknologi Informasi dan Komunikasi",
            "tanggal_terbit": "2024-08-22",
            "url_tdpse_detail": "https://pse.komdigi.go.id/tdpse-detail/20061",
            "website": "jnonews.com"
        },
        {
            "id": "9cd308e5-eb59-453a-8917-728d08c2d799",
            "nama_pse": "PRIMUS INDONESIA",
            "nama_se": "WILMAR MARINE SOLUTIONS (WIMS)",
            "sektor": "Sektor Teknologi Informasi dan Komunikasi",
            "tanggal_terbit": "2024-08-22",
            "url_tdpse_detail": "https://pse.komdigi.go.id/tdpse-detail/20064",
            "website": "-"
        },
        {
            "id": "9cd35024-c553-40fd-a8f1-11f12d8e1963",
            "nama_pse": "NUSANTARA BUSINESS INDONESIA",
            "nama_se": "BISNISINDO",
            "sektor": "Sektor Perdagangan",
            "tanggal_terbit": "2024-08-22",
            "url_tdpse_detail": "https://pse.komdigi.go.id/tdpse-detail/20068",
            "website": "bisnisindo.co.id"
        },
        {
            "id": "9cd32c0b-acc1-4805-a77a-9f4a445f5912",
            "nama_pse": "GETS EXCHANGE JAYA",
            "nama_se": "GETS EXCHANGE",
            "sektor": "Sektor Perdagangan",
            "tanggal_terbit": "2024-08-22",
            "url_tdpse_detail": "https://pse.komdigi.go.id/tdpse-detail/20066",
            "website": "-"
        },
        {
            "id": "9cd36ad5-cfcc-48df-a50e-8985edc71737",
            "nama_pse": "MEDIA REDINA TIAR",
            "nama_se": "redynews.com",
            "sektor": "Sektor Teknologi Informasi dan Komunikasi",
            "tanggal_terbit": "2024-08-22",
            "url_tdpse_detail": "https://pse.komdigi.go.id/tdpse-detail/20071",
            "website": "-"
        },
        {
            "id": "9cd3716c-b084-49c6-af92-6d13085cda9b",
            "nama_pse": "BADAR INDONESIA GROUP",
            "nama_se": "badar.co.id",
            "sektor": "Sektor Teknologi Informasi dan Komunikasi",
            "tanggal_terbit": "2024-08-22",
            "url_tdpse_detail": "https://pse.komdigi.go.id/tdpse-detail/20072",
            "website": "-"
        },
        {
            "id": "9cd38792-5778-4a9d-b0ff-56cdcfad0511",
            "nama_pse": "SINERGY TEKNOLOGI PBMTI",
            "nama_se": "ISLAMIC MICROFINANCE APPLICATION (IMFA)",
            "sektor": "Sektor Teknologi Informasi dan Komunikasi",
            "tanggal_terbit": "2024-08-22",
            "url_tdpse_detail": "https://pse.komdigi.go.id/tdpse-detail/20075",
            "website": "-"
        },
        {
            "id": "9cd37a99-887b-48ca-bdab-504963563c3f",
            "nama_pse": "META INDO PRATAMA",
            "nama_se": "liputanpontianak.com",
            "sektor": "Sektor Teknologi Informasi dan Komunikasi",
            "tanggal_terbit": "2024-08-22",
            "url_tdpse_detail": "https://pse.komdigi.go.id/tdpse-detail/20073",
            "website": "-"
        },
        {
            "id": "9cd37c6a-f893-4f49-b47c-ef4b9c007b55",
            "nama_pse": "CHRONOS UNIVERSAL",
            "nama_se": "UNIVERSAL IOT",
            "sektor": "Sektor Teknologi Informasi dan Komunikasi",
            "tanggal_terbit": "2024-08-22",
            "url_tdpse_detail": "https://pse.komdigi.go.id/tdpse-detail/20074",
            "website": "-"
        },
        {
            "id": "9cd399a9-d998-4440-b417-d7b09e83d27e",
            "nama_pse": "HERLENS TEKNO MEDIKA",
            "nama_se": "HERLENS",
            "sektor": "Sektor Kesehatan",
            "tanggal_terbit": "2024-08-22",
            "url_tdpse_detail": "https://pse.komdigi.go.id/tdpse-detail/20076",
            "website": "-"
        },
        {
            "id": "9cd3a1e1-a9c2-4bd9-b082-2f0bc7ebd49f",
            "nama_pse": "PRO INT DINAMIKA",
            "nama_se": "PRO-INT HRIS",
            "sektor": "Sektor Teknologi Informasi dan Komunikasi",
            "tanggal_terbit": "2024-08-22",
            "url_tdpse_detail": "https://pse.komdigi.go.id/tdpse-detail/20077",
            "website": "hris.pro-int.com"
        },
        {
            "id": "9cd3c07a-e183-41b3-aa40-cbdbfbd8bdea",
            "nama_pse": "HARIAN INDONESIA POS",
            "nama_se": "harianindonesiapos.com",
            "sektor": "Sektor Teknologi Informasi dan Komunikasi",
            "tanggal_terbit": "2024-08-22",
            "url_tdpse_detail": "https://pse.komdigi.go.id/tdpse-detail/20078",
            "website": "-"
        },
        {
            "id": "9cd21d44-c4dc-4ae6-82ad-c203f7cc2c73",
            "nama_pse": "KAZE PUBLISHING INDONESIA",
            "nama_se": "PT KAZE PUBLISHING INDONESIA",
            "sektor": "Sektor Perdagangan, Sektor Teknologi Informasi dan Komunikasi",
            "tanggal_terbit": "2024-08-22",
            "url_tdpse_detail": "https://pse.komdigi.go.id/tdpse-detail/20062",
            "website": "kazepub.com"
        },
        {
            "id": "9cd34e27-5a6c-41e9-bc47-3b069ee1cff0",
            "nama_pse": "MEDIA BERKAH OFFICIAL",
            "nama_se": "MEDIA BERKAH OFFICIAL",
            "sektor": "Sektor Perdagangan, Sektor Teknologi Informasi dan Komunikasi",
            "tanggal_terbit": "2024-08-22",
            "url_tdpse_detail": "https://pse.komdigi.go.id/tdpse-detail/20067",
            "website": "-"
        },
        {
            "id": "9cd30c9e-345d-4c53-9a3f-67eca730cc05",
            "nama_pse": "LIVEWELL INDONESIA SEHAT",
            "nama_se": "LIVEWELL",
            "sektor": "Sektor Kesehatan",
            "tanggal_terbit": "2024-08-22",
            "url_tdpse_detail": "https://pse.komdigi.go.id/tdpse-detail/20065",
            "website": "livewellindo.com"
        },
        {
            "id": "9cd35802-6d1c-4d68-932c-ed0a31511b71",
            "nama_pse": "KUTA TUNAS VISUAL",
            "nama_se": "PANCAR DEWATA",
            "sektor": "Sektor Teknologi Informasi dan Komunikasi",
            "tanggal_terbit": "2024-08-22",
            "url_tdpse_detail": "https://pse.komdigi.go.id/tdpse-detail/20070",
            "website": "kutatv.com"
        },
        {
            "id": "9cd120ce-ff72-41b7-a6ad-4cf2913ac84d",
            "nama_pse": "KHANSA MUKTI RAHAYU",
            "nama_se": "PT KHANSA MUKTI RAHAYU",
            "sektor": "Sektor Perdagangan",
            "tanggal_terbit": "2024-08-21",
            "url_tdpse_detail": "https://pse.komdigi.go.id/tdpse-detail/20044",
            "website": "gallerykhasa.com"
        },
        {
            "id": "9cd1ed76-2ef6-4b3a-b6a4-12fe2502ffe6",
            "nama_pse": "TBN SOLUTION NARATETAMA",
            "nama_se": "TBN SOLUTION - URUS PERIZINAN LEBIH MUDAH",
            "sektor": "Sektor Perdagangan",
            "tanggal_terbit": "2024-08-21",
            "url_tdpse_detail": "https://pse.komdigi.go.id/tdpse-detail/20060",
            "website": "tbnsolution.id"
        },
        {
            "id": "9cd158f7-774b-444f-83b6-0be5d20634d6",
            "nama_pse": "MULTI PEMBAYARAN TEKNOLOGI",
            "nama_se": "MPTK",
            "sektor": "Sektor Teknologi Informasi dan Komunikasi",
            "tanggal_terbit": "2024-08-21",
            "url_tdpse_detail": "https://pse.komdigi.go.id/tdpse-detail/20054",
            "website": "multipemtech.com"
        },
        {
            "id": "9cd0db53-4c31-415b-922a-52869eb9d401",
            "nama_pse": "BOM MEDIA INDONESIA",
            "nama_se": "TEMAN LIVE",
            "sektor": "Sektor Teknologi Informasi dan Komunikasi",
            "tanggal_terbit": "2024-08-21",
            "url_tdpse_detail": "https://pse.komdigi.go.id/tdpse-detail/20040",
            "website": "bom.temanlive.com"
        },
        {
            "id": "9cd13932-4ca7-481e-814e-8c2ace2824f4",
            "nama_pse": "ECOMMERCE TECHNOLOGIES INDONESIA",
            "nama_se": "GLOBAL-E CHECKOUT",
            "sektor": "Sektor Perdagangan",
            "tanggal_terbit": "2024-08-21",
            "url_tdpse_detail": "https://pse.komdigi.go.id/tdpse-detail/20048",
            "website": "web.global-e.com"
        },
        {
            "id": "9cd00e7c-43fe-4082-af39-5879b7334b64",
            "nama_pse": "FIVE GEN CREATIVE",
            "nama_se": "TOKENTRENDING",
            "sektor": "Sektor Teknologi Informasi dan Komunikasi",
            "tanggal_terbit": "2024-08-21",
            "url_tdpse_detail": "https://pse.komdigi.go.id/tdpse-detail/20037",
            "website": "tokentrending.com"
        },
        {
            "id": "9cd01340-2130-468c-bc00-f13eb9cb75e3",
            "nama_pse": "RAHMAD HIDAYAT. I",
            "nama_se": "PT. FREQUENCY RIKA JAYA",
            "sektor": "Sektor Teknologi Informasi dan Komunikasi",
            "tanggal_terbit": "2024-08-21",
            "url_tdpse_detail": "https://pse.komdigi.go.id/tdpse-detail/20038",
            "website": "-"
        },
        {
            "id": "9cd0f55e-e300-4d81-984d-019f1c45cd78",
            "nama_pse": "GEBRA KREATIVA GLOBAL",
            "nama_se": "ORDERIA",
            "sektor": "Sektor Perdagangan",
            "tanggal_terbit": "2024-08-21",
            "url_tdpse_detail": "https://pse.komdigi.go.id/tdpse-detail/20042",
            "website": "orderia.id"
        },
        {
            "id": "9cd10bbd-e1fd-4979-aa43-b1a62f023d8e",
            "nama_pse": "ZEMEDO TEKNOLOGI",
            "nama_se": "SIAPOTEK",
            "sektor": "Sektor Kesehatan",
            "tanggal_terbit": "2024-08-21",
            "url_tdpse_detail": "https://pse.komdigi.go.id/tdpse-detail/20043",
            "website": "siapotek.com"
        },
        {
            "id": "9cd1364a-5ba5-408c-a241-9250d43755b7",
            "nama_pse": "TRI MEDIKA TUNAS MITRA",
            "nama_se": "APOTEK HEKA",
            "sektor": "Sektor Perdagangan, Sektor Kesehatan",
            "tanggal_terbit": "2024-08-21",
            "url_tdpse_detail": "https://pse.komdigi.go.id/tdpse-detail/20047",
            "website": "apotekheka.com"
        },
        {
            "id": "9cd12ad2-3b9f-4254-8791-a1199257f213",
            "nama_pse": "KALA ADHYA SOLUSI",
            "nama_se": "KALA TRADE",
            "sektor": "Sektor Perdagangan",
            "tanggal_terbit": "2024-08-21",
            "url_tdpse_detail": "https://pse.komdigi.go.id/tdpse-detail/20045",
            "website": "kalatrade.com"
        },
        {
            "id": "9cd15557-d850-49a7-b012-30a90396c77c",
            "nama_pse": "ALUNAN KARYA PERDANA",
            "nama_se": "alunan karya perdana",
            "sektor": "Sektor Perdagangan",
            "tanggal_terbit": "2024-08-21",
            "url_tdpse_detail": "https://pse.komdigi.go.id/tdpse-detail/20052",
            "website": "alunankarya.com"
        },
        {
            "id": "9cd13def-6383-4088-8ea7-434c4edd637f",
            "nama_pse": "FIRANTI JELIA LANTU",
            "nama_se": "AYOMAJU",
            "sektor": "Sektor Perdagangan",
            "tanggal_terbit": "2024-08-21",
            "url_tdpse_detail": "https://pse.komdigi.go.id/tdpse-detail/20049",
            "website": "-"
        },
        {
            "id": "9cd145b5-1d9e-48e4-95bc-9eb976c37d8d",
            "nama_pse": "INTER SISTEM ASIA",
            "nama_se": "SUNNY SYSTEM",
            "sektor": "Sektor Kesehatan",
            "tanggal_terbit": "2024-08-21",
            "url_tdpse_detail": "https://pse.komdigi.go.id/tdpse-detail/20050",
            "website": "i-systemasia.com"
        },
        {
            "id": "9cd15127-ec75-4ad5-bf95-0c7cd45eb9b2",
            "nama_pse": "CASHCARD GROUP INDONESIA",
            "nama_se": "cashcard",
            "sektor": "Sektor Perdagangan",
            "tanggal_terbit": "2024-08-21",
            "url_tdpse_detail": "https://pse.komdigi.go.id/tdpse-detail/20051",
            "website": "cashcard.id"
        },
        {
            "id": "9cd15770-0614-4f20-906d-ba103988b937",
            "nama_pse": "DUA SURYA DINAMIKA",
            "nama_se": "PASFLIX",
            "sektor": "Sektor Teknologi Informasi dan Komunikasi",
            "tanggal_terbit": "2024-08-21",
            "url_tdpse_detail": "https://pse.komdigi.go.id/tdpse-detail/20053",
            "website": "-"
        },
        {
            "id": "9cd16c1d-73f6-420d-adb2-492ea3975a94",
            "nama_pse": "OJOLALI HORAS INDONESIA",
            "nama_se": "ojolaliyo",
            "sektor": "Sektor Transportasi",
            "tanggal_terbit": "2024-08-21",
            "url_tdpse_detail": "https://pse.komdigi.go.id/tdpse-detail/20055",
            "website": "-"
        },
        {
            "id": "9cd186ba-ee42-45b8-88b0-3f10b5e0dd9d",
            "nama_pse": "ANUGERAH MEGAH KENCANA",
            "nama_se": "PT ANUGERAH MEGAH KENCANA",
            "sektor": "Sektor Perdagangan",
            "tanggal_terbit": "2024-08-21",
            "url_tdpse_detail": "https://pse.komdigi.go.id/tdpse-detail/20058",
            "website": "ptanugerahmegahkencana.com"
        },
        {
            "id": "9cd171fa-47ca-456e-99a8-73554f06b2cc",
            "nama_pse": "SUKMA GROUP INDONESIA",
            "nama_se": "SGI CELL",
            "sektor": "Sektor Perdagangan, Sektor Teknologi Informasi dan Komunikasi",
            "tanggal_terbit": "2024-08-21",
            "url_tdpse_detail": "https://pse.komdigi.go.id/tdpse-detail/20056",
            "website": "sgicell.com"
        },
        {
            "id": "9cd19952-5de5-4b61-bc25-844c4f78220d",
            "nama_pse": "SULISTIO",
            "nama_se": "AKSANITY",
            "sektor": "Sektor Teknologi Informasi dan Komunikasi",
            "tanggal_terbit": "2024-08-21",
            "url_tdpse_detail": "https://pse.komdigi.go.id/tdpse-detail/20059",
            "website": "aksanity.com"
        },
        {
            "id": "9cd12ca9-065e-45b1-9f35-478dba31c748",
            "nama_pse": "INSIS DATA SOLUSINDO",
            "nama_se": "INSIS",
            "sektor": "Sektor Teknologi Informasi dan Komunikasi",
            "tanggal_terbit": "2024-08-21",
            "url_tdpse_detail": "https://pse.komdigi.go.id/tdpse-detail/20046",
            "website": "-"
        },
        {
            "id": "9cd0e676-d09d-48d8-b579-8cd94ab25740",
            "nama_pse": "DATA ENKRIPSI INFORMASI TEKNOLOGI",
            "nama_se": "DEFEND IT360",
            "sektor": "Sektor Perdagangan, Sektor Teknologi Informasi dan Komunikasi",
            "tanggal_terbit": "2024-08-21",
            "url_tdpse_detail": "https://pse.komdigi.go.id/tdpse-detail/20041",
            "website": "defendit360.co.id"
        },
        {
            "id": "9cd17270-81f0-4936-8ada-0fd827fe2e27",
            "nama_pse": "SUKMA GROUP INDONESIA",
            "nama_se": "sukma convert",
            "sektor": "Sektor Perdagangan, Sektor Teknologi Informasi dan Komunikasi",
            "tanggal_terbit": "2024-08-21",
            "url_tdpse_detail": "https://pse.komdigi.go.id/tdpse-detail/20057",
            "website": "sukmaconvert.com"
        },
        {
            "id": "9ccec88e-aea5-4c1d-bb2e-88b6603790c6",
            "nama_pse": "CV. LOKO",
            "nama_se": "CV. LOKO",
            "sektor": "Sektor Teknologi Informasi dan Komunikasi",
            "tanggal_terbit": "2024-08-20",
            "url_tdpse_detail": "https://pse.komdigi.go.id/tdpse-detail/20019",
            "website": "-"
        }
    ],
    "processingTimeMs": 1,
    "query": "",
    "totalHits": 19131,
    "hitsPerPage": 50,
    "page": 46,
    "totalPages": 383
}