{
    "hits": [
        {
            "id": "9cb1aba3-7f34-4044-8fd8-9e7ad38098fa",
            "nama_pse": "RULLY SIREY",
            "nama_se": "ZAHSY ALESHA DIGITAL \u0026 TECH",
            "sektor": "Sektor Teknologi Informasi dan Komunikasi",
            "tanggal_terbit": "2022-06-16",
            "url_tdpse_detail": "https://pse.komdigi.go.id/tdpse-detail/4570",
            "website": "-"
        },
        {
            "id": "9cb1aba3-8424-46b8-838b-4d81db813b4d",
            "nama_pse": "WILKA ENERGI SOLUSI",
            "nama_se": "WILKA STORE",
            "sektor": "Sektor Perdagangan, Sektor Energi dan Sumber Daya Mineral",
            "tanggal_terbit": "2022-06-16",
            "url_tdpse_detail": "https://pse.komdigi.go.id/tdpse-detail/4571",
            "website": "wilkastore.co.id"
        },
        {
            "id": "9cb1aba3-4b05-46ea-b33d-c765c7fe3896",
            "nama_pse": "EMA NUR LUTHFIYANI",
            "nama_se": "ALESHAPUTRISHOP",
            "sektor": "Sektor Perdagangan",
            "tanggal_terbit": "2022-06-15",
            "url_tdpse_detail": "https://pse.komdigi.go.id/tdpse-detail/4514",
            "website": "-"
        },
        {
            "id": "9cb1abad-6359-4c20-bdfd-a45e419338d2",
            "nama_pse": "PERUSAHAAN PERSEROAN (PERSERO) PT. BANK RAKYAT INDONESIA",
            "nama_se": "BRISTORE",
            "sektor": "Sektor Keuangan",
            "tanggal_terbit": "2022-06-15",
            "url_tdpse_detail": "https://pse.komdigi.go.id/tdpse-detail/4515",
            "website": "bristore.id"
        },
        {
            "id": "9cb1abad-65ec-4885-81fc-d6d36d1fb5de",
            "nama_pse": "PERUSAHAAN PERSEROAN (PERSERO) PT. BANK RAKYAT INDONESIA",
            "nama_se": "BRISPOT EKSTERNAL",
            "sektor": "Sektor Keuangan",
            "tanggal_terbit": "2022-06-15",
            "url_tdpse_detail": "https://pse.komdigi.go.id/tdpse-detail/4516",
            "website": "-"
        },
        {
            "id": "9cb1aba3-4d02-42f3-8f5a-610ed1bf760d",
            "nama_pse": "PERUSAHAAN PERSEROAN (PERSERO) PT. BANK RAKYAT INDONESIA",
            "nama_se": "BRISPOT KONSUMER",
            "sektor": "Sektor Keuangan",
            "tanggal_terbit": "2022-06-15",
            "url_tdpse_detail": "https://pse.komdigi.go.id/tdpse-detail/4517",
            "website": "Brispotkonsumer.bri.co.id"
        },
        {
            "id": "9cb1abad-688d-4522-8de5-88673230931a",
            "nama_pse": "PABRIK SARI SENI",
            "nama_se": "SHOPIFY",
            "sektor": "Sektor Perdagangan",
            "tanggal_terbit": "2022-06-15",
            "url_tdpse_detail": "https://pse.komdigi.go.id/tdpse-detail/4518",
            "website": "atelierpadmala.com"
        },
        {
            "id": "9cb1ab97-c30f-4993-a2dd-9f53cc1533ee",
            "nama_pse": "PERUSAHAAN PERSEROAN (PERSERO) PT. BANK RAKYAT INDONESIA",
            "nama_se": "BRI LOYALTY POIN (BRIPOIN)",
            "sektor": "Sektor Keuangan",
            "tanggal_terbit": "2022-06-15",
            "url_tdpse_detail": "https://pse.komdigi.go.id/tdpse-detail/4519",
            "website": "bripoin.bri.co.id"
        },
        {
            "id": "9cb1aba3-4ed4-4e55-b0ac-e9b08865d34d",
            "nama_pse": "MENN TEKNOLOGI INDONESIA",
            "nama_se": "GPS TRACKER",
            "sektor": "Sektor Transportasi, Sektor Teknologi Informasi dan Komunikasi",
            "tanggal_terbit": "2022-06-15",
            "url_tdpse_detail": "https://pse.komdigi.go.id/tdpse-detail/4520",
            "website": "menngroup.id"
        },
        {
            "id": "9cb1aba3-511d-4d85-8700-aa2c5da02610",
            "nama_pse": "KERETA COMMUTER INDONESIA",
            "nama_se": "COMMUTER.ID",
            "sektor": "Sektor Transportasi",
            "tanggal_terbit": "2022-06-15",
            "url_tdpse_detail": "https://pse.komdigi.go.id/tdpse-detail/4521",
            "website": "krl.co.id"
        },
        {
            "id": "9cb1aba3-5304-41e3-91a1-b380a672ef89",
            "nama_pse": "PERUSAHAAN PERSEROAN (PERSERO) PT. BANK RAKYAT INDONESIA",
            "nama_se": "SISTEM CHATBOT SABRINA BRI",
            "sektor": "Sektor Keuangan, Sektor Teknologi Informasi dan Komunikasi",
            "tanggal_terbit": "2022-06-15",
            "url_tdpse_detail": "https://pse.komdigi.go.id/tdpse-detail/4522",
            "website": "-"
        },
        {
            "id": "9cb1ab97-c660-4af1-911b-61d56344fa92",
            "nama_pse": "IDISI MULTI MANDIRI",
            "nama_se": "MEDIA PUBLIKASI BERBASIS ELEKTRONIK",
            "sektor": "Sektor Teknologi Informasi dan Komunikasi",
            "tanggal_terbit": "2022-06-15",
            "url_tdpse_detail": "https://pse.komdigi.go.id/tdpse-detail/4523",
            "website": "idisionline.com"
        },
        {
            "id": "9cb1aba3-54e7-4d95-8478-8e19ff36cb21",
            "nama_pse": "RANGKAI KREATIVITAS INDONESIA",
            "nama_se": "RANGKAI.ID",
            "sektor": "Sektor Teknologi Informasi dan Komunikasi",
            "tanggal_terbit": "2022-06-15",
            "url_tdpse_detail": "https://pse.komdigi.go.id/tdpse-detail/4524",
            "website": "rangkai.id"
        },
        {
            "id": "9cb1aba2-c8f1-4e42-b01d-60ccd7fea193",
            "nama_pse": "MP GAMES",
            "nama_se": "HELO-BABE",
            "sektor": "Sektor Teknologi Informasi dan Komunikasi",
            "tanggal_terbit": "2022-06-14",
            "url_tdpse_detail": "https://pse.komdigi.go.id/tdpse-detail/4368",
            "website": "babe.co.id"
        },
        {
            "id": "9cb1abad-0216-4c34-a5b3-02416558f20c",
            "nama_pse": "TILAKA NUSA TEKNOLOGI",
            "nama_se": "TILAKA",
            "sektor": "Sektor Teknologi Informasi dan Komunikasi",
            "tanggal_terbit": "2022-06-14",
            "url_tdpse_detail": "https://pse.komdigi.go.id/tdpse-detail/4369",
            "website": "tilaka.id"
        },
        {
            "id": "9cb1ab96-e308-4892-9b83-fb096adc3fd8",
            "nama_pse": "FOKUS TEKNOLOGI PEMBAYARAN",
            "nama_se": "CLOSEPAY (APLIKASI DIGITAL BISNIS)",
            "sektor": "Sektor Keuangan, Sektor Teknologi Informasi dan Komunikasi",
            "tanggal_terbit": "2022-06-14",
            "url_tdpse_detail": "https://pse.komdigi.go.id/tdpse-detail/4370",
            "website": "Closepay.id"
        },
        {
            "id": "9cb1abad-0432-4ec7-817f-c997d44c3eb9",
            "nama_pse": "SUMBER SINERGI MAKMUR",
            "nama_se": "FOX LOGGER",
            "sektor": "Sektor Teknologi Informasi dan Komunikasi",
            "tanggal_terbit": "2022-06-14",
            "url_tdpse_detail": "https://pse.komdigi.go.id/tdpse-detail/4371",
            "website": "tracker.foxlogger.info"
        },
        {
            "id": "9cb1ab96-e6b0-47c0-b9bd-dd98d9f99050",
            "nama_pse": "HOTELIO TEKNOVASI UTAMA",
            "nama_se": "TURU HOTELS",
            "sektor": "Sektor Perdagangan",
            "tanggal_terbit": "2022-06-14",
            "url_tdpse_detail": "https://pse.komdigi.go.id/tdpse-detail/4372",
            "website": "-"
        },
        {
            "id": "9cb1aba2-cda1-4fc7-a163-2bf233000c93",
            "nama_pse": "AIA FINANCIAL",
            "nama_se": "ALLISWELL.AIA.ID (AIA FINANCIAL DIGITAL MICROSITE)",
            "sektor": "Sektor Keuangan",
            "tanggal_terbit": "2022-06-14",
            "url_tdpse_detail": "https://pse.komdigi.go.id/tdpse-detail/4374",
            "website": "alliswell.aia.id"
        },
        {
            "id": "9cb1aba2-d06e-481e-9bc8-c33ca4ae9f15",
            "nama_pse": "CIPTADANA SEKURITAS ASIA",
            "nama_se": "BLUECHIP CIPTADANA",
            "sektor": "Sektor Keuangan",
            "tanggal_terbit": "2022-06-14",
            "url_tdpse_detail": "https://pse.komdigi.go.id/tdpse-detail/4375",
            "website": "ciptadana-sekuritas-asia.com"
        },
        {
            "id": "9cb1abad-0632-4169-815b-34851e8b71ec",
            "nama_pse": "JIWA TRI BOGA",
            "nama_se": "JIWA +",
            "sektor": "Sektor Perdagangan",
            "tanggal_terbit": "2022-06-14",
            "url_tdpse_detail": "https://pse.komdigi.go.id/tdpse-detail/4376",
            "website": "-"
        },
        {
            "id": "9cb1abad-0805-4066-b6d8-338310c0d060",
            "nama_pse": "CENTRAL ASIA FINANCIAL",
            "nama_se": "JAGA2GO",
            "sektor": "Sektor Keuangan",
            "tanggal_terbit": "2022-06-14",
            "url_tdpse_detail": "https://pse.komdigi.go.id/tdpse-detail/4377",
            "website": "-"
        },
        {
            "id": "9cb1abad-09d4-4388-ab19-615512204464",
            "nama_pse": "GAMES KARYA NUSANTARA",
            "nama_se": "MAJAMOJO",
            "sektor": "Sektor Teknologi Informasi dan Komunikasi",
            "tanggal_terbit": "2022-06-14",
            "url_tdpse_detail": "https://pse.komdigi.go.id/tdpse-detail/4379",
            "website": "majamojo.com"
        },
        {
            "id": "9cb1aba2-d2b9-4e65-bb30-874eba954eda",
            "nama_pse": "EVY ROFIANTI",
            "nama_se": "JNT EXPRESS SOROGENEN",
            "sektor": "Sektor Transportasi",
            "tanggal_terbit": "2022-06-14",
            "url_tdpse_detail": "https://pse.komdigi.go.id/tdpse-detail/4380",
            "website": "-"
        },
        {
            "id": "9cb1abad-0ba9-4b0a-8dd5-479159925c66",
            "nama_pse": "XTREMAX TEKNOLOGI INDONESIA",
            "nama_se": "PT XTREMAX TEKNOLOGI INDONESIA",
            "sektor": "Sektor Teknologi Informasi dan Komunikasi",
            "tanggal_terbit": "2022-06-14",
            "url_tdpse_detail": "https://pse.komdigi.go.id/tdpse-detail/4381",
            "website": "xtremax.com"
        },
        {
            "id": "9cb1abad-0d75-4027-bfa9-bf9da6ea9ede",
            "nama_pse": "ASURANSI JIWA IFG",
            "nama_se": "AMAN BERSAMA IFG LIFE",
            "sektor": "Sektor Keuangan",
            "tanggal_terbit": "2022-06-14",
            "url_tdpse_detail": "https://pse.komdigi.go.id/tdpse-detail/4382",
            "website": "aman.ifg-life.id"
        },
        {
            "id": "9cb1aba2-d4e0-4e73-8abc-3d82fe3a6611",
            "nama_pse": "ASURANSI JIWA IFG",
            "nama_se": "LIFE.ID",
            "sektor": "Sektor Keuangan",
            "tanggal_terbit": "2022-06-14",
            "url_tdpse_detail": "https://pse.komdigi.go.id/tdpse-detail/4383",
            "website": "life.id"
        },
        {
            "id": "9cb1aba2-de0e-48d7-9818-4c545bf79a46",
            "nama_pse": "BANK CIMB NIAGA",
            "nama_se": "OCTO ONLINE ONBOARDING (3O)",
            "sektor": "Sektor Keuangan",
            "tanggal_terbit": "2022-06-14",
            "url_tdpse_detail": "https://pse.komdigi.go.id/tdpse-detail/4384",
            "website": "bukatabungan.cimbniaga.co.id"
        },
        {
            "id": "9cb1aba2-e017-4ab3-9054-7ab7ae6c0b78",
            "nama_pse": "DIGITAL TRADING SOLUSINDO",
            "nama_se": "CARIBARANG.ID",
            "sektor": "Sektor Perdagangan, Sektor Transportasi",
            "tanggal_terbit": "2022-06-14",
            "url_tdpse_detail": "https://pse.komdigi.go.id/tdpse-detail/4385",
            "website": "caribarang.id"
        },
        {
            "id": "9cb1ab96-9d6e-4aa9-a0b9-b39a242c22e3",
            "nama_pse": "PERUSAHAAN PERSEROAN (PERSERO) PT PERTAMINA",
            "nama_se": "E-RECRUITMENT PERTAMINA",
            "sektor": "Sektor Teknologi Informasi dan Komunikasi",
            "tanggal_terbit": "2022-06-13",
            "url_tdpse_detail": "https://pse.komdigi.go.id/tdpse-detail/4332",
            "website": "-"
        },
        {
            "id": "9cb1ab96-a03d-4fee-9cec-c456c978fa7e",
            "nama_pse": "LAKU EMAS INDONESIA",
            "nama_se": "LAKUEMAS",
            "sektor": "Sektor Perdagangan",
            "tanggal_terbit": "2022-06-13",
            "url_tdpse_detail": "https://pse.komdigi.go.id/tdpse-detail/4333",
            "website": "lakuemas.com"
        },
        {
            "id": "9cb1abac-dd04-4d69-a2fb-2102b1d19238",
            "nama_pse": "CENTRAL ASIA FINANCIAL",
            "nama_se": "JAGA HUJAN",
            "sektor": "Sektor Keuangan",
            "tanggal_terbit": "2022-06-13",
            "url_tdpse_detail": "https://pse.komdigi.go.id/tdpse-detail/4334",
            "website": "jagahujan.co.id"
        },
        {
            "id": "9cb1abac-e02e-4610-8ed3-fe5e5fc59805",
            "nama_pse": "PERUSAHAAN PERSEROAN (PERSERO) PT. BANK RAKYAT INDONESIA",
            "nama_se": "BRILINK MOBILE",
            "sektor": "Sektor Keuangan",
            "tanggal_terbit": "2022-06-13",
            "url_tdpse_detail": "https://pse.komdigi.go.id/tdpse-detail/4336",
            "website": "-"
        },
        {
            "id": "9cb1aba2-9d3b-4e2e-883d-de556529bca1",
            "nama_pse": "PERUSAHAAN PERSEROAN (PERSERO) PT. BANK RAKYAT INDONESIA",
            "nama_se": "BRILINKERS",
            "sektor": "Sektor Teknologi Informasi dan Komunikasi",
            "tanggal_terbit": "2022-06-13",
            "url_tdpse_detail": "https://pse.komdigi.go.id/tdpse-detail/4337",
            "website": "Brilinkers-admin.bri.co.id"
        },
        {
            "id": "9cb1abac-e238-4a08-a220-146f0b50bd4e",
            "nama_pse": "SRIBU DIGITAL KREATIF",
            "nama_se": "SRIBU.COM",
            "sektor": "Sektor Perdagangan",
            "tanggal_terbit": "2022-06-13",
            "url_tdpse_detail": "https://pse.komdigi.go.id/tdpse-detail/4340",
            "website": "sribu.com"
        },
        {
            "id": "9cb1abac-e724-47c2-8e10-0a8f28ecf216",
            "nama_pse": "FEDERAL INTERNATIONAL FINANCE",
            "nama_se": "FIFGROUP INTELLIGENT PERSONAL ASSISTANT ATAU FIONA",
            "sektor": "Sektor Keuangan",
            "tanggal_terbit": "2022-06-13",
            "url_tdpse_detail": "https://pse.komdigi.go.id/tdpse-detail/4341",
            "website": "fifgroup.co.id"
        },
        {
            "id": "9cb1ab96-a359-4448-a9b9-b7ebb1dc8eb9",
            "nama_pse": "SOLUSI LOGIKA KREASI",
            "nama_se": "SOLIS RESTO",
            "sektor": "Sektor Teknologi Informasi dan Komunikasi",
            "tanggal_terbit": "2022-06-13",
            "url_tdpse_detail": "https://pse.komdigi.go.id/tdpse-detail/4342",
            "website": "-"
        },
        {
            "id": "9cb1aba2-c59c-4bd1-8e96-1e71cc108fa9",
            "nama_pse": "MUHAMMAD ALPIAN",
            "nama_se": "WINDOW OF INDONESIA",
            "sektor": "Sektor Perdagangan",
            "tanggal_terbit": "2022-06-13",
            "url_tdpse_detail": "https://pse.komdigi.go.id/tdpse-detail/4367",
            "website": "windowofindonesia.com"
        },
        {
            "id": "9cb1abac-db26-4cf9-a4d4-3f8c2813c5e7",
            "nama_pse": "DIGITAL JAGAD NUSANTARA",
            "nama_se": "PT DIGITAL JAGAD NUSANTARA",
            "sektor": "Sektor Teknologi Informasi dan Komunikasi",
            "tanggal_terbit": "2022-06-12",
            "url_tdpse_detail": "https://pse.komdigi.go.id/tdpse-detail/4331",
            "website": "digitaljagadnusantara.com"
        },
        {
            "id": "9cb1ab96-08e2-4a0d-89ec-a04c0b17ad2d",
            "nama_pse": "PERUSAHAAN PERSEROAN (PERSERO) PT. PELAYARAN NASIONAL INDONESIA",
            "nama_se": "PELNI PASSENGERS SERVICE SYSTEM",
            "sektor": "Sektor Transportasi",
            "tanggal_terbit": "2022-06-10",
            "url_tdpse_detail": "https://pse.komdigi.go.id/tdpse-detail/4324",
            "website": "ticket.pelni.co.id"
        },
        {
            "id": "9cb1ab96-6be6-44ad-87e6-20501b8d4af9",
            "nama_pse": "INMOBI INDONESIA TECHNOLOGIES",
            "nama_se": "INMOBI EXCHANGE",
            "sektor": "Sektor Perdagangan",
            "tanggal_terbit": "2022-06-10",
            "url_tdpse_detail": "https://pse.komdigi.go.id/tdpse-detail/4325",
            "website": "exchange.inmobi.com"
        },
        {
            "id": "9cb1aba2-8273-45ac-8aa5-7adf5bb014be",
            "nama_pse": "DUA SURYA DINAMIKA",
            "nama_se": "TRIPPER",
            "sektor": "Sektor Teknologi Informasi dan Komunikasi",
            "tanggal_terbit": "2022-06-10",
            "url_tdpse_detail": "https://pse.komdigi.go.id/tdpse-detail/4319",
            "website": "tripper.co.id"
        },
        {
            "id": "9cb1abac-d376-412e-b110-5510535a9659",
            "nama_pse": "ANNORA JAYA ABADI",
            "nama_se": "ANNORA JAYA ABADI",
            "sektor": "Sektor Perdagangan",
            "tanggal_terbit": "2022-06-10",
            "url_tdpse_detail": "https://pse.komdigi.go.id/tdpse-detail/4317",
            "website": "indonesiavisaservice.com"
        },
        {
            "id": "9cb1ab96-8a77-4143-88a6-6d3c501b3766",
            "nama_pse": "INMOBI INDONESIA TECHNOLOGIES",
            "nama_se": "INMOBI PULSE",
            "sektor": "Sektor Perdagangan",
            "tanggal_terbit": "2022-06-10",
            "url_tdpse_detail": "https://pse.komdigi.go.id/tdpse-detail/4327",
            "website": "pulse.inmobi.com"
        },
        {
            "id": "9cb1ab96-973f-48e3-8892-464734d6c471",
            "nama_pse": "BCA MULTI FINANCE",
            "nama_se": "BCA MULTI FINANCE",
            "sektor": "Sektor Keuangan",
            "tanggal_terbit": "2022-06-10",
            "url_tdpse_detail": "https://pse.komdigi.go.id/tdpse-detail/4328",
            "website": "bcamf.co.id"
        },
        {
            "id": "9cb1ab96-9a70-4e4f-a16a-aa3d1a7a06d4",
            "nama_pse": "INOVASI DAYA SOLUSI",
            "nama_se": "SOLUSIPAY, API SOLUTIONS",
            "sektor": "Sektor Perdagangan, Sektor Teknologi Informasi dan Komunikasi",
            "tanggal_terbit": "2022-06-10",
            "url_tdpse_detail": "https://pse.komdigi.go.id/tdpse-detail/4329",
            "website": "ids.id"
        },
        {
            "id": "9cb1abac-d601-4b29-adfe-cd6a87a02dda",
            "nama_pse": "INMOBI INDONESIA TECHNOLOGIES",
            "nama_se": "INMOBI AFFILIATE PLATFORM",
            "sektor": "Sektor Teknologi Informasi dan Komunikasi",
            "tanggal_terbit": "2022-06-10",
            "url_tdpse_detail": "https://pse.komdigi.go.id/tdpse-detail/4330",
            "website": "iap.gowadogo.com"
        },
        {
            "id": "9cb1ab96-87d7-4a62-aa96-57370be72d74",
            "nama_pse": "FINTEK ANDALAN SOLUSI TEKNOLOGI",
            "nama_se": "FULUSME.ID",
            "sektor": "Sektor Keuangan, Sektor Teknologi Informasi dan Komunikasi",
            "tanggal_terbit": "2022-06-10",
            "url_tdpse_detail": "https://pse.komdigi.go.id/tdpse-detail/4318",
            "website": "fulusme.id"
        },
        {
            "id": "9cb1ab96-936e-4302-bfdd-ca06f2213b96",
            "nama_pse": "ASET KRIPTO INTERNASIONAL",
            "nama_se": "BTSE INDONESIA",
            "sektor": "Sektor Perdagangan",
            "tanggal_terbit": "2022-06-10",
            "url_tdpse_detail": "https://pse.komdigi.go.id/tdpse-detail/4326",
            "website": "-"
        },
        {
            "id": "9cb1abac-c3fc-4773-a5a3-4e108f296cfe",
            "nama_pse": "HADEKA MULTISOLUTION",
            "nama_se": "HADEKA MULTISOLUTION",
            "sektor": "Sektor Teknologi Informasi dan Komunikasi",
            "tanggal_terbit": "2022-06-09",
            "url_tdpse_detail": "https://pse.komdigi.go.id/tdpse-detail/4301",
            "website": "hdk-solution.id"
        }
    ],
    "processingTimeMs": 5,
    "query": "",
    "totalHits": 19131,
    "hitsPerPage": 50,
    "page": 300,
    "totalPages": 383
}