{
    "hits": [
        {
            "id": "9cb1abdc-87f4-4190-a1bb-01876a566c59",
            "nama_pse": "KARYA GENERASI DIGITAL",
            "nama_se": "ARTHO SUPERAPP",
            "sektor": "Sektor Perdagangan, Sektor Transportasi, Sektor Keuangan, Sektor Pangan",
            "tanggal_terbit": "2022-09-20",
            "url_tdpse_detail": "https://pse.komdigi.go.id/tdpse-detail/11265",
            "website": "-"
        },
        {
            "id": "9cb1abdc-8b88-4e22-b2f3-83cb8b525e97",
            "nama_pse": "KADEK ADY SUMIARTA",
            "nama_se": "MYKU",
            "sektor": "Sektor Kesehatan, Sektor Teknologi Informasi dan Komunikasi",
            "tanggal_terbit": "2022-09-20",
            "url_tdpse_detail": "https://pse.komdigi.go.id/tdpse-detail/11266",
            "website": "collpromedia.com"
        },
        {
            "id": "9cb1ac01-5bad-43d5-90f7-48d1c8b94579",
            "nama_pse": "KADEK ADY SUMIARTA",
            "nama_se": "COLLPROMEDIA",
            "sektor": "Sektor Kesehatan, Sektor Teknologi Informasi dan Komunikasi",
            "tanggal_terbit": "2022-09-20",
            "url_tdpse_detail": "https://pse.komdigi.go.id/tdpse-detail/11267",
            "website": "collpromedia.com"
        },
        {
            "id": "9cb1abf5-1990-49c0-ab81-c7b50389929f",
            "nama_pse": "IMORA MOTOR",
            "nama_se": "WEBSITE RESMI STAR HONDA (JABODETABEK)",
            "sektor": "Sektor Perdagangan",
            "tanggal_terbit": "2022-09-20",
            "url_tdpse_detail": "https://pse.komdigi.go.id/tdpse-detail/9167",
            "website": "star-24h.com"
        },
        {
            "id": "9cb1abdb-f9df-4f99-adee-ae8e6c828b6e",
            "nama_pse": "FAMINDO KUNCI SUKSES",
            "nama_se": "KUNCICOIN",
            "sektor": "Sektor Keuangan, Sektor Teknologi Informasi dan Komunikasi",
            "tanggal_terbit": "2022-09-19",
            "url_tdpse_detail": "https://pse.komdigi.go.id/tdpse-detail/11207",
            "website": "kuncicoin.com"
        },
        {
            "id": "9cb1abdc-4336-4c92-861d-97a0746150f8",
            "nama_pse": "REVIVAL NETWORK INTERNASIONAL",
            "nama_se": "HTTPS ://REVVER.CO.ID/",
            "sektor": "Sektor Perdagangan",
            "tanggal_terbit": "2022-09-19",
            "url_tdpse_detail": "https://pse.komdigi.go.id/tdpse-detail/11233",
            "website": "revver.co.id"
        },
        {
            "id": "9cb1abdc-46a0-4c60-80bb-e92dc7646cae",
            "nama_pse": "FLIK TEKNOLOGI INDONESIA",
            "nama_se": "FLIK",
            "sektor": "Sektor Teknologi Informasi dan Komunikasi",
            "tanggal_terbit": "2022-09-19",
            "url_tdpse_detail": "https://pse.komdigi.go.id/tdpse-detail/11234",
            "website": "useflik.com"
        },
        {
            "id": "9cb1ac10-0ba4-4733-946a-46999c06fc10",
            "nama_pse": "BALINESE YOGA EDUCATION",
            "nama_se": "BALINESEYOGA.ORG",
            "sektor": "Sektor Perdagangan",
            "tanggal_terbit": "2022-09-19",
            "url_tdpse_detail": "https://pse.komdigi.go.id/tdpse-detail/11235",
            "website": "balineseyoga.org"
        },
        {
            "id": "9cb1ac01-3757-42ec-8b6a-4532ecf93246",
            "nama_pse": "SETIAP HARI DIPAKAI",
            "nama_se": "MOFASA (MANAGEMENT OFFLINE SALES \u0026 AGENT)",
            "sektor": "Sektor Perdagangan",
            "tanggal_terbit": "2022-09-19",
            "url_tdpse_detail": "https://pse.komdigi.go.id/tdpse-detail/11236",
            "website": "mofasa.id"
        },
        {
            "id": "9cb1ac01-3a15-4d2d-967b-d5973b10bd4a",
            "nama_pse": "SETIAP HARI DIPAKAI",
            "nama_se": "EVERPRO",
            "sektor": "Sektor Perdagangan, Sektor Transportasi",
            "tanggal_terbit": "2022-09-19",
            "url_tdpse_detail": "https://pse.komdigi.go.id/tdpse-detail/11237",
            "website": "everpro.id"
        },
        {
            "id": "9cb1ac10-0eed-4f24-b1e9-9cd568ae00a0",
            "nama_pse": "SETIAP HARI DIPAKAI",
            "nama_se": "MOFASA",
            "sektor": "Sektor Perdagangan",
            "tanggal_terbit": "2022-09-19",
            "url_tdpse_detail": "https://pse.komdigi.go.id/tdpse-detail/11238",
            "website": "mofasa.id"
        },
        {
            "id": "9cb1abdc-4b33-4df2-af83-1a31706a617a",
            "nama_pse": "INTERMEDIA MITRA NUSANTARA",
            "nama_se": "MEDIA ONLINE",
            "sektor": "Sektor Teknologi Informasi dan Komunikasi",
            "tanggal_terbit": "2022-09-19",
            "url_tdpse_detail": "https://pse.komdigi.go.id/tdpse-detail/11239",
            "website": "mediaonline.id"
        },
        {
            "id": "9cb1abdc-4f9d-4253-8181-7305d76915f5",
            "nama_pse": "INTERMEDIA MITRA NUSANTARA",
            "nama_se": "DIGITAL DESA",
            "sektor": "Sektor Teknologi Informasi dan Komunikasi",
            "tanggal_terbit": "2022-09-19",
            "url_tdpse_detail": "https://pse.komdigi.go.id/tdpse-detail/11240",
            "website": "digitaldesa.or.id"
        },
        {
            "id": "9cb1ac0f-df57-46ce-93b3-764c40ff5ee4",
            "nama_pse": "INDONESIA MAJU AAMIIN",
            "nama_se": "AMININ",
            "sektor": "Sektor Teknologi Informasi dan Komunikasi",
            "tanggal_terbit": "2022-09-16",
            "url_tdpse_detail": "https://pse.komdigi.go.id/tdpse-detail/11199",
            "website": "aminin.com"
        },
        {
            "id": "9cb1abdc-05df-4def-9a03-0e2e35ef4689",
            "nama_pse": "ALESHA TARA PERSADA",
            "nama_se": "VILLABALIRENT",
            "sektor": "Sektor Perdagangan",
            "tanggal_terbit": "2022-09-16",
            "url_tdpse_detail": "https://pse.komdigi.go.id/tdpse-detail/11218",
            "website": "villabalirent.com"
        },
        {
            "id": "9cb1abdc-0984-4a8e-94f9-d9461ad21b8c",
            "nama_pse": "SUYAHMAN",
            "nama_se": "SAH!",
            "sektor": "Sektor Teknologi Informasi dan Komunikasi",
            "tanggal_terbit": "2022-09-16",
            "url_tdpse_detail": "https://pse.komdigi.go.id/tdpse-detail/11219",
            "website": "sah.co.id"
        },
        {
            "id": "9cb1ac01-3149-4939-8f89-f81cb96fb3e8",
            "nama_pse": "BERKAH SEMESTA LESTARI",
            "nama_se": "TOKBER",
            "sektor": "Sektor Perdagangan",
            "tanggal_terbit": "2022-09-16",
            "url_tdpse_detail": "https://pse.komdigi.go.id/tdpse-detail/11222",
            "website": "-"
        },
        {
            "id": "9cb1abdc-1c3e-451e-a7dd-46d6488634b7",
            "nama_pse": "SUGIARTO PANGESTU LESTARI",
            "nama_se": "SUGIARTO SHOP",
            "sektor": "Sektor Perdagangan, Sektor Teknologi Informasi dan Komunikasi",
            "tanggal_terbit": "2022-09-16",
            "url_tdpse_detail": "https://pse.komdigi.go.id/tdpse-detail/11220",
            "website": "Hokky.shop"
        },
        {
            "id": "9cb1abdc-2767-4195-87bd-d3797e7780a1",
            "nama_pse": "SALVINA GRAPH KALIMANTAN",
            "nama_se": "MBIZMARKET",
            "sektor": "Sektor Perdagangan",
            "tanggal_terbit": "2022-09-16",
            "url_tdpse_detail": "https://pse.komdigi.go.id/tdpse-detail/11221",
            "website": "-"
        },
        {
            "id": "9cb1abdc-31df-4030-9c12-50e8ad980683",
            "nama_pse": "NEOSAINS MEDIKA TEKNOLOGI",
            "nama_se": "HEYSTETIK",
            "sektor": "Sektor Kesehatan",
            "tanggal_terbit": "2022-09-16",
            "url_tdpse_detail": "https://pse.komdigi.go.id/tdpse-detail/11223",
            "website": "heystetik.com"
        },
        {
            "id": "9cb1ac0f-f840-4b02-98cb-00490e013658",
            "nama_pse": "PERMAINAN LESLAR ABADI",
            "nama_se": "REBELS VS MILITECH",
            "sektor": "Sektor Teknologi Informasi dan Komunikasi",
            "tanggal_terbit": "2022-09-16",
            "url_tdpse_detail": "https://pse.komdigi.go.id/tdpse-detail/11225",
            "website": "-"
        },
        {
            "id": "9cb1ac0f-fb96-4972-979a-d3467b2b8726",
            "nama_pse": "SUMARSIH",
            "nama_se": "UD RATU IRFANI",
            "sektor": "Sektor Perdagangan",
            "tanggal_terbit": "2022-09-16",
            "url_tdpse_detail": "https://pse.komdigi.go.id/tdpse-detail/11226",
            "website": "ratuirfani.store"
        },
        {
            "id": "9cb1ac0f-ff55-4f08-a2a3-c5a00e549064",
            "nama_pse": "BANK PERKREDITAN RAKYAT DANAGUNG ABADI",
            "nama_se": "WEBSITE BPR DANAGUNG ABADI",
            "sektor": "Sektor Keuangan",
            "tanggal_terbit": "2022-09-16",
            "url_tdpse_detail": "https://pse.komdigi.go.id/tdpse-detail/11227",
            "website": "danagungabadi.co.id"
        },
        {
            "id": "9cb1abdc-3ec6-45f8-a900-da6d9f03cdab",
            "nama_pse": "PERMAINAN LESLAR ABADI",
            "nama_se": "REBELS 8 POOL",
            "sektor": "Sektor Teknologi Informasi dan Komunikasi",
            "tanggal_terbit": "2022-09-16",
            "url_tdpse_detail": "https://pse.komdigi.go.id/tdpse-detail/11228",
            "website": "-"
        },
        {
            "id": "9cb1ac10-0531-4a90-b114-217c8f484bb9",
            "nama_pse": "ANNORA MULTI INTECH",
            "nama_se": "NEUBAUER SMART ENERGY MANAGEMENT SYSTEM V 0.1",
            "sektor": "Sektor Teknologi Informasi dan Komunikasi, Sektor Pertahanan dan Keamanan",
            "tanggal_terbit": "2022-09-16",
            "url_tdpse_detail": "https://pse.komdigi.go.id/tdpse-detail/11229",
            "website": "-"
        },
        {
            "id": "9cb1ac10-0896-479a-8bd6-297392a19aed",
            "nama_pse": "BETTER DAYS AHEAD",
            "nama_se": "MAKE THE MOOVE",
            "sektor": "Sektor Perdagangan",
            "tanggal_terbit": "2022-09-16",
            "url_tdpse_detail": "https://pse.komdigi.go.id/tdpse-detail/11230",
            "website": "ns1.siteground.net"
        },
        {
            "id": "9cb1ac01-3433-4b3d-b8c9-dd97fcfd92c2",
            "nama_pse": "LESLAR BAGI CUAN",
            "nama_se": "CUANTV",
            "sektor": "Sektor Teknologi Informasi dan Komunikasi",
            "tanggal_terbit": "2022-09-16",
            "url_tdpse_detail": "https://pse.komdigi.go.id/tdpse-detail/11231",
            "website": "cuan.tv"
        },
        {
            "id": "9cb1ac0f-d96b-4cd9-96d9-5f01816c57a1",
            "nama_pse": "GRAHA OPERASIONAL PROPERTI",
            "nama_se": "THE SEMINYAK SUITE PRIVATE VILLA",
            "sektor": "Sektor Perdagangan, Sektor Teknologi Informasi dan Komunikasi",
            "tanggal_terbit": "2022-09-15",
            "url_tdpse_detail": "https://pse.komdigi.go.id/tdpse-detail/11195",
            "website": "seminyaksuite.com"
        },
        {
            "id": "9cb1ac01-21e3-425c-bc20-fae6156d9867",
            "nama_pse": "TRIAKAR EMAS NUSANTARA",
            "nama_se": "SIMRS-TEN",
            "sektor": "Sektor Teknologi Informasi dan Komunikasi",
            "tanggal_terbit": "2022-09-15",
            "url_tdpse_detail": "https://pse.komdigi.go.id/tdpse-detail/11201",
            "website": "simrsten.web.id"
        },
        {
            "id": "9cb1abdb-e92d-4fff-9c5d-c59b1ed7ab1d",
            "nama_pse": "INTERMEDIA MITRA NUSANTARA",
            "nama_se": "WEBSITE SEKOLAH",
            "sektor": "Sektor Teknologi Informasi dan Komunikasi",
            "tanggal_terbit": "2022-09-15",
            "url_tdpse_detail": "https://pse.komdigi.go.id/tdpse-detail/11202",
            "website": "net.sch.id"
        },
        {
            "id": "9cb1abdb-edca-4da7-b150-4d0346085de6",
            "nama_pse": "REALITA MEDIA NUSANTARA",
            "nama_se": "MEDIA REALITA INDONESIA",
            "sektor": "Sektor Teknologi Informasi dan Komunikasi",
            "tanggal_terbit": "2022-09-15",
            "url_tdpse_detail": "https://pse.komdigi.go.id/tdpse-detail/11203",
            "website": "realitaindonesia.com"
        },
        {
            "id": "9cb1abdb-f28b-4ecc-8f27-66c43e96d0fe",
            "nama_pse": "RAYMOND INVESTAMA GRUP",
            "nama_se": "JADIHACKER",
            "sektor": "Sektor Teknologi Informasi dan Komunikasi",
            "tanggal_terbit": "2022-09-15",
            "url_tdpse_detail": "https://pse.komdigi.go.id/tdpse-detail/11204",
            "website": "jadihacker.id"
        },
        {
            "id": "9cb1ac01-25b5-45cc-a91c-203d40ecc244",
            "nama_pse": "IWATANI INDUSTRIAL GAS INDONESIA",
            "nama_se": "PT. IWATANI INDUSTRIAL GAS INDONESIA",
            "sektor": "Sektor Perdagangan",
            "tanggal_terbit": "2022-09-15",
            "url_tdpse_detail": "https://pse.komdigi.go.id/tdpse-detail/11205",
            "website": "iwatani.co.id"
        },
        {
            "id": "9cb1abdb-f62f-4538-95c5-85714cf75533",
            "nama_pse": "RECOMMERCE INTERNASIONAL INDONESIA",
            "nama_se": "GOATS",
            "sektor": "Sektor Teknologi Informasi dan Komunikasi",
            "tanggal_terbit": "2022-09-15",
            "url_tdpse_detail": "https://pse.komdigi.go.id/tdpse-detail/11206",
            "website": "goats.store"
        },
        {
            "id": "9cb1ac0f-e27e-44f1-aea3-9b62065750b0",
            "nama_pse": "NUSANTARA GLOBAL INOVASI",
            "nama_se": "JATENG.TRANS.MY.ID",
            "sektor": "Sektor Transportasi, Sektor Teknologi Informasi dan Komunikasi",
            "tanggal_terbit": "2022-09-15",
            "url_tdpse_detail": "https://pse.komdigi.go.id/tdpse-detail/11208",
            "website": "jateng.trans.my.id"
        },
        {
            "id": "9cb1ac0f-e5a3-48c5-9928-ae003b15a659",
            "nama_pse": "TENDA JJM MANDIRI",
            "nama_se": "TENDA JJM",
            "sektor": "Sektor Perdagangan, Sektor Teknologi Informasi dan Komunikasi",
            "tanggal_terbit": "2022-09-15",
            "url_tdpse_detail": "https://pse.komdigi.go.id/tdpse-detail/11209",
            "website": "tendajjm.com"
        },
        {
            "id": "9cb1ac0f-e909-40a6-82a8-bb2d4aef6cba",
            "nama_pse": "FJB LIFESTYLE",
            "nama_se": "CASIO INDONESIA",
            "sektor": "Sektor Perdagangan",
            "tanggal_terbit": "2022-09-15",
            "url_tdpse_detail": "https://pse.komdigi.go.id/tdpse-detail/11210",
            "website": "shopcasio.fjbl.co.id"
        },
        {
            "id": "9cb1abdc-01c7-44d2-b311-3e111fc0d6c8",
            "nama_pse": "JAMAAH KHOERIYAH BASALMAH",
            "nama_se": "JKB.OR.ID",
            "sektor": "Sektor Teknologi Informasi dan Komunikasi",
            "tanggal_terbit": "2022-09-15",
            "url_tdpse_detail": "https://pse.komdigi.go.id/tdpse-detail/11211",
            "website": "jkb.or.id"
        },
        {
            "id": "9cb1ac01-28d9-43d3-a8b5-fe71bcd78329",
            "nama_pse": "JAMAAH KHOERIYAH BASALMAH",
            "nama_se": "WEBSITE SEKOLAH",
            "sektor": "Sektor Teknologi Informasi dan Komunikasi",
            "tanggal_terbit": "2022-09-15",
            "url_tdpse_detail": "https://pse.komdigi.go.id/tdpse-detail/11212",
            "website": "smks.sch.id"
        },
        {
            "id": "9cb1ac0f-ec9a-40c2-96d0-1f1cbc268cc9",
            "nama_pse": "GARUT DIGITAL MULTIMEDIA",
            "nama_se": "MEDIA HARIAN GARUT",
            "sektor": "Sektor Teknologi Informasi dan Komunikasi",
            "tanggal_terbit": "2022-09-15",
            "url_tdpse_detail": "https://pse.komdigi.go.id/tdpse-detail/11213",
            "website": "hariangarut.com"
        },
        {
            "id": "9cb1ac01-2ba4-4eb9-8d96-34e1b5508ad9",
            "nama_pse": "GARUT DIGITAL MULTIMEDIA",
            "nama_se": "MEDIA LIPUTAN GARUT",
            "sektor": "Sektor Teknologi Informasi dan Komunikasi",
            "tanggal_terbit": "2022-09-15",
            "url_tdpse_detail": "https://pse.komdigi.go.id/tdpse-detail/11214",
            "website": "liputangarut.com"
        },
        {
            "id": "9cb1ac0f-effc-4048-b47f-548de8cd42d4",
            "nama_pse": "GARUT DIGITAL MULTIMEDIA",
            "nama_se": "JOURNAL GARUT",
            "sektor": "Sektor Teknologi Informasi dan Komunikasi",
            "tanggal_terbit": "2022-09-15",
            "url_tdpse_detail": "https://pse.komdigi.go.id/tdpse-detail/11215",
            "website": "journalgarut.com"
        },
        {
            "id": "9cb1ac0f-f4f2-436a-aa8d-58d3d14b103a",
            "nama_pse": "GARUT DIGITAL MULTIMEDIA",
            "nama_se": "GARUT HOSTING",
            "sektor": "Sektor Perdagangan, Sektor Teknologi Informasi dan Komunikasi",
            "tanggal_terbit": "2022-09-15",
            "url_tdpse_detail": "https://pse.komdigi.go.id/tdpse-detail/11216",
            "website": "garuthosting.com"
        },
        {
            "id": "9cb1ac01-2e5b-4d95-bfcd-6ce11e96e3f4",
            "nama_pse": "GEO TEKNIK CONSULTANT",
            "nama_se": "GARUT PROPERTI",
            "sektor": "Sektor Perdagangan",
            "tanggal_terbit": "2022-09-15",
            "url_tdpse_detail": "https://pse.komdigi.go.id/tdpse-detail/11217",
            "website": "garutproperti.biz.id"
        },
        {
            "id": "9cb1aba4-d7e1-4e5f-aa8c-5b7d58aed1a1",
            "nama_pse": "BANTUDESA KARYA INDONESIA",
            "nama_se": "PAGARMERBAUTIGA-DESA.ID",
            "sektor": "Sektor Teknologi Informasi dan Komunikasi",
            "tanggal_terbit": "2022-09-15",
            "url_tdpse_detail": "https://pse.komdigi.go.id/tdpse-detail/5039",
            "website": "pagarmerbautiga-desa.id"
        },
        {
            "id": "9cb1abd3-8448-40b7-a4a9-148af4773379",
            "nama_pse": "PERUSAHAAN PERSEROAN (PERSERO) PT. TELEKOMUNIKASI INDONESIA",
            "nama_se": "LEAP",
            "sektor": "Sektor Teknologi Informasi dan Komunikasi",
            "tanggal_terbit": "2022-09-14",
            "url_tdpse_detail": "https://pse.komdigi.go.id/tdpse-detail/9791",
            "website": "leap.digitalbisa.id"
        },
        {
            "id": "9cb1abd3-882c-46fc-931e-45e782461067",
            "nama_pse": "PERUSAHAAN PERSEROAN (PERSERO) PT. TELEKOMUNIKASI INDONESIA",
            "nama_se": "MYTENS",
            "sektor": "Sektor Teknologi Informasi dan Komunikasi",
            "tanggal_terbit": "2022-09-14",
            "url_tdpse_detail": "https://pse.komdigi.go.id/tdpse-detail/9792",
            "website": "mytens.co.id"
        },
        {
            "id": "9cb1abfa-0f9d-4f8f-b18a-11bf3a3d9d80",
            "nama_pse": "PERUSAHAAN PERSEROAN (PERSERO) PT. TELEKOMUNIKASI INDONESIA",
            "nama_se": "MYINDIHOME X",
            "sektor": "Sektor Perdagangan, Sektor Teknologi Informasi dan Komunikasi",
            "tanggal_terbit": "2022-09-14",
            "url_tdpse_detail": "https://pse.komdigi.go.id/tdpse-detail/9794",
            "website": "myih.telkom.co.id"
        },
        {
            "id": "9cb1abdb-8c43-4daf-aa51-138483539b02",
            "nama_pse": "RUMAH SAKIT DAERAH K.R.M.T. WONGSONEGORO KOTA SEMARANG",
            "nama_se": "MYRSWN",
            "sektor": "Sektor Kesehatan",
            "tanggal_terbit": "2022-09-14",
            "url_tdpse_detail": "https://pse.komdigi.go.id/tdpse-detail/11172",
            "website": "rsud.semarangkota.go.id"
        },
        {
            "id": "9cb1ac0f-c426-4460-8976-e3f3d51fa5f1",
            "nama_pse": "JEJAK KASUS NEWS",
            "nama_se": "PT. JEJAK KASUS NEWS",
            "sektor": "Sektor Teknologi Informasi dan Komunikasi",
            "tanggal_terbit": "2022-09-14",
            "url_tdpse_detail": "https://pse.komdigi.go.id/tdpse-detail/11182",
            "website": "jejakkasus.id"
        }
    ],
    "processingTimeMs": 3,
    "query": "",
    "totalHits": 19121,
    "hitsPerPage": 50,
    "page": 184,
    "totalPages": 383
}