{
    "hits": [
        {
            "id": "9cb1ac32-c708-44fe-adeb-52ae9a694f6f",
            "nama_pse": "PRIFE SINAR SEJAHTERA",
            "nama_se": "PRIFEINDONESIA.COM",
            "sektor": "Sektor Perdagangan",
            "tanggal_terbit": "2023-05-02",
            "url_tdpse_detail": "https://pse.komdigi.go.id/tdpse-detail/14517",
            "website": "prifeindonesia.com"
        },
        {
            "id": "9cb1ac42-ab96-4988-9ce2-c4ef3b5262ab",
            "nama_pse": "OYE DIGITAL CORP",
            "nama_se": "PT OYE DIGITAL CORP",
            "sektor": "Sektor Teknologi Informasi dan Komunikasi",
            "tanggal_terbit": "2023-05-02",
            "url_tdpse_detail": "https://pse.komdigi.go.id/tdpse-detail/14518",
            "website": "oye.or.id"
        },
        {
            "id": "9cb1ac42-af65-4331-92a4-6efa7049de32",
            "nama_pse": "RUMAH NUTRISI INDONESIA",
            "nama_se": "RUNUT",
            "sektor": "Sektor Perdagangan, Sektor Kesehatan, Sektor Teknologi Informasi dan Komunikasi",
            "tanggal_terbit": "2023-05-02",
            "url_tdpse_detail": "https://pse.komdigi.go.id/tdpse-detail/14522",
            "website": "runut.tech"
        },
        {
            "id": "9cb1ac42-9d18-4876-93f6-011dcd1c7e39",
            "nama_pse": "TAUFIK",
            "nama_se": "WANITA.DAY",
            "sektor": "Sektor Teknologi Informasi dan Komunikasi",
            "tanggal_terbit": "2023-05-01",
            "url_tdpse_detail": "https://pse.komdigi.go.id/tdpse-detail/14507",
            "website": "wanita.day"
        },
        {
            "id": "9cb1ac20-99e5-4ad4-928f-ae2d983f6a45",
            "nama_pse": "ADANI BERKAH CENDIKIA",
            "nama_se": "ADANI",
            "sektor": "Sektor Teknologi Informasi dan Komunikasi",
            "tanggal_terbit": "2023-05-01",
            "url_tdpse_detail": "https://pse.komdigi.go.id/tdpse-detail/14508",
            "website": "adani.co.id"
        },
        {
            "id": "9cb1ac32-a39e-428c-8b1d-61c5865c3a9b",
            "nama_pse": "PERI BINSAMIHARJO ",
            "nama_se": "NGOJEL YUK",
            "sektor": "Sektor Transportasi",
            "tanggal_terbit": "2023-04-30",
            "url_tdpse_detail": "https://pse.komdigi.go.id/tdpse-detail/14505",
            "website": "-"
        },
        {
            "id": "9cb1ac32-a72f-4b42-9c0f-12f9138dda33",
            "nama_pse": "MAN POINTS CORP",
            "nama_se": "MANPOINTS",
            "sektor": "Sektor Teknologi Informasi dan Komunikasi",
            "tanggal_terbit": "2023-04-30",
            "url_tdpse_detail": "https://pse.komdigi.go.id/tdpse-detail/14506",
            "website": "-"
        },
        {
            "id": "9cb1ac32-98f9-4022-a0f3-426bff856fa0",
            "nama_pse": "FANA BAKA TEKNOLOGI",
            "nama_se": "TRAVELILLAH",
            "sektor": "Sektor Teknologi Informasi dan Komunikasi",
            "tanggal_terbit": "2023-04-29",
            "url_tdpse_detail": "https://pse.komdigi.go.id/tdpse-detail/14500",
            "website": "-"
        },
        {
            "id": "9cb1ac20-8e96-49c3-98cb-93dde4e55638",
            "nama_pse": "MYCLNQ SEHAT INDONESIA",
            "nama_se": "MYCLNQSEHATINDONESIA",
            "sektor": "Sektor Kesehatan, Sektor Teknologi Informasi dan Komunikasi",
            "tanggal_terbit": "2023-04-29",
            "url_tdpse_detail": "https://pse.komdigi.go.id/tdpse-detail/14501",
            "website": "ssivixlab.com"
        },
        {
            "id": "9cb1ac42-94fd-44c9-af03-10a8ff0f0d18",
            "nama_pse": "KINERJA INDONESIA",
            "nama_se": "KINERJA HOSTING",
            "sektor": "Sektor Teknologi Informasi dan Komunikasi",
            "tanggal_terbit": "2023-04-29",
            "url_tdpse_detail": "https://pse.komdigi.go.id/tdpse-detail/14502",
            "website": "kinerjahosting.com"
        },
        {
            "id": "9cb1ac32-9c92-4126-a18b-d0b82d8711c5",
            "nama_pse": "SIMPAN PINJAM DAN PEMBIAYAAN SYARIAH  BAITUT TAMWIL HIDAYATULLAH",
            "nama_se": "LAYANAN VIRTUAL ACCOUNT KSPPS BTH",
            "sektor": "Sektor Teknologi Informasi dan Komunikasi",
            "tanggal_terbit": "2023-04-29",
            "url_tdpse_detail": "https://pse.komdigi.go.id/tdpse-detail/14503",
            "website": "-"
        },
        {
            "id": "9cb1ac32-a03c-49c8-a940-cd34443bfbc5",
            "nama_pse": "SIMPAN PINJAM DAN PEMBIAYAAN SYARIAH  BAITUT TAMWIL HIDAYATULLAH",
            "nama_se": "IIBS CORE BANKING SYSTEM",
            "sektor": "Sektor Teknologi Informasi dan Komunikasi",
            "tanggal_terbit": "2023-04-29",
            "url_tdpse_detail": "https://pse.komdigi.go.id/tdpse-detail/14504",
            "website": "-"
        },
        {
            "id": "9cb1ac42-7c6e-460b-a72a-cd6f441141ed",
            "nama_pse": "BANK PEMBANGUNAN DAERAH SUMATERA UTARA",
            "nama_se": "INTERNET BANKING KORPORASI",
            "sektor": "Sektor Keuangan",
            "tanggal_terbit": "2023-04-28",
            "url_tdpse_detail": "https://pse.komdigi.go.id/tdpse-detail/14495",
            "website": "ibcorp.banksumut.co.id"
        },
        {
            "id": "9cb1ac42-82c0-4425-9d9c-604450104b79",
            "nama_pse": "MULAI AJA SUKSES SOLUSI",
            "nama_se": "MULAIAJA.COM",
            "sektor": "Sektor Perdagangan",
            "tanggal_terbit": "2023-04-28",
            "url_tdpse_detail": "https://pse.komdigi.go.id/tdpse-detail/14496",
            "website": "mulaiaja.com"
        },
        {
            "id": "9cb1ac20-7a2f-4195-880d-c70fb268282a",
            "nama_pse": "NEVO DIGITAL CREATIVE",
            "nama_se": "VAUSTON",
            "sektor": "Sektor Perdagangan",
            "tanggal_terbit": "2023-04-28",
            "url_tdpse_detail": "https://pse.komdigi.go.id/tdpse-detail/14497",
            "website": "vauston.com"
        },
        {
            "id": "9cb1ac20-82eb-47f9-96da-6b9320caf949",
            "nama_pse": "RUKITA BHINNEKA INDONESIA",
            "nama_se": "RUKITA.CO",
            "sektor": "Sektor Perdagangan",
            "tanggal_terbit": "2023-04-28",
            "url_tdpse_detail": "https://pse.komdigi.go.id/tdpse-detail/14498",
            "website": "rukita.co"
        },
        {
            "id": "9cb1ac42-8de9-42cd-b629-931185d6170d",
            "nama_pse": "HARMONI DINAMIK INDONESIA",
            "nama_se": "BSKIN INDONESIA",
            "sektor": "Sektor Teknologi Informasi dan Komunikasi",
            "tanggal_terbit": "2023-04-28",
            "url_tdpse_detail": "https://pse.komdigi.go.id/tdpse-detail/14499",
            "website": "id.bskin.com"
        },
        {
            "id": "9cb1ac32-8e04-4005-82e9-6966a0d78197",
            "nama_pse": "DWI CERMAT INDONESIA",
            "nama_se": "WEBSITE CERMATI FINTECH GROUP (CERMATI.GROUP)",
            "sektor": "Sektor Teknologi Informasi dan Komunikasi",
            "tanggal_terbit": "2023-04-27",
            "url_tdpse_detail": "https://pse.komdigi.go.id/tdpse-detail/14493",
            "website": "cermati.group"
        },
        {
            "id": "9cb1ac32-6abb-4269-9cea-002f6ca47003",
            "nama_pse": "GETCOURSE PLATFORM INDONESIA",
            "nama_se": "GETCOURSE",
            "sektor": "Sektor Perdagangan, Sektor Teknologi Informasi dan Komunikasi",
            "tanggal_terbit": "2023-04-27",
            "url_tdpse_detail": "https://pse.komdigi.go.id/tdpse-detail/14492",
            "website": "getcourse.id"
        },
        {
            "id": "9cb1ac42-7919-4b6c-b4b2-b4580a47c54f",
            "nama_pse": "TEKNOLOGI TUNGGAL SOCA",
            "nama_se": "TEKNOLOGITUNGGALSOCA",
            "sektor": "Sektor Perdagangan",
            "tanggal_terbit": "2023-04-27",
            "url_tdpse_detail": "https://pse.komdigi.go.id/tdpse-detail/14489",
            "website": "teknologitunggalsoca.com"
        },
        {
            "id": "9cb1ac20-6e15-4997-abef-258bff4dbdbd",
            "nama_pse": "INDO TRANS TEKNOLOGI",
            "nama_se": "TRANSTRACK",
            "sektor": "Sektor Teknologi Informasi dan Komunikasi",
            "tanggal_terbit": "2023-04-27",
            "url_tdpse_detail": "https://pse.komdigi.go.id/tdpse-detail/14490",
            "website": "transtrack.co"
        },
        {
            "id": "9cb1ac20-7309-4462-b747-41d9fda5602e",
            "nama_pse": "PELITA RELIANCE INTERNATIONAL HOSPITAL",
            "nama_se": "SISTEM INFORMASI MANAJEMEN RUMAH SAKIT EKA HOSPITAL",
            "sektor": "Sektor Kesehatan",
            "tanggal_terbit": "2023-04-27",
            "url_tdpse_detail": "https://pse.komdigi.go.id/tdpse-detail/14491",
            "website": "ekahospital.com"
        },
        {
            "id": "9cb1ac32-9305-4477-9c0c-0152ee0f4a80",
            "nama_pse": "OKITA SENTRA MEDIA KARYA",
            "nama_se": "PT. OKITA SENTRA MEDIA KARYA",
            "sektor": "Sektor Teknologi Informasi dan Komunikasi",
            "tanggal_terbit": "2023-04-27",
            "url_tdpse_detail": "https://pse.komdigi.go.id/tdpse-detail/14494",
            "website": "okita.news"
        },
        {
            "id": "9cb1ac32-2b6f-45ab-ab3f-5e3310287d8e",
            "nama_pse": "XFERS INDONESIA TEKNOLOGI",
            "nama_se": "FAZZ BUSINESS",
            "sektor": "Sektor Teknologi Informasi dan Komunikasi",
            "tanggal_terbit": "2023-04-26",
            "url_tdpse_detail": "https://pse.komdigi.go.id/tdpse-detail/14482",
            "website": "app.fazz.com"
        },
        {
            "id": "9cb1ac1f-fa11-4a7e-a25f-fdc107cd9530",
            "nama_pse": "TOTAL INTEGRASI TRANSPORTASI INDONESIA PLATFORM",
            "nama_se": "TITIP",
            "sektor": "Sektor Transportasi",
            "tanggal_terbit": "2023-04-26",
            "url_tdpse_detail": "https://pse.komdigi.go.id/tdpse-detail/14485",
            "website": "titip.io"
        },
        {
            "id": "9cb1ac42-6ff5-428d-a3ee-e77074dce73d",
            "nama_pse": "BUSUR MEDIA INDONESIA",
            "nama_se": "NEROPASS",
            "sektor": "Sektor Teknologi Informasi dan Komunikasi",
            "tanggal_terbit": "2023-04-26",
            "url_tdpse_detail": "https://pse.komdigi.go.id/tdpse-detail/14488",
            "website": "neropass.com"
        },
        {
            "id": "9cb1ac20-6180-42d1-9594-efbdc1b1b276",
            "nama_pse": "GRAB TEKNOLOGI INDONESIA",
            "nama_se": "APLIKASI “GRAB DRIVER”",
            "sektor": "Sektor Teknologi Informasi dan Komunikasi",
            "tanggal_terbit": "2023-04-26",
            "url_tdpse_detail": "https://pse.komdigi.go.id/tdpse-detail/14483",
            "website": "-"
        },
        {
            "id": "9cb1ac20-65f2-472a-a226-750d9b668cea",
            "nama_pse": "GRAB TEKNOLOGI INDONESIA",
            "nama_se": "APLIKASI “GRAB MERCHANT”",
            "sektor": "Sektor Teknologi Informasi dan Komunikasi",
            "tanggal_terbit": "2023-04-26",
            "url_tdpse_detail": "https://pse.komdigi.go.id/tdpse-detail/14484",
            "website": "-"
        },
        {
            "id": "9cb1ac32-7fff-46b9-a215-31eaf28d78ed",
            "nama_pse": "PRAKASA NIAGA SOLUSI",
            "nama_se": "JUAL.PRAKTIS.CO",
            "sektor": "Sektor Teknologi Informasi dan Komunikasi",
            "tanggal_terbit": "2023-04-26",
            "url_tdpse_detail": "https://pse.komdigi.go.id/tdpse-detail/14486",
            "website": "jual.praktis.co"
        },
        {
            "id": "9cb1ac42-7636-4ddd-8f0b-028ff4ab8315",
            "nama_pse": "KONTERKU TEKNOLOGI INDONESIA",
            "nama_se": "KONTERKU",
            "sektor": "Sektor Perdagangan, Sektor Teknologi Informasi dan Komunikasi",
            "tanggal_terbit": "2023-04-26",
            "url_tdpse_detail": "https://pse.komdigi.go.id/tdpse-detail/14487",
            "website": "konterku.com"
        },
        {
            "id": "9cb1ac20-5ab2-4a68-a43f-d2cce210ceb2",
            "nama_pse": "JUNIARDI SAPUTRA",
            "nama_se": "SANTURA",
            "sektor": "Sektor Perdagangan, Sektor Transportasi, Sektor Kesehatan, Sektor Teknologi Informasi dan Komunikasi",
            "tanggal_terbit": "2023-04-25",
            "url_tdpse_detail": "https://pse.komdigi.go.id/tdpse-detail/14481",
            "website": "-"
        },
        {
            "id": "9cb1ac20-5dd5-46e6-a158-05cbee6bea55",
            "nama_pse": "MITRA RAYA DWITAMA",
            "nama_se": "PT. MITRA RAYA DWITAMA",
            "sektor": "Sektor Perdagangan",
            "tanggal_terbit": "2023-04-23",
            "url_tdpse_detail": "https://pse.komdigi.go.id/tdpse-detail/14480",
            "website": "-"
        },
        {
            "id": "9cb1ac32-1bd5-4ac2-95d5-1cb25333abfe",
            "nama_pse": "DUTA PULSA",
            "nama_se": "MOBILETOPUP",
            "sektor": "Sektor Perdagangan",
            "tanggal_terbit": "2023-04-19",
            "url_tdpse_detail": "https://pse.komdigi.go.id/tdpse-detail/14469",
            "website": "duta-pulsa.co.id"
        },
        {
            "id": "9cb1ac42-6a50-49a8-8e68-e0e8f12cae64",
            "nama_pse": "JAYA AGUNG INFOTAMA",
            "nama_se": "JAYA AGUNG INFOTAMA",
            "sektor": "Sektor Perdagangan, Sektor Teknologi Informasi dan Komunikasi",
            "tanggal_terbit": "2023-04-19",
            "url_tdpse_detail": "https://pse.komdigi.go.id/tdpse-detail/14475",
            "website": "-"
        },
        {
            "id": "9cb1ac20-50bf-445f-bf14-23ea6cb385e3",
            "nama_pse": "JAYA AGUNG INFOTAMA",
            "nama_se": "NUSANTARAISTIMEWA.COM",
            "sektor": "Sektor Teknologi Informasi dan Komunikasi",
            "tanggal_terbit": "2023-04-19",
            "url_tdpse_detail": "https://pse.komdigi.go.id/tdpse-detail/14476",
            "website": "-"
        },
        {
            "id": "9cb1ac20-53be-4d36-a483-53a2099a64de",
            "nama_pse": "MUHAMMAD IBROHIM",
            "nama_se": "SOLUSIKLINIK.ID",
            "sektor": "Sektor Kesehatan",
            "tanggal_terbit": "2023-04-19",
            "url_tdpse_detail": "https://pse.komdigi.go.id/tdpse-detail/14477",
            "website": "-"
        },
        {
            "id": "9cb1ac20-5747-4c2c-bd6b-190eda6c1e4e",
            "nama_pse": "PERMATA SARANA HUSADA",
            "nama_se": "SIMRS SCAP (SYSTEM COMPUTERIZED ANALYZING AND PROGRAMMING)",
            "sektor": "Sektor Kesehatan",
            "tanggal_terbit": "2023-04-19",
            "url_tdpse_detail": "https://pse.komdigi.go.id/tdpse-detail/14479",
            "website": "rsiapermatasaranahusada.com"
        },
        {
            "id": "9cb1ac42-6d54-49b6-938a-673b5fc90a5f",
            "nama_pse": "DENNIS DANIEL MARPAUNG",
            "nama_se": "JOPAR",
            "sektor": "Sektor Transportasi",
            "tanggal_terbit": "2023-04-19",
            "url_tdpse_detail": "https://pse.komdigi.go.id/tdpse-detail/14478",
            "website": "jo-par.com"
        },
        {
            "id": "9cb1ac40-739a-4ac4-ae1a-1b84f818d425",
            "nama_pse": "MANDIRI TUNAS FINANCE",
            "nama_se": "MTF1ACCESS",
            "sektor": "Sektor Keuangan",
            "tanggal_terbit": "2023-04-18",
            "url_tdpse_detail": "https://pse.komdigi.go.id/tdpse-detail/14467",
            "website": "-"
        },
        {
            "id": "9cb1ac32-5591-4aad-a10f-2dda32775349",
            "nama_pse": "JAYA AGUNG INFOTAMA",
            "nama_se": "PT JAYA AGUNG INFOTAMA",
            "sektor": "Sektor Teknologi Informasi dan Komunikasi",
            "tanggal_terbit": "2023-04-18",
            "url_tdpse_detail": "https://pse.komdigi.go.id/tdpse-detail/14472",
            "website": "NUSANTARAISTIMEWA.COM"
        },
        {
            "id": "9cb1ac32-58e9-4bdb-a40b-730ea76482c5",
            "nama_pse": "ASHMORE ASSET MANAGEMENT INDONESIA",
            "nama_se": "INVEST DI ASHMORE WEBSITE DAN WEALTH MANAGEMENT BACK OFFICE SYSTEM",
            "sektor": "Sektor Keuangan",
            "tanggal_terbit": "2023-04-18",
            "url_tdpse_detail": "https://pse.komdigi.go.id/tdpse-detail/14468",
            "website": "investdiashmore.id"
        },
        {
            "id": "9cb1ac42-59e5-475d-a50b-4797b342ae25",
            "nama_pse": "KONSULTASI BISNIS INDONESIA",
            "nama_se": "LGLBEE.COM",
            "sektor": "Sektor Perdagangan",
            "tanggal_terbit": "2023-04-18",
            "url_tdpse_detail": "https://pse.komdigi.go.id/tdpse-detail/14470",
            "website": "lglbee.com"
        },
        {
            "id": "9cb1ac42-60ec-4252-9170-3798db879250",
            "nama_pse": "GLOBAL TALENTLYTICA INDONESIA",
            "nama_se": "TALENTLYTICA.COM PENYEDIA JASA DAN PLATFORM ONLINE ASSESSMENT BERBASIS DATA \u0026 ANALITIK",
            "sektor": "Sektor Perdagangan",
            "tanggal_terbit": "2023-04-18",
            "url_tdpse_detail": "https://pse.komdigi.go.id/tdpse-detail/14471",
            "website": "talentlytica.com"
        },
        {
            "id": "9cb1ac32-6281-4db8-95f6-1ef2123b8c5d",
            "nama_pse": "ALI DIGITECH MANDIRI",
            "nama_se": "YOUR",
            "sektor": "Sektor Transportasi, Sektor Teknologi Informasi dan Komunikasi",
            "tanggal_terbit": "2023-04-18",
            "url_tdpse_detail": "https://pse.komdigi.go.id/tdpse-detail/14473",
            "website": "-"
        },
        {
            "id": "9cb1ac1f-c1c5-4809-a191-a2da34cfbe7f",
            "nama_pse": "SIMPAN PINJAM DAN PEMBIAYAAN SYARIAH  BAITUT TAMWIL HIDAYATULLAH",
            "nama_se": "MYBTH",
            "sektor": "Sektor Teknologi Informasi dan Komunikasi",
            "tanggal_terbit": "2023-04-17",
            "url_tdpse_detail": "https://pse.komdigi.go.id/tdpse-detail/14460",
            "website": "-"
        },
        {
            "id": "9cb1ac42-46e7-42ab-9c07-f5e1248cc51e",
            "nama_pse": "YAPINDO JAYA ABADI",
            "nama_se": "NEO UKMP2DG",
            "sektor": "Sektor Teknologi Informasi dan Komunikasi",
            "tanggal_terbit": "2023-04-17",
            "url_tdpse_detail": "https://pse.komdigi.go.id/tdpse-detail/14445",
            "website": "-"
        },
        {
            "id": "9cb1ac1f-fde6-4e8d-bbfc-5933b6aa1dc5",
            "nama_pse": "YAPINDO JAYA ABADI",
            "nama_se": "NEO UKAI",
            "sektor": "Sektor Teknologi Informasi dan Komunikasi",
            "tanggal_terbit": "2023-04-17",
            "url_tdpse_detail": "https://pse.komdigi.go.id/tdpse-detail/14446",
            "website": "-"
        },
        {
            "id": "9cb1ac20-0303-49c7-bbda-2086ff0d134e",
            "nama_pse": "YAPINDO JAYA ABADI",
            "nama_se": "NEO UK FISIOTERAPIS",
            "sektor": "Sektor Teknologi Informasi dan Komunikasi",
            "tanggal_terbit": "2023-04-17",
            "url_tdpse_detail": "https://pse.komdigi.go.id/tdpse-detail/14447",
            "website": "-"
        },
        {
            "id": "9cb1ac20-072c-45f1-b4e2-4c688c2e06ec",
            "nama_pse": "YAPINDO JAYA ABADI",
            "nama_se": "NEO UK DIETISIEN",
            "sektor": "Sektor Teknologi Informasi dan Komunikasi",
            "tanggal_terbit": "2023-04-17",
            "url_tdpse_detail": "https://pse.komdigi.go.id/tdpse-detail/14448",
            "website": "-"
        },
        {
            "id": "9cb1ac20-0adb-49e6-8d67-9eb182b15f2b",
            "nama_pse": "YAPINDO JAYA ABADI",
            "nama_se": "NEO UK PROFESI BIDAN",
            "sektor": "Sektor Teknologi Informasi dan Komunikasi",
            "tanggal_terbit": "2023-04-17",
            "url_tdpse_detail": "https://pse.komdigi.go.id/tdpse-detail/14449",
            "website": "-"
        }
    ],
    "processingTimeMs": 6,
    "query": "",
    "totalHits": 19131,
    "hitsPerPage": 50,
    "page": 143,
    "totalPages": 383
}