{
    "hits": [
        {
            "id": "9e0eecdc-fb32-4190-966c-a32bb6b6a323",
            "nama_pse": "IZZAN RIJAL MUSLIM",
            "nama_se": "BERKOMPETEN.ID",
            "sektor": "Sektor Teknologi Informasi dan Komunikasi",
            "tanggal_terbit": "2025-01-26",
            "url_tdpse_detail": "https://pse.komdigi.go.id/tdpse-detail/22200",
            "website": "berkompeten.id"
        },
        {
            "id": "9e0d5784-1486-4e17-9d89-041cbe9246c1",
            "nama_pse": "SEO MEDIA DIGITAL",
            "nama_se": "JEMBER TERKINI",
            "sektor": "Sektor Teknologi Informasi dan Komunikasi",
            "tanggal_terbit": "2025-01-25",
            "url_tdpse_detail": "https://pse.komdigi.go.id/tdpse-detail/22198",
            "website": "jemberterkini.id"
        },
        {
            "id": "9e0b41d6-8a26-4a9e-887a-c0f00ad227b8",
            "nama_pse": "SURYA INDO PLASTIC",
            "nama_se": "SIP JEJUALAN",
            "sektor": "Sektor Perdagangan",
            "tanggal_terbit": "2025-01-24",
            "url_tdpse_detail": "https://pse.komdigi.go.id/tdpse-detail/22196",
            "website": "sip.jejualan.com"
        },
        {
            "id": "9e0b024f-1428-4ec3-90b6-6966d8f21b5d",
            "nama_pse": "DUA SAHABAT LANGIT",
            "nama_se": "PT DUA SAHABAT LANGIT",
            "sektor": "Sektor Perdagangan, Sektor Transportasi",
            "tanggal_terbit": "2025-01-24",
            "url_tdpse_detail": "https://pse.komdigi.go.id/tdpse-detail/22193",
            "website": "soulmateclouds.com"
        },
        {
            "id": "9e0a8895-70f8-4083-a620-660978d92079",
            "nama_pse": "PERUSAHAAN PERSEROAN (PERSERO) PT. BANK TABUNGAN NEGARA",
            "nama_se": "BALE KORPORA",
            "sektor": "Sektor Keuangan",
            "tanggal_terbit": "2025-01-24",
            "url_tdpse_detail": "https://pse.komdigi.go.id/tdpse-detail/22192",
            "website": "korpora.btn.co.id"
        },
        {
            "id": "9e0b5738-6a0c-4947-8902-eb43044279de",
            "nama_pse": "TRIA JAYA SUWITA",
            "nama_se": "TRIAJA",
            "sektor": "Sektor Perdagangan",
            "tanggal_terbit": "2025-01-24",
            "url_tdpse_detail": "https://pse.komdigi.go.id/tdpse-detail/22197",
            "website": "triaja.biz.id"
        },
        {
            "id": "9e0a104e-9ab0-4cb5-86bc-a6baccfc0dd4",
            "nama_pse": "GAVITHA RANTAMA",
            "nama_se": "GAVITHA WEB",
            "sektor": "Sektor Perdagangan, Sektor Teknologi Informasi dan Komunikasi",
            "tanggal_terbit": "2025-01-24",
            "url_tdpse_detail": "https://pse.komdigi.go.id/tdpse-detail/22190",
            "website": "gavitha.web.id"
        },
        {
            "id": "9e0b0976-f197-4498-ab0b-6a012c11563e",
            "nama_pse": "SADAYA MEDIA UTAMA",
            "nama_se": "DETAK JABAR",
            "sektor": "Sektor Teknologi Informasi dan Komunikasi",
            "tanggal_terbit": "2025-01-24",
            "url_tdpse_detail": "https://pse.komdigi.go.id/tdpse-detail/22194",
            "website": "detakjabar.com"
        },
        {
            "id": "9e0b2d55-f023-4563-bb5b-9c8c1603a797",
            "nama_pse": "MAHAKARYA PERKASA INDONESIA",
            "nama_se": "SYLVANIAN FAMILIES PREMIUM ONLINE SHOP",
            "sektor": "Sektor Perdagangan",
            "tanggal_terbit": "2025-01-24",
            "url_tdpse_detail": "https://pse.komdigi.go.id/tdpse-detail/22195",
            "website": "id.sylvanianfamilies.com"
        },
        {
            "id": "9e0a8861-61de-4bac-b709-cfa3aa8df595",
            "nama_pse": "PERUSAHAAN PERSEROAN (PERSERO) PT. BANK TABUNGAN NEGARA",
            "nama_se": "bale bisnis",
            "sektor": "Sektor Keuangan",
            "tanggal_terbit": "2025-01-24",
            "url_tdpse_detail": "https://pse.komdigi.go.id/tdpse-detail/22191",
            "website": "balebisnis.btn.co.id"
        },
        {
            "id": "9e0921c7-4bd0-48a6-996d-7d0c6de7eac0",
            "nama_pse": "DIGIFY KREASI SOLUSINDO",
            "nama_se": "DIDIGI",
            "sektor": "Sektor Teknologi Informasi dan Komunikasi",
            "tanggal_terbit": "2025-01-23",
            "url_tdpse_detail": "https://pse.komdigi.go.id/tdpse-detail/22184",
            "website": "didigi.co"
        },
        {
            "id": "9e08e4f5-f9a9-4407-8c76-11b40aa1f189",
            "nama_pse": "PUNDI BERKAT RAJANI",
            "nama_se": "PT PUNDI BERKAT RAJANI",
            "sektor": "Sektor Transportasi",
            "tanggal_terbit": "2025-01-23",
            "url_tdpse_detail": "https://pse.komdigi.go.id/tdpse-detail/22181",
            "website": "-"
        },
        {
            "id": "9e08ff72-f1b9-49eb-80a6-e76a4894fa61",
            "nama_pse": "SKY PARKING UTAMA",
            "nama_se": "SKY MEMBERSHIP",
            "sektor": "Sektor Teknologi Informasi dan Komunikasi",
            "tanggal_terbit": "2025-01-23",
            "url_tdpse_detail": "https://pse.komdigi.go.id/tdpse-detail/22182",
            "website": "membership.skyparking.online"
        },
        {
            "id": "9e09228e-8581-425e-8e7c-13a132706007",
            "nama_pse": "GLOBAL GIANT GRAPHICS",
            "nama_se": "GLOBAL GIANT GRAFIS",
            "sektor": "Sektor Teknologi Informasi dan Komunikasi",
            "tanggal_terbit": "2025-01-23",
            "url_tdpse_detail": "https://pse.komdigi.go.id/tdpse-detail/22185",
            "website": "-"
        },
        {
            "id": "9e0936b1-22dc-41e2-b99e-c3215f4d4535",
            "nama_pse": "UPTIVE DIGITAL TECHNOMEDIA",
            "nama_se": "UPHR",
            "sektor": "Sektor Teknologi Informasi dan Komunikasi",
            "tanggal_terbit": "2025-01-23",
            "url_tdpse_detail": "https://pse.komdigi.go.id/tdpse-detail/22187",
            "website": "uptive.id"
        },
        {
            "id": "9e096184-9287-4348-8922-a42a70a5e6c1",
            "nama_pse": "UPTIVE DIGITAL TECHNOMEDIA",
            "nama_se": "PATROLINK",
            "sektor": "Sektor Teknologi Informasi dan Komunikasi",
            "tanggal_terbit": "2025-01-23",
            "url_tdpse_detail": "https://pse.komdigi.go.id/tdpse-detail/22188",
            "website": "-"
        },
        {
            "id": "9e098b4c-4dfa-494a-9d16-5b1239e81ad8",
            "nama_pse": "HENDRA WIJAYA POHAN",
            "nama_se": "LIVE COUNT PEMILU NESTA",
            "sektor": "Sektor Teknologi Informasi dan Komunikasi",
            "tanggal_terbit": "2025-01-23",
            "url_tdpse_detail": "https://pse.komdigi.go.id/tdpse-detail/22189",
            "website": "pemilunesta.sscproject.site"
        },
        {
            "id": "9e091610-ac4f-4b7b-a24d-267c7cf76e70",
            "nama_pse": "GRAHAWITA SANTIKA",
            "nama_se": "THE ANVAYA BEACH RESORT BALI",
            "sektor": "Sektor Perdagangan",
            "tanggal_terbit": "2025-01-23",
            "url_tdpse_detail": "https://pse.komdigi.go.id/tdpse-detail/22183",
            "website": "theanvayabali.com"
        },
        {
            "id": "9e0935e9-b4f6-4e25-90cd-7a6a892d6dc9",
            "nama_pse": "ISA AL GHIFARY AHMAD",
            "nama_se": "TIXCHAIN",
            "sektor": "Sektor Perdagangan",
            "tanggal_terbit": "2025-01-23",
            "url_tdpse_detail": "https://pse.komdigi.go.id/tdpse-detail/22186",
            "website": "tixchain.id"
        },
        {
            "id": "9e08b22c-9366-43d8-b632-1cfe57c6e6a9",
            "nama_pse": "SISTEM SOLUTIONLAB INDONESIA",
            "nama_se": "MAGANG LUAR NEGERI",
            "sektor": "Sektor Perdagangan, Sektor Teknologi Informasi dan Komunikasi",
            "tanggal_terbit": "2025-01-23",
            "url_tdpse_detail": "https://pse.komdigi.go.id/tdpse-detail/22180",
            "website": "magangluarnegeri.com"
        },
        {
            "id": "9e070c4b-8c46-478e-b265-8e7354179b06",
            "nama_pse": "DHANA KONSULTAN NUSANTARA",
            "nama_se": "REKRUTEE",
            "sektor": "Sektor Teknologi Informasi dan Komunikasi",
            "tanggal_terbit": "2025-01-22",
            "url_tdpse_detail": "https://pse.komdigi.go.id/tdpse-detail/22173",
            "website": "rekrutee.com"
        },
        {
            "id": "9e06b0e5-0c45-4de1-8f6b-8fd964470f3e",
            "nama_pse": "TOKOBAGUS",
            "nama_se": "OLX INDONESIA",
            "sektor": "Sektor Perdagangan",
            "tanggal_terbit": "2025-01-22",
            "url_tdpse_detail": "https://pse.komdigi.go.id/tdpse-detail/22166",
            "website": "-"
        },
        {
            "id": "9e073501-2024-4e93-bfa3-e6f270432878",
            "nama_pse": "JIVA AGRICULTURE INDONESIA",
            "nama_se": "JIVA FEEDMILL AGENT",
            "sektor": "Sektor Perdagangan",
            "tanggal_terbit": "2025-01-22",
            "url_tdpse_detail": "https://pse.komdigi.go.id/tdpse-detail/22178",
            "website": "-"
        },
        {
            "id": "9e06d8c1-a584-4979-a48c-8b92afa41dda",
            "nama_pse": "JIVA AGRICULTURE INDONESIA",
            "nama_se": "JIVA ACADEMY",
            "sektor": "Sektor Teknologi Informasi dan Komunikasi",
            "tanggal_terbit": "2025-01-22",
            "url_tdpse_detail": "https://pse.komdigi.go.id/tdpse-detail/22168",
            "website": "-"
        },
        {
            "id": "9e06d97f-7e65-41f8-93f9-ceba463355ec",
            "nama_pse": "KIMO CENTRAL GROUP",
            "nama_se": "TEMPO DAILY",
            "sektor": "Sektor Teknologi Informasi dan Komunikasi",
            "tanggal_terbit": "2025-01-22",
            "url_tdpse_detail": "https://pse.komdigi.go.id/tdpse-detail/22170",
            "website": "tempodaily.com"
        },
        {
            "id": "9e06da4b-2629-4c59-afdc-89541aacb76a",
            "nama_pse": "DHIKA NURFANDI RAHDIA",
            "nama_se": "SATSET ENTERPRISE",
            "sektor": "Sektor Perdagangan",
            "tanggal_terbit": "2025-01-22",
            "url_tdpse_detail": "https://pse.komdigi.go.id/tdpse-detail/22171",
            "website": "satsetenterprise.com"
        },
        {
            "id": "9e06fc23-9d0b-4d06-9f57-fce09cf90aab",
            "nama_pse": "JIVA AGRICULTURE INDONESIA",
            "nama_se": "SAHABAT JIVA TRAINING",
            "sektor": "Sektor Perdagangan",
            "tanggal_terbit": "2025-01-22",
            "url_tdpse_detail": "https://pse.komdigi.go.id/tdpse-detail/22172",
            "website": "-"
        },
        {
            "id": "9e070d0d-81db-4796-84dc-574fcec3fc3b",
            "nama_pse": "ROBERTUS MIKHAEL SLAMET",
            "nama_se": "TOPMUR",
            "sektor": "Sektor Teknologi Informasi dan Komunikasi",
            "tanggal_terbit": "2025-01-22",
            "url_tdpse_detail": "https://pse.komdigi.go.id/tdpse-detail/22174",
            "website": "topmur.com"
        },
        {
            "id": "9e070d77-d8e5-408d-87fc-26513066dacc",
            "nama_pse": "JIVA AGRICULTURE INDONESIA",
            "nama_se": "JIVA AC",
            "sektor": "Sektor Perdagangan",
            "tanggal_terbit": "2025-01-22",
            "url_tdpse_detail": "https://pse.komdigi.go.id/tdpse-detail/22175",
            "website": "-"
        },
        {
            "id": "9e070e5a-2666-405d-9015-4ddcebb965bc",
            "nama_pse": "JASA MULTI KONSULTAN",
            "nama_se": "jasa multi konsultan",
            "sektor": "Sektor Perdagangan",
            "tanggal_terbit": "2025-01-22",
            "url_tdpse_detail": "https://pse.komdigi.go.id/tdpse-detail/22176",
            "website": "jasamultikonsultan.com"
        },
        {
            "id": "9e07161e-6042-4fc9-9baf-f7b2c893c794",
            "nama_pse": "PERUSAHAAN PERSEROAN (PERSERO) PT. BANK TABUNGAN NEGARA",
            "nama_se": "BTN PROPERTY ADVISORY SYSTEM (BTN PAS)",
            "sektor": "Sektor Teknologi Informasi dan Komunikasi",
            "tanggal_terbit": "2025-01-22",
            "url_tdpse_detail": "https://pse.komdigi.go.id/tdpse-detail/22177",
            "website": "-"
        },
        {
            "id": "9e06d94b-f791-4718-8c5b-d1ba0c8d80d3",
            "nama_pse": "PERSADA MANDIRI JAKARTA",
            "nama_se": "PERSADA MANDIRI JAKARTA",
            "sektor": "Sektor Perdagangan",
            "tanggal_terbit": "2025-01-22",
            "url_tdpse_detail": "https://pse.komdigi.go.id/tdpse-detail/22169",
            "website": "persadamandiri.com"
        },
        {
            "id": "9e07a5c9-ac58-4434-9fe6-f4d54e1c4636",
            "nama_pse": "LENDRA ZULFIKAR RISMIADI",
            "nama_se": "ALINVITE",
            "sektor": "Sektor Kesehatan, Sektor Teknologi Informasi dan Komunikasi",
            "tanggal_terbit": "2025-01-22",
            "url_tdpse_detail": "https://pse.komdigi.go.id/tdpse-detail/22179",
            "website": "alinvite.com"
        },
        {
            "id": "9e069c35-41f2-4234-bf53-aed4d05a0384",
            "nama_pse": "INDONESIA LOGAM PRATAMA",
            "nama_se": "TREASURY",
            "sektor": "Sektor Perdagangan",
            "tanggal_terbit": "2025-01-22",
            "url_tdpse_detail": "https://pse.komdigi.go.id/tdpse-detail/22165",
            "website": "treasury.id"
        },
        {
            "id": "9e06cc4e-d8c6-4cec-8ca4-907efae08a58",
            "nama_pse": "MANDIRI BERSINAR",
            "nama_se": "JAYAELEKTRIK",
            "sektor": "Sektor Perdagangan",
            "tanggal_terbit": "2025-01-22",
            "url_tdpse_detail": "https://pse.komdigi.go.id/tdpse-detail/22167",
            "website": "jayaelektrik.id"
        },
        {
            "id": "9e04f1cb-4bf0-4a70-9e13-c8ae2a556dc3",
            "nama_pse": "DIGITAL HOTEL INDONESIA",
            "nama_se": "PT DIGITAL HOTEL INDOENSIA",
            "sektor": "Sektor Teknologi Informasi dan Komunikasi",
            "tanggal_terbit": "2025-01-21",
            "url_tdpse_detail": "https://pse.komdigi.go.id/tdpse-detail/22157",
            "website": "digitels.me"
        },
        {
            "id": "9e052482-adf0-4308-a4c0-44f2a26ab0f4",
            "nama_pse": "GUNAADIA RESERVASI SISTEM",
            "nama_se": "MINDIMEDIA SYSTEM",
            "sektor": "Sektor Perdagangan",
            "tanggal_terbit": "2025-01-21",
            "url_tdpse_detail": "https://pse.komdigi.go.id/tdpse-detail/22161",
            "website": "mindimedia.com"
        },
        {
            "id": "9e0584de-6978-49f6-9529-1ce6adcdd2d5",
            "nama_pse": "INDOWEBHOST KREASI",
            "nama_se": "iwk.co.id",
            "sektor": "Sektor Perdagangan",
            "tanggal_terbit": "2025-01-21",
            "url_tdpse_detail": "https://pse.komdigi.go.id/tdpse-detail/22164",
            "website": "iwk.co.id"
        },
        {
            "id": "9e048ea7-9ba4-4a5e-8240-70dc37895d9a",
            "nama_pse": "LPK SARANA KEADILAN RAKYAT",
            "nama_se": "suarasakera.com",
            "sektor": "Sektor Teknologi Informasi dan Komunikasi",
            "tanggal_terbit": "2025-01-21",
            "url_tdpse_detail": "https://pse.komdigi.go.id/tdpse-detail/22155",
            "website": "suarasakera.com"
        },
        {
            "id": "9e04fe4d-3502-4015-99db-dbd1417c8167",
            "nama_pse": "WISATA KARYA",
            "nama_se": "www.wkinterior.com",
            "sektor": "Sektor Perdagangan",
            "tanggal_terbit": "2025-01-21",
            "url_tdpse_detail": "https://pse.komdigi.go.id/tdpse-detail/22160",
            "website": "wisatakaryainterior.com"
        },
        {
            "id": "9e05338a-7c52-40ba-ad32-2673acadc1ef",
            "nama_pse": "TALDIO TALENTA DIGITAL",
            "nama_se": "TALDIO",
            "sektor": "Sektor Teknologi Informasi dan Komunikasi",
            "tanggal_terbit": "2025-01-21",
            "url_tdpse_detail": "https://pse.komdigi.go.id/tdpse-detail/22162",
            "website": "taldio.com"
        },
        {
            "id": "9e04f443-9448-4bcc-8b4f-746023fc9b05",
            "nama_pse": "BENDT SISTEM INDONESIA",
            "nama_se": "ONEE PLATFORM",
            "sektor": "Sektor Teknologi Informasi dan Komunikasi",
            "tanggal_terbit": "2025-01-21",
            "url_tdpse_detail": "https://pse.komdigi.go.id/tdpse-detail/22158",
            "website": "onee.id"
        },
        {
            "id": "9e04b0b3-b41e-4144-a367-08d0e6763039",
            "nama_pse": "BERSAMAKITA PERKASA ABADI",
            "nama_se": "LILOLIVE",
            "sektor": "Sektor Teknologi Informasi dan Komunikasi",
            "tanggal_terbit": "2025-01-21",
            "url_tdpse_detail": "https://pse.komdigi.go.id/tdpse-detail/22156",
            "website": "lilo.club"
        },
        {
            "id": "9e04f623-244e-4ad3-826c-2f330711bad7",
            "nama_pse": "KAS INDONESIA SUKSES SENTOSA",
            "nama_se": "CASHIN",
            "sektor": "Sektor Perdagangan",
            "tanggal_terbit": "2025-01-21",
            "url_tdpse_detail": "https://pse.komdigi.go.id/tdpse-detail/22159",
            "website": "cashin.co.id"
        },
        {
            "id": "9e0558eb-adbf-4253-98a9-703bf69ba011",
            "nama_pse": "ASTA KARYA SENTOSA",
            "nama_se": "ASTACODE MEDIKA",
            "sektor": "Sektor Kesehatan, Sektor Teknologi Informasi dan Komunikasi",
            "tanggal_terbit": "2025-01-21",
            "url_tdpse_detail": "https://pse.komdigi.go.id/tdpse-detail/22163",
            "website": "astacode.id"
        },
        {
            "id": "9e031cc1-57a0-45fc-b0df-bc1fd448a877",
            "nama_pse": "KINARYA UTAMA TEKNIK",
            "nama_se": "COOPIN",
            "sektor": "Sektor Perdagangan",
            "tanggal_terbit": "2025-01-20",
            "url_tdpse_detail": "https://pse.komdigi.go.id/tdpse-detail/22145",
            "website": "coopin.kinarya-tech.com"
        },
        {
            "id": "9e032bd7-c43a-4b9a-93a2-abb4497dbca2",
            "nama_pse": "MADYAPADA ARTHA PRATAMA",
            "nama_se": "PAPAY",
            "sektor": "Sektor Perdagangan",
            "tanggal_terbit": "2025-01-20",
            "url_tdpse_detail": "https://pse.komdigi.go.id/tdpse-detail/22147",
            "website": "papay.tech"
        },
        {
            "id": "9e02b64a-3db1-4409-80a0-485b32fc5264",
            "nama_pse": "FASTRATA BUANA",
            "nama_se": "psikometri.fastratabuana.co.id",
            "sektor": "Sektor Perdagangan",
            "tanggal_terbit": "2025-01-20",
            "url_tdpse_detail": "https://pse.komdigi.go.id/tdpse-detail/22137",
            "website": "psikometri.fastratabuana.co.id"
        },
        {
            "id": "9e037fee-5c36-4105-9a08-9102f70e2449",
            "nama_pse": "HARIANTO",
            "nama_se": "softsubnet",
            "sektor": "Sektor Teknologi Informasi dan Komunikasi",
            "tanggal_terbit": "2025-01-20",
            "url_tdpse_detail": "https://pse.komdigi.go.id/tdpse-detail/22150",
            "website": "softsubnet.blogspot.co.id"
        },
        {
            "id": "9e03905d-74ae-4ae5-85a0-24078fbc4f8a",
            "nama_pse": "REATRIX MEDIA INDONESIA",
            "nama_se": "REATRIXWEB.COM",
            "sektor": "Sektor Teknologi Informasi dan Komunikasi",
            "tanggal_terbit": "2025-01-20",
            "url_tdpse_detail": "https://pse.komdigi.go.id/tdpse-detail/22152",
            "website": "reatrixweb.com"
        }
    ],
    "processingTimeMs": 5,
    "query": "",
    "totalHits": 19131,
    "hitsPerPage": 50,
    "page": 11,
    "totalPages": 383
}