{
    "hits": [
        {
            "id": "9d5fa721-1170-4e39-9fce-6d0ea8da3b6f",
            "nama_pse": "KARYA DIGITAL GRUP",
            "nama_se": "NUQAR.COM",
            "sektor": "Sektor Perdagangan, Sektor Teknologi Informasi dan Komunikasi",
            "tanggal_terbit": "2024-10-31",
            "url_tdpse_detail": "https://pse.komdigi.go.id/tdpse-detail/20989",
            "website": "nuqar.com"
        },
        {
            "id": "9d5fcf96-ee37-4764-b4b9-0f26bd7e3abb",
            "nama_pse": "DUTA DIGITAL NUSANTARA",
            "nama_se": "FLEXBEN",
            "sektor": "Sektor Teknologi Informasi dan Komunikasi",
            "tanggal_terbit": "2024-10-31",
            "url_tdpse_detail": "https://pse.komdigi.go.id/tdpse-detail/20994",
            "website": "flexben.id"
        },
        {
            "id": "9d5faa53-9130-4a1d-b104-f5ebc4a405f4",
            "nama_pse": "YONYOU NETWORK INDONESIA",
            "nama_se": "YONBIP/YONSUITE",
            "sektor": "Sektor Teknologi Informasi dan Komunikasi",
            "tanggal_terbit": "2024-10-31",
            "url_tdpse_detail": "https://pse.komdigi.go.id/tdpse-detail/20990",
            "website": "global.yonyoucloud.com"
        },
        {
            "id": "9d5ffbb6-9a02-4cbf-9cb9-fadc0e05ad18",
            "nama_pse": "SENTRA PROTEKSI DATA TEKNOLOGI INDONESIA",
            "nama_se": "SENTRA DATA PROTEKSI DATA TEKNOLOGI INDONESIA",
            "sektor": "Sektor Teknologi Informasi dan Komunikasi",
            "tanggal_terbit": "2024-10-31",
            "url_tdpse_detail": "https://pse.komdigi.go.id/tdpse-detail/20996",
            "website": "-"
        },
        {
            "id": "9d5fff57-1c88-4e47-b035-d0f83d4b6d53",
            "nama_pse": "BAROKAH TEKNIK PRATAMA",
            "nama_se": "PT. BAROKAH TEKNIK PRATAMA",
            "sektor": "Sektor Teknologi Informasi dan Komunikasi",
            "tanggal_terbit": "2024-10-31",
            "url_tdpse_detail": "https://pse.komdigi.go.id/tdpse-detail/20997",
            "website": "barokahteknik.web.id"
        },
        {
            "id": "9d6053ec-2ebc-4166-bbd9-0d86264318e8",
            "nama_pse": "RIZKI TUJUHBELAS KELOLA",
            "nama_se": "R17 INTEGRATED SECURITY SOLUTIONS",
            "sektor": "Sektor Teknologi Informasi dan Komunikasi, Sektor Pertahanan dan Keamanan",
            "tanggal_terbit": "2024-10-31",
            "url_tdpse_detail": "https://pse.komdigi.go.id/tdpse-detail/21001",
            "website": "-"
        },
        {
            "id": "9d60832c-263d-4431-aee1-79555e36bd9f",
            "nama_pse": "APLIKASI SUKSES KARYA BANGSA",
            "nama_se": "NOSSA.CO.ID",
            "sektor": "Sektor Perdagangan",
            "tanggal_terbit": "2024-10-31",
            "url_tdpse_detail": "https://pse.komdigi.go.id/tdpse-detail/21002",
            "website": "nossa.co.id"
        },
        {
            "id": "9d5fcef4-738a-424a-9ecb-4e5c9d3b5d4f",
            "nama_pse": "AMANAH KARYA INDONESIA",
            "nama_se": "AMANAH ACADEMY",
            "sektor": "Sektor Teknologi Informasi dan Komunikasi",
            "tanggal_terbit": "2024-10-31",
            "url_tdpse_detail": "https://pse.komdigi.go.id/tdpse-detail/20993",
            "website": "amandemy.co.id"
        },
        {
            "id": "9d5da777-e77d-416e-95d9-e0df82a0c293",
            "nama_pse": "DOSEN JAYA ABADI",
            "nama_se": "COMBINED COFFEE",
            "sektor": "Sektor Perdagangan, Sektor Pangan",
            "tanggal_terbit": "2024-10-30",
            "url_tdpse_detail": "https://pse.komdigi.go.id/tdpse-detail/20959",
            "website": "combinedcoffee.com"
        },
        {
            "id": "9d5ed82d-8231-4467-901b-17247439a4ef",
            "nama_pse": "ANUGERAH MOTOR DELAPAN DELAPAN SEMBILAN INDONESIA",
            "nama_se": "ANUGERAH MOTOR 889",
            "sektor": "Sektor Perdagangan, Sektor Transportasi",
            "tanggal_terbit": "2024-10-30",
            "url_tdpse_detail": "https://pse.komdigi.go.id/tdpse-detail/20988",
            "website": "-"
        },
        {
            "id": "9d5e736d-e171-4c54-a17b-3329a1457b83",
            "nama_pse": "APPLEDORE MGILANGJANUAR LAB",
            "nama_se": "HELPEDBY AI",
            "sektor": "Sektor Teknologi Informasi dan Komunikasi",
            "tanggal_terbit": "2024-10-30",
            "url_tdpse_detail": "https://pse.komdigi.go.id/tdpse-detail/20984",
            "website": "helpedby.ai"
        },
        {
            "id": "9d5dc579-7525-4f12-b8e1-3fc8be891abd",
            "nama_pse": "RS PKU MUHAMMADIYAH SRUWENG",
            "nama_se": "SIMRS MORBIS",
            "sektor": "Sektor Kesehatan",
            "tanggal_terbit": "2024-10-30",
            "url_tdpse_detail": "https://pse.komdigi.go.id/tdpse-detail/20961",
            "website": "pkusruweng.com"
        },
        {
            "id": "9d5da30a-ba03-49e5-ab52-320aa3736c91",
            "nama_pse": "BULLISH INVESTAMA GEMILANG",
            "nama_se": "SMARTWAGE",
            "sektor": "Sektor Teknologi Informasi dan Komunikasi",
            "tanggal_terbit": "2024-10-30",
            "url_tdpse_detail": "https://pse.komdigi.go.id/tdpse-detail/20957",
            "website": "smartwage.id"
        },
        {
            "id": "9d5e6a0d-876c-4289-8df9-b28bfa79ce1e",
            "nama_pse": "HSI LINK INDONESIA",
            "nama_se": "HSI LINK INDONESIA",
            "sektor": "Sektor Teknologi Informasi dan Komunikasi",
            "tanggal_terbit": "2024-10-30",
            "url_tdpse_detail": "https://pse.komdigi.go.id/tdpse-detail/20983",
            "website": "link.hsi.id"
        },
        {
            "id": "9d5e46dc-7889-4773-bdc2-ec52f7657b41",
            "nama_pse": "ARTHA PUNDI REZEKI",
            "nama_se": "PAYNESIA",
            "sektor": "Sektor Teknologi Informasi dan Komunikasi",
            "tanggal_terbit": "2024-10-30",
            "url_tdpse_detail": "https://pse.komdigi.go.id/tdpse-detail/20979",
            "website": "paynesia.id"
        },
        {
            "id": "9d5d6115-2941-4e84-b1a1-69016f64501e",
            "nama_pse": "CATUR KARYA MEDIA NUSANTARA",
            "nama_se": "PT.CATUR KARYA MEDIA NUSANTARA",
            "sektor": "Sektor Teknologi Informasi dan Komunikasi",
            "tanggal_terbit": "2024-10-30",
            "url_tdpse_detail": "https://pse.komdigi.go.id/tdpse-detail/20952",
            "website": "-"
        },
        {
            "id": "9d5dcc3a-17e4-4c3f-89d5-c19a09640216",
            "nama_pse": "PERMATA INDO SEJAHTERA",
            "nama_se": "KERJA 365",
            "sektor": "Sektor Teknologi Informasi dan Komunikasi",
            "tanggal_terbit": "2024-10-30",
            "url_tdpse_detail": "https://pse.komdigi.go.id/tdpse-detail/20962",
            "website": "kerja365.id"
        },
        {
            "id": "9d5e14f3-0b93-4f6e-ae42-a05ff4268635",
            "nama_pse": "SAPUTRA HOKI SELALU",
            "nama_se": "WE SIP TEA",
            "sektor": "Sektor Perdagangan, Sektor Pangan",
            "tanggal_terbit": "2024-10-30",
            "url_tdpse_detail": "https://pse.komdigi.go.id/tdpse-detail/20970",
            "website": "wesiptea.com"
        },
        {
            "id": "9d5d8c7a-d594-49f9-b822-a41a1f038e86",
            "nama_pse": "ASURANSI UNTUK SEMUA",
            "nama_se": "SITUS TAP-INSURE.COM",
            "sektor": "Sektor Keuangan",
            "tanggal_terbit": "2024-10-30",
            "url_tdpse_detail": "https://pse.komdigi.go.id/tdpse-detail/20953",
            "website": "tap-insure.com"
        },
        {
            "id": "9d5e056c-3291-4106-90e6-c515ae7958b6",
            "nama_pse": "PERUSAHAAN PERSEROAN (PERSERO) PT. BANK TABUNGAN NEGARA",
            "nama_se": "WEB PLUS BY BTN PRIORITAS",
            "sektor": "Sektor Teknologi Informasi dan Komunikasi",
            "tanggal_terbit": "2024-10-30",
            "url_tdpse_detail": "https://pse.komdigi.go.id/tdpse-detail/20964",
            "website": "definingyourpriority.btn.co.id"
        },
        {
            "id": "9d5dc56e-e4cf-4058-8c83-f79dac3dcd04",
            "nama_pse": "KARTAX TEKNOLOGI INDONESIA",
            "nama_se": "KARTA-X AI ASSISTED CONSTRUCTION SAFETY ANALYTIC (KACSA®) PLATFORM",
            "sektor": "Sektor Teknologi Informasi dan Komunikasi, Sektor Pertahanan dan Keamanan",
            "tanggal_terbit": "2024-10-30",
            "url_tdpse_detail": "https://pse.komdigi.go.id/tdpse-detail/20960",
            "website": "kacsa.karta-x.com"
        },
        {
            "id": "9d5da119-a500-4809-b8bc-13562db9abcb",
            "nama_pse": "SOLUSI CEMERLANG ABADI",
            "nama_se": "SCA POS",
            "sektor": "Sektor Perdagangan",
            "tanggal_terbit": "2024-10-30",
            "url_tdpse_detail": "https://pse.komdigi.go.id/tdpse-detail/20956",
            "website": "-"
        },
        {
            "id": "9d5eb88f-d3ab-421a-94c2-6145d6f377b5",
            "nama_pse": "EUROPA OIL GAS",
            "nama_se": "EUROPA OIL \u0026 GAS",
            "sektor": "Sektor Teknologi Informasi dan Komunikasi",
            "tanggal_terbit": "2024-10-30",
            "url_tdpse_detail": "https://pse.komdigi.go.id/tdpse-detail/20986",
            "website": "europaoil.org"
        },
        {
            "id": "9d5e2a8f-7193-42db-b368-306f3816b317",
            "nama_pse": "ENKRIPSI TEKNOLOGI HANDAL",
            "nama_se": "NOBI APP",
            "sektor": "Sektor Teknologi Informasi dan Komunikasi",
            "tanggal_terbit": "2024-10-30",
            "url_tdpse_detail": "https://pse.komdigi.go.id/tdpse-detail/20977",
            "website": "-"
        },
        {
            "id": "9d5d4f02-37a7-4bcc-8cd8-ff44795bceb8",
            "nama_pse": "CATUR KARYA MEDIA NUSANTARA",
            "nama_se": "portal berita",
            "sektor": "Sektor Teknologi Informasi dan Komunikasi",
            "tanggal_terbit": "2024-10-30",
            "url_tdpse_detail": "https://pse.komdigi.go.id/tdpse-detail/20951",
            "website": "-"
        },
        {
            "id": "9d5d8d11-856a-4391-8a6c-a263f73748f8",
            "nama_pse": "ORIX INDONESIA FINANCE",
            "nama_se": "WEBSITE PERUSAHAAN",
            "sektor": "Sektor Keuangan",
            "tanggal_terbit": "2024-10-30",
            "url_tdpse_detail": "https://pse.komdigi.go.id/tdpse-detail/20954",
            "website": "orix.co.id"
        },
        {
            "id": "9d5d8d48-2038-42c1-a53b-2aae4a0a9f0c",
            "nama_pse": "KUSTODIAN SENTRAL EFEK INDONESIA",
            "nama_se": "K-CASH (KSEI CASH MANAGEMENT SYSTEM)",
            "sektor": "Sektor Keuangan",
            "tanggal_terbit": "2024-10-30",
            "url_tdpse_detail": "https://pse.komdigi.go.id/tdpse-detail/20955",
            "website": "k-cash.ksei.co.id"
        },
        {
            "id": "9d5da6bc-193b-46b1-bee1-1eca64450ddd",
            "nama_pse": "SEKAR KASNA BAKTI",
            "nama_se": "SISTEM INFORMASI MANAJEMEN RUMAH SAKIT RS KASNA MEDIKA",
            "sektor": "Sektor Kesehatan",
            "tanggal_terbit": "2024-10-30",
            "url_tdpse_detail": "https://pse.komdigi.go.id/tdpse-detail/20958",
            "website": "sso.rskasnamedika.com"
        },
        {
            "id": "9d5e0378-875a-4f24-9e61-dc4fe40face0",
            "nama_pse": "SOLUSI PEMBAYARAN ELEKTRONIK",
            "nama_se": "VENA SUPPLY CHAIN INDONESIA",
            "sektor": "Sektor Perdagangan",
            "tanggal_terbit": "2024-10-30",
            "url_tdpse_detail": "https://pse.komdigi.go.id/tdpse-detail/20963",
            "website": "vena.co.id"
        },
        {
            "id": "9d5e1230-b51c-4fee-938e-90d7d36b300a",
            "nama_pse": "PERMATA INDO SEJAHTERA",
            "nama_se": "MYWORKSPACE",
            "sektor": "Sektor Teknologi Informasi dan Komunikasi",
            "tanggal_terbit": "2024-10-30",
            "url_tdpse_detail": "https://pse.komdigi.go.id/tdpse-detail/20968",
            "website": "myworkspace.id"
        },
        {
            "id": "9d5e133b-3c6c-466e-955b-99ebcc2dbd3c",
            "nama_pse": "AMANAH KARYA INDONESIA",
            "nama_se": "AMANAH CORPORATION",
            "sektor": "Sektor Teknologi Informasi dan Komunikasi",
            "tanggal_terbit": "2024-10-30",
            "url_tdpse_detail": "https://pse.komdigi.go.id/tdpse-detail/20969",
            "website": "amanahcorp.co.id"
        },
        {
            "id": "9d5e49d5-3b06-4721-85fd-21e80325c8d3",
            "nama_pse": "HSI LINK INDONESIA",
            "nama_se": "PT HSI LINK INDONESIA",
            "sektor": "Sektor Teknologi Informasi dan Komunikasi",
            "tanggal_terbit": "2024-10-30",
            "url_tdpse_detail": "https://pse.komdigi.go.id/tdpse-detail/20980",
            "website": "profil.hsi.id"
        },
        {
            "id": "9d5e15e7-ddce-4862-abd2-7c78b94cbb91",
            "nama_pse": "SARANA INOVASI BANGSA",
            "nama_se": "SARANA INOVASI BANGSA",
            "sektor": "Sektor Teknologi Informasi dan Komunikasi",
            "tanggal_terbit": "2024-10-30",
            "url_tdpse_detail": "https://pse.komdigi.go.id/tdpse-detail/20971",
            "website": "inovasibangsa.com"
        },
        {
            "id": "9d5e10d0-462b-490e-8cac-36c71abf9d5d",
            "nama_pse": "KLIK DIGITAL TEKNOLOGI",
            "nama_se": "PT KLIK DIGITAL TEKNOLOGI",
            "sektor": "Sektor Teknologi Informasi dan Komunikasi",
            "tanggal_terbit": "2024-10-30",
            "url_tdpse_detail": "https://pse.komdigi.go.id/tdpse-detail/20967",
            "website": "klikdigital.co.id"
        },
        {
            "id": "9d5e6352-f8cd-4179-8328-15d726dc4bb6",
            "nama_pse": "SEKAWAN MEDIA INFORMATIKA",
            "nama_se": "SMSCROPS",
            "sektor": "Sektor Teknologi Informasi dan Komunikasi",
            "tanggal_terbit": "2024-10-30",
            "url_tdpse_detail": "https://pse.komdigi.go.id/tdpse-detail/20982",
            "website": "smscrops.com"
        },
        {
            "id": "9d5e5157-117a-431e-91c2-be74f13651c3",
            "nama_pse": "AMANAH KARYA INDONESIA",
            "nama_se": "MUTASIBANK",
            "sektor": "Sektor Teknologi Informasi dan Komunikasi",
            "tanggal_terbit": "2024-10-30",
            "url_tdpse_detail": "https://pse.komdigi.go.id/tdpse-detail/20981",
            "website": "mutasibank.co.id"
        },
        {
            "id": "9d5ea122-3386-4bce-bcf1-f1e202c8ef0a",
            "nama_pse": "SENTRA PROTEKSI DATA TEKNOLOGI INDONESIA",
            "nama_se": "SENTRA PROTEKSI DATA TEKNOLOGI INDONESIA (PRIVASIMU)",
            "sektor": "Sektor Teknologi Informasi dan Komunikasi",
            "tanggal_terbit": "2024-10-30",
            "url_tdpse_detail": "https://pse.komdigi.go.id/tdpse-detail/20985",
            "website": "privasimu.com"
        },
        {
            "id": "9d5ed373-c48a-4d56-8229-b75fdc339a37",
            "nama_pse": "ANUGERAH MOTOR DELAPAN DELAPAN SEMBILAN INDONESIA",
            "nama_se": "ANUGERAH MOTOR DELAPAN DELAPAN SEMBILAN",
            "sektor": "Sektor Perdagangan, Sektor Transportasi",
            "tanggal_terbit": "2024-10-30",
            "url_tdpse_detail": "https://pse.komdigi.go.id/tdpse-detail/20987",
            "website": "-"
        },
        {
            "id": "9d5e2691-65db-4c64-9f23-a365487a5edd",
            "nama_pse": "RUANG PROTEKSI INDONESIA",
            "nama_se": "HALALINS",
            "sektor": "Sektor Teknologi Informasi dan Komunikasi",
            "tanggal_terbit": "2024-10-30",
            "url_tdpse_detail": "https://pse.komdigi.go.id/tdpse-detail/20976",
            "website": "halalins.com"
        },
        {
            "id": "9d5bcb91-1366-44f8-b280-c2e87926aba5",
            "nama_pse": "PUTRA CANANDA MANDIRI",
            "nama_se": "PCM INDOPESONA",
            "sektor": "Sektor Perdagangan",
            "tanggal_terbit": "2024-10-29",
            "url_tdpse_detail": "https://pse.komdigi.go.id/tdpse-detail/20939",
            "website": "indopesona.id"
        },
        {
            "id": "9d5cc96e-73f1-4ab8-a209-db6c0eb55506",
            "nama_pse": "ANUGERAH MOTOR DELAPAN DELAPAN SEMBILAN INDONESIA",
            "nama_se": "PT. ANUGERAH MOTOR DELAPAN DELAPAN SEMBILAN INDONESIA",
            "sektor": "Sektor Perdagangan, Sektor Transportasi",
            "tanggal_terbit": "2024-10-29",
            "url_tdpse_detail": "https://pse.komdigi.go.id/tdpse-detail/20949",
            "website": "-"
        },
        {
            "id": "9d5cd17e-2900-49a9-8859-186634f71f3b",
            "nama_pse": "ANUGERAH MOTOR DELAPAN DELAPAN SEMBILAN INDONESIA",
            "nama_se": "PT ANUGERAH MOTOR DELAPAN DELAPAN SEMBILAN INDONESIA",
            "sektor": "Sektor Perdagangan, Sektor Transportasi",
            "tanggal_terbit": "2024-10-29",
            "url_tdpse_detail": "https://pse.komdigi.go.id/tdpse-detail/20950",
            "website": "-"
        },
        {
            "id": "9d5bbb42-52c4-47e8-b557-4de2cb407859",
            "nama_pse": "KREASI RAYA NUSANTARA",
            "nama_se": "METROBIT",
            "sektor": "Sektor Teknologi Informasi dan Komunikasi",
            "tanggal_terbit": "2024-10-29",
            "url_tdpse_detail": "https://pse.komdigi.go.id/tdpse-detail/20936",
            "website": "metrobit.id"
        },
        {
            "id": "9d5bc44f-82cc-4f64-a239-0dbe94e4b810",
            "nama_pse": "AL AMIN BERKAH SEJAHTERA",
            "nama_se": "KOPERASI MOBILE ON LINE",
            "sektor": "Sektor Teknologi Informasi dan Komunikasi",
            "tanggal_terbit": "2024-10-29",
            "url_tdpse_detail": "https://pse.komdigi.go.id/tdpse-detail/20938",
            "website": "-"
        },
        {
            "id": "9d5bbc7b-048a-462d-9dd0-d208caf98eab",
            "nama_pse": "AFA MENTARI",
            "nama_se": "SIM JGLOW",
            "sektor": "Sektor Kesehatan",
            "tanggal_terbit": "2024-10-29",
            "url_tdpse_detail": "https://pse.komdigi.go.id/tdpse-detail/20937",
            "website": "-"
        },
        {
            "id": "9d5bd235-eae2-4928-98dd-d2e9e5139ad3",
            "nama_pse": "MUHAMAD SULAEMAN",
            "nama_se": "PT FAJARNUSA MULYA ABADI",
            "sektor": "Sektor Teknologi Informasi dan Komunikasi",
            "tanggal_terbit": "2024-10-29",
            "url_tdpse_detail": "https://pse.komdigi.go.id/tdpse-detail/20940",
            "website": "www.fajarnusa.com"
        },
        {
            "id": "9d5bd678-a2b4-49b8-999e-5873cf748d24",
            "nama_pse": "EMAS KARYA ABADI",
            "nama_se": "MOMAPAN",
            "sektor": "Sektor Perdagangan",
            "tanggal_terbit": "2024-10-29",
            "url_tdpse_detail": "https://pse.komdigi.go.id/tdpse-detail/20941",
            "website": "momapan.id"
        },
        {
            "id": "9d5c168c-8984-4d26-8bc4-f96f7e5bae9d",
            "nama_pse": "PILAR SARANA INOVASI",
            "nama_se": "PASARINO",
            "sektor": "Sektor Teknologi Informasi dan Komunikasi",
            "tanggal_terbit": "2024-10-29",
            "url_tdpse_detail": "https://pse.komdigi.go.id/tdpse-detail/20943",
            "website": "pasarino.com"
        },
        {
            "id": "9d5c2029-8589-40b0-874f-a93daf9fb40b",
            "nama_pse": "GARANSI DIGITAL INDONESIA",
            "nama_se": "PT GARANSI DIGITAL INDONESIA",
            "sektor": "Sektor Teknologi Informasi dan Komunikasi",
            "tanggal_terbit": "2024-10-29",
            "url_tdpse_detail": "https://pse.komdigi.go.id/tdpse-detail/20944",
            "website": "garansidigital.com"
        },
        {
            "id": "9d5c2d94-e83c-4360-94d7-ba69c8977099",
            "nama_pse": "INOVASI JAYA DIGITAL",
            "nama_se": "NEEMA",
            "sektor": "Sektor Teknologi Informasi dan Komunikasi",
            "tanggal_terbit": "2024-10-29",
            "url_tdpse_detail": "https://pse.komdigi.go.id/tdpse-detail/20945",
            "website": "neema.asia"
        }
    ],
    "processingTimeMs": 1,
    "query": "",
    "totalHits": 19121,
    "hitsPerPage": 50,
    "page": 29,
    "totalPages": 383
}