{
    "hits": [
        {
            "id": "9cb1abbe-096a-403e-895b-90ae4b59d7e6",
            "nama_pse": "BANK PEMBIAYAAN RAKYAT SYARIAH PNM PATUH BERAMAL",
            "nama_se": "ISLAMIC BANKING APLICATION",
            "sektor": "Sektor Keuangan",
            "tanggal_terbit": "2022-07-26",
            "url_tdpse_detail": "https://pse.komdigi.go.id/tdpse-detail/9078",
            "website": "-"
        },
        {
            "id": "9cb1abce-5e6d-421c-9777-2b4167d41a16",
            "nama_pse": "BANK PERKREDITAN RAKYAT BAHTERAMAS KONAWE UTARA",
            "nama_se": "PD BPR BAHTERAMAS KONAWE UTARA",
            "sektor": "Sektor Keuangan",
            "tanggal_terbit": "2022-07-26",
            "url_tdpse_detail": "https://pse.komdigi.go.id/tdpse-detail/9079",
            "website": "-"
        },
        {
            "id": "9cb1abce-64e3-45cc-9536-a537becfc32b",
            "nama_pse": "BANK PEREKONOMIAN RAKYAT NUSAMBA SUKARAJA",
            "nama_se": "BPR NUSAMBA SUKARAJA",
            "sektor": "Sektor Keuangan",
            "tanggal_terbit": "2022-07-26",
            "url_tdpse_detail": "https://pse.komdigi.go.id/tdpse-detail/9080",
            "website": "bprnusamba-sukaraja.com"
        },
        {
            "id": "9cb1abce-688d-4f7f-9f27-602dc434e71e",
            "nama_pse": "BENUA INTEGRASI GLOBAL",
            "nama_se": "BIG METAVERSE",
            "sektor": "Sektor Teknologi Informasi dan Komunikasi",
            "tanggal_terbit": "2022-07-26",
            "url_tdpse_detail": "https://pse.komdigi.go.id/tdpse-detail/9081",
            "website": "bigmetaverse.io"
        },
        {
            "id": "9cb1abbe-0b65-423d-a9e6-1b99f39f05a5",
            "nama_pse": "MDS DIGITAL MEDIA",
            "nama_se": "JUALAN SOSMED",
            "sektor": "Sektor Perdagangan, Sektor Teknologi Informasi dan Komunikasi",
            "tanggal_terbit": "2022-07-26",
            "url_tdpse_detail": "https://pse.komdigi.go.id/tdpse-detail/9083",
            "website": "jualansosmed.com"
        },
        {
            "id": "9cb1abce-6eab-4ea5-ae2a-764597d29167",
            "nama_pse": "BANK PERKREDITAN RAKYAT X KOTO SINGKARAK",
            "nama_se": "SAK-ETAP",
            "sektor": "Sektor Keuangan",
            "tanggal_terbit": "2022-07-26",
            "url_tdpse_detail": "https://pse.komdigi.go.id/tdpse-detail/9085",
            "website": "-"
        },
        {
            "id": "9cb1abce-7171-4a8d-ada8-6498701c585a",
            "nama_pse": "KONTEN DIGITAL INDONESIA",
            "nama_se": "BUKALOWONGAN.ID",
            "sektor": "Sektor Teknologi Informasi dan Komunikasi",
            "tanggal_terbit": "2022-07-26",
            "url_tdpse_detail": "https://pse.komdigi.go.id/tdpse-detail/9086",
            "website": "bukalowongan.id"
        },
        {
            "id": "9cb1abf4-618b-4bae-9b79-0ba9df8b0d84",
            "nama_pse": "DANA KINI INDONESIA",
            "nama_se": "DANAKINI",
            "sektor": "Sektor Keuangan",
            "tanggal_terbit": "2022-07-26",
            "url_tdpse_detail": "https://pse.komdigi.go.id/tdpse-detail/9087",
            "website": "danakini.co.id"
        },
        {
            "id": "9cb1abce-745f-4f89-bc30-515041566a2b",
            "nama_pse": "CITRA TALENTA GEMILANG",
            "nama_se": "SUGARLIVE",
            "sektor": "Sektor Teknologi Informasi dan Komunikasi",
            "tanggal_terbit": "2022-07-26",
            "url_tdpse_detail": "https://pse.komdigi.go.id/tdpse-detail/9088",
            "website": "sugarlive.co.id"
        },
        {
            "id": "9cb1abbe-0d86-4398-9902-d5df696387ce",
            "nama_pse": "GLOBAL ONKOLAB FARMA",
            "nama_se": "NUTRICAN.ID",
            "sektor": "Sektor Kesehatan",
            "tanggal_terbit": "2022-07-26",
            "url_tdpse_detail": "https://pse.komdigi.go.id/tdpse-detail/9089",
            "website": "nutrican.id"
        },
        {
            "id": "9cb1abf4-67f8-4209-8a5c-a876b572890c",
            "nama_pse": "BAHTIAR MAKMUN",
            "nama_se": "WEB BASE MEDIA",
            "sektor": "Sektor Teknologi Informasi dan Komunikasi",
            "tanggal_terbit": "2022-07-26",
            "url_tdpse_detail": "https://pse.komdigi.go.id/tdpse-detail/9090",
            "website": "webbasemedia.id"
        },
        {
            "id": "9cb1abce-78d2-4ee4-ab52-ef5972f7b2bb",
            "nama_pse": "KREATIFITAS SINERGISME TEKNOINDO",
            "nama_se": "DIRIGO",
            "sektor": "Sektor Perdagangan",
            "tanggal_terbit": "2022-07-26",
            "url_tdpse_detail": "https://pse.komdigi.go.id/tdpse-detail/9092",
            "website": "-"
        },
        {
            "id": "9cb1abf4-6dfe-4d0d-96b8-205300707959",
            "nama_pse": "FOBUMA",
            "nama_se": "FOBUMA",
            "sektor": "Sektor Perdagangan",
            "tanggal_terbit": "2022-07-26",
            "url_tdpse_detail": "https://pse.komdigi.go.id/tdpse-detail/9091",
            "website": "fobuma.com"
        },
        {
            "id": "9cb1abbe-101d-42bd-a0ab-101655d49202",
            "nama_pse": "JADIDUIT GADAI MAKMUR",
            "nama_se": "JADIDUIT",
            "sektor": "Sektor Keuangan",
            "tanggal_terbit": "2022-07-26",
            "url_tdpse_detail": "https://pse.komdigi.go.id/tdpse-detail/9093",
            "website": "jadiduitgadai.id"
        },
        {
            "id": "9cb1abce-7c27-4d12-b2d1-228e47ee8dcd",
            "nama_pse": "SINTA MUSTIKA",
            "nama_se": "APOTEK AASIYAH",
            "sektor": "Sektor Kesehatan",
            "tanggal_terbit": "2022-07-26",
            "url_tdpse_detail": "https://pse.komdigi.go.id/tdpse-detail/9095",
            "website": "-"
        },
        {
            "id": "9cb1abbe-122a-4298-afb3-599710dba916",
            "nama_pse": "BANK PERKREDITAN RAKYAT BADAN KREDIT KECAMATAN DEMAK PERSERODA KAB DEMAK",
            "nama_se": "PT BPR BKK DEMAK PERSERODA KAB DEMAK",
            "sektor": "Sektor Keuangan",
            "tanggal_terbit": "2022-07-26",
            "url_tdpse_detail": "https://pse.komdigi.go.id/tdpse-detail/9094",
            "website": "bprbkkdemak.co.id"
        },
        {
            "id": "9cb1abf4-746a-40b4-b0f8-33ef83af2c85",
            "nama_pse": "TIBER RELOAD SATUI",
            "nama_se": "FAZZINDO",
            "sektor": "Sektor Perdagangan",
            "tanggal_terbit": "2022-07-26",
            "url_tdpse_detail": "https://pse.komdigi.go.id/tdpse-detail/9096",
            "website": "FAZZINDO.COM"
        },
        {
            "id": "9cb1abbe-196e-4082-973f-86d7bfbf7a2b",
            "nama_pse": "SUNJAYA TRIBATARA IBRAHIM",
            "nama_se": "EKSPRESINEWS.COM",
            "sektor": "Sektor Teknologi Informasi dan Komunikasi",
            "tanggal_terbit": "2022-07-26",
            "url_tdpse_detail": "https://pse.komdigi.go.id/tdpse-detail/9097",
            "website": "ekspresinews.com"
        },
        {
            "id": "9cb1abbe-1e89-4de1-addc-02ff1aa70a4d",
            "nama_pse": "EZKAFA MULTI INDOPERKASA",
            "nama_se": "EZKAFAPAY",
            "sektor": "Sektor Perdagangan",
            "tanggal_terbit": "2022-07-26",
            "url_tdpse_detail": "https://pse.komdigi.go.id/tdpse-detail/9098",
            "website": "-"
        },
        {
            "id": "9cb1abbe-20c4-40dd-b3db-0bec17bb10f1",
            "nama_pse": "ANUGERAH INDONESIA LIMA",
            "nama_se": "JIWA SYSTEM",
            "sektor": "Sektor Energi dan Sumber Daya Mineral",
            "tanggal_terbit": "2022-07-26",
            "url_tdpse_detail": "https://pse.komdigi.go.id/tdpse-detail/9102",
            "website": "jiwa.ailima.co.id"
        },
        {
            "id": "9cb1abf4-782e-4a6f-8720-303282f2e567",
            "nama_pse": "MDS DIGITAL MEDIA",
            "nama_se": "DELTA DIGITAL",
            "sektor": "Sektor Perdagangan, Sektor Teknologi Informasi dan Komunikasi",
            "tanggal_terbit": "2022-07-26",
            "url_tdpse_detail": "https://pse.komdigi.go.id/tdpse-detail/9099",
            "website": "deltadigitalsmm.com"
        },
        {
            "id": "9cb1abce-7fd7-465b-b9de-05722851722b",
            "nama_pse": "MDS DIGITAL MEDIA",
            "nama_se": "RICHI SOSMED",
            "sektor": "Sektor Perdagangan, Sektor Teknologi Informasi dan Komunikasi",
            "tanggal_terbit": "2022-07-26",
            "url_tdpse_detail": "https://pse.komdigi.go.id/tdpse-detail/9100",
            "website": "richisosmed.com"
        },
        {
            "id": "9cb1abf4-7bc9-4cee-8766-6a0484660b0f",
            "nama_pse": "ILHAMMEDITA HAKIM",
            "nama_se": "ERAMEDIA HOSTING",
            "sektor": "Sektor Teknologi Informasi dan Komunikasi",
            "tanggal_terbit": "2022-07-26",
            "url_tdpse_detail": "https://pse.komdigi.go.id/tdpse-detail/9101",
            "website": "eramedia.net"
        },
        {
            "id": "9cb1abaf-f598-42d6-956e-08ffc59c8b00",
            "nama_pse": "AWATARA DIGITAL TEKNOLOGI",
            "nama_se": "HITBIT.ID",
            "sektor": "Sektor Perdagangan",
            "tanggal_terbit": "2022-07-25",
            "url_tdpse_detail": "https://pse.komdigi.go.id/tdpse-detail/8995",
            "website": "Hitbit.id"
        },
        {
            "id": "9cb1abc1-db81-464c-a5af-06411af3ab44",
            "nama_pse": "KUWAIS LONTAR INDONESIA",
            "nama_se": "THAWAF",
            "sektor": "Sektor Perdagangan, Sektor Teknologi Informasi dan Komunikasi",
            "tanggal_terbit": "2022-07-25",
            "url_tdpse_detail": "https://pse.komdigi.go.id/tdpse-detail/8932",
            "website": "Thawaf.id"
        },
        {
            "id": "9cb1abbc-544b-4fd0-9fa1-1cc6f4c8bef0",
            "nama_pse": "ASURANSI ALLIANZ LIFE INDONESIA",
            "nama_se": "LEARNING MANAGEMENT SYSTEM (LMS) SABA",
            "sektor": "Sektor Keuangan",
            "tanggal_terbit": "2022-07-25",
            "url_tdpse_detail": "https://pse.komdigi.go.id/tdpse-detail/8963",
            "website": "allianzlearn-in.sabacloud.com"
        },
        {
            "id": "9cb1abcd-719f-46ae-923b-3249a17c4611",
            "nama_pse": "BANK PEREKONOMIAN RAKYAT AMBULU DHANAARTHA",
            "nama_se": "BPRDHANAARTHA.CO.ID",
            "sektor": "Sektor Keuangan",
            "tanggal_terbit": "2022-07-25",
            "url_tdpse_detail": "https://pse.komdigi.go.id/tdpse-detail/8933",
            "website": "bprdhanaartha.co.id"
        },
        {
            "id": "9cb1abbd-608f-4477-a590-865ef2c2bfbc",
            "nama_pse": "SITI MARIAM",
            "nama_se": "INDORELOAD",
            "sektor": "Sektor Perdagangan",
            "tanggal_terbit": "2022-07-25",
            "url_tdpse_detail": "https://pse.komdigi.go.id/tdpse-detail/8934",
            "website": "Indoreload.net"
        },
        {
            "id": "9cb1abf3-6544-4e4f-8cee-51ddfd9a1ba2",
            "nama_pse": "PT. BPR SUKOREJO  MAKMUR",
            "nama_se": "BPRSUKOREJOMAKMUR.CO.ID",
            "sektor": "Sektor Keuangan",
            "tanggal_terbit": "2022-07-25",
            "url_tdpse_detail": "https://pse.komdigi.go.id/tdpse-detail/8935",
            "website": "bprsukorejomakmur.co.id"
        },
        {
            "id": "9cb1abbd-626b-400b-9ff3-c1ad8c425fbb",
            "nama_pse": "BANK PERKREDITAN RAKYAT PESISIR LAYAR BERKEMBANG",
            "nama_se": "PT BPR PESISIR LAYAR BERKEMBANG",
            "sektor": "Sektor Keuangan",
            "tanggal_terbit": "2022-07-25",
            "url_tdpse_detail": "https://pse.komdigi.go.id/tdpse-detail/8936",
            "website": "bprplb.com"
        },
        {
            "id": "9cb1abf3-6b36-411e-94f8-2483bf87090e",
            "nama_pse": "BANK PERKREDITAN RAKYAT DANAMAS BELU",
            "nama_se": "BANK PERKREDITAN RAKYAT DANAMAS BELU",
            "sektor": "Sektor Keuangan",
            "tanggal_terbit": "2022-07-25",
            "url_tdpse_detail": "https://pse.komdigi.go.id/tdpse-detail/8937",
            "website": "bprdanamasbelu.com"
        },
        {
            "id": "9cb1abf3-6fa6-46f4-9ebf-6d88ca9e9490",
            "nama_pse": "BANK PERKREDITAN RAKYAT ANUGRAH SWAKERTA",
            "nama_se": "WWW.BPRANUGRAH.CO.ID",
            "sektor": "Sektor Keuangan",
            "tanggal_terbit": "2022-07-25",
            "url_tdpse_detail": "https://pse.komdigi.go.id/tdpse-detail/8939",
            "website": "-"
        },
        {
            "id": "9cb1abbd-64ea-448a-b725-059b4dc2d5af",
            "nama_pse": "SITI MARIAM",
            "nama_se": "ANDRAPAY",
            "sektor": "Sektor Perdagangan",
            "tanggal_terbit": "2022-07-25",
            "url_tdpse_detail": "https://pse.komdigi.go.id/tdpse-detail/8938",
            "website": "andrapay.com"
        },
        {
            "id": "9cb1abbd-66c4-4dce-889f-d1821f8a85ff",
            "nama_pse": "BANK PERKREDITAN RAKYAT SUKOREJO MAKMUR",
            "nama_se": "BPRSUKOREJOMAKMUR.CO.ID",
            "sektor": "Sektor Keuangan",
            "tanggal_terbit": "2022-07-25",
            "url_tdpse_detail": "https://pse.komdigi.go.id/tdpse-detail/8940",
            "website": "bprsukorejomakmur.co.id"
        },
        {
            "id": "9cb1abf3-73b0-4dd3-942d-c95142805143",
            "nama_pse": "BANK PERKREDITAN RAKYAT MULTI SEMBADA DANA",
            "nama_se": "PT BANK PERKREDITAN RAKYAT MULTI SEMBADA DANA",
            "sektor": "Sektor Keuangan",
            "tanggal_terbit": "2022-07-25",
            "url_tdpse_detail": "https://pse.komdigi.go.id/tdpse-detail/8942",
            "website": "bprsembada.com"
        },
        {
            "id": "9cb1abf3-784d-4482-b7a7-718696ffd7af",
            "nama_pse": "PERUSAHAAN PERSEROAN (PERSERO) PT. BANK RAKYAT INDONESIA",
            "nama_se": "DASHBOARD VIRTUAL ACCOUNT KORPORASI",
            "sektor": "Sektor Keuangan",
            "tanggal_terbit": "2022-07-25",
            "url_tdpse_detail": "https://pse.komdigi.go.id/tdpse-detail/8943",
            "website": "bricorporateva.id"
        },
        {
            "id": "9cb1abbd-6a36-4802-84e3-404ca3ae9585",
            "nama_pse": "BANK PEREKONOMIAN RAKYAT MITRA MAJUJAYA MANDIRI",
            "nama_se": "PT BPR MITRA MAJUJAYA MANDIRI",
            "sektor": "Sektor Keuangan",
            "tanggal_terbit": "2022-07-25",
            "url_tdpse_detail": "https://pse.komdigi.go.id/tdpse-detail/8944",
            "website": "bprmitramajujayamandiri.co.id"
        },
        {
            "id": "9cb1abcd-77cb-4645-bf90-157d4855515d",
            "nama_pse": "ALAMBA MAKMUR BERSAMA",
            "nama_se": "ALAMBAMAKMUR.COM",
            "sektor": "Sektor Perdagangan",
            "tanggal_terbit": "2022-07-25",
            "url_tdpse_detail": "https://pse.komdigi.go.id/tdpse-detail/8945",
            "website": "alambamakmur.com"
        },
        {
            "id": "9cb1abbd-6c76-4c0a-b02f-730adb566372",
            "nama_pse": "ANALISA DATA SOLUSINDO",
            "nama_se": "ZENDZ",
            "sektor": "Sektor Keuangan",
            "tanggal_terbit": "2022-07-25",
            "url_tdpse_detail": "https://pse.komdigi.go.id/tdpse-detail/8946",
            "website": "zendz.id"
        },
        {
            "id": "9cb1abcd-7ac3-4a63-a789-2a5c393f577a",
            "nama_pse": "WAHANA INTERNET NUSANTARA",
            "nama_se": "BNETKU",
            "sektor": "Sektor Perdagangan, Sektor Teknologi Informasi dan Komunikasi",
            "tanggal_terbit": "2022-07-25",
            "url_tdpse_detail": "https://pse.komdigi.go.id/tdpse-detail/8950",
            "website": "my.bnet.id"
        },
        {
            "id": "9cb1abcd-7e64-4ca0-81f4-6544fb874d08",
            "nama_pse": "BANK PERKREDITAN RAKYAT OLYMPINDO PRIMADANA",
            "nama_se": "BPROLYMPINDO.CO.ID",
            "sektor": "Sektor Keuangan",
            "tanggal_terbit": "2022-07-25",
            "url_tdpse_detail": "https://pse.komdigi.go.id/tdpse-detail/8958",
            "website": "bprolympindo.co.id"
        },
        {
            "id": "9cb1abbd-6eaa-4e6c-80d1-25881ed162c5",
            "nama_pse": "ANALISA DATA SOLUSINDO",
            "nama_se": "MYFIEST",
            "sektor": "Sektor Perdagangan",
            "tanggal_terbit": "2022-07-25",
            "url_tdpse_detail": "https://pse.komdigi.go.id/tdpse-detail/8947",
            "website": "myfiest.id"
        },
        {
            "id": "9cb1abcd-81fa-4110-b523-f6e3cf5e21c0",
            "nama_pse": "ANALISA DATA SOLUSINDO",
            "nama_se": "FARMFIZ",
            "sektor": "Sektor Pangan",
            "tanggal_terbit": "2022-07-25",
            "url_tdpse_detail": "https://pse.komdigi.go.id/tdpse-detail/8948",
            "website": "farmfiz.com"
        },
        {
            "id": "9cb1abf3-81b0-4309-a781-d216454ce377",
            "nama_pse": "BANK PERKREDITAN RAKYAT TRI GUNUNG SELATAN",
            "nama_se": "WEBSITE RESMI PT BPR TRI GUNUNG SELATAN",
            "sektor": "Sektor Keuangan",
            "tanggal_terbit": "2022-07-25",
            "url_tdpse_detail": "https://pse.komdigi.go.id/tdpse-detail/8949",
            "website": "bprtrigunungselatan.com"
        },
        {
            "id": "9cb1abcd-8620-493b-8fa7-3c1581f0e4c5",
            "nama_pse": "KORPORA TRAININDO CONSULTANT",
            "nama_se": "PASTIPRESTASI.COM",
            "sektor": "Sektor Perdagangan",
            "tanggal_terbit": "2022-07-25",
            "url_tdpse_detail": "https://pse.komdigi.go.id/tdpse-detail/8953",
            "website": "pastiprestasi.com"
        },
        {
            "id": "9cb1abbd-7142-4584-aedb-22f0e23f828b",
            "nama_pse": "BANK PEREKONOMIAN RAKYAT TULUS",
            "nama_se": "IBS USSI",
            "sektor": "Sektor Keuangan",
            "tanggal_terbit": "2022-07-25",
            "url_tdpse_detail": "https://pse.komdigi.go.id/tdpse-detail/8951",
            "website": "bprtulus.com"
        },
        {
            "id": "9cb1abbd-72f9-4fea-9857-2b4500b5ec4e",
            "nama_pse": "ANALISA DATA SOLUSINDO",
            "nama_se": "RENTHOZ",
            "sektor": "Sektor Perdagangan",
            "tanggal_terbit": "2022-07-25",
            "url_tdpse_detail": "https://pse.komdigi.go.id/tdpse-detail/8952",
            "website": "renthoz.com"
        },
        {
            "id": "9cb1abbd-7547-4bc4-8131-9a26e6e1e855",
            "nama_pse": "BANK PERKREDITAN RAKYAT ANUGERAHDHARMA YUWANA BANYUWANGI",
            "nama_se": "PT. BPR ADY BANYUWANGI",
            "sektor": "Sektor Keuangan",
            "tanggal_terbit": "2022-07-25",
            "url_tdpse_detail": "https://pse.komdigi.go.id/tdpse-detail/8954",
            "website": "adybanyuwangi.co.id"
        },
        {
            "id": "9cb1abcd-8a81-4644-ab8f-ec864ed31ec1",
            "nama_pse": "LOYALTY PROGRAM INDONESIA",
            "nama_se": "QOINPAY",
            "sektor": "Sektor Teknologi Informasi dan Komunikasi",
            "tanggal_terbit": "2022-07-25",
            "url_tdpse_detail": "https://pse.komdigi.go.id/tdpse-detail/8955",
            "website": "-"
        },
        {
            "id": "9cb1abf3-85d1-42ac-88ec-7c88973f94b2",
            "nama_pse": "LIPPO GENERAL INSURANCE",
            "nama_se": "EBENEFIT GENERAL",
            "sektor": "Sektor Perdagangan",
            "tanggal_terbit": "2022-07-25",
            "url_tdpse_detail": "https://pse.komdigi.go.id/tdpse-detail/8960",
            "website": "ebenefit.id"
        }
    ],
    "processingTimeMs": 3,
    "query": "",
    "totalHits": 19121,
    "hitsPerPage": 50,
    "page": 220,
    "totalPages": 383
}