{
    "hits": [
        {
            "id": "9cb1ac48-77e2-4b7a-b0b6-34fae2152987",
            "nama_pse": "KREIGAN DIGITAL WESEL",
            "nama_se": "NEXTRANS",
            "sektor": "Sektor Keuangan",
            "tanggal_terbit": "2023-10-13",
            "url_tdpse_detail": "https://pse.komdigi.go.id/tdpse-detail/16243",
            "website": "nextrans.id"
        },
        {
            "id": "9cb1ac61-17b7-4eb6-8b01-f992a71e79a2",
            "nama_pse": "BANK OCBC NISP",
            "nama_se": "OCBC MOBILE INDONESIA",
            "sektor": "Sektor Keuangan",
            "tanggal_terbit": "2023-10-13",
            "url_tdpse_detail": "https://pse.komdigi.go.id/tdpse-detail/16244",
            "website": "-"
        },
        {
            "id": "9cb1ac61-1a5d-4f94-901c-5e9ee99c0cc3",
            "nama_pse": "BANK OCBC NISP",
            "nama_se": "OCBC WEB INDONESIA",
            "sektor": "Sektor Keuangan",
            "tanggal_terbit": "2023-10-13",
            "url_tdpse_detail": "https://pse.komdigi.go.id/tdpse-detail/16245",
            "website": "online.ocbc.id"
        },
        {
            "id": "9cb1ac4d-f84a-4af2-a78b-048a153c176f",
            "nama_pse": "BANK OCBC NISP",
            "nama_se": "ONBOARDING WEBPORTAL",
            "sektor": "Sektor Keuangan",
            "tanggal_terbit": "2023-10-13",
            "url_tdpse_detail": "https://pse.komdigi.go.id/tdpse-detail/16246",
            "website": "onboarding.ocbc.id"
        },
        {
            "id": "9cb1ac75-4cdb-45a5-9037-14c0048f5e28",
            "nama_pse": "BANK PERKREDITAN RAKYAT MITRA HARMONI MATARAM",
            "nama_se": "BPR MITRA HARMONI MATARAM",
            "sektor": "Sektor Keuangan",
            "tanggal_terbit": "2023-10-13",
            "url_tdpse_detail": "https://pse.komdigi.go.id/tdpse-detail/16247",
            "website": "bprmh-mataram.com"
        },
        {
            "id": "9cb1ac61-2ca6-4401-b7c3-97c346a6aca4",
            "nama_pse": "BANK CENTRAL ASIA",
            "nama_se": "MYBCA BISNIS",
            "sektor": "Sektor Keuangan",
            "tanggal_terbit": "2023-10-13",
            "url_tdpse_detail": "https://pse.komdigi.go.id/tdpse-detail/16248",
            "website": "mybcabisnis.co.id"
        },
        {
            "id": "9cb1ac75-5c18-4d95-8c87-47b6da2fea63",
            "nama_pse": "INDO KOALA REMITTANCE",
            "nama_se": "APLIKASI JACK",
            "sektor": "Sektor Keuangan",
            "tanggal_terbit": "2023-10-13",
            "url_tdpse_detail": "https://pse.komdigi.go.id/tdpse-detail/16249",
            "website": "-"
        },
        {
            "id": "9cb1ac4e-1091-4e88-b68e-89ed4e250bac",
            "nama_pse": "OSHINDO MEDIKA PRATAMA",
            "nama_se": "MEDILABTEKNO",
            "sektor": "Sektor Kesehatan",
            "tanggal_terbit": "2023-10-13",
            "url_tdpse_detail": "https://pse.komdigi.go.id/tdpse-detail/16242",
            "website": "medilabtekno.link"
        },
        {
            "id": "9cb1ac4e-1389-47c7-8c94-3fc584f217ea",
            "nama_pse": "JUBEL IPRIANTO PANDAPOTAN SIMANUNGKALIT",
            "nama_se": "SUAN SIBER",
            "sektor": "Sektor Perdagangan",
            "tanggal_terbit": "2023-10-13",
            "url_tdpse_detail": "https://pse.komdigi.go.id/tdpse-detail/16251",
            "website": "-"
        },
        {
            "id": "9cb1ac75-6249-404c-a702-2e03c17980c2",
            "nama_pse": "GALATIKA MEDIA MULTI",
            "nama_se": "GLEOR.HOSPITAL",
            "sektor": "Sektor Kesehatan",
            "tanggal_terbit": "2023-10-13",
            "url_tdpse_detail": "https://pse.komdigi.go.id/tdpse-detail/16252",
            "website": "gleor.id"
        },
        {
            "id": "9cb1ac61-46e1-45c5-bdac-b79f9e843ebf",
            "nama_pse": "AKHUL KHAFIDIN",
            "nama_se": "PD. LINTANG JAYA ELECTROIK",
            "sektor": "Sektor Perdagangan, Sektor Teknologi Informasi dan Komunikasi",
            "tanggal_terbit": "2023-10-13",
            "url_tdpse_detail": "https://pse.komdigi.go.id/tdpse-detail/16253",
            "website": "-"
        },
        {
            "id": "9cb1ac4e-1656-48d8-8fc7-2785a73547c5",
            "nama_pse": "MICROFAZZ DIGITAL TEKNOLOGI",
            "nama_se": "MICROFAZZ DIGITAL TEKNOLOGI",
            "sektor": "Sektor Perdagangan, Sektor Teknologi Informasi dan Komunikasi",
            "tanggal_terbit": "2023-10-13",
            "url_tdpse_detail": "https://pse.komdigi.go.id/tdpse-detail/16254",
            "website": "MICROFAZZ.COM"
        },
        {
            "id": "9cb1ac61-498a-40e9-a887-e24933ea7dbe",
            "nama_pse": "SISMADI MEDCORPINDO BOYOLALI",
            "nama_se": "SIMRS",
            "sektor": "Sektor Kesehatan",
            "tanggal_terbit": "2023-10-13",
            "url_tdpse_detail": "https://pse.komdigi.go.id/tdpse-detail/16255",
            "website": "-"
        },
        {
            "id": "9cb1ac4e-18ba-48ef-a188-90f95ee63eff",
            "nama_pse": "NATASHA ETERNAL KOMPUTER",
            "nama_se": "NATASHA HEALTH",
            "sektor": "Sektor Kesehatan",
            "tanggal_terbit": "2023-10-13",
            "url_tdpse_detail": "https://pse.komdigi.go.id/tdpse-detail/16256",
            "website": "rsud-karangasem.com"
        },
        {
            "id": "9cb1ac75-658c-4d8f-a0bf-74e6ac9a5ab0",
            "nama_pse": "RONA",
            "nama_se": "KAMPANYELAPTOP",
            "sektor": "Sektor Perdagangan",
            "tanggal_terbit": "2023-10-13",
            "url_tdpse_detail": "https://pse.komdigi.go.id/tdpse-detail/16257",
            "website": "kampanyelaptop.com"
        },
        {
            "id": "9cb1ac75-6853-485c-bc9c-466b2c073143",
            "nama_pse": "RISMAWAN",
            "nama_se": "RISMAWAN.COM",
            "sektor": "Sektor Teknologi Informasi dan Komunikasi",
            "tanggal_terbit": "2023-10-13",
            "url_tdpse_detail": "https://pse.komdigi.go.id/tdpse-detail/16258",
            "website": "rismawan.com"
        },
        {
            "id": "9cb1ac61-4d7c-4956-bcca-65ceb9cae088",
            "nama_pse": "FUSE DIGITAL INDONESIA",
            "nama_se": "FUSE",
            "sektor": "Sektor Teknologi Informasi dan Komunikasi",
            "tanggal_terbit": "2023-10-13",
            "url_tdpse_detail": "https://pse.komdigi.go.id/tdpse-detail/16260",
            "website": "fuse.co.id"
        },
        {
            "id": "9cb1ac75-6b4f-473e-9908-642ce7a9f0f8",
            "nama_pse": "DIGITAL PHARMA ANDALAN INDONESIA",
            "nama_se": "OLIN",
            "sektor": "Sektor Kesehatan, Sektor Teknologi Informasi dan Komunikasi",
            "tanggal_terbit": "2023-10-13",
            "url_tdpse_detail": "https://pse.komdigi.go.id/tdpse-detail/16261",
            "website": "order.olin.co.id"
        },
        {
            "id": "9cb1ac61-5069-41b5-89e6-8f5d849a9b61",
            "nama_pse": "FUSE DIGITAL INDONESIA",
            "nama_se": "FUSE PRO",
            "sektor": "Sektor Teknologi Informasi dan Komunikasi",
            "tanggal_terbit": "2023-10-13",
            "url_tdpse_detail": "https://pse.komdigi.go.id/tdpse-detail/16262",
            "website": "-"
        },
        {
            "id": "9cb1ac61-5307-43fa-9b79-31937f89b2dc",
            "nama_pse": "LAPAK MITRA MANDIRI",
            "nama_se": "SWALAPAK",
            "sektor": "Sektor Perdagangan",
            "tanggal_terbit": "2023-10-13",
            "url_tdpse_detail": "https://pse.komdigi.go.id/tdpse-detail/16263",
            "website": "swalapak.co.id"
        },
        {
            "id": "9cb1ac4e-1b4a-4898-8c54-ec41efa1d44b",
            "nama_pse": "RUMAH SAKIT AISYIYAH BOJONEGORO",
            "nama_se": "SIMRS AISYIYAH BOJONEGORO",
            "sektor": "Sektor Kesehatan",
            "tanggal_terbit": "2023-10-13",
            "url_tdpse_detail": "https://pse.komdigi.go.id/tdpse-detail/16264",
            "website": "rsabojonegoro.com"
        },
        {
            "id": "9cb1ac75-6eee-4002-aefe-6c7ac99d9fbf",
            "nama_pse": "ANDREAS PANDU PAMUNGKAS",
            "nama_se": "BISASEWA.ID",
            "sektor": "Sektor Perdagangan, Sektor Teknologi Informasi dan Komunikasi",
            "tanggal_terbit": "2023-10-13",
            "url_tdpse_detail": "https://pse.komdigi.go.id/tdpse-detail/16265",
            "website": "bisasewa.id"
        },
        {
            "id": "9cb1ac47-0a0e-42d9-ac24-9c8c34bb59ed",
            "nama_pse": "BANK PEMBANGUNAN DAERAH SULAWESI SELATAN DAN SULAWESI BARAT",
            "nama_se": "APLIKASI SISTEM MANAJEMEN KINERJA",
            "sektor": "Sektor Keuangan",
            "tanggal_terbit": "2023-10-12",
            "url_tdpse_detail": "https://pse.komdigi.go.id/tdpse-detail/16228",
            "website": "kpi.banksulselbar.co.id"
        },
        {
            "id": "9cb1ac38-6ca0-4faa-a163-e28dfe232b05",
            "nama_pse": "BANK PEMBANGUNAN DAERAH SULAWESI SELATAN DAN SULAWESI BARAT",
            "nama_se": "WEBSITE LELANG AGUNAN BANK SULSELBAR",
            "sektor": "Sektor Keuangan, Sektor Teknologi Informasi dan Komunikasi",
            "tanggal_terbit": "2023-10-12",
            "url_tdpse_detail": "https://pse.komdigi.go.id/tdpse-detail/16229",
            "website": "lelang.banksulselbar.co.id"
        },
        {
            "id": "9cb1ac4d-ea7f-4cfb-90fc-74710dd5f85e",
            "nama_pse": "KREATIF ASLI INDONESIA",
            "nama_se": "MAHAKAM",
            "sektor": "Sektor Perdagangan",
            "tanggal_terbit": "2023-10-12",
            "url_tdpse_detail": "https://pse.komdigi.go.id/tdpse-detail/16224",
            "website": "mahakamindonesia.com"
        },
        {
            "id": "9cb1ac4d-f279-4217-926a-745539366514",
            "nama_pse": "DIGITAL PERFILMAN INDONESIA",
            "nama_se": "FILINMOVIE",
            "sektor": "Sektor Teknologi Informasi dan Komunikasi",
            "tanggal_terbit": "2023-10-12",
            "url_tdpse_detail": "https://pse.komdigi.go.id/tdpse-detail/16225",
            "website": "filinmovie.com"
        },
        {
            "id": "9cb1ac61-0dac-4199-8f79-9c3d771d2afc",
            "nama_pse": "KARIMA UTAMA SEJAHTERA",
            "nama_se": "REKAM MEDIK ELEKTRONIK KARIMA UTAMA",
            "sektor": "Sektor Kesehatan",
            "tanggal_terbit": "2023-10-12",
            "url_tdpse_detail": "https://pse.komdigi.go.id/tdpse-detail/16227",
            "website": "-"
        },
        {
            "id": "9cb1ac61-12f8-4e56-b5d2-2d0cc94fe9d1",
            "nama_pse": "M TAUFAN ANGGORO",
            "nama_se": "ANY SOLUTION",
            "sektor": "Sektor Teknologi Informasi dan Komunikasi",
            "tanggal_terbit": "2023-10-12",
            "url_tdpse_detail": "https://pse.komdigi.go.id/tdpse-detail/16230",
            "website": "anysolution.id"
        },
        {
            "id": "9cb1ac61-1582-408c-be9a-ad39141cb3bf",
            "nama_pse": "NUSANTARAWAN HEBAT GROUP",
            "nama_se": "TRAVEL NIH",
            "sektor": "Sektor Transportasi",
            "tanggal_terbit": "2023-10-12",
            "url_tdpse_detail": "https://pse.komdigi.go.id/tdpse-detail/16231",
            "website": "travelnih.com"
        },
        {
            "id": "9cb1ac61-2479-4c90-b0cb-cee437e593d2",
            "nama_pse": "INDOPAY DIGITAL SERVICES",
            "nama_se": "INDOPAY DIGITAL SERVICES",
            "sektor": "Sektor Perdagangan, Sektor Teknologi Informasi dan Komunikasi",
            "tanggal_terbit": "2023-10-12",
            "url_tdpse_detail": "https://pse.komdigi.go.id/tdpse-detail/16232",
            "website": "-"
        },
        {
            "id": "9cb1ac61-29d3-4e2a-ac84-c13e015129bf",
            "nama_pse": "PARIPURNA SENTOSA DIGITAL",
            "nama_se": "POINT MEDIC",
            "sektor": "Sektor Kesehatan, Sektor Teknologi Informasi dan Komunikasi",
            "tanggal_terbit": "2023-10-12",
            "url_tdpse_detail": "https://pse.komdigi.go.id/tdpse-detail/16233",
            "website": "-"
        },
        {
            "id": "9cb1ac75-4a05-4802-bc65-350024cee930",
            "nama_pse": "INOVASI SOLUSI NUSANTARA",
            "nama_se": "SPEEDID",
            "sektor": "Sektor Teknologi Informasi dan Komunikasi",
            "tanggal_terbit": "2023-10-12",
            "url_tdpse_detail": "https://pse.komdigi.go.id/tdpse-detail/16234",
            "website": "isn-speed.com"
        },
        {
            "id": "9cb1ac75-4ff7-40cb-9e51-170ed3f770ab",
            "nama_pse": "RIGITA MEDIKA MULYA",
            "nama_se": "ICARES",
            "sektor": "Sektor Kesehatan",
            "tanggal_terbit": "2023-10-12",
            "url_tdpse_detail": "https://pse.komdigi.go.id/tdpse-detail/16239",
            "website": "rumahsakitmulya.com"
        },
        {
            "id": "9cb1ac61-3ba1-4680-8345-15f2f88e5811",
            "nama_pse": "SOLUSI RITEL AMANAH",
            "nama_se": "MOOSLIMIN",
            "sektor": "Sektor Perdagangan",
            "tanggal_terbit": "2023-10-12",
            "url_tdpse_detail": "https://pse.komdigi.go.id/tdpse-detail/16240",
            "website": "mooslimin.id"
        },
        {
            "id": "9cb1ac75-5896-4632-ad5c-800f9285a9fb",
            "nama_pse": "ANTARDATA CAKRAWALA TEKNOLOGI",
            "nama_se": "ANTARMEDIKA MITRA",
            "sektor": "Sektor Kesehatan",
            "tanggal_terbit": "2023-10-12",
            "url_tdpse_detail": "https://pse.komdigi.go.id/tdpse-detail/16241",
            "website": "antarmedika.com"
        },
        {
            "id": "9cb1ac4c-85f5-4962-9d3c-c9d33a2d7489",
            "nama_pse": "CAREPEDIA INOVASI KESEHATAN",
            "nama_se": "CAREPEDIA",
            "sektor": "Sektor Kesehatan",
            "tanggal_terbit": "2023-10-11",
            "url_tdpse_detail": "https://pse.komdigi.go.id/tdpse-detail/16206",
            "website": "carepedia.co"
        },
        {
            "id": "9cb1ac60-f946-4671-8f8f-f185f231e340",
            "nama_pse": "BANK CENTRAL ASIA",
            "nama_se": "MARTA",
            "sektor": "Sektor Keuangan",
            "tanggal_terbit": "2023-10-11",
            "url_tdpse_detail": "https://pse.komdigi.go.id/tdpse-detail/16200",
            "website": "marta.bca.co.id"
        },
        {
            "id": "9cb1ac75-2086-49c2-a3bd-6f28968f60c7",
            "nama_pse": "BANK OCBC NISP",
            "nama_se": "API MANAGEMENT OCBC",
            "sektor": "Sektor Keuangan",
            "tanggal_terbit": "2023-10-11",
            "url_tdpse_detail": "https://pse.komdigi.go.id/tdpse-detail/16201",
            "website": "api.ocbc.id"
        },
        {
            "id": "9cb1ac4d-c6c9-4578-8a27-03661682aec0",
            "nama_pse": "BANK OCBC NISP",
            "nama_se": "OCBC BUSINESS",
            "sektor": "Sektor Keuangan",
            "tanggal_terbit": "2023-10-11",
            "url_tdpse_detail": "https://pse.komdigi.go.id/tdpse-detail/16202",
            "website": "business.ocbc.id"
        },
        {
            "id": "9cb1ac4d-c99f-455b-948c-b407b03779aa",
            "nama_pse": "BANK OCBC NISP",
            "nama_se": "OCBC BUSINESS MOBILE",
            "sektor": "Sektor Keuangan",
            "tanggal_terbit": "2023-10-11",
            "url_tdpse_detail": "https://pse.komdigi.go.id/tdpse-detail/16203",
            "website": "businessmobile.ocbc.id"
        },
        {
            "id": "9cb1ac4d-cfb7-407e-ad09-507b7c64ced2",
            "nama_pse": "BANK OCBC NISP",
            "nama_se": "ONBOARDING WEBSITE OCBC",
            "sektor": "Sektor Keuangan",
            "tanggal_terbit": "2023-10-11",
            "url_tdpse_detail": "https://pse.komdigi.go.id/tdpse-detail/16204",
            "website": "onestore.ocbc.id"
        },
        {
            "id": "9cb1ac75-27cf-4d57-944f-a0df28f8385c",
            "nama_pse": "SIRKULASI KOMPAS GRAMEDIA",
            "nama_se": "KGX",
            "sektor": "Sektor Perdagangan, Sektor Transportasi",
            "tanggal_terbit": "2023-10-11",
            "url_tdpse_detail": "https://pse.komdigi.go.id/tdpse-detail/16199",
            "website": "kgx.co.id"
        },
        {
            "id": "9cb1ac4d-d82f-46de-afa8-06ae489eff7d",
            "nama_pse": "RUMKIT BHAYANGKARA YOGYAKARTA KEPOLISIAN NEGARA REPUBLIK INDONESIA",
            "nama_se": "SISTEM INFORMASI MANAJEMEN RUMAH SAKIT BHAYANGKARA POLDA DIY",
            "sektor": "Sektor Kesehatan",
            "tanggal_terbit": "2023-10-11",
            "url_tdpse_detail": "https://pse.komdigi.go.id/tdpse-detail/16207",
            "website": "rsbhayangkarajogja.com"
        },
        {
            "id": "9cb1ac4d-dbc0-4703-8184-f9b5a2a3642c",
            "nama_pse": "IRON ASSET INDONESIA",
            "nama_se": "INNER CIRCLE WEB SERVICE",
            "sektor": "Sektor Teknologi Informasi dan Komunikasi",
            "tanggal_terbit": "2023-10-11",
            "url_tdpse_detail": "https://pse.komdigi.go.id/tdpse-detail/16211",
            "website": "innercircle.im"
        },
        {
            "id": "9cb1ac75-2d52-416e-ac55-ee74b88eb019",
            "nama_pse": "BANK OCBC NISP",
            "nama_se": "WHISTLEBLOWING OCBC",
            "sektor": "Sektor Teknologi Informasi dan Komunikasi",
            "tanggal_terbit": "2023-10-11",
            "url_tdpse_detail": "https://pse.komdigi.go.id/tdpse-detail/16209",
            "website": "whistleblowing.ocbc.id"
        },
        {
            "id": "9cb1ac75-2fec-4ef7-b1f2-82ab55d9126f",
            "nama_pse": "SUSILO",
            "nama_se": "GOPERUBAHAN.ID",
            "sektor": "Sektor Teknologi Informasi dan Komunikasi",
            "tanggal_terbit": "2023-10-11",
            "url_tdpse_detail": "https://pse.komdigi.go.id/tdpse-detail/16210",
            "website": "goperubahan.id"
        },
        {
            "id": "9cb1ac75-388d-4517-bf3e-60bc8e3d4cbd",
            "nama_pse": "BINA UMAT ALUMM",
            "nama_se": "BINA UMAT ALUMM",
            "sektor": "Sektor Perdagangan, Sektor Teknologi Informasi dan Komunikasi",
            "tanggal_terbit": "2023-10-11",
            "url_tdpse_detail": "https://pse.komdigi.go.id/tdpse-detail/16212",
            "website": "alumm.or.id"
        },
        {
            "id": "9cb1ac75-3b25-4e00-af91-0daaa7ff1115",
            "nama_pse": "HARMONI UNTUK BERSAMA",
            "nama_se": "NMW SKINCARE",
            "sektor": "Sektor Kesehatan",
            "tanggal_terbit": "2023-10-11",
            "url_tdpse_detail": "https://pse.komdigi.go.id/tdpse-detail/16213",
            "website": "nmwskincare.com"
        },
        {
            "id": "9cb1ac60-fe9a-40e6-a3ce-04301526c949",
            "nama_pse": "TRISOLAH PARAHYANGAN INDONESIA",
            "nama_se": "TRISOLAH PARAHYANGAN",
            "sektor": "Sektor Perdagangan",
            "tanggal_terbit": "2023-10-11",
            "url_tdpse_detail": "https://pse.komdigi.go.id/tdpse-detail/16214",
            "website": "trisolahparahyangan.com"
        },
        {
            "id": "9cb1ac4d-de80-4b41-83f1-8f69e53c6a52",
            "nama_pse": "STARA EDU GLOBAL",
            "nama_se": "STARA WEB APP",
            "sektor": "Sektor Perdagangan, Sektor Transportasi, Sektor Teknologi Informasi dan Komunikasi",
            "tanggal_terbit": "2023-10-11",
            "url_tdpse_detail": "https://pse.komdigi.go.id/tdpse-detail/16215",
            "website": "hjb.staraenterprise.com"
        }
    ],
    "processingTimeMs": 40,
    "query": "",
    "totalHits": 19131,
    "hitsPerPage": 50,
    "page": 114,
    "totalPages": 383
}