{
    "hits": [
        {
            "id": "9cb1ac64-3978-49a0-a043-3b1f49d4e973",
            "nama_pse": "ARMADA DIGITAL NUSANTARA",
            "nama_se": "ARMADAGAMER.",
            "sektor": "Sektor Perdagangan",
            "tanggal_terbit": "2023-12-07",
            "url_tdpse_detail": "https://pse.komdigi.go.id/tdpse-detail/16786",
            "website": "armadagamer.net"
        },
        {
            "id": "9cb1ac64-3dba-4a9b-adb4-559748997457",
            "nama_pse": "JARINGAN SUKSES TELEKOMUNIKASI",
            "nama_se": "DIGTECHZ",
            "sektor": "Sektor Teknologi Informasi dan Komunikasi",
            "tanggal_terbit": "2023-12-07",
            "url_tdpse_detail": "https://pse.komdigi.go.id/tdpse-detail/16787",
            "website": "-"
        },
        {
            "id": "9cb1ac64-4176-42c1-a67e-367ba08e3333",
            "nama_pse": "ENERGI TEKNOLOGI SEJATI",
            "nama_se": "ENERGIDIGI",
            "sektor": "Sektor Perdagangan",
            "tanggal_terbit": "2023-12-07",
            "url_tdpse_detail": "https://pse.komdigi.go.id/tdpse-detail/16788",
            "website": "energidigi.com"
        },
        {
            "id": "9cb1ac77-e2dc-4490-b959-ed3b0ae48ddd",
            "nama_pse": "HUSADA MULIA GRUP",
            "nama_se": "SIMKHM.ID",
            "sektor": "Sektor Kesehatan",
            "tanggal_terbit": "2023-12-07",
            "url_tdpse_detail": "https://pse.komdigi.go.id/tdpse-detail/16789",
            "website": "simkhm.id"
        },
        {
            "id": "9cb1ac64-44c2-4686-9914-02f0ee8b8266",
            "nama_pse": "NIRWANA KENCANA TEKNOLOGI",
            "nama_se": "TOKOKUKANG",
            "sektor": "Sektor Perdagangan",
            "tanggal_terbit": "2023-12-07",
            "url_tdpse_detail": "https://pse.komdigi.go.id/tdpse-detail/16790",
            "website": "tokokukang.com"
        },
        {
            "id": "9cb1ac64-47cb-4338-bf96-3929f28d076a",
            "nama_pse": "DIGITAL ENERGI TEKNOLOGI",
            "nama_se": "KEKIOS",
            "sektor": "Sektor Perdagangan",
            "tanggal_terbit": "2023-12-07",
            "url_tdpse_detail": "https://pse.komdigi.go.id/tdpse-detail/16796",
            "website": "kekios.net"
        },
        {
            "id": "9cb1ac50-dcdd-48bb-a8b9-657187c4b9ea",
            "nama_pse": "KREASI KUANTUM INDONESIA",
            "nama_se": "KUANTUMKREASI",
            "sektor": "Sektor Perdagangan",
            "tanggal_terbit": "2023-12-07",
            "url_tdpse_detail": "https://pse.komdigi.go.id/tdpse-detail/16797",
            "website": "kuantumkreasi.com"
        },
        {
            "id": "9cb1ac50-e073-4b95-8843-bfa3adb58cb4",
            "nama_pse": "TEKNO VISTA INDONESIA",
            "nama_se": "VISTATEKNO",
            "sektor": "Sektor Perdagangan",
            "tanggal_terbit": "2023-12-07",
            "url_tdpse_detail": "https://pse.komdigi.go.id/tdpse-detail/16798",
            "website": "vistatekno.com"
        },
        {
            "id": "9cb1ac64-53f7-47cc-b8c4-172d8f841b95",
            "nama_pse": "MITRA DATA JOGJA",
            "nama_se": "MITRA DATA JOGJA",
            "sektor": "Sektor Kesehatan",
            "tanggal_terbit": "2023-12-07",
            "url_tdpse_detail": "https://pse.komdigi.go.id/tdpse-detail/16802",
            "website": "-"
        },
        {
            "id": "9cb1ac64-5728-43e7-ab4b-28d047d19359",
            "nama_pse": "ADHIMUKTI PRADANA MANDIRI",
            "nama_se": "ADHISHOP",
            "sektor": "Sektor Perdagangan",
            "tanggal_terbit": "2023-12-07",
            "url_tdpse_detail": "https://pse.komdigi.go.id/tdpse-detail/16799",
            "website": "adhishop.com"
        },
        {
            "id": "9cb1ac64-5a2e-492a-90f4-ebbe8555fdb8",
            "nama_pse": "MICROVAC INDONESIA",
            "nama_se": "SISTEM INFORMASI MEDIKAL",
            "sektor": "Sektor Kesehatan",
            "tanggal_terbit": "2023-12-07",
            "url_tdpse_detail": "https://pse.komdigi.go.id/tdpse-detail/16800",
            "website": "-"
        },
        {
            "id": "9cb1ac50-e39c-42be-b1de-0072784a58a8",
            "nama_pse": "PANGLIMA PUJI NUSANTARA",
            "nama_se": "PANGLIMAPUJINUSANTARA",
            "sektor": "Sektor Perdagangan",
            "tanggal_terbit": "2023-12-07",
            "url_tdpse_detail": "https://pse.komdigi.go.id/tdpse-detail/16801",
            "website": "panglimapujinusantara.com"
        },
        {
            "id": "9cb1ac77-e647-4554-8376-06f859c22ec8",
            "nama_pse": "MITRA TEKNOLOGI SEMBADA",
            "nama_se": "SEMBADATEKNOLOGI",
            "sektor": "Sektor Perdagangan",
            "tanggal_terbit": "2023-12-07",
            "url_tdpse_detail": "https://pse.komdigi.go.id/tdpse-detail/16803",
            "website": "sembadateknologi.com"
        },
        {
            "id": "9cb1ac64-5d16-4727-bba1-a833e1f2a07d",
            "nama_pse": "MEDIA JURNALIS MAKMUR",
            "nama_se": "NEWJURNALIS.COM",
            "sektor": "Sektor Teknologi Informasi dan Komunikasi",
            "tanggal_terbit": "2023-12-07",
            "url_tdpse_detail": "https://pse.komdigi.go.id/tdpse-detail/16804",
            "website": "newjurnalis.com"
        },
        {
            "id": "9cb1ac50-9907-4f0e-8953-9820d2cc4ec8",
            "nama_pse": "PONDOK PULSA SEJAHTERA",
            "nama_se": "PONDOK PULSA",
            "sektor": "Sektor Perdagangan",
            "tanggal_terbit": "2023-12-06",
            "url_tdpse_detail": "https://pse.komdigi.go.id/tdpse-detail/16758",
            "website": "-"
        },
        {
            "id": "9cb1ac77-c678-4d97-94ba-0c6159cf455c",
            "nama_pse": "TEKNOLOGI PORTAL BERJUALAN",
            "nama_se": "BERDJOEALAN",
            "sektor": "Sektor Teknologi Informasi dan Komunikasi",
            "tanggal_terbit": "2023-12-06",
            "url_tdpse_detail": "https://pse.komdigi.go.id/tdpse-detail/16755",
            "website": "-"
        },
        {
            "id": "9cb1ac64-0c0b-4189-8ac8-746734770142",
            "nama_pse": "DIMEDIKA INOVASI INDONESIA",
            "nama_se": "DIMEDIKA.ID",
            "sektor": "Sektor Kesehatan, Sektor Teknologi Informasi dan Komunikasi",
            "tanggal_terbit": "2023-12-06",
            "url_tdpse_detail": "https://pse.komdigi.go.id/tdpse-detail/16756",
            "website": "-"
        },
        {
            "id": "9cb1ac77-c9be-4621-9ae9-34483769dcdf",
            "nama_pse": "PERS BIDIK MEDIA GROUP",
            "nama_se": "BIDIK MEDIA NEWS",
            "sektor": "Sektor Teknologi Informasi dan Komunikasi",
            "tanggal_terbit": "2023-12-06",
            "url_tdpse_detail": "https://pse.komdigi.go.id/tdpse-detail/16757",
            "website": "-"
        },
        {
            "id": "9cb1ac64-0f03-4043-b47f-a271eac4d02b",
            "nama_pse": "ANUGRAH PRIMA LANGGENG",
            "nama_se": "SEDAYU ONE CITY",
            "sektor": "Sektor Teknologi Informasi dan Komunikasi",
            "tanggal_terbit": "2023-12-06",
            "url_tdpse_detail": "https://pse.komdigi.go.id/tdpse-detail/16759",
            "website": "-"
        },
        {
            "id": "9cb1ac50-bf39-4a4d-b7ee-2dd732f8daae",
            "nama_pse": "MUTIA SARI",
            "nama_se": "SIMKES KHANZA",
            "sektor": "Sektor Kesehatan",
            "tanggal_terbit": "2023-12-06",
            "url_tdpse_detail": "https://pse.komdigi.go.id/tdpse-detail/16760",
            "website": "-"
        },
        {
            "id": "9cb1ac77-cdd6-4e85-abb1-4bfb6552038d",
            "nama_pse": "DWI NASIONAL GRUP",
            "nama_se": "LAYANAN INTERNET LOKAL ( RT RW NET )",
            "sektor": "Sektor Teknologi Informasi dan Komunikasi",
            "tanggal_terbit": "2023-12-06",
            "url_tdpse_detail": "https://pse.komdigi.go.id/tdpse-detail/16761",
            "website": "-"
        },
        {
            "id": "9cb1ac77-d1bf-4d07-8340-e67af7e4d263",
            "nama_pse": "DWI NASIONAL GRUP",
            "nama_se": "JASA LAYANAN INTERNET LOKAL ( RT RW NET )",
            "sektor": "Sektor Teknologi Informasi dan Komunikasi",
            "tanggal_terbit": "2023-12-06",
            "url_tdpse_detail": "https://pse.komdigi.go.id/tdpse-detail/16762",
            "website": "-"
        },
        {
            "id": "9cb1ac50-c42e-434c-936d-235f7c8b2a22",
            "nama_pse": "ILANUR",
            "nama_se": "ILANUR",
            "sektor": "Sektor Kesehatan",
            "tanggal_terbit": "2023-12-06",
            "url_tdpse_detail": "https://pse.komdigi.go.id/tdpse-detail/16768",
            "website": "ilanur.com"
        },
        {
            "id": "9cb1ac64-1272-4d6a-8acd-e5f6acd88230",
            "nama_pse": "DUA SEPTEMBER BOYOLALI (RS HIDAYAH BOYOLALI)",
            "nama_se": "SIMRS RSU HIDAYAH BOYOLALI",
            "sektor": "Sektor Kesehatan",
            "tanggal_terbit": "2023-12-06",
            "url_tdpse_detail": "https://pse.komdigi.go.id/tdpse-detail/16763",
            "website": "-"
        },
        {
            "id": "9cb1ac50-c711-4d2d-aef6-d57dc17c1ff3",
            "nama_pse": "PRO INT DINAMIKA",
            "nama_se": "PRO-INT HR CLOUD",
            "sektor": "Sektor Teknologi Informasi dan Komunikasi",
            "tanggal_terbit": "2023-12-06",
            "url_tdpse_detail": "https://pse.komdigi.go.id/tdpse-detail/16764",
            "website": "hrcloud.pro-int.com"
        },
        {
            "id": "9cb1ac64-1611-4c74-a84f-902636828f16",
            "nama_pse": "SULTHAN PUTRA FAZZAR",
            "nama_se": "ABUS ( APLIKASI BANTU KESEHATAN)",
            "sektor": "Sektor Kesehatan",
            "tanggal_terbit": "2023-12-06",
            "url_tdpse_detail": "https://pse.komdigi.go.id/tdpse-detail/16765",
            "website": "-"
        },
        {
            "id": "9cb1ac64-194d-4de3-8dc4-9664d7098593",
            "nama_pse": "RARIA MEDIA GROUP",
            "nama_se": "RARIAMEDIA.COM",
            "sektor": "Sektor Teknologi Informasi dan Komunikasi",
            "tanggal_terbit": "2023-12-06",
            "url_tdpse_detail": "https://pse.komdigi.go.id/tdpse-detail/16766",
            "website": "RARIAMEDIA.COM"
        },
        {
            "id": "9cb1ac77-d54a-4d27-a0c1-a35e7176af5c",
            "nama_pse": "DIFA MEDIA KOMUNIKA",
            "nama_se": "DIFA MEDIA KOMUNIKA",
            "sektor": "Sektor Perdagangan",
            "tanggal_terbit": "2023-12-06",
            "url_tdpse_detail": "https://pse.komdigi.go.id/tdpse-detail/16767",
            "website": "-"
        },
        {
            "id": "9cb1ac62-61eb-4c4a-9e93-eed283b792c3",
            "nama_pse": "GLOBAL PRIMA UTAMA",
            "nama_se": "SISTEM INFORMASI MANAJEMEN PUSKESMAS (SIMPUS)",
            "sektor": "Sektor Kesehatan, Sektor Teknologi Informasi dan Komunikasi",
            "tanggal_terbit": "2023-12-05",
            "url_tdpse_detail": "https://pse.komdigi.go.id/tdpse-detail/16744",
            "website": "-"
        },
        {
            "id": "9cb1ac76-bbe0-4dd0-a5d9-1b237586ef8e",
            "nama_pse": "PINJ TEKNOLOGI INDONESIA",
            "nama_se": "PIN'J",
            "sektor": "Sektor Perdagangan, Sektor Teknologi Informasi dan Komunikasi",
            "tanggal_terbit": "2023-12-05",
            "url_tdpse_detail": "https://pse.komdigi.go.id/tdpse-detail/16743",
            "website": "-"
        },
        {
            "id": "9cb1ac77-8e77-46c4-b265-338078d24885",
            "nama_pse": "AIQQON TRIARTA MAS",
            "nama_se": "ZADAHOUSE",
            "sektor": "Sektor Perdagangan",
            "tanggal_terbit": "2023-12-05",
            "url_tdpse_detail": "https://pse.komdigi.go.id/tdpse-detail/16747",
            "website": "zadahouse.id"
        },
        {
            "id": "9cb1ac50-9f93-4a64-b7d1-5e34a0c98b6d",
            "nama_pse": "AYAHBUNDA ABADI",
            "nama_se": "SIM RS KUSUMA UNGARAN",
            "sektor": "Sektor Kesehatan",
            "tanggal_terbit": "2023-12-05",
            "url_tdpse_detail": "https://pse.komdigi.go.id/tdpse-detail/16741",
            "website": "rskusuma.com"
        },
        {
            "id": "9cb1ac77-bd15-45f0-a246-fb53a378e321",
            "nama_pse": "KAWAN INDONESIA SELARAS",
            "nama_se": "KISKONSULTAN.COM",
            "sektor": "Sektor Perdagangan",
            "tanggal_terbit": "2023-12-05",
            "url_tdpse_detail": "https://pse.komdigi.go.id/tdpse-detail/16742",
            "website": "kiskonsultan.com"
        },
        {
            "id": "9cb1ac63-fda7-48e0-bf27-be2e21268d30",
            "nama_pse": "MODERN ADVERTISING SOLUTION",
            "nama_se": "OCE SYARIAH",
            "sektor": "Sektor Transportasi",
            "tanggal_terbit": "2023-12-05",
            "url_tdpse_detail": "https://pse.komdigi.go.id/tdpse-detail/16745",
            "website": "-"
        },
        {
            "id": "9cb1ac50-a2b3-4bb8-9ccd-fa6a430fdf68",
            "nama_pse": "SEMESTA TATA NIAGA",
            "nama_se": "TATANIAGA.COM",
            "sektor": "Sektor Teknologi Informasi dan Komunikasi",
            "tanggal_terbit": "2023-12-05",
            "url_tdpse_detail": "https://pse.komdigi.go.id/tdpse-detail/16746",
            "website": "-"
        },
        {
            "id": "9cb1ac50-ab25-4f90-9f59-62d0c19d9e1f",
            "nama_pse": "TIGA KREASI MEDIA",
            "nama_se": "TIGA KREASI STUDIOS",
            "sektor": "Sektor Perdagangan",
            "tanggal_terbit": "2023-12-05",
            "url_tdpse_detail": "https://pse.komdigi.go.id/tdpse-detail/16748",
            "website": "-"
        },
        {
            "id": "9cb1ac50-b0c2-4ff4-a85b-da3b9e70cb64",
            "nama_pse": "MARKET AMERICA INDONESIA",
            "nama_se": "ID.SHOP.COM",
            "sektor": "Sektor Perdagangan",
            "tanggal_terbit": "2023-12-05",
            "url_tdpse_detail": "https://pse.komdigi.go.id/tdpse-detail/16750",
            "website": "id.shop.com"
        },
        {
            "id": "9cb1ac50-b40d-4d1a-9aa1-0d26e2eced40",
            "nama_pse": "Orion Bandung",
            "nama_se": "PASIENQU PRO",
            "sektor": "Sektor Kesehatan",
            "tanggal_terbit": "2023-12-05",
            "url_tdpse_detail": "https://pse.komdigi.go.id/tdpse-detail/16749",
            "website": "-"
        },
        {
            "id": "9cb1ac64-018d-414b-aff2-8b05f5c9bf5a",
            "nama_pse": "JAVAGO INTI SOLUTIONS",
            "nama_se": "JAVAGO INTI WISATA",
            "sektor": "Sektor Perdagangan",
            "tanggal_terbit": "2023-12-05",
            "url_tdpse_detail": "https://pse.komdigi.go.id/tdpse-detail/16751",
            "website": "javagointiwisata.com"
        },
        {
            "id": "9cb1ac77-c335-4a54-aa18-776d3690df32",
            "nama_pse": "WARDA YOHANA",
            "nama_se": "NONTON HEMAT",
            "sektor": "Sektor Perdagangan, Sektor Teknologi Informasi dan Komunikasi",
            "tanggal_terbit": "2023-12-05",
            "url_tdpse_detail": "https://pse.komdigi.go.id/tdpse-detail/16752",
            "website": "-"
        },
        {
            "id": "9cb1ac64-04c5-4966-9366-47fcf528f117",
            "nama_pse": "KOZY PROPERTI MANAJEMEN INTERNASIONAL",
            "nama_se": "KOZYSTAY",
            "sektor": "Sektor Perdagangan",
            "tanggal_terbit": "2023-12-05",
            "url_tdpse_detail": "https://pse.komdigi.go.id/tdpse-detail/16753",
            "website": "-"
        },
        {
            "id": "9cb1ac64-08de-49e7-bbcb-6100a3551dc0",
            "nama_pse": "NADIFA GLOBAL SOLUSINDO",
            "nama_se": "ULTRA MEDIS",
            "sektor": "Sektor Kesehatan",
            "tanggal_terbit": "2023-12-05",
            "url_tdpse_detail": "https://pse.komdigi.go.id/tdpse-detail/16754",
            "website": "-"
        },
        {
            "id": "9cb1ac77-b63a-4609-a420-52afd7f3b6a8",
            "nama_pse": "VISIONET INTERNASIONAL INOVASI",
            "nama_se": "INSURANCE WIDGET PADA APLIKASI DAN WEBSITE GRAB",
            "sektor": "Sektor Perdagangan",
            "tanggal_terbit": "2023-12-04",
            "url_tdpse_detail": "https://pse.komdigi.go.id/tdpse-detail/16737",
            "website": "-"
        },
        {
            "id": "9cb1ac77-ba40-4df6-9b39-3513db0fcdaa",
            "nama_pse": "INSAN CAHYA UTAMA",
            "nama_se": "INSAN CAHYA UTAMA",
            "sektor": "Sektor Perdagangan",
            "tanggal_terbit": "2023-12-04",
            "url_tdpse_detail": "https://pse.komdigi.go.id/tdpse-detail/16738",
            "website": "-"
        },
        {
            "id": "9cb1ac63-fa2b-4c7b-8bea-2313f166aea2",
            "nama_pse": "MEGA ARTHA TEKNOLOGI",
            "nama_se": "MEGATECH",
            "sektor": "Sektor Perdagangan",
            "tanggal_terbit": "2023-12-04",
            "url_tdpse_detail": "https://pse.komdigi.go.id/tdpse-detail/16739",
            "website": "-"
        },
        {
            "id": "9cb1ac50-9c89-4644-a37a-3c84b29e7f2d",
            "nama_pse": "MEDIA SIBER KAMARU",
            "nama_se": "PANDUANRAKYAT.COM",
            "sektor": "Sektor Teknologi Informasi dan Komunikasi",
            "tanggal_terbit": "2023-12-04",
            "url_tdpse_detail": "https://pse.komdigi.go.id/tdpse-detail/16740",
            "website": "-"
        },
        {
            "id": "9cb1ac50-95d9-43ed-9d67-d7198485e436",
            "nama_pse": "MARKETPLACE NISA INTERNASIONAL MAJU",
            "nama_se": "NISA PULSA AGEN PPOB TERMURAH",
            "sektor": "Sektor Teknologi Informasi dan Komunikasi",
            "tanggal_terbit": "2023-12-03",
            "url_tdpse_detail": "https://pse.komdigi.go.id/tdpse-detail/16735",
            "website": "-"
        },
        {
            "id": "9cb1ac77-b3a8-4f0d-bd0c-9af72522bc56",
            "nama_pse": "BAROKAH JAYA MULTIPAYMENT",
            "nama_se": "AM RELOAD - PULSA \u0026 PPOB MURAH",
            "sektor": "Sektor Teknologi Informasi dan Komunikasi",
            "tanggal_terbit": "2023-12-03",
            "url_tdpse_detail": "https://pse.komdigi.go.id/tdpse-detail/16736",
            "website": "-"
        },
        {
            "id": "9cb1ac63-f6ef-49b1-8a30-6d4584a88c18",
            "nama_pse": "ACHMAD YALZAN",
            "nama_se": "APLIKASI BLIIN INDONESIA",
            "sektor": "Sektor Teknologi Informasi dan Komunikasi",
            "tanggal_terbit": "2023-12-02",
            "url_tdpse_detail": "https://pse.komdigi.go.id/tdpse-detail/16732",
            "website": "bliin.id"
        },
        {
            "id": "9cb1ac77-b088-474c-94f9-2d68f72066a6",
            "nama_pse": "MUHAMMAD AJI PANGESTU",
            "nama_se": "EAMPLANG (NAJWA)",
            "sektor": "Sektor Perdagangan, Sektor Teknologi Informasi dan Komunikasi",
            "tanggal_terbit": "2023-12-02",
            "url_tdpse_detail": "https://pse.komdigi.go.id/tdpse-detail/16733",
            "website": "najwa.minat.store"
        }
    ],
    "processingTimeMs": 17,
    "query": "",
    "totalHits": 19121,
    "hitsPerPage": 50,
    "page": 104,
    "totalPages": 383
}