{
    "hits": [
        {
            "id": "9cb1ac23-5415-4fb4-989d-c0ef6ffc45f4",
            "nama_pse": "USSI",
            "nama_se": "BMT INSAH SAKINAH MOBILE",
            "sektor": "Sektor Teknologi Informasi dan Komunikasi",
            "tanggal_terbit": "2023-06-07",
            "url_tdpse_detail": "https://pse.komdigi.go.id/tdpse-detail/14949",
            "website": "-"
        },
        {
            "id": "9cb1ac23-397e-4a82-ab50-cbacc75c504e",
            "nama_pse": "USSI",
            "nama_se": "BMT DARUSSALAM MOBILE",
            "sektor": "Sektor Teknologi Informasi dan Komunikasi",
            "tanggal_terbit": "2023-06-06",
            "url_tdpse_detail": "https://pse.komdigi.go.id/tdpse-detail/14942",
            "website": "-"
        },
        {
            "id": "9cb1ac23-1d9b-481f-9303-46f82235a802",
            "nama_pse": "USSI",
            "nama_se": "BMT ASSAKINAH MOBILE",
            "sektor": "Sektor Teknologi Informasi dan Komunikasi",
            "tanggal_terbit": "2023-06-05",
            "url_tdpse_detail": "https://pse.komdigi.go.id/tdpse-detail/14935",
            "website": "-"
        },
        {
            "id": "9cb1ac22-ef0b-466a-b63a-d19983c93d84",
            "nama_pse": "USSI",
            "nama_se": "BMM ONLINE",
            "sektor": "Sektor Teknologi Informasi dan Komunikasi",
            "tanggal_terbit": "2023-05-29",
            "url_tdpse_detail": "https://pse.komdigi.go.id/tdpse-detail/14898",
            "website": "-"
        },
        {
            "id": "9cb1ac44-df2c-4f1a-b84a-7b8ca1dcfdd8",
            "nama_pse": "USSI",
            "nama_se": "BMT AMANAH SULTRA MOBILE",
            "sektor": "Sektor Teknologi Informasi dan Komunikasi",
            "tanggal_terbit": "2023-05-29",
            "url_tdpse_detail": "https://pse.komdigi.go.id/tdpse-detail/14902",
            "website": "-"
        },
        {
            "id": "9cb1ac44-cb60-4f43-a5e2-9ef3e0176b27",
            "nama_pse": "USSI",
            "nama_se": "BMM MOBILE",
            "sektor": "Sektor Teknologi Informasi dan Komunikasi",
            "tanggal_terbit": "2023-05-29",
            "url_tdpse_detail": "https://pse.komdigi.go.id/tdpse-detail/14897",
            "website": "-"
        },
        {
            "id": "9cb1ac35-3bcc-4138-b41b-683861fcb9b0",
            "nama_pse": "USSI",
            "nama_se": "BMA MOBILE",
            "sektor": "Sektor Teknologi Informasi dan Komunikasi",
            "tanggal_terbit": "2023-05-29",
            "url_tdpse_detail": "https://pse.komdigi.go.id/tdpse-detail/14895",
            "website": "-"
        },
        {
            "id": "9cb1ac22-f656-42e9-9b5e-b22da7bcfe6a",
            "nama_pse": "USSI",
            "nama_se": "BMT AL BAHJAH MOBILE",
            "sektor": "Sektor Teknologi Informasi dan Komunikasi",
            "tanggal_terbit": "2023-05-29",
            "url_tdpse_detail": "https://pse.komdigi.go.id/tdpse-detail/14900",
            "website": "-"
        },
        {
            "id": "9cb1ac22-f29e-4ef2-b7e2-58d7cfb49e3b",
            "nama_pse": "USSI",
            "nama_se": "BMS MOBILE",
            "sektor": "Sektor Teknologi Informasi dan Komunikasi",
            "tanggal_terbit": "2023-05-29",
            "url_tdpse_detail": "https://pse.komdigi.go.id/tdpse-detail/14899",
            "website": "-"
        },
        {
            "id": "9cb1ac22-fa25-4135-bf88-3b9bec416157",
            "nama_pse": "USSI",
            "nama_se": "BMT AS'ADIYAH MOBILE",
            "sektor": "Sektor Teknologi Informasi dan Komunikasi",
            "tanggal_terbit": "2023-05-29",
            "url_tdpse_detail": "https://pse.komdigi.go.id/tdpse-detail/14903",
            "website": "-"
        },
        {
            "id": "9cb1ac44-5be9-43aa-b662-8f13a8a1b1b7",
            "nama_pse": "USSI",
            "nama_se": "BANK KEBUMEN MOBILE",
            "sektor": "Sektor Teknologi Informasi dan Komunikasi",
            "tanggal_terbit": "2023-05-23",
            "url_tdpse_detail": "https://pse.komdigi.go.id/tdpse-detail/14829",
            "website": "-"
        },
        {
            "id": "9cb1ac34-e072-4d53-821f-1191152bc6df",
            "nama_pse": "USSI",
            "nama_se": "BDK MOBILE",
            "sektor": "Sektor Teknologi Informasi dan Komunikasi",
            "tanggal_terbit": "2023-05-23",
            "url_tdpse_detail": "https://pse.komdigi.go.id/tdpse-detail/14830",
            "website": "-"
        },
        {
            "id": "9cb1ac34-c1f1-48e5-9975-3fbc6b70b8cc",
            "nama_pse": "USSI",
            "nama_se": "ABAF MOBILE",
            "sektor": "Sektor Teknologi Informasi dan Komunikasi",
            "tanggal_terbit": "2023-05-22",
            "url_tdpse_detail": "https://pse.komdigi.go.id/tdpse-detail/14808",
            "website": "-"
        },
        {
            "id": "9cb1ac44-58c5-41a2-a5f4-42626d6643c1",
            "nama_pse": "USSI",
            "nama_se": "BALDAH MOBILE",
            "sektor": "Sektor Teknologi Informasi dan Komunikasi",
            "tanggal_terbit": "2023-05-22",
            "url_tdpse_detail": "https://pse.komdigi.go.id/tdpse-detail/14816",
            "website": "-"
        },
        {
            "id": "9cb1ac34-c5a3-4714-9240-d9afbc4517f6",
            "nama_pse": "USSI",
            "nama_se": "AGEN MITRA NUSA",
            "sektor": "Sektor Teknologi Informasi dan Komunikasi",
            "tanggal_terbit": "2023-05-22",
            "url_tdpse_detail": "https://pse.komdigi.go.id/tdpse-detail/14810",
            "website": "-"
        },
        {
            "id": "9cb1ac44-172d-470a-9719-51c0afe57ca9",
            "nama_pse": "USSI",
            "nama_se": "AIMS MOBILE",
            "sektor": "Sektor Teknologi Informasi dan Komunikasi",
            "tanggal_terbit": "2023-05-19",
            "url_tdpse_detail": "https://pse.komdigi.go.id/tdpse-detail/14764",
            "website": "-"
        },
        {
            "id": "9cb1ac22-2cce-4bdf-8650-3bd815f96df8",
            "nama_pse": "USSI",
            "nama_se": "AKU MOBILE",
            "sektor": "Sektor Teknologi Informasi dan Komunikasi",
            "tanggal_terbit": "2023-05-19",
            "url_tdpse_detail": "https://pse.komdigi.go.id/tdpse-detail/14765",
            "website": "-"
        },
        {
            "id": "9cb1ac34-70d3-4191-9474-d433456097b5",
            "nama_pse": "USSI",
            "nama_se": "AF ONE",
            "sektor": "Sektor Teknologi Informasi dan Komunikasi",
            "tanggal_terbit": "2023-05-19",
            "url_tdpse_detail": "https://pse.komdigi.go.id/tdpse-detail/14763",
            "website": "-"
        },
        {
            "id": "9cb1ac43-0fe9-4efd-ae4d-2028d80c577e",
            "nama_pse": "AHMAD JUNAIDI",
            "nama_se": "PANDEKA SMART SYSTEM",
            "sektor": "Sektor Kesehatan, Sektor Teknologi Informasi dan Komunikasi",
            "tanggal_terbit": "2023-05-07",
            "url_tdpse_detail": "https://pse.komdigi.go.id/tdpse-detail/14583",
            "website": "pandekasmartsystem.com"
        },
        {
            "id": "9cb1ac42-1e81-4052-a790-52e647b7abf6",
            "nama_pse": "GENERASI PENERUS SOSIAL ( GENPENUS )",
            "nama_se": "ONLINE GOVERNANCE INDONESIA",
            "sektor": "Sektor Perdagangan, Sektor Teknologi Informasi dan Komunikasi, Sektor Pangan",
            "tanggal_terbit": "2023-04-13",
            "url_tdpse_detail": "https://pse.komdigi.go.id/tdpse-detail/14414",
            "website": "on-go.id"
        },
        {
            "id": "9cb1ac31-4e6e-45ee-972e-e8d45dcc3f2a",
            "nama_pse": "SEMESTA TEKNO FUTURA",
            "nama_se": "CUANZ",
            "sektor": "Sektor Teknologi Informasi dan Komunikasi",
            "tanggal_terbit": "2023-04-03",
            "url_tdpse_detail": "https://pse.komdigi.go.id/tdpse-detail/14323",
            "website": "joincuanz.com"
        },
        {
            "id": "9cb1ac30-8b07-4c87-99ba-8ad9b35c8c9e",
            "nama_pse": "TEKNO JAYA INDONESIA",
            "nama_se": "TEKNODESA",
            "sektor": "Sektor Teknologi Informasi dan Komunikasi",
            "tanggal_terbit": "2023-03-21",
            "url_tdpse_detail": "https://pse.komdigi.go.id/tdpse-detail/14185",
            "website": "teknodesa.com"
        },
        {
            "id": "9cb1ac40-96a2-4796-b6be-157f76b28adb",
            "nama_pse": "TEKNO JAYA INDONESIA",
            "nama_se": "TEKNO PDAM",
            "sektor": "Sektor Teknologi Informasi dan Komunikasi",
            "tanggal_terbit": "2023-03-21",
            "url_tdpse_detail": "https://pse.komdigi.go.id/tdpse-detail/14184",
            "website": "teknojaya.id"
        },
        {
            "id": "9cb1ac1c-4ba1-4b7e-8a70-7ad3eb58e8ad",
            "nama_pse": "WISNU NUGROHO",
            "nama_se": "TOKOPEDIA",
            "sektor": "Sektor Perdagangan",
            "tanggal_terbit": "2023-02-20",
            "url_tdpse_detail": "https://pse.komdigi.go.id/tdpse-detail/13844",
            "website": "-"
        },
        {
            "id": "9cb1ac1b-b09e-423d-bf26-f3b28181966f",
            "nama_pse": "USSI PINBUK PRIMA SOFTWARE",
            "nama_se": "MURA KOPA MOBILE ONLINE",
            "sektor": "Sektor Teknologi Informasi dan Komunikasi",
            "tanggal_terbit": "2023-02-08",
            "url_tdpse_detail": "https://pse.komdigi.go.id/tdpse-detail/13730",
            "website": "-"
        },
        {
            "id": "9cb1ac3d-036c-4dc6-850b-a418442677ff",
            "nama_pse": "KANSEE DIGITAL INDONESIA",
            "nama_se": "KANSEE",
            "sektor": "Sektor Perdagangan",
            "tanggal_terbit": "2023-02-06",
            "url_tdpse_detail": "https://pse.komdigi.go.id/tdpse-detail/13703",
            "website": "kansee.co"
        },
        {
            "id": "9cb1ac2d-8f69-44a6-8683-a9cf999982c6",
            "nama_pse": "USSI PINBUK PRIMA SOFTWARE",
            "nama_se": "BAHARTA MOBILE",
            "sektor": "Sektor Teknologi Informasi dan Komunikasi",
            "tanggal_terbit": "2023-02-03",
            "url_tdpse_detail": "https://pse.komdigi.go.id/tdpse-detail/13681",
            "website": "-"
        },
        {
            "id": "9cb1ac3c-e8d5-44d1-b0b8-88265ca12f40",
            "nama_pse": "USSI PINBUK PRIMA SOFTWARE",
            "nama_se": "CUPS MOBILE ONLINE",
            "sektor": "Sektor Teknologi Informasi dan Komunikasi",
            "tanggal_terbit": "2023-02-03",
            "url_tdpse_detail": "https://pse.komdigi.go.id/tdpse-detail/13676",
            "website": "-"
        },
        {
            "id": "9cb1ac1b-872d-4dee-ae92-0b43dfb93071",
            "nama_pse": "USSI PINBUK PRIMA SOFTWARE",
            "nama_se": "CUSJ MOBILE ONLINE",
            "sektor": "Sektor Teknologi Informasi dan Komunikasi",
            "tanggal_terbit": "2023-02-03",
            "url_tdpse_detail": "https://pse.komdigi.go.id/tdpse-detail/13677",
            "website": "-"
        },
        {
            "id": "9cb1ac2d-924b-4f89-814f-f5d738af1735",
            "nama_pse": "USSI PINBUK PRIMA SOFTWARE",
            "nama_se": "AKU MOBILE",
            "sektor": "Sektor Teknologi Informasi dan Komunikasi",
            "tanggal_terbit": "2023-02-03",
            "url_tdpse_detail": "https://pse.komdigi.go.id/tdpse-detail/13682",
            "website": "-"
        },
        {
            "id": "9cb1ac1b-8cfe-4c05-8ec7-fb3ea45af81b",
            "nama_pse": "USSI PINBUK PRIMA SOFTWARE",
            "nama_se": "BKK JATENG MOBILE",
            "sektor": "Sektor Teknologi Informasi dan Komunikasi",
            "tanggal_terbit": "2023-02-03",
            "url_tdpse_detail": "https://pse.komdigi.go.id/tdpse-detail/13688",
            "website": "-"
        },
        {
            "id": "9cb1ac2d-a0d3-4a73-a748-78fa7730a70a",
            "nama_pse": "USSI PINBUK PRIMA SOFTWARE",
            "nama_se": "BALDAH MOBILE",
            "sektor": "Sektor Teknologi Informasi dan Komunikasi",
            "tanggal_terbit": "2023-02-03",
            "url_tdpse_detail": "https://pse.komdigi.go.id/tdpse-detail/13687",
            "website": "-"
        },
        {
            "id": "9cb1ac3c-f690-40bd-b6d7-38390fbd80bf",
            "nama_pse": "USSI PINBUK PRIMA SOFTWARE",
            "nama_se": "KOKARDI MOBILE",
            "sektor": "Sektor Teknologi Informasi dan Komunikasi",
            "tanggal_terbit": "2023-02-03",
            "url_tdpse_detail": "https://pse.komdigi.go.id/tdpse-detail/13690",
            "website": "-"
        },
        {
            "id": "9cb1ac3c-ed45-48fb-813e-62f0e6a3ab09",
            "nama_pse": "USSI PINBUK PRIMA SOFTWARE",
            "nama_se": "KSPM MOBILE",
            "sektor": "Sektor Teknologi Informasi dan Komunikasi",
            "tanggal_terbit": "2023-02-03",
            "url_tdpse_detail": "https://pse.komdigi.go.id/tdpse-detail/13679",
            "website": "-"
        },
        {
            "id": "9cb1ac2d-9c67-4b05-af13-9378a2f3d495",
            "nama_pse": "USSI PINBUK PRIMA SOFTWARE",
            "nama_se": "MURA COPA MOBILE ONLINE",
            "sektor": "Sektor Teknologi Informasi dan Komunikasi",
            "tanggal_terbit": "2023-02-03",
            "url_tdpse_detail": "https://pse.komdigi.go.id/tdpse-detail/13685",
            "website": "-"
        },
        {
            "id": "9cb1ac3c-f135-48c1-a3fd-951e4a1fb3c6",
            "nama_pse": "USSI PINBUK PRIMA SOFTWARE",
            "nama_se": "BANK BINTARA MOBILE",
            "sektor": "Sektor Teknologi Informasi dan Komunikasi",
            "tanggal_terbit": "2023-02-03",
            "url_tdpse_detail": "https://pse.komdigi.go.id/tdpse-detail/13680",
            "website": "-"
        },
        {
            "id": "9cb1ac1b-8a01-4ac5-b58f-5b7384338ff8",
            "nama_pse": "USSI PINBUK PRIMA SOFTWARE",
            "nama_se": "LINGGA MOBILE",
            "sektor": "Sektor Teknologi Informasi dan Komunikasi",
            "tanggal_terbit": "2023-02-03",
            "url_tdpse_detail": "https://pse.komdigi.go.id/tdpse-detail/13686",
            "website": "-"
        },
        {
            "id": "9cb1ac2d-98d0-45b8-9341-c1d81e654282",
            "nama_pse": "USSI PINBUK PRIMA SOFTWARE",
            "nama_se": "KELING KUMANG DIGITAL",
            "sektor": "Sektor Teknologi Informasi dan Komunikasi",
            "tanggal_terbit": "2023-02-03",
            "url_tdpse_detail": "https://pse.komdigi.go.id/tdpse-detail/13684",
            "website": "-"
        },
        {
            "id": "9cb1ac2d-a422-4692-8723-5cc7d0bc1631",
            "nama_pse": "USSI PINBUK PRIMA SOFTWARE",
            "nama_se": "BUD MOBILE",
            "sektor": "Sektor Teknologi Informasi dan Komunikasi",
            "tanggal_terbit": "2023-02-03",
            "url_tdpse_detail": "https://pse.komdigi.go.id/tdpse-detail/13689",
            "website": "-"
        },
        {
            "id": "9cb1ac2d-39b4-41e1-8840-5fa753443f84",
            "nama_pse": "GOLDEN OUTFIT CLAIM",
            "nama_se": "PT.GOLDEN OUTFIT CLAIM",
            "sektor": "Sektor Perdagangan, Sektor Teknologi Informasi dan Komunikasi",
            "tanggal_terbit": "2023-01-30",
            "url_tdpse_detail": "https://pse.komdigi.go.id/tdpse-detail/13641",
            "website": "-"
        },
        {
            "id": "9cb1ac2c-c241-4280-83e1-90be5ae481ad",
            "nama_pse": "SWARA MEDIA KHATULISTIWA",
            "nama_se": "PT. SWARA MEDIA KHATULISTIWA",
            "sektor": "Sektor Teknologi Informasi dan Komunikasi",
            "tanggal_terbit": "2023-01-21",
            "url_tdpse_detail": "https://pse.komdigi.go.id/tdpse-detail/13571",
            "website": "klikkalbar.com"
        },
        {
            "id": "9cb1ac2c-2d32-43ae-b109-802623c286d3",
            "nama_pse": "USSI PINBUK GLOBAL SOLUSI",
            "nama_se": "KOPERASI MOBILE ON LINE",
            "sektor": "Sektor Teknologi Informasi dan Komunikasi",
            "tanggal_terbit": "2023-01-15",
            "url_tdpse_detail": "https://pse.komdigi.go.id/tdpse-detail/13511",
            "website": "-"
        },
        {
            "id": "9cb1ac1a-7342-43e3-9ba9-07e85da9cf6e",
            "nama_pse": "GADIS DESA INDONESIA",
            "nama_se": "MEMBERSHIP GADIS DESA",
            "sektor": "Sektor Perdagangan, Sektor Teknologi Informasi dan Komunikasi",
            "tanggal_terbit": "2023-01-10",
            "url_tdpse_detail": "https://pse.komdigi.go.id/tdpse-detail/13458",
            "website": "reg.gadisdesa.id"
        },
        {
            "id": "9cb1ac2b-bf04-4947-93a0-7bf34481cff1",
            "nama_pse": "GADIS DESA INDONESIA",
            "nama_se": "GADIS DESA",
            "sektor": "Sektor Perdagangan, Sektor Teknologi Informasi dan Komunikasi",
            "tanggal_terbit": "2023-01-10",
            "url_tdpse_detail": "https://pse.komdigi.go.id/tdpse-detail/13457",
            "website": "pt.gadisdesa.id"
        },
        {
            "id": "9cb1ac1a-6464-4828-a7f4-96a18cf584e6",
            "nama_pse": "FERY FERDIAN",
            "nama_se": "PT. GOLDEN OUTFIT CLAIM",
            "sektor": "Sektor Perdagangan, Sektor Teknologi Informasi dan Komunikasi",
            "tanggal_terbit": "2023-01-07",
            "url_tdpse_detail": "https://pse.komdigi.go.id/tdpse-detail/13449",
            "website": "-"
        },
        {
            "id": "9cb1ac18-b521-4c7e-ae86-9226b3958e86",
            "nama_pse": "DEDY MARYADI",
            "nama_se": "RIPER ID",
            "sektor": "Sektor Perdagangan, Sektor Teknologi Informasi dan Komunikasi",
            "tanggal_terbit": "2022-12-01",
            "url_tdpse_detail": "https://pse.komdigi.go.id/tdpse-detail/12523",
            "website": "riper.id"
        },
        {
            "id": "9cb1ac07-a7d7-487c-9532-14c983c57cf0",
            "nama_pse": "RM. MUH. ABDUL ROUF",
            "nama_se": "RAHAR DIAN PARTNER",
            "sektor": "Sektor Teknologi Informasi dan Komunikasi",
            "tanggal_terbit": "2022-11-18",
            "url_tdpse_detail": "https://pse.komdigi.go.id/tdpse-detail/12394",
            "website": "DIANRISQI.COM"
        },
        {
            "id": "9cb1ac16-014d-4fff-924c-bf15714d7781",
            "nama_pse": "RM. MUH. ABDUL ROUF",
            "nama_se": "LAYANAN BISNIS, TEKNOLOGI DAN INFORMASI",
            "sektor": "Sektor Perdagangan, Sektor Keuangan, Sektor Teknologi Informasi dan Komunikasi",
            "tanggal_terbit": "2022-11-18",
            "url_tdpse_detail": "https://pse.komdigi.go.id/tdpse-detail/12393",
            "website": "Abdul.id"
        },
        {
            "id": "9cb1ac07-ae6b-4399-bf66-cac93aaec271",
            "nama_pse": "RM. MUH. ABDUL ROUF",
            "nama_se": "MANAGEMENT INVESTASI",
            "sektor": "Sektor Perdagangan, Sektor Keuangan, Sektor Teknologi Informasi dan Komunikasi",
            "tanggal_terbit": "2022-11-18",
            "url_tdpse_detail": "https://pse.komdigi.go.id/tdpse-detail/12396",
            "website": "ABDUL.ID"
        },
        {
            "id": "9cb1ac14-dc6d-4369-88e0-33f6ea4e0310",
            "nama_pse": "ABUDI CIPTA KREASI",
            "nama_se": "VIDEO PEMBELAJARAN PORTAL GURU PINTAR",
            "sektor": "Sektor Teknologi Informasi dan Komunikasi",
            "tanggal_terbit": "2022-11-08",
            "url_tdpse_detail": "https://pse.komdigi.go.id/tdpse-detail/12177",
            "website": "-"
        }
    ],
    "processingTimeMs": 1,
    "query": "",
    "totalHits": 414,
    "hitsPerPage": 50,
    "page": 5,
    "totalPages": 9
}