{
    "hits": [
        {
            "id": "9cb1ac23-301c-4586-a883-573a45d14592",
            "nama_pse": "METROPOLISTA MEDISTA CENTRO",
            "nama_se": "SIMRS KHANZA (RSU PERMATA BUNDA)",
            "sektor": "Sektor Kesehatan",
            "tanggal_terbit": "2023-06-06",
            "url_tdpse_detail": "https://pse.komdigi.go.id/tdpse-detail/14938",
            "website": "-"
        },
        {
            "id": "9cb1ac35-8e19-4297-9ab8-3b76ada7e6ea",
            "nama_pse": "RUMAH SAKIT AISYIYAH SITI FATIMAH",
            "nama_se": "SIMRS KHANZA RSASF",
            "sektor": "Sektor Kesehatan",
            "tanggal_terbit": "2023-06-06",
            "url_tdpse_detail": "https://pse.komdigi.go.id/tdpse-detail/14939",
            "website": "-"
        },
        {
            "id": "9cb1ac23-450b-464f-bd8a-097d2a4aa5f8",
            "nama_pse": "MODALKU SEJAHTERA MAKMUR",
            "nama_se": "ELEVATE",
            "sektor": "Sektor Teknologi Informasi dan Komunikasi",
            "tanggal_terbit": "2023-06-06",
            "url_tdpse_detail": "https://pse.komdigi.go.id/tdpse-detail/14945",
            "website": "timetoelevate.id"
        },
        {
            "id": "9cb1ac35-9421-4fbb-aa07-0ef1d402f6e9",
            "nama_pse": "SUWASA AJI HEMAS",
            "nama_se": "FILIGRANA",
            "sektor": "Sektor Perdagangan",
            "tanggal_terbit": "2023-06-06",
            "url_tdpse_detail": "https://pse.komdigi.go.id/tdpse-detail/14946",
            "website": "filigrana.id"
        },
        {
            "id": "9cb1ac44-d19b-4d50-a17c-07340c483128",
            "nama_pse": "KALIBESAR RAYA UTAMA",
            "nama_se": "JAGAIN.COM",
            "sektor": "Sektor Keuangan",
            "tanggal_terbit": "2023-06-05",
            "url_tdpse_detail": "https://pse.komdigi.go.id/tdpse-detail/14932",
            "website": "jagain.com"
        },
        {
            "id": "9cb1ac45-0786-44ca-8707-a736e0f5456d",
            "nama_pse": "HARRY PRAMANA",
            "nama_se": "APMEDIKA.COM",
            "sektor": "Sektor Kesehatan, Sektor Teknologi Informasi dan Komunikasi",
            "tanggal_terbit": "2023-06-05",
            "url_tdpse_detail": "https://pse.komdigi.go.id/tdpse-detail/14934",
            "website": "apmedika.com"
        },
        {
            "id": "9cb1ac35-723c-43e2-b462-779621381b65",
            "nama_pse": "Selamat Pagi Korea",
            "nama_se": "SELAMAT PAGI KOREA",
            "sektor": "Sektor Teknologi Informasi dan Komunikasi",
            "tanggal_terbit": "2023-06-05",
            "url_tdpse_detail": "https://pse.komdigi.go.id/tdpse-detail/14928",
            "website": "selamatpagikorea.com"
        },
        {
            "id": "9cb1ac23-18ef-453d-9335-444764ce805c",
            "nama_pse": "KAIA SEJAHTERA",
            "nama_se": "DAMIA  SKIN CARE",
            "sektor": "Sektor Perdagangan, Sektor Kesehatan",
            "tanggal_terbit": "2023-06-05",
            "url_tdpse_detail": "https://pse.komdigi.go.id/tdpse-detail/14929",
            "website": "damiaskincare.id"
        },
        {
            "id": "9cb1ac23-2650-4f58-921a-3a890334fb18",
            "nama_pse": "SHARSYS TEKNOLOGI HAKIKI",
            "nama_se": "SIMRS SHARSYS",
            "sektor": "Sektor Kesehatan, Sektor Teknologi Informasi dan Komunikasi",
            "tanggal_terbit": "2023-06-05",
            "url_tdpse_detail": "https://pse.komdigi.go.id/tdpse-detail/14930",
            "website": "-"
        },
        {
            "id": "9cb1ac45-0b40-40bd-a5c2-9b30f5ba7981",
            "nama_pse": "KUSUMA SAMPURNA MULIA",
            "nama_se": "KRISTIE CLINIC",
            "sektor": "Sektor Perdagangan, Sektor Kesehatan",
            "tanggal_terbit": "2023-06-05",
            "url_tdpse_detail": "https://pse.komdigi.go.id/tdpse-detail/14931",
            "website": "kristieclinic.id"
        },
        {
            "id": "9cb1ac35-7cbf-483d-8ffd-6d80c36204c8",
            "nama_pse": "MITRADA PRIMA NUSANTARA",
            "nama_se": "WWW.REX.GROCLOUD.ID",
            "sektor": "Sektor Perdagangan",
            "tanggal_terbit": "2023-06-05",
            "url_tdpse_detail": "https://pse.komdigi.go.id/tdpse-detail/14933",
            "website": "gromart.club"
        },
        {
            "id": "9cb1ac35-6e24-4043-9302-eb1d7c7f42f6",
            "nama_pse": "BARSELA DUA EMPAT",
            "nama_se": "PT. BARSELA DUA EMPAT",
            "sektor": "Sektor Teknologi Informasi dan Komunikasi",
            "tanggal_terbit": "2023-06-03",
            "url_tdpse_detail": "https://pse.komdigi.go.id/tdpse-detail/14927",
            "website": "barsela24news.com"
        },
        {
            "id": "9cb1ac44-fc32-4c42-ba51-5d88c7f15d23",
            "nama_pse": "BROCA DUCARE DAMARYASA",
            "nama_se": "BROCA'S HEALTH INFORMATION SYSTEM",
            "sektor": "Sektor Kesehatan, Sektor Teknologi Informasi dan Komunikasi",
            "tanggal_terbit": "2023-06-02",
            "url_tdpse_detail": "https://pse.komdigi.go.id/tdpse-detail/14926",
            "website": "-"
        },
        {
            "id": "9cb1ac45-023a-45b2-b884-e3be46b4608d",
            "nama_pse": "LORONG WARTA MULTIMEDIA",
            "nama_se": "PT LORONG WARTA MULTIMEDIA",
            "sektor": "Sektor Teknologi Informasi dan Komunikasi",
            "tanggal_terbit": "2023-06-02",
            "url_tdpse_detail": "https://pse.komdigi.go.id/tdpse-detail/14925",
            "website": "lorongwarta.com"
        },
        {
            "id": "9cb1ac35-66c4-4779-aad1-4d9c7fe06bbd",
            "nama_pse": "SAMSUL ROZIQ",
            "nama_se": "SAMSUL ROZIQ",
            "sektor": "Sektor Perdagangan, Sektor Kesehatan",
            "tanggal_terbit": "2023-06-01",
            "url_tdpse_detail": "https://pse.komdigi.go.id/tdpse-detail/14921",
            "website": "-"
        },
        {
            "id": "9cb1ac35-6a56-4e0d-9a25-025a9ddb3229",
            "nama_pse": "JAGO JOKI NUSANTARA",
            "nama_se": "JAGO JOKI",
            "sektor": "Sektor Perdagangan, Sektor Teknologi Informasi dan Komunikasi",
            "tanggal_terbit": "2023-06-01",
            "url_tdpse_detail": "https://pse.komdigi.go.id/tdpse-detail/14922",
            "website": "jagojoki.id"
        },
        {
            "id": "9cb1ac23-096c-41b7-94f4-9c77ab39dd46",
            "nama_pse": "ADITYA FERRYAN SUGIARTO",
            "nama_se": "LOKER MADIUN",
            "sektor": "Sektor Teknologi Informasi dan Komunikasi",
            "tanggal_terbit": "2023-06-01",
            "url_tdpse_detail": "https://pse.komdigi.go.id/tdpse-detail/14923",
            "website": "lokermadiun.com"
        },
        {
            "id": "9cb1ac44-bfc8-46d1-87c8-9f570c47d02e",
            "nama_pse": "SUKARDIN",
            "nama_se": "GOSAR TRANSPORTASI ONLINE",
            "sektor": "Sektor Transportasi",
            "tanggal_terbit": "2023-05-31",
            "url_tdpse_detail": "https://pse.komdigi.go.id/tdpse-detail/14916",
            "website": "-"
        },
        {
            "id": "9cb1ac35-57da-4aea-bbdb-89a3067bfc69",
            "nama_pse": "ARDIAN RIAU MANDIRI",
            "nama_se": "PT ARDIAN RIAU MANDIRI",
            "sektor": "Sektor Teknologi Informasi dan Komunikasi",
            "tanggal_terbit": "2023-05-31",
            "url_tdpse_detail": "https://pse.komdigi.go.id/tdpse-detail/14915",
            "website": "inforiaunews.com"
        },
        {
            "id": "9cb1ac43-637b-43da-b161-41433b0ac674",
            "nama_pse": "TOKO THREE SIXTY METAVERSE INDONESIA",
            "nama_se": "TOKO360",
            "sektor": "Sektor Perdagangan, Sektor Teknologi Informasi dan Komunikasi",
            "tanggal_terbit": "2023-05-30",
            "url_tdpse_detail": "https://pse.komdigi.go.id/tdpse-detail/14914",
            "website": "toko360.id"
        },
        {
            "id": "9cb1ac34-eb81-4d3a-be72-ece876697e3e",
            "nama_pse": "CITA CENDERA MATA",
            "nama_se": "DORÉ BY LETAO",
            "sektor": "Sektor Pangan",
            "tanggal_terbit": "2023-05-30",
            "url_tdpse_detail": "https://pse.komdigi.go.id/tdpse-detail/14909",
            "website": "dorebyletao.com"
        },
        {
            "id": "9cb1ac44-7b16-4c23-bdca-22d31e79d04e",
            "nama_pse": "KILAU ANANDA BUANA",
            "nama_se": "APLIKASI INTEGRATOR DAN OPTIMALISASI MARKETPLACE",
            "sektor": "Sektor Teknologi Informasi dan Komunikasi",
            "tanggal_terbit": "2023-05-30",
            "url_tdpse_detail": "https://pse.komdigi.go.id/tdpse-detail/14904",
            "website": "sellercraft.co"
        },
        {
            "id": "9cb1ac35-1184-4a9c-97b6-dc2e15b31cf0",
            "nama_pse": "KUNTO SARI AMERTA",
            "nama_se": "DOKTERPRO",
            "sektor": "Sektor Kesehatan, Sektor Teknologi Informasi dan Komunikasi",
            "tanggal_terbit": "2023-05-30",
            "url_tdpse_detail": "https://pse.komdigi.go.id/tdpse-detail/14908",
            "website": "dokterpro.com"
        },
        {
            "id": "9cb1ac44-c6e7-4c28-9f02-c4d1072aafc0",
            "nama_pse": "CIPTA NIRMALA",
            "nama_se": "SIMRS SEMEN GRESIK",
            "sektor": "Sektor Kesehatan",
            "tanggal_terbit": "2023-05-30",
            "url_tdpse_detail": "https://pse.komdigi.go.id/tdpse-detail/14907",
            "website": "-"
        },
        {
            "id": "9cb1ac35-4464-4fab-b0fd-2b43ebe171d1",
            "nama_pse": "WAHANA RAHARJA PERSERODA",
            "nama_se": "TAPIS MALL",
            "sektor": "Sektor Perdagangan",
            "tanggal_terbit": "2023-05-30",
            "url_tdpse_detail": "https://pse.komdigi.go.id/tdpse-detail/14905",
            "website": "-"
        },
        {
            "id": "9cb1ac35-4878-4eb4-8b59-64765763a411",
            "nama_pse": "GRAHA SEJAHTERA MEDIKA",
            "nama_se": "SIMRS KHANZA RSIA GRAHAMEDIKA",
            "sektor": "Sektor Teknologi Informasi dan Komunikasi",
            "tanggal_terbit": "2023-05-30",
            "url_tdpse_detail": "https://pse.komdigi.go.id/tdpse-detail/14906",
            "website": "grahamedika.id"
        },
        {
            "id": "9cb1ac35-4ca9-4272-ae63-2a47b53e4d73",
            "nama_pse": "SUKARDIN",
            "nama_se": "GOSAR",
            "sektor": "Sektor Transportasi",
            "tanggal_terbit": "2023-05-30",
            "url_tdpse_detail": "https://pse.komdigi.go.id/tdpse-detail/14910",
            "website": "-"
        },
        {
            "id": "9cb1ac35-2e02-4423-924c-ec4cc057f371",
            "nama_pse": "KAIVAN PARAMA RAHARDJA",
            "nama_se": "PT KAIVAN PARAMA RAHARDJA",
            "sektor": "Sektor Perdagangan, Sektor Teknologi Informasi dan Komunikasi",
            "tanggal_terbit": "2023-05-29",
            "url_tdpse_detail": "https://pse.komdigi.go.id/tdpse-detail/14892",
            "website": "kaivanparamarahardja.com"
        },
        {
            "id": "9cb1ac35-31b1-4bc2-9b5b-edd49f357ad1",
            "nama_pse": "BHAVANA ONE TEKNOLOGI",
            "nama_se": "PT BHAVANA ONE TEKNOLOGI",
            "sektor": "Sektor Perdagangan, Sektor Teknologi Informasi dan Komunikasi",
            "tanggal_terbit": "2023-05-29",
            "url_tdpse_detail": "https://pse.komdigi.go.id/tdpse-detail/14893",
            "website": "bhavanaoneteknologi.com"
        },
        {
            "id": "9cb1ac35-382d-486f-9bb0-adafd03eb16c",
            "nama_pse": "GHANIM TEKNOLOGI SEMESTA",
            "nama_se": "PT GHANIM TEKNOLOGI SEMESTA",
            "sektor": "Sektor Perdagangan, Sektor Teknologi Informasi dan Komunikasi",
            "tanggal_terbit": "2023-05-29",
            "url_tdpse_detail": "https://pse.komdigi.go.id/tdpse-detail/14894",
            "website": "ghanimteknologisemesta.com"
        },
        {
            "id": "9cb1ac22-ea9b-4f01-9be5-fc50ec14c2b6",
            "nama_pse": "KISALUSI CREATIVE ALAMSYAH",
            "nama_se": "KISALUSI",
            "sektor": "Sektor Perdagangan",
            "tanggal_terbit": "2023-05-29",
            "url_tdpse_detail": "https://pse.komdigi.go.id/tdpse-detail/14896",
            "website": "kisalusi.com"
        },
        {
            "id": "9cb1ac22-e5cb-48de-a10c-1152517a34d2",
            "nama_pse": "MAHAKARYA MODERN MEDIA",
            "nama_se": "TEKNO HOLISTIK",
            "sektor": "Sektor Perdagangan, Sektor Teknologi Informasi dan Komunikasi",
            "tanggal_terbit": "2023-05-28",
            "url_tdpse_detail": "https://pse.komdigi.go.id/tdpse-detail/14889",
            "website": "teknoholistik.com"
        },
        {
            "id": "9cb1ac44-b94d-4aab-8629-041457f21a7c",
            "nama_pse": "PINTER HUKUM INDONESIA",
            "nama_se": "PINTER HUKUM",
            "sektor": "Sektor Teknologi Informasi dan Komunikasi",
            "tanggal_terbit": "2023-05-28",
            "url_tdpse_detail": "https://pse.komdigi.go.id/tdpse-detail/14890",
            "website": "pinterhukum.or.id"
        },
        {
            "id": "9cb1ac44-b28b-474b-b168-031e6f792cee",
            "nama_pse": "DFI RETAIL NUSANTARA",
            "nama_se": "GUARDIAN INDONESIA",
            "sektor": "Sektor Perdagangan, Sektor Kesehatan",
            "tanggal_terbit": "2023-05-27",
            "url_tdpse_detail": "https://pse.komdigi.go.id/tdpse-detail/14883",
            "website": "guardianindonesia.co.id"
        },
        {
            "id": "9cb1ac35-29f7-4df6-81b7-feb5f35af273",
            "nama_pse": "KABISAPP KARYA DIGITAL",
            "nama_se": "PT KABISAPP KARYA DIGITAL",
            "sektor": "Sektor Perdagangan, Sektor Transportasi, Sektor Teknologi Informasi dan Komunikasi",
            "tanggal_terbit": "2023-05-27",
            "url_tdpse_detail": "https://pse.komdigi.go.id/tdpse-detail/14885",
            "website": "-"
        },
        {
            "id": "9cb1ac22-e23a-480a-9e65-8903c033d615",
            "nama_pse": "ONE NEWS GROUP",
            "nama_se": "PT ONE NEWS GROUP",
            "sektor": "Sektor Teknologi Informasi dan Komunikasi",
            "tanggal_terbit": "2023-05-27",
            "url_tdpse_detail": "https://pse.komdigi.go.id/tdpse-detail/14886",
            "website": "indonesia.onenews.co.id"
        },
        {
            "id": "9cb1ac34-b83b-4ab1-89a6-c6d53a494521",
            "nama_pse": "WOOK GLOBAL TECHNOLOGY",
            "nama_se": "APP WOOK",
            "sektor": "Sektor Perdagangan",
            "tanggal_terbit": "2023-05-26",
            "url_tdpse_detail": "https://pse.komdigi.go.id/tdpse-detail/14871",
            "website": "app.wook.id"
        },
        {
            "id": "9cb1ac35-14b3-4eb7-81b5-99172d0fde34",
            "nama_pse": "Firman Kislew Tanjaya",
            "nama_se": "PERSONALINK",
            "sektor": "Sektor Teknologi Informasi dan Komunikasi",
            "tanggal_terbit": "2023-05-26",
            "url_tdpse_detail": "https://pse.komdigi.go.id/tdpse-detail/14880",
            "website": "personalink.info"
        },
        {
            "id": "9cb1ac35-1838-416f-a071-0fb0bf3ed4d4",
            "nama_pse": "PRAKASA NIAGA SOLUSI",
            "nama_se": "BELI.PRAKTIS.CO",
            "sektor": "Sektor Perdagangan",
            "tanggal_terbit": "2023-05-26",
            "url_tdpse_detail": "https://pse.komdigi.go.id/tdpse-detail/14868",
            "website": "beli.praktis.co"
        },
        {
            "id": "9cb1ac35-1b64-4591-a7cd-41ec258e03a2",
            "nama_pse": "BERIDANA DIGITAL INDONESIA",
            "nama_se": "DANAHUB",
            "sektor": "Sektor Perdagangan",
            "tanggal_terbit": "2023-05-26",
            "url_tdpse_detail": "https://pse.komdigi.go.id/tdpse-detail/14870",
            "website": "danahub.id"
        },
        {
            "id": "9cb1ac44-926a-4c46-93d9-c86c9f444f15",
            "nama_pse": "ADIJAYA VISUAL EKOSISTEM",
            "nama_se": "RUMAH PROGRAM",
            "sektor": "Sektor Teknologi Informasi dan Komunikasi",
            "tanggal_terbit": "2023-05-26",
            "url_tdpse_detail": "https://pse.komdigi.go.id/tdpse-detail/14869",
            "website": "-"
        },
        {
            "id": "9cb1ac44-965c-4f20-b3c8-e80b7d30b3e3",
            "nama_pse": "AURIGA KIRANA TEKNOLOGI",
            "nama_se": "PT AURIGA KIRANA TEKNOLOGI",
            "sektor": "Sektor Perdagangan",
            "tanggal_terbit": "2023-05-26",
            "url_tdpse_detail": "https://pse.komdigi.go.id/tdpse-detail/14872",
            "website": "aurigakiranateknologi.com"
        },
        {
            "id": "9cb1ac44-9913-4fd6-be3b-087985e32537",
            "nama_pse": "SATU SUARA GROUP",
            "nama_se": "PT SATU SUARA GROUP",
            "sektor": "Sektor Perdagangan, Sektor Teknologi Informasi dan Komunikasi",
            "tanggal_terbit": "2023-05-26",
            "url_tdpse_detail": "https://pse.komdigi.go.id/tdpse-detail/14873",
            "website": "satusuara.co.id"
        },
        {
            "id": "9cb1ac44-a2bd-4471-8900-18139bb576f6",
            "nama_pse": "SATU SUARA GROUP",
            "nama_se": "INDONESIA SATU SUARA",
            "sektor": "Sektor Teknologi Informasi dan Komunikasi",
            "tanggal_terbit": "2023-05-26",
            "url_tdpse_detail": "https://pse.komdigi.go.id/tdpse-detail/14874",
            "website": "indonesia.satusuara.co.id"
        },
        {
            "id": "9cb1ac44-a936-46b5-ba6d-22b692cc9cc6",
            "nama_pse": "PROQUA",
            "nama_se": "PROQUA SIMRS",
            "sektor": "Sektor Teknologi Informasi dan Komunikasi",
            "tanggal_terbit": "2023-05-26",
            "url_tdpse_detail": "https://pse.komdigi.go.id/tdpse-detail/14876",
            "website": "-"
        },
        {
            "id": "9cb1ac44-ac1d-4870-9faf-aec3d699ce35",
            "nama_pse": "AFFINITY HEALTH INDONESIA",
            "nama_se": "SIMRS PREMIER JATINEGARA",
            "sektor": "Sektor Kesehatan",
            "tanggal_terbit": "2023-05-26",
            "url_tdpse_detail": "https://pse.komdigi.go.id/tdpse-detail/14877",
            "website": "ramsaysimedarby.co.id"
        },
        {
            "id": "9cb1ac35-1f71-433d-93b1-8e3880985c92",
            "nama_pse": "MULTI BANGUN ABADI",
            "nama_se": "LARIZ",
            "sektor": "Sektor Perdagangan",
            "tanggal_terbit": "2023-05-26",
            "url_tdpse_detail": "https://pse.komdigi.go.id/tdpse-detail/14878",
            "website": "-"
        },
        {
            "id": "9cb1ac42-f171-4a1c-900a-e4e42167bb41",
            "nama_pse": "BANK JASA JAKARTA",
            "nama_se": "BANK SAQU",
            "sektor": "Sektor Keuangan",
            "tanggal_terbit": "2023-05-25",
            "url_tdpse_detail": "https://pse.komdigi.go.id/tdpse-detail/14860",
            "website": "banksaqu.co.id"
        },
        {
            "id": "9cb1ac42-f5b4-4d69-aeb9-d2b09262cd90",
            "nama_pse": "BANK JASA JAKARTA",
            "nama_se": "BANK SAQU MOBILE",
            "sektor": "Sektor Keuangan",
            "tanggal_terbit": "2023-05-25",
            "url_tdpse_detail": "https://pse.komdigi.go.id/tdpse-detail/14861",
            "website": "-"
        },
        {
            "id": "9cb1ac43-d436-468e-8eec-51cde39f2398",
            "nama_pse": "EASYBOOK TEKNOLOGI INDONESIA",
            "nama_se": "EASYBOOK",
            "sektor": "Sektor Transportasi",
            "tanggal_terbit": "2023-05-25",
            "url_tdpse_detail": "https://pse.komdigi.go.id/tdpse-detail/14855",
            "website": "easybook.com"
        }
    ],
    "processingTimeMs": 29,
    "query": "",
    "totalHits": 19131,
    "hitsPerPage": 50,
    "page": 138,
    "totalPages": 383
}