{
    "hits": [
        {
            "id": "9cb1aba8-9d5a-4281-ac70-882373b0679f",
            "nama_pse": "SOLUSI STARTUP INDONESIA",
            "nama_se": "SEKOLAH STARTUP",
            "sektor": "Sektor Teknologi Informasi dan Komunikasi",
            "tanggal_terbit": "2022-07-18",
            "url_tdpse_detail": "https://pse.komdigi.go.id/tdpse-detail/6195",
            "website": "sekolahstartup.com"
        },
        {
            "id": "9cb1abb2-a4ac-4d11-a9e1-c2602faaef53",
            "nama_pse": "BANK PERKREDITAN RAKYAT PANCA ARTA GRAHA",
            "nama_se": "BANK PANCA ARTA GRAHA",
            "sektor": "Sektor Keuangan",
            "tanggal_terbit": "2022-07-18",
            "url_tdpse_detail": "https://pse.komdigi.go.id/tdpse-detail/6201",
            "website": "pancaartagraha.co.id"
        },
        {
            "id": "9cb1ab9d-d270-4f10-b540-6c22f1a43675",
            "nama_pse": "BANK PEREKONOMIAN RAKYAT NUSANTARA BONA PASOGIT TIGA PULUH SATU",
            "nama_se": "SAVING MOBILE APPLICATION BPR NBP 31",
            "sektor": "Sektor Keuangan",
            "tanggal_terbit": "2022-07-18",
            "url_tdpse_detail": "https://pse.komdigi.go.id/tdpse-detail/6198",
            "website": "-"
        },
        {
            "id": "9cb1aba8-9fae-4544-ac06-1989290dc8c0",
            "nama_pse": "BINA DANA SEJAHTERA",
            "nama_se": "WEBSITE BDS",
            "sektor": "Sektor Keuangan",
            "tanggal_terbit": "2022-07-18",
            "url_tdpse_detail": "https://pse.komdigi.go.id/tdpse-detail/6199",
            "website": "bdspt.com"
        },
        {
            "id": "9cb1abb2-ad1d-43bb-9955-18a83868fb9a",
            "nama_pse": "BANK PEMBANGUNAN DAERAH BALI",
            "nama_se": "BALIPAY",
            "sektor": "Sektor Keuangan",
            "tanggal_terbit": "2022-07-18",
            "url_tdpse_detail": "https://pse.komdigi.go.id/tdpse-detail/6200",
            "website": "-"
        },
        {
            "id": "9cb1ab9d-d51f-4894-92db-be5d5e9cae89",
            "nama_pse": "BANK PEREKONOMIAN RAKYAT PINANG ARTHA",
            "nama_se": "IBS",
            "sektor": "Sektor Keuangan",
            "tanggal_terbit": "2022-07-18",
            "url_tdpse_detail": "https://pse.komdigi.go.id/tdpse-detail/6202",
            "website": "bprpinangartha.com"
        },
        {
            "id": "9cb1ab9d-d705-440b-b72a-f4a74ee37284",
            "nama_pse": "BANK PEMBANGUNAN DAERAH BALI",
            "nama_se": "MOBILE NASABAH BPD BALI",
            "sektor": "Sektor Keuangan",
            "tanggal_terbit": "2022-07-18",
            "url_tdpse_detail": "https://pse.komdigi.go.id/tdpse-detail/6203",
            "website": "-"
        },
        {
            "id": "9cb1aba8-a222-4ef1-825f-7dd6fa4da084",
            "nama_pse": "INTI FIKASA SEKURITAS",
            "nama_se": "BACKOFFICE S21",
            "sektor": "Sektor Keuangan",
            "tanggal_terbit": "2022-07-18",
            "url_tdpse_detail": "https://pse.komdigi.go.id/tdpse-detail/6209",
            "website": "intifikasa.com"
        },
        {
            "id": "9cb1abb2-b549-47c2-98e2-c41f2dc2c71f",
            "nama_pse": "PT. BANK PEMBANGUNAN DAERAH JAWA BARAT DAN BANTEN TBK (BANK BJB)",
            "nama_se": "WEB BANK BJB",
            "sektor": "Sektor Keuangan",
            "tanggal_terbit": "2022-07-18",
            "url_tdpse_detail": "https://pse.komdigi.go.id/tdpse-detail/6206",
            "website": "bankbjb.co.id"
        },
        {
            "id": "9cb1aba8-a481-425c-b64e-4f14f2e10262",
            "nama_pse": "BANK PERKREDITAN RAKYAT SUM ADIYATRA",
            "nama_se": "BANK BSA",
            "sektor": "Sektor Keuangan",
            "tanggal_terbit": "2022-07-18",
            "url_tdpse_detail": "https://pse.komdigi.go.id/tdpse-detail/6207",
            "website": "bankbsa.com"
        },
        {
            "id": "9cb1ab9d-d952-41e2-a60d-22f050f696ec",
            "nama_pse": "ERA LINTAS TEKNOLOGI",
            "nama_se": "FLEXCODESDK.COM",
            "sektor": "Sektor Teknologi Informasi dan Komunikasi",
            "tanggal_terbit": "2022-07-18",
            "url_tdpse_detail": "https://pse.komdigi.go.id/tdpse-detail/6216",
            "website": "flexcodesdk.com"
        },
        {
            "id": "9cb1abb2-bb5a-443d-a7dd-876204fc9df4",
            "nama_pse": "QAZWA MITRA HASANAH",
            "nama_se": "QAZWA.ID",
            "sektor": "Sektor Keuangan",
            "tanggal_terbit": "2022-07-18",
            "url_tdpse_detail": "https://pse.komdigi.go.id/tdpse-detail/6210",
            "website": "Qazwa.id"
        },
        {
            "id": "9cb1abb2-be58-4ce9-9e6f-be4476fbd5d2",
            "nama_pse": "BANK PEMBANGUNAN DAERAH BALI",
            "nama_se": "AGEN MAILAKU BPD BALI",
            "sektor": "Sektor Keuangan",
            "tanggal_terbit": "2022-07-18",
            "url_tdpse_detail": "https://pse.komdigi.go.id/tdpse-detail/6214",
            "website": "-"
        },
        {
            "id": "9cb1aba8-a726-4eb8-ae6a-8a78c707d737",
            "nama_pse": "KREDIT BIRO INDONESIA JAYA",
            "nama_se": "ICBS",
            "sektor": "Sektor Teknologi Informasi dan Komunikasi",
            "tanggal_terbit": "2022-07-18",
            "url_tdpse_detail": "https://pse.komdigi.go.id/tdpse-detail/6211",
            "website": "kbij.co.id"
        },
        {
            "id": "9cb1aba8-a96f-4e1f-b06a-8827142d6005",
            "nama_pse": "PERUSAHAAN PERSEROAN (PERSERO) PT. BANK RAKYAT INDONESIA",
            "nama_se": "COMMODITY CHAIN (PADICHAIN)",
            "sektor": "Sektor Pangan",
            "tanggal_terbit": "2022-07-18",
            "url_tdpse_detail": "https://pse.komdigi.go.id/tdpse-detail/6213",
            "website": "padichain.id"
        },
        {
            "id": "9cb1abb2-c096-4020-9d6d-35fb6d045cfb",
            "nama_pse": "BANK PERKREDITAN RAKYAT SARI WERDHI SEDANA",
            "nama_se": "IBS USSI",
            "sektor": "Sektor Keuangan",
            "tanggal_terbit": "2022-07-18",
            "url_tdpse_detail": "https://pse.komdigi.go.id/tdpse-detail/6215",
            "website": "-"
        },
        {
            "id": "9cb1abb2-c49c-4e49-97c9-77269014105a",
            "nama_pse": "ASURANSI ALLIANZ LIFE INDONESIA",
            "nama_se": "CORPORATE WEBSITE",
            "sektor": "Sektor Keuangan",
            "tanggal_terbit": "2022-07-18",
            "url_tdpse_detail": "https://pse.komdigi.go.id/tdpse-detail/6230",
            "website": "allianz.co.id"
        },
        {
            "id": "9cb1abb2-c87f-4354-b2c8-80b42385a56c",
            "nama_pse": "ERA LINTAS TEKNOLOGI",
            "nama_se": "FDEVICE.COM",
            "sektor": "Sektor Teknologi Informasi dan Komunikasi",
            "tanggal_terbit": "2022-07-18",
            "url_tdpse_detail": "https://pse.komdigi.go.id/tdpse-detail/6220",
            "website": "-"
        },
        {
            "id": "9cb1aba8-ad60-4551-903c-31d54e67316f",
            "nama_pse": "BANK PERKREDITAN RAKYAT SARI DANANIAGA",
            "nama_se": "SITUS PT BPR SARI DANANIAGA",
            "sektor": "Sektor Keuangan",
            "tanggal_terbit": "2022-07-18",
            "url_tdpse_detail": "https://pse.komdigi.go.id/tdpse-detail/6219",
            "website": "bprsaridananiaga.com"
        },
        {
            "id": "9cb1aba8-b01a-4bd3-984e-e535d4e7a6ec",
            "nama_pse": "GOOGLE CLOUD INDONESIA",
            "nama_se": "GOOGLE CLOUD REGION JAKARTA",
            "sektor": "Sektor Teknologi Informasi dan Komunikasi",
            "tanggal_terbit": "2022-07-18",
            "url_tdpse_detail": "https://pse.komdigi.go.id/tdpse-detail/6222",
            "website": "google.com"
        },
        {
            "id": "9cb1abb2-cb3b-4e6e-93cc-4c077f0ed695",
            "nama_pse": "AMA SALAM INDONESIA",
            "nama_se": "SALAM ENTERPRISE",
            "sektor": "Sektor Teknologi Informasi dan Komunikasi",
            "tanggal_terbit": "2022-07-18",
            "url_tdpse_detail": "https://pse.komdigi.go.id/tdpse-detail/6221",
            "website": "salamenterprise.com"
        },
        {
            "id": "9cb1abb2-ccfe-40e1-a626-e64b6fcf2318",
            "nama_pse": "BANK MAYBANK INDONESIA",
            "nama_se": "M2U ID MOBILE APPLICATION",
            "sektor": "Sektor Keuangan",
            "tanggal_terbit": "2022-07-18",
            "url_tdpse_detail": "https://pse.komdigi.go.id/tdpse-detail/6223",
            "website": "-"
        },
        {
            "id": "9cb1aba8-b23b-4549-b34a-76f96e7673f6",
            "nama_pse": "SEHAT SEJAHTERA PRAKARSA",
            "nama_se": "LAYANAN KESEHATAN : FAMILYDOC",
            "sektor": "Sektor Kesehatan",
            "tanggal_terbit": "2022-07-18",
            "url_tdpse_detail": "https://pse.komdigi.go.id/tdpse-detail/6224",
            "website": "familydoc.id"
        },
        {
            "id": "9cb1ab9d-db66-438d-9551-7fe63d1861d4",
            "nama_pse": "BANK PERKREDITAN RAKYAT ABRIN CENTRA ARTHA",
            "nama_se": "PT. BPR ABRIN CENTRA ARTHA",
            "sektor": "Sektor Keuangan",
            "tanggal_terbit": "2022-07-18",
            "url_tdpse_detail": "https://pse.komdigi.go.id/tdpse-detail/6235",
            "website": "bprabrincentraartha.com"
        },
        {
            "id": "9cb1abb2-ced5-426e-947e-acb093378a0f",
            "nama_pse": "PRO LEGAL INDONESIA",
            "nama_se": "WEBSITE KLIK LEGAL",
            "sektor": "Sektor Teknologi Informasi dan Komunikasi",
            "tanggal_terbit": "2022-07-18",
            "url_tdpse_detail": "https://pse.komdigi.go.id/tdpse-detail/6226",
            "website": "kliklegal.com"
        },
        {
            "id": "9cb1ab9d-dd40-47fd-9230-3db68fccc566",
            "nama_pse": "BANK PEREKONOMIAN RAKYAT ARTHAGUNA MANDIRI",
            "nama_se": "WEBSITE PT BPR ARTHAGUNA MANDIRI",
            "sektor": "Sektor Keuangan",
            "tanggal_terbit": "2022-07-18",
            "url_tdpse_detail": "https://pse.komdigi.go.id/tdpse-detail/6225",
            "website": "bpragm.com"
        },
        {
            "id": "9cb1abb2-d0b3-41c9-a214-ecfd8161b5b4",
            "nama_pse": "GLOBAL INOVASI CAHAYA",
            "nama_se": "GIC",
            "sektor": "Sektor Perdagangan, Sektor Kesehatan, Sektor Teknologi Informasi dan Komunikasi",
            "tanggal_terbit": "2022-07-18",
            "url_tdpse_detail": "https://pse.komdigi.go.id/tdpse-detail/6227",
            "website": "gic-indonesia.com"
        },
        {
            "id": "9cb1abb2-d2dc-4102-8d1f-84de05a2325f",
            "nama_pse": "BANK PERKREDITAN RAKYAT PALU ANUGERAH",
            "nama_se": "BPR PALU ANUGERAH",
            "sektor": "Sektor Keuangan",
            "tanggal_terbit": "2022-07-18",
            "url_tdpse_detail": "https://pse.komdigi.go.id/tdpse-detail/6231",
            "website": "-"
        },
        {
            "id": "9cb1ab9d-e02f-4c80-858a-2be393f01426",
            "nama_pse": "BP LAWYERS",
            "nama_se": "WEBSITE BP LAWYERS",
            "sektor": "Sektor Perdagangan",
            "tanggal_terbit": "2022-07-18",
            "url_tdpse_detail": "https://pse.komdigi.go.id/tdpse-detail/6228",
            "website": "bplawyers.co.id"
        },
        {
            "id": "9cb1abb3-e17d-4051-961b-1bd2b5cb2639",
            "nama_pse": "BANK RAYA INDONESIA",
            "nama_se": "BUKA REKENING DIGITAL BANK RAYA",
            "sektor": "Sektor Keuangan",
            "tanggal_terbit": "2022-07-18",
            "url_tdpse_detail": "https://pse.komdigi.go.id/tdpse-detail/6232",
            "website": "bukatabungan.bankraya.co.id"
        },
        {
            "id": "9cb1aba8-b41e-4339-b100-bc02ca9eb2cc",
            "nama_pse": "SABUK DIGITAL NUSANTARA",
            "nama_se": "VIRALMU",
            "sektor": "Sektor Perdagangan, Sektor Teknologi Informasi dan Komunikasi",
            "tanggal_terbit": "2022-07-18",
            "url_tdpse_detail": "https://pse.komdigi.go.id/tdpse-detail/6234",
            "website": "viralmu.id"
        },
        {
            "id": "9cb1abb2-d4f5-44d0-8f4a-52cca394239c",
            "nama_pse": "ASURANSI JIWA IFG",
            "nama_se": "IFG PAY",
            "sektor": "Sektor Keuangan",
            "tanggal_terbit": "2022-07-18",
            "url_tdpse_detail": "https://pse.komdigi.go.id/tdpse-detail/6237",
            "website": "pay.life.id"
        },
        {
            "id": "9cb1abb2-d729-4b13-bd89-136ae5697e79",
            "nama_pse": "BANK MAYBANK INDONESIA",
            "nama_se": "VIRTUAL ACCOUNT PAYMENT GATEWAY (VAPG)",
            "sektor": "Sektor Keuangan",
            "tanggal_terbit": "2022-07-18",
            "url_tdpse_detail": "https://pse.komdigi.go.id/tdpse-detail/6233",
            "website": "-"
        },
        {
            "id": "9cb1abb2-d8f4-4453-8109-9eb021c45d18",
            "nama_pse": "PT. BANK PEMBANGUNAN DAERAH JAWA BARAT DAN BANTEN TBK (BANK BJB)",
            "nama_se": "ECOLLECTION UMKM",
            "sektor": "Sektor Keuangan",
            "tanggal_terbit": "2022-07-18",
            "url_tdpse_detail": "https://pse.komdigi.go.id/tdpse-detail/6236",
            "website": "-"
        },
        {
            "id": "9cb1abb3-e35a-46fd-bfdd-3d1c31c6b166",
            "nama_pse": "KOMUNITAS KARYA TRANSFORMASI",
            "nama_se": "CUIT",
            "sektor": "Sektor Teknologi Informasi dan Komunikasi",
            "tanggal_terbit": "2022-07-18",
            "url_tdpse_detail": "https://pse.komdigi.go.id/tdpse-detail/6265",
            "website": "gocuit.com"
        },
        {
            "id": "9cb1abb3-e504-4bde-a82a-900334b24334",
            "nama_pse": "BANK CENTRAL ASIA",
            "nama_se": "WEBFORM BANK GARANSI",
            "sektor": "Sektor Keuangan",
            "tanggal_terbit": "2022-07-18",
            "url_tdpse_detail": "https://pse.komdigi.go.id/tdpse-detail/6238",
            "website": "webform.bca.co.id"
        },
        {
            "id": "9cb1aba8-b627-45bf-9ad6-eecdd0bd01ba",
            "nama_pse": "PRO LEGAL INDONESIA",
            "nama_se": "WEBSITE INFOLEGALITAS",
            "sektor": "Sektor Perdagangan",
            "tanggal_terbit": "2022-07-18",
            "url_tdpse_detail": "https://pse.komdigi.go.id/tdpse-detail/6240",
            "website": "infolegalitas.id"
        },
        {
            "id": "9cb1aba8-b805-4409-af15-3632ab263ce4",
            "nama_pse": "SISTRACK SOLUSINDO",
            "nama_se": "LACAKGPSTRACKERKU",
            "sektor": "Sektor Teknologi Informasi dan Komunikasi",
            "tanggal_terbit": "2022-07-18",
            "url_tdpse_detail": "https://pse.komdigi.go.id/tdpse-detail/6241",
            "website": "gpstrackerku.com"
        },
        {
            "id": "9cb1abb2-daf4-4752-9865-b3d373e95b45",
            "nama_pse": "HONEST FINANCIAL TECHNOLOGIES",
            "nama_se": "HONEST APP",
            "sektor": "Sektor Keuangan",
            "tanggal_terbit": "2022-07-18",
            "url_tdpse_detail": "https://pse.komdigi.go.id/tdpse-detail/6242",
            "website": "-"
        },
        {
            "id": "9cb1abb3-e6b4-4b01-bf8e-a51d0379e016",
            "nama_pse": "BANK PERKREDITAN RAKYAT SUPRA ARTAPERSADA",
            "nama_se": "E-MAIL BPR SUPRA (1)",
            "sektor": "Sektor Keuangan",
            "tanggal_terbit": "2022-07-18",
            "url_tdpse_detail": "https://pse.komdigi.go.id/tdpse-detail/6243",
            "website": "mail.bprsupra.com"
        },
        {
            "id": "9cb1abb3-e878-481e-a581-b5e50478f81d",
            "nama_pse": "ZEPETTO INTERACTIVE INDONESIA",
            "nama_se": "POINT BLANK",
            "sektor": "Sektor Teknologi Informasi dan Komunikasi",
            "tanggal_terbit": "2022-07-18",
            "url_tdpse_detail": "https://pse.komdigi.go.id/tdpse-detail/6244",
            "website": "pointblank.id"
        },
        {
            "id": "9cb1abb3-ea1c-4e34-9690-0f3a5dd22d06",
            "nama_pse": "SURYA SUDECO",
            "nama_se": "TSMART",
            "sektor": "Sektor Transportasi",
            "tanggal_terbit": "2022-07-18",
            "url_tdpse_detail": "https://pse.komdigi.go.id/tdpse-detail/6251",
            "website": "-"
        },
        {
            "id": "9cb1abb3-eccc-4d57-8952-da76c6947aba",
            "nama_pse": "BANK CENTRAL ASIA",
            "nama_se": "WEBFORM BANK GARANSI 2",
            "sektor": "Sektor Keuangan",
            "tanggal_terbit": "2022-07-18",
            "url_tdpse_detail": "https://pse.komdigi.go.id/tdpse-detail/6246",
            "website": "webform.bca.co.id"
        },
        {
            "id": "9cb1abb2-dcfb-44a8-b68e-a747b420e90c",
            "nama_pse": "BANK PERKREDITAN RAKYAT INDRA CANDRA",
            "nama_se": "INDRA MOBILE",
            "sektor": "Sektor Keuangan",
            "tanggal_terbit": "2022-07-18",
            "url_tdpse_detail": "https://pse.komdigi.go.id/tdpse-detail/6249",
            "website": "bprindra.com"
        },
        {
            "id": "9cb1aba8-ba06-4a46-add6-1c7e3e641a17",
            "nama_pse": "ALI RAJA",
            "nama_se": "KATAKI SHOP",
            "sektor": "Sektor Perdagangan",
            "tanggal_terbit": "2022-07-18",
            "url_tdpse_detail": "https://pse.komdigi.go.id/tdpse-detail/6247",
            "website": "-"
        },
        {
            "id": "9cb1aba8-bbf4-4db8-8362-07d9bba7ec19",
            "nama_pse": "BANK PERKREDITAN RAKYAT SUPRA ARTAPERSADA",
            "nama_se": "E-MAIL BPR SUPRA (2)",
            "sektor": "Sektor Keuangan",
            "tanggal_terbit": "2022-07-18",
            "url_tdpse_detail": "https://pse.komdigi.go.id/tdpse-detail/6248",
            "website": "mail.bprsupra.com"
        },
        {
            "id": "9cb1aba8-c0a1-432e-ae7b-d7158360f4b8",
            "nama_pse": "INTERNUSA TRIBUANA CITRA MULTI FINANCE",
            "nama_se": "ITCFINANCE.COM",
            "sektor": "Sektor Keuangan",
            "tanggal_terbit": "2022-07-18",
            "url_tdpse_detail": "https://pse.komdigi.go.id/tdpse-detail/6254",
            "website": "itcfinance.com"
        },
        {
            "id": "9cb1abb3-eed3-42c0-ab4c-8a75fca9420b",
            "nama_pse": "ASURANSI JIWA SEQUIS FINANCIAL",
            "nama_se": "AJK ONLINE",
            "sektor": "Sektor Keuangan",
            "tanggal_terbit": "2022-07-18",
            "url_tdpse_detail": "https://pse.komdigi.go.id/tdpse-detail/6250",
            "website": "AJKONLINE.SEQUIS.CO.ID"
        },
        {
            "id": "9cb1abb3-f0e4-468c-912e-c005adb5654b",
            "nama_pse": "BANK CENTRAL ASIA",
            "nama_se": "CLIENT TRADE BCA",
            "sektor": "Sektor Keuangan",
            "tanggal_terbit": "2022-07-18",
            "url_tdpse_detail": "https://pse.komdigi.go.id/tdpse-detail/6253",
            "website": "clienttradebca.klikbca.com"
        },
        {
            "id": "9cb1aba8-c2fd-471d-b1bc-1002c8b7d367",
            "nama_pse": "BOWSPRIT ASSET MANAGEMENT",
            "nama_se": "WWW.BOWSPRIT-AM.COM",
            "sektor": "Sektor Keuangan",
            "tanggal_terbit": "2022-07-18",
            "url_tdpse_detail": "https://pse.komdigi.go.id/tdpse-detail/6252",
            "website": "bowsprit-am.com"
        }
    ],
    "processingTimeMs": 5,
    "query": "",
    "totalHits": 19121,
    "hitsPerPage": 50,
    "page": 270,
    "totalPages": 383
}