{
    "hits": [
        {
            "id": "9cb1ac57-de53-49f9-b341-1fb2a8ae6033",
            "nama_pse": "WEGO TRAVEL INDONESIA",
            "nama_se": "WEGO TRAVEL INDONESIA",
            "sektor": "Sektor Teknologi Informasi dan Komunikasi",
            "tanggal_terbit": "2024-03-20",
            "url_tdpse_detail": "https://pse.komdigi.go.id/tdpse-detail/18330",
            "website": "WWW.WEGO.COM"
        },
        {
            "id": "9cb1ac81-8b27-4241-aeae-864e333eb572",
            "nama_pse": "MITRASOFT GLOBAL PERDANA",
            "nama_se": "IBA E-CHANNEL",
            "sektor": "Sektor Teknologi Informasi dan Komunikasi",
            "tanggal_terbit": "2024-03-20",
            "url_tdpse_detail": "https://pse.komdigi.go.id/tdpse-detail/18329",
            "website": "mitrasoft.com"
        },
        {
            "id": "9cb1ac6c-dd3f-4ed3-81b4-e3a75142d0b0",
            "nama_pse": "FAISAL EFENDI",
            "nama_se": "RME KLINIK MITRA BUNDA KUKAR",
            "sektor": "Sektor Kesehatan",
            "tanggal_terbit": "2024-03-20",
            "url_tdpse_detail": "https://pse.komdigi.go.id/tdpse-detail/18328",
            "website": "-"
        },
        {
            "id": "9cb1ac6c-e762-4cbb-b648-ac928dad7803",
            "nama_pse": "TUMBUH SEHAT INDONESIA",
            "nama_se": "TUMBUHSEHAT EXPERIENCE",
            "sektor": "Sektor Teknologi Informasi dan Komunikasi",
            "tanggal_terbit": "2024-03-20",
            "url_tdpse_detail": "https://pse.komdigi.go.id/tdpse-detail/18333",
            "website": "tumbuhsehat.id"
        },
        {
            "id": "9cb1ac81-bd23-48a9-831e-d30c51224ee5",
            "nama_pse": "BANK PEREKONOMIAN RAKYAT INGERTAD BANGUN UTAMA",
            "nama_se": "SATU IBU",
            "sektor": "Sektor Keuangan",
            "tanggal_terbit": "2024-03-20",
            "url_tdpse_detail": "https://pse.komdigi.go.id/tdpse-detail/18327",
            "website": "-"
        },
        {
            "id": "9cb1ac6c-e43e-4083-b98b-d0645fea6ed6",
            "nama_pse": "KURNIA CIPTAMODA GEMILANG",
            "nama_se": "PEDROSHOES.CO.ID",
            "sektor": "Sektor Perdagangan",
            "tanggal_terbit": "2024-03-20",
            "url_tdpse_detail": "https://pse.komdigi.go.id/tdpse-detail/18334",
            "website": "pedroshoes.co.id"
        },
        {
            "id": "9cb1ac57-e436-46b3-8b86-99f1ff942ef7",
            "nama_pse": "RUMAH SAKIT MARY CILEUNGSI HIJAU",
            "nama_se": "REKAM MEDIS ELEKTRONIK RS MARY CILEUNGSI HIJAU",
            "sektor": "Sektor Kesehatan",
            "tanggal_terbit": "2024-03-20",
            "url_tdpse_detail": "https://pse.komdigi.go.id/tdpse-detail/18332",
            "website": "-"
        },
        {
            "id": "9cb1ac57-e171-494b-8700-7d8d11d3dcd5",
            "nama_pse": "RITEL PANEN ADIPERKASA",
            "nama_se": "WWW.FLYINGTIGER.ID",
            "sektor": "Sektor Perdagangan",
            "tanggal_terbit": "2024-03-20",
            "url_tdpse_detail": "https://pse.komdigi.go.id/tdpse-detail/18331",
            "website": "flyingtiger.id"
        },
        {
            "id": "9cb1ac6c-ee19-4604-92a4-ffbbf61daf92",
            "nama_pse": "JAKARTA TEKNOLOGI INFORMASI",
            "nama_se": "RME RS JMC",
            "sektor": "Sektor Kesehatan",
            "tanggal_terbit": "2024-03-20",
            "url_tdpse_detail": "https://pse.komdigi.go.id/tdpse-detail/18335",
            "website": "portal.rsjmc.id"
        },
        {
            "id": "9cb1ac81-c204-473a-b5af-1681fca0fdbd",
            "nama_pse": "ARINI MUGHNI GRUP",
            "nama_se": "AZURE ARINI SYSTEM",
            "sektor": "Sektor Teknologi Informasi dan Komunikasi",
            "tanggal_terbit": "2024-03-20",
            "url_tdpse_detail": "https://pse.komdigi.go.id/tdpse-detail/18338",
            "website": "arinidentalcare.com"
        },
        {
            "id": "9cb1ac6c-f4d2-472a-900a-397e2aadcb16",
            "nama_pse": "INTEGRASI JARINGAN EKOSISTEM",
            "nama_se": "WEAVE",
            "sektor": "Sektor Teknologi Informasi dan Komunikasi",
            "tanggal_terbit": "2024-03-20",
            "url_tdpse_detail": "https://pse.komdigi.go.id/tdpse-detail/18339",
            "website": "weave.co.id"
        },
        {
            "id": "9cb1ac81-8349-44d7-94aa-95c64c21eee7",
            "nama_pse": "ORACLE INDONESIA",
            "nama_se": "NETSUITE",
            "sektor": "Sektor Teknologi Informasi dan Komunikasi",
            "tanggal_terbit": "2024-03-19",
            "url_tdpse_detail": "https://pse.komdigi.go.id/tdpse-detail/18311",
            "website": "netsuite.com"
        },
        {
            "id": "9cb1ac6c-d6ec-4c8c-bcdc-b8a0e501bf21",
            "nama_pse": "INTEGRASI TEKNOLOGI UNGGAS",
            "nama_se": "BROILERX",
            "sektor": "Sektor Teknologi Informasi dan Komunikasi",
            "tanggal_terbit": "2024-03-19",
            "url_tdpse_detail": "https://pse.komdigi.go.id/tdpse-detail/18310",
            "website": "broilerx.com"
        },
        {
            "id": "9cb1ac81-15a5-4404-b5a2-d3314cebd809",
            "nama_pse": "SAHARA NUHA QIRANA",
            "nama_se": "SAHARA E-HR",
            "sektor": "Sektor Kesehatan",
            "tanggal_terbit": "2024-03-19",
            "url_tdpse_detail": "https://pse.komdigi.go.id/tdpse-detail/18320",
            "website": "-"
        },
        {
            "id": "9cb1ac6c-e0f8-4be2-a41c-f7c997cfdd85",
            "nama_pse": "METRO INTER MEDIA",
            "nama_se": "METROPOLIS.ID",
            "sektor": "Sektor Teknologi Informasi dan Komunikasi",
            "tanggal_terbit": "2024-03-19",
            "url_tdpse_detail": "https://pse.komdigi.go.id/tdpse-detail/18325",
            "website": "metropolis.id"
        },
        {
            "id": "9cb1ac81-a1e6-4d4e-972d-4cbf738566f6",
            "nama_pse": "I PUTU MEIDIKHA ADNYANA",
            "nama_se": "LELE SUPER PREMIUM",
            "sektor": "Sektor Perdagangan, Sektor Teknologi Informasi dan Komunikasi",
            "tanggal_terbit": "2024-03-19",
            "url_tdpse_detail": "https://pse.komdigi.go.id/tdpse-detail/18321",
            "website": "lelesuperpremium.com"
        },
        {
            "id": "9cb1ac57-bd5f-47bb-aa8a-9e4b526e0a16",
            "nama_pse": "ARTHA INVESTA TEKNOLOGI",
            "nama_se": "CERMATI INVEST (APLIKASI PT ARTHA INVESTA TEKNOLOGI)",
            "sektor": "Sektor Keuangan",
            "tanggal_terbit": "2024-03-19",
            "url_tdpse_detail": "https://pse.komdigi.go.id/tdpse-detail/18309",
            "website": "-"
        },
        {
            "id": "9cb1ac81-8f2e-48c3-ae3a-007bd68cd22e",
            "nama_pse": "GRIYA SELARAS PRATAMA",
            "nama_se": "TEMANIBU.AI",
            "sektor": "Sektor Kesehatan",
            "tanggal_terbit": "2024-03-19",
            "url_tdpse_detail": "https://pse.komdigi.go.id/tdpse-detail/18313",
            "website": "temanibu.ai"
        },
        {
            "id": "9cb1ac57-b9a6-4b0d-b4ac-e39c30ba8f2a",
            "nama_pse": "ORACLE INDONESIA",
            "nama_se": "NETSUITE SYSTEM",
            "sektor": "Sektor Teknologi Informasi dan Komunikasi",
            "tanggal_terbit": "2024-03-19",
            "url_tdpse_detail": "https://pse.komdigi.go.id/tdpse-detail/18316",
            "website": "system.netsuite.com"
        },
        {
            "id": "9cb1ac57-cf38-4b2e-8c99-d6f133bd7d78",
            "nama_pse": "JAPRI PAY NUSANTARA",
            "nama_se": "JAPRI PAY",
            "sektor": "Sektor Perdagangan, Sektor Teknologi Informasi dan Komunikasi",
            "tanggal_terbit": "2024-03-19",
            "url_tdpse_detail": "https://pse.komdigi.go.id/tdpse-detail/18308",
            "website": "japrime.id"
        },
        {
            "id": "9cb1ac57-d512-49b8-9356-837a4cf1f99e",
            "nama_pse": "RIDHO FIRMANSYAH",
            "nama_se": "SINARCLOUD",
            "sektor": "Sektor Teknologi Informasi dan Komunikasi",
            "tanggal_terbit": "2024-03-19",
            "url_tdpse_detail": "https://pse.komdigi.go.id/tdpse-detail/18312",
            "website": "sinarcloud.com"
        },
        {
            "id": "9cb1ac81-983b-49da-bfbb-e16ad38a248b",
            "nama_pse": "ASIH EKA ABADI",
            "nama_se": "AEAMEDSITE1",
            "sektor": "Sektor Kesehatan",
            "tanggal_terbit": "2024-03-19",
            "url_tdpse_detail": "https://pse.komdigi.go.id/tdpse-detail/18315",
            "website": "-"
        },
        {
            "id": "9cb1ac81-93fa-495b-a246-9290c8ea7156",
            "nama_pse": "META PESONA TEKNOLOGI",
            "nama_se": "WUIIY",
            "sektor": "Sektor Kesehatan",
            "tanggal_terbit": "2024-03-19",
            "url_tdpse_detail": "https://pse.komdigi.go.id/tdpse-detail/18324",
            "website": "wuiiy.com"
        },
        {
            "id": "9cb1ac6c-da1a-40a5-9b85-a5633230d534",
            "nama_pse": "BANGUN SARANA INFORMATIKA PATI",
            "nama_se": "SIMKES RME KLINIK ASSUNNIYYAH",
            "sektor": "Sektor Kesehatan",
            "tanggal_terbit": "2024-03-19",
            "url_tdpse_detail": "https://pse.komdigi.go.id/tdpse-detail/18314",
            "website": "-"
        },
        {
            "id": "9cb1ac57-d848-4e16-ab8c-5f8ce5cf8302",
            "nama_pse": "KALS BERSAMA HAWA",
            "nama_se": "GERAI HAWA SATU",
            "sektor": "Sektor Perdagangan",
            "tanggal_terbit": "2024-03-19",
            "url_tdpse_detail": "https://pse.komdigi.go.id/tdpse-detail/18319",
            "website": "-"
        },
        {
            "id": "9cb1ac81-b80c-4811-813e-c9c1f312fd06",
            "nama_pse": "TRIBUN CAKRA GROUP",
            "nama_se": "TRIBUNCAKRANEWS.COM",
            "sektor": "Sektor Teknologi Informasi dan Komunikasi",
            "tanggal_terbit": "2024-03-19",
            "url_tdpse_detail": "https://pse.komdigi.go.id/tdpse-detail/18323",
            "website": "tribuncakranews.com"
        },
        {
            "id": "9cb1ac81-ac3a-4b11-87e5-3d98d62bb214",
            "nama_pse": "GIT INDONESIA",
            "nama_se": "SEHATIN.ID",
            "sektor": "Sektor Kesehatan",
            "tanggal_terbit": "2024-03-19",
            "url_tdpse_detail": "https://pse.komdigi.go.id/tdpse-detail/18322",
            "website": "sehatin.id"
        },
        {
            "id": "9cb1ac6b-758c-478a-8fbd-c7a693ff4fc6",
            "nama_pse": "MITRA MEDIKA",
            "nama_se": "SIMRS EMR",
            "sektor": "Sektor Teknologi Informasi dan Komunikasi",
            "tanggal_terbit": "2024-03-18",
            "url_tdpse_detail": "https://pse.komdigi.go.id/tdpse-detail/18300",
            "website": "-"
        },
        {
            "id": "9cb1ac54-1e5a-481f-a171-eec4de62b364",
            "nama_pse": "ALADDIN SARANA INDONESIA",
            "nama_se": "ALADDIN",
            "sektor": "Sektor Perdagangan",
            "tanggal_terbit": "2024-03-18",
            "url_tdpse_detail": "https://pse.komdigi.go.id/tdpse-detail/18297",
            "website": "aladdincommerce.co.id"
        },
        {
            "id": "9cb1ac6c-8a99-44a2-a9a2-87917438a2c8",
            "nama_pse": "AL MIZAN",
            "nama_se": "ZEFA FOUNDATION",
            "sektor": "Sektor Perdagangan",
            "tanggal_terbit": "2024-03-18",
            "url_tdpse_detail": "https://pse.komdigi.go.id/tdpse-detail/18296",
            "website": "zefafoundation.my.id"
        },
        {
            "id": "9cb1ac81-7c8b-4fd0-9634-c8fd667b6022",
            "nama_pse": "NANOSOFT CIPTA SOLUSI",
            "nama_se": "NANOSOFT",
            "sektor": "Sektor Perdagangan, Sektor Kesehatan, Sektor Teknologi Informasi dan Komunikasi",
            "tanggal_terbit": "2024-03-18",
            "url_tdpse_detail": "https://pse.komdigi.go.id/tdpse-detail/18301",
            "website": "nanosoft.id"
        },
        {
            "id": "9cb1ac6c-d0e9-4822-b4c7-b9dbddc1f523",
            "nama_pse": "STARTCODE TECHNOLOGY DIGITAL",
            "nama_se": "REFMED",
            "sektor": "Sektor Kesehatan, Sektor Teknologi Informasi dan Komunikasi",
            "tanggal_terbit": "2024-03-18",
            "url_tdpse_detail": "https://pse.komdigi.go.id/tdpse-detail/18295",
            "website": "refmed.id"
        },
        {
            "id": "9cb1ac6c-ce1a-4081-92bc-dc03022fc780",
            "nama_pse": "LETSPAY TEKNOLOGI INDONESIA",
            "nama_se": "LETSPAY TEKNOLOGI INDONESIA",
            "sektor": "Sektor Perdagangan",
            "tanggal_terbit": "2024-03-18",
            "url_tdpse_detail": "https://pse.komdigi.go.id/tdpse-detail/18294",
            "website": "gateway.smartbayar.co.id"
        },
        {
            "id": "9cb1ac6c-d3f4-499a-a997-3c9ccc9f4ba6",
            "nama_pse": "XIAOMI COMMUNICATIONS INDONESIA",
            "nama_se": "XIAOMI HYPEROS",
            "sektor": "Sektor Teknologi Informasi dan Komunikasi",
            "tanggal_terbit": "2024-03-18",
            "url_tdpse_detail": "https://pse.komdigi.go.id/tdpse-detail/18299",
            "website": "-"
        },
        {
            "id": "9cb1ac57-ad3e-415b-a38e-1b0ede3ac687",
            "nama_pse": "ADITYA DWI NUGRAHA",
            "nama_se": "CLINIC INFORMATION SYSTEM",
            "sektor": "Sektor Kesehatan",
            "tanggal_terbit": "2024-03-18",
            "url_tdpse_detail": "https://pse.komdigi.go.id/tdpse-detail/18298",
            "website": "-"
        },
        {
            "id": "9cb1ac57-c365-4db4-be56-d69dfbffecef",
            "nama_pse": "MEDIA KANAL INSPIRASI",
            "nama_se": "KANALINSPIRASI.COM",
            "sektor": "Sektor Teknologi Informasi dan Komunikasi",
            "tanggal_terbit": "2024-03-18",
            "url_tdpse_detail": "https://pse.komdigi.go.id/tdpse-detail/18305",
            "website": "kanalinspirasi.com"
        },
        {
            "id": "9cb1ac57-b70c-49bc-a583-29d400170793",
            "nama_pse": "BMT ARTHA AMANAH SANDEN",
            "nama_se": "ARTHA AMANAH MOBILE",
            "sektor": "Sektor Teknologi Informasi dan Komunikasi",
            "tanggal_terbit": "2024-03-18",
            "url_tdpse_detail": "https://pse.komdigi.go.id/tdpse-detail/18303",
            "website": "-"
        },
        {
            "id": "9cb1ac57-c0c9-4dba-a987-17b320e77cfb",
            "nama_pse": "DAWN SOFTWARE LABS",
            "nama_se": "MEDIVE",
            "sektor": "Sektor Kesehatan",
            "tanggal_terbit": "2024-03-18",
            "url_tdpse_detail": "https://pse.komdigi.go.id/tdpse-detail/18304",
            "website": "medive.id"
        },
        {
            "id": "9cb1ac57-c9a8-4960-83a7-8c267ebee2ac",
            "nama_pse": "AESEN PUTRA NUGRAHA GROUP",
            "nama_se": "CAKAPHUKUM.COM",
            "sektor": "Sektor Teknologi Informasi dan Komunikasi",
            "tanggal_terbit": "2024-03-18",
            "url_tdpse_detail": "https://pse.komdigi.go.id/tdpse-detail/18306",
            "website": "cakaphukum.com"
        },
        {
            "id": "9cb1ac57-cc68-412b-af0c-74983eec037d",
            "nama_pse": "SAKURA",
            "nama_se": "PUSKESMAS-QUANTUM.ONLINE",
            "sektor": "Sektor Kesehatan",
            "tanggal_terbit": "2024-03-18",
            "url_tdpse_detail": "https://pse.komdigi.go.id/tdpse-detail/18307",
            "website": "puskesmas-quantum.online"
        },
        {
            "id": "9cb1ac57-b005-4f8d-9a55-75e603c7440a",
            "nama_pse": "ALADDIN SARANA INDONESIA",
            "nama_se": "ALADDIN COMMERCE",
            "sektor": "Sektor Perdagangan",
            "tanggal_terbit": "2024-03-18",
            "url_tdpse_detail": "https://pse.komdigi.go.id/tdpse-detail/18302",
            "website": "-"
        },
        {
            "id": "9cb1ac6c-cb5c-4647-91ed-d18df2a991e4",
            "nama_pse": "TRIVINI SUKSES SEJAHTERA",
            "nama_se": "RME SATUSEHAT TRIVINI MEDIKA",
            "sektor": "Sektor Kesehatan",
            "tanggal_terbit": "2024-03-17",
            "url_tdpse_detail": "https://pse.komdigi.go.id/tdpse-detail/18292",
            "website": "rme.trivinimedika.id"
        },
        {
            "id": "9cb1ac6c-c82b-4b67-9416-eae436dfd230",
            "nama_pse": "DIGITAL CIPTA NUSANTARA",
            "nama_se": "LANGIT DIGITAL",
            "sektor": "Sektor Teknologi Informasi dan Komunikasi",
            "tanggal_terbit": "2024-03-17",
            "url_tdpse_detail": "https://pse.komdigi.go.id/tdpse-detail/18291",
            "website": "-"
        },
        {
            "id": "9cb1ac6c-a384-4881-bbdf-6ba7dd42403d",
            "nama_pse": "ARNITA SURYA PERMATA KELUARGA",
            "nama_se": "SISTEM INFORMASI KLINIK CITRA HUSADA",
            "sektor": "Sektor Kesehatan",
            "tanggal_terbit": "2024-03-16",
            "url_tdpse_detail": "https://pse.komdigi.go.id/tdpse-detail/18280",
            "website": "klinikcitrahusada.com"
        },
        {
            "id": "9cb1ac81-6eb1-4b27-b691-6034e85ef731",
            "nama_pse": "RISKI FEBRIANSYAH",
            "nama_se": "BALAIWARGA",
            "sektor": "Sektor Teknologi Informasi dan Komunikasi",
            "tanggal_terbit": "2024-03-16",
            "url_tdpse_detail": "https://pse.komdigi.go.id/tdpse-detail/18284",
            "website": "balaiwarga.com"
        },
        {
            "id": "9cb1ac57-a811-406b-95a9-87477db96d78",
            "nama_pse": "HAFSHAH FARAH FADHILAH",
            "nama_se": "ELECTRONIC MEDICAL RECORD DENTALRECORD.ID",
            "sektor": "Sektor Kesehatan, Sektor Teknologi Informasi dan Komunikasi",
            "tanggal_terbit": "2024-03-16",
            "url_tdpse_detail": "https://pse.komdigi.go.id/tdpse-detail/18285",
            "website": "dentalrecord.id"
        },
        {
            "id": "9cb1ac6c-b815-4d59-b42d-dddcc5cd7a79",
            "nama_pse": "DIGITAL CIPTA NUSANTARA",
            "nama_se": "BAGIKPAPAN.NET",
            "sektor": "Sektor Teknologi Informasi dan Komunikasi",
            "tanggal_terbit": "2024-03-16",
            "url_tdpse_detail": "https://pse.komdigi.go.id/tdpse-detail/18287",
            "website": "ptdigitalciptanusantara.com"
        },
        {
            "id": "9cb1ac6c-b50a-47bc-a7b9-54e4e540da22",
            "nama_pse": "AL MIZAN",
            "nama_se": "MIZAN TOURS \u0026 TRAVEL",
            "sektor": "Sektor Perdagangan",
            "tanggal_terbit": "2024-03-16",
            "url_tdpse_detail": "https://pse.komdigi.go.id/tdpse-detail/18286",
            "website": "mizan-tours-travel.my.id"
        },
        {
            "id": "9cb1ac57-93c5-431a-8ee5-0c02c7fb802e",
            "nama_pse": "BANK MASPION INDONESIA",
            "nama_se": "INTERNET BANKING | MASPION ELECTRONIC BANKING (MEB)",
            "sektor": "Sektor Keuangan",
            "tanggal_terbit": "2024-03-15",
            "url_tdpse_detail": "https://pse.komdigi.go.id/tdpse-detail/18274",
            "website": "meb.bankmaspion.co.id"
        },
        {
            "id": "9cb1ac6c-7a83-47c5-96ee-6d0fc3ce5d18",
            "nama_pse": "AVRIST GENERAL INSURANCE",
            "nama_se": "CALCULATOR PREMI",
            "sektor": "Sektor Keuangan",
            "tanggal_terbit": "2024-03-15",
            "url_tdpse_detail": "https://pse.komdigi.go.id/tdpse-detail/18266",
            "website": "calculator.avristgeneral.com"
        }
    ],
    "processingTimeMs": 1,
    "query": "",
    "totalHits": 19121,
    "hitsPerPage": 50,
    "page": 77,
    "totalPages": 383
}