{
    "hits": [
        {
            "id": "9cb1abc2-2471-4bd1-8868-3fb55aec8cc4",
            "nama_pse": "STEFANUS HARTONO KURNIAWAN",
            "nama_se": "RAJAWALI RELOAD",
            "sektor": "Sektor Perdagangan",
            "tanggal_terbit": "2022-07-19",
            "url_tdpse_detail": "https://pse.komdigi.go.id/tdpse-detail/7148",
            "website": "Rajawalireload.com"
        },
        {
            "id": "9cb1abe7-a112-45df-b812-ea4a84e8ff79",
            "nama_pse": "CISCO TECHNOLOGIES INDONESIA",
            "nama_se": "WEBEX",
            "sektor": "Sektor Teknologi Informasi dan Komunikasi",
            "tanggal_terbit": "2022-07-19",
            "url_tdpse_detail": "https://pse.komdigi.go.id/tdpse-detail/7147",
            "website": "webex.com"
        },
        {
            "id": "9cb1abe7-a570-4ba9-96ec-c1f85b9fd43c",
            "nama_pse": "Wawan Candra Dinata ",
            "nama_se": "TRAVELDATA: AGEN PULSA \u0026 KUOTA",
            "sektor": "Sektor Perdagangan",
            "tanggal_terbit": "2022-07-19",
            "url_tdpse_detail": "https://pse.komdigi.go.id/tdpse-detail/7136",
            "website": "traveldata.id"
        },
        {
            "id": "9cb1abe7-a906-478f-a66c-31b48d76d877",
            "nama_pse": "BANK SMBC INDONESIA",
            "nama_se": "AKSESBISNIS@BTPN",
            "sektor": "Sektor Keuangan",
            "tanggal_terbit": "2022-07-19",
            "url_tdpse_detail": "https://pse.komdigi.go.id/tdpse-detail/7138",
            "website": "aksesbisnis.btpn.com"
        },
        {
            "id": "9cb1abe7-adfd-4150-b3a8-c2f14776991e",
            "nama_pse": "STEFANUS HARTONO KURNIAWAN",
            "nama_se": "RAJAWALI PULSA",
            "sektor": "Sektor Perdagangan",
            "tanggal_terbit": "2022-07-19",
            "url_tdpse_detail": "https://pse.komdigi.go.id/tdpse-detail/7137",
            "website": "Rajawalireload.com"
        },
        {
            "id": "9cb1abe7-b38a-4ee6-ac98-dd71653d17ba",
            "nama_pse": "BANK PEMBANGUNAN DAERAH BALI",
            "nama_se": "E-RETRIBUSI BANK BPD BALI",
            "sektor": "Sektor Keuangan",
            "tanggal_terbit": "2022-07-19",
            "url_tdpse_detail": "https://pse.komdigi.go.id/tdpse-detail/7142",
            "website": "eretribusi.bpdbali.co.id"
        },
        {
            "id": "9cb1abc2-2788-4eed-93cb-50e80b956655",
            "nama_pse": "MOHAMMAD TAUFIQURROHMAN",
            "nama_se": "APLIKASI PENCATATAN INFORMASI KEUANGAN BLUD RSUD SULTAN FATAH KABUPATEN DEMAK",
            "sektor": "Sektor Teknologi Informasi dan Komunikasi",
            "tanggal_terbit": "2022-07-19",
            "url_tdpse_detail": "https://pse.komdigi.go.id/tdpse-detail/7143",
            "website": "blud.rsudsulfat.com"
        },
        {
            "id": "9cb1abe7-b9c8-411d-b867-553ebf99ff90",
            "nama_pse": "INTI CAKRAWALA CITRA",
            "nama_se": "STOCK POINT INDOGROSIR (SPI)",
            "sektor": "Sektor Perdagangan",
            "tanggal_terbit": "2022-07-19",
            "url_tdpse_detail": "https://pse.komdigi.go.id/tdpse-detail/7144",
            "website": "spi.klikindogrosir.com"
        },
        {
            "id": "9cb1abc2-2cbc-4ad4-9787-ccba05d5e789",
            "nama_pse": "BANK HSBC INDONESIA",
            "nama_se": "CORPORATE INTERNET BANKING HSBCNET",
            "sektor": "Sektor Keuangan",
            "tanggal_terbit": "2022-07-19",
            "url_tdpse_detail": "https://pse.komdigi.go.id/tdpse-detail/7145",
            "website": "hsbcnet.com"
        },
        {
            "id": "9cb1abc2-2f49-4ea9-9ad1-ac707349ae7d",
            "nama_pse": "ENVIPEDIA HARMONI INDONESIA",
            "nama_se": "ENVIPEDIA",
            "sektor": "Sektor Perdagangan",
            "tanggal_terbit": "2022-07-19",
            "url_tdpse_detail": "https://pse.komdigi.go.id/tdpse-detail/7146",
            "website": "-"
        },
        {
            "id": "9cb1abe7-bf6d-4d75-aeac-92e5ee7b70d9",
            "nama_pse": "RELBI LIDIANI HUSADA",
            "nama_se": "WEBSITE OFFICIAL PT. BPR KARYA GUNA MANDIRI",
            "sektor": "Sektor Keuangan",
            "tanggal_terbit": "2022-07-19",
            "url_tdpse_detail": "https://pse.komdigi.go.id/tdpse-detail/7149",
            "website": "bprkaryagunamandiri.co.id"
        },
        {
            "id": "9cb1abb7-0995-454d-afae-46cf12abf2c7",
            "nama_pse": "BANK MEGA",
            "nama_se": "BANK MEGA CONTACT MANAGEMENT SYSTEM",
            "sektor": "Sektor Keuangan",
            "tanggal_terbit": "2022-07-19",
            "url_tdpse_detail": "https://pse.komdigi.go.id/tdpse-detail/7150",
            "website": "mcms.bankmega.com"
        },
        {
            "id": "9cb1abb7-0bfd-429d-82e8-e4d71b593647",
            "nama_pse": "SELLON TECH INDONESIA",
            "nama_se": "SELLON",
            "sektor": "Sektor Perdagangan",
            "tanggal_terbit": "2022-07-19",
            "url_tdpse_detail": "https://pse.komdigi.go.id/tdpse-detail/7151",
            "website": "sellon.net"
        },
        {
            "id": "9cb1abb7-0ebc-4b6e-85b7-ecd20f5f830a",
            "nama_pse": "RESTU JATIDIRI",
            "nama_se": "BAROKAH ELECTRIC",
            "sektor": "Sektor Perdagangan",
            "tanggal_terbit": "2022-07-19",
            "url_tdpse_detail": "https://pse.komdigi.go.id/tdpse-detail/7156",
            "website": "barokahelectric.com"
        },
        {
            "id": "9cb1abc2-31bc-40c2-aa9e-23b32d8c7af2",
            "nama_pse": "MITRA PEDAGANG INDONESIA",
            "nama_se": "MPSTORE",
            "sektor": "Sektor Perdagangan",
            "tanggal_terbit": "2022-07-19",
            "url_tdpse_detail": "https://pse.komdigi.go.id/tdpse-detail/7152",
            "website": "mpstore.co.id"
        },
        {
            "id": "9cb1abc2-34d1-4c3a-a655-694795b1737a",
            "nama_pse": "XL AXIATA",
            "nama_se": "XL AXIATA PORTAL",
            "sektor": "Sektor Teknologi Informasi dan Komunikasi",
            "tanggal_terbit": "2022-07-19",
            "url_tdpse_detail": "https://pse.komdigi.go.id/tdpse-detail/7153",
            "website": "xlaxiata.co.id"
        },
        {
            "id": "9cb1abc2-37b0-4165-82fa-83b59657d15d",
            "nama_pse": "INTI CAKRAWALA CITRA",
            "nama_se": "TOKO MANDIRI INDOGROSIR (TMI)",
            "sektor": "Sektor Perdagangan",
            "tanggal_terbit": "2022-07-19",
            "url_tdpse_detail": "https://pse.komdigi.go.id/tdpse-detail/7154",
            "website": "-"
        },
        {
            "id": "9cb1abc2-3afe-4aec-a8e9-2cf2d9f7265a",
            "nama_pse": "STEFANUS HARTONO KURNIAWAN",
            "nama_se": "RAJAWALI PULSA INDONESIA",
            "sektor": "Sektor Perdagangan",
            "tanggal_terbit": "2022-07-19",
            "url_tdpse_detail": "https://pse.komdigi.go.id/tdpse-detail/7155",
            "website": "rajawalireload.com"
        },
        {
            "id": "9cb1abb7-11aa-47e8-8a2c-60bc7ad21bce",
            "nama_pse": "BANK PEMBANGUNAN DAERAH BALI",
            "nama_se": "MOBILE COLLECTION BANK BPD BALI",
            "sektor": "Sektor Keuangan",
            "tanggal_terbit": "2022-07-19",
            "url_tdpse_detail": "https://pse.komdigi.go.id/tdpse-detail/7157",
            "website": "-"
        },
        {
            "id": "9cb1abb7-1453-4189-9ea3-f38e0b10ab34",
            "nama_pse": "PERUSAHAAN LISTRIK NEGARA (PERSERO)",
            "nama_se": "WEB.PLN.CO.ID",
            "sektor": "Sektor Energi dan Sumber Daya Mineral",
            "tanggal_terbit": "2022-07-19",
            "url_tdpse_detail": "https://pse.komdigi.go.id/tdpse-detail/7158",
            "website": "web.pln.co.id"
        },
        {
            "id": "9cb1abe7-c4b5-476b-9731-ac413d783f81",
            "nama_pse": "RAHMAT",
            "nama_se": "MM-STORE TOPUP TERMURAH PPOB",
            "sektor": "Sektor Teknologi Informasi dan Komunikasi",
            "tanggal_terbit": "2022-07-19",
            "url_tdpse_detail": "https://pse.komdigi.go.id/tdpse-detail/7160",
            "website": "mmstoreapps.bukaolshop.site"
        },
        {
            "id": "9cb1abc2-3d89-460b-98e6-4817397fd948",
            "nama_pse": "MUH. SALMAN AL FARISIH M. YUNUS",
            "nama_se": "NIAGAPAY",
            "sektor": "Sektor Perdagangan",
            "tanggal_terbit": "2022-07-19",
            "url_tdpse_detail": "https://pse.komdigi.go.id/tdpse-detail/7161",
            "website": "niagapay.com"
        },
        {
            "id": "9cb1abb7-190f-492d-836a-bb45b14590b5",
            "nama_pse": "BANK HSBC INDONESIA",
            "nama_se": "HSBCEVOLVE",
            "sektor": "Sektor Keuangan",
            "tanggal_terbit": "2022-07-19",
            "url_tdpse_detail": "https://pse.komdigi.go.id/tdpse-detail/7163",
            "website": "fxclientui.gfx.id.gbm.hsbc.com"
        },
        {
            "id": "9cb1abe7-c974-4b63-a245-9dbedd145586",
            "nama_pse": "SIMPLE PAYMENT INDONESIA",
            "nama_se": "SIMPLE PAYMENT INDONESIA",
            "sektor": "Sektor Perdagangan",
            "tanggal_terbit": "2022-07-19",
            "url_tdpse_detail": "https://pse.komdigi.go.id/tdpse-detail/7162",
            "website": "simplepay.co.id"
        },
        {
            "id": "9cb1abe7-cfa8-4f03-abf9-7ea7948ded18",
            "nama_pse": "TELEKOMUNIKASI SELULAR",
            "nama_se": "LANGIT MUSIK",
            "sektor": "Sektor Teknologi Informasi dan Komunikasi",
            "tanggal_terbit": "2022-07-19",
            "url_tdpse_detail": "https://pse.komdigi.go.id/tdpse-detail/7164",
            "website": "langitmusik.co.id"
        },
        {
            "id": "9cb1abb7-1b9e-49c3-bd77-1ac9f5748980",
            "nama_pse": "BANK DANAMON INDONESIA",
            "nama_se": "D-POINT",
            "sektor": "Sektor Keuangan",
            "tanggal_terbit": "2022-07-19",
            "url_tdpse_detail": "https://pse.komdigi.go.id/tdpse-detail/7177",
            "website": "dpoint.id"
        },
        {
            "id": "9cb1abc2-4095-4f97-acbe-fd01af9a71de",
            "nama_pse": "YAKIN BERTUMBUH SEKURITAS",
            "nama_se": "JOIN WEBTRADE",
            "sektor": "Sektor Keuangan",
            "tanggal_terbit": "2022-07-19",
            "url_tdpse_detail": "https://pse.komdigi.go.id/tdpse-detail/7165",
            "website": "trade.juc.co.id"
        },
        {
            "id": "9cb1abc2-4883-4839-8b92-ff9671ab7b0d",
            "nama_pse": "IBNU FARKHAN",
            "nama_se": "GENUS.ID",
            "sektor": "Sektor Perdagangan, Sektor Teknologi Informasi dan Komunikasi",
            "tanggal_terbit": "2022-07-19",
            "url_tdpse_detail": "https://pse.komdigi.go.id/tdpse-detail/7167",
            "website": "genus.bukaolshop.site"
        },
        {
            "id": "9cb1abc2-4df2-4696-b90d-81f6f4988c68",
            "nama_pse": "KARGO ONLINE SYSTEM",
            "nama_se": "KARGO TECHNOLOGIES",
            "sektor": "Sektor Transportasi",
            "tanggal_terbit": "2022-07-19",
            "url_tdpse_detail": "https://pse.komdigi.go.id/tdpse-detail/7166",
            "website": "kargo.tech"
        },
        {
            "id": "9cb1abb7-1e33-419d-8819-220431b01d75",
            "nama_pse": "BANK PEMBANGUNAN DAERAH RIAU KEPRI SYARIAH PERSERODA",
            "nama_se": "CASH MANAGEMENT SYSTEM BANK RIAU KEPRI",
            "sektor": "Sektor Keuangan",
            "tanggal_terbit": "2022-07-19",
            "url_tdpse_detail": "https://pse.komdigi.go.id/tdpse-detail/7168",
            "website": "cms.bankriaukepri.co.id"
        },
        {
            "id": "9cb1abe7-d3db-48ef-83e8-07b8b8ae2389",
            "nama_pse": "BANK DANAMON INDONESIA",
            "nama_se": "CASH@WORK",
            "sektor": "Sektor Keuangan",
            "tanggal_terbit": "2022-07-19",
            "url_tdpse_detail": "https://pse.komdigi.go.id/tdpse-detail/7207",
            "website": "icashatwork.danamon.co.id"
        },
        {
            "id": "9cb1abe7-da84-4471-a7fe-2bd309ea440b",
            "nama_pse": "Asian Accessory",
            "nama_se": "ASIAN ACCESSORY",
            "sektor": "Sektor Perdagangan, Sektor Teknologi Informasi dan Komunikasi",
            "tanggal_terbit": "2022-07-19",
            "url_tdpse_detail": "https://pse.komdigi.go.id/tdpse-detail/7282",
            "website": "asian-accessory.com"
        },
        {
            "id": "9cb1abc2-50f7-4cf3-884a-b40c3b401a1d",
            "nama_pse": "BANK SYARIAH INDONESIA",
            "nama_se": "API SANDBOX BSI",
            "sektor": "Sektor Keuangan",
            "tanggal_terbit": "2022-07-19",
            "url_tdpse_detail": "https://pse.komdigi.go.id/tdpse-detail/7170",
            "website": "apisandbox.bsm.co.id"
        },
        {
            "id": "9cb1abb7-2082-41f0-b193-3db22636f45d",
            "nama_pse": "PRM LEMBAGA KANTOR BERITA NASIONAL ANTARA",
            "nama_se": "ANTARANEWS.COM ; ANTARAFOTO.COM",
            "sektor": "Sektor Teknologi Informasi dan Komunikasi",
            "tanggal_terbit": "2022-07-19",
            "url_tdpse_detail": "https://pse.komdigi.go.id/tdpse-detail/7169",
            "website": "antaranews.com"
        },
        {
            "id": "9cb1abc2-5a9e-4683-9592-25723937a54b",
            "nama_pse": "BANK KB BUKOPIN",
            "nama_se": "KB BUKOPIN MANAGEMENT PPOB",
            "sektor": "Sektor Keuangan",
            "tanggal_terbit": "2022-07-19",
            "url_tdpse_detail": "https://pse.komdigi.go.id/tdpse-detail/7208",
            "website": "ppob-mitra.bukopin.co.id"
        },
        {
            "id": "9cb1abb7-22e0-459c-9f03-8c10b30fa616",
            "nama_pse": "SIMPELIN HIDUP KITA",
            "nama_se": "SIMPELIN",
            "sektor": "Sektor Perdagangan, Sektor Teknologi Informasi dan Komunikasi",
            "tanggal_terbit": "2022-07-19",
            "url_tdpse_detail": "https://pse.komdigi.go.id/tdpse-detail/7172",
            "website": "simpelin.id"
        },
        {
            "id": "9cb1abe7-e567-436b-9603-5ad893759aac",
            "nama_pse": "CIRCLES ASIA TEKNOLOGI",
            "nama_se": "LIVE.ON",
            "sektor": "Sektor Teknologi Informasi dan Komunikasi",
            "tanggal_terbit": "2022-07-19",
            "url_tdpse_detail": "https://pse.komdigi.go.id/tdpse-detail/7175",
            "website": "liveon.id"
        },
        {
            "id": "9cb1abb7-2540-4ce8-9306-82c785b67edc",
            "nama_pse": "BANK SMBC INDONESIA",
            "nama_se": "SMAR\u0026TS",
            "sektor": "Sektor Keuangan",
            "tanggal_terbit": "2022-07-19",
            "url_tdpse_detail": "https://pse.komdigi.go.id/tdpse-detail/7275",
            "website": "finglobe.smbc.co.jp"
        },
        {
            "id": "9cb1abb7-27d1-4968-a1c0-7faac5d7d529",
            "nama_pse": "KIOS TEKNOLOGI INDONESIA",
            "nama_se": "PLATFORM DIGITAL",
            "sektor": "Sektor Perdagangan, Sektor Teknologi Informasi dan Komunikasi",
            "tanggal_terbit": "2022-07-19",
            "url_tdpse_detail": "https://pse.komdigi.go.id/tdpse-detail/7173",
            "website": "Api.kiosindonesia.com"
        },
        {
            "id": "9cb1abc2-6397-4b6c-b1b8-b708fb69b47c",
            "nama_pse": "SANDI ADRIAN RISALDI",
            "nama_se": "NALA TECH",
            "sektor": "Sektor Perdagangan",
            "tanggal_terbit": "2022-07-19",
            "url_tdpse_detail": "https://pse.komdigi.go.id/tdpse-detail/7174",
            "website": "naladipatech.com"
        },
        {
            "id": "9cb1abc2-66a6-4b2b-b7cf-d56ea65431be",
            "nama_pse": "PESONA HERBAL INDONESIA",
            "nama_se": "PESONA HERBAL INDONESIA",
            "sektor": "Sektor Perdagangan",
            "tanggal_terbit": "2022-07-19",
            "url_tdpse_detail": "https://pse.komdigi.go.id/tdpse-detail/7176",
            "website": "pesona168.com"
        },
        {
            "id": "9cb1abb7-2a66-4cb5-8d82-96824608ace9",
            "nama_pse": "FEBRIANSYAH MAKARIM",
            "nama_se": "BOOCINAPPS",
            "sektor": "Sektor Teknologi Informasi dan Komunikasi",
            "tanggal_terbit": "2022-07-19",
            "url_tdpse_detail": "https://pse.komdigi.go.id/tdpse-detail/7180",
            "website": "boocin.xyz"
        },
        {
            "id": "9cb1abc2-6c08-407e-89dc-57126c8d6c9c",
            "nama_pse": "INTI PAKET PRIMA",
            "nama_se": "INDOPAKET",
            "sektor": "Sektor Transportasi",
            "tanggal_terbit": "2022-07-19",
            "url_tdpse_detail": "https://pse.komdigi.go.id/tdpse-detail/7178",
            "website": "indopaket.co.id"
        },
        {
            "id": "9cb1abb7-3029-401b-b67d-d9b07970a4cd",
            "nama_pse": "BANK KB BUKOPIN",
            "nama_se": "KB BUKOPIN AGEN PPOB",
            "sektor": "Sektor Keuangan",
            "tanggal_terbit": "2022-07-19",
            "url_tdpse_detail": "https://pse.komdigi.go.id/tdpse-detail/7210",
            "website": "ppob-bayar.bukopin.co.id"
        },
        {
            "id": "9cb1abe7-ec1c-4c31-a5cb-c97e84f96251",
            "nama_pse": "BANK PEREKONOMIAN RAKYAT BLAMBANGAN MAKMUR BANYUWANGI",
            "nama_se": "PT.BPR.BLAMBANGAN MAKMUR-MARSTECH",
            "sektor": "Sektor Keuangan",
            "tanggal_terbit": "2022-07-19",
            "url_tdpse_detail": "https://pse.komdigi.go.id/tdpse-detail/7181",
            "website": "-"
        },
        {
            "id": "9cb1abb7-32b3-4c81-a778-1e971cd49baa",
            "nama_pse": "BANK DANAMON INDONESIA",
            "nama_se": "D-WALLET",
            "sektor": "Sektor Keuangan",
            "tanggal_terbit": "2022-07-19",
            "url_tdpse_detail": "https://pse.komdigi.go.id/tdpse-detail/7206",
            "website": "-"
        },
        {
            "id": "9cb1abc2-6ee0-493a-b5ea-e7aef4a81b99",
            "nama_pse": "BANK JAGO",
            "nama_se": "WEBSITE PT BANK JAGO TBK",
            "sektor": "Sektor Keuangan",
            "tanggal_terbit": "2022-07-19",
            "url_tdpse_detail": "https://pse.komdigi.go.id/tdpse-detail/7186",
            "website": "jago.com"
        },
        {
            "id": "9cb1abb7-3513-4dbd-8685-afe6b9447346",
            "nama_pse": "BANK PEMBANGUNAN DAERAH RIAU KEPRI SYARIAH PERSERODA",
            "nama_se": "BRK MOBILE",
            "sektor": "Sektor Keuangan",
            "tanggal_terbit": "2022-07-19",
            "url_tdpse_detail": "https://pse.komdigi.go.id/tdpse-detail/7182",
            "website": "-"
        },
        {
            "id": "9cb1abc2-739f-4f07-98c1-8f6bda0924b1",
            "nama_pse": "BANK PEREKONOMIAN RAKYAT KARYAJATNIKA SADAYA",
            "nama_se": "CUSTOMER ON BOARD BPRKS",
            "sektor": "Sektor Keuangan",
            "tanggal_terbit": "2022-07-19",
            "url_tdpse_detail": "https://pse.komdigi.go.id/tdpse-detail/7187",
            "website": "cob.bprks.co.id"
        },
        {
            "id": "9cb1abc2-7631-4966-86b6-26c3fc92f6dd",
            "nama_pse": "STEFANUS HARTONO KURNIAWAN",
            "nama_se": "DARRA RELOAD",
            "sektor": "Sektor Perdagangan",
            "tanggal_terbit": "2022-07-19",
            "url_tdpse_detail": "https://pse.komdigi.go.id/tdpse-detail/7183",
            "website": "Darrareload.com"
        }
    ],
    "processingTimeMs": 4,
    "query": "",
    "totalHits": 19131,
    "hitsPerPage": 50,
    "page": 264,
    "totalPages": 383
}