{
    "hits": [
        {
            "id": "9cb1ab8c-8066-47d5-9e22-7035ddb0c0e5",
            "nama_pse": "ABINITIO INOVASI TEKNOLOGI",
            "nama_se": "INITIO",
            "sektor": "Sektor Teknologi Informasi dan Komunikasi, Sektor Teknologi Informasi dan Komunikasi",
            "tanggal_terbit": "2021-03-04",
            "url_tdpse_detail": "https://pse.komdigi.go.id/tdpse-detail/277",
            "website": "initio.id"
        },
        {
            "id": "9cb1ab7d-5be0-4a78-b9ae-ca47f8a5efd9",
            "nama_pse": "VIDIO DOT COM",
            "nama_se": "VIDIO",
            "sektor": "Sektor Teknologi Informasi dan Komunikasi, Sektor Teknologi Informasi dan Komunikasi",
            "tanggal_terbit": "2021-03-04",
            "url_tdpse_detail": "https://pse.komdigi.go.id/tdpse-detail/307",
            "website": "vidio.com"
        },
        {
            "id": "9cb1ab8c-f8d4-40cd-abe5-45ecec053321",
            "nama_pse": "ONINDONESIA SISTEM TEKNOLOGI",
            "nama_se": "ON INDONESIA",
            "sektor": "Sektor Perdagangan, Sektor Perdagangan, Sektor Teknologi Informasi dan Komunikasi, Sektor Teknologi Informasi dan Komunikasi",
            "tanggal_terbit": "2021-03-04",
            "url_tdpse_detail": "https://pse.komdigi.go.id/tdpse-detail/297",
            "website": "onindonesia.id"
        },
        {
            "id": "9cb1ab85-8365-4402-8a83-9b0c6087d6be",
            "nama_pse": "FLIPTECH LENTERA INSPIRASI PERTIWI",
            "nama_se": "FLIP",
            "sektor": "Sektor Keuangan, Sektor Keuangan",
            "tanggal_terbit": "2021-03-04",
            "url_tdpse_detail": "https://pse.komdigi.go.id/tdpse-detail/283",
            "website": "flip.id , bigflip.id"
        },
        {
            "id": "9cb1ab7d-74ac-4cbb-9cb1-bb4a5c0f9027",
            "nama_pse": "PROLINE FINANCE INDONESIA",
            "nama_se": "PROLINE FINANCE",
            "sektor": "Sektor Keuangan, Sektor Keuangan",
            "tanggal_terbit": "2021-03-04",
            "url_tdpse_detail": "https://pse.komdigi.go.id/tdpse-detail/276",
            "website": "prolinefinance.co.id"
        },
        {
            "id": "9cb1ab7d-7872-4ae0-a756-6d075be92a78",
            "nama_pse": "ASURANSI JIWA GENERALI INDONESIA",
            "nama_se": "SAHABAT BERBAGI",
            "sektor": "Sektor Perdagangan, Sektor Perdagangan, Sektor Keuangan, Sektor Keuangan",
            "tanggal_terbit": "2021-03-04",
            "url_tdpse_detail": "https://pse.komdigi.go.id/tdpse-detail/278",
            "website": "-"
        },
        {
            "id": "9cb1ab8d-1110-4576-a771-6e540d8d4da0",
            "nama_pse": "SURYA CAKRA ANUGERAH NUSANTARA",
            "nama_se": "SCANINA",
            "sektor": "Sektor Perdagangan, Sektor Perdagangan",
            "tanggal_terbit": "2021-03-04",
            "url_tdpse_detail": "https://pse.komdigi.go.id/tdpse-detail/322",
            "website": "scanina.com"
        },
        {
            "id": "9cb1ab7d-b296-446f-8178-820f11c032b8",
            "nama_pse": "NONO STYLE INDONESIA",
            "nama_se": "NONO_STYLE",
            "sektor": "Sektor Perdagangan",
            "tanggal_terbit": "2021-03-04",
            "url_tdpse_detail": "https://pse.komdigi.go.id/tdpse-detail/311",
            "website": "nonostyle.id"
        },
        {
            "id": "9cb1ab8d-5111-4e4e-b7fc-0306b42557b1",
            "nama_pse": "VASCOMM SOLUSI TEKNOLOGI",
            "nama_se": "UNICOOP",
            "sektor": "Sektor Teknologi Informasi dan Komunikasi, Sektor Teknologi Informasi dan Komunikasi",
            "tanggal_terbit": "2021-03-04",
            "url_tdpse_detail": "https://pse.komdigi.go.id/tdpse-detail/317",
            "website": "unicoop.id"
        },
        {
            "id": "9cb1ab7d-bfb6-4c17-9986-3a7decf3822c",
            "nama_pse": "NETUP TEKNOLOGI INDONESIA",
            "nama_se": "HTTPS://WWW.NET-UP.ID",
            "sektor": "Sektor Perdagangan, Sektor Perdagangan",
            "tanggal_terbit": "2021-03-04",
            "url_tdpse_detail": "https://pse.komdigi.go.id/tdpse-detail/300",
            "website": "net-up.id"
        },
        {
            "id": "9cb1ab8d-739b-461c-95b6-615f3de62c88",
            "nama_pse": "BANK CIMB NIAGA",
            "nama_se": "WEBSITE BRANCHLESS BANKING",
            "sektor": "Sektor Keuangan, Sektor Keuangan, Sektor Keuangan, Sektor Keuangan, Sektor Keuangan",
            "tanggal_terbit": "2021-03-04",
            "url_tdpse_detail": "https://pse.komdigi.go.id/tdpse-detail/280",
            "website": "branchlessbanking.cimbniaga.co.id/"
        },
        {
            "id": "9cb1ab7d-db2a-4f25-af33-43deb58af6e1",
            "nama_pse": "ASURANSI ETIQA INTERNASIONAL INDONESIA",
            "nama_se": "DIRECT SALES PORTAL (DSP)",
            "sektor": "Sektor Keuangan, Sektor Keuangan",
            "tanggal_terbit": "2021-03-04",
            "url_tdpse_detail": "https://pse.komdigi.go.id/tdpse-detail/318",
            "website": "etiqa.co.id"
        },
        {
            "id": "9cb1ab86-0331-4c89-92b4-f55f39f46f9b",
            "nama_pse": "ADMINISTRASI MEDIKA",
            "nama_se": "ADMEDIKA CLAIM PROCESSING SYSTEM",
            "sektor": "Sektor Teknologi Informasi dan Komunikasi, Sektor Teknologi Informasi dan Komunikasi",
            "tanggal_terbit": "2021-03-04",
            "url_tdpse_detail": "https://pse.komdigi.go.id/tdpse-detail/305",
            "website": "webclaim.admedika.co.id"
        },
        {
            "id": "9cb1abaa-d800-44f1-8a2f-4ba36ba2e035",
            "nama_pse": "MITRA ADIPERKASA",
            "nama_se": "MAPGIFTVOUCHER.COM",
            "sektor": "Sektor Perdagangan, Sektor Perdagangan",
            "tanggal_terbit": "2021-03-04",
            "url_tdpse_detail": "https://pse.komdigi.go.id/tdpse-detail/324",
            "website": "mapgiftvoucher.com"
        },
        {
            "id": "9cb1ab64-6807-4b91-a51e-3fd9ca529276",
            "nama_pse": "GRIVY DOTCOM",
            "nama_se": "GRIVY",
            "sektor": "Sektor Teknologi Informasi dan Komunikasi, Sektor Teknologi Informasi dan Komunikasi",
            "tanggal_terbit": "2021-02-26",
            "url_tdpse_detail": "https://pse.komdigi.go.id/tdpse-detail/266",
            "website": "business.grivy.com"
        },
        {
            "id": "9cb1ab64-6a5a-4142-a3b0-34175d75e430",
            "nama_pse": "KARYA BANGUN INFORMASI",
            "nama_se": "KARYA BANGUN INFORMASI",
            "sektor": "Sektor Perdagangan, Sektor Perdagangan, Sektor Teknologi Informasi dan Komunikasi, Sektor Teknologi Informasi dan Komunikasi",
            "tanggal_terbit": "2021-02-26",
            "url_tdpse_detail": "https://pse.komdigi.go.id/tdpse-detail/268",
            "website": "https://karyabangun.co.id/, https://karyabangun.co.id/e-shop/"
        },
        {
            "id": "9cb1ab65-f89d-4023-8db4-a6267b6a5d66",
            "nama_pse": "DESIGN JAYA INDONESIA",
            "nama_se": "KIOSBANK",
            "sektor": "Sektor Teknologi Informasi dan Komunikasi, Sektor Teknologi Informasi dan Komunikasi",
            "tanggal_terbit": "2021-02-26",
            "url_tdpse_detail": "https://pse.komdigi.go.id/tdpse-detail/267",
            "website": "kiosbank.id"
        },
        {
            "id": "9cb1ab64-794d-4f46-9e96-004987cba434",
            "nama_pse": "PGMALL ECOMMERCE INDONESIA",
            "nama_se": "PGMALL ECOMMERCE INDONESIA",
            "sektor": "Sektor Perdagangan, Sektor Perdagangan, Sektor Teknologi Informasi dan Komunikasi, Sektor Teknologi Informasi dan Komunikasi",
            "tanggal_terbit": "2021-02-26",
            "url_tdpse_detail": "https://pse.komdigi.go.id/tdpse-detail/271",
            "website": "pgmall.co.id"
        },
        {
            "id": "9cb1ab61-9f15-4961-9f08-db83f21893ef",
            "nama_pse": "PGMALL ECOMMERCE INDONESIA",
            "nama_se": "PGMALL ECOMMERCE INDONESIA",
            "sektor": "Sektor Perdagangan, Sektor Perdagangan, Sektor Teknologi Informasi dan Komunikasi, Sektor Teknologi Informasi dan Komunikasi",
            "tanggal_terbit": "2021-02-26",
            "url_tdpse_detail": "https://pse.komdigi.go.id/tdpse-detail/272",
            "website": "pgmall.co.id/"
        },
        {
            "id": "9cb1ab7b-8527-4d2e-82a5-b464940199a0",
            "nama_pse": "SHAFIQ DIGITAL INDONESIA",
            "nama_se": "SHAFIQ",
            "sektor": "Sektor Keuangan, Sektor Keuangan",
            "tanggal_terbit": "2021-02-26",
            "url_tdpse_detail": "https://pse.komdigi.go.id/tdpse-detail/269",
            "website": "shafiq.id"
        },
        {
            "id": "9cb1ab84-5ca2-4a53-b0a7-86520a03449b",
            "nama_pse": "HARSYA REMITINDO",
            "nama_se": "IKI REMITTANCE",
            "sektor": "Sektor Keuangan, Sektor Keuangan",
            "tanggal_terbit": "2021-02-26",
            "url_tdpse_detail": "https://pse.komdigi.go.id/tdpse-detail/273",
            "website": "harsya.com"
        },
        {
            "id": "9cb1ab84-5fd4-4653-b84d-eea1978be729",
            "nama_pse": "HARSYA REMITINDO",
            "nama_se": "IKI AKU",
            "sektor": "Sektor Keuangan, Sektor Keuangan",
            "tanggal_terbit": "2021-02-26",
            "url_tdpse_detail": "https://pse.komdigi.go.id/tdpse-detail/274",
            "website": "harsya.com"
        },
        {
            "id": "9cb1ab84-62f5-45aa-ad20-ef45a5c80121",
            "nama_pse": "HARSYA REMITINDO",
            "nama_se": "IKI TOKO",
            "sektor": "Sektor Keuangan, Sektor Keuangan",
            "tanggal_terbit": "2021-02-26",
            "url_tdpse_detail": "https://pse.komdigi.go.id/tdpse-detail/275",
            "website": "harsya.com"
        },
        {
            "id": "9cb1ab8c-d427-4b25-82ac-2fee40eef61f",
            "nama_pse": "ASIANET MEDIA TEKNOLOGI",
            "nama_se": "SITUS WEB PT ASIANET MEDIA TEKNOLOGI",
            "sektor": "Sektor Perdagangan, Sektor Perdagangan",
            "tanggal_terbit": "2021-02-26",
            "url_tdpse_detail": "https://pse.komdigi.go.id/tdpse-detail/265",
            "website": "asianet.co.id"
        },
        {
            "id": "9cb1ab85-94b5-4f98-85bb-a972b2d116ca",
            "nama_pse": "EMPAT KALI INDONESIA",
            "nama_se": "EMPAT KALI INDONESIA",
            "sektor": "Sektor Teknologi Informasi dan Komunikasi, Sektor Teknologi Informasi dan Komunikasi",
            "tanggal_terbit": "2021-02-26",
            "url_tdpse_detail": "https://pse.komdigi.go.id/tdpse-detail/264",
            "website": "empatkali.co.id"
        },
        {
            "id": "9cb1ab7d-a719-4107-bec3-05344963df9f",
            "nama_pse": "DEKORUMA INOVASI LESTARI",
            "nama_se": "DEKORUMA",
            "sektor": "Sektor Perdagangan, Sektor Perdagangan",
            "tanggal_terbit": "2021-02-26",
            "url_tdpse_detail": "https://pse.komdigi.go.id/tdpse-detail/263",
            "website": "dekoruma.com"
        },
        {
            "id": "9cb1ab8d-7054-4f23-a658-b7631d6956d2",
            "nama_pse": "BANK CIMB NIAGA",
            "nama_se": "OCTO CLICKS",
            "sektor": "Sektor Keuangan, Sektor Keuangan, Sektor Keuangan, Sektor Keuangan, Sektor Keuangan",
            "tanggal_terbit": "2021-02-26",
            "url_tdpse_detail": "https://pse.komdigi.go.id/tdpse-detail/260",
            "website": "octoclicks.co.id"
        },
        {
            "id": "9cb1ab85-d61d-4907-8b49-1fc5e91528e6",
            "nama_pse": "BANK CIMB NIAGA",
            "nama_se": "OCTO MOBILE",
            "sektor": "Sektor Keuangan, Sektor Keuangan, Sektor Keuangan, Sektor Keuangan, Sektor Keuangan",
            "tanggal_terbit": "2021-02-26",
            "url_tdpse_detail": "https://pse.komdigi.go.id/tdpse-detail/261",
            "website": "-"
        },
        {
            "id": "9cb1ab8d-82dd-4e46-beaa-355fc445b3d5",
            "nama_pse": "SITU PESAN SINI ANTAR",
            "nama_se": "SITUANSAN",
            "sektor": "Sektor Perdagangan, Sektor Perdagangan, Sektor Perdagangan",
            "tanggal_terbit": "2021-02-26",
            "url_tdpse_detail": "https://pse.komdigi.go.id/tdpse-detail/270",
            "website": "Situansan"
        },
        {
            "id": "9cb1ab86-326c-46a9-b725-e75d04336143",
            "nama_pse": "BENEFIT ONLINE TRANSAKSI",
            "nama_se": "APLIKASI DI@BISA",
            "sektor": "Sektor Perdagangan, Sektor Perdagangan, Sektor Transportasi, Sektor Transportasi, Sektor Keuangan, Sektor Keuangan, Sektor Kesehatan, Sektor Kesehatan, Sektor Teknologi Informasi dan Komunikasi, Sektor Teknologi Informasi dan Komunikasi",
            "tanggal_terbit": "2021-02-26",
            "url_tdpse_detail": "https://pse.komdigi.go.id/tdpse-detail/259",
            "website": "pt-bot.com"
        },
        {
            "id": "9cb1ab8b-0f93-4791-b565-1573c331e15c",
            "nama_pse": "AXA FINANCIAL INDONESIA",
            "nama_se": "AFI DNA SALES TOOL",
            "sektor": "Sektor Keuangan, Sektor Keuangan",
            "tanggal_terbit": "2021-02-25",
            "url_tdpse_detail": "https://pse.komdigi.go.id/tdpse-detail/247",
            "website": "axa.co.id/"
        },
        {
            "id": "9cb1ab8b-2185-4fdc-8ce7-7a8c03aae7d8",
            "nama_pse": "CITY VISION",
            "nama_se": "HOTSPOT",
            "sektor": "Sektor Teknologi Informasi dan Komunikasi, Sektor Teknologi Informasi dan Komunikasi, Sektor Teknologi Informasi dan Komunikasi",
            "tanggal_terbit": "2021-02-25",
            "url_tdpse_detail": "https://pse.komdigi.go.id/tdpse-detail/198",
            "website": "cityvision.tech"
        },
        {
            "id": "9cb1ab8b-39ca-423b-a253-5e75f06e8000",
            "nama_pse": "BHINNEKA MENTARIDIMENSI",
            "nama_se": "BLUEWHALE",
            "sektor": "Sektor Teknologi Informasi dan Komunikasi, Sektor Teknologi Informasi dan Komunikasi",
            "tanggal_terbit": "2021-02-25",
            "url_tdpse_detail": "https://pse.komdigi.go.id/tdpse-detail/182",
            "website": "bluewhale.bhinneka.com"
        },
        {
            "id": "9cb1ab7b-b4b8-46b7-9eca-ccb9f7fdda33",
            "nama_pse": "BHINNEKA MENTARIDIMENSI",
            "nama_se": "BHINNEKA.COM",
            "sektor": "Sektor Perdagangan, Sektor Perdagangan",
            "tanggal_terbit": "2021-02-25",
            "url_tdpse_detail": "https://pse.komdigi.go.id/tdpse-detail/183",
            "website": "Bhinneka.com"
        },
        {
            "id": "9cb1ab83-70c1-45dd-b456-0797336b2c97",
            "nama_pse": "MNC ASURANSI INDONESIA",
            "nama_se": "MNCI-NET",
            "sektor": "Sektor Keuangan, Sektor Keuangan",
            "tanggal_terbit": "2021-02-25",
            "url_tdpse_detail": "https://pse.komdigi.go.id/tdpse-detail/180",
            "website": "mnci-net.id/epolicy/"
        },
        {
            "id": "9cb1ab8b-3fb9-467b-84f4-49e1bab4a19b",
            "nama_pse": "MNC ASURANSI INDONESIA",
            "nama_se": "MNCI MOBILE APPLICATION",
            "sektor": "Sektor Keuangan, Sektor Keuangan",
            "tanggal_terbit": "2021-02-25",
            "url_tdpse_detail": "https://pse.komdigi.go.id/tdpse-detail/181",
            "website": "-"
        },
        {
            "id": "9cb1ab8b-49ec-44de-8960-24020113e45d",
            "nama_pse": "ALDMIC COOPN DIGITAL",
            "nama_se": "ALDMIC.COM",
            "sektor": "Sektor Perdagangan, Sektor Perdagangan",
            "tanggal_terbit": "2021-02-25",
            "url_tdpse_detail": "https://pse.komdigi.go.id/tdpse-detail/193",
            "website": "aldmic.com"
        },
        {
            "id": "9cb1ab8b-cff1-4c42-88d0-dcfb7b24f771",
            "nama_pse": "BIMA REGISTRA",
            "nama_se": "ERUPS",
            "sektor": "Sektor Keuangan, Sektor Keuangan",
            "tanggal_terbit": "2021-02-25",
            "url_tdpse_detail": "https://pse.komdigi.go.id/tdpse-detail/206",
            "website": "rups.bimaregistra.co.id"
        },
        {
            "id": "9cb1ab83-f5a8-47c4-abd0-72ddc2d49e49",
            "nama_pse": "PRUDENTIAL LIFE ASSURANCE",
            "nama_se": "PRUPAY LINK",
            "sektor": "Sektor Keuangan, Sektor Keuangan",
            "tanggal_terbit": "2021-02-25",
            "url_tdpse_detail": "https://pse.komdigi.go.id/tdpse-detail/188",
            "website": "payment.prudential.co.id"
        },
        {
            "id": "9cb1ab7c-1df6-420a-96a1-107dda98525b",
            "nama_pse": "PRUDENTIAL LIFE ASSURANCE",
            "nama_se": "PRUWORKS",
            "sektor": "Sektor Keuangan, Sektor Keuangan",
            "tanggal_terbit": "2021-02-25",
            "url_tdpse_detail": "https://pse.komdigi.go.id/tdpse-detail/192",
            "website": "pruworks.prudential.co.id"
        },
        {
            "id": "9cb1ab8b-dc34-4969-a489-000c070f59ba",
            "nama_pse": "PRUDENTIAL LIFE ASSURANCE",
            "nama_se": "PRU MEDICAL NETWORK PORTAL",
            "sektor": "Sektor Keuangan, Sektor Keuangan",
            "tanggal_terbit": "2021-02-25",
            "url_tdpse_detail": "https://pse.komdigi.go.id/tdpse-detail/215",
            "website": "prumedical.prudential.co.id"
        },
        {
            "id": "9cb1ab83-fcc5-417d-ba28-aca8b8b8bee9",
            "nama_pse": "PRUDENTIAL LIFE ASSURANCE",
            "nama_se": "PRUACCESS",
            "sektor": "Sektor Keuangan, Sektor Keuangan",
            "tanggal_terbit": "2021-02-25",
            "url_tdpse_detail": "https://pse.komdigi.go.id/tdpse-detail/217",
            "website": "pruaccess.prudential.co.id"
        },
        {
            "id": "9cb1ab7c-2529-44cc-82c1-6fc7492b36e4",
            "nama_pse": "PRUDENTIAL LIFE ASSURANCE",
            "nama_se": "PRUFORCE",
            "sektor": "Sektor Keuangan, Sektor Keuangan",
            "tanggal_terbit": "2021-02-25",
            "url_tdpse_detail": "https://pse.komdigi.go.id/tdpse-detail/218",
            "website": "-"
        },
        {
            "id": "9cb1ab83-ff85-418b-bfdc-c4ec260067f2",
            "nama_pse": "PRUDENTIAL LIFE ASSURANCE",
            "nama_se": "PRUFAST",
            "sektor": "Sektor Keuangan, Sektor Keuangan",
            "tanggal_terbit": "2021-02-25",
            "url_tdpse_detail": "https://pse.komdigi.go.id/tdpse-detail/220",
            "website": "-"
        },
        {
            "id": "9cb1ab8b-de34-43be-901f-ac3c2e252be0",
            "nama_pse": "PRUDENTIAL LIFE ASSURANCE",
            "nama_se": "PRUDENTIAL CORPORATE WEBSITE",
            "sektor": "Sektor Keuangan, Sektor Keuangan",
            "tanggal_terbit": "2021-02-25",
            "url_tdpse_detail": "https://pse.komdigi.go.id/tdpse-detail/221",
            "website": "prudential.co.id"
        },
        {
            "id": "9cb1ab7c-3bee-490a-9452-d23f0b3d472f",
            "nama_pse": "GENERASI NUSA KREATIF",
            "nama_se": "BANTU LEGAL INDONESIA",
            "sektor": "Sektor Teknologi Informasi dan Komunikasi, Sektor Teknologi Informasi dan Komunikasi",
            "tanggal_terbit": "2021-02-25",
            "url_tdpse_detail": "https://pse.komdigi.go.id/tdpse-detail/245",
            "website": "bantulegal.id"
        },
        {
            "id": "9cb1ab84-01b4-4c2b-b988-138629b5a8c0",
            "nama_pse": "MNC OTT NETWORK",
            "nama_se": "VISION+",
            "sektor": "Sektor Teknologi Informasi dan Komunikasi, Sektor Teknologi Informasi dan Komunikasi, Sektor Teknologi Informasi dan Komunikasi",
            "tanggal_terbit": "2021-02-25",
            "url_tdpse_detail": "https://pse.komdigi.go.id/tdpse-detail/249",
            "website": "visionplus.id"
        },
        {
            "id": "9cb1ab7c-772a-4b1b-99af-884eab5132bb",
            "nama_pse": "LEGAL BERKAT DIGITALINDO",
            "nama_se": "KIOSHUKUM",
            "sektor": "Sektor Perdagangan, Sektor Perdagangan, Sektor Teknologi Informasi dan Komunikasi, Sektor Teknologi Informasi dan Komunikasi",
            "tanggal_terbit": "2021-02-25",
            "url_tdpse_detail": "https://pse.komdigi.go.id/tdpse-detail/219",
            "website": "kioshukum.id"
        },
        {
            "id": "9cb1ab7c-ba1b-4368-b373-35f9c776184c",
            "nama_pse": "BIRUNI DIGITAL KREATIF",
            "nama_se": "BIRUCREATIVE.COM",
            "sektor": "Sektor Perdagangan, Sektor Perdagangan",
            "tanggal_terbit": "2021-02-25",
            "url_tdpse_detail": "https://pse.komdigi.go.id/tdpse-detail/191",
            "website": "birucreative.com"
        },
        {
            "id": "9cb1ab8c-6990-4e51-abc1-cdcb8b3a11de",
            "nama_pse": "STRIPE PAYMENTS INDONESIA",
            "nama_se": "STRIPE PAYMENTS INDONESIA",
            "sektor": "Sektor Teknologi Informasi dan Komunikasi, Sektor Teknologi Informasi dan Komunikasi",
            "tanggal_terbit": "2021-02-25",
            "url_tdpse_detail": "https://pse.komdigi.go.id/tdpse-detail/194",
            "website": "stripeindonesia.id"
        }
    ],
    "processingTimeMs": 13,
    "query": "",
    "totalHits": 19121,
    "hitsPerPage": 50,
    "page": 378,
    "totalPages": 383
}