{
    "hits": [
        {
            "id": "9e2c278d-dc77-4ea4-9446-3b3a5fc00ef5",
            "nama_pse": "MOJOK SERIKAT AKSARA UTAMA",
            "nama_se": "MOJOK SERIKAT AKSARA UTAMA",
            "sektor": "Sektor Perdagangan",
            "tanggal_terbit": "2025-02-10",
            "url_tdpse_detail": "https://pse.komdigi.go.id/tdpse-detail/22334",
            "website": "mojokstore.com"
        },
        {
            "id": "9e2c34e8-b321-4a14-b8cc-afda25e0ef23",
            "nama_pse": "SOLI MAKMUR PRADA",
            "nama_se": "SOLI MAKMUR PRADA",
            "sektor": "Sektor Perdagangan",
            "tanggal_terbit": "2025-02-10",
            "url_tdpse_detail": "https://pse.komdigi.go.id/tdpse-detail/22335",
            "website": "makmur-prada.fazlink.com"
        },
        {
            "id": "9e2ce546-2c52-424e-8ff6-b4de73953c23",
            "nama_pse": "TEKNOLOGI PERDAGANGAN INDONESIA",
            "nama_se": "LOGISIA",
            "sektor": "Sektor Perdagangan, Sektor Teknologi Informasi dan Komunikasi",
            "tanggal_terbit": "2025-02-10",
            "url_tdpse_detail": "https://pse.komdigi.go.id/tdpse-detail/22336",
            "website": "logisia.my.id"
        },
        {
            "id": "9e2ce584-777d-4b4d-8fa5-c8b7e738cda9",
            "nama_pse": "INTICORE SOLUSI BERSAMA",
            "nama_se": "INTICORE",
            "sektor": "Sektor Perdagangan, Sektor Teknologi Informasi dan Komunikasi",
            "tanggal_terbit": "2025-02-10",
            "url_tdpse_detail": "https://pse.komdigi.go.id/tdpse-detail/22337",
            "website": "inticore.my.id"
        },
        {
            "id": "9e2d44e9-0cd3-49b2-bc75-451a1b6e6ed2",
            "nama_pse": "HICLOUD TECHNOLOGY INDONESIA",
            "nama_se": "HI CLOUD",
            "sektor": "Sektor Perdagangan, Sektor Teknologi Informasi dan Komunikasi",
            "tanggal_terbit": "2025-02-10",
            "url_tdpse_detail": "https://pse.komdigi.go.id/tdpse-detail/22340",
            "website": "hicloud.co.id"
        },
        {
            "id": "9e2d479c-d108-424b-b806-a958f4906c2d",
            "nama_pse": "KEX NEX EXPRESS",
            "nama_se": "SF EXPRESS INDONESIA",
            "sektor": "Sektor Transportasi",
            "tanggal_terbit": "2025-02-10",
            "url_tdpse_detail": "https://pse.komdigi.go.id/tdpse-detail/22341",
            "website": "id.kex-express.com"
        },
        {
            "id": "9e2d53ef-12e8-4b23-8758-e8d118286eaf",
            "nama_pse": "BINA CIPTA NUSARAYA",
            "nama_se": "SOKRATES APPS",
            "sektor": "Sektor Teknologi Informasi dan Komunikasi",
            "tanggal_terbit": "2025-02-10",
            "url_tdpse_detail": "https://pse.komdigi.go.id/tdpse-detail/22342",
            "website": "sokrates.id"
        },
        {
            "id": "9e2d5890-0209-4b2e-91a5-deb3c83b3983",
            "nama_pse": "JOHAR BARU HUSADA",
            "nama_se": "KLINIK JOHAR BARU",
            "sektor": "Sektor Kesehatan",
            "tanggal_terbit": "2025-02-10",
            "url_tdpse_detail": "https://pse.komdigi.go.id/tdpse-detail/22343",
            "website": "-"
        },
        {
            "id": "9e2d58a0-464e-4258-8717-4005c8c0db3b",
            "nama_pse": "DANISWARA AMANAH CIPTA",
            "nama_se": "https://www.i-dacindonesia.com/",
            "sektor": "Sektor Perdagangan, Sektor Teknologi Informasi dan Komunikasi",
            "tanggal_terbit": "2025-02-10",
            "url_tdpse_detail": "https://pse.komdigi.go.id/tdpse-detail/22344",
            "website": "i-dacindonesia.com"
        },
        {
            "id": "9e2d6340-cfc0-4069-ac0f-3fd32f526bd6",
            "nama_pse": "FLOBAMOR DIGITAL PRATAMA",
            "nama_se": "FLOBAMOR DIGITAL PRATAMA",
            "sektor": "Sektor Teknologi Informasi dan Komunikasi",
            "tanggal_terbit": "2025-02-10",
            "url_tdpse_detail": "https://pse.komdigi.go.id/tdpse-detail/22345",
            "website": "flobamora.id"
        },
        {
            "id": "9e2d6ac1-e364-4f9d-b66a-870b1955dff9",
            "nama_pse": "SINERGI IMPACT INDONESIA",
            "nama_se": "WEBSITE",
            "sektor": "Sektor Teknologi Informasi dan Komunikasi",
            "tanggal_terbit": "2025-02-10",
            "url_tdpse_detail": "https://pse.komdigi.go.id/tdpse-detail/22346",
            "website": "impacthink.com"
        },
        {
            "id": "9e2db19c-be9d-4a8a-b5e4-317a4f53ab7f",
            "nama_pse": "DIANA CHRISTY MULJANA",
            "nama_se": "PLAYTICA",
            "sektor": "Sektor Perdagangan, Sektor Teknologi Informasi dan Komunikasi",
            "tanggal_terbit": "2025-02-10",
            "url_tdpse_detail": "https://pse.komdigi.go.id/tdpse-detail/22347",
            "website": "-"
        },
        {
            "id": "9e2dd826-c6fc-468c-b43e-ec3ff5780ba9",
            "nama_pse": "MINERA MINSUR GLOBAL",
            "nama_se": "MINERA MINSUR DIGITAL",
            "sektor": "Sektor Teknologi Informasi dan Komunikasi",
            "tanggal_terbit": "2025-02-10",
            "url_tdpse_detail": "https://pse.komdigi.go.id/tdpse-detail/22348",
            "website": "-"
        },
        {
            "id": "9e2e086f-6eb5-493f-b8da-2da1be21d6b0",
            "nama_pse": "METRO KHATULISTIWA INDONESIA",
            "nama_se": "PERTIWINEWSDOTCOM",
            "sektor": "Sektor Teknologi Informasi dan Komunikasi",
            "tanggal_terbit": "2025-02-10",
            "url_tdpse_detail": "https://pse.komdigi.go.id/tdpse-detail/22349",
            "website": "pertiwinews.com"
        },
        {
            "id": "9e2a4520-cfbb-433c-b7f0-0bda83cf2dc3",
            "nama_pse": "REZA DWI PURNAMA",
            "nama_se": "DAGON HOSTER",
            "sektor": "Sektor Teknologi Informasi dan Komunikasi, Sektor Pertahanan dan Keamanan",
            "tanggal_terbit": "2025-02-09",
            "url_tdpse_detail": "https://pse.komdigi.go.id/tdpse-detail/22330",
            "website": "d9n.top"
        },
        {
            "id": "9e2a581a-8d3d-4585-b600-36cadc033c88",
            "nama_pse": "Z4COMP",
            "nama_se": "ERZAP SISTEM ERP TERINTEGRASI",
            "sektor": "Sektor Teknologi Informasi dan Komunikasi",
            "tanggal_terbit": "2025-02-09",
            "url_tdpse_detail": "https://pse.komdigi.go.id/tdpse-detail/22331",
            "website": "erzap.id"
        },
        {
            "id": "9e2bedc2-6ff8-4f0b-8edd-c85adaaea4ef",
            "nama_pse": "WAHYU PRATAMA RAHAYU",
            "nama_se": "PT WAHYU PRATAMA RAHAYU",
            "sektor": "Sektor Perdagangan",
            "tanggal_terbit": "2025-02-09",
            "url_tdpse_detail": "https://pse.komdigi.go.id/tdpse-detail/22332",
            "website": "moonblacktravel.com"
        },
        {
            "id": "9e2c021a-4242-4aec-bfc3-9fa7a562c569",
            "nama_pse": "MUHAMMAD RIZAL",
            "nama_se": "OBAT KELUARGA",
            "sektor": "Sektor Kesehatan",
            "tanggal_terbit": "2025-02-09",
            "url_tdpse_detail": "https://pse.komdigi.go.id/tdpse-detail/22333",
            "website": "-"
        },
        {
            "id": "9e283569-ba0a-4e01-a4cf-65f0ea4bd806",
            "nama_pse": "DEDI MULYADI",
            "nama_se": "SERUYAN TRANS AGROLINK",
            "sektor": "Sektor Perdagangan, Sektor Teknologi Informasi dan Komunikasi, Sektor Pangan",
            "tanggal_terbit": "2025-02-08",
            "url_tdpse_detail": "https://pse.komdigi.go.id/tdpse-detail/22323",
            "website": "seruyantransagrolink.durablesites.com"
        },
        {
            "id": "9e28da97-493e-464a-85ae-9000047d78f3",
            "nama_pse": "OOK ASIA AGENSI",
            "nama_se": "ptookagensi.com",
            "sektor": "Sektor Teknologi Informasi dan Komunikasi",
            "tanggal_terbit": "2025-02-08",
            "url_tdpse_detail": "https://pse.komdigi.go.id/tdpse-detail/22324",
            "website": "ptookagensi.com"
        },
        {
            "id": "9e298f42-1d4b-442d-852d-9244fcf876b1",
            "nama_pse": "KREASI ASA INDONESIA",
            "nama_se": "KREASIAI",
            "sektor": "Sektor Teknologi Informasi dan Komunikasi",
            "tanggal_terbit": "2025-02-08",
            "url_tdpse_detail": "https://pse.komdigi.go.id/tdpse-detail/22325",
            "website": "kreasiai.com"
        },
        {
            "id": "9e29e5be-bf6a-452c-8e63-b6f5c757bc21",
            "nama_pse": "AFIF FADHILAH IFTIAR",
            "nama_se": "SISTEM PENGINPUTAN DATA E-RDKK BERBASIS VBA EXCEL UNTUK PENGAJUAN PUPUK BERSUBSIDI (SIDARKA)",
            "sektor": "Sektor Teknologi Informasi dan Komunikasi",
            "tanggal_terbit": "2025-02-08",
            "url_tdpse_detail": "https://pse.komdigi.go.id/tdpse-detail/22326",
            "website": "-"
        },
        {
            "id": "9e29ebbf-25f2-48a4-bafe-683aa27f28a7",
            "nama_pse": "APOTEK KURNIA SENTOSA",
            "nama_se": "APOTEK KURNIA SENTOSA",
            "sektor": "Sektor Kesehatan",
            "tanggal_terbit": "2025-02-08",
            "url_tdpse_detail": "https://pse.komdigi.go.id/tdpse-detail/22327",
            "website": "-"
        },
        {
            "id": "9e29f7b3-134e-42b3-ad79-0404a89d7170",
            "nama_pse": "MITRA TEKNO NIAGA",
            "nama_se": "TOKOSAMA",
            "sektor": "Sektor Perdagangan, Sektor Teknologi Informasi dan Komunikasi",
            "tanggal_terbit": "2025-02-08",
            "url_tdpse_detail": "https://pse.komdigi.go.id/tdpse-detail/22328",
            "website": "tokosama.com"
        },
        {
            "id": "9e2a003c-beb0-43b0-ba1d-aff6ada5d23d",
            "nama_pse": "EKA PURNAMASARI",
            "nama_se": "IPAYVEST",
            "sektor": "Sektor Teknologi Informasi dan Komunikasi",
            "tanggal_terbit": "2025-02-08",
            "url_tdpse_detail": "https://pse.komdigi.go.id/tdpse-detail/22329",
            "website": "-"
        },
        {
            "id": "9e26ce20-d04f-4f04-b290-c3037ffa0046",
            "nama_pse": "TIANG AWAN NUSANTARA",
            "nama_se": "MRONA",
            "sektor": "Sektor Kesehatan",
            "tanggal_terbit": "2025-02-07",
            "url_tdpse_detail": "https://pse.komdigi.go.id/tdpse-detail/22314",
            "website": "-"
        },
        {
            "id": "9e26e208-5c5b-4f92-9716-7cd04403105c",
            "nama_pse": "INFRA DIGITAL NUSANTARA",
            "nama_se": "PORDI",
            "sektor": "Sektor Teknologi Informasi dan Komunikasi",
            "tanggal_terbit": "2025-02-07",
            "url_tdpse_detail": "https://pse.komdigi.go.id/tdpse-detail/22315",
            "website": "pordi.infradigital.io"
        },
        {
            "id": "9e270163-d456-49f8-abcb-1fa07dcdd9e9",
            "nama_pse": "ROSITA",
            "nama_se": "ANOMALIPAY",
            "sektor": "Sektor Perdagangan",
            "tanggal_terbit": "2025-02-07",
            "url_tdpse_detail": "https://pse.komdigi.go.id/tdpse-detail/22316",
            "website": "anomalipay.com"
        },
        {
            "id": "9e2730df-9856-4ecd-b3e1-a46ac082a4da",
            "nama_pse": "BTV GROUP INDONESIA",
            "nama_se": "BEYOND THE VINES",
            "sektor": "Sektor Perdagangan",
            "tanggal_terbit": "2025-02-07",
            "url_tdpse_detail": "https://pse.komdigi.go.id/tdpse-detail/22317",
            "website": "beyondthevines.co.id"
        },
        {
            "id": "9e273305-8c20-4af1-87ec-d6d5e4cba25d",
            "nama_pse": "TRI BUDI UTAMA",
            "nama_se": "KLINIK PRATAMA BUDI ASIH MEGA",
            "sektor": "Sektor Kesehatan",
            "tanggal_terbit": "2025-02-07",
            "url_tdpse_detail": "https://pse.komdigi.go.id/tdpse-detail/22318",
            "website": "-"
        },
        {
            "id": "9e275536-cc49-4b1e-a7c2-57c6a472e913",
            "nama_pse": "AMANI GRUP INDONESIA",
            "nama_se": "AMANI",
            "sektor": "Sektor Perdagangan, Sektor Teknologi Informasi dan Komunikasi",
            "tanggal_terbit": "2025-02-07",
            "url_tdpse_detail": "https://pse.komdigi.go.id/tdpse-detail/22319",
            "website": "amani.co.id"
        },
        {
            "id": "9e27734b-cc88-4163-8aeb-1e3ebf79098e",
            "nama_pse": "GAWAI KELAS CERDAS",
            "nama_se": "KLASKOO",
            "sektor": "Sektor Teknologi Informasi dan Komunikasi",
            "tanggal_terbit": "2025-02-07",
            "url_tdpse_detail": "https://pse.komdigi.go.id/tdpse-detail/22320",
            "website": "klaskoo.com"
        },
        {
            "id": "9e278948-63de-4af0-930b-acbdf259c3d4",
            "nama_pse": "MADYAPADA ARTHA PRATAMA",
            "nama_se": "SAKU",
            "sektor": "Sektor Perdagangan",
            "tanggal_terbit": "2025-02-07",
            "url_tdpse_detail": "https://pse.komdigi.go.id/tdpse-detail/22321",
            "website": "-"
        },
        {
            "id": "9e27ff58-0ca9-4485-92de-98cbb64bd748",
            "nama_pse": "NASRUL KURNIAWAN",
            "nama_se": "TURBOAI",
            "sektor": "Sektor Teknologi Informasi dan Komunikasi",
            "tanggal_terbit": "2025-02-07",
            "url_tdpse_detail": "https://pse.komdigi.go.id/tdpse-detail/22322",
            "website": "turboai.id"
        },
        {
            "id": "9e24f016-2ff3-492f-8ea3-9c28b2c5e6fb",
            "nama_pse": "NINO AMBARA INDRAWAN",
            "nama_se": "TICKETIN",
            "sektor": "Sektor Teknologi Informasi dan Komunikasi",
            "tanggal_terbit": "2025-02-06",
            "url_tdpse_detail": "https://pse.komdigi.go.id/tdpse-detail/22299",
            "website": "-"
        },
        {
            "id": "9e2503d5-58d8-4b7d-ba69-3434b367f5fe",
            "nama_pse": "BINTANG ALLENIA MEDICA",
            "nama_se": "REKAM MEDIS ELEKTRONIK KLINIK NOVI MAHARANI",
            "sektor": "Sektor Kesehatan, Sektor Teknologi Informasi dan Komunikasi",
            "tanggal_terbit": "2025-02-06",
            "url_tdpse_detail": "https://pse.komdigi.go.id/tdpse-detail/22300",
            "website": "kliniknovimaharani.com"
        },
        {
            "id": "9e24cae5-dc96-4ed3-a89b-cca99497806d",
            "nama_pse": "BANK BUMI ARTA",
            "nama_se": "INTERNET BANKING CORPORATE BBA",
            "sektor": "Sektor Keuangan",
            "tanggal_terbit": "2025-02-06",
            "url_tdpse_detail": "https://pse.komdigi.go.id/tdpse-detail/22296",
            "website": "ecorp.bankbba.co.id"
        },
        {
            "id": "9e24ce07-88cc-4c90-abc7-51d25584b607",
            "nama_pse": "CAHAYA AGRO GEMILANG",
            "nama_se": "AGROBISNIS UTSMAN BIN AFFAN",
            "sektor": "Sektor Perdagangan",
            "tanggal_terbit": "2025-02-06",
            "url_tdpse_detail": "https://pse.komdigi.go.id/tdpse-detail/22297",
            "website": "cahayaagrogemilang.my.id"
        },
        {
            "id": "9e256e2c-6ac0-46f9-8c13-c058c0114cdc",
            "nama_pse": "FASHION MARKETPLACE INDONESIA",
            "nama_se": "ZALORA (WEBSITE)",
            "sektor": "Sektor Perdagangan",
            "tanggal_terbit": "2025-02-06",
            "url_tdpse_detail": "https://pse.komdigi.go.id/tdpse-detail/22311",
            "website": "zalora.co.id"
        },
        {
            "id": "9e25aadc-67ed-45fe-b082-4adcea3f7280",
            "nama_pse": "LOAKIN MAKMUR JAYA",
            "nama_se": "LOAK-IN",
            "sektor": "Sektor Perdagangan",
            "tanggal_terbit": "2025-02-06",
            "url_tdpse_detail": "https://pse.komdigi.go.id/tdpse-detail/22312",
            "website": "loak-in.com"
        },
        {
            "id": "9e25f5d1-bce9-4169-83e4-b58ac0fff8aa",
            "nama_pse": "DITEC SOLID NETWORKING",
            "nama_se": "PT DITEC SOLID NETWORKING",
            "sektor": "Sektor Perdagangan, Sektor Teknologi Informasi dan Komunikasi",
            "tanggal_terbit": "2025-02-06",
            "url_tdpse_detail": "https://pse.komdigi.go.id/tdpse-detail/22313",
            "website": "-"
        },
        {
            "id": "9e24eb86-afb1-4632-9c20-23f88e5ff0df",
            "nama_pse": "HUMMA TEKNOLOGI INDONESIA",
            "nama_se": "HUMMATECH",
            "sektor": "Sektor Teknologi Informasi dan Komunikasi",
            "tanggal_terbit": "2025-02-06",
            "url_tdpse_detail": "https://pse.komdigi.go.id/tdpse-detail/22298",
            "website": "hummatech.com"
        },
        {
            "id": "9e2529ec-911a-4691-a2e3-0aafbe4c6dfe",
            "nama_pse": "LENTERA INSPIRASI TEKNOLOGI",
            "nama_se": "LIT",
            "sektor": "Sektor Teknologi Informasi dan Komunikasi",
            "tanggal_terbit": "2025-02-06",
            "url_tdpse_detail": "https://pse.komdigi.go.id/tdpse-detail/22304",
            "website": "lit-techs.com"
        },
        {
            "id": "9e252d38-00ec-45ad-a829-c6db75dab7e4",
            "nama_pse": "JAWA INTI SEJAHTERA",
            "nama_se": "PT. JAWA INTI SEJAHTERA",
            "sektor": "Sektor Teknologi Informasi dan Komunikasi",
            "tanggal_terbit": "2025-02-06",
            "url_tdpse_detail": "https://pse.komdigi.go.id/tdpse-detail/22305",
            "website": "-"
        },
        {
            "id": "9e252d89-c669-4db4-9066-7291ee14d552",
            "nama_pse": "BIO MEDIKA MANDIRI JAYA",
            "nama_se": "KLINIK",
            "sektor": "Sektor Kesehatan",
            "tanggal_terbit": "2025-02-06",
            "url_tdpse_detail": "https://pse.komdigi.go.id/tdpse-detail/22306",
            "website": "klinik.biomedika.co.id"
        },
        {
            "id": "9e25334f-bf30-4f6f-951f-b7711454468f",
            "nama_pse": "DAS MAP INDONESIA",
            "nama_se": "DASMAP.COM",
            "sektor": "Sektor Teknologi Informasi dan Komunikasi",
            "tanggal_terbit": "2025-02-06",
            "url_tdpse_detail": "https://pse.komdigi.go.id/tdpse-detail/22309",
            "website": "dasmap.com"
        },
        {
            "id": "9e253ee2-4684-430c-9fd6-d5cc33082179",
            "nama_pse": "SINTESA JAYA NET",
            "nama_se": "LAYANAN INTERNET LOKAL ( RT RW NET )",
            "sektor": "Sektor Teknologi Informasi dan Komunikasi",
            "tanggal_terbit": "2025-02-06",
            "url_tdpse_detail": "https://pse.komdigi.go.id/tdpse-detail/22310",
            "website": "-"
        },
        {
            "id": "9e25091b-e384-4fc9-a524-efc557d44563",
            "nama_pse": "BAMBANG SUHENDRO",
            "nama_se": "FLAZZGAME",
            "sektor": "Sektor Perdagangan",
            "tanggal_terbit": "2025-02-06",
            "url_tdpse_detail": "https://pse.komdigi.go.id/tdpse-detail/22301",
            "website": "flazzgame.shop"
        },
        {
            "id": "9e2424a5-6b20-4d46-b6e3-95dabfedc6e3",
            "nama_pse": "SLAMET BIN RAKIDIN",
            "nama_se": "SALAAMNET",
            "sektor": "Sektor Teknologi Informasi dan Komunikasi",
            "tanggal_terbit": "2025-02-06",
            "url_tdpse_detail": "https://pse.komdigi.go.id/tdpse-detail/22294",
            "website": "-"
        },
        {
            "id": "9e24a784-b368-4884-803c-bef2333e5347",
            "nama_pse": "BERRY TRADA MULTIPERSADA",
            "nama_se": "BERRYLABS",
            "sektor": "Sektor Teknologi Informasi dan Komunikasi",
            "tanggal_terbit": "2025-02-06",
            "url_tdpse_detail": "https://pse.komdigi.go.id/tdpse-detail/22295",
            "website": "-"
        }
    ],
    "processingTimeMs": 2,
    "query": "",
    "totalHits": 19121,
    "hitsPerPage": 50,
    "page": 8,
    "totalPages": 383
}