{
    "hits": [
        {
            "id": "9cb1abfa-4894-4066-bdac-e304641cc53c",
            "nama_pse": "MEGAXUS INFOTECH",
            "nama_se": "AUDITION AYODANCE PUZZLES",
            "sektor": "Sektor Teknologi Informasi dan Komunikasi",
            "tanggal_terbit": "2022-08-09",
            "url_tdpse_detail": "https://pse.komdigi.go.id/tdpse-detail/10092",
            "website": "duniapp.com"
        },
        {
            "id": "9cb1abfa-4b75-4bf5-b7f5-e3fa937fad64",
            "nama_pse": "MEGAXUS INFOTECH",
            "nama_se": "WARUNG ASN: AJIB, SEDAP, NAGIH",
            "sektor": "Sektor Teknologi Informasi dan Komunikasi",
            "tanggal_terbit": "2022-08-09",
            "url_tdpse_detail": "https://pse.komdigi.go.id/tdpse-detail/10093",
            "website": "duniapp.com"
        },
        {
            "id": "9cb1ac09-3cea-4753-bba7-46374525f05a",
            "nama_pse": "MEGAXUS INFOTECH",
            "nama_se": "WARTEG GELORA - ANTI COVID",
            "sektor": "Sektor Teknologi Informasi dan Komunikasi",
            "tanggal_terbit": "2022-08-09",
            "url_tdpse_detail": "https://pse.komdigi.go.id/tdpse-detail/10094",
            "website": "duniapp.com"
        },
        {
            "id": "9cb1abd3-f53d-4c60-b994-f2a313a8c8c2",
            "nama_pse": "MEGAXUS INFOTECH",
            "nama_se": "AMAZING SWING: MONYET HOROR",
            "sektor": "Sektor Teknologi Informasi dan Komunikasi",
            "tanggal_terbit": "2022-08-09",
            "url_tdpse_detail": "https://pse.komdigi.go.id/tdpse-detail/10095",
            "website": "duniapp.com"
        },
        {
            "id": "9cb1abfa-6bee-4fca-b5d9-44041e959b83",
            "nama_pse": "MEGAXUS INFOTECH",
            "nama_se": "SCREAMING MONSTER: ENDLESS VOICE RUNNER",
            "sektor": "Sektor Teknologi Informasi dan Komunikasi",
            "tanggal_terbit": "2022-08-09",
            "url_tdpse_detail": "https://pse.komdigi.go.id/tdpse-detail/10097",
            "website": "duniapp.com"
        },
        {
            "id": "9cb1abd3-fa18-4b11-b462-6e2300219f71",
            "nama_pse": "MEGAXUS INFOTECH",
            "nama_se": "TOWER FEVER",
            "sektor": "Sektor Teknologi Informasi dan Komunikasi",
            "tanggal_terbit": "2022-08-09",
            "url_tdpse_detail": "https://pse.komdigi.go.id/tdpse-detail/10098",
            "website": "duniapp.com"
        },
        {
            "id": "9cb1abfa-736a-46b5-bba4-4cf90f8aa31d",
            "nama_pse": "MEGAXUS INFOTECH",
            "nama_se": "BAKSO HORROR: COOKING ADVENTURE",
            "sektor": "Sektor Teknologi Informasi dan Komunikasi",
            "tanggal_terbit": "2022-08-09",
            "url_tdpse_detail": "https://pse.komdigi.go.id/tdpse-detail/10096",
            "website": "duniapp.com"
        },
        {
            "id": "9cb1abd3-fd63-4f18-b49c-a370526f09a8",
            "nama_pse": "MEGAXUS INFOTECH",
            "nama_se": "COMBO RUSH - KEEP YOUR COMBO",
            "sektor": "Sektor Teknologi Informasi dan Komunikasi",
            "tanggal_terbit": "2022-08-09",
            "url_tdpse_detail": "https://pse.komdigi.go.id/tdpse-detail/10089",
            "website": "duniapp.com"
        },
        {
            "id": "9cb1abfb-7db3-4aff-be00-dba3e80339e3",
            "nama_pse": "TIGA DAYA DIGITAL INDONESIA",
            "nama_se": "PROHACE BY EKSAD",
            "sektor": "Sektor Teknologi Informasi dan Komunikasi",
            "tanggal_terbit": "2022-08-09",
            "url_tdpse_detail": "https://pse.komdigi.go.id/tdpse-detail/10149",
            "website": "prohace.com"
        },
        {
            "id": "9cb1abfb-8275-4c48-9cbf-a5a2739d63cd",
            "nama_pse": "BURSA SERVIS INDONESIA",
            "nama_se": "BENGKLE",
            "sektor": "Sektor Perdagangan",
            "tanggal_terbit": "2022-08-09",
            "url_tdpse_detail": "https://pse.komdigi.go.id/tdpse-detail/10067",
            "website": "bengkle.com"
        },
        {
            "id": "9cb1abfb-8615-4991-8ccc-51a9baa1b09f",
            "nama_pse": "INFOMEDIA NUSANTARA",
            "nama_se": "PORTAL FINVUE",
            "sektor": "Sektor Teknologi Informasi dan Komunikasi",
            "tanggal_terbit": "2022-08-09",
            "url_tdpse_detail": "https://pse.komdigi.go.id/tdpse-detail/10068",
            "website": "treg.finvue.id"
        },
        {
            "id": "9cb1ac0a-bf25-46a9-9970-d88521ab85a9",
            "nama_pse": "TEKNOLOGI KARYA DIGITAL NUSA",
            "nama_se": "TKDN (TMS)",
            "sektor": "Sektor Transportasi, Sektor Teknologi Informasi dan Komunikasi",
            "tanggal_terbit": "2022-08-09",
            "url_tdpse_detail": "https://pse.komdigi.go.id/tdpse-detail/10069",
            "website": "tronfleet.com"
        },
        {
            "id": "9cb1abd5-86cd-4600-8416-587b3bc21e32",
            "nama_pse": "TEKNOLOGI KARYA DIGITAL NUSA",
            "nama_se": "TMS - TKDN",
            "sektor": "Sektor Transportasi, Sektor Teknologi Informasi dan Komunikasi",
            "tanggal_terbit": "2022-08-09",
            "url_tdpse_detail": "https://pse.komdigi.go.id/tdpse-detail/10070",
            "website": "tronfleet.com"
        },
        {
            "id": "9cb1ac0a-c22c-4490-b34a-1ab81c3ed775",
            "nama_pse": "INDO KOMPRESIGMA",
            "nama_se": "WEBSITE KAESER INDONESIA (ID.KAESER.COM)",
            "sektor": "Sektor Perdagangan, Sektor Teknologi Informasi dan Komunikasi",
            "tanggal_terbit": "2022-08-09",
            "url_tdpse_detail": "https://pse.komdigi.go.id/tdpse-detail/10071",
            "website": "id.kaeser.com"
        },
        {
            "id": "9cb1ac0a-c541-4240-a094-698326e3d6b1",
            "nama_pse": "TEKNOLOGI KARYA DIGITAL NUSA",
            "nama_se": "TKDN \u003cTMS\u003e",
            "sektor": "Sektor Transportasi, Sektor Teknologi Informasi dan Komunikasi",
            "tanggal_terbit": "2022-08-09",
            "url_tdpse_detail": "https://pse.komdigi.go.id/tdpse-detail/10072",
            "website": "tronfleet.com"
        },
        {
            "id": "9cb1abd5-8a18-493d-bac8-8db5d57f7113",
            "nama_pse": "TEKNOLOGI KARYA DIGITAL NUSA",
            "nama_se": "TKDN \"TMS\"",
            "sektor": "Sektor Transportasi, Sektor Teknologi Informasi dan Komunikasi",
            "tanggal_terbit": "2022-08-09",
            "url_tdpse_detail": "https://pse.komdigi.go.id/tdpse-detail/10073",
            "website": "tronfleet.com"
        },
        {
            "id": "9cb1ac0a-c883-4405-8d15-2326405bde1c",
            "nama_pse": "TEKNOLOGI KARYA DIGITAL NUSA",
            "nama_se": "TKDN ^TMS^",
            "sektor": "Sektor Transportasi, Sektor Teknologi Informasi dan Komunikasi",
            "tanggal_terbit": "2022-08-09",
            "url_tdpse_detail": "https://pse.komdigi.go.id/tdpse-detail/10074",
            "website": "-"
        },
        {
            "id": "9cb1ac0a-cbbe-4d9e-8bcf-513ec6b2c9a0",
            "nama_pse": "BURSA SERVIS INDONESIA",
            "nama_se": "BENGKLEPRO",
            "sektor": "Sektor Perdagangan",
            "tanggal_terbit": "2022-08-09",
            "url_tdpse_detail": "https://pse.komdigi.go.id/tdpse-detail/10075",
            "website": "bengkle.com"
        },
        {
            "id": "9cb1abd5-8f7a-49cf-9818-633161b7de30",
            "nama_pse": "TEKNOLOGI KARYA DIGITAL NUSA",
            "nama_se": "TMS",
            "sektor": "Sektor Transportasi, Sektor Teknologi Informasi dan Komunikasi",
            "tanggal_terbit": "2022-08-09",
            "url_tdpse_detail": "https://pse.komdigi.go.id/tdpse-detail/10076",
            "website": "tronfleet.com"
        },
        {
            "id": "9cb1ac0a-cea6-4381-9659-15d12cf0240b",
            "nama_pse": "GIFTEE INTERNATIONAL INDONESIA",
            "nama_se": "EGIFT SYSTEM",
            "sektor": "Sektor Perdagangan",
            "tanggal_terbit": "2022-08-09",
            "url_tdpse_detail": "https://pse.komdigi.go.id/tdpse-detail/10077",
            "website": "-"
        },
        {
            "id": "9cb1abfb-8925-40eb-bc3d-bafe9549aa94",
            "nama_pse": "TEKNOLOGI KARYA DIGITAL NUSA",
            "nama_se": "TKDN #TMS#",
            "sektor": "Sektor Transportasi, Sektor Teknologi Informasi dan Komunikasi",
            "tanggal_terbit": "2022-08-09",
            "url_tdpse_detail": "https://pse.komdigi.go.id/tdpse-detail/10078",
            "website": "tronfleet.com"
        },
        {
            "id": "9cb1ac0a-d2bf-46e8-8540-60c221c13aa7",
            "nama_pse": "MNC PORTAL INDONESIA",
            "nama_se": "SPORTSTARS.ID",
            "sektor": "Sektor Teknologi Informasi dan Komunikasi",
            "tanggal_terbit": "2022-08-09",
            "url_tdpse_detail": "https://pse.komdigi.go.id/tdpse-detail/10079",
            "website": "sportstars.id"
        },
        {
            "id": "9cb1abfb-8c42-48f1-a10e-d51234c74c9c",
            "nama_pse": "PRIMA INFOSARANA MEDIA",
            "nama_se": "GRID.ID",
            "sektor": "Sektor Teknologi Informasi dan Komunikasi",
            "tanggal_terbit": "2022-08-09",
            "url_tdpse_detail": "https://pse.komdigi.go.id/tdpse-detail/10080",
            "website": "grid.id"
        },
        {
            "id": "9cb1ac0a-d5d8-4ca3-91f8-bdb8a1e9542c",
            "nama_pse": "PRIMA INFOSARANA MEDIA",
            "nama_se": "WWW.MOTORPLUS-ONLINE.COM",
            "sektor": "Sektor Teknologi Informasi dan Komunikasi",
            "tanggal_terbit": "2022-08-09",
            "url_tdpse_detail": "https://pse.komdigi.go.id/tdpse-detail/10081",
            "website": "motorplus-online.com"
        },
        {
            "id": "9cb1abfb-8f59-4a49-a2cd-14c25fa9f945",
            "nama_pse": "LIKUID JAYA PRATAMA",
            "nama_se": "PENAWARAN EFEK MELALUI LAYANAN URUN DANA BERBASIS TEKNOLOGI INFORMASI (SECURITIES CROWDFUNDING) - APLIKASI",
            "sektor": "Sektor Keuangan, Sektor Teknologi Informasi dan Komunikasi",
            "tanggal_terbit": "2022-08-09",
            "url_tdpse_detail": "https://pse.komdigi.go.id/tdpse-detail/10083",
            "website": "-"
        },
        {
            "id": "9cb1ac0a-d915-475e-a88a-83ff4f71349f",
            "nama_pse": "KARYA LESTARI ABADI",
            "nama_se": "KARYA LESTARI ABADI",
            "sektor": "Sektor Perdagangan",
            "tanggal_terbit": "2022-08-09",
            "url_tdpse_detail": "https://pse.komdigi.go.id/tdpse-detail/10085",
            "website": "-"
        },
        {
            "id": "9cb1abfb-92cf-4be1-98e4-aa7a4f0c2514",
            "nama_pse": "MIGUNANI MILI ARTHA",
            "nama_se": "KLIKWA",
            "sektor": "Sektor Teknologi Informasi dan Komunikasi",
            "tanggal_terbit": "2022-08-09",
            "url_tdpse_detail": "https://pse.komdigi.go.id/tdpse-detail/10084",
            "website": "klikwa.net"
        },
        {
            "id": "9cb1ac0a-dc19-470b-9b16-e2be2522a116",
            "nama_pse": "MINEMA BERKAH ABADI",
            "nama_se": "MINEMABEAUTY",
            "sektor": "Sektor Teknologi Informasi dan Komunikasi",
            "tanggal_terbit": "2022-08-09",
            "url_tdpse_detail": "https://pse.komdigi.go.id/tdpse-detail/10086",
            "website": "minemabeauty.co.id"
        },
        {
            "id": "9cb1ac0a-df72-415e-99b3-5afc5b81e73d",
            "nama_pse": "SUMBER MILI ARTHA",
            "nama_se": "APISBOT.COM",
            "sektor": "Sektor Teknologi Informasi dan Komunikasi",
            "tanggal_terbit": "2022-08-09",
            "url_tdpse_detail": "https://pse.komdigi.go.id/tdpse-detail/10087",
            "website": "apisbot.com"
        },
        {
            "id": "9cb1abfb-95f0-43e7-83be-e1054234300d",
            "nama_pse": "DEDIKASI CERDASKAN NEGERI",
            "nama_se": "KEDAI ILMU",
            "sektor": "Sektor Perdagangan",
            "tanggal_terbit": "2022-08-09",
            "url_tdpse_detail": "https://pse.komdigi.go.id/tdpse-detail/10088",
            "website": "kedaiilmu.com"
        },
        {
            "id": "9cb1abd5-a2e2-4d23-91da-da8be06d9476",
            "nama_pse": "PENERBITAN SARANA BOBO",
            "nama_se": "WWW.JIP.CO.ID",
            "sektor": "Sektor Teknologi Informasi dan Komunikasi",
            "tanggal_terbit": "2022-08-09",
            "url_tdpse_detail": "https://pse.komdigi.go.id/tdpse-detail/10099",
            "website": "jip.gridoto.com"
        },
        {
            "id": "9cb1abfb-9e03-4e7d-8677-90079e432220",
            "nama_pse": "PENERBITAN SARANA BOBO",
            "nama_se": "WWW.INTISARI-ONLINE.COM",
            "sektor": "Sektor Teknologi Informasi dan Komunikasi",
            "tanggal_terbit": "2022-08-09",
            "url_tdpse_detail": "https://pse.komdigi.go.id/tdpse-detail/10100",
            "website": "intisari.grid.id"
        },
        {
            "id": "9cb1abd5-a69d-4c88-9799-30aa2db53833",
            "nama_pse": "PRIMA INFOSARANA MEDIA",
            "nama_se": "WWW.JUARA.NET",
            "sektor": "Sektor Teknologi Informasi dan Komunikasi",
            "tanggal_terbit": "2022-08-09",
            "url_tdpse_detail": "https://pse.komdigi.go.id/tdpse-detail/10101",
            "website": "juara.bolasport.com"
        },
        {
            "id": "9cb1abfb-a4a4-4f5c-b8a2-6963c74350c4",
            "nama_pse": "TUWUH SASANA GARJITO",
            "nama_se": "TWOSPACES COMPASS",
            "sektor": "Sektor Teknologi Informasi dan Komunikasi",
            "tanggal_terbit": "2022-08-09",
            "url_tdpse_detail": "https://pse.komdigi.go.id/tdpse-detail/10102",
            "website": "twospacesgroup.com"
        },
        {
            "id": "9cb1ac0a-e2ed-4a8e-bd58-53c43c687ecc",
            "nama_pse": "PRIMA INFOSARANA MEDIA",
            "nama_se": "WWW.KITCHENESIA.COM",
            "sektor": "Sektor Teknologi Informasi dan Komunikasi",
            "tanggal_terbit": "2022-08-09",
            "url_tdpse_detail": "https://pse.komdigi.go.id/tdpse-detail/10103",
            "website": "kitchenesia.grid.id"
        },
        {
            "id": "9cb1abd5-aa55-470d-a3b0-bb3ef0085e44",
            "nama_pse": "PRIMA INFOSARANA MEDIA",
            "nama_se": "WWW.MAKEMAC.COM",
            "sektor": "Sektor Teknologi Informasi dan Komunikasi",
            "tanggal_terbit": "2022-08-09",
            "url_tdpse_detail": "https://pse.komdigi.go.id/tdpse-detail/10104",
            "website": "makemac.grid.id"
        },
        {
            "id": "9cb1abd5-adb8-4fd3-9f41-49549dc7cf5c",
            "nama_pse": "PENERBITAN SARANA BOBO",
            "nama_se": "WWW.NAKITA.ID",
            "sektor": "Sektor Teknologi Informasi dan Komunikasi",
            "tanggal_terbit": "2022-08-09",
            "url_tdpse_detail": "https://pse.komdigi.go.id/tdpse-detail/10105",
            "website": "nakita.grid.id"
        },
        {
            "id": "9cb1abd5-b0fc-47b8-906d-ba145365957d",
            "nama_pse": "INFOMETRO MEDIATAMA",
            "nama_se": "WWW.NATIONALGEOGRAPHIC.CO.ID",
            "sektor": "Sektor Teknologi Informasi dan Komunikasi",
            "tanggal_terbit": "2022-08-09",
            "url_tdpse_detail": "https://pse.komdigi.go.id/tdpse-detail/10106",
            "website": "nationalgeographic.grid.id"
        },
        {
            "id": "9cb1abd5-b3de-45af-900f-3b2c95c8045e",
            "nama_pse": "PRIMA INFOSARANA MEDIA",
            "nama_se": "WWW.NEXTREN.COM",
            "sektor": "Sektor Teknologi Informasi dan Komunikasi",
            "tanggal_terbit": "2022-08-09",
            "url_tdpse_detail": "https://pse.komdigi.go.id/tdpse-detail/10107",
            "website": "nextren.grid.id"
        },
        {
            "id": "9cb1abfb-a7d4-4e25-8452-5d6a0c7f22d2",
            "nama_pse": "REKSA FINANCE",
            "nama_se": "REKSA LOAN SYSTEM",
            "sektor": "Sektor Keuangan",
            "tanggal_terbit": "2022-08-09",
            "url_tdpse_detail": "https://pse.komdigi.go.id/tdpse-detail/10108",
            "website": "reksafinance.co.id"
        },
        {
            "id": "9cb1ac0a-e77e-4e66-b43c-ca2bfe3beff0",
            "nama_pse": "WIDEA KALYA TEKNOLOGI",
            "nama_se": "IZENHO",
            "sektor": "Sektor Perdagangan, Sektor Kesehatan, Sektor Teknologi Informasi dan Komunikasi",
            "tanggal_terbit": "2022-08-09",
            "url_tdpse_detail": "https://pse.komdigi.go.id/tdpse-detail/10109",
            "website": "izenho.com"
        },
        {
            "id": "9cb1abfb-aacf-4765-84c4-22c234ecc984",
            "nama_pse": "TONGDUN TECHNOLOGY INDONESIA",
            "nama_se": "TONGDUN TECHNOLOGY INDONESIA",
            "sektor": "Sektor Teknologi Informasi dan Komunikasi",
            "tanggal_terbit": "2022-08-09",
            "url_tdpse_detail": "https://pse.komdigi.go.id/tdpse-detail/10125",
            "website": "tongdun.id"
        },
        {
            "id": "9cb1abd5-b6ea-42d4-9e69-20f68feaf06d",
            "nama_pse": "GLOBAL LOYAL SEJAHTERA",
            "nama_se": "TSMEDIA.ID",
            "sektor": "Sektor Perdagangan",
            "tanggal_terbit": "2022-08-09",
            "url_tdpse_detail": "https://pse.komdigi.go.id/tdpse-detail/10110",
            "website": "tsmedia.id"
        },
        {
            "id": "9cb1ac0a-eb04-4d36-9c34-af2447195d17",
            "nama_pse": "MONOTARO INDONESIA",
            "nama_se": "MONOTARO INDONESIA",
            "sektor": "Sektor Perdagangan",
            "tanggal_terbit": "2022-08-09",
            "url_tdpse_detail": "https://pse.komdigi.go.id/tdpse-detail/10111",
            "website": "monotaro.id"
        },
        {
            "id": "9cb1abd5-ba86-41d8-9225-d5c683bd25b7",
            "nama_pse": "CITRA AGUNG MESTIKA",
            "nama_se": "PT. CITRA AGUNG MESTIKA",
            "sektor": "Sektor Teknologi Informasi dan Komunikasi",
            "tanggal_terbit": "2022-08-09",
            "url_tdpse_detail": "https://pse.komdigi.go.id/tdpse-detail/10112",
            "website": "WWW.IP1.CO.ID"
        },
        {
            "id": "9cb1abfb-ae1e-48bf-9402-529b1468ca8c",
            "nama_pse": "AXA INSURANCE INDONESIA",
            "nama_se": "ASMIK",
            "sektor": "Sektor Keuangan",
            "tanggal_terbit": "2022-08-09",
            "url_tdpse_detail": "https://pse.komdigi.go.id/tdpse-detail/10113",
            "website": "axa-mandiri.co.id"
        },
        {
            "id": "9cb1ac0a-ee06-4f6f-8744-00571309dfca",
            "nama_pse": "INDIGO DIGITAL MEDIA",
            "nama_se": "CUMICUMI.COM",
            "sektor": "Sektor Teknologi Informasi dan Komunikasi",
            "tanggal_terbit": "2022-08-09",
            "url_tdpse_detail": "https://pse.komdigi.go.id/tdpse-detail/10114",
            "website": "cumicumi.com"
        },
        {
            "id": "9cb1abd5-be64-41ff-aafc-0233ce7d1cd1",
            "nama_pse": "MNC PORTAL INDONESIA",
            "nama_se": "CELEBRITIES.ID",
            "sektor": "Sektor Teknologi Informasi dan Komunikasi",
            "tanggal_terbit": "2022-08-09",
            "url_tdpse_detail": "https://pse.komdigi.go.id/tdpse-detail/10115",
            "website": "celebrities.id"
        },
        {
            "id": "9cb1ac0a-f127-404f-b587-0f0e345dc192",
            "nama_pse": "AXA INSURANCE INDONESIA",
            "nama_se": "AXA MANDIRI MYPAGE",
            "sektor": "Sektor Keuangan",
            "tanggal_terbit": "2022-08-09",
            "url_tdpse_detail": "https://pse.komdigi.go.id/tdpse-detail/10116",
            "website": "mypage.axa.co.id"
        },
        {
            "id": "9cb1abfb-b13a-4dbc-94e4-2729e916678f",
            "nama_pse": "STAR KARLO INDONESIA",
            "nama_se": "KARLO",
            "sektor": "Sektor Transportasi",
            "tanggal_terbit": "2022-08-09",
            "url_tdpse_detail": "https://pse.komdigi.go.id/tdpse-detail/10117",
            "website": "karlo.id"
        }
    ],
    "processingTimeMs": 12,
    "query": "",
    "totalHits": 19121,
    "hitsPerPage": 50,
    "page": 202,
    "totalPages": 383
}