{
    "hits": [
        {
            "id": "9cb1ac3c-19c6-4a36-9e67-3c8131e9b27d",
            "nama_pse": "CENTRO DIGITAL RIAU MEDIATAMA",
            "nama_se": "CERIATV.CO.ID",
            "sektor": "Sektor Teknologi Informasi dan Komunikasi",
            "tanggal_terbit": "2023-01-19",
            "url_tdpse_detail": "https://pse.komdigi.go.id/tdpse-detail/13547",
            "website": "ceriatv.co.id"
        },
        {
            "id": "9cb1ac3c-20d5-47f4-9208-aff618ece731",
            "nama_pse": "MAHAKAM BERKAH BERSAMA",
            "nama_se": "ZEEMARR",
            "sektor": "Sektor Teknologi Informasi dan Komunikasi",
            "tanggal_terbit": "2023-01-19",
            "url_tdpse_detail": "https://pse.komdigi.go.id/tdpse-detail/13549",
            "website": "zeemarr.com"
        },
        {
            "id": "9cb1ac2c-7f77-4bbd-a34a-68937e8fafda",
            "nama_pse": "FREEDOM SUCCESS NETWORK",
            "nama_se": "FREEDOM SUCCESS NETWORK",
            "sektor": "Sektor Teknologi Informasi dan Komunikasi",
            "tanggal_terbit": "2023-01-19",
            "url_tdpse_detail": "https://pse.komdigi.go.id/tdpse-detail/13550",
            "website": "-"
        },
        {
            "id": "9cb1ac2c-82fc-4b43-a638-319febca5399",
            "nama_pse": "KLIK DATA INDONESIA",
            "nama_se": "KLIK DATA",
            "sektor": "Sektor Perdagangan, Sektor Kesehatan, Sektor Teknologi Informasi dan Komunikasi",
            "tanggal_terbit": "2023-01-19",
            "url_tdpse_detail": "https://pse.komdigi.go.id/tdpse-detail/13551",
            "website": "klikdata.co.id"
        },
        {
            "id": "9cb1ac2c-86bd-4761-8756-c9b65e1c2369",
            "nama_pse": "TEKNOLOGI PUSTAKA INDONESIA",
            "nama_se": "KUANA.IND",
            "sektor": "Sektor Perdagangan, Sektor Teknologi Informasi dan Komunikasi",
            "tanggal_terbit": "2023-01-19",
            "url_tdpse_detail": "https://pse.komdigi.go.id/tdpse-detail/13552",
            "website": "kuana.id"
        },
        {
            "id": "9cb1ac3c-23a2-4708-a3b9-6336efc9350d",
            "nama_pse": "FREEDOM SUCCESS NETWORK",
            "nama_se": "FREEDOM SUCCESS NETWORK9",
            "sektor": "Sektor Teknologi Informasi dan Komunikasi",
            "tanggal_terbit": "2023-01-19",
            "url_tdpse_detail": "https://pse.komdigi.go.id/tdpse-detail/13553",
            "website": "-"
        },
        {
            "id": "9cb1ac3b-fee7-4567-bdf3-ec0a72863fd0",
            "nama_pse": "REFUBLIKNEWS TERCEPAT TERPERCAYA",
            "nama_se": "REFUBLIKNEWS.COM",
            "sektor": "Sektor Teknologi Informasi dan Komunikasi",
            "tanggal_terbit": "2023-01-18",
            "url_tdpse_detail": "https://pse.komdigi.go.id/tdpse-detail/13535",
            "website": "Refubliknews.com"
        },
        {
            "id": "9cb1ac2c-5b1b-40f5-9766-c85ff1c980c4",
            "nama_pse": "CHIPO NIAGA INDONESIA",
            "nama_se": "IDCHIPO ",
            "sektor": "Sektor Perdagangan",
            "tanggal_terbit": "2023-01-18",
            "url_tdpse_detail": "https://pse.komdigi.go.id/tdpse-detail/13536",
            "website": "idchipo.com"
        },
        {
            "id": "9cb1ac3c-0386-4977-811e-ec0f2b21d655",
            "nama_pse": "KAMPUNG MARKETERINDO BERDAYA",
            "nama_se": "KOMERCE",
            "sektor": "Sektor Perdagangan, Sektor Teknologi Informasi dan Komunikasi",
            "tanggal_terbit": "2023-01-18",
            "url_tdpse_detail": "https://pse.komdigi.go.id/tdpse-detail/13537",
            "website": "komerce.id"
        },
        {
            "id": "9cb1ac2c-6300-4eaf-82f1-24dc0c648978",
            "nama_pse": "GALA TEKNOLOGI AMERTA",
            "nama_se": "GALA TEKNOLOGI AMERTA",
            "sektor": "Sektor Perdagangan",
            "tanggal_terbit": "2023-01-18",
            "url_tdpse_detail": "https://pse.komdigi.go.id/tdpse-detail/13538",
            "website": "galatechnoamerta.com"
        },
        {
            "id": "9cb1ac3c-06f7-4967-9159-546eabd82a26",
            "nama_pse": "CORFINA CAPITAL",
            "nama_se": "CORFINA REKSADANA ONLINE SYSTEM",
            "sektor": "Sektor Keuangan",
            "tanggal_terbit": "2023-01-18",
            "url_tdpse_detail": "https://pse.komdigi.go.id/tdpse-detail/13540",
            "website": "corfina.id"
        },
        {
            "id": "9cb1ac1a-c31e-4168-9251-0631f126d7da",
            "nama_pse": "FINALEN ISVARA NARAYA",
            "nama_se": "FINALEN ISVARA NARAYA",
            "sektor": "Sektor Perdagangan",
            "tanggal_terbit": "2023-01-18",
            "url_tdpse_detail": "https://pse.komdigi.go.id/tdpse-detail/13539",
            "website": "finalenisvaranaraya.com"
        },
        {
            "id": "9cb1ac2c-3079-40db-a31f-b08b0b5b1ffd",
            "nama_pse": "INDOGOLD MAKMUR SEJAHTERA",
            "nama_se": "INDOGOLD",
            "sektor": "Sektor Perdagangan",
            "tanggal_terbit": "2023-01-17",
            "url_tdpse_detail": "https://pse.komdigi.go.id/tdpse-detail/13525",
            "website": "WWW.INDOGOLD.ID"
        },
        {
            "id": "9cb1ac1a-a02a-49c7-b8a4-6dac2011ddcc",
            "nama_pse": "KOPERASI SIMPAN PINJAM DAN PEMBIAYAAN SYARIAH BAITUL MAAL WAT TAMWIL ARTHA SEJAHTERA",
            "nama_se": "BMT MOBILE ONLINE",
            "sektor": "Sektor Teknologi Informasi dan Komunikasi",
            "tanggal_terbit": "2023-01-17",
            "url_tdpse_detail": "https://pse.komdigi.go.id/tdpse-detail/13526",
            "website": "-"
        },
        {
            "id": "9cb1ac3b-f37c-4f7c-86a6-3b09eb798090",
            "nama_pse": "MEDIA ANDALAN NUSA",
            "nama_se": "PT MEDIA ANDALAN NUSA",
            "sektor": "Sektor Teknologi Informasi dan Komunikasi",
            "tanggal_terbit": "2023-01-17",
            "url_tdpse_detail": "https://pse.komdigi.go.id/tdpse-detail/13527",
            "website": "andalworks.com"
        },
        {
            "id": "9cb1ac1a-a9a9-44d9-b327-027624862340",
            "nama_pse": "IVAN WILLIAM HARSONO",
            "nama_se": "IVANMD",
            "sektor": "Sektor Kesehatan",
            "tanggal_terbit": "2023-01-17",
            "url_tdpse_detail": "https://pse.komdigi.go.id/tdpse-detail/13528",
            "website": "ivanmd.ivanwilliamharsono.com"
        },
        {
            "id": "9cb1ac2c-49a5-45ba-8554-605c254d0eda",
            "nama_pse": "SEKOTA SINERGI INDONESIA",
            "nama_se": "POLITIK2024",
            "sektor": "Sektor Teknologi Informasi dan Komunikasi",
            "tanggal_terbit": "2023-01-17",
            "url_tdpse_detail": "https://pse.komdigi.go.id/tdpse-detail/13529",
            "website": "politik2024.id"
        },
        {
            "id": "9cb1ac2c-4d75-46a5-aba0-63f131011311",
            "nama_pse": "KSPPS BMT NAHDLATUL ULAMA PRINGSEWU",
            "nama_se": "BMT MOBILE ON LINE",
            "sektor": "Sektor Teknologi Informasi dan Komunikasi",
            "tanggal_terbit": "2023-01-17",
            "url_tdpse_detail": "https://pse.komdigi.go.id/tdpse-detail/13530",
            "website": "-"
        },
        {
            "id": "9cb1ac3b-f8f4-4ea8-adde-1ed56287d1c1",
            "nama_pse": "HARSA IBHA TEKNOLOGI",
            "nama_se": "LAPAK HARSA",
            "sektor": "Sektor Perdagangan",
            "tanggal_terbit": "2023-01-17",
            "url_tdpse_detail": "https://pse.komdigi.go.id/tdpse-detail/13531",
            "website": "lapakharsa.com"
        },
        {
            "id": "9cb1ac1a-b77c-462d-acd2-4105a046537a",
            "nama_pse": "MITRA INDOTEKNOLOGI",
            "nama_se": "DRAIV",
            "sektor": "Sektor Transportasi, Sektor Teknologi Informasi dan Komunikasi",
            "tanggal_terbit": "2023-01-17",
            "url_tdpse_detail": "https://pse.komdigi.go.id/tdpse-detail/13533",
            "website": "draiv.id"
        },
        {
            "id": "9cb1ac3b-fbfc-426e-8682-23de18d780b0",
            "nama_pse": "DIZNET INDO ZAHIRA",
            "nama_se": "ZETA",
            "sektor": "Sektor Perdagangan, Sektor Transportasi, Sektor Kesehatan",
            "tanggal_terbit": "2023-01-17",
            "url_tdpse_detail": "https://pse.komdigi.go.id/tdpse-detail/13534",
            "website": "diznet.co.id"
        },
        {
            "id": "9cb1ac3b-c01b-440e-a306-5d8a6e4ccd34",
            "nama_pse": "SELALU SUKSES SEJAHTERA",
            "nama_se": "NIRWANA3",
            "sektor": "Sektor Perdagangan, Sektor Teknologi Informasi dan Komunikasi",
            "tanggal_terbit": "2023-01-16",
            "url_tdpse_detail": "https://pse.komdigi.go.id/tdpse-detail/13519",
            "website": "-"
        },
        {
            "id": "9cb1ac3b-d6da-4e14-9f5d-14ed2c97d96b",
            "nama_pse": "MANDIRI SEKURITAS",
            "nama_se": "LEARNING PORTAL",
            "sektor": "Sektor Keuangan",
            "tanggal_terbit": "2023-01-16",
            "url_tdpse_detail": "https://pse.komdigi.go.id/tdpse-detail/13514",
            "website": "learning.most.co.id"
        },
        {
            "id": "9cb1ac2c-1490-43a3-8b81-bbf28fdec2d5",
            "nama_pse": "MANDIRI SEKURITAS",
            "nama_se": "CORPORATE WEBSITE",
            "sektor": "Sektor Keuangan",
            "tanggal_terbit": "2023-01-16",
            "url_tdpse_detail": "https://pse.komdigi.go.id/tdpse-detail/13515",
            "website": "mandirisekuritas.co.id"
        },
        {
            "id": "9cb1ac2c-1ed1-4760-8beb-96c144492137",
            "nama_pse": "MANDIRI SEKURITAS",
            "nama_se": "MOST FORUM",
            "sektor": "Sektor Keuangan",
            "tanggal_terbit": "2023-01-16",
            "url_tdpse_detail": "https://pse.komdigi.go.id/tdpse-detail/13516",
            "website": "forum.most.co.id"
        },
        {
            "id": "9cb1ac3b-dc48-4c9d-8e69-4ffac7f9c1a8",
            "nama_pse": "SAMSUNG ELECTRONICS INDONESIA",
            "nama_se": "SAMSUNG FINANCE+",
            "sektor": "Sektor Teknologi Informasi dan Komunikasi",
            "tanggal_terbit": "2023-01-16",
            "url_tdpse_detail": "https://pse.komdigi.go.id/tdpse-detail/13513",
            "website": "merchant-id.samsungfinanceplus.com"
        },
        {
            "id": "9cb1ac3b-df8c-4d6e-a1a1-074c3a617f9d",
            "nama_pse": "MANDIRI SEKURITAS",
            "nama_se": "MOST ETF",
            "sektor": "Sektor Keuangan",
            "tanggal_terbit": "2023-01-16",
            "url_tdpse_detail": "https://pse.komdigi.go.id/tdpse-detail/13518",
            "website": "etf.most.co.id"
        },
        {
            "id": "9cb1ac1a-94c7-4c66-b03f-811a3a58087f",
            "nama_pse": "USSI PINBUK GLOBAL SOLUSI",
            "nama_se": "IBS BRANCHLESS",
            "sektor": "Sektor Teknologi Informasi dan Komunikasi",
            "tanggal_terbit": "2023-01-16",
            "url_tdpse_detail": "https://pse.komdigi.go.id/tdpse-detail/13517",
            "website": "-"
        },
        {
            "id": "9cb1ac1a-97e8-4114-b68f-99fe3581fcec",
            "nama_pse": "LAMACCA KREATIF SOLUSI",
            "nama_se": "LAMACCA KREATIF SOLUSI",
            "sektor": "Sektor Teknologi Informasi dan Komunikasi",
            "tanggal_terbit": "2023-01-16",
            "url_tdpse_detail": "https://pse.komdigi.go.id/tdpse-detail/13520",
            "website": "LAMACCA.COM"
        },
        {
            "id": "9cb1ac1a-9a42-40d3-9954-caf15c18b0c3",
            "nama_pse": "KOPERASI SIMPAN PINJAM DAN PEMBIAYAAN SYARIAH BMT BINA IHSANUL FIKRI",
            "nama_se": "BMT MOBILE ON LINE",
            "sektor": "Sektor Teknologi Informasi dan Komunikasi",
            "tanggal_terbit": "2023-01-16",
            "url_tdpse_detail": "https://pse.komdigi.go.id/tdpse-detail/13521",
            "website": "-"
        },
        {
            "id": "9cb1ac3b-f08b-410e-854d-95260f09de7b",
            "nama_pse": "KSPPS BMT ALFALAH",
            "nama_se": "BMT MOBILE ON LINE",
            "sektor": "Sektor Teknologi Informasi dan Komunikasi",
            "tanggal_terbit": "2023-01-16",
            "url_tdpse_detail": "https://pse.komdigi.go.id/tdpse-detail/13523",
            "website": "-"
        },
        {
            "id": "9cb1ac1a-9d53-4d2b-919e-5fcfc0ff99a0",
            "nama_pse": "MENARA MAS INVESTINDO",
            "nama_se": "PLUS500",
            "sektor": "Sektor Keuangan",
            "tanggal_terbit": "2023-01-16",
            "url_tdpse_detail": "https://pse.komdigi.go.id/tdpse-detail/13522",
            "website": "ptmmi.co.id"
        },
        {
            "id": "9cb1ac2c-4529-44c0-ba52-0a965f066ed1",
            "nama_pse": "ALFA DIGIMEDIKA UTAMA",
            "nama_se": "ALFA DIGIMEDIKA",
            "sektor": "Sektor Perdagangan, Sektor Kesehatan, Sektor Teknologi Informasi dan Komunikasi",
            "tanggal_terbit": "2023-01-16",
            "url_tdpse_detail": "https://pse.komdigi.go.id/tdpse-detail/13524",
            "website": "alfadigimedika.com"
        },
        {
            "id": "9cb1ac2c-29e6-4a36-b5f8-b5fe518163ad",
            "nama_pse": "FREEDOM SUCCESS NETWORK",
            "nama_se": "PT FREEDOM SUCCESS NETWORK",
            "sektor": "Sektor Teknologi Informasi dan Komunikasi",
            "tanggal_terbit": "2023-01-15",
            "url_tdpse_detail": "https://pse.komdigi.go.id/tdpse-detail/13510",
            "website": "-"
        },
        {
            "id": "9cb1ac3b-ed8b-4794-ba3d-b2186e2e2d15",
            "nama_pse": "FAKIHUDIN",
            "nama_se": "FAKIHUDIN",
            "sektor": "Sektor Perdagangan",
            "tanggal_terbit": "2023-01-15",
            "url_tdpse_detail": "https://pse.komdigi.go.id/tdpse-detail/13512",
            "website": "-"
        },
        {
            "id": "9cb1ac3b-b725-4b12-b1a5-41b91e10fcee",
            "nama_pse": "EQUITY LIFE INDONESIA",
            "nama_se": "MICROSITE EQUITY LIFE PROTEKSI",
            "sektor": "Sektor Keuangan",
            "tanggal_terbit": "2023-01-13",
            "url_tdpse_detail": "https://pse.komdigi.go.id/tdpse-detail/13483",
            "website": "-"
        },
        {
            "id": "9cb1ac3b-bd33-4fde-a27c-9b43b66fb1fd",
            "nama_pse": "MANDIRI SEKURITAS",
            "nama_se": "PORTAL RESEARCH",
            "sektor": "Sektor Keuangan",
            "tanggal_terbit": "2023-01-13",
            "url_tdpse_detail": "https://pse.komdigi.go.id/tdpse-detail/13490",
            "website": "research.mandirisekuritas.co.id"
        },
        {
            "id": "9cb1ac2c-1106-4632-941b-46f19c003b29",
            "nama_pse": "MANDIRI SEKURITAS",
            "nama_se": "ONLINE ACCOUNT OPENING MOBILE",
            "sektor": "Sektor Keuangan",
            "tanggal_terbit": "2023-01-13",
            "url_tdpse_detail": "https://pse.komdigi.go.id/tdpse-detail/13491",
            "website": "join.most.co.id"
        },
        {
            "id": "9cb1ac3b-c302-4f29-ac16-d71cd4e02c9e",
            "nama_pse": "PRAKASA MAKMUR KENCANA",
            "nama_se": "CARBONATE",
            "sektor": "Sektor Teknologi Informasi dan Komunikasi",
            "tanggal_terbit": "2023-01-13",
            "url_tdpse_detail": "https://pse.komdigi.go.id/tdpse-detail/13487",
            "website": "carbonate.cloud"
        },
        {
            "id": "9cb1ac3b-c5d9-4413-8a8b-e826dc2900bc",
            "nama_pse": "MANDIRI SEKURITAS",
            "nama_se": "ONLINE ACCOUNT OPENING NON MOBILE",
            "sektor": "Sektor Keuangan",
            "tanggal_terbit": "2023-01-13",
            "url_tdpse_detail": "https://pse.komdigi.go.id/tdpse-detail/13492",
            "website": "register.most.co.id"
        },
        {
            "id": "9cb1ac3b-cb4b-4ee8-84a1-4391b2e8d817",
            "nama_pse": "FIBER MEDIA SEJAHTERA",
            "nama_se": "PT FIBER MEDIA SEJAHTERA",
            "sektor": "Sektor Teknologi Informasi dan Komunikasi",
            "tanggal_terbit": "2023-01-13",
            "url_tdpse_detail": "https://pse.komdigi.go.id/tdpse-detail/13485",
            "website": "-"
        },
        {
            "id": "9cb1ac3b-d025-4e70-ba1d-8bb16e7a1784",
            "nama_pse": "GLOBAL AKSES MEDIKA",
            "nama_se": "CV GLOBAL AKSES MEDIKA",
            "sektor": "Sektor Perdagangan, Sektor Kesehatan",
            "tanggal_terbit": "2023-01-13",
            "url_tdpse_detail": "https://pse.komdigi.go.id/tdpse-detail/13486",
            "website": "Gamedika.com"
        },
        {
            "id": "9cb1ac1a-8222-4dd8-a602-2db8564f2ee8",
            "nama_pse": "INTERNASIONAL TELEKOMUNIKASI MULTIMEDIA",
            "nama_se": "PT INTERNASIONAL TELEKOMUNIKASI MULTIMEDIA",
            "sektor": "Sektor Perdagangan",
            "tanggal_terbit": "2023-01-13",
            "url_tdpse_detail": "https://pse.komdigi.go.id/tdpse-detail/13488",
            "website": "hymetlive.com"
        },
        {
            "id": "9cb1ac3b-d3ed-4727-9407-4a57fce8b3b5",
            "nama_pse": "PUTRA PERMATA PRATAMA",
            "nama_se": "PT PUTRA PERMATA PRATAMA",
            "sektor": "Sektor Teknologi Informasi dan Komunikasi",
            "tanggal_terbit": "2023-01-13",
            "url_tdpse_detail": "https://pse.komdigi.go.id/tdpse-detail/13500",
            "website": "putra-permata.com"
        },
        {
            "id": "9cb1ac1a-84c6-44b7-9e58-16007274ea39",
            "nama_pse": "INFOTAMA SOLUSINDO",
            "nama_se": "RUMKIT TK III BALADHIKA HUSADA JEMBER",
            "sektor": "Sektor Kesehatan",
            "tanggal_terbit": "2023-01-13",
            "url_tdpse_detail": "https://pse.komdigi.go.id/tdpse-detail/13498",
            "website": "-"
        },
        {
            "id": "9cb1ac3b-d9c4-408e-8f47-c8e45bef910b",
            "nama_pse": "SKALA ESTAT ASIA",
            "nama_se": "TOKO SULUNG",
            "sektor": "Sektor Perdagangan",
            "tanggal_terbit": "2023-01-13",
            "url_tdpse_detail": "https://pse.komdigi.go.id/tdpse-detail/13499",
            "website": "tokosulung.com"
        },
        {
            "id": "9cb1ac2c-1941-48c2-b0a3-e77c18777ae6",
            "nama_pse": "USSI PINBUK GLOBAL SOLUSI",
            "nama_se": "IBS MOBILE ON LINE",
            "sektor": "Sektor Teknologi Informasi dan Komunikasi",
            "tanggal_terbit": "2023-01-13",
            "url_tdpse_detail": "https://pse.komdigi.go.id/tdpse-detail/13501",
            "website": "-"
        },
        {
            "id": "9cb1ac1a-8984-4658-b096-a852a4312ec2",
            "nama_pse": "SKALA ESTAT ASIA",
            "nama_se": "CRUITA",
            "sektor": "Sektor Perdagangan, Sektor Teknologi Informasi dan Komunikasi",
            "tanggal_terbit": "2023-01-13",
            "url_tdpse_detail": "https://pse.komdigi.go.id/tdpse-detail/13502",
            "website": "cruita.com"
        },
        {
            "id": "9cb1ac1a-8c3b-48aa-aac7-db52f6645648",
            "nama_pse": "DIMAS AGUNG PRASETYO",
            "nama_se": "ANGGUN PERCETAKAN FOTOCOPY",
            "sektor": "Sektor Perdagangan",
            "tanggal_terbit": "2023-01-13",
            "url_tdpse_detail": "https://pse.komdigi.go.id/tdpse-detail/13503",
            "website": "anggunfotocopy.com"
        },
        {
            "id": "9cb1ac3b-e44e-455f-8534-b118c35c952d",
            "nama_pse": "INFOTAMA SOLUSINDO",
            "nama_se": "RSUD DR. MOHAMMAD ZYN SAMPANG",
            "sektor": "Sektor Kesehatan",
            "tanggal_terbit": "2023-01-13",
            "url_tdpse_detail": "https://pse.komdigi.go.id/tdpse-detail/13504",
            "website": "-"
        }
    ],
    "processingTimeMs": 2,
    "query": "",
    "totalHits": 19121,
    "hitsPerPage": 50,
    "page": 160,
    "totalPages": 383
}