{
    "hits": [
        {
            "id": "9cb1ab97-cc31-4d47-8694-8c1985d5d04c",
            "nama_pse": "SPOTGUE APLIKASI PRATAMA",
            "nama_se": "SPOTGUE TENANT",
            "sektor": "Sektor Teknologi Informasi dan Komunikasi",
            "tanggal_terbit": "2021-02-24",
            "url_tdpse_detail": "https://pse.komdigi.go.id/tdpse-detail/4527",
            "website": "spotgue.com"
        },
        {
            "id": "9cb1aba3-613d-43d8-99ad-eb58b1a4c977",
            "nama_pse": "SPOTGUE APLIKASI PRATAMA",
            "nama_se": "SPOTGUE BUILDING",
            "sektor": "Sektor Teknologi Informasi dan Komunikasi",
            "tanggal_terbit": "2021-02-24",
            "url_tdpse_detail": "https://pse.komdigi.go.id/tdpse-detail/4528",
            "website": "spotgue.com"
        },
        {
            "id": "9cb1ab84-a084-4467-8c61-9fe11e64bb91",
            "nama_pse": "GLOBAL SUKSES SOLUSI",
            "nama_se": "RUN SYSTEM",
            "sektor": "Sektor Perdagangan, Sektor Perdagangan, Sektor Teknologi Informasi dan Komunikasi, Sektor Teknologi Informasi dan Komunikasi",
            "tanggal_terbit": "2021-02-23",
            "url_tdpse_detail": "https://pse.komdigi.go.id/tdpse-detail/108",
            "website": "runsystem.id"
        },
        {
            "id": "9cb1ab7b-87a7-444b-baed-b2ca6b9bef71",
            "nama_pse": "DALLIGENT SOLUSI INDONESIA",
            "nama_se": "KUPU",
            "sektor": "Sektor Teknologi Informasi dan Komunikasi, Sektor Teknologi Informasi dan Komunikasi, Sektor Teknologi Informasi dan Komunikasi, Sektor Teknologi Informasi dan Komunikasi, Sektor Teknologi Informasi dan Komunikasi, Sektor Teknologi Informasi dan Komunikasi",
            "tanggal_terbit": "2021-02-23",
            "url_tdpse_detail": "https://pse.komdigi.go.id/tdpse-detail/104",
            "website": "Top-level domain: https://www.kupu.id; Second-level domain: https://employer.kupu.id; https://man.kupu.id; https://teach.kupu.id"
        },
        {
            "id": "9cb1ab83-4193-4f17-a7fd-c03c39a77d40",
            "nama_pse": "BCA FINANCE",
            "nama_se": "FINA",
            "sektor": "Sektor Perdagangan, Sektor Perdagangan, Sektor Perdagangan, Sektor Perdagangan",
            "tanggal_terbit": "2021-02-23",
            "url_tdpse_detail": "https://pse.komdigi.go.id/tdpse-detail/41",
            "website": "bcafinance.co.id/"
        },
        {
            "id": "9cb1ab7b-995d-44a6-9928-b140b53e7607",
            "nama_pse": "JELAS PEMBAYARAN BIOMETRIK",
            "nama_se": "JELASPAY",
            "sektor": "Sektor Teknologi Informasi dan Komunikasi, Sektor Teknologi Informasi dan Komunikasi, Sektor Teknologi Informasi dan Komunikasi",
            "tanggal_terbit": "2021-02-23",
            "url_tdpse_detail": "https://pse.komdigi.go.id/tdpse-detail/35",
            "website": "-"
        },
        {
            "id": "9cb1ab83-62b6-4437-8add-0b27101b0ca4",
            "nama_pse": "KOLTIVA",
            "nama_se": "COCOATRACE",
            "sektor": "Sektor Perdagangan, Sektor Perdagangan, Sektor Teknologi Informasi dan Komunikasi, Sektor Teknologi Informasi dan Komunikasi",
            "tanggal_terbit": "2021-02-23",
            "url_tdpse_detail": "https://pse.komdigi.go.id/tdpse-detail/128",
            "website": "app.cocoatrace.com"
        },
        {
            "id": "9cb1ab7b-a14c-49bd-8f6c-ab309c5ae415",
            "nama_pse": "KOLTIVA",
            "nama_se": "PALMOILTRACE",
            "sektor": "Sektor Perdagangan, Sektor Perdagangan, Sektor Teknologi Informasi dan Komunikasi, Sektor Teknologi Informasi dan Komunikasi",
            "tanggal_terbit": "2021-02-23",
            "url_tdpse_detail": "https://pse.komdigi.go.id/tdpse-detail/129",
            "website": "app.palmoiltrace.com"
        },
        {
            "id": "9cb1ab7b-b1c5-4cf7-90ac-89de0dcc4737",
            "nama_pse": "MILAGROS INDONESIA MEGAH",
            "nama_se": "MILAGROS",
            "sektor": "Sektor Perdagangan, Sektor Perdagangan",
            "tanggal_terbit": "2021-02-23",
            "url_tdpse_detail": "https://pse.komdigi.go.id/tdpse-detail/29",
            "website": "milagros.co.id"
        },
        {
            "id": "9cb1ab8b-4ec5-45ad-b49c-31a78552fab0",
            "nama_pse": "INDEPAY NETWORKS INDONESIA",
            "nama_se": "INDEPAY",
            "sektor": "Sektor Perdagangan, Sektor Perdagangan",
            "tanggal_terbit": "2021-02-23",
            "url_tdpse_detail": "https://pse.komdigi.go.id/tdpse-detail/42",
            "website": "http://www.indepay.com/"
        },
        {
            "id": "9cb1ab8b-59cf-4cfd-a703-6d7c50784182",
            "nama_pse": "INDEPAY NETWORKS INDONESIA",
            "nama_se": "INDEPAY",
            "sektor": "Sektor Perdagangan, Sektor Perdagangan",
            "tanggal_terbit": "2021-02-23",
            "url_tdpse_detail": "https://pse.komdigi.go.id/tdpse-detail/83",
            "website": "http://www.indepay.com/"
        },
        {
            "id": "9cb1ab83-7b7d-4438-b1a6-e096f5512ff2",
            "nama_pse": "TEKNOLOGI MEDIS KESEHATAN",
            "nama_se": "OKEKLINIK",
            "sektor": "Sektor Kesehatan, Sektor Kesehatan",
            "tanggal_terbit": "2021-02-23",
            "url_tdpse_detail": "https://pse.komdigi.go.id/tdpse-detail/56",
            "website": "okeklinik.com"
        },
        {
            "id": "9cb1ab7b-bafc-44fb-86e1-e719151cca36",
            "nama_pse": "BANK ICBC INDONESIA",
            "nama_se": "CORPORATE INTERNET BANKING",
            "sektor": "Sektor Keuangan, Sektor Keuangan",
            "tanggal_terbit": "2021-02-23",
            "url_tdpse_detail": "https://pse.komdigi.go.id/tdpse-detail/39",
            "website": "cbank.icbc.co.id"
        },
        {
            "id": "9cb1ab7b-be55-47c9-bf26-b7238afd8c1c",
            "nama_pse": "MEDIA INOVASI INDONESIA",
            "nama_se": "EMPLOYEE ACTIVITY TRACKING SYSTEM",
            "sektor": "Sektor Teknologi Informasi dan Komunikasi, Sektor Teknologi Informasi dan Komunikasi",
            "tanggal_terbit": "2021-02-23",
            "url_tdpse_detail": "https://pse.komdigi.go.id/tdpse-detail/66",
            "website": "mediainovasi.id"
        },
        {
            "id": "9cb1ab8b-6f5c-45e8-b522-cc8122f64d74",
            "nama_pse": "JASA TEKNOLOGI GSHIELD",
            "nama_se": "GSHIELD TECHNOLOGY / INSURANCE TILE WITHIN THE GRAB APP",
            "sektor": "Sektor Perdagangan, Sektor Perdagangan",
            "tanggal_terbit": "2021-02-23",
            "url_tdpse_detail": "https://pse.komdigi.go.id/tdpse-detail/86",
            "website": "insurance.grab-sure.com/pax/id#/"
        },
        {
            "id": "9cb1ab7b-c3f0-48bd-b559-73bbd155a10c",
            "nama_pse": "MILLIONAIRE GROUP INDONESIA",
            "nama_se": "MCI WORLD",
            "sektor": "Sektor Perdagangan, Sektor Perdagangan",
            "tanggal_terbit": "2021-02-23",
            "url_tdpse_detail": "https://pse.komdigi.go.id/tdpse-detail/87",
            "website": "mci-world.com"
        },
        {
            "id": "9cb1ab7b-c6f9-41b9-92a1-876073c030b0",
            "nama_pse": "CATCHA LINTAS MEDIA",
            "nama_se": "CATCHADEAL.ID",
            "sektor": "Sektor Teknologi Informasi dan Komunikasi, Sektor Teknologi Informasi dan Komunikasi",
            "tanggal_terbit": "2021-02-23",
            "url_tdpse_detail": "https://pse.komdigi.go.id/tdpse-detail/60",
            "website": "catchadeal.id"
        },
        {
            "id": "9cb1ab83-ad20-429e-8578-b155e323bf6b",
            "nama_pse": "XIAOMI COMMUNICATIONS INDONESIA",
            "nama_se": "POCO, POWERED BY XIAOMI",
            "sektor": "Sektor Perdagangan, Sektor Perdagangan",
            "tanggal_terbit": "2021-02-23",
            "url_tdpse_detail": "https://pse.komdigi.go.id/tdpse-detail/109",
            "website": "Po.co.id"
        },
        {
            "id": "9cb1ab7b-ce1d-4c5c-b0e4-d610668f5a19",
            "nama_pse": "Simpan Pinjam Persik Kuning Indonesia",
            "nama_se": "OPTIMA",
            "sektor": "Sektor Keuangan, Sektor Keuangan",
            "tanggal_terbit": "2021-02-23",
            "url_tdpse_detail": "https://pse.komdigi.go.id/tdpse-detail/79",
            "website": "-"
        },
        {
            "id": "9cb1ab8b-79ba-434b-b624-c8afa3b29c2a",
            "nama_pse": "SIMPAN PINJAM LIMA RIBU LIMA",
            "nama_se": "PRIMA TUNAI",
            "sektor": "Sektor Keuangan, Sektor Keuangan",
            "tanggal_terbit": "2021-02-23",
            "url_tdpse_detail": "https://pse.komdigi.go.id/tdpse-detail/69",
            "website": "-"
        },
        {
            "id": "9cb1ab83-b905-4d04-8701-a522e1d2a708",
            "nama_pse": "MEDIA LINTAS ONE",
            "nama_se": "PORTAL BERITA WEBSITE SECARA ONLINE",
            "sektor": "Sektor Perdagangan, Sektor Perdagangan, Sektor Teknologi Informasi dan Komunikasi, Sektor Teknologi Informasi dan Komunikasi",
            "tanggal_terbit": "2021-02-23",
            "url_tdpse_detail": "https://pse.komdigi.go.id/tdpse-detail/111",
            "website": "lintasone.com"
        },
        {
            "id": "9cb1ab7b-d13b-4876-8e96-3e8d83435edd",
            "nama_pse": "KONTEN KARYA KREATIF",
            "nama_se": "EDUON",
            "sektor": "Sektor Perdagangan, Sektor Perdagangan, Sektor Teknologi Informasi dan Komunikasi, Sektor Teknologi Informasi dan Komunikasi",
            "tanggal_terbit": "2021-02-23",
            "url_tdpse_detail": "https://pse.komdigi.go.id/tdpse-detail/51",
            "website": "eduon.id"
        },
        {
            "id": "9cb1ab83-bba8-4af9-acf7-b385a0582c9d",
            "nama_pse": "UNICITY INDONESIA",
            "nama_se": "HTTP://WWW.UNICITY.COM",
            "sektor": "Sektor Perdagangan, Sektor Perdagangan",
            "tanggal_terbit": "2021-02-23",
            "url_tdpse_detail": "https://pse.komdigi.go.id/tdpse-detail/28",
            "website": "unicity.com"
        },
        {
            "id": "9cb1ab8b-987c-41d6-be88-016902eda513",
            "nama_pse": "PADI INDAH DISTRIBUSI",
            "nama_se": "PERPUSKITA",
            "sektor": "Sektor Teknologi Informasi dan Komunikasi, Sektor Teknologi Informasi dan Komunikasi",
            "tanggal_terbit": "2021-02-23",
            "url_tdpse_detail": "https://pse.komdigi.go.id/tdpse-detail/30",
            "website": "perpuskita.id"
        },
        {
            "id": "9cb1ab7b-d463-494c-aa3b-53e4cd98247c",
            "nama_pse": "PADI INDAH DISTRIBUSI",
            "nama_se": "KELASPEDIA",
            "sektor": "Sektor Teknologi Informasi dan Komunikasi, Sektor Teknologi Informasi dan Komunikasi",
            "tanggal_terbit": "2021-02-23",
            "url_tdpse_detail": "https://pse.komdigi.go.id/tdpse-detail/33",
            "website": "kelaspedia.id"
        },
        {
            "id": "9cb1ab83-c55b-4315-a67b-d2eb639329ab",
            "nama_pse": "PADI INDAH DISTRIBUSI",
            "nama_se": "T-SMARTOFFICE",
            "sektor": "Sektor Teknologi Informasi dan Komunikasi, Sektor Teknologi Informasi dan Komunikasi",
            "tanggal_terbit": "2021-02-23",
            "url_tdpse_detail": "https://pse.komdigi.go.id/tdpse-detail/34",
            "website": "t-smartoffice.com"
        },
        {
            "id": "9cb1ab7b-da08-4262-8338-bbdce62c8cf0",
            "nama_pse": "JASUINDO TIGA PERKASA",
            "nama_se": "ESIGN",
            "sektor": "Sektor Teknologi Informasi dan Komunikasi, Sektor Teknologi Informasi dan Komunikasi",
            "tanggal_terbit": "2021-02-23",
            "url_tdpse_detail": "https://pse.komdigi.go.id/tdpse-detail/38",
            "website": "esign.id/"
        },
        {
            "id": "9cb1ab83-cac6-4565-bad2-ed9fde93a41d",
            "nama_pse": "DUTA ELOK PERSADA",
            "nama_se": "HTTPS://NUAMOOREAINDONESIA.COM/",
            "sektor": "Sektor Perdagangan, Sektor Perdagangan",
            "tanggal_terbit": "2021-02-23",
            "url_tdpse_detail": "https://pse.komdigi.go.id/tdpse-detail/84",
            "website": "nuamooreaindonesia.com"
        },
        {
            "id": "9cb1ab8b-b11c-46e7-aa34-be4ff52da8ba",
            "nama_pse": "TRUCKKING LINTAS SARANA",
            "nama_se": "TRUCKKING",
            "sektor": "Sektor Transportasi, Sektor Transportasi",
            "tanggal_terbit": "2021-02-23",
            "url_tdpse_detail": "https://pse.komdigi.go.id/tdpse-detail/54",
            "website": "truckking.id"
        },
        {
            "id": "9cb1ab7b-dfc6-453a-a437-8886b1506b62",
            "nama_pse": "YOMARI EKSIS SERENTAK",
            "nama_se": "YOMARI INTERNATIONAL",
            "sektor": "Sektor Perdagangan, Sektor Perdagangan",
            "tanggal_terbit": "2021-02-23",
            "url_tdpse_detail": "https://pse.komdigi.go.id/tdpse-detail/105",
            "website": "yomariinternational.com"
        },
        {
            "id": "9cb1ab7b-e2a3-49df-9093-6c6904df4286",
            "nama_pse": "JUALI TEKNOLOGI INDONESIA",
            "nama_se": "KITABELI",
            "sektor": "Sektor Perdagangan, Sektor Perdagangan, Sektor Perdagangan",
            "tanggal_terbit": "2021-02-23",
            "url_tdpse_detail": "https://pse.komdigi.go.id/tdpse-detail/110",
            "website": "kitabeli.id"
        },
        {
            "id": "9cb1ab8b-baf8-4909-9d21-9cbe3b94f305",
            "nama_pse": "BOLEH DICOBA DIGITAL",
            "nama_se": "BOLEH DICOBA DIGITAL",
            "sektor": "Sektor Perdagangan, Sektor Perdagangan",
            "tanggal_terbit": "2021-02-23",
            "url_tdpse_detail": "https://pse.komdigi.go.id/tdpse-detail/74",
            "website": "bolehdicoba.com"
        },
        {
            "id": "9cb1ab7b-e583-4336-9adb-9d90ae3ab3ce",
            "nama_pse": "ASURANSI CIGNA",
            "nama_se": "PUNYA.CIGNA",
            "sektor": "Sektor Keuangan, Sektor Keuangan",
            "tanggal_terbit": "2021-02-23",
            "url_tdpse_detail": "https://pse.komdigi.go.id/tdpse-detail/40",
            "website": "punya.cigna.co.id"
        },
        {
            "id": "9cb1ab83-dc32-4de2-b7d1-ad5f6822eca4",
            "nama_pse": "AMAN DIGITAL KAPITAL INDONESIA",
            "nama_se": "AMAN DIGITAL",
            "sektor": "Sektor Teknologi Informasi dan Komunikasi, Sektor Teknologi Informasi dan Komunikasi",
            "tanggal_terbit": "2021-02-23",
            "url_tdpse_detail": "https://pse.komdigi.go.id/tdpse-detail/125",
            "website": "amandigital.id"
        },
        {
            "id": "9cb1ab83-df2d-4430-9abd-dcef760a5c54",
            "nama_pse": "SIMAS POIN INDONESIA",
            "nama_se": "STARPOIN",
            "sektor": "Sektor Teknologi Informasi dan Komunikasi, Sektor Teknologi Informasi dan Komunikasi",
            "tanggal_terbit": "2021-02-23",
            "url_tdpse_detail": "https://pse.komdigi.go.id/tdpse-detail/37",
            "website": "starpoin.id"
        },
        {
            "id": "9cb1ab83-e27b-4411-9e7e-e7a1e5fde9ae",
            "nama_pse": "MEDIKA KOMUNIKA TEKNOLOGI",
            "nama_se": "KLIKDIABETES",
            "sektor": "Sektor Perdagangan, Sektor Perdagangan, Sektor Kesehatan, Sektor Kesehatan, Sektor Teknologi Informasi dan Komunikasi, Sektor Teknologi Informasi dan Komunikasi",
            "tanggal_terbit": "2021-02-23",
            "url_tdpse_detail": "https://pse.komdigi.go.id/tdpse-detail/91",
            "website": "klikdiabetes.com"
        },
        {
            "id": "9cb1ab83-e62f-40cc-8145-03a23d777e1d",
            "nama_pse": "GUDANG LOGISTIK GLOBALINDO",
            "nama_se": "GUDANGADA LOGISTIK",
            "sektor": "Sektor Transportasi, Sektor Transportasi",
            "tanggal_terbit": "2021-02-23",
            "url_tdpse_detail": "https://pse.komdigi.go.id/tdpse-detail/92",
            "website": "gudanglogistik.id"
        },
        {
            "id": "9cb1ab83-e914-44a3-982a-5888d501bea1",
            "nama_pse": "GUDANG ADA GLOBALINDO",
            "nama_se": "GUDANGADA",
            "sektor": "Sektor Perdagangan, Sektor Perdagangan, Sektor Perdagangan",
            "tanggal_terbit": "2021-02-23",
            "url_tdpse_detail": "https://pse.komdigi.go.id/tdpse-detail/113",
            "website": "gudangada.id"
        },
        {
            "id": "9cb1ab83-eb6a-4af9-b9f5-f41f2fd729fb",
            "nama_pse": "BIMA REGISTRA",
            "nama_se": "ERUPS",
            "sektor": "Sektor Keuangan, Sektor Keuangan",
            "tanggal_terbit": "2021-02-23",
            "url_tdpse_detail": "https://pse.komdigi.go.id/tdpse-detail/36",
            "website": "rups.bimaregistra.co.id"
        },
        {
            "id": "9cb1ab8b-da4f-459c-8536-99ce56e4be1f",
            "nama_pse": "PRIMA ANUGERAH PASER",
            "nama_se": "NMC BORNEO",
            "sektor": "Sektor Teknologi Informasi dan Komunikasi, Sektor Teknologi Informasi dan Komunikasi",
            "tanggal_terbit": "2021-02-23",
            "url_tdpse_detail": "https://pse.komdigi.go.id/tdpse-detail/65",
            "website": "nmcborneo.com"
        },
        {
            "id": "9cb1ab83-f036-4673-8216-2f356dc32941",
            "nama_pse": "MOOKEE AURANERS INDONESIA",
            "nama_se": "MOOKEE",
            "sektor": "Sektor Perdagangan, Sektor Perdagangan",
            "tanggal_terbit": "2021-02-23",
            "url_tdpse_detail": "https://pse.komdigi.go.id/tdpse-detail/48",
            "website": "mookee.co.id"
        },
        {
            "id": "9cb1ab7c-2b44-4977-b47c-b47665d5f113",
            "nama_pse": "DESTY KARSA WESYA",
            "nama_se": "DESTY",
            "sektor": "Sektor Perdagangan, Sektor Perdagangan, Sektor Teknologi Informasi dan Komunikasi, Sektor Teknologi Informasi dan Komunikasi",
            "tanggal_terbit": "2021-02-23",
            "url_tdpse_detail": "https://pse.komdigi.go.id/tdpse-detail/62",
            "website": "desty.app/"
        },
        {
            "id": "9cb1ab8b-e043-43f7-b6e0-65dfe36477b5",
            "nama_pse": "DESTY KARSA WESYA",
            "nama_se": "DESTY",
            "sektor": "Sektor Perdagangan, Sektor Perdagangan, Sektor Teknologi Informasi dan Komunikasi, Sektor Teknologi Informasi dan Komunikasi",
            "tanggal_terbit": "2021-02-23",
            "url_tdpse_detail": "https://pse.komdigi.go.id/tdpse-detail/63",
            "website": "desty.app/"
        },
        {
            "id": "9cb1ab8b-ef76-4a76-ae26-7a891d82b55e",
            "nama_pse": "DJELAS TANDATANGAN BERSAMA",
            "nama_se": "TEKEN AJA!",
            "sektor": "Sektor Teknologi Informasi dan Komunikasi, Sektor Teknologi Informasi dan Komunikasi",
            "tanggal_terbit": "2021-02-23",
            "url_tdpse_detail": "https://pse.komdigi.go.id/tdpse-detail/43",
            "website": "djelas.id"
        },
        {
            "id": "9cb1ab7c-2e46-41bc-aa7f-c848d7a77cac",
            "nama_pse": "MADEEL TEKHNOLOGI INDONESIA",
            "nama_se": "BDRIVE",
            "sektor": "Sektor Perdagangan, Sektor Perdagangan, Sektor Transportasi, Sektor Transportasi",
            "tanggal_terbit": "2021-02-23",
            "url_tdpse_detail": "https://pse.komdigi.go.id/tdpse-detail/98",
            "website": "bdrive.id"
        },
        {
            "id": "9cb1ab8b-f9c2-459b-a7b2-d6973342fa97",
            "nama_pse": "PLUS ULTRA ABADI",
            "nama_se": "UATAS",
            "sektor": "Sektor Keuangan, Sektor Keuangan",
            "tanggal_terbit": "2021-02-23",
            "url_tdpse_detail": "https://pse.komdigi.go.id/tdpse-detail/78",
            "website": "uatas.id"
        },
        {
            "id": "9cb1ab84-05ed-4f06-bf30-829cd46be814",
            "nama_pse": "ORINDO ALAM AYU",
            "nama_se": "WWW.ORIFLAME.CO.ID",
            "sektor": "Sektor Perdagangan, Sektor Perdagangan",
            "tanggal_terbit": "2021-02-23",
            "url_tdpse_detail": "https://pse.komdigi.go.id/tdpse-detail/85",
            "website": "oriflame.co.id"
        },
        {
            "id": "9cb1ab7c-4f7b-48bf-9649-8e8250d9bdfe",
            "nama_pse": "DIMENSI GENERASI TEKNOLOGI",
            "nama_se": "MARKETPLACE HOOURA",
            "sektor": "Sektor Perdagangan, Sektor Perdagangan",
            "tanggal_terbit": "2021-02-23",
            "url_tdpse_detail": "https://pse.komdigi.go.id/tdpse-detail/53",
            "website": "hooura.com"
        },
        {
            "id": "9cb1ab84-0c96-48d0-b8a6-85e6e4f9cce6",
            "nama_pse": "AMANTRA INVESTAMA INDODANA",
            "nama_se": "VISIKU.CO.ID",
            "sektor": "Sektor Keuangan, Sektor Teknologi Informasi dan Komunikasi",
            "tanggal_terbit": "2021-02-23",
            "url_tdpse_detail": "https://pse.komdigi.go.id/tdpse-detail/52",
            "website": "visiku.co.id"
        },
        {
            "id": "9cb1ab84-10da-470a-b6b6-6e8ce387c887",
            "nama_pse": "SOLUSI KEUANGAN MERAH PUTIH",
            "nama_se": "HTTPS://SOLUSIMERAHPUTIH.ID",
            "sektor": "Sektor Keuangan, Sektor Keuangan, Sektor Keuangan, Sektor Keuangan, Sektor Keuangan, Sektor Keuangan, Sektor Teknologi Informasi dan Komunikasi, Sektor Teknologi Informasi dan Komunikasi, Sektor Teknologi Informasi dan Komunikasi, Sektor Teknologi Informasi dan Komunikasi, Sektor Teknologi Informasi dan Komunikasi, Sektor Teknologi Informasi dan Komunikasi",
            "tanggal_terbit": "2021-02-23",
            "url_tdpse_detail": "https://pse.komdigi.go.id/tdpse-detail/76",
            "website": "solusimerahputih.id"
        }
    ],
    "processingTimeMs": 19,
    "query": "",
    "totalHits": 19121,
    "hitsPerPage": 50,
    "page": 381,
    "totalPages": 383
}