{
    "hits": [
        {
            "id": "9cb1ab63-5352-4234-bcef-6ca908878352",
            "nama_pse": "JARINGAN CEPAT INDONESIA",
            "nama_se": "JARPATINDO",
            "sektor": "Sektor Teknologi Informasi dan Komunikasi, Sektor Teknologi Informasi dan Komunikasi, Sektor Teknologi Informasi dan Komunikasi",
            "tanggal_terbit": "2021-04-26",
            "url_tdpse_detail": "https://pse.komdigi.go.id/tdpse-detail/711",
            "website": "jarpatindo.com"
        },
        {
            "id": "9cb1ab62-b231-413b-b333-7c306403b403",
            "nama_pse": "STEVE ZIO GAMES",
            "nama_se": "STEVE DOMINO QIUQIU POKER SLOTS GAME ONLINE",
            "sektor": "Sektor Perdagangan, Sektor Perdagangan, Sektor Teknologi Informasi dan Komunikasi, Sektor Teknologi Informasi dan Komunikasi",
            "tanggal_terbit": "2021-04-20",
            "url_tdpse_detail": "https://pse.komdigi.go.id/tdpse-detail/523",
            "website": "steveziogames.com"
        },
        {
            "id": "9cb1ab62-7630-48b5-a4ff-b2db138fd866",
            "nama_pse": "ORBITIN BISNIS INDONESIA",
            "nama_se": "ORBITIN BISNIS",
            "sektor": "Sektor Perdagangan, Sektor Perdagangan, Sektor Teknologi Informasi dan Komunikasi, Sektor Teknologi Informasi dan Komunikasi",
            "tanggal_terbit": "2021-04-20",
            "url_tdpse_detail": "https://pse.komdigi.go.id/tdpse-detail/521",
            "website": "orbitinbisnis.com"
        },
        {
            "id": "9cb1ab64-9fd0-4ab5-a0d8-038083b0f567",
            "nama_pse": "IGROW RESOURCES INDONESIA",
            "nama_se": "IGROW",
            "sektor": "Sektor Keuangan, Sektor Teknologi Informasi dan Komunikasi",
            "tanggal_terbit": "2021-04-14",
            "url_tdpse_detail": "https://pse.komdigi.go.id/tdpse-detail/449",
            "website": "igrow.asia"
        },
        {
            "id": "9cb1ab64-d49f-4dd5-84f3-8fbc13c2731c",
            "nama_pse": "SIMPAN PINJAM RAYA PUTRA MANDIRI",
            "nama_se": "DOMPET KITA",
            "sektor": "Sektor Teknologi Informasi dan Komunikasi, Sektor Teknologi Informasi dan Komunikasi",
            "tanggal_terbit": "2021-03-15",
            "url_tdpse_detail": "https://pse.komdigi.go.id/tdpse-detail/375",
            "website": "dompetkita.com"
        },
        {
            "id": "9cb1ab64-6c60-40e0-ba98-9fd4c1e09b41",
            "nama_pse": "EXIMKU LOGISTIK INDONESIA",
            "nama_se": "ANDALIN.COM",
            "sektor": "Sektor Transportasi, Sektor Transportasi",
            "tanggal_terbit": "2021-03-09",
            "url_tdpse_detail": "https://pse.komdigi.go.id/tdpse-detail/352",
            "website": "andalin.com"
        },
        {
            "id": "9cb1ab64-6e54-4855-a54d-16d27a7c6b78",
            "nama_pse": "EXIMKU LOGISTIK INDONESIA",
            "nama_se": "FREIGHTPAIR.COM",
            "sektor": "Sektor Transportasi, Sektor Transportasi",
            "tanggal_terbit": "2021-03-09",
            "url_tdpse_detail": "https://pse.komdigi.go.id/tdpse-detail/353",
            "website": "freightpair.com"
        },
        {
            "id": "9cb1ab61-d2c5-40c2-9f62-3fef6bd42661",
            "nama_pse": "TEKNOLOGI USAHA SUKSES BERSAMA",
            "nama_se": "MYLAWYERS - LAYANAN HUKUM ONLINE UNTUK KONSULTASI DAN PEMROSESAN DOKUMEN",
            "sektor": "Sektor Perdagangan, Sektor Perdagangan, Sektor Teknologi Informasi dan Komunikasi, Sektor Teknologi Informasi dan Komunikasi",
            "tanggal_terbit": "2021-03-05",
            "url_tdpse_detail": "https://pse.komdigi.go.id/tdpse-detail/328",
            "website": "mylawyers.id"
        },
        {
            "id": "9cb1ab7d-0da0-45db-b374-21e345fd323e",
            "nama_pse": "ARWIC TECHNOLOGI SOLUSINDO",
            "nama_se": "I-SALES UNTUK TELESALES",
            "sektor": "Sektor Teknologi Informasi dan Komunikasi, Sektor Teknologi Informasi dan Komunikasi",
            "tanggal_terbit": "2021-02-24",
            "url_tdpse_detail": "https://pse.komdigi.go.id/tdpse-detail/145",
            "website": "arwics.com"
        },
        {
            "id": "9cb1ab7d-34e1-4651-872b-ca505fafe69d",
            "nama_pse": "KONSUMEN KOLABORASI SEJAHTERA ABADI",
            "nama_se": "PINJEMSAJA",
            "sektor": "Sektor Keuangan, Sektor Keuangan",
            "tanggal_terbit": "2021-02-24",
            "url_tdpse_detail": "https://pse.komdigi.go.id/tdpse-detail/158",
            "website": "pinjemsaja.id"
        },
        {
            "id": "9cb1ab84-8cab-4ba8-9cef-c1db051e9256",
            "nama_pse": "SIMPAN PINJAM MARDA RIMA ESA",
            "nama_se": "SETOR TUNAI",
            "sektor": "Sektor Keuangan, Sektor Keuangan",
            "tanggal_terbit": "2021-02-23",
            "url_tdpse_detail": "https://pse.komdigi.go.id/tdpse-detail/96",
            "website": "-"
        },
        {
            "id": "9cb1ab8c-1e97-46eb-9991-2c5eb5025172",
            "nama_pse": "KITA SUPER TIM",
            "nama_se": "GOODEDU PLATFORM PEMBELAJARAN DARING SATU PINTU",
            "sektor": "Sektor Perdagangan, Sektor Perdagangan, Sektor Teknologi Informasi dan Komunikasi, Sektor Teknologi Informasi dan Komunikasi",
            "tanggal_terbit": "2021-02-23",
            "url_tdpse_detail": "https://pse.komdigi.go.id/tdpse-detail/107",
            "website": "goodedu.id"
        },
        {
            "id": "9cb1ab8a-ffb4-4274-ae40-5c6199edd6ba",
            "nama_pse": "DIGITAL INTERAKTIF INDONESIA",
            "nama_se": "ASAKITA",
            "sektor": "Sektor Keuangan, Sektor Keuangan",
            "tanggal_terbit": "2021-02-20",
            "url_tdpse_detail": "https://pse.komdigi.go.id/tdpse-detail/16",
            "website": "asakita.id"
        },
        {
            "id": "9cb1ab7b-ab2e-46b2-a913-6f6e1b37ffe5",
            "nama_pse": "XL PLANET",
            "nama_se": "ELEVENIA",
            "sektor": "Sektor Perdagangan, Sektor Perdagangan",
            "tanggal_terbit": "2021-02-18",
            "url_tdpse_detail": "https://pse.komdigi.go.id/tdpse-detail/11",
            "website": "elevenia.co.id"
        }
    ],
    "processingTimeMs": 0,
    "query": "",
    "totalHits": 414,
    "hitsPerPage": 50,
    "page": 9,
    "totalPages": 9
}