{
    "hits": [
        {
            "id": "9cb1ac3b-28de-4984-a80f-4e14d6a4b568",
            "nama_pse": "KREASI TUNAS CERDAS",
            "nama_se": "BATTLE CHICKEN",
            "sektor": "Sektor Teknologi Informasi dan Komunikasi",
            "tanggal_terbit": "2023-09-06",
            "url_tdpse_detail": "https://pse.komdigi.go.id/tdpse-detail/15860",
            "website": "battlechickengame.com"
        },
        {
            "id": "9cb1ac4a-aa71-4979-8e97-b3c804977c96",
            "nama_pse": "MODERN MEKAR ABADI",
            "nama_se": "OUTERBLOOM",
            "sektor": "Sektor Perdagangan",
            "tanggal_terbit": "2023-09-06",
            "url_tdpse_detail": "https://pse.komdigi.go.id/tdpse-detail/15849",
            "website": "outerbloom.com"
        },
        {
            "id": "9cb1ac4a-cac2-4477-9bd0-beb206d467c2",
            "nama_pse": "MUHAMMAD ANDI PRADANI",
            "nama_se": "AGEN DAN AO PRIORITAS",
            "sektor": "Sektor Teknologi Informasi dan Komunikasi",
            "tanggal_terbit": "2023-09-06",
            "url_tdpse_detail": "https://pse.komdigi.go.id/tdpse-detail/15847",
            "website": "-"
        },
        {
            "id": "9cb1ac3b-462d-4736-9758-fdd731586c5a",
            "nama_pse": "GERBANG ANDALAN SEJAHTERA",
            "nama_se": "WEBSITE",
            "sektor": "Sektor Perdagangan",
            "tanggal_terbit": "2023-09-06",
            "url_tdpse_detail": "https://pse.komdigi.go.id/tdpse-detail/15852",
            "website": "-"
        },
        {
            "id": "9cb1ac3b-49a0-4599-b6be-7970ad494455",
            "nama_pse": "MITRA AGUNG TANGGUH ABADI",
            "nama_se": "ADMINKITA",
            "sektor": "Sektor Perdagangan",
            "tanggal_terbit": "2023-09-06",
            "url_tdpse_detail": "https://pse.komdigi.go.id/tdpse-detail/15850",
            "website": "adminkita.com"
        },
        {
            "id": "9cb1ac4a-ce0f-48a6-954d-d01e09c4f057",
            "nama_pse": "DOCKING HOST INDONESIA",
            "nama_se": "PT DOCKING HOST INDONESIA",
            "sektor": "Sektor Teknologi Informasi dan Komunikasi",
            "tanggal_terbit": "2023-09-06",
            "url_tdpse_detail": "https://pse.komdigi.go.id/tdpse-detail/15851",
            "website": "dockinghost.com"
        },
        {
            "id": "9cb1ac4a-d4b3-4385-ab0a-e54aca167136",
            "nama_pse": "INDONESIA SATU TUJUH",
            "nama_se": "DIGITAL PARTNER ACTIVATION",
            "sektor": "Sektor Teknologi Informasi dan Komunikasi",
            "tanggal_terbit": "2023-09-06",
            "url_tdpse_detail": "https://pse.komdigi.go.id/tdpse-detail/15856",
            "website": "digipac.id"
        },
        {
            "id": "9cb1ac3b-4cb5-4d13-8981-b9fc1531e22a",
            "nama_pse": "RIYANTO DAN REKAN",
            "nama_se": "WWW.JASAPENGACARA.ID",
            "sektor": "Sektor Perdagangan",
            "tanggal_terbit": "2023-09-06",
            "url_tdpse_detail": "https://pse.komdigi.go.id/tdpse-detail/15853",
            "website": "jasapengacara.id"
        },
        {
            "id": "9cb1ac3b-5354-444a-a6c7-6db2a3a4d858",
            "nama_pse": "KERJASAMA MITRA BISNIS",
            "nama_se": "ASSOCIE",
            "sektor": "Sektor Perdagangan, Sektor Teknologi Informasi dan Komunikasi",
            "tanggal_terbit": "2023-09-06",
            "url_tdpse_detail": "https://pse.komdigi.go.id/tdpse-detail/15854",
            "website": "associe.co.id"
        },
        {
            "id": "9cb1ac3b-55f2-4f30-89a8-ab49f20abc48",
            "nama_pse": "PERUSAHAAN PERSEROAN (PERSERO) PT. TELEKOMUNIKASI INDONESIA",
            "nama_se": "SENTRA SATU NADI",
            "sektor": "Sektor Kesehatan",
            "tanggal_terbit": "2023-09-06",
            "url_tdpse_detail": "https://pse.komdigi.go.id/tdpse-detail/15855",
            "website": "-"
        },
        {
            "id": "9cb1ac3b-58c5-4a46-850d-6ad3ff09ed75",
            "nama_pse": "MITRA AKSES GLOBALINDO",
            "nama_se": "LIVINETKU",
            "sektor": "Sektor Teknologi Informasi dan Komunikasi",
            "tanggal_terbit": "2023-09-06",
            "url_tdpse_detail": "https://pse.komdigi.go.id/tdpse-detail/15857",
            "website": "portal.livinet.id"
        },
        {
            "id": "9cb1ac3b-5b23-439c-b3ce-b3e8168f0cef",
            "nama_pse": "AMELIORE SOLUSI ANALITIKA",
            "nama_se": "AIDIA MEDICARE SYSTEM",
            "sektor": "Sektor Teknologi Informasi dan Komunikasi",
            "tanggal_terbit": "2023-09-06",
            "url_tdpse_detail": "https://pse.komdigi.go.id/tdpse-detail/15858",
            "website": "aidia-medicare.com"
        },
        {
            "id": "9cb1ac4a-db71-4230-9751-5d17b58f996e",
            "nama_pse": "MITRA EGI MBS NEWS",
            "nama_se": "MITRAMABESNEWS.ID",
            "sektor": "Sektor Teknologi Informasi dan Komunikasi",
            "tanggal_terbit": "2023-09-06",
            "url_tdpse_detail": "https://pse.komdigi.go.id/tdpse-detail/15861",
            "website": "mitramabesnews.id"
        },
        {
            "id": "9cb1ac4a-df83-46b2-baee-678fe351edad",
            "nama_pse": "KREASI TUNAS CERDAS",
            "nama_se": "FARM VENTURE",
            "sektor": "Sektor Teknologi Informasi dan Komunikasi",
            "tanggal_terbit": "2023-09-06",
            "url_tdpse_detail": "https://pse.komdigi.go.id/tdpse-detail/15862",
            "website": "farmventuregame.com"
        },
        {
            "id": "9cb1ac3b-6107-4895-b834-7b9d8be73610",
            "nama_pse": "DARMA PERSADA INDONESIA",
            "nama_se": "DARMA PERSADA INDONESIA",
            "sektor": "Sektor Perdagangan, Sektor Teknologi Informasi dan Komunikasi",
            "tanggal_terbit": "2023-09-06",
            "url_tdpse_detail": "https://pse.komdigi.go.id/tdpse-detail/15863",
            "website": "darmapersada.biz.id"
        },
        {
            "id": "9cb1ac3b-430c-412c-860f-fea2f9397b79",
            "nama_pse": "MAHKOTA BERKAH SEMESTA",
            "nama_se": "MAHKOTA BERKAH SEMESTA SOFTWARE HOUSE ENGINEER",
            "sektor": "Sektor Teknologi Informasi dan Komunikasi",
            "tanggal_terbit": "2023-09-06",
            "url_tdpse_detail": "https://pse.komdigi.go.id/tdpse-detail/15859",
            "website": "-"
        },
        {
            "id": "9cb1ac28-4e98-4b67-8db8-f177240dd428",
            "nama_pse": "ALDO INDONESIA ADIPERKASA RITEL",
            "nama_se": "WWW.ALDOSHOES.CO.ID",
            "sektor": "Sektor Perdagangan",
            "tanggal_terbit": "2023-09-05",
            "url_tdpse_detail": "https://pse.komdigi.go.id/tdpse-detail/15835",
            "website": "aldoshoes.co.id"
        },
        {
            "id": "9cb1ac3b-2bbc-41cf-b4e1-facc22a0a905",
            "nama_pse": "RUMAH SAKIT UMUM AISYIYAH PONOROGO",
            "nama_se": "SIMARSA (SISTEM INFORMASI MANAJEMEN RUMAH SAKIT UMUM AISYIYAH POHOROGO)",
            "sektor": "Sektor Kesehatan",
            "tanggal_terbit": "2023-09-05",
            "url_tdpse_detail": "https://pse.komdigi.go.id/tdpse-detail/15834",
            "website": "rsuaisyiyahponorogo.com"
        },
        {
            "id": "9cb1ac4a-950e-4858-adc6-055c12bc6f83",
            "nama_pse": "AMANAH KESEHATAN UMAT",
            "nama_se": "SIMRS KHANZA",
            "sektor": "Sektor Kesehatan",
            "tanggal_terbit": "2023-09-05",
            "url_tdpse_detail": "https://pse.komdigi.go.id/tdpse-detail/15833",
            "website": "rsamanahumat.id"
        },
        {
            "id": "9cb1ac28-9cd5-4661-8924-43d826d0bb6e",
            "nama_pse": "PATRA NUSA DATA",
            "nama_se": "PT PATRA NUSA DATA",
            "sektor": "Sektor Perdagangan",
            "tanggal_terbit": "2023-09-05",
            "url_tdpse_detail": "https://pse.komdigi.go.id/tdpse-detail/15841",
            "website": "patranusa.com"
        },
        {
            "id": "9cb1ac28-a181-4359-8ee1-72a76dfe3210",
            "nama_pse": "INDONESIA JUARA SEMESTA",
            "nama_se": "NF JUARA",
            "sektor": "Sektor Teknologi Informasi dan Komunikasi",
            "tanggal_terbit": "2023-09-05",
            "url_tdpse_detail": "https://pse.komdigi.go.id/tdpse-detail/15840",
            "website": "nfjuara.id"
        },
        {
            "id": "9cb1ac28-a493-432f-9e99-c531dbe2cc04",
            "nama_pse": "MAP AKTIF ADIPERKASA",
            "nama_se": "WWW.FITFLOP.CO.ID",
            "sektor": "Sektor Perdagangan",
            "tanggal_terbit": "2023-09-05",
            "url_tdpse_detail": "https://pse.komdigi.go.id/tdpse-detail/15836",
            "website": "fitflop.co.id"
        },
        {
            "id": "9cb1ac3b-3bcc-4888-84ef-9010a94a020a",
            "nama_pse": "LIKUID JAYA INISIASI",
            "nama_se": "KONSER.CO.ID",
            "sektor": "Sektor Teknologi Informasi dan Komunikasi",
            "tanggal_terbit": "2023-09-05",
            "url_tdpse_detail": "https://pse.komdigi.go.id/tdpse-detail/15838",
            "website": "konser.co.id"
        },
        {
            "id": "9cb1ac28-a957-4205-9f9e-85a65a3a4122",
            "nama_pse": "GANESHA ABADI SEJAHTERA",
            "nama_se": "GANESHAABADI.COM",
            "sektor": "Sektor Teknologi Informasi dan Komunikasi",
            "tanggal_terbit": "2023-09-05",
            "url_tdpse_detail": "https://pse.komdigi.go.id/tdpse-detail/15837",
            "website": "ganeshaabadi.com"
        },
        {
            "id": "9cb1ac3b-405d-4591-b1b9-1ea29cf96195",
            "nama_pse": "INTEGRASI KARYA ANAK NUSANTARA",
            "nama_se": "SERVICEYUK",
            "sektor": "Sektor Perdagangan, Sektor Teknologi Informasi dan Komunikasi",
            "tanggal_terbit": "2023-09-05",
            "url_tdpse_detail": "https://pse.komdigi.go.id/tdpse-detail/15839",
            "website": "serviceyuk.id"
        },
        {
            "id": "9cb1ac4a-a6e4-4425-a08c-9d8745e7eb1a",
            "nama_pse": "BINA NUSANTARA",
            "nama_se": "HTTPS://SATU.AC.ID/",
            "sektor": "Sektor Teknologi Informasi dan Komunikasi",
            "tanggal_terbit": "2023-09-05",
            "url_tdpse_detail": "https://pse.komdigi.go.id/tdpse-detail/15842",
            "website": "satu.ac.id"
        },
        {
            "id": "9cb1ac4a-ae7d-4281-b4a0-c6c7770d0d89",
            "nama_pse": "INDOSTAR SOLUSI KITA",
            "nama_se": "INDOSTAR SOLUSI KITA",
            "sektor": "Sektor Teknologi Informasi dan Komunikasi",
            "tanggal_terbit": "2023-09-05",
            "url_tdpse_detail": "https://pse.komdigi.go.id/tdpse-detail/15843",
            "website": "-"
        },
        {
            "id": "9cb1ac4a-b630-44d0-9238-1a6cc6d68aa0",
            "nama_pse": "AIRPAZ INTERNASIONAL INDONESIA",
            "nama_se": "AIRPAZ",
            "sektor": "Sektor Perdagangan",
            "tanggal_terbit": "2023-09-05",
            "url_tdpse_detail": "https://pse.komdigi.go.id/tdpse-detail/15844",
            "website": "airpaz.com"
        },
        {
            "id": "9cb1ac4a-c29a-4995-9ebb-fe0f0e4b3183",
            "nama_pse": "MAHIR DIGITAL EDUKASI",
            "nama_se": "MAHIR",
            "sektor": "Sektor Teknologi Informasi dan Komunikasi",
            "tanggal_terbit": "2023-09-05",
            "url_tdpse_detail": "https://pse.komdigi.go.id/tdpse-detail/15845",
            "website": "mahir.or.id"
        },
        {
            "id": "9cb1ac4a-c7f1-4295-b3b6-934b4088fb01",
            "nama_pse": "MAHIR DIGITAL EDUKASI",
            "nama_se": "DIKSI",
            "sektor": "Sektor Teknologi Informasi dan Komunikasi",
            "tanggal_terbit": "2023-09-05",
            "url_tdpse_detail": "https://pse.komdigi.go.id/tdpse-detail/15846",
            "website": "diksi.or.id"
        },
        {
            "id": "9cb1ac49-857f-4b04-a6cb-b2f454aa548c",
            "nama_pse": "USAHA SOLUSI BANGSA",
            "nama_se": "EASYLEGAL.BIZ.ID",
            "sektor": "Sektor Perdagangan",
            "tanggal_terbit": "2023-09-04",
            "url_tdpse_detail": "https://pse.komdigi.go.id/tdpse-detail/15826",
            "website": "easylegal.biz.id"
        },
        {
            "id": "9cb1ac4a-54a2-49a3-8679-2f3b495dbad1",
            "nama_pse": "PERTAMINA BINA MEDIKA IHC",
            "nama_se": "SIM RUMAH SAKIT PERTAMINA DUMAI",
            "sektor": "Sektor Kesehatan",
            "tanggal_terbit": "2023-09-04",
            "url_tdpse_detail": "https://pse.komdigi.go.id/tdpse-detail/15820",
            "website": "-"
        },
        {
            "id": "9cb1ac28-8544-4907-9287-1dfc5f881879",
            "nama_pse": "OCOMMERCE CAPITAL INDONESIA",
            "nama_se": "LAPAKCHINA-APLIKASI BELANJA IMPORT",
            "sektor": "Sektor Teknologi Informasi dan Komunikasi",
            "tanggal_terbit": "2023-09-04",
            "url_tdpse_detail": "https://pse.komdigi.go.id/tdpse-detail/15819",
            "website": "lapakchina.co.id"
        },
        {
            "id": "9cb1ac4a-77e9-4444-bab8-f250954d56ba",
            "nama_pse": "RUMAH SAKIT SITI KHODIJAH MUHAMMADIYAH CABANG SEPANJANG",
            "nama_se": "SIMRS RSSK",
            "sektor": "Sektor Kesehatan",
            "tanggal_terbit": "2023-09-04",
            "url_tdpse_detail": "https://pse.komdigi.go.id/tdpse-detail/15818",
            "website": "sitikhodijah.com"
        },
        {
            "id": "9cb1ac4a-7c9e-45c4-a1de-09f58499c87c",
            "nama_pse": "PANTI RAPIH",
            "nama_se": "SIRAYU",
            "sektor": "Sektor Kesehatan",
            "tanggal_terbit": "2023-09-04",
            "url_tdpse_detail": "https://pse.komdigi.go.id/tdpse-detail/15821",
            "website": "pantirahayu.or.id"
        },
        {
            "id": "9cb1ac28-93bc-4f7b-a0c2-9673e17699fc",
            "nama_pse": "QQPAY ANTAR NETWORK",
            "nama_se": "PLATFORM INFRASTRUKTUR TRANSFER DANA DAN SWITCHING REMITANSI - QQPAY IE",
            "sektor": "Sektor Teknologi Informasi dan Komunikasi",
            "tanggal_terbit": "2023-09-04",
            "url_tdpse_detail": "https://pse.komdigi.go.id/tdpse-detail/15822",
            "website": "-"
        },
        {
            "id": "9cb1ac4a-83e0-4961-87f2-26da792983de",
            "nama_pse": "QQPAY ANTAR NETWORK",
            "nama_se": "E-KYC - VERIFIKASI IDENTITAS DIGITAL",
            "sektor": "Sektor Teknologi Informasi dan Komunikasi",
            "tanggal_terbit": "2023-09-04",
            "url_tdpse_detail": "https://pse.komdigi.go.id/tdpse-detail/15823",
            "website": "-"
        },
        {
            "id": "9cb1ac4a-86c2-4e4c-bd3e-1c5726f95ff0",
            "nama_pse": "JOGJA NETWORK ADVERTISE",
            "nama_se": "JOGJA NETWORK ADVERTISE",
            "sektor": "Sektor Teknologi Informasi dan Komunikasi",
            "tanggal_terbit": "2023-09-04",
            "url_tdpse_detail": "https://pse.komdigi.go.id/tdpse-detail/15824",
            "website": "-"
        },
        {
            "id": "9cb1ac4a-896c-441c-bcb8-0d1869c40ddf",
            "nama_pse": "ALLAM MEDICA BUMIAYU",
            "nama_se": "SIMRS KHANZA INDONESIA RSU ALLAM MEDICA BUMIAYU",
            "sektor": "Sektor Kesehatan",
            "tanggal_terbit": "2023-09-04",
            "url_tdpse_detail": "https://pse.komdigi.go.id/tdpse-detail/15825",
            "website": "allammedica.com"
        },
        {
            "id": "9cb1ac28-9823-456c-9505-d808c1f5bb37",
            "nama_pse": "DIVA KARYA UTAMA",
            "nama_se": "SIMPUS, SIMKLINIK, SIM-APOTIK",
            "sektor": "Sektor Kesehatan, Sektor Teknologi Informasi dan Komunikasi",
            "tanggal_terbit": "2023-09-04",
            "url_tdpse_detail": "https://pse.komdigi.go.id/tdpse-detail/15827",
            "website": "indokes.com"
        },
        {
            "id": "9cb1ac4a-8c2a-4e46-bdfe-fbc6c3f453ac",
            "nama_pse": "PERUSAHAAN PERSEROAN (PERSERO) PT. TELEKOMUNIKASI INDONESIA",
            "nama_se": "SATUNADI",
            "sektor": "Sektor Kesehatan, Sektor Teknologi Informasi dan Komunikasi",
            "tanggal_terbit": "2023-09-04",
            "url_tdpse_detail": "https://pse.komdigi.go.id/tdpse-detail/15829",
            "website": "satunadi.id"
        },
        {
            "id": "9cb1ac3b-325f-4fad-bddb-d2d6a627b2e9",
            "nama_pse": "SEMOLIS TEKNOLOGI INDONESIA",
            "nama_se": "SEMOLIS",
            "sektor": "Sektor Perdagangan, Sektor Transportasi",
            "tanggal_terbit": "2023-09-04",
            "url_tdpse_detail": "https://pse.komdigi.go.id/tdpse-detail/15828",
            "website": "sewamotorlistrik.com"
        },
        {
            "id": "9cb1ac4a-918b-4f26-b21e-f8ca7c8c5a11",
            "nama_pse": "GEGER MEDIA INFORMATIKA",
            "nama_se": "CLICKSEKARANG.COM",
            "sektor": "Sektor Teknologi Informasi dan Komunikasi",
            "tanggal_terbit": "2023-09-04",
            "url_tdpse_detail": "https://pse.komdigi.go.id/tdpse-detail/15831",
            "website": "clicksekarang.com"
        },
        {
            "id": "9cb1ac3b-3876-43d5-abe7-662bddd423e8",
            "nama_pse": "GEGER MEDIA INFORMATIKA",
            "nama_se": "SILET-NEWS.COM",
            "sektor": "Sektor Teknologi Informasi dan Komunikasi",
            "tanggal_terbit": "2023-09-04",
            "url_tdpse_detail": "https://pse.komdigi.go.id/tdpse-detail/15832",
            "website": "silet-news.com"
        },
        {
            "id": "9cb1ac4a-6eba-450e-a138-d0a8adbc3f69",
            "nama_pse": "ABDUR ROHMAN MUHAMMAD",
            "nama_se": "MLITE-KLINIK",
            "sektor": "Sektor Kesehatan",
            "tanggal_terbit": "2023-09-03",
            "url_tdpse_detail": "https://pse.komdigi.go.id/tdpse-detail/15815",
            "website": "-"
        },
        {
            "id": "9cb1ac28-8960-445d-9b2a-f8032aec4fc1",
            "nama_pse": "ALVIAN HASAN ",
            "nama_se": "TOKO MODERN ALDIVRA",
            "sektor": "Sektor Perdagangan",
            "tanggal_terbit": "2023-09-03",
            "url_tdpse_detail": "https://pse.komdigi.go.id/tdpse-detail/15816",
            "website": "-"
        },
        {
            "id": "9cb1ac28-8d6d-4832-8261-c70a5de459b6",
            "nama_pse": "BGS TEKNOLOGI NUSANTARA",
            "nama_se": "KITABAYAR.CO.ID",
            "sektor": "Sektor Perdagangan, Sektor Teknologi Informasi dan Komunikasi",
            "tanggal_terbit": "2023-09-03",
            "url_tdpse_detail": "https://pse.komdigi.go.id/tdpse-detail/15817",
            "website": "-"
        },
        {
            "id": "9cb1ac4a-3d0d-4325-a600-2f9bc88f8258",
            "nama_pse": "ASSYIFA NUSANTARA MEDIKA",
            "nama_se": "SISTEM INFORMASI MANAJEMEN KLINIK ROLAS MEDIKA",
            "sektor": "Sektor Kesehatan",
            "tanggal_terbit": "2023-09-02",
            "url_tdpse_detail": "https://pse.komdigi.go.id/tdpse-detail/15811",
            "website": "-"
        },
        {
            "id": "9cb1ac28-817a-44db-bd5e-3a2b69b22ec1",
            "nama_pse": "INFOTAMA SOLUSINDO",
            "nama_se": "RSIA NUN SURABAYA",
            "sektor": "Sektor Kesehatan",
            "tanggal_terbit": "2023-09-02",
            "url_tdpse_detail": "https://pse.komdigi.go.id/tdpse-detail/15812",
            "website": "-"
        },
        {
            "id": "9cb1ac3b-1321-4690-b8e8-db7e1f37ae97",
            "nama_pse": "OCOMMERCE CAPITAL INDONESIA",
            "nama_se": "(OCISTOK)",
            "sektor": "Sektor Teknologi Informasi dan Komunikasi",
            "tanggal_terbit": "2023-09-02",
            "url_tdpse_detail": "https://pse.komdigi.go.id/tdpse-detail/15813",
            "website": "Www.ocistok.com"
        }
    ],
    "processingTimeMs": 3,
    "query": "",
    "totalHits": 19121,
    "hitsPerPage": 50,
    "page": 121,
    "totalPages": 383
}