{
    "hits": [
        {
            "id": "9cb1ac3e-5073-4db5-8bc2-f66d9ca8eebc",
            "nama_pse": "ASURANSI TRI PAKARTA",
            "nama_se": "APLIKASI MOBILE TRIPA SMART",
            "sektor": "Sektor Perdagangan",
            "tanggal_terbit": "2023-02-23",
            "url_tdpse_detail": "https://pse.komdigi.go.id/tdpse-detail/13911",
            "website": "tripakarta.co.id"
        },
        {
            "id": "9cb1ac2e-c53f-4908-acac-8e1ec15d5f8c",
            "nama_pse": "ADHOUSE INDONESIA CIPTA",
            "nama_se": "ANAK BISNIS",
            "sektor": "Sektor Teknologi Informasi dan Komunikasi",
            "tanggal_terbit": "2023-02-23",
            "url_tdpse_detail": "https://pse.komdigi.go.id/tdpse-detail/13912",
            "website": "anakbisnis.com"
        },
        {
            "id": "9cb1ac1c-6bc1-462f-a9a4-c74a4a22c4d9",
            "nama_pse": "FANA BAKA TEKNOLOGI",
            "nama_se": "PABRYK",
            "sektor": "Sektor Perdagangan",
            "tanggal_terbit": "2023-02-23",
            "url_tdpse_detail": "https://pse.komdigi.go.id/tdpse-detail/13908",
            "website": "pabryk.com"
        },
        {
            "id": "9cb1ac3e-6a3b-4c17-aea8-fd79f55536ad",
            "nama_pse": "FANA BAKA TEKNOLOGI",
            "nama_se": "TUKARPAY",
            "sektor": "Sektor Perdagangan",
            "tanggal_terbit": "2023-02-23",
            "url_tdpse_detail": "https://pse.komdigi.go.id/tdpse-detail/13909",
            "website": "-"
        },
        {
            "id": "9cb1ac1c-6f39-4dbf-9ad5-ea9a88b4c05a",
            "nama_pse": "APIK EDU INDONESIA",
            "nama_se": "BLORA BERSATU",
            "sektor": "Sektor Teknologi Informasi dan Komunikasi",
            "tanggal_terbit": "2023-02-23",
            "url_tdpse_detail": "https://pse.komdigi.go.id/tdpse-detail/13910",
            "website": "-"
        },
        {
            "id": "9cb1ac1c-76f7-4684-baf3-1429a5c2f831",
            "nama_pse": "KONSULTAN BISNIS DAN INFORMATIKA",
            "nama_se": "OLEH OLEH ONLINE",
            "sektor": "Sektor Perdagangan",
            "tanggal_terbit": "2023-02-23",
            "url_tdpse_detail": "https://pse.komdigi.go.id/tdpse-detail/13913",
            "website": "oleholehonline.id"
        },
        {
            "id": "9cb1ac2e-cd95-4bb5-93f1-2842a7ae50a2",
            "nama_pse": "BIGS INTEGRASI TEKNOLOGI",
            "nama_se": "EMESYS",
            "sektor": "Sektor Kesehatan, Sektor Teknologi Informasi dan Komunikasi",
            "tanggal_terbit": "2023-02-23",
            "url_tdpse_detail": "https://pse.komdigi.go.id/tdpse-detail/13914",
            "website": "emesys.id"
        },
        {
            "id": "9cb1ac2e-d11c-4ac1-905e-f350585a377a",
            "nama_pse": "KARYA PRIMA PUTERA PERKASA",
            "nama_se": "AVIAT",
            "sektor": "Sektor Kesehatan, Sektor Teknologi Informasi dan Komunikasi",
            "tanggal_terbit": "2023-02-23",
            "url_tdpse_detail": "https://pse.komdigi.go.id/tdpse-detail/13918",
            "website": "-"
        },
        {
            "id": "9cb1ac1c-7b0b-4b16-aaf5-63ced65cf223",
            "nama_pse": "BEIDIAN TECHNOLOGY SERVICE",
            "nama_se": "BEIDIAN",
            "sektor": "Sektor Teknologi Informasi dan Komunikasi",
            "tanggal_terbit": "2023-02-23",
            "url_tdpse_detail": "https://pse.komdigi.go.id/tdpse-detail/13916",
            "website": "beidian.com.cn"
        },
        {
            "id": "9cb1ac1c-805b-4141-a376-35b8c85694c1",
            "nama_pse": "SISTEM KESEHATAN INDONESIA",
            "nama_se": "SISTEMKESEHATAN.ID",
            "sektor": "Sektor Kesehatan, Sektor Teknologi Informasi dan Komunikasi",
            "tanggal_terbit": "2023-02-23",
            "url_tdpse_detail": "https://pse.komdigi.go.id/tdpse-detail/13919",
            "website": "sistemkesehatan.id"
        },
        {
            "id": "9cb1ac3e-7732-440c-a976-5f3c3a915454",
            "nama_pse": "FANA BAKA TEKNOLOGI",
            "nama_se": "KONNEKIN",
            "sektor": "Sektor Perdagangan",
            "tanggal_terbit": "2023-02-23",
            "url_tdpse_detail": "https://pse.komdigi.go.id/tdpse-detail/13920",
            "website": "konnekin.com"
        },
        {
            "id": "9cb1ac2e-e8cd-4d58-b7a2-cb09892c713c",
            "nama_pse": "SUARA MEDIA ONLINE",
            "nama_se": "SUARAKALBAR.CO.ID",
            "sektor": "Sektor Teknologi Informasi dan Komunikasi",
            "tanggal_terbit": "2023-02-23",
            "url_tdpse_detail": "https://pse.komdigi.go.id/tdpse-detail/13921",
            "website": "suarakalbar.co.id"
        },
        {
            "id": "9cb1ac2e-a5cd-460b-8308-7c18c3724119",
            "nama_pse": "GRAB TEKNOLOGI INDONESIA",
            "nama_se": "MART.GRAB.COM",
            "sektor": "Sektor Perdagangan",
            "tanggal_terbit": "2023-02-22",
            "url_tdpse_detail": "https://pse.komdigi.go.id/tdpse-detail/13882",
            "website": "mart.grab.com"
        },
        {
            "id": "9cb1ac3e-3a03-4061-847b-f1b119edb348",
            "nama_pse": "RSUP PROF. DR.I.G.N.G NGOERAH",
            "nama_se": "SIMARS",
            "sektor": "Sektor Kesehatan, Sektor Teknologi Informasi dan Komunikasi",
            "tanggal_terbit": "2023-02-22",
            "url_tdpse_detail": "https://pse.komdigi.go.id/tdpse-detail/13879",
            "website": "-"
        },
        {
            "id": "9cb1ac2e-ab3e-4a4f-96be-4b4255f0492d",
            "nama_pse": "SMARTHUB TECHNOLOGIES",
            "nama_se": "SMARTRME",
            "sektor": "Sektor Kesehatan, Sektor Teknologi Informasi dan Komunikasi",
            "tanggal_terbit": "2023-02-22",
            "url_tdpse_detail": "https://pse.komdigi.go.id/tdpse-detail/13880",
            "website": "SmartRME.id"
        },
        {
            "id": "9cb1ac3e-44e9-4670-92c9-cd1867b2e687",
            "nama_pse": "DUNLOPILLO INDONESIA",
            "nama_se": "DUNLOPILLO",
            "sektor": "Sektor Perdagangan",
            "tanggal_terbit": "2023-02-22",
            "url_tdpse_detail": "https://pse.komdigi.go.id/tdpse-detail/13881",
            "website": "dunlopillo.co.id"
        },
        {
            "id": "9cb1ac3e-4c2a-46a7-8e91-f3591e34a56e",
            "nama_pse": "PRIME ANALYTICS INDONESIA",
            "nama_se": "PRIMESCORE",
            "sektor": "Sektor Teknologi Informasi dan Komunikasi",
            "tanggal_terbit": "2023-02-22",
            "url_tdpse_detail": "https://pse.komdigi.go.id/tdpse-detail/13883",
            "website": "-"
        },
        {
            "id": "9cb1ac2e-adec-4a3a-86a2-b511103ef19d",
            "nama_pse": "HUSADA WIYATA MULYA",
            "nama_se": "SISTEM INFORMASI RUMAH SAKIT RSGM IIK BHAKTI WIYATA",
            "sektor": "Sektor Kesehatan",
            "tanggal_terbit": "2023-02-22",
            "url_tdpse_detail": "https://pse.komdigi.go.id/tdpse-detail/13896",
            "website": "rsgmiikbw.com"
        },
        {
            "id": "9cb1ac3e-5459-4ad6-a0bc-65b015125581",
            "nama_pse": "ANUGRAH DEWATA AGUNG PROPERTI",
            "nama_se": "GOVILLABALI",
            "sektor": "Sektor Perdagangan",
            "tanggal_terbit": "2023-02-22",
            "url_tdpse_detail": "https://pse.komdigi.go.id/tdpse-detail/13897",
            "website": "govillabali.com"
        },
        {
            "id": "9cb1ac2e-b224-4567-b4f6-8bf3608d1c24",
            "nama_pse": "RUMAH SAKIT UMUM DAERAH TAMAN HUSADA KOTA BONTANG",
            "nama_se": "SISTEM INFORMASI MANAJEMEN RUMAH SAKIT",
            "sektor": "Sektor Kesehatan",
            "tanggal_terbit": "2023-02-22",
            "url_tdpse_detail": "https://pse.komdigi.go.id/tdpse-detail/13898",
            "website": "rsud.bontangkota.go.id"
        },
        {
            "id": "9cb1ac2e-b646-4e4d-b572-77bc95e6b360",
            "nama_pse": "RSUP DR. KARIADI SEMARANG",
            "nama_se": "RME ( REKAM MEDIS ELEKTRONIK )",
            "sektor": "Sektor Kesehatan",
            "tanggal_terbit": "2023-02-22",
            "url_tdpse_detail": "https://pse.komdigi.go.id/tdpse-detail/13899",
            "website": "rskariadi.co.id"
        },
        {
            "id": "9cb1ac3e-580a-411d-9896-93a4bd232e1c",
            "nama_pse": "HARTANAH MAKMUR SENTOSA",
            "nama_se": "GAJIAN SEKARANG",
            "sektor": "Sektor Keuangan",
            "tanggal_terbit": "2023-02-22",
            "url_tdpse_detail": "https://pse.komdigi.go.id/tdpse-detail/13900",
            "website": "ewakoperasi.hartanahgroup.com"
        },
        {
            "id": "9cb1ac1c-6808-49a4-a978-b995f108c817",
            "nama_pse": "CITRARAYA NUSATAMA",
            "nama_se": "DHEALTH",
            "sektor": "Sektor Kesehatan, Sektor Teknologi Informasi dan Komunikasi",
            "tanggal_terbit": "2023-02-22",
            "url_tdpse_detail": "https://pse.komdigi.go.id/tdpse-detail/13901",
            "website": "dhealth.co.id"
        },
        {
            "id": "9cb1ac3e-5e3c-4eb9-8d05-2e4c6bdfedc9",
            "nama_pse": "GREENERATION INDONESIA",
            "nama_se": "X-SEED",
            "sektor": "Sektor Teknologi Informasi dan Komunikasi",
            "tanggal_terbit": "2023-02-22",
            "url_tdpse_detail": "https://pse.komdigi.go.id/tdpse-detail/13902",
            "website": "xseed.ecoxyztem.com"
        },
        {
            "id": "9cb1ac2e-ba7b-4a93-b9b6-fd19986c3133",
            "nama_pse": "TUQER FINANCE INDONESIA",
            "nama_se": "TUQER INDONESIA",
            "sektor": "Sektor Perdagangan, Sektor Teknologi Informasi dan Komunikasi",
            "tanggal_terbit": "2023-02-22",
            "url_tdpse_detail": "https://pse.komdigi.go.id/tdpse-detail/13903",
            "website": "tuqer.id"
        },
        {
            "id": "9cb1ac2e-c161-4234-8b19-dfbffdced52d",
            "nama_pse": "SHIRYOKU TECHNOLOGY INDONESIA",
            "nama_se": "SHIRYOKU.ID",
            "sektor": "Sektor Perdagangan, Sektor Teknologi Informasi dan Komunikasi",
            "tanggal_terbit": "2023-02-22",
            "url_tdpse_detail": "https://pse.komdigi.go.id/tdpse-detail/13904",
            "website": "shiryoku.id"
        },
        {
            "id": "9cb1ac3e-61d2-4b68-b413-6e1f3b9a5ff0",
            "nama_pse": "BERCOMP MANDIRI",
            "nama_se": "SIMRS MANDIRI",
            "sektor": "Sektor Kesehatan, Sektor Teknologi Informasi dan Komunikasi",
            "tanggal_terbit": "2023-02-22",
            "url_tdpse_detail": "https://pse.komdigi.go.id/tdpse-detail/13905",
            "website": "simrsmandiri.co.id"
        },
        {
            "id": "9cb1ac3e-6677-4f66-8314-3e5020df4d30",
            "nama_pse": "MITRA PINTAR TEKNOLOGI",
            "nama_se": "RAPIN",
            "sektor": "Sektor Teknologi Informasi dan Komunikasi",
            "tanggal_terbit": "2023-02-22",
            "url_tdpse_detail": "https://pse.komdigi.go.id/tdpse-detail/13906",
            "website": "rapin.id"
        },
        {
            "id": "9cb1ac2e-6e78-4f90-b06f-5f3b29f0e521",
            "nama_pse": "RUMAH SAKIT JANTUNG DAN PEMBULUH DARAH HARAPAN KITA",
            "nama_se": "ELECTRONIC MEDICAL RECORD",
            "sektor": "Sektor Kesehatan",
            "tanggal_terbit": "2023-02-21",
            "url_tdpse_detail": "https://pse.komdigi.go.id/tdpse-detail/13861",
            "website": "pjnhk.go.id"
        },
        {
            "id": "9cb1ac1c-5cab-4809-8b4e-1aca7efbd193",
            "nama_pse": "ABDI BERKAT AGUNG",
            "nama_se": "KLINIK PRATAMA ROPHELYDIA",
            "sektor": "Sektor Kesehatan",
            "tanggal_terbit": "2023-02-21",
            "url_tdpse_detail": "https://pse.komdigi.go.id/tdpse-detail/13859",
            "website": "Rophelydia.co.id"
        },
        {
            "id": "9cb1ac3e-0e49-4e1f-8b89-56fe31079abe",
            "nama_pse": "BAHANA TCW INVESTMENT MANAGEMENT",
            "nama_se": "BAHANA SIGNATURE",
            "sektor": "Sektor Keuangan",
            "tanggal_terbit": "2023-02-21",
            "url_tdpse_detail": "https://pse.komdigi.go.id/tdpse-detail/13873",
            "website": "signature.bahanatcw.com"
        },
        {
            "id": "9cb1ac2e-8c64-4643-a052-fb3d36ae1c67",
            "nama_pse": "MUHAMMAD IQBAL",
            "nama_se": "JSC COMPUTER SERVIS",
            "sektor": "Sektor Perdagangan, Sektor Teknologi Informasi dan Komunikasi",
            "tanggal_terbit": "2023-02-21",
            "url_tdpse_detail": "https://pse.komdigi.go.id/tdpse-detail/13860",
            "website": "-"
        },
        {
            "id": "9cb1ac3e-125b-4b61-89a3-eff4371b174c",
            "nama_pse": "SEGITIGA SAMA SISI",
            "nama_se": "SIDAK",
            "sektor": "Sektor Kesehatan, Sektor Teknologi Informasi dan Komunikasi",
            "tanggal_terbit": "2023-02-21",
            "url_tdpse_detail": "https://pse.komdigi.go.id/tdpse-detail/13862",
            "website": "sidak.co.id"
        },
        {
            "id": "9cb1ac1c-5f50-4fdb-9c9e-f9769bc23a32",
            "nama_pse": "INOVASI KITA BERSAMA",
            "nama_se": "CREATIVE STATION",
            "sektor": "Sektor Teknologi Informasi dan Komunikasi",
            "tanggal_terbit": "2023-02-21",
            "url_tdpse_detail": "https://pse.komdigi.go.id/tdpse-detail/13863",
            "website": "creativestation.id"
        },
        {
            "id": "9cb1ac1c-6212-4716-b954-3cf6be5ce6be",
            "nama_pse": "NUANSA CERAH INFORMASI",
            "nama_se": "SIMRS NCI MEDISMART",
            "sektor": "Sektor Kesehatan, Sektor Teknologi Informasi dan Komunikasi",
            "tanggal_terbit": "2023-02-21",
            "url_tdpse_detail": "https://pse.komdigi.go.id/tdpse-detail/13864",
            "website": "nuansa.com"
        },
        {
            "id": "9cb1ac3e-1757-45f2-8107-044667f5aa7f",
            "nama_pse": "NURUL EKAYANI",
            "nama_se": "PALESHOPP",
            "sektor": "Sektor Perdagangan",
            "tanggal_terbit": "2023-02-21",
            "url_tdpse_detail": "https://pse.komdigi.go.id/tdpse-detail/13865",
            "website": "-"
        },
        {
            "id": "9cb1ac2e-8fb2-4cba-badf-8e9ca760ed7a",
            "nama_pse": "SOLUSI BERTEKNOLOGI INDONESIA",
            "nama_se": "BIHEALTH HEALTHCARE SOLUTIONS",
            "sektor": "Sektor Kesehatan, Sektor Teknologi Informasi dan Komunikasi",
            "tanggal_terbit": "2023-02-21",
            "url_tdpse_detail": "https://pse.komdigi.go.id/tdpse-detail/13866",
            "website": "bertek.co.id"
        },
        {
            "id": "9cb1ac3e-1b3c-4179-8e4d-0e45fc568245",
            "nama_pse": "SHONIN IDX INDONESIA",
            "nama_se": "FORM APPROVAL SYSTEM",
            "sektor": "Sektor Teknologi Informasi dan Komunikasi",
            "tanggal_terbit": "2023-02-21",
            "url_tdpse_detail": "https://pse.komdigi.go.id/tdpse-detail/13870",
            "website": "shonin.id"
        },
        {
            "id": "9cb1ac3e-1f61-4efb-8d1b-64cbfe9306e9",
            "nama_pse": "TEKNOLOGI DIGITAL VETERINER",
            "nama_se": "SATWAGIA",
            "sektor": "Sektor Kesehatan, Sektor Teknologi Informasi dan Komunikasi",
            "tanggal_terbit": "2023-02-21",
            "url_tdpse_detail": "https://pse.komdigi.go.id/tdpse-detail/13871",
            "website": "satwagia.com"
        },
        {
            "id": "9cb1ac2e-9317-4bf9-a840-388505598cef",
            "nama_pse": "RUMKIT TK.IV SALAK KEDAM III/SLW MARKAS BESAR TNI AD KEMENTERIAN PERTAHANAN",
            "nama_se": "SISTEM INFORMASI MANAJEMEN RUMAH SAKIT SALAK BOGOR",
            "sektor": "Sektor Kesehatan",
            "tanggal_terbit": "2023-02-21",
            "url_tdpse_detail": "https://pse.komdigi.go.id/tdpse-detail/13872",
            "website": "rssalakbogor.co.id"
        },
        {
            "id": "9cb1ac1c-652f-4518-9df9-7c11184f1cb8",
            "nama_pse": "YOYO TECHNOLOGY INDONESIA",
            "nama_se": "POP-STAR.ME",
            "sektor": "Sektor Teknologi Informasi dan Komunikasi",
            "tanggal_terbit": "2023-02-21",
            "url_tdpse_detail": "https://pse.komdigi.go.id/tdpse-detail/13874",
            "website": "-"
        },
        {
            "id": "9cb1ac2e-9e0c-4011-8e06-376e93fdee94",
            "nama_pse": "ROYAL SINAR BERLIAN",
            "nama_se": "TTOKTOK",
            "sektor": "Sektor Perdagangan",
            "tanggal_terbit": "2023-02-21",
            "url_tdpse_detail": "https://pse.komdigi.go.id/tdpse-detail/13875",
            "website": "Ttoktok.com"
        },
        {
            "id": "9cb1ac3e-29f9-42e2-b0f9-3e6087ab73a6",
            "nama_pse": "INDO TEKNOLOGI CEMERLANG",
            "nama_se": "GETANDRIDE.COM",
            "sektor": "Sektor Teknologi Informasi dan Komunikasi",
            "tanggal_terbit": "2023-02-21",
            "url_tdpse_detail": "https://pse.komdigi.go.id/tdpse-detail/13876",
            "website": "getandride.com"
        },
        {
            "id": "9cb1ac3e-3195-4439-974d-ecc65842df4c",
            "nama_pse": "METAVERSE INDONESIA MAKMUR",
            "nama_se": "NUSAMETA",
            "sektor": "Sektor Perdagangan",
            "tanggal_terbit": "2023-02-21",
            "url_tdpse_detail": "https://pse.komdigi.go.id/tdpse-detail/13877",
            "website": "nusameta.io"
        },
        {
            "id": "9cb1ac3e-3539-4176-bc2d-04c5c562fc0e",
            "nama_pse": "RILIS MEDIA SIBER",
            "nama_se": "NUSANTARA.CO",
            "sektor": "Sektor Teknologi Informasi dan Komunikasi",
            "tanggal_terbit": "2023-02-21",
            "url_tdpse_detail": "https://pse.komdigi.go.id/tdpse-detail/13878",
            "website": "nusantara.co"
        },
        {
            "id": "9cb1ac2e-7fc6-44f7-962a-2c84e71fc64f",
            "nama_pse": "WISNU NUGROHO",
            "nama_se": "BUKALAPAK",
            "sektor": "Sektor Perdagangan",
            "tanggal_terbit": "2023-02-20",
            "url_tdpse_detail": "https://pse.komdigi.go.id/tdpse-detail/13845",
            "website": "-"
        },
        {
            "id": "9cb1ac1c-3964-4680-8a50-b2a69785bbf2",
            "nama_pse": "DESKTOPIP TEKNOLOGI INDONESIA",
            "nama_se": "IFVIRTY CLOUD SERVICE",
            "sektor": "Sektor Teknologi Informasi dan Komunikasi",
            "tanggal_terbit": "2023-02-20",
            "url_tdpse_detail": "https://pse.komdigi.go.id/tdpse-detail/13931",
            "website": "ifvirty.com"
        },
        {
            "id": "9cb1ac3d-f769-4044-b5da-7cc1f34d9c0f",
            "nama_pse": "SOBAT IMPORT INDONESIA",
            "nama_se": "SOBAT IMPORT",
            "sektor": "Sektor Teknologi Informasi dan Komunikasi",
            "tanggal_terbit": "2023-02-20",
            "url_tdpse_detail": "https://pse.komdigi.go.id/tdpse-detail/13849",
            "website": "sobatimport.com"
        },
        {
            "id": "9cb1ac3d-faff-4f5e-8f13-cac56e608843",
            "nama_pse": "ANASTASIA SETYANINGTYAS",
            "nama_se": "ARISAN KELUARGA MANDIRI - AKM APP",
            "sektor": "Sektor Teknologi Informasi dan Komunikasi",
            "tanggal_terbit": "2023-02-20",
            "url_tdpse_detail": "https://pse.komdigi.go.id/tdpse-detail/13848",
            "website": "akm.or.id"
        },
        {
            "id": "9cb1ac1c-4efc-4f2f-924a-6d24e392567a",
            "nama_pse": "ERANASIONAL MULTIMEDIA PERDANA",
            "nama_se": "ERANASIONAL.COM",
            "sektor": "Sektor Teknologi Informasi dan Komunikasi",
            "tanggal_terbit": "2023-02-20",
            "url_tdpse_detail": "https://pse.komdigi.go.id/tdpse-detail/13846",
            "website": "eranasional.com"
        }
    ],
    "processingTimeMs": 3,
    "query": "",
    "totalHits": 19131,
    "hitsPerPage": 50,
    "page": 154,
    "totalPages": 383
}