{
    "hits": [
        {
            "id": "9cb1ac34-3f8d-4f12-92e0-a32d96803651",
            "nama_pse": "MILENIAL UTAMA TELEVISI",
            "nama_se": "ACCOLA PLAY",
            "sektor": "Sektor Perdagangan",
            "tanggal_terbit": "2023-05-25",
            "url_tdpse_detail": "https://pse.komdigi.go.id/tdpse-detail/14854",
            "website": "accolaplay.id"
        },
        {
            "id": "9cb1ac22-868d-4895-8a87-bda6a0ec9576",
            "nama_pse": "LENTERA DANA INDONESIA",
            "nama_se": "PT LENTERA DANA INDONESIA",
            "sektor": "Sektor Teknologi Informasi dan Komunikasi",
            "tanggal_terbit": "2023-05-25",
            "url_tdpse_detail": "https://pse.komdigi.go.id/tdpse-detail/14856",
            "website": "ldi.co.id"
        },
        {
            "id": "9cb1ac44-6acb-422a-9198-6adfb77e1af7",
            "nama_pse": "ASURANSI UMUM SEAINSURE",
            "nama_se": "CLIENT PORTAL PT ASURANSI UMUM SEAINSURE",
            "sektor": "Sektor Keuangan",
            "tanggal_terbit": "2023-05-25",
            "url_tdpse_detail": "https://pse.komdigi.go.id/tdpse-detail/14862",
            "website": "eservice.seainsuregeneral.co.id"
        },
        {
            "id": "9cb1ac44-7401-4746-bb37-f420048285ad",
            "nama_pse": "MANDALA DHARA NAGAPASA",
            "nama_se": "TALENTA NUSANTARA",
            "sektor": "Sektor Teknologi Informasi dan Komunikasi",
            "tanggal_terbit": "2023-05-25",
            "url_tdpse_detail": "https://pse.komdigi.go.id/tdpse-detail/14849",
            "website": "talentanusantara.com"
        },
        {
            "id": "9cb1ac22-8fff-425c-9eea-99be6b2063eb",
            "nama_pse": "GAMATECHNO INDONESIA",
            "nama_se": "KASDANA",
            "sektor": "Sektor Teknologi Informasi dan Komunikasi",
            "tanggal_terbit": "2023-05-25",
            "url_tdpse_detail": "https://pse.komdigi.go.id/tdpse-detail/14852",
            "website": "kasdana.id"
        },
        {
            "id": "9cb1ac35-0159-40ce-9a32-bcbaa674aeb1",
            "nama_pse": "GAMATECHNO INDONESIA",
            "nama_se": "DIGITALKIE",
            "sektor": "Sektor Teknologi Informasi dan Komunikasi",
            "tanggal_terbit": "2023-05-25",
            "url_tdpse_detail": "https://pse.komdigi.go.id/tdpse-detail/14853",
            "website": "digitalkie.id"
        },
        {
            "id": "9cb1ac44-87ff-4487-906d-5ef1e76cdc1f",
            "nama_pse": "JURNAL BIJAK INDONESIA",
            "nama_se": "JURNALBIJAK",
            "sektor": "Sektor Teknologi Informasi dan Komunikasi",
            "tanggal_terbit": "2023-05-25",
            "url_tdpse_detail": "https://pse.komdigi.go.id/tdpse-detail/14857",
            "website": "jurnalbijak.com"
        },
        {
            "id": "9cb1ac22-9715-4aa7-8c10-9d522dfb91f0",
            "nama_pse": "CENDEKIA DATA ANDALAN",
            "nama_se": "WEBSITE DATA ACADEMY",
            "sektor": "Sektor Teknologi Informasi dan Komunikasi",
            "tanggal_terbit": "2023-05-25",
            "url_tdpse_detail": "https://pse.komdigi.go.id/tdpse-detail/14863",
            "website": "dataacademy.co.id"
        },
        {
            "id": "9cb1ac35-0e9b-4a14-be0c-9735b396a427",
            "nama_pse": "SEHAT UTAMA GLOBAL",
            "nama_se": "JANTUNGKU.ID",
            "sektor": "Sektor Perdagangan, Sektor Kesehatan, Sektor Teknologi Informasi dan Komunikasi",
            "tanggal_terbit": "2023-05-25",
            "url_tdpse_detail": "https://pse.komdigi.go.id/tdpse-detail/14858",
            "website": "Jantungku.id"
        },
        {
            "id": "9cb1ac22-ca56-4cdd-b0b9-79d023c33ca6",
            "nama_pse": "CIPTA INTEGRASI NUSANTARA",
            "nama_se": "MEMOS.CO.ID",
            "sektor": "Sektor Perdagangan, Sektor Kesehatan, Sektor Teknologi Informasi dan Komunikasi",
            "tanggal_terbit": "2023-05-25",
            "url_tdpse_detail": "https://pse.komdigi.go.id/tdpse-detail/14864",
            "website": "memos.co.id"
        },
        {
            "id": "9cb1ac22-cf84-4db1-992f-593f08ab0c2b",
            "nama_pse": "ERMALOGI WANA DIGITAL",
            "nama_se": "OKSI",
            "sektor": "Sektor Kesehatan, Sektor Teknologi Informasi dan Komunikasi",
            "tanggal_terbit": "2023-05-25",
            "url_tdpse_detail": "https://pse.komdigi.go.id/tdpse-detail/14865",
            "website": "occmedapps.com"
        },
        {
            "id": "9cb1ac20-c378-40d3-85cf-ed67015a2d7f",
            "nama_pse": "SOLUSI ANAK MILENIAL",
            "nama_se": "LEMIHEALTH",
            "sektor": "Sektor Kesehatan, Sektor Teknologi Informasi dan Komunikasi",
            "tanggal_terbit": "2023-05-24",
            "url_tdpse_detail": "https://pse.komdigi.go.id/tdpse-detail/14838",
            "website": "lemihealth.id"
        },
        {
            "id": "9cb1ac21-52df-4cdc-8fa4-e38e5e58cd0b",
            "nama_pse": "SARANA MEDITAMA INTERNATIONAL",
            "nama_se": "TRAKCARE",
            "sektor": "Sektor Kesehatan",
            "tanggal_terbit": "2023-05-24",
            "url_tdpse_detail": "https://pse.komdigi.go.id/tdpse-detail/14837",
            "website": "-"
        },
        {
            "id": "9cb1ac34-2039-4cb7-bbbd-71c491462bff",
            "nama_pse": "INTI DUNIA SUKSES",
            "nama_se": "MITRA I.SAKU",
            "sektor": "Sektor Keuangan",
            "tanggal_terbit": "2023-05-24",
            "url_tdpse_detail": "https://pse.komdigi.go.id/tdpse-detail/14836",
            "website": "-"
        },
        {
            "id": "9cb1ac44-631e-46a5-b91f-ea099242aa97",
            "nama_pse": "CIPTA INTEGRASI NUSANTARA",
            "nama_se": "NOTES.CO.ID",
            "sektor": "Sektor Kesehatan, Sektor Teknologi Informasi dan Komunikasi",
            "tanggal_terbit": "2023-05-24",
            "url_tdpse_detail": "https://pse.komdigi.go.id/tdpse-detail/14843",
            "website": "notes.co.id"
        },
        {
            "id": "9cb1ac22-89d0-48d3-bd87-ff35e986f1f4",
            "nama_pse": "HARMONI DINAMIK INDONESIA",
            "nama_se": "I-HDI",
            "sektor": "Sektor Perdagangan, Sektor Teknologi Informasi dan Komunikasi",
            "tanggal_terbit": "2023-05-24",
            "url_tdpse_detail": "https://pse.komdigi.go.id/tdpse-detail/14839",
            "website": "-"
        },
        {
            "id": "9cb1ac44-6728-40f9-a744-c5da4e8582bb",
            "nama_pse": "RS PKU MUHAMMADIYAH GAMPING",
            "nama_se": "SMART'S MEDICAL RECORD",
            "sektor": "Sektor Kesehatan",
            "tanggal_terbit": "2023-05-24",
            "url_tdpse_detail": "https://pse.komdigi.go.id/tdpse-detail/14840",
            "website": "pkugamping.com"
        },
        {
            "id": "9cb1ac44-6dd8-4052-87dd-14b799dce975",
            "nama_pse": "ANAGATA TEKNOLOGI SABAGYA",
            "nama_se": "PT ANAGATA TEKNOLOGI SABAGYA",
            "sektor": "Sektor Perdagangan, Sektor Teknologi Informasi dan Komunikasi",
            "tanggal_terbit": "2023-05-24",
            "url_tdpse_detail": "https://pse.komdigi.go.id/tdpse-detail/14846",
            "website": "astamaadijayateknologi.com"
        },
        {
            "id": "9cb1ac44-711a-47ff-9e69-eefb509aa60d",
            "nama_pse": "GAMATECHNO INDONESIA",
            "nama_se": "WORXSPACE",
            "sektor": "Sektor Teknologi Informasi dan Komunikasi",
            "tanggal_terbit": "2023-05-24",
            "url_tdpse_detail": "https://pse.komdigi.go.id/tdpse-detail/14841",
            "website": "worxspace.id"
        },
        {
            "id": "9cb1ac34-f0d2-4bca-82c2-f5aa793e3730",
            "nama_pse": "SECRE KARYA KREATIF",
            "nama_se": "BEBAS JAM KERJA",
            "sektor": "Sektor Teknologi Informasi dan Komunikasi",
            "tanggal_terbit": "2023-05-24",
            "url_tdpse_detail": "https://pse.komdigi.go.id/tdpse-detail/14842",
            "website": "bebasjamkerja.com"
        },
        {
            "id": "9cb1ac44-780b-4128-b331-2177b8611f57",
            "nama_pse": "YESBOSS GROUP INDONESIA",
            "nama_se": "BUSINESS DASHBOARD \u0026 CHATBOT",
            "sektor": "Sektor Teknologi Informasi dan Komunikasi",
            "tanggal_terbit": "2023-05-24",
            "url_tdpse_detail": "https://pse.komdigi.go.id/tdpse-detail/14844",
            "website": "business.kata.ai"
        },
        {
            "id": "9cb1ac44-7e38-4437-b254-b1d068a4f2f0",
            "nama_pse": "TEKNOLOGI OTTO SAYAKA",
            "nama_se": "PT TEKNOLOGI OTTO SAYAKA",
            "sektor": "Sektor Perdagangan, Sektor Teknologi Informasi dan Komunikasi",
            "tanggal_terbit": "2023-05-24",
            "url_tdpse_detail": "https://pse.komdigi.go.id/tdpse-detail/14845",
            "website": "teknologiottosayaka.com"
        },
        {
            "id": "9cb1ac40-88a8-4cdc-8593-ad799fd47678",
            "nama_pse": "ECOMMERCELOKA SOLUSI BANGSA",
            "nama_se": "ECOMMERCELOKA LOKA ENGINE BOOKING SYSTEM",
            "sektor": "Sektor Perdagangan",
            "tanggal_terbit": "2023-05-23",
            "url_tdpse_detail": "https://pse.komdigi.go.id/tdpse-detail/14832",
            "website": "ecommerceloka.com"
        },
        {
            "id": "9cb1ac22-2718-446e-8798-ac1dba6685f5",
            "nama_pse": "PERTAMINA BINA MEDIKA IHC",
            "nama_se": "SIRUP (SISTEM INFORMASI RUMAH SAKIT PERTAMEDIKA)",
            "sektor": "Sektor Kesehatan",
            "tanggal_terbit": "2023-05-23",
            "url_tdpse_detail": "https://pse.komdigi.go.id/tdpse-detail/14826",
            "website": "rsppbm.ihc.id"
        },
        {
            "id": "9cb1ac44-1398-450c-91ab-e122bde1fff3",
            "nama_pse": "INTI CAKRAWALA CITRA",
            "nama_se": "INDOGROSIRKU",
            "sektor": "Sektor Perdagangan",
            "tanggal_terbit": "2023-05-23",
            "url_tdpse_detail": "https://pse.komdigi.go.id/tdpse-detail/14828",
            "website": "indogrosirku.klikindogrosir.com"
        },
        {
            "id": "9cb1ac44-2361-4c57-808a-74dbf1a530ac",
            "nama_pse": "DANAKU DANAMU MAKMUR",
            "nama_se": "DAKUMU",
            "sektor": "Sektor Teknologi Informasi dan Komunikasi",
            "tanggal_terbit": "2023-05-23",
            "url_tdpse_detail": "https://pse.komdigi.go.id/tdpse-detail/14825",
            "website": "-"
        },
        {
            "id": "9cb1ac22-6833-4e47-8230-0fd2c643dd9c",
            "nama_pse": "WAHYU WIBOWO",
            "nama_se": "IMANAGE WALLPOST",
            "sektor": "Sektor Perdagangan, Sektor Teknologi Informasi dan Komunikasi",
            "tanggal_terbit": "2023-05-23",
            "url_tdpse_detail": "https://pse.komdigi.go.id/tdpse-detail/14824",
            "website": "-"
        },
        {
            "id": "9cb1ac22-7572-4e28-8061-6c007d379cd3",
            "nama_pse": "CREATIVE GAMA STUDIO",
            "nama_se": "CREATIVEGAMASTUDIO.COM",
            "sektor": "Sektor Teknologi Informasi dan Komunikasi",
            "tanggal_terbit": "2023-05-23",
            "url_tdpse_detail": "https://pse.komdigi.go.id/tdpse-detail/14827",
            "website": "creativegamastudio.com"
        },
        {
            "id": "9cb1ac34-e570-4c31-bbf4-0d2ea3b44cd5",
            "nama_pse": "METABASE TEKNOLOGI ASIA",
            "nama_se": "HYFEN",
            "sektor": "Sektor Teknologi Informasi dan Komunikasi",
            "tanggal_terbit": "2023-05-23",
            "url_tdpse_detail": "https://pse.komdigi.go.id/tdpse-detail/14831",
            "website": "hyfen.gg"
        },
        {
            "id": "9cb1ac22-80e1-4073-9633-b3c48be8dde3",
            "nama_pse": "ANUGERAH LESTARI TEKNOKREASI",
            "nama_se": "KONSULTASI SISTEM MANAJEMEN KEAMANAN INFORMASI",
            "sektor": "Sektor Perdagangan, Sektor Teknologi Informasi dan Komunikasi",
            "tanggal_terbit": "2023-05-23",
            "url_tdpse_detail": "https://pse.komdigi.go.id/tdpse-detail/14833",
            "website": "-"
        },
        {
            "id": "9cb1ac33-867a-4be6-8fd0-9c57dacd5705",
            "nama_pse": "MELAKA COMMERCE TECHNOLOGIES",
            "nama_se": "MELAKA",
            "sektor": "Sektor Perdagangan",
            "tanggal_terbit": "2023-05-22",
            "url_tdpse_detail": "https://pse.komdigi.go.id/tdpse-detail/14805",
            "website": "market.melaka.app"
        },
        {
            "id": "9cb1ac22-08f9-4b85-8f07-f52c3e7e91a5",
            "nama_pse": "Kesehatan Greja Kristen Jawi Wetan",
            "nama_se": "SIMRS MARSUDI WALUYO",
            "sektor": "Sektor Kesehatan, Sektor Teknologi Informasi dan Komunikasi",
            "tanggal_terbit": "2023-05-22",
            "url_tdpse_detail": "https://pse.komdigi.go.id/tdpse-detail/14787",
            "website": "rsmarsudiwaluyo.com"
        },
        {
            "id": "9cb1ac34-b532-4590-9a26-659013d0b1e4",
            "nama_pse": "HIDUP MAKMUR SEJAHTERA",
            "nama_se": "SISTEM INFORMASI MANAJEMEN RUMAH SAKIT FATHMA MEDIKA",
            "sektor": "Sektor Kesehatan",
            "tanggal_terbit": "2023-05-22",
            "url_tdpse_detail": "https://pse.komdigi.go.id/tdpse-detail/14803",
            "website": "rumahsakitfathmamedika.com"
        },
        {
            "id": "9cb1ac44-4348-4e40-945e-3a66fb898e04",
            "nama_pse": "METTA CIPTA LESTARI",
            "nama_se": "MKLINIK",
            "sektor": "Sektor Perdagangan, Sektor Kesehatan, Sektor Teknologi Informasi dan Komunikasi",
            "tanggal_terbit": "2023-05-22",
            "url_tdpse_detail": "https://pse.komdigi.go.id/tdpse-detail/14802",
            "website": "-"
        },
        {
            "id": "9cb1ac44-47cc-4329-a9fc-cc66541f50dd",
            "nama_pse": "AKAMAI TEKNOLOGI INDONESIA",
            "nama_se": "LINODE CLOUD MANAGER (CLOUD MANAGER)",
            "sektor": "Sektor Teknologi Informasi dan Komunikasi",
            "tanggal_terbit": "2023-05-22",
            "url_tdpse_detail": "https://pse.komdigi.go.id/tdpse-detail/14818",
            "website": "linode.com"
        },
        {
            "id": "9cb1ac44-4b0b-4e9d-b7f7-66905579f107",
            "nama_pse": "AVA REVOTA",
            "nama_se": "REVOTA.ID",
            "sektor": "Sektor Perdagangan, Sektor Teknologi Informasi dan Komunikasi",
            "tanggal_terbit": "2023-05-22",
            "url_tdpse_detail": "https://pse.komdigi.go.id/tdpse-detail/14804",
            "website": "revota.id"
        },
        {
            "id": "9cb1ac44-508a-461b-b397-61739d8ae379",
            "nama_pse": "WAHYU WIBOWO",
            "nama_se": "TAMIAS POS",
            "sektor": "Sektor Perdagangan, Sektor Teknologi Informasi dan Komunikasi",
            "tanggal_terbit": "2023-05-22",
            "url_tdpse_detail": "https://pse.komdigi.go.id/tdpse-detail/14809",
            "website": "wallpostsoftware.com"
        },
        {
            "id": "9cb1ac34-c983-4dd5-8c14-a3df9a21291d",
            "nama_pse": "JONDA LUBELI SEJAHTERA",
            "nama_se": "SIMRS PINNA",
            "sektor": "Sektor Kesehatan",
            "tanggal_terbit": "2023-05-22",
            "url_tdpse_detail": "https://pse.komdigi.go.id/tdpse-detail/14813",
            "website": "rspinnabekasi.com"
        },
        {
            "id": "9cb1ac34-cfbf-4737-bb58-426e4d163483",
            "nama_pse": "JAGADRAYA JARING TERDISTRIBUSI",
            "nama_se": "J-WALLET",
            "sektor": "Sektor Teknologi Informasi dan Komunikasi",
            "tanggal_terbit": "2023-05-22",
            "url_tdpse_detail": "https://pse.komdigi.go.id/tdpse-detail/14819",
            "website": "-"
        },
        {
            "id": "9cb1ac33-17d1-44b6-bbec-b1a1fb97ffe5",
            "nama_pse": "CENTAURI TEKNOLOGI MANDIRI",
            "nama_se": "REKMED.COM",
            "sektor": "Sektor Kesehatan",
            "tanggal_terbit": "2023-05-20",
            "url_tdpse_detail": "https://pse.komdigi.go.id/tdpse-detail/14773",
            "website": "rekmed.com"
        },
        {
            "id": "9cb1ac44-0775-4dd4-810c-41e56aac4e3c",
            "nama_pse": "KANAL TEKNOLOGI INDONESIA",
            "nama_se": "PT KANAL TEKNOLOGI INDONESIA",
            "sektor": "Sektor Teknologi Informasi dan Komunikasi",
            "tanggal_terbit": "2023-05-20",
            "url_tdpse_detail": "https://pse.komdigi.go.id/tdpse-detail/14775",
            "website": "Bluezi.co.id"
        },
        {
            "id": "9cb1ac34-8cf8-407c-97a1-8025167d9e47",
            "nama_pse": "RSIA AISYIAH",
            "nama_se": "SIMRS KHANZA",
            "sektor": "Sektor Kesehatan",
            "tanggal_terbit": "2023-05-20",
            "url_tdpse_detail": "https://pse.komdigi.go.id/tdpse-detail/14774",
            "website": "rsiaaisyiyah.com"
        },
        {
            "id": "9cb1ac43-ed74-4731-9b97-0a8658ca6106",
            "nama_pse": "BANK PERKREDITAN RAKYAT SEJAHTERA BATAM",
            "nama_se": "WEBSITE BPR SEJAHTERA BATAM (.CO.ID)",
            "sektor": "Sektor Keuangan",
            "tanggal_terbit": "2023-05-19",
            "url_tdpse_detail": "https://pse.komdigi.go.id/tdpse-detail/14755",
            "website": "bprsb-online.co.id"
        },
        {
            "id": "9cb1ac34-42ac-479e-a615-3b22a6e29c86",
            "nama_pse": "BANK PERKREDITAN RAKYAT SEJAHTERA BATAM",
            "nama_se": "SB MOBILE",
            "sektor": "Sektor Keuangan",
            "tanggal_terbit": "2023-05-19",
            "url_tdpse_detail": "https://pse.komdigi.go.id/tdpse-detail/14756",
            "website": "digi.bprsb.co.id"
        },
        {
            "id": "9cb1ac34-4866-4d6c-ae1f-0cdf7774880b",
            "nama_pse": "BANK PERKREDITAN RAKYAT SEJAHTERA BATAM",
            "nama_se": "SB INTERNET BANKING",
            "sektor": "Sektor Keuangan",
            "tanggal_terbit": "2023-05-19",
            "url_tdpse_detail": "https://pse.komdigi.go.id/tdpse-detail/14757",
            "website": "bprsb.co.id"
        },
        {
            "id": "9cb1ac22-1db7-4338-9758-f64a351c4e49",
            "nama_pse": "HEXA DAYA MEDIKA",
            "nama_se": "MITRA HEALTH",
            "sektor": "Sektor Kesehatan, Sektor Teknologi Informasi dan Komunikasi",
            "tanggal_terbit": "2023-05-19",
            "url_tdpse_detail": "https://pse.komdigi.go.id/tdpse-detail/14760",
            "website": "-"
        },
        {
            "id": "9cb1ac22-20a0-4615-bf17-3f5a9dbb94f1",
            "nama_pse": "BANYUASIN MEDIA PUBLISHER",
            "nama_se": "GARISTINTA.COM",
            "sektor": "Sektor Teknologi Informasi dan Komunikasi",
            "tanggal_terbit": "2023-05-19",
            "url_tdpse_detail": "https://pse.komdigi.go.id/tdpse-detail/14761",
            "website": "garistinta.com"
        },
        {
            "id": "9cb1ac34-6a9e-4077-a5bc-9ac81d242890",
            "nama_pse": "KURNIA CIPTAMODA GEMILANG",
            "nama_se": "POMELOFASHION.COM",
            "sektor": "Sektor Perdagangan",
            "tanggal_terbit": "2023-05-19",
            "url_tdpse_detail": "https://pse.komdigi.go.id/tdpse-detail/14758",
            "website": "pomelofashion.com"
        },
        {
            "id": "9cb1ac44-0b14-4329-8333-6db14e4d3087",
            "nama_pse": "ELECTRIC VIVA CEPAT MAJU",
            "nama_se": "STROOM POWER",
            "sektor": "Sektor Perdagangan, Sektor Transportasi, Sektor Teknologi Informasi dan Komunikasi",
            "tanggal_terbit": "2023-05-19",
            "url_tdpse_detail": "https://pse.komdigi.go.id/tdpse-detail/14759",
            "website": "EVCM.COM"
        },
        {
            "id": "9cb1ac44-0fd1-4212-9e1f-eec504bbea8f",
            "nama_pse": "ANAGATA TEKNOLOGI MANDIRI",
            "nama_se": "EKYC",
            "sektor": "Sektor Teknologi Informasi dan Komunikasi",
            "tanggal_terbit": "2023-05-19",
            "url_tdpse_detail": "https://pse.komdigi.go.id/tdpse-detail/14762",
            "website": "anagata.co.id"
        }
    ],
    "processingTimeMs": 3,
    "query": "",
    "totalHits": 19131,
    "hitsPerPage": 50,
    "page": 139,
    "totalPages": 383
}