{
    "hits": [
        {
            "id": "9cb1aba6-f907-4ab4-b685-9a9fcb35080b",
            "nama_pse": "PUNDI MAS BERJAYA",
            "nama_se": "JOVA RESTO",
            "sektor": "Sektor Teknologi Informasi dan Komunikasi",
            "tanggal_terbit": "2022-07-15",
            "url_tdpse_detail": "https://pse.komdigi.go.id/tdpse-detail/5702",
            "website": "Jovaresto.com"
        },
        {
            "id": "9cb1aba6-fc02-4bda-b8aa-fe40d845785b",
            "nama_pse": "BANK PEMBANGUNAN DAERAH SULAWESI SELATAN DAN SULAWESI BARAT",
            "nama_se": "APLIKASI RENCANA BISNIS BANK",
            "sektor": "Sektor Teknologi Informasi dan Komunikasi",
            "tanggal_terbit": "2022-07-15",
            "url_tdpse_detail": "https://pse.komdigi.go.id/tdpse-detail/5754",
            "website": "rbb.banksulselbar.co.id"
        },
        {
            "id": "9cb1aba6-fdc9-426f-b46a-4e96763a32c2",
            "nama_pse": "PRIMA SYIRKAH INTERNATIONAL",
            "nama_se": "MRIMPORTIR.COM",
            "sektor": "Sektor Perdagangan",
            "tanggal_terbit": "2022-07-15",
            "url_tdpse_detail": "https://pse.komdigi.go.id/tdpse-detail/5699",
            "website": "mrimportir.com"
        },
        {
            "id": "9cb1aba6-ff8e-4d1b-9c80-24011c562aa3",
            "nama_pse": "BANK PEREKONOMIAN RAKYAT LINGGA SEJAHTERA",
            "nama_se": "WWW.BPRLINGGASEJAHTERA.CO.ID",
            "sektor": "Sektor Keuangan",
            "tanggal_terbit": "2022-07-15",
            "url_tdpse_detail": "https://pse.komdigi.go.id/tdpse-detail/5700",
            "website": "bprlinggasejahtera.co.id"
        },
        {
            "id": "9cb1ab9c-59e0-4c5a-8d74-35a21e4b26c8",
            "nama_pse": "BPR MODERN EXPRESS SULUT",
            "nama_se": "WEBSITE PERUSAHAAN BPR MODERN EXPRESS SULUT",
            "sektor": "Sektor Keuangan",
            "tanggal_terbit": "2022-07-15",
            "url_tdpse_detail": "https://pse.komdigi.go.id/tdpse-detail/5703",
            "website": "bprmodex-sulut.com"
        },
        {
            "id": "9cb1ab9c-5c10-438b-a8b8-160253d2b7fd",
            "nama_pse": "BANK PEMBANGUNAN DAERAH SULAWESI SELATAN DAN SULAWESI BARAT",
            "nama_se": "APLIKASI PROJECT MANAGEMENT",
            "sektor": "Sektor Teknologi Informasi dan Komunikasi",
            "tanggal_terbit": "2022-07-15",
            "url_tdpse_detail": "https://pse.komdigi.go.id/tdpse-detail/5706",
            "website": "pm.banksulselbar.co.id"
        },
        {
            "id": "9cb1abb0-bc94-4602-b8e1-927d7240728f",
            "nama_pse": "BANK PERKREDITAN RAKYAT GAJAH MUNGKUR",
            "nama_se": "IBS ONLINE",
            "sektor": "Sektor Keuangan",
            "tanggal_terbit": "2022-07-15",
            "url_tdpse_detail": "https://pse.komdigi.go.id/tdpse-detail/5704",
            "website": "bpr-gajahmungkur.com"
        },
        {
            "id": "9cb1aba7-0166-45d8-9d16-621864a311d0",
            "nama_pse": "BANK PEMBANGUNAN DAERAH KALIMANTAN SELATAN PERSERODA",
            "nama_se": "INTERNET BANKING BANK KALSEL",
            "sektor": "Sektor Keuangan",
            "tanggal_terbit": "2022-07-15",
            "url_tdpse_detail": "https://pse.komdigi.go.id/tdpse-detail/5705",
            "website": "digital.bankkalsel.co.id"
        },
        {
            "id": "9cb1abb0-be90-4fd0-b965-fd045c94e593",
            "nama_pse": "BANK PEMBANGUNAN DAERAH KALIMANTAN SELATAN PERSERODA",
            "nama_se": "INTERNET BANKING BISNIS BANK KALSEL",
            "sektor": "Sektor Keuangan",
            "tanggal_terbit": "2022-07-15",
            "url_tdpse_detail": "https://pse.komdigi.go.id/tdpse-detail/5707",
            "website": "digital.bankkalsel.co.id"
        },
        {
            "id": "9cb1aba7-0328-48a8-95de-be3c9b955455",
            "nama_pse": "BETA INTI MULTIFINANCE",
            "nama_se": "FINANSYS",
            "sektor": "Sektor Keuangan",
            "tanggal_terbit": "2022-07-15",
            "url_tdpse_detail": "https://pse.komdigi.go.id/tdpse-detail/5764",
            "website": "betainti.com"
        },
        {
            "id": "9cb1ab9c-5f22-4fce-8956-c7a697fcd448",
            "nama_pse": "BANK PEREKONOMIAN RAKYAT DELTA ARTHA KENCANA",
            "nama_se": "PT. BPR DELTA ARTHA KENCANA",
            "sektor": "Sektor Keuangan",
            "tanggal_terbit": "2022-07-15",
            "url_tdpse_detail": "https://pse.komdigi.go.id/tdpse-detail/5708",
            "website": "-"
        },
        {
            "id": "9cb1aba7-0574-4a69-906c-f606ef70414f",
            "nama_pse": "SALVUS INTI",
            "nama_se": "MOMENTIC BUSINESS",
            "sektor": "Sektor Teknologi Informasi dan Komunikasi",
            "tanggal_terbit": "2022-07-15",
            "url_tdpse_detail": "https://pse.komdigi.go.id/tdpse-detail/5710",
            "website": "momentic.salvus.id"
        },
        {
            "id": "9cb1abb0-c063-473c-a3b9-e9c9492c258d",
            "nama_pse": "KONTER DUA EMPAT",
            "nama_se": "KONTER 24 JAM",
            "sektor": "Sektor Perdagangan, Sektor Teknologi Informasi dan Komunikasi",
            "tanggal_terbit": "2022-07-15",
            "url_tdpse_detail": "https://pse.komdigi.go.id/tdpse-detail/5709",
            "website": "konter24jam.com"
        },
        {
            "id": "9cb1abb0-c230-4843-ae3f-54015eda077a",
            "nama_pse": "MARI MENGGAPAI MIMPI",
            "nama_se": "WWW.MEMBER.KHAIA.CO.ID",
            "sektor": "Sektor Perdagangan",
            "tanggal_terbit": "2022-07-15",
            "url_tdpse_detail": "https://pse.komdigi.go.id/tdpse-detail/5719",
            "website": "member.khaia.co.id"
        },
        {
            "id": "9cb1aba7-08f5-42e7-8c62-b3b05d4e6414",
            "nama_pse": "BANK NATIONALNOBU",
            "nama_se": "NOBU BANK88",
            "sektor": "Sektor Keuangan",
            "tanggal_terbit": "2022-07-15",
            "url_tdpse_detail": "https://pse.komdigi.go.id/tdpse-detail/5711",
            "website": "nobu8.nobubank.com"
        },
        {
            "id": "9cb1aba7-0abe-43a2-aead-0a5f45dcf881",
            "nama_pse": "BANK PEMBANGUNAN DAERAH KALIMANTAN SELATAN PERSERODA",
            "nama_se": "SP2D ONLINE BANK KALSEL",
            "sektor": "Sektor Keuangan",
            "tanggal_terbit": "2022-07-15",
            "url_tdpse_detail": "https://pse.komdigi.go.id/tdpse-detail/5712",
            "website": "sp2d.bankkalsel.co.id"
        },
        {
            "id": "9cb1abb0-c3ef-4b41-abc7-6e6f2da65491",
            "nama_pse": "DOEKU PEDULI INDONESIA",
            "nama_se": "DOEKU PEDULI INDONESIA",
            "sektor": "Sektor Keuangan, Sektor Teknologi Informasi dan Komunikasi",
            "tanggal_terbit": "2022-07-15",
            "url_tdpse_detail": "https://pse.komdigi.go.id/tdpse-detail/5714",
            "website": "doeku.id"
        },
        {
            "id": "9cb1abb0-c5e2-4f0f-aa71-ecf09580e445",
            "nama_pse": "BANK PERKREDITAN RAKYAT ARTATAMA SEJAHTERA",
            "nama_se": "BPR ARTATAMA SEJAHTERA",
            "sektor": "Sektor Keuangan",
            "tanggal_terbit": "2022-07-15",
            "url_tdpse_detail": "https://pse.komdigi.go.id/tdpse-detail/5713",
            "website": "-"
        },
        {
            "id": "9cb1ab9c-63db-4e18-bca3-aa84009d5006",
            "nama_pse": "SALVUS INTI",
            "nama_se": "SKYLAR",
            "sektor": "Sektor Perdagangan",
            "tanggal_terbit": "2022-07-15",
            "url_tdpse_detail": "https://pse.komdigi.go.id/tdpse-detail/5715",
            "website": "skylar.id"
        },
        {
            "id": "9cb1abb0-c826-4bcd-b792-8b46024e0b6e",
            "nama_pse": "BANK PEMBANGUNAN DAERAH KALIMANTAN SELATAN PERSERODA",
            "nama_se": "WEBSITE BANK KALSEL",
            "sektor": "Sektor Keuangan",
            "tanggal_terbit": "2022-07-15",
            "url_tdpse_detail": "https://pse.komdigi.go.id/tdpse-detail/5716",
            "website": "bankkalsel.co.id"
        },
        {
            "id": "9cb1abb0-ca89-4f6e-9440-643b7fb8d6ba",
            "nama_pse": "BANK PEMBANGUNAN DAERAH SULAWESI SELATAN DAN SULAWESI BARAT",
            "nama_se": "SIM SDM BANK SULSELBAR",
            "sektor": "Sektor Teknologi Informasi dan Komunikasi",
            "tanggal_terbit": "2022-07-15",
            "url_tdpse_detail": "https://pse.komdigi.go.id/tdpse-detail/5753",
            "website": "simsdm.banksulselbar.co.id"
        },
        {
            "id": "9cb1ab9c-68b7-449c-bda8-dc6bcadf58db",
            "nama_pse": "BANK PEREKONOMIAN RAKYAT NARPADA NUSA",
            "nama_se": "BANK NARPADA NUSA",
            "sektor": "Sektor Keuangan",
            "tanggal_terbit": "2022-07-15",
            "url_tdpse_detail": "https://pse.komdigi.go.id/tdpse-detail/5717",
            "website": "-"
        },
        {
            "id": "9cb1aba7-0ce6-4688-9cb3-10a705ce132c",
            "nama_pse": "BANK CENTRAL ASIA",
            "nama_se": "3DS CREDIT CARD",
            "sektor": "Sektor Keuangan",
            "tanggal_terbit": "2022-07-15",
            "url_tdpse_detail": "https://pse.komdigi.go.id/tdpse-detail/5723",
            "website": "-"
        },
        {
            "id": "9cb1aba7-0ec1-4f0a-909e-1ae951d2efb8",
            "nama_pse": "ASURANSI DAYIN MITRA",
            "nama_se": "WEB PORTAL WWW.ASURANSIDAYINMITRA.COM",
            "sektor": "Sektor Keuangan",
            "tanggal_terbit": "2022-07-15",
            "url_tdpse_detail": "https://pse.komdigi.go.id/tdpse-detail/5718",
            "website": "asuransidayinmitra.com"
        },
        {
            "id": "9cb1aba7-108a-4d54-ba31-48bcdc6d907e",
            "nama_pse": "BANK PEMBANGUNAN DAERAH KALIMANTAN SELATAN PERSERODA",
            "nama_se": "ONE STEP PAYROLL BANK KALSEL",
            "sektor": "Sektor Keuangan",
            "tanggal_terbit": "2022-07-15",
            "url_tdpse_detail": "https://pse.komdigi.go.id/tdpse-detail/5720",
            "website": "payroll.bankkalsel.co.id"
        },
        {
            "id": "9cb1abb0-cd15-4035-aab5-6430f35ab991",
            "nama_pse": "BANK PEREKONOMIAN RAKYAT MINDOSARI",
            "nama_se": "PT BPR MINDOSARI",
            "sektor": "Sektor Keuangan",
            "tanggal_terbit": "2022-07-15",
            "url_tdpse_detail": "https://pse.komdigi.go.id/tdpse-detail/5722",
            "website": "-"
        },
        {
            "id": "9cb1aba7-14f7-448b-8f5f-2b49c4f2f5e6",
            "nama_pse": "MARI MENGGAPAI MIMPI",
            "nama_se": "WWW.KHAIA.CO.ID",
            "sektor": "Sektor Perdagangan",
            "tanggal_terbit": "2022-07-15",
            "url_tdpse_detail": "https://pse.komdigi.go.id/tdpse-detail/5721",
            "website": "khaia.co.id"
        },
        {
            "id": "9cb1aba7-1743-4879-b3f6-d8753dc5d435",
            "nama_pse": "ASURANSI TAKAFUL UMUM",
            "nama_se": "TAKAFUL UMUM",
            "sektor": "Sektor Keuangan",
            "tanggal_terbit": "2022-07-15",
            "url_tdpse_detail": "https://pse.komdigi.go.id/tdpse-detail/5724",
            "website": "takafulumum.co.id"
        },
        {
            "id": "9cb1abb0-cfa2-491d-9255-9cce22d76b87",
            "nama_pse": "INDO TERA SOLUSINDO",
            "nama_se": "ITS PAYMENT",
            "sektor": "Sektor Perdagangan",
            "tanggal_terbit": "2022-07-15",
            "url_tdpse_detail": "https://pse.komdigi.go.id/tdpse-detail/5725",
            "website": "its-pulsa.com"
        },
        {
            "id": "9cb1aba7-1952-4db8-8817-78fb59f090e7",
            "nama_pse": "MNC ASURANSI INDONESIA",
            "nama_se": "PROTEKSI PINTAR (SI PINTAR)",
            "sektor": "Sektor Keuangan",
            "tanggal_terbit": "2022-07-15",
            "url_tdpse_detail": "https://pse.komdigi.go.id/tdpse-detail/5726",
            "website": "mnc-insurance.com"
        },
        {
            "id": "9cb1ab9c-6af5-4ea4-926b-05f275c14948",
            "nama_pse": "ASURANSI DAYIN MITRA",
            "nama_se": "APLIKASI DAYIN MOBILE",
            "sektor": "Sektor Keuangan",
            "tanggal_terbit": "2022-07-15",
            "url_tdpse_detail": "https://pse.komdigi.go.id/tdpse-detail/5730",
            "website": "-"
        },
        {
            "id": "9cb1abb0-d232-43ec-ac1f-a56f0094f75f",
            "nama_pse": "DAMARI",
            "nama_se": "TOPUPYUK",
            "sektor": "Sektor Perdagangan",
            "tanggal_terbit": "2022-07-15",
            "url_tdpse_detail": "https://pse.komdigi.go.id/tdpse-detail/5731",
            "website": "topupyuk.com"
        },
        {
            "id": "9cb1abb0-d746-42ed-b207-c3095d145bf7",
            "nama_pse": "IDMARCO PERKASA INDONESIA",
            "nama_se": "IDMARCO.COM",
            "sektor": "Sektor Perdagangan",
            "tanggal_terbit": "2022-07-15",
            "url_tdpse_detail": "https://pse.komdigi.go.id/tdpse-detail/5728",
            "website": "idmarco.com"
        },
        {
            "id": "9cb1ab9c-6e2a-444b-a571-72ebef3f50bd",
            "nama_pse": "BANK PEMBANGUNAN DAERAH JAMBI DISEBUT BANK JAMBI",
            "nama_se": "WEBSITE BANK JAMBI",
            "sektor": "Sektor Keuangan",
            "tanggal_terbit": "2022-07-15",
            "url_tdpse_detail": "https://pse.komdigi.go.id/tdpse-detail/5729",
            "website": "bankjambi.co.id"
        },
        {
            "id": "9cb1aba7-1b4e-4102-b912-0e3fa833ecd2",
            "nama_pse": "ASURANSI JIWA GENERALI INDONESIA",
            "nama_se": "AKUBERBAGI.COM",
            "sektor": "Sektor Keuangan",
            "tanggal_terbit": "2022-07-15",
            "url_tdpse_detail": "https://pse.komdigi.go.id/tdpse-detail/5732",
            "website": "akuberbagi.com"
        },
        {
            "id": "9cb1abb0-da8a-413c-9ec7-2afe4de5d5d2",
            "nama_pse": "BANK NATIONALNOBU",
            "nama_se": "NEOPAY",
            "sektor": "Sektor Keuangan",
            "tanggal_terbit": "2022-07-15",
            "url_tdpse_detail": "https://pse.komdigi.go.id/tdpse-detail/5733",
            "website": "nobuepay.nobubank.com"
        },
        {
            "id": "9cb1ab9c-7027-47c7-8805-3c36720ad4d9",
            "nama_pse": "MITSUI LEASING CAPITAL INDONESIA",
            "nama_se": "WEBSITE PERUSAHAAN",
            "sektor": "Sektor Keuangan",
            "tanggal_terbit": "2022-07-15",
            "url_tdpse_detail": "https://pse.komdigi.go.id/tdpse-detail/5734",
            "website": "mitsuilease.co.id"
        },
        {
            "id": "9cb1aba7-1d07-4463-a9d4-229eff544a47",
            "nama_pse": "BANK PERKREDITAN RAKYAT GEMA AMPEKKOTO SEJAHTERA",
            "nama_se": "MEDIA SOSIAL",
            "sektor": "Sektor Keuangan",
            "tanggal_terbit": "2022-07-15",
            "url_tdpse_detail": "https://pse.komdigi.go.id/tdpse-detail/5735",
            "website": "-"
        },
        {
            "id": "9cb1ab9c-74c1-4cdc-b1c5-17e0054f081e",
            "nama_pse": "BIKIN ORANG SUKSES",
            "nama_se": "BIKIN ORANG SUKSES",
            "sektor": "Sektor Perdagangan",
            "tanggal_terbit": "2022-07-15",
            "url_tdpse_detail": "https://pse.komdigi.go.id/tdpse-detail/5736",
            "website": "bosindonesia.id"
        },
        {
            "id": "9cb1ab9c-76a4-421f-9fd5-17a60644f6c1",
            "nama_pse": "ENGGAR PRASETYAWAN",
            "nama_se": "HDONETWORKCONSULTANT",
            "sektor": "Sektor Perdagangan, Sektor Teknologi Informasi dan Komunikasi",
            "tanggal_terbit": "2022-07-15",
            "url_tdpse_detail": "https://pse.komdigi.go.id/tdpse-detail/5737",
            "website": "hdonetworkconsultant.web.id"
        },
        {
            "id": "9cb1aba7-1f3c-4700-9bd5-16ed6b7d0a54",
            "nama_pse": "GEMINTANG KARYA DIGITAL",
            "nama_se": "DEALDEAL.ID",
            "sektor": "Sektor Perdagangan",
            "tanggal_terbit": "2022-07-15",
            "url_tdpse_detail": "https://pse.komdigi.go.id/tdpse-detail/5740",
            "website": "dealdeal.id"
        },
        {
            "id": "9cb1abb0-dd55-4bae-a93a-2abae1fdb905",
            "nama_pse": "BERLIAN SEJATI INDONESIA",
            "nama_se": "BSI NETWORK",
            "sektor": "Sektor Perdagangan",
            "tanggal_terbit": "2022-07-15",
            "url_tdpse_detail": "https://pse.komdigi.go.id/tdpse-detail/5738",
            "website": "bsisukses.com"
        },
        {
            "id": "9cb1aba7-213e-41e9-bc09-b0a2699eef1d",
            "nama_pse": "BANK PERKREDITAN RAKYAT SOLOK SAKATO",
            "nama_se": "PT. BPR SOLOK SAKATOA",
            "sektor": "Sektor Keuangan",
            "tanggal_terbit": "2022-07-15",
            "url_tdpse_detail": "https://pse.komdigi.go.id/tdpse-detail/5739",
            "website": "-"
        },
        {
            "id": "9cb1abb0-e4db-4e02-a568-9275f5df9347",
            "nama_pse": "BANK PERKREDITAN RAKYAT SARANTAU SASURAMBI",
            "nama_se": "PT BANK PERKREDTAN RAKYAT SARANTAU SASURAMBI",
            "sektor": "Sektor Keuangan",
            "tanggal_terbit": "2022-07-15",
            "url_tdpse_detail": "https://pse.komdigi.go.id/tdpse-detail/5743",
            "website": "-"
        },
        {
            "id": "9cb1aba7-2324-477c-a00a-240e4b45bfe6",
            "nama_pse": "SHOPEE INTERNATIONAL INDONESIA",
            "nama_se": "WEBSITE DAN APLIKASI MITRA SHOPEE",
            "sektor": "Sektor Keuangan",
            "tanggal_terbit": "2022-07-15",
            "url_tdpse_detail": "https://pse.komdigi.go.id/tdpse-detail/5741",
            "website": "mitra.shopee.co.id"
        },
        {
            "id": "9cb1abb0-ee17-4180-bd22-c33e5c09db5e",
            "nama_pse": "ASURANSI DAYIN MITRA",
            "nama_se": "DAYIN CARE",
            "sektor": "Sektor Keuangan",
            "tanggal_terbit": "2022-07-15",
            "url_tdpse_detail": "https://pse.komdigi.go.id/tdpse-detail/5742",
            "website": "-"
        },
        {
            "id": "9cb1abb0-f0e7-431f-8c11-39b68f23a978",
            "nama_pse": "ASURANSI JIWA GENERALI INDONESIA",
            "nama_se": "IPROPOSE YOU",
            "sektor": "Sektor Keuangan",
            "tanggal_terbit": "2022-07-15",
            "url_tdpse_detail": "https://pse.komdigi.go.id/tdpse-detail/5744",
            "website": "-"
        },
        {
            "id": "9cb1abb0-f384-4574-b8c6-bf90806af67d",
            "nama_pse": "INCLUSIVE FINANCE GROUP",
            "nama_se": "WEBSITE DANACITA",
            "sektor": "Sektor Keuangan",
            "tanggal_terbit": "2022-07-15",
            "url_tdpse_detail": "https://pse.komdigi.go.id/tdpse-detail/5746",
            "website": "danacita.co.id"
        },
        {
            "id": "9cb1ab9c-7a5c-481c-9017-b8e59f39460a",
            "nama_pse": "SHOPEE INTERNATIONAL INDONESIA",
            "nama_se": "WEBSITE DAN APLIKASI SHOPEEFOOD DRIVER",
            "sektor": "Sektor Keuangan",
            "tanggal_terbit": "2022-07-15",
            "url_tdpse_detail": "https://pse.komdigi.go.id/tdpse-detail/5747",
            "website": "shopeefood.co.id"
        },
        {
            "id": "9cb1aba7-26c0-4dc9-a89f-feba82a06234",
            "nama_pse": "MITRA PAJAKKU",
            "nama_se": "MITRA PAJAKKU",
            "sektor": "Sektor Teknologi Informasi dan Komunikasi",
            "tanggal_terbit": "2022-07-15",
            "url_tdpse_detail": "https://pse.komdigi.go.id/tdpse-detail/5749",
            "website": "pajakku.com"
        }
    ],
    "processingTimeMs": 4,
    "query": "",
    "totalHits": 19121,
    "hitsPerPage": 50,
    "page": 278,
    "totalPages": 383
}