{
    "hits": [
        {
            "id": "9cb1ac65-6521-4025-9a08-d44fc3a95d88",
            "nama_pse": "RUMAH SAKIT SOERYA",
            "nama_se": "SIMRS SOERYA",
            "sektor": "Sektor Kesehatan",
            "tanggal_terbit": "2023-12-22",
            "url_tdpse_detail": "https://pse.komdigi.go.id/tdpse-detail/17012",
            "website": "rsiasoerya.co.id"
        },
        {
            "id": "9cb1ac79-61a1-4773-b249-e9c579f08786",
            "nama_pse": "QLOK TEKNOLOGI INDONESIA",
            "nama_se": "QLOK APPS",
            "sektor": "Sektor Teknologi Informasi dan Komunikasi",
            "tanggal_terbit": "2023-12-22",
            "url_tdpse_detail": "https://pse.komdigi.go.id/tdpse-detail/17013",
            "website": "qlok.app"
        },
        {
            "id": "9cb1ac79-67b1-40f6-8524-dd42d14a5506",
            "nama_pse": "RUMAH SAKIT TK IV 01.07.03 PADANGSIDIMPUAN",
            "nama_se": "SIMRS",
            "sektor": "Sektor Kesehatan",
            "tanggal_terbit": "2023-12-22",
            "url_tdpse_detail": "https://pse.komdigi.go.id/tdpse-detail/17014",
            "website": "-"
        },
        {
            "id": "9cb1ac79-6b05-4fcc-b12a-7b2fb41a8ad7",
            "nama_pse": "JARINGAN LINTAS MULTIMEDIA",
            "nama_se": "BERITAJAR.COM",
            "sektor": "Sektor Teknologi Informasi dan Komunikasi",
            "tanggal_terbit": "2023-12-22",
            "url_tdpse_detail": "https://pse.komdigi.go.id/tdpse-detail/17015",
            "website": "beritajar.com"
        },
        {
            "id": "9cb1ac65-67f3-46f3-8b55-e48da5a2a5a5",
            "nama_pse": "SAMASTA CIPTA PERSADA",
            "nama_se": "NEOMR",
            "sektor": "Sektor Kesehatan, Sektor Teknologi Informasi dan Komunikasi",
            "tanggal_terbit": "2023-12-22",
            "url_tdpse_detail": "https://pse.komdigi.go.id/tdpse-detail/17016",
            "website": "neomr.id"
        },
        {
            "id": "9cb1ac65-6a5a-457e-8d7e-c0030ea95e43",
            "nama_pse": "HADI KARYA NUSANTARA",
            "nama_se": "IMS",
            "sektor": "Sektor Kesehatan, Sektor Teknologi Informasi dan Komunikasi",
            "tanggal_terbit": "2023-12-22",
            "url_tdpse_detail": "https://pse.komdigi.go.id/tdpse-detail/17017",
            "website": "hkn.co.id"
        },
        {
            "id": "9cb1ac65-6d33-4180-a546-dc2f66fd01aa",
            "nama_pse": "JOGIIA DIGITAL INDOTECH",
            "nama_se": "KURIRGO.ID",
            "sektor": "Sektor Teknologi Informasi dan Komunikasi",
            "tanggal_terbit": "2023-12-22",
            "url_tdpse_detail": "https://pse.komdigi.go.id/tdpse-detail/17018",
            "website": "kurirgo.id"
        },
        {
            "id": "9cb1ac51-da84-406e-ad6c-b0168b992ef7",
            "nama_pse": "JARINGAN LINTAS MULTIMEDIA",
            "nama_se": "WWW.BERITAJAR.COM",
            "sektor": "Sektor Teknologi Informasi dan Komunikasi",
            "tanggal_terbit": "2023-12-22",
            "url_tdpse_detail": "https://pse.komdigi.go.id/tdpse-detail/17019",
            "website": "-"
        },
        {
            "id": "9cb1ac51-dd96-45ab-9877-da65ce69be99",
            "nama_pse": "KESEHATAN  JIWA BINA KARSA",
            "nama_se": "SISTEM INFORMASI MANAJEMEN RUMAH SAKIT (SIMRS)",
            "sektor": "Sektor Kesehatan",
            "tanggal_terbit": "2023-12-22",
            "url_tdpse_detail": "https://pse.komdigi.go.id/tdpse-detail/17020",
            "website": "rsjbinakarsamedan.co.id"
        },
        {
            "id": "9cb1ac51-e034-438b-ab92-94d8a5759825",
            "nama_pse": "REJO HARTONO",
            "nama_se": "GILANG.COM",
            "sektor": "Sektor Teknologi Informasi dan Komunikasi",
            "tanggal_terbit": "2023-12-22",
            "url_tdpse_detail": "https://pse.komdigi.go.id/tdpse-detail/17021",
            "website": "-"
        },
        {
            "id": "9cb1ac64-98f2-4bce-bef9-f0679bd2dd8f",
            "nama_pse": "TARUDIN",
            "nama_se": "HILALTECHNO",
            "sektor": "Sektor Kesehatan, Sektor Teknologi Informasi dan Komunikasi",
            "tanggal_terbit": "2023-12-21",
            "url_tdpse_detail": "https://pse.komdigi.go.id/tdpse-detail/16989",
            "website": "hilaltechno.my.id"
        },
        {
            "id": "9cb1ac79-3f30-466f-b388-791bbc8dc0fb",
            "nama_pse": "PROVENIR DATA INDONESIA",
            "nama_se": "1DATAPIPE",
            "sektor": "Sektor Teknologi Informasi dan Komunikasi",
            "tanggal_terbit": "2023-12-21",
            "url_tdpse_detail": "https://pse.komdigi.go.id/tdpse-detail/16983",
            "website": "studio.eu.1datapipe.com"
        },
        {
            "id": "9cb1ac51-ad2e-43c2-b349-3ab13a234c08",
            "nama_pse": "SWA INDOMEDIKA PRIMA",
            "nama_se": "SIM KLINIK SEMANTIK",
            "sektor": "Sektor Kesehatan",
            "tanggal_terbit": "2023-12-21",
            "url_tdpse_detail": "https://pse.komdigi.go.id/tdpse-detail/16981",
            "website": "-"
        },
        {
            "id": "9cb1ac51-b04b-45d4-8778-986c6e7f313a",
            "nama_pse": "PEMBAYARAN DANA DIGITAL",
            "nama_se": "PAYMENT POINT ONLINE BANK (PPOB)",
            "sektor": "Sektor Teknologi Informasi dan Komunikasi",
            "tanggal_terbit": "2023-12-21",
            "url_tdpse_detail": "https://pse.komdigi.go.id/tdpse-detail/16982",
            "website": "payease.top"
        },
        {
            "id": "9cb1ac65-3209-484c-8e99-125447ab867f",
            "nama_pse": "BHAKTI ASIH MEDICA PRATAMA",
            "nama_se": "SIM KLINIK BHAKTI ASIH",
            "sektor": "Sektor Kesehatan",
            "tanggal_terbit": "2023-12-21",
            "url_tdpse_detail": "https://pse.komdigi.go.id/tdpse-detail/16985",
            "website": "-"
        },
        {
            "id": "9cb1ac79-4985-4aec-b749-09d9f5364401",
            "nama_pse": "BULLION ECOSYSTEM INTERNATIONAL",
            "nama_se": "AGI GOLD",
            "sektor": "Sektor Perdagangan",
            "tanggal_terbit": "2023-12-21",
            "url_tdpse_detail": "https://pse.komdigi.go.id/tdpse-detail/16986",
            "website": "agigold.id"
        },
        {
            "id": "9cb1ac65-3550-4709-97fe-eb65de52ac2d",
            "nama_pse": "PROJADA DIGITAL SOLUTIONS",
            "nama_se": "PJDTECH",
            "sektor": "Sektor Teknologi Informasi dan Komunikasi",
            "tanggal_terbit": "2023-12-21",
            "url_tdpse_detail": "https://pse.komdigi.go.id/tdpse-detail/16987",
            "website": "-"
        },
        {
            "id": "9cb1ac51-b982-415e-b98a-ae81bca1fef2",
            "nama_pse": "EKA JANUAR RESTU PRIBADI",
            "nama_se": "CUBEDENT",
            "sektor": "Sektor Kesehatan",
            "tanggal_terbit": "2023-12-21",
            "url_tdpse_detail": "https://pse.komdigi.go.id/tdpse-detail/16991",
            "website": "-"
        },
        {
            "id": "9cb1ac2f-2df4-4594-946b-d40ada7765e3",
            "nama_pse": "SENTUL SARANA MEDIKA",
            "nama_se": "RSIA SENTUL CIKAMPEK",
            "sektor": "Sektor Kesehatan",
            "tanggal_terbit": "2023-12-20",
            "url_tdpse_detail": "https://pse.komdigi.go.id/tdpse-detail/16973",
            "website": "rsiasentul.com"
        },
        {
            "id": "9cb1ac75-a718-49ac-8665-e8e74912d11d",
            "nama_pse": "HAKSATRYA BHASWARA",
            "nama_se": "SISTEM KLINIK PRATAMA LAYUR",
            "sektor": "Sektor Kesehatan",
            "tanggal_terbit": "2023-12-20",
            "url_tdpse_detail": "https://pse.komdigi.go.id/tdpse-detail/16952",
            "website": "kliniklyr.com"
        },
        {
            "id": "9cb1ac63-ed3c-421d-96c9-a825c819ec42",
            "nama_pse": "THE LORRY ONLINE INDONESIA",
            "nama_se": "THELORRY.COM",
            "sektor": "Sektor Transportasi",
            "tanggal_terbit": "2023-12-20",
            "url_tdpse_detail": "https://pse.komdigi.go.id/tdpse-detail/16970",
            "website": "THELORRY.COM"
        },
        {
            "id": "9cb1ac78-8b07-4e07-af7b-703a9a8aacdd",
            "nama_pse": "LOCONESIA DIGITAL NUSANTARA",
            "nama_se": "WEEKLOCO",
            "sektor": "Sektor Perdagangan",
            "tanggal_terbit": "2023-12-20",
            "url_tdpse_detail": "https://pse.komdigi.go.id/tdpse-detail/16966",
            "website": "weekloco.com"
        },
        {
            "id": "9cb1ac78-d200-4aec-9089-d36f8fb20299",
            "nama_pse": "YAYASAN RUMAH SAKIT ISLAM SUMATERA BARAT",
            "nama_se": "SISTEM INFORMASI MANAGEMENT RUMAH SAKIT YAYASAN RUMAH SAKIT ISLAM SUMATERA BARAT",
            "sektor": "Sektor Kesehatan",
            "tanggal_terbit": "2023-12-20",
            "url_tdpse_detail": "https://pse.komdigi.go.id/tdpse-detail/16967",
            "website": "rsiibnusinapadang.com"
        },
        {
            "id": "9cb1ac78-e296-4040-b364-95303e513cf1",
            "nama_pse": "CITAMA MARGA HUSADA",
            "nama_se": "SISTEM INFORMASI RUMAH SAKIT CITAMA",
            "sektor": "Sektor Kesehatan",
            "tanggal_terbit": "2023-12-20",
            "url_tdpse_detail": "https://pse.komdigi.go.id/tdpse-detail/17061",
            "website": "rscitama.com"
        },
        {
            "id": "9cb1ac64-ff32-46ef-9734-3c63e89d3261",
            "nama_pse": "RSU DR. F.L. TOBING SIBOLGA",
            "nama_se": "SISTEM INFORMASI MANAJEMEN RUMAH SAKIT (MYSIMRS E-RM)",
            "sektor": "Sektor Kesehatan, Sektor Teknologi Informasi dan Komunikasi",
            "tanggal_terbit": "2023-12-20",
            "url_tdpse_detail": "https://pse.komdigi.go.id/tdpse-detail/16950",
            "website": "-"
        },
        {
            "id": "9cb1ac65-0d7e-4e9d-8055-3b21c556c0f6",
            "nama_pse": "IZZO CIPTA INDONESIA",
            "nama_se": "IZZO KLINIK",
            "sektor": "Sektor Teknologi Informasi dan Komunikasi",
            "tanggal_terbit": "2023-12-20",
            "url_tdpse_detail": "https://pse.komdigi.go.id/tdpse-detail/16939",
            "website": "-"
        },
        {
            "id": "9cb1ac79-060d-441b-9b61-1ef186a146a7",
            "nama_pse": "TINTA RAKYAT NUSANTARA",
            "nama_se": "TINTARAKYATNUSANTARA.COM",
            "sektor": "Sektor Teknologi Informasi dan Komunikasi",
            "tanggal_terbit": "2023-12-20",
            "url_tdpse_detail": "https://pse.komdigi.go.id/tdpse-detail/16940",
            "website": "tintarakyatnusantara.com"
        },
        {
            "id": "9cb1ac79-09dd-498b-9744-a3e7e776e183",
            "nama_pse": "LISNA SYIFA PRIMA",
            "nama_se": "SIM LISNA",
            "sektor": "Sektor Perdagangan, Sektor Kesehatan, Sektor Teknologi Informasi dan Komunikasi",
            "tanggal_terbit": "2023-12-20",
            "url_tdpse_detail": "https://pse.komdigi.go.id/tdpse-detail/16943",
            "website": "-"
        },
        {
            "id": "9cb1ac79-0d58-4d69-b0f0-24ee2465500a",
            "nama_pse": "ANANDA PANCAGATI SETYA SEJAHTERA",
            "nama_se": "SIRUS",
            "sektor": "Sektor Kesehatan",
            "tanggal_terbit": "2023-12-20",
            "url_tdpse_detail": "https://pse.komdigi.go.id/tdpse-detail/16941",
            "website": "rsuananda.id"
        },
        {
            "id": "9cb1ac51-55e5-4c5d-9e4d-6f5a6c8d812f",
            "nama_pse": "RUMAH SAKIT UMUM DAERAH KABUPATEN CILACAP",
            "nama_se": "SIMRS RSUD CILACAP",
            "sektor": "Sektor Kesehatan",
            "tanggal_terbit": "2023-12-20",
            "url_tdpse_detail": "https://pse.komdigi.go.id/tdpse-detail/16942",
            "website": "-"
        },
        {
            "id": "9cb1ac79-1130-4c28-9ee9-9bf6bb25cb35",
            "nama_pse": "MITRA PLUMBON HEALTHCARE",
            "nama_se": "SIMRS MITRA PLUMBON HEALTHCARE",
            "sektor": "Sektor Kesehatan",
            "tanggal_terbit": "2023-12-20",
            "url_tdpse_detail": "https://pse.komdigi.go.id/tdpse-detail/16944",
            "website": "-"
        },
        {
            "id": "9cb1ac51-5921-4912-8f83-431d2ae5e403",
            "nama_pse": "WAHYU ISMA PUTRA",
            "nama_se": "SIMRS MANDIRI",
            "sektor": "Sektor Kesehatan",
            "tanggal_terbit": "2023-12-20",
            "url_tdpse_detail": "https://pse.komdigi.go.id/tdpse-detail/16945",
            "website": "rsuassalamgml.com"
        },
        {
            "id": "9cb1ac79-182a-4edc-a7b4-58954f4e01f2",
            "nama_pse": "DUNIA TSIRWAH INDONESIA",
            "nama_se": "TSIRWAH PESANTREN DIGITAL",
            "sektor": "Sektor Teknologi Informasi dan Komunikasi",
            "tanggal_terbit": "2023-12-20",
            "url_tdpse_detail": "https://pse.komdigi.go.id/tdpse-detail/16946",
            "website": "tsirwah.com"
        },
        {
            "id": "9cb1ac79-1b77-4d74-9bd5-e72e7e17b86f",
            "nama_pse": "BIDIK INFO NEWS",
            "nama_se": "BIDIKINFONEWS.COM",
            "sektor": "Sektor Teknologi Informasi dan Komunikasi",
            "tanggal_terbit": "2023-12-20",
            "url_tdpse_detail": "https://pse.komdigi.go.id/tdpse-detail/16947",
            "website": "-"
        },
        {
            "id": "9cb1ac51-5c42-4abb-879a-36f864e3c85e",
            "nama_pse": "AN NISAA HUSADA",
            "nama_se": "SIMRS RSU AN – NISAA’",
            "sektor": "Sektor Kesehatan",
            "tanggal_terbit": "2023-12-20",
            "url_tdpse_detail": "https://pse.komdigi.go.id/tdpse-detail/16948",
            "website": "annisaahospital.com"
        },
        {
            "id": "9cb1ac65-10ad-4eb1-bb1e-bd42706deb9b",
            "nama_pse": "YAYASAN MADINA BUKITTINGGI",
            "nama_se": "MADINA",
            "sektor": "Sektor Kesehatan",
            "tanggal_terbit": "2023-12-20",
            "url_tdpse_detail": "https://pse.komdigi.go.id/tdpse-detail/16949",
            "website": "-"
        },
        {
            "id": "9cb1ac65-14f5-4241-af2b-611bbca1adcd",
            "nama_pse": "PEKANBARU MEDIKAL SENTER",
            "nama_se": "SIMPEC",
            "sektor": "Sektor Kesehatan",
            "tanggal_terbit": "2023-12-20",
            "url_tdpse_detail": "https://pse.komdigi.go.id/tdpse-detail/16951",
            "website": "-"
        },
        {
            "id": "9cb1ac65-17ce-47a6-87da-735061e874c8",
            "nama_pse": "SUGIHARTONO AGRA MAKMUR",
            "nama_se": "NUSA MEDIKA",
            "sektor": "Sektor Kesehatan",
            "tanggal_terbit": "2023-12-20",
            "url_tdpse_detail": "https://pse.komdigi.go.id/tdpse-detail/16953",
            "website": "-"
        },
        {
            "id": "9cb1ac65-1d80-40b5-8c12-01619b0fe71e",
            "nama_pse": "TYA ADHYAKSA MEDIA",
            "nama_se": "ADHYAKSA NEWS",
            "sektor": "Sektor Teknologi Informasi dan Komunikasi",
            "tanggal_terbit": "2023-12-20",
            "url_tdpse_detail": "https://pse.komdigi.go.id/tdpse-detail/16954",
            "website": "-"
        },
        {
            "id": "9cb1ac51-5f15-4ea5-b640-d71c4e44215f",
            "nama_pse": "CITA MULIA",
            "nama_se": "PARIS (PARAHITA INFORMATION SISTEM)",
            "sektor": "Sektor Kesehatan",
            "tanggal_terbit": "2023-12-20",
            "url_tdpse_detail": "https://pse.komdigi.go.id/tdpse-detail/16956",
            "website": "labparahita.com"
        },
        {
            "id": "9cb1ac79-271c-4318-829a-0156d69dbede",
            "nama_pse": "YUSFINA",
            "nama_se": "SIMRS YUSFINA (SIMRS KHANZA)",
            "sektor": "Sektor Kesehatan, Sektor Teknologi Informasi dan Komunikasi",
            "tanggal_terbit": "2023-12-20",
            "url_tdpse_detail": "https://pse.komdigi.go.id/tdpse-detail/16955",
            "website": "-"
        },
        {
            "id": "9cb1ac51-6210-4691-b4df-f237619f23b6",
            "nama_pse": "KAMBANG MITRA HUSADA",
            "nama_se": "SIMRS-RME RSUKAMBANG",
            "sektor": "Sektor Kesehatan",
            "tanggal_terbit": "2023-12-20",
            "url_tdpse_detail": "https://pse.komdigi.go.id/tdpse-detail/16957",
            "website": "-"
        },
        {
            "id": "9cb1ac65-1ff4-41ac-940f-1056e84cbf88",
            "nama_pse": "AUREL",
            "nama_se": "SOFTWARE KLINIK CERDAS",
            "sektor": "Sektor Kesehatan",
            "tanggal_terbit": "2023-12-20",
            "url_tdpse_detail": "https://pse.komdigi.go.id/tdpse-detail/16958",
            "website": "-"
        },
        {
            "id": "9cb1ac51-6d50-46a9-943a-b05b4097d97f",
            "nama_pse": "INTERAKSI GLOBAL ONLINE",
            "nama_se": "IGO DIGITAL",
            "sektor": "Sektor Perdagangan, Sektor Teknologi Informasi dan Komunikasi",
            "tanggal_terbit": "2023-12-20",
            "url_tdpse_detail": "https://pse.komdigi.go.id/tdpse-detail/16959",
            "website": "igodigital.id"
        },
        {
            "id": "9cb1ac51-7687-4741-8d05-d46a81167fc5",
            "nama_pse": "SEI HARA PRIMA",
            "nama_se": "APOTERA",
            "sektor": "Sektor Perdagangan, Sektor Kesehatan",
            "tanggal_terbit": "2023-12-20",
            "url_tdpse_detail": "https://pse.komdigi.go.id/tdpse-detail/16960",
            "website": "apotera.id"
        },
        {
            "id": "9cb1ac51-7a04-4126-8e20-500f77c26a98",
            "nama_pse": "DARMAYU PURI KENCANA",
            "nama_se": "SIMRS DARMAYU",
            "sektor": "Sektor Kesehatan",
            "tanggal_terbit": "2023-12-20",
            "url_tdpse_detail": "https://pse.komdigi.go.id/tdpse-detail/16961",
            "website": "-"
        },
        {
            "id": "9cb1ac79-2fb6-42dd-b3af-692f3d3a7964",
            "nama_pse": "HARAPAN BUNDA BATAM",
            "nama_se": "SIMRS HARAPAN BUNDA",
            "sektor": "Sektor Kesehatan",
            "tanggal_terbit": "2023-12-20",
            "url_tdpse_detail": "https://pse.komdigi.go.id/tdpse-detail/16962",
            "website": "-"
        },
        {
            "id": "9cb1ac51-8777-4b94-8cf4-7e243435038f",
            "nama_pse": "KESDAM-II/SWJ MARKAS BESAR TNI AD KEMENTERIAN PERTAHANAN",
            "nama_se": "SIMRS KHANZA",
            "sektor": "Sektor Kesehatan",
            "tanggal_terbit": "2023-12-20",
            "url_tdpse_detail": "https://pse.komdigi.go.id/tdpse-detail/16965",
            "website": "-"
        },
        {
            "id": "9cb1ac79-329b-45a0-b8dd-a95f85a93c32",
            "nama_pse": "WIENDHA WINSTAR",
            "nama_se": "HOSCLOUD",
            "sektor": "Sektor Kesehatan, Sektor Teknologi Informasi dan Komunikasi",
            "tanggal_terbit": "2023-12-20",
            "url_tdpse_detail": "https://pse.komdigi.go.id/tdpse-detail/16964",
            "website": "hoscloud.co.id"
        },
        {
            "id": "9cb1ac51-9177-41a8-8a31-4287cb1c3b64",
            "nama_pse": "RUMAH SAKIT BHAYANGKARA MANADO",
            "nama_se": "SIMRS KHANZA RS BHAYANGKARA TK.III MANADO",
            "sektor": "Sektor Kesehatan, Sektor Teknologi Informasi dan Komunikasi",
            "tanggal_terbit": "2023-12-20",
            "url_tdpse_detail": "https://pse.komdigi.go.id/tdpse-detail/16963",
            "website": "-"
        }
    ],
    "processingTimeMs": 2,
    "query": "",
    "totalHits": 19131,
    "hitsPerPage": 50,
    "page": 100,
    "totalPages": 383
}