{
    "hits": [
        {
            "id": "9df75b43-bb06-459b-933a-ad23055d8f3e",
            "nama_pse": "SUPARDI NETHANEL HUSAIN",
            "nama_se": "https://www.zanio.co.id",
            "sektor": "Sektor Perdagangan",
            "tanggal_terbit": "2025-01-14",
            "url_tdpse_detail": "https://pse.komdigi.go.id/tdpse-detail/22095",
            "website": "everes.zanio.co.id"
        },
        {
            "id": "9df77fdf-9f1a-4eea-ae5a-f25d56c383c8",
            "nama_pse": "AGUNG PRADANA",
            "nama_se": "LAYANAN INTERNET LOKAL ( RT RW NET )",
            "sektor": "Sektor Teknologi Informasi dan Komunikasi",
            "tanggal_terbit": "2025-01-14",
            "url_tdpse_detail": "https://pse.komdigi.go.id/tdpse-detail/22096",
            "website": "-"
        },
        {
            "id": "9df69ccd-a817-4ab0-8b63-6f45d8a896da",
            "nama_pse": "HOOPI TEKNOLOGI INDONESIA",
            "nama_se": "HOOPI APP",
            "sektor": "Sektor Perdagangan",
            "tanggal_terbit": "2025-01-14",
            "url_tdpse_detail": "https://pse.komdigi.go.id/tdpse-detail/22089",
            "website": "-"
        },
        {
            "id": "9df7437b-1fcd-46fa-878a-e5f3506564cd",
            "nama_pse": "LILI STYLE INDONESIA",
            "nama_se": "APLIKASI LILI STYLE - FASHION SHOPPING",
            "sektor": "Sektor Perdagangan",
            "tanggal_terbit": "2025-01-14",
            "url_tdpse_detail": "https://pse.komdigi.go.id/tdpse-detail/22093",
            "website": "-"
        },
        {
            "id": "9df74a04-e861-4f97-8811-b1b3d67b6382",
            "nama_pse": "SYAMSU RIZAL",
            "nama_se": "KEDAIJASA TEKNOLOGI - JASA PEMBUATAN WEBSITE",
            "sektor": "Sektor Teknologi Informasi dan Komunikasi",
            "tanggal_terbit": "2025-01-14",
            "url_tdpse_detail": "https://pse.komdigi.go.id/tdpse-detail/22094",
            "website": "kedaijasa.biz.id"
        },
        {
            "id": "9df6d49d-48c0-4e8a-a569-0285991e46db",
            "nama_pse": "PURWANTO",
            "nama_se": "JOGJAJOBS.COM",
            "sektor": "Sektor Teknologi Informasi dan Komunikasi",
            "tanggal_terbit": "2025-01-14",
            "url_tdpse_detail": "https://pse.komdigi.go.id/tdpse-detail/22092",
            "website": "jogjajobs.com"
        },
        {
            "id": "9df69ac0-3c34-47f7-972d-04918d655217",
            "nama_pse": "PROTINDO MULTI TECHNO",
            "nama_se": "PROTINDO.COM",
            "sektor": "Sektor Teknologi Informasi dan Komunikasi",
            "tanggal_terbit": "2025-01-14",
            "url_tdpse_detail": "https://pse.komdigi.go.id/tdpse-detail/22088",
            "website": "protindo.com"
        },
        {
            "id": "9df48404-b0f6-4dfc-aa42-6112980f55f8",
            "nama_pse": "INDONESIA COMNETS PLUS",
            "nama_se": "CUSTOMER PORTAL",
            "sektor": "Sektor Teknologi Informasi dan Komunikasi",
            "tanggal_terbit": "2025-01-13",
            "url_tdpse_detail": "https://pse.komdigi.go.id/tdpse-detail/22077",
            "website": "customer.iconpln.co.id"
        },
        {
            "id": "9df4e28b-0e41-4a7d-8dd3-d4fa0207d82b",
            "nama_pse": "VOLCANO INTERNATIONAL TECHNOLOGY",
            "nama_se": "TIA JEWELRY",
            "sektor": "Sektor Perdagangan",
            "tanggal_terbit": "2025-01-13",
            "url_tdpse_detail": "https://pse.komdigi.go.id/tdpse-detail/22081",
            "website": "1001jewelrybox.com"
        },
        {
            "id": "9df4b78a-0b84-4662-96ef-922dc010b654",
            "nama_pse": "MITRA TEKNO MADANI",
            "nama_se": "PNMDIGI",
            "sektor": "Sektor Teknologi Informasi dan Komunikasi",
            "tanggal_terbit": "2025-01-13",
            "url_tdpse_detail": "https://pse.komdigi.go.id/tdpse-detail/22078",
            "website": "-"
        },
        {
            "id": "9df4fe17-a8bd-4a70-9300-659dd2fb766f",
            "nama_pse": "AWING TECHNOLOGIES AND MEDIA INDONESIA",
            "nama_se": "ADAPTIVE CAMPAIGN MANAGEMENT (\"ACM\")",
            "sektor": "Sektor Teknologi Informasi dan Komunikasi",
            "tanggal_terbit": "2025-01-13",
            "url_tdpse_detail": "https://pse.komdigi.go.id/tdpse-detail/22082",
            "website": "idn.awingacm.com"
        },
        {
            "id": "9df53e80-8639-4059-ba05-a912dba3eb96",
            "nama_pse": "LRT JAKARTA",
            "nama_se": "LRTJ APPS",
            "sektor": "Sektor Transportasi",
            "tanggal_terbit": "2025-01-13",
            "url_tdpse_detail": "https://pse.komdigi.go.id/tdpse-detail/22084",
            "website": "lrtjakarta.co.id"
        },
        {
            "id": "9df4e138-a3a8-4236-ac64-c7e3d658e9d4",
            "nama_pse": "SINERGI INSAN ANDALAN",
            "nama_se": "EDUWORK",
            "sektor": "Sektor Perdagangan, Sektor Teknologi Informasi dan Komunikasi",
            "tanggal_terbit": "2025-01-13",
            "url_tdpse_detail": "https://pse.komdigi.go.id/tdpse-detail/22080",
            "website": "eduwork.id"
        },
        {
            "id": "9df52d41-747c-4722-9cbf-84d323e1ad2e",
            "nama_pse": "INSPIRASI KREASI PROMOSI",
            "nama_se": "INSPIRASI KREASI PROMOSI",
            "sektor": "Sektor Perdagangan",
            "tanggal_terbit": "2025-01-13",
            "url_tdpse_detail": "https://pse.komdigi.go.id/tdpse-detail/22083",
            "website": "inspirasikreasipromosi.com"
        },
        {
            "id": "9df3c7b0-2e41-4357-8d08-0191113e527b",
            "nama_pse": "JASA NIAGA DIGITAL INDONESIA",
            "nama_se": "PT. JASA NIAGA DIGITAL INDONESIA",
            "sektor": "Sektor Teknologi Informasi dan Komunikasi",
            "tanggal_terbit": "2025-01-13",
            "url_tdpse_detail": "https://pse.komdigi.go.id/tdpse-detail/22076",
            "website": "jndi.my.id"
        },
        {
            "id": "9df575bb-da5f-4d12-a7b4-c75bf93847cb",
            "nama_pse": "AGLIO HEALTHY CHOICE",
            "nama_se": "KLASTER PINTAR",
            "sektor": "Sektor Teknologi Informasi dan Komunikasi",
            "tanggal_terbit": "2025-01-13",
            "url_tdpse_detail": "https://pse.komdigi.go.id/tdpse-detail/22085",
            "website": "-"
        },
        {
            "id": "9df2e123-0a4c-4aae-9ce1-7cf92164d59d",
            "nama_pse": "RAJA MUTIARA JAYA",
            "nama_se": "RAJAPEWARTADOTCOM",
            "sektor": "Sektor Teknologi Informasi dan Komunikasi, Sektor Pertahanan dan Keamanan",
            "tanggal_terbit": "2025-01-12",
            "url_tdpse_detail": "https://pse.komdigi.go.id/tdpse-detail/22073",
            "website": "rajapewarta.com"
        },
        {
            "id": "9df38f3e-eb9b-419e-a0f9-9ed4c7b76f9d",
            "nama_pse": "RIZKY PRABOWO RAHINO",
            "nama_se": "KALIMANTANSATU.COM",
            "sektor": "Sektor Teknologi Informasi dan Komunikasi",
            "tanggal_terbit": "2025-01-12",
            "url_tdpse_detail": "https://pse.komdigi.go.id/tdpse-detail/22075",
            "website": "kalimantansatu.com"
        },
        {
            "id": "9df2fffb-1a84-4b01-8b4a-ebe700678397",
            "nama_pse": "BANTU BERAMAL BERSAMA",
            "nama_se": "BANTUBERSAMA",
            "sektor": "Sektor Teknologi Informasi dan Komunikasi",
            "tanggal_terbit": "2025-01-12",
            "url_tdpse_detail": "https://pse.komdigi.go.id/tdpse-detail/22074",
            "website": "bantubersama.com"
        },
        {
            "id": "9df0c5ab-28e8-4ea5-9235-74816d7fdf4c",
            "nama_pse": "SINGARAJA BALI TOUR",
            "nama_se": "SINGARAJA BALI TOUR",
            "sektor": "Sektor Perdagangan, Sektor Transportasi, Sektor Teknologi Informasi dan Komunikasi",
            "tanggal_terbit": "2025-01-11",
            "url_tdpse_detail": "https://pse.komdigi.go.id/tdpse-detail/22071",
            "website": "balinorthentour.com"
        },
        {
            "id": "9df11ef4-4515-4ee9-acba-5baf6390954d",
            "nama_pse": "FAHRY SEPTIAN",
            "nama_se": "KETUAWEB",
            "sektor": "Sektor Teknologi Informasi dan Komunikasi",
            "tanggal_terbit": "2025-01-11",
            "url_tdpse_detail": "https://pse.komdigi.go.id/tdpse-detail/22072",
            "website": "ketuaweb.com"
        },
        {
            "id": "9def6dbd-92cb-46ce-b345-120b6e689cf6",
            "nama_pse": "DISKAID NETWORK SOLUTION",
            "nama_se": "PRIMENET HOME",
            "sektor": "Sektor Teknologi Informasi dan Komunikasi",
            "tanggal_terbit": "2025-01-10",
            "url_tdpse_detail": "https://pse.komdigi.go.id/tdpse-detail/22070",
            "website": "ebilling.diskaid.net"
        },
        {
            "id": "9dee555d-4221-41ed-a27a-9967d74dc28d",
            "nama_pse": "SRIANI PURBA INDAH",
            "nama_se": "SRIANI",
            "sektor": "Sektor Kesehatan",
            "tanggal_terbit": "2025-01-10",
            "url_tdpse_detail": "https://pse.komdigi.go.id/tdpse-detail/22065",
            "website": "-"
        },
        {
            "id": "9dee90ca-1f6f-48a6-92a5-da30c036fc3a",
            "nama_pse": "USAHA LOGISTIK INVESTAMA",
            "nama_se": "MEDEX",
            "sektor": "Sektor Transportasi",
            "tanggal_terbit": "2025-01-10",
            "url_tdpse_detail": "https://pse.komdigi.go.id/tdpse-detail/22066",
            "website": "medex.pt-uli.net"
        },
        {
            "id": "9deeb26c-9279-473a-ad7e-290de700140f",
            "nama_pse": "SAUNG PATRA BAGJA",
            "nama_se": "APLIKASI RAPUZO",
            "sektor": "Sektor Teknologi Informasi dan Komunikasi",
            "tanggal_terbit": "2025-01-10",
            "url_tdpse_detail": "https://pse.komdigi.go.id/tdpse-detail/22067",
            "website": "praktek-pelintung.rapuzo.com"
        },
        {
            "id": "9def1ee3-deb0-4274-a1ca-5f6be5cc315e",
            "nama_pse": "MELVIN STANLEY",
            "nama_se": "WEBSITE TOP-UP GAME ELEKTRONIK",
            "sektor": "Sektor Teknologi Informasi dan Komunikasi",
            "tanggal_terbit": "2025-01-10",
            "url_tdpse_detail": "https://pse.komdigi.go.id/tdpse-detail/22069",
            "website": "zysgamecorner.com"
        },
        {
            "id": "9df68bd8-c407-4691-a23f-68ac91bf1940",
            "nama_pse": "ASTRA INTERNATIONAL",
            "nama_se": "MOTORKUX",
            "sektor": "Sektor Perdagangan",
            "tanggal_terbit": "2025-01-10",
            "url_tdpse_detail": "https://pse.komdigi.go.id/tdpse-detail/22087",
            "website": "motorkux.id"
        },
        {
            "id": "9def15d3-d509-4bee-b803-e8ffbcb14699",
            "nama_pse": "ENSIGN INFOSECURITY INDONESIA",
            "nama_se": "WORKDAY",
            "sektor": "Sektor Perdagangan, Sektor Teknologi Informasi dan Komunikasi",
            "tanggal_terbit": "2025-01-10",
            "url_tdpse_detail": "https://pse.komdigi.go.id/tdpse-detail/22068",
            "website": "ensigninfosecurity.com"
        },
        {
            "id": "9decfe33-1ee0-4344-af3c-188feea083d1",
            "nama_pse": "NOOR SEDULUR ABADI",
            "nama_se": "SIM RS RSIJS",
            "sektor": "Sektor Teknologi Informasi dan Komunikasi",
            "tanggal_terbit": "2025-01-09",
            "url_tdpse_detail": "https://pse.komdigi.go.id/tdpse-detail/22060",
            "website": "-"
        },
        {
            "id": "9ded6ac0-59eb-4d51-80b1-c8948c2785c4",
            "nama_pse": "PRIORITAS INDO RAYA",
            "nama_se": "PRIORITAS INDO RAYA",
            "sektor": "Sektor Perdagangan",
            "tanggal_terbit": "2025-01-09",
            "url_tdpse_detail": "https://pse.komdigi.go.id/tdpse-detail/22062",
            "website": "-"
        },
        {
            "id": "9cb1ac6a-9ada-4510-8411-480a5512c632",
            "nama_pse": "BUDIYANTO",
            "nama_se": "PASUH",
            "sektor": "Sektor Perdagangan, Sektor Teknologi Informasi dan Komunikasi",
            "tanggal_terbit": "2025-01-09",
            "url_tdpse_detail": "https://pse.komdigi.go.id/tdpse-detail/22057",
            "website": "pasuh.com"
        },
        {
            "id": "9decf63d-c07f-4688-8abf-8b9ca02b8eb4",
            "nama_pse": "SOFYAN MAULANA",
            "nama_se": "LAYANAN INTERNET LOKAL ( RT RW NET )",
            "sektor": "Sektor Teknologi Informasi dan Komunikasi",
            "tanggal_terbit": "2025-01-09",
            "url_tdpse_detail": "https://pse.komdigi.go.id/tdpse-detail/22058",
            "website": "-"
        },
        {
            "id": "9ded0bc8-5321-48ad-9de7-bdb31da0f3a5",
            "nama_pse": "SARANA KITA SEJAHTERA",
            "nama_se": "PT SARANA KITA SEJAHTERA",
            "sektor": "Sektor Teknologi Informasi dan Komunikasi",
            "tanggal_terbit": "2025-01-09",
            "url_tdpse_detail": "https://pse.komdigi.go.id/tdpse-detail/22061",
            "website": "saranakitasejahtera.com"
        },
        {
            "id": "9ded8756-7248-4a0e-882b-b8e8bfa3bc17",
            "nama_pse": "RASDIN MAULANA",
            "nama_se": "WALINET",
            "sektor": "Sektor Teknologi Informasi dan Komunikasi",
            "tanggal_terbit": "2025-01-09",
            "url_tdpse_detail": "https://pse.komdigi.go.id/tdpse-detail/22063",
            "website": "-"
        },
        {
            "id": "9dec76bd-ce33-463f-9332-9e68a4c57460",
            "nama_pse": "LINTANG GLOBAL TECHNOLOGY",
            "nama_se": "KREATIP.ID",
            "sektor": "Sektor Teknologi Informasi dan Komunikasi",
            "tanggal_terbit": "2025-01-09",
            "url_tdpse_detail": "https://pse.komdigi.go.id/tdpse-detail/22054",
            "website": "kreatip.id"
        },
        {
            "id": "9debbdf4-b14c-473c-a674-ac4392f387d3",
            "nama_pse": "MARIA",
            "nama_se": "CHOCHO MARKET",
            "sektor": "Sektor Perdagangan",
            "tanggal_terbit": "2025-01-09",
            "url_tdpse_detail": "https://pse.komdigi.go.id/tdpse-detail/22053",
            "website": "-"
        },
        {
            "id": "9dec9af2-2cb7-4dd2-8396-0dac40e6065f",
            "nama_pse": "JIVA AGRICULTURE INDONESIA",
            "nama_se": "JIVA AGRO",
            "sektor": "Sektor Perdagangan",
            "tanggal_terbit": "2025-01-09",
            "url_tdpse_detail": "https://pse.komdigi.go.id/tdpse-detail/22055",
            "website": "jiva.ag"
        },
        {
            "id": "9deca63c-cda2-4133-a92c-77155abb3272",
            "nama_pse": "JIVA AGRICULTURE INDONESIA",
            "nama_se": "JIVA PETANI",
            "sektor": "Sektor Perdagangan",
            "tanggal_terbit": "2025-01-09",
            "url_tdpse_detail": "https://pse.komdigi.go.id/tdpse-detail/22056",
            "website": "jivapetani.co.id"
        },
        {
            "id": "9decfdc5-75be-4f07-8e35-3dcd18d43190",
            "nama_pse": "STOREPAY FINTECH INDONESIA",
            "nama_se": "STOREPAY INDONESIA",
            "sektor": "Sektor Teknologi Informasi dan Komunikasi",
            "tanggal_terbit": "2025-01-09",
            "url_tdpse_detail": "https://pse.komdigi.go.id/tdpse-detail/22059",
            "website": "storepay.id"
        },
        {
            "id": "9ded9a18-c16e-4e58-bf5f-acb01c35a677",
            "nama_pse": "MINARSIH SUMBER REJEKI",
            "nama_se": "MINAPLAY.ID",
            "sektor": "Sektor Teknologi Informasi dan Komunikasi",
            "tanggal_terbit": "2025-01-09",
            "url_tdpse_detail": "https://pse.komdigi.go.id/tdpse-detail/22064",
            "website": "minaplay.id"
        },
        {
            "id": "9dea895b-d5cd-41bd-b6d8-290534320163",
            "nama_pse": "RICHEESE KULINER INDONESIA",
            "nama_se": "RICHEESE FACTORY (MOBILE APP)",
            "sektor": "Sektor Perdagangan",
            "tanggal_terbit": "2025-01-08",
            "url_tdpse_detail": "https://pse.komdigi.go.id/tdpse-detail/22047",
            "website": "-"
        },
        {
            "id": "9deaa100-2d7d-4793-9468-43712224eca4",
            "nama_pse": "GARENA INDONESIA",
            "nama_se": "GARENA DELTA FORCE",
            "sektor": "Sektor Teknologi Informasi dan Komunikasi",
            "tanggal_terbit": "2025-01-08",
            "url_tdpse_detail": "https://pse.komdigi.go.id/tdpse-detail/22048",
            "website": "deltaforce.garena.com"
        },
        {
            "id": "9deb4151-8b1d-4755-9600-fbb240e6677e",
            "nama_pse": "KRYPTON LEGEND TECHNOLOGIES",
            "nama_se": "box plus digital",
            "sektor": "Sektor Perdagangan, Sektor Teknologi Informasi dan Komunikasi",
            "tanggal_terbit": "2025-01-08",
            "url_tdpse_detail": "https://pse.komdigi.go.id/tdpse-detail/22051",
            "website": "boxplusdigital.com"
        },
        {
            "id": "9deaad2d-81be-4e5a-9165-70eb02178ccf",
            "nama_pse": "RICHEESE KULINER INDONESIA",
            "nama_se": "RICHEESE FACTORY (WEBSITE)",
            "sektor": "Sektor Perdagangan",
            "tanggal_terbit": "2025-01-08",
            "url_tdpse_detail": "https://pse.komdigi.go.id/tdpse-detail/22049",
            "website": "order.richeesefactory.com"
        },
        {
            "id": "9deb2013-f548-4705-b364-760f38aa1bb0",
            "nama_pse": "RAKHMAT  SABARUDIN",
            "nama_se": "TASYARI (TA'ARUF SYAR'I INDONESIA)",
            "sektor": "Sektor Teknologi Informasi dan Komunikasi",
            "tanggal_terbit": "2025-01-08",
            "url_tdpse_detail": "https://pse.komdigi.go.id/tdpse-detail/22050",
            "website": "-"
        },
        {
            "id": "9deb4577-62d9-4b6d-a4d3-4c81fa740404",
            "nama_pse": "DIGITAL MEDIA BERKARYA",
            "nama_se": "WEBSITE COIN KAMI",
            "sektor": "Sektor Teknologi Informasi dan Komunikasi",
            "tanggal_terbit": "2025-01-08",
            "url_tdpse_detail": "https://pse.komdigi.go.id/tdpse-detail/22052",
            "website": "coinkami.com"
        },
        {
            "id": "9e22ce34-ba7a-4449-8eaa-53518676eab3",
            "nama_pse": "METANOIA HASTA KARYA TEKNOLOGI",
            "nama_se": "METANOIA",
            "sektor": "Sektor Teknologi Informasi dan Komunikasi",
            "tanggal_terbit": "2025-01-08",
            "url_tdpse_detail": "https://pse.komdigi.go.id/tdpse-detail/22276",
            "website": "metanoia.web.id"
        },
        {
            "id": "9dea8177-ffa3-4d5b-aa62-e2f6287c85f7",
            "nama_pse": "TERRA CHARGE INDONESIA",
            "nama_se": "TERRACHARGE",
            "sektor": "Sektor Perdagangan, Sektor Transportasi, Sektor Teknologi Informasi dan Komunikasi",
            "tanggal_terbit": "2025-01-08",
            "url_tdpse_detail": "https://pse.komdigi.go.id/tdpse-detail/22046",
            "website": "-"
        },
        {
            "id": "9de8d550-de45-4ecf-84a5-6bd2e6b98c39",
            "nama_pse": "MAHKAMAH",
            "nama_se": "GIGA MEDIA",
            "sektor": "Sektor Teknologi Informasi dan Komunikasi",
            "tanggal_terbit": "2025-01-07",
            "url_tdpse_detail": "https://pse.komdigi.go.id/tdpse-detail/22039",
            "website": "gigamaxvideo.com"
        },
        {
            "id": "9de8a192-f277-4582-a54d-44ebfe02c8f6",
            "nama_pse": "MAHKAMAH",
            "nama_se": "GIGAMAX MEDIA",
            "sektor": "Sektor Teknologi Informasi dan Komunikasi",
            "tanggal_terbit": "2025-01-07",
            "url_tdpse_detail": "https://pse.komdigi.go.id/tdpse-detail/22036",
            "website": "-"
        }
    ],
    "processingTimeMs": 5,
    "query": "",
    "totalHits": 19131,
    "hitsPerPage": 50,
    "page": 13,
    "totalPages": 383
}