{
    "hits": [
        {
            "id": "9cb1abb2-44c3-4e11-b785-535fff50650a",
            "nama_pse": "PT. BANK PEMBANGUNAN DAERAH JAWA BARAT DAN BANTEN TBK (BANK BJB)",
            "nama_se": "BJB VIRTUAL ACCOUNT DEBIT",
            "sektor": "Sektor Keuangan",
            "tanggal_terbit": "2022-07-18",
            "url_tdpse_detail": "https://pse.komdigi.go.id/tdpse-detail/6124",
            "website": "bjbva.bankbjb.co.id"
        },
        {
            "id": "9cb1abb2-4d3b-489b-87f2-be38497f2693",
            "nama_pse": "AG INDONESIA",
            "nama_se": "ALTIUSPEOPLE FOUNDATION",
            "sektor": "Sektor Teknologi Informasi dan Komunikasi",
            "tanggal_terbit": "2022-07-18",
            "url_tdpse_detail": "https://pse.komdigi.go.id/tdpse-detail/6125",
            "website": "hr.altius.id"
        },
        {
            "id": "9cb1abb2-52c7-4274-bd8d-7f174784ff06",
            "nama_pse": "SAMUEL SEKURITAS INDONESIA",
            "nama_se": "STAR (SAMUEL TRADING ACTIVE REALTIME)",
            "sektor": "Sektor Keuangan",
            "tanggal_terbit": "2022-07-18",
            "url_tdpse_detail": "https://pse.komdigi.go.id/tdpse-detail/6126",
            "website": "samuel.co.id"
        },
        {
            "id": "9cb1aba8-4da3-4b59-a1ae-233250393c43",
            "nama_pse": "ABADI SELARAS CENDERAWASIH",
            "nama_se": "AIDO HEALTH",
            "sektor": "Sektor Kesehatan, Sektor Teknologi Informasi dan Komunikasi",
            "tanggal_terbit": "2022-07-18",
            "url_tdpse_detail": "https://pse.komdigi.go.id/tdpse-detail/6239",
            "website": "Aido.id"
        },
        {
            "id": "9cb1ab9d-b721-4468-b615-bc5df489c19c",
            "nama_pse": "BANK PERKREDITAN RAKYAT GUNUNG MERBABU",
            "nama_se": "PT BPR GUNUNG MERBABU",
            "sektor": "Sektor Keuangan",
            "tanggal_terbit": "2022-07-18",
            "url_tdpse_detail": "https://pse.komdigi.go.id/tdpse-detail/6128",
            "website": "bprgunungmerbabu.com"
        },
        {
            "id": "9cb1aba8-506b-4878-8557-e2d2f14ae447",
            "nama_pse": "PUNDI MAS BERJAYA",
            "nama_se": "JAYARENT",
            "sektor": "Sektor Teknologi Informasi dan Komunikasi",
            "tanggal_terbit": "2022-07-18",
            "url_tdpse_detail": "https://pse.komdigi.go.id/tdpse-detail/6132",
            "website": "Jayarent.com"
        },
        {
            "id": "9cb1aba8-545d-4044-bbb9-39b9cb2711a1",
            "nama_pse": "BANK PEMBANGUNAN DAERAH DAERAH ISTIMEWA YOGYAKARTA",
            "nama_se": "RETRIBUSI NON BILLING BPD DIY",
            "sektor": "Sektor Keuangan",
            "tanggal_terbit": "2022-07-18",
            "url_tdpse_detail": "https://pse.komdigi.go.id/tdpse-detail/6129",
            "website": "saget.bpddiy.co.id"
        },
        {
            "id": "9cb1abb2-5529-44c1-afb7-6d75338e1c79",
            "nama_pse": "KONTER PULSA NETINDO",
            "nama_se": "KONTER PULSA",
            "sektor": "Sektor Perdagangan",
            "tanggal_terbit": "2022-07-18",
            "url_tdpse_detail": "https://pse.komdigi.go.id/tdpse-detail/6130",
            "website": "konterpulsa.net"
        },
        {
            "id": "9cb1abb2-57ff-435f-a49a-9e0725773d84",
            "nama_pse": "PT. BANK PEMBANGUNAN DAERAH JAWA BARAT DAN BANTEN TBK (BANK BJB)",
            "nama_se": "APLIKASI SOCIAL FUND TRANSFER (SFT)",
            "sektor": "Sektor Keuangan",
            "tanggal_terbit": "2022-07-18",
            "url_tdpse_detail": "https://pse.komdigi.go.id/tdpse-detail/6131",
            "website": "sft.bankbjb.co.id"
        },
        {
            "id": "9cb1aba8-591b-4706-8901-799c38dac5b7",
            "nama_pse": "AG INDONESIA",
            "nama_se": "ALTIUSPEOPLE ENTERPRISE",
            "sektor": "Sektor Teknologi Informasi dan Komunikasi",
            "tanggal_terbit": "2022-07-18",
            "url_tdpse_detail": "https://pse.komdigi.go.id/tdpse-detail/6136",
            "website": "enterprise.altius.id"
        },
        {
            "id": "9cb1aba8-5bc9-4cce-a0aa-1eb4a3a0986d",
            "nama_pse": "BANK PEMBANGUNAN DAERAH DAERAH ISTIMEWA YOGYAKARTA",
            "nama_se": "APLIKASI E-WARONG BPD DIY",
            "sektor": "Sektor Keuangan",
            "tanggal_terbit": "2022-07-18",
            "url_tdpse_detail": "https://pse.komdigi.go.id/tdpse-detail/6138",
            "website": "g2c.bpddiy.co.id"
        },
        {
            "id": "9cb1abb2-5a3e-4c48-94d5-eb19e4f7f46b",
            "nama_pse": "MULTINDO AUTO FINANCE",
            "nama_se": "MULTINDO AUTO FINANCE",
            "sektor": "Sektor Keuangan",
            "tanggal_terbit": "2022-07-18",
            "url_tdpse_detail": "https://pse.komdigi.go.id/tdpse-detail/6139",
            "website": "multindo.co.id"
        },
        {
            "id": "9cb1aba8-5e68-4031-bab2-552bf12d5093",
            "nama_pse": "AMANTARA SEKURITAS INDONESIA",
            "nama_se": "WEBSITE AMANTARA.COM",
            "sektor": "Sektor Keuangan",
            "tanggal_terbit": "2022-07-18",
            "url_tdpse_detail": "https://pse.komdigi.go.id/tdpse-detail/6140",
            "website": "amantara.co.id"
        },
        {
            "id": "9cb1aba8-6342-4664-abe0-a4a039c616a0",
            "nama_pse": "BANK PEMBANGUNAN DAERAH DAERAH ISTIMEWA YOGYAKARTA",
            "nama_se": "EOFFICE BPD DIY",
            "sektor": "Sektor Keuangan",
            "tanggal_terbit": "2022-07-18",
            "url_tdpse_detail": "https://pse.komdigi.go.id/tdpse-detail/6141",
            "website": "eoffice.bpddiy.co.id"
        },
        {
            "id": "9cb1ab9d-b901-4153-b60d-e05c135507fb",
            "nama_pse": "INTI PRIMA MANDIRI UTAMA",
            "nama_se": "YESPOS",
            "sektor": "Sektor Perdagangan, Sektor Keuangan, Sektor Teknologi Informasi dan Komunikasi",
            "tanggal_terbit": "2022-07-18",
            "url_tdpse_detail": "https://pse.komdigi.go.id/tdpse-detail/6142",
            "website": "yespos.id"
        },
        {
            "id": "9cb1abb2-5c58-47e2-806c-f902d1222f8f",
            "nama_pse": "BANK PERKREDITAN RAKYAT PIALA MAKMUR",
            "nama_se": "PT BPR PIALA MAKMUR",
            "sektor": "Sektor Keuangan",
            "tanggal_terbit": "2022-07-18",
            "url_tdpse_detail": "https://pse.komdigi.go.id/tdpse-detail/6144",
            "website": "-"
        },
        {
            "id": "9cb1aba8-65fb-4ca8-a3b3-f900e980b774",
            "nama_pse": "BANK PERKREDITAN RAKYAT DINAMIKA BANGUN ARTA",
            "nama_se": "WEBSITE",
            "sektor": "Sektor Keuangan",
            "tanggal_terbit": "2022-07-18",
            "url_tdpse_detail": "https://pse.komdigi.go.id/tdpse-detail/6145",
            "website": "bprdinamika.co.id"
        },
        {
            "id": "9cb1ab9d-bad0-41f8-924c-83e609340230",
            "nama_pse": "BANK PERKREDITAN RAKYAT KLATEN SEJAHTERA",
            "nama_se": "WEBSITE BPR KLATEN SEJAHTERA",
            "sektor": "Sektor Keuangan",
            "tanggal_terbit": "2022-07-18",
            "url_tdpse_detail": "https://pse.komdigi.go.id/tdpse-detail/6146",
            "website": "klatensejahtera.com"
        },
        {
            "id": "9cb1aba8-6fe1-4f46-8bec-1e9fab6303f3",
            "nama_pse": "BANK PEMBANGUNAN DAERAH DAERAH ISTIMEWA YOGYAKARTA",
            "nama_se": "APLIKASI HRMIS BPD DIY",
            "sektor": "Sektor Keuangan",
            "tanggal_terbit": "2022-07-18",
            "url_tdpse_detail": "https://pse.komdigi.go.id/tdpse-detail/6147",
            "website": "-"
        },
        {
            "id": "9cb1aba8-72fd-4512-aee9-6c0710a28645",
            "nama_pse": "BANK PEREKONOMIAN RAKYAT NUSAMBA BANGUNTAPAN",
            "nama_se": "BPRNUSAMBA-BANGUNTAPAN",
            "sektor": "Sektor Keuangan",
            "tanggal_terbit": "2022-07-18",
            "url_tdpse_detail": "https://pse.komdigi.go.id/tdpse-detail/6148",
            "website": "bprnusamba-banguntapan.com"
        },
        {
            "id": "9cb1aba8-7596-473a-a7c9-10c51e177d14",
            "nama_pse": "BANK PERKREDITAN RAKYAT CITANDUY ARTHA",
            "nama_se": "INTEGRATED MICRO BANKING SYSTEM",
            "sektor": "Sektor Keuangan",
            "tanggal_terbit": "2022-07-18",
            "url_tdpse_detail": "https://pse.komdigi.go.id/tdpse-detail/6149",
            "website": "-"
        },
        {
            "id": "9cb1aba8-7894-4f68-9fcb-9c51ae3c12d1",
            "nama_pse": "BANK PERMATA",
            "nama_se": "WEBSITE KORPORASI PERMATABANK",
            "sektor": "Sektor Keuangan",
            "tanggal_terbit": "2022-07-18",
            "url_tdpse_detail": "https://pse.komdigi.go.id/tdpse-detail/6150",
            "website": "permatabank.com"
        },
        {
            "id": "9cb1aba8-7bbd-4cc9-be70-8bf98a7b377d",
            "nama_pse": "BANK PEMBANGUNAN DAERAH DAERAH ISTIMEWA YOGYAKARTA",
            "nama_se": "API QRIS BPD DIY",
            "sektor": "Sektor Keuangan",
            "tanggal_terbit": "2022-07-18",
            "url_tdpse_detail": "https://pse.komdigi.go.id/tdpse-detail/6151",
            "website": "-"
        },
        {
            "id": "9cb1abb2-5e4f-4393-acd7-9415c81d888e",
            "nama_pse": "BANK PEREKONOMIAN RAKYAT NUSANTARA BONA PASOGIT TIGA PULUH SATU",
            "nama_se": "BPR NBP 31",
            "sektor": "Sektor Keuangan",
            "tanggal_terbit": "2022-07-18",
            "url_tdpse_detail": "https://pse.komdigi.go.id/tdpse-detail/6154",
            "website": "bprnbp31.com"
        },
        {
            "id": "9cb1ab9d-bca8-4e93-ba90-edf47858d6e3",
            "nama_pse": "WAHANA MEDITEK INDONESIA",
            "nama_se": "ADAMLABS.ID",
            "sektor": "Sektor Kesehatan",
            "tanggal_terbit": "2022-07-18",
            "url_tdpse_detail": "https://pse.komdigi.go.id/tdpse-detail/6156",
            "website": "adamlabs.id"
        },
        {
            "id": "9cb1aba8-7eee-4e65-842c-f0377c396355",
            "nama_pse": "MULTINDO AUTO FINANCE",
            "nama_se": "MULTINDOKU",
            "sektor": "Sektor Keuangan",
            "tanggal_terbit": "2022-07-18",
            "url_tdpse_detail": "https://pse.komdigi.go.id/tdpse-detail/6153",
            "website": "sismaf.co.id"
        },
        {
            "id": "9cb1aba8-82c0-4b2e-847b-a28a17c37afe",
            "nama_pse": "BANK PEMBANGUNAN DAERAH DAERAH ISTIMEWA YOGYAKARTA",
            "nama_se": "QRIS MERCHANT BPD DIY",
            "sektor": "Sektor Keuangan",
            "tanggal_terbit": "2022-07-18",
            "url_tdpse_detail": "https://pse.komdigi.go.id/tdpse-detail/6155",
            "website": "-"
        },
        {
            "id": "9cb1ab9d-beb6-4530-a4bf-954fa45174ab",
            "nama_pse": "BANK NAGARI",
            "nama_se": "WEB BANK NAGARI",
            "sektor": "Sektor Keuangan",
            "tanggal_terbit": "2022-07-18",
            "url_tdpse_detail": "https://pse.komdigi.go.id/tdpse-detail/6158",
            "website": "-"
        },
        {
            "id": "9cb1ab9d-c113-40cf-8bec-62ae1303dd24",
            "nama_pse": "BAREKSA PORTAL INVESTASI",
            "nama_se": "BAREKSA",
            "sektor": "Sektor Keuangan",
            "tanggal_terbit": "2022-07-18",
            "url_tdpse_detail": "https://pse.komdigi.go.id/tdpse-detail/6172",
            "website": "bareksa.com"
        },
        {
            "id": "9cb1abb2-6029-4589-9497-37a93ebe13b0",
            "nama_pse": "BANK PEMBANGUNAN DAERAH DAERAH ISTIMEWA YOGYAKARTA",
            "nama_se": "DASHBOARD KINERJA KEUANGAN BPD DIY",
            "sektor": "Sektor Keuangan",
            "tanggal_terbit": "2022-07-18",
            "url_tdpse_detail": "https://pse.komdigi.go.id/tdpse-detail/6157",
            "website": "dkk.bpddiy.co.id"
        },
        {
            "id": "9cb1ab9d-c451-4ccd-b2e2-bfdcf26575f7",
            "nama_pse": "BANK PERKREDITAN RAKYAT ANUGERAH HARTA KALIWUNGU",
            "nama_se": "BPR ANUGERAH HARTA KALIWUNGU",
            "sektor": "Sektor Teknologi Informasi dan Komunikasi",
            "tanggal_terbit": "2022-07-18",
            "url_tdpse_detail": "https://pse.komdigi.go.id/tdpse-detail/6159",
            "website": "bprahk.com"
        },
        {
            "id": "9cb1abb2-627a-465b-a2bc-9e176a5da652",
            "nama_pse": "DEXA MEDICA",
            "nama_se": "RUANG ILMIAH",
            "sektor": "Sektor Kesehatan",
            "tanggal_terbit": "2022-07-18",
            "url_tdpse_detail": "https://pse.komdigi.go.id/tdpse-detail/6285",
            "website": "ruangilmiah-dexa.com"
        },
        {
            "id": "9cb1abb2-65b3-4b38-b543-5b170f0cdc78",
            "nama_pse": "BANK PEMBANGUNAN DAERAH DAERAH ISTIMEWA YOGYAKARTA",
            "nama_se": "EMAIL BANK BPD DIY",
            "sektor": "Sektor Keuangan",
            "tanggal_terbit": "2022-07-18",
            "url_tdpse_detail": "https://pse.komdigi.go.id/tdpse-detail/6160",
            "website": "mail.bpddiy.co.id"
        },
        {
            "id": "9cb1aba8-8568-41d8-86ed-b3d154a46636",
            "nama_pse": "BANK PERKREDITAN RAKYAT KENDALI ARTHA PERSERODA",
            "nama_se": "PORTAL KENDALI ARTHA",
            "sektor": "Sektor Keuangan",
            "tanggal_terbit": "2022-07-18",
            "url_tdpse_detail": "https://pse.komdigi.go.id/tdpse-detail/6161",
            "website": "kendaliartha.co.id"
        },
        {
            "id": "9cb1abb2-67cd-4ad3-9943-e1b9b84af881",
            "nama_pse": "M.ANDRI HARDIANSYAH",
            "nama_se": "PAKTUKANG.COM",
            "sektor": "Sektor Perdagangan, Sektor Teknologi Informasi dan Komunikasi",
            "tanggal_terbit": "2022-07-18",
            "url_tdpse_detail": "https://pse.komdigi.go.id/tdpse-detail/6173",
            "website": "paktukang.com"
        },
        {
            "id": "9cb1abb2-6a54-4d8f-86d7-7cc40343c7a2",
            "nama_pse": "BANK PEMBANGUNAN DAERAH BALI",
            "nama_se": "BPD BALI MOBILE",
            "sektor": "Sektor Keuangan",
            "tanggal_terbit": "2022-07-18",
            "url_tdpse_detail": "https://pse.komdigi.go.id/tdpse-detail/6169",
            "website": "ibank.bpdbali.id"
        },
        {
            "id": "9cb1abb2-6cc9-449c-ba75-067d19812858",
            "nama_pse": "BANK PERKREDITAN RAKYAT TRITUNGGAL",
            "nama_se": "WEBSITE BANK TRITUNGGAL",
            "sektor": "Sektor Keuangan",
            "tanggal_terbit": "2022-07-18",
            "url_tdpse_detail": "https://pse.komdigi.go.id/tdpse-detail/6162",
            "website": "bprtritunggal.co.id"
        },
        {
            "id": "9cb1aba8-882f-453e-9dfd-83f52589cfbc",
            "nama_pse": "BANK PERKREDITAN RAKYAT SUPRA ARTAPERSADA",
            "nama_se": "EDC BPR SUPRA",
            "sektor": "Sektor Keuangan",
            "tanggal_terbit": "2022-07-18",
            "url_tdpse_detail": "https://pse.komdigi.go.id/tdpse-detail/6163",
            "website": "-"
        },
        {
            "id": "9cb1abb2-6f19-41bd-bebe-b92591f70dc9",
            "nama_pse": "BANK PEMBANGUNAN DAERAH DAERAH ISTIMEWA YOGYAKARTA",
            "nama_se": "DEVELOPMENT QRIS MERCHANT BPD DIY",
            "sektor": "Sektor Keuangan",
            "tanggal_terbit": "2022-07-18",
            "url_tdpse_detail": "https://pse.komdigi.go.id/tdpse-detail/6164",
            "website": "-"
        },
        {
            "id": "9cb1abb2-724d-4376-9c7e-6f7c1592e6bf",
            "nama_pse": "BANK PERKREDITAN RAKYAT SEMERU",
            "nama_se": "BPRSEMERU",
            "sektor": "Sektor Perdagangan, Sektor Keuangan",
            "tanggal_terbit": "2022-07-18",
            "url_tdpse_detail": "https://pse.komdigi.go.id/tdpse-detail/6166",
            "website": "bprsemeru.com"
        },
        {
            "id": "9cb1abb2-74f1-4ce9-b7f5-5f20c303049f",
            "nama_pse": "BANK NAGARI",
            "nama_se": "MOBILE BANKING BANK NAGARI",
            "sektor": "Sektor Keuangan",
            "tanggal_terbit": "2022-07-18",
            "url_tdpse_detail": "https://pse.komdigi.go.id/tdpse-detail/6176",
            "website": "mobile.banknagari.co.id"
        },
        {
            "id": "9cb1aba8-8b20-45f2-aa22-29c19868776f",
            "nama_pse": "BANK PERKREDITAN RAKYAT BUANA ARTA MULIA",
            "nama_se": "BANKING INTEGRATED SYSTEM (BIS)",
            "sektor": "Sektor Keuangan",
            "tanggal_terbit": "2022-07-18",
            "url_tdpse_detail": "https://pse.komdigi.go.id/tdpse-detail/6168",
            "website": "buanaartamulia.com"
        },
        {
            "id": "9cb1aba8-8fdc-4b6e-81af-023690cafc51",
            "nama_pse": "BANK PEMBANGUNAN DAERAH DAERAH ISTIMEWA YOGYAKARTA",
            "nama_se": "UKM CENTER WEBSITE BPD DIY",
            "sektor": "Sektor Keuangan",
            "tanggal_terbit": "2022-07-18",
            "url_tdpse_detail": "https://pse.komdigi.go.id/tdpse-detail/6170",
            "website": "ukmcenter.bpddiy.co.id"
        },
        {
            "id": "9cb1ab9d-c84f-436a-a783-397639db14a0",
            "nama_pse": "WAHANA MEDITEK INDONESIA",
            "nama_se": "PERIKSAIN.ID",
            "sektor": "Sektor Kesehatan",
            "tanggal_terbit": "2022-07-18",
            "url_tdpse_detail": "https://pse.komdigi.go.id/tdpse-detail/6171",
            "website": "periksain.id"
        },
        {
            "id": "9cb1abb2-77a3-41e0-9cf2-2eb30cd7ef2c",
            "nama_pse": "BANK PEMBANGUNAN DAERAH DAERAH ISTIMEWA YOGYAKARTA",
            "nama_se": "API DEVELOPMENT  BPD DIY",
            "sektor": "Sektor Keuangan",
            "tanggal_terbit": "2022-07-18",
            "url_tdpse_detail": "https://pse.komdigi.go.id/tdpse-detail/6174",
            "website": "-"
        },
        {
            "id": "9cb1ab9d-ca94-4323-baf3-e44c9b49a85a",
            "nama_pse": "BANK NAGARI",
            "nama_se": "NCM PERSONAL BANK NAGARI",
            "sektor": "Sektor Keuangan",
            "tanggal_terbit": "2022-07-18",
            "url_tdpse_detail": "https://pse.komdigi.go.id/tdpse-detail/6177",
            "website": "ib.banknagari.co.id"
        },
        {
            "id": "9cb1abb2-7a26-4ae2-8da4-101817f74017",
            "nama_pse": "BANK PEREKONOMIAN RAKYAT SARASWATI EKA BUMI",
            "nama_se": "IBS REALTIME CORE BANKING USSI",
            "sektor": "Sektor Keuangan",
            "tanggal_terbit": "2022-07-18",
            "url_tdpse_detail": "https://pse.komdigi.go.id/tdpse-detail/6175",
            "website": "bprsaraswatiekabumi.co.id"
        },
        {
            "id": "9cb1abb2-7dac-40d8-8a1c-bd880c012bbb",
            "nama_pse": "BANK NAGARI",
            "nama_se": "NCM COORPORATE BANK NAGARI",
            "sektor": "Sektor Keuangan",
            "tanggal_terbit": "2022-07-18",
            "url_tdpse_detail": "https://pse.komdigi.go.id/tdpse-detail/6179",
            "website": "cms.banknagari.co.id"
        },
        {
            "id": "9cb1aba8-9376-48f5-a27b-b9d5f0a2357d",
            "nama_pse": "BANK PERKREDITAN RAKYAT IRIAN SENTOSA",
            "nama_se": "DIGIMOD E-COLLECTION-BPR IRIAN SENTOSA",
            "sektor": "Sektor Keuangan",
            "tanggal_terbit": "2022-07-18",
            "url_tdpse_detail": "https://pse.komdigi.go.id/tdpse-detail/6178",
            "website": "-"
        },
        {
            "id": "9cb1aba8-95fa-4fbc-b2b7-bb16084f4e73",
            "nama_pse": "SINAR MITRA SEPADAN FINANCE",
            "nama_se": "WEBSITE CUSTOMER CARE PT SINAR MITRA SEPADAN FINANCE",
            "sektor": "Sektor Keuangan",
            "tanggal_terbit": "2022-07-18",
            "url_tdpse_detail": "https://pse.komdigi.go.id/tdpse-detail/6185",
            "website": "bantuan.smsfinance.co.id"
        }
    ],
    "processingTimeMs": 8,
    "query": "",
    "totalHits": 19131,
    "hitsPerPage": 50,
    "page": 269,
    "totalPages": 383
}