{
    "hits": [
        {
            "id": "9cb1ab71-1f9e-4cda-b3e2-435842af7bf4",
            "nama_pse": "SUMBER KREATIF INDONESIA",
            "nama_se": "GREDU SCHOOL MANAGEMENT SYSTEM",
            "sektor": "Sektor Teknologi Informasi dan Komunikasi, Sektor Teknologi Informasi dan Komunikasi",
            "tanggal_terbit": "2021-06-09",
            "url_tdpse_detail": "https://pse.komdigi.go.id/tdpse-detail/1424",
            "website": "Gredu.Asia"
        },
        {
            "id": "9cb1ab62-bacb-4591-aa8f-2cc60a539436",
            "nama_pse": "SUMBER KREATIF INDONESIA",
            "nama_se": "GREDU STUDENT",
            "sektor": "Sektor Teknologi Informasi dan Komunikasi, Sektor Teknologi Informasi dan Komunikasi",
            "tanggal_terbit": "2021-06-09",
            "url_tdpse_detail": "https://pse.komdigi.go.id/tdpse-detail/1451",
            "website": "Gredu.Asia"
        },
        {
            "id": "9cb1ab65-a002-46af-aeab-dc6d2ae5e9eb",
            "nama_pse": "SUMBER KREATIF INDONESIA",
            "nama_se": "GREDU PARENT",
            "sektor": "Sektor Teknologi Informasi dan Komunikasi, Sektor Teknologi Informasi dan Komunikasi",
            "tanggal_terbit": "2021-06-09",
            "url_tdpse_detail": "https://pse.komdigi.go.id/tdpse-detail/1452",
            "website": "Gredu.Asia"
        },
        {
            "id": "9cb1ab71-285a-4cb0-a1ac-7453bc254f7c",
            "nama_pse": "TUV SUD INDONESIA",
            "nama_se": "TÜV SÜD INDONESIA",
            "sektor": "Sektor Perdagangan, Sektor Perdagangan",
            "tanggal_terbit": "2021-06-09",
            "url_tdpse_detail": "https://pse.komdigi.go.id/tdpse-detail/1431",
            "website": "tuvsud.com/id/"
        },
        {
            "id": "9cb1ab65-b5db-478c-9711-b0399b59ed55",
            "nama_pse": "VARA TECHNOLOGIES CORP",
            "nama_se": "GAJIKUAPP",
            "sektor": "Sektor Teknologi Informasi dan Komunikasi, Sektor Teknologi Informasi dan Komunikasi",
            "tanggal_terbit": "2021-06-09",
            "url_tdpse_detail": "https://pse.komdigi.go.id/tdpse-detail/1438",
            "website": "gajikuapp.com"
        },
        {
            "id": "9cb1ab71-fabc-40a1-8d6e-eaca18be4183",
            "nama_pse": "ASTRA HONDA MOTOR",
            "nama_se": "INFORMASI RESMI MENGENAI PRODUK AHM",
            "sektor": "Sektor Transportasi, Sektor Transportasi, Sektor Transportasi, Sektor Teknologi Informasi dan Komunikasi, Sektor Teknologi Informasi dan Komunikasi, Sektor Teknologi Informasi dan Komunikasi",
            "tanggal_terbit": "2021-06-09",
            "url_tdpse_detail": "https://pse.komdigi.go.id/tdpse-detail/1432",
            "website": "astra-honda.com"
        },
        {
            "id": "9cb1ab63-abf3-4587-898a-8d8258409ab1",
            "nama_pse": "FIVE JACK",
            "nama_se": "ITEMKU",
            "sektor": "Sektor Perdagangan, Sektor Perdagangan",
            "tanggal_terbit": "2021-06-09",
            "url_tdpse_detail": "https://pse.komdigi.go.id/tdpse-detail/1392",
            "website": "itemku.com"
        },
        {
            "id": "9cb1ab64-1f81-481e-8825-c705280f46e2",
            "nama_pse": "FANTASTIS ANAK BANGSA INDONESIA",
            "nama_se": "TLUSURE",
            "sektor": "Sektor Teknologi Informasi dan Komunikasi, Sektor Teknologi Informasi dan Komunikasi",
            "tanggal_terbit": "2021-06-09",
            "url_tdpse_detail": "https://pse.komdigi.go.id/tdpse-detail/1400",
            "website": "tlusure.com"
        },
        {
            "id": "9cb1ab6c-9d3d-41cd-b681-d454f6ee9d5a",
            "nama_pse": "SAH INDONESIA JAYA",
            "nama_se": "SAH! YA",
            "sektor": "Sektor Teknologi Informasi dan Komunikasi, Sektor Teknologi Informasi dan Komunikasi",
            "tanggal_terbit": "2021-06-09",
            "url_tdpse_detail": "https://pse.komdigi.go.id/tdpse-detail/1414",
            "website": "sahya.co.id"
        },
        {
            "id": "9cb1ab66-7298-4a94-92b8-089616270313",
            "nama_pse": "PERUSAHAAN PERSEROAN (PERSERO) BANK NEGARA INDONESIA",
            "nama_se": "BNI MOBILE BANKING",
            "sektor": "Sektor Keuangan, Sektor Keuangan",
            "tanggal_terbit": "2021-06-09",
            "url_tdpse_detail": "https://pse.komdigi.go.id/tdpse-detail/1453",
            "website": "-"
        },
        {
            "id": "9cb1ab6c-dede-4a86-93a1-7ed2f4aa10b2",
            "nama_pse": "PERUSAHAAN PERSEROAN (PERSERO) BANK NEGARA INDONESIA",
            "nama_se": "BNI TAPCASH GO",
            "sektor": "Sektor Keuangan, Sektor Keuangan",
            "tanggal_terbit": "2021-06-09",
            "url_tdpse_detail": "https://pse.komdigi.go.id/tdpse-detail/1454",
            "website": "-"
        },
        {
            "id": "9cb1ab73-3322-4337-b0e3-6fae484353b7",
            "nama_pse": "PERUSAHAAN PERSEROAN (PERSERO) BANK NEGARA INDONESIA",
            "nama_se": "AGEN46 MOBILE",
            "sektor": "Sektor Keuangan, Sektor Keuangan",
            "tanggal_terbit": "2021-06-09",
            "url_tdpse_detail": "https://pse.komdigi.go.id/tdpse-detail/1455",
            "website": "-"
        },
        {
            "id": "9cb1ab73-363e-47c2-9fa8-81d60487facc",
            "nama_pse": "PERUSAHAAN PERSEROAN (PERSERO) BANK NEGARA INDONESIA",
            "nama_se": "BNI CREDIT CARD MOBILE",
            "sektor": "Sektor Keuangan, Sektor Keuangan",
            "tanggal_terbit": "2021-06-09",
            "url_tdpse_detail": "https://pse.komdigi.go.id/tdpse-detail/1456",
            "website": "-"
        },
        {
            "id": "9cb1ab66-75a9-4f13-8abc-0622c4d291b5",
            "nama_pse": "PERUSAHAAN PERSEROAN (PERSERO) BANK NEGARA INDONESIA",
            "nama_se": "BNI PEMBUKAAN REKENING DIGITAL",
            "sektor": "Sektor Keuangan, Sektor Keuangan",
            "tanggal_terbit": "2021-06-09",
            "url_tdpse_detail": "https://pse.komdigi.go.id/tdpse-detail/1457",
            "website": "bukarekening.bni.co.id/simpanan/home"
        },
        {
            "id": "9cb1ab66-7882-4d01-8a7f-30ee1bb67002",
            "nama_pse": "PERUSAHAAN PERSEROAN (PERSERO) BANK NEGARA INDONESIA",
            "nama_se": "BNI SIMPONI MOBILE",
            "sektor": "Sektor Keuangan, Sektor Keuangan",
            "tanggal_terbit": "2021-06-09",
            "url_tdpse_detail": "https://pse.komdigi.go.id/tdpse-detail/1458",
            "website": "-"
        },
        {
            "id": "9cb1ab6c-e31d-472f-9d92-423ecb89b1ce",
            "nama_pse": "PERUSAHAAN PERSEROAN (PERSERO) BANK NEGARA INDONESIA",
            "nama_se": "BNI CONTACT CENTER VIRTUAL ASSISTANT/BNI CALL",
            "sektor": "Sektor Keuangan, Sektor Keuangan",
            "tanggal_terbit": "2021-06-09",
            "url_tdpse_detail": "https://pse.komdigi.go.id/tdpse-detail/1459",
            "website": "-"
        },
        {
            "id": "9cb1ab6d-533c-45fd-9837-9d2971e98c34",
            "nama_pse": "ARTHA SEKURITAS INDONESIA",
            "nama_se": "ASET - ARTHA SEKURITAS ELETRONIK TRADING",
            "sektor": "Sektor Keuangan, Sektor Keuangan",
            "tanggal_terbit": "2021-06-09",
            "url_tdpse_detail": "https://pse.komdigi.go.id/tdpse-detail/1406",
            "website": "-"
        },
        {
            "id": "9cb1ab6d-6be9-44ef-b6bc-b8d26d27751a",
            "nama_pse": "SOYAKA CERDAS KAYA",
            "nama_se": "SHOX RUMAHAN",
            "sektor": "Sektor Teknologi Informasi dan Komunikasi, Sektor Teknologi Informasi dan Komunikasi",
            "tanggal_terbit": "2021-06-09",
            "url_tdpse_detail": "https://pse.komdigi.go.id/tdpse-detail/1419",
            "website": "rumahanapp.com"
        },
        {
            "id": "9cb1ab6d-6fcc-447d-ac42-fe704685ce8a",
            "nama_pse": "AKU PINTAR INDONESIA",
            "nama_se": "AKU PINTAR INDONESIA",
            "sektor": "Sektor Teknologi Informasi dan Komunikasi, Sektor Teknologi Informasi dan Komunikasi",
            "tanggal_terbit": "2021-06-09",
            "url_tdpse_detail": "https://pse.komdigi.go.id/tdpse-detail/1402",
            "website": "akupintar.id"
        },
        {
            "id": "9cb1ab67-20c9-4564-8f27-84c338e88af6",
            "nama_pse": "MASSULOWALIE DIGITAL GRUP",
            "nama_se": "TOSULO",
            "sektor": "Sektor Teknologi Informasi dan Komunikasi, Sektor Teknologi Informasi dan Komunikasi, Sektor Teknologi Informasi dan Komunikasi, Sektor Teknologi Informasi dan Komunikasi",
            "tanggal_terbit": "2021-06-09",
            "url_tdpse_detail": "https://pse.komdigi.go.id/tdpse-detail/1411",
            "website": "Tosulo.com"
        },
        {
            "id": "9cb1ab6d-7715-4f5a-84e1-b29e72133f7a",
            "nama_pse": "PINTAR DATA GROUP",
            "nama_se": "PRIXA",
            "sektor": "Sektor Kesehatan, Sektor Kesehatan, Sektor Kesehatan",
            "tanggal_terbit": "2021-06-09",
            "url_tdpse_detail": "https://pse.komdigi.go.id/tdpse-detail/1441",
            "website": "prixa.ai"
        },
        {
            "id": "9cb1ab73-e81c-4c49-ac79-f95febde9b0a",
            "nama_pse": "CAHAYA KARUNIA PERSADA",
            "nama_se": "WWW.CAKAP.CO.ID",
            "sektor": "Sektor Perdagangan, Sektor Perdagangan",
            "tanggal_terbit": "2021-06-09",
            "url_tdpse_detail": "https://pse.komdigi.go.id/tdpse-detail/1430",
            "website": "cakap.co.id"
        },
        {
            "id": "9cb1ab67-2aab-44ef-a383-c31f4b44526e",
            "nama_pse": "ASURANSI ALLIANZ LIFE INDONESIA",
            "nama_se": "AGENCY CONNECT",
            "sektor": "Sektor Keuangan, Sektor Keuangan, Sektor Keuangan, Sektor Keuangan, Sektor Keuangan",
            "tanggal_terbit": "2021-06-09",
            "url_tdpse_detail": "https://pse.komdigi.go.id/tdpse-detail/1427",
            "website": "services.allianz.co.id/agencyconnect/"
        },
        {
            "id": "9cb1ab67-2c98-4cf9-ab43-a90e8616dfcb",
            "nama_pse": "ASURANSI ALLIANZ LIFE INDONESIA",
            "nama_se": "AGENCY CONNECT",
            "sektor": "Sektor Keuangan, Sektor Keuangan, Sektor Keuangan, Sektor Keuangan, Sektor Keuangan",
            "tanggal_terbit": "2021-06-09",
            "url_tdpse_detail": "https://pse.komdigi.go.id/tdpse-detail/1440",
            "website": "services.allianz.co.id/agencyconnect/"
        },
        {
            "id": "9cb1ab74-06a3-4fdf-a52d-3c2a1ff8698b",
            "nama_pse": "SEHATI INDONESIA SEJAHTERA",
            "nama_se": "SAKUMAS",
            "sektor": "Sektor Perdagangan, Sektor Perdagangan",
            "tanggal_terbit": "2021-06-09",
            "url_tdpse_detail": "https://pse.komdigi.go.id/tdpse-detail/1437",
            "website": "sakumas.com"
        },
        {
            "id": "9cb1ab67-465a-4f1d-b12a-88364c72c08f",
            "nama_pse": "BANK PEMBANGUNAN DAERAH BENGKULU",
            "nama_se": "MOBILE BANKING BANK BENGKULU",
            "sektor": "Sektor Keuangan, Sektor Keuangan",
            "tanggal_terbit": "2021-06-09",
            "url_tdpse_detail": "https://pse.komdigi.go.id/tdpse-detail/1421",
            "website": "-"
        },
        {
            "id": "9cb1ab6d-b23e-409e-ba69-f86da6131182",
            "nama_pse": "KREASI NOSTRA MANDIRI",
            "nama_se": "SAYURBOX",
            "sektor": "Sektor Perdagangan, Sektor Perdagangan",
            "tanggal_terbit": "2021-06-09",
            "url_tdpse_detail": "https://pse.komdigi.go.id/tdpse-detail/1398",
            "website": "sayurbox.com"
        },
        {
            "id": "9cb1ab6d-b538-4730-a550-a8bc725b4ceb",
            "nama_pse": "HANS TEKNO INTERNASIONAL",
            "nama_se": "HANS TEKNO INTERNASIONAL",
            "sektor": "Sektor Keuangan, Sektor Keuangan",
            "tanggal_terbit": "2021-06-09",
            "url_tdpse_detail": "https://pse.komdigi.go.id/tdpse-detail/1413",
            "website": "-"
        },
        {
            "id": "9cb1ab67-6375-4740-a46c-0394330bbe55",
            "nama_pse": "FAST RETAILING INDONESIA",
            "nama_se": "UNIQLO",
            "sektor": "Sektor Perdagangan, Sektor Perdagangan",
            "tanggal_terbit": "2021-06-09",
            "url_tdpse_detail": "https://pse.komdigi.go.id/tdpse-detail/1396",
            "website": "uniqlo.com/id"
        },
        {
            "id": "9cb1ab67-6921-4254-a684-bc6d35a08ee2",
            "nama_pse": "SMARTY SEJAHTERA INDONESIA",
            "nama_se": "SMARTY PLATFORM",
            "sektor": "Sektor Perdagangan, Sektor Perdagangan, Sektor Teknologi Informasi dan Komunikasi, Sektor Teknologi Informasi dan Komunikasi",
            "tanggal_terbit": "2021-06-09",
            "url_tdpse_detail": "https://pse.komdigi.go.id/tdpse-detail/1399",
            "website": "smartyshop.co.id"
        },
        {
            "id": "9cb1ab6d-bb8a-4fd1-b6f9-d49fc171dc73",
            "nama_pse": "SMARTY SEJAHTERA INDONESIA",
            "nama_se": "SMARTYSELLER INDONESIA",
            "sektor": "Sektor Perdagangan, Sektor Perdagangan",
            "tanggal_terbit": "2021-06-09",
            "url_tdpse_detail": "https://pse.komdigi.go.id/tdpse-detail/1401",
            "website": "smartyseller.id"
        },
        {
            "id": "9cb1ab67-6e4f-4b49-8059-89e7b983ad28",
            "nama_pse": "DIGITAL PRIMA SEJAHTERA",
            "nama_se": "GOTOMALLS.COM",
            "sektor": "Sektor Teknologi Informasi dan Komunikasi, Sektor Teknologi Informasi dan Komunikasi",
            "tanggal_terbit": "2021-06-09",
            "url_tdpse_detail": "https://pse.komdigi.go.id/tdpse-detail/1410",
            "website": "digiprimatera.co.id"
        },
        {
            "id": "9cb1ab74-2308-49d3-b300-e28107f67c44",
            "nama_pse": "DANAREKSA INVESTMENT MANAGEMENT",
            "nama_se": "INVESTASIK",
            "sektor": "Sektor Keuangan, Sektor Keuangan, Sektor Keuangan",
            "tanggal_terbit": "2021-06-09",
            "url_tdpse_detail": "https://pse.komdigi.go.id/tdpse-detail/1420",
            "website": "investasik.id"
        },
        {
            "id": "9cb1ab67-7531-4b78-ba9c-16bd7a83e445",
            "nama_pse": "CAHAYA MITRA HARAPAN",
            "nama_se": "GURU KREATOR",
            "sektor": "Sektor Teknologi Informasi dan Komunikasi, Sektor Teknologi Informasi dan Komunikasi, Sektor Teknologi Informasi dan Komunikasi",
            "tanggal_terbit": "2021-06-09",
            "url_tdpse_detail": "https://pse.komdigi.go.id/tdpse-detail/1418",
            "website": "gurukreator.id"
        },
        {
            "id": "9cb1ab67-7829-4c96-8e38-30d02aa2d138",
            "nama_pse": "SANTARA DAYA INSPIRATAMA",
            "nama_se": "SANTARA",
            "sektor": "Sektor Keuangan, Sektor Keuangan, Sektor Keuangan, Sektor Teknologi Informasi dan Komunikasi, Sektor Teknologi Informasi dan Komunikasi, Sektor Teknologi Informasi dan Komunikasi",
            "tanggal_terbit": "2021-06-09",
            "url_tdpse_detail": "https://pse.komdigi.go.id/tdpse-detail/1429",
            "website": "santara.co.id"
        },
        {
            "id": "9cb1ab67-7b9f-448a-b00c-b1f7a0236da6",
            "nama_pse": "SIMPAN PINJAM SATU BERKAH MULIA",
            "nama_se": "RUPIAH KILAT",
            "sektor": "Sektor Teknologi Informasi dan Komunikasi, Sektor Teknologi Informasi dan Komunikasi",
            "tanggal_terbit": "2021-06-09",
            "url_tdpse_detail": "https://pse.komdigi.go.id/tdpse-detail/1409",
            "website": "rupiahkilat.com"
        },
        {
            "id": "9cb1ab67-7efa-4316-b88b-61ce6889f4a2",
            "nama_pse": "KREASI PUTRA HOTAMA",
            "nama_se": "QARA’A",
            "sektor": "Sektor Teknologi Informasi dan Komunikasi, Sektor Teknologi Informasi dan Komunikasi",
            "tanggal_terbit": "2021-06-09",
            "url_tdpse_detail": "https://pse.komdigi.go.id/tdpse-detail/1442",
            "website": "sahabatibadah.com"
        },
        {
            "id": "9cb1ab74-2593-438d-bccf-ceb87d8de66c",
            "nama_pse": "KOKIKIT INDONESIA TEKNOLOGI",
            "nama_se": "KOKIKIT INDONESIA TEKNOLOGI",
            "sektor": "Sektor Perdagangan, Sektor Perdagangan, Sektor Teknologi Informasi dan Komunikasi, Sektor Teknologi Informasi dan Komunikasi, Sektor Pangan, Sektor Pangan",
            "tanggal_terbit": "2021-06-09",
            "url_tdpse_detail": "https://pse.komdigi.go.id/tdpse-detail/1417",
            "website": "kokikit.com"
        },
        {
            "id": "9cb1ab6d-c6e8-42aa-b431-3d5ebfc22135",
            "nama_pse": "SHOPBACK MITRA SEJAHTERA",
            "nama_se": "SHOPBACK ONLINE CASHBACK PLATFORM",
            "sektor": "Sektor Teknologi Informasi dan Komunikasi, Sektor Teknologi Informasi dan Komunikasi",
            "tanggal_terbit": "2021-06-09",
            "url_tdpse_detail": "https://pse.komdigi.go.id/tdpse-detail/1422",
            "website": "shopback.co.id"
        },
        {
            "id": "9cb1ab6d-ca48-4cee-8b07-c111aad877e3",
            "nama_pse": "PADMA DIGITAL INDONESIA",
            "nama_se": "POTATOBEANS",
            "sektor": "Sektor Perdagangan, Sektor Perdagangan, Sektor Perdagangan, Sektor Teknologi Informasi dan Komunikasi, Sektor Teknologi Informasi dan Komunikasi, Sektor Teknologi Informasi dan Komunikasi",
            "tanggal_terbit": "2021-06-09",
            "url_tdpse_detail": "https://pse.komdigi.go.id/tdpse-detail/1423",
            "website": "potatobeans.id"
        },
        {
            "id": "9cb1ab6d-cdd5-4cb8-82a5-598cc489cf73",
            "nama_pse": "SCOOTER VICTORY INTER PART",
            "nama_se": "SCOOTER VIP",
            "sektor": "Sektor Perdagangan, Sektor Perdagangan, Sektor Perdagangan, Sektor Perdagangan",
            "tanggal_terbit": "2021-06-09",
            "url_tdpse_detail": "https://pse.komdigi.go.id/tdpse-detail/1428",
            "website": "scootervip.com"
        },
        {
            "id": "9cb1ab67-89f2-4bff-a4d2-c0c36e34170c",
            "nama_pse": "QWORDS COMPANY INTERNATIONAL",
            "nama_se": "PT QWORDS COMPANY INTERNATIONAL",
            "sektor": "Sektor Teknologi Informasi dan Komunikasi, Sektor Teknologi Informasi dan Komunikasi, Sektor Teknologi Informasi dan Komunikasi",
            "tanggal_terbit": "2021-06-09",
            "url_tdpse_detail": "https://pse.komdigi.go.id/tdpse-detail/1447",
            "website": "qwords.com"
        },
        {
            "id": "9cb1ab74-291b-4df5-9ed1-c45163861977",
            "nama_pse": "BISA ARTIFISIAL INDONESIA",
            "nama_se": "BISA AI ACADEMY",
            "sektor": "Sektor Teknologi Informasi dan Komunikasi, Sektor Teknologi Informasi dan Komunikasi",
            "tanggal_terbit": "2021-06-09",
            "url_tdpse_detail": "https://pse.komdigi.go.id/tdpse-detail/1434",
            "website": "bisa.ai"
        },
        {
            "id": "9cb1ab6d-d0f1-42cf-a0ab-bc7789f3c46c",
            "nama_pse": "BISA ARTIFISIAL INDONESIA",
            "nama_se": "TAMPIL",
            "sektor": "Sektor Teknologi Informasi dan Komunikasi, Sektor Teknologi Informasi dan Komunikasi",
            "tanggal_terbit": "2021-06-09",
            "url_tdpse_detail": "https://pse.komdigi.go.id/tdpse-detail/1435",
            "website": "tampil.id"
        },
        {
            "id": "9cb1ab67-8cf7-4fda-a9d6-cc583cb79e8a",
            "nama_pse": "JAKARTA LINGKO INDONESIA",
            "nama_se": "JAKLINGKO",
            "sektor": "Sektor Perdagangan, Sektor Perdagangan, Sektor Transportasi, Sektor Transportasi, Sektor Teknologi Informasi dan Komunikasi, Sektor Teknologi Informasi dan Komunikasi",
            "tanggal_terbit": "2021-06-09",
            "url_tdpse_detail": "https://pse.komdigi.go.id/tdpse-detail/1450",
            "website": "jaklingkoindonesia.com"
        },
        {
            "id": "9cb1ab6d-dd0d-44d4-bbf6-62476483d312",
            "nama_pse": "MAULAGI INDO SOLUSI",
            "nama_se": "MAULAGI.ID",
            "sektor": "Sektor Perdagangan, Sektor Perdagangan",
            "tanggal_terbit": "2021-06-09",
            "url_tdpse_detail": "https://pse.komdigi.go.id/tdpse-detail/1449",
            "website": "-"
        },
        {
            "id": "9cb1ab67-9337-436f-b4c7-bbb69104ef3b",
            "nama_pse": "AIRPAY INTERNATIONAL INDONESIA",
            "nama_se": "PT AIRPAY INTERNATIONAL INDONESIA (\"SHOPEEPAY\")",
            "sektor": "Sektor Keuangan, Sektor Keuangan",
            "tanggal_terbit": "2021-06-09",
            "url_tdpse_detail": "https://pse.komdigi.go.id/tdpse-detail/1444",
            "website": "shopeepay.co.id"
        },
        {
            "id": "9cb1ab67-9ccc-4cf7-88cb-456d855c645f",
            "nama_pse": "KASKU DIGITAL TECH MEDIA",
            "nama_se": "KASKU DIGITAL TECH MEDIA/APPAY/APPAY MARKET/APMOB/KLIKAPPAY.CO.ID/KLIKAPPAY/IRMA ORASAL",
            "sektor": "Sektor Perdagangan, Sektor Perdagangan, Sektor Perdagangan, Sektor Perdagangan, Sektor Perdagangan",
            "tanggal_terbit": "2021-06-09",
            "url_tdpse_detail": "https://pse.komdigi.go.id/tdpse-detail/1448",
            "website": "klikappay.co.id"
        },
        {
            "id": "9cb1ab8b-9d3d-4f42-bae1-e07217c49977",
            "nama_pse": "AVODAH ROYAL MULIA",
            "nama_se": "MAUBELAJARAPA.COM",
            "sektor": "Sektor Teknologi Informasi dan Komunikasi, Sektor Teknologi Informasi dan Komunikasi",
            "tanggal_terbit": "2021-06-09",
            "url_tdpse_detail": "https://pse.komdigi.go.id/tdpse-detail/1426",
            "website": "maubelajarapa.com/"
        },
        {
            "id": "9cb1ab8b-b543-405f-bb20-83e1444570df",
            "nama_pse": "AISKOR TEKNOLOGI INDONESIA",
            "nama_se": "AISKOR",
            "sektor": "Sektor Teknologi Informasi dan Komunikasi, Sektor Teknologi Informasi dan Komunikasi",
            "tanggal_terbit": "2021-06-09",
            "url_tdpse_detail": "https://pse.komdigi.go.id/tdpse-detail/1436",
            "website": "aiskor.co.id"
        }
    ],
    "processingTimeMs": 9,
    "query": "",
    "totalHits": 19131,
    "hitsPerPage": 50,
    "page": 356,
    "totalPages": 383
}