{
    "hits": [
        {
            "id": "9cb1ab89-556e-4b33-a830-f38a19bbaac5",
            "nama_pse": "SOCIOLLA RITEL INDONESIA",
            "nama_se": "SOCO BY SOCIOLLA",
            "sektor": "Sektor Perdagangan, Sektor Perdagangan",
            "tanggal_terbit": "2021-12-21",
            "url_tdpse_detail": "https://pse.komdigi.go.id/tdpse-detail/2812",
            "website": "sociolla.id"
        },
        {
            "id": "9cb1ab89-5806-4ed0-9689-629e8f7e4621",
            "nama_pse": "SOCIOLLA RITEL INDONESIA",
            "nama_se": "LILLA",
            "sektor": "Sektor Perdagangan, Sektor Perdagangan",
            "tanggal_terbit": "2021-12-21",
            "url_tdpse_detail": "https://pse.komdigi.go.id/tdpse-detail/2813",
            "website": "lilla.id"
        },
        {
            "id": "9cb1ab79-6b9e-4eec-9ab1-08691c30ff26",
            "nama_pse": "SURYA CLOUD TECHNOLOGY",
            "nama_se": "SURYA CLOUD TECHNOLOGY",
            "sektor": "Sektor Perdagangan, Sektor Perdagangan, Sektor Teknologi Informasi dan Komunikasi, Sektor Teknologi Informasi dan Komunikasi, Sektor Pertahanan dan Keamanan, Sektor Pertahanan dan Keamanan",
            "tanggal_terbit": "2021-12-21",
            "url_tdpse_detail": "https://pse.komdigi.go.id/tdpse-detail/2822",
            "website": "sct.co.id"
        },
        {
            "id": "9cb1ab79-6fec-43a2-844d-ed3b4c4d9175",
            "nama_pse": "GERAI TEKNOLOGI CERDAS",
            "nama_se": "PIKAPP",
            "sektor": "Sektor Perdagangan, Sektor Perdagangan, Sektor Teknologi Informasi dan Komunikasi, Sektor Teknologi Informasi dan Komunikasi",
            "tanggal_terbit": "2021-12-21",
            "url_tdpse_detail": "https://pse.komdigi.go.id/tdpse-detail/2821",
            "website": "pik.app.id"
        },
        {
            "id": "9cb1ab81-3c80-4e49-bcf9-eac8985a45ad",
            "nama_pse": "INTAN SUKSES ABADI",
            "nama_se": "ANOAJEK",
            "sektor": "Sektor Transportasi, Sektor Transportasi, Sektor Teknologi Informasi dan Komunikasi, Sektor Teknologi Informasi dan Komunikasi",
            "tanggal_terbit": "2021-12-21",
            "url_tdpse_detail": "https://pse.komdigi.go.id/tdpse-detail/2833",
            "website": "-"
        },
        {
            "id": "9cb1ab89-5b4f-4467-b34a-f3a523a757f3",
            "nama_pse": "PERUPA SIBER INFORMATIKA",
            "nama_se": "PERUPA.CO",
            "sektor": "Sektor Teknologi Informasi dan Komunikasi, Sektor Teknologi Informasi dan Komunikasi",
            "tanggal_terbit": "2021-12-21",
            "url_tdpse_detail": "https://pse.komdigi.go.id/tdpse-detail/2831",
            "website": "perupa.co"
        },
        {
            "id": "9cb1ab86-4345-4d64-9a91-cc8857a5ebd4",
            "nama_pse": "CREATIVE MOBILE ADVENTURE",
            "nama_se": "BOOST",
            "sektor": "Sektor Keuangan, Sektor Keuangan",
            "tanggal_terbit": "2021-12-21",
            "url_tdpse_detail": "https://pse.komdigi.go.id/tdpse-detail/2828",
            "website": "myboost.co.id"
        },
        {
            "id": "9cb1ab9f-119b-4329-b003-0a5ba6f002e7",
            "nama_pse": "ASURANSI BINTANG",
            "nama_se": "M-BINTANG",
            "sektor": "Sektor Keuangan",
            "tanggal_terbit": "2021-12-21",
            "url_tdpse_detail": "https://pse.komdigi.go.id/tdpse-detail/2818",
            "website": "-"
        },
        {
            "id": "9cb1ab9f-8026-4213-8a9c-660c38f86558",
            "nama_pse": "OLSERA INDONESIA PRATAMA",
            "nama_se": "OLSERA",
            "sektor": "Sektor Teknologi Informasi dan Komunikasi, Sektor Teknologi Informasi dan Komunikasi, Sektor Teknologi Informasi dan Komunikasi",
            "tanggal_terbit": "2021-12-21",
            "url_tdpse_detail": "https://pse.komdigi.go.id/tdpse-detail/2810",
            "website": "olsera.com"
        },
        {
            "id": "9cb1ab6e-1d82-4b82-bae6-2a0fb7538d9e",
            "nama_pse": "PRIVY IDENTITAS DIGITAL",
            "nama_se": "PRIVYPASS",
            "sektor": "Sektor Teknologi Informasi dan Komunikasi, Sektor Teknologi Informasi dan Komunikasi, Sektor Teknologi Informasi dan Komunikasi",
            "tanggal_terbit": "2021-12-20",
            "url_tdpse_detail": "https://pse.komdigi.go.id/tdpse-detail/2797",
            "website": "privy.id"
        },
        {
            "id": "9cb1ab68-9e51-4e8a-875a-17fba5cd38e4",
            "nama_pse": "ANARYA TEKNOLOGI INDONESIA",
            "nama_se": "1 (ONE) MEDIX",
            "sektor": "Sektor Teknologi Informasi dan Komunikasi, Sektor Teknologi Informasi dan Komunikasi",
            "tanggal_terbit": "2021-12-20",
            "url_tdpse_detail": "https://pse.komdigi.go.id/tdpse-detail/2809",
            "website": "-"
        },
        {
            "id": "9cb1ab68-a797-44eb-9aeb-db55c801aa02",
            "nama_pse": "BIOKISSED NATURALS INDONESIA",
            "nama_se": "PT BIOKISSED NATURALS INDONESIA",
            "sektor": "Sektor Perdagangan, Sektor Perdagangan, Sektor Kesehatan, Sektor Kesehatan, Sektor Teknologi Informasi dan Komunikasi, Sektor Teknologi Informasi dan Komunikasi",
            "tanggal_terbit": "2021-12-20",
            "url_tdpse_detail": "https://pse.komdigi.go.id/tdpse-detail/2807",
            "website": "biokissed.com"
        },
        {
            "id": "9cb1ab6f-aa30-4bb2-abfb-02c8f2b317e7",
            "nama_pse": "PERUSAHAAN PERSEROAN (PERSERO) PT. TELEKOMUNIKASI INDONESIA",
            "nama_se": "T-MONEY",
            "sektor": "Sektor Keuangan, Sektor Keuangan, Sektor Keuangan, Sektor Keuangan, Sektor Teknologi Informasi dan Komunikasi, Sektor Teknologi Informasi dan Komunikasi, Sektor Teknologi Informasi dan Komunikasi, Sektor Teknologi Informasi dan Komunikasi",
            "tanggal_terbit": "2021-12-20",
            "url_tdpse_detail": "https://pse.komdigi.go.id/tdpse-detail/2800",
            "website": "tmoney.co.id"
        },
        {
            "id": "9cb1ab88-4af1-4654-9985-ba39ed73fec6",
            "nama_pse": "MULIA SEJAHTERA TEKNOLOGI",
            "nama_se": "PT. MULIA SEJAHTERA TEKNOLOGI",
            "sektor": "Sektor Teknologi Informasi dan Komunikasi, Sektor Teknologi Informasi dan Komunikasi, Sektor Teknologi Informasi dan Komunikasi",
            "tanggal_terbit": "2021-12-20",
            "url_tdpse_detail": "https://pse.komdigi.go.id/tdpse-detail/2798",
            "website": "-"
        },
        {
            "id": "9cb1ab80-d360-4e1d-a7bb-65096d6b50b0",
            "nama_pse": "PRIMAHOTEL MANAJEMEN INDONESIA",
            "nama_se": "DPRIMAHOTEL",
            "sektor": "Sektor Perdagangan, Sektor Perdagangan",
            "tanggal_terbit": "2021-12-20",
            "url_tdpse_detail": "https://pse.komdigi.go.id/tdpse-detail/2802",
            "website": "dprimahotel.com"
        },
        {
            "id": "9cb1ab89-143b-43a5-9871-650f87a41350",
            "nama_pse": "HIRA ECOKREASI SEMESTA",
            "nama_se": "TALIGAMA.COM",
            "sektor": "Sektor Teknologi Informasi dan Komunikasi, Sektor Teknologi Informasi dan Komunikasi",
            "tanggal_terbit": "2021-12-20",
            "url_tdpse_detail": "https://pse.komdigi.go.id/tdpse-detail/2806",
            "website": "taligama.com"
        },
        {
            "id": "9cb1ab79-4f2a-4ef2-b396-811c4bf4770e",
            "nama_pse": "RETAIL SINERGI TEKNOLOGI",
            "nama_se": "WWW.TEKNIKMART.COM",
            "sektor": "Sektor Perdagangan, Sektor Perdagangan",
            "tanggal_terbit": "2021-12-20",
            "url_tdpse_detail": "https://pse.komdigi.go.id/tdpse-detail/2803",
            "website": "teknikmart.com"
        },
        {
            "id": "9cb1ab81-1b3a-4a0c-8fe9-a792d6913b42",
            "nama_pse": "LAKU6 ONLINE INDONESIA",
            "nama_se": "LAKU6.COM",
            "sektor": "Sektor Perdagangan, Sektor Perdagangan",
            "tanggal_terbit": "2021-12-20",
            "url_tdpse_detail": "https://pse.komdigi.go.id/tdpse-detail/2805",
            "website": "laku6.com"
        },
        {
            "id": "9cb1ab81-1d72-40f7-b88f-48ba9ae8a495",
            "nama_pse": "TARAYASA DIGITAL TEKNOLOGI",
            "nama_se": "PT. TARAYASA DIGITAL TEKNOLOGI",
            "sektor": "Sektor Teknologi Informasi dan Komunikasi, Sektor Teknologi Informasi dan Komunikasi",
            "tanggal_terbit": "2021-12-20",
            "url_tdpse_detail": "https://pse.komdigi.go.id/tdpse-detail/2799",
            "website": "-"
        },
        {
            "id": "9cb1ab79-5143-4e94-88ac-2942f09804d1",
            "nama_pse": "BUDIDANA INVESTASI NUSANTARA",
            "nama_se": "BUDIDANA.ID",
            "sektor": "Sektor Perdagangan, Sektor Perdagangan, Sektor Teknologi Informasi dan Komunikasi, Sektor Teknologi Informasi dan Komunikasi",
            "tanggal_terbit": "2021-12-20",
            "url_tdpse_detail": "https://pse.komdigi.go.id/tdpse-detail/2804",
            "website": "budidana.id"
        },
        {
            "id": "9cb1ab86-6fad-4ddb-af6e-73067b45b56d",
            "nama_pse": "WANTEG ASSET MANAGEMENT",
            "nama_se": "SITUS PT WANTEG ASSET MANAGEMENT",
            "sektor": "Sektor Keuangan, Sektor Keuangan",
            "tanggal_terbit": "2021-12-20",
            "url_tdpse_detail": "https://pse.komdigi.go.id/tdpse-detail/2808",
            "website": "wantegasset.com"
        },
        {
            "id": "9cb1ab88-ff11-4b67-a6e1-a8e1d197f7de",
            "nama_pse": "ALIGA PAMA RAYA",
            "nama_se": "SCHOTERS",
            "sektor": "Sektor Teknologi Informasi dan Komunikasi, Sektor Teknologi Informasi dan Komunikasi",
            "tanggal_terbit": "2021-12-18",
            "url_tdpse_detail": "https://pse.komdigi.go.id/tdpse-detail/2794",
            "website": "schoters.com"
        },
        {
            "id": "9cb1ab89-0b79-480f-9198-d851936ce6e0",
            "nama_pse": "SAMUDRA CAPITAL INTERNASIONAL",
            "nama_se": "RX 1",
            "sektor": "Sektor Perdagangan, Sektor Perdagangan, Sektor Teknologi Informasi dan Komunikasi, Sektor Teknologi Informasi dan Komunikasi",
            "tanggal_terbit": "2021-12-18",
            "url_tdpse_detail": "https://pse.komdigi.go.id/tdpse-detail/2795",
            "website": "autountrade.com"
        },
        {
            "id": "9cb1ab79-4ac4-4bc6-bfb1-61e3de7f4dfa",
            "nama_pse": "PEDAGANG ASET KRIPTO",
            "nama_se": "COINVEST",
            "sektor": "Sektor Perdagangan, Sektor Perdagangan",
            "tanggal_terbit": "2021-12-18",
            "url_tdpse_detail": "https://pse.komdigi.go.id/tdpse-detail/2796",
            "website": "pedagangasetkripto.com"
        },
        {
            "id": "9cb1ab79-4ce6-4fd4-ae0c-f65b5037449f",
            "nama_pse": "ELSA AURORA PERMATA DEWI",
            "nama_se": "WAFAA STUDIO",
            "sektor": "Sektor Perdagangan, Sektor Perdagangan",
            "tanggal_terbit": "2021-12-18",
            "url_tdpse_detail": "https://pse.komdigi.go.id/tdpse-detail/2792",
            "website": "wafaastudio.com"
        },
        {
            "id": "9cb1ab81-15d8-4dcb-9c7d-43570664569e",
            "nama_pse": "AKSES PINTU OTOMATIS",
            "nama_se": "AKSES PINTU OTOMATIS",
            "sektor": "Sektor Perdagangan, Sektor Perdagangan, Sektor Teknologi Informasi dan Komunikasi, Sektor Teknologi Informasi dan Komunikasi",
            "tanggal_terbit": "2021-12-18",
            "url_tdpse_detail": "https://pse.komdigi.go.id/tdpse-detail/2793",
            "website": "teknisiaksespintu.com"
        },
        {
            "id": "9cb1ab77-0e2e-48ad-add5-b4346cca813e",
            "nama_pse": "MASTER MILLIONAIRE PRIME",
            "nama_se": "PRIME369",
            "sektor": "Sektor Perdagangan, Sektor Perdagangan",
            "tanggal_terbit": "2021-12-17",
            "url_tdpse_detail": "https://pse.komdigi.go.id/tdpse-detail/2777",
            "website": "mastermprime.com"
        },
        {
            "id": "9cb1ab77-1b66-4eda-85bf-ddbb078f4b0e",
            "nama_pse": "ASURANSI MULTI ARTHA GUNA",
            "nama_se": "MAG PRODUCT DIGITAL MARKETING",
            "sektor": "Sektor Keuangan, Sektor Keuangan",
            "tanggal_terbit": "2021-12-17",
            "url_tdpse_detail": "https://pse.komdigi.go.id/tdpse-detail/2783",
            "website": "mag.co.id"
        },
        {
            "id": "9cb1ab79-1223-41c6-b19e-94f1f40733cf",
            "nama_pse": "VROMEDIA INFORMATIKA TEKNOLOGI",
            "nama_se": "VRO",
            "sektor": "Sektor Teknologi Informasi dan Komunikasi, Sektor Teknologi Informasi dan Komunikasi",
            "tanggal_terbit": "2021-12-17",
            "url_tdpse_detail": "https://pse.komdigi.go.id/tdpse-detail/2782",
            "website": "vromedia.com"
        },
        {
            "id": "9cb1ab88-ef04-4fb1-bd2e-229995a38e02",
            "nama_pse": "VROMEDIA INFORMATIKA TEKNOLOGI",
            "nama_se": "GOVIT",
            "sektor": "Sektor Teknologi Informasi dan Komunikasi, Sektor Teknologi Informasi dan Komunikasi",
            "tanggal_terbit": "2021-12-17",
            "url_tdpse_detail": "https://pse.komdigi.go.id/tdpse-detail/2787",
            "website": "-"
        },
        {
            "id": "9cb1ab81-0dce-4d6d-a0b9-b3b706f1b123",
            "nama_pse": "CHILI SOLUSI INDONESIA",
            "nama_se": "MY CHILI",
            "sektor": "Sektor Teknologi Informasi dan Komunikasi, Sektor Teknologi Informasi dan Komunikasi",
            "tanggal_terbit": "2021-12-17",
            "url_tdpse_detail": "https://pse.komdigi.go.id/tdpse-detail/2779",
            "website": "chilimoney.id"
        },
        {
            "id": "9cb1ab89-0e03-47f4-9380-b76a843aa683",
            "nama_pse": "BUANA VARIAKOMPUTAMA",
            "nama_se": "SISTEM INFORMASI RUMAH SAKIT (SIMRS)",
            "sektor": "Sektor Teknologi Informasi dan Komunikasi, Sektor Teknologi Informasi dan Komunikasi",
            "tanggal_terbit": "2021-12-17",
            "url_tdpse_detail": "https://pse.komdigi.go.id/tdpse-detail/2780",
            "website": "bvk.co.id"
        },
        {
            "id": "9cb1ab89-1150-4c8d-97f3-bb7b913c77b3",
            "nama_pse": "DARMATARI INTEGRASI DATASOFT",
            "nama_se": "ENSEFALON (SISTIM INFORMASI \u0026 MANAJEMEN KLINIK \u0026 APOTIK)",
            "sektor": "Sektor Teknologi Informasi dan Komunikasi, Sektor Teknologi Informasi dan Komunikasi",
            "tanggal_terbit": "2021-12-17",
            "url_tdpse_detail": "https://pse.komdigi.go.id/tdpse-detail/2785",
            "website": "darmatari.com"
        },
        {
            "id": "9cb1ab79-4803-4c85-a144-8cbbcf1513fc",
            "nama_pse": "LIFTA KAYA SENTOSA",
            "nama_se": "MENTORKERJA.COM",
            "sektor": "Sektor Teknologi Informasi dan Komunikasi, Sektor Teknologi Informasi dan Komunikasi",
            "tanggal_terbit": "2021-12-17",
            "url_tdpse_detail": "https://pse.komdigi.go.id/tdpse-detail/2784",
            "website": "mentorkerja.com"
        },
        {
            "id": "9cb1ab81-10c2-409d-89fc-7d37bfa7f33b",
            "nama_pse": "FOUR VISION MEDIA",
            "nama_se": "SMARTCOOP",
            "sektor": "Sektor Keuangan, Sektor Keuangan, Sektor Keuangan, Sektor Keuangan, Sektor Teknologi Informasi dan Komunikasi, Sektor Teknologi Informasi dan Komunikasi, Sektor Teknologi Informasi dan Komunikasi, Sektor Teknologi Informasi dan Komunikasi",
            "tanggal_terbit": "2021-12-17",
            "url_tdpse_detail": "https://pse.komdigi.go.id/tdpse-detail/2789",
            "website": "smartcoop.id"
        },
        {
            "id": "9cb1ab89-21b3-41fe-a630-05656cd0d5f2",
            "nama_pse": "GEOANFIELD SOLUSI INDONESIA",
            "nama_se": "INITUKANG.COM",
            "sektor": "Sektor Perdagangan, Sektor Perdagangan, Sektor Teknologi Informasi dan Komunikasi, Sektor Teknologi Informasi dan Komunikasi",
            "tanggal_terbit": "2021-12-17",
            "url_tdpse_detail": "https://pse.komdigi.go.id/tdpse-detail/2788",
            "website": "initukang.com"
        },
        {
            "id": "9cb1ab89-2ef2-41a1-903a-3422f596ebe8",
            "nama_pse": "MULTIKRIPTO EXCHANGE INDONESIA",
            "nama_se": "PT. PANTHERAS TEKNOLOGI INTERNASIONAL",
            "sektor": "Sektor Perdagangan, Sektor Perdagangan",
            "tanggal_terbit": "2021-12-17",
            "url_tdpse_detail": "https://pse.komdigi.go.id/tdpse-detail/2791",
            "website": "pantheras.com"
        },
        {
            "id": "9cb1ab8d-1867-4dde-a821-63443f168160",
            "nama_pse": "APLIKASI EMITEN INDONESIA",
            "nama_se": "EMITEN.COM",
            "sektor": "Sektor Keuangan, Sektor Keuangan, Sektor Teknologi Informasi dan Komunikasi, Sektor Teknologi Informasi dan Komunikasi",
            "tanggal_terbit": "2021-12-17",
            "url_tdpse_detail": "https://pse.komdigi.go.id/tdpse-detail/2781",
            "website": "emiten.com"
        },
        {
            "id": "9cb1ab8d-c752-4043-bc04-356db1ff91b3",
            "nama_pse": "BRODO GANESHA INDONESIA",
            "nama_se": "BRODO",
            "sektor": "Sektor Perdagangan, Sektor Perdagangan",
            "tanggal_terbit": "2021-12-17",
            "url_tdpse_detail": "https://pse.komdigi.go.id/tdpse-detail/2778",
            "website": "bro.do"
        },
        {
            "id": "9cb1ab92-038f-4411-8cce-5ab83702a5c9",
            "nama_pse": "NODEFLUX TEKNOLOGI INDONESIA",
            "nama_se": "NODEFLUX IDENTIFAI",
            "sektor": "Sektor Teknologi Informasi dan Komunikasi, Sektor Teknologi Informasi dan Komunikasi, Sektor Teknologi Informasi dan Komunikasi, Sektor Teknologi Informasi dan Komunikasi, Sektor Teknologi Informasi dan Komunikasi, Sektor Teknologi Informasi dan Komunikasi",
            "tanggal_terbit": "2021-12-17",
            "url_tdpse_detail": "https://pse.komdigi.go.id/tdpse-detail/2786",
            "website": "identifai.id"
        },
        {
            "id": "9cb1ab70-57bf-4778-95bb-1be50267a81d",
            "nama_pse": "SRC INDONESIA SEMBILAN",
            "nama_se": "AYO TOKO BY SRC",
            "sektor": "Sektor Perdagangan, Sektor Perdagangan, Sektor Perdagangan",
            "tanggal_terbit": "2021-12-16",
            "url_tdpse_detail": "https://pse.komdigi.go.id/tdpse-detail/2770",
            "website": "-"
        },
        {
            "id": "9cb1ab70-7202-42ca-be58-d388d08c137a",
            "nama_pse": "PROPERTI SOLUSI MANAJEMEN",
            "nama_se": "PINHOME",
            "sektor": "Sektor Perdagangan, Sektor Perdagangan",
            "tanggal_terbit": "2021-12-16",
            "url_tdpse_detail": "https://pse.komdigi.go.id/tdpse-detail/2772",
            "website": "pinhome.id"
        },
        {
            "id": "9cb1ab80-168a-4cf5-9cc3-8cfed9ad391c",
            "nama_pse": "PANDU DIGITAL BERDAYA",
            "nama_se": "PANDU DIGITAL BERDAYA",
            "sektor": "Sektor Teknologi Informasi dan Komunikasi, Sektor Teknologi Informasi dan Komunikasi",
            "tanggal_terbit": "2021-12-16",
            "url_tdpse_detail": "https://pse.komdigi.go.id/tdpse-detail/2776",
            "website": "DIGITALBERDAYA.ID"
        },
        {
            "id": "9cb1ab80-8e85-4ea4-a9a3-bc153f2dd94e",
            "nama_pse": "CHINA UNICOM INDONESIA OPERATIONS",
            "nama_se": "CHINA UNICOM GLOBAL",
            "sektor": "Sektor Teknologi Informasi dan Komunikasi, Sektor Teknologi Informasi dan Komunikasi",
            "tanggal_terbit": "2021-12-16",
            "url_tdpse_detail": "https://pse.komdigi.go.id/tdpse-detail/2775",
            "website": "chinaunicomglobal.com"
        },
        {
            "id": "9cb1ab78-df83-4f73-a7fe-340b88f5f9fd",
            "nama_pse": "KUMAJAYA",
            "nama_se": "EFRASNET.COM",
            "sektor": "Sektor Teknologi Informasi dan Komunikasi, Sektor Teknologi Informasi dan Komunikasi",
            "tanggal_terbit": "2021-12-16",
            "url_tdpse_detail": "https://pse.komdigi.go.id/tdpse-detail/2768",
            "website": "-"
        },
        {
            "id": "9cb1ab81-0178-43dd-8a9e-cd3cf4362e73",
            "nama_pse": "ALIGA PAMA RAYA",
            "nama_se": "KLAZZROOM",
            "sektor": "Sektor Teknologi Informasi dan Komunikasi, Sektor Teknologi Informasi dan Komunikasi",
            "tanggal_terbit": "2021-12-16",
            "url_tdpse_detail": "https://pse.komdigi.go.id/tdpse-detail/2766",
            "website": "klazzroom.com"
        },
        {
            "id": "9cb1ab79-39b5-4d9c-bd39-bf1db30db154",
            "nama_pse": "KIRANA AISYAH LARASATI",
            "nama_se": "MARKETPLACE FASILITAS RISET AKADEMIK DAN INDUSTRI",
            "sektor": "Sektor Perdagangan, Sektor Perdagangan, Sektor Teknologi Informasi dan Komunikasi, Sektor Teknologi Informasi dan Komunikasi",
            "tanggal_terbit": "2021-12-16",
            "url_tdpse_detail": "https://pse.komdigi.go.id/tdpse-detail/2765",
            "website": "ngelabkampus.com"
        },
        {
            "id": "9cb1ab89-0176-45c1-a7d7-15fbed64f132",
            "nama_pse": "TATA PERMATA DIGITAL",
            "nama_se": "TGAMES",
            "sektor": "Sektor Perdagangan, Sektor Perdagangan",
            "tanggal_terbit": "2021-12-16",
            "url_tdpse_detail": "https://pse.komdigi.go.id/tdpse-detail/2767",
            "website": "Tgames.asia"
        },
        {
            "id": "9cb1ab89-0689-4dad-b4dd-70713728b4a2",
            "nama_pse": "AZZURO TRE VENTO TECH",
            "nama_se": "AZZURO",
            "sektor": "Sektor Perdagangan, Sektor Perdagangan",
            "tanggal_terbit": "2021-12-16",
            "url_tdpse_detail": "https://pse.komdigi.go.id/tdpse-detail/2769",
            "website": "azzuro.id"
        },
        {
            "id": "9cb1ab79-3dab-4c39-bfe9-365cd741db11",
            "nama_pse": "KATADATA INDONESIA",
            "nama_se": "WWW.KATADATA.CO,ID",
            "sektor": "Sektor Teknologi Informasi dan Komunikasi, Sektor Teknologi Informasi dan Komunikasi",
            "tanggal_terbit": "2021-12-16",
            "url_tdpse_detail": "https://pse.komdigi.go.id/tdpse-detail/2774",
            "website": "KATADATA.CO.ID"
        }
    ],
    "processingTimeMs": 7,
    "query": "",
    "totalHits": 19121,
    "hitsPerPage": 50,
    "page": 330,
    "totalPages": 383
}