{
    "hits": [
        {
            "id": "9cb1ac5d-d1f8-4c83-b122-591a07ecd13d",
            "nama_pse": "APRIYANTI MUSTIKA DEWI",
            "nama_se": "APP.ATHREE.ID",
            "sektor": "Sektor Perdagangan, Sektor Kesehatan",
            "tanggal_terbit": "2024-07-09",
            "url_tdpse_detail": "https://pse.komdigi.go.id/tdpse-detail/19425",
            "website": "athree.id"
        },
        {
            "id": "9cb1ac89-1025-474e-af5b-31b568de1f54",
            "nama_pse": "PUTRA MEDIKA",
            "nama_se": "KLINIK PUTRA MEDIKA 2",
            "sektor": "Sektor Kesehatan",
            "tanggal_terbit": "2024-07-08",
            "url_tdpse_detail": "https://pse.komdigi.go.id/tdpse-detail/19404",
            "website": "-"
        },
        {
            "id": "9cb1ac72-d7d4-418b-8a8f-a5c45d13919c",
            "nama_pse": "AIR MAS PERKASA",
            "nama_se": "AYOOSTORE",
            "sektor": "Sektor Perdagangan, Sektor Teknologi Informasi dan Komunikasi",
            "tanggal_terbit": "2024-07-08",
            "url_tdpse_detail": "https://pse.komdigi.go.id/tdpse-detail/19414",
            "website": "ayoostore.id"
        },
        {
            "id": "9cb1ac89-0751-4ee1-bb86-0f7c22c82283",
            "nama_pse": "SECURE DATA DIGITAL CYBER",
            "nama_se": "SECURE DATA DIGITAL CYBER",
            "sektor": "Sektor Perdagangan, Sektor Teknologi Informasi dan Komunikasi",
            "tanggal_terbit": "2024-07-08",
            "url_tdpse_detail": "https://pse.komdigi.go.id/tdpse-detail/19400",
            "website": "ptsddc.com"
        },
        {
            "id": "9cb1ac89-0baf-44b5-923d-de15a08434ab",
            "nama_pse": "SMART EDUKASI INDONESIA",
            "nama_se": "SMARTCPNS",
            "sektor": "Sektor Perdagangan, Sektor Teknologi Informasi dan Komunikasi",
            "tanggal_terbit": "2024-07-08",
            "url_tdpse_detail": "https://pse.komdigi.go.id/tdpse-detail/19401",
            "website": "smartcpns.id"
        },
        {
            "id": "9cb1ac5d-a788-4f04-8be5-3ef108bd4e35",
            "nama_pse": "SMART EDUKASI INDONESIA",
            "nama_se": "SMARTCPNS APP",
            "sektor": "Sektor Perdagangan, Sektor Teknologi Informasi dan Komunikasi",
            "tanggal_terbit": "2024-07-08",
            "url_tdpse_detail": "https://pse.komdigi.go.id/tdpse-detail/19402",
            "website": "-"
        },
        {
            "id": "9cb1ac5d-aa54-4ad4-966e-8ba60ba9953c",
            "nama_pse": "PUTRA MEDIKA",
            "nama_se": "KLINIK PUTRA MEDIKA 1",
            "sektor": "Sektor Kesehatan",
            "tanggal_terbit": "2024-07-08",
            "url_tdpse_detail": "https://pse.komdigi.go.id/tdpse-detail/19403",
            "website": "-"
        },
        {
            "id": "9cb1ac89-14b0-452f-9a90-8fefde4a4d2e",
            "nama_pse": "PUTRA MEDIKA",
            "nama_se": "KLINIK PUTRA MEDIKA SUKAMAHI",
            "sektor": "Sektor Kesehatan",
            "tanggal_terbit": "2024-07-08",
            "url_tdpse_detail": "https://pse.komdigi.go.id/tdpse-detail/19406",
            "website": "-"
        },
        {
            "id": "9cb1ac5d-acec-4629-815f-e4a0e9ba994e",
            "nama_pse": "PUTRA MEDIKA",
            "nama_se": "KLINIK PUTRA MEDIKA 3",
            "sektor": "Sektor Kesehatan",
            "tanggal_terbit": "2024-07-08",
            "url_tdpse_detail": "https://pse.komdigi.go.id/tdpse-detail/19405",
            "website": "-"
        },
        {
            "id": "9cb1ac5d-b287-46b9-a074-00d55a5af3b4",
            "nama_pse": "PUTRA MEDIKA",
            "nama_se": "KLINIK PUTRA MEDIKA CIBENDA",
            "sektor": "Sektor Kesehatan",
            "tanggal_terbit": "2024-07-08",
            "url_tdpse_detail": "https://pse.komdigi.go.id/tdpse-detail/19407",
            "website": "-"
        },
        {
            "id": "9cb1ac5d-bc0b-447b-bedb-79f4ea27df48",
            "nama_pse": "RSU PKU MUHAMMADIYAH SRAGEN",
            "nama_se": "SIMRS KHANZA",
            "sektor": "Sektor Teknologi Informasi dan Komunikasi",
            "tanggal_terbit": "2024-07-08",
            "url_tdpse_detail": "https://pse.komdigi.go.id/tdpse-detail/19411",
            "website": "-"
        },
        {
            "id": "9cb1ac89-18db-4a20-9a33-69f5c43f0d98",
            "nama_pse": "NIVIDIA PRATAMA KHATULISTIWA",
            "nama_se": "AVATARA GRESIK",
            "sektor": "Sektor Perdagangan",
            "tanggal_terbit": "2024-07-08",
            "url_tdpse_detail": "https://pse.komdigi.go.id/tdpse-detail/19410",
            "website": "avataragresik.com"
        },
        {
            "id": "9cb1ac5d-b88a-473a-82ba-492b2ba8ed42",
            "nama_pse": "NUGRAHA SENTOSA RAYA",
            "nama_se": "HIS",
            "sektor": "Sektor Kesehatan",
            "tanggal_terbit": "2024-07-08",
            "url_tdpse_detail": "https://pse.komdigi.go.id/tdpse-detail/19409",
            "website": "-"
        },
        {
            "id": "9cb1ac5d-bee0-4e30-a0e3-3ffefcd7c5a0",
            "nama_pse": "PAI PAI FUN",
            "nama_se": "TIMI LIVE",
            "sektor": "Sektor Teknologi Informasi dan Komunikasi",
            "tanggal_terbit": "2024-07-08",
            "url_tdpse_detail": "https://pse.komdigi.go.id/tdpse-detail/19413",
            "website": "web.paipaifun.com"
        },
        {
            "id": "9cb1ac89-2026-4644-84b5-4ecd76b28b1a",
            "nama_pse": "PASAR ALHUDA KARYA MANFAAT",
            "nama_se": "PASAR ALHUDA",
            "sektor": "Sektor Perdagangan, Sektor Teknologi Informasi dan Komunikasi",
            "tanggal_terbit": "2024-07-08",
            "url_tdpse_detail": "https://pse.komdigi.go.id/tdpse-detail/19419",
            "website": "pasaralhuda.com"
        },
        {
            "id": "9cb1ac5d-c1d8-4c53-971d-c97c4bcb11df",
            "nama_pse": "PORTAL INTERKONEKSI NUSANTARA",
            "nama_se": "SUDUTBERITANEWS.COM",
            "sektor": "Sektor Teknologi Informasi dan Komunikasi",
            "tanggal_terbit": "2024-07-08",
            "url_tdpse_detail": "https://pse.komdigi.go.id/tdpse-detail/19416",
            "website": "sudutberitanews.com"
        },
        {
            "id": "9cb1ac72-cec0-436e-af75-ee57af97fa5f",
            "nama_pse": "LABORATORIUM BUNDA THAMRIN",
            "nama_se": "LAB THAMRIN",
            "sektor": "Sektor Kesehatan",
            "tanggal_terbit": "2024-07-08",
            "url_tdpse_detail": "https://pse.komdigi.go.id/tdpse-detail/19415",
            "website": "labbundathamrin.co.id"
        },
        {
            "id": "9cb1ac72-dd04-4108-834d-ca1ee33bc113",
            "nama_pse": "INTAN PARIWARA MULTIMEDIA",
            "nama_se": "SUARA TRENGGALEK",
            "sektor": "Sektor Teknologi Informasi dan Komunikasi",
            "tanggal_terbit": "2024-07-08",
            "url_tdpse_detail": "https://pse.komdigi.go.id/tdpse-detail/19420",
            "website": "suaratrenggalek.com"
        },
        {
            "id": "9cb1ac5d-c4cd-4438-827f-5486fd56c72c",
            "nama_pse": "BRAYAN",
            "nama_se": "LAB THAMRIN MEDAN",
            "sektor": "Sektor Kesehatan",
            "tanggal_terbit": "2024-07-08",
            "url_tdpse_detail": "https://pse.komdigi.go.id/tdpse-detail/19417",
            "website": "labthamrin.co.id"
        },
        {
            "id": "9cb1ac5d-cec2-4067-9906-eef4cc130116",
            "nama_pse": "FARAF TECH INDONESIA",
            "nama_se": "DEAL LELANG",
            "sektor": "Sektor Perdagangan",
            "tanggal_terbit": "2024-07-08",
            "url_tdpse_detail": "https://pse.komdigi.go.id/tdpse-detail/19422",
            "website": "deallelang.com"
        },
        {
            "id": "9cb1ac89-1c3e-4538-afc5-378485b995a4",
            "nama_pse": "KURNIA CIPTAMODA GEMILANG",
            "nama_se": "CHARLESKEITH.CO.ID",
            "sektor": "Sektor Perdagangan",
            "tanggal_terbit": "2024-07-08",
            "url_tdpse_detail": "https://pse.komdigi.go.id/tdpse-detail/19412",
            "website": "charleskeith.co.id"
        },
        {
            "id": "9cb1ac5d-b5b0-4e01-b21b-f5da819788c8",
            "nama_pse": "PUTRA MEDIKA",
            "nama_se": "KLINIK PUTRA MEDIKA SIMPUR",
            "sektor": "Sektor Kesehatan",
            "tanggal_terbit": "2024-07-08",
            "url_tdpse_detail": "https://pse.komdigi.go.id/tdpse-detail/19408",
            "website": "-"
        },
        {
            "id": "9cb1ac5d-cb6e-408b-96a0-0011913ae414",
            "nama_pse": "UDEX MEDIA INDONESIA",
            "nama_se": "KOMERS",
            "sektor": "Sektor Perdagangan, Sektor Teknologi Informasi dan Komunikasi",
            "tanggal_terbit": "2024-07-08",
            "url_tdpse_detail": "https://pse.komdigi.go.id/tdpse-detail/19421",
            "website": "komers.io"
        },
        {
            "id": "9cb1ac72-c332-40e9-aeb7-2be0e1eaaf55",
            "nama_pse": "DIKRY ALFIANNUR WAHYU",
            "nama_se": "IHEALTH",
            "sektor": "Sektor Kesehatan, Sektor Teknologi Informasi dan Komunikasi",
            "tanggal_terbit": "2024-07-07",
            "url_tdpse_detail": "https://pse.komdigi.go.id/tdpse-detail/19396",
            "website": "-"
        },
        {
            "id": "9cb1ac5d-a269-4cbd-ad08-0ebcc9a8ba75",
            "nama_pse": "M BERLIAN SELNOVIK",
            "nama_se": "SELNOVIKLABS.COM",
            "sektor": "Sektor Teknologi Informasi dan Komunikasi",
            "tanggal_terbit": "2024-07-07",
            "url_tdpse_detail": "https://pse.komdigi.go.id/tdpse-detail/19397",
            "website": "selnoviklabs.com"
        },
        {
            "id": "9cb1ac72-cae8-480e-8bda-abfab835a0ee",
            "nama_pse": "MOCHAMAD SOPIAN",
            "nama_se": "PT. RUBBY STORE",
            "sektor": "Sektor Teknologi Informasi dan Komunikasi",
            "tanggal_terbit": "2024-07-07",
            "url_tdpse_detail": "https://pse.komdigi.go.id/tdpse-detail/19399",
            "website": "rubbyStore.my.id"
        },
        {
            "id": "9cb1ac72-29ab-47ed-9632-36083ab5b713",
            "nama_pse": "TEDY TIRTAWIDJAJA",
            "nama_se": "OSAKA SYSTEM",
            "sektor": "Sektor Kesehatan",
            "tanggal_terbit": "2024-07-06",
            "url_tdpse_detail": "https://pse.komdigi.go.id/tdpse-detail/19393",
            "website": "-"
        },
        {
            "id": "9cb1ac88-e599-41d6-8cdf-9eeb116c94b8",
            "nama_pse": "SENDHIKO DAWUH MULTIGUNA",
            "nama_se": "PT SENDHIKO DAWUH MULTIGUNA",
            "sektor": "Sektor Perdagangan",
            "tanggal_terbit": "2024-07-06",
            "url_tdpse_detail": "https://pse.komdigi.go.id/tdpse-detail/19394",
            "website": "-"
        },
        {
            "id": "9cb1ac5d-9cce-457f-b189-30d8ac25e676",
            "nama_pse": "ELOKU MITRA UTAMA",
            "nama_se": "QRIS OF THINGS",
            "sektor": "Sektor Perdagangan",
            "tanggal_terbit": "2024-07-06",
            "url_tdpse_detail": "https://pse.komdigi.go.id/tdpse-detail/19390",
            "website": "eloku.com"
        },
        {
            "id": "9cb1ac5d-9fc1-4c2a-9d23-e03cac30a969",
            "nama_pse": "WAHYU CAKRA PRATAMA",
            "nama_se": "WAHYU CAKRA PRATAMA",
            "sektor": "Sektor Transportasi",
            "tanggal_terbit": "2024-07-06",
            "url_tdpse_detail": "https://pse.komdigi.go.id/tdpse-detail/19392",
            "website": "wahyucakrapratama.com"
        },
        {
            "id": "9cb1ac88-fb27-4c11-8b18-6eec203df6c9",
            "nama_pse": "UDEX MEDIA INDONESIA",
            "nama_se": "UDEX MEDIA",
            "sektor": "Sektor Teknologi Informasi dan Komunikasi",
            "tanggal_terbit": "2024-07-06",
            "url_tdpse_detail": "https://pse.komdigi.go.id/tdpse-detail/19395",
            "website": "udexmedia.com"
        },
        {
            "id": "9cb1ac5c-f851-46ab-9a36-81df9d6321d0",
            "nama_pse": "WAHANA MEDITEK INDONESIA",
            "nama_se": "ADAMPACS",
            "sektor": "Sektor Kesehatan",
            "tanggal_terbit": "2024-07-05",
            "url_tdpse_detail": "https://pse.komdigi.go.id/tdpse-detail/19386",
            "website": "adampacs.id"
        },
        {
            "id": "9cb1ac5d-467c-47ab-84a6-34ea6656c97a",
            "nama_pse": "KAREFA INTERMEDIA NUSANTARA",
            "nama_se": "KAREFA",
            "sektor": "Sektor Perdagangan, Sektor Teknologi Informasi dan Komunikasi",
            "tanggal_terbit": "2024-07-05",
            "url_tdpse_detail": "https://pse.komdigi.go.id/tdpse-detail/19376",
            "website": "karefa.id"
        },
        {
            "id": "9cb1ac5d-7949-42cb-98af-37f472a706f9",
            "nama_pse": "CALLOUR DIGITAL ASIA",
            "nama_se": "LOKALé MOCKUP",
            "sektor": "Sektor Perdagangan, Sektor Teknologi Informasi dan Komunikasi",
            "tanggal_terbit": "2024-07-05",
            "url_tdpse_detail": "https://pse.komdigi.go.id/tdpse-detail/19375",
            "website": "-"
        },
        {
            "id": "9cb1ac88-b7c5-44c1-832e-e26c6427cd03",
            "nama_pse": "MULTI GUNA INTERKONEKSI",
            "nama_se": "MULTI GUNA INTERKONEKSI",
            "sektor": "Sektor Perdagangan, Sektor Teknologi Informasi dan Komunikasi",
            "tanggal_terbit": "2024-07-05",
            "url_tdpse_detail": "https://pse.komdigi.go.id/tdpse-detail/19371",
            "website": "multigunapay.id"
        },
        {
            "id": "9cb1ac72-b769-4361-bd21-35a2b05f670a",
            "nama_pse": "RACHMAD YASSER AL ZUHRI",
            "nama_se": "AULA - APLIKASI USAHA LAUNDRY",
            "sektor": "Sektor Teknologi Informasi dan Komunikasi",
            "tanggal_terbit": "2024-07-05",
            "url_tdpse_detail": "https://pse.komdigi.go.id/tdpse-detail/19382",
            "website": "aula.my.id"
        },
        {
            "id": "9cb1ac88-ab46-4dc2-8be8-17a6fa92c6de",
            "nama_pse": "UNIVERSAL INDONESIA MOBILE",
            "nama_se": "WEAREUI",
            "sektor": "Sektor Teknologi Informasi dan Komunikasi",
            "tanggal_terbit": "2024-07-05",
            "url_tdpse_detail": "https://pse.komdigi.go.id/tdpse-detail/19381",
            "website": "home.uimobile.net"
        },
        {
            "id": "9cb1ac72-b386-49f1-8b77-45142b38bc28",
            "nama_pse": "HIGHER SEJAHTERA ABADI",
            "nama_se": "HIGHER ID",
            "sektor": "Sektor Teknologi Informasi dan Komunikasi",
            "tanggal_terbit": "2024-07-05",
            "url_tdpse_detail": "https://pse.komdigi.go.id/tdpse-detail/19378",
            "website": "higher.id"
        },
        {
            "id": "9cb1ac88-d7a6-4c83-ae5d-dbdca5e08f9c",
            "nama_pse": "ERA MAHAKARYA DIGITAL",
            "nama_se": "ERAMEDIX",
            "sektor": "Sektor Kesehatan",
            "tanggal_terbit": "2024-07-05",
            "url_tdpse_detail": "https://pse.komdigi.go.id/tdpse-detail/19383",
            "website": "eramedix.id"
        },
        {
            "id": "9cb1ac88-ce53-4009-af34-e3611b6e9f33",
            "nama_pse": "OXY TECHNOLOGY INDONESIA",
            "nama_se": "SYNCMED RS",
            "sektor": "Sektor Kesehatan, Sektor Teknologi Informasi dan Komunikasi",
            "tanggal_terbit": "2024-07-05",
            "url_tdpse_detail": "https://pse.komdigi.go.id/tdpse-detail/19374",
            "website": "-"
        },
        {
            "id": "9cb1ac5d-844e-4773-ab68-fba98d18129c",
            "nama_pse": "MEDIA GLOBAL IND",
            "nama_se": "KOMPASNEWS27.COM",
            "sektor": "Sektor Teknologi Informasi dan Komunikasi",
            "tanggal_terbit": "2024-07-05",
            "url_tdpse_detail": "https://pse.komdigi.go.id/tdpse-detail/19372",
            "website": "kompasnews27.com"
        },
        {
            "id": "9cb1ac5d-8e2e-4aed-b334-5460dc848fd8",
            "nama_pse": "MEDIA GLOBAL IND",
            "nama_se": "GLOBAL INDONESIA TV",
            "sektor": "Sektor Teknologi Informasi dan Komunikasi",
            "tanggal_terbit": "2024-07-05",
            "url_tdpse_detail": "https://pse.komdigi.go.id/tdpse-detail/19373",
            "website": "globalindonesiatv.com"
        },
        {
            "id": "9cb1ac88-d310-4b7a-8ec8-58a83f3b9d3d",
            "nama_pse": "LOCKNLOCK RETAIL INDONESIA",
            "nama_se": "LOCKNLOCK",
            "sektor": "Sektor Perdagangan",
            "tanggal_terbit": "2024-07-05",
            "url_tdpse_detail": "https://pse.komdigi.go.id/tdpse-detail/19379",
            "website": "locknlockgift.co.id"
        },
        {
            "id": "9cb1ac5d-913d-431d-9df7-084c2fe28987",
            "nama_pse": "VISCA JAYA NETWORK",
            "nama_se": "LAYANAN INTERNET LOKAL",
            "sektor": "Sektor Teknologi Informasi dan Komunikasi",
            "tanggal_terbit": "2024-07-05",
            "url_tdpse_detail": "https://pse.komdigi.go.id/tdpse-detail/19377",
            "website": "-"
        },
        {
            "id": "9cb1ac72-bb5c-4cea-af1e-7d228a652fb7",
            "nama_pse": "APOTEK JODO SEHAT",
            "nama_se": "CORNEL",
            "sektor": "Sektor Perdagangan, Sektor Kesehatan",
            "tanggal_terbit": "2024-07-05",
            "url_tdpse_detail": "https://pse.komdigi.go.id/tdpse-detail/19384",
            "website": "-"
        },
        {
            "id": "9cb1ac88-e1f2-483c-8d29-234e2413e56d",
            "nama_pse": "AFFILIASI TRANSAKSI INDONESIA",
            "nama_se": "APLIKASI USER EXLUSIVE",
            "sektor": "Sektor Perdagangan",
            "tanggal_terbit": "2024-07-05",
            "url_tdpse_detail": "https://pse.komdigi.go.id/tdpse-detail/19388",
            "website": "-"
        },
        {
            "id": "9cb1ac88-9ded-47fc-a49e-44f06b2aa089",
            "nama_pse": "FIRST MONEY",
            "nama_se": "FIRST MONEY",
            "sektor": "Sektor Keuangan",
            "tanggal_terbit": "2024-07-05",
            "url_tdpse_detail": "https://pse.komdigi.go.id/tdpse-detail/19380",
            "website": "firstmoney.com"
        },
        {
            "id": "9cb1ac5d-9420-4723-bc36-1eb8d2994a59",
            "nama_pse": "VISI GLOBAL PROPERTINDO",
            "nama_se": "VESPRO",
            "sektor": "Sektor Perdagangan",
            "tanggal_terbit": "2024-07-05",
            "url_tdpse_detail": "https://pse.komdigi.go.id/tdpse-detail/19387",
            "website": "WWW.VESPRO.CO.ID"
        },
        {
            "id": "9cb1ac5d-9a2a-407e-87e3-86daf8b50671",
            "nama_pse": "HERDI PRADESA",
            "nama_se": "LAYANAN INTERNET JASA JUAL KEMBALI INTERNET",
            "sektor": "Sektor Teknologi Informasi dan Komunikasi",
            "tanggal_terbit": "2024-07-05",
            "url_tdpse_detail": "https://pse.komdigi.go.id/tdpse-detail/19389",
            "website": "alnet.my.id"
        },
        {
            "id": "9cb1ac88-ddf1-4750-9c31-b955d0990626",
            "nama_pse": "HAMIM TECHNOLOGY INDONESIA",
            "nama_se": "SIFLASH",
            "sektor": "Sektor Transportasi, Sektor Teknologi Informasi dan Komunikasi",
            "tanggal_terbit": "2024-07-05",
            "url_tdpse_detail": "https://pse.komdigi.go.id/tdpse-detail/19385",
            "website": "hamimtechid.com"
        }
    ],
    "processingTimeMs": 44,
    "query": "",
    "totalHits": 19131,
    "hitsPerPage": 50,
    "page": 58,
    "totalPages": 383
}