{
    "hits": [
        {
            "id": "9cbda9b3-6f80-4a82-b1e3-e2a901fd14fd",
            "nama_pse": "HENRI DANIEL PANGEMANAN",
            "nama_se": "medkes.net",
            "sektor": "Sektor Teknologi Informasi dan Komunikasi",
            "tanggal_terbit": "2024-08-11",
            "url_tdpse_detail": "https://pse.komdigi.go.id/tdpse-detail/19872",
            "website": "-"
        },
        {
            "id": "9cba137d-fa47-4259-b1bf-42def55d07f5",
            "nama_pse": "INDONESIA CREATIVITY SOLUTION",
            "nama_se": "my creativity",
            "sektor": "Sektor Teknologi Informasi dan Komunikasi",
            "tanggal_terbit": "2024-08-10",
            "url_tdpse_detail": "https://pse.komdigi.go.id/tdpse-detail/19857",
            "website": "my-creativity.biz.id"
        },
        {
            "id": "9cbb49cb-987e-423a-ba8d-03f74d34b8f5",
            "nama_pse": "GLUVIA KREATIF TEKNOLOGI",
            "nama_se": "GLUVIA",
            "sektor": "Sektor Teknologi Informasi dan Komunikasi",
            "tanggal_terbit": "2024-08-10",
            "url_tdpse_detail": "https://pse.komdigi.go.id/tdpse-detail/19861",
            "website": "gluvia.com"
        },
        {
            "id": "9cbb0f6f-190a-4b5a-9d37-7f934ca96ab8",
            "nama_pse": "SEHAT BARU UTAMA",
            "nama_se": "SYSTEM APOTEK BARU",
            "sektor": "Sektor Kesehatan",
            "tanggal_terbit": "2024-08-10",
            "url_tdpse_detail": "https://pse.komdigi.go.id/tdpse-detail/19860",
            "website": "-"
        },
        {
            "id": "9cbae8ca-a3f2-46db-8ecb-f9dc00224762",
            "nama_pse": "MUHAMAD",
            "nama_se": "LAYANAN INTERNET LOKAL",
            "sektor": "Sektor Teknologi Informasi dan Komunikasi",
            "tanggal_terbit": "2024-08-10",
            "url_tdpse_detail": "https://pse.komdigi.go.id/tdpse-detail/19859",
            "website": "-"
        },
        {
            "id": "9cbbe55f-9840-4679-9316-2c4c8d83f089",
            "nama_pse": "DILAN TEKNOLOGI INDONESIA",
            "nama_se": "dilan.cloud",
            "sektor": "Sektor Perdagangan, Sektor Teknologi Informasi dan Komunikasi",
            "tanggal_terbit": "2024-08-10",
            "url_tdpse_detail": "https://pse.komdigi.go.id/tdpse-detail/19862",
            "website": "dilan.cloud"
        },
        {
            "id": "9cbbe7fd-4de1-4fa4-b457-abc43f8416bc",
            "nama_pse": "DILAN TEKNOLOGI INDONESIA",
            "nama_se": "dilan.tech",
            "sektor": "Sektor Perdagangan, Sektor Teknologi Informasi dan Komunikasi",
            "tanggal_terbit": "2024-08-10",
            "url_tdpse_detail": "https://pse.komdigi.go.id/tdpse-detail/19863",
            "website": "dilan.tech"
        },
        {
            "id": "9cbaa5f8-86d7-42fb-b11e-295967a80b94",
            "nama_pse": "LEGALYN BISNIS INDONESIA",
            "nama_se": "LEGALYN.ID",
            "sektor": "Sektor Perdagangan",
            "tanggal_terbit": "2024-08-10",
            "url_tdpse_detail": "https://pse.komdigi.go.id/tdpse-detail/19858",
            "website": "legalyn.id"
        },
        {
            "id": "9cb885f5-1ba7-4f05-bf82-2e2c35439ea6",
            "nama_pse": "MEDIA AVEZES NURATJAYA",
            "nama_se": "POTRETTERKINI.COM",
            "sektor": "Sektor Teknologi Informasi dan Komunikasi",
            "tanggal_terbit": "2024-08-09",
            "url_tdpse_detail": "https://pse.komdigi.go.id/tdpse-detail/19838",
            "website": "potretterkini.com"
        },
        {
            "id": "9cb90498-451d-446f-9c94-c506e7dbcf83",
            "nama_pse": "APLIKASI KREASI ASIA",
            "nama_se": "AUTO CONVERT",
            "sektor": "Sektor Perdagangan",
            "tanggal_terbit": "2024-08-09",
            "url_tdpse_detail": "https://pse.komdigi.go.id/tdpse-detail/19849",
            "website": "autoconvert.id"
        },
        {
            "id": "9cb8ae73-ffbf-4177-9236-4404bc6efb21",
            "nama_pse": "MERAIH ILMU SEMESTA",
            "nama_se": "PT MERAIH ILMU SEMESTA",
            "sektor": "Sektor Perdagangan, Sektor Teknologi Informasi dan Komunikasi",
            "tanggal_terbit": "2024-08-09",
            "url_tdpse_detail": "https://pse.komdigi.go.id/tdpse-detail/19839",
            "website": "bumianak.com"
        },
        {
            "id": "9cb8ded7-dd1b-4858-bda0-e6323974b803",
            "nama_pse": "AIQQON TRIARTA MAS",
            "nama_se": "AIQQON.ID",
            "sektor": "Sektor Perdagangan",
            "tanggal_terbit": "2024-08-09",
            "url_tdpse_detail": "https://pse.komdigi.go.id/tdpse-detail/19844",
            "website": "aiqqon.id"
        },
        {
            "id": "9cb8c2b1-25fc-4538-b461-3839e9548ae2",
            "nama_pse": "VIAPULSA GLOBAL INDONESIA",
            "nama_se": "VIAPULSA",
            "sektor": "Sektor Perdagangan",
            "tanggal_terbit": "2024-08-09",
            "url_tdpse_detail": "https://pse.komdigi.go.id/tdpse-detail/19841",
            "website": "viapulsa.com"
        },
        {
            "id": "9cb8b9d0-e505-4f8c-94f6-82814939bd7e",
            "nama_pse": "NDALEM TEKNOLOGI INDONESIA",
            "nama_se": "ERP NDALEM SOFTWARE",
            "sektor": "Sektor Teknologi Informasi dan Komunikasi",
            "tanggal_terbit": "2024-08-09",
            "url_tdpse_detail": "https://pse.komdigi.go.id/tdpse-detail/19840",
            "website": "-"
        },
        {
            "id": "9cb8d227-8571-47f5-81aa-4de78afd667e",
            "nama_pse": "SOLUSI HUKUM ARYASATYA",
            "nama_se": "SOLUSI HUKUM ONLINE",
            "sektor": "Sektor Perdagangan",
            "tanggal_terbit": "2024-08-09",
            "url_tdpse_detail": "https://pse.komdigi.go.id/tdpse-detail/19843",
            "website": "solusihukum.online"
        },
        {
            "id": "9cb1ac74-aa50-45d0-b6cb-8b412ce304d4",
            "nama_pse": "MANDIRI SEKURITAS",
            "nama_se": "GROWIN’ BY MANDIRI SEKURITAS",
            "sektor": "Sektor Keuangan",
            "tanggal_terbit": "2024-08-09",
            "url_tdpse_detail": "https://pse.komdigi.go.id/tdpse-detail/19853",
            "website": "growin.id"
        },
        {
            "id": "9cb8e450-b1fe-4e69-b339-e826d0ce23e8",
            "nama_pse": "SIN COS TAN",
            "nama_se": "SAPANESIA",
            "sektor": "Sektor Teknologi Informasi dan Komunikasi",
            "tanggal_terbit": "2024-08-09",
            "url_tdpse_detail": "https://pse.komdigi.go.id/tdpse-detail/19845",
            "website": "sapanesia.com"
        },
        {
            "id": "9cb8ff47-efc9-41fe-a57b-ecb73f496e11",
            "nama_pse": "SYABANY LABS TEKNOLOGI",
            "nama_se": "BAHAGIA.DAY",
            "sektor": "Sektor Teknologi Informasi dan Komunikasi",
            "tanggal_terbit": "2024-08-09",
            "url_tdpse_detail": "https://pse.komdigi.go.id/tdpse-detail/19848",
            "website": "bahagia.day"
        },
        {
            "id": "9cb8fcbc-a89a-4a75-bd75-f3a301e14099",
            "nama_pse": "TETRA CENTRAL INVESTAMA",
            "nama_se": "TETRA PULSA",
            "sektor": "Sektor Perdagangan",
            "tanggal_terbit": "2024-08-09",
            "url_tdpse_detail": "https://pse.komdigi.go.id/tdpse-detail/19847",
            "website": "tetrapulsa.com"
        },
        {
            "id": "9cb911e7-02e2-46d2-9284-1afcc6cc4e6c",
            "nama_pse": "RUMAH SAKIT ISLAM SURABAYA",
            "nama_se": "SIMRS YARSIS",
            "sektor": "Sektor Teknologi Informasi dan Komunikasi",
            "tanggal_terbit": "2024-08-09",
            "url_tdpse_detail": "https://pse.komdigi.go.id/tdpse-detail/19852",
            "website": "rsisurabaya.com"
        },
        {
            "id": "9cb90d4f-d72d-4f0a-ba02-a081f5117ffc",
            "nama_pse": "INSAN TEKNOLOGI PERSADA",
            "nama_se": "CAREPRO",
            "sektor": "Sektor Kesehatan",
            "tanggal_terbit": "2024-08-09",
            "url_tdpse_detail": "https://pse.komdigi.go.id/tdpse-detail/19851",
            "website": "carepro.co.id"
        },
        {
            "id": "9cb90a2f-9d85-49cb-b037-35b4a6b8b5bb",
            "nama_pse": "TEUKU MIRWAN SAHPUTRA",
            "nama_se": "CONVERT PULSAMU",
            "sektor": "Sektor Perdagangan",
            "tanggal_terbit": "2024-08-09",
            "url_tdpse_detail": "https://pse.komdigi.go.id/tdpse-detail/19850",
            "website": "convertpulsamu.com"
        },
        {
            "id": "9cb91efd-32d2-4a3b-99b8-7340a7ec8db6",
            "nama_pse": "BAGI PULSA NUSANTARA",
            "nama_se": "BAGIPULSA",
            "sektor": "Sektor Perdagangan",
            "tanggal_terbit": "2024-08-09",
            "url_tdpse_detail": "https://pse.komdigi.go.id/tdpse-detail/19855",
            "website": "bagipulsa.co.id"
        },
        {
            "id": "9cb9703c-09aa-413c-a9fb-58faf747c137",
            "nama_pse": "PRIMUS INDONESIA",
            "nama_se": "1-Eagle Marine Operating System",
            "sektor": "Sektor Teknologi Informasi dan Komunikasi",
            "tanggal_terbit": "2024-08-09",
            "url_tdpse_detail": "https://pse.komdigi.go.id/tdpse-detail/19856",
            "website": "primus.co.id"
        },
        {
            "id": "9cb9155e-76e4-4429-b4b7-4e851636915a",
            "nama_pse": "DANA PENSIUN ASTRA DUA",
            "nama_se": "dapenastra.com",
            "sektor": "Sektor Keuangan",
            "tanggal_terbit": "2024-08-09",
            "url_tdpse_detail": "https://pse.komdigi.go.id/tdpse-detail/19854",
            "website": "-"
        },
        {
            "id": "9cb8fa0d-e0bb-4174-baad-a649f8c4f316",
            "nama_pse": "NOVA PULSA",
            "nama_se": "NOVAPULSA",
            "sektor": "Sektor Perdagangan",
            "tanggal_terbit": "2024-08-09",
            "url_tdpse_detail": "https://pse.komdigi.go.id/tdpse-detail/19846",
            "website": "novapulsa.com"
        },
        {
            "id": "9cb71710-72e8-4af8-a6c6-32abebb44883",
            "nama_pse": "RINDANG SAKTI PERSADA",
            "nama_se": "TOKOVICENZA.COM",
            "sektor": "Sektor Perdagangan",
            "tanggal_terbit": "2024-08-08",
            "url_tdpse_detail": "https://pse.komdigi.go.id/tdpse-detail/19826",
            "website": "tokovicenza.com"
        },
        {
            "id": "9cb69fcf-32b3-4a8b-92f6-f6a096baa25b",
            "nama_pse": "PARANOVA GLOBAL OPTIMA",
            "nama_se": "WEBSITE BRAND EMINA",
            "sektor": "Sektor Perdagangan",
            "tanggal_terbit": "2024-08-08",
            "url_tdpse_detail": "https://pse.komdigi.go.id/tdpse-detail/19808",
            "website": "-"
        },
        {
            "id": "9cb711a8-ee77-4f3f-85fd-1a33ee633755",
            "nama_pse": "SEHAT UNTUNG MAKMUR",
            "nama_se": "APOTEK MITRA MEDIKA AGUS SALIM BEKASI",
            "sektor": "Sektor Kesehatan",
            "tanggal_terbit": "2024-08-08",
            "url_tdpse_detail": "https://pse.komdigi.go.id/tdpse-detail/19822",
            "website": "mitramedikabekasi.com"
        },
        {
            "id": "9cb6d418-3b80-4bff-ac89-9da342b32035",
            "nama_pse": "AMITY NUSA KONSULTAN",
            "nama_se": "AMITY NUSA KONSULTAN",
            "sektor": "Sektor Perdagangan, Sektor Teknologi Informasi dan Komunikasi",
            "tanggal_terbit": "2024-08-08",
            "url_tdpse_detail": "https://pse.komdigi.go.id/tdpse-detail/19813",
            "website": "amitynusakonsultan.com"
        },
        {
            "id": "9cb602b1-ab7a-43db-9715-fd06c0b0430f",
            "nama_pse": "TRANS LINK INTERNASIONAL",
            "nama_se": "PT BERKAH MULIA NETWORK",
            "sektor": "Sektor Teknologi Informasi dan Komunikasi",
            "tanggal_terbit": "2024-08-08",
            "url_tdpse_detail": "https://pse.komdigi.go.id/tdpse-detail/19807",
            "website": "translinkinternasional.com"
        },
        {
            "id": "9cb6caa5-e3c3-4a68-802f-606c7104684f",
            "nama_pse": "FATURROHMAN",
            "nama_se": "SAYA STUDIO",
            "sektor": "Sektor Teknologi Informasi dan Komunikasi",
            "tanggal_terbit": "2024-08-08",
            "url_tdpse_detail": "https://pse.komdigi.go.id/tdpse-detail/19811",
            "website": "-"
        },
        {
            "id": "9cb715e2-5dcc-41af-b224-597896f20a7f",
            "nama_pse": "PARANOVA GLOBAL OPTIMA",
            "nama_se": "WEBSITE BRAND LABORE",
            "sektor": "Sektor Perdagangan",
            "tanggal_terbit": "2024-08-08",
            "url_tdpse_detail": "https://pse.komdigi.go.id/tdpse-detail/19825",
            "website": "laboreskinexpert.com"
        },
        {
            "id": "9cb6c692-db0c-4b56-b56b-7e2f516f9e86",
            "nama_pse": "HAJARWATI",
            "nama_se": "afr",
            "sektor": "Sektor Perdagangan",
            "tanggal_terbit": "2024-08-08",
            "url_tdpse_detail": "https://pse.komdigi.go.id/tdpse-detail/19810",
            "website": "afr.my.id"
        },
        {
            "id": "9cb6da15-26ae-4ef8-8453-e6acb50fb1be",
            "nama_pse": "PARANOVA GLOBAL OPTIMA",
            "nama_se": "MAKE OVER WEBSITE",
            "sektor": "Sektor Perdagangan",
            "tanggal_terbit": "2024-08-08",
            "url_tdpse_detail": "https://pse.komdigi.go.id/tdpse-detail/19815",
            "website": "makeoverforall.com"
        },
        {
            "id": "9cb6d04d-d6c6-4647-ba38-e7d0998303d4",
            "nama_pse": "WEB STREAM INDONESIA",
            "nama_se": "KINO TV",
            "sektor": "Sektor Teknologi Informasi dan Komunikasi",
            "tanggal_terbit": "2024-08-08",
            "url_tdpse_detail": "https://pse.komdigi.go.id/tdpse-detail/19812",
            "website": "-"
        },
        {
            "id": "9cb6d646-afa3-496e-8160-84815dded47c",
            "nama_pse": "PARANOVA GLOBAL OPTIMA",
            "nama_se": "WEBSITE EMINA",
            "sektor": "Sektor Perdagangan",
            "tanggal_terbit": "2024-08-08",
            "url_tdpse_detail": "https://pse.komdigi.go.id/tdpse-detail/19814",
            "website": "eminacosmetics.com"
        },
        {
            "id": "9cb6f3b8-352a-487e-9e2b-51de59224cbe",
            "nama_pse": "BAIK DAN HEBAT INDONESIA",
            "nama_se": "SI CERDAS INDONESIA",
            "sektor": "Sektor Teknologi Informasi dan Komunikasi",
            "tanggal_terbit": "2024-08-08",
            "url_tdpse_detail": "https://pse.komdigi.go.id/tdpse-detail/19816",
            "website": "sicerdas.web.id"
        },
        {
            "id": "9cb70861-9fca-4263-9dda-8ea7656be681",
            "nama_pse": "PARANOVA GLOBAL OPTIMA",
            "nama_se": "WEBSITE BRAND TAVI",
            "sektor": "Sektor Perdagangan",
            "tanggal_terbit": "2024-08-08",
            "url_tdpse_detail": "https://pse.komdigi.go.id/tdpse-detail/19817",
            "website": "tavi-world.com"
        },
        {
            "id": "9cb70c01-e5f4-4278-a0e5-7495a3e0f210",
            "nama_pse": "PARANOVA GLOBAL OPTIMA",
            "nama_se": "WEBSITE BRAND CRYSTALLURE",
            "sektor": "Sektor Perdagangan",
            "tanggal_terbit": "2024-08-08",
            "url_tdpse_detail": "https://pse.komdigi.go.id/tdpse-detail/19820",
            "website": "crystallurebeauty.com"
        },
        {
            "id": "9cb70b67-2ef4-4101-9ab1-e4842784c63f",
            "nama_pse": "NOAH ARKINDO",
            "nama_se": "MEDAVIS RADIOLOGY SOLUTION",
            "sektor": "Sektor Kesehatan",
            "tanggal_terbit": "2024-08-08",
            "url_tdpse_detail": "https://pse.komdigi.go.id/tdpse-detail/19818",
            "website": "noaharkindo.id"
        },
        {
            "id": "9cb70ba8-f46f-42da-b385-7e454a159208",
            "nama_pse": "MEDIA WAVE INTERAKTIF",
            "nama_se": "DASHBOARD SOCIAL MEDIA MONITORING \u0026 ANALYSIS",
            "sektor": "Sektor Teknologi Informasi dan Komunikasi",
            "tanggal_terbit": "2024-08-08",
            "url_tdpse_detail": "https://pse.komdigi.go.id/tdpse-detail/19819",
            "website": "mediawave.id"
        },
        {
            "id": "9cb7a5ff-4479-429a-bf15-58674e8c183c",
            "nama_pse": "WAHYUDIN",
            "nama_se": "LAYANAN INTERNET LOKAL (RT RW NET)",
            "sektor": "Sektor Teknologi Informasi dan Komunikasi",
            "tanggal_terbit": "2024-08-08",
            "url_tdpse_detail": "https://pse.komdigi.go.id/tdpse-detail/19836",
            "website": "-"
        },
        {
            "id": "9cb70f28-8d21-48c8-8398-a3cb02e20d1d",
            "nama_pse": "PARANOVA GLOBAL OPTIMA",
            "nama_se": "WEBSITE BRAND INSTAPERFECT",
            "sektor": "Sektor Perdagangan",
            "tanggal_terbit": "2024-08-08",
            "url_tdpse_detail": "https://pse.komdigi.go.id/tdpse-detail/19821",
            "website": "shop.myinstaperfect.com"
        },
        {
            "id": "9cb71309-d2ac-48ae-bc8d-78d14f3b4939",
            "nama_pse": "PARANOVA GLOBAL OPTIMA",
            "nama_se": "WEBSITE BRAND KAHF",
            "sektor": "Sektor Perdagangan",
            "tanggal_terbit": "2024-08-08",
            "url_tdpse_detail": "https://pse.komdigi.go.id/tdpse-detail/19823",
            "website": "kahfeveryday.com"
        },
        {
            "id": "9cb715dc-0f6b-4b32-8517-9bbc454d7ae2",
            "nama_pse": "ENAM DELTA TEKNOLOGI",
            "nama_se": "DUNIA KONTEN",
            "sektor": "Sektor Teknologi Informasi dan Komunikasi",
            "tanggal_terbit": "2024-08-08",
            "url_tdpse_detail": "https://pse.komdigi.go.id/tdpse-detail/19824",
            "website": "duniakonten.id"
        },
        {
            "id": "9cb79b88-8685-4c4b-a7c5-c9f110b64932",
            "nama_pse": "CEMERLANG KOMPUTER",
            "nama_se": "SISTEM INFORMASI MANAJEMEN RUMAH SAKIT",
            "sektor": "Sektor Kesehatan, Sektor Teknologi Informasi dan Komunikasi",
            "tanggal_terbit": "2024-08-08",
            "url_tdpse_detail": "https://pse.komdigi.go.id/tdpse-detail/19835",
            "website": "s1creative.com"
        },
        {
            "id": "9cb722e0-5696-4d8e-a287-f27dd92d0d9b",
            "nama_pse": "BANGUN INSAN SUKSES AMANAH",
            "nama_se": "BISA",
            "sektor": "Sektor Perdagangan",
            "tanggal_terbit": "2024-08-08",
            "url_tdpse_detail": "https://pse.komdigi.go.id/tdpse-detail/19827",
            "website": "bisa.co.id"
        },
        {
            "id": "9cb725d8-3b2a-497b-ad81-8b13cf19e92f",
            "nama_pse": "VISI PRIMA NUSANTARA",
            "nama_se": "PORTAL EMAS",
            "sektor": "Sektor Perdagangan, Sektor Teknologi Informasi dan Komunikasi",
            "tanggal_terbit": "2024-08-08",
            "url_tdpse_detail": "https://pse.komdigi.go.id/tdpse-detail/19828",
            "website": "portalemas.co.id"
        },
        {
            "id": "9cb7346a-d7e8-470c-b775-135ed7cd44a3",
            "nama_pse": "VISI PRIMA NUSANTARA",
            "nama_se": "PORTAL KAMPUS",
            "sektor": "Sektor Teknologi Informasi dan Komunikasi",
            "tanggal_terbit": "2024-08-08",
            "url_tdpse_detail": "https://pse.komdigi.go.id/tdpse-detail/19829",
            "website": "portalkampus.co.id"
        }
    ],
    "processingTimeMs": 3,
    "query": "",
    "totalHits": 19131,
    "hitsPerPage": 50,
    "page": 50,
    "totalPages": 383
}