{
    "hits": [
        {
            "id": "9d7d3b34-d86b-4ddc-82c3-3ebf1c73d9d2",
            "nama_pse": "RUBBY STORE DEVELOPMEN",
            "nama_se": "PT.RUBBY STORE DEVELOPMEN",
            "sektor": "Sektor Perdagangan, Sektor Teknologi Informasi dan Komunikasi",
            "tanggal_terbit": "2024-11-15",
            "url_tdpse_detail": "https://pse.komdigi.go.id/tdpse-detail/21214",
            "website": "-"
        },
        {
            "id": "9d7df5a0-7b5f-44fb-a2e2-81e154c2e757",
            "nama_pse": "RENTAKU APLIKASI INDONESIA",
            "nama_se": "RENTAKU",
            "sektor": "Sektor Teknologi Informasi dan Komunikasi",
            "tanggal_terbit": "2024-11-15",
            "url_tdpse_detail": "https://pse.komdigi.go.id/tdpse-detail/21218",
            "website": "rentaku.com"
        },
        {
            "id": "9d7e3e3c-3158-421f-84a8-b1917885aa6f",
            "nama_pse": "SALVUS INTI",
            "nama_se": "SALVUSMART",
            "sektor": "Sektor Perdagangan",
            "tanggal_terbit": "2024-11-15",
            "url_tdpse_detail": "https://pse.komdigi.go.id/tdpse-detail/21225",
            "website": "salvusmart.id"
        },
        {
            "id": "9d7e436a-7c1e-466e-81f5-aaa916bd89d9",
            "nama_pse": "MANDALA NUSANTARA GROUP",
            "nama_se": "terbitharian.com",
            "sektor": "Sektor Teknologi Informasi dan Komunikasi",
            "tanggal_terbit": "2024-11-15",
            "url_tdpse_detail": "https://pse.komdigi.go.id/tdpse-detail/21226",
            "website": "terbitharian.com"
        },
        {
            "id": "9d7e4bef-ee0a-4493-90f1-d620bb84cc6b",
            "nama_pse": "SALVUS INTI",
            "nama_se": "SPRINT",
            "sektor": "Sektor Perdagangan",
            "tanggal_terbit": "2024-11-15",
            "url_tdpse_detail": "https://pse.komdigi.go.id/tdpse-detail/21227",
            "website": "-"
        },
        {
            "id": "9d7e7060-552f-45e5-8921-7bcac5643e9c",
            "nama_pse": "INTIKOM BERLIAN MUSTIKA",
            "nama_se": "STREAM B2B",
            "sektor": "Sektor Perdagangan",
            "tanggal_terbit": "2024-11-15",
            "url_tdpse_detail": "https://pse.komdigi.go.id/tdpse-detail/21229",
            "website": "streamb2b.com"
        },
        {
            "id": "9d7ef5aa-ac86-4c67-a378-fc36114b16c7",
            "nama_pse": "SUARA PRANANTA MEDIA SIBER",
            "nama_se": "suarapranantadotcom",
            "sektor": "Sektor Teknologi Informasi dan Komunikasi",
            "tanggal_terbit": "2024-11-15",
            "url_tdpse_detail": "https://pse.komdigi.go.id/tdpse-detail/21231",
            "website": "suaraprananta.com"
        },
        {
            "id": "9d7e9fdc-a3bd-492a-adc8-5dcc1571a233",
            "nama_pse": "VOLVO CONSTRUCTION EQUIPMENT AND SERVICES INDONESIA",
            "nama_se": "VOLVO TELEMATIC SERVICE CARETRACK – CARETRACK",
            "sektor": "Sektor Teknologi Informasi dan Komunikasi",
            "tanggal_terbit": "2024-11-15",
            "url_tdpse_detail": "https://pse.komdigi.go.id/tdpse-detail/21230",
            "website": "caretrackvolvo.com"
        },
        {
            "id": "9d7c45f0-4182-444a-b0d9-3febdd511a32",
            "nama_pse": "DIGITAL FREIGHT FORWARDER",
            "nama_se": "FORWARDER.AI",
            "sektor": "Sektor Transportasi",
            "tanggal_terbit": "2024-11-14",
            "url_tdpse_detail": "https://pse.komdigi.go.id/tdpse-detail/21204",
            "website": "forwarder.ai"
        },
        {
            "id": "9d7c39be-c16d-42a3-af28-db7d7be10f57",
            "nama_pse": "MEP ESTETIKA PHARMACY",
            "nama_se": "www.dermaklin.id",
            "sektor": "Sektor Perdagangan",
            "tanggal_terbit": "2024-11-14",
            "url_tdpse_detail": "https://pse.komdigi.go.id/tdpse-detail/21203",
            "website": "dermaklin.id"
        },
        {
            "id": "9d7be5c5-c2d9-4a68-9bb3-76dcf87d90ca",
            "nama_pse": "CITRA DATA MULTIMEDIA",
            "nama_se": "PT CITRA DATA MULTIMEDIA",
            "sektor": "Sektor Teknologi Informasi dan Komunikasi",
            "tanggal_terbit": "2024-11-14",
            "url_tdpse_detail": "https://pse.komdigi.go.id/tdpse-detail/21191",
            "website": "-"
        },
        {
            "id": "9d7c49f5-cc8a-4417-a240-ddd19f3ef4b4",
            "nama_pse": "BUMI ESTETIKA BAHAGIA GEMILANG",
            "nama_se": "www.dermalicious.id",
            "sektor": "Sektor Perdagangan",
            "tanggal_terbit": "2024-11-14",
            "url_tdpse_detail": "https://pse.komdigi.go.id/tdpse-detail/21205",
            "website": "dermalicious.id"
        },
        {
            "id": "9d7be99f-dac5-4788-94e0-c3d086010dcd",
            "nama_pse": "MEGAH ESTETIKA PERKASA",
            "nama_se": "www.dermaster-indonesia.com",
            "sektor": "Sektor Perdagangan, Sektor Kesehatan",
            "tanggal_terbit": "2024-11-14",
            "url_tdpse_detail": "https://pse.komdigi.go.id/tdpse-detail/21192",
            "website": "dermaster-indonesia.com"
        },
        {
            "id": "9d7bf15a-f06a-4afd-97b0-fc024819606f",
            "nama_pse": "BERJAYA ESTETIKA INDONESIA",
            "nama_se": "berjayaestetika.id",
            "sektor": "Sektor Perdagangan",
            "tanggal_terbit": "2024-11-14",
            "url_tdpse_detail": "https://pse.komdigi.go.id/tdpse-detail/21194",
            "website": "berjayaestetika.id"
        },
        {
            "id": "9d7c2be6-415f-4f03-9fc8-f66dcc2216ad",
            "nama_pse": "ARTA TEKNOLOGI KORZ",
            "nama_se": "TOZ AJA",
            "sektor": "Sektor Perdagangan",
            "tanggal_terbit": "2024-11-14",
            "url_tdpse_detail": "https://pse.komdigi.go.id/tdpse-detail/21201",
            "website": "artozpay.id"
        },
        {
            "id": "9d7cc4c1-8254-4709-8bc9-4ca4c3735557",
            "nama_pse": "ACTUAL SELF RESOURCES",
            "nama_se": "ACTUAL SELF RESOURCES",
            "sektor": "Sektor Perdagangan, Sektor Kesehatan, Sektor Teknologi Informasi dan Komunikasi",
            "tanggal_terbit": "2024-11-14",
            "url_tdpse_detail": "https://pse.komdigi.go.id/tdpse-detail/21211",
            "website": "-"
        },
        {
            "id": "9d7bd670-5f63-4695-afc1-82851a3ec206",
            "nama_pse": "MECI ANGI NET",
            "nama_se": "PT MECI ANGI NET",
            "sektor": "Sektor Teknologi Informasi dan Komunikasi",
            "tanggal_terbit": "2024-11-14",
            "url_tdpse_detail": "https://pse.komdigi.go.id/tdpse-detail/21189",
            "website": "-"
        },
        {
            "id": "9d7be1bd-523e-4fdd-a33d-b7911e85011a",
            "nama_pse": "DUTA PRIMA DATA",
            "nama_se": "PT DUTA PRIMA DATA",
            "sektor": "Sektor Teknologi Informasi dan Komunikasi",
            "tanggal_terbit": "2024-11-14",
            "url_tdpse_detail": "https://pse.komdigi.go.id/tdpse-detail/21190",
            "website": "-"
        },
        {
            "id": "9d7bfb4f-3917-4e9b-9398-552dd122678f",
            "nama_pse": "BUMI ESTETIKA PERKASA",
            "nama_se": "bumiestetikaperkasa.com",
            "sektor": "Sektor Perdagangan",
            "tanggal_terbit": "2024-11-14",
            "url_tdpse_detail": "https://pse.komdigi.go.id/tdpse-detail/21197",
            "website": "bumiestetikaperkasa.com"
        },
        {
            "id": "9d7c582f-7887-4b95-b50e-8d28cccdef17",
            "nama_pse": "SERAYA MAKMUR INDONESIA",
            "nama_se": "-",
            "sektor": "Sektor Perdagangan",
            "tanggal_terbit": "2024-11-14",
            "url_tdpse_detail": "https://pse.komdigi.go.id/tdpse-detail/21207",
            "website": "-"
        },
        {
            "id": "9d7c1572-1b59-47ea-ae76-fb38f5b917e6",
            "nama_pse": "NACONDA JAYA ABADI",
            "nama_se": "hallosumut.com",
            "sektor": "Sektor Teknologi Informasi dan Komunikasi",
            "tanggal_terbit": "2024-11-14",
            "url_tdpse_detail": "https://pse.komdigi.go.id/tdpse-detail/21199",
            "website": "hallosumut.com"
        },
        {
            "id": "9d7c298d-8cff-4499-bccd-0f1fd1948476",
            "nama_pse": "SOLUSI INTEGRASI PRATAMA",
            "nama_se": "GROSIR MOBIL",
            "sektor": "Sektor Perdagangan",
            "tanggal_terbit": "2024-11-14",
            "url_tdpse_detail": "https://pse.komdigi.go.id/tdpse-detail/21200",
            "website": "grosirmobil.id"
        },
        {
            "id": "9d7bf76c-b817-4a4f-bb75-888051067144",
            "nama_pse": "NETINDO PERSADA NUSANTARA",
            "nama_se": "PT.NETINDO PERSADA NUSANTARA",
            "sektor": "Sektor Perdagangan",
            "tanggal_terbit": "2024-11-14",
            "url_tdpse_detail": "https://pse.komdigi.go.id/tdpse-detail/21196",
            "website": "-"
        },
        {
            "id": "9d7bf311-d07d-4bb1-9d0a-147a2a6d491f",
            "nama_pse": "MAJIN TEKNOLOGI DESAIN",
            "nama_se": "GALERI.ART",
            "sektor": "Sektor Perdagangan",
            "tanggal_terbit": "2024-11-14",
            "url_tdpse_detail": "https://pse.komdigi.go.id/tdpse-detail/21195",
            "website": "galeri.art"
        },
        {
            "id": "9d7c672d-8d53-49a1-b2e9-6febd204a22e",
            "nama_pse": "AUDY MANDIRI INDONESIA",
            "nama_se": "CLINIC INFORMATION SYSTEM AUDY DENTAL",
            "sektor": "Sektor Kesehatan",
            "tanggal_terbit": "2024-11-14",
            "url_tdpse_detail": "https://pse.komdigi.go.id/tdpse-detail/21208",
            "website": "-"
        },
        {
            "id": "9d7c6f1b-5be1-4c77-a561-b8dea5b9bc0f",
            "nama_pse": "ARNEVA TEKNOLOGI SOLUSI",
            "nama_se": "troli",
            "sektor": "Sektor Teknologi Informasi dan Komunikasi",
            "tanggal_terbit": "2024-11-14",
            "url_tdpse_detail": "https://pse.komdigi.go.id/tdpse-detail/21209",
            "website": "troli.co.id"
        },
        {
            "id": "9d7ce5ec-1679-437e-a869-8e90780718c2",
            "nama_pse": "TRIGAD SAFETY MANDIRI",
            "nama_se": "FIRE ENEMY SAFETY",
            "sektor": "Sektor Perdagangan",
            "tanggal_terbit": "2024-11-14",
            "url_tdpse_detail": "https://pse.komdigi.go.id/tdpse-detail/21212",
            "website": "fireenemy.id"
        },
        {
            "id": "9d7ced94-f3a5-4067-8c39-fe13fec681b0",
            "nama_pse": "TRIGAD SAFETY MANDIRI",
            "nama_se": "CV. TRIGAD SAFETY MANDIRI",
            "sektor": "Sektor Perdagangan",
            "tanggal_terbit": "2024-11-14",
            "url_tdpse_detail": "https://pse.komdigi.go.id/tdpse-detail/21213",
            "website": "fireenemy.id.com"
        },
        {
            "id": "9d7c4cfc-02a1-470b-b3d8-2d6ae99a5356",
            "nama_pse": "KOPERASI JASA TELEKOMUNIKASI SELULAR KISEL",
            "nama_se": "APIHUB",
            "sektor": "Sektor Teknologi Informasi dan Komunikasi",
            "tanggal_terbit": "2024-11-14",
            "url_tdpse_detail": "https://pse.komdigi.go.id/tdpse-detail/21206",
            "website": "apihub-mitra.kiselindonesia.net"
        },
        {
            "id": "9d7c7970-6dad-4bd1-b87f-4dfbd777182e",
            "nama_pse": "SOPHY KARYA ABADI",
            "nama_se": "www.sophykaryaabadi.site",
            "sektor": "Sektor Teknologi Informasi dan Komunikasi",
            "tanggal_terbit": "2024-11-14",
            "url_tdpse_detail": "https://pse.komdigi.go.id/tdpse-detail/21210",
            "website": "sophykaryaabadi.site"
        },
        {
            "id": "9d7c2d59-459c-4352-9c4e-89e50949bea2",
            "nama_pse": "RSU PKU DR SOEMOWIDAGDO BOYOLALI",
            "nama_se": "SIMRS RSU PKU DR. SOEMOWIDAGDO BOYOLALI",
            "sektor": "Sektor Kesehatan",
            "tanggal_terbit": "2024-11-14",
            "url_tdpse_detail": "https://pse.komdigi.go.id/tdpse-detail/21202",
            "website": "-"
        },
        {
            "id": "9d7bedb8-1930-4729-a833-ce193c6b21f8",
            "nama_pse": "AVOKADO TEKNOLOGI INDONESIA",
            "nama_se": "AVOKADO",
            "sektor": "Sektor Perdagangan",
            "tanggal_terbit": "2024-11-14",
            "url_tdpse_detail": "https://pse.komdigi.go.id/tdpse-detail/21193",
            "website": "avk.co.id"
        },
        {
            "id": "9d7c0ba9-0f57-4615-a0b2-e80a1860ef1d",
            "nama_pse": "HERMANSYAH",
            "nama_se": "LAYANAN INTERNET LOKAL ( RT RW NET )",
            "sektor": "Sektor Teknologi Informasi dan Komunikasi",
            "tanggal_terbit": "2024-11-14",
            "url_tdpse_detail": "https://pse.komdigi.go.id/tdpse-detail/21198",
            "website": "-"
        },
        {
            "id": "9d7a0a0d-c746-44cc-915d-681a3c500c32",
            "nama_pse": "HAFIZ QADRIL",
            "nama_se": "AORI STORE",
            "sektor": "Sektor Teknologi Informasi dan Komunikasi",
            "tanggal_terbit": "2024-11-13",
            "url_tdpse_detail": "https://pse.komdigi.go.id/tdpse-detail/21183",
            "website": "aoristore.com"
        },
        {
            "id": "9d7a650d-0232-46da-9e82-68f9b7267ba1",
            "nama_pse": "QUANTA MEDIKA INOVASI",
            "nama_se": "PENERBIT QUANTA EDUMEDIKA",
            "sektor": "Sektor Kesehatan, Sektor Teknologi Informasi dan Komunikasi",
            "tanggal_terbit": "2024-11-13",
            "url_tdpse_detail": "https://pse.komdigi.go.id/tdpse-detail/21186",
            "website": "-"
        },
        {
            "id": "9d7a93ac-7bfa-477a-b9ba-04344dd97485",
            "nama_pse": "KERJASAMA BERKAH JAYA",
            "nama_se": "psmart",
            "sektor": "Sektor Perdagangan",
            "tanggal_terbit": "2024-11-13",
            "url_tdpse_detail": "https://pse.komdigi.go.id/tdpse-detail/21188",
            "website": "psmart.id"
        },
        {
            "id": "9d7a737a-2925-4350-94fd-c2c396253177",
            "nama_pse": "INDOSAT",
            "nama_se": "INDOSAT HIFI WEBSITE",
            "sektor": "Sektor Teknologi Informasi dan Komunikasi",
            "tanggal_terbit": "2024-11-13",
            "url_tdpse_detail": "https://pse.komdigi.go.id/tdpse-detail/21187",
            "website": "hifi.ioh.co.id"
        },
        {
            "id": "9d7a1caa-3ae2-457c-98d3-8b9a5f16bf13",
            "nama_pse": "ZAINI ROHMAN",
            "nama_se": "LAYANAN INTERNET LOKAL (RT RW NET)",
            "sektor": "Sektor Teknologi Informasi dan Komunikasi",
            "tanggal_terbit": "2024-11-13",
            "url_tdpse_detail": "https://pse.komdigi.go.id/tdpse-detail/21184",
            "website": "-"
        },
        {
            "id": "9d7a59b0-bebf-49f8-8192-6f5df48198ea",
            "nama_pse": "JLI CAKRAWALA INDONESIA",
            "nama_se": "justlegalindo",
            "sektor": "Sektor Perdagangan",
            "tanggal_terbit": "2024-11-13",
            "url_tdpse_detail": "https://pse.komdigi.go.id/tdpse-detail/21185",
            "website": "justlegalindo.com"
        },
        {
            "id": "9d79ecc3-6618-4514-aac0-c1a7554779b9",
            "nama_pse": "MEDIKA GEREJA MASEHI INJILI DI MINAHASA",
            "nama_se": "SIMRS KHANZA RSU GMIM PANCARAN KASIH",
            "sektor": "Sektor Kesehatan",
            "tanggal_terbit": "2024-11-13",
            "url_tdpse_detail": "https://pse.komdigi.go.id/tdpse-detail/21182",
            "website": "-"
        },
        {
            "id": "9d79daee-c0a2-4c4c-aeba-c43d314ef725",
            "nama_pse": "AGSHOP SINERGI DIGITAL",
            "nama_se": "AG SHOP",
            "sektor": "Sektor Teknologi Informasi dan Komunikasi",
            "tanggal_terbit": "2024-11-13",
            "url_tdpse_detail": "https://pse.komdigi.go.id/tdpse-detail/21181",
            "website": "agshoppapp.olshopku.com"
        },
        {
            "id": "9d787f27-118d-45b3-9db7-b378f4135919",
            "nama_pse": "SAMUDRA ESTETIKA PERKASA",
            "nama_se": "www.derma-express.com",
            "sektor": "Sektor Perdagangan, Sektor Kesehatan",
            "tanggal_terbit": "2024-11-12",
            "url_tdpse_detail": "https://pse.komdigi.go.id/tdpse-detail/21177",
            "website": "derma-express.com"
        },
        {
            "id": "9d77da70-aa00-4bb6-8882-533de0014b53",
            "nama_pse": "PELINDO DAYA SEJAHTERA",
            "nama_se": "NEW MYPDS",
            "sektor": "Sektor Teknologi Informasi dan Komunikasi",
            "tanggal_terbit": "2024-11-12",
            "url_tdpse_detail": "https://pse.komdigi.go.id/tdpse-detail/21158",
            "website": "-"
        },
        {
            "id": "9d77cd61-e7b6-43df-9d58-31c1e3e2c6a8",
            "nama_pse": "MOKHAMMAD ROZAQ SULTONI",
            "nama_se": "SIGMAKUANTA",
            "sektor": "Sektor Teknologi Informasi dan Komunikasi",
            "tanggal_terbit": "2024-11-12",
            "url_tdpse_detail": "https://pse.komdigi.go.id/tdpse-detail/21156",
            "website": "sigmakuanta.com"
        },
        {
            "id": "9d77d6ff-40c4-4b6e-8f45-bfb57c68e20a",
            "nama_pse": "PANEN LESTARI INDONESIA",
            "nama_se": "E-COMMERCE SOGO",
            "sektor": "Sektor Perdagangan",
            "tanggal_terbit": "2024-11-12",
            "url_tdpse_detail": "https://pse.komdigi.go.id/tdpse-detail/21157",
            "website": "sogo.co.id"
        },
        {
            "id": "9d782f64-5efa-4ab0-8291-cf8662682a3d",
            "nama_pse": "INDRA MEDICAL CENTRE",
            "nama_se": "SIM RS MEDICALAPP-IMC",
            "sektor": "Sektor Kesehatan",
            "tanggal_terbit": "2024-11-12",
            "url_tdpse_detail": "https://pse.komdigi.go.id/tdpse-detail/21169",
            "website": "-"
        },
        {
            "id": "9d78537a-d917-4c60-94e6-df134cdff919",
            "nama_pse": "AHMAD KHUZEIR TARMIZI",
            "nama_se": "FLIPZY DIGITAL",
            "sektor": "Sektor Teknologi Informasi dan Komunikasi",
            "tanggal_terbit": "2024-11-12",
            "url_tdpse_detail": "https://pse.komdigi.go.id/tdpse-detail/21174",
            "website": "flipzy.id"
        },
        {
            "id": "9d783a7c-d2ef-4f64-8bdf-3d7cbd665904",
            "nama_pse": "MERAC TUNGGAL MITRA",
            "nama_se": "iDiGi",
            "sektor": "Sektor Teknologi Informasi dan Komunikasi",
            "tanggal_terbit": "2024-11-12",
            "url_tdpse_detail": "https://pse.komdigi.go.id/tdpse-detail/21170",
            "website": "idigi.id"
        },
        {
            "id": "9d78004d-7ecb-4054-a6e4-5b1c6d80986e",
            "nama_pse": "GENERASI MUDA DIGITAL",
            "nama_se": "TANDA DAFTAR PENYELENGGARA SISTEM ELEKTRONIK (TD PSE) DOMESTIK",
            "sektor": "Sektor Teknologi Informasi dan Komunikasi",
            "tanggal_terbit": "2024-11-12",
            "url_tdpse_detail": "https://pse.komdigi.go.id/tdpse-detail/21160",
            "website": "gamerji.com"
        },
        {
            "id": "9d78bd44-55cb-4aea-bb83-e5632ec3f06d",
            "nama_pse": "DUA PUTRA",
            "nama_se": "buataja",
            "sektor": "Sektor Perdagangan, Sektor Teknologi Informasi dan Komunikasi",
            "tanggal_terbit": "2024-11-12",
            "url_tdpse_detail": "https://pse.komdigi.go.id/tdpse-detail/21178",
            "website": "-"
        }
    ],
    "processingTimeMs": 38,
    "query": "",
    "totalHits": 19121,
    "hitsPerPage": 50,
    "page": 25,
    "totalPages": 383
}