{
    "hits": [
        {
            "id": "9cb1ac55-619a-4435-8020-6a794f9d86b3",
            "nama_pse": "BERSAMA MANDIRI PAYMENT",
            "nama_se": "BM",
            "sektor": "Sektor Perdagangan, Sektor Teknologi Informasi dan Komunikasi",
            "tanggal_terbit": "2024-02-12",
            "url_tdpse_detail": "https://pse.komdigi.go.id/tdpse-detail/17764",
            "website": "bmpay.webreport.info"
        },
        {
            "id": "9cb1ac55-6480-4d8d-8092-0ef9c4a2b0d1",
            "nama_pse": "GAMEBIT DIGITAL INDONESIA",
            "nama_se": "GAMEBIT",
            "sektor": "Sektor Perdagangan, Sektor Teknologi Informasi dan Komunikasi",
            "tanggal_terbit": "2024-02-12",
            "url_tdpse_detail": "https://pse.komdigi.go.id/tdpse-detail/17765",
            "website": "gamebit.co.id"
        },
        {
            "id": "9cb1ac55-67b2-41ed-8baf-696cbc636e56",
            "nama_pse": "INFINITI PUTERA OMEGA",
            "nama_se": "ISIMRSOLUTION",
            "sektor": "Sektor Kesehatan",
            "tanggal_terbit": "2024-02-12",
            "url_tdpse_detail": "https://pse.komdigi.go.id/tdpse-detail/17766",
            "website": "isimrsolutions.id"
        },
        {
            "id": "9cb1ac6a-18ba-4756-a420-615c9e469adb",
            "nama_pse": "WIDYA SOLUSI UTAMA",
            "nama_se": "SEVA HEALTH",
            "sektor": "Sektor Kesehatan",
            "tanggal_terbit": "2024-02-12",
            "url_tdpse_detail": "https://pse.komdigi.go.id/tdpse-detail/17769",
            "website": "sevahealth.tech"
        },
        {
            "id": "9cb1ac6a-1f57-4c86-9e7a-893cc93e7b0d",
            "nama_pse": "DHAMIR MARKETING PARTNERSHIP",
            "nama_se": "DHAMIRMARKETINGPARTNERSHIP.COM",
            "sektor": "Sektor Perdagangan, Sektor Teknologi Informasi dan Komunikasi",
            "tanggal_terbit": "2024-02-12",
            "url_tdpse_detail": "https://pse.komdigi.go.id/tdpse-detail/17771",
            "website": "dhamirmarketingpartnership.com"
        },
        {
            "id": "9cb1ac6a-2294-456b-a53c-1dbde59e254f",
            "nama_pse": "RGROUP CENTRA MANAGEMENT",
            "nama_se": "KALIJAGA PAYMENT SYSTEM",
            "sektor": "Sektor Perdagangan, Sektor Teknologi Informasi dan Komunikasi",
            "tanggal_terbit": "2024-02-12",
            "url_tdpse_detail": "https://pse.komdigi.go.id/tdpse-detail/17770",
            "website": "kps.cekreport.com"
        },
        {
            "id": "9cb1ac7d-c4bd-416a-ba3c-07277209119f",
            "nama_pse": "MEDIA UNIT SATU",
            "nama_se": "PATROLIUNIT1.COM",
            "sektor": "Sektor Teknologi Informasi dan Komunikasi",
            "tanggal_terbit": "2024-02-12",
            "url_tdpse_detail": "https://pse.komdigi.go.id/tdpse-detail/17773",
            "website": "patroliunit1.com"
        },
        {
            "id": "9cb1ac6a-25b6-4ebf-82b5-858e3e7ca1de",
            "nama_pse": "MEDIA UNIT SATU",
            "nama_se": "INARA.MY.ID",
            "sektor": "Sektor Teknologi Informasi dan Komunikasi",
            "tanggal_terbit": "2024-02-12",
            "url_tdpse_detail": "https://pse.komdigi.go.id/tdpse-detail/17774",
            "website": "Inara.my.id"
        },
        {
            "id": "9cb1ac31-42d1-4705-ae52-045cb8ddee1c",
            "nama_pse": "VFS - SERVICES INDONESIA",
            "nama_se": "INDONESIA FAST TRACK VOA",
            "sektor": "Sektor Teknologi Informasi dan Komunikasi",
            "tanggal_terbit": "2024-02-12",
            "url_tdpse_detail": "https://pse.komdigi.go.id/tdpse-detail/17754",
            "website": "indonesiavoa.vfsevisa.id"
        },
        {
            "id": "9cb1ac69-cb57-4292-b62c-0ee543d38a69",
            "nama_pse": "KURNIA SABDA PERKASA",
            "nama_se": "SPHERE COLLECTION",
            "sektor": "Sektor Perdagangan",
            "tanggal_terbit": "2024-02-11",
            "url_tdpse_detail": "https://pse.komdigi.go.id/tdpse-detail/17740",
            "website": "spherecollection.com"
        },
        {
            "id": "9cb1ac69-c781-4e4d-bf79-1a199d097ebf",
            "nama_pse": "MUSTIKA ASIH ABADI",
            "nama_se": "ELBRON ATTIRE",
            "sektor": "Sektor Perdagangan",
            "tanggal_terbit": "2024-02-11",
            "url_tdpse_detail": "https://pse.komdigi.go.id/tdpse-detail/17739",
            "website": "elbronattire.com"
        },
        {
            "id": "9cb1ac7d-ad58-458c-a312-1f8acce674f2",
            "nama_pse": "JURNAL MEDIA SUKSES",
            "nama_se": "JURNAL MEDIA SUKSES",
            "sektor": "Sektor Perdagangan",
            "tanggal_terbit": "2024-02-11",
            "url_tdpse_detail": "https://pse.komdigi.go.id/tdpse-detail/17745",
            "website": "jurnalmediasukses.com"
        },
        {
            "id": "9cb1ac55-4934-46e8-902d-e1ed13c34fa6",
            "nama_pse": "GANESHCOM FINTECH INDONESIA",
            "nama_se": "SION APP",
            "sektor": "Sektor Teknologi Informasi dan Komunikasi",
            "tanggal_terbit": "2024-02-11",
            "url_tdpse_detail": "https://pse.komdigi.go.id/tdpse-detail/17735",
            "website": "-"
        },
        {
            "id": "9cb1ac7d-a0bc-4030-aecb-1b8fb2818c66",
            "nama_pse": "GANESHCOM FINTECH INDONESIA",
            "nama_se": "AKUNTA",
            "sektor": "Sektor Teknologi Informasi dan Komunikasi",
            "tanggal_terbit": "2024-02-11",
            "url_tdpse_detail": "https://pse.komdigi.go.id/tdpse-detail/17736",
            "website": "-"
        },
        {
            "id": "9cb1ac7d-a514-40b8-a75b-b05968b0798b",
            "nama_pse": "NIAGAPULSA SOLUSI KOMUNIKA",
            "nama_se": "MY PULSAKUN",
            "sektor": "Sektor Perdagangan, Sektor Teknologi Informasi dan Komunikasi",
            "tanggal_terbit": "2024-02-11",
            "url_tdpse_detail": "https://pse.komdigi.go.id/tdpse-detail/17737",
            "website": "-"
        },
        {
            "id": "9cb1ac69-c2dd-46d8-939e-3b9ef02608d8",
            "nama_pse": "NURAHMI BAKTI PERSADA",
            "nama_se": "VIOLETTE ATTIRE",
            "sektor": "Sektor Perdagangan",
            "tanggal_terbit": "2024-02-11",
            "url_tdpse_detail": "https://pse.komdigi.go.id/tdpse-detail/17738",
            "website": "violetteattire.com"
        },
        {
            "id": "9cb1ac69-cea9-438e-a513-6f2fb485be4b",
            "nama_pse": "KARUNIA MURNI PERSADA",
            "nama_se": "MORBIT STYLE",
            "sektor": "Sektor Perdagangan",
            "tanggal_terbit": "2024-02-11",
            "url_tdpse_detail": "https://pse.komdigi.go.id/tdpse-detail/17741",
            "website": "morbitstyle.com"
        },
        {
            "id": "9cb1ac55-4c24-407d-aa1e-6f669f8c1eb7",
            "nama_pse": "AZIZAH PUSPA ALAMI",
            "nama_se": "GAZETTE COLLECTION",
            "sektor": "Sektor Perdagangan",
            "tanggal_terbit": "2024-02-11",
            "url_tdpse_detail": "https://pse.komdigi.go.id/tdpse-detail/17742",
            "website": "gazettecollection.com"
        },
        {
            "id": "9cb1ac55-4ee7-4085-a90d-f752a7bd849e",
            "nama_pse": "MEDIA BURU SERGAP POLITIK DAN KRIMINAL",
            "nama_se": "BUSERPOLKRIM.COM",
            "sektor": "Sektor Teknologi Informasi dan Komunikasi",
            "tanggal_terbit": "2024-02-11",
            "url_tdpse_detail": "https://pse.komdigi.go.id/tdpse-detail/17743",
            "website": "buserpolkrim.com"
        },
        {
            "id": "9cb1ac69-d20f-4847-bfd3-c51d1f11d152",
            "nama_pse": "MEDIA BURU SERGAP POLITIK DAN KRIMINAL",
            "nama_se": "BUSER PRESISI",
            "sektor": "Sektor Teknologi Informasi dan Komunikasi",
            "tanggal_terbit": "2024-02-11",
            "url_tdpse_detail": "https://pse.komdigi.go.id/tdpse-detail/17744",
            "website": "buserpresisi.com"
        },
        {
            "id": "9cb1ac55-418e-4813-b724-f9deaa36d37d",
            "nama_pse": "SETIA FAMILI GROUP",
            "nama_se": "SETIA FAMILI GROUP",
            "sektor": "Sektor Perdagangan",
            "tanggal_terbit": "2024-02-10",
            "url_tdpse_detail": "https://pse.komdigi.go.id/tdpse-detail/17727",
            "website": "-"
        },
        {
            "id": "9cb1ac7d-8ccb-4f90-b7c9-6842bca93b60",
            "nama_pse": "MAJU BERSAMA LJP",
            "nama_se": "PULSA GENGGAM",
            "sektor": "Sektor Perdagangan",
            "tanggal_terbit": "2024-02-10",
            "url_tdpse_detail": "https://pse.komdigi.go.id/tdpse-detail/17728",
            "website": "-"
        },
        {
            "id": "9cb1ac7d-9857-4ccd-8125-91a8b19f038d",
            "nama_pse": "VECKY HAVEL",
            "nama_se": "LAYANAN INTERNET LOKAL ( RT RW NET )",
            "sektor": "Sektor Teknologi Informasi dan Komunikasi",
            "tanggal_terbit": "2024-02-10",
            "url_tdpse_detail": "https://pse.komdigi.go.id/tdpse-detail/17731",
            "website": "-"
        },
        {
            "id": "9cb1ac7d-940e-4b52-80d1-539043636e50",
            "nama_pse": "FADHILAH AND FIRDAUS MEDICAL CENTER",
            "nama_se": "SISTEM INFORMASI KESEHATAN MASYARAKAT (SIKEMAS)",
            "sektor": "Sektor Kesehatan",
            "tanggal_terbit": "2024-02-10",
            "url_tdpse_detail": "https://pse.komdigi.go.id/tdpse-detail/17730",
            "website": "-"
        },
        {
            "id": "9cb1ac7d-9b7a-4ffc-b08c-f14b972d5bf9",
            "nama_pse": "HENRI FAYOL INDONESIA GLOBAL CONSULTING",
            "nama_se": "PENGAMATAN.COM",
            "sektor": "Sektor Teknologi Informasi dan Komunikasi",
            "tanggal_terbit": "2024-02-10",
            "url_tdpse_detail": "https://pse.komdigi.go.id/tdpse-detail/17734",
            "website": "pengamatan.com"
        },
        {
            "id": "9cb1ac69-bcb0-45fc-ba44-40e34b630931",
            "nama_pse": "BENNY ANWAR",
            "nama_se": "XPAN JAYA LAMPUNG",
            "sektor": "Sektor Perdagangan",
            "tanggal_terbit": "2024-02-10",
            "url_tdpse_detail": "https://pse.komdigi.go.id/tdpse-detail/17732",
            "website": "-"
        },
        {
            "id": "9cb1ac69-bfd3-4d1f-8b82-49e05f7c5e05",
            "nama_pse": "HENRI FAYOL INDONESIA GLOBAL CONSULTING",
            "nama_se": "RADARDELTA.COM",
            "sektor": "Sektor Teknologi Informasi dan Komunikasi",
            "tanggal_terbit": "2024-02-10",
            "url_tdpse_detail": "https://pse.komdigi.go.id/tdpse-detail/17733",
            "website": "radardelta.com"
        },
        {
            "id": "9cb1ac7d-906a-43c7-97fa-74477a870920",
            "nama_pse": "MAJU BERSAMA LJP",
            "nama_se": "SSB PAY",
            "sektor": "Sektor Perdagangan",
            "tanggal_terbit": "2024-02-10",
            "url_tdpse_detail": "https://pse.komdigi.go.id/tdpse-detail/17729",
            "website": "-"
        },
        {
            "id": "9cb1ac69-b0a2-4e74-9c82-3ae24ad29829",
            "nama_pse": "MULTI PERSADA GROUP",
            "nama_se": "RADARNET.CO.ID",
            "sektor": "Sektor Teknologi Informasi dan Komunikasi",
            "tanggal_terbit": "2024-02-09",
            "url_tdpse_detail": "https://pse.komdigi.go.id/tdpse-detail/17717",
            "website": "radarnet.co.id"
        },
        {
            "id": "9cb1ac69-adc4-4f9a-b293-5f4cf8eea1cb",
            "nama_pse": "ANNISA PADASUKA MAJU",
            "nama_se": "MEDIA ONLINE KABAR UMKM",
            "sektor": "Sektor Teknologi Informasi dan Komunikasi",
            "tanggal_terbit": "2024-02-09",
            "url_tdpse_detail": "https://pse.komdigi.go.id/tdpse-detail/17716",
            "website": "WWW.KABARUMKM.COM"
        },
        {
            "id": "9cb1ac69-b6b4-4456-9f85-67cb39932c18",
            "nama_pse": "LARISSA KARUNIA SEJAHTERA",
            "nama_se": "WORK FORCE COLLABORATOR (WFC)",
            "sektor": "Sektor Perdagangan, Sektor Kesehatan",
            "tanggal_terbit": "2024-02-09",
            "url_tdpse_detail": "https://pse.komdigi.go.id/tdpse-detail/17721",
            "website": "-"
        },
        {
            "id": "9cb1ac7d-75fd-497c-a26b-13d27d1d4950",
            "nama_pse": "MAJU BERSAMA LJP",
            "nama_se": "SDP MOBILE",
            "sektor": "Sektor Perdagangan",
            "tanggal_terbit": "2024-02-09",
            "url_tdpse_detail": "https://pse.komdigi.go.id/tdpse-detail/17725",
            "website": "smartdigitalpayment.com"
        },
        {
            "id": "9cb1ac7d-79ec-41b8-932a-398c0b631593",
            "nama_pse": "LARISSA KARUNIA SEJAHTERA",
            "nama_se": "SAHABAT LARISSA",
            "sektor": "Sektor Perdagangan, Sektor Kesehatan, Sektor Teknologi Informasi dan Komunikasi",
            "tanggal_terbit": "2024-02-09",
            "url_tdpse_detail": "https://pse.komdigi.go.id/tdpse-detail/17723",
            "website": "-"
        },
        {
            "id": "9cb1ac7d-7e30-4d4b-8637-29c5a44c174a",
            "nama_pse": "AGUNG RAHAYU MEDIKA",
            "nama_se": "MEDIKA BBMC",
            "sektor": "Sektor Teknologi Informasi dan Komunikasi",
            "tanggal_terbit": "2024-02-09",
            "url_tdpse_detail": "https://pse.komdigi.go.id/tdpse-detail/17724",
            "website": "-"
        },
        {
            "id": "9cb1ac7d-88b7-4ff3-b5d6-a6d745bb3338",
            "nama_pse": "YUNUS YUWONO",
            "nama_se": "YUFAMED",
            "sektor": "Sektor Kesehatan",
            "tanggal_terbit": "2024-02-09",
            "url_tdpse_detail": "https://pse.komdigi.go.id/tdpse-detail/17726",
            "website": "-"
        },
        {
            "id": "9cb1ac69-b98d-4436-b644-66b7248c8410",
            "nama_pse": "PRAWATHIYA KARSA PRADIPTHA",
            "nama_se": "KLINIK CARE",
            "sektor": "Sektor Kesehatan, Sektor Teknologi Informasi dan Komunikasi",
            "tanggal_terbit": "2024-02-09",
            "url_tdpse_detail": "https://pse.komdigi.go.id/tdpse-detail/17722",
            "website": "prod.klinikcare.id"
        },
        {
            "id": "9cb1ac7d-6bfa-4db6-ad9d-4e64cde0b39e",
            "nama_pse": "METAVEST INDO BERKARYA",
            "nama_se": "METAVEST",
            "sektor": "Sektor Teknologi Informasi dan Komunikasi",
            "tanggal_terbit": "2024-02-08",
            "url_tdpse_detail": "https://pse.komdigi.go.id/tdpse-detail/17714",
            "website": "metavest.id"
        },
        {
            "id": "9cb1ac55-3bfa-4214-9793-011c2af55c7c",
            "nama_pse": "ONETRONIX SOLUSINDO SEMESTA",
            "nama_se": "ONETRONIX",
            "sektor": "Sektor Perdagangan",
            "tanggal_terbit": "2024-02-08",
            "url_tdpse_detail": "https://pse.komdigi.go.id/tdpse-detail/17715",
            "website": "onetronix.apkpulsa.com"
        },
        {
            "id": "9cb1ac66-f4cd-4f74-a80e-a28871c95f23",
            "nama_pse": "RACHMAD HARIYADI",
            "nama_se": "HOKI NINE SHOP",
            "sektor": "Sektor Perdagangan, Sektor Teknologi Informasi dan Komunikasi",
            "tanggal_terbit": "2024-02-07",
            "url_tdpse_detail": "https://pse.komdigi.go.id/tdpse-detail/17711",
            "website": "hokininereload.com"
        },
        {
            "id": "9cb1ac7d-0b4c-4155-87a6-c1b6288cafa0",
            "nama_pse": "SUTIKSNA",
            "nama_se": "SIM.RSBEDAHSIAGA",
            "sektor": "Sektor Kesehatan",
            "tanggal_terbit": "2024-02-07",
            "url_tdpse_detail": "https://pse.komdigi.go.id/tdpse-detail/17698",
            "website": "rsbedahsiaga.co.id"
        },
        {
            "id": "9cb1ac69-8598-4f90-a4de-1f3e292c1ea1",
            "nama_pse": "BNI MULTIFINANCE",
            "nama_se": "BNIF AUTODEBET",
            "sektor": "Sektor Keuangan",
            "tanggal_terbit": "2024-02-07",
            "url_tdpse_detail": "https://pse.komdigi.go.id/tdpse-detail/17699",
            "website": "my.bnifinance.co.id"
        },
        {
            "id": "9cb1ac7d-58f7-47c8-abb7-131857b8d53f",
            "nama_pse": "KOMET PULSA",
            "nama_se": "KOMET PULSA",
            "sektor": "Sektor Perdagangan, Sektor Teknologi Informasi dan Komunikasi",
            "tanggal_terbit": "2024-02-07",
            "url_tdpse_detail": "https://pse.komdigi.go.id/tdpse-detail/17705",
            "website": "-"
        },
        {
            "id": "9cb1ac68-559e-4d78-8f59-61bdd06f7ab6",
            "nama_pse": "BHAKTI PERSADA MEDIKA",
            "nama_se": "SIMRS BHAPER",
            "sektor": "Sektor Kesehatan",
            "tanggal_terbit": "2024-02-07",
            "url_tdpse_detail": "https://pse.komdigi.go.id/tdpse-detail/17701",
            "website": "-"
        },
        {
            "id": "9cb1ac7d-4c47-427c-b607-d23e84acfa99",
            "nama_pse": "INDONESIA COMNETS PLUS",
            "nama_se": "NETWORK INTEGRATOR",
            "sektor": "Sektor Teknologi Informasi dan Komunikasi",
            "tanggal_terbit": "2024-02-07",
            "url_tdpse_detail": "https://pse.komdigi.go.id/tdpse-detail/17697",
            "website": "-"
        },
        {
            "id": "9cb1ac7d-5191-4262-8ea5-8f093d0fab99",
            "nama_pse": "SEBENING KASIH SEHAT ABADI",
            "nama_se": "SIBENING",
            "sektor": "Sektor Kesehatan",
            "tanggal_terbit": "2024-02-07",
            "url_tdpse_detail": "https://pse.komdigi.go.id/tdpse-detail/17700",
            "website": "rsusebeningkasih.com"
        },
        {
            "id": "9cb1ac55-2bb0-407d-a3c4-e772630b4992",
            "nama_pse": "SINAR HARAPAN KELUARGA",
            "nama_se": "HARAPAN HOSPITAL INFORMATION SYSTEM",
            "sektor": "Sektor Kesehatan",
            "tanggal_terbit": "2024-02-07",
            "url_tdpse_detail": "https://pse.komdigi.go.id/tdpse-detail/17702",
            "website": "rsh.co.id"
        },
        {
            "id": "9cb1ac55-2e76-46fd-8cfd-4f1702520aa0",
            "nama_pse": "AGUNA PODA NATORAS",
            "nama_se": "SISTEM INFORMASI RS AISSHA",
            "sektor": "Sektor Kesehatan",
            "tanggal_terbit": "2024-02-07",
            "url_tdpse_detail": "https://pse.komdigi.go.id/tdpse-detail/17703",
            "website": "aissha.rsusylvani.net"
        },
        {
            "id": "9cb1ac7d-555e-4da8-aacd-f26828b9d243",
            "nama_pse": "SOLUSI TIKET DIGITAL",
            "nama_se": "DIGITIKET ENTERPRISE SYSTEM DESK",
            "sektor": "Sektor Teknologi Informasi dan Komunikasi",
            "tanggal_terbit": "2024-02-07",
            "url_tdpse_detail": "https://pse.komdigi.go.id/tdpse-detail/17704",
            "website": "digitiket.com"
        },
        {
            "id": "9cb1ac7d-62e6-4f3c-ae55-bb99d1a6921e",
            "nama_pse": "JAYANTHI KARTHA SOLUSINDO",
            "nama_se": "REEMOORA.ID",
            "sektor": "Sektor Perdagangan, Sektor Teknologi Informasi dan Komunikasi",
            "tanggal_terbit": "2024-02-07",
            "url_tdpse_detail": "https://pse.komdigi.go.id/tdpse-detail/17706",
            "website": "remoora.id"
        },
        {
            "id": "9cb1ac55-3126-428a-a450-f75ad43a1f96",
            "nama_pse": "INTI CORPORA TEKNOLOGI",
            "nama_se": "MANTUL",
            "sektor": "Sektor Teknologi Informasi dan Komunikasi",
            "tanggal_terbit": "2024-02-07",
            "url_tdpse_detail": "https://pse.komdigi.go.id/tdpse-detail/17708",
            "website": "mantul.co.id"
        }
    ],
    "processingTimeMs": 2,
    "query": "",
    "totalHits": 19131,
    "hitsPerPage": 50,
    "page": 86,
    "totalPages": 383
}