{
    "hits": [
        {
            "id": "9cb1abf5-7f0e-4bcc-82ea-7092697a9c2d",
            "nama_pse": "SONY INDONESIA",
            "nama_se": "OFFICIAL WEBSITE SONY INDONESIA",
            "sektor": "Sektor Perdagangan",
            "tanggal_terbit": "2022-07-28",
            "url_tdpse_detail": "https://pse.komdigi.go.id/tdpse-detail/9232",
            "website": "sony.co.id"
        },
        {
            "id": "9cb1abf5-82f0-40dd-a4a3-64ef2ad5ada9",
            "nama_pse": "BIG DATA NUSANTARA",
            "nama_se": "BERICHINDONESIA.COM",
            "sektor": "Sektor Perdagangan",
            "tanggal_terbit": "2022-07-28",
            "url_tdpse_detail": "https://pse.komdigi.go.id/tdpse-detail/9224",
            "website": "Berichindonesia.com"
        },
        {
            "id": "9cb1abbe-a72d-4357-a8ee-162cc0c68e7b",
            "nama_pse": "WAHANA TRANSFORMASI DIGITAL INDONESIA",
            "nama_se": "SISEGI",
            "sektor": "Sektor Teknologi Informasi dan Komunikasi",
            "tanggal_terbit": "2022-07-28",
            "url_tdpse_detail": "https://pse.komdigi.go.id/tdpse-detail/9225",
            "website": "sisegi.id"
        },
        {
            "id": "9cb1abf5-8e9e-4607-b1f2-44a66c6c4ee7",
            "nama_pse": "DIGITAL MULTI INOVASI",
            "nama_se": "OPAYKLIK.ID",
            "sektor": "Sektor Perdagangan",
            "tanggal_terbit": "2022-07-28",
            "url_tdpse_detail": "https://pse.komdigi.go.id/tdpse-detail/9226",
            "website": "opayklik.id"
        },
        {
            "id": "9cb1abcf-3bf6-48f5-851e-d8dd7cdac980",
            "nama_pse": "PHILLIP FUTURES",
            "nama_se": "NOVA",
            "sektor": "Sektor Keuangan",
            "tanggal_terbit": "2022-07-28",
            "url_tdpse_detail": "https://pse.komdigi.go.id/tdpse-detail/9227",
            "website": "888.mobpts.com"
        },
        {
            "id": "9cb1abbe-aa9f-40a5-8987-4c9360a40583",
            "nama_pse": "SISTEM SEKOLAH SUKSES",
            "nama_se": "SOFTWARE SEKOLAH",
            "sektor": "Sektor Teknologi Informasi dan Komunikasi",
            "tanggal_terbit": "2022-07-28",
            "url_tdpse_detail": "https://pse.komdigi.go.id/tdpse-detail/9228",
            "website": "softwaresekolah.id"
        },
        {
            "id": "9cb1abbe-ae2b-45f3-a485-1b72927f9438",
            "nama_pse": "BANK PEREKONOMIAN RAKYAT DANAMAS PRATAMA",
            "nama_se": "PT BPR DANAMAS PRATAMA",
            "sektor": "Sektor Keuangan",
            "tanggal_terbit": "2022-07-28",
            "url_tdpse_detail": "https://pse.komdigi.go.id/tdpse-detail/9229",
            "website": "bprdanamas.co.id"
        },
        {
            "id": "9cb1abf5-9234-4966-b075-7b0d6a48b22c",
            "nama_pse": "ANS SOLUSI BERKAH",
            "nama_se": "ANSKLIK.ID",
            "sektor": "Sektor Perdagangan",
            "tanggal_terbit": "2022-07-28",
            "url_tdpse_detail": "https://pse.komdigi.go.id/tdpse-detail/9230",
            "website": "ansklik.id"
        },
        {
            "id": "9cb1abbe-b258-4b53-a460-cb66074fc358",
            "nama_pse": "BFI FINANCE INDONESIA",
            "nama_se": "BFI CONNECT (BFI FINANCE)",
            "sektor": "Sektor Keuangan",
            "tanggal_terbit": "2022-07-28",
            "url_tdpse_detail": "https://pse.komdigi.go.id/tdpse-detail/9231",
            "website": "connect.bfi.co.id"
        },
        {
            "id": "9cb1abcf-454b-4f2a-92f4-cefaeb7478e9",
            "nama_pse": "BANK PEREKONOMIAN RAKYAT ARTA TAMAN DAYU",
            "nama_se": "PT BANK PERKREDITAN RAKYAT ARTA TAMAN DAYU",
            "sektor": "Sektor Keuangan",
            "tanggal_terbit": "2022-07-28",
            "url_tdpse_detail": "https://pse.komdigi.go.id/tdpse-detail/9234",
            "website": "-"
        },
        {
            "id": "9cb1abcf-4bfc-4e2e-a099-21c2e273e408",
            "nama_pse": "BANK PERKREDITAN RAKYAT DJOJO MANDIRI RAYA",
            "nama_se": "HTTP://BPRDJOJOMANDIRIRAYA.COM/",
            "sektor": "Sektor Keuangan",
            "tanggal_terbit": "2022-07-28",
            "url_tdpse_detail": "https://pse.komdigi.go.id/tdpse-detail/9235",
            "website": "bprdjojomandiriraya.com"
        },
        {
            "id": "9cb1abf5-95a1-4c20-a213-cc9aa25b10a7",
            "nama_pse": "PHILLIP FUTURES",
            "nama_se": "APLIKASI NOVA",
            "sektor": "Sektor Perdagangan",
            "tanggal_terbit": "2022-07-28",
            "url_tdpse_detail": "https://pse.komdigi.go.id/tdpse-detail/9236",
            "website": "ONENOVAWEB.PHILLIPMOBILE.COM"
        },
        {
            "id": "9cb1abf5-a486-4f57-881d-3226823f9207",
            "nama_pse": "SOGIH TEKNOLOGI BANGSA",
            "nama_se": "LAUTANIA",
            "sektor": "Sektor Perdagangan, Sektor Transportasi, Sektor Teknologi Informasi dan Komunikasi",
            "tanggal_terbit": "2022-07-28",
            "url_tdpse_detail": "https://pse.komdigi.go.id/tdpse-detail/9238",
            "website": "lautania.com"
        },
        {
            "id": "9cb1abf5-c8da-48c4-add1-eef8d791c636",
            "nama_pse": "BANK PEREKONOMIAN RAKYAT PRIMA TATA PATUMBAK",
            "nama_se": "BANK PERKREDITAN RAKYAT PRIMA TATA PATUMBAK",
            "sektor": "Sektor Keuangan",
            "tanggal_terbit": "2022-07-28",
            "url_tdpse_detail": "https://pse.komdigi.go.id/tdpse-detail/9273",
            "website": "bpr-ptp.com"
        },
        {
            "id": "9cb1abd0-3dfd-488c-a61a-14a35c244de1",
            "nama_pse": "BANK PEREKONOMIAN RAKYAT ANGLOMAS INDAH",
            "nama_se": "SYSTEM ELEKTRONIK ONLINE",
            "sektor": "Sektor Keuangan",
            "tanggal_terbit": "2022-07-28",
            "url_tdpse_detail": "https://pse.komdigi.go.id/tdpse-detail/9277",
            "website": "bpramin.com"
        },
        {
            "id": "9cb1abd0-4340-4143-beac-4c2405887954",
            "nama_pse": "BANK PERKREDITAN RAKYAT BAHTERA MASYARAKAT",
            "nama_se": "PT. BPR BAHTERA MASYARAKAT",
            "sektor": "Sektor Keuangan",
            "tanggal_terbit": "2022-07-28",
            "url_tdpse_detail": "https://pse.komdigi.go.id/tdpse-detail/9294",
            "website": "bankbahtera.co.id"
        },
        {
            "id": "9cb1abf5-cc25-420a-9ac0-3a1e20909d58",
            "nama_pse": "PHOENIX SOFTINDO INFOTECH",
            "nama_se": "PHOENIX SOFTINDO",
            "sektor": "Sektor Teknologi Informasi dan Komunikasi",
            "tanggal_terbit": "2022-07-28",
            "url_tdpse_detail": "https://pse.komdigi.go.id/tdpse-detail/9274",
            "website": "phoenixsoftindo.com"
        },
        {
            "id": "9cb1abcf-833b-4c99-9a3e-8adb6be2c659",
            "nama_pse": "DASA TEKNOLOGI BERSAMA",
            "nama_se": "BURSAREIT.",
            "sektor": "Sektor Keuangan",
            "tanggal_terbit": "2022-07-28",
            "url_tdpse_detail": "https://pse.komdigi.go.id/tdpse-detail/9276",
            "website": "bursareit.id"
        },
        {
            "id": "9cb1abcf-8998-4740-807d-4a00fd7968ec",
            "nama_pse": "KREDIT CU LANTANG TIPO",
            "nama_se": "M-TIPO",
            "sektor": "Sektor Keuangan",
            "tanggal_terbit": "2022-07-28",
            "url_tdpse_detail": "https://pse.komdigi.go.id/tdpse-detail/9275",
            "website": "-"
        },
        {
            "id": "9cb1abf5-cf1d-42c7-9325-53ca3fef5237",
            "nama_pse": "FESTIVAL SUARA INDONESIA",
            "nama_se": "FESTIVAL SUARA",
            "sektor": "Sektor Teknologi Informasi dan Komunikasi",
            "tanggal_terbit": "2022-07-28",
            "url_tdpse_detail": "https://pse.komdigi.go.id/tdpse-detail/9278",
            "website": "-"
        },
        {
            "id": "9cb1abcf-8d54-4b58-ae39-d4a9abcae1de",
            "nama_pse": "TEMAN INOVASI DIGITAL",
            "nama_se": "TEMAN BELAJAR",
            "sektor": "Sektor Teknologi Informasi dan Komunikasi",
            "tanggal_terbit": "2022-07-28",
            "url_tdpse_detail": "https://pse.komdigi.go.id/tdpse-detail/9279",
            "website": "teman-belajar.com"
        },
        {
            "id": "9cb1abd0-5019-4626-8b15-213fe1c68794",
            "nama_pse": "BANK PERKREDITAN RAKYAT NUSAMBA RAMBIPUJI",
            "nama_se": "PT BPR NUSAMBA RAMBIPUJI",
            "sektor": "Sektor Keuangan",
            "tanggal_terbit": "2022-07-28",
            "url_tdpse_detail": "https://pse.komdigi.go.id/tdpse-detail/9280",
            "website": "bprnusamba-rambipuji.com"
        },
        {
            "id": "9cb1abcf-9157-49b6-9da5-66a83330ed66",
            "nama_pse": "MANDALA MULTIFINANCE",
            "nama_se": "MANTIS",
            "sektor": "Sektor Keuangan",
            "tanggal_terbit": "2022-07-28",
            "url_tdpse_detail": "https://pse.komdigi.go.id/tdpse-detail/9281",
            "website": "mantis.co.id"
        },
        {
            "id": "9cb1abcf-9573-4927-9615-b8fcb73220f3",
            "nama_pse": "PHOENIX SOFTINDO INFOTECH",
            "nama_se": "WARUNG DISTRIBUTOR",
            "sektor": "Sektor Teknologi Informasi dan Komunikasi",
            "tanggal_terbit": "2022-07-28",
            "url_tdpse_detail": "https://pse.komdigi.go.id/tdpse-detail/9282",
            "website": "warungdistributor.com"
        },
        {
            "id": "9cb1abf5-d65c-4cf0-8878-36f6a0ffe6f5",
            "nama_pse": "ASURANSI SINAR MAS",
            "nama_se": "APLIKASI MOBILE PEGA ASM PRO PEGAMOBILE.SINARMAS.CO.ID",
            "sektor": "Sektor Keuangan",
            "tanggal_terbit": "2022-07-28",
            "url_tdpse_detail": "https://pse.komdigi.go.id/tdpse-detail/9284",
            "website": "sinarmas.co.id"
        },
        {
            "id": "9cb1abd0-59b3-4440-b003-c2defbd1ec67",
            "nama_pse": "PHOENIX SOFTINDO INFOTECH",
            "nama_se": "BESS CLOUD",
            "sektor": "Sektor Teknologi Informasi dan Komunikasi",
            "tanggal_terbit": "2022-07-28",
            "url_tdpse_detail": "https://pse.komdigi.go.id/tdpse-detail/9283",
            "website": "besscloud.com"
        },
        {
            "id": "9cb1abd0-5da2-4d8b-a9a2-bd1c42b48ed3",
            "nama_pse": "ASURANSI SINAR MAS",
            "nama_se": "PEGA ASM PRO PEGA.SINARMAS.CO.ID",
            "sektor": "Sektor Keuangan",
            "tanggal_terbit": "2022-07-28",
            "url_tdpse_detail": "https://pse.komdigi.go.id/tdpse-detail/9288",
            "website": "sinarmas.co.id"
        },
        {
            "id": "9cb1abd0-627a-491b-91b8-410bc49cb87e",
            "nama_pse": "BERDAYAKAN USAHA INDONESIA",
            "nama_se": "BATUMBU PLATFORM",
            "sektor": "Sektor Keuangan",
            "tanggal_terbit": "2022-07-28",
            "url_tdpse_detail": "https://pse.komdigi.go.id/tdpse-detail/9285",
            "website": "platform.batumbu.id"
        },
        {
            "id": "9cb1abf5-d989-454c-86ca-8318d34f4df4",
            "nama_pse": "WAHANA TRANSFORMASI DIGITAL INDONESIA",
            "nama_se": "SEGIMART",
            "sektor": "Sektor Perdagangan",
            "tanggal_terbit": "2022-07-28",
            "url_tdpse_detail": "https://pse.komdigi.go.id/tdpse-detail/9287",
            "website": "segimart.id"
        },
        {
            "id": "9cb1abd0-668c-4d5e-8c09-784ce96fde1b",
            "nama_pse": "ASURANSI SINAR MAS",
            "nama_se": "APLIKASI PEGA ASM PRO CLOUDPEGA.SINARMAS.CO.ID",
            "sektor": "Sektor Keuangan",
            "tanggal_terbit": "2022-07-28",
            "url_tdpse_detail": "https://pse.komdigi.go.id/tdpse-detail/9290",
            "website": "sinarmas.co.id"
        },
        {
            "id": "9cb1abcf-9ad4-4eac-bc37-801df14b5bdd",
            "nama_pse": "DIGITAL HUTAMA TEKNOLOGI",
            "nama_se": "IKLIK.ID",
            "sektor": "Sektor Perdagangan",
            "tanggal_terbit": "2022-07-28",
            "url_tdpse_detail": "https://pse.komdigi.go.id/tdpse-detail/9289",
            "website": "Iklik.id"
        },
        {
            "id": "9cb1abf5-ddbc-45ad-ab44-368f41f730f8",
            "nama_pse": "LINK MEDIS SEHAT",
            "nama_se": "LINKMEDIS",
            "sektor": "Sektor Kesehatan",
            "tanggal_terbit": "2022-07-28",
            "url_tdpse_detail": "https://pse.komdigi.go.id/tdpse-detail/9291",
            "website": "linkmedis.com"
        },
        {
            "id": "9cb1abf5-e166-4d6b-9fe4-5e6db90a6511",
            "nama_pse": "PERTAMINA TRAINING AND CONSULTING",
            "nama_se": "WEBSITE PERUSAHAAN PT. PERTAMINA TRAINING \u0026 CONSULTING",
            "sektor": "Sektor Perdagangan",
            "tanggal_terbit": "2022-07-28",
            "url_tdpse_detail": "https://pse.komdigi.go.id/tdpse-detail/9293",
            "website": "pertamina-ptc.com"
        },
        {
            "id": "9cb1abf5-e4b7-4042-b092-09d61db35f76",
            "nama_pse": "DIGITAL ASET KREATIF",
            "nama_se": "DEKLIK.ID",
            "sektor": "Sektor Perdagangan",
            "tanggal_terbit": "2022-07-28",
            "url_tdpse_detail": "https://pse.komdigi.go.id/tdpse-detail/9292",
            "website": "deklik.id"
        },
        {
            "id": "9cb1abd0-6c49-4682-a91d-fb17dd3dba52",
            "nama_pse": "ASURANSI SINAR MAS",
            "nama_se": "APLIKASI PEGA BUSINESS PARTNER API.SINARMAS.CO.ID",
            "sektor": "Sektor Keuangan",
            "tanggal_terbit": "2022-07-28",
            "url_tdpse_detail": "https://pse.komdigi.go.id/tdpse-detail/9295",
            "website": "sinarmas.co.id"
        },
        {
            "id": "9cb1abd0-72d5-42c7-989d-3339b89c290c",
            "nama_pse": "TAP STORY INDONESIA",
            "nama_se": "GOODNOVEL",
            "sektor": "Sektor Perdagangan, Sektor Teknologi Informasi dan Komunikasi",
            "tanggal_terbit": "2022-07-28",
            "url_tdpse_detail": "https://pse.komdigi.go.id/tdpse-detail/9297",
            "website": "goodnovel.com"
        },
        {
            "id": "9cb1abcf-a53d-4065-8285-e16f3b861b1d",
            "nama_pse": "ILMCI INDONESIA INTERNASIONAL",
            "nama_se": "DIGITAL ALUMNI \u0026 COMMUNITY BOOK   (DAC BOOK)",
            "sektor": "Sektor Teknologi Informasi dan Komunikasi",
            "tanggal_terbit": "2022-07-28",
            "url_tdpse_detail": "https://pse.komdigi.go.id/tdpse-detail/9296",
            "website": "ilmci.com"
        },
        {
            "id": "9cb1abcf-ae90-4848-9125-18a15cec3c5d",
            "nama_pse": "SURFGOLD",
            "nama_se": "REDEEMCLUB",
            "sektor": "Sektor Perdagangan",
            "tanggal_terbit": "2022-07-28",
            "url_tdpse_detail": "https://pse.komdigi.go.id/tdpse-detail/9298",
            "website": "redeemclub.com"
        },
        {
            "id": "9cb1abf5-e7ae-4c72-a1d6-a4622ead99a0",
            "nama_pse": "BPR BANK BULUNGAN PERSERODA",
            "nama_se": "WEB PT BPR BANK BULUNGAN (PERSERODA)",
            "sektor": "Sektor Keuangan",
            "tanggal_terbit": "2022-07-28",
            "url_tdpse_detail": "https://pse.komdigi.go.id/tdpse-detail/9299",
            "website": "bprbulungan.co.id"
        },
        {
            "id": "9cb1abcf-b2dd-45c5-93af-1672d309c54c",
            "nama_pse": "SURFGOLD",
            "nama_se": "SURFGOLD",
            "sektor": "Sektor Teknologi Informasi dan Komunikasi",
            "tanggal_terbit": "2022-07-28",
            "url_tdpse_detail": "https://pse.komdigi.go.id/tdpse-detail/9300",
            "website": "surfgold.co.id"
        },
        {
            "id": "9cb1abf5-eac3-4aa1-826a-576ef68e0178",
            "nama_pse": "BANK PEREKONOMIAN RAKYAT SINDANG BINAHARTA",
            "nama_se": "BPRSINDANGBINAHARTA.COM",
            "sektor": "Sektor Keuangan",
            "tanggal_terbit": "2022-07-28",
            "url_tdpse_detail": "https://pse.komdigi.go.id/tdpse-detail/9301",
            "website": "bprsindangbinaharta.com"
        },
        {
            "id": "9cb1abd0-79a8-4c37-bfdf-1cd9ba004506",
            "nama_pse": "TIME FOR LIGHT",
            "nama_se": "TIME FOR LIGHT",
            "sektor": "Sektor Perdagangan",
            "tanggal_terbit": "2022-07-28",
            "url_tdpse_detail": "https://pse.komdigi.go.id/tdpse-detail/9302",
            "website": "timeforlightconsultancy.com"
        },
        {
            "id": "9cb1abcf-b639-4971-afc3-b7078b85517f",
            "nama_pse": "BANK PERKREDITAN RAKYAT KREO LESTARI",
            "nama_se": "LAYANAN SATU",
            "sektor": "Sektor Keuangan",
            "tanggal_terbit": "2022-07-28",
            "url_tdpse_detail": "https://pse.komdigi.go.id/tdpse-detail/9305",
            "website": "kreolestari.co.id"
        },
        {
            "id": "9cb1abd0-7d50-43dd-8b17-ef329d0f11b3",
            "nama_pse": "SYSBIT SOLUTION INDONESIA",
            "nama_se": "MSIS",
            "sektor": "Sektor Teknologi Informasi dan Komunikasi",
            "tanggal_terbit": "2022-07-28",
            "url_tdpse_detail": "https://pse.komdigi.go.id/tdpse-detail/9303",
            "website": "sysbit.com"
        },
        {
            "id": "9cb1abd0-890a-42db-8fb6-cae0b7e4e239",
            "nama_pse": "MEDIATECH INDONESIA",
            "nama_se": "KODING AKADEMI",
            "sektor": "Sektor Teknologi Informasi dan Komunikasi",
            "tanggal_terbit": "2022-07-28",
            "url_tdpse_detail": "https://pse.komdigi.go.id/tdpse-detail/9304",
            "website": "kodingakademi.id"
        },
        {
            "id": "9cb1abd0-8ea8-48e6-bdaa-60f58691ce6a",
            "nama_pse": "OLIZY NATURAL NUSANTARA",
            "nama_se": "OLIZY",
            "sektor": "Sektor Perdagangan",
            "tanggal_terbit": "2022-07-28",
            "url_tdpse_detail": "https://pse.komdigi.go.id/tdpse-detail/9306",
            "website": "olizy.id"
        },
        {
            "id": "9cb1abd0-9285-4fec-a7ac-d7bafc1e3eae",
            "nama_pse": "ASURANSI SINAR MAS",
            "nama_se": "WEBSITE KLAIM APP.SINARMAS.CO.ID",
            "sektor": "Sektor Keuangan",
            "tanggal_terbit": "2022-07-28",
            "url_tdpse_detail": "https://pse.komdigi.go.id/tdpse-detail/9307",
            "website": "sinarmas.co.id"
        },
        {
            "id": "9cb1abf5-edbd-47b6-8831-9a8d42609429",
            "nama_pse": "ASURANSI SINAR MAS",
            "nama_se": "PEGA RISK SCORE EPEFINDO.SINARMAS.CO.ID",
            "sektor": "Sektor Keuangan",
            "tanggal_terbit": "2022-07-28",
            "url_tdpse_detail": "https://pse.komdigi.go.id/tdpse-detail/9309",
            "website": "sinarmas.co.id"
        },
        {
            "id": "9cb1abd0-98cf-4d04-8396-7e62ca3a975a",
            "nama_pse": "DASA TEKNOLOGI BERSAMA",
            "nama_se": "BURSAREIT.ID",
            "sektor": "Sektor Keuangan",
            "tanggal_terbit": "2022-07-28",
            "url_tdpse_detail": "https://pse.komdigi.go.id/tdpse-detail/9311",
            "website": "bursareit.id"
        },
        {
            "id": "9cb1abf5-f21c-419e-9086-9a42a2bbc2c5",
            "nama_pse": "ASURANSI SINAR MAS",
            "nama_se": "APLIKASI GAMIFICATION GAME.SINARMAS.CO.ID",
            "sektor": "Sektor Keuangan",
            "tanggal_terbit": "2022-07-28",
            "url_tdpse_detail": "https://pse.komdigi.go.id/tdpse-detail/9310",
            "website": "sinarmas.co.id"
        }
    ],
    "processingTimeMs": 4,
    "query": "",
    "totalHits": 19131,
    "hitsPerPage": 50,
    "page": 216,
    "totalPages": 383
}