{
    "hits": [
        {
            "id": "9d69083e-db86-4f65-b3e7-f6c212f439f6",
            "nama_pse": "KREASI ANAK GEMILANG",
            "nama_se": "KAGEMI.ID",
            "sektor": "Sektor Teknologi Informasi dan Komunikasi",
            "tanggal_terbit": "2024-11-05",
            "url_tdpse_detail": "https://pse.komdigi.go.id/tdpse-detail/21047",
            "website": "kagemi.id"
        },
        {
            "id": "9d6a8cab-c389-4503-99a8-d7a88c3aa223",
            "nama_pse": "KITA SEHAT MULIA",
            "nama_se": "SIM KITA",
            "sektor": "Sektor Kesehatan",
            "tanggal_terbit": "2024-11-05",
            "url_tdpse_detail": "https://pse.komdigi.go.id/tdpse-detail/21059",
            "website": "klinikkitasehat.com"
        },
        {
            "id": "9d6a5b32-0d30-47ca-9749-ff9e32dc2d90",
            "nama_pse": "R DIMAS AGIL TEJO BASKORO",
            "nama_se": "APLIKASI MIOPOS",
            "sektor": "Sektor Teknologi Informasi dan Komunikasi",
            "tanggal_terbit": "2024-11-05",
            "url_tdpse_detail": "https://pse.komdigi.go.id/tdpse-detail/21057",
            "website": "-"
        },
        {
            "id": "9d6a59ab-2053-47f1-8e7c-7b4915b2f061",
            "nama_pse": "MITRA GLOBAL HOLIDAY",
            "nama_se": "MITRA GLOBAL HOLIDAY",
            "sektor": "Sektor Teknologi Informasi dan Komunikasi",
            "tanggal_terbit": "2024-11-05",
            "url_tdpse_detail": "https://pse.komdigi.go.id/tdpse-detail/21056",
            "website": "mgbedbank.com"
        },
        {
            "id": "9d6a6816-f782-4f1c-a2ed-5f41815eea5f",
            "nama_pse": "WIZ TECHNOLOGY INDONESIA",
            "nama_se": "WIZ AI TALKBOT",
            "sektor": "Sektor Teknologi Informasi dan Komunikasi",
            "tanggal_terbit": "2024-11-05",
            "url_tdpse_detail": "https://pse.komdigi.go.id/tdpse-detail/21058",
            "website": "wiz.ai"
        },
        {
            "id": "9d68c12f-7887-4d84-9382-272dcd101a1f",
            "nama_pse": "STARNET2024",
            "nama_se": "LAYANAN INTERNET LOKAL (RT RW NET)",
            "sektor": "Sektor Teknologi Informasi dan Komunikasi",
            "tanggal_terbit": "2024-11-04",
            "url_tdpse_detail": "https://pse.komdigi.go.id/tdpse-detail/21045",
            "website": "-"
        },
        {
            "id": "9d682b1d-2d1a-40b0-a6f3-a22be88debd5",
            "nama_pse": "NADHEA JAYA ABADI",
            "nama_se": "APLIKASI PELAYANAN KLINIK NADHEA",
            "sektor": "Sektor Kesehatan",
            "tanggal_terbit": "2024-11-04",
            "url_tdpse_detail": "https://pse.komdigi.go.id/tdpse-detail/21037",
            "website": "-"
        },
        {
            "id": "9d68a8ca-7d3c-4ea2-b9ef-dcec24b551dc",
            "nama_pse": "HALAQAH SILSILAH ILMIYAH ABDULLAHROY",
            "nama_se": "YAYASAN HALAQAH SILSILAH ILMIYAH ABDULLAHROY",
            "sektor": "Sektor Teknologi Informasi dan Komunikasi",
            "tanggal_terbit": "2024-11-04",
            "url_tdpse_detail": "https://pse.komdigi.go.id/tdpse-detail/21044",
            "website": "edu.hsi.id"
        },
        {
            "id": "9d67c743-e690-48ea-afcb-e9837f4241b5",
            "nama_pse": "ADDIYAN DIGITAL SOLUTION",
            "nama_se": "ADDIYAN KLINIK",
            "sektor": "Sektor Kesehatan, Sektor Teknologi Informasi dan Komunikasi",
            "tanggal_terbit": "2024-11-04",
            "url_tdpse_detail": "https://pse.komdigi.go.id/tdpse-detail/21030",
            "website": "-"
        },
        {
            "id": "9d6873a5-517d-48cf-afb4-5de870215f42",
            "nama_pse": "EPADI BERDIKARI INTERNASIONAL",
            "nama_se": "e-Padi",
            "sektor": "Sektor Teknologi Informasi dan Komunikasi",
            "tanggal_terbit": "2024-11-04",
            "url_tdpse_detail": "https://pse.komdigi.go.id/tdpse-detail/21042",
            "website": "-"
        },
        {
            "id": "9d67d676-a90e-4255-94f9-7060093003db",
            "nama_pse": "SYAQILA UTAMA NETWORK",
            "nama_se": "PT SYAQILA UTAMA NETWORK",
            "sektor": "Sektor Perdagangan",
            "tanggal_terbit": "2024-11-04",
            "url_tdpse_detail": "https://pse.komdigi.go.id/tdpse-detail/21032",
            "website": "-"
        },
        {
            "id": "9d67cc84-5b1f-49fd-bb12-ce1319b6ca36",
            "nama_pse": "EXABIT GROUP NETWORK",
            "nama_se": "exapay",
            "sektor": "Sektor Teknologi Informasi dan Komunikasi",
            "tanggal_terbit": "2024-11-04",
            "url_tdpse_detail": "https://pse.komdigi.go.id/tdpse-detail/21031",
            "website": "admin.exabit.id"
        },
        {
            "id": "9d67a62d-3a7a-4385-ac65-883a60444444",
            "nama_pse": "IMMER",
            "nama_se": "KAMUPAY / KAMUKIRIM",
            "sektor": "Sektor Keuangan",
            "tanggal_terbit": "2024-11-04",
            "url_tdpse_detail": "https://pse.komdigi.go.id/tdpse-detail/21027",
            "website": "-"
        },
        {
            "id": "9d67a64a-b3c8-4c4e-93b0-6679d993b85c",
            "nama_pse": "IMMER",
            "nama_se": "KAMUKIRIM",
            "sektor": "Sektor Keuangan",
            "tanggal_terbit": "2024-11-04",
            "url_tdpse_detail": "https://pse.komdigi.go.id/tdpse-detail/21028",
            "website": "-"
        },
        {
            "id": "9d67a675-130d-4335-9fba-3f47b66ed3c0",
            "nama_pse": "IMMER",
            "nama_se": "KAMU PAY",
            "sektor": "Sektor Keuangan",
            "tanggal_terbit": "2024-11-04",
            "url_tdpse_detail": "https://pse.komdigi.go.id/tdpse-detail/21029",
            "website": "-"
        },
        {
            "id": "9d6824c1-3772-421d-91c5-365772afa82a",
            "nama_pse": "HARTA PUTRA SILIWANGI",
            "nama_se": "antitekor.com",
            "sektor": "Sektor Perdagangan",
            "tanggal_terbit": "2024-11-04",
            "url_tdpse_detail": "https://pse.komdigi.go.id/tdpse-detail/21036",
            "website": "antitekor.com"
        },
        {
            "id": "9d67e283-16a9-4f99-95be-c06f1f305a1e",
            "nama_pse": "TOKOPEDIA",
            "nama_se": "SHOP TOKOPEDIA (LITE)",
            "sektor": "Sektor Perdagangan",
            "tanggal_terbit": "2024-11-04",
            "url_tdpse_detail": "https://pse.komdigi.go.id/tdpse-detail/21033",
            "website": "-"
        },
        {
            "id": "9d68589c-3312-4088-8968-09ec0d8adfa1",
            "nama_pse": "LAZIO TEKNOLOGI BERSAMA",
            "nama_se": "LAZIO",
            "sektor": "Sektor Teknologi Informasi dan Komunikasi",
            "tanggal_terbit": "2024-11-04",
            "url_tdpse_detail": "https://pse.komdigi.go.id/tdpse-detail/21038",
            "website": "app.lazio.id"
        },
        {
            "id": "9d688f8f-dfb9-4f5b-aa64-3bb19044cb49",
            "nama_pse": "GERBANG TEKNOLOGI SEMESTA",
            "nama_se": "GTSID",
            "sektor": "Sektor Perdagangan",
            "tanggal_terbit": "2024-11-04",
            "url_tdpse_detail": "https://pse.komdigi.go.id/tdpse-detail/21043",
            "website": "gtsid.co.id"
        },
        {
            "id": "9d68cc42-cef3-46df-bf65-5dd020771aac",
            "nama_pse": "WARTA CAKRA NUSANTARA",
            "nama_se": "KOPITV.ID",
            "sektor": "Sektor Teknologi Informasi dan Komunikasi",
            "tanggal_terbit": "2024-11-04",
            "url_tdpse_detail": "https://pse.komdigi.go.id/tdpse-detail/21046",
            "website": "kopitv.id"
        },
        {
            "id": "9d68603b-feac-4259-ada7-beaf4ecb4094",
            "nama_pse": "LAZIO TEKNOLOGI BERSAMA",
            "nama_se": "BAIQ",
            "sektor": "Sektor Teknologi Informasi dan Komunikasi",
            "tanggal_terbit": "2024-11-04",
            "url_tdpse_detail": "https://pse.komdigi.go.id/tdpse-detail/21039",
            "website": "baiq.app"
        },
        {
            "id": "9d6644c1-1fb4-4148-a8db-5f0ac5778ae0",
            "nama_pse": "PEMUKASAKTI MANISINDAH",
            "nama_se": "vidcon.psmi.co.id",
            "sektor": "Sektor Teknologi Informasi dan Komunikasi",
            "tanggal_terbit": "2024-11-03",
            "url_tdpse_detail": "https://pse.komdigi.go.id/tdpse-detail/21023",
            "website": "vidcon.psmi.co.id"
        },
        {
            "id": "9d663fc9-e819-429d-a5c9-f10a016cebd8",
            "nama_pse": "PEMUKASAKTI MANISINDAH",
            "nama_se": "wrds.psmi.co.id",
            "sektor": "Sektor Teknologi Informasi dan Komunikasi",
            "tanggal_terbit": "2024-11-03",
            "url_tdpse_detail": "https://pse.komdigi.go.id/tdpse-detail/21022",
            "website": "wrds.psmi.co.id"
        },
        {
            "id": "9d662d00-ba1f-40c2-ae4f-bf8a4be0ad19",
            "nama_pse": "PEMUKASAKTI MANISINDAH",
            "nama_se": "portal-transport.psmi.co.id",
            "sektor": "Sektor Teknologi Informasi dan Komunikasi",
            "tanggal_terbit": "2024-11-03",
            "url_tdpse_detail": "https://pse.komdigi.go.id/tdpse-detail/21019",
            "website": "portal-transport.psmi.co.id"
        },
        {
            "id": "9d663a9e-3c93-4a75-8ccb-b28775435261",
            "nama_pse": "PEMUKASAKTI MANISINDAH",
            "nama_se": "servicedesk.psmi.co.id",
            "sektor": "Sektor Teknologi Informasi dan Komunikasi",
            "tanggal_terbit": "2024-11-03",
            "url_tdpse_detail": "https://pse.komdigi.go.id/tdpse-detail/21020",
            "website": "servicedesk.psmi.co.id"
        },
        {
            "id": "9d668ef1-0d5f-489f-9b30-9f38043a7d41",
            "nama_pse": "HERI PURWANTO",
            "nama_se": "SMM PANEL INDONESIA",
            "sektor": "Sektor Teknologi Informasi dan Komunikasi",
            "tanggal_terbit": "2024-11-03",
            "url_tdpse_detail": "https://pse.komdigi.go.id/tdpse-detail/21024",
            "website": "mbahgadget.co.id"
        },
        {
            "id": "9d65cd73-307e-489e-a3ef-d7ff453dc943",
            "nama_pse": "PUTRA MANDIRI MULTI MEDIA",
            "nama_se": "sindomas.co.id",
            "sektor": "Sektor Teknologi Informasi dan Komunikasi",
            "tanggal_terbit": "2024-11-03",
            "url_tdpse_detail": "https://pse.komdigi.go.id/tdpse-detail/21018",
            "website": "sindomas.co.id"
        },
        {
            "id": "9d66b28b-f63c-4d91-a823-b396d4ce187e",
            "nama_pse": "GALUH MATA MEDIKA",
            "nama_se": "SIMKES KHANZA KLINIK UTAMA CIAMIS EYE CENTER",
            "sektor": "Sektor Kesehatan",
            "tanggal_terbit": "2024-11-03",
            "url_tdpse_detail": "https://pse.komdigi.go.id/tdpse-detail/21026",
            "website": "ciamiseyecenter.com"
        },
        {
            "id": "9d66b04d-e21b-4efa-b903-6a1e2bd1c537",
            "nama_pse": "BIAN DIGITAL INDONESIA",
            "nama_se": "ASET GLOBAL",
            "sektor": "Sektor Teknologi Informasi dan Komunikasi",
            "tanggal_terbit": "2024-11-03",
            "url_tdpse_detail": "https://pse.komdigi.go.id/tdpse-detail/21025",
            "website": "asetglobal.online"
        },
        {
            "id": "9d63ea78-5719-45ce-a934-d27e171330a4",
            "nama_pse": "ONFLEET TEKNOLOGI INDONESIA",
            "nama_se": "ONFLEET",
            "sektor": "Sektor Perdagangan",
            "tanggal_terbit": "2024-11-02",
            "url_tdpse_detail": "https://pse.komdigi.go.id/tdpse-detail/21014",
            "website": "-"
        },
        {
            "id": "9d641a2f-c9ce-4c16-9ad5-6e9c6b745d58",
            "nama_pse": "INDONESIA CERDAS BERKARYA",
            "nama_se": "SIM GO KING",
            "sektor": "Sektor Perdagangan",
            "tanggal_terbit": "2024-11-02",
            "url_tdpse_detail": "https://pse.komdigi.go.id/tdpse-detail/21015",
            "website": "simgoking.id"
        },
        {
            "id": "9d645ae7-aa9e-4788-8018-059a37682a56",
            "nama_pse": "BIRO INDO PERKASA",
            "nama_se": "BOSA JASA",
            "sektor": "Sektor Teknologi Informasi dan Komunikasi",
            "tanggal_terbit": "2024-11-02",
            "url_tdpse_detail": "https://pse.komdigi.go.id/tdpse-detail/21016",
            "website": "bosajasa.id"
        },
        {
            "id": "9d646de0-e7b2-4e82-af8c-d8c28aac940e",
            "nama_pse": "NUSANTARA PUBLIK MULTIMEDIA",
            "nama_se": "penanusantara.co.id",
            "sektor": "Sektor Teknologi Informasi dan Komunikasi",
            "tanggal_terbit": "2024-11-02",
            "url_tdpse_detail": "https://pse.komdigi.go.id/tdpse-detail/21017",
            "website": "penanusantara.co.id"
        },
        {
            "id": "9d62210f-0d6d-41d1-8fce-4725ca8c6c4b",
            "nama_pse": "MEDIA RAJAWALINEWS GROUP",
            "nama_se": "RAJAWALI NEWS",
            "sektor": "Sektor Teknologi Informasi dan Komunikasi",
            "tanggal_terbit": "2024-11-01",
            "url_tdpse_detail": "https://pse.komdigi.go.id/tdpse-detail/21011",
            "website": "rajawalinews.online"
        },
        {
            "id": "9d61a5c7-8106-4832-97bd-436e5c0d2fd6",
            "nama_pse": "MEDIA ROKAN PERKASA",
            "nama_se": "www.rokamtv.com",
            "sektor": "Sektor Teknologi Informasi dan Komunikasi",
            "tanggal_terbit": "2024-11-01",
            "url_tdpse_detail": "https://pse.komdigi.go.id/tdpse-detail/21005",
            "website": "rokantv.com"
        },
        {
            "id": "9d62046b-345c-41c8-a4fc-e0aa5197ab62",
            "nama_pse": "VELODIVA MUSIC TECHNOLOGIES",
            "nama_se": "VELODIVA",
            "sektor": "Sektor Teknologi Informasi dan Komunikasi",
            "tanggal_terbit": "2024-11-01",
            "url_tdpse_detail": "https://pse.komdigi.go.id/tdpse-detail/21010",
            "website": "velodiva.com"
        },
        {
            "id": "9d61ebf6-0c64-4fe9-b80a-57adfd87273c",
            "nama_pse": "DANA KINI FINANCE",
            "nama_se": "WEBSITE PT DANA KINI FINANCE",
            "sektor": "Sektor Keuangan",
            "tanggal_terbit": "2024-11-01",
            "url_tdpse_detail": "https://pse.komdigi.go.id/tdpse-detail/21008",
            "website": "danakinifinance.co.id"
        },
        {
            "id": "9d61c36c-f8b8-40c2-84ab-80a3e8f36be1",
            "nama_pse": "VADS INDONESIA",
            "nama_se": "CONTACT CENTER SYSTEM MANAGEMENT",
            "sektor": "Sektor Teknologi Informasi dan Komunikasi",
            "tanggal_terbit": "2024-11-01",
            "url_tdpse_detail": "https://pse.komdigi.go.id/tdpse-detail/21006",
            "website": "-"
        },
        {
            "id": "9d616098-2dcf-40e4-ab4d-0142086ebd49",
            "nama_pse": "ONMART INTERNASIONAL INDONESIA",
            "nama_se": "ONMART",
            "sektor": "Sektor Perdagangan",
            "tanggal_terbit": "2024-11-01",
            "url_tdpse_detail": "https://pse.komdigi.go.id/tdpse-detail/21003",
            "website": "-"
        },
        {
            "id": "9d622f1a-34a8-48dc-88f8-abeffb3a54f2",
            "nama_pse": "BADAN WAKAF ALQURAN",
            "nama_se": "SISTEM TEKNOLOGI KOMUNIKASI DAN INFORMASI",
            "sektor": "Sektor Teknologi Informasi dan Komunikasi",
            "tanggal_terbit": "2024-11-01",
            "url_tdpse_detail": "https://pse.komdigi.go.id/tdpse-detail/21012",
            "website": "wakafquran.org"
        },
        {
            "id": "9d61cf7b-4fbf-46df-87f2-c752ff84f438",
            "nama_pse": "BMW INDONESIA",
            "nama_se": "BMW CONNECTED DRIVE DAN MINI CONNECTED DRIVE",
            "sektor": "Sektor Teknologi Informasi dan Komunikasi",
            "tanggal_terbit": "2024-11-01",
            "url_tdpse_detail": "https://pse.komdigi.go.id/tdpse-detail/21007",
            "website": "bmw.co.id"
        },
        {
            "id": "9d6188ea-5bbe-4d46-8d13-64a9b851e0ae",
            "nama_pse": "SUGENG RIYANTO",
            "nama_se": "dentsoftware",
            "sektor": "Sektor Kesehatan",
            "tanggal_terbit": "2024-11-01",
            "url_tdpse_detail": "https://pse.komdigi.go.id/tdpse-detail/21004",
            "website": "dentsoftware.com"
        },
        {
            "id": "9d625e17-1516-45a5-8f1f-a22c75e44c73",
            "nama_pse": "ROYALTY MANAGEMENT SYSTEM",
            "nama_se": "SMR",
            "sektor": "Sektor Teknologi Informasi dan Komunikasi",
            "tanggal_terbit": "2024-11-01",
            "url_tdpse_detail": "https://pse.komdigi.go.id/tdpse-detail/21013",
            "website": "-"
        },
        {
            "id": "9d61ec18-957d-4e26-b94c-02334e307082",
            "nama_pse": "DANA KINI FINANCE",
            "nama_se": "MOBILE APPS DANAKINI FINANCE BERBASIS ANDROID",
            "sektor": "Sektor Keuangan",
            "tanggal_terbit": "2024-11-01",
            "url_tdpse_detail": "https://pse.komdigi.go.id/tdpse-detail/21009",
            "website": "-"
        },
        {
            "id": "9d5fc27b-c693-4bc1-9d40-ce021c4c0d41",
            "nama_pse": "AMANAH KARYA INDONESIA",
            "nama_se": "BERBAGI.LINK",
            "sektor": "Sektor Teknologi Informasi dan Komunikasi",
            "tanggal_terbit": "2024-10-31",
            "url_tdpse_detail": "https://pse.komdigi.go.id/tdpse-detail/20991",
            "website": "berbagi.link"
        },
        {
            "id": "9d5fcc2f-4392-485b-8c36-523f4dd0ad89",
            "nama_pse": "MAHIR MEMBANGUN NEGERI",
            "nama_se": "MAHIR CLINIC",
            "sektor": "Sektor Kesehatan, Sektor Teknologi Informasi dan Komunikasi",
            "tanggal_terbit": "2024-10-31",
            "url_tdpse_detail": "https://pse.komdigi.go.id/tdpse-detail/20992",
            "website": "buildwithmahir.com"
        },
        {
            "id": "9d5feb07-ce68-4cd2-a4f6-79c3ac504205",
            "nama_pse": "MAHAKARYA DIGITAL BISNIS INTEGRA",
            "nama_se": "zenbytes",
            "sektor": "Sektor Teknologi Informasi dan Komunikasi",
            "tanggal_terbit": "2024-10-31",
            "url_tdpse_detail": "https://pse.komdigi.go.id/tdpse-detail/20995",
            "website": "zenbytes.id"
        },
        {
            "id": "9d60129c-e55c-45e1-94d6-f4b13d8d84c6",
            "nama_pse": "ROSHELINE MOTOR INDONESIA",
            "nama_se": "WULING INDUSTRI",
            "sektor": "Sektor Perdagangan",
            "tanggal_terbit": "2024-10-31",
            "url_tdpse_detail": "https://pse.komdigi.go.id/tdpse-detail/20998",
            "website": "wulingindustri.id"
        },
        {
            "id": "9d6034e7-3ddf-4961-b7b2-9d293161ba55",
            "nama_pse": "NUSANTARA MEGAH LESTARI",
            "nama_se": "REKAN HALAL",
            "sektor": "Sektor Perdagangan, Sektor Teknologi Informasi dan Komunikasi",
            "tanggal_terbit": "2024-10-31",
            "url_tdpse_detail": "https://pse.komdigi.go.id/tdpse-detail/20999",
            "website": "rekanhalal.org"
        },
        {
            "id": "9d603c91-a8d8-4d54-a6d6-f84f8d027d60",
            "nama_pse": "DOCUMENTA CORPORA TECHNOLOGY",
            "nama_se": "documenta.id",
            "sektor": "Sektor Teknologi Informasi dan Komunikasi",
            "tanggal_terbit": "2024-10-31",
            "url_tdpse_detail": "https://pse.komdigi.go.id/tdpse-detail/21000",
            "website": "documenta.id"
        }
    ],
    "processingTimeMs": 1,
    "query": "",
    "totalHits": 19121,
    "hitsPerPage": 50,
    "page": 28,
    "totalPages": 383
}