{
    "hits": [
        {
            "id": "9e5bc33a-da05-4ee8-9d09-1dbe2725bfce",
            "nama_pse": "REXAVER TEKNOLOGI INTERNASIONAL",
            "nama_se": "REXAVER AI",
            "sektor": "Sektor Teknologi Informasi dan Komunikasi",
            "tanggal_terbit": "2025-03-05",
            "url_tdpse_detail": "https://pse.komdigi.go.id/tdpse-detail/22636",
            "website": "ai.rexaver.com"
        },
        {
            "id": "9e5bfbf9-0a28-4c13-a3a8-783b0c6fd804",
            "nama_pse": "TEROPONG NASIONAL MANDIRI",
            "nama_se": "teropongnasionalnews.com",
            "sektor": "Sektor Teknologi Informasi dan Komunikasi",
            "tanggal_terbit": "2025-03-05",
            "url_tdpse_detail": "https://pse.komdigi.go.id/tdpse-detail/22637",
            "website": "teropongnasionalnews.com"
        },
        {
            "id": "9e5c2dd4-c843-4f7a-9014-99a385108ea9",
            "nama_pse": "TOPSETTING SENTRA AKSES",
            "nama_se": "CLOUD HOSTING TOPSETTING",
            "sektor": "Sektor Teknologi Informasi dan Komunikasi",
            "tanggal_terbit": "2025-03-05",
            "url_tdpse_detail": "https://pse.komdigi.go.id/tdpse-detail/22638",
            "website": "topsetting.net"
        },
        {
            "id": "9e5c4b34-a68a-4e18-9d7b-756423ce4bca",
            "nama_pse": "MAHKOTA RIAU INDONESIA",
            "nama_se": "mahkotariau.com",
            "sektor": "Sektor Teknologi Informasi dan Komunikasi",
            "tanggal_terbit": "2025-03-05",
            "url_tdpse_detail": "https://pse.komdigi.go.id/tdpse-detail/22639",
            "website": "mahkotariau.com"
        },
        {
            "id": "9e5f3ac9-3bc7-4788-9944-e524d9823836",
            "nama_pse": "NUON DIGITAL INDONESIA",
            "nama_se": "MAINBRO",
            "sektor": "Sektor Teknologi Informasi dan Komunikasi",
            "tanggal_terbit": "2025-03-05",
            "url_tdpse_detail": "https://pse.komdigi.go.id/tdpse-detail/22632",
            "website": "mainbro.co.id"
        },
        {
            "id": "9e5f3c06-ccf5-4da8-8e6d-8dad5d882254",
            "nama_pse": "NUON DIGITAL INDONESIA",
            "nama_se": "UPOINT.ID",
            "sektor": "Sektor Teknologi Informasi dan Komunikasi",
            "tanggal_terbit": "2025-03-05",
            "url_tdpse_detail": "https://pse.komdigi.go.id/tdpse-detail/22633",
            "website": "upoint.id"
        },
        {
            "id": "9e592aff-c45f-4518-ae00-238d49085f56",
            "nama_pse": "TEKNOLOGIC AKSARA NUSANTARA",
            "nama_se": "LOGICA SPATIA",
            "sektor": "Sektor Teknologi Informasi dan Komunikasi",
            "tanggal_terbit": "2025-03-04",
            "url_tdpse_detail": "https://pse.komdigi.go.id/tdpse-detail/22603",
            "website": "spatia.getlogica.id"
        },
        {
            "id": "9e593333-fa82-4691-abe4-e8cc9062c02c",
            "nama_pse": "INDOMAS MAKMUR JAYA",
            "nama_se": "braunbuffel.co.id",
            "sektor": "Sektor Perdagangan",
            "tanggal_terbit": "2025-03-04",
            "url_tdpse_detail": "https://pse.komdigi.go.id/tdpse-detail/22605",
            "website": "braunbuffel.co.id"
        },
        {
            "id": "9e59576a-8a84-41d4-8f0f-a9e3f69b1b4a",
            "nama_pse": "LUNA APLIKASI INDONESIA",
            "nama_se": "LUNAPOS.ID",
            "sektor": "Sektor Perdagangan",
            "tanggal_terbit": "2025-03-04",
            "url_tdpse_detail": "https://pse.komdigi.go.id/tdpse-detail/22606",
            "website": "-"
        },
        {
            "id": "9e598de4-93da-43f8-b9dc-d9b77e83ac39",
            "nama_pse": "GINTA GLOBAL MANDIRI",
            "nama_se": "GINTACARGO.COM",
            "sektor": "Sektor Perdagangan, Sektor Transportasi",
            "tanggal_terbit": "2025-03-04",
            "url_tdpse_detail": "https://pse.komdigi.go.id/tdpse-detail/22615",
            "website": "gintacargo.com"
        },
        {
            "id": "9e592294-a7c4-49a2-9967-694b93b61de7",
            "nama_pse": "ABU SUJAK BERSINERGI",
            "nama_se": "RME KLINIK KATA",
            "sektor": "Sektor Kesehatan",
            "tanggal_terbit": "2025-03-04",
            "url_tdpse_detail": "https://pse.komdigi.go.id/tdpse-detail/22602",
            "website": "-"
        },
        {
            "id": "9e595787-043f-4d59-8ab5-e2785fd8c3fb",
            "nama_pse": "PARUNG JAMBU BERSAHABAT",
            "nama_se": "parumbu",
            "sektor": "Sektor Perdagangan",
            "tanggal_terbit": "2025-03-04",
            "url_tdpse_detail": "https://pse.komdigi.go.id/tdpse-detail/22607",
            "website": "parumbu.my.id"
        },
        {
            "id": "9e592ce6-e2bb-4f1f-8ea8-560dd7f2344c",
            "nama_pse": "SIBER NUSANTARA NEWS",
            "nama_se": "SIBERNASIONAL NEWS",
            "sektor": "Sektor Teknologi Informasi dan Komunikasi",
            "tanggal_terbit": "2025-03-04",
            "url_tdpse_detail": "https://pse.komdigi.go.id/tdpse-detail/22604",
            "website": "sibernasionalnews.com"
        },
        {
            "id": "9e589900-caff-4a30-8891-ccbf78f077b4",
            "nama_pse": "KUOTA PULSA INTERNUSA",
            "nama_se": "KUOTA PULSA",
            "sektor": "Sektor Perdagangan, Sektor Teknologi Informasi dan Komunikasi",
            "tanggal_terbit": "2025-03-04",
            "url_tdpse_detail": "https://pse.komdigi.go.id/tdpse-detail/22599",
            "website": "kuotapulsa.com"
        },
        {
            "id": "9e595b6f-737c-4563-b48f-4715d87559e1",
            "nama_pse": "SUPER PASAR RAKYAT INDONESIA",
            "nama_se": "PARI - PASAR RAKYAT INDONESIA",
            "sektor": "Sektor Perdagangan, Sektor Teknologi Informasi dan Komunikasi",
            "tanggal_terbit": "2025-03-04",
            "url_tdpse_detail": "https://pse.komdigi.go.id/tdpse-detail/22608",
            "website": "-"
        },
        {
            "id": "9e596290-6769-495f-9cbe-a314dfdafa1f",
            "nama_pse": "MULTI SEJAHTERA BERSAMA",
            "nama_se": "www.duraskincentre.com",
            "sektor": "Sektor Perdagangan",
            "tanggal_terbit": "2025-03-04",
            "url_tdpse_detail": "https://pse.komdigi.go.id/tdpse-detail/22609",
            "website": "-"
        },
        {
            "id": "9e596674-780e-4f48-9697-01c1bd1db294",
            "nama_pse": "SIGIT ANDRI YANTO",
            "nama_se": "BUKA KONTER",
            "sektor": "Sektor Teknologi Informasi dan Komunikasi",
            "tanggal_terbit": "2025-03-04",
            "url_tdpse_detail": "https://pse.komdigi.go.id/tdpse-detail/22610",
            "website": "bukakonter.my.id"
        },
        {
            "id": "9e5966d2-7aa8-4c5c-a0f8-79e28dbd6d28",
            "nama_pse": "MEA DIGITAL MARKETING",
            "nama_se": "storybook.id",
            "sektor": "Sektor Teknologi Informasi dan Komunikasi",
            "tanggal_terbit": "2025-03-04",
            "url_tdpse_detail": "https://pse.komdigi.go.id/tdpse-detail/22611",
            "website": "storybook.id"
        },
        {
            "id": "9e5968fa-b6cd-4931-a171-3bcfe0f09e31",
            "nama_pse": "SIGIT ANDRI YANTO",
            "nama_se": "BUKA KONTER",
            "sektor": "Sektor Teknologi Informasi dan Komunikasi",
            "tanggal_terbit": "2025-03-04",
            "url_tdpse_detail": "https://pse.komdigi.go.id/tdpse-detail/22612",
            "website": "bukakonter.my.id"
        },
        {
            "id": "9e596c62-f156-4063-9237-13a175198038",
            "nama_pse": "BUANA SEHAT JAYA",
            "nama_se": "SIMRS KI AGENG SEDAYU",
            "sektor": "Sektor Kesehatan",
            "tanggal_terbit": "2025-03-04",
            "url_tdpse_detail": "https://pse.komdigi.go.id/tdpse-detail/22613",
            "website": "rskias.co.id"
        },
        {
            "id": "9e59ab40-9978-437d-a289-c1778a2dcb9d",
            "nama_pse": "PANCA SAMUDRA BUMI",
            "nama_se": "IZINEDAR",
            "sektor": "Sektor Perdagangan, Sektor Kesehatan",
            "tanggal_terbit": "2025-03-04",
            "url_tdpse_detail": "https://pse.komdigi.go.id/tdpse-detail/22616",
            "website": "izinedar.com"
        },
        {
            "id": "9e59b1bd-27e0-4890-a399-7e2d5420db52",
            "nama_pse": "LOKAL ORANG INDONESIA",
            "nama_se": "LOVLET",
            "sektor": "Sektor Teknologi Informasi dan Komunikasi",
            "tanggal_terbit": "2025-03-04",
            "url_tdpse_detail": "https://pse.komdigi.go.id/tdpse-detail/22617",
            "website": "-"
        },
        {
            "id": "9e572f36-18eb-41d7-b04a-d7328fb0cd95",
            "nama_pse": "TOKO TOPUP DIGITAL",
            "nama_se": "toko top digital",
            "sektor": "Sektor Teknologi Informasi dan Komunikasi",
            "tanggal_terbit": "2025-03-03",
            "url_tdpse_detail": "https://pse.komdigi.go.id/tdpse-detail/22591",
            "website": "tokotopupku.my.id"
        },
        {
            "id": "9e5715a3-c35b-4563-940e-dd33b541c1b2",
            "nama_pse": "SOLUSI VERTEXTEK INDONESIA",
            "nama_se": "DUKULIVE",
            "sektor": "Sektor Teknologi Informasi dan Komunikasi",
            "tanggal_terbit": "2025-03-03",
            "url_tdpse_detail": "https://pse.komdigi.go.id/tdpse-detail/22586",
            "website": "duku.live"
        },
        {
            "id": "9e573ca2-f11e-4189-a246-52859297f39e",
            "nama_pse": "MITRA EDUKASI NUSANTARA",
            "nama_se": "SIPLAHGRAMEDIA",
            "sektor": "Sektor Perdagangan",
            "tanggal_terbit": "2025-03-03",
            "url_tdpse_detail": "https://pse.komdigi.go.id/tdpse-detail/22592",
            "website": "siplahgramedia.id"
        },
        {
            "id": "9e57a7db-5fab-473e-ad75-46ecc8163f03",
            "nama_pse": "PRIMA PRATAMA INTEGRITAS",
            "nama_se": "BLU VOICE BOT",
            "sektor": "Sektor Teknologi Informasi dan Komunikasi",
            "tanggal_terbit": "2025-03-03",
            "url_tdpse_detail": "https://pse.komdigi.go.id/tdpse-detail/22596",
            "website": "shanghu.ai"
        },
        {
            "id": "9e569d49-5aad-48d5-91a9-b3b19cb8896a",
            "nama_pse": "ARIF YOGI SAPUTRA",
            "nama_se": "EXPUTRA",
            "sektor": "Sektor Perdagangan, Sektor Teknologi Informasi dan Komunikasi",
            "tanggal_terbit": "2025-03-03",
            "url_tdpse_detail": "https://pse.komdigi.go.id/tdpse-detail/22578",
            "website": "exputra.com"
        },
        {
            "id": "9e57bb12-ce80-4bc3-b0ef-6c1b1c445a64",
            "nama_pse": "MAHAKARYA SEJAHTERA INOVASI",
            "nama_se": "CV MAHAKARYA SEJAHTERA INOVASI",
            "sektor": "Sektor Perdagangan, Sektor Teknologi Informasi dan Komunikasi",
            "tanggal_terbit": "2025-03-03",
            "url_tdpse_detail": "https://pse.komdigi.go.id/tdpse-detail/22597",
            "website": "cvmahakarya.com"
        },
        {
            "id": "9e56e484-ee7b-42ab-b995-46b5ef47f06e",
            "nama_pse": "POTER",
            "nama_se": "ADMINISTRASI KEPENDUDUKAN",
            "sektor": "Sektor Teknologi Informasi dan Komunikasi",
            "tanggal_terbit": "2025-03-03",
            "url_tdpse_detail": "https://pse.komdigi.go.id/tdpse-detail/22579",
            "website": "-"
        },
        {
            "id": "9e56f066-8a5b-43f8-87ee-bcb3f0727908",
            "nama_pse": "NAMGLOBAL SAAS INDONESIA",
            "nama_se": "NAMGLOBAL SAAS INDONESIA",
            "sektor": "Sektor Teknologi Informasi dan Komunikasi",
            "tanggal_terbit": "2025-03-03",
            "url_tdpse_detail": "https://pse.komdigi.go.id/tdpse-detail/22580",
            "website": "namglobal.my.id"
        },
        {
            "id": "9e56f8aa-8176-472c-84f3-5e9a6a73dcbb",
            "nama_pse": "ASHIEN PASTI JAYA",
            "nama_se": "CARNELIAN ROSETEA",
            "sektor": "Sektor Perdagangan",
            "tanggal_terbit": "2025-03-03",
            "url_tdpse_detail": "https://pse.komdigi.go.id/tdpse-detail/22581",
            "website": "carnelian-rosetea.com"
        },
        {
            "id": "9e570f65-2c5a-4fab-b8dd-5feb4592bdb0",
            "nama_pse": "INDONESIA CLEARING HOUSE",
            "nama_se": "NEXUS",
            "sektor": "Sektor Perdagangan, Sektor Keuangan",
            "tanggal_terbit": "2025-03-03",
            "url_tdpse_detail": "https://pse.komdigi.go.id/tdpse-detail/22583",
            "website": "-"
        },
        {
            "id": "9e41629f-5aca-4897-bdda-ba396966d266",
            "nama_pse": "TEKNOLOGIC AKSARA NUSANTARA",
            "nama_se": "LOGICA ERP",
            "sektor": "Sektor Teknologi Informasi dan Komunikasi",
            "tanggal_terbit": "2025-03-03",
            "url_tdpse_detail": "https://pse.komdigi.go.id/tdpse-detail/22593",
            "website": "erp.getlogica.id"
        },
        {
            "id": "9e5720a5-d029-41cc-86fd-b9067a40f5b2",
            "nama_pse": "MARIO CYBER MEDIA",
            "nama_se": "FOKUSSATU.COM",
            "sektor": "Sektor Teknologi Informasi dan Komunikasi",
            "tanggal_terbit": "2025-03-03",
            "url_tdpse_detail": "https://pse.komdigi.go.id/tdpse-detail/22589",
            "website": "fokussatu.com"
        },
        {
            "id": "9e577d7a-3850-46f9-84d2-39e69d55057d",
            "nama_pse": "KLIKCOPAS ABADI NUSANTARA",
            "nama_se": "SYIARIN",
            "sektor": "Sektor Perdagangan",
            "tanggal_terbit": "2025-03-03",
            "url_tdpse_detail": "https://pse.komdigi.go.id/tdpse-detail/22594",
            "website": "syiarin.com"
        },
        {
            "id": "9e5828a5-398c-4bdc-87e9-b974315aa23f",
            "nama_pse": "MUHAMMAD YUSUF",
            "nama_se": "MY VOUCHER",
            "sektor": "Sektor Perdagangan, Sektor Teknologi Informasi dan Komunikasi",
            "tanggal_terbit": "2025-03-03",
            "url_tdpse_detail": "https://pse.komdigi.go.id/tdpse-detail/22598",
            "website": "myvoucherdigitalpayment.my.id"
        },
        {
            "id": "9e5b76c7-2ec5-4a0e-a6e2-299beac7837e",
            "nama_pse": "NUON DIGITAL INDONESIA",
            "nama_se": "TIKETAPASAJA.COM",
            "sektor": "Sektor Perdagangan, Sektor Teknologi Informasi dan Komunikasi",
            "tanggal_terbit": "2025-03-03",
            "url_tdpse_detail": "https://pse.komdigi.go.id/tdpse-detail/22626",
            "website": "tiketapasaja.com"
        },
        {
            "id": "9e57101e-fe71-446f-8318-9b945fc58a43",
            "nama_pse": "PERUSAHAAN PERSEROAN (PERSERO) PT. BANK RAKYAT INDONESIA",
            "nama_se": "CASH MANAGEMENT SYSTEM",
            "sektor": "Sektor Keuangan",
            "tanggal_terbit": "2025-03-03",
            "url_tdpse_detail": "https://pse.komdigi.go.id/tdpse-detail/22585",
            "website": "bricams.bri.co.id"
        },
        {
            "id": "9e560cfe-384a-4f34-b7b1-07a97360949b",
            "nama_pse": "MARIO CYBER MEDIA",
            "nama_se": "CYBER24.CO.ID",
            "sektor": "Sektor Teknologi Informasi dan Komunikasi",
            "tanggal_terbit": "2025-03-02",
            "url_tdpse_detail": "https://pse.komdigi.go.id/tdpse-detail/22577",
            "website": "cyber24.co.id"
        },
        {
            "id": "9e53bfdc-06c0-4326-88b4-7e12f6faf8c3",
            "nama_pse": "GARUDA TRANSPORTASI NUSANTARA",
            "nama_se": "GATRANS",
            "sektor": "Sektor Teknologi Informasi dan Komunikasi",
            "tanggal_terbit": "2025-03-01",
            "url_tdpse_detail": "https://pse.komdigi.go.id/tdpse-detail/22575",
            "website": "gatransapps.co.id"
        },
        {
            "id": "9e525650-e040-4873-b25c-fa502c79c855",
            "nama_pse": "MUHAMMAD YUSUF",
            "nama_se": "MY VOUCHER - AGEN PULSA \u0026 PPOB",
            "sektor": "Sektor Perdagangan, Sektor Teknologi Informasi dan Komunikasi",
            "tanggal_terbit": "2025-03-01",
            "url_tdpse_detail": "https://pse.komdigi.go.id/tdpse-detail/22566",
            "website": "myvoucherppob.com"
        },
        {
            "id": "9e52f691-e105-4abd-8b36-ea0434b73166",
            "nama_pse": "ISAN SETIA RAHAYU",
            "nama_se": "ISAN SETIA RAHAYU",
            "sektor": "Sektor Teknologi Informasi dan Komunikasi",
            "tanggal_terbit": "2025-03-01",
            "url_tdpse_detail": "https://pse.komdigi.go.id/tdpse-detail/22567",
            "website": "-"
        },
        {
            "id": "9e5325b9-8999-45cb-8876-d5635a9b63fb",
            "nama_pse": "JAVA TOUR EXPLORE",
            "nama_se": "website",
            "sektor": "Sektor Perdagangan",
            "tanggal_terbit": "2025-03-01",
            "url_tdpse_detail": "https://pse.komdigi.go.id/tdpse-detail/22568",
            "website": "jelajahwisata.my.id"
        },
        {
            "id": "9e533a7f-563d-425c-8169-375594c42b8f",
            "nama_pse": "RCD ARGO SUKSES",
            "nama_se": "RCD ARGO SUKSES SLL",
            "sektor": "Sektor Perdagangan",
            "tanggal_terbit": "2025-03-01",
            "url_tdpse_detail": "https://pse.komdigi.go.id/tdpse-detail/22569",
            "website": "-"
        },
        {
            "id": "9e534041-5a5a-4d8e-9dec-3c4bd1ec59d6",
            "nama_pse": "RCD ARGO SUKSES",
            "nama_se": "RCD ARGO SUKSES ELEKTRIK PLS",
            "sektor": "Sektor Perdagangan",
            "tanggal_terbit": "2025-03-01",
            "url_tdpse_detail": "https://pse.komdigi.go.id/tdpse-detail/22570",
            "website": "-"
        },
        {
            "id": "9e536dd3-7087-40c2-8d45-a4e0f6ba2ed2",
            "nama_pse": "ASIA BARU KOSMETIK",
            "nama_se": "ASIA BARU KOSMETIK PLS",
            "sektor": "Sektor Perdagangan",
            "tanggal_terbit": "2025-03-01",
            "url_tdpse_detail": "https://pse.komdigi.go.id/tdpse-detail/22571",
            "website": "-"
        },
        {
            "id": "9e54352b-410f-45c3-9cc5-706a0e7af2e4",
            "nama_pse": "MUHAMMAD YUSUF",
            "nama_se": "MY VOUCHER - SMM PANEL MURAH",
            "sektor": "Sektor Perdagangan, Sektor Teknologi Informasi dan Komunikasi",
            "tanggal_terbit": "2025-03-01",
            "url_tdpse_detail": "https://pse.komdigi.go.id/tdpse-detail/22576",
            "website": "myvouchersosmed.my.id"
        },
        {
            "id": "9e536ebe-d618-43e8-b63f-49b8ed41d0fe",
            "nama_pse": "ASIA BARU KOSMETIK",
            "nama_se": "ASIA BARU KOSMETIK WBST",
            "sektor": "Sektor Perdagangan",
            "tanggal_terbit": "2025-03-01",
            "url_tdpse_detail": "https://pse.komdigi.go.id/tdpse-detail/22572",
            "website": "-"
        },
        {
            "id": "9e537760-81a1-4a18-b85b-3fa9ed6051b3",
            "nama_pse": "WEEBO FURNITURE INTERIOR",
            "nama_se": "WEEBO FURNITURE INTERIOR PLS",
            "sektor": "Sektor Perdagangan",
            "tanggal_terbit": "2025-03-01",
            "url_tdpse_detail": "https://pse.komdigi.go.id/tdpse-detail/22573",
            "website": "-"
        },
        {
            "id": "9e5386d0-cd20-4292-8011-ba1fa02de00f",
            "nama_pse": "WEEBO FURNITURE INTERIOR",
            "nama_se": "WEEBO FURNITURE INTERIOR SITES",
            "sektor": "Sektor Perdagangan",
            "tanggal_terbit": "2025-03-01",
            "url_tdpse_detail": "https://pse.komdigi.go.id/tdpse-detail/22574",
            "website": "-"
        }
    ],
    "processingTimeMs": 3,
    "query": "",
    "totalHits": 19121,
    "hitsPerPage": 50,
    "page": 3,
    "totalPages": 383
}