{
    "hits": [
        {
            "id": "9cb1ac8b-1df1-42c4-9c18-6dbdc9fdff4f",
            "nama_pse": "PRESTASI RETAIL INNOVATION",
            "nama_se": "PRIME",
            "sektor": "Sektor Teknologi Informasi dan Komunikasi",
            "tanggal_terbit": "2024-07-30",
            "url_tdpse_detail": "https://pse.komdigi.go.id/tdpse-detail/19677",
            "website": "prime.pri.co.id"
        },
        {
            "id": "9cb1ac74-9572-4141-a929-2fc5f295e32c",
            "nama_pse": "LUTFHI KEMAL MAKKY",
            "nama_se": "CARE PULSE",
            "sektor": "Sektor Teknologi Informasi dan Komunikasi",
            "tanggal_terbit": "2024-07-30",
            "url_tdpse_detail": "https://pse.komdigi.go.id/tdpse-detail/19691",
            "website": "-"
        },
        {
            "id": "9cb1ac5f-28d5-4676-a9e7-916732a0e638",
            "nama_pse": "INOVASI JAYA PERSADA",
            "nama_se": "INOVASI JAYA",
            "sektor": "Sektor Teknologi Informasi dan Komunikasi",
            "tanggal_terbit": "2024-07-30",
            "url_tdpse_detail": "https://pse.komdigi.go.id/tdpse-detail/19682",
            "website": "inovasi-jaya.co.id"
        },
        {
            "id": "9cb1ac8b-2acf-4dc8-a326-671245a9ffb1",
            "nama_pse": "TOKO TOKOO COM",
            "nama_se": "TOKOTOKOO.COM",
            "sektor": "Sektor Perdagangan",
            "tanggal_terbit": "2024-07-30",
            "url_tdpse_detail": "https://pse.komdigi.go.id/tdpse-detail/19683",
            "website": "tokotokoo.com"
        },
        {
            "id": "9cb1ac5f-2ca6-4dc1-b028-d1b86d044838",
            "nama_pse": "MAJU SUKSES INFORMATIKA",
            "nama_se": "MASIN",
            "sektor": "Sektor Teknologi Informasi dan Komunikasi",
            "tanggal_terbit": "2024-07-30",
            "url_tdpse_detail": "https://pse.komdigi.go.id/tdpse-detail/19686",
            "website": "masin.co.id"
        },
        {
            "id": "9cb1ac8b-31db-4437-aca8-e60d8beb683d",
            "nama_pse": "JURNAL KALBAR NEWS",
            "nama_se": "JURNALKALBARNEWS.COM",
            "sektor": "Sektor Teknologi Informasi dan Komunikasi",
            "tanggal_terbit": "2024-07-30",
            "url_tdpse_detail": "https://pse.komdigi.go.id/tdpse-detail/19692",
            "website": "jurnalkalbarnews.com"
        },
        {
            "id": "9cb1ac5f-3750-4ec1-9eac-9416fd9fff25",
            "nama_pse": "MEDIA JURNALIS MAKMUR",
            "nama_se": "PRAPANCA.WORD",
            "sektor": "Sektor Teknologi Informasi dan Komunikasi",
            "tanggal_terbit": "2024-07-30",
            "url_tdpse_detail": "https://pse.komdigi.go.id/tdpse-detail/19693",
            "website": "prapanca.world"
        },
        {
            "id": "9cb1ac74-7ef5-44e0-b971-bdf298ff3661",
            "nama_pse": "ADHI PRATAMA CITRA SOLUSINDO",
            "nama_se": "E-TICKET DLN",
            "sektor": "Sektor Transportasi",
            "tanggal_terbit": "2024-07-30",
            "url_tdpse_detail": "https://pse.komdigi.go.id/tdpse-detail/19671",
            "website": "eticket.dlnferry.com"
        },
        {
            "id": "9cb1ac3d-2366-4f3c-99d1-a47280842d70",
            "nama_pse": "PERMATA BUNDA BERSAMA",
            "nama_se": "RS BUNDA",
            "sektor": "Sektor Kesehatan",
            "tanggal_terbit": "2024-07-30",
            "url_tdpse_detail": "https://pse.komdigi.go.id/tdpse-detail/19679",
            "website": "-"
        },
        {
            "id": "9cb1ac8b-229a-4382-9075-bb0d7d88d18b",
            "nama_pse": "MATA HIJAU INDONESIA",
            "nama_se": "WEBSITE",
            "sektor": "Sektor Teknologi Informasi dan Komunikasi",
            "tanggal_terbit": "2024-07-30",
            "url_tdpse_detail": "https://pse.komdigi.go.id/tdpse-detail/19678",
            "website": "pavilionshotels.com"
        },
        {
            "id": "9cb1ac8b-2e93-433e-bfa3-c4594637e504",
            "nama_pse": "GUYUB GANGSAR GAYENG",
            "nama_se": "NEOHISTORIA",
            "sektor": "Sektor Teknologi Informasi dan Komunikasi",
            "tanggal_terbit": "2024-07-30",
            "url_tdpse_detail": "https://pse.komdigi.go.id/tdpse-detail/19690",
            "website": "neohistoria.com"
        },
        {
            "id": "9cb1ac8a-f5d9-45b1-9f4f-6c61edd0adb4",
            "nama_pse": "FATHIAN ABIZER ALFALAH",
            "nama_se": "FATHIAN ABIZER ALFALAH",
            "sektor": "Sektor Perdagangan",
            "tanggal_terbit": "2024-07-29",
            "url_tdpse_detail": "https://pse.komdigi.go.id/tdpse-detail/19655",
            "website": "fabizer.com"
        },
        {
            "id": "9cb1ac8a-1039-4b05-a6ed-d9351af61362",
            "nama_pse": "LIKUID MEGAH SEMESTA",
            "nama_se": "LIQUID8.ID",
            "sektor": "Sektor Perdagangan",
            "tanggal_terbit": "2024-07-29",
            "url_tdpse_detail": "https://pse.komdigi.go.id/tdpse-detail/19647",
            "website": "liquid8.co.id"
        },
        {
            "id": "9cb1ac5e-8435-452f-aef9-3e63326adba5",
            "nama_pse": "GIANT VIEW TECHNOLOGY",
            "nama_se": "DAZZ LIVE",
            "sektor": "Sektor Teknologi Informasi dan Komunikasi",
            "tanggal_terbit": "2024-07-29",
            "url_tdpse_detail": "https://pse.komdigi.go.id/tdpse-detail/19648",
            "website": "-"
        },
        {
            "id": "9cb1ac5e-aa9e-4ff9-8613-8c4a7f19bbd5",
            "nama_pse": "BAGAS AJI NUGROHO",
            "nama_se": "SIKLINIK",
            "sektor": "Sektor Kesehatan",
            "tanggal_terbit": "2024-07-29",
            "url_tdpse_detail": "https://pse.komdigi.go.id/tdpse-detail/19652",
            "website": "siklinik.com"
        },
        {
            "id": "9cb1ac74-73f8-4854-83a0-09bc97f0d2a0",
            "nama_pse": "PERURI DIGITAL SECURITY",
            "nama_se": "SIGN IT",
            "sektor": "Sektor Teknologi Informasi dan Komunikasi",
            "tanggal_terbit": "2024-07-29",
            "url_tdpse_detail": "https://pse.komdigi.go.id/tdpse-detail/19660",
            "website": "sign-it.id"
        },
        {
            "id": "9cb1ac74-7159-45c3-ba43-4e8aa292be0c",
            "nama_pse": "Yayasan Bumitama",
            "nama_se": "KLINIK PRATAMA BUMITAMA",
            "sektor": "Sektor Kesehatan",
            "tanggal_terbit": "2024-07-29",
            "url_tdpse_detail": "https://pse.komdigi.go.id/tdpse-detail/19658",
            "website": "-"
        },
        {
            "id": "9cb1ac5e-f51b-4209-996f-51719657c14f",
            "nama_pse": "ASURANSI ALLIANZ LIFE SYARIAH INDONESIA",
            "nama_se": "ELLISE (ELECTRONIC LOAN-LINKED INSURANCE SERVICE)",
            "sektor": "Sektor Keuangan",
            "tanggal_terbit": "2024-07-29",
            "url_tdpse_detail": "https://pse.komdigi.go.id/tdpse-detail/19666",
            "website": "-"
        },
        {
            "id": "9cb1ac8a-db27-4d0f-b2af-145a6914e800",
            "nama_pse": "PENDI NASUTION",
            "nama_se": "PENDI.NET",
            "sektor": "Sektor Teknologi Informasi dan Komunikasi",
            "tanggal_terbit": "2024-07-29",
            "url_tdpse_detail": "https://pse.komdigi.go.id/tdpse-detail/19650",
            "website": "-"
        },
        {
            "id": "9cb1ac8a-2a79-4a24-bd42-3225a9cad650",
            "nama_pse": "INGAT DIGITAL KREATIF",
            "nama_se": "INGAT ONLINE",
            "sektor": "Sektor Energi dan Sumber Daya Mineral",
            "tanggal_terbit": "2024-07-29",
            "url_tdpse_detail": "https://pse.komdigi.go.id/tdpse-detail/19657",
            "website": "-"
        },
        {
            "id": "9cb1ac74-5e90-4b74-b5dc-173569dc54b0",
            "nama_pse": "INOVASI DIGITAL ERAKITA",
            "nama_se": "UPSCHOOL",
            "sektor": "Sektor Teknologi Informasi dan Komunikasi",
            "tanggal_terbit": "2024-07-29",
            "url_tdpse_detail": "https://pse.komdigi.go.id/tdpse-detail/19646",
            "website": "upschool.id"
        },
        {
            "id": "9cb1ac5e-fa84-40ed-8b52-60b3a2257fae",
            "nama_pse": "CELEBES SOLUSI DIGITAL",
            "nama_se": "MEDICARE",
            "sektor": "Sektor Kesehatan",
            "tanggal_terbit": "2024-07-29",
            "url_tdpse_detail": "https://pse.komdigi.go.id/tdpse-detail/19653",
            "website": "celebesdigital.id"
        },
        {
            "id": "9cb1ac5e-fe2a-4302-95cb-a0b56ddf45f6",
            "nama_pse": "SURYA MEDIA PRIMA",
            "nama_se": "DXMEDIA",
            "sektor": "Sektor Kesehatan",
            "tanggal_terbit": "2024-07-29",
            "url_tdpse_detail": "https://pse.komdigi.go.id/tdpse-detail/19651",
            "website": "dxmedia.id"
        },
        {
            "id": "9cb1ac74-6302-45c8-bf97-ee51b688f422",
            "nama_pse": "CRAFITY TECHNOLOGY INDONESIA",
            "nama_se": "OINI",
            "sektor": "Sektor Perdagangan",
            "tanggal_terbit": "2024-07-29",
            "url_tdpse_detail": "https://pse.komdigi.go.id/tdpse-detail/19654",
            "website": "-"
        },
        {
            "id": "9cb1ac5f-11c3-4f4c-a83c-687efdad3970",
            "nama_pse": "BLUE ORIGIN ECOMMERCE",
            "nama_se": "OHSOME",
            "sektor": "Sektor Perdagangan",
            "tanggal_terbit": "2024-07-29",
            "url_tdpse_detail": "https://pse.komdigi.go.id/tdpse-detail/19661",
            "website": "Ohsome.com"
        },
        {
            "id": "9cb1ac8a-f9d6-41ac-aa2e-6ba4a314e7dc",
            "nama_pse": "TRANSFORCE DIGITAL INDONESIA",
            "nama_se": "TRANSFORCE INDONESIA",
            "sektor": "Sektor Teknologi Informasi dan Komunikasi",
            "tanggal_terbit": "2024-07-29",
            "url_tdpse_detail": "https://pse.komdigi.go.id/tdpse-detail/19659",
            "website": "-"
        },
        {
            "id": "9cb1ac74-7944-47c8-ab4b-ea9352a6edb4",
            "nama_pse": "HERIANTO",
            "nama_se": "LAYANAN LOKAL INTERNET RT RW NET",
            "sektor": "Sektor Teknologi Informasi dan Komunikasi",
            "tanggal_terbit": "2024-07-29",
            "url_tdpse_detail": "https://pse.komdigi.go.id/tdpse-detail/19664",
            "website": "-"
        },
        {
            "id": "9cb1ac5f-1d56-4328-9c3e-3506faada622",
            "nama_pse": "PENDI NASUTION",
            "nama_se": "RITA.NET",
            "sektor": "Sektor Teknologi Informasi dan Komunikasi",
            "tanggal_terbit": "2024-07-29",
            "url_tdpse_detail": "https://pse.komdigi.go.id/tdpse-detail/19663",
            "website": "-"
        },
        {
            "id": "9cb1ac74-1cf8-42c1-ba0b-12767a011bea",
            "nama_pse": "UOB KAY HIAN SEKURITAS",
            "nama_se": "UTRADE",
            "sektor": "Sektor Keuangan",
            "tanggal_terbit": "2024-07-29",
            "url_tdpse_detail": "https://pse.komdigi.go.id/tdpse-detail/19665",
            "website": "utrade.co.id"
        },
        {
            "id": "9cb1ac74-7c06-4f9c-8f5a-257b41eba734",
            "nama_pse": "ANGSAMERAH",
            "nama_se": "APP.ANGSAMERAH.CCOM",
            "sektor": "Sektor Kesehatan",
            "tanggal_terbit": "2024-07-29",
            "url_tdpse_detail": "https://pse.komdigi.go.id/tdpse-detail/19667",
            "website": "app.angsamerah.com"
        },
        {
            "id": "9cb1ac5f-2061-4453-935e-3827f67cd292",
            "nama_pse": "ALESCO TEKNO MEDIKA",
            "nama_se": "INSPIDOK",
            "sektor": "Sektor Perdagangan",
            "tanggal_terbit": "2024-07-29",
            "url_tdpse_detail": "https://pse.komdigi.go.id/tdpse-detail/19668",
            "website": "inspidok.com"
        },
        {
            "id": "9cb1ac5f-23b1-41b3-a388-968166752e79",
            "nama_pse": "HAMZAH",
            "nama_se": "LAYANAN INTERNET LOKAL",
            "sektor": "Sektor Teknologi Informasi dan Komunikasi",
            "tanggal_terbit": "2024-07-29",
            "url_tdpse_detail": "https://pse.komdigi.go.id/tdpse-detail/19669",
            "website": "-"
        },
        {
            "id": "9cb1ac74-76a9-4736-8d88-29392002e833",
            "nama_pse": "HAPPY LAB INDONESIA",
            "nama_se": "MAX NOVEL",
            "sektor": "Sektor Teknologi Informasi dan Komunikasi",
            "tanggal_terbit": "2024-07-29",
            "url_tdpse_detail": "https://pse.komdigi.go.id/tdpse-detail/19662",
            "website": "maxnovel.co.id"
        },
        {
            "id": "9cb1ac8a-f030-412a-a511-d768abc4ae78",
            "nama_pse": "NANO PAYMENT MEDIA",
            "nama_se": "NANO SERPUL",
            "sektor": "Sektor Perdagangan, Sektor Teknologi Informasi dan Komunikasi",
            "tanggal_terbit": "2024-07-28",
            "url_tdpse_detail": "https://pse.komdigi.go.id/tdpse-detail/19645",
            "website": "nanoserpul.com"
        },
        {
            "id": "9cb1ac8a-e728-441d-861e-c45f3325cf0c",
            "nama_pse": "MUHAMMAD MIFTAH",
            "nama_se": "PORCAGAMES",
            "sektor": "Sektor Teknologi Informasi dan Komunikasi",
            "tanggal_terbit": "2024-07-27",
            "url_tdpse_detail": "https://pse.komdigi.go.id/tdpse-detail/19643",
            "website": "porcagames.id"
        },
        {
            "id": "9cb1ac8a-e3bc-4984-9c6a-da48d496059b",
            "nama_pse": "CENDANA TEKNIKA UTAMA",
            "nama_se": "SIDONI SISTEM INFORMASI DONOR DARAH INDONESIA",
            "sektor": "Sektor Kesehatan, Sektor Teknologi Informasi dan Komunikasi",
            "tanggal_terbit": "2024-07-27",
            "url_tdpse_detail": "https://pse.komdigi.go.id/tdpse-detail/19637",
            "website": "sidoni.xyz"
        },
        {
            "id": "9cb1ac74-47a4-4afc-8e72-02615465a968",
            "nama_pse": "MARHANI DIGITAL INDONESIA",
            "nama_se": "SIP MIMIKA (SISTEM INFORMASI PUSKESMAS MIMIKA)",
            "sektor": "Sektor Kesehatan",
            "tanggal_terbit": "2024-07-27",
            "url_tdpse_detail": "https://pse.komdigi.go.id/tdpse-detail/19642",
            "website": "pkmmimika.com"
        },
        {
            "id": "9cb1ac8a-ebfa-4fc9-ad92-92993f9be157",
            "nama_pse": "FERDY RAHMAT",
            "nama_se": "SOBATX.ID",
            "sektor": "Sektor Perdagangan, Sektor Teknologi Informasi dan Komunikasi",
            "tanggal_terbit": "2024-07-27",
            "url_tdpse_detail": "https://pse.komdigi.go.id/tdpse-detail/19644",
            "website": "sobatx.id"
        },
        {
            "id": "9cb1ac8a-dfd4-431f-9de1-3825e75e836f",
            "nama_pse": "SANDY IRAWAN",
            "nama_se": "SIMKLINIK MERDEKA",
            "sektor": "Sektor Kesehatan",
            "tanggal_terbit": "2024-07-27",
            "url_tdpse_detail": "https://pse.komdigi.go.id/tdpse-detail/19638",
            "website": "-"
        },
        {
            "id": "9cb1ac81-f44a-49a3-ba38-11e2d9ddbcac",
            "nama_pse": "MEGATAMA ADIKARYA",
            "nama_se": "OCCHEALTH",
            "sektor": "Sektor Kesehatan",
            "tanggal_terbit": "2024-07-27",
            "url_tdpse_detail": "https://pse.komdigi.go.id/tdpse-detail/19641",
            "website": "main.indomedika.co.id"
        },
        {
            "id": "9cb1ac5e-f7ea-489a-bd55-630d543d6020",
            "nama_pse": "MTLINK TRANS MEDIA",
            "nama_se": "MTLINK INDONESIA",
            "sektor": "Sektor Perdagangan",
            "tanggal_terbit": "2024-07-27",
            "url_tdpse_detail": "https://pse.komdigi.go.id/tdpse-detail/19639",
            "website": "mtlinkindonesia.com"
        },
        {
            "id": "9cb1ac6f-83ca-4ba5-84f2-ef676f1b13bd",
            "nama_pse": "DOCTORX KREASI INDONESIA",
            "nama_se": "DERMATECH",
            "sektor": "Sektor Kesehatan, Sektor Teknologi Informasi dan Komunikasi",
            "tanggal_terbit": "2024-07-27",
            "url_tdpse_detail": "https://pse.komdigi.go.id/tdpse-detail/19640",
            "website": "dermatech.id"
        },
        {
            "id": "9cb1ac5e-db46-495d-bb4c-55940badc27f",
            "nama_pse": "KLINIK NISA",
            "nama_se": "REKAM MEDIS ELEKTRONIK",
            "sektor": "Sektor Kesehatan",
            "tanggal_terbit": "2024-07-26",
            "url_tdpse_detail": "https://pse.komdigi.go.id/tdpse-detail/19626",
            "website": "-"
        },
        {
            "id": "9cb1ac8a-bba5-472c-8688-b7dcbd65c0f9",
            "nama_pse": "TRANS LINK INTERNASIONAL",
            "nama_se": "PT.TRANS LINK INTERNASIONAL",
            "sektor": "Sektor Teknologi Informasi dan Komunikasi",
            "tanggal_terbit": "2024-07-26",
            "url_tdpse_detail": "https://pse.komdigi.go.id/tdpse-detail/19621",
            "website": "wwww.translinkinternasional.com"
        },
        {
            "id": "9cb1ac5e-ed2a-4dff-a565-aba1da9d4f6f",
            "nama_pse": "ANDRIANSYAH",
            "nama_se": "WILDJORDANCAFE",
            "sektor": "Sektor Perdagangan",
            "tanggal_terbit": "2024-07-26",
            "url_tdpse_detail": "https://pse.komdigi.go.id/tdpse-detail/19620",
            "website": "wildjordancafe.com"
        },
        {
            "id": "9cb1ac8a-cc71-4471-aea0-adb523460b2d",
            "nama_pse": "VEINSTORE DIGITAL TEKNOLOGI",
            "nama_se": "VEINSTORE",
            "sektor": "Sektor Perdagangan, Sektor Teknologi Informasi dan Komunikasi",
            "tanggal_terbit": "2024-07-26",
            "url_tdpse_detail": "https://pse.komdigi.go.id/tdpse-detail/19627",
            "website": "veinstore.id"
        },
        {
            "id": "9cb1ac74-3931-4154-bdc1-a7b593d1c2aa",
            "nama_pse": "ADI EKA AMAN",
            "nama_se": "AEAMEDCLINIC",
            "sektor": "Sektor Kesehatan",
            "tanggal_terbit": "2024-07-26",
            "url_tdpse_detail": "https://pse.komdigi.go.id/tdpse-detail/19622",
            "website": "-"
        },
        {
            "id": "9cb1ac5e-efc9-4e33-8254-5782d06f8918",
            "nama_pse": "TUKAR PULSA INDONESIA",
            "nama_se": "TUKAR PULSA",
            "sektor": "Sektor Perdagangan, Sektor Teknologi Informasi dan Komunikasi",
            "tanggal_terbit": "2024-07-26",
            "url_tdpse_detail": "https://pse.komdigi.go.id/tdpse-detail/19623",
            "website": "tukarpulsa.co.id"
        },
        {
            "id": "9cb1ac5e-f262-4761-8adc-44ec8cd5354b",
            "nama_pse": "INDONESIA PAYMENT INCORPORATED",
            "nama_se": "BUKU KOPERASI - BUKO",
            "sektor": "Sektor Teknologi Informasi dan Komunikasi",
            "tanggal_terbit": "2024-07-26",
            "url_tdpse_detail": "https://pse.komdigi.go.id/tdpse-detail/19625",
            "website": "bukukoperasi.id"
        },
        {
            "id": "9cb1ac8a-d3f5-42f6-a185-f186a7e34b80",
            "nama_pse": "INDONESIA PAYMENT INCORPORATED",
            "nama_se": "COOPKASIR",
            "sektor": "Sektor Teknologi Informasi dan Komunikasi",
            "tanggal_terbit": "2024-07-26",
            "url_tdpse_detail": "https://pse.komdigi.go.id/tdpse-detail/19632",
            "website": "payment-inc.co.id"
        }
    ],
    "processingTimeMs": 3,
    "query": "",
    "totalHits": 19121,
    "hitsPerPage": 50,
    "page": 53,
    "totalPages": 383
}