{
    "hits": [
        {
            "id": "9cb1ab7f-a9a6-46ec-85e6-a33c84f8cc2d",
            "nama_pse": "KODINGLAB INTEGRASI INDONESIA",
            "nama_se": "CODINGLAB",
            "sektor": "Sektor Perdagangan, Sektor Perdagangan, Sektor Teknologi Informasi dan Komunikasi, Sektor Teknologi Informasi dan Komunikasi",
            "tanggal_terbit": "2021-11-19",
            "url_tdpse_detail": "https://pse.komdigi.go.id/tdpse-detail/2415",
            "website": "codinglab.id"
        },
        {
            "id": "9cb1ab8d-b834-4c09-aae1-a2389265b841",
            "nama_pse": "TRUSTING SOCIAL INDONESIA",
            "nama_se": "TELCO CREDIT SCORE",
            "sektor": "Sektor Teknologi Informasi dan Komunikasi, Sektor Teknologi Informasi dan Komunikasi",
            "tanggal_terbit": "2021-11-19",
            "url_tdpse_detail": "https://pse.komdigi.go.id/tdpse-detail/2409",
            "website": "-"
        },
        {
            "id": "9cb1ab9f-004c-4163-b3ad-49b205eb6ecb",
            "nama_pse": "BANGUN PERCAYA SOSIAL",
            "nama_se": "BPS",
            "sektor": "Sektor Teknologi Informasi dan Komunikasi, Sektor Teknologi Informasi dan Komunikasi, Sektor Teknologi Informasi dan Komunikasi",
            "tanggal_terbit": "2021-11-19",
            "url_tdpse_detail": "https://pse.komdigi.go.id/tdpse-detail/2373",
            "website": "bpsdata.com"
        },
        {
            "id": "9cb1ab91-e4d2-4cd0-bd42-78b271b2c31a",
            "nama_pse": "MITRA TELINDO NUSANTARA",
            "nama_se": "HAPPYDIGITAL.ID",
            "sektor": "Sektor Perdagangan",
            "tanggal_terbit": "2021-11-19",
            "url_tdpse_detail": "https://pse.komdigi.go.id/tdpse-detail/2406",
            "website": "happydigital.id"
        },
        {
            "id": "9cb1ab65-fb35-4a10-af9f-701ec88122e3",
            "nama_pse": "SHARP TRADING INDONESIA",
            "nama_se": "COCORO LIFE",
            "sektor": "Sektor Perdagangan, Sektor Perdagangan",
            "tanggal_terbit": "2021-11-18",
            "url_tdpse_detail": "https://pse.komdigi.go.id/tdpse-detail/2401",
            "website": "cocorolife.id"
        },
        {
            "id": "9cb1ab76-fa78-4217-84ba-2f91e277af6d",
            "nama_pse": "DATAMAX TEKNOLOGI INTERNASIONAL",
            "nama_se": "DATAMAX TEKNOLOGI INTERNASIONAL",
            "sektor": "Sektor Perdagangan, Sektor Perdagangan, Sektor Perdagangan",
            "tanggal_terbit": "2021-11-18",
            "url_tdpse_detail": "https://pse.komdigi.go.id/tdpse-detail/2403",
            "website": "pasarin.id"
        },
        {
            "id": "9cb1ab77-cc94-47f4-a0e9-54a82578cb3f",
            "nama_pse": "SOLUSI PROPERTI HALAL",
            "nama_se": "DEGRIYA APPS",
            "sektor": "Sektor Perdagangan, Sektor Perdagangan, Sektor Teknologi Informasi dan Komunikasi, Sektor Teknologi Informasi dan Komunikasi",
            "tanggal_terbit": "2021-11-18",
            "url_tdpse_detail": "https://pse.komdigi.go.id/tdpse-detail/2400",
            "website": "degriya.com"
        },
        {
            "id": "9cb1ab77-d073-47af-803c-c452cf61e90b",
            "nama_pse": "ULTIMATE GENIUS TECHNOLOGY",
            "nama_se": "WWW.GENITECH.CO.ID",
            "sektor": "Sektor Perdagangan, Sektor Perdagangan, Sektor Teknologi Informasi dan Komunikasi, Sektor Teknologi Informasi dan Komunikasi",
            "tanggal_terbit": "2021-11-18",
            "url_tdpse_detail": "https://pse.komdigi.go.id/tdpse-detail/2402",
            "website": "genitech.co.id"
        },
        {
            "id": "9cb1ab77-d44a-4af4-a21d-303d66faa31a",
            "nama_pse": "SUKU CADANG OTO SEJAHTERA",
            "nama_se": "TOKOPARTS.COM",
            "sektor": "Sektor Teknologi Informasi dan Komunikasi, Sektor Teknologi Informasi dan Komunikasi",
            "tanggal_terbit": "2021-11-18",
            "url_tdpse_detail": "https://pse.komdigi.go.id/tdpse-detail/2404",
            "website": "tokoparts.com"
        },
        {
            "id": "9cb1ab63-0848-4f7d-85d0-99ea9e73da47",
            "nama_pse": "CIRCLEKA INDONESIA UTAMA",
            "nama_se": "CIRCLE K SHOPPING",
            "sektor": "Sektor Perdagangan, Sektor Perdagangan",
            "tanggal_terbit": "2021-11-17",
            "url_tdpse_detail": "https://pse.komdigi.go.id/tdpse-detail/2394",
            "website": "-"
        },
        {
            "id": "9cb1ab63-18de-4719-93dd-4e5e906e6245",
            "nama_pse": "INTER KREASI ADHITAMA",
            "nama_se": "INTER KREASI ADHITAMA",
            "sektor": "Sektor Perdagangan, Sektor Perdagangan",
            "tanggal_terbit": "2021-11-17",
            "url_tdpse_detail": "https://pse.komdigi.go.id/tdpse-detail/2398",
            "website": "veroty.co.id"
        },
        {
            "id": "9cb1ab71-8d2d-44ea-94ed-e829dd6bf339",
            "nama_pse": "FURNI KARYA MANDIRI",
            "nama_se": "FURNI KARYA MANDIRI",
            "sektor": "Sektor Perdagangan, Sektor Perdagangan, Sektor Perdagangan, Sektor Teknologi Informasi dan Komunikasi, Sektor Teknologi Informasi dan Komunikasi, Sektor Teknologi Informasi dan Komunikasi",
            "tanggal_terbit": "2021-11-17",
            "url_tdpse_detail": "https://pse.komdigi.go.id/tdpse-detail/2396",
            "website": "clarity.id"
        },
        {
            "id": "9cb1ab70-0e76-4bd4-ac9c-b6955edd41b0",
            "nama_pse": "AUTOPEDIA SUKSES LESTARI",
            "nama_se": "CARTALOG.ID",
            "sektor": "Sektor Perdagangan, Sektor Perdagangan, Sektor Perdagangan",
            "tanggal_terbit": "2021-11-17",
            "url_tdpse_detail": "https://pse.komdigi.go.id/tdpse-detail/2395",
            "website": "cartalog.id"
        },
        {
            "id": "9cb1ab77-5f6c-4723-8e24-6f9bf3b9f5cb",
            "nama_pse": "MERAKYAT MENTAL MILIONER",
            "nama_se": "MEMEMI",
            "sektor": "Sektor Teknologi Informasi dan Komunikasi, Sektor Teknologi Informasi dan Komunikasi",
            "tanggal_terbit": "2021-11-17",
            "url_tdpse_detail": "https://pse.komdigi.go.id/tdpse-detail/2399",
            "website": "mememi.co.id"
        },
        {
            "id": "9cb1ab7f-7f50-481e-880c-91e04dc2617e",
            "nama_pse": "METAVERSE INDO JAYA",
            "nama_se": "PT. METAVERSE INDO JAYA",
            "sektor": "Sektor Teknologi Informasi dan Komunikasi, Sektor Teknologi Informasi dan Komunikasi",
            "tanggal_terbit": "2021-11-17",
            "url_tdpse_detail": "https://pse.komdigi.go.id/tdpse-detail/2392",
            "website": "cindrum.com"
        },
        {
            "id": "9cb1ab7f-88d0-4f24-8e2e-32e631f42146",
            "nama_pse": "ANDHIRA DIGITAL MANDIRI",
            "nama_se": "KASKITA",
            "sektor": "Sektor Perdagangan, Sektor Perdagangan, Sektor Teknologi Informasi dan Komunikasi, Sektor Teknologi Informasi dan Komunikasi",
            "tanggal_terbit": "2021-11-17",
            "url_tdpse_detail": "https://pse.komdigi.go.id/tdpse-detail/2393",
            "website": "kaskita.id"
        },
        {
            "id": "9cb1ab7d-aee0-4193-bece-7cc6d6a4cf59",
            "nama_pse": "HYUNDAI MOTORS INDONESIA",
            "nama_se": "MYHYUNDAI INDONESIA",
            "sektor": "Sektor Teknologi Informasi dan Komunikasi, Sektor Teknologi Informasi dan Komunikasi, Sektor Teknologi Informasi dan Komunikasi",
            "tanggal_terbit": "2021-11-17",
            "url_tdpse_detail": "https://pse.komdigi.go.id/tdpse-detail/2397",
            "website": "hyundai.com"
        },
        {
            "id": "9cb1ab66-8e7d-461c-8794-5ddc9a8a2f4c",
            "nama_pse": "PERUSAHAAN PERSEROAN (PERSERO) BANK NEGARA INDONESIA",
            "nama_se": "XPORA",
            "sektor": "Sektor Keuangan, Sektor Keuangan",
            "tanggal_terbit": "2021-11-16",
            "url_tdpse_detail": "https://pse.komdigi.go.id/tdpse-detail/2391",
            "website": "xpora.bni.co.id"
        },
        {
            "id": "9cb1ab69-4c71-4d59-9d14-cd37380ad54b",
            "nama_pse": "PELOPOR TEKNOLOGI INDONESIA",
            "nama_se": "TRIUMPH",
            "sektor": "Sektor Perdagangan, Sektor Perdagangan, Sektor Perdagangan",
            "tanggal_terbit": "2021-11-16",
            "url_tdpse_detail": "https://pse.komdigi.go.id/tdpse-detail/2382",
            "website": "-"
        },
        {
            "id": "9cb1ab76-b3a5-4b1e-b3f9-3fff2a810c9a",
            "nama_pse": "FLASH EXPRESS INDONESIA",
            "nama_se": "FLASH EXPRESS",
            "sektor": "Sektor Transportasi, Sektor Transportasi",
            "tanggal_terbit": "2021-11-16",
            "url_tdpse_detail": "https://pse.komdigi.go.id/tdpse-detail/2388",
            "website": "flashexpress.id"
        },
        {
            "id": "9cb1ab77-70de-48f1-bdd5-c417dcd628ba",
            "nama_pse": "TUNAS WIJAYA LAKSANA",
            "nama_se": "TWONLINE",
            "sektor": "Sektor Perdagangan, Sektor Perdagangan",
            "tanggal_terbit": "2021-11-16",
            "url_tdpse_detail": "https://pse.komdigi.go.id/tdpse-detail/2387",
            "website": "twonline.co.id"
        },
        {
            "id": "9cb1ab77-a61b-495b-8eb0-de94e3e4fb12",
            "nama_pse": "KODECUT DIGITAL MEDIA",
            "nama_se": "KODECUT",
            "sektor": "Sektor Perdagangan, Sektor Perdagangan",
            "tanggal_terbit": "2021-11-16",
            "url_tdpse_detail": "https://pse.komdigi.go.id/tdpse-detail/2386",
            "website": "app.kodecut.com"
        },
        {
            "id": "9cb1ab77-a8a6-4793-a03b-1f9450a7ffba",
            "nama_pse": "ALDRIANSYAH PUTRA",
            "nama_se": "SKETSKETCH",
            "sektor": "Sektor Perdagangan, Sektor Perdagangan",
            "tanggal_terbit": "2021-11-16",
            "url_tdpse_detail": "https://pse.komdigi.go.id/tdpse-detail/2385",
            "website": "sketsketch.com"
        },
        {
            "id": "9cb1ab7f-8270-4afe-be2a-bd9877195d02",
            "nama_pse": "REAL ESTATE ANALYTICS INDONESIA",
            "nama_se": "8PROP",
            "sektor": "Sektor Teknologi Informasi dan Komunikasi, Sektor Teknologi Informasi dan Komunikasi",
            "tanggal_terbit": "2021-11-16",
            "url_tdpse_detail": "https://pse.komdigi.go.id/tdpse-detail/2384",
            "website": "rea-id.com"
        },
        {
            "id": "9cb1ab76-f7da-4e21-914d-1bf158fff23a",
            "nama_pse": "NAWANUSA MEDIKA TEKNOLOGI",
            "nama_se": "NAWANUSA",
            "sektor": "Sektor Kesehatan, Sektor Kesehatan, Sektor Kesehatan, Sektor Teknologi Informasi dan Komunikasi, Sektor Teknologi Informasi dan Komunikasi, Sektor Teknologi Informasi dan Komunikasi",
            "tanggal_terbit": "2021-11-16",
            "url_tdpse_detail": "https://pse.komdigi.go.id/tdpse-detail/2389",
            "website": "traveloka.co.id"
        },
        {
            "id": "9cb1ab91-b011-4589-9c63-c945ae7e7858",
            "nama_pse": "HORIZON INTERNUSA PERSADA",
            "nama_se": "TRAVELIO",
            "sektor": "Sektor Perdagangan, Sektor Perdagangan",
            "tanggal_terbit": "2021-11-16",
            "url_tdpse_detail": "https://pse.komdigi.go.id/tdpse-detail/2383",
            "website": "Travelio.com"
        },
        {
            "id": "9cb1ab92-404e-4676-858a-14eef84b555e",
            "nama_pse": "PERUSAHAAN PERSEROAN (PERSERO) PT. BANK MANDIRI",
            "nama_se": "LIVIN' 2.0 BY MANDIRI",
            "sektor": "Sektor Keuangan, Sektor Keuangan, Sektor Keuangan, Sektor Keuangan, Sektor Keuangan, Sektor Keuangan, Sektor Keuangan, Sektor Keuangan, Sektor Keuangan, Sektor Keuangan, Sektor Keuangan, Sektor Keuangan",
            "tanggal_terbit": "2021-11-16",
            "url_tdpse_detail": "https://pse.komdigi.go.id/tdpse-detail/2390",
            "website": "-"
        },
        {
            "id": "9cb1ab61-cfd6-4af8-bfc5-2344a8e0d307",
            "nama_pse": "DIGITAL KUANTUM TEKNOLOGI",
            "nama_se": "CASHCASHPRO",
            "sektor": "Sektor Keuangan, Sektor Keuangan",
            "tanggal_terbit": "2021-11-15",
            "url_tdpse_detail": "https://pse.komdigi.go.id/tdpse-detail/2380",
            "website": "cashcashpro.id"
        },
        {
            "id": "9cb1ab71-6eb4-4e6f-83a2-b0a37d5abea5",
            "nama_pse": "INTER KREASI ADHITAMA",
            "nama_se": "PT. INTER KREASI ADHITAMA",
            "sektor": "Sektor Perdagangan, Sektor Perdagangan, Sektor Teknologi Informasi dan Komunikasi, Sektor Teknologi Informasi dan Komunikasi",
            "tanggal_terbit": "2021-11-15",
            "url_tdpse_detail": "https://pse.komdigi.go.id/tdpse-detail/2379",
            "website": "veroty.co.id"
        },
        {
            "id": "9cb1ab7f-7889-4bf4-ae72-1bb136aef3d5",
            "nama_pse": "IMPACT CREDIT SOLUTIONS",
            "nama_se": "NIKEL PLATFORM",
            "sektor": "Sektor Teknologi Informasi dan Komunikasi, Sektor Teknologi Informasi dan Komunikasi",
            "tanggal_terbit": "2021-11-15",
            "url_tdpse_detail": "https://pse.komdigi.go.id/tdpse-detail/2381",
            "website": "-"
        },
        {
            "id": "9cb1ab77-ba53-401f-a429-4e70099bb644",
            "nama_pse": "ACER INDONESIA",
            "nama_se": "ACER E-STORE",
            "sektor": "Sektor Perdagangan, Sektor Perdagangan",
            "tanggal_terbit": "2021-11-15",
            "url_tdpse_detail": "https://pse.komdigi.go.id/tdpse-detail/2378",
            "website": "store.acer.com"
        },
        {
            "id": "9cb1ab8e-0843-4705-b1db-c04eb05d0d35",
            "nama_pse": "TRUST SEKURITAS",
            "nama_se": "PINA",
            "sektor": "Sektor Keuangan, Sektor Keuangan",
            "tanggal_terbit": "2021-11-15",
            "url_tdpse_detail": "https://pse.komdigi.go.id/tdpse-detail/2374",
            "website": "pina.id"
        },
        {
            "id": "9cb1ab93-9fc7-418d-97c2-acd896a206cc",
            "nama_pse": "DIRI ARTHA SEHAT",
            "nama_se": "DIRI",
            "sektor": "Sektor Kesehatan",
            "tanggal_terbit": "2021-11-15",
            "url_tdpse_detail": "https://pse.komdigi.go.id/tdpse-detail/6135",
            "website": "Diricare.com"
        },
        {
            "id": "9cb1ab94-f1e1-461e-897f-2cc7c111b73c",
            "nama_pse": "NCPLUS SOLUSI RAPTAMA",
            "nama_se": "NC FINANSIAL SUCCESS",
            "sektor": "Sektor Perdagangan",
            "tanggal_terbit": "2021-11-15",
            "url_tdpse_detail": "https://pse.komdigi.go.id/tdpse-detail/2375",
            "website": "-"
        },
        {
            "id": "9cb1ab65-1892-4a10-aac4-bd29788012ca",
            "nama_pse": "LIHUM",
            "nama_se": "LIHUM JASA PENGGANDAAN",
            "sektor": "Sektor Perdagangan, Sektor Perdagangan, Sektor Teknologi Informasi dan Komunikasi, Sektor Teknologi Informasi dan Komunikasi",
            "tanggal_terbit": "2021-11-08",
            "url_tdpse_detail": "https://pse.komdigi.go.id/tdpse-detail/2279",
            "website": "lihum.web.id"
        },
        {
            "id": "9cb1ab65-e74d-4784-905c-339f3edc812d",
            "nama_pse": "ASURANSI FPG INDONESIA",
            "nama_se": "FPG MOBILE APPS",
            "sektor": "Sektor Keuangan, Sektor Keuangan",
            "tanggal_terbit": "2021-11-08",
            "url_tdpse_detail": "https://pse.komdigi.go.id/tdpse-detail/2312",
            "website": "-"
        },
        {
            "id": "9cb1ab6c-1e78-497a-99da-1c94ab1c6f33",
            "nama_pse": "BUSSAN AUTO FINANCE",
            "nama_se": "BUSSAN AUTO FINANCE (BAF) SANDIA",
            "sektor": "Sektor Keuangan, Sektor Keuangan",
            "tanggal_terbit": "2021-11-08",
            "url_tdpse_detail": "https://pse.komdigi.go.id/tdpse-detail/2349",
            "website": "sandia.baf.id"
        },
        {
            "id": "9cb1ab6c-ca81-434a-b79d-8fd07e5cebe9",
            "nama_pse": "BANK BNP PARIBAS INDONESIA",
            "nama_se": "CONNEXIS DIRECT M-BANKING",
            "sektor": "Sektor Keuangan, Sektor Keuangan, Sektor Keuangan",
            "tanggal_terbit": "2021-11-08",
            "url_tdpse_detail": "https://pse.komdigi.go.id/tdpse-detail/2323",
            "website": "-"
        },
        {
            "id": "9cb1ab75-7e24-482b-99f5-2f14ce3a57b1",
            "nama_pse": "PERUSAHAAN PERSEROAN (PERSERO) PT. TELEKOMUNIKASI INDONESIA",
            "nama_se": "AGREE",
            "sektor": "Sektor Teknologi Informasi dan Komunikasi, Sektor Teknologi Informasi dan Komunikasi, Sektor Teknologi Informasi dan Komunikasi, Sektor Teknologi Informasi dan Komunikasi, Sektor Pangan, Sektor Pangan, Sektor Pangan, Sektor Pangan",
            "tanggal_terbit": "2021-11-08",
            "url_tdpse_detail": "https://pse.komdigi.go.id/tdpse-detail/2324",
            "website": "agreeculture.id"
        },
        {
            "id": "9cb1ab75-8064-41a7-a706-9789e56ea214",
            "nama_pse": "PERUSAHAAN PERSEROAN (PERSERO) PT. TELEKOMUNIKASI INDONESIA",
            "nama_se": "ECOLOGEE",
            "sektor": "Sektor Transportasi, Sektor Transportasi, Sektor Transportasi, Sektor Transportasi, Sektor Teknologi Informasi dan Komunikasi, Sektor Teknologi Informasi dan Komunikasi, Sektor Teknologi Informasi dan Komunikasi, Sektor Teknologi Informasi dan Komunikasi",
            "tanggal_terbit": "2021-11-08",
            "url_tdpse_detail": "https://pse.komdigi.go.id/tdpse-detail/2325",
            "website": "ecologee.id"
        },
        {
            "id": "9cb1ab68-ee94-4028-813a-cf79ce055054",
            "nama_pse": "PERUSAHAAN PERSEROAN (PERSERO) PT. TELEKOMUNIKASI INDONESIA",
            "nama_se": "LOGEETRANS",
            "sektor": "Sektor Transportasi, Sektor Transportasi, Sektor Transportasi, Sektor Transportasi, Sektor Teknologi Informasi dan Komunikasi, Sektor Teknologi Informasi dan Komunikasi, Sektor Teknologi Informasi dan Komunikasi, Sektor Teknologi Informasi dan Komunikasi",
            "tanggal_terbit": "2021-11-08",
            "url_tdpse_detail": "https://pse.komdigi.go.id/tdpse-detail/2326",
            "website": "logeetrans.com"
        },
        {
            "id": "9cb1ab68-f334-4f15-ae32-7641a353ade9",
            "nama_pse": "PERUSAHAAN PERSEROAN (PERSERO) PT. TELEKOMUNIKASI INDONESIA",
            "nama_se": "NETMONK",
            "sektor": "Sektor Teknologi Informasi dan Komunikasi, Sektor Teknologi Informasi dan Komunikasi, Sektor Teknologi Informasi dan Komunikasi, Sektor Teknologi Informasi dan Komunikasi",
            "tanggal_terbit": "2021-11-08",
            "url_tdpse_detail": "https://pse.komdigi.go.id/tdpse-detail/2327",
            "website": "netmonk.id"
        },
        {
            "id": "9cb1ab75-82d4-43f6-9599-9e9279e50f40",
            "nama_pse": "PERUSAHAAN PERSEROAN (PERSERO) PT. TELEKOMUNIKASI INDONESIA",
            "nama_se": "OCA",
            "sektor": "Sektor Teknologi Informasi dan Komunikasi, Sektor Teknologi Informasi dan Komunikasi, Sektor Teknologi Informasi dan Komunikasi, Sektor Teknologi Informasi dan Komunikasi",
            "tanggal_terbit": "2021-11-08",
            "url_tdpse_detail": "https://pse.komdigi.go.id/tdpse-detail/2328",
            "website": "ocaindonesia.co.id"
        },
        {
            "id": "9cb1ab75-86c8-4131-bc12-04b65b13b48d",
            "nama_pse": "PERUSAHAAN PERSEROAN (PERSERO) PT. TELEKOMUNIKASI INDONESIA",
            "nama_se": "PIJAR MAHIR",
            "sektor": "Sektor Perdagangan, Sektor Perdagangan, Sektor Perdagangan, Sektor Perdagangan, Sektor Teknologi Informasi dan Komunikasi, Sektor Teknologi Informasi dan Komunikasi, Sektor Teknologi Informasi dan Komunikasi, Sektor Teknologi Informasi dan Komunikasi",
            "tanggal_terbit": "2021-11-08",
            "url_tdpse_detail": "https://pse.komdigi.go.id/tdpse-detail/2331",
            "website": "pijarmahir.id"
        },
        {
            "id": "9cb1ab75-8ef6-44dc-8f06-00419b729a09",
            "nama_pse": "PERUSAHAAN PERSEROAN (PERSERO) PT. TELEKOMUNIKASI INDONESIA",
            "nama_se": "TOMPS",
            "sektor": "Sektor Teknologi Informasi dan Komunikasi, Sektor Teknologi Informasi dan Komunikasi, Sektor Teknologi Informasi dan Komunikasi, Sektor Teknologi Informasi dan Komunikasi",
            "tanggal_terbit": "2021-11-08",
            "url_tdpse_detail": "https://pse.komdigi.go.id/tdpse-detail/2332",
            "website": "tomps.id"
        },
        {
            "id": "9cb1ab6f-9704-4f46-9b46-93c7f72271ab",
            "nama_pse": "PERUSAHAAN PERSEROAN (PERSERO) PT. TELEKOMUNIKASI INDONESIA",
            "nama_se": "UMEETME",
            "sektor": "Sektor Teknologi Informasi dan Komunikasi, Sektor Teknologi Informasi dan Komunikasi, Sektor Teknologi Informasi dan Komunikasi, Sektor Teknologi Informasi dan Komunikasi",
            "tanggal_terbit": "2021-11-08",
            "url_tdpse_detail": "https://pse.komdigi.go.id/tdpse-detail/2333",
            "website": "umeetme.id/about"
        },
        {
            "id": "9cb1ab6f-ba32-4464-8c6e-689af7475a05",
            "nama_pse": "SENTRALWATCH PERKASA INTERNASIONAL",
            "nama_se": "URBAN ICON INDONESIA",
            "sektor": "Sektor Perdagangan, Sektor Perdagangan, Sektor Perdagangan",
            "tanggal_terbit": "2021-11-08",
            "url_tdpse_detail": "https://pse.komdigi.go.id/tdpse-detail/2286",
            "website": "https:/www.urbanicon.co.id/"
        },
        {
            "id": "9cb1ab6f-f79e-4757-8e6a-a51eb8f2c7dd",
            "nama_pse": "HAGO KREATIF INDONESIA",
            "nama_se": "HAGO",
            "sektor": "Sektor Teknologi Informasi dan Komunikasi, Sektor Teknologi Informasi dan Komunikasi, Sektor Teknologi Informasi dan Komunikasi, Sektor Teknologi Informasi dan Komunikasi",
            "tanggal_terbit": "2021-11-08",
            "url_tdpse_detail": "https://pse.komdigi.go.id/tdpse-detail/2320",
            "website": "ihago.net"
        },
        {
            "id": "9cb1ab76-378d-438f-ad86-86ec6bdb866f",
            "nama_pse": "KIOSON KOMERSIAL INDONESIA",
            "nama_se": "KIOSON",
            "sektor": "Sektor Perdagangan, Sektor Perdagangan, Sektor Perdagangan, Sektor Teknologi Informasi dan Komunikasi, Sektor Teknologi Informasi dan Komunikasi, Sektor Teknologi Informasi dan Komunikasi",
            "tanggal_terbit": "2021-11-08",
            "url_tdpse_detail": "https://pse.komdigi.go.id/tdpse-detail/2354",
            "website": "kioson.com"
        },
        {
            "id": "9cb1ab76-62e9-43b2-86c0-f53eef1a1437",
            "nama_pse": "KANMO RETAILINDO",
            "nama_se": "HAVAIANAS WEB",
            "sektor": "Sektor Perdagangan, Sektor Perdagangan, Sektor Perdagangan",
            "tanggal_terbit": "2021-11-08",
            "url_tdpse_detail": "https://pse.komdigi.go.id/tdpse-detail/2355",
            "website": "havaianas.co.id"
        }
    ],
    "processingTimeMs": 34,
    "query": "",
    "totalHits": 19131,
    "hitsPerPage": 50,
    "page": 338,
    "totalPages": 383
}