{
    "hits": [
        {
            "id": "9cb1ac59-e52c-4619-a2ec-3859ad5251d6",
            "nama_pse": "RAYA KUTA",
            "nama_se": "ERMKRK",
            "sektor": "Sektor Kesehatan, Sektor Teknologi Informasi dan Komunikasi",
            "tanggal_terbit": "2024-04-20",
            "url_tdpse_detail": "https://pse.komdigi.go.id/tdpse-detail/18661",
            "website": "ermkrk.com"
        },
        {
            "id": "9cb1ac82-8316-4c47-9d63-bcef2fca451d",
            "nama_pse": "DARI HATI JAYA",
            "nama_se": "MEDISOLVE",
            "sektor": "Sektor Teknologi Informasi dan Komunikasi",
            "tanggal_terbit": "2024-04-19",
            "url_tdpse_detail": "https://pse.komdigi.go.id/tdpse-detail/18655",
            "website": "medisolve.id"
        },
        {
            "id": "9cb1ac83-6d31-46a4-8bb1-85cee898f627",
            "nama_pse": "EFRIZAL",
            "nama_se": "SIMRS",
            "sektor": "Sektor Kesehatan",
            "tanggal_terbit": "2024-04-19",
            "url_tdpse_detail": "https://pse.komdigi.go.id/tdpse-detail/18650",
            "website": "-"
        },
        {
            "id": "9cb1ac83-93d3-46b4-966f-bf23ee762986",
            "nama_pse": "SISTEM INFORMASI TRANSPORTASI OTOMATIS",
            "nama_se": "TAXSEE DRIVER",
            "sektor": "Sektor Perdagangan, Sektor Transportasi, Sektor Teknologi Informasi dan Komunikasi",
            "tanggal_terbit": "2024-04-19",
            "url_tdpse_detail": "https://pse.komdigi.go.id/tdpse-detail/18647",
            "website": "sito.id"
        },
        {
            "id": "9cb1ac6e-91ba-4f52-b1db-ba7b67f05c27",
            "nama_pse": "SSR DIGITAL INFORMATIKA",
            "nama_se": "RADBOOX",
            "sektor": "Sektor Teknologi Informasi dan Komunikasi",
            "tanggal_terbit": "2024-04-19",
            "url_tdpse_detail": "https://pse.komdigi.go.id/tdpse-detail/18646",
            "website": "radboox.com"
        },
        {
            "id": "9cb1ac83-90a7-405a-8e18-dd1af2a2189a",
            "nama_pse": "FAZZ CAPITAL FINANCE",
            "nama_se": "FAZZ CAPITAL FINANCE",
            "sektor": "Sektor Teknologi Informasi dan Komunikasi",
            "tanggal_terbit": "2024-04-19",
            "url_tdpse_detail": "https://pse.komdigi.go.id/tdpse-detail/18648",
            "website": "fazzfinance.id"
        },
        {
            "id": "9cb1ac83-9e71-4abe-bb38-b5e58c7f192b",
            "nama_pse": "SISTEM INFORMASI TRANSPORTASI OTOMATIS",
            "nama_se": "MAXIM",
            "sektor": "Sektor Perdagangan, Sektor Transportasi, Sektor Teknologi Informasi dan Komunikasi",
            "tanggal_terbit": "2024-04-19",
            "url_tdpse_detail": "https://pse.komdigi.go.id/tdpse-detail/18649",
            "website": "-"
        },
        {
            "id": "9cb1ac6e-950d-46aa-9d52-10dd192edf8e",
            "nama_pse": "INSPIRASI TEKNOLOGI BANGSA",
            "nama_se": "WEBSITE LANDACK",
            "sektor": "Sektor Teknologi Informasi dan Komunikasi",
            "tanggal_terbit": "2024-04-19",
            "url_tdpse_detail": "https://pse.komdigi.go.id/tdpse-detail/18651",
            "website": "Landack.id"
        },
        {
            "id": "9cb1ac6e-981e-4c73-be85-d7e541ed5f80",
            "nama_pse": "OPTIKAL PESSEL",
            "nama_se": "SIMRS KLINIK UTAMA MATA PESSEL",
            "sektor": "Sektor Kesehatan",
            "tanggal_terbit": "2024-04-19",
            "url_tdpse_detail": "https://pse.komdigi.go.id/tdpse-detail/18652",
            "website": "-"
        },
        {
            "id": "9cb1ac83-a1c4-4980-a1aa-74fce4747537",
            "nama_pse": "NEY MAKEUP ARTIST",
            "nama_se": "NEY MAKEUP ARTIST",
            "sektor": "Sektor Perdagangan, Sektor Teknologi Informasi dan Komunikasi",
            "tanggal_terbit": "2024-04-19",
            "url_tdpse_detail": "https://pse.komdigi.go.id/tdpse-detail/18653",
            "website": "neymakeup.id"
        },
        {
            "id": "9cb1ac83-bdf4-4bb5-bbbc-7b210bd9c3f9",
            "nama_pse": "TITAN BAGUS BRAMANTYO",
            "nama_se": "SISTEM INFORMASI MANAJEMEN RUMAH SAKIT",
            "sektor": "Sektor Kesehatan, Sektor Teknologi Informasi dan Komunikasi",
            "tanggal_terbit": "2024-04-19",
            "url_tdpse_detail": "https://pse.komdigi.go.id/tdpse-detail/18656",
            "website": "katra.tech"
        },
        {
            "id": "9cb1ac6e-682b-4606-af4e-a591ca1fd7e3",
            "nama_pse": "TEKHNOLOGI DELAPAN LAPAN",
            "nama_se": "TEKHNOLOGI DELAPAN LAPAN",
            "sektor": "Sektor Perdagangan, Sektor Teknologi Informasi dan Komunikasi",
            "tanggal_terbit": "2024-04-18",
            "url_tdpse_detail": "https://pse.komdigi.go.id/tdpse-detail/18633",
            "website": "-"
        },
        {
            "id": "9cb1ac59-c762-4925-aea9-6e97e26f50db",
            "nama_pse": "KAWAN BANTU TEKNO INTEGRA",
            "nama_se": "KAWANBANTU",
            "sektor": "Sektor Teknologi Informasi dan Komunikasi",
            "tanggal_terbit": "2024-04-18",
            "url_tdpse_detail": "https://pse.komdigi.go.id/tdpse-detail/18638",
            "website": "kawanbantu.com"
        },
        {
            "id": "9cb1ac83-75ee-4bb3-b383-f3986efdd620",
            "nama_pse": "LUNASH INOVASI INDONESIA",
            "nama_se": "LUNASH",
            "sektor": "Sektor Teknologi Informasi dan Komunikasi",
            "tanggal_terbit": "2024-04-18",
            "url_tdpse_detail": "https://pse.komdigi.go.id/tdpse-detail/18628",
            "website": "lunash.id"
        },
        {
            "id": "9cb1ac59-b34c-4634-bc59-e0169a693253",
            "nama_pse": "SAKA CIPTA SWAKARYA",
            "nama_se": "LOKERBANDUNG.ID",
            "sektor": "Sektor Teknologi Informasi dan Komunikasi",
            "tanggal_terbit": "2024-04-18",
            "url_tdpse_detail": "https://pse.komdigi.go.id/tdpse-detail/18632",
            "website": "LokerBandung.id"
        },
        {
            "id": "9cb1ac6e-7f7d-453e-84ea-c62552d50e69",
            "nama_pse": "PERUM PERHUTANI",
            "nama_se": "SOCIO FOREST",
            "sektor": "Sektor Perdagangan, Sektor Teknologi Informasi dan Komunikasi",
            "tanggal_terbit": "2024-04-18",
            "url_tdpse_detail": "https://pse.komdigi.go.id/tdpse-detail/18626",
            "website": "socioforest.perhutani.co.id"
        },
        {
            "id": "9cb1ac6e-839e-460d-b060-ac2870240916",
            "nama_pse": "FOKUS MURIA NETWORK",
            "nama_se": "FOKUS MEDIA ID",
            "sektor": "Sektor Teknologi Informasi dan Komunikasi",
            "tanggal_terbit": "2024-04-18",
            "url_tdpse_detail": "https://pse.komdigi.go.id/tdpse-detail/18627",
            "website": "fokusmedia.id"
        },
        {
            "id": "9cb1ac6e-87cb-4796-b1b3-0d2d0fcdf773",
            "nama_pse": "RAJAWALI TUNGGAL ABADI",
            "nama_se": "SERTIFIKASI TENAGA AHLI",
            "sektor": "Sektor Perdagangan",
            "tanggal_terbit": "2024-04-18",
            "url_tdpse_detail": "https://pse.komdigi.go.id/tdpse-detail/18629",
            "website": "skalpjk.ptrta.co.id"
        },
        {
            "id": "9cb1ac83-7b64-4ce1-89ff-fa126e997d81",
            "nama_pse": "RAJAWALI TUNGGAL ABADI",
            "nama_se": "IZIN LIMBAH BAHAN BERACUN DAN BERBAHAYA",
            "sektor": "Sektor Perdagangan",
            "tanggal_terbit": "2024-04-18",
            "url_tdpse_detail": "https://pse.komdigi.go.id/tdpse-detail/18630",
            "website": "izinlimbahb3.ptrta.co.id"
        },
        {
            "id": "9cb1ac83-8077-4cb6-b289-f8bc5890ea0e",
            "nama_pse": "RAJAWALI TUNGGAL ABADI",
            "nama_se": "IZIN USAHA KONSTRUKSI",
            "sektor": "Sektor Perdagangan",
            "tanggal_terbit": "2024-04-18",
            "url_tdpse_detail": "https://pse.komdigi.go.id/tdpse-detail/18631",
            "website": "siujk.ptrta.co.id"
        },
        {
            "id": "9cb1ac83-8497-47c8-8d55-b26bfffde455",
            "nama_pse": "SAKA CIPTA SWAKARYA",
            "nama_se": "JAKARTAKERJA.COM",
            "sektor": "Sektor Teknologi Informasi dan Komunikasi",
            "tanggal_terbit": "2024-04-18",
            "url_tdpse_detail": "https://pse.komdigi.go.id/tdpse-detail/18634",
            "website": "JakartaKerja.com"
        },
        {
            "id": "9cb1ac59-c139-4e47-ac4e-e969d38c3f03",
            "nama_pse": "META GAMA PERSADA",
            "nama_se": "META GAMA",
            "sektor": "Sektor Perdagangan",
            "tanggal_terbit": "2024-04-18",
            "url_tdpse_detail": "https://pse.komdigi.go.id/tdpse-detail/18635",
            "website": "meta-gama.com"
        },
        {
            "id": "9cb1ac83-89bf-43c0-a1b9-65e66e588e9f",
            "nama_pse": "GRAHA ABHISTA HAUNAA MEDIKA",
            "nama_se": "RME HAUNAA",
            "sektor": "Sektor Kesehatan",
            "tanggal_terbit": "2024-04-18",
            "url_tdpse_detail": "https://pse.komdigi.go.id/tdpse-detail/18636",
            "website": "haunaa.com"
        },
        {
            "id": "9cb1ac59-cb97-4b2e-8d99-0b5da9832e35",
            "nama_pse": "ERP SAAS INDONESIA",
            "nama_se": "ERP360.ID",
            "sektor": "Sektor Teknologi Informasi dan Komunikasi",
            "tanggal_terbit": "2024-04-18",
            "url_tdpse_detail": "https://pse.komdigi.go.id/tdpse-detail/18642",
            "website": "erp360.id"
        },
        {
            "id": "9cb1ac59-cff4-466f-b024-6a1abc70d148",
            "nama_pse": "NATA CONNEXINDO DIGITAL",
            "nama_se": "CRM360.ID",
            "sektor": "Sektor Teknologi Informasi dan Komunikasi",
            "tanggal_terbit": "2024-04-18",
            "url_tdpse_detail": "https://pse.komdigi.go.id/tdpse-detail/18643",
            "website": "crm360.id"
        },
        {
            "id": "9cb1ac6e-8b13-4fce-9fcf-3b71c0b0688c",
            "nama_pse": "EDMOND KOMANSILAN",
            "nama_se": "BERKASMEDISDIGITAL",
            "sektor": "Sektor Teknologi Informasi dan Komunikasi",
            "tanggal_terbit": "2024-04-18",
            "url_tdpse_detail": "https://pse.komdigi.go.id/tdpse-detail/18644",
            "website": "-"
        },
        {
            "id": "9cb1ac58-ebda-4f90-aa2e-bd8b14c552d2",
            "nama_pse": "LUNA APLIKASI INDONESIA",
            "nama_se": "LUNAPOS",
            "sektor": "Sektor Perdagangan",
            "tanggal_terbit": "2024-04-17",
            "url_tdpse_detail": "https://pse.komdigi.go.id/tdpse-detail/18621",
            "website": "lunapos.id"
        },
        {
            "id": "9cb1ac83-687c-4a4f-9e74-c6c26a15447a",
            "nama_pse": "BINGKAI KARYA NUSANTARA",
            "nama_se": "BINGKAI KARYA",
            "sektor": "Sektor Teknologi Informasi dan Komunikasi",
            "tanggal_terbit": "2024-04-17",
            "url_tdpse_detail": "https://pse.komdigi.go.id/tdpse-detail/18620",
            "website": "bingkaikarya.com"
        },
        {
            "id": "9cb1ac59-89c8-498c-99d5-993c3ce2d358",
            "nama_pse": "HADI SUSANTO",
            "nama_se": "PSE ARCIA",
            "sektor": "Sektor Perdagangan, Sektor Kesehatan, Sektor Teknologi Informasi dan Komunikasi",
            "tanggal_terbit": "2024-04-17",
            "url_tdpse_detail": "https://pse.komdigi.go.id/tdpse-detail/18619",
            "website": "-"
        },
        {
            "id": "9cb1ac59-8154-4a81-a7f6-73c7b3cdcbe5",
            "nama_pse": "DEDE PURWANTO",
            "nama_se": "ALIOT",
            "sektor": "Sektor Teknologi Informasi dan Komunikasi",
            "tanggal_terbit": "2024-04-17",
            "url_tdpse_detail": "https://pse.komdigi.go.id/tdpse-detail/18617",
            "website": "website.aliot.id"
        },
        {
            "id": "9cb1ac6e-78df-433d-ba0d-67bb8ea19637",
            "nama_pse": "SAKA CIPTA SWAKARYA",
            "nama_se": "LOKERJOGJA.ID",
            "sektor": "Sektor Teknologi Informasi dan Komunikasi",
            "tanggal_terbit": "2024-04-17",
            "url_tdpse_detail": "https://pse.komdigi.go.id/tdpse-detail/18622",
            "website": "LokerJogja.id"
        },
        {
            "id": "9cb1ac6e-7c57-429b-90ae-4b56b1e346f9",
            "nama_pse": "SAKA CIPTA SWAKARYA",
            "nama_se": "LOKERSEMAR.ID",
            "sektor": "Sektor Teknologi Informasi dan Komunikasi",
            "tanggal_terbit": "2024-04-17",
            "url_tdpse_detail": "https://pse.komdigi.go.id/tdpse-detail/18623",
            "website": "LokerSemar.id"
        },
        {
            "id": "9cb1ac59-8fec-4a02-a6b6-13c35717a54a",
            "nama_pse": "LION SUPER INDO",
            "nama_se": "MY SUPER INDO",
            "sektor": "Sektor Perdagangan",
            "tanggal_terbit": "2024-04-17",
            "url_tdpse_detail": "https://pse.komdigi.go.id/tdpse-detail/18624",
            "website": "-"
        },
        {
            "id": "9cb1ac59-72f6-4767-a162-cc669ae858bf",
            "nama_pse": "ZEN MULTIMEDIA INDONESIA",
            "nama_se": "JEVI DRIVE",
            "sektor": "Sektor Perdagangan, Sektor Teknologi Informasi dan Komunikasi",
            "tanggal_terbit": "2024-04-16",
            "url_tdpse_detail": "https://pse.komdigi.go.id/tdpse-detail/18607",
            "website": "jevidrive.com"
        },
        {
            "id": "9cb1ac83-4e3f-497d-84f6-e78bc32bcca5",
            "nama_pse": "MEDIA NIAGA TEKNOLOGI",
            "nama_se": "MERP",
            "sektor": "Sektor Perdagangan, Sektor Kesehatan, Sektor Teknologi Informasi dan Komunikasi, Sektor Pangan",
            "tanggal_terbit": "2024-04-16",
            "url_tdpse_detail": "https://pse.komdigi.go.id/tdpse-detail/18603",
            "website": "mediant.co.id"
        },
        {
            "id": "9cb1ac83-4a7d-4ebb-89aa-dd8a2c1c4eca",
            "nama_pse": "ASURANSI RELIANCE INDONESIA",
            "nama_se": "RELICARE",
            "sektor": "Sektor Keuangan",
            "tanggal_terbit": "2024-04-16",
            "url_tdpse_detail": "https://pse.komdigi.go.id/tdpse-detail/18604",
            "website": "-"
        },
        {
            "id": "9cb1ac83-5db0-4f46-bd24-84872dc5813e",
            "nama_pse": "SOLUSI FINANSIAL UNTUK NEGERI",
            "nama_se": "SOFUND",
            "sektor": "Sektor Teknologi Informasi dan Komunikasi",
            "tanggal_terbit": "2024-04-16",
            "url_tdpse_detail": "https://pse.komdigi.go.id/tdpse-detail/18611",
            "website": "sofund.id"
        },
        {
            "id": "9cb1ac83-5415-401f-9bc4-7e1574a02e96",
            "nama_pse": "NACONDA JAYA ABADI",
            "nama_se": "SIBERJURNALIS.CO.ID",
            "sektor": "Sektor Teknologi Informasi dan Komunikasi",
            "tanggal_terbit": "2024-04-16",
            "url_tdpse_detail": "https://pse.komdigi.go.id/tdpse-detail/18605",
            "website": "siberjurnalis.co.id"
        },
        {
            "id": "9cb1ac59-6fbb-4416-be71-5408aa202a44",
            "nama_pse": "BISNIS EKOSISTEM KREATIF INDONESIA",
            "nama_se": "XYZONEMEDIA.COM",
            "sektor": "Sektor Teknologi Informasi dan Komunikasi",
            "tanggal_terbit": "2024-04-16",
            "url_tdpse_detail": "https://pse.komdigi.go.id/tdpse-detail/18606",
            "website": "xyzonemedia.com"
        },
        {
            "id": "9cb1ac59-7d4b-4d17-8611-dcacd0e5e247",
            "nama_pse": "GENTA MEDIA ALTERNATIF",
            "nama_se": "GEMA POS",
            "sektor": "Sektor Teknologi Informasi dan Komunikasi",
            "tanggal_terbit": "2024-04-16",
            "url_tdpse_detail": "https://pse.komdigi.go.id/tdpse-detail/18616",
            "website": "gemapos.id"
        },
        {
            "id": "9cb1ac6e-64e8-4ae2-8f09-959df713cd5b",
            "nama_pse": "KUKEY STUDIO INDONESIA",
            "nama_se": "KUKEY STUDIO INDONESIA",
            "sektor": "Sektor Perdagangan",
            "tanggal_terbit": "2024-04-16",
            "url_tdpse_detail": "https://pse.komdigi.go.id/tdpse-detail/18608",
            "website": "kukey.studio"
        },
        {
            "id": "9cb1ac6e-6b9d-4356-9be5-93326d2ea607",
            "nama_pse": "FUSHAI INDONESIA KERJA",
            "nama_se": "FUSH.AI",
            "sektor": "Sektor Perdagangan, Sektor Teknologi Informasi dan Komunikasi",
            "tanggal_terbit": "2024-04-16",
            "url_tdpse_detail": "https://pse.komdigi.go.id/tdpse-detail/18609",
            "website": "fush.ai"
        },
        {
            "id": "9cb1ac83-58d2-4a00-b76e-0945ecda67cb",
            "nama_pse": "ATAPKITA KARYA INDONESIA",
            "nama_se": "ATAPKITA KARYA INDONESIA",
            "sektor": "Sektor Teknologi Informasi dan Komunikasi",
            "tanggal_terbit": "2024-04-16",
            "url_tdpse_detail": "https://pse.komdigi.go.id/tdpse-detail/18610",
            "website": "atapkita.com"
        },
        {
            "id": "9cb1ac6e-71e8-487f-bbdb-24f34b16a78a",
            "nama_pse": "DUTA ANGKASA NETWORK",
            "nama_se": "SISTEM ELEKTRONIK SEKTOR INFORMASI DAN KOMUNIKASI",
            "sektor": "Sektor Teknologi Informasi dan Komunikasi",
            "tanggal_terbit": "2024-04-16",
            "url_tdpse_detail": "https://pse.komdigi.go.id/tdpse-detail/18614",
            "website": "-"
        },
        {
            "id": "9cb1ac6d-c606-4326-8596-e8e041015786",
            "nama_pse": "BISNIS EKOSISTEM KREATIF INDONESIA",
            "nama_se": "XYZNT.IO",
            "sektor": "Sektor Perdagangan, Sektor Teknologi Informasi dan Komunikasi",
            "tanggal_terbit": "2024-04-15",
            "url_tdpse_detail": "https://pse.komdigi.go.id/tdpse-detail/18599",
            "website": "xyznt.io"
        },
        {
            "id": "9cb1ac6e-5e55-4b94-8383-1287590939f2",
            "nama_pse": "BETTY EKAWATI SURYANINGSIH",
            "nama_se": "SIEBE",
            "sektor": "Sektor Kesehatan",
            "tanggal_terbit": "2024-04-15",
            "url_tdpse_detail": "https://pse.komdigi.go.id/tdpse-detail/18601",
            "website": "-"
        },
        {
            "id": "9cb1ac83-3935-4f74-a321-4c085afd54fd",
            "nama_pse": "MENUJU NIKAH INDONESIA",
            "nama_se": "MENUJU NIKAH INDONESIA",
            "sektor": "Sektor Teknologi Informasi dan Komunikasi",
            "tanggal_terbit": "2024-04-15",
            "url_tdpse_detail": "https://pse.komdigi.go.id/tdpse-detail/18600",
            "website": "menujunikah.co.id"
        },
        {
            "id": "9cb1ac6d-e887-4327-abca-e619d8106846",
            "nama_pse": "MEDINA MULTI MITRA",
            "nama_se": "ISMATA APPS",
            "sektor": "Sektor Teknologi Informasi dan Komunikasi",
            "tanggal_terbit": "2024-04-14",
            "url_tdpse_detail": "https://pse.komdigi.go.id/tdpse-detail/18598",
            "website": "-"
        },
        {
            "id": "9cb1ac6e-5a9e-4e6e-8648-6fb1ff996782",
            "nama_pse": "BUATAN ANAK BANGSA",
            "nama_se": "KLINIK",
            "sektor": "Sektor Kesehatan",
            "tanggal_terbit": "2024-04-14",
            "url_tdpse_detail": "https://pse.komdigi.go.id/tdpse-detail/18597",
            "website": "-"
        },
        {
            "id": "9cb1ac6e-5276-4d06-b82d-a919a00b0a6c",
            "nama_pse": "DREAMNET GUMILAR PERSADA",
            "nama_se": "DREAMNET",
            "sektor": "Sektor Teknologi Informasi dan Komunikasi",
            "tanggal_terbit": "2024-04-13",
            "url_tdpse_detail": "https://pse.komdigi.go.id/tdpse-detail/18595",
            "website": "-"
        }
    ],
    "processingTimeMs": 7,
    "query": "",
    "totalHits": 19131,
    "hitsPerPage": 50,
    "page": 72,
    "totalPages": 383
}