{
    "hits": [
        {
            "id": "9cb1ac0f-bc86-4ea0-8d50-5e294961616f",
            "nama_pse": "ADWA INFO MANDIRI",
            "nama_se": "ICHA",
            "sektor": "Sektor Kesehatan, Sektor Teknologi Informasi dan Komunikasi",
            "tanggal_terbit": "2022-09-13",
            "url_tdpse_detail": "https://pse.komdigi.go.id/tdpse-detail/11180",
            "website": "icha.co.id"
        },
        {
            "id": "9cb1abdb-a6d8-43ad-9f14-b918bd89e320",
            "nama_pse": "PUSAT LITERASI DUNIA",
            "nama_se": "LITERATUR.ID",
            "sektor": "Sektor Teknologi Informasi dan Komunikasi",
            "tanggal_terbit": "2022-09-13",
            "url_tdpse_detail": "https://pse.komdigi.go.id/tdpse-detail/11181",
            "website": "literatur.id"
        },
        {
            "id": "9cb1abae-7086-4a09-a6f7-3d42823a511f",
            "nama_pse": "TOKOFANS SMM INDONESIA",
            "nama_se": "TOKOFANS",
            "sektor": "Sektor Perdagangan",
            "tanggal_terbit": "2022-09-13",
            "url_tdpse_detail": "https://pse.komdigi.go.id/tdpse-detail/5002",
            "website": "tokofans.co.id"
        },
        {
            "id": "9cb1ac0b-54dc-4bd5-ad9a-a37107cfecdc",
            "nama_pse": "ERA INDONESIA DIGITAL",
            "nama_se": "ERA.ID",
            "sektor": "Sektor Teknologi Informasi dan Komunikasi",
            "tanggal_terbit": "2022-09-12",
            "url_tdpse_detail": "https://pse.komdigi.go.id/tdpse-detail/11153",
            "website": "era.id"
        },
        {
            "id": "9cb1ac0b-6ab0-41ac-9d19-d56abc4b98e8",
            "nama_pse": "DIGITAL SIBER INDONESIA",
            "nama_se": "PARAGRAM.ID",
            "sektor": "Sektor Teknologi Informasi dan Komunikasi",
            "tanggal_terbit": "2022-09-12",
            "url_tdpse_detail": "https://pse.komdigi.go.id/tdpse-detail/11152",
            "website": "paragram.id"
        },
        {
            "id": "9cb1abfc-f130-4b71-8242-3f8f7f5cd00d",
            "nama_pse": "VOI MEDIA INFORMASI",
            "nama_se": "VOI.ID",
            "sektor": "Sektor Teknologi Informasi dan Komunikasi",
            "tanggal_terbit": "2022-09-12",
            "url_tdpse_detail": "https://pse.komdigi.go.id/tdpse-detail/11151",
            "website": "-"
        },
        {
            "id": "9cb1ac0f-2950-473c-9755-bf8a4a8af766",
            "nama_pse": "NINJA LOGISTICS INDONESIA",
            "nama_se": "SISTIM APLIKASI MANAJEMEN LOGISTIK",
            "sektor": "Sektor Teknologi Informasi dan Komunikasi",
            "tanggal_terbit": "2022-09-12",
            "url_tdpse_detail": "https://pse.komdigi.go.id/tdpse-detail/11155",
            "website": "ninjaxpress.co"
        },
        {
            "id": "9cb1abdb-5f80-4c65-9eda-e537ac9a3638",
            "nama_pse": "KARUNIA SEGAR KEDUA",
            "nama_se": "MEATNFRESH.CO.ID",
            "sektor": "Sektor Perdagangan",
            "tanggal_terbit": "2022-09-12",
            "url_tdpse_detail": "https://pse.komdigi.go.id/tdpse-detail/11150",
            "website": "meatnfresh.co.id"
        },
        {
            "id": "9cb1ac00-ca81-4ecd-a47d-677b54e7ad01",
            "nama_pse": "KARUNIA SEGAR TIGA",
            "nama_se": "MEATNFRESH.CO.ID",
            "sektor": "Sektor Perdagangan",
            "tanggal_terbit": "2022-09-12",
            "url_tdpse_detail": "https://pse.komdigi.go.id/tdpse-detail/11148",
            "website": "meatnfresh.co.id"
        },
        {
            "id": "9cb1abdb-6647-4e44-ae84-b7e9956585ed",
            "nama_pse": "BANK PEMBIAYAAN RAKYAT SYARIAH AL MAKMUR",
            "nama_se": "RURAL BANKING SISTEM",
            "sektor": "Sektor Keuangan",
            "tanggal_terbit": "2022-09-12",
            "url_tdpse_detail": "https://pse.komdigi.go.id/tdpse-detail/11137",
            "website": "-"
        },
        {
            "id": "9cb1ac0f-9310-4df4-854b-7c46f402c6b9",
            "nama_pse": "KARUNIA SEGAR EMPAT",
            "nama_se": "MEATNFRESH.CO.ID",
            "sektor": "Sektor Perdagangan",
            "tanggal_terbit": "2022-09-12",
            "url_tdpse_detail": "https://pse.komdigi.go.id/tdpse-detail/11149",
            "website": "meatnfresh.co.id"
        },
        {
            "id": "9cb1ac00-cd46-4679-891b-5fca8c4ebb6e",
            "nama_pse": "KOLTIVA",
            "nama_se": "KOLTITRACE SHOP",
            "sektor": "Sektor Perdagangan, Sektor Teknologi Informasi dan Komunikasi",
            "tanggal_terbit": "2022-09-12",
            "url_tdpse_detail": "https://pse.komdigi.go.id/tdpse-detail/11138",
            "website": "koltitraceshop.com"
        },
        {
            "id": "9cb1ac0f-95ed-4331-b3c7-dae846d83881",
            "nama_pse": "THUNDER ENDER JAGAD",
            "nama_se": "THUNDER BOTH",
            "sektor": "Sektor Teknologi Informasi dan Komunikasi",
            "tanggal_terbit": "2022-09-12",
            "url_tdpse_detail": "https://pse.komdigi.go.id/tdpse-detail/11139",
            "website": "-"
        },
        {
            "id": "9cb1ac00-d317-43f8-a7b7-00775e4fb1ee",
            "nama_pse": "HALAL DIGITAL NUSANTARA",
            "nama_se": "HALIV",
            "sektor": "Sektor Teknologi Informasi dan Komunikasi",
            "tanggal_terbit": "2022-09-12",
            "url_tdpse_detail": "https://pse.komdigi.go.id/tdpse-detail/11140",
            "website": "haliv.id"
        },
        {
            "id": "9cb1abdb-6a62-43a8-a423-7adbce5bdf22",
            "nama_pse": "KLEDO BERHATI NYAMAN",
            "nama_se": "KLEDO",
            "sektor": "Sektor Teknologi Informasi dan Komunikasi",
            "tanggal_terbit": "2022-09-12",
            "url_tdpse_detail": "https://pse.komdigi.go.id/tdpse-detail/11141",
            "website": "kledo.com"
        },
        {
            "id": "9cb1ac00-d60f-4e24-a56a-15b963c1093f",
            "nama_pse": "SISTEM KODIFIKASI INFORMASI HUKUM ELEKTRONIK",
            "nama_se": "ELECTRONIC CODIFICATION AND LEGAL INFORMATION SYSTEM (ECLIS.ID)",
            "sektor": "Sektor Teknologi Informasi dan Komunikasi",
            "tanggal_terbit": "2022-09-12",
            "url_tdpse_detail": "https://pse.komdigi.go.id/tdpse-detail/11146",
            "website": "eclis.id"
        },
        {
            "id": "9cb1ac00-dcb9-4772-9c15-249865b12f5d",
            "nama_pse": "ELABORASI MEDIA INOVASI",
            "nama_se": "EDESA",
            "sektor": "Sektor Keuangan, Sektor Teknologi Informasi dan Komunikasi",
            "tanggal_terbit": "2022-09-12",
            "url_tdpse_detail": "https://pse.komdigi.go.id/tdpse-detail/11154",
            "website": "-"
        },
        {
            "id": "9cb1abdb-7a81-40f2-9e4b-119312814e13",
            "nama_pse": "PRIMA TEKNOLOGI DIGITAL",
            "nama_se": "PRIMA TEKNOLOGI DIGITAL (PRODIGI)",
            "sektor": "Sektor Perdagangan",
            "tanggal_terbit": "2022-09-12",
            "url_tdpse_detail": "https://pse.komdigi.go.id/tdpse-detail/11157",
            "website": "tukangpulsa88.co.id"
        },
        {
            "id": "9cb1ac00-e324-4964-a64e-a2dab93bd318",
            "nama_pse": "ASURANSI UMUM MEGA",
            "nama_se": "MEGA INSURANCE CONTACT CENTER",
            "sektor": "Sektor Perdagangan, Sektor Teknologi Informasi dan Komunikasi",
            "tanggal_terbit": "2022-09-12",
            "url_tdpse_detail": "https://pse.komdigi.go.id/tdpse-detail/11158",
            "website": "mw.megainsurance.id"
        },
        {
            "id": "9cb1ac0f-8887-4f5b-ba80-8c3eb96a7a57",
            "nama_pse": "RIZKY AGUNG PRAYOGI",
            "nama_se": "VIXILOC",
            "sektor": "Sektor Perdagangan",
            "tanggal_terbit": "2022-09-11",
            "url_tdpse_detail": "https://pse.komdigi.go.id/tdpse-detail/11132",
            "website": "vixiloc.my.id"
        },
        {
            "id": "9cb1ac0f-7c22-4a1e-8441-065df219153e",
            "nama_pse": "DESTINASI COMPUTINDO",
            "nama_se": "DESTINASI COMPUTINDO",
            "sektor": "Sektor Teknologi Informasi dan Komunikasi",
            "tanggal_terbit": "2022-09-10",
            "url_tdpse_detail": "https://pse.komdigi.go.id/tdpse-detail/11127",
            "website": "-"
        },
        {
            "id": "9cb1ac00-ba1e-40b9-9290-39dbf43ec615",
            "nama_pse": "AKEZ ADAPHAN HOSPITALITI",
            "nama_se": "CARITEMPAT",
            "sektor": "Sektor Perdagangan",
            "tanggal_terbit": "2022-09-10",
            "url_tdpse_detail": "https://pse.komdigi.go.id/tdpse-detail/11128",
            "website": "caritempat.id"
        },
        {
            "id": "9cb1abdb-5b99-42be-bf3d-292be5c884a1",
            "nama_pse": "AKEZ ADAPHAN NUSWANTARA",
            "nama_se": "TUMBUHKEMBANGG",
            "sektor": "Sektor Perdagangan",
            "tanggal_terbit": "2022-09-10",
            "url_tdpse_detail": "https://pse.komdigi.go.id/tdpse-detail/11129",
            "website": "tumbuhkembangg.com"
        },
        {
            "id": "9cb1ac00-bcf9-4208-80fd-21aec2e0dd0e",
            "nama_pse": "AKEZ ADAPHAN NUSWANTARA",
            "nama_se": "JELANTAH TUMBUHKEMBANGG",
            "sektor": "Sektor Perdagangan",
            "tanggal_terbit": "2022-09-10",
            "url_tdpse_detail": "https://pse.komdigi.go.id/tdpse-detail/11130",
            "website": "jelantah.tumbuhkembangg.com"
        },
        {
            "id": "9cb1ac00-bfde-46e8-9a1b-7d7bdace437a",
            "nama_pse": "KARUNIA SEGAR PERTAMA",
            "nama_se": "MEATNFRESH.CO.ID",
            "sektor": "Sektor Perdagangan",
            "tanggal_terbit": "2022-09-10",
            "url_tdpse_detail": "https://pse.komdigi.go.id/tdpse-detail/11131",
            "website": "meatnfresh.co.id"
        },
        {
            "id": "9cb1ac00-7a28-4caf-849b-993f8d84e7c3",
            "nama_pse": "SURYARAYA RUBBERINDO INDUSTRIES",
            "nama_se": "MY FDR",
            "sektor": "Sektor Perdagangan",
            "tanggal_terbit": "2022-09-09",
            "url_tdpse_detail": "https://pse.komdigi.go.id/tdpse-detail/11067",
            "website": "fdrtire.com"
        },
        {
            "id": "9cb1ac00-a99c-4975-9246-1016cadc00ec",
            "nama_pse": "SURYA CLOUD TECHNOLOGY",
            "nama_se": "SIMBALISME.NET",
            "sektor": "Sektor Perdagangan",
            "tanggal_terbit": "2022-09-09",
            "url_tdpse_detail": "https://pse.komdigi.go.id/tdpse-detail/11109",
            "website": "-"
        },
        {
            "id": "9cb1ac0f-59b0-4b60-a935-c20b90b4704e",
            "nama_pse": "BAYU SUWARGO",
            "nama_se": "AKSESACARA.COM",
            "sektor": "Sektor Teknologi Informasi dan Komunikasi",
            "tanggal_terbit": "2022-09-09",
            "url_tdpse_detail": "https://pse.komdigi.go.id/tdpse-detail/11110",
            "website": "aksesacara.com"
        },
        {
            "id": "9cb1abdb-46e1-42f6-836d-b344073b2e5c",
            "nama_pse": "SURYA CLOUD TECHNOLOGY",
            "nama_se": "UPFILEKU",
            "sektor": "Sektor Teknologi Informasi dan Komunikasi",
            "tanggal_terbit": "2022-09-09",
            "url_tdpse_detail": "https://pse.komdigi.go.id/tdpse-detail/11111",
            "website": "upfileku.com"
        },
        {
            "id": "9cb1ac00-ae2a-43a1-86b9-58521601f671",
            "nama_pse": "BANGUN INDONESIA BAIK",
            "nama_se": "GOODKIND.ID",
            "sektor": "Sektor Teknologi Informasi dan Komunikasi",
            "tanggal_terbit": "2022-09-09",
            "url_tdpse_detail": "https://pse.komdigi.go.id/tdpse-detail/11112",
            "website": "goodkind.id"
        },
        {
            "id": "9cb1ac0f-5c62-462c-b64e-8448149b28bb",
            "nama_pse": "ARISMA TEKNIKA MESARI",
            "nama_se": "ARTRADE",
            "sektor": "Sektor Perdagangan",
            "tanggal_terbit": "2022-09-09",
            "url_tdpse_detail": "https://pse.komdigi.go.id/tdpse-detail/11113",
            "website": "artrade.id"
        },
        {
            "id": "9cb1ac0f-5f1f-4e25-a9c2-9be0b0954b7d",
            "nama_pse": "PROSPERO OPTIMA SOLUSINDO",
            "nama_se": "PROERMS",
            "sektor": "Sektor Teknologi Informasi dan Komunikasi",
            "tanggal_terbit": "2022-09-09",
            "url_tdpse_detail": "https://pse.komdigi.go.id/tdpse-detail/11116",
            "website": "prosperosolutions.co.id"
        },
        {
            "id": "9cb1ac0f-61ea-4d76-8464-5a7b66b2150a",
            "nama_pse": "TIMKADO SEJAHTERA INDONESIA",
            "nama_se": "DAISI APP",
            "sektor": "Sektor Perdagangan, Sektor Teknologi Informasi dan Komunikasi",
            "tanggal_terbit": "2022-09-09",
            "url_tdpse_detail": "https://pse.komdigi.go.id/tdpse-detail/11115",
            "website": "DAISI.ID"
        },
        {
            "id": "9cb1abdb-4f06-4153-8e18-a257b6dc5a66",
            "nama_pse": "XTB INDONESIA BERJANGKA",
            "nama_se": "E CAPITAL",
            "sektor": "Sektor Keuangan",
            "tanggal_terbit": "2022-09-09",
            "url_tdpse_detail": "https://pse.komdigi.go.id/tdpse-detail/11114",
            "website": "ecapital.co.id"
        },
        {
            "id": "9cb1ac0f-64e5-4ce2-a6e6-852f91cf5c0a",
            "nama_pse": "GADING MURNI",
            "nama_se": "GADING MURNI ONLINE",
            "sektor": "Sektor Perdagangan",
            "tanggal_terbit": "2022-09-09",
            "url_tdpse_detail": "https://pse.komdigi.go.id/tdpse-detail/11117",
            "website": "gadingmurni.co.id"
        },
        {
            "id": "9cb1abdb-5259-44b6-981e-190d7c5cbe58",
            "nama_pse": "PILAR DATA ESENSIA",
            "nama_se": "PILAR SIMRS",
            "sektor": "Sektor Kesehatan, Sektor Teknologi Informasi dan Komunikasi",
            "tanggal_terbit": "2022-09-09",
            "url_tdpse_detail": "https://pse.komdigi.go.id/tdpse-detail/11122",
            "website": "-"
        },
        {
            "id": "9cb1ac0f-67fa-4bae-93ee-26c7e50bcb7d",
            "nama_pse": "TELEVISI TRANSFORMASI INDONESIA",
            "nama_se": "WWW.TRANSTV.CO.ID",
            "sektor": "Sektor Teknologi Informasi dan Komunikasi",
            "tanggal_terbit": "2022-09-09",
            "url_tdpse_detail": "https://pse.komdigi.go.id/tdpse-detail/11118",
            "website": "transtv.co.id"
        },
        {
            "id": "9cb1ac0f-6b65-4018-b931-5bcae59ee280",
            "nama_pse": "DANPAC FINANSA UTAMA",
            "nama_se": "TRADE REGISTRATION CLIENT",
            "sektor": "Sektor Perdagangan, Sektor Keuangan",
            "tanggal_terbit": "2022-09-09",
            "url_tdpse_detail": "https://pse.komdigi.go.id/tdpse-detail/11119",
            "website": "-"
        },
        {
            "id": "9cb1ac0f-6e7e-43b4-9fd5-0ee6d47451a8",
            "nama_pse": "TAUFIK",
            "nama_se": "MEDANDAY",
            "sektor": "Sektor Perdagangan, Sektor Transportasi, Sektor Teknologi Informasi dan Komunikasi",
            "tanggal_terbit": "2022-09-09",
            "url_tdpse_detail": "https://pse.komdigi.go.id/tdpse-detail/11120",
            "website": "medan.day"
        },
        {
            "id": "9cb1ac00-b6e1-4d96-86a6-c940c6b89df0",
            "nama_pse": "TERAKORP INDONESIA",
            "nama_se": "TERAMEDIK HIS",
            "sektor": "Sektor Kesehatan, Sektor Teknologi Informasi dan Komunikasi",
            "tanggal_terbit": "2022-09-09",
            "url_tdpse_detail": "https://pse.komdigi.go.id/tdpse-detail/11121",
            "website": "teramedik.com"
        },
        {
            "id": "9cb1abdb-5579-4fdf-9f19-e20ebfa9f4b7",
            "nama_pse": "JADI JAGO BISNIS",
            "nama_se": "OCADEMY.ID",
            "sektor": "Sektor Teknologi Informasi dan Komunikasi",
            "tanggal_terbit": "2022-09-09",
            "url_tdpse_detail": "https://pse.komdigi.go.id/tdpse-detail/11124",
            "website": "ocademy.id"
        },
        {
            "id": "9cb1ac0f-7474-4921-99b7-74be11b9f81e",
            "nama_pse": "GERBANG INFORMASI NUSANTARA",
            "nama_se": "KILAT NUSANTARA",
            "sektor": "Sektor Teknologi Informasi dan Komunikasi",
            "tanggal_terbit": "2022-09-09",
            "url_tdpse_detail": "https://pse.komdigi.go.id/tdpse-detail/11125",
            "website": "kilatnusantara.com"
        },
        {
            "id": "9cb1ac0f-7741-46e0-960a-96be0cf6b8ab",
            "nama_pse": "ADAPHAN PENUKARAN DIGITAL",
            "nama_se": "EPAYS",
            "sektor": "Sektor Perdagangan",
            "tanggal_terbit": "2022-09-09",
            "url_tdpse_detail": "https://pse.komdigi.go.id/tdpse-detail/11126",
            "website": "epays.co.id"
        },
        {
            "id": "9cb1aba7-4551-443d-81fb-2e2b569ce826",
            "nama_pse": "KB FINANSIA MULTI FINANCE",
            "nama_se": "MOBILE COLLECTION SYSTEM (MCS)",
            "sektor": "Sektor Keuangan, Sektor Teknologi Informasi dan Komunikasi",
            "tanggal_terbit": "2022-09-09",
            "url_tdpse_detail": "https://pse.komdigi.go.id/tdpse-detail/5798",
            "website": "mcs.kreditplus.id"
        },
        {
            "id": "9cb1ac0f-49db-490f-a22f-fea4c875b624",
            "nama_pse": "ATAKA COMPUTER SOLUTION",
            "nama_se": "KURIR DESA",
            "sektor": "Sektor Transportasi, Sektor Teknologi Informasi dan Komunikasi",
            "tanggal_terbit": "2022-09-08",
            "url_tdpse_detail": "https://pse.komdigi.go.id/tdpse-detail/11099",
            "website": "-"
        },
        {
            "id": "9cb1abdb-0e5a-4861-9bdc-66e9c6c1b0cd",
            "nama_pse": "MAHBUBILLAH JAYA DIGITAL",
            "nama_se": "HABIBI MAHBUBILLAH",
            "sektor": "Sektor Teknologi Informasi dan Komunikasi",
            "tanggal_terbit": "2022-09-08",
            "url_tdpse_detail": "https://pse.komdigi.go.id/tdpse-detail/11100",
            "website": "eagleworks.id"
        },
        {
            "id": "9cb1ac0f-4dd2-4275-8a0f-34a1be9bc080",
            "nama_pse": "BANK PEMBIAYAAN RAKYAT SYARIAH BAKTIMAKMUR INDAH",
            "nama_se": "BAIN MOBILE, CBS (IBA), VIRTUAL ACCOUNT, PPOB",
            "sektor": "Sektor Keuangan",
            "tanggal_terbit": "2022-09-08",
            "url_tdpse_detail": "https://pse.komdigi.go.id/tdpse-detail/11101",
            "website": "ns1.webdesignsuroboyo.com"
        },
        {
            "id": "9cb1ac0f-50f2-4f6d-bb9f-3bc9253a8836",
            "nama_pse": "SERBA USAHA SEDANA BAHARI TRANSPORT BENOA",
            "nama_se": "BAHARITAXI",
            "sektor": "Sektor Transportasi",
            "tanggal_terbit": "2022-09-08",
            "url_tdpse_detail": "https://pse.komdigi.go.id/tdpse-detail/11102",
            "website": "baharitaxi.com"
        },
        {
            "id": "9cb1ac0f-53fa-4739-8f32-b183dd10ef34",
            "nama_pse": "BUMI INOVASI GANAPATIH",
            "nama_se": "POINTHUB",
            "sektor": "Sektor Teknologi Informasi dan Komunikasi",
            "tanggal_terbit": "2022-09-08",
            "url_tdpse_detail": "https://pse.komdigi.go.id/tdpse-detail/11103",
            "website": "pointhub.net"
        },
        {
            "id": "9cb1abdb-1296-4cf9-b443-521379794e80",
            "nama_pse": "PERUSAHAAN PERSEROAN (PERSERO) PT. SARANA MULTI INFRASTRUKTUR",
            "nama_se": "REFINA",
            "sektor": "Sektor Keuangan",
            "tanggal_terbit": "2022-09-08",
            "url_tdpse_detail": "https://pse.komdigi.go.id/tdpse-detail/11106",
            "website": "refina.ptsmi.co.id"
        }
    ],
    "processingTimeMs": 3,
    "query": "",
    "totalHits": 19131,
    "hitsPerPage": 50,
    "page": 186,
    "totalPages": 383
}