{
    "hits": [
        {
            "id": "9d0c56b1-d8a1-4d8e-af59-6108c4eec25a",
            "nama_pse": "TRAND SATU GROUP",
            "nama_se": "trandsatu.co",
            "sektor": "Sektor Teknologi Informasi dan Komunikasi",
            "tanggal_terbit": "2024-09-19",
            "url_tdpse_detail": "https://pse.komdigi.go.id/tdpse-detail/20480",
            "website": "trandsatu.co"
        },
        {
            "id": "9d0b6205-5617-42ca-9913-93a225868b95",
            "nama_pse": "PAJAR SEPTIANTO",
            "nama_se": "SISTEM INFORMASI KLINIK APOTEK",
            "sektor": "Sektor Kesehatan",
            "tanggal_terbit": "2024-09-19",
            "url_tdpse_detail": "https://pse.komdigi.go.id/tdpse-detail/20467",
            "website": "-"
        },
        {
            "id": "9d0b8f0a-4902-4db9-ae8b-38ddc3133d64",
            "nama_pse": "CIPTA PIRANTI SEJAHTERA",
            "nama_se": "BLISS",
            "sektor": "Sektor Teknologi Informasi dan Komunikasi",
            "tanggal_terbit": "2024-09-19",
            "url_tdpse_detail": "https://pse.komdigi.go.id/tdpse-detail/20468",
            "website": "app.bliss.id"
        },
        {
            "id": "9d0990ce-0708-4497-9d22-4177e0059d90",
            "nama_pse": "DEDE MULTI MEDIA",
            "nama_se": "cybernews24.co.id",
            "sektor": "Sektor Teknologi Informasi dan Komunikasi",
            "tanggal_terbit": "2024-09-18",
            "url_tdpse_detail": "https://pse.komdigi.go.id/tdpse-detail/20440",
            "website": "cybernews24.co.id"
        },
        {
            "id": "9d091926-805f-4860-8a3f-b1255ede72ac",
            "nama_pse": "REKENINGKU DOTCOM INDONESIA",
            "nama_se": "REKU",
            "sektor": "Sektor Keuangan",
            "tanggal_terbit": "2024-09-18",
            "url_tdpse_detail": "https://pse.komdigi.go.id/tdpse-detail/20430",
            "website": "reku.id"
        },
        {
            "id": "9d091897-48bd-49d6-876a-dfa90392fd69",
            "nama_pse": "BNC SEKURITAS INDONESIA",
            "nama_se": "GAIN DAN GAINTRADE",
            "sektor": "Sektor Keuangan",
            "tanggal_terbit": "2024-09-18",
            "url_tdpse_detail": "https://pse.komdigi.go.id/tdpse-detail/20429",
            "website": "gaintrade.co.id"
        },
        {
            "id": "9d091e36-eb85-474a-badb-8f188036965e",
            "nama_pse": "SIMPAN PINJAM DAN PEMBIAYAAN SYARIAH FASTABIQ KHOIRO UMMAH",
            "nama_se": "BUKU ANGGOTA DIGITAL KSPPS FASTABIQ KHOIRO UMMAH",
            "sektor": "Sektor Teknologi Informasi dan Komunikasi",
            "tanggal_terbit": "2024-09-18",
            "url_tdpse_detail": "https://pse.komdigi.go.id/tdpse-detail/20431",
            "website": "-"
        },
        {
            "id": "9d098b5a-9571-4bf9-a4b0-23e87eda1382",
            "nama_pse": "PIRANTI INTERKONEKSI CAKRAWALA",
            "nama_se": "gamearena.id",
            "sektor": "Sektor Teknologi Informasi dan Komunikasi",
            "tanggal_terbit": "2024-09-18",
            "url_tdpse_detail": "https://pse.komdigi.go.id/tdpse-detail/20439",
            "website": "gamearena.id"
        },
        {
            "id": "9d0922bd-27f3-431b-9eae-3c4cec896b88",
            "nama_pse": "AITRON DIGITAL INOVASI",
            "nama_se": "APLIKASI MANAJEMEN SEKOLAH",
            "sektor": "Sektor Teknologi Informasi dan Komunikasi",
            "tanggal_terbit": "2024-09-18",
            "url_tdpse_detail": "https://pse.komdigi.go.id/tdpse-detail/20433",
            "website": "literasigma.com"
        },
        {
            "id": "9d092a2d-dd60-491d-944a-ecc9735ca9b2",
            "nama_pse": "WAHANA KAWAN SEJAHTERA",
            "nama_se": "DARLINK",
            "sektor": "Sektor Teknologi Informasi dan Komunikasi",
            "tanggal_terbit": "2024-09-18",
            "url_tdpse_detail": "https://pse.komdigi.go.id/tdpse-detail/20434",
            "website": "darlink.id"
        },
        {
            "id": "9d094ef4-42d1-462f-8ebe-c5cb4c8137ab",
            "nama_pse": "PERBENGKELAN, PERDAGANGAN DAN INDUSTRI NEW ASMOCO",
            "nama_se": "website nasmoco.co.id",
            "sektor": "Sektor Perdagangan",
            "tanggal_terbit": "2024-09-18",
            "url_tdpse_detail": "https://pse.komdigi.go.id/tdpse-detail/20435",
            "website": "nasmoco.co.id"
        },
        {
            "id": "9d094f53-6907-4c2b-ad82-3b5a236fb964",
            "nama_pse": "SMART TELEMATICS INDONESIA",
            "nama_se": "TELIXMART",
            "sektor": "Sektor Perdagangan",
            "tanggal_terbit": "2024-09-18",
            "url_tdpse_detail": "https://pse.komdigi.go.id/tdpse-detail/20436",
            "website": "telixmart.com"
        },
        {
            "id": "9d0d67f7-f2e3-4d6a-b0e6-6434cf390c66",
            "nama_pse": "MITRA PULSAKU INDONESIA",
            "nama_se": "PT MITRA PULSAKU INDONESIA",
            "sektor": "Sektor Perdagangan, Sektor Teknologi Informasi dan Komunikasi",
            "tanggal_terbit": "2024-09-18",
            "url_tdpse_detail": "https://pse.komdigi.go.id/tdpse-detail/20437",
            "website": "-"
        },
        {
            "id": "9cb1ab9c-7881-41e7-946d-d645c5eff430",
            "nama_pse": "TUGU INSURANCE BROKERS",
            "nama_se": "TUGUBRO FLEXI",
            "sektor": "Sektor Keuangan",
            "tanggal_terbit": "2024-09-18",
            "url_tdpse_detail": "https://pse.komdigi.go.id/tdpse-detail/20443",
            "website": "flexi.tib.co.id"
        },
        {
            "id": "9d09679e-c5f6-40b7-806c-b915bd2ebbc5",
            "nama_pse": "INDIPRO KARYA BERSAMA",
            "nama_se": "ROYALPAY",
            "sektor": "Sektor Teknologi Informasi dan Komunikasi",
            "tanggal_terbit": "2024-09-18",
            "url_tdpse_detail": "https://pse.komdigi.go.id/tdpse-detail/20438",
            "website": "royalpay.id"
        },
        {
            "id": "9d099135-fb7c-448f-9c26-d856b8c2b5cd",
            "nama_pse": "PACIFIC ASURANZY DIGITAL",
            "nama_se": "ASURANZY",
            "sektor": "Sektor Teknologi Informasi dan Komunikasi",
            "tanggal_terbit": "2024-09-18",
            "url_tdpse_detail": "https://pse.komdigi.go.id/tdpse-detail/20441",
            "website": "asuranzy.com"
        },
        {
            "id": "9d09c8a8-8346-46fd-9ba9-3174a332b6aa",
            "nama_pse": "INDA ROSTIANA",
            "nama_se": "HANGO ACADEMY",
            "sektor": "Sektor Perdagangan",
            "tanggal_terbit": "2024-09-18",
            "url_tdpse_detail": "https://pse.komdigi.go.id/tdpse-detail/20447",
            "website": "hangoacademy.co.id"
        },
        {
            "id": "9d099c90-c20d-41d2-a5d8-13a4b9257b05",
            "nama_pse": "ARIF WAHYUDI ALI",
            "nama_se": "RUANG KONTER",
            "sektor": "Sektor Perdagangan, Sektor Teknologi Informasi dan Komunikasi",
            "tanggal_terbit": "2024-09-18",
            "url_tdpse_detail": "https://pse.komdigi.go.id/tdpse-detail/20444",
            "website": "ruangkonter.com"
        },
        {
            "id": "9d09b2c6-bae6-4251-b06a-978469c6a8fa",
            "nama_pse": "MADAKALA PERKASA SEJATI",
            "nama_se": "MPS_ZENITH",
            "sektor": "Sektor Perdagangan",
            "tanggal_terbit": "2024-09-18",
            "url_tdpse_detail": "https://pse.komdigi.go.id/tdpse-detail/20446",
            "website": "ptmps.co.id"
        },
        {
            "id": "9d09f6b5-be25-48a2-88c4-ec9e179cf7a3",
            "nama_pse": "MARWITO DIGITAL NUSANTARA",
            "nama_se": "mt digital",
            "sektor": "Sektor Teknologi Informasi dan Komunikasi",
            "tanggal_terbit": "2024-09-18",
            "url_tdpse_detail": "https://pse.komdigi.go.id/tdpse-detail/20452",
            "website": "mtdigital.id"
        },
        {
            "id": "9d09cdb9-5d40-41bd-b6ed-221f7b8c3d18",
            "nama_pse": "JAVA VAPOR INDONESIA",
            "nama_se": "JAVA VAPOR INDONESIA",
            "sektor": "Sektor Perdagangan",
            "tanggal_terbit": "2024-09-18",
            "url_tdpse_detail": "https://pse.komdigi.go.id/tdpse-detail/20448",
            "website": "javavaporindonesia.com"
        },
        {
            "id": "9d09e721-bd44-4dc1-91d4-fa7369f33974",
            "nama_pse": "INDONESIA DISTRIBUSI JAGATRAYA",
            "nama_se": "INDONESIA DREAM JUICE",
            "sektor": "Sektor Perdagangan",
            "tanggal_terbit": "2024-09-18",
            "url_tdpse_detail": "https://pse.komdigi.go.id/tdpse-detail/20449",
            "website": "indonesiadreamjuice.com"
        },
        {
            "id": "9d09ed4c-0b3a-498e-bc53-d69cb2ef13ad",
            "nama_pse": "MARWITO DIGITAL NUSANTARA",
            "nama_se": "belipulsadigital.com",
            "sektor": "Sektor Teknologi Informasi dan Komunikasi",
            "tanggal_terbit": "2024-09-18",
            "url_tdpse_detail": "https://pse.komdigi.go.id/tdpse-detail/20451",
            "website": "belipulsadigital.com"
        },
        {
            "id": "9d09ab34-3c3b-46e3-bb1b-47d62a88ed7c",
            "nama_pse": "MARIA SEROJA SAMPOERNA",
            "nama_se": "praktikklinik.id",
            "sektor": "Sektor Teknologi Informasi dan Komunikasi",
            "tanggal_terbit": "2024-09-18",
            "url_tdpse_detail": "https://pse.komdigi.go.id/tdpse-detail/20445",
            "website": "praktikklinik.id"
        },
        {
            "id": "9d091f87-6eb6-4a8a-88a2-056cedb19a59",
            "nama_pse": "SUBNET DATA NUSANTARA",
            "nama_se": "SUBNET DATA NUSANTARA",
            "sektor": "Sektor Teknologi Informasi dan Komunikasi",
            "tanggal_terbit": "2024-09-18",
            "url_tdpse_detail": "https://pse.komdigi.go.id/tdpse-detail/20432",
            "website": "subnet.net.id"
        },
        {
            "id": "9d09ed30-fe90-4670-9bc2-3a7d18a6748d",
            "nama_pse": "ADE TRAVEL TICKET",
            "nama_se": "HAKHARU DIGITAL NUSANTARA",
            "sektor": "Sektor Perdagangan, Sektor Teknologi Informasi dan Komunikasi",
            "tanggal_terbit": "2024-09-18",
            "url_tdpse_detail": "https://pse.komdigi.go.id/tdpse-detail/20450",
            "website": "hakharudigital.com"
        },
        {
            "id": "9ced6014-c50c-4026-8eb6-f9aac206622c",
            "nama_pse": "VINFAST AUTOMOBILE INDONESIA",
            "nama_se": "VINFAST",
            "sektor": "Sektor Teknologi Informasi dan Komunikasi",
            "tanggal_terbit": "2024-09-18",
            "url_tdpse_detail": "https://pse.komdigi.go.id/tdpse-detail/20453",
            "website": "-"
        },
        {
            "id": "9d081635-2914-4e58-8f9c-3de7f6cfd78f",
            "nama_pse": "PENA JURNALIS GROUP",
            "nama_se": "jurnalnasional.id",
            "sektor": "Sektor Teknologi Informasi dan Komunikasi",
            "tanggal_terbit": "2024-09-17",
            "url_tdpse_detail": "https://pse.komdigi.go.id/tdpse-detail/20428",
            "website": "jurnalnasional.id"
        },
        {
            "id": "9d073e0b-ed69-467e-b456-d4b6f77d83b4",
            "nama_pse": "GLOBAL TRANSBANK SOLUSINDO",
            "nama_se": "GTS",
            "sektor": "Sektor Teknologi Informasi dan Komunikasi",
            "tanggal_terbit": "2024-09-17",
            "url_tdpse_detail": "https://pse.komdigi.go.id/tdpse-detail/20411",
            "website": "mitragts.co.id"
        },
        {
            "id": "9d07d19a-5a24-40eb-a750-c689d759b693",
            "nama_pse": "CARLSSON LIMIAWAN",
            "nama_se": "THE SOCMED",
            "sektor": "Sektor Teknologi Informasi dan Komunikasi",
            "tanggal_terbit": "2024-09-17",
            "url_tdpse_detail": "https://pse.komdigi.go.id/tdpse-detail/20426",
            "website": "thesocmed.com"
        },
        {
            "id": "9d07a468-dbb6-4866-adcd-75667aba24d0",
            "nama_pse": "PERUSAHAAN PERSEROAN (PERSERO) PT. BANK TABUNGAN NEGARA",
            "nama_se": "MOBILE APPS BTN PPID (ANDROID DAN IOS)",
            "sektor": "Sektor Teknologi Informasi dan Komunikasi",
            "tanggal_terbit": "2024-09-17",
            "url_tdpse_detail": "https://pse.komdigi.go.id/tdpse-detail/20421",
            "website": "-"
        },
        {
            "id": "9cd35802-c21a-41f9-ac8e-8f1062bc85cd",
            "nama_pse": "BIONIC TEKNOLOGI INDONESIA",
            "nama_se": "KLIKJOB",
            "sektor": "Sektor Perdagangan",
            "tanggal_terbit": "2024-09-17",
            "url_tdpse_detail": "https://pse.komdigi.go.id/tdpse-detail/20423",
            "website": "klikjob.com"
        },
        {
            "id": "9ced6014-c041-438f-b25f-e331ce5aa523",
            "nama_pse": "VINFAST AUTOMOBILE INDONESIA",
            "nama_se": "VINFAST ONE PROFILE",
            "sektor": "Sektor Teknologi Informasi dan Komunikasi",
            "tanggal_terbit": "2024-09-17",
            "url_tdpse_detail": "https://pse.komdigi.go.id/tdpse-detail/20409",
            "website": "-"
        },
        {
            "id": "9d073e42-5578-4f69-a074-6a2725fd5aee",
            "nama_pse": "GLOBAL DETIK INDONESIA",
            "nama_se": "globaldetik.com",
            "sektor": "Sektor Teknologi Informasi dan Komunikasi",
            "tanggal_terbit": "2024-09-17",
            "url_tdpse_detail": "https://pse.komdigi.go.id/tdpse-detail/20412",
            "website": "globaldetik.com"
        },
        {
            "id": "9d09996f-4b91-4088-8a79-0d25f5228452",
            "nama_pse": "SRC INDONESIA SEMBILAN",
            "nama_se": "mitra.src.id",
            "sektor": "Sektor Perdagangan",
            "tanggal_terbit": "2024-09-17",
            "url_tdpse_detail": "https://pse.komdigi.go.id/tdpse-detail/20425",
            "website": "mitra.src.id"
        },
        {
            "id": "9d075e9e-d0b9-43b6-94fe-c92ffd9cc26a",
            "nama_pse": "ACCENTURE",
            "nama_se": "ACCENTURE JIXIE",
            "sektor": "Sektor Teknologi Informasi dan Komunikasi",
            "tanggal_terbit": "2024-09-17",
            "url_tdpse_detail": "https://pse.komdigi.go.id/tdpse-detail/20416",
            "website": "partner.jixie.io"
        },
        {
            "id": "9d073ef8-3fe7-4579-b7e1-0928ba49cd37",
            "nama_pse": "BLACKHAWK NETWORK INDONESIA",
            "nama_se": "GIFTZ SWAP CARD",
            "sektor": "Sektor Perdagangan",
            "tanggal_terbit": "2024-09-17",
            "url_tdpse_detail": "https://pse.komdigi.go.id/tdpse-detail/20413",
            "website": "giftz.co.id"
        },
        {
            "id": "9d075065-1488-496d-908e-a034fbe096aa",
            "nama_pse": "SIMPAN PINJAM DAN PEMBIAYAAN SYARIAH BAITUL MAAL WATTAMWIL PERMATA JAWA TIMUR",
            "nama_se": "BMT PERMATA",
            "sektor": "Sektor Teknologi Informasi dan Komunikasi",
            "tanggal_terbit": "2024-09-17",
            "url_tdpse_detail": "https://pse.komdigi.go.id/tdpse-detail/20415",
            "website": "-"
        },
        {
            "id": "9d07b2b4-b591-421c-ac37-e33e50c94a47",
            "nama_pse": "BAGAS PRATAMA PRIMA",
            "nama_se": "PT BAGAS PRATAMA PRIMA",
            "sektor": "Sektor Perdagangan",
            "tanggal_terbit": "2024-09-17",
            "url_tdpse_detail": "https://pse.komdigi.go.id/tdpse-detail/20424",
            "website": "kelilingseindonesia.com"
        },
        {
            "id": "9d074607-aa1a-4a20-82c6-5a86e640e1cc",
            "nama_pse": "SELF DEVELOPMENT INDONESIA",
            "nama_se": "SELF DEVELOPMENT INDONESIA",
            "sektor": "Sektor Perdagangan, Sektor Teknologi Informasi dan Komunikasi",
            "tanggal_terbit": "2024-09-17",
            "url_tdpse_detail": "https://pse.komdigi.go.id/tdpse-detail/20414",
            "website": "-"
        },
        {
            "id": "9d078ec0-e21c-4b41-8fb4-3eb41861ac53",
            "nama_pse": "PERUSAHAAN PERSEROAN (PERSERO) PT. BANK TABUNGAN NEGARA",
            "nama_se": "PORTAL PPID BTN",
            "sektor": "Sektor Teknologi Informasi dan Komunikasi",
            "tanggal_terbit": "2024-09-17",
            "url_tdpse_detail": "https://pse.komdigi.go.id/tdpse-detail/20420",
            "website": "ppid.btn.co.id"
        },
        {
            "id": "9d078888-f74d-4e0e-b468-b27ac3d55c7e",
            "nama_pse": "CISCO TECHNOLOGIES INDONESIA",
            "nama_se": "UMBRELLA",
            "sektor": "Sektor Teknologi Informasi dan Komunikasi",
            "tanggal_terbit": "2024-09-17",
            "url_tdpse_detail": "https://pse.komdigi.go.id/tdpse-detail/20419",
            "website": "umbrella.com"
        },
        {
            "id": "9d07a6d3-a27b-4648-88d7-3ba34153254c",
            "nama_pse": "DAILY RAKYAT BANYAK",
            "nama_se": "DAILY NOTIF",
            "sektor": "Sektor Teknologi Informasi dan Komunikasi",
            "tanggal_terbit": "2024-09-17",
            "url_tdpse_detail": "https://pse.komdigi.go.id/tdpse-detail/20422",
            "website": "-"
        },
        {
            "id": "9d07f216-4286-45a5-917e-c6f2cb6ddb3b",
            "nama_pse": "klinikrobot.com",
            "nama_se": "KLINIKROBOT.COM",
            "sektor": "Sektor Perdagangan, Sektor Teknologi Informasi dan Komunikasi",
            "tanggal_terbit": "2024-09-17",
            "url_tdpse_detail": "https://pse.komdigi.go.id/tdpse-detail/20427",
            "website": "klinikrobot.com"
        },
        {
            "id": "9d070bee-8ed1-4877-aadc-64c54743ecab",
            "nama_pse": "SARANA KALTENG VENTURA",
            "nama_se": "PSE LINGKUP PRIVAT",
            "sektor": "Sektor Keuangan",
            "tanggal_terbit": "2024-09-17",
            "url_tdpse_detail": "https://pse.komdigi.go.id/tdpse-detail/20408",
            "website": "kaltengventura.com"
        },
        {
            "id": "9d072fe5-74b5-4ca0-8f21-e42c9a6b5763",
            "nama_pse": "TIRTA RINDANG UNGGUL EKATAMA FINANCE",
            "nama_se": "WEBSITE PT TRUE FINANCE",
            "sektor": "Sektor Keuangan",
            "tanggal_terbit": "2024-09-17",
            "url_tdpse_detail": "https://pse.komdigi.go.id/tdpse-detail/20410",
            "website": "truefinance.co.id"
        },
        {
            "id": "9d05c5ff-8544-4e7c-8941-4381f1ef44e0",
            "nama_pse": "D. HIDAYAT",
            "nama_se": "LAYANAN PENYEDIA INTERNET LOKAL RT/RW NET ( CITRA NET )",
            "sektor": "Sektor Teknologi Informasi dan Komunikasi",
            "tanggal_terbit": "2024-09-16",
            "url_tdpse_detail": "https://pse.komdigi.go.id/tdpse-detail/20406",
            "website": "-"
        },
        {
            "id": "9d053634-fb05-4b6c-b07d-0b61df3cdb63",
            "nama_pse": "TIRASA MITRA KARYA",
            "nama_se": "GERAI SOLUSI",
            "sektor": "Sektor Perdagangan",
            "tanggal_terbit": "2024-09-16",
            "url_tdpse_detail": "https://pse.komdigi.go.id/tdpse-detail/20404",
            "website": "geraisolusi.id"
        },
        {
            "id": "9d048183-938a-4255-ae6b-5c40fd26a3ae",
            "nama_pse": "EMPAT PILAR TECHNOLOGY",
            "nama_se": "4medics",
            "sektor": "Sektor Kesehatan",
            "tanggal_terbit": "2024-09-16",
            "url_tdpse_detail": "https://pse.komdigi.go.id/tdpse-detail/20403",
            "website": "-"
        },
        {
            "id": "9d05fdbc-5e1b-421a-910d-4baa1693ba89",
            "nama_pse": "INSAN MEDIA UTAMA",
            "nama_se": "RATV",
            "sektor": "Sektor Teknologi Informasi dan Komunikasi",
            "tanggal_terbit": "2024-09-16",
            "url_tdpse_detail": "https://pse.komdigi.go.id/tdpse-detail/20407",
            "website": "ratv.co.id"
        }
    ],
    "processingTimeMs": 2,
    "query": "",
    "totalHits": 19131,
    "hitsPerPage": 50,
    "page": 39,
    "totalPages": 383
}