{
    "hits": [
        {
            "id": "9cb1ac09-3360-49c9-b279-bfe66c461727",
            "nama_pse": "TEKNOLOGI KARYA DIGITAL NUSA",
            "nama_se": "TKDN - TMS",
            "sektor": "Sektor Transportasi, Sektor Teknologi Informasi dan Komunikasi",
            "tanggal_terbit": "2022-08-04",
            "url_tdpse_detail": "https://pse.komdigi.go.id/tdpse-detail/9850",
            "website": "tronfleet.com"
        },
        {
            "id": "9cb1abfa-3bae-43d2-90b0-968fb7346729",
            "nama_pse": "BANK PEMBIAYAAN RAKYAT SYARIAH BOBATO LESTARI",
            "nama_se": "BPRS BOBATO LESTARI",
            "sektor": "Sektor Keuangan",
            "tanggal_terbit": "2022-08-04",
            "url_tdpse_detail": "https://pse.komdigi.go.id/tdpse-detail/9851",
            "website": "-"
        },
        {
            "id": "9cb1ac09-36ce-4d12-ae9e-676103305647",
            "nama_pse": "DWI YOGA PRASETYO",
            "nama_se": "WEBIFY.CO.ID",
            "sektor": "Sektor Teknologi Informasi dan Komunikasi",
            "tanggal_terbit": "2022-08-04",
            "url_tdpse_detail": "https://pse.komdigi.go.id/tdpse-detail/9853",
            "website": "webify.co.id"
        },
        {
            "id": "9cb1abfa-45b8-4647-80d0-a86b02ac44f4",
            "nama_pse": "IDE KREATIF NUSANTARA",
            "nama_se": "NUSAN PLATFORM",
            "sektor": "Sektor Teknologi Informasi dan Komunikasi",
            "tanggal_terbit": "2022-08-04",
            "url_tdpse_detail": "https://pse.komdigi.go.id/tdpse-detail/9854",
            "website": "-"
        },
        {
            "id": "9cb1ac09-39f7-4c88-8f3d-f4df33b44522",
            "nama_pse": "SMESHUB BANGUN NEGERI",
            "nama_se": "SMESHUB.ID",
            "sektor": "Sektor Teknologi Informasi dan Komunikasi",
            "tanggal_terbit": "2022-08-04",
            "url_tdpse_detail": "https://pse.komdigi.go.id/tdpse-detail/9855",
            "website": "smeshub.id"
        },
        {
            "id": "9cb1abfa-6f27-4dda-a5db-b9046e6be565",
            "nama_pse": "DXPORTABLE AMATIR RADIO",
            "nama_se": "IBOTA - INDONESIAN BEACHES ON THE AIR",
            "sektor": "Sektor Perdagangan, Sektor Teknologi Informasi dan Komunikasi",
            "tanggal_terbit": "2022-08-04",
            "url_tdpse_detail": "https://pse.komdigi.go.id/tdpse-detail/9857",
            "website": "ibota.id"
        },
        {
            "id": "9cb1ac09-40be-496c-acae-d1ed4bf5114b",
            "nama_pse": "DXPORTABLE AMATIR RADIO",
            "nama_se": "YC5YC - AMATEUR RADIO \u0026 DXPEDITION",
            "sektor": "Sektor Teknologi Informasi dan Komunikasi",
            "tanggal_terbit": "2022-08-04",
            "url_tdpse_detail": "https://pse.komdigi.go.id/tdpse-detail/9858",
            "website": "yc5yc.net"
        },
        {
            "id": "9cb1abfa-7711-473c-a8c5-d1a3bb07bf7d",
            "nama_pse": "NAWA SENA CEMERLANG",
            "nama_se": "DIGIPPOB",
            "sektor": "Sektor Teknologi Informasi dan Komunikasi",
            "tanggal_terbit": "2022-08-04",
            "url_tdpse_detail": "https://pse.komdigi.go.id/tdpse-detail/9859",
            "website": "digippob.com"
        },
        {
            "id": "9cb1abd4-019e-475a-8c52-4c6389972a3e",
            "nama_pse": "SOLUSI KIRIM INDONESIA",
            "nama_se": "SOLUSI KIRIM",
            "sektor": "Sektor Teknologi Informasi dan Komunikasi",
            "tanggal_terbit": "2022-08-04",
            "url_tdpse_detail": "https://pse.komdigi.go.id/tdpse-detail/9860",
            "website": "solusikirim.id"
        },
        {
            "id": "9cb1ac09-43b0-4bec-b86d-216d739a6831",
            "nama_pse": "BANK PERKREDITAN RAKYAT TUNAS ARTHA JAYA ABADI",
            "nama_se": "WEBSITE BPR  TUNAS ARTHA JAYA ABADI",
            "sektor": "Sektor Teknologi Informasi dan Komunikasi",
            "tanggal_terbit": "2022-08-04",
            "url_tdpse_detail": "https://pse.komdigi.go.id/tdpse-detail/9861",
            "website": "bprtaja.co.id"
        },
        {
            "id": "9cb1abd4-0536-4b04-a728-76f84b527a10",
            "nama_pse": "RAMA JETAR EKSPRESS",
            "nama_se": "JETAR",
            "sektor": "Sektor Teknologi Informasi dan Komunikasi",
            "tanggal_terbit": "2022-08-04",
            "url_tdpse_detail": "https://pse.komdigi.go.id/tdpse-detail/9865",
            "website": "-"
        },
        {
            "id": "9cb1abfa-7afe-4785-a732-57527cce8d65",
            "nama_pse": "MUHAMMAD WILDAN MUBAROK ASY SYAUQY",
            "nama_se": "DOM CLOUD HOSTING",
            "sektor": "Sektor Teknologi Informasi dan Komunikasi",
            "tanggal_terbit": "2022-08-04",
            "url_tdpse_detail": "https://pse.komdigi.go.id/tdpse-detail/9864",
            "website": "domcloud.co"
        },
        {
            "id": "9cb1abfa-7dfd-4a94-991b-d037bab395fe",
            "nama_pse": "JURAGAN KREATIF NUSANTARA",
            "nama_se": "MEMBERSHIP PT. JURAGAN KREATIF NUSANTARA",
            "sektor": "Sektor Perdagangan",
            "tanggal_terbit": "2022-08-04",
            "url_tdpse_detail": "https://pse.komdigi.go.id/tdpse-detail/9866",
            "website": "member.jrgn.co.id"
        },
        {
            "id": "9cb1abd4-0924-4a63-a2fe-20a458cc8c97",
            "nama_pse": "GENOMIK SOLIDARITAS INDONESIA",
            "nama_se": "GSI LAB",
            "sektor": "Sektor Kesehatan",
            "tanggal_terbit": "2022-08-04",
            "url_tdpse_detail": "https://pse.komdigi.go.id/tdpse-detail/9868",
            "website": "gsilab.id"
        },
        {
            "id": "9cb1abfa-858d-493d-8070-8018284d2c8a",
            "nama_pse": "KASIM I KONORAS",
            "nama_se": "PT.BPR MALIFUT DANATAMA",
            "sektor": "Sektor Keuangan",
            "tanggal_terbit": "2022-08-04",
            "url_tdpse_detail": "https://pse.komdigi.go.id/tdpse-detail/9869",
            "website": "-"
        },
        {
            "id": "9cb1ac09-4a63-442c-a639-53518d411196",
            "nama_pse": "JURAGAN KREATIF NUSANTARA",
            "nama_se": "APLIKASI BUKU.MENU",
            "sektor": "Sektor Teknologi Informasi dan Komunikasi",
            "tanggal_terbit": "2022-08-04",
            "url_tdpse_detail": "https://pse.komdigi.go.id/tdpse-detail/9870",
            "website": "buku.menu"
        },
        {
            "id": "9cb1ac09-4dcc-4f35-9a63-7c51898f9234",
            "nama_pse": "GENOMIK SOLIDARITAS INDONESIA",
            "nama_se": "TANYADNA",
            "sektor": "Sektor Kesehatan",
            "tanggal_terbit": "2022-08-04",
            "url_tdpse_detail": "https://pse.komdigi.go.id/tdpse-detail/9872",
            "website": "tanyadna.id"
        },
        {
            "id": "9cb1ac09-512e-4e77-8a72-f10a2dcee43e",
            "nama_pse": "OPTIMA EDUKASI PRESTASI",
            "nama_se": "OPTIMA ONLINE LEARNING",
            "sektor": "Sektor Teknologi Informasi dan Komunikasi",
            "tanggal_terbit": "2022-08-04",
            "url_tdpse_detail": "https://pse.komdigi.go.id/tdpse-detail/9874",
            "website": "optimalearning.id"
        },
        {
            "id": "9cb1ac09-5471-4c7a-9398-77ba9b340de3",
            "nama_pse": "GENOMIK SOLIDARITAS INDONESIA",
            "nama_se": "AGSI",
            "sektor": "Sektor Kesehatan",
            "tanggal_terbit": "2022-08-04",
            "url_tdpse_detail": "https://pse.komdigi.go.id/tdpse-detail/9873",
            "website": "agsi.gsilab.id"
        },
        {
            "id": "9cb1ac09-57f9-4339-ba28-5230185e4971",
            "nama_pse": "BARON BIONDI WILLIAM",
            "nama_se": "BBW SWITCH",
            "sektor": "Sektor Teknologi Informasi dan Komunikasi",
            "tanggal_terbit": "2022-08-04",
            "url_tdpse_detail": "https://pse.komdigi.go.id/tdpse-detail/9875",
            "website": "bbw.co.id"
        },
        {
            "id": "9cb1ac09-5b7a-4403-9feb-dc275011a794",
            "nama_pse": "MANDALA MULTIFINANCE",
            "nama_se": "WEBSITE MITRA MANDALA FINANCE",
            "sektor": "Sektor Keuangan",
            "tanggal_terbit": "2022-08-04",
            "url_tdpse_detail": "https://pse.komdigi.go.id/tdpse-detail/9876",
            "website": "partner.mantis.co.id"
        },
        {
            "id": "9cb1abd4-12e0-47dc-a395-ac4ede4ae34b",
            "nama_pse": "BANK PERKREDITAN RAKYAT BANDUNG KIDUL",
            "nama_se": "PT.BPR BANDUNG KIDUL",
            "sektor": "Sektor Keuangan",
            "tanggal_terbit": "2022-08-04",
            "url_tdpse_detail": "https://pse.komdigi.go.id/tdpse-detail/9879",
            "website": "bprbandungkidul.com"
        },
        {
            "id": "9cb1ac09-61bd-425f-be5f-23ac015077be",
            "nama_pse": "BANK PERKREDITAN RAKYAT PADAT GANDA",
            "nama_se": "PT. BPR PADAT GANDA",
            "sektor": "Sektor Keuangan",
            "tanggal_terbit": "2022-08-04",
            "url_tdpse_detail": "https://pse.komdigi.go.id/tdpse-detail/9880",
            "website": "-"
        },
        {
            "id": "9cb1abd4-18d3-4e2d-ba03-e4b8086c7157",
            "nama_pse": "TOYOTA-ASTRA MOTOR",
            "nama_se": "T-FLEET",
            "sektor": "Sektor Perdagangan, Sektor Teknologi Informasi dan Komunikasi",
            "tanggal_terbit": "2022-08-04",
            "url_tdpse_detail": "https://pse.komdigi.go.id/tdpse-detail/9881",
            "website": "t-fleet.info"
        },
        {
            "id": "9cb1abd4-1f19-490c-a244-528a96b6d807",
            "nama_pse": "BOSNET DISTRIBUTION INDONESIA",
            "nama_se": "BOSNET PLATFORM",
            "sektor": "Sektor Perdagangan, Sektor Teknologi Informasi dan Komunikasi",
            "tanggal_terbit": "2022-08-04",
            "url_tdpse_detail": "https://pse.komdigi.go.id/tdpse-detail/9882",
            "website": "-"
        },
        {
            "id": "9cb1ac09-64fa-4d6f-b7d4-ddd4b00dda11",
            "nama_pse": "DANES JAYA ABADI",
            "nama_se": "ASORIS™",
            "sektor": "Sektor Perdagangan, Sektor Teknologi Informasi dan Komunikasi",
            "tanggal_terbit": "2022-08-04",
            "url_tdpse_detail": "https://pse.komdigi.go.id/tdpse-detail/9886",
            "website": "-"
        },
        {
            "id": "9cb1abd4-32ea-41dc-819d-b82ebd0a0427",
            "nama_pse": "DEDIK AFIANTO",
            "nama_se": "PLANETWEBHOST",
            "sektor": "Sektor Teknologi Informasi dan Komunikasi",
            "tanggal_terbit": "2022-08-04",
            "url_tdpse_detail": "https://pse.komdigi.go.id/tdpse-detail/9888",
            "website": "planetwebhost.id"
        },
        {
            "id": "9cb1abd4-3600-492e-918b-8e1948b3cd24",
            "nama_pse": "Enterpro",
            "nama_se": "ENTERPRO.CO",
            "sektor": "Sektor Teknologi Informasi dan Komunikasi",
            "tanggal_terbit": "2022-08-04",
            "url_tdpse_detail": "https://pse.komdigi.go.id/tdpse-detail/9889",
            "website": "enterpro.co"
        },
        {
            "id": "9cb1abd4-39cf-4957-968e-5addaa60e38a",
            "nama_pse": "Enterpro",
            "nama_se": "ENTERPRO.ID",
            "sektor": "Sektor Teknologi Informasi dan Komunikasi",
            "tanggal_terbit": "2022-08-04",
            "url_tdpse_detail": "https://pse.komdigi.go.id/tdpse-detail/9891",
            "website": "enterpro.id"
        },
        {
            "id": "9cb1abfa-8f47-4fad-b32e-8f5b8836751a",
            "nama_pse": "PROJUSTISIA MEDIA SEJAHTERA",
            "nama_se": "WWW.PROJUSTISIANEWS.COM",
            "sektor": "Sektor Teknologi Informasi dan Komunikasi",
            "tanggal_terbit": "2022-08-04",
            "url_tdpse_detail": "https://pse.komdigi.go.id/tdpse-detail/9890",
            "website": "projustisianews.com"
        },
        {
            "id": "9cb1ac09-67db-42ca-9642-14b7e68fc2e3",
            "nama_pse": "SMART ARENA INDONESIA",
            "nama_se": "ACAK LINK",
            "sektor": "Sektor Teknologi Informasi dan Komunikasi",
            "tanggal_terbit": "2022-08-04",
            "url_tdpse_detail": "https://pse.komdigi.go.id/tdpse-detail/9892",
            "website": "acak.link"
        },
        {
            "id": "9cb1abd4-3d74-4b86-b56b-fd6598e8c133",
            "nama_pse": "BANK PEMBIAYAAN RAKYAT SYARIAH BAHARI BERKESAN",
            "nama_se": "BAHARI BERKESAN",
            "sektor": "Sektor Keuangan",
            "tanggal_terbit": "2022-08-04",
            "url_tdpse_detail": "https://pse.komdigi.go.id/tdpse-detail/9893",
            "website": "bahariberkesan.com"
        },
        {
            "id": "9cb1ac09-6b80-4ef1-9d18-519affcf955e",
            "nama_pse": "BANK PEREKONOMIAN RAKYAT SUMBERDHANA ANDA",
            "nama_se": "WWW.BPRSUMBERDHANAANDA.CO.ID",
            "sektor": "Sektor Keuangan",
            "tanggal_terbit": "2022-08-04",
            "url_tdpse_detail": "https://pse.komdigi.go.id/tdpse-detail/9894",
            "website": "bprsumberdhanaanda.co.id"
        },
        {
            "id": "9cb1abd4-42c5-4e05-895b-a53356ce3d2c",
            "nama_pse": "MCSYS CARE SOLUTION",
            "nama_se": "MCSYS",
            "sektor": "Sektor Perdagangan, Sektor Teknologi Informasi dan Komunikasi",
            "tanggal_terbit": "2022-08-04",
            "url_tdpse_detail": "https://pse.komdigi.go.id/tdpse-detail/9895",
            "website": "mcsys-care.co.id"
        },
        {
            "id": "9cb1abd4-4b19-4346-9e0b-0bab043a7c22",
            "nama_pse": "RUANG RAYA INDONESIA",
            "nama_se": "RUANGGURU APP",
            "sektor": "Sektor Perdagangan, Sektor Teknologi Informasi dan Komunikasi",
            "tanggal_terbit": "2022-08-04",
            "url_tdpse_detail": "https://pse.komdigi.go.id/tdpse-detail/9897",
            "website": "-"
        },
        {
            "id": "9cb1abd4-4e0e-4c2b-8d18-8a3d5caa8880",
            "nama_pse": "MEDIA ARUS TENGAH ANORAWI",
            "nama_se": "KOBARKSB.COM",
            "sektor": "Sektor Teknologi Informasi dan Komunikasi",
            "tanggal_terbit": "2022-08-04",
            "url_tdpse_detail": "https://pse.komdigi.go.id/tdpse-detail/9898",
            "website": "kobarksb.com"
        },
        {
            "id": "9cb1abfa-934d-427c-8480-3d87038adf98",
            "nama_pse": "MEDIA ARUS TENGAH ANORAWI",
            "nama_se": "GACEK.ID",
            "sektor": "Sektor Teknologi Informasi dan Komunikasi",
            "tanggal_terbit": "2022-08-04",
            "url_tdpse_detail": "https://pse.komdigi.go.id/tdpse-detail/9899",
            "website": "gacek.id"
        },
        {
            "id": "9cb1abd4-51d7-484e-80fb-021911d6228b",
            "nama_pse": "BANK PEMBIAYAAN RAKYAT SYARIAH SARUMA SEJAHTERA",
            "nama_se": "AS/400 TELKOM SIGMA",
            "sektor": "Sektor Keuangan",
            "tanggal_terbit": "2022-08-04",
            "url_tdpse_detail": "https://pse.komdigi.go.id/tdpse-detail/9901",
            "website": "sarumasejahtera.com"
        },
        {
            "id": "9cb1ac09-723e-40bb-863f-d66f36a844be",
            "nama_pse": "RUANG RAYA INDONESIA",
            "nama_se": "SKILLACADEMY APP",
            "sektor": "Sektor Perdagangan, Sektor Teknologi Informasi dan Komunikasi",
            "tanggal_terbit": "2022-08-04",
            "url_tdpse_detail": "https://pse.komdigi.go.id/tdpse-detail/9900",
            "website": "-"
        },
        {
            "id": "9cb1ac09-764c-415c-98ae-b1f0fd30fd99",
            "nama_pse": "MEDIA ARUS TENGAH ANORAWI",
            "nama_se": "SIGASKSB.WEB.ID",
            "sektor": "Sektor Teknologi Informasi dan Komunikasi",
            "tanggal_terbit": "2022-08-04",
            "url_tdpse_detail": "https://pse.komdigi.go.id/tdpse-detail/9902",
            "website": "sigasksb.web.id"
        },
        {
            "id": "9cb1abd4-557e-4956-8159-aa2b6c875d35",
            "nama_pse": "RUANG RAYA INDONESIA",
            "nama_se": "RUANGKERJA APP",
            "sektor": "Sektor Perdagangan, Sektor Teknologi Informasi dan Komunikasi",
            "tanggal_terbit": "2022-08-04",
            "url_tdpse_detail": "https://pse.komdigi.go.id/tdpse-detail/9903",
            "website": "-"
        },
        {
            "id": "9cb1abd4-5919-4602-9b6b-3db9a7874295",
            "nama_pse": "DICKY IBROHIM",
            "nama_se": "CLEOVA",
            "sektor": "Sektor Teknologi Informasi dan Komunikasi",
            "tanggal_terbit": "2022-08-04",
            "url_tdpse_detail": "https://pse.komdigi.go.id/tdpse-detail/9904",
            "website": "cleova.com"
        },
        {
            "id": "9cb1abfa-971f-4071-a30d-5593c6025560",
            "nama_pse": "STAR TECHNOLOGY DIGITAL",
            "nama_se": "IZILOH",
            "sektor": "Sektor Teknologi Informasi dan Komunikasi",
            "tanggal_terbit": "2022-08-04",
            "url_tdpse_detail": "https://pse.komdigi.go.id/tdpse-detail/9905",
            "website": "iziloh.id"
        },
        {
            "id": "9cb1ac09-7958-41b0-bfe7-9cab81bf264a",
            "nama_pse": "MEDIA ARUS TENGAH ANORAWI",
            "nama_se": "MATANO.CO.ID",
            "sektor": "Sektor Teknologi Informasi dan Komunikasi",
            "tanggal_terbit": "2022-08-04",
            "url_tdpse_detail": "https://pse.komdigi.go.id/tdpse-detail/9906",
            "website": "matano.co.id"
        },
        {
            "id": "9cb1ac09-7d92-4166-9d91-326a5d7fc540",
            "nama_pse": "MEDIA ARUS TENGAH ANORAWI",
            "nama_se": "MEDIAARUSTENGAHANORAWI.CO.ID",
            "sektor": "Sektor Teknologi Informasi dan Komunikasi",
            "tanggal_terbit": "2022-08-04",
            "url_tdpse_detail": "https://pse.komdigi.go.id/tdpse-detail/9907",
            "website": "mediaarustengahanorawi.co.id"
        },
        {
            "id": "9cb1abfa-9d44-43ff-861b-6cabb6141b02",
            "nama_pse": "MITRA KARYA MANDIRI",
            "nama_se": "MAJALAH FARMASETIKA",
            "sektor": "Sektor Kesehatan, Sektor Teknologi Informasi dan Komunikasi",
            "tanggal_terbit": "2022-08-04",
            "url_tdpse_detail": "https://pse.komdigi.go.id/tdpse-detail/9908",
            "website": "farmasetika.com"
        },
        {
            "id": "9cb1ac09-8231-4a9d-a138-6bcda687e91f",
            "nama_pse": "PANINTI HUB INDONESIA",
            "nama_se": "PARENTINGHUB.CO.ID",
            "sektor": "Sektor Teknologi Informasi dan Komunikasi",
            "tanggal_terbit": "2022-08-04",
            "url_tdpse_detail": "https://pse.komdigi.go.id/tdpse-detail/9909",
            "website": "parentinghub.co.id"
        },
        {
            "id": "9cb1abd4-5c96-401d-a588-e0c1f5021a2f",
            "nama_pse": "PANINTI HUB INDONESIA",
            "nama_se": "PANINTIHUB.COM",
            "sektor": "Sektor Perdagangan, Sektor Teknologi Informasi dan Komunikasi",
            "tanggal_terbit": "2022-08-04",
            "url_tdpse_detail": "https://pse.komdigi.go.id/tdpse-detail/9910",
            "website": "panintihub.com"
        },
        {
            "id": "9cb1ac09-8544-4d13-bca7-f59cbc10c0c1",
            "nama_pse": "GARENA INDONESIA",
            "nama_se": "PLATFORM TOP UP VOUCHER APLIKASI GAMES GARENA",
            "sektor": "Sektor Teknologi Informasi dan Komunikasi",
            "tanggal_terbit": "2022-08-04",
            "url_tdpse_detail": "https://pse.komdigi.go.id/tdpse-detail/9913",
            "website": "kiosgamer.co.id"
        },
        {
            "id": "9cb1ac09-8857-4d6a-a8b1-d3c2c9e202d8",
            "nama_pse": "MISTER MULTI JASA",
            "nama_se": "MISTER MULTI JASA",
            "sektor": "Sektor Perdagangan, Sektor Transportasi, Sektor Teknologi Informasi dan Komunikasi",
            "tanggal_terbit": "2022-08-04",
            "url_tdpse_detail": "https://pse.komdigi.go.id/tdpse-detail/9912",
            "website": "mrjek.my.id"
        }
    ],
    "processingTimeMs": 3,
    "query": "",
    "totalHits": 19121,
    "hitsPerPage": 50,
    "page": 207,
    "totalPages": 383
}