{
    "hits": [
        {
            "id": "9cb1ab9c-10e8-4021-b5ac-2929bd1bfd5d",
            "nama_pse": "MEGA CAPITAL SEKURITAS",
            "nama_se": "MEGA SEKURITAS",
            "sektor": "Sektor Keuangan",
            "tanggal_terbit": "2022-07-14",
            "url_tdpse_detail": "https://pse.komdigi.go.id/tdpse-detail/5639",
            "website": "megasekuritas.id"
        },
        {
            "id": "9cb1ab9c-13ee-4da7-9b56-7f46a3b93305",
            "nama_pse": "APOTEK DIGITAL INDONESIA",
            "nama_se": "APOTEK DIGITAL",
            "sektor": "Sektor Perdagangan, Sektor Kesehatan, Sektor Teknologi Informasi dan Komunikasi",
            "tanggal_terbit": "2022-07-14",
            "url_tdpse_detail": "https://pse.komdigi.go.id/tdpse-detail/5643",
            "website": "apotekdigital.com"
        },
        {
            "id": "9cb1aba6-ca7c-4b49-af26-cdb5e6264c8a",
            "nama_pse": "ADITAMA FINANCE",
            "nama_se": "MOBILE.ADITAMA-FINANCE.COM",
            "sektor": "Sektor Keuangan",
            "tanggal_terbit": "2022-07-14",
            "url_tdpse_detail": "https://pse.komdigi.go.id/tdpse-detail/5642",
            "website": "aditama-finance.com"
        },
        {
            "id": "9cb1aba6-cc32-4e26-a126-3f80a9815478",
            "nama_pse": "DUTA ABADIPRIMANTARA",
            "nama_se": "AGM WEBSITE",
            "sektor": "Sektor Perdagangan, Sektor Teknologi Informasi dan Komunikasi",
            "tanggal_terbit": "2022-07-14",
            "url_tdpse_detail": "https://pse.komdigi.go.id/tdpse-detail/5645",
            "website": "agmstore.com"
        },
        {
            "id": "9cb1ab9c-173f-4934-8b9e-ba8e8180a3e8",
            "nama_pse": "BANK PEMBANGUNAN DAERAH JAWA TIMUR",
            "nama_se": "JCONNECT MOBILE",
            "sektor": "Sektor Keuangan",
            "tanggal_terbit": "2022-07-14",
            "url_tdpse_detail": "https://pse.komdigi.go.id/tdpse-detail/5646",
            "website": "-"
        },
        {
            "id": "9cb1aba6-cde9-42ca-84c9-4345feca133c",
            "nama_pse": "EASTSPRING INVESTMENTS INDONESIA",
            "nama_se": "CORPORATE WEBSITE PT EASTSPRING INVESTMENTS INDONESIA",
            "sektor": "Sektor Keuangan",
            "tanggal_terbit": "2022-07-14",
            "url_tdpse_detail": "https://pse.komdigi.go.id/tdpse-detail/5647",
            "website": "eastspring.co.id"
        },
        {
            "id": "9cb1ab9c-1a6c-44f0-962f-8677be5217ae",
            "nama_pse": "KB FINANSIA MULTI FINANCE",
            "nama_se": "KREDITPLUS.COM",
            "sektor": "Sektor Keuangan, Sektor Teknologi Informasi dan Komunikasi",
            "tanggal_terbit": "2022-07-14",
            "url_tdpse_detail": "https://pse.komdigi.go.id/tdpse-detail/5649",
            "website": "kreditplus.com"
        },
        {
            "id": "9cb1aba6-cf94-48c7-9e2a-cb2076ebbc3e",
            "nama_pse": "ASURANSI SIMAS JIWA",
            "nama_se": "SIJI ACCESS",
            "sektor": "Sektor Keuangan",
            "tanggal_terbit": "2022-07-14",
            "url_tdpse_detail": "https://pse.komdigi.go.id/tdpse-detail/5648",
            "website": "sijiaccess.simasjiwa.co.id"
        },
        {
            "id": "9cb1abb0-a739-4c2d-b7ab-5ea014a0970f",
            "nama_pse": "POS FINANSIAL INDONESIA",
            "nama_se": "POSPAY AGEN",
            "sektor": "Sektor Keuangan",
            "tanggal_terbit": "2022-07-14",
            "url_tdpse_detail": "https://pse.komdigi.go.id/tdpse-detail/5650",
            "website": "agen.posfin.id"
        },
        {
            "id": "9cb1ab9c-1d95-433d-8292-80edcbc27ced",
            "nama_pse": "MEGA CENTRAL FINANCE",
            "nama_se": "WEBSITE PORTAL MEGA CENTRAL FINANCE",
            "sektor": "Sektor Keuangan",
            "tanggal_terbit": "2022-07-14",
            "url_tdpse_detail": "https://pse.komdigi.go.id/tdpse-detail/5657",
            "website": "mcf.co.id"
        },
        {
            "id": "9cb1aba6-d415-49b9-bb7b-27844745134f",
            "nama_pse": "BANK PEMBANGUNAN DAERAH JAWA TIMUR",
            "nama_se": "JCONNECT INTERNET BANKING INDIVIDU",
            "sektor": "Sektor Keuangan",
            "tanggal_terbit": "2022-07-14",
            "url_tdpse_detail": "https://pse.komdigi.go.id/tdpse-detail/5651",
            "website": "iperson.bankjatim.co.id"
        },
        {
            "id": "9cb1ab9c-209c-4b33-b95d-e25145ce4c8a",
            "nama_pse": "BANK PEMBANGUNAN DAERAH JAWA TIMUR",
            "nama_se": "JCONNECT INTERNET BANKING CORPORATE",
            "sektor": "Sektor Keuangan",
            "tanggal_terbit": "2022-07-14",
            "url_tdpse_detail": "https://pse.komdigi.go.id/tdpse-detail/5652",
            "website": "corp.bankjatim.co.id"
        },
        {
            "id": "9cb1abb0-a926-4d68-ae55-4e3616fff89a",
            "nama_pse": "PEMBAYARAN LINTAS USAHA SUKSES",
            "nama_se": "ESPAY WALLET",
            "sektor": "Sektor Keuangan, Sektor Teknologi Informasi dan Komunikasi",
            "tanggal_terbit": "2022-07-14",
            "url_tdpse_detail": "https://pse.komdigi.go.id/tdpse-detail/5654",
            "website": "espay.id"
        },
        {
            "id": "9cb1aba6-d5fc-47a9-8af2-f2b03a55cb1e",
            "nama_pse": "SMP PAYMENT DIGITAL EVOLUSI",
            "nama_se": "PT SMP PAYMENT DIGITAL EVOLUSI",
            "sektor": "Sektor Perdagangan",
            "tanggal_terbit": "2022-07-14",
            "url_tdpse_detail": "https://pse.komdigi.go.id/tdpse-detail/5653",
            "website": "solusimediapulsa.com"
        },
        {
            "id": "9cb1abb0-ab13-4184-9ccf-27a15cb33231",
            "nama_pse": "BANK PEMBANGUNAN DAERAH JAWA TIMUR",
            "nama_se": "JCONNECT E-KMG",
            "sektor": "Sektor Keuangan",
            "tanggal_terbit": "2022-07-14",
            "url_tdpse_detail": "https://pse.komdigi.go.id/tdpse-detail/5655",
            "website": "-"
        },
        {
            "id": "9cb1aba6-d828-4722-88ff-5de848bb0439",
            "nama_pse": "BANK PEMBANGUNAN DAERAH JAWA TIMUR",
            "nama_se": "JCONNECT SIPANDAI",
            "sektor": "Sektor Keuangan",
            "tanggal_terbit": "2022-07-14",
            "url_tdpse_detail": "https://pse.komdigi.go.id/tdpse-detail/5656",
            "website": "-"
        },
        {
            "id": "9cb1abb0-acc1-4740-9096-21cdd7bab5dd",
            "nama_pse": "PEMBAYARAN LINTAS USAHA SUKSES",
            "nama_se": "TAGIH.ID",
            "sektor": "Sektor Perdagangan, Sektor Keuangan, Sektor Teknologi Informasi dan Komunikasi",
            "tanggal_terbit": "2022-07-14",
            "url_tdpse_detail": "https://pse.komdigi.go.id/tdpse-detail/5658",
            "website": "tagih.id"
        },
        {
            "id": "9cb1ab9c-233e-4862-b462-2762c9603b50",
            "nama_pse": "ASURANSI SIMAS JIWA",
            "nama_se": "SIMASJIWA.CO.ID",
            "sektor": "Sektor Keuangan",
            "tanggal_terbit": "2022-07-14",
            "url_tdpse_detail": "https://pse.komdigi.go.id/tdpse-detail/5659",
            "website": "simasjiwa.co.id"
        },
        {
            "id": "9cb1aba6-d9d5-4601-9386-4e304eccb474",
            "nama_pse": "PRABU TRISULA UTAMA",
            "nama_se": "RENEOZEN",
            "sektor": "Sektor Perdagangan",
            "tanggal_terbit": "2022-07-14",
            "url_tdpse_detail": "https://pse.komdigi.go.id/tdpse-detail/5660",
            "website": "reneo.web.id"
        },
        {
            "id": "9cb1ab9c-2639-4f76-9584-975db8f9e941",
            "nama_pse": "MAHMUDA KARIMA",
            "nama_se": "DAKASAKTI MULTISAMA",
            "sektor": "Sektor Perdagangan",
            "tanggal_terbit": "2022-07-14",
            "url_tdpse_detail": "https://pse.komdigi.go.id/tdpse-detail/5661",
            "website": "dakasakti.com"
        },
        {
            "id": "9cb1aba6-db9d-4056-8916-ff44edd4038d",
            "nama_pse": "DUNIA MASTER PULSA",
            "nama_se": "DUNIA MASTER PULSA",
            "sektor": "Sektor Perdagangan, Sektor Teknologi Informasi dan Komunikasi",
            "tanggal_terbit": "2022-07-14",
            "url_tdpse_detail": "https://pse.komdigi.go.id/tdpse-detail/5662",
            "website": "duniamasterpulsa.com"
        },
        {
            "id": "9cb1ab9c-2933-4ba3-83d0-121367dc244a",
            "nama_pse": "RICKY LIAUWANTO",
            "nama_se": "CONNECTINDO",
            "sektor": "Sektor Teknologi Informasi dan Komunikasi",
            "tanggal_terbit": "2022-07-14",
            "url_tdpse_detail": "https://pse.komdigi.go.id/tdpse-detail/5663",
            "website": "connectindo.com"
        },
        {
            "id": "9cb1ab9c-2bfd-4445-9abb-1f3d69b5bd82",
            "nama_pse": "TEKNOLOGI BUMI INDONESIA",
            "nama_se": "TALK FUSION",
            "sektor": "Sektor Perdagangan",
            "tanggal_terbit": "2022-07-14",
            "url_tdpse_detail": "https://pse.komdigi.go.id/tdpse-detail/5664",
            "website": "talkfusion.id"
        },
        {
            "id": "9cb1ab9c-2ef3-4e7b-8ece-9c45f26fcbdc",
            "nama_pse": "ANTERO LANGIT JAYA",
            "nama_se": "VTRUST",
            "sektor": "Sektor Teknologi Informasi dan Komunikasi",
            "tanggal_terbit": "2022-07-14",
            "url_tdpse_detail": "https://pse.komdigi.go.id/tdpse-detail/5665",
            "website": "vtrustworld.id"
        },
        {
            "id": "9cb1aba6-dd4c-4730-8321-d0a9a92208c0",
            "nama_pse": "MULTI DIGITAL SERVICE",
            "nama_se": "TOKO PULSA SERVER",
            "sektor": "Sektor Perdagangan",
            "tanggal_terbit": "2022-07-14",
            "url_tdpse_detail": "https://pse.komdigi.go.id/tdpse-detail/5666",
            "website": "t-pulsa.com"
        },
        {
            "id": "9cb1aba6-df4c-4160-8f49-988f58f7c961",
            "nama_pse": "PALUGADA SUMBER SUKSES",
            "nama_se": "FKIOS",
            "sektor": "Sektor Perdagangan",
            "tanggal_terbit": "2022-07-14",
            "url_tdpse_detail": "https://pse.komdigi.go.id/tdpse-detail/5667",
            "website": "fkios.io"
        },
        {
            "id": "9cb1aba6-e152-44b6-bf14-284305b33ceb",
            "nama_pse": "BANK PERKREDITAN RAKYAT RAJEKWESI",
            "nama_se": "BPR RAJEKWESI",
            "sektor": "Sektor Keuangan",
            "tanggal_terbit": "2022-07-14",
            "url_tdpse_detail": "https://pse.komdigi.go.id/tdpse-detail/5669",
            "website": "-"
        },
        {
            "id": "9cb1abb0-ae67-4b6b-87fb-59b3b39e87e1",
            "nama_pse": "MUHAMMAD RAMDAN",
            "nama_se": "SUBANG PEDIA",
            "sektor": "Sektor Perdagangan",
            "tanggal_terbit": "2022-07-14",
            "url_tdpse_detail": "https://pse.komdigi.go.id/tdpse-detail/5670",
            "website": "Subangpedia.com"
        },
        {
            "id": "9cb1ab9c-34f3-48e9-b314-84d46835cf49",
            "nama_pse": "BANK NATIONALNOBU",
            "nama_se": "WEB EXTERNAL",
            "sektor": "Sektor Keuangan",
            "tanggal_terbit": "2022-07-14",
            "url_tdpse_detail": "https://pse.komdigi.go.id/tdpse-detail/5673",
            "website": "nobubank.com"
        },
        {
            "id": "9cb1ab9c-37bf-4723-9ee8-01c3611bafba",
            "nama_pse": "TEKNOVIEW SHAKA INDONESIA",
            "nama_se": "TEKNOVIEW SHAKA INDONESIA",
            "sektor": "Sektor Perdagangan, Sektor Teknologi Informasi dan Komunikasi",
            "tanggal_terbit": "2022-07-14",
            "url_tdpse_detail": "https://pse.komdigi.go.id/tdpse-detail/5671",
            "website": "teknoview.com"
        },
        {
            "id": "9cb1ab9c-3a6d-4460-be2d-bc0028f9df08",
            "nama_pse": "KOLABIZ INDONESIA MANDIRI",
            "nama_se": "WWW.KOLABIZ.ID",
            "sektor": "Sektor Perdagangan",
            "tanggal_terbit": "2022-07-14",
            "url_tdpse_detail": "https://pse.komdigi.go.id/tdpse-detail/5674",
            "website": "kolabiz.id"
        },
        {
            "id": "9cb1aba6-18b9-4cae-89b8-102dad919d7e",
            "nama_pse": "BANK CENTRAL ASIA",
            "nama_se": "REMITTANCEBCA",
            "sektor": "Sektor Keuangan",
            "tanggal_terbit": "2022-07-13",
            "url_tdpse_detail": "https://pse.komdigi.go.id/tdpse-detail/5440",
            "website": "remittancebca.bca.co.id"
        },
        {
            "id": "9cb1abaf-ebf4-45a5-bb9d-189a96b520df",
            "nama_pse": "SMARTEC TEKNOLOGI INDONESIA",
            "nama_se": "BANTUSAKU",
            "sektor": "Sektor Keuangan, Sektor Teknologi Informasi dan Komunikasi",
            "tanggal_terbit": "2022-07-13",
            "url_tdpse_detail": "https://pse.komdigi.go.id/tdpse-detail/5524",
            "website": "bantusaku.id"
        },
        {
            "id": "9cb1ab9b-602a-427c-b21e-ec0751c62104",
            "nama_pse": "MATAHARI SINAR PANBERSI",
            "nama_se": "NJ PULSA",
            "sektor": "Sektor Perdagangan, Sektor Teknologi Informasi dan Komunikasi",
            "tanggal_terbit": "2022-07-13",
            "url_tdpse_detail": "https://pse.komdigi.go.id/tdpse-detail/5428",
            "website": "njpulsareload.co.id"
        },
        {
            "id": "9cb1ab9b-6207-470d-93f6-a79f61217e8b",
            "nama_pse": "BUKIT BENDERA NATA",
            "nama_se": "PERDAGANGAN ECERAN KOMPUTER DAN PERLENGKAPANNYA",
            "sektor": "Sektor Perdagangan",
            "tanggal_terbit": "2022-07-13",
            "url_tdpse_detail": "https://pse.komdigi.go.id/tdpse-detail/5429",
            "website": "-"
        },
        {
            "id": "9cb1abaf-fa1b-422c-96cd-253e4553cf76",
            "nama_pse": "KALBE FARMA",
            "nama_se": "WWW.CDKJOURNAL.COM ATAU CDKJOURNAL",
            "sektor": "Sektor Kesehatan",
            "tanggal_terbit": "2022-07-13",
            "url_tdpse_detail": "https://pse.komdigi.go.id/tdpse-detail/5431",
            "website": "cdkjournal.com"
        },
        {
            "id": "9cb1ab9b-6454-477c-bbf8-1e6c4bc9f6fc",
            "nama_pse": "BRILLIANT FUTURE TECHNOLOGY",
            "nama_se": "MANGO LIVE",
            "sektor": "Sektor Teknologi Informasi dan Komunikasi",
            "tanggal_terbit": "2022-07-13",
            "url_tdpse_detail": "https://pse.komdigi.go.id/tdpse-detail/5432",
            "website": "mangolive.net"
        },
        {
            "id": "9cb1abaf-fca3-45ed-85b9-37761fcdccc2",
            "nama_pse": "ERA LINTAS TEKNOLOGI",
            "nama_se": "FINGERSPOT.IO",
            "sektor": "Sektor Teknologi Informasi dan Komunikasi",
            "tanggal_terbit": "2022-07-13",
            "url_tdpse_detail": "https://pse.komdigi.go.id/tdpse-detail/5437",
            "website": "fingerspot.io"
        },
        {
            "id": "9cb1abaf-ff3e-402b-8d23-39ed038480d0",
            "nama_pse": "PERUSAHAAN PERSEROAN (PERSERO) PT. BANK RAKYAT INDONESIA",
            "nama_se": "LINKUMKM",
            "sektor": "Sektor Teknologi Informasi dan Komunikasi",
            "tanggal_terbit": "2022-07-13",
            "url_tdpse_detail": "https://pse.komdigi.go.id/tdpse-detail/5433",
            "website": "linkumkm.id"
        },
        {
            "id": "9cb1ab9b-6622-4e47-a457-a5c496c0ca4d",
            "nama_pse": "PULSABAYAR SINAR PANBERSI",
            "nama_se": "PULSABAYAR",
            "sektor": "Sektor Perdagangan, Sektor Teknologi Informasi dan Komunikasi",
            "tanggal_terbit": "2022-07-13",
            "url_tdpse_detail": "https://pse.komdigi.go.id/tdpse-detail/5434",
            "website": "pulsabayar.com"
        },
        {
            "id": "9cb1abb0-01dc-4dec-8a7e-3c14f2eb504f",
            "nama_pse": "PERUSAHAAN PERSEROAN (PERSERO) PT. BANK RAKYAT INDONESIA",
            "nama_se": "BRICARD",
            "sektor": "Sektor Keuangan",
            "tanggal_terbit": "2022-07-13",
            "url_tdpse_detail": "https://pse.komdigi.go.id/tdpse-detail/5435",
            "website": "bricard.bri.co.id"
        },
        {
            "id": "9cb1abb0-0453-4ffb-85e6-cf085297a6d0",
            "nama_pse": "HALO BELANJA DOTCOM",
            "nama_se": "HALO BELANJA",
            "sektor": "Sektor Teknologi Informasi dan Komunikasi",
            "tanggal_terbit": "2022-07-13",
            "url_tdpse_detail": "https://pse.komdigi.go.id/tdpse-detail/5436",
            "website": "halobelanja.com"
        },
        {
            "id": "9cb1abb0-0699-45c3-9ae5-9825fa4a292d",
            "nama_pse": "ALIRAN SUMBER BERKAT",
            "nama_se": "WAHYOO",
            "sektor": "Sektor Perdagangan",
            "tanggal_terbit": "2022-07-13",
            "url_tdpse_detail": "https://pse.komdigi.go.id/tdpse-detail/5439",
            "website": "-"
        },
        {
            "id": "9cb1abb0-0925-47bf-85b6-a32e94dec310",
            "nama_pse": "PERUSAHAAN PERSEROAN (PERSERO) PT. BANK RAKYAT INDONESIA",
            "nama_se": "NELAYAN SEJAHTERA",
            "sektor": "Sektor Teknologi Informasi dan Komunikasi",
            "tanggal_terbit": "2022-07-13",
            "url_tdpse_detail": "https://pse.komdigi.go.id/tdpse-detail/5438",
            "website": "nelayansejahtera.bri.co.id"
        },
        {
            "id": "9cb1ab9b-6887-48fa-907e-b0872c8fb353",
            "nama_pse": "HALO BELANJA DOTCOM",
            "nama_se": "HALOBELANJADOTCOM",
            "sektor": "Sektor Teknologi Informasi dan Komunikasi",
            "tanggal_terbit": "2022-07-13",
            "url_tdpse_detail": "https://pse.komdigi.go.id/tdpse-detail/5441",
            "website": "halobelanja.com"
        },
        {
            "id": "9cb1aba6-3a91-4e4e-bf0a-36e54614d8ad",
            "nama_pse": "ASURANSI JIWA INHEALTH INDONESIA",
            "nama_se": "SIMO",
            "sektor": "Sektor Kesehatan",
            "tanggal_terbit": "2022-07-13",
            "url_tdpse_detail": "https://pse.komdigi.go.id/tdpse-detail/5442",
            "website": "simo.inhealth.co.id"
        },
        {
            "id": "9cb1aba6-3c4d-4d4d-9a61-f97b8fd875c2",
            "nama_pse": "PERUSAHAAN PERSEROAN (PERSERO) PT. BANK RAKYAT INDONESIA",
            "nama_se": "SINPI (SISTEM INFORMASI PERTANIAN INDONESIA)",
            "sektor": "Sektor Keuangan",
            "tanggal_terbit": "2022-07-13",
            "url_tdpse_detail": "https://pse.komdigi.go.id/tdpse-detail/5443",
            "website": "sinpi.bri.co.id"
        },
        {
            "id": "9cb1abb0-0b78-4d82-a4ab-59ba3dadb988",
            "nama_pse": "HALO BELANJA DOTCOM",
            "nama_se": "HALOBELANJA DOTCOM",
            "sektor": "Sektor Transportasi",
            "tanggal_terbit": "2022-07-13",
            "url_tdpse_detail": "https://pse.komdigi.go.id/tdpse-detail/5444",
            "website": "halobelanja.com"
        },
        {
            "id": "9cb1ab9b-6ab8-4c87-a6fd-63ae108db03a",
            "nama_pse": "PERUSAHAAN PERSEROAN (PERSERO) PT. BANK RAKYAT INDONESIA",
            "nama_se": "DASHBOARD BPUM",
            "sektor": "Sektor Teknologi Informasi dan Komunikasi",
            "tanggal_terbit": "2022-07-13",
            "url_tdpse_detail": "https://pse.komdigi.go.id/tdpse-detail/5445",
            "website": "dashboard.bri.co.id"
        },
        {
            "id": "9cb1aba6-3eb5-45a9-bda6-4b3b99032c4e",
            "nama_pse": "SARANA SANTOSA SEJATI",
            "nama_se": "PLUANGGROW.COM",
            "sektor": "Sektor Keuangan",
            "tanggal_terbit": "2022-07-13",
            "url_tdpse_detail": "https://pse.komdigi.go.id/tdpse-detail/5446",
            "website": "pluanggrow.com"
        }
    ],
    "processingTimeMs": 12,
    "query": "",
    "totalHits": 19121,
    "hitsPerPage": 50,
    "page": 284,
    "totalPages": 383
}