{
    "hits": [
        {
            "id": "9cb1ab79-e8ac-4ac5-be56-f9306105d892",
            "nama_pse": "TOP LEGAL GROUP",
            "nama_se": "TOP LEGAL ID",
            "sektor": "Sektor Perdagangan, Sektor Perdagangan, Sektor Teknologi Informasi dan Komunikasi, Sektor Teknologi Informasi dan Komunikasi",
            "tanggal_terbit": "2022-01-11",
            "url_tdpse_detail": "https://pse.komdigi.go.id/tdpse-detail/3020",
            "website": "toplegal.id"
        },
        {
            "id": "9cb1ab81-c17f-4697-9945-bbd36cfa0bdd",
            "nama_pse": "ACHILLES FINANCIAL MANAGEMENT",
            "nama_se": "ONLINEPAJAK.",
            "sektor": "Sektor Perdagangan, Sektor Perdagangan",
            "tanggal_terbit": "2022-01-11",
            "url_tdpse_detail": "https://pse.komdigi.go.id/tdpse-detail/3026",
            "website": "online-pajak.id"
        },
        {
            "id": "9cb1ab7a-14fd-429b-8ed0-d383da1faf79",
            "nama_pse": "FIVE HEALTH INDONESIA",
            "nama_se": "BOTMD",
            "sektor": "Sektor Teknologi Informasi dan Komunikasi, Sektor Teknologi Informasi dan Komunikasi",
            "tanggal_terbit": "2022-01-11",
            "url_tdpse_detail": "https://pse.komdigi.go.id/tdpse-detail/3022",
            "website": "botmd.io"
        },
        {
            "id": "9cb1ab7a-182b-4202-b625-f64d69179340",
            "nama_pse": "DUIT ASSETECH INDONESIA",
            "nama_se": "PEDAGANG FISIK ASET KRIPTO",
            "sektor": "Sektor Perdagangan, Sektor Perdagangan",
            "tanggal_terbit": "2022-01-11",
            "url_tdpse_detail": "https://pse.komdigi.go.id/tdpse-detail/3024",
            "website": "-"
        },
        {
            "id": "9cb1ab89-d4bd-4613-9000-27e4df12e6ee",
            "nama_pse": "MILANO MITRA ABADI",
            "nama_se": "WWW.GABINO.ID",
            "sektor": "Sektor Perdagangan, Sektor Perdagangan",
            "tanggal_terbit": "2022-01-11",
            "url_tdpse_detail": "https://pse.komdigi.go.id/tdpse-detail/3025",
            "website": "gabino.id"
        },
        {
            "id": "9cb1ab7a-1e0a-4537-8cfd-13aae51e827a",
            "nama_pse": "MILANO MITRA ABADI",
            "nama_se": "WWW.VICARI.ID",
            "sektor": "Sektor Perdagangan, Sektor Perdagangan",
            "tanggal_terbit": "2022-01-11",
            "url_tdpse_detail": "https://pse.komdigi.go.id/tdpse-detail/3027",
            "website": "vicari.id"
        },
        {
            "id": "9cb1ab89-d78d-4959-8fc2-aef032b1f005",
            "nama_pse": "DUTA TEKNOLOGI KREATIF",
            "nama_se": "DUTA MONEY",
            "sektor": "Sektor Keuangan, Sektor Keuangan, Sektor Teknologi Informasi dan Komunikasi, Sektor Teknologi Informasi dan Komunikasi",
            "tanggal_terbit": "2022-01-11",
            "url_tdpse_detail": "https://pse.komdigi.go.id/tdpse-detail/3030",
            "website": "dutamoney.co.id"
        },
        {
            "id": "9cb1ab7a-269e-4b72-b908-94482d23fdab",
            "nama_pse": "DANA SAHAM BERSAMA",
            "nama_se": "DANASAHAM",
            "sektor": "Sektor Keuangan, Sektor Keuangan",
            "tanggal_terbit": "2022-01-11",
            "url_tdpse_detail": "https://pse.komdigi.go.id/tdpse-detail/3031",
            "website": "danasaham.co.id"
        },
        {
            "id": "9cb1ab69-dc1d-4682-a121-e283c7158ed5",
            "nama_pse": "PRINCETON DIGITAL GROUP DATA CENTRES",
            "nama_se": "PUSAT DATA - PT PRINCETON DIGITAL GROUP DATA CENTRES",
            "sektor": "Sektor Teknologi Informasi dan Komunikasi, Sektor Teknologi Informasi dan Komunikasi",
            "tanggal_terbit": "2022-01-10",
            "url_tdpse_detail": "https://pse.komdigi.go.id/tdpse-detail/3003",
            "website": "-"
        },
        {
            "id": "9cb1ab71-dd88-48b4-bc80-e566f7cc0579",
            "nama_pse": "SEMBILAN SEMBILAN MEDIA",
            "nama_se": "KOMUNITAS BISA MENULIS (KBM) APP",
            "sektor": "Sektor Teknologi Informasi dan Komunikasi, Sektor Teknologi Informasi dan Komunikasi",
            "tanggal_terbit": "2022-01-10",
            "url_tdpse_detail": "https://pse.komdigi.go.id/tdpse-detail/3015",
            "website": "kbm.id"
        },
        {
            "id": "9cb1ab88-bb07-4a80-b1c4-1ffc1f34520f",
            "nama_pse": "BANK PEREKONOMIAN RAKYAT SYARIAH HIJRA ALAMI",
            "nama_se": "HIJRA BANK MOBILE APPLICATION",
            "sektor": "Sektor Keuangan, Sektor Keuangan",
            "tanggal_terbit": "2022-01-10",
            "url_tdpse_detail": "https://pse.komdigi.go.id/tdpse-detail/3016",
            "website": "hijra.id"
        },
        {
            "id": "9cb1ab89-b892-4a77-81d1-8f54d2524551",
            "nama_pse": "MEDIA BISNIS ANAK MUDA INDONESIA",
            "nama_se": "KORPORAT",
            "sektor": "Sektor Teknologi Informasi dan Komunikasi, Sektor Teknologi Informasi dan Komunikasi",
            "tanggal_terbit": "2022-01-10",
            "url_tdpse_detail": "https://pse.komdigi.go.id/tdpse-detail/3019",
            "website": "korporat.com"
        },
        {
            "id": "9cb1ab79-f8ea-4101-94ce-d51bde432900",
            "nama_pse": "SEJAHTERA MANDIRI PERKASA",
            "nama_se": "SEJAHTERAMANDIRI.COM",
            "sektor": "Sektor Perdagangan, Sektor Perdagangan, Sektor Perdagangan",
            "tanggal_terbit": "2022-01-10",
            "url_tdpse_detail": "https://pse.komdigi.go.id/tdpse-detail/3012",
            "website": "Sejahteramandiri.com"
        },
        {
            "id": "9cb1ab89-cf17-4e4f-a8ef-d99c69022cd5",
            "nama_pse": "PAYUNG AGUNG",
            "nama_se": "PAYUNG AGUNG",
            "sektor": "Sektor Perdagangan, Sektor Perdagangan, Sektor Teknologi Informasi dan Komunikasi, Sektor Teknologi Informasi dan Komunikasi",
            "tanggal_terbit": "2022-01-10",
            "url_tdpse_detail": "https://pse.komdigi.go.id/tdpse-detail/3006",
            "website": "-"
        },
        {
            "id": "9cb1ab89-d184-4edd-8a02-e0482b27c950",
            "nama_pse": "PAYUNG AGUNG",
            "nama_se": "DATA SECURITY CENTER PAYUNG AGUNG",
            "sektor": "Sektor Perdagangan, Sektor Perdagangan, Sektor Teknologi Informasi dan Komunikasi, Sektor Teknologi Informasi dan Komunikasi",
            "tanggal_terbit": "2022-01-10",
            "url_tdpse_detail": "https://pse.komdigi.go.id/tdpse-detail/3008",
            "website": "-"
        },
        {
            "id": "9cb1ab81-cbdb-4167-a10d-7ce2b0732964",
            "nama_pse": "ANUGRAH KARYA INDONESIA",
            "nama_se": "EHR SYSTEM",
            "sektor": "Sektor Teknologi Informasi dan Komunikasi, Sektor Teknologi Informasi dan Komunikasi",
            "tanggal_terbit": "2022-01-10",
            "url_tdpse_detail": "https://pse.komdigi.go.id/tdpse-detail/3010",
            "website": "ehr.co.id"
        },
        {
            "id": "9cb1ab81-ce90-4204-9cf0-2349f661c685",
            "nama_pse": "ANUGRAH KARYA INDONESIA",
            "nama_se": "AYO KERJA INDONESIA",
            "sektor": "Sektor Teknologi Informasi dan Komunikasi, Sektor Teknologi Informasi dan Komunikasi",
            "tanggal_terbit": "2022-01-10",
            "url_tdpse_detail": "https://pse.komdigi.go.id/tdpse-detail/3013",
            "website": "ayokerja.co.id"
        },
        {
            "id": "9cb1ab7a-12a3-4c79-b88d-a727df1df75c",
            "nama_pse": "FIVE HEALTH INDONESIA",
            "nama_se": "BOTMD",
            "sektor": "Sektor Teknologi Informasi dan Komunikasi, Sektor Teknologi Informasi dan Komunikasi",
            "tanggal_terbit": "2022-01-10",
            "url_tdpse_detail": "https://pse.komdigi.go.id/tdpse-detail/3018",
            "website": "-"
        },
        {
            "id": "9cb1ab8d-bb3b-4377-b37d-1a451ede5a37",
            "nama_pse": "DIMO PAY INDONESIA",
            "nama_se": "ELECTRONIC KNOW YOUR CUSTOMER BY DIMO",
            "sektor": "Sektor Keuangan, Sektor Keuangan",
            "tanggal_terbit": "2022-01-10",
            "url_tdpse_detail": "https://pse.komdigi.go.id/tdpse-detail/3014",
            "website": "dimo.co.id"
        },
        {
            "id": "9cb1ab8d-e164-4906-ad6b-1c89ec273fe2",
            "nama_pse": "INDODEV NIAGA INTERNET",
            "nama_se": "DATAON.COM",
            "sektor": "Sektor Perdagangan, Sektor Perdagangan",
            "tanggal_terbit": "2022-01-10",
            "url_tdpse_detail": "https://pse.komdigi.go.id/tdpse-detail/3007",
            "website": "dataon.com"
        },
        {
            "id": "9cb1ab7e-6366-455f-a2b7-352f1aa1b0dc",
            "nama_pse": "KITA LULUS INTERNASIONAL",
            "nama_se": "KITALULUS",
            "sektor": "Sektor Teknologi Informasi dan Komunikasi, Sektor Teknologi Informasi dan Komunikasi",
            "tanggal_terbit": "2022-01-10",
            "url_tdpse_detail": "https://pse.komdigi.go.id/tdpse-detail/3005",
            "website": "kitalulus.com"
        },
        {
            "id": "9cb1ab94-1eb7-4f3c-94e4-fdaa3bcb79a9",
            "nama_pse": "GEMILANG MENTARI MATEO",
            "nama_se": "TOKO ONLINE",
            "sektor": "Sektor Perdagangan",
            "tanggal_terbit": "2022-01-10",
            "url_tdpse_detail": "https://pse.komdigi.go.id/tdpse-detail/3004",
            "website": "galerimedika.com"
        },
        {
            "id": "9cb1ab94-dac2-480b-9387-65c1ea17b628",
            "nama_pse": "TAURUSDISTRO",
            "nama_se": "TAURUS DISTRO",
            "sektor": "Sektor Perdagangan",
            "tanggal_terbit": "2022-01-10",
            "url_tdpse_detail": "https://pse.komdigi.go.id/tdpse-detail/3011",
            "website": "taurusdistro.com"
        },
        {
            "id": "9cb1ab97-d125-4068-ad18-67b53b961779",
            "nama_pse": "PRIO KUS NUGROHO",
            "nama_se": "MAMAKRIAU.COM",
            "sektor": "Sektor Perdagangan, Sektor Teknologi Informasi dan Komunikasi",
            "tanggal_terbit": "2022-01-10",
            "url_tdpse_detail": "https://pse.komdigi.go.id/tdpse-detail/4529",
            "website": "mamakriau.com"
        },
        {
            "id": "9cb1abad-6d72-408b-a511-b40b9bf7ee8f",
            "nama_pse": "M. YUDA PRATAMA",
            "nama_se": "BLUEGO",
            "sektor": "Sektor Transportasi",
            "tanggal_terbit": "2022-01-10",
            "url_tdpse_detail": "https://pse.komdigi.go.id/tdpse-detail/4530",
            "website": "bluego.online"
        },
        {
            "id": "9cb1ab81-a805-42cd-8f61-cc4419a69f1f",
            "nama_pse": "AUTO TEKNOLOGI DIGITAL",
            "nama_se": "AUTODIGITAL",
            "sektor": "Sektor Teknologi Informasi dan Komunikasi, Sektor Teknologi Informasi dan Komunikasi",
            "tanggal_terbit": "2022-01-09",
            "url_tdpse_detail": "https://pse.komdigi.go.id/tdpse-detail/3001",
            "website": "-"
        },
        {
            "id": "9cb1ab7a-0e86-4383-b319-5cec1186039a",
            "nama_pse": "ADDE SETYA HANASTA",
            "nama_se": "SAMSUNG GALAXY A52S 5G",
            "sektor": "Sektor Teknologi Informasi dan Komunikasi, Sektor Teknologi Informasi dan Komunikasi",
            "tanggal_terbit": "2022-01-09",
            "url_tdpse_detail": "https://pse.komdigi.go.id/tdpse-detail/3000",
            "website": "-"
        },
        {
            "id": "9cb1ab81-c4b2-481b-81fa-d728819ff82c",
            "nama_pse": "PAYUNG AGUNG",
            "nama_se": "AKTIVITAS PEMROGRAMAN, KONSULTASI KOMPUTER DAN KEBUTUHAN LAINNYA",
            "sektor": "Sektor Teknologi Informasi dan Komunikasi, Sektor Teknologi Informasi dan Komunikasi",
            "tanggal_terbit": "2022-01-08",
            "url_tdpse_detail": "https://pse.komdigi.go.id/tdpse-detail/2997",
            "website": "-"
        },
        {
            "id": "9cb1ab81-c95a-49a5-82b3-09aadc773479",
            "nama_pse": "STUDIO CYCLING INDONESIA",
            "nama_se": "STUDIOCYCLINGID",
            "sektor": "Sektor Perdagangan, Sektor Perdagangan",
            "tanggal_terbit": "2022-01-08",
            "url_tdpse_detail": "https://pse.komdigi.go.id/tdpse-detail/2998",
            "website": "studiocyclingid.com"
        },
        {
            "id": "9cb1ab7a-0c63-41b2-9bb1-fc586fd50b93",
            "nama_pse": "DENNY HARIANTO, S.KOM",
            "nama_se": "VKIOS",
            "sektor": "Sektor Teknologi Informasi dan Komunikasi, Sektor Teknologi Informasi dan Komunikasi",
            "tanggal_terbit": "2022-01-08",
            "url_tdpse_detail": "https://pse.komdigi.go.id/tdpse-detail/2999",
            "website": "vkios.com"
        },
        {
            "id": "9cb1ab69-d621-4138-8d11-080bf33b1514",
            "nama_pse": "CATUR MITRA SEJATI SENTOSA",
            "nama_se": "MITRA10",
            "sektor": "Sektor Perdagangan, Sektor Perdagangan, Sektor Teknologi Informasi dan Komunikasi, Sektor Teknologi Informasi dan Komunikasi",
            "tanggal_terbit": "2022-01-07",
            "url_tdpse_detail": "https://pse.komdigi.go.id/tdpse-detail/2992",
            "website": "mitra10.com"
        },
        {
            "id": "9cb1ab71-afbf-4011-82a1-435a44c9afe4",
            "nama_pse": "MID SOLUSI NUSANTARA",
            "nama_se": "SLEEKR",
            "sektor": "Sektor Teknologi Informasi dan Komunikasi, Sektor Teknologi Informasi dan Komunikasi, Sektor Teknologi Informasi dan Komunikasi, Sektor Teknologi Informasi dan Komunikasi",
            "tanggal_terbit": "2022-01-07",
            "url_tdpse_detail": "https://pse.komdigi.go.id/tdpse-detail/2988",
            "website": "sleekr.co"
        },
        {
            "id": "9cb1ab66-9b11-4ac1-b30f-d69c73d1957c",
            "nama_pse": "PERUSAHAAN PERSEROAN (PERSERO) BANK NEGARA INDONESIA",
            "nama_se": "VA DEBIT",
            "sektor": "Sektor Keuangan, Sektor Keuangan",
            "tanggal_terbit": "2022-01-07",
            "url_tdpse_detail": "https://pse.komdigi.go.id/tdpse-detail/2983",
            "website": "debitva.bni-ecollection.com"
        },
        {
            "id": "9cb1ab73-54cb-498c-8b68-795ca8f139b7",
            "nama_pse": "PERUSAHAAN PERSEROAN (PERSERO) BANK NEGARA INDONESIA",
            "nama_se": "AUTOPAY",
            "sektor": "Sektor Keuangan, Sektor Keuangan",
            "tanggal_terbit": "2022-01-07",
            "url_tdpse_detail": "https://pse.komdigi.go.id/tdpse-detail/2984",
            "website": "autopay.bni-ecollection.com"
        },
        {
            "id": "9cb1ab6d-12c2-4703-8c14-0ab00823d13d",
            "nama_pse": "PERUSAHAAN PERSEROAN (PERSERO) BANK NEGARA INDONESIA",
            "nama_se": "SP2D ONLINE",
            "sektor": "Sektor Keuangan, Sektor Keuangan",
            "tanggal_terbit": "2022-01-07",
            "url_tdpse_detail": "https://pse.komdigi.go.id/tdpse-detail/2985",
            "website": "-"
        },
        {
            "id": "9cb1ab73-5817-4a54-93b3-64f9d2648328",
            "nama_pse": "PERUSAHAAN PERSEROAN (PERSERO) BANK NEGARA INDONESIA",
            "nama_se": "E-PBB",
            "sektor": "Sektor Keuangan, Sektor Keuangan",
            "tanggal_terbit": "2022-01-07",
            "url_tdpse_detail": "https://pse.komdigi.go.id/tdpse-detail/2986",
            "website": "epbb.bni-ecollection.com"
        },
        {
            "id": "9cb1ab66-9dab-4dca-a354-91165ceba0b9",
            "nama_pse": "PERUSAHAAN PERSEROAN (PERSERO) BANK NEGARA INDONESIA",
            "nama_se": "BNIDIRECT",
            "sektor": "Sektor Keuangan, Sektor Keuangan",
            "tanggal_terbit": "2022-01-07",
            "url_tdpse_detail": "https://pse.komdigi.go.id/tdpse-detail/2987",
            "website": "bnidirect.bni.co.id"
        },
        {
            "id": "9cb1ab81-ba6d-4901-983b-d01384f74179",
            "nama_pse": "NDH SUKSES PERKASA",
            "nama_se": "PT. NDH SUKSES PERKASA",
            "sektor": "Sektor Perdagangan, Sektor Perdagangan, Sektor Kesehatan, Sektor Kesehatan, Sektor Teknologi Informasi dan Komunikasi, Sektor Teknologi Informasi dan Komunikasi",
            "tanggal_terbit": "2022-01-07",
            "url_tdpse_detail": "https://pse.komdigi.go.id/tdpse-detail/2989",
            "website": "-"
        },
        {
            "id": "9cb1ab7a-06ec-452d-af01-2925b9792c49",
            "nama_pse": "ACHILLES FINANCIAL MANAGEMENT",
            "nama_se": "ONLINEPAJAK",
            "sektor": "Sektor Perdagangan, Sektor Perdagangan",
            "tanggal_terbit": "2022-01-07",
            "url_tdpse_detail": "https://pse.komdigi.go.id/tdpse-detail/2993",
            "website": "online-pajak.id"
        },
        {
            "id": "9cb1ab7a-0919-4ac5-a6e3-ec758b20aa74",
            "nama_pse": "HERLAMBANG DIAH SETIAWAN",
            "nama_se": "SNAPVYBES",
            "sektor": "Sektor Perdagangan, Sektor Perdagangan, Sektor Teknologi Informasi dan Komunikasi, Sektor Teknologi Informasi dan Komunikasi",
            "tanggal_terbit": "2022-01-07",
            "url_tdpse_detail": "https://pse.komdigi.go.id/tdpse-detail/2996",
            "website": "snapvybes.com"
        },
        {
            "id": "9cb1ab83-7370-41e1-b8db-b2bc8ed3f70b",
            "nama_pse": "MNC ASURANSI INDONESIA",
            "nama_se": "MOTION SURE",
            "sektor": "Sektor Keuangan, Sektor Keuangan",
            "tanggal_terbit": "2022-01-07",
            "url_tdpse_detail": "https://pse.komdigi.go.id/tdpse-detail/2991",
            "website": "motion-sure.id"
        },
        {
            "id": "9cb1ab92-116d-49e9-8dff-ba0ce0000639",
            "nama_pse": "GLOBAL INOVASI STRATEGIS",
            "nama_se": "OFFICIAL.ID",
            "sektor": "Sektor Teknologi Informasi dan Komunikasi, Sektor Teknologi Informasi dan Komunikasi",
            "tanggal_terbit": "2022-01-07",
            "url_tdpse_detail": "https://pse.komdigi.go.id/tdpse-detail/2994",
            "website": "official.id"
        },
        {
            "id": "9cb1ab6a-902c-41b9-b33d-4a0cebf205ac",
            "nama_pse": "MID SOLUSI NUSANTARA",
            "nama_se": "TALENTA",
            "sektor": "Sektor Teknologi Informasi dan Komunikasi, Sektor Teknologi Informasi dan Komunikasi, Sektor Teknologi Informasi dan Komunikasi, Sektor Teknologi Informasi dan Komunikasi",
            "tanggal_terbit": "2022-01-06",
            "url_tdpse_detail": "https://pse.komdigi.go.id/tdpse-detail/2976",
            "website": "hr.talenta.co"
        },
        {
            "id": "9cb1ab6b-1fdf-4937-b40c-2a2a980f65c1",
            "nama_pse": "KREDIBEL TEKNOLOGI INDONESIA",
            "nama_se": "KREDIBEL",
            "sektor": "Sektor Perdagangan, Sektor Perdagangan, Sektor Perdagangan, Sektor Teknologi Informasi dan Komunikasi, Sektor Teknologi Informasi dan Komunikasi, Sektor Teknologi Informasi dan Komunikasi",
            "tanggal_terbit": "2022-01-06",
            "url_tdpse_detail": "https://pse.komdigi.go.id/tdpse-detail/2964",
            "website": "kredibel.com"
        },
        {
            "id": "9cb1ab66-90e8-4b9a-9b0b-99891284ed46",
            "nama_pse": "PERUSAHAAN PERSEROAN (PERSERO) BANK NEGARA INDONESIA",
            "nama_se": "SPAN",
            "sektor": "Sektor Keuangan, Sektor Keuangan",
            "tanggal_terbit": "2022-01-06",
            "url_tdpse_detail": "https://pse.komdigi.go.id/tdpse-detail/2970",
            "website": "spancms.bni.co.id"
        },
        {
            "id": "9cb1ab66-938f-48a7-b060-aea5b0570754",
            "nama_pse": "PERUSAHAAN PERSEROAN (PERSERO) BANK NEGARA INDONESIA",
            "nama_se": "ONE PORTAL FOR ALL",
            "sektor": "Sektor Keuangan, Sektor Keuangan",
            "tanggal_terbit": "2022-01-06",
            "url_tdpse_detail": "https://pse.komdigi.go.id/tdpse-detail/2971",
            "website": "bnitbs.id"
        },
        {
            "id": "9cb1ab66-9632-40af-bf60-d0495222506e",
            "nama_pse": "PERUSAHAAN PERSEROAN (PERSERO) BANK NEGARA INDONESIA",
            "nama_se": "EFORM BNI",
            "sektor": "Sektor Keuangan, Sektor Keuangan",
            "tanggal_terbit": "2022-01-06",
            "url_tdpse_detail": "https://pse.komdigi.go.id/tdpse-detail/2972",
            "website": "eform.bni.co.id"
        },
        {
            "id": "9cb1ab73-499e-43e4-8526-5b382719551b",
            "nama_pse": "PERUSAHAAN PERSEROAN (PERSERO) BANK NEGARA INDONESIA",
            "nama_se": "EFORM KARTU KREDIT BNI",
            "sektor": "Sektor Keuangan, Sektor Keuangan",
            "tanggal_terbit": "2022-01-06",
            "url_tdpse_detail": "https://pse.komdigi.go.id/tdpse-detail/2973",
            "website": "applykartukredit.bni.co.id"
        },
        {
            "id": "9cb1ab6d-06f0-4478-8daf-7abdebe12601",
            "nama_pse": "PERUSAHAAN PERSEROAN (PERSERO) BANK NEGARA INDONESIA",
            "nama_se": "POIN PLUS (BNI POIN+)",
            "sektor": "Sektor Keuangan, Sektor Keuangan",
            "tanggal_terbit": "2022-01-06",
            "url_tdpse_detail": "https://pse.komdigi.go.id/tdpse-detail/2974",
            "website": "poinplus.bni.co.id"
        },
        {
            "id": "9cb1ab66-988a-4411-ab8c-51d994ec5abe",
            "nama_pse": "PERUSAHAAN PERSEROAN (PERSERO) BANK NEGARA INDONESIA",
            "nama_se": "AGEN 46",
            "sektor": "Sektor Keuangan, Sektor Keuangan",
            "tanggal_terbit": "2022-01-06",
            "url_tdpse_detail": "https://pse.komdigi.go.id/tdpse-detail/2975",
            "website": "agenbni46.bni.co.id"
        }
    ],
    "processingTimeMs": 9,
    "query": "",
    "totalHits": 19121,
    "hitsPerPage": 50,
    "page": 326,
    "totalPages": 383
}