{
    "hits": [
        {
            "id": "9cb1ac2d-048e-40ff-bc26-b97524b22a24",
            "nama_pse": "CHANNELTUJUH BAMAS GROUP",
            "nama_se": "PT. CHANNELTUJUH BAMAS GROUP",
            "sektor": "Sektor Teknologi Informasi dan Komunikasi",
            "tanggal_terbit": "2023-01-25",
            "url_tdpse_detail": "https://pse.komdigi.go.id/tdpse-detail/13607",
            "website": "channeltujuh.com"
        },
        {
            "id": "9cb1ac3c-7642-42fe-9455-20d3ccce235e",
            "nama_pse": "KILANG PERTAMINA INTERNASIONAL",
            "nama_se": "PORTAL KILANG PERTAMINA INTERNASIONAL",
            "sektor": "Sektor Energi dan Sumber Daya Mineral",
            "tanggal_terbit": "2023-01-25",
            "url_tdpse_detail": "https://pse.komdigi.go.id/tdpse-detail/13609",
            "website": "kpi.pertamina.com"
        },
        {
            "id": "9cb1ac3c-8090-46f5-8d7e-8ab9b52506fc",
            "nama_pse": "LINGKAR NIAGA SOLUSINDO",
            "nama_se": "BELANJAKU.ONLINE",
            "sektor": "Sektor Perdagangan",
            "tanggal_terbit": "2023-01-25",
            "url_tdpse_detail": "https://pse.komdigi.go.id/tdpse-detail/13608",
            "website": "belanjaku.online"
        },
        {
            "id": "9cb1ac3c-3da6-4a51-a97d-b47e9266a311",
            "nama_pse": "SOLUSI KECERDASAN BUATAN",
            "nama_se": "BISA NETWROK",
            "sektor": "Sektor Teknologi Informasi dan Komunikasi",
            "tanggal_terbit": "2023-01-24",
            "url_tdpse_detail": "https://pse.komdigi.go.id/tdpse-detail/13588",
            "website": "bisa.network"
        },
        {
            "id": "9cb1ac1a-de88-4f88-a495-b41b0b1773b2",
            "nama_pse": "AUTO SERBA DIGITAL",
            "nama_se": "AUTOKIRIM",
            "sektor": "Sektor Transportasi, Sektor Teknologi Informasi dan Komunikasi",
            "tanggal_terbit": "2023-01-24",
            "url_tdpse_detail": "https://pse.komdigi.go.id/tdpse-detail/13584",
            "website": "Autokirim.com"
        },
        {
            "id": "9cb1ac3c-5b3e-4582-a557-46ba2b23d89b",
            "nama_pse": "CIPTA MEDIA ASRATAMA",
            "nama_se": "PT CIPTA MEDIA ASRATAMA",
            "sektor": "Sektor Perdagangan, Sektor Teknologi Informasi dan Komunikasi",
            "tanggal_terbit": "2023-01-24",
            "url_tdpse_detail": "https://pse.komdigi.go.id/tdpse-detail/13582",
            "website": "-"
        },
        {
            "id": "9cb1ac3c-5d95-45ef-9719-7f2816e4f061",
            "nama_pse": "KIMU ANDALAN NUSANTARA",
            "nama_se": "BARANGKULAKAN",
            "sektor": "Sektor Perdagangan, Sektor Teknologi Informasi dan Komunikasi",
            "tanggal_terbit": "2023-01-24",
            "url_tdpse_detail": "https://pse.komdigi.go.id/tdpse-detail/13583",
            "website": "barangkulakan.com"
        },
        {
            "id": "9cb1ac3c-608e-49d4-919a-2add31cc4fe6",
            "nama_pse": "BANK PERKREDITAN RAKYAT EKA BUMI ARTHA",
            "nama_se": "BANK EKA INTERNET BANKING",
            "sektor": "Sektor Keuangan",
            "tanggal_terbit": "2023-01-24",
            "url_tdpse_detail": "https://pse.komdigi.go.id/tdpse-detail/13586",
            "website": "ib.bankeka.co.id"
        },
        {
            "id": "9cb1ac2c-d4d6-4c40-af66-48f16a7dd6fc",
            "nama_pse": "XENO PERSADA TEKNOLOGI",
            "nama_se": "NGABSEN.ID",
            "sektor": "Sektor Teknologi Informasi dan Komunikasi",
            "tanggal_terbit": "2023-01-24",
            "url_tdpse_detail": "https://pse.komdigi.go.id/tdpse-detail/13596",
            "website": "ngabsen.id"
        },
        {
            "id": "9cb1ac2c-d871-4da7-ba3e-7dc55bb27cdf",
            "nama_pse": "DR.SYLVIA IRAWATI",
            "nama_se": "UTUHHEALTH",
            "sektor": "Sektor Kesehatan",
            "tanggal_terbit": "2023-01-24",
            "url_tdpse_detail": "https://pse.komdigi.go.id/tdpse-detail/13592",
            "website": "utuhhealth.com"
        },
        {
            "id": "9cb1ac1b-010d-4871-a496-1e953f008e19",
            "nama_pse": "KARYA BUMEN MULTICITA",
            "nama_se": "CBS BUMEN",
            "sektor": "Sektor Teknologi Informasi dan Komunikasi",
            "tanggal_terbit": "2023-01-24",
            "url_tdpse_detail": "https://pse.komdigi.go.id/tdpse-detail/13585",
            "website": "karyabumen.co.id"
        },
        {
            "id": "9cb1ac1b-051f-4da5-af7b-380985d99e46",
            "nama_pse": "SIBER KREATIF TEKNOLOGI",
            "nama_se": "PT SIBER KREATIF TEKNOLOGI",
            "sektor": "Sektor Teknologi Informasi dan Komunikasi",
            "tanggal_terbit": "2023-01-24",
            "url_tdpse_detail": "https://pse.komdigi.go.id/tdpse-detail/13589",
            "website": "kreatifhost.com"
        },
        {
            "id": "9cb1ac2c-dc72-463b-a37f-62c4ce3936d5",
            "nama_pse": "Sujatmoko Yeremia ",
            "nama_se": "GRINDO",
            "sektor": "Sektor Perdagangan, Sektor Transportasi, Sektor Teknologi Informasi dan Komunikasi",
            "tanggal_terbit": "2023-01-24",
            "url_tdpse_detail": "https://pse.komdigi.go.id/tdpse-detail/13590",
            "website": "grindo.id"
        },
        {
            "id": "9cb1ac2c-e1a4-4ee8-8855-21cf47dda766",
            "nama_pse": "Sujatmoko Yeremia ",
            "nama_se": "GRINDO APPS",
            "sektor": "Sektor Perdagangan, Sektor Transportasi, Sektor Teknologi Informasi dan Komunikasi",
            "tanggal_terbit": "2023-01-24",
            "url_tdpse_detail": "https://pse.komdigi.go.id/tdpse-detail/13591",
            "website": "-"
        },
        {
            "id": "9cb1ac1b-0851-46ba-852e-88fb00752bba",
            "nama_pse": "RADIO SMART MEDIA UTAMA",
            "nama_se": "SMARTFM.COM",
            "sektor": "Sektor Teknologi Informasi dan Komunikasi",
            "tanggal_terbit": "2023-01-24",
            "url_tdpse_detail": "https://pse.komdigi.go.id/tdpse-detail/13593",
            "website": "radiosmartfm.com"
        },
        {
            "id": "9cb1ac1b-1552-46f5-b665-228868eb02cc",
            "nama_pse": "RADIO SAFARI BINA BUDAYA",
            "nama_se": "MOTIONRADIOFM",
            "sektor": "Sektor Teknologi Informasi dan Komunikasi",
            "tanggal_terbit": "2023-01-24",
            "url_tdpse_detail": "https://pse.komdigi.go.id/tdpse-detail/13594",
            "website": "motionradiofm.com"
        },
        {
            "id": "9cb1ac2c-e5dd-435e-8089-732244637039",
            "nama_pse": "GARDA ISWANTO GROUP",
            "nama_se": "MENJADI PENGARUH",
            "sektor": "Sektor Perdagangan, Sektor Teknologi Informasi dan Komunikasi",
            "tanggal_terbit": "2023-01-24",
            "url_tdpse_detail": "https://pse.komdigi.go.id/tdpse-detail/13597",
            "website": "menjadipengaruh.com"
        },
        {
            "id": "9cb1ac2c-e9c3-4fae-a4b4-5c717c5fa73d",
            "nama_pse": "CHANDRA WIRAATMAJA",
            "nama_se": "REMIND.MY.ID",
            "sektor": "Sektor Teknologi Informasi dan Komunikasi",
            "tanggal_terbit": "2023-01-24",
            "url_tdpse_detail": "https://pse.komdigi.go.id/tdpse-detail/13598",
            "website": "remind.my.id"
        },
        {
            "id": "9cb1ac3c-51ba-4c08-be31-30afe2b76e20",
            "nama_pse": "TPA OPERATIONS INDONESIA",
            "nama_se": "ETAILY",
            "sektor": "Sektor Teknologi Informasi dan Komunikasi",
            "tanggal_terbit": "2023-01-23",
            "url_tdpse_detail": "https://pse.komdigi.go.id/tdpse-detail/13577",
            "website": "etaily.com"
        },
        {
            "id": "9cb1ac2c-d14b-4a68-93d9-809c69c02a2b",
            "nama_pse": "MUHAMMAD AJI PANGESTU",
            "nama_se": "EAKUM (EAKUNTANSI UMKM)",
            "sektor": "Sektor Teknologi Informasi dan Komunikasi",
            "tanggal_terbit": "2023-01-23",
            "url_tdpse_detail": "https://pse.komdigi.go.id/tdpse-detail/13578",
            "website": "eakum.catpesut.online"
        },
        {
            "id": "9cb1ac1a-fa10-4045-bb16-4f0603f914a8",
            "nama_pse": "SWAP ENERGI INDONESIA",
            "nama_se": "SWAP",
            "sektor": "Sektor Perdagangan",
            "tanggal_terbit": "2023-01-23",
            "url_tdpse_detail": "https://pse.komdigi.go.id/tdpse-detail/13579",
            "website": "-"
        },
        {
            "id": "9cb1ac3c-5586-4fde-a9d9-aa9bb1df436e",
            "nama_pse": "WIDYA PRESISI SOLUSI",
            "nama_se": "MYQUANTUMHR",
            "sektor": "Sektor Teknologi Informasi dan Komunikasi",
            "tanggal_terbit": "2023-01-23",
            "url_tdpse_detail": "https://pse.komdigi.go.id/tdpse-detail/13580",
            "website": "myquantumhr.com"
        },
        {
            "id": "9cb1ac3c-58ae-49fc-b4b2-b1412a9b5901",
            "nama_pse": "EKOSISTEM VIRTUAL ASISTEN",
            "nama_se": "WWW.EVA.ID",
            "sektor": "Sektor Perdagangan, Sektor Teknologi Informasi dan Komunikasi",
            "tanggal_terbit": "2023-01-23",
            "url_tdpse_detail": "https://pse.komdigi.go.id/tdpse-detail/13581",
            "website": "-"
        },
        {
            "id": "9cb1ac2c-c950-4180-9343-ab1e31802a6e",
            "nama_pse": "RADIANTO DAMANIK",
            "nama_se": "MICRO INDONESIA",
            "sektor": "Sektor Teknologi Informasi dan Komunikasi",
            "tanggal_terbit": "2023-01-22",
            "url_tdpse_detail": "https://pse.komdigi.go.id/tdpse-detail/13574",
            "website": "-"
        },
        {
            "id": "9cb1ac1a-ef9e-4d9e-b3c2-4471385f90f3",
            "nama_pse": "ZAAA SHOP DIGITAL",
            "nama_se": "ZAAA SHOP DIGITAL",
            "sektor": "Sektor Perdagangan",
            "tanggal_terbit": "2023-01-22",
            "url_tdpse_detail": "https://pse.komdigi.go.id/tdpse-detail/13575",
            "website": "-"
        },
        {
            "id": "9cb1ac1a-f3fe-48a6-a6f7-1c45920e3a24",
            "nama_pse": "KAMPIUN INDONESIA NEWS",
            "nama_se": "KAMPIUNNEWS.COM",
            "sektor": "Sektor Teknologi Informasi dan Komunikasi",
            "tanggal_terbit": "2023-01-22",
            "url_tdpse_detail": "https://pse.komdigi.go.id/tdpse-detail/13576",
            "website": "Kampiunnews.com"
        },
        {
            "id": "9cb1ac1a-db72-4e3e-a3d6-50e88f7a18ea",
            "nama_pse": "SARANA TELEKOMUNIKASI GRUP",
            "nama_se": "OTOBEMO",
            "sektor": "Sektor Teknologi Informasi dan Komunikasi",
            "tanggal_terbit": "2023-01-21",
            "url_tdpse_detail": "https://pse.komdigi.go.id/tdpse-detail/13568",
            "website": "-"
        },
        {
            "id": "9cb1ac3c-4a16-4ad2-8aae-9f6644d3a260",
            "nama_pse": "KOPERASI SIMPAN PINJAM DAN PEMBIAYAAN SYARIAH BAITUL MAAL WAT TAMWIL AL HIJRAH",
            "nama_se": "BMT AL-HIJRAH ONLINE",
            "sektor": "Sektor Teknologi Informasi dan Komunikasi",
            "tanggal_terbit": "2023-01-21",
            "url_tdpse_detail": "https://pse.komdigi.go.id/tdpse-detail/13569",
            "website": "-"
        },
        {
            "id": "9cb1ac3c-4dd4-42b3-96db-35a665873546",
            "nama_pse": "DIRAGA BAGJA JAYA",
            "nama_se": "PT. DIRAGA BAGJA JAYA",
            "sektor": "Sektor Perdagangan, Sektor Teknologi Informasi dan Komunikasi",
            "tanggal_terbit": "2023-01-21",
            "url_tdpse_detail": "https://pse.komdigi.go.id/tdpse-detail/13570",
            "website": "diragabagjajaya.id"
        },
        {
            "id": "9cb1ac2c-c595-4e3d-845f-ab1409266454",
            "nama_pse": "FINGATEE INOVASI DIGITAL",
            "nama_se": "CARRYFY",
            "sektor": "Sektor Transportasi, Sektor Teknologi Informasi dan Komunikasi",
            "tanggal_terbit": "2023-01-21",
            "url_tdpse_detail": "https://pse.komdigi.go.id/tdpse-detail/13572",
            "website": "-"
        },
        {
            "id": "9cb1ac1a-eb84-44d8-933e-5b52d365439c",
            "nama_pse": "FINGATEE INOVASI DIGITAL",
            "nama_se": "CARRYFY DRIVER",
            "sektor": "Sektor Transportasi, Sektor Teknologi Informasi dan Komunikasi",
            "tanggal_terbit": "2023-01-21",
            "url_tdpse_detail": "https://pse.komdigi.go.id/tdpse-detail/13573",
            "website": "-"
        },
        {
            "id": "9cb1ac1a-d756-4b9c-b875-a023e8ea429c",
            "nama_pse": "INDO TECHNO MEDIC",
            "nama_se": "TECHNO MEDIC",
            "sektor": "Sektor Kesehatan, Sektor Teknologi Informasi dan Komunikasi",
            "tanggal_terbit": "2023-01-20",
            "url_tdpse_detail": "https://pse.komdigi.go.id/tdpse-detail/13555",
            "website": "technomedic.id"
        },
        {
            "id": "9cb1ac2c-898b-4535-b029-b44231dbb83b",
            "nama_pse": "FREEDOM SUCCESS NETWORK",
            "nama_se": "PT FREEDOM SUCCESS INDONESIA",
            "sektor": "Sektor Teknologi Informasi dan Komunikasi",
            "tanggal_terbit": "2023-01-20",
            "url_tdpse_detail": "https://pse.komdigi.go.id/tdpse-detail/13554",
            "website": "-"
        },
        {
            "id": "9cb1ac2c-8f2f-42cf-8980-7d2ee1da34aa",
            "nama_pse": "DATA KREATIF",
            "nama_se": "SIMRS ID",
            "sektor": "Sektor Kesehatan, Sektor Teknologi Informasi dan Komunikasi",
            "tanggal_terbit": "2023-01-20",
            "url_tdpse_detail": "https://pse.komdigi.go.id/tdpse-detail/13556",
            "website": "-"
        },
        {
            "id": "9cb1ac3c-34a6-4e70-97e0-269fb476bd6d",
            "nama_pse": "EKOSISTEM DIGITAL NASIONAL",
            "nama_se": "SULTAN9JAMBI",
            "sektor": "Sektor Perdagangan, Sektor Teknologi Informasi dan Komunikasi",
            "tanggal_terbit": "2023-01-20",
            "url_tdpse_detail": "https://pse.komdigi.go.id/tdpse-detail/13560",
            "website": "sultan9jambi.com"
        },
        {
            "id": "9cb1ac2c-95b7-4099-98e6-c2e13e2a4d04",
            "nama_pse": "CHANDRA WIRAATMAJA",
            "nama_se": "PULSAXPRESS",
            "sektor": "Sektor Teknologi Informasi dan Komunikasi",
            "tanggal_terbit": "2023-01-20",
            "url_tdpse_detail": "https://pse.komdigi.go.id/tdpse-detail/13557",
            "website": "pulsaxpress.com"
        },
        {
            "id": "9cb1ac3c-38c9-45f5-918b-9b5f14cc98cd",
            "nama_pse": "FREEDOM SUCCESS NETWORK",
            "nama_se": "AHMADI",
            "sektor": "Sektor Teknologi Informasi dan Komunikasi",
            "tanggal_terbit": "2023-01-20",
            "url_tdpse_detail": "https://pse.komdigi.go.id/tdpse-detail/13558",
            "website": "-"
        },
        {
            "id": "9cb1ac2c-9c22-4b75-8e5d-bcf249693f53",
            "nama_pse": "SENTRI FAJAR SENTOSA",
            "nama_se": "PMSE - PERDAGANGAN MELALUI SISTEM ELEKTRONIK",
            "sektor": "Sektor Perdagangan",
            "tanggal_terbit": "2023-01-20",
            "url_tdpse_detail": "https://pse.komdigi.go.id/tdpse-detail/13559",
            "website": "spencers.id"
        },
        {
            "id": "9cb1ac1a-e1da-4768-bfb9-a2fb30f56891",
            "nama_pse": "RIZQI MULKI",
            "nama_se": "DEACAS",
            "sektor": "Sektor Teknologi Informasi dan Komunikasi",
            "tanggal_terbit": "2023-01-20",
            "url_tdpse_detail": "https://pse.komdigi.go.id/tdpse-detail/13561",
            "website": "deacas.com"
        },
        {
            "id": "9cb1ac1a-e501-4006-8143-b202e2006ba2",
            "nama_pse": "NUNU FATULAH",
            "nama_se": "BUNGTEMIN.NET",
            "sektor": "Sektor Teknologi Informasi dan Komunikasi",
            "tanggal_terbit": "2023-01-20",
            "url_tdpse_detail": "https://pse.komdigi.go.id/tdpse-detail/13562",
            "website": "bungtemin.com"
        },
        {
            "id": "9cb1ac3c-4425-40d3-8dfa-8f4a9d4b071e",
            "nama_pse": "NUNU FATULAH",
            "nama_se": "BUNGTEMIN",
            "sektor": "Sektor Teknologi Informasi dan Komunikasi",
            "tanggal_terbit": "2023-01-20",
            "url_tdpse_detail": "https://pse.komdigi.go.id/tdpse-detail/13563",
            "website": "bungtemin.net"
        },
        {
            "id": "9cb1ac3c-4709-40e7-aa12-c137470a618f",
            "nama_pse": "RIZQI MULKI",
            "nama_se": "NURAPAY",
            "sektor": "Sektor Teknologi Informasi dan Komunikasi",
            "tanggal_terbit": "2023-01-20",
            "url_tdpse_detail": "https://pse.komdigi.go.id/tdpse-detail/13564",
            "website": "nurapay.deacas.com"
        },
        {
            "id": "9cb1ac2c-b4f8-4cdd-ba80-0a37eac8c471",
            "nama_pse": "INR MEDIA ENTERTAINMENT",
            "nama_se": "NARASIBANGSA.COM",
            "sektor": "Sektor Teknologi Informasi dan Komunikasi",
            "tanggal_terbit": "2023-01-20",
            "url_tdpse_detail": "https://pse.komdigi.go.id/tdpse-detail/13566",
            "website": "Narasibangsa.com"
        },
        {
            "id": "9cb1ac1a-e7fe-4251-aa98-a719c7b09e9b",
            "nama_pse": "BMT KUM3 SORONG",
            "nama_se": "BMT KUM3 SORONG ONLINE",
            "sektor": "Sektor Teknologi Informasi dan Komunikasi",
            "tanggal_terbit": "2023-01-20",
            "url_tdpse_detail": "https://pse.komdigi.go.id/tdpse-detail/13567",
            "website": "-"
        },
        {
            "id": "9cb1ac1a-c6df-4dad-9fbd-70d4c2317b2c",
            "nama_pse": "SALVUS INTI",
            "nama_se": "ZIPRO",
            "sektor": "Sektor Perdagangan",
            "tanggal_terbit": "2023-01-19",
            "url_tdpse_detail": "https://pse.komdigi.go.id/tdpse-detail/13542",
            "website": "-"
        },
        {
            "id": "9cb1ac2c-6b6e-4cf9-b302-846e04485be4",
            "nama_pse": "DAN PEMBIAYAAN SYARIAH NUSA UMMAT SEJAHTERA",
            "nama_se": "BMT MOBILE ON LINE",
            "sektor": "Sektor Teknologi Informasi dan Komunikasi",
            "tanggal_terbit": "2023-01-19",
            "url_tdpse_detail": "https://pse.komdigi.go.id/tdpse-detail/13541",
            "website": "-"
        },
        {
            "id": "9cb1ac1a-cd8a-4292-889a-e9dddb0a2183",
            "nama_pse": "BANK PEREKONOMIAN RAKYAT ARTA NUSANTARA DAHA",
            "nama_se": "HTTPS://BANKARDA.ID",
            "sektor": "Sektor Keuangan",
            "tanggal_terbit": "2023-01-19",
            "url_tdpse_detail": "https://pse.komdigi.go.id/tdpse-detail/13548",
            "website": "bankarda.id"
        },
        {
            "id": "9cb1ac2c-71e6-46a5-932d-432609d46400",
            "nama_pse": "EKOSISTEM VIRTUAL ASISTEN",
            "nama_se": "EVA.ID",
            "sektor": "Sektor Perdagangan, Sektor Teknologi Informasi dan Komunikasi",
            "tanggal_terbit": "2023-01-19",
            "url_tdpse_detail": "https://pse.komdigi.go.id/tdpse-detail/13544",
            "website": "eva.id"
        },
        {
            "id": "9cb1ac2c-755c-4aca-8ece-16bfadfada22",
            "nama_pse": "IMAM TAQIUDDIN",
            "nama_se": "ZAAA SHOP",
            "sektor": "Sektor Perdagangan",
            "tanggal_terbit": "2023-01-19",
            "url_tdpse_detail": "https://pse.komdigi.go.id/tdpse-detail/13545",
            "website": "-"
        },
        {
            "id": "9cb1ac2c-7892-4b0d-944d-c453442a3f6f",
            "nama_pse": "WONGSOYUDAN PRATAMA INDONESIA",
            "nama_se": "COMIKA EVENT",
            "sektor": "Sektor Teknologi Informasi dan Komunikasi",
            "tanggal_terbit": "2023-01-19",
            "url_tdpse_detail": "https://pse.komdigi.go.id/tdpse-detail/13546",
            "website": "comikacomedy.club"
        }
    ],
    "processingTimeMs": 3,
    "query": "",
    "totalHits": 19121,
    "hitsPerPage": 50,
    "page": 159,
    "totalPages": 383
}