{
    "hits": [
        {
            "id": "9cb1ac40-38ac-4d40-ab4e-b873faf76109",
            "nama_pse": "BENDAHARA PENGELUARAN RUMKIT TK III CIREMAI",
            "nama_se": "MOBILE CIREMAI",
            "sektor": "Sektor Kesehatan",
            "tanggal_terbit": "2023-03-16",
            "url_tdpse_detail": "https://pse.komdigi.go.id/tdpse-detail/14124",
            "website": "mocie.rsciremai.com"
        },
        {
            "id": "9cb1ac1d-cb93-4c6b-b426-65aecf7e13f7",
            "nama_pse": "BENDAHARA PENGELUARAN RUMKIT TK III CIREMAI",
            "nama_se": "MOBILE STAF",
            "sektor": "Sektor Kesehatan",
            "tanggal_terbit": "2023-03-16",
            "url_tdpse_detail": "https://pse.komdigi.go.id/tdpse-detail/14125",
            "website": "mosta.rsciremai.com"
        },
        {
            "id": "9cb1ac30-2744-4ec5-aeac-18f62b46f4d1",
            "nama_pse": "KRISTEN UNTUK KESEHATAN UMUM",
            "nama_se": "SIM RS BETHESDA YOGYAKARTA",
            "sektor": "Sektor Kesehatan",
            "tanggal_terbit": "2023-03-16",
            "url_tdpse_detail": "https://pse.komdigi.go.id/tdpse-detail/14126",
            "website": "bethesda.or.id"
        },
        {
            "id": "9cb1ac1d-cec7-4095-9572-a6443062d700",
            "nama_pse": "BENDAHARA PENGELUARAN RUMKIT TK III CIREMAI",
            "nama_se": "MOBILE PENUNJANG",
            "sektor": "Sektor Kesehatan",
            "tanggal_terbit": "2023-03-16",
            "url_tdpse_detail": "https://pse.komdigi.go.id/tdpse-detail/14127",
            "website": "mojang.rsciremai.com"
        },
        {
            "id": "9cb1ac40-3dcc-4ae7-a6c7-fb18a446b2c0",
            "nama_pse": "DATACOMM DIANGRAHA",
            "nama_se": "PT DATACOMM DIANGRAHA",
            "sektor": "Sektor Teknologi Informasi dan Komunikasi",
            "tanggal_terbit": "2023-03-16",
            "url_tdpse_detail": "https://pse.komdigi.go.id/tdpse-detail/14131",
            "website": "daatcomm.co.id"
        },
        {
            "id": "9cb1ac30-2aec-4a9f-b610-f2bba18e06fe",
            "nama_pse": "MANUNGGAL JASA INVESTINDO",
            "nama_se": "PANGGIL TUKANG",
            "sektor": "Sektor Perdagangan, Sektor Teknologi Informasi dan Komunikasi",
            "tanggal_terbit": "2023-03-16",
            "url_tdpse_detail": "https://pse.komdigi.go.id/tdpse-detail/14130",
            "website": "panggiltukang.id"
        },
        {
            "id": "9cb1ac30-30e2-4859-9d64-2238be60c8db",
            "nama_pse": "SKORCARD TEKNOLOGI INDONESIA",
            "nama_se": "SKORCARD",
            "sektor": "Sektor Teknologi Informasi dan Komunikasi",
            "tanggal_terbit": "2023-03-16",
            "url_tdpse_detail": "https://pse.komdigi.go.id/tdpse-detail/14136",
            "website": "skorcard.app"
        },
        {
            "id": "9cb1ac1d-d1a5-44cb-bcf3-c24434f20994",
            "nama_pse": "DATACOMM DIANGRAHA",
            "nama_se": "DATACOMM",
            "sektor": "Sektor Teknologi Informasi dan Komunikasi",
            "tanggal_terbit": "2023-03-16",
            "url_tdpse_detail": "https://pse.komdigi.go.id/tdpse-detail/14132",
            "website": "datacomm.co.id"
        },
        {
            "id": "9cb1ac40-4374-4331-bfef-73bdbf88f9fb",
            "nama_pse": "AGRAPANA BINTANG TEKNOLOGI",
            "nama_se": "AGRAPANA BINTANG TEKNOLOGI",
            "sektor": "Sektor Perdagangan",
            "tanggal_terbit": "2023-03-16",
            "url_tdpse_detail": "https://pse.komdigi.go.id/tdpse-detail/14133",
            "website": "agrapanabintangteknologi.com"
        },
        {
            "id": "9cb1ac1d-d4ff-47fe-8b80-82ce64b05949",
            "nama_pse": "BIMA TEKNOLOGI SANTOSHA",
            "nama_se": "BIMA TEKNOLOGI SANTOSHA",
            "sektor": "Sektor Perdagangan",
            "tanggal_terbit": "2023-03-16",
            "url_tdpse_detail": "https://pse.komdigi.go.id/tdpse-detail/14134",
            "website": "bimateknologisantosha.com"
        },
        {
            "id": "9cb1ac1d-de6f-4800-ba36-8219f51b96ec",
            "nama_pse": "DAKSA ABHITAH NARARYA",
            "nama_se": "DAKSA ABHITAH NARARYA",
            "sektor": "Sektor Perdagangan",
            "tanggal_terbit": "2023-03-16",
            "url_tdpse_detail": "https://pse.komdigi.go.id/tdpse-detail/14137",
            "website": "daksaabhitahnararya.com"
        },
        {
            "id": "9cb1ac30-3457-4842-83ff-2c72d3adc185",
            "nama_pse": "MANALAGI TEKNOLOGI MULTIBUSSINES",
            "nama_se": "JURAGAN DIGITAL - PULSA \u0026 PPOB",
            "sektor": "Sektor Perdagangan",
            "tanggal_terbit": "2023-03-16",
            "url_tdpse_detail": "https://pse.komdigi.go.id/tdpse-detail/14138",
            "website": "-"
        },
        {
            "id": "9cb1ac30-37cd-4c46-b96b-fe74e7fc20dd",
            "nama_pse": "ANDREY FERRIYAN",
            "nama_se": "SISTEM INFORMASI RUMAH SAKIT",
            "sektor": "Sektor Kesehatan, Sektor Teknologi Informasi dan Komunikasi",
            "tanggal_terbit": "2023-03-16",
            "url_tdpse_detail": "https://pse.komdigi.go.id/tdpse-detail/14139",
            "website": "atsoft.co.id"
        },
        {
            "id": "9cb1ac3f-9fb5-4e2c-b751-62a20ea56a2a",
            "nama_pse": "AXA FINANCIAL INDONESIA",
            "nama_se": "BAT SELF LEARNING",
            "sektor": "Sektor Keuangan",
            "tanggal_terbit": "2023-03-15",
            "url_tdpse_detail": "https://pse.komdigi.go.id/tdpse-detail/14104",
            "website": "-"
        },
        {
            "id": "9cb1ac3f-a355-428b-963b-cf86e7a1bd04",
            "nama_pse": "AXA FINANCIAL INDONESIA",
            "nama_se": "AFI ERECRUIT",
            "sektor": "Sektor Keuangan",
            "tanggal_terbit": "2023-03-15",
            "url_tdpse_detail": "https://pse.komdigi.go.id/tdpse-detail/14105",
            "website": "-"
        },
        {
            "id": "9cb1ac2f-e969-4ccc-9e4a-70b6850b84b1",
            "nama_pse": "TOP REMIT",
            "nama_se": "TOPREMIT",
            "sektor": "Sektor Keuangan",
            "tanggal_terbit": "2023-03-15",
            "url_tdpse_detail": "https://pse.komdigi.go.id/tdpse-detail/14106",
            "website": "topremit.com"
        },
        {
            "id": "9cb1ac3f-d9aa-4b21-99af-8b00efcd23a9",
            "nama_pse": "CIPTA MITRA STRATEGIS INDONESIA",
            "nama_se": "CREW MANNING SYSTEM",
            "sektor": "Sektor Teknologi Informasi dan Komunikasi",
            "tanggal_terbit": "2023-03-15",
            "url_tdpse_detail": "https://pse.komdigi.go.id/tdpse-detail/14113",
            "website": "ciptamitrastrategis.com"
        },
        {
            "id": "9cb1ac1d-7fe2-4b5f-a644-1b7971ef1f91",
            "nama_pse": "BANK PEREKONOMIAN RAKYAT ARTHA MITRA KENCANA",
            "nama_se": "BPR AMK AGEN",
            "sektor": "Sektor Keuangan",
            "tanggal_terbit": "2023-03-15",
            "url_tdpse_detail": "https://pse.komdigi.go.id/tdpse-detail/14107",
            "website": "-"
        },
        {
            "id": "9cb1ac1d-89da-4a99-9e78-eca7db53cd3a",
            "nama_pse": "MEDIA ZAKI PRATAMA",
            "nama_se": "MATAHARIPOST.ID",
            "sektor": "Sektor Teknologi Informasi dan Komunikasi",
            "tanggal_terbit": "2023-03-15",
            "url_tdpse_detail": "https://pse.komdigi.go.id/tdpse-detail/14100",
            "website": "mataharipost.id"
        },
        {
            "id": "9cb1ac3f-f3ab-4cdd-9479-f403b311c8cb",
            "nama_pse": "BENDAHARA PENGELUARAN RUMKIT TK III CIREMAI",
            "nama_se": "SIMRS CIREMAI",
            "sektor": "Sektor Kesehatan",
            "tanggal_terbit": "2023-03-15",
            "url_tdpse_detail": "https://pse.komdigi.go.id/tdpse-detail/14101",
            "website": "moter.rsciremai.com"
        },
        {
            "id": "9cb1ac2f-fdc8-4e9a-a668-61883efdd610",
            "nama_pse": "BIN ARIS CORP",
            "nama_se": "WEBSITE BINARISCORP",
            "sektor": "Sektor Perdagangan",
            "tanggal_terbit": "2023-03-15",
            "url_tdpse_detail": "https://pse.komdigi.go.id/tdpse-detail/14102",
            "website": "binariscorp.co.id"
        },
        {
            "id": "9cb1ac3f-fe94-44ef-96ea-eab5bd65d09a",
            "nama_pse": "XERA DIGITAL STUDIO",
            "nama_se": "XERA DIGITAL STUDIO",
            "sektor": "Sektor Perdagangan, Sektor Teknologi Informasi dan Komunikasi",
            "tanggal_terbit": "2023-03-15",
            "url_tdpse_detail": "https://pse.komdigi.go.id/tdpse-detail/14103",
            "website": "xeradigital.com"
        },
        {
            "id": "9cb1ac1d-9a5e-4e7f-9c37-f8f1f7aadaac",
            "nama_pse": "LAJU ANUGRAH JAYA",
            "nama_se": "LAJU ANUGRAH JAYA",
            "sektor": "Sektor Perdagangan",
            "tanggal_terbit": "2023-03-15",
            "url_tdpse_detail": "https://pse.komdigi.go.id/tdpse-detail/14110",
            "website": "-"
        },
        {
            "id": "9cb1ac30-096c-4bd0-9211-a45b774ef0aa",
            "nama_pse": "MUTIARA BUNDA",
            "nama_se": "SIMRS (SISTEM INFORMASI MANAJEMEN RUMAH SAKIT) – IMS (INTEGRATED MANAJEMEN SYSTEM)",
            "sektor": "Sektor Teknologi Informasi dan Komunikasi",
            "tanggal_terbit": "2023-03-15",
            "url_tdpse_detail": "https://pse.komdigi.go.id/tdpse-detail/14109",
            "website": "rsuimutiarabundabrebes.com"
        },
        {
            "id": "9cb1ac30-0c95-4483-99e5-03dea39af45d",
            "nama_pse": "APLIKASI YELOW OLAHKATA",
            "nama_se": "HALOYELOW",
            "sektor": "Sektor Perdagangan, Sektor Teknologi Informasi dan Komunikasi",
            "tanggal_terbit": "2023-03-15",
            "url_tdpse_detail": "https://pse.komdigi.go.id/tdpse-detail/14112",
            "website": "haloyelow.com"
        },
        {
            "id": "9cb1ac1d-a044-4199-88ea-ec3c1eecacca",
            "nama_pse": "AGARA CIPTA MANDIRI",
            "nama_se": "SERTISIGN",
            "sektor": "Sektor Teknologi Informasi dan Komunikasi",
            "tanggal_terbit": "2023-03-15",
            "url_tdpse_detail": "https://pse.komdigi.go.id/tdpse-detail/14111",
            "website": "SERTISIGN.ID"
        },
        {
            "id": "9cb1ac30-12bb-4853-a5c1-9b09e6c4b194",
            "nama_pse": "BIN ARIS CORP",
            "nama_se": "SIMRS PARU JAWA BARAT",
            "sektor": "Sektor Kesehatan",
            "tanggal_terbit": "2023-03-15",
            "url_tdpse_detail": "https://pse.komdigi.go.id/tdpse-detail/14114",
            "website": "sim.rspsidawangi.org"
        },
        {
            "id": "9cb1ac30-157f-4733-817b-fde370ef8de1",
            "nama_pse": "BIN ARIS CORP",
            "nama_se": "SIMRS KENCANA SERANG",
            "sektor": "Sektor Kesehatan",
            "tanggal_terbit": "2023-03-15",
            "url_tdpse_detail": "https://pse.komdigi.go.id/tdpse-detail/14115",
            "website": "simrs.rskencanaserang.com"
        },
        {
            "id": "9cb1ac1d-ae51-4ef9-a9b3-7445eada0076",
            "nama_pse": "BIN ARIS CORP",
            "nama_se": "SIMRS PUTRIHIJAU MEDAN",
            "sektor": "Sektor Kesehatan",
            "tanggal_terbit": "2023-03-15",
            "url_tdpse_detail": "https://pse.komdigi.go.id/tdpse-detail/14116",
            "website": "sim.rumkitputrihijau.com"
        },
        {
            "id": "9cb1ac30-193c-4922-9c36-b0afd02892f1",
            "nama_pse": "BIN ARIS CORP",
            "nama_se": "SIMRS MUHAMMADIYAH CIREBON",
            "sektor": "Sektor Kesehatan",
            "tanggal_terbit": "2023-03-15",
            "url_tdpse_detail": "https://pse.komdigi.go.id/tdpse-detail/14117",
            "website": "rsum-crb.com"
        },
        {
            "id": "9cb1ac40-2d7e-489b-878c-120b1b47be24",
            "nama_pse": "MUDA MELAYANI DUNIA",
            "nama_se": "STUDRILL",
            "sektor": "Sektor Teknologi Informasi dan Komunikasi",
            "tanggal_terbit": "2023-03-15",
            "url_tdpse_detail": "https://pse.komdigi.go.id/tdpse-detail/14118",
            "website": "studrill.com"
        },
        {
            "id": "9cb1ac1d-b210-4076-9fe7-df5bba435c7c",
            "nama_pse": "PIRANTI SYSTEM",
            "nama_se": "PIRANTI SYSTEM",
            "sektor": "Sektor Teknologi Informasi dan Komunikasi",
            "tanggal_terbit": "2023-03-15",
            "url_tdpse_detail": "https://pse.komdigi.go.id/tdpse-detail/14119",
            "website": "-"
        },
        {
            "id": "9cb1ac1d-bb9b-45f1-8ca9-1a9f698c6b6e",
            "nama_pse": "INDO JARINGAN UTAMA",
            "nama_se": "INTERNET SERVICE PROVIDER",
            "sektor": "Sektor Teknologi Informasi dan Komunikasi",
            "tanggal_terbit": "2023-03-15",
            "url_tdpse_detail": "https://pse.komdigi.go.id/tdpse-detail/14120",
            "website": "-"
        },
        {
            "id": "9cb1ac3f-1a19-4bab-b362-9292cd54ab43",
            "nama_pse": "SENNA KREASI NUSA",
            "nama_se": "SENNA",
            "sektor": "Sektor Teknologi Informasi dan Komunikasi",
            "tanggal_terbit": "2023-03-14",
            "url_tdpse_detail": "https://pse.komdigi.go.id/tdpse-detail/14083",
            "website": "senna.co.id"
        },
        {
            "id": "9cb1ac2f-9ace-4da5-9acb-fc425b8b93e2",
            "nama_pse": "WIDYA INDONESIA SEJAHTERA",
            "nama_se": "WIDYA SKILLOKA",
            "sektor": "Sektor Teknologi Informasi dan Komunikasi",
            "tanggal_terbit": "2023-03-14",
            "url_tdpse_detail": "https://pse.komdigi.go.id/tdpse-detail/14084",
            "website": "widyaskilloka.com"
        },
        {
            "id": "9cb1ac2f-e47b-4a3b-987a-76038c5e2940",
            "nama_pse": "A HERMAN ARYADI",
            "nama_se": "GOSTARTUP",
            "sektor": "Sektor Perdagangan",
            "tanggal_terbit": "2023-03-14",
            "url_tdpse_detail": "https://pse.komdigi.go.id/tdpse-detail/14093",
            "website": "gostartup.tech"
        },
        {
            "id": "9cb1ac3f-a695-4829-a2ee-775850b96cc6",
            "nama_pse": "MOTOROLA SOLUTIONS INDONESIA",
            "nama_se": "WAVE PTX",
            "sektor": "Sektor Teknologi Informasi dan Komunikasi",
            "tanggal_terbit": "2023-03-14",
            "url_tdpse_detail": "https://pse.komdigi.go.id/tdpse-detail/14085",
            "website": "motorolasolutions.com"
        },
        {
            "id": "9cb1ac1d-700c-4860-a0f2-e645d081a88c",
            "nama_pse": "RUMAH SAKIT UMUM DAERAH KANJURUHAN",
            "nama_se": "SIMRS RSUD KANJURUHAN",
            "sektor": "Sektor Kesehatan",
            "tanggal_terbit": "2023-03-14",
            "url_tdpse_detail": "https://pse.komdigi.go.id/tdpse-detail/14082",
            "website": "simrs.rsud-kanjuruhan.com"
        },
        {
            "id": "9cb1ac3f-b623-4388-b936-8c7ef4d3ae91",
            "nama_pse": "SAHABAT",
            "nama_se": "SIMRS SAHABAT",
            "sektor": "Sektor Kesehatan",
            "tanggal_terbit": "2023-03-14",
            "url_tdpse_detail": "https://pse.komdigi.go.id/tdpse-detail/14086",
            "website": "-"
        },
        {
            "id": "9cb1ac3f-bcc8-44e0-8287-3532a259b848",
            "nama_pse": "BERMAIN BERSAMA INDONESIA",
            "nama_se": "VOCAGAME BISNIS",
            "sektor": "Sektor Teknologi Informasi dan Komunikasi",
            "tanggal_terbit": "2023-03-14",
            "url_tdpse_detail": "https://pse.komdigi.go.id/tdpse-detail/14087",
            "website": "bisnis.vocagame.com"
        },
        {
            "id": "9cb1ac3f-c0bc-493c-b41f-4795f789b335",
            "nama_pse": "MULTI DAYA ESTETIKA",
            "nama_se": "SIM KLINIK DR JO",
            "sektor": "Sektor Kesehatan",
            "tanggal_terbit": "2023-03-14",
            "url_tdpse_detail": "https://pse.komdigi.go.id/tdpse-detail/14088",
            "website": "klinikdrjo.com"
        },
        {
            "id": "9cb1ac3f-c4a1-4432-9fa3-aecfc767e3ef",
            "nama_pse": "BERMAIN BERSAMA INDONESIA",
            "nama_se": "PANEL VOCAGAME",
            "sektor": "Sektor Teknologi Informasi dan Komunikasi",
            "tanggal_terbit": "2023-03-14",
            "url_tdpse_detail": "https://pse.komdigi.go.id/tdpse-detail/14089",
            "website": "panel.vocagame.com"
        },
        {
            "id": "9cb1ac3f-c951-47b7-ba30-5208a6be6894",
            "nama_pse": "BOBOBOX MITRA INDONESIA",
            "nama_se": "BOBOBOX.COM",
            "sektor": "Sektor Perdagangan",
            "tanggal_terbit": "2023-03-14",
            "url_tdpse_detail": "https://pse.komdigi.go.id/tdpse-detail/14090",
            "website": "bobobox.com"
        },
        {
            "id": "9cb1ac1d-78e4-4103-9e68-1427f9b0da78",
            "nama_pse": "BLAMBANGAN INTI WARTINDO",
            "nama_se": "BULETINLAMPUNG.COM",
            "sektor": "Sektor Teknologi Informasi dan Komunikasi",
            "tanggal_terbit": "2023-03-14",
            "url_tdpse_detail": "https://pse.komdigi.go.id/tdpse-detail/14091",
            "website": "buletinlampung.com"
        },
        {
            "id": "9cb1ac3f-cc75-45b4-bdb8-60f678e408cf",
            "nama_pse": "WIDYA KREASI BANGSA",
            "nama_se": "WIDYA EDU DAN EDSPERT.ID",
            "sektor": "Sektor Teknologi Informasi dan Komunikasi",
            "tanggal_terbit": "2023-03-14",
            "url_tdpse_detail": "https://pse.komdigi.go.id/tdpse-detail/14092",
            "website": "-"
        },
        {
            "id": "9cb1ac3f-ddb3-46e9-8896-84fc3dc59191",
            "nama_pse": "ESA LINGUA INTERNASIONAL",
            "nama_se": "ELINGWAY",
            "sektor": "Sektor Teknologi Informasi dan Komunikasi",
            "tanggal_terbit": "2023-03-14",
            "url_tdpse_detail": "https://pse.komdigi.go.id/tdpse-detail/14094",
            "website": "elingway.id"
        },
        {
            "id": "9cb1ac3f-e34a-4f9f-aca0-80114a34ea68",
            "nama_pse": "ICONS MEDIA NUSANTARA",
            "nama_se": "ID.DESA (INTEGRASI DATA DESA)",
            "sektor": "Sektor Teknologi Informasi dan Komunikasi",
            "tanggal_terbit": "2023-03-14",
            "url_tdpse_detail": "https://pse.komdigi.go.id/tdpse-detail/14095",
            "website": "id-desa.centurion.id"
        },
        {
            "id": "9cb1ac2f-f2e3-4117-8c3e-bc6296ac2076",
            "nama_pse": "YULIA LASTRI",
            "nama_se": "JASA BUKAOLSHOPP",
            "sektor": "Sektor Energi dan Sumber Daya Mineral",
            "tanggal_terbit": "2023-03-14",
            "url_tdpse_detail": "https://pse.komdigi.go.id/tdpse-detail/14096",
            "website": "Jasa-bo.com"
        },
        {
            "id": "9cb1ac1d-8634-439b-acd0-9c9c3957ca26",
            "nama_pse": "TGC NET GROUP",
            "nama_se": "PT TGC NET GROUP",
            "sektor": "Sektor Teknologi Informasi dan Komunikasi",
            "tanggal_terbit": "2023-03-14",
            "url_tdpse_detail": "https://pse.komdigi.go.id/tdpse-detail/14097",
            "website": "-"
        },
        {
            "id": "9cb1ac3f-ea9e-48e6-9bfd-c4c82526c842",
            "nama_pse": "GEMILANG MEDIA TEKNOLOGI",
            "nama_se": "ONECLINIC",
            "sektor": "Sektor Kesehatan",
            "tanggal_terbit": "2023-03-14",
            "url_tdpse_detail": "https://pse.komdigi.go.id/tdpse-detail/14098",
            "website": "oneclinic.id"
        }
    ],
    "processingTimeMs": 3,
    "query": "",
    "totalHits": 19131,
    "hitsPerPage": 50,
    "page": 150,
    "totalPages": 383
}