{
    "hits": [
        {
            "id": "9cb1abed-6d16-4572-8bf8-c074d759ad99",
            "nama_pse": "DR.SYLVIA IRAWATI",
            "nama_se": "NUTRI \u0026 BEYOND",
            "sektor": "Sektor Kesehatan",
            "tanggal_terbit": "2022-07-20",
            "url_tdpse_detail": "https://pse.komdigi.go.id/tdpse-detail/8092",
            "website": "nutriandbeyond.com"
        },
        {
            "id": "9cb1abed-702a-4a95-894e-b520eaf04478",
            "nama_pse": "BANK PERKREDITAN RAKYAT METRO ASIA MANDIRI",
            "nama_se": "BPRMETROASIAMANDIRI.COM",
            "sektor": "Sektor Keuangan",
            "tanggal_terbit": "2022-07-20",
            "url_tdpse_detail": "https://pse.komdigi.go.id/tdpse-detail/8094",
            "website": "Bprmetroasiamandiri.com"
        },
        {
            "id": "9cb1abba-5299-4c34-8c56-3c611ad90016",
            "nama_pse": "MAHKOTA PERMATA JAYA",
            "nama_se": "CENTRALGROUP10X.COM",
            "sektor": "Sektor Perdagangan",
            "tanggal_terbit": "2022-07-20",
            "url_tdpse_detail": "https://pse.komdigi.go.id/tdpse-detail/8069",
            "website": "centralgroup10x.com"
        },
        {
            "id": "9cb1abba-547d-4af9-b204-6fe2b1683a06",
            "nama_pse": "FOODS BEVERAGES INDONESIA",
            "nama_se": "WEBSITE CHATIME INDONESIA (WWW.CHATIME.CO.ID)",
            "sektor": "Sektor Perdagangan, Sektor Teknologi Informasi dan Komunikasi",
            "tanggal_terbit": "2022-07-20",
            "url_tdpse_detail": "https://pse.komdigi.go.id/tdpse-detail/8070",
            "website": "chatime.co.id"
        },
        {
            "id": "9cb1abc7-8833-4091-91e6-29c84d756dc2",
            "nama_pse": "BANK PEMBANGUNAN DAERAH SULAWESI TENGAH",
            "nama_se": "BANK SULTENG INTERNET BANKING COORPORATE",
            "sektor": "Sektor Keuangan, Sektor Teknologi Informasi dan Komunikasi",
            "tanggal_terbit": "2022-07-20",
            "url_tdpse_detail": "https://pse.komdigi.go.id/tdpse-detail/8072",
            "website": "ibc.banksulteng.co.id"
        },
        {
            "id": "9cb1abc7-8ce9-444e-ac9a-9c2dfdc8883d",
            "nama_pse": "BANK PERKREDITAN RAKYAT PURNAWIRAWAN INDONESIA",
            "nama_se": "PT BPR BAPURI",
            "sektor": "Sektor Keuangan",
            "tanggal_terbit": "2022-07-20",
            "url_tdpse_detail": "https://pse.komdigi.go.id/tdpse-detail/8071",
            "website": "-"
        },
        {
            "id": "9cb1abba-5646-4b55-945b-d34a434c8496",
            "nama_pse": "MALUKU MEDIA INDONESIA",
            "nama_se": "INTIM DIGITAL ONLINE",
            "sektor": "Sektor Perdagangan, Sektor Teknologi Informasi dan Komunikasi",
            "tanggal_terbit": "2022-07-20",
            "url_tdpse_detail": "https://pse.komdigi.go.id/tdpse-detail/8076",
            "website": "ambontoday.com"
        },
        {
            "id": "9cb1abba-582b-4cb0-a280-f4d0706a9578",
            "nama_pse": "PD BPR BAHTERAMAS BUTON UTARA",
            "nama_se": "PD BPR BAHTERAMAS BUTON UTARA",
            "sektor": "Sektor Keuangan",
            "tanggal_terbit": "2022-07-20",
            "url_tdpse_detail": "https://pse.komdigi.go.id/tdpse-detail/8077",
            "website": "-"
        },
        {
            "id": "9cb1abed-74cd-42be-bc6b-5ddfd71d02c2",
            "nama_pse": "BANK PERKREDITAN RAKYAT SATYA ARTHA",
            "nama_se": "WWW.SATYAARTHA.CO.ID",
            "sektor": "Sektor Keuangan",
            "tanggal_terbit": "2022-07-20",
            "url_tdpse_detail": "https://pse.komdigi.go.id/tdpse-detail/8073",
            "website": "satyaartha.co.id"
        },
        {
            "id": "9cb1abba-59f0-4c47-a85b-0f68b6f04b54",
            "nama_pse": "TEKNOLOGIKA INTEGRATOR INDONESIA",
            "nama_se": "JAKARTAWEBHOSTING.COM",
            "sektor": "Sektor Teknologi Informasi dan Komunikasi",
            "tanggal_terbit": "2022-07-20",
            "url_tdpse_detail": "https://pse.komdigi.go.id/tdpse-detail/8075",
            "website": "jakartawebhosting.com"
        },
        {
            "id": "9cb1abc7-93f4-43ff-9ef7-cb2a4724e0da",
            "nama_pse": "BANK PEMBANGUNAN DAERAH PAPUA",
            "nama_se": "PAPUA DIGITAL SERVICE",
            "sektor": "Sektor Keuangan",
            "tanggal_terbit": "2022-07-20",
            "url_tdpse_detail": "https://pse.komdigi.go.id/tdpse-detail/8095",
            "website": "digital.bankpapua.co.id"
        },
        {
            "id": "9cb1abc7-98b9-412a-9d7b-106ea10d34df",
            "nama_pse": "MAHKOTA PERMATA JAYA",
            "nama_se": "SERENITYCENTRAL.ID",
            "sektor": "Sektor Perdagangan",
            "tanggal_terbit": "2022-07-20",
            "url_tdpse_detail": "https://pse.komdigi.go.id/tdpse-detail/8079",
            "website": "serenitycentral.id"
        },
        {
            "id": "9cb1abba-5bbd-4112-8d83-4064281e7b37",
            "nama_pse": "FOODS BEVERAGES INDONESIA",
            "nama_se": "MOBILE APP CHATIME INDONESIA",
            "sektor": "Sektor Perdagangan, Sektor Teknologi Informasi dan Komunikasi",
            "tanggal_terbit": "2022-07-20",
            "url_tdpse_detail": "https://pse.komdigi.go.id/tdpse-detail/8078",
            "website": "chatime.co.id"
        },
        {
            "id": "9cb1abc7-9d90-46ba-8e40-bff5ee539f96",
            "nama_pse": "JOGJAKITA MULTI ANDALAN",
            "nama_se": "JOGJAKITA BISNIS",
            "sektor": "Sektor Perdagangan, Sektor Teknologi Informasi dan Komunikasi",
            "tanggal_terbit": "2022-07-20",
            "url_tdpse_detail": "https://pse.komdigi.go.id/tdpse-detail/8081",
            "website": "jogjakita.co.id"
        },
        {
            "id": "9cb1abc7-a351-4e45-bcbb-78a81b800e88",
            "nama_pse": "BANK PERKREDITAN RAKYAT PRABUMEGAH KENCANA",
            "nama_se": "WEBSITE PT BPR PRABUMEGAH KENCANA",
            "sektor": "Sektor Teknologi Informasi dan Komunikasi",
            "tanggal_terbit": "2022-07-20",
            "url_tdpse_detail": "https://pse.komdigi.go.id/tdpse-detail/8083",
            "website": "bprprabumegahkencana.co.id"
        },
        {
            "id": "9cb1abc7-b539-49cf-80d1-cac16cf3ee94",
            "nama_pse": "MAHKOTA PERMATA JAYA",
            "nama_se": "THECENTRALPROPERTY.COM",
            "sektor": "Sektor Perdagangan",
            "tanggal_terbit": "2022-07-20",
            "url_tdpse_detail": "https://pse.komdigi.go.id/tdpse-detail/8086",
            "website": "thecentralproperty.com"
        },
        {
            "id": "9cb1abba-5da1-417d-aed2-8ba826e7a224",
            "nama_pse": "BANK PEREKONOMIAN RAKYAT MADANI SEJAHTERA ABADI",
            "nama_se": "BANK PERKREDITAN RAKYAT MADANI SEJAHTERA ABADI",
            "sektor": "Sektor Keuangan",
            "tanggal_terbit": "2022-07-20",
            "url_tdpse_detail": "https://pse.komdigi.go.id/tdpse-detail/8093",
            "website": "-"
        },
        {
            "id": "9cb1abba-5f6c-4dac-909c-1ae946438f85",
            "nama_pse": "BANK SYARIAH INDONESIA",
            "nama_se": "BSI QRIS MERCHANT",
            "sektor": "Sektor Keuangan",
            "tanggal_terbit": "2022-07-20",
            "url_tdpse_detail": "https://pse.komdigi.go.id/tdpse-detail/8087",
            "website": "-"
        },
        {
            "id": "9cb1abed-7908-4bcf-9514-0d889c28bf27",
            "nama_pse": "BANK PEREKONOMIAN RAKYAT ARAYA ARTA",
            "nama_se": "WEBSITE",
            "sektor": "Sektor Keuangan",
            "tanggal_terbit": "2022-07-20",
            "url_tdpse_detail": "https://pse.komdigi.go.id/tdpse-detail/8102",
            "website": "bprarayaarta.co.id"
        },
        {
            "id": "9cb1abba-611d-4239-bb08-111433cf0cb2",
            "nama_pse": "BANK PERKREDITAN RAKYAT MANGATUR GANDA",
            "nama_se": "APLIKASI RETAIL BPR",
            "sektor": "Sektor Keuangan",
            "tanggal_terbit": "2022-07-20",
            "url_tdpse_detail": "https://pse.komdigi.go.id/tdpse-detail/8089",
            "website": "-"
        },
        {
            "id": "9cb1abed-7c73-4569-aab0-45d7d7f08cce",
            "nama_pse": "PACKET SYSTEMS INDONESIA",
            "nama_se": "PT PACKET SYSTEMS INDONESIA",
            "sektor": "Sektor Teknologi Informasi dan Komunikasi",
            "tanggal_terbit": "2022-07-20",
            "url_tdpse_detail": "https://pse.komdigi.go.id/tdpse-detail/8091",
            "website": "packet-systems.com"
        },
        {
            "id": "9cb1abed-8057-4a85-a127-07d738ba4fce",
            "nama_pse": "ALAN MEDIATECH INDONESIA",
            "nama_se": "ALAN DESA",
            "sektor": "Sektor Perdagangan, Sektor Teknologi Informasi dan Komunikasi",
            "tanggal_terbit": "2022-07-20",
            "url_tdpse_detail": "https://pse.komdigi.go.id/tdpse-detail/8090",
            "website": "alandesa.com"
        },
        {
            "id": "9cb1abed-ae39-4df0-9cfe-7b47c2eb98cb",
            "nama_pse": "SANGKURIANG SINERGI INSAN",
            "nama_se": "PT SANGKURIANG SINERI INSAN",
            "sektor": "Sektor Perdagangan",
            "tanggal_terbit": "2022-07-20",
            "url_tdpse_detail": "https://pse.komdigi.go.id/tdpse-detail/8097",
            "website": "sangquvision.co.id"
        },
        {
            "id": "9cb1abba-62f8-4e94-af52-84d169ce712c",
            "nama_pse": "ROYAL ASSETINDO",
            "nama_se": "TRADEPROFX",
            "sektor": "Sektor Perdagangan, Sektor Keuangan",
            "tanggal_terbit": "2022-07-20",
            "url_tdpse_detail": "https://pse.komdigi.go.id/tdpse-detail/8099",
            "website": "-"
        },
        {
            "id": "9cb1abed-ba7d-4ffe-8687-fa132fd6981e",
            "nama_pse": "MAHKOTA PERMATA JAYA",
            "nama_se": "CENTRALCORPORATIONS.COM",
            "sektor": "Sektor Perdagangan",
            "tanggal_terbit": "2022-07-20",
            "url_tdpse_detail": "https://pse.komdigi.go.id/tdpse-detail/8098",
            "website": "centralcorporations.com"
        },
        {
            "id": "9cb1abba-64e6-49f8-8655-ab22dab3848b",
            "nama_pse": "ALKALAM MULIA UNIVERSAL",
            "nama_se": "WEBSITE ELSON SOLUSI GLOBAL",
            "sektor": "Sektor Perdagangan",
            "tanggal_terbit": "2022-07-20",
            "url_tdpse_detail": "https://pse.komdigi.go.id/tdpse-detail/8123",
            "website": "elson.co.id"
        },
        {
            "id": "9cb1abed-c193-4869-abcf-d635c9eee963",
            "nama_pse": "REALTA CHAKRADARMA",
            "nama_se": "IHCI, HOUSE CALL COLLECTION, IHC, LAB PROCESS",
            "sektor": "Sektor Kesehatan",
            "tanggal_terbit": "2022-07-20",
            "url_tdpse_detail": "https://pse.komdigi.go.id/tdpse-detail/8163",
            "website": "-"
        },
        {
            "id": "9cb1abed-c775-4daf-bc2e-a0800db73588",
            "nama_pse": "BANK PEREKONOMIAN RAKYAT KARYAJATNIKA SADAYA",
            "nama_se": "TIKETING AKSES",
            "sektor": "Sektor Keuangan",
            "tanggal_terbit": "2022-07-20",
            "url_tdpse_detail": "https://pse.komdigi.go.id/tdpse-detail/8100",
            "website": "-"
        },
        {
            "id": "9cb1abba-66b8-454b-bdeb-4c47c37d2201",
            "nama_pse": "BTPN SYARIAH VENTURA",
            "nama_se": " WEBSITE PT BTPN SYARIAH VENTURA",
            "sektor": "Sektor Keuangan",
            "tanggal_terbit": "2022-07-20",
            "url_tdpse_detail": "https://pse.komdigi.go.id/tdpse-detail/8101",
            "website": "btpnsyariahventura.com"
        },
        {
            "id": "9cb1abc7-c24a-4e27-b243-2be07390bb34",
            "nama_pse": "MAHKOTA PERMATA JAYA",
            "nama_se": "THECENTRALHOMES.COM",
            "sektor": "Sektor Perdagangan",
            "tanggal_terbit": "2022-07-20",
            "url_tdpse_detail": "https://pse.komdigi.go.id/tdpse-detail/8103",
            "website": "thecentralhomes.com"
        },
        {
            "id": "9cb1abba-68a1-4ae4-9a09-820154a8ffa0",
            "nama_pse": "restu sukmara",
            "nama_se": "RESTU RELOAD",
            "sektor": "Sektor Perdagangan",
            "tanggal_terbit": "2022-07-20",
            "url_tdpse_detail": "https://pse.komdigi.go.id/tdpse-detail/8104",
            "website": "restureload.com"
        },
        {
            "id": "9cb1abed-ce77-4b36-8194-992b47ac4c45",
            "nama_pse": "KAIA PROJECT",
            "nama_se": "KAIA-PAY: AGEN PULSA \u0026 PPOB MURAH",
            "sektor": "Sektor Perdagangan",
            "tanggal_terbit": "2022-07-20",
            "url_tdpse_detail": "https://pse.komdigi.go.id/tdpse-detail/8106",
            "website": "kaiapay.co.id"
        },
        {
            "id": "9cb1abba-6aaf-4c7f-8de9-ae0c8d839abd",
            "nama_pse": "PERUSAHAAN PERSEROAN (PERSERO) PT. TELEKOMUNIKASI INDONESIA",
            "nama_se": "SELECTION EXAM 1",
            "sektor": "Sektor Teknologi Informasi dan Komunikasi",
            "tanggal_terbit": "2022-07-20",
            "url_tdpse_detail": "https://pse.komdigi.go.id/tdpse-detail/8158",
            "website": "exam1.telkom.co.id"
        },
        {
            "id": "9cb1abc7-c628-44d8-94fd-b14baf6f4be8",
            "nama_pse": "JABARSOFT TEKNOLOGI INDONESIA",
            "nama_se": "WEBSITE APOTEK ONLINE",
            "sektor": "Sektor Kesehatan",
            "tanggal_terbit": "2022-07-20",
            "url_tdpse_detail": "https://pse.komdigi.go.id/tdpse-detail/8105",
            "website": "pharmacy-mahira.com"
        },
        {
            "id": "9cb1abed-d461-44ce-a69b-83b0eacc4bc2",
            "nama_pse": "BANK PERKREDITAN RAKYAT BANK DAERAH BANGLI",
            "nama_se": "APLIKASI PUNGUTAN TABUNGAN DAN KREDIT",
            "sektor": "Sektor Keuangan",
            "tanggal_terbit": "2022-07-20",
            "url_tdpse_detail": "https://pse.komdigi.go.id/tdpse-detail/8107",
            "website": "pungutan.bankdaerahbangli.co.id"
        },
        {
            "id": "9cb1abba-6c77-46e4-a8ab-35d3c7e32bb4",
            "nama_pse": "IKATAN PSIKOLOG KLINIS INDONESIA",
            "nama_se": "PORTAL WEB DAN SISTEM INFORMASI IPK INDONESIA",
            "sektor": "Sektor Kesehatan, Sektor Teknologi Informasi dan Komunikasi",
            "tanggal_terbit": "2022-07-20",
            "url_tdpse_detail": "https://pse.komdigi.go.id/tdpse-detail/8111",
            "website": "ipkindonesia.or.id"
        },
        {
            "id": "9cb1abba-6e43-42ac-9862-d6e9b1044fc1",
            "nama_pse": "DATA INTI PRIMA",
            "nama_se": "SISTEM ASSET MANAGEMENT",
            "sektor": "Sektor Teknologi Informasi dan Komunikasi",
            "tanggal_terbit": "2022-07-20",
            "url_tdpse_detail": "https://pse.komdigi.go.id/tdpse-detail/8110",
            "website": "assetlive.net"
        },
        {
            "id": "9cb1abed-d766-4e90-af57-8361dfedeeb3",
            "nama_pse": "MAHKOTA PERMATA JAYA",
            "nama_se": "THEICONCENTRAL.COM",
            "sektor": "Sektor Perdagangan",
            "tanggal_terbit": "2022-07-20",
            "url_tdpse_detail": "https://pse.komdigi.go.id/tdpse-detail/8109",
            "website": "theiconcentral.com"
        },
        {
            "id": "9cb1abed-db07-4df5-b012-fa0c7c620303",
            "nama_pse": "PERUSAHAAN PERSEROAN (PERSERO) PT. TELEKOMUNIKASI INDONESIA",
            "nama_se": "SELECTION EXAM 2",
            "sektor": "Sektor Teknologi Informasi dan Komunikasi",
            "tanggal_terbit": "2022-07-20",
            "url_tdpse_detail": "https://pse.komdigi.go.id/tdpse-detail/8168",
            "website": "exam2.telkom.co.id"
        },
        {
            "id": "9cb1abba-7031-41cf-aa57-3b640dbafb19",
            "nama_pse": "BANK PERKREDITAN RAKYAT WELERI JAYAPERSADA",
            "nama_se": "WEBSITE PT. BPR WELERI JAYAPESADA",
            "sektor": "Sektor Keuangan",
            "tanggal_terbit": "2022-07-20",
            "url_tdpse_detail": "https://pse.komdigi.go.id/tdpse-detail/8121",
            "website": "bprwjp.com"
        },
        {
            "id": "9cb1abed-e0e1-4db0-add8-acb339be341d",
            "nama_pse": "TDW RESOURCES",
            "nama_se": "WWW.DAHSYAT.COM",
            "sektor": "Sektor Perdagangan",
            "tanggal_terbit": "2022-07-20",
            "url_tdpse_detail": "https://pse.komdigi.go.id/tdpse-detail/8115",
            "website": "dahsyat.com"
        },
        {
            "id": "9cb1abed-e534-471a-ab2d-695b66aa7062",
            "nama_pse": "SOLUSI KERAH BYRU",
            "nama_se": "BYRU.ID",
            "sektor": "Sektor Teknologi Informasi dan Komunikasi",
            "tanggal_terbit": "2022-07-20",
            "url_tdpse_detail": "https://pse.komdigi.go.id/tdpse-detail/8112",
            "website": "byru.id"
        },
        {
            "id": "9cb1abc7-c97d-4843-9d82-59956579b5ee",
            "nama_pse": "ANDROMEDA GLOBAL DATA",
            "nama_se": "DROMINDER - APLIKASI MANAJEMEN REMINDER",
            "sektor": "Sektor Teknologi Informasi dan Komunikasi",
            "tanggal_terbit": "2022-07-20",
            "url_tdpse_detail": "https://pse.komdigi.go.id/tdpse-detail/8113",
            "website": "drominder.com"
        },
        {
            "id": "9cb1abc7-cd8b-4b1a-9be7-b14d5ff32ad6",
            "nama_pse": "BANK PEMBANGUNAN DAERAH PAPUA",
            "nama_se": "EDC BANK PAPUA",
            "sektor": "Sektor Keuangan",
            "tanggal_terbit": "2022-07-20",
            "url_tdpse_detail": "https://pse.komdigi.go.id/tdpse-detail/8114",
            "website": "-"
        },
        {
            "id": "9cb1abba-7229-43c9-92c9-d326a1c0604d",
            "nama_pse": "ARIS PUJUD KURNIAWAN",
            "nama_se": "WEVITATION",
            "sektor": "Sektor Perdagangan, Sektor Teknologi Informasi dan Komunikasi",
            "tanggal_terbit": "2022-07-20",
            "url_tdpse_detail": "https://pse.komdigi.go.id/tdpse-detail/8117",
            "website": "wevitation.com"
        },
        {
            "id": "9cb1abc7-d119-40dd-80d1-679cb41016ee",
            "nama_pse": "BANK PEREKONOMIAN RAKYAT SAUDARAKITA",
            "nama_se": "WEB PORTAL",
            "sektor": "Sektor Keuangan",
            "tanggal_terbit": "2022-07-20",
            "url_tdpse_detail": "https://pse.komdigi.go.id/tdpse-detail/8116",
            "website": "bprsaudarakita.com"
        },
        {
            "id": "9cb1abba-7439-4d98-9860-9119506308ef",
            "nama_pse": "MAHKOTA PERMATA JAYA",
            "nama_se": "THEICONCENTRAL.ID",
            "sektor": "Sektor Perdagangan",
            "tanggal_terbit": "2022-07-20",
            "url_tdpse_detail": "https://pse.komdigi.go.id/tdpse-detail/8118",
            "website": "theiconcentral.id"
        },
        {
            "id": "9cb1abed-e9a4-413b-b453-c62c6c5a919e",
            "nama_pse": "ANDROMEDA GLOBAL DATA",
            "nama_se": "DROVAT - DISTRIBUSI EBUPOT DAN EFAKTUR PAJAK",
            "sektor": "Sektor Teknologi Informasi dan Komunikasi",
            "tanggal_terbit": "2022-07-20",
            "url_tdpse_detail": "https://pse.komdigi.go.id/tdpse-detail/8119",
            "website": "drovat.com"
        },
        {
            "id": "9cb1abed-ed3c-440a-9d1a-c51e1a3b5f27",
            "nama_pse": "GARENA INDONESIA",
            "nama_se": "BLOCKMAN GO",
            "sektor": "Sektor Teknologi Informasi dan Komunikasi",
            "tanggal_terbit": "2022-07-20",
            "url_tdpse_detail": "https://pse.komdigi.go.id/tdpse-detail/8140",
            "website": "-"
        },
        {
            "id": "9cb1abba-7633-4db0-a5fd-031a2e8316aa",
            "nama_pse": "BANK SYARIAH INDONESIA",
            "nama_se": "HUJAN REZEKI BSI MOBILE",
            "sektor": "Sektor Keuangan",
            "tanggal_terbit": "2022-07-20",
            "url_tdpse_detail": "https://pse.komdigi.go.id/tdpse-detail/8120",
            "website": "bsimobileinternal.id"
        }
    ],
    "processingTimeMs": 5,
    "query": "",
    "totalHits": 19121,
    "hitsPerPage": 50,
    "page": 248,
    "totalPages": 383
}