{
    "hits": [
        {
            "id": "9d70c1f1-a0fc-462e-a934-df1c02e90148",
            "nama_pse": "INTERMEDIA MITRA NUSANTARA",
            "nama_se": "forum.sch.id",
            "sektor": "Sektor Teknologi Informasi dan Komunikasi",
            "tanggal_terbit": "2024-11-08",
            "url_tdpse_detail": "https://pse.komdigi.go.id/tdpse-detail/21123",
            "website": "forum.sch.id"
        },
        {
            "id": "9d6ffbca-dd30-46a4-a1de-21b4f5a3175c",
            "nama_pse": "RATNA DEWI SULISTIANI",
            "nama_se": "BALI PHOTOGRAPHER",
            "sektor": "Sektor Perdagangan",
            "tanggal_terbit": "2024-11-08",
            "url_tdpse_detail": "https://pse.komdigi.go.id/tdpse-detail/21107",
            "website": "baliphotographer.com"
        },
        {
            "id": "9d7095f2-db38-4886-b891-fcd42d3dfdc9",
            "nama_pse": "JAGOWEBDEV KREASI SISTEM",
            "nama_se": "JAGOWEBDEV KREASI SISTEM",
            "sektor": "Sektor Teknologi Informasi dan Komunikasi",
            "tanggal_terbit": "2024-11-08",
            "url_tdpse_detail": "https://pse.komdigi.go.id/tdpse-detail/21117",
            "website": "-"
        },
        {
            "id": "9d6fcca1-f12f-4faa-acac-d5d9da9e0080",
            "nama_pse": "TITIAN EMAS INSANI",
            "nama_se": "SOFTMEDIKA",
            "sektor": "Sektor Teknologi Informasi dan Komunikasi",
            "tanggal_terbit": "2024-11-08",
            "url_tdpse_detail": "https://pse.komdigi.go.id/tdpse-detail/21099",
            "website": "-"
        },
        {
            "id": "9d6fb0c3-f3b0-4e40-9767-dad0752ac595",
            "nama_pse": "ITER TEKNOLOGI NUSANTARA",
            "nama_se": "ITER RIDE \u0026 DELIVERY",
            "sektor": "Sektor Transportasi",
            "tanggal_terbit": "2024-11-08",
            "url_tdpse_detail": "https://pse.komdigi.go.id/tdpse-detail/21097",
            "website": "-"
        },
        {
            "id": "9d701a17-d2d7-46a0-ba40-fc1ad1cb3c0f",
            "nama_pse": "KARISMA TALENTA AGUNG",
            "nama_se": "PT KARISMA TALENTA AGUNG",
            "sektor": "Sektor Perdagangan",
            "tanggal_terbit": "2024-11-08",
            "url_tdpse_detail": "https://pse.komdigi.go.id/tdpse-detail/21109",
            "website": "getcreativemaket.com"
        },
        {
            "id": "9d70bc1f-5585-458b-bbde-99c226c898c7",
            "nama_pse": "INTERMEDIA MITRA NUSANTARA",
            "nama_se": "INTERMEDA MITRA NUSANTARA",
            "sektor": "Sektor Teknologi Informasi dan Komunikasi",
            "tanggal_terbit": "2024-11-08",
            "url_tdpse_detail": "https://pse.komdigi.go.id/tdpse-detail/21121",
            "website": "-"
        },
        {
            "id": "9d70bf8a-5dda-4bdb-a974-0343939f9ef1",
            "nama_pse": "INTERMEDIA MITRA NUSANTARA",
            "nama_se": "perpustakaan.sch.id",
            "sektor": "Sektor Teknologi Informasi dan Komunikasi",
            "tanggal_terbit": "2024-11-08",
            "url_tdpse_detail": "https://pse.komdigi.go.id/tdpse-detail/21122",
            "website": "perpustakaan.sch.id"
        },
        {
            "id": "9d6fe0c8-659e-4c69-ae37-c94205f4c533",
            "nama_pse": "ARCHOR TEKNOLOGI DIGITAL",
            "nama_se": "FALCONNEDGE.COM",
            "sektor": "Sektor Teknologi Informasi dan Komunikasi",
            "tanggal_terbit": "2024-11-08",
            "url_tdpse_detail": "https://pse.komdigi.go.id/tdpse-detail/21105",
            "website": "falconnedge.com"
        },
        {
            "id": "9d702269-9b2e-4f18-931d-cf6e632d37ca",
            "nama_pse": "CAPELLA MEDAN",
            "nama_se": "PT CAPELLA MEDAN CABANG SIANTAR",
            "sektor": "Sektor Perdagangan",
            "tanggal_terbit": "2024-11-08",
            "url_tdpse_detail": "https://pse.komdigi.go.id/tdpse-detail/21112",
            "website": "daihatsu.co.id"
        },
        {
            "id": "9d6fb012-5cc8-48db-888f-62ad19767a17",
            "nama_pse": "INA MANAJEMEN INVESTASI",
            "nama_se": "INA INVEST",
            "sektor": "Sektor Keuangan",
            "tanggal_terbit": "2024-11-08",
            "url_tdpse_detail": "https://pse.komdigi.go.id/tdpse-detail/21095",
            "website": "inainvestasi.com"
        },
        {
            "id": "9d70726b-c1a4-46c7-8f38-929d9ce68d07",
            "nama_pse": "FAKTA PENA NUSANTARA",
            "nama_se": "bintangpatra.com",
            "sektor": "Sektor Teknologi Informasi dan Komunikasi",
            "tanggal_terbit": "2024-11-08",
            "url_tdpse_detail": "https://pse.komdigi.go.id/tdpse-detail/21116",
            "website": "-"
        },
        {
            "id": "9d6e07f4-c547-4c2e-a2d9-6a350298fd45",
            "nama_pse": "DEWATA CENGKAR HOLIDAY",
            "nama_se": "DEWATA CENGKAR HOLIDAY",
            "sektor": "Sektor Perdagangan",
            "tanggal_terbit": "2024-11-07",
            "url_tdpse_detail": "https://pse.komdigi.go.id/tdpse-detail/21083",
            "website": "sunrisebali.com"
        },
        {
            "id": "9d6e2f6d-0507-488f-88cf-5fac469d4bea",
            "nama_pse": "GRAMEDIA ASRI MEDIA",
            "nama_se": "SMARTLIB BY GRAMEDIA",
            "sektor": "Sektor Perdagangan, Sektor Teknologi Informasi dan Komunikasi",
            "tanggal_terbit": "2024-11-07",
            "url_tdpse_detail": "https://pse.komdigi.go.id/tdpse-detail/21087",
            "website": "smartlib.gramedia.com"
        },
        {
            "id": "9d6dfde1-2de1-4772-a16c-4e009e40c072",
            "nama_pse": "DAN PEMBIAYAAN SYARIAH BMT MITRA MUAMALAH MITRAMU",
            "nama_se": "MITRAMU MOBILE",
            "sektor": "Sektor Teknologi Informasi dan Komunikasi",
            "tanggal_terbit": "2024-11-07",
            "url_tdpse_detail": "https://pse.komdigi.go.id/tdpse-detail/21081",
            "website": "-"
        },
        {
            "id": "9d6e0339-1b5e-4cff-92cd-2479dac9e5f6",
            "nama_pse": "PUTRA MANDIRI MULTI MEDIA",
            "nama_se": "suaraikawangi.com",
            "sektor": "Sektor Teknologi Informasi dan Komunikasi",
            "tanggal_terbit": "2024-11-07",
            "url_tdpse_detail": "https://pse.komdigi.go.id/tdpse-detail/21082",
            "website": "suaraikawangi.com"
        },
        {
            "id": "9d6dd8b1-5c4c-4be6-8d33-7bbeb3f528c5",
            "nama_pse": "MUDAPEDIA DIGITAL INDONESIA",
            "nama_se": "LECCA POS - APLIKASI POINT OF SALES(KASIR)",
            "sektor": "Sektor Perdagangan",
            "tanggal_terbit": "2024-11-07",
            "url_tdpse_detail": "https://pse.komdigi.go.id/tdpse-detail/21079",
            "website": "leccapos.my.id"
        },
        {
            "id": "9d6d2983-d2d8-430e-962d-a6f391e73c04",
            "nama_pse": "ABADI ELEKTRONIK PERKASA",
            "nama_se": "MATOA GAME",
            "sektor": "Sektor Perdagangan",
            "tanggal_terbit": "2024-11-07",
            "url_tdpse_detail": "https://pse.komdigi.go.id/tdpse-detail/21077",
            "website": "-"
        },
        {
            "id": "9d6dd23a-832c-45e6-97b5-cd59b8b0fe9a",
            "nama_pse": "SANIKA SATYAWADA SEJAHTERA LOGISTIK",
            "nama_se": "SANIKA ONLINE",
            "sektor": "Sektor Perdagangan",
            "tanggal_terbit": "2024-11-07",
            "url_tdpse_detail": "https://pse.komdigi.go.id/tdpse-detail/21078",
            "website": "sanika.co.id"
        },
        {
            "id": "9d6e0f91-0995-48c3-a3ea-e92cd07b0564",
            "nama_pse": "SETI SUMA EXPRESS",
            "nama_se": "PT SETI SUMA EXPRESS",
            "sektor": "Sektor Transportasi",
            "tanggal_terbit": "2024-11-07",
            "url_tdpse_detail": "https://pse.komdigi.go.id/tdpse-detail/21084",
            "website": "setisumaexpress.com"
        },
        {
            "id": "9d6e4fed-626c-472d-ba7e-a5660bcf32a8",
            "nama_pse": "HAGO KREATIF INDONESIA",
            "nama_se": "HAGO , IHAGO.NET",
            "sektor": "Sektor Teknologi Informasi dan Komunikasi",
            "tanggal_terbit": "2024-11-07",
            "url_tdpse_detail": "https://pse.komdigi.go.id/tdpse-detail/21093",
            "website": "-"
        },
        {
            "id": "9d6e36c9-eccf-44fa-a985-96511e75b431",
            "nama_pse": "ASURANSI HARTA AMAN PRATAMA",
            "nama_se": "WEBPORTAL PT ASURANSI HARTA AMAN PRATAMA TBK",
            "sektor": "Sektor Keuangan",
            "tanggal_terbit": "2024-11-07",
            "url_tdpse_detail": "https://pse.komdigi.go.id/tdpse-detail/21088",
            "website": "-"
        },
        {
            "id": "9d6de34e-0227-4ad3-a10f-af878250c6bf",
            "nama_pse": "RADYSA DHARMA ABADI",
            "nama_se": "RADYSA COSMETICS",
            "sektor": "Sektor Perdagangan",
            "tanggal_terbit": "2024-11-07",
            "url_tdpse_detail": "https://pse.komdigi.go.id/tdpse-detail/21080",
            "website": "radysacosmetics.com"
        },
        {
            "id": "9d6e381d-6a1d-46b3-831b-380d86eeb7c2",
            "nama_pse": "ZURICH ASURANSI INDONESIA",
            "nama_se": "ZURICH EDGE PLATFORM - EDGE ASSIST PORTAL",
            "sektor": "Sektor Keuangan",
            "tanggal_terbit": "2024-11-07",
            "url_tdpse_detail": "https://pse.komdigi.go.id/tdpse-detail/21089",
            "website": "assist.edge.zurich.co.id"
        },
        {
            "id": "9d6e4218-4988-4d87-a031-8e8903da189b",
            "nama_pse": "HITA KANAKA TIRTA",
            "nama_se": "MASARISHOP.COM",
            "sektor": "Sektor Perdagangan, Sektor Teknologi Informasi dan Komunikasi",
            "tanggal_terbit": "2024-11-07",
            "url_tdpse_detail": "https://pse.komdigi.go.id/tdpse-detail/21090",
            "website": "masarishop.com"
        },
        {
            "id": "9d6e9143-49b8-4b5a-894c-a4c5ae191277",
            "nama_pse": "NADA SINAR ABADI",
            "nama_se": "danara",
            "sektor": "Sektor Perdagangan, Sektor Teknologi Informasi dan Komunikasi",
            "tanggal_terbit": "2024-11-07",
            "url_tdpse_detail": "https://pse.komdigi.go.id/tdpse-detail/21094",
            "website": "danara.biz.id"
        },
        {
            "id": "9d6e4da4-a848-4d4d-8670-f72e24909f64",
            "nama_pse": "INDONESIA MAKAN UDANG",
            "nama_se": "FROSALA",
            "sektor": "Sektor Pangan",
            "tanggal_terbit": "2024-11-07",
            "url_tdpse_detail": "https://pse.komdigi.go.id/tdpse-detail/21092",
            "website": "frosala.com"
        },
        {
            "id": "9d6e49f0-e269-4577-9b82-ee3e9db6ff12",
            "nama_pse": "DAN PEMBIAYAAN SYARIAH BMT MITRA MUAMALAH MITRAMU",
            "nama_se": "MOBILE MITRAMU",
            "sektor": "Sektor Teknologi Informasi dan Komunikasi",
            "tanggal_terbit": "2024-11-07",
            "url_tdpse_detail": "https://pse.komdigi.go.id/tdpse-detail/21091",
            "website": "-"
        },
        {
            "id": "9d6c28ee-72d5-492b-9d64-aa1250e1b83a",
            "nama_pse": "MAHARDIKA RAHADHYAN",
            "nama_se": "AYOSISWA",
            "sektor": "Sektor Teknologi Informasi dan Komunikasi",
            "tanggal_terbit": "2024-11-06",
            "url_tdpse_detail": "https://pse.komdigi.go.id/tdpse-detail/21070",
            "website": "ayosiswa.id"
        },
        {
            "id": "9d6c5b6b-0d61-43cd-8dc3-fa6b62656336",
            "nama_pse": "COURSENET BANGUN INDONESIA",
            "nama_se": "ITBOX",
            "sektor": "Sektor Teknologi Informasi dan Komunikasi",
            "tanggal_terbit": "2024-11-06",
            "url_tdpse_detail": "https://pse.komdigi.go.id/tdpse-detail/21073",
            "website": "itbox.id"
        },
        {
            "id": "9d6bcc6a-70b7-496b-9c1f-e23fb1ec2e93",
            "nama_pse": "INFRA DIGITAL NUSANTARA",
            "nama_se": "JARINGAN IDN",
            "sektor": "Sektor Teknologi Informasi dan Komunikasi",
            "tanggal_terbit": "2024-11-06",
            "url_tdpse_detail": "https://pse.komdigi.go.id/tdpse-detail/21064",
            "website": "infradigital.net"
        },
        {
            "id": "9d6c418f-0171-47f8-9e7e-25eafe52c5bb",
            "nama_pse": "COURSENET BANGUN INDONESIA",
            "nama_se": "COURSE-NET INDONESIA",
            "sektor": "Sektor Teknologi Informasi dan Komunikasi",
            "tanggal_terbit": "2024-11-06",
            "url_tdpse_detail": "https://pse.komdigi.go.id/tdpse-detail/21072",
            "website": "course-net.com"
        },
        {
            "id": "9d6c5dc1-374e-400e-bb33-9490eb236579",
            "nama_pse": "MODERN INDO TECHNOLOGY",
            "nama_se": "VIRTUAL REALITY",
            "sektor": "Sektor Teknologi Informasi dan Komunikasi",
            "tanggal_terbit": "2024-11-06",
            "url_tdpse_detail": "https://pse.komdigi.go.id/tdpse-detail/21074",
            "website": "vrpro.id"
        },
        {
            "id": "9d6ba331-e6db-4918-9435-6804fb113fca",
            "nama_pse": "ADVO MATRIKS INDONESIA",
            "nama_se": "ADVOMED",
            "sektor": "Sektor Kesehatan",
            "tanggal_terbit": "2024-11-06",
            "url_tdpse_detail": "https://pse.komdigi.go.id/tdpse-detail/21061",
            "website": "advomed.id"
        },
        {
            "id": "9d6bc3ec-10c8-4a0f-9090-b238d0573244",
            "nama_pse": "META TRADER TEKNOLOGI",
            "nama_se": "soehoegame",
            "sektor": "Sektor Perdagangan",
            "tanggal_terbit": "2024-11-06",
            "url_tdpse_detail": "https://pse.komdigi.go.id/tdpse-detail/21062",
            "website": "soehoegame.shop"
        },
        {
            "id": "9d6bc9da-8ccf-4cfa-b988-e58da7605c92",
            "nama_pse": "MINAMAS GEMILANG",
            "nama_se": "MINAMAS E-KLINIK",
            "sektor": "Sektor Kesehatan",
            "tanggal_terbit": "2024-11-06",
            "url_tdpse_detail": "https://pse.komdigi.go.id/tdpse-detail/21063",
            "website": "eklinik.minamasplantation.com"
        },
        {
            "id": "9d6c4073-8726-412f-b0e2-9227b5190eb2",
            "nama_pse": "MAHARDIKA RAHADHYAN",
            "nama_se": "AYOMUSLIM",
            "sektor": "Sektor Teknologi Informasi dan Komunikasi",
            "tanggal_terbit": "2024-11-06",
            "url_tdpse_detail": "https://pse.komdigi.go.id/tdpse-detail/21071",
            "website": "ayomuslim.id"
        },
        {
            "id": "9d6ca167-51e4-4615-9fac-4a847705d0b4",
            "nama_pse": "INDI NASIONAL PRATAMA",
            "nama_se": "indiwarta",
            "sektor": "Sektor Teknologi Informasi dan Komunikasi",
            "tanggal_terbit": "2024-11-06",
            "url_tdpse_detail": "https://pse.komdigi.go.id/tdpse-detail/21076",
            "website": "indiwarta.com"
        },
        {
            "id": "9d6c18ba-1105-41db-97ec-f2d5d1786244",
            "nama_pse": "MITRA KESEHATAN ALPHA",
            "nama_se": "MEDITECH",
            "sektor": "Sektor Kesehatan",
            "tanggal_terbit": "2024-11-06",
            "url_tdpse_detail": "https://pse.komdigi.go.id/tdpse-detail/21069",
            "website": "meditech.id"
        },
        {
            "id": "9d6bdd04-21da-4342-ac24-09aa039c72df",
            "nama_pse": "MAHAKARYA SEJAHTERA INOVASI",
            "nama_se": "PT MAHAKARYA SEJAHTERA INOVASI",
            "sektor": "Sektor Perdagangan, Sektor Teknologi Informasi dan Komunikasi",
            "tanggal_terbit": "2024-11-06",
            "url_tdpse_detail": "https://pse.komdigi.go.id/tdpse-detail/21066",
            "website": "pastibisa.id"
        },
        {
            "id": "9d6bf42a-c777-4c18-b0e8-1e45afee99ba",
            "nama_pse": "CIPTA ITININDO MAKMUR",
            "nama_se": "ciptafintax.com",
            "sektor": "Sektor Perdagangan",
            "tanggal_terbit": "2024-11-06",
            "url_tdpse_detail": "https://pse.komdigi.go.id/tdpse-detail/21067",
            "website": "ciptafintax.com"
        },
        {
            "id": "9d6c05b1-abae-4d22-88c0-6dc411880ece",
            "nama_pse": "EMPAT DHARMA",
            "nama_se": "LAYANAN INTERNET LOKAL (RT RW NET)",
            "sektor": "Sektor Teknologi Informasi dan Komunikasi",
            "tanggal_terbit": "2024-11-06",
            "url_tdpse_detail": "https://pse.komdigi.go.id/tdpse-detail/21068",
            "website": "-"
        },
        {
            "id": "9d6c5f49-3f6e-4803-b50d-44d9b62d0a89",
            "nama_pse": "TOKO MIRING BERJAYA",
            "nama_se": "TOKO MIRING",
            "sektor": "Sektor Perdagangan",
            "tanggal_terbit": "2024-11-06",
            "url_tdpse_detail": "https://pse.komdigi.go.id/tdpse-detail/21075",
            "website": "tokomiring.id"
        },
        {
            "id": "9d69e933-e231-4d0c-b5b2-d79586edb1d9",
            "nama_pse": "BENOA SEA LEGEND",
            "nama_se": "PT BENOA SEA LEGEND",
            "sektor": "Sektor Perdagangan",
            "tanggal_terbit": "2024-11-05",
            "url_tdpse_detail": "https://pse.komdigi.go.id/tdpse-detail/21050",
            "website": "newstarstravel.com"
        },
        {
            "id": "9d69f6cf-51ee-4d24-8d8f-456311d4f468",
            "nama_pse": "RAKADEA DIGITAL GROUP",
            "nama_se": "TOKO GAMING PEDIA",
            "sektor": "Sektor Perdagangan",
            "tanggal_terbit": "2024-11-05",
            "url_tdpse_detail": "https://pse.komdigi.go.id/tdpse-detail/21051",
            "website": "tokogamingpedia.com"
        },
        {
            "id": "9d6a05c1-3efc-4dd6-a4b1-ff62a110f400",
            "nama_pse": "ADE JAGAW SOLUSINDO",
            "nama_se": "ARP PLS",
            "sektor": "Sektor Perdagangan",
            "tanggal_terbit": "2024-11-05",
            "url_tdpse_detail": "https://pse.komdigi.go.id/tdpse-detail/21052",
            "website": "-"
        },
        {
            "id": "9d6a190c-4dcc-4fc0-b61c-f77afc030f05",
            "nama_pse": "CIPTA MENTARI BENOA",
            "nama_se": "CV. CIPTA MENTARI BENOA",
            "sektor": "Sektor Perdagangan",
            "tanggal_terbit": "2024-11-05",
            "url_tdpse_detail": "https://pse.komdigi.go.id/tdpse-detail/21053",
            "website": "supernovaholiday.com"
        },
        {
            "id": "9d69e380-fdea-4bb3-9df7-22610f48c13d",
            "nama_pse": "BOIM KARYA SEJATI",
            "nama_se": "PT. BOIM KARYA SEJATI",
            "sektor": "Sektor Perdagangan",
            "tanggal_terbit": "2024-11-05",
            "url_tdpse_detail": "https://pse.komdigi.go.id/tdpse-detail/21049",
            "website": "southvolcano.com"
        },
        {
            "id": "9d6a56d9-e969-4187-b6b8-953e6b8e72ce",
            "nama_pse": "HARTADINATA ABADI",
            "nama_se": "EMASKU",
            "sektor": "Sektor Perdagangan",
            "tanggal_terbit": "2024-11-05",
            "url_tdpse_detail": "https://pse.komdigi.go.id/tdpse-detail/21055",
            "website": "emasku.co.id"
        },
        {
            "id": "9d6a547e-53a2-42ca-92bc-62fd4182ff97",
            "nama_pse": "OBHY NETWORK INDONESIA",
            "nama_se": "PT OBHY NETWORK INDONESIA",
            "sektor": "Sektor Teknologi Informasi dan Komunikasi",
            "tanggal_terbit": "2024-11-05",
            "url_tdpse_detail": "https://pse.komdigi.go.id/tdpse-detail/21054",
            "website": "obhy.net"
        }
    ],
    "processingTimeMs": 2,
    "query": "",
    "totalHits": 19121,
    "hitsPerPage": 50,
    "page": 27,
    "totalPages": 383
}