{
    "hits": [
        {
            "id": "9cb1ab69-2d82-4dcf-a802-4413d0892bd5",
            "nama_pse": "ASURANSI RELIANCE INDONESIA",
            "nama_se": "RELIDOC",
            "sektor": "Sektor Keuangan, Sektor Keuangan",
            "tanggal_terbit": "2022-02-25",
            "url_tdpse_detail": "https://pse.komdigi.go.id/tdpse-detail/3383",
            "website": "asuransireliance.com"
        },
        {
            "id": "9cb1ab8a-d3f2-4cdd-95ba-4879a38040b4",
            "nama_pse": "DIGITAL DATA VENTURE",
            "nama_se": "BIG DATA ANALYTIC PLATFORM",
            "sektor": "Sektor Teknologi Informasi dan Komunikasi, Sektor Teknologi Informasi dan Komunikasi",
            "tanggal_terbit": "2022-02-25",
            "url_tdpse_detail": "https://pse.komdigi.go.id/tdpse-detail/3386",
            "website": "-"
        },
        {
            "id": "9cb1ab8a-e09a-40b0-a4ca-b3a28f1b2c8c",
            "nama_pse": "PLUS ENAM DUA GROUP",
            "nama_se": "PT. PLUS ENAM DUA GROUP PERDAGANGAN",
            "sektor": "Sektor Perdagangan, Sektor Perdagangan, Sektor Transportasi, Sektor Transportasi, Sektor Kesehatan, Sektor Kesehatan, Sektor Teknologi Informasi dan Komunikasi, Sektor Teknologi Informasi dan Komunikasi, Sektor Pangan, Sektor Pangan, Sektor Pertahanan dan Keamanan, Sektor Pertahanan dan Keamanan",
            "tanggal_terbit": "2022-02-25",
            "url_tdpse_detail": "https://pse.komdigi.go.id/tdpse-detail/3388",
            "website": "plusenamduagroup.com/"
        },
        {
            "id": "9cb1ab83-0bc2-46b9-82f4-bf32281f68dc",
            "nama_pse": "SIMPLEFI TEKNOLOGI INDONESIA",
            "nama_se": "AWANTUNAI",
            "sektor": "Sektor Keuangan, Sektor Keuangan",
            "tanggal_terbit": "2022-02-25",
            "url_tdpse_detail": "https://pse.komdigi.go.id/tdpse-detail/3385",
            "website": "awantunai.co.id"
        },
        {
            "id": "9cb1ab8a-ef4e-4b5d-89e8-134aa2507363",
            "nama_pse": "PARABANDUNG PROPERTINDO",
            "nama_se": "THG",
            "sektor": "Sektor Perdagangan, Sektor Perdagangan",
            "tanggal_terbit": "2022-02-25",
            "url_tdpse_detail": "https://pse.komdigi.go.id/tdpse-detail/3382",
            "website": "transhotelgroup.com"
        },
        {
            "id": "9cb1ab7b-6a49-45f9-bb78-ed5d6c8aad71",
            "nama_pse": "ALFA PRATAMA MANDIRI",
            "nama_se": "ALFAPRATAMAMANDIRI",
            "sektor": "Sektor Perdagangan, Sektor Perdagangan",
            "tanggal_terbit": "2022-02-25",
            "url_tdpse_detail": "https://pse.komdigi.go.id/tdpse-detail/3387",
            "website": "-"
        },
        {
            "id": "9cb1ab7b-6d04-43b1-bc5a-da3aba1f4aec",
            "nama_pse": "MASUDI",
            "nama_se": "EDUKRATIFPAY",
            "sektor": "Sektor Teknologi Informasi dan Komunikasi, Sektor Teknologi Informasi dan Komunikasi",
            "tanggal_terbit": "2022-02-25",
            "url_tdpse_detail": "https://pse.komdigi.go.id/tdpse-detail/3378",
            "website": "-"
        },
        {
            "id": "9cb1ab83-2977-4241-ad56-a99d65461178",
            "nama_pse": "PANUA DESAIN INDONESIA",
            "nama_se": "PANUA DESAIN INDONESIA",
            "sektor": "Sektor Perdagangan, Sektor Perdagangan, Sektor Teknologi Informasi dan Komunikasi, Sektor Teknologi Informasi dan Komunikasi",
            "tanggal_terbit": "2022-02-25",
            "url_tdpse_detail": "https://pse.komdigi.go.id/tdpse-detail/3381",
            "website": "inaproc.id"
        },
        {
            "id": "9cb1ab8a-f17d-4278-8538-fd97287c4116",
            "nama_pse": "BUKA MITRA PROPERTI",
            "nama_se": "BEEDOOR (PT BUKA MITRA PROPERTI)",
            "sektor": "Sektor Teknologi Informasi dan Komunikasi, Sektor Teknologi Informasi dan Komunikasi",
            "tanggal_terbit": "2022-02-25",
            "url_tdpse_detail": "https://pse.komdigi.go.id/tdpse-detail/3384",
            "website": "beedoor.com"
        },
        {
            "id": "9cb1ab7b-7006-49f2-9aef-a6140397df76",
            "nama_pse": "ICON LINK MEDIA",
            "nama_se": "TIK TOK SHOP",
            "sektor": "Sektor Perdagangan, Sektor Perdagangan",
            "tanggal_terbit": "2022-02-25",
            "url_tdpse_detail": "https://pse.komdigi.go.id/tdpse-detail/3391",
            "website": "-"
        },
        {
            "id": "9cb1ab83-2d29-48e6-b928-03ab8c0563d9",
            "nama_pse": "DARUL MUBTADIIN",
            "nama_se": "SIMPONI",
            "sektor": "Sektor Teknologi Informasi dan Komunikasi, Sektor Teknologi Informasi dan Komunikasi",
            "tanggal_terbit": "2022-02-25",
            "url_tdpse_detail": "https://pse.komdigi.go.id/tdpse-detail/3390",
            "website": "lirboyo.id"
        },
        {
            "id": "9cb1ab8a-f559-495e-9268-1e9e469b991e",
            "nama_pse": "DARUL MUBTADIIN",
            "nama_se": "SIMPONI LIRBOYO",
            "sektor": "Sektor Teknologi Informasi dan Komunikasi, Sektor Teknologi Informasi dan Komunikasi",
            "tanggal_terbit": "2022-02-25",
            "url_tdpse_detail": "https://pse.komdigi.go.id/tdpse-detail/3392",
            "website": "simponi.id"
        },
        {
            "id": "9cb1ab83-3151-4b33-929c-6d508befad49",
            "nama_pse": "ARY PURWANTINI",
            "nama_se": "WWW.ANINDITACOLLECTION.COM",
            "sektor": "Sektor Perdagangan, Sektor Perdagangan, Sektor Pangan, Sektor Pangan",
            "tanggal_terbit": "2022-02-25",
            "url_tdpse_detail": "https://pse.komdigi.go.id/tdpse-detail/3393",
            "website": "-"
        },
        {
            "id": "9cb1ab7b-74a3-453e-918a-9fba58fec2b7",
            "nama_pse": "VEXTA GLOBAL MEDIA",
            "nama_se": "VEXTABIT",
            "sektor": "Sektor Perdagangan, Sektor Perdagangan",
            "tanggal_terbit": "2022-02-25",
            "url_tdpse_detail": "https://pse.komdigi.go.id/tdpse-detail/3396",
            "website": "vextabit.com"
        },
        {
            "id": "9cb1ab90-c388-4e6c-9232-18d115d485e1",
            "nama_pse": "SALVUS INTI",
            "nama_se": "ZAP",
            "sektor": "Sektor Perdagangan, Sektor Perdagangan, Sektor Perdagangan",
            "tanggal_terbit": "2022-02-25",
            "url_tdpse_detail": "https://pse.komdigi.go.id/tdpse-detail/3394",
            "website": "-"
        },
        {
            "id": "9cb1ab8f-f924-498a-84ba-753777e36cd0",
            "nama_pse": "SALVUS INTI",
            "nama_se": "SPECTRUM",
            "sektor": "Sektor Teknologi Informasi dan Komunikasi, Sektor Teknologi Informasi dan Komunikasi, Sektor Teknologi Informasi dan Komunikasi",
            "tanggal_terbit": "2022-02-25",
            "url_tdpse_detail": "https://pse.komdigi.go.id/tdpse-detail/3395",
            "website": "spectrum.salvusnetwork.com"
        },
        {
            "id": "9cb1ab75-5541-439b-9c70-792ff6c8edad",
            "nama_pse": "MITSINDO VISUAL PRATAMA",
            "nama_se": "WWW.ELING.CO.ID",
            "sektor": "Sektor Perdagangan, Sektor Perdagangan, Sektor Perdagangan",
            "tanggal_terbit": "2022-02-24",
            "url_tdpse_detail": "https://pse.komdigi.go.id/tdpse-detail/3361",
            "website": "eling.co.id"
        },
        {
            "id": "9cb1ab76-df13-46d0-a343-afd31f2545b2",
            "nama_pse": "DIRI ARTHA SEHAT",
            "nama_se": "DIRI.",
            "sektor": "Sektor Kesehatan, Sektor Kesehatan",
            "tanggal_terbit": "2022-02-24",
            "url_tdpse_detail": "https://pse.komdigi.go.id/tdpse-detail/3371",
            "website": "Diricare.com"
        },
        {
            "id": "9cb1ab8a-8761-49a2-968d-b61f8559eb41",
            "nama_pse": "CHANDRA KARYA PRAMUKA",
            "nama_se": "HTTPS://WWW.CHANDRAKARYA.COM",
            "sektor": "Sektor Perdagangan, Sektor Perdagangan",
            "tanggal_terbit": "2022-02-24",
            "url_tdpse_detail": "https://pse.komdigi.go.id/tdpse-detail/3366",
            "website": "chandrakarya.com"
        },
        {
            "id": "9cb1ab7b-1426-40f4-8a63-9eb437352325",
            "nama_pse": "JALA AKUAKULTUR LESTARI ALAMKU",
            "nama_se": "JALA.TECH",
            "sektor": "Sektor Teknologi Informasi dan Komunikasi, Sektor Teknologi Informasi dan Komunikasi, Sektor Pangan, Sektor Pangan",
            "tanggal_terbit": "2022-02-24",
            "url_tdpse_detail": "https://pse.komdigi.go.id/tdpse-detail/3365",
            "website": "jala.tech"
        },
        {
            "id": "9cb1ab7b-3a60-42c0-a867-9ba3cd7038b6",
            "nama_pse": "ATOMY INDONESIA GROUP",
            "nama_se": "ATOMY GLOBAL",
            "sektor": "Sektor Perdagangan, Sektor Perdagangan",
            "tanggal_terbit": "2022-02-24",
            "url_tdpse_detail": "https://pse.komdigi.go.id/tdpse-detail/3362",
            "website": "atomyid.co.id"
        },
        {
            "id": "9cb1ab7b-3d13-4789-af7a-f9a2437dcba5",
            "nama_pse": "DURIAN PAY INDONESIA",
            "nama_se": "DURIANMONEY (TRANSFER DANA DURIANPAY)",
            "sektor": "Sektor Keuangan, Sektor Keuangan",
            "tanggal_terbit": "2022-02-24",
            "url_tdpse_detail": "https://pse.komdigi.go.id/tdpse-detail/3373",
            "website": "durianpay.id"
        },
        {
            "id": "9cb1ab8a-e5ed-456d-bd46-6e1d98170a78",
            "nama_pse": "JOBSTREET INDONESIA",
            "nama_se": "WEBSITE PT JOBSTREET INDONESIA",
            "sektor": "Sektor Teknologi Informasi dan Komunikasi, Sektor Teknologi Informasi dan Komunikasi",
            "tanggal_terbit": "2022-02-24",
            "url_tdpse_detail": "https://pse.komdigi.go.id/tdpse-detail/3369",
            "website": "id.jobstreet.com"
        },
        {
            "id": "9cb1ab83-15b3-43ee-9fc4-8f21b8626aab",
            "nama_pse": "GENERASI BERKAH TEKNOLOGI MADANI",
            "nama_se": "VISSIT.IN",
            "sektor": "Sektor Kesehatan, Sektor Kesehatan, Sektor Teknologi Informasi dan Komunikasi, Sektor Teknologi Informasi dan Komunikasi",
            "tanggal_terbit": "2022-02-24",
            "url_tdpse_detail": "https://pse.komdigi.go.id/tdpse-detail/3367",
            "website": "vissit.in"
        },
        {
            "id": "9cb1ab8a-e899-46c5-b41b-cef7a52fa7da",
            "nama_pse": "GADAI VALUEMAX INDONESIA",
            "nama_se": "VALUEMAX INDONESIA",
            "sektor": "Sektor Keuangan, Sektor Keuangan",
            "tanggal_terbit": "2022-02-24",
            "url_tdpse_detail": "https://pse.komdigi.go.id/tdpse-detail/3368",
            "website": "valuemax.co.id"
        },
        {
            "id": "9cb1ab83-1ae3-4376-baa1-f4c3292f4db7",
            "nama_pse": "ASURANSI JIWA BCA",
            "nama_se": "MYLIFEGUARD",
            "sektor": "Sektor Keuangan, Sektor Keuangan, Sektor Keuangan",
            "tanggal_terbit": "2022-02-24",
            "url_tdpse_detail": "https://pse.komdigi.go.id/tdpse-detail/3364",
            "website": "mylifeguard.id"
        },
        {
            "id": "9cb1ab7b-5b54-4312-91f8-54ffeea033fd",
            "nama_pse": "DELOS TEKNOLOGI MARITIM JAYA",
            "nama_se": "AQUAHERO",
            "sektor": "Sektor Perdagangan, Sektor Perdagangan, Sektor Pangan, Sektor Pangan",
            "tanggal_terbit": "2022-02-24",
            "url_tdpse_detail": "https://pse.komdigi.go.id/tdpse-detail/3363",
            "website": "delosaqua.com"
        },
        {
            "id": "9cb1ab83-1cff-463a-a1f8-025efbc3fadd",
            "nama_pse": "RETURNKEY INDONESIA BERSAMA",
            "nama_se": "RETURNKEY.CO",
            "sektor": "Sektor Perdagangan, Sektor Perdagangan, Sektor Teknologi Informasi dan Komunikasi, Sektor Teknologi Informasi dan Komunikasi",
            "tanggal_terbit": "2022-02-24",
            "url_tdpse_detail": "https://pse.komdigi.go.id/tdpse-detail/3374",
            "website": "returnkey.co"
        },
        {
            "id": "9cb1ab83-1f3f-4fa5-918b-997d64fde0a1",
            "nama_pse": "MITRAUSAHA INDONESIA GRUP",
            "nama_se": "MODALKU",
            "sektor": "Sektor Keuangan, Sektor Keuangan",
            "tanggal_terbit": "2022-02-24",
            "url_tdpse_detail": "https://pse.komdigi.go.id/tdpse-detail/3376",
            "website": "modalku.co.id"
        },
        {
            "id": "9cb1ab83-2409-460f-b338-26549c24aa68",
            "nama_pse": "SANGKAKALA GROUP INDONESIA",
            "nama_se": "SANGKAKALA.NEOWEB.ID",
            "sektor": "Sektor Perdagangan, Sektor Perdagangan, Sektor Transportasi, Sektor Transportasi",
            "tanggal_terbit": "2022-02-24",
            "url_tdpse_detail": "https://pse.komdigi.go.id/tdpse-detail/3370",
            "website": "sangkakala.neoweb.id"
        },
        {
            "id": "9cb1ab7b-6135-4a04-a42e-ffda08ba0ce7",
            "nama_pse": "NANDA RAYA",
            "nama_se": "NANDA RAYA",
            "sektor": "Sektor Perdagangan, Sektor Perdagangan, Sektor Energi dan Sumber Daya Mineral, Sektor Energi dan Sumber Daya Mineral, Sektor Keuangan, Sektor Keuangan, Sektor Kesehatan, Sektor Kesehatan, Sektor Pangan, Sektor Pangan, Sektor Pertahanan dan Keamanan, Sektor Pertahanan dan Keamanan",
            "tanggal_terbit": "2022-02-24",
            "url_tdpse_detail": "https://pse.komdigi.go.id/tdpse-detail/3372",
            "website": "-"
        },
        {
            "id": "9cb1ab7b-6741-4a05-a624-f58a6828cb98",
            "nama_pse": "TRANSFORMASI DIGITAL INOVASI",
            "nama_se": "TIDI.ID",
            "sektor": "Sektor Perdagangan, Sektor Perdagangan, Sektor Transportasi, Sektor Transportasi, Sektor Teknologi Informasi dan Komunikasi, Sektor Teknologi Informasi dan Komunikasi",
            "tanggal_terbit": "2022-02-24",
            "url_tdpse_detail": "https://pse.komdigi.go.id/tdpse-detail/3375",
            "website": "tidi.id"
        },
        {
            "id": "9cb1ab8f-f6ed-4dad-a911-f2ce0a866f1a",
            "nama_pse": "ABDI INSAN SEMESTA",
            "nama_se": "SOFTWAREKANTOR",
            "sektor": "Sektor Perdagangan, Sektor Perdagangan, Sektor Teknologi Informasi dan Komunikasi, Sektor Teknologi Informasi dan Komunikasi",
            "tanggal_terbit": "2022-02-24",
            "url_tdpse_detail": "https://pse.komdigi.go.id/tdpse-detail/3377",
            "website": "softwarekantor.co.id"
        },
        {
            "id": "9cb1ab65-5808-43da-9bd2-608c8cdcdb3f",
            "nama_pse": "RANGKUL TEMAN JAKARTA",
            "nama_se": "KOPERASI SIMPAN PINJAM RANGKUL TEMAN JAKARTA",
            "sektor": "Sektor Keuangan, Sektor Keuangan",
            "tanggal_terbit": "2022-02-23",
            "url_tdpse_detail": "https://pse.komdigi.go.id/tdpse-detail/3348",
            "website": "rangkulteman.id"
        },
        {
            "id": "9cb1ab6a-7955-44c3-a9ae-2225238e9d2d",
            "nama_pse": "IDANA SOLUSI SEJAHTERA",
            "nama_se": "CAIRIN",
            "sektor": "Sektor Keuangan, Sektor Keuangan",
            "tanggal_terbit": "2022-02-23",
            "url_tdpse_detail": "https://pse.komdigi.go.id/tdpse-detail/3353",
            "website": "cairin.id"
        },
        {
            "id": "9cb1ab8a-cd50-49f2-8534-8574410e550c",
            "nama_pse": "DIGITAL SERVICE SARI UTAMA",
            "nama_se": "WWW.FIXBEE.COM",
            "sektor": "Sektor Transportasi, Sektor Transportasi, Sektor Teknologi Informasi dan Komunikasi, Sektor Teknologi Informasi dan Komunikasi",
            "tanggal_terbit": "2022-02-23",
            "url_tdpse_detail": "https://pse.komdigi.go.id/tdpse-detail/3350",
            "website": "fixbee.com"
        },
        {
            "id": "9cb1ab8a-de85-4535-9dbf-625c1105ad3c",
            "nama_pse": "PLUS ENAM DUA GROUP",
            "nama_se": "PT. PLUS ENAM DUA GROUP",
            "sektor": "Sektor Perdagangan, Sektor Perdagangan, Sektor Kesehatan, Sektor Kesehatan, Sektor Pangan, Sektor Pangan",
            "tanggal_terbit": "2022-02-23",
            "url_tdpse_detail": "https://pse.komdigi.go.id/tdpse-detail/3356",
            "website": "plusenamduagroup.com"
        },
        {
            "id": "9cb1ab7b-3261-4798-a414-c5da53b02ce9",
            "nama_pse": "FURNIX TATA MANDIRI",
            "nama_se": "CV. FURNIX TATA MANDIRI",
            "sektor": "Sektor Perdagangan, Sektor Perdagangan",
            "tanggal_terbit": "2022-02-23",
            "url_tdpse_detail": "https://pse.komdigi.go.id/tdpse-detail/3351",
            "website": "furnixfurniture.co.id"
        },
        {
            "id": "9cb1ab7b-37cc-40b9-ac2f-bb327f8bb8be",
            "nama_pse": "MULTI PRATAMA ASIA",
            "nama_se": "MULTI PRATAMA ASIA",
            "sektor": "Sektor Transportasi, Sektor Transportasi, Sektor Transportasi",
            "tanggal_terbit": "2022-02-23",
            "url_tdpse_detail": "https://pse.komdigi.go.id/tdpse-detail/3347",
            "website": "multijasasolusindo.id"
        },
        {
            "id": "9cb1ab83-07f7-4abf-9f8c-9f4545c490ee",
            "nama_pse": "MULTI PRATAMA ASIA",
            "nama_se": "MPA MITRA MARCHANT",
            "sektor": "Sektor Perdagangan, Sektor Perdagangan, Sektor Perdagangan, Sektor Teknologi Informasi dan Komunikasi, Sektor Teknologi Informasi dan Komunikasi, Sektor Teknologi Informasi dan Komunikasi",
            "tanggal_terbit": "2022-02-23",
            "url_tdpse_detail": "https://pse.komdigi.go.id/tdpse-detail/3349",
            "website": "multijasasolusindo.id"
        },
        {
            "id": "9cb1ab83-0ef9-4c91-8e02-bf4683803c49",
            "nama_pse": "DURIAN PAY INDONESIA",
            "nama_se": "DURIANPAY",
            "sektor": "Sektor Keuangan, Sektor Keuangan",
            "tanggal_terbit": "2022-02-23",
            "url_tdpse_detail": "https://pse.komdigi.go.id/tdpse-detail/3352",
            "website": "durianpay.id"
        },
        {
            "id": "9cb1ab83-1225-4d66-8044-16ca973a130a",
            "nama_pse": "DIAN SORAYA SAPUTRA",
            "nama_se": "KURSUSMART",
            "sektor": "Sektor Teknologi Informasi dan Komunikasi, Sektor Teknologi Informasi dan Komunikasi",
            "tanggal_terbit": "2022-02-23",
            "url_tdpse_detail": "https://pse.komdigi.go.id/tdpse-detail/3354",
            "website": "kursusmart.com"
        },
        {
            "id": "9cb1ab7b-45bc-4eb3-8312-46e3e11a290d",
            "nama_pse": "PILARMEDIA INDONESIA",
            "nama_se": "PILARMEDIA INDONESIA",
            "sektor": "Sektor Perdagangan, Sektor Perdagangan, Sektor Transportasi, Sektor Transportasi, Sektor Teknologi Informasi dan Komunikasi, Sektor Teknologi Informasi dan Komunikasi",
            "tanggal_terbit": "2022-02-23",
            "url_tdpse_detail": "https://pse.komdigi.go.id/tdpse-detail/3355",
            "website": "pilarmedia.com"
        },
        {
            "id": "9cb1ab83-1885-4427-81d7-3e82bccea715",
            "nama_pse": "TRIPERWIRA MULTI PAMENANG",
            "nama_se": "PT. TRIPERWIRA MULTI PAMENANG",
            "sektor": "Sektor Perdagangan, Sektor Perdagangan, Sektor Teknologi Informasi dan Komunikasi, Sektor Teknologi Informasi dan Komunikasi",
            "tanggal_terbit": "2022-02-23",
            "url_tdpse_detail": "https://pse.komdigi.go.id/tdpse-detail/3357",
            "website": "pc-master.biz"
        },
        {
            "id": "9cb1ab7b-55ac-41f1-aafd-07c9b14920bf",
            "nama_pse": "TRIPERWIRA MULTI PAMENANG",
            "nama_se": "TRIPERWIRA MULTI PAMENANG.",
            "sektor": "Sektor Perdagangan, Sektor Perdagangan, Sektor Teknologi Informasi dan Komunikasi, Sektor Teknologi Informasi dan Komunikasi",
            "tanggal_terbit": "2022-02-23",
            "url_tdpse_detail": "https://pse.komdigi.go.id/tdpse-detail/3358",
            "website": "pc-master.biz"
        },
        {
            "id": "9cb1ab86-8ca8-43d9-a0d1-e80d1cb78ddf",
            "nama_pse": "PLUANG MAJU SEKURITAS",
            "nama_se": "PAHAM",
            "sektor": "Sektor Keuangan, Sektor Keuangan",
            "tanggal_terbit": "2022-02-23",
            "url_tdpse_detail": "https://pse.komdigi.go.id/tdpse-detail/3359",
            "website": "nilaiintisekuritas.com"
        },
        {
            "id": "9cb1ab90-aa46-4a10-a63d-07f9da4ca31f",
            "nama_pse": "BERNIAGA BERKAH CEMERLANG",
            "nama_se": "BERNIAGA BERKAH CEMERLANG",
            "sektor": "Sektor Perdagangan, Sektor Perdagangan",
            "tanggal_terbit": "2022-02-23",
            "url_tdpse_detail": "https://pse.komdigi.go.id/tdpse-detail/3360",
            "website": "berniagaberkahcemerlang.com"
        },
        {
            "id": "9cb1ab66-3eee-4f0c-8ec0-4c7beec54bd9",
            "nama_pse": "GLOBAL LOKET SEJAHTERA",
            "nama_se": "LOKET.COM",
            "sektor": "Sektor Perdagangan, Sektor Perdagangan",
            "tanggal_terbit": "2022-02-22",
            "url_tdpse_detail": "https://pse.komdigi.go.id/tdpse-detail/3338",
            "website": "loket.com"
        },
        {
            "id": "9cb1ab8a-e3c5-445a-b84d-5f949d57f87b",
            "nama_pse": "FITA SEHAT NUSANTARA",
            "nama_se": "FITA",
            "sektor": "Sektor Teknologi Informasi dan Komunikasi, Sektor Teknologi Informasi dan Komunikasi",
            "tanggal_terbit": "2022-02-22",
            "url_tdpse_detail": "https://pse.komdigi.go.id/tdpse-detail/3334",
            "website": "fita.co.id"
        },
        {
            "id": "9cb1ab80-1320-40a5-8644-34cd91fc3f5b",
            "nama_pse": "KLIK INDOMARET PERKASA",
            "nama_se": "KLIK INDOMARET",
            "sektor": "Sektor Perdagangan, Sektor Perdagangan, Sektor Perdagangan",
            "tanggal_terbit": "2022-02-22",
            "url_tdpse_detail": "https://pse.komdigi.go.id/tdpse-detail/3333",
            "website": "klikindomaret.com"
        }
    ],
    "processingTimeMs": 7,
    "query": "",
    "totalHits": 19121,
    "hitsPerPage": 50,
    "page": 319,
    "totalPages": 383
}