{
    "hits": [
        {
            "id": "9cb1ac61-d9df-4b62-9649-a3e5ab56494f",
            "nama_pse": "HARTANTO WORLD PROJECT",
            "nama_se": "PEGGY HARTANTO",
            "sektor": "Sektor Perdagangan",
            "tanggal_terbit": "2023-10-31",
            "url_tdpse_detail": "https://pse.komdigi.go.id/tdpse-detail/16406",
            "website": "peggyhartanto.com"
        },
        {
            "id": "9cb1ac61-dcee-4f86-95d7-b0dc0c57216c",
            "nama_pse": "IRON ASSET INDONESIA",
            "nama_se": "INNER CIRCLE APP SERVICE",
            "sektor": "Sektor Teknologi Informasi dan Komunikasi",
            "tanggal_terbit": "2023-10-31",
            "url_tdpse_detail": "https://pse.komdigi.go.id/tdpse-detail/16410",
            "website": "-"
        },
        {
            "id": "9cb1ac4e-f845-4c03-836b-28fc1d84ee11",
            "nama_pse": "RSU PKU MUHAMMADIYAH GUBUG",
            "nama_se": "HOSMIS",
            "sektor": "Sektor Kesehatan",
            "tanggal_terbit": "2023-10-31",
            "url_tdpse_detail": "https://pse.komdigi.go.id/tdpse-detail/16411",
            "website": "-"
        },
        {
            "id": "9cb1ac61-dfd5-4b87-942f-731b9d7bee32",
            "nama_pse": "OPENBIT LELANG INDONESIA",
            "nama_se": "OPENBIT",
            "sektor": "Sektor Perdagangan, Sektor Teknologi Informasi dan Komunikasi, Sektor Pangan, Sektor Pertahanan dan Keamanan",
            "tanggal_terbit": "2023-10-31",
            "url_tdpse_detail": "https://pse.komdigi.go.id/tdpse-detail/16513",
            "website": "-"
        },
        {
            "id": "9cb1ac61-e2b3-4eb0-a1c6-05701c5cdd34",
            "nama_pse": "ERA MEDIKA TULUNGAGUNG",
            "nama_se": "SIMERA",
            "sektor": "Sektor Kesehatan, Sektor Teknologi Informasi dan Komunikasi",
            "tanggal_terbit": "2023-10-31",
            "url_tdpse_detail": "https://pse.komdigi.go.id/tdpse-detail/16414",
            "website": "rseramedika.com"
        },
        {
            "id": "9cb1ac4e-fe37-4904-b8d0-5db44d89878e",
            "nama_pse": "DINDA MEDISTRA",
            "nama_se": "SISTEM INFORMASI MANAJEMEN RUMAH SAKIT",
            "sektor": "Sektor Kesehatan",
            "tanggal_terbit": "2023-10-31",
            "url_tdpse_detail": "https://pse.komdigi.go.id/tdpse-detail/16413",
            "website": "rsudinda.co.id"
        },
        {
            "id": "9cb1ac4f-0160-4056-be85-e853d4baac4c",
            "nama_pse": "PS GLOBAL MEDIA",
            "nama_se": "GOTUKU.COM",
            "sektor": "Sektor Perdagangan, Sektor Kesehatan",
            "tanggal_terbit": "2023-10-31",
            "url_tdpse_detail": "https://pse.komdigi.go.id/tdpse-detail/16412",
            "website": "gotuku.com"
        },
        {
            "id": "9cb1ac4f-0430-4e44-bfb8-b88cfe5d497f",
            "nama_pse": "ANANG FATCHURRACHMAN",
            "nama_se": "SIM-KLINIKDREKOMANUKAN",
            "sektor": "Sektor Kesehatan",
            "tanggal_terbit": "2023-10-31",
            "url_tdpse_detail": "https://pse.komdigi.go.id/tdpse-detail/16415",
            "website": "-"
        },
        {
            "id": "9cb1ac61-e7ab-4ed8-8d20-3edc2d0af943",
            "nama_pse": "TELOGOREJO MEDIKA FARMA",
            "nama_se": "SIM PURI",
            "sektor": "Sektor Kesehatan",
            "tanggal_terbit": "2023-10-31",
            "url_tdpse_detail": "https://pse.komdigi.go.id/tdpse-detail/16418",
            "website": "-"
        },
        {
            "id": "9cb1ac4f-072e-42c6-ae1d-949199c7df23",
            "nama_pse": "PRODIA OCCUPATIONAL HEALTH INDONESIA",
            "nama_se": "ECLINSYST AVERIN OHCC",
            "sektor": "Sektor Kesehatan",
            "tanggal_terbit": "2023-10-31",
            "url_tdpse_detail": "https://pse.komdigi.go.id/tdpse-detail/16416",
            "website": "-"
        },
        {
            "id": "9cb1ac61-ea1a-4672-b1d4-70ef5f95be90",
            "nama_pse": "PRODIA OCCUPATIONAL HEALTH INDONESIA",
            "nama_se": "ECLINSYST AVERIN OHC CIKARANG",
            "sektor": "Sektor Kesehatan",
            "tanggal_terbit": "2023-10-31",
            "url_tdpse_detail": "https://pse.komdigi.go.id/tdpse-detail/16417",
            "website": "-"
        },
        {
            "id": "9cb1ac76-129d-489c-a3dc-a8fff94c095c",
            "nama_pse": "KONSULTAN KATIGA INDONESIA",
            "nama_se": "SBUJK KK3I",
            "sektor": "Sektor Perdagangan",
            "tanggal_terbit": "2023-10-31",
            "url_tdpse_detail": "https://pse.komdigi.go.id/tdpse-detail/16419",
            "website": "sbujk-kk3i.com"
        },
        {
            "id": "9cb1ac61-ec85-459b-bd5f-813f8a01cc81",
            "nama_pse": "AIC SUKSES MAKMUR",
            "nama_se": "PT. AIC SUKSES MAKMUR",
            "sektor": "Sektor Perdagangan",
            "tanggal_terbit": "2023-10-31",
            "url_tdpse_detail": "https://pse.komdigi.go.id/tdpse-detail/16420",
            "website": "ww.anakindigo.co.id"
        },
        {
            "id": "9cb1ac4c-bc7e-4f45-8459-624363e800ac",
            "nama_pse": "JAGOFON ELEKTRONIK INDONESIA",
            "nama_se": "JAGOFON",
            "sektor": "Sektor Perdagangan",
            "tanggal_terbit": "2023-10-30",
            "url_tdpse_detail": "https://pse.komdigi.go.id/tdpse-detail/16392",
            "website": "jagofon.com"
        },
        {
            "id": "9cb1ac75-0693-44ab-86ff-3917c4e5c3d3",
            "nama_pse": "THETA SOLUSI INDONESIA",
            "nama_se": "THETA BANKING PLATFORM",
            "sektor": "Sektor Teknologi Informasi dan Komunikasi",
            "tanggal_terbit": "2023-10-30",
            "url_tdpse_detail": "https://pse.komdigi.go.id/tdpse-detail/16386",
            "website": "thetatech.id"
        },
        {
            "id": "9cb1ac75-da5e-4e53-b1e3-1b24fdd10052",
            "nama_pse": "NETRA AFIAT MOJOAGUNG",
            "nama_se": "E-SYST EDC",
            "sektor": "Sektor Kesehatan",
            "tanggal_terbit": "2023-10-30",
            "url_tdpse_detail": "https://pse.komdigi.go.id/tdpse-detail/16391",
            "website": "klinikmata.edcgroup.id"
        },
        {
            "id": "9cb1ac61-b7f1-423e-a0f7-0695888ebdbd",
            "nama_pse": "UPBIT EXCHANGE INDONESIA",
            "nama_se": "PLATFORM PERDAGANGAN ASET KRIPTO",
            "sektor": "Sektor Keuangan",
            "tanggal_terbit": "2023-10-30",
            "url_tdpse_detail": "https://pse.komdigi.go.id/tdpse-detail/16385",
            "website": "id.upbit.com"
        },
        {
            "id": "9cb1ac61-ba95-44b8-9c82-839d2798f967",
            "nama_pse": "SERAUNG CIPTA SARANA INFORMATIKA",
            "nama_se": "SMART-SCHOLAR",
            "sektor": "Sektor Teknologi Informasi dan Komunikasi",
            "tanggal_terbit": "2023-10-30",
            "url_tdpse_detail": "https://pse.komdigi.go.id/tdpse-detail/16387",
            "website": "smart-scholar.scsi.co.id"
        },
        {
            "id": "9cb1ac4e-da00-4178-81dd-7ce002763376",
            "nama_pse": "NGOMONGIN UANG BERSAMA",
            "nama_se": "NGOMONGIN UANG",
            "sektor": "Sektor Teknologi Informasi dan Komunikasi",
            "tanggal_terbit": "2023-10-30",
            "url_tdpse_detail": "https://pse.komdigi.go.id/tdpse-detail/16388",
            "website": "ngomonginuang.com"
        },
        {
            "id": "9cb1ac75-fcfc-473a-8983-3af1cfb47293",
            "nama_pse": "HOLISTIC INDONESIA",
            "nama_se": "SIMKES KHANZA",
            "sektor": "Sektor Kesehatan",
            "tanggal_terbit": "2023-10-30",
            "url_tdpse_detail": "https://pse.komdigi.go.id/tdpse-detail/16389",
            "website": "holisticindonesia.com"
        },
        {
            "id": "9cb1ac4e-dc5c-47d7-a2ad-a0c9448fb056",
            "nama_pse": "ASIH EKA ABADI",
            "nama_se": "MANAGEMED",
            "sektor": "Sektor Kesehatan",
            "tanggal_terbit": "2023-10-30",
            "url_tdpse_detail": "https://pse.komdigi.go.id/tdpse-detail/16390",
            "website": "-"
        },
        {
            "id": "9cb1ac4e-e0e8-40e8-b6d1-d5800dac6ffd",
            "nama_pse": "MONEYDUCK TEKNOLOGI INDONESIA",
            "nama_se": "MONEYDUCK",
            "sektor": "Sektor Perdagangan, Sektor Teknologi Informasi dan Komunikasi",
            "tanggal_terbit": "2023-10-30",
            "url_tdpse_detail": "https://pse.komdigi.go.id/tdpse-detail/16393",
            "website": "moneyduck.com"
        },
        {
            "id": "9cb1ac61-bd0c-4192-8770-049329a72ab9",
            "nama_pse": "KARYA BHAKTI PRATIWI",
            "nama_se": "ELECTRONIC MEDICAL RECORD",
            "sektor": "Sektor Kesehatan",
            "tanggal_terbit": "2023-10-30",
            "url_tdpse_detail": "https://pse.komdigi.go.id/tdpse-detail/16395",
            "website": "karyabhaktipratiwi.co.id"
        },
        {
            "id": "9cb1ac61-bfb4-43f3-9346-1829e46b1016",
            "nama_pse": "BERKAT ARTHA SENTOSA",
            "nama_se": "KOPMENSIPBOS",
            "sektor": "Sektor Teknologi Informasi dan Komunikasi",
            "tanggal_terbit": "2023-10-30",
            "url_tdpse_detail": "https://pse.komdigi.go.id/tdpse-detail/16394",
            "website": "kopmensipbos.com"
        },
        {
            "id": "9cb1ac76-0014-4a46-aa27-cbd991ddefb0",
            "nama_pse": "BERKAT ARTHA SENTOSA",
            "nama_se": "REFERAL.APP",
            "sektor": "Sektor Teknologi Informasi dan Komunikasi",
            "tanggal_terbit": "2023-10-30",
            "url_tdpse_detail": "https://pse.komdigi.go.id/tdpse-detail/16396",
            "website": "-"
        },
        {
            "id": "9cb1ac61-c242-48b0-be92-326be1fa2630",
            "nama_pse": "SEKAR TUNJUNG BIRU",
            "nama_se": "SISTEM INFORMASI MANAJEMEN RUMAH SAKIT RS BALIMED KARANGASEM",
            "sektor": "Sektor Kesehatan",
            "tanggal_terbit": "2023-10-30",
            "url_tdpse_detail": "https://pse.komdigi.go.id/tdpse-detail/16397",
            "website": "-"
        },
        {
            "id": "9cb1ac76-02b4-46a9-87cb-acb9ab327485",
            "nama_pse": "DELTA AWAN ANGKASA",
            "nama_se": "NEVACLOUD MANAGER",
            "sektor": "Sektor Teknologi Informasi dan Komunikasi",
            "tanggal_terbit": "2023-10-30",
            "url_tdpse_detail": "https://pse.komdigi.go.id/tdpse-detail/16398",
            "website": "nevacloud.com"
        },
        {
            "id": "9cb1ac4e-e442-4d1b-9d8e-5d7fef89590e",
            "nama_pse": "DIGITAL SEMANTIKA INDONESIA",
            "nama_se": "DIGITAL HAPPINESS",
            "sektor": "Sektor Teknologi Informasi dan Komunikasi",
            "tanggal_terbit": "2023-10-30",
            "url_tdpse_detail": "https://pse.komdigi.go.id/tdpse-detail/16399",
            "website": "digitalhappiness.net"
        },
        {
            "id": "9cb1ac76-0b37-41cf-a597-81ec53cbae1e",
            "nama_pse": "PRIMADAYA CITRA MANDIRI",
            "nama_se": "PRIMADAYA.CM",
            "sektor": "Sektor Perdagangan",
            "tanggal_terbit": "2023-10-30",
            "url_tdpse_detail": "https://pse.komdigi.go.id/tdpse-detail/16400",
            "website": "primadaya.co.id"
        },
        {
            "id": "9cb1ac4e-e786-4956-9640-13777b265540",
            "nama_pse": "PRODIA OCCUPATIONAL HEALTH INDONESIA",
            "nama_se": "ECLINSYST AVERIN",
            "sektor": "Sektor Kesehatan",
            "tanggal_terbit": "2023-10-30",
            "url_tdpse_detail": "https://pse.komdigi.go.id/tdpse-detail/16401",
            "website": "-"
        },
        {
            "id": "9cb1ac4e-f140-4d65-b791-d2621a37e25f",
            "nama_pse": "INDOWATCH PERKASA INTERNATIONAL",
            "nama_se": "INTIME STORE",
            "sektor": "Sektor Perdagangan",
            "tanggal_terbit": "2023-10-30",
            "url_tdpse_detail": "https://pse.komdigi.go.id/tdpse-detail/16402",
            "website": "intime.co.id"
        },
        {
            "id": "9cb1ac61-d032-4be9-94a8-9fafb4381160",
            "nama_pse": "ANUGRAH KARYA INDONESIA",
            "nama_se": "ANTAR UANG ONLINE",
            "sektor": "Sektor Teknologi Informasi dan Komunikasi",
            "tanggal_terbit": "2023-10-30",
            "url_tdpse_detail": "https://pse.komdigi.go.id/tdpse-detail/16403",
            "website": "antaruang.online"
        },
        {
            "id": "9cb1ac4e-f46c-4666-87dc-edae4a6adba7",
            "nama_pse": "BUNGKER CORP",
            "nama_se": "SIADUN",
            "sektor": "Sektor Perdagangan",
            "tanggal_terbit": "2023-10-30",
            "url_tdpse_detail": "https://pse.komdigi.go.id/tdpse-detail/16404",
            "website": "siadun.com"
        },
        {
            "id": "9cb1ac61-aefb-4ef6-8af4-052171f9d540",
            "nama_pse": "INOVASI MAHA KARYA",
            "nama_se": "DIGIMEDIS",
            "sektor": "Sektor Kesehatan",
            "tanggal_terbit": "2023-10-28",
            "url_tdpse_detail": "https://pse.komdigi.go.id/tdpse-detail/16381",
            "website": "digimedis.id"
        },
        {
            "id": "9cb1ac61-b2b4-46c7-b239-32c8ad25a677",
            "nama_pse": "Y SUWARDI",
            "nama_se": "MSOFT SOLUTION",
            "sektor": "Sektor Teknologi Informasi dan Komunikasi",
            "tanggal_terbit": "2023-10-28",
            "url_tdpse_detail": "https://pse.komdigi.go.id/tdpse-detail/16382",
            "website": "mandiri-software.com"
        },
        {
            "id": "9cb1ac61-b553-4185-8bb9-6bab8a4db20b",
            "nama_pse": "MUHAMMAD AJI PANGESTU",
            "nama_se": "APLIKASI E-MINAT UMKM",
            "sektor": "Sektor Perdagangan, Sektor Teknologi Informasi dan Komunikasi",
            "tanggal_terbit": "2023-10-28",
            "url_tdpse_detail": "https://pse.komdigi.go.id/tdpse-detail/16383",
            "website": "minat.store"
        },
        {
            "id": "9cb1ac75-f8af-4056-9d5d-175e2c333373",
            "nama_pse": "SINERGI PRIMA SOLUSINDO",
            "nama_se": "LABORATORIUM INFORMATION SYSTEM (LIS)",
            "sektor": "Sektor Kesehatan, Sektor Teknologi Informasi dan Komunikasi",
            "tanggal_terbit": "2023-10-28",
            "url_tdpse_detail": "https://pse.komdigi.go.id/tdpse-detail/16384",
            "website": "-"
        },
        {
            "id": "9cb1ac61-a21e-46fe-912b-504a77f8fa6b",
            "nama_pse": "BANK INA PERDANA",
            "nama_se": "APLIKASI BINA MOBILE",
            "sektor": "Sektor Keuangan",
            "tanggal_terbit": "2023-10-27",
            "url_tdpse_detail": "https://pse.komdigi.go.id/tdpse-detail/16373",
            "website": "apigw-prod.bankina.id"
        },
        {
            "id": "9cb1ac75-f2cb-467b-b5b9-b117bfb1a78c",
            "nama_pse": "PERMATA HATI LOTIM",
            "nama_se": "SIMRS RSIA PERMATA HATI LOTIM",
            "sektor": "Sektor Kesehatan",
            "tanggal_terbit": "2023-10-27",
            "url_tdpse_detail": "https://pse.komdigi.go.id/tdpse-detail/16375",
            "website": "-"
        },
        {
            "id": "9cb1ac61-a763-4f87-b04d-f53a2fa13851",
            "nama_pse": "TELEKOMUNIKASI SELULAR",
            "nama_se": "FANMATE.ID",
            "sektor": "Sektor Teknologi Informasi dan Komunikasi",
            "tanggal_terbit": "2023-10-27",
            "url_tdpse_detail": "https://pse.komdigi.go.id/tdpse-detail/16374",
            "website": "fanmate.id"
        },
        {
            "id": "9cb1ac4e-d112-4864-b5eb-26a947d37d65",
            "nama_pse": "RAJAWALI TUNGGAL ABADI",
            "nama_se": "RAJAWALI TUNGGAL ABADI",
            "sektor": "Sektor Perdagangan",
            "tanggal_terbit": "2023-10-27",
            "url_tdpse_detail": "https://pse.komdigi.go.id/tdpse-detail/16376",
            "website": "ptrta.co.id"
        },
        {
            "id": "9cb1ac61-a9fb-42dd-9ad5-ff1428b908ed",
            "nama_pse": "PERMATA HATI MATARAM",
            "nama_se": "SIMRS KHANZA RSIA PERMATA HATI MATARAM",
            "sektor": "Sektor Kesehatan",
            "tanggal_terbit": "2023-10-27",
            "url_tdpse_detail": "https://pse.komdigi.go.id/tdpse-detail/16377",
            "website": "-"
        },
        {
            "id": "9cb1ac61-ac83-441e-a7b8-530b1c0e6b46",
            "nama_pse": "SEI HARA PRIMA",
            "nama_se": "DIGIMEDIKA",
            "sektor": "Sektor Kesehatan",
            "tanggal_terbit": "2023-10-27",
            "url_tdpse_detail": "https://pse.komdigi.go.id/tdpse-detail/16378",
            "website": "digimedika.com"
        },
        {
            "id": "9cb1ac4e-d78b-46a7-8190-8159f1f140e8",
            "nama_pse": "LAPAK DIGITAL DINDIN",
            "nama_se": "PT LAPAK DIGITAL DINDIN",
            "sektor": "Sektor Teknologi Informasi dan Komunikasi",
            "tanggal_terbit": "2023-10-27",
            "url_tdpse_detail": "https://pse.komdigi.go.id/tdpse-detail/16380",
            "website": "lapakreload.id"
        },
        {
            "id": "9cb1ac61-8850-46c0-b067-b105ff8982c0",
            "nama_pse": "WARUNG KREASI INDONESIA",
            "nama_se": "PT. WARUNG KREASI INDONESIA",
            "sektor": "Sektor Teknologi Informasi dan Komunikasi",
            "tanggal_terbit": "2023-10-26",
            "url_tdpse_detail": "https://pse.komdigi.go.id/tdpse-detail/16364",
            "website": "-"
        },
        {
            "id": "9cb1ac61-90a1-4df5-a30f-b97fa9ac8e00",
            "nama_pse": "INOLABS INDONESIA",
            "nama_se": "INOKLINIK",
            "sektor": "Sektor Kesehatan",
            "tanggal_terbit": "2023-10-26",
            "url_tdpse_detail": "https://pse.komdigi.go.id/tdpse-detail/16366",
            "website": "inoklinik.com"
        },
        {
            "id": "9cb1ac4e-90b6-4336-a830-1f90b8175210",
            "nama_pse": "SANSKARA SANJAYA ABADI",
            "nama_se": "SANSKARA",
            "sektor": "Sektor Teknologi Informasi dan Komunikasi",
            "tanggal_terbit": "2023-10-26",
            "url_tdpse_detail": "https://pse.komdigi.go.id/tdpse-detail/16363",
            "website": "sanskara.co.id"
        },
        {
            "id": "9cb1ac75-e619-4a56-856f-c7372fe8eca9",
            "nama_pse": "BANK INA PERDANA",
            "nama_se": "PINJAMAN DIGITAL BINA",
            "sektor": "Sektor Keuangan",
            "tanggal_terbit": "2023-10-26",
            "url_tdpse_detail": "https://pse.komdigi.go.id/tdpse-detail/16367",
            "website": "ktp.bankina.id"
        },
        {
            "id": "9cb1ac61-9d0f-4b33-b9a0-9b2174c1c120",
            "nama_pse": "BRAWIJAYA INVESTAMA",
            "nama_se": "BRAWIJAYAHOSPITAL.COM",
            "sektor": "Sektor Kesehatan",
            "tanggal_terbit": "2023-10-26",
            "url_tdpse_detail": "https://pse.komdigi.go.id/tdpse-detail/16365",
            "website": "brawijayahospital.com"
        },
        {
            "id": "9cb1ac4e-ad22-47a5-b7bf-add683caf808",
            "nama_pse": "HCM EXCELLENCE",
            "nama_se": "HCMSOFT",
            "sektor": "Sektor Teknologi Informasi dan Komunikasi",
            "tanggal_terbit": "2023-10-26",
            "url_tdpse_detail": "https://pse.komdigi.go.id/tdpse-detail/16368",
            "website": "-"
        }
    ],
    "processingTimeMs": 2,
    "query": "",
    "totalHits": 19131,
    "hitsPerPage": 50,
    "page": 111,
    "totalPages": 383
}