{
    "hits": [
        {
            "id": "9cb1ab9d-8ffe-4096-ad3b-297eca839049",
            "nama_pse": "INDOSAT",
            "nama_se": "IOH WEBSITE",
            "sektor": "Sektor Teknologi Informasi dan Komunikasi",
            "tanggal_terbit": "2022-07-18",
            "url_tdpse_detail": "https://pse.komdigi.go.id/tdpse-detail/6082",
            "website": "-"
        },
        {
            "id": "9cb1ab9d-92a7-4d5b-926b-9d886d34a6cb",
            "nama_pse": "BANK PERKREDITAN RAKYAT BUMI SEDIAGUNA",
            "nama_se": "BPR BUMI SEDIAGUNA",
            "sektor": "Sektor Keuangan",
            "tanggal_terbit": "2022-07-18",
            "url_tdpse_detail": "https://pse.komdigi.go.id/tdpse-detail/6083",
            "website": "bprbumisediaguna.com"
        },
        {
            "id": "9cb1ab9d-94fc-44fc-b558-7a53ff0ee17f",
            "nama_pse": "KREDIT FINANCIAL PREDANA",
            "nama_se": "KFP. ID",
            "sektor": "Sektor Teknologi Informasi dan Komunikasi",
            "tanggal_terbit": "2022-07-18",
            "url_tdpse_detail": "https://pse.komdigi.go.id/tdpse-detail/6085",
            "website": "-"
        },
        {
            "id": "9cb1ab9d-9765-42fe-8545-36374fc51ba9",
            "nama_pse": "BANK PEMBANGUNAN DAERAH DAERAH ISTIMEWA YOGYAKARTA",
            "nama_se": "OFFICIAL WEBSITE BPD DIY",
            "sektor": "Sektor Keuangan",
            "tanggal_terbit": "2022-07-18",
            "url_tdpse_detail": "https://pse.komdigi.go.id/tdpse-detail/6093",
            "website": "bpddiy.co.id"
        },
        {
            "id": "9cb1ab9d-9a2e-477d-a5ee-089435463d7e",
            "nama_pse": "BANK ACEH SYARIAH",
            "nama_se": "ACTION MOBILE BANKING",
            "sektor": "Sektor Keuangan, Sektor Teknologi Informasi dan Komunikasi",
            "tanggal_terbit": "2022-07-18",
            "url_tdpse_detail": "https://pse.komdigi.go.id/tdpse-detail/6089",
            "website": "-"
        },
        {
            "id": "9cb1ab9d-9cd8-4378-82bf-227e404e9ec4",
            "nama_pse": "BANK PEREKONOMIAN RAKYAT LESTARI BALI",
            "nama_se": "WEBSITE BPR LESTARI BALI",
            "sektor": "Sektor Keuangan",
            "tanggal_terbit": "2022-07-18",
            "url_tdpse_detail": "https://pse.komdigi.go.id/tdpse-detail/6087",
            "website": "bprlestari.com"
        },
        {
            "id": "9cb1abb2-1c27-4142-a86f-0ab608e8b779",
            "nama_pse": "HERMAWAN SETIYANTO",
            "nama_se": "LOKALAN.COM",
            "sektor": "Sektor Perdagangan",
            "tanggal_terbit": "2022-07-18",
            "url_tdpse_detail": "https://pse.komdigi.go.id/tdpse-detail/6086",
            "website": "lokalan.com"
        },
        {
            "id": "9cb1aba8-3a5f-47eb-8052-38feb48f484d",
            "nama_pse": "TIGA MANUNGGAL TEKNOLOGI INDONESIA",
            "nama_se": "SILVANIX.COM",
            "sektor": "Sektor Teknologi Informasi dan Komunikasi",
            "tanggal_terbit": "2022-07-18",
            "url_tdpse_detail": "https://pse.komdigi.go.id/tdpse-detail/6088",
            "website": "silvanix.com"
        },
        {
            "id": "9cb1aba8-3c57-4fbe-892b-0a0a1ac3daed",
            "nama_pse": "BANK PERKREDITAN RAKYAT SAMPURAGA CEMERLANG PERSERODA",
            "nama_se": "CORE BANKING SYSTEM USSI",
            "sektor": "Sektor Keuangan",
            "tanggal_terbit": "2022-07-18",
            "url_tdpse_detail": "https://pse.komdigi.go.id/tdpse-detail/6091",
            "website": "banksampuraga.com"
        },
        {
            "id": "9cb1abb2-1e05-4356-a07c-7d8c7bf99b5d",
            "nama_pse": "BANK PERKREDITAN RAKYAT ARTHA MANDIRI SEJAHTERA",
            "nama_se": "PT. BPR ARTHA MANDIRI SEJAHTERA WEB",
            "sektor": "Sektor Perdagangan, Sektor Keuangan",
            "tanggal_terbit": "2022-07-18",
            "url_tdpse_detail": "https://pse.komdigi.go.id/tdpse-detail/6090",
            "website": "bprarthamandirisejahtera.wordpress.com"
        },
        {
            "id": "9cb1abb2-1fd2-4cf8-8b74-a92b952627ca",
            "nama_pse": "PERUMDA BPR BANK PURWOREJO",
            "nama_se": "WEBSITE",
            "sektor": "Sektor Keuangan",
            "tanggal_terbit": "2022-07-18",
            "url_tdpse_detail": "https://pse.komdigi.go.id/tdpse-detail/6092",
            "website": "bankpurworejo.co.id"
        },
        {
            "id": "9cb1aba8-3e35-46e0-8866-752294487e19",
            "nama_pse": "COINBIT DIGITAL INDONESIA",
            "nama_se": "COINBIT DIGITAL",
            "sektor": "Sektor Keuangan",
            "tanggal_terbit": "2022-07-18",
            "url_tdpse_detail": "https://pse.komdigi.go.id/tdpse-detail/6094",
            "website": "coinbit.id"
        },
        {
            "id": "9cb1ab9d-a00d-4d8e-9ff2-07a6b665ee3f",
            "nama_pse": "BENI HERYANTO",
            "nama_se": "BELAJAR JADI BAIK STORE",
            "sektor": "Sektor Perdagangan",
            "tanggal_terbit": "2022-07-18",
            "url_tdpse_detail": "https://pse.komdigi.go.id/tdpse-detail/6095",
            "website": "-"
        },
        {
            "id": "9cb1abb2-21a2-4ef5-9d28-d8d2f65827ef",
            "nama_pse": "SEMBILAN PULUH ENAM DERAJAT",
            "nama_se": "FLASH COFFEE MOBILE APP AND WEBSITE",
            "sektor": "Sektor Perdagangan, Sektor Pangan",
            "tanggal_terbit": "2022-07-18",
            "url_tdpse_detail": "https://pse.komdigi.go.id/tdpse-detail/6096",
            "website": "flash-coffee.com"
        },
        {
            "id": "9cb1abb2-23c8-4360-8e3f-ab6981815b43",
            "nama_pse": "BANK PERKREDITAN RAKYAT ARTHA KARYA SEJAHTERA",
            "nama_se": "WEBSITE PT. BANK PERKREDITAN RAKYAT ARTHA KARYA SEJAHTERA",
            "sektor": "Sektor Keuangan",
            "tanggal_terbit": "2022-07-18",
            "url_tdpse_detail": "https://pse.komdigi.go.id/tdpse-detail/6097",
            "website": "bpraks.com"
        },
        {
            "id": "9cb1ab9d-a24f-4374-b836-5df7058001a1",
            "nama_pse": "SOBAT SYARIAH INDONESIA",
            "nama_se": "SOBAT SYARIAH",
            "sektor": "Sektor Perdagangan, Sektor Keuangan",
            "tanggal_terbit": "2022-07-18",
            "url_tdpse_detail": "https://pse.komdigi.go.id/tdpse-detail/6098",
            "website": "sobatsyariah.id"
        },
        {
            "id": "9cb1ab9d-a45b-4033-a86a-614e6b9f430e",
            "nama_pse": "BUDI JAYA SENTOSA",
            "nama_se": "TUKUKLIK.COM",
            "sektor": "Sektor Perdagangan",
            "tanggal_terbit": "2022-07-18",
            "url_tdpse_detail": "https://pse.komdigi.go.id/tdpse-detail/6111",
            "website": "tukuklik.com"
        },
        {
            "id": "9cb1abb2-25fb-44c8-8b46-12ad289a89ee",
            "nama_pse": "PUNDI MAS BERJAYA",
            "nama_se": "RUMAH DEWI",
            "sektor": "Sektor Teknologi Informasi dan Komunikasi",
            "tanggal_terbit": "2022-07-18",
            "url_tdpse_detail": "https://pse.komdigi.go.id/tdpse-detail/6134",
            "website": "Rumahdewi.com"
        },
        {
            "id": "9cb1ab9d-a671-4b23-aa0d-f5002ea4e9f5",
            "nama_pse": "BUANA SYIAR INDONESIA",
            "nama_se": "BUANA SYIAR SYIAR.ID",
            "sektor": "Sektor Teknologi Informasi dan Komunikasi",
            "tanggal_terbit": "2022-07-18",
            "url_tdpse_detail": "https://pse.komdigi.go.id/tdpse-detail/6105",
            "website": "syiar.id"
        },
        {
            "id": "9cb1ab9d-a84d-4168-9408-8df262823cb6",
            "nama_pse": "BANK PERKREDITAN RAKYAT BARINGIN PADANG PANJANG SAKATO",
            "nama_se": "RBS",
            "sektor": "Sektor Keuangan",
            "tanggal_terbit": "2022-07-18",
            "url_tdpse_detail": "https://pse.komdigi.go.id/tdpse-detail/6101",
            "website": "-"
        },
        {
            "id": "9cb1abb2-2810-451a-97ad-8ee27106b2ec",
            "nama_pse": "EQUITY DEVELOPMENT INVESTMENT",
            "nama_se": "SITUS PERUSAHAAN WWW.THEEQUITYONE.COM",
            "sektor": "Sektor Keuangan",
            "tanggal_terbit": "2022-07-18",
            "url_tdpse_detail": "https://pse.komdigi.go.id/tdpse-detail/6102",
            "website": "theequityone.com"
        },
        {
            "id": "9cb1ab9d-aa7e-44b3-a244-b769a5cea8c6",
            "nama_pse": "BANK PEMBANGUNAN DAERAH DAERAH ISTIMEWA YOGYAKARTA",
            "nama_se": "MOBILE BANKING BANK BPD DIY",
            "sektor": "Sektor Keuangan",
            "tanggal_terbit": "2022-07-18",
            "url_tdpse_detail": "https://pse.komdigi.go.id/tdpse-detail/6100",
            "website": "-"
        },
        {
            "id": "9cb1ab9d-acf0-400b-8846-38d2cad8cb69",
            "nama_pse": "POS FINANSIAL INDONESIA",
            "nama_se": "POSAJA! AGEN",
            "sektor": "Sektor Perdagangan, Sektor Teknologi Informasi dan Komunikasi",
            "tanggal_terbit": "2022-07-18",
            "url_tdpse_detail": "https://pse.komdigi.go.id/tdpse-detail/6104",
            "website": "posfin.id"
        },
        {
            "id": "9cb1ab9d-af0b-4cb3-af41-f25d8c2074a1",
            "nama_pse": "BANK PEREKONOMIAN RAKYAT ARTHA SARI SENTOSA",
            "nama_se": "WEBSITE BPR ARTHA SARI SENTOSA",
            "sektor": "Sektor Keuangan",
            "tanggal_terbit": "2022-07-18",
            "url_tdpse_detail": "https://pse.komdigi.go.id/tdpse-detail/6107",
            "website": "arthasarisentosa.co.id"
        },
        {
            "id": "9cb1abb2-29f1-486a-8617-383c4fdb99e3",
            "nama_pse": "SAMUEL SEKURITAS INDONESIA",
            "nama_se": "SAMUEL TRADING ACTIVE REALTIME",
            "sektor": "Sektor Keuangan",
            "tanggal_terbit": "2022-07-18",
            "url_tdpse_detail": "https://pse.komdigi.go.id/tdpse-detail/6106",
            "website": "samuel.co.id"
        },
        {
            "id": "9cb1abb2-2beb-468b-a507-a23c4e8a2cf7",
            "nama_pse": "PRO LEGAL INDONESIA",
            "nama_se": "WEBSITE PROLEGAL INDONESIA",
            "sektor": "Sektor Perdagangan",
            "tanggal_terbit": "2022-07-18",
            "url_tdpse_detail": "https://pse.komdigi.go.id/tdpse-detail/6109",
            "website": "prolegal.id"
        },
        {
            "id": "9cb1abb2-2ddf-4d69-b626-2e60e97c9447",
            "nama_pse": "PUNDI MAS BERJAYA",
            "nama_se": "KITAKERJA",
            "sektor": "Sektor Teknologi Informasi dan Komunikasi",
            "tanggal_terbit": "2022-07-18",
            "url_tdpse_detail": "https://pse.komdigi.go.id/tdpse-detail/6133",
            "website": "kitakerja.id"
        },
        {
            "id": "9cb1ab9d-b0ff-4052-9503-1373ec5936a3",
            "nama_pse": "WINN TEKNOLOGI NUSANTARA",
            "nama_se": "WINTERA",
            "sektor": "Sektor Perdagangan, Sektor Transportasi, Sektor Kesehatan, Sektor Teknologi Informasi dan Komunikasi",
            "tanggal_terbit": "2022-07-18",
            "url_tdpse_detail": "https://pse.komdigi.go.id/tdpse-detail/6113",
            "website": "wintera.co.id"
        },
        {
            "id": "9cb1aba8-4102-4ad9-835f-4c0c824aa665",
            "nama_pse": "ANGGA SAIDI WILASTRA",
            "nama_se": "LEGIONFC",
            "sektor": "Sektor Perdagangan, Sektor Teknologi Informasi dan Komunikasi",
            "tanggal_terbit": "2022-07-18",
            "url_tdpse_detail": "https://pse.komdigi.go.id/tdpse-detail/6110",
            "website": "legionfc.my.id"
        },
        {
            "id": "9cb1abb2-2fa9-4246-8f07-c349b6ba6429",
            "nama_pse": "WIDYA INSTITUSI TEKNOLOGI",
            "nama_se": "WIDYA INSTITUTE",
            "sektor": "Sektor Teknologi Informasi dan Komunikasi",
            "tanggal_terbit": "2022-07-18",
            "url_tdpse_detail": "https://pse.komdigi.go.id/tdpse-detail/6342",
            "website": "widya.institute"
        },
        {
            "id": "9cb1aba8-430d-4ca8-b727-e98bf9431aaa",
            "nama_pse": "AG INDONESIA",
            "nama_se": "ALTIUSPEOPLE",
            "sektor": "Sektor Teknologi Informasi dan Komunikasi",
            "tanggal_terbit": "2022-07-18",
            "url_tdpse_detail": "https://pse.komdigi.go.id/tdpse-detail/6114",
            "website": "altius.id"
        },
        {
            "id": "9cb1abb2-31b3-4b45-bdea-d2ee3eeb7cb5",
            "nama_pse": "ASURANSI JIWA ASTRA",
            "nama_se": "ASTRA LIFE (CORPORATE WEBSITE)",
            "sektor": "Sektor Keuangan",
            "tanggal_terbit": "2022-07-18",
            "url_tdpse_detail": "https://pse.komdigi.go.id/tdpse-detail/6115",
            "website": "astralife.co.id"
        },
        {
            "id": "9cb1abb2-3396-4405-8cf3-fe4e4f541aad",
            "nama_pse": "PERUSAHAAN PERSEROAN (PERSERO) PT. BANK RAKYAT INDONESIA",
            "nama_se": "MICROSITE PROMO BRI",
            "sektor": "Sektor Perdagangan, Sektor Teknologi Informasi dan Komunikasi",
            "tanggal_terbit": "2022-07-18",
            "url_tdpse_detail": "https://pse.komdigi.go.id/tdpse-detail/6116",
            "website": "promo.bri.co.id"
        },
        {
            "id": "9cb1aba8-45d9-4813-818d-af80c681bf7a",
            "nama_pse": "BANK PEMBANGUNAN DAERAH DAERAH ISTIMEWA YOGYAKARTA",
            "nama_se": "CASH MANAGEMENT SYSTEM BANK BPD DIY",
            "sektor": "Sektor Keuangan",
            "tanggal_terbit": "2022-07-18",
            "url_tdpse_detail": "https://pse.komdigi.go.id/tdpse-detail/6118",
            "website": "cm.bpddiy.co.id"
        },
        {
            "id": "9cb1abb2-357e-4a9b-b13d-6b4d0e3e8a5c",
            "nama_pse": "AG INDONESIA",
            "nama_se": "AGILITY",
            "sektor": "Sektor Teknologi Informasi dan Komunikasi",
            "tanggal_terbit": "2022-07-18",
            "url_tdpse_detail": "https://pse.komdigi.go.id/tdpse-detail/6117",
            "website": "agility.co.id"
        },
        {
            "id": "9cb1aba8-4827-4d7c-8f64-c86d75dd4b88",
            "nama_pse": "RIYADH MUHAMMAD AL WARID",
            "nama_se": "LEGASUSSTORE",
            "sektor": "Sektor Perdagangan, Sektor Teknologi Informasi dan Komunikasi",
            "tanggal_terbit": "2022-07-18",
            "url_tdpse_detail": "https://pse.komdigi.go.id/tdpse-detail/6120",
            "website": "legasusstore.tokowebku.com"
        },
        {
            "id": "9cb1aba8-4ac1-48b7-8042-42ac447de0f8",
            "nama_pse": "BANK PEREKONOMIAN RAKYAT MARCORINDO PERDANA",
            "nama_se": "BPRMARCORINDO",
            "sektor": "Sektor Keuangan",
            "tanggal_terbit": "2022-07-18",
            "url_tdpse_detail": "https://pse.komdigi.go.id/tdpse-detail/6119",
            "website": "bprmarcorindo.co.id"
        },
        {
            "id": "9cb1abb2-3956-4348-9e37-3c97cba8a308",
            "nama_pse": "BANK PERKREDITAN RAKYAT ARUM MANDIRI MELATI",
            "nama_se": "BPR ARUM MANDIRI MELATI",
            "sektor": "Sektor Keuangan",
            "tanggal_terbit": "2022-07-18",
            "url_tdpse_detail": "https://pse.komdigi.go.id/tdpse-detail/6121",
            "website": "-"
        },
        {
            "id": "9cb1ab9d-b2e2-42da-8a6d-0b8e2380e993",
            "nama_pse": "BANK PEMBANGUNAN DAERAH DAERAH ISTIMEWA YOGYAKARTA",
            "nama_se": "LAKU PANDAI BPD DIY",
            "sektor": "Sektor Keuangan",
            "tanggal_terbit": "2022-07-18",
            "url_tdpse_detail": "https://pse.komdigi.go.id/tdpse-detail/6122",
            "website": "-"
        },
        {
            "id": "9cb1abb2-3b8b-4247-b6d3-7500a3affeb6",
            "nama_pse": "AMANTARA SEKURITAS INDONESIA",
            "nama_se": "WEBSITE WWW.AMANTARA.COM",
            "sektor": "Sektor Keuangan",
            "tanggal_terbit": "2022-07-18",
            "url_tdpse_detail": "https://pse.komdigi.go.id/tdpse-detail/6127",
            "website": "amantara.com"
        },
        {
            "id": "9cb1abb2-44c3-4e11-b785-535fff50650a",
            "nama_pse": "PT. BANK PEMBANGUNAN DAERAH JAWA BARAT DAN BANTEN TBK (BANK BJB)",
            "nama_se": "BJB VIRTUAL ACCOUNT DEBIT",
            "sektor": "Sektor Keuangan",
            "tanggal_terbit": "2022-07-18",
            "url_tdpse_detail": "https://pse.komdigi.go.id/tdpse-detail/6124",
            "website": "bjbva.bankbjb.co.id"
        },
        {
            "id": "9cb1abb2-4d3b-489b-87f2-be38497f2693",
            "nama_pse": "AG INDONESIA",
            "nama_se": "ALTIUSPEOPLE FOUNDATION",
            "sektor": "Sektor Teknologi Informasi dan Komunikasi",
            "tanggal_terbit": "2022-07-18",
            "url_tdpse_detail": "https://pse.komdigi.go.id/tdpse-detail/6125",
            "website": "hr.altius.id"
        },
        {
            "id": "9cb1abb2-52c7-4274-bd8d-7f174784ff06",
            "nama_pse": "SAMUEL SEKURITAS INDONESIA",
            "nama_se": "STAR (SAMUEL TRADING ACTIVE REALTIME)",
            "sektor": "Sektor Keuangan",
            "tanggal_terbit": "2022-07-18",
            "url_tdpse_detail": "https://pse.komdigi.go.id/tdpse-detail/6126",
            "website": "samuel.co.id"
        },
        {
            "id": "9cb1aba8-4da3-4b59-a1ae-233250393c43",
            "nama_pse": "ABADI SELARAS CENDERAWASIH",
            "nama_se": "AIDO HEALTH",
            "sektor": "Sektor Kesehatan, Sektor Teknologi Informasi dan Komunikasi",
            "tanggal_terbit": "2022-07-18",
            "url_tdpse_detail": "https://pse.komdigi.go.id/tdpse-detail/6239",
            "website": "Aido.id"
        },
        {
            "id": "9cb1ab9d-b721-4468-b615-bc5df489c19c",
            "nama_pse": "BANK PERKREDITAN RAKYAT GUNUNG MERBABU",
            "nama_se": "PT BPR GUNUNG MERBABU",
            "sektor": "Sektor Keuangan",
            "tanggal_terbit": "2022-07-18",
            "url_tdpse_detail": "https://pse.komdigi.go.id/tdpse-detail/6128",
            "website": "bprgunungmerbabu.com"
        },
        {
            "id": "9cb1aba8-506b-4878-8557-e2d2f14ae447",
            "nama_pse": "PUNDI MAS BERJAYA",
            "nama_se": "JAYARENT",
            "sektor": "Sektor Teknologi Informasi dan Komunikasi",
            "tanggal_terbit": "2022-07-18",
            "url_tdpse_detail": "https://pse.komdigi.go.id/tdpse-detail/6132",
            "website": "Jayarent.com"
        },
        {
            "id": "9cb1aba8-545d-4044-bbb9-39b9cb2711a1",
            "nama_pse": "BANK PEMBANGUNAN DAERAH DAERAH ISTIMEWA YOGYAKARTA",
            "nama_se": "RETRIBUSI NON BILLING BPD DIY",
            "sektor": "Sektor Keuangan",
            "tanggal_terbit": "2022-07-18",
            "url_tdpse_detail": "https://pse.komdigi.go.id/tdpse-detail/6129",
            "website": "saget.bpddiy.co.id"
        },
        {
            "id": "9cb1abb2-5529-44c1-afb7-6d75338e1c79",
            "nama_pse": "KONTER PULSA NETINDO",
            "nama_se": "KONTER PULSA",
            "sektor": "Sektor Perdagangan",
            "tanggal_terbit": "2022-07-18",
            "url_tdpse_detail": "https://pse.komdigi.go.id/tdpse-detail/6130",
            "website": "konterpulsa.net"
        },
        {
            "id": "9cb1abb2-57ff-435f-a49a-9e0725773d84",
            "nama_pse": "PT. BANK PEMBANGUNAN DAERAH JAWA BARAT DAN BANTEN TBK (BANK BJB)",
            "nama_se": "APLIKASI SOCIAL FUND TRANSFER (SFT)",
            "sektor": "Sektor Keuangan",
            "tanggal_terbit": "2022-07-18",
            "url_tdpse_detail": "https://pse.komdigi.go.id/tdpse-detail/6131",
            "website": "sft.bankbjb.co.id"
        },
        {
            "id": "9cb1aba8-591b-4706-8901-799c38dac5b7",
            "nama_pse": "AG INDONESIA",
            "nama_se": "ALTIUSPEOPLE ENTERPRISE",
            "sektor": "Sektor Teknologi Informasi dan Komunikasi",
            "tanggal_terbit": "2022-07-18",
            "url_tdpse_detail": "https://pse.komdigi.go.id/tdpse-detail/6136",
            "website": "enterprise.altius.id"
        }
    ],
    "processingTimeMs": 5,
    "query": "",
    "totalHits": 19121,
    "hitsPerPage": 50,
    "page": 268,
    "totalPages": 383
}