{
    "hits": [
        {
            "id": "9cb1ac1e-a967-4ae4-bccf-d8a8186f957a",
            "nama_pse": "VIRTUAL EDUCATION ACADEMY",
            "nama_se": "VEA (VIRTUAL EDUCATION ACADEMY)",
            "sektor": "Sektor Teknologi Informasi dan Komunikasi",
            "tanggal_terbit": "2023-03-30",
            "url_tdpse_detail": "https://pse.komdigi.go.id/tdpse-detail/14297",
            "website": "virtualeduacademy.com"
        },
        {
            "id": "9cb1ac31-2852-4e04-b596-cd1851bf1304",
            "nama_pse": "ALIGA AINURROFIQ",
            "nama_se": "ALIGA MARKET",
            "sektor": "Sektor Perdagangan, Sektor Teknologi Informasi dan Komunikasi",
            "tanggal_terbit": "2023-03-30",
            "url_tdpse_detail": "https://pse.komdigi.go.id/tdpse-detail/14284",
            "website": "aligamarket.webtoko.net"
        },
        {
            "id": "9cb1ac41-3884-4d0a-a93d-454b7f48f673",
            "nama_pse": "CITRAWEB DIGITAL MULTISOLUSI",
            "nama_se": "CLOUDSCHOOL",
            "sektor": "Sektor Teknologi Informasi dan Komunikasi",
            "tanggal_terbit": "2023-03-30",
            "url_tdpse_detail": "https://pse.komdigi.go.id/tdpse-detail/14291",
            "website": "cloudschool.id"
        },
        {
            "id": "9cb1ac41-3da2-484f-9766-7478ef4c6cf7",
            "nama_pse": "RUMAH SAKIT IBU DAN ANAK MUHAMMADIYAH MALANG",
            "nama_se": "SIMRS KHANZA RS IBU DAN ANAK MUHAMMADIYAH MALANG",
            "sektor": "Sektor Kesehatan",
            "tanggal_terbit": "2023-03-30",
            "url_tdpse_detail": "https://pse.komdigi.go.id/tdpse-detail/14293",
            "website": "-"
        },
        {
            "id": "9cb1ac41-40d3-4b1a-8d70-8b263a763d25",
            "nama_pse": "ANEKA TAMBANG",
            "nama_se": "WWW.LOGAMMULIA.COM",
            "sektor": "Sektor Perdagangan",
            "tanggal_terbit": "2023-03-30",
            "url_tdpse_detail": "https://pse.komdigi.go.id/tdpse-detail/14294",
            "website": "logammulia.com"
        },
        {
            "id": "9cb1ac31-3126-4d25-a888-a66c94a1448a",
            "nama_pse": "RUMAH SAKIT ANAK DAN BUNDA HARAPAN KITA DITJEN PELAYANAN",
            "nama_se": "SMARTRSAB HARAPAN KITA",
            "sektor": "Sektor Kesehatan, Sektor Teknologi Informasi dan Komunikasi",
            "tanggal_terbit": "2023-03-30",
            "url_tdpse_detail": "https://pse.komdigi.go.id/tdpse-detail/14295",
            "website": "rsabhk.co.id"
        },
        {
            "id": "9cb1ac41-4706-4c9d-a2bf-e26bf1550ba3",
            "nama_pse": "ANEKA TAMBANG",
            "nama_se": "WWW.BRANKASLM.COM",
            "sektor": "Sektor Perdagangan",
            "tanggal_terbit": "2023-03-30",
            "url_tdpse_detail": "https://pse.komdigi.go.id/tdpse-detail/14296",
            "website": "brankaslm.com"
        },
        {
            "id": "9cb1ac1e-f7ec-4b57-81f9-d25c265cfebd",
            "nama_pse": "TERBIT FAJAR WOGOTA",
            "nama_se": "PT. TERBIT FAJAR WOGOTA",
            "sektor": "Sektor Teknologi Informasi dan Komunikasi",
            "tanggal_terbit": "2023-03-30",
            "url_tdpse_detail": "https://pse.komdigi.go.id/tdpse-detail/14298",
            "website": "terbitfajar.com"
        },
        {
            "id": "9cb1ac41-4d60-43c2-84bc-87baaf4bfd85",
            "nama_pse": "TIBO MEDIA",
            "nama_se": "SMART SIMRS",
            "sektor": "Sektor Kesehatan",
            "tanggal_terbit": "2023-03-30",
            "url_tdpse_detail": "https://pse.komdigi.go.id/tdpse-detail/14299",
            "website": "-"
        },
        {
            "id": "9cb1ac31-36bc-48cf-b840-e08ff8cf7295",
            "nama_pse": "WALET UTAMA OASE",
            "nama_se": "ONLINE SHOP",
            "sektor": "Sektor Perdagangan",
            "tanggal_terbit": "2023-03-30",
            "url_tdpse_detail": "https://pse.komdigi.go.id/tdpse-detail/14300",
            "website": "waletutamaoase.com"
        },
        {
            "id": "9cb1ac41-504a-49ab-a26b-8689569060ad",
            "nama_pse": "BERTRAND PRAYOGA AMALO",
            "nama_se": "CIPTAVITASI (UNDANGAN DIGITAL)",
            "sektor": "Sektor Perdagangan, Sektor Teknologi Informasi dan Komunikasi",
            "tanggal_terbit": "2023-03-30",
            "url_tdpse_detail": "https://pse.komdigi.go.id/tdpse-detail/14301",
            "website": "ciptavitasi.com"
        },
        {
            "id": "9cb1ac3f-f861-43ad-b971-d5b369134053",
            "nama_pse": "PELENGKAP MEDIKA SEJAHTERA",
            "nama_se": "SIMRS KHANZA",
            "sektor": "Sektor Kesehatan",
            "tanggal_terbit": "2023-03-29",
            "url_tdpse_detail": "https://pse.komdigi.go.id/tdpse-detail/14277",
            "website": "rspmcjombang.com"
        },
        {
            "id": "9cb1ac31-0026-4f9d-a9c1-4f13b175ef6f",
            "nama_pse": "JARING SOLUSI APLIKASI",
            "nama_se": "AKUJUAL",
            "sektor": "Sektor Perdagangan",
            "tanggal_terbit": "2023-03-29",
            "url_tdpse_detail": "https://pse.komdigi.go.id/tdpse-detail/14276",
            "website": "-"
        },
        {
            "id": "9cb1ac40-fc7e-482a-9e61-0df5bcab3cc7",
            "nama_pse": "HARIANSYAH KARYA TEKNOLOGI",
            "nama_se": "PT. HARIANSYAH KARYA TEKNOLOGI",
            "sektor": "Sektor Perdagangan",
            "tanggal_terbit": "2023-03-29",
            "url_tdpse_detail": "https://pse.komdigi.go.id/tdpse-detail/14270",
            "website": "hktekno.com"
        },
        {
            "id": "9cb1ac1e-99c0-426c-9873-65b671bfa979",
            "nama_pse": "KANGAROO AUSINDO",
            "nama_se": "KS REMIT",
            "sektor": "Sektor Keuangan",
            "tanggal_terbit": "2023-03-29",
            "url_tdpse_detail": "https://pse.komdigi.go.id/tdpse-detail/14272",
            "website": "kangaroo-service.com"
        },
        {
            "id": "9cb1ac31-099d-40f1-bd9a-67cdd77592e4",
            "nama_pse": "HARTADINATA ABADI",
            "nama_se": "EMASKITA",
            "sektor": "Sektor Perdagangan",
            "tanggal_terbit": "2023-03-29",
            "url_tdpse_detail": "https://pse.komdigi.go.id/tdpse-detail/14271",
            "website": "Emaskita.id"
        },
        {
            "id": "9cb1ac1e-9d21-49f1-9014-6a4fae8639f8",
            "nama_pse": "SPRINT ASIA TECHNOLOGY",
            "nama_se": "PREZENT",
            "sektor": "Sektor Teknologi Informasi dan Komunikasi",
            "tanggal_terbit": "2023-03-29",
            "url_tdpse_detail": "https://pse.komdigi.go.id/tdpse-detail/14273",
            "website": "prezent.co.id"
        },
        {
            "id": "9cb1ac41-0132-4cb8-9efb-38ecad97114b",
            "nama_pse": "TEKNOLOGI SINAR NUSANTARA",
            "nama_se": "TSN",
            "sektor": "Sektor Perdagangan",
            "tanggal_terbit": "2023-03-29",
            "url_tdpse_detail": "https://pse.komdigi.go.id/tdpse-detail/14268",
            "website": "tsnkripto.co.id"
        },
        {
            "id": "9cb1ac41-0d50-444b-8853-606aa4dbdc0f",
            "nama_pse": "WIRAWORKS FIAFARU SEJAHTERA",
            "nama_se": "PESANSINGKAT.ID",
            "sektor": "Sektor Teknologi Informasi dan Komunikasi",
            "tanggal_terbit": "2023-03-29",
            "url_tdpse_detail": "https://pse.komdigi.go.id/tdpse-detail/14269",
            "website": "pesansingkat.id"
        },
        {
            "id": "9cb1ac1e-b881-4b56-9185-f625b5bca941",
            "nama_pse": "RUMAH SAKIT ISLAM AISYIYAH NGANJUK",
            "nama_se": "SIMRS KHANZA",
            "sektor": "Sektor Kesehatan",
            "tanggal_terbit": "2023-03-29",
            "url_tdpse_detail": "https://pse.komdigi.go.id/tdpse-detail/14274",
            "website": "rsiaisyiyahnganjuk.com"
        },
        {
            "id": "9cb1ac31-1deb-40fe-af24-01cbf73c8a78",
            "nama_pse": "PERTAMINA PATRA NIAGA",
            "nama_se": "WEBSITE SUBSIDI TEPAT MYPERTAMINA LPG 3 KG",
            "sektor": "Sektor Perdagangan, Sektor Teknologi Informasi dan Komunikasi",
            "tanggal_terbit": "2023-03-29",
            "url_tdpse_detail": "https://pse.komdigi.go.id/tdpse-detail/14275",
            "website": "subsiditepatlpg.mypertamina.id"
        },
        {
            "id": "9cb1ac41-1f3b-4314-aa41-eb3eb6c89d6c",
            "nama_pse": "PESONA NATASHA GEMILANG",
            "nama_se": "NATASHA SKINCARE",
            "sektor": "Sektor Perdagangan",
            "tanggal_terbit": "2023-03-29",
            "url_tdpse_detail": "https://pse.komdigi.go.id/tdpse-detail/14278",
            "website": "natasha-skin.com"
        },
        {
            "id": "9cb1ac1e-dbba-418c-9fdb-cee9a3616402",
            "nama_pse": "MEDIA REPORTASE PENDIDIKAN",
            "nama_se": "MEDIA REPORTASE PENDIDIKAN",
            "sektor": "Sektor Teknologi Informasi dan Komunikasi",
            "tanggal_terbit": "2023-03-29",
            "url_tdpse_detail": "https://pse.komdigi.go.id/tdpse-detail/14279",
            "website": "reportasependidikan.com"
        },
        {
            "id": "9cb1ac1e-e008-4ecb-a6f5-0fc66a7e5ff1",
            "nama_pse": "VIRTUAL EDUCATION ACADEMY",
            "nama_se": "VIRTUAL EDUCATION ACADEMY - VEA",
            "sektor": "Sektor Teknologi Informasi dan Komunikasi",
            "tanggal_terbit": "2023-03-29",
            "url_tdpse_detail": "https://pse.komdigi.go.id/tdpse-detail/14280",
            "website": "-"
        },
        {
            "id": "9cb1ac31-24b0-44d8-91a0-6aa642a1e5b3",
            "nama_pse": "NISA DWI SAPUTRI",
            "nama_se": "PT URWAYS INDONESIA CORPORA",
            "sektor": "Sektor Perdagangan, Sektor Teknologi Informasi dan Komunikasi",
            "tanggal_terbit": "2023-03-29",
            "url_tdpse_detail": "https://pse.komdigi.go.id/tdpse-detail/14281",
            "website": "urways-indonesia.com"
        },
        {
            "id": "9cb1ac41-222a-4513-b48d-aaa155fab52b",
            "nama_pse": "CALLIND CAKRA NUSANTARA",
            "nama_se": "AYOSIA.STORE",
            "sektor": "Sektor Perdagangan, Sektor Teknologi Informasi dan Komunikasi",
            "tanggal_terbit": "2023-03-29",
            "url_tdpse_detail": "https://pse.komdigi.go.id/tdpse-detail/14282",
            "website": "ayosia.store"
        },
        {
            "id": "9cb1ac41-2878-4f50-90ab-39ff5ec8d933",
            "nama_pse": "VIRTUAL EDUCATION ACADEMY",
            "nama_se": "ESBN - EDUCATIONAL SERIAL BOOK NUMBER",
            "sektor": "Sektor Teknologi Informasi dan Komunikasi",
            "tanggal_terbit": "2023-03-29",
            "url_tdpse_detail": "https://pse.komdigi.go.id/tdpse-detail/14283",
            "website": "-"
        },
        {
            "id": "9cb1ac1d-731f-4874-b06b-0da63b16cecb",
            "nama_pse": "JARING SOLUSI APLIKASI",
            "nama_se": "PATRIOTPOS",
            "sektor": "Sektor Perdagangan",
            "tanggal_terbit": "2023-03-28",
            "url_tdpse_detail": "https://pse.komdigi.go.id/tdpse-detail/14256",
            "website": "patriotpos.id"
        },
        {
            "id": "9cb1ac2f-f77c-4f39-9d47-bb682d607fe1",
            "nama_pse": "RSUD KARDINAH KOTA TEGAL",
            "nama_se": "SIGITA",
            "sektor": "Sektor Kesehatan",
            "tanggal_terbit": "2023-03-28",
            "url_tdpse_detail": "https://pse.komdigi.go.id/tdpse-detail/14267",
            "website": "rsudkardinah.tegalkota.go.id"
        },
        {
            "id": "9cb1ac1e-3e05-4a48-a47f-3465813cb2ad",
            "nama_pse": "AXA FINANCIAL INDONESIA",
            "nama_se": "AFIPAY DIGITAL",
            "sektor": "Sektor Keuangan",
            "tanggal_terbit": "2023-03-28",
            "url_tdpse_detail": "https://pse.komdigi.go.id/tdpse-detail/14258",
            "website": "-"
        },
        {
            "id": "9cb1ac30-b50d-4d63-8921-d64f0dc0085a",
            "nama_pse": "LENDINGPOT TECHNOLOGY INDONESIA",
            "nama_se": "LENDINGPOT",
            "sektor": "Sektor Teknologi Informasi dan Komunikasi",
            "tanggal_terbit": "2023-03-28",
            "url_tdpse_detail": "https://pse.komdigi.go.id/tdpse-detail/14254",
            "website": "lendingpot.id"
        },
        {
            "id": "9cb1ac1e-62b4-47f2-b22f-da25eca8e497",
            "nama_pse": "LUNO INDONESIA LTD",
            "nama_se": "LUNO",
            "sektor": "Sektor Keuangan",
            "tanggal_terbit": "2023-03-28",
            "url_tdpse_detail": "https://pse.komdigi.go.id/tdpse-detail/14257",
            "website": "luno.com"
        },
        {
            "id": "9cb1ac40-ddf0-4f00-8f7d-88958c4d24a6",
            "nama_pse": "HARMONI DINAMIK INDONESIA",
            "nama_se": "BSKIN ASIA",
            "sektor": "Sektor Perdagangan",
            "tanggal_terbit": "2023-03-28",
            "url_tdpse_detail": "https://pse.komdigi.go.id/tdpse-detail/14255",
            "website": "bskin.com"
        },
        {
            "id": "9cb1ac40-ea67-4d0b-a727-0d44a27a9d50",
            "nama_pse": "ARYASEVA AXLMOS KAYA",
            "nama_se": "LEDGEROWL",
            "sektor": "Sektor Teknologi Informasi dan Komunikasi",
            "tanggal_terbit": "2023-03-28",
            "url_tdpse_detail": "https://pse.komdigi.go.id/tdpse-detail/14261",
            "website": "ledgerowl.com"
        },
        {
            "id": "9cb1ac1e-8e3f-4805-9a41-c7f23a1f1b69",
            "nama_pse": "RUMAH SAKIT MUHAMMADIYAH BABAT",
            "nama_se": "SIMRS KHANZA",
            "sektor": "Sektor Kesehatan",
            "tanggal_terbit": "2023-03-28",
            "url_tdpse_detail": "https://pse.komdigi.go.id/tdpse-detail/14260",
            "website": "rsmbabat.com"
        },
        {
            "id": "9cb1ac40-f5b7-4890-94a0-08abfbe54f39",
            "nama_pse": "BELANJA BERSAMA INDONESIA",
            "nama_se": "BUBLIBU",
            "sektor": "Sektor Perdagangan",
            "tanggal_terbit": "2023-03-28",
            "url_tdpse_detail": "https://pse.komdigi.go.id/tdpse-detail/14259",
            "website": "bublibu.id"
        },
        {
            "id": "9cb1ac1e-9190-41ca-af04-32a5cf376b82",
            "nama_pse": "RECKITT BENCKISER TRADING INDONESIA",
            "nama_se": "REPPOS MARKETPLACE",
            "sektor": "Sektor Perdagangan",
            "tanggal_terbit": "2023-03-28",
            "url_tdpse_detail": "https://pse.komdigi.go.id/tdpse-detail/14262",
            "website": "reppos.co.id"
        },
        {
            "id": "9cb1ac31-04d0-463e-9cc1-e047f2718175",
            "nama_pse": "DELAPAN MEDIA TEKNOLOGI",
            "nama_se": "DELAPAN MEDIA TEKNOLOGI",
            "sektor": "Sektor Teknologi Informasi dan Komunikasi",
            "tanggal_terbit": "2023-03-28",
            "url_tdpse_detail": "https://pse.komdigi.go.id/tdpse-detail/14263",
            "website": "delapanmedia.com"
        },
        {
            "id": "9cb1ac40-f8d9-42ed-a4b6-2a51cb96a562",
            "nama_pse": "TOKO THREE SIXTY METAVERSE INDONESIA",
            "nama_se": "TOKO360",
            "sektor": "Sektor Perdagangan, Sektor Teknologi Informasi dan Komunikasi",
            "tanggal_terbit": "2023-03-28",
            "url_tdpse_detail": "https://pse.komdigi.go.id/tdpse-detail/14264",
            "website": "toko360.com"
        },
        {
            "id": "9cb1ac1e-a3cd-4fdf-8703-e5e5b0ed4667",
            "nama_pse": "BELANJA BERSAMA INDONESIA",
            "nama_se": "BUBLIBU MERCHANT",
            "sektor": "Sektor Perdagangan",
            "tanggal_terbit": "2023-03-28",
            "url_tdpse_detail": "https://pse.komdigi.go.id/tdpse-detail/14265",
            "website": "-"
        },
        {
            "id": "9cb1ac31-0ceb-4e12-a502-4543a940bd13",
            "nama_pse": "KLIK DATA INDONESIA",
            "nama_se": "SIMRS KLIKMEDIC",
            "sektor": "Sektor Kesehatan",
            "tanggal_terbit": "2023-03-28",
            "url_tdpse_detail": "https://pse.komdigi.go.id/tdpse-detail/14266",
            "website": "klikmedic.co.id"
        },
        {
            "id": "9cb1ac18-38a1-4df0-9fe4-129cae6ae627",
            "nama_pse": "HALALAN THAYYIBAN INDONESIA",
            "nama_se": "E-COMMERCE",
            "sektor": "Sektor Perdagangan",
            "tanggal_terbit": "2023-03-27",
            "url_tdpse_detail": "https://pse.komdigi.go.id/tdpse-detail/14233",
            "website": "-"
        },
        {
            "id": "9cb1ac1d-ecea-4176-9f2b-d4ddeb5d639a",
            "nama_pse": "QLCOM SOLUSI BISNIS",
            "nama_se": "CONFICARES",
            "sektor": "Sektor Kesehatan",
            "tanggal_terbit": "2023-03-27",
            "url_tdpse_detail": "https://pse.komdigi.go.id/tdpse-detail/14234",
            "website": "conficares.com"
        },
        {
            "id": "9cb1ac30-5633-4804-9a00-38e75c179400",
            "nama_pse": "INFOTAMA SOLUSINDO",
            "nama_se": "SIMPUSTRONIK WEB KOTA PROBOLINGGO",
            "sektor": "Sektor Kesehatan",
            "tanggal_terbit": "2023-03-27",
            "url_tdpse_detail": "https://pse.komdigi.go.id/tdpse-detail/14244",
            "website": "-"
        },
        {
            "id": "9cb1ac1e-098f-4bfb-8751-198b0ef0e101",
            "nama_pse": "TEKNOLOGI HANTAR NILAI",
            "nama_se": "KENTARA",
            "sektor": "Sektor Teknologi Informasi dan Komunikasi",
            "tanggal_terbit": "2023-03-27",
            "url_tdpse_detail": "https://pse.komdigi.go.id/tdpse-detail/14237",
            "website": "apps.kentra.io"
        },
        {
            "id": "9cb1ac30-bc4a-41e6-9ce2-28ded895a2f2",
            "nama_pse": "TRANS BERJAYA KHATULISTIWA",
            "nama_se": "TIKETUX",
            "sektor": "Sektor Perdagangan, Sektor Teknologi Informasi dan Komunikasi",
            "tanggal_terbit": "2023-03-27",
            "url_tdpse_detail": "https://pse.komdigi.go.id/tdpse-detail/14240",
            "website": "Tiketux.com"
        },
        {
            "id": "9cb1ac30-ea71-450c-ae26-6c6999f19fb6",
            "nama_pse": "DELIMA MITRA HUSADA",
            "nama_se": "SISTEM INFORMASI MANAJEMEN RUMAH SAKIT (SIMRS)",
            "sektor": "Sektor Teknologi Informasi dan Komunikasi",
            "tanggal_terbit": "2023-03-27",
            "url_tdpse_detail": "https://pse.komdigi.go.id/tdpse-detail/14235",
            "website": "rspalaraya.com"
        },
        {
            "id": "9cb1ac30-ed61-438f-b99d-0a5d1d2f03c0",
            "nama_pse": "BADAN PERIZINAN INDONESIA",
            "nama_se": "BADAN PERIZINAN",
            "sektor": "Sektor Perdagangan, Sektor Teknologi Informasi dan Komunikasi",
            "tanggal_terbit": "2023-03-27",
            "url_tdpse_detail": "https://pse.komdigi.go.id/tdpse-detail/14236",
            "website": "badanperizinan.com"
        },
        {
            "id": "9cb1ac1e-70f1-401e-90a1-37e28d87c32e",
            "nama_pse": "KAWAN SEHAT INDONESIA",
            "nama_se": "KLINISIA",
            "sektor": "Sektor Kesehatan, Sektor Teknologi Informasi dan Komunikasi",
            "tanggal_terbit": "2023-03-27",
            "url_tdpse_detail": "https://pse.komdigi.go.id/tdpse-detail/14238",
            "website": "klinisia.id"
        },
        {
            "id": "9cb1ac40-d84c-4545-9b4f-d1f3e42d1cf4",
            "nama_pse": "THINKQ TECH INDONESIA",
            "nama_se": "THINKQURAN",
            "sektor": "Sektor Perdagangan",
            "tanggal_terbit": "2023-03-27",
            "url_tdpse_detail": "https://pse.komdigi.go.id/tdpse-detail/14239",
            "website": "thinkquran.com"
        }
    ],
    "processingTimeMs": 6,
    "query": "",
    "totalHits": 19131,
    "hitsPerPage": 50,
    "page": 147,
    "totalPages": 383
}