{
    "hits": [
        {
            "id": "9cb1ac0f-1f29-43a5-9294-a811b2447fdb",
            "nama_pse": "ERA DIGITAL MEDIA",
            "nama_se": "XTRIVIA",
            "sektor": "Sektor Teknologi Informasi dan Komunikasi",
            "tanggal_terbit": "2022-09-06",
            "url_tdpse_detail": "https://pse.komdigi.go.id/tdpse-detail/11060",
            "website": "xtrivia.id"
        },
        {
            "id": "9cb1ac00-708c-4ef8-909a-17e01768a2e2",
            "nama_pse": "ERA DIGITAL MEDIA",
            "nama_se": "RODAEMAS",
            "sektor": "Sektor Teknologi Informasi dan Komunikasi",
            "tanggal_terbit": "2022-09-06",
            "url_tdpse_detail": "https://pse.komdigi.go.id/tdpse-detail/11061",
            "website": "rodaemas.id"
        },
        {
            "id": "9cb1ac00-770a-4ff6-8430-cf49577b266b",
            "nama_pse": "ERA DIGITAL MEDIA",
            "nama_se": "FUNTIME",
            "sektor": "Sektor Teknologi Informasi dan Komunikasi",
            "tanggal_terbit": "2022-09-06",
            "url_tdpse_detail": "https://pse.komdigi.go.id/tdpse-detail/11063",
            "website": "funtime.id"
        },
        {
            "id": "9cb1ac0f-223c-4cac-8e25-89decf0253c6",
            "nama_pse": "ERA DIGITAL MEDIA",
            "nama_se": "USTADKU",
            "sektor": "Sektor Teknologi Informasi dan Komunikasi",
            "tanggal_terbit": "2022-09-06",
            "url_tdpse_detail": "https://pse.komdigi.go.id/tdpse-detail/11065",
            "website": "ustadku.tv"
        },
        {
            "id": "9cb1ac0f-2631-44f5-8178-103a0d9b8555",
            "nama_pse": "ERA DIGITAL MEDIA",
            "nama_se": "FUNTV",
            "sektor": "Sektor Teknologi Informasi dan Komunikasi",
            "tanggal_terbit": "2022-09-06",
            "url_tdpse_detail": "https://pse.komdigi.go.id/tdpse-detail/11066",
            "website": "funtv.id"
        },
        {
            "id": "9cb1ac0f-2c1b-473d-97af-726adafb0137",
            "nama_pse": "SINARNIAGA SEJAHTERA",
            "nama_se": "MITRA SNS",
            "sektor": "Sektor Perdagangan",
            "tanggal_terbit": "2022-09-06",
            "url_tdpse_detail": "https://pse.komdigi.go.id/tdpse-detail/11068",
            "website": "mitrasns.com"
        },
        {
            "id": "9cb1ac0f-2f73-43e9-b846-fdbac72ee381",
            "nama_pse": "KONEKSI GLOBAL TEKHNOLOGI",
            "nama_se": "FUNZONE",
            "sektor": "Sektor Teknologi Informasi dan Komunikasi",
            "tanggal_terbit": "2022-09-06",
            "url_tdpse_detail": "https://pse.komdigi.go.id/tdpse-detail/11069",
            "website": "funzone.id"
        },
        {
            "id": "9cb1abda-d2a2-4f65-81bc-f29debf41571",
            "nama_pse": "SUKSES BERKAH KAWAN SEJATI",
            "nama_se": "WWW.SAFARIMULIA.ID",
            "sektor": "Sektor Perdagangan, Sektor Teknologi Informasi dan Komunikasi",
            "tanggal_terbit": "2022-09-06",
            "url_tdpse_detail": "https://pse.komdigi.go.id/tdpse-detail/11070",
            "website": "safarimulia.id"
        },
        {
            "id": "9cb1ac0f-322f-4e6c-a539-e29fb91c7ef7",
            "nama_pse": "SUKSES BERKAH KAWAN SEJATI",
            "nama_se": "WWW.TOPSTORE.CO.ID",
            "sektor": "Sektor Perdagangan, Sektor Teknologi Informasi dan Komunikasi",
            "tanggal_terbit": "2022-09-06",
            "url_tdpse_detail": "https://pse.komdigi.go.id/tdpse-detail/11071",
            "website": "topstore.co.id"
        },
        {
            "id": "9cb1ac00-7da8-4dcc-be1e-5efee20c4a35",
            "nama_pse": "SUKSES BERKAH KAWAN SEJATI",
            "nama_se": "SAFARIMULIA.ID",
            "sektor": "Sektor Perdagangan",
            "tanggal_terbit": "2022-09-06",
            "url_tdpse_detail": "https://pse.komdigi.go.id/tdpse-detail/11072",
            "website": "safarimulia.id"
        },
        {
            "id": "9cb1abfe-da8b-4335-b988-ae94e9828b1b",
            "nama_pse": "VITA INTI SELARAS",
            "nama_se": "HTTPS://WWW1.OTELLOGAMING.COM",
            "sektor": "Sektor Teknologi Informasi dan Komunikasi",
            "tanggal_terbit": "2022-09-05",
            "url_tdpse_detail": "https://pse.komdigi.go.id/tdpse-detail/10753",
            "website": "otellogaming.com"
        },
        {
            "id": "9cb1abda-0b8e-4151-9dfd-c5a5d714d672",
            "nama_pse": "ATLANTIS INTERNATIONAL",
            "nama_se": "WWW.ATLANTIS-BALI-DIVING.COM",
            "sektor": "Sektor Perdagangan",
            "tanggal_terbit": "2022-09-05",
            "url_tdpse_detail": "https://pse.komdigi.go.id/tdpse-detail/10915",
            "website": "atlantis-bali-diving.com"
        },
        {
            "id": "9cb1abff-b046-45fc-8c76-ab576a03c41f",
            "nama_pse": "DIGITAL SPORT SYSTEM",
            "nama_se": "TAEKWONDO INDONESIA INTEGRATED SYSTEM (TIIS)",
            "sektor": "Sektor Teknologi Informasi dan Komunikasi",
            "tanggal_terbit": "2022-09-05",
            "url_tdpse_detail": "https://pse.komdigi.go.id/tdpse-detail/10919",
            "website": "tiis.olahrago.id"
        },
        {
            "id": "9cb1ac00-2618-4ee8-bbc5-3b3f1bdf60da",
            "nama_pse": "SAYED PPOB INDONESIA",
            "nama_se": "SAYED PPOB",
            "sektor": "Sektor Pangan",
            "tanggal_terbit": "2022-09-05",
            "url_tdpse_detail": "https://pse.komdigi.go.id/tdpse-detail/11012",
            "website": "-"
        },
        {
            "id": "9cb1ac0e-efbd-4086-b759-4bf31f898cc8",
            "nama_pse": "KARIMUNJAWA WISATA INDONESIA",
            "nama_se": "LIBURANKARIMUNJAWA.ID",
            "sektor": "Sektor Perdagangan",
            "tanggal_terbit": "2022-09-05",
            "url_tdpse_detail": "https://pse.komdigi.go.id/tdpse-detail/11018",
            "website": "liburankarimunjawa.id"
        },
        {
            "id": "9cb1ac0e-f2f0-4901-b7e6-bd87237cc8b8",
            "nama_pse": "RUMAH YATIM ARROHMAN INDONESIA",
            "nama_se": "YAYASAN RUMAH YATIM ARROHMAN INDONESIA",
            "sektor": "Sektor Perdagangan, Sektor Teknologi Informasi dan Komunikasi",
            "tanggal_terbit": "2022-09-05",
            "url_tdpse_detail": "https://pse.komdigi.go.id/tdpse-detail/11020",
            "website": "rumah-yatim.org"
        },
        {
            "id": "9cb1ac00-3e3e-48df-8367-720a6ce69f1f",
            "nama_pse": "INOVASI KARYA INTERNATIONAL",
            "nama_se": "AFWINDONESIA.COM",
            "sektor": "Sektor Perdagangan",
            "tanggal_terbit": "2022-09-05",
            "url_tdpse_detail": "https://pse.komdigi.go.id/tdpse-detail/11023",
            "website": "afwindonesia.com"
        },
        {
            "id": "9cb1ac00-4119-4c52-9206-ff5b7e53700b",
            "nama_pse": "TELEANJAR INDONESIA",
            "nama_se": "PT TELEANJAR INDONESIA",
            "sektor": "Sektor Teknologi Informasi dan Komunikasi",
            "tanggal_terbit": "2022-09-05",
            "url_tdpse_detail": "https://pse.komdigi.go.id/tdpse-detail/11025",
            "website": "teleanjar.co.id"
        },
        {
            "id": "9cb1ac0e-f919-4f98-83ec-c14f5dcdc55d",
            "nama_pse": "MAHAKAM MEDIA GRAFIKA",
            "nama_se": "TRIBUNKALTARA.COM",
            "sektor": "Sektor Teknologi Informasi dan Komunikasi",
            "tanggal_terbit": "2022-09-05",
            "url_tdpse_detail": "https://pse.komdigi.go.id/tdpse-detail/11027",
            "website": "tribunkaltara.com"
        },
        {
            "id": "9cb1ac0e-ffde-4314-8987-4ec2af44b69c",
            "nama_pse": "TRIBUN DIGITAL LOMBOK",
            "nama_se": "TRIBUNLOMBOK.COM",
            "sektor": "Sektor Teknologi Informasi dan Komunikasi",
            "tanggal_terbit": "2022-09-05",
            "url_tdpse_detail": "https://pse.komdigi.go.id/tdpse-detail/11028",
            "website": "tribunlombok.com"
        },
        {
            "id": "9cb1ac0f-0368-4276-b1fb-b51217805308",
            "nama_pse": "PARAMA WIRA ABADI",
            "nama_se": "PARAMA TOURS",
            "sektor": "Sektor Teknologi Informasi dan Komunikasi",
            "tanggal_terbit": "2022-09-05",
            "url_tdpse_detail": "https://pse.komdigi.go.id/tdpse-detail/11029",
            "website": "paramatours.com"
        },
        {
            "id": "9cb1ac0f-06f3-4497-a646-fb560fc63c79",
            "nama_pse": "SEMUT DATA INDONESIA",
            "nama_se": "ANTMEDIAHOST",
            "sektor": "Sektor Teknologi Informasi dan Komunikasi",
            "tanggal_terbit": "2022-09-05",
            "url_tdpse_detail": "https://pse.komdigi.go.id/tdpse-detail/11030",
            "website": "antmediahost.com"
        },
        {
            "id": "9cb1ac0f-0a4e-46d6-b5be-22d5455de943",
            "nama_pse": "FGS INFOTAMA",
            "nama_se": "SKYTRADE",
            "sektor": "Sektor Keuangan",
            "tanggal_terbit": "2022-09-05",
            "url_tdpse_detail": "https://pse.komdigi.go.id/tdpse-detail/11031",
            "website": "-"
        },
        {
            "id": "9cb1ac00-4c21-473f-93f9-70cdb1d33e91",
            "nama_pse": "OKADOC TECHNOLOGIES INDONESIA",
            "nama_se": "OKADOC",
            "sektor": "Sektor Kesehatan, Sektor Teknologi Informasi dan Komunikasi",
            "tanggal_terbit": "2022-09-05",
            "url_tdpse_detail": "https://pse.komdigi.go.id/tdpse-detail/11033",
            "website": "Okadoc.com"
        },
        {
            "id": "9cb1ac0f-0d71-4cf9-90b0-3ed7227a337b",
            "nama_pse": "INTERNUSA OKULUS TAMA",
            "nama_se": "AVALON IWORK",
            "sektor": "Sektor Teknologi Informasi dan Komunikasi",
            "tanggal_terbit": "2022-09-05",
            "url_tdpse_detail": "https://pse.komdigi.go.id/tdpse-detail/11035",
            "website": "iworkdms.com"
        },
        {
            "id": "9cb1ac00-4ec5-417b-ac2b-9374404d5ad8",
            "nama_pse": "RIZKY KHARISMA NEGARI",
            "nama_se": "EDODOLAN.ID",
            "sektor": "Sektor Perdagangan",
            "tanggal_terbit": "2022-09-05",
            "url_tdpse_detail": "https://pse.komdigi.go.id/tdpse-detail/11037",
            "website": "edodolanid.com"
        },
        {
            "id": "9cb1ac00-5168-41b7-9662-d353292925ca",
            "nama_pse": "SUKSES BERKAH KAWAN SEJATI",
            "nama_se": "SAFARIMULIA",
            "sektor": "Sektor Perdagangan",
            "tanggal_terbit": "2022-09-05",
            "url_tdpse_detail": "https://pse.komdigi.go.id/tdpse-detail/11038",
            "website": "Www.safarimulia.id"
        },
        {
            "id": "9cb1ac0f-10cd-4b96-a106-378923ac029a",
            "nama_pse": "SUKSES BERKAH KAWAN SEJATI",
            "nama_se": "TOPSTORE",
            "sektor": "Sektor Perdagangan",
            "tanggal_terbit": "2022-09-05",
            "url_tdpse_detail": "https://pse.komdigi.go.id/tdpse-detail/11039",
            "website": "WWW.topstore.co.id"
        },
        {
            "id": "9cb1ac00-53c7-49ef-9040-654f07d1439c",
            "nama_pse": "NETMEDIA DIGITAL INDONESIA",
            "nama_se": "BISNIS.PT",
            "sektor": "Sektor Teknologi Informasi dan Komunikasi",
            "tanggal_terbit": "2022-09-05",
            "url_tdpse_detail": "https://pse.komdigi.go.id/tdpse-detail/11040",
            "website": "bisnis.pt"
        },
        {
            "id": "9cb1ac00-1cdb-47c4-b03c-c14519afb8c3",
            "nama_pse": "MAMASEWA SOLUSI INDONESIA",
            "nama_se": "MAMASEWA.COM",
            "sektor": "Sektor Perdagangan",
            "tanggal_terbit": "2022-09-04",
            "url_tdpse_detail": "https://pse.komdigi.go.id/tdpse-detail/11005",
            "website": "mamasewa.com"
        },
        {
            "id": "9cb1abda-98f6-4f25-955c-1125891e1dbd",
            "nama_pse": "HENDRA SAPUTRA ",
            "nama_se": "BUANAPAY",
            "sektor": "Sektor Perdagangan",
            "tanggal_terbit": "2022-09-04",
            "url_tdpse_detail": "https://pse.komdigi.go.id/tdpse-detail/11006",
            "website": "-"
        },
        {
            "id": "9cb1abda-9e39-476f-a6e2-b142ae8950df",
            "nama_pse": "TERLANJUR JAYA INDONESIA",
            "nama_se": "TERLANJUR JAYA INDONESIA",
            "sektor": "Sektor Perdagangan",
            "tanggal_terbit": "2022-09-04",
            "url_tdpse_detail": "https://pse.komdigi.go.id/tdpse-detail/11007",
            "website": "terlanjurjaya.co.id"
        },
        {
            "id": "9cb1ac00-1fd7-4f64-bb9d-c6704350e3cd",
            "nama_pse": "ASADEL LIAMSINDO TEKNOLOGI",
            "nama_se": "ASADEL TEK",
            "sektor": "Sektor Teknologi Informasi dan Komunikasi",
            "tanggal_terbit": "2022-09-04",
            "url_tdpse_detail": "https://pse.komdigi.go.id/tdpse-detail/11008",
            "website": "asadel.co.id"
        },
        {
            "id": "9cb1ac0e-d3d2-40eb-9b02-8458f24fff5a",
            "nama_pse": "MUHAMMAD AJI PANGESTU",
            "nama_se": "COMPUTER ASSITED TEST (CAT) SDN",
            "sektor": "Sektor Teknologi Informasi dan Komunikasi",
            "tanggal_terbit": "2022-09-04",
            "url_tdpse_detail": "https://pse.komdigi.go.id/tdpse-detail/11009",
            "website": "catpesut.online"
        },
        {
            "id": "9cb1ac0e-e032-411d-a3f4-fee13008ae25",
            "nama_pse": "REKAN SUKSES USAHAMU",
            "nama_se": "SAFARIMULIA",
            "sektor": "Sektor Perdagangan",
            "tanggal_terbit": "2022-09-04",
            "url_tdpse_detail": "https://pse.komdigi.go.id/tdpse-detail/11010",
            "website": "Www.safarimulia.id"
        },
        {
            "id": "9cb1ac0e-b927-4de7-9bbc-fe59d237ce74",
            "nama_pse": "GENIUS EDUCATION TECH",
            "nama_se": "GENIUS EDUCATION",
            "sektor": "Sektor Teknologi Informasi dan Komunikasi",
            "tanggal_terbit": "2022-09-03",
            "url_tdpse_detail": "https://pse.komdigi.go.id/tdpse-detail/11002",
            "website": "genius.education"
        },
        {
            "id": "9cb1ac00-1a07-44a1-9aaf-e92aed726480",
            "nama_pse": "KUDOKU FINANSIAL INDONESIA",
            "nama_se": "KUDOKU",
            "sektor": "Sektor Teknologi Informasi dan Komunikasi",
            "tanggal_terbit": "2022-09-03",
            "url_tdpse_detail": "https://pse.komdigi.go.id/tdpse-detail/11003",
            "website": "kudoku.id"
        },
        {
            "id": "9cb1ac0e-d0f5-4c2b-9041-39a2f42cb308",
            "nama_pse": "REKAN SUKSES USAHAMU",
            "nama_se": "SAFARIMULIA.ID",
            "sektor": "Sektor Perdagangan",
            "tanggal_terbit": "2022-09-03",
            "url_tdpse_detail": "https://pse.komdigi.go.id/tdpse-detail/11004",
            "website": "server.sbks.co.id"
        },
        {
            "id": "9cb1ac0b-de76-4ea5-b825-ae888175ba4f",
            "nama_pse": "LAWANG SEWU TEKNOLOGI",
            "nama_se": "SISKEUDES CLOUD",
            "sektor": "Sektor Teknologi Informasi dan Komunikasi",
            "tanggal_terbit": "2022-09-02",
            "url_tdpse_detail": "https://pse.komdigi.go.id/tdpse-detail/10985",
            "website": "simdacloud.id"
        },
        {
            "id": "9cb1ac0e-9e25-4c42-b24b-209880ba9308",
            "nama_pse": "AKULAKU FINANCE INDONESIA",
            "nama_se": "MITRA AKULAKU",
            "sektor": "Sektor Keuangan",
            "tanggal_terbit": "2022-09-02",
            "url_tdpse_detail": "https://pse.komdigi.go.id/tdpse-detail/10955",
            "website": "akulakufinance.co.id"
        },
        {
            "id": "9cb1abff-e5a8-4b1f-8c4c-64a7b33ede28",
            "nama_pse": "BANK DKI",
            "nama_se": "JAKONE MOBILE (NEW)",
            "sektor": "Sektor Keuangan",
            "tanggal_terbit": "2022-09-02",
            "url_tdpse_detail": "https://pse.komdigi.go.id/tdpse-detail/10963",
            "website": "-"
        },
        {
            "id": "9cb1ac0e-a8fb-4cf8-b905-e537f4fc8244",
            "nama_pse": "SIMPLI INOVATIF MANDIRI",
            "nama_se": "SIMPLIDOTS",
            "sektor": "Sektor Perdagangan, Sektor Transportasi, Sektor Teknologi Informasi dan Komunikasi",
            "tanggal_terbit": "2022-09-02",
            "url_tdpse_detail": "https://pse.komdigi.go.id/tdpse-detail/10969",
            "website": "simplidots.co.id"
        },
        {
            "id": "9cb1abff-ff68-4f30-ba5e-d610d3ab37d2",
            "nama_pse": "FITLINE NUTRITION AND COSMETICS",
            "nama_se": "WWW.PM-INTERNATIONAL.COM/ID/ID",
            "sektor": "Sektor Perdagangan",
            "tanggal_terbit": "2022-09-02",
            "url_tdpse_detail": "https://pse.komdigi.go.id/tdpse-detail/10977",
            "website": "pm-international.com"
        },
        {
            "id": "9cb1abda-8551-4736-aa99-978cc7c6f79d",
            "nama_pse": "MULTIPRO JAYA PRIMA",
            "nama_se": "MULTIPRO.ID",
            "sektor": "Sektor Perdagangan",
            "tanggal_terbit": "2022-09-02",
            "url_tdpse_detail": "https://pse.komdigi.go.id/tdpse-detail/10978",
            "website": "multipro.id"
        },
        {
            "id": "9cb1abda-8903-4235-9c16-6ab1932a0553",
            "nama_pse": "VERDHANA SEKURITAS INDONESIA",
            "nama_se": "VERDHANA ONLINE SECURITIES TRADING (VOST)",
            "sektor": "Sektor Keuangan",
            "tanggal_terbit": "2022-09-02",
            "url_tdpse_detail": "https://pse.komdigi.go.id/tdpse-detail/10984",
            "website": "verdhana.s-trade.co.id"
        },
        {
            "id": "9cb1ac00-026d-4d33-8f26-4a88e45d4810",
            "nama_pse": "INDONESIA DEVELOPMENT CORNER",
            "nama_se": "IDEVCORNER",
            "sektor": "Sektor Teknologi Informasi dan Komunikasi",
            "tanggal_terbit": "2022-09-02",
            "url_tdpse_detail": "https://pse.komdigi.go.id/tdpse-detail/10986",
            "website": "idevcorner.com"
        },
        {
            "id": "9cb1abda-8c26-483c-8c14-0a2c0e3d4201",
            "nama_pse": "INDONESIA DEVELOPMENT CORNER",
            "nama_se": "TOKO INFLUENCER",
            "sektor": "Sektor Teknologi Informasi dan Komunikasi",
            "tanggal_terbit": "2022-09-02",
            "url_tdpse_detail": "https://pse.komdigi.go.id/tdpse-detail/10987",
            "website": "tokoinfluencer.com"
        },
        {
            "id": "9cb1ac00-056f-46e7-baf8-12eca681310e",
            "nama_pse": "INDONESIA DEVELOPMENT CORNER",
            "nama_se": "META CANDLE STICK",
            "sektor": "Sektor Teknologi Informasi dan Komunikasi",
            "tanggal_terbit": "2022-09-02",
            "url_tdpse_detail": "https://pse.komdigi.go.id/tdpse-detail/10988",
            "website": "metacandlestick.com"
        },
        {
            "id": "9cb1ac00-0b6f-4b48-9a14-008c8f20b1d0",
            "nama_pse": "YOHANIS ERICKTUS",
            "nama_se": "MOFJEK ( MAUMERE OF FLORES OJEK KURIR)",
            "sektor": "Sektor Perdagangan, Sektor Transportasi, Sektor Teknologi Informasi dan Komunikasi",
            "tanggal_terbit": "2022-09-02",
            "url_tdpse_detail": "https://pse.komdigi.go.id/tdpse-detail/10989",
            "website": "-"
        },
        {
            "id": "9cb1ac0e-c1bb-4574-9eb1-baad0a52ae1c",
            "nama_pse": "AVIANA SINAR ABADI",
            "nama_se": "IRS",
            "sektor": "Sektor Teknologi Informasi dan Komunikasi",
            "tanggal_terbit": "2022-09-02",
            "url_tdpse_detail": "https://pse.komdigi.go.id/tdpse-detail/10992",
            "website": "-"
        }
    ],
    "processingTimeMs": 9,
    "query": "",
    "totalHits": 19131,
    "hitsPerPage": 50,
    "page": 188,
    "totalPages": 383
}