{
    "hits": [
        {
            "id": "9cb1ac15-dd91-4b0e-83a3-43293832169c",
            "nama_pse": "SIGNIFY COMMERCIAL INDONESIA",
            "nama_se": "PHILIPS LIGHTING E-SHOP",
            "sektor": "Sektor Perdagangan, Sektor Teknologi Informasi dan Komunikasi",
            "tanggal_terbit": "2022-11-17",
            "url_tdpse_detail": "https://pse.komdigi.go.id/tdpse-detail/12363",
            "website": "eshop.lighting.philips.com"
        },
        {
            "id": "9cb1abe3-05da-4066-8868-d23417eaa1a5",
            "nama_pse": "SIGNIFY COMMERCIAL INDONESIA",
            "nama_se": "PHILIPS ARWEB",
            "sektor": "Sektor Teknologi Informasi dan Komunikasi",
            "tanggal_terbit": "2022-11-17",
            "url_tdpse_detail": "https://pse.komdigi.go.id/tdpse-detail/12364",
            "website": "apacsmart.com"
        },
        {
            "id": "9cb1ac07-8308-4ed3-9fc3-d942d501db32",
            "nama_pse": "SIGNIFY COMMERCIAL INDONESIA",
            "nama_se": "PHILIPS ECLAIM",
            "sektor": "Sektor Perdagangan, Sektor Teknologi Informasi dan Komunikasi",
            "tanggal_terbit": "2022-11-17",
            "url_tdpse_detail": "https://pse.komdigi.go.id/tdpse-detail/12365",
            "website": "apacsmart.com"
        },
        {
            "id": "9cb1ac07-8630-4701-b77d-d8c39d536c46",
            "nama_pse": "SIGNIFY COMMERCIAL INDONESIA",
            "nama_se": "PHILIPS ECOLINK",
            "sektor": "Sektor Perdagangan, Sektor Teknologi Informasi dan Komunikasi",
            "tanggal_terbit": "2022-11-17",
            "url_tdpse_detail": "https://pse.komdigi.go.id/tdpse-detail/12366",
            "website": "ecolink.lighting"
        },
        {
            "id": "9cb1ac07-8ce0-4365-8e2e-bf61f45d3cd1",
            "nama_pse": "SHADOWCHEF TEKNOLOGI INDONESIA",
            "nama_se": "KLIKIT",
            "sektor": "Sektor Teknologi Informasi dan Komunikasi",
            "tanggal_terbit": "2022-11-17",
            "url_tdpse_detail": "https://pse.komdigi.go.id/tdpse-detail/12370",
            "website": "cloud.klikit.io"
        },
        {
            "id": "9cb1ac15-e128-4617-9607-bc1544c78497",
            "nama_pse": "PURNOMO FITRA",
            "nama_se": "NEOCLINIC",
            "sektor": "Sektor Kesehatan",
            "tanggal_terbit": "2022-11-17",
            "url_tdpse_detail": "https://pse.komdigi.go.id/tdpse-detail/12367",
            "website": "-"
        },
        {
            "id": "9cb1ac15-e522-4c11-bfe1-5b4159bb0574",
            "nama_pse": "FASILITAS TEKNOLOGI NUSANTARA",
            "nama_se": "FASTECH-INDONESIA.ID",
            "sektor": "Sektor Perdagangan",
            "tanggal_terbit": "2022-11-17",
            "url_tdpse_detail": "https://pse.komdigi.go.id/tdpse-detail/12369",
            "website": "fastech-indonesia.id"
        },
        {
            "id": "9cb1abe3-0a7d-46c0-b15a-6b8c5afd8fe6",
            "nama_pse": "KARTIKA GLOBAL INDO",
            "nama_se": "NUKAR.ID",
            "sektor": "Sektor Perdagangan, Sektor Keuangan, Sektor Teknologi Informasi dan Komunikasi",
            "tanggal_terbit": "2022-11-17",
            "url_tdpse_detail": "https://pse.komdigi.go.id/tdpse-detail/12372",
            "website": "nukar.id"
        },
        {
            "id": "9cb1abe3-0db7-4134-a12a-cb54eeed6a58",
            "nama_pse": "ARTOS DIGITAL SEJAHTERA",
            "nama_se": "ARTOS DIGITAL SEJAHTERA",
            "sektor": "Sektor Keuangan, Sektor Teknologi Informasi dan Komunikasi",
            "tanggal_terbit": "2022-11-17",
            "url_tdpse_detail": "https://pse.komdigi.go.id/tdpse-detail/12373",
            "website": "artostoken.net"
        },
        {
            "id": "9cb1abe3-1144-477b-b8eb-0f65857df427",
            "nama_pse": "RENCANA ANAK BANGSA",
            "nama_se": "RENCANAKU",
            "sektor": "Sektor Teknologi Informasi dan Komunikasi",
            "tanggal_terbit": "2022-11-17",
            "url_tdpse_detail": "https://pse.komdigi.go.id/tdpse-detail/12374",
            "website": "rencanaku.id"
        },
        {
            "id": "9cb1ac15-f2e9-4f11-adb6-4499fe46ecfa",
            "nama_pse": "RENCANA ANAK BANGSA",
            "nama_se": "RENCANAKU.ID",
            "sektor": "Sektor Teknologi Informasi dan Komunikasi",
            "tanggal_terbit": "2022-11-17",
            "url_tdpse_detail": "https://pse.komdigi.go.id/tdpse-detail/12375",
            "website": "rencanaku.id"
        },
        {
            "id": "9cb1ac07-5b75-4464-a20c-2e5a803b95b8",
            "nama_pse": "PERUSAHAAN PERSEROAN (PERSERO) PT. BANK RAKYAT INDONESIA",
            "nama_se": "INTEGRATED CORPORATE SOLUTION PLATFORM (QLOLA)",
            "sektor": "Sektor Keuangan",
            "tanggal_terbit": "2022-11-17",
            "url_tdpse_detail": "https://pse.komdigi.go.id/tdpse-detail/12338",
            "website": "Qlola.bri.co.id"
        },
        {
            "id": "9cb1abe2-de5c-42ab-b685-6566c5f30afe",
            "nama_pse": "USAHA BERSAMA KOMUNITAS INTERNASIONAL",
            "nama_se": "MYCLNQ HEALTHY INDONESIA",
            "sektor": "Sektor Kesehatan",
            "tanggal_terbit": "2022-11-16",
            "url_tdpse_detail": "https://pse.komdigi.go.id/tdpse-detail/12339",
            "website": "myclnq.co"
        },
        {
            "id": "9cb1ac07-5f39-4963-b9c3-c8f1906d4549",
            "nama_pse": "CITRA AKSARA UTAMA",
            "nama_se": "AKUN M.I.M",
            "sektor": "Sektor Teknologi Informasi dan Komunikasi",
            "tanggal_terbit": "2022-11-16",
            "url_tdpse_detail": "https://pse.komdigi.go.id/tdpse-detail/12340",
            "website": "mim.my.id"
        },
        {
            "id": "9cb1aba9-91cf-418d-a5ca-9a401511aa33",
            "nama_pse": "RELIANCE SEKURITAS INDONESIA",
            "nama_se": "RELITRADE NEXT-G",
            "sektor": "Sektor Keuangan, Sektor Keuangan, Sektor Keuangan, Sektor Keuangan",
            "tanggal_terbit": "2022-11-16",
            "url_tdpse_detail": "https://pse.komdigi.go.id/tdpse-detail/3379",
            "website": "relitrade.com"
        },
        {
            "id": "9cb1ab9f-40a5-4a2f-b4a5-3466adf6e3ba",
            "nama_pse": "RELIANCE SEKURITAS INDONESIA",
            "nama_se": "RELIMOBILE",
            "sektor": "Sektor Keuangan, Sektor Keuangan, Sektor Keuangan, Sektor Keuangan",
            "tanggal_terbit": "2022-11-16",
            "url_tdpse_detail": "https://pse.komdigi.go.id/tdpse-detail/3380",
            "website": "reliancesekuritas.com/menu/36/relimobile"
        },
        {
            "id": "9cb1aba0-411d-457f-920d-2bf3a7f54b0d",
            "nama_pse": "RELIANCE SEKURITAS INDONESIA",
            "nama_se": "RELIANCE SEKURITAS",
            "sektor": "Sektor Teknologi Informasi dan Komunikasi, Sektor Teknologi Informasi dan Komunikasi",
            "tanggal_terbit": "2022-11-16",
            "url_tdpse_detail": "https://pse.komdigi.go.id/tdpse-detail/3622",
            "website": "reliancesekuritas.com"
        },
        {
            "id": "9cb1ab93-9459-48b4-89d1-81adb3b8c863",
            "nama_pse": "RELIANCE SEKURITAS INDONESIA",
            "nama_se": "RELITRADE",
            "sektor": "Sektor Teknologi Informasi dan Komunikasi, Sektor Teknologi Informasi dan Komunikasi",
            "tanggal_terbit": "2022-11-16",
            "url_tdpse_detail": "https://pse.komdigi.go.id/tdpse-detail/3623",
            "website": "relitrade.com"
        },
        {
            "id": "9cb1ac15-a155-4007-a64d-a912dbd545f9",
            "nama_pse": "ALODOKTER TEKNOLOGI SOLUSI",
            "nama_se": "ALODOKTER.COM",
            "sektor": "Sektor Kesehatan",
            "tanggal_terbit": "2022-11-16",
            "url_tdpse_detail": "https://pse.komdigi.go.id/tdpse-detail/12322",
            "website": "alodokter.com"
        },
        {
            "id": "9cb1ac15-a5eb-49a6-bb1f-dc3225333fc5",
            "nama_pse": "KROM BANK INDONESIA",
            "nama_se": "KROM",
            "sektor": "Sektor Keuangan",
            "tanggal_terbit": "2022-11-16",
            "url_tdpse_detail": "https://pse.komdigi.go.id/tdpse-detail/12325",
            "website": "krom.id"
        },
        {
            "id": "9cb1ac07-4e8c-44a2-a922-cd6f140b0b97",
            "nama_pse": "KLEENVIRO ALFA PERSADA",
            "nama_se": "KLEENVIRO ALFA PERSADA",
            "sektor": "Sektor Perdagangan, Sektor Teknologi Informasi dan Komunikasi",
            "tanggal_terbit": "2022-11-16",
            "url_tdpse_detail": "https://pse.komdigi.go.id/tdpse-detail/12324",
            "website": "kleenviroalfa.co.id"
        },
        {
            "id": "9cb1abe2-befa-4c58-a013-831231843de0",
            "nama_pse": "KROM BANK INDONESIA",
            "nama_se": "WEBSITE PT KROM BANK INDONESIA TBK",
            "sektor": "Sektor Keuangan",
            "tanggal_terbit": "2022-11-16",
            "url_tdpse_detail": "https://pse.komdigi.go.id/tdpse-detail/12326",
            "website": "Krom.id"
        },
        {
            "id": "9cb1ac07-519d-41f0-aa0c-a15c979d2409",
            "nama_pse": "ALODOKTER TEKNOLOGI SOLUSI",
            "nama_se": "ALOMEDIKA.COM",
            "sektor": "Sektor Kesehatan",
            "tanggal_terbit": "2022-11-16",
            "url_tdpse_detail": "https://pse.komdigi.go.id/tdpse-detail/12327",
            "website": "alomedika.com"
        },
        {
            "id": "9cb1abe2-c77d-4ee7-ab4d-bbe57844537f",
            "nama_pse": "RANTAI PASOK EKOSISTEM",
            "nama_se": "WAREHOUSE MANAGEMENT SYSTEM",
            "sektor": "Sektor Perdagangan, Sektor Teknologi Informasi dan Komunikasi, Sektor Pangan",
            "tanggal_terbit": "2022-11-16",
            "url_tdpse_detail": "https://pse.komdigi.go.id/tdpse-detail/12332",
            "website": "fishlog.co.id"
        },
        {
            "id": "9cb1ac15-a9e7-4b14-977e-b0d9cb583a73",
            "nama_pse": "BERKAT DUA SAUDARA KAPITAL",
            "nama_se": "BERKAT DUA SAUDARA KAPITAL",
            "sektor": "Sektor Perdagangan",
            "tanggal_terbit": "2022-11-16",
            "url_tdpse_detail": "https://pse.komdigi.go.id/tdpse-detail/12328",
            "website": "berkatdsk.com"
        },
        {
            "id": "9cb1abe2-dacd-41bb-a0cc-a0af729673e1",
            "nama_pse": "KONEKSI GLOBAL TEKHNOLOGI",
            "nama_se": "HAPPYGAME",
            "sektor": "Sektor Teknologi Informasi dan Komunikasi",
            "tanggal_terbit": "2022-11-16",
            "url_tdpse_detail": "https://pse.komdigi.go.id/tdpse-detail/12331",
            "website": "happygame.id"
        },
        {
            "id": "9cb1ac15-ad5f-4b86-add5-0c28f3485141",
            "nama_pse": "OMAH TEKNOLOGI INDONESIA",
            "nama_se": "CEKTRAVEL.COM",
            "sektor": "Sektor Perdagangan, Sektor Teknologi Informasi dan Komunikasi",
            "tanggal_terbit": "2022-11-16",
            "url_tdpse_detail": "https://pse.komdigi.go.id/tdpse-detail/12334",
            "website": "ns4.niagahoster.com"
        },
        {
            "id": "9cb1ac15-b30b-47dd-8e2a-a2c053f36f3e",
            "nama_pse": "BERKAT DUA SAUDARA KAPITAL",
            "nama_se": "BERKATDSK.COM",
            "sektor": "Sektor Perdagangan",
            "tanggal_terbit": "2022-11-16",
            "url_tdpse_detail": "https://pse.komdigi.go.id/tdpse-detail/12333",
            "website": "berkatdsk.com"
        },
        {
            "id": "9cb1ac07-57f0-4bf1-8ae1-1c649634a9f0",
            "nama_pse": "ORACLE INDONESIA",
            "nama_se": "ORACLE CLOUD INFRASTRUCTURE \u0026 ORACLE CLOUD APPLICATION",
            "sektor": "Sektor Teknologi Informasi dan Komunikasi",
            "tanggal_terbit": "2022-11-16",
            "url_tdpse_detail": "https://pse.komdigi.go.id/tdpse-detail/12336",
            "website": "oracle.com"
        },
        {
            "id": "9cb1ac15-b7e2-4f31-9914-2c75137af0a1",
            "nama_pse": "ASTO SUKSES BERNIAGA",
            "nama_se": "ASTECH.SITOCASH.COM",
            "sektor": "Sektor Perdagangan",
            "tanggal_terbit": "2022-11-16",
            "url_tdpse_detail": "https://pse.komdigi.go.id/tdpse-detail/12335",
            "website": "astech.sitocash.com"
        },
        {
            "id": "9cb1ac15-bb96-4364-8dfe-7ce47cb6c57e",
            "nama_pse": "WAHANAARTHA RITELINDO",
            "nama_se": "WAHANA MOBILE",
            "sektor": "Sektor Perdagangan, Sektor Teknologi Informasi dan Komunikasi",
            "tanggal_terbit": "2022-11-16",
            "url_tdpse_detail": "https://pse.komdigi.go.id/tdpse-detail/12337",
            "website": "wahanaritelindo.com"
        },
        {
            "id": "9cb1ab93-9159-4410-a954-6bab42d6368f",
            "nama_pse": "RELIANCE SEKURITAS INDONESIA",
            "nama_se": "RELINVEST",
            "sektor": "Sektor Keuangan, Sektor Keuangan",
            "tanggal_terbit": "2022-11-15",
            "url_tdpse_detail": "https://pse.komdigi.go.id/tdpse-detail/3621",
            "website": "reliinvest.com"
        },
        {
            "id": "9cb1abe2-6a92-4641-9b45-b0c590e782d3",
            "nama_pse": "KOPERASI JASA TELEKOMUNIKASI SELULAR KISEL",
            "nama_se": "MYKISEL",
            "sektor": "Sektor Perdagangan, Sektor Teknologi Informasi dan Komunikasi",
            "tanggal_terbit": "2022-11-15",
            "url_tdpse_detail": "https://pse.komdigi.go.id/tdpse-detail/12290",
            "website": "mykisel.com"
        },
        {
            "id": "9cb1ac15-5d5b-4b05-af65-031185b09ece",
            "nama_pse": "TRIJAYA GLOBAL MARINDO",
            "nama_se": "JAYAFAST.COM",
            "sektor": "Sektor Transportasi",
            "tanggal_terbit": "2022-11-15",
            "url_tdpse_detail": "https://pse.komdigi.go.id/tdpse-detail/12293",
            "website": "jayafast.com"
        },
        {
            "id": "9cb1abe2-6e62-4150-bc8c-29272c396dcc",
            "nama_pse": "DRAJA TEKNOPRENEUR MULTISUKSES",
            "nama_se": "WEBSITE DRAJA",
            "sektor": "Sektor Perdagangan",
            "tanggal_terbit": "2022-11-15",
            "url_tdpse_detail": "https://pse.komdigi.go.id/tdpse-detail/12291",
            "website": "draja.id"
        },
        {
            "id": "9cb1ac15-6117-4bf5-8443-72c908688996",
            "nama_pse": "BINA KOMPETISI INDONESIA",
            "nama_se": "KOMPIT",
            "sektor": "Sektor Teknologi Informasi dan Komunikasi",
            "tanggal_terbit": "2022-11-15",
            "url_tdpse_detail": "https://pse.komdigi.go.id/tdpse-detail/12301",
            "website": "KOMPIT.COM"
        },
        {
            "id": "9cb1ac15-646d-4f3e-935e-f8bc420ff993",
            "nama_pse": "QUIPPER EDUKASI INDONESIA",
            "nama_se": "QUIPPER CAMPUS",
            "sektor": "Sektor Teknologi Informasi dan Komunikasi",
            "tanggal_terbit": "2022-11-15",
            "url_tdpse_detail": "https://pse.komdigi.go.id/tdpse-detail/12294",
            "website": "campus.quipper.com"
        },
        {
            "id": "9cb1abe2-754a-4ab1-830a-d086e2e342f3",
            "nama_pse": "FITAJA DIGITAL NUSANTARA",
            "nama_se": "FITAJA!",
            "sektor": "Sektor Perdagangan, Sektor Kesehatan",
            "tanggal_terbit": "2022-11-15",
            "url_tdpse_detail": "https://pse.komdigi.go.id/tdpse-detail/12288",
            "website": "fitaja.id"
        },
        {
            "id": "9cb1ac15-75ed-4460-b1ae-283c6eff403e",
            "nama_pse": "MEDIA JAWA TIMUR",
            "nama_se": "JATIM BHAYANGKARA NEWS",
            "sektor": "Sektor Teknologi Informasi dan Komunikasi",
            "tanggal_terbit": "2022-11-15",
            "url_tdpse_detail": "https://pse.komdigi.go.id/tdpse-detail/12286",
            "website": "jatimbhayangkaranews.my.id"
        },
        {
            "id": "9cb1abe2-7fbc-4c63-9025-967e796582cf",
            "nama_pse": "UPBIT EXCHANGE INDONESIA",
            "nama_se": "PLATFORM PERDAGANGAN ASET KRIPTO PT UPBIT EXCHANGE INDONESIA",
            "sektor": "Sektor Perdagangan",
            "tanggal_terbit": "2022-11-15",
            "url_tdpse_detail": "https://pse.komdigi.go.id/tdpse-detail/12287",
            "website": "upbit.com"
        },
        {
            "id": "9cb1ac15-793b-49bd-8f01-438516ab1dba",
            "nama_pse": "MULIA BERKAT SENTOSA",
            "nama_se": "MBS-INDONESIA.ID",
            "sektor": "Sektor Perdagangan",
            "tanggal_terbit": "2022-11-15",
            "url_tdpse_detail": "https://pse.komdigi.go.id/tdpse-detail/12292",
            "website": "mbs-indonesia.id"
        },
        {
            "id": "9cb1ac15-7ca3-4aac-a8ec-a878faa59891",
            "nama_pse": "BIC PONSEL PERKASA",
            "nama_se": "DISPENSER PERTAMINI",
            "sektor": "Sektor Energi dan Sumber Daya Mineral",
            "tanggal_terbit": "2022-11-15",
            "url_tdpse_detail": "https://pse.komdigi.go.id/tdpse-detail/12295",
            "website": "-"
        },
        {
            "id": "9cb1ac07-198a-46ca-836b-b495a4838571",
            "nama_pse": "IDEXPRESS LOGISTIK INDONESIA",
            "nama_se": "IDEXPRESS LOGISTIK INDONESIA",
            "sektor": "Sektor Perdagangan",
            "tanggal_terbit": "2022-11-15",
            "url_tdpse_detail": "https://pse.komdigi.go.id/tdpse-detail/12296",
            "website": "idexpress.com"
        },
        {
            "id": "9cb1abe2-845d-4462-b249-18bd8b2cbf63",
            "nama_pse": "MULAI WEB INDONESIA",
            "nama_se": "RSSWEB.ID",
            "sektor": "Sektor Teknologi Informasi dan Komunikasi",
            "tanggal_terbit": "2022-11-15",
            "url_tdpse_detail": "https://pse.komdigi.go.id/tdpse-detail/12297",
            "website": "rssweb.id"
        },
        {
            "id": "9cb1abe2-8aca-4d0f-b6ad-f1baeb0a57f7",
            "nama_pse": "BOOURAC INTERNASIONAL INDONESIA",
            "nama_se": "WWW.BOOURAC.COM",
            "sektor": "Sektor Perdagangan",
            "tanggal_terbit": "2022-11-15",
            "url_tdpse_detail": "https://pse.komdigi.go.id/tdpse-detail/12298",
            "website": "boourac.com"
        },
        {
            "id": "9cb1ac07-2117-4e69-9693-e1142826ba12",
            "nama_pse": "ARAH SENTRAL SOLUSINDO",
            "nama_se": "WEBSITE SENTRE LEGAL",
            "sektor": "Sektor Perdagangan",
            "tanggal_terbit": "2022-11-15",
            "url_tdpse_detail": "https://pse.komdigi.go.id/tdpse-detail/12299",
            "website": "sentrelegal.com"
        },
        {
            "id": "9cb1abe2-95a5-4e01-8af9-c158bff448e8",
            "nama_pse": "BUANA CIPTA CHAHRA",
            "nama_se": "CHAHRA EVENT",
            "sektor": "Sektor Teknologi Informasi dan Komunikasi",
            "tanggal_terbit": "2022-11-15",
            "url_tdpse_detail": "https://pse.komdigi.go.id/tdpse-detail/12300",
            "website": "chahraevent.id"
        },
        {
            "id": "9cb1ac07-2558-48d5-9139-847c1d209384",
            "nama_pse": "QUIPPER EDUKASI INDONESIA",
            "nama_se": "QUIPPER VIDEO",
            "sektor": "Sektor Teknologi Informasi dan Komunikasi",
            "tanggal_terbit": "2022-11-15",
            "url_tdpse_detail": "https://pse.komdigi.go.id/tdpse-detail/12303",
            "website": "quipper.com"
        },
        {
            "id": "9cb1ac07-2bdb-4671-9609-04ca6e5c60c1",
            "nama_pse": "YRS GAMING SHOP",
            "nama_se": "YRS GAMING SHOP",
            "sektor": "Sektor Perdagangan",
            "tanggal_terbit": "2022-11-15",
            "url_tdpse_detail": "https://pse.komdigi.go.id/tdpse-detail/12302",
            "website": "-"
        },
        {
            "id": "9cb1ac15-804f-4f37-9a0f-d1994f79e9f8",
            "nama_pse": "QUIPPER EDUKASI INDONESIA",
            "nama_se": "QUIPPER SCHOOL",
            "sektor": "Sektor Teknologi Informasi dan Komunikasi",
            "tanggal_terbit": "2022-11-15",
            "url_tdpse_detail": "https://pse.komdigi.go.id/tdpse-detail/12304",
            "website": "quipper.com"
        }
    ],
    "processingTimeMs": 4,
    "query": "",
    "totalHits": 19121,
    "hitsPerPage": 50,
    "page": 169,
    "totalPages": 383
}