{
    "hits": [
        {
            "id": "9cb1ac12-a808-4314-9de6-62075047ded2",
            "nama_pse": "HOME CENTER INDONESIA RETAIL",
            "nama_se": "WEBSITE EYESOUL (WWW.EYESOULEYEWEAR.CO.ID)",
            "sektor": "Sektor Perdagangan, Sektor Teknologi Informasi dan Komunikasi",
            "tanggal_terbit": "2022-10-12",
            "url_tdpse_detail": "https://pse.komdigi.go.id/tdpse-detail/11775",
            "website": "eyesouleyewear.co.id"
        },
        {
            "id": "9cb1ac03-f0f2-4637-a9a5-7454b7826486",
            "nama_pse": "JAVAN CIPTA SOLUSI",
            "nama_se": "JAVAN CAREER",
            "sektor": "Sektor Teknologi Informasi dan Komunikasi",
            "tanggal_terbit": "2022-10-12",
            "url_tdpse_detail": "https://pse.komdigi.go.id/tdpse-detail/11776",
            "website": "javan.co.id"
        },
        {
            "id": "9cb1ac12-abbe-4ce6-96a0-3081db90ce6d",
            "nama_pse": "FOODS BEVERAGES INDONESIA",
            "nama_se": "MOBILE APP MY F\u0026B ID",
            "sektor": "Sektor Perdagangan, Sektor Teknologi Informasi dan Komunikasi",
            "tanggal_terbit": "2022-10-12",
            "url_tdpse_detail": "https://pse.komdigi.go.id/tdpse-detail/11777",
            "website": "fbindonesia.com"
        },
        {
            "id": "9cb1ac12-afdc-429b-86e8-bf9ddb2a04a2",
            "nama_pse": "BOZZ ONLINE SOLUSINDO",
            "nama_se": "PAYROLLBOZZ.COM",
            "sektor": "Sektor Teknologi Informasi dan Komunikasi",
            "tanggal_terbit": "2022-10-12",
            "url_tdpse_detail": "https://pse.komdigi.go.id/tdpse-detail/11778",
            "website": "payrollbozz.com"
        },
        {
            "id": "9cb1abdf-d249-4bb7-967d-28b237fc55f2",
            "nama_pse": "TEMAN BAYARIN DULU",
            "nama_se": "WWW.TEMANPAY.COM",
            "sektor": "Sektor Perdagangan",
            "tanggal_terbit": "2022-10-12",
            "url_tdpse_detail": "https://pse.komdigi.go.id/tdpse-detail/11780",
            "website": "temanpay.com"
        },
        {
            "id": "9cb1abdf-d724-44be-9d52-7aa94b82960f",
            "nama_pse": "AVERIN INFORMATIKA TEKNOLOGI",
            "nama_se": "D-MEDIS",
            "sektor": "Sektor Kesehatan",
            "tanggal_terbit": "2022-10-12",
            "url_tdpse_detail": "https://pse.komdigi.go.id/tdpse-detail/11781",
            "website": "d-medis.id"
        },
        {
            "id": "9cb1abdf-e5e9-4e29-a278-c040f7c2d04b",
            "nama_pse": "REINHART PREVIANO KOENTJORO",
            "nama_se": "BOTS.REINHART1010.ID",
            "sektor": "Sektor Teknologi Informasi dan Komunikasi",
            "tanggal_terbit": "2022-10-12",
            "url_tdpse_detail": "https://pse.komdigi.go.id/tdpse-detail/11782",
            "website": "bots.reinhart1010.id"
        },
        {
            "id": "9cb1abdf-eb4c-46da-8d63-46afa1a0c6b6",
            "nama_pse": "MITRA DESA DIGITAL",
            "nama_se": "MITRA DESA DIGITAL",
            "sektor": "Sektor Teknologi Informasi dan Komunikasi",
            "tanggal_terbit": "2022-10-12",
            "url_tdpse_detail": "https://pse.komdigi.go.id/tdpse-detail/11783",
            "website": "mitradesadigital.id"
        },
        {
            "id": "9cb1ac12-89cd-499c-b1f4-6724ee55c236",
            "nama_pse": "DUTA EDUKASI BOALEMO",
            "nama_se": "CV. DUTA EDUKASI BOALEMO",
            "sektor": "Sektor Perdagangan",
            "tanggal_terbit": "2022-10-11",
            "url_tdpse_detail": "https://pse.komdigi.go.id/tdpse-detail/11749",
            "website": "dutaedukasiboalemo.id"
        },
        {
            "id": "9cb1ac03-c234-49d9-8dd5-41dda29d4192",
            "nama_pse": "FIAJEK MEDIATAMA CENTER",
            "nama_se": "FIAJEK MEDIATAMA CENTER",
            "sektor": "Sektor Transportasi",
            "tanggal_terbit": "2022-10-11",
            "url_tdpse_detail": "https://pse.komdigi.go.id/tdpse-detail/11750",
            "website": "-"
        },
        {
            "id": "9cb1ac12-8d69-41ee-b629-f2037af6373a",
            "nama_pse": "BANK PEREKONOMIAN RAKYAT BERKAH SERUMPUN MANDIRI",
            "nama_se": "BPR KAPITAL MANDIRI",
            "sektor": "Sektor Keuangan",
            "tanggal_terbit": "2022-10-11",
            "url_tdpse_detail": "https://pse.komdigi.go.id/tdpse-detail/11751",
            "website": "bprkapitalmandiri.com"
        },
        {
            "id": "9cb1abdf-b0ac-4540-882d-cbc2a7ba1fc8",
            "nama_pse": "CITI ASIA INTERNASIONAL",
            "nama_se": "INIDESAKU",
            "sektor": "Sektor Teknologi Informasi dan Komunikasi",
            "tanggal_terbit": "2022-10-11",
            "url_tdpse_detail": "https://pse.komdigi.go.id/tdpse-detail/11753",
            "website": "-"
        },
        {
            "id": "9cb1ac12-911e-47fb-94d5-e0aaf9e06310",
            "nama_pse": "SEURAMOE MEDIA GROUP",
            "nama_se": "RELASI NASIONAL",
            "sektor": "Sektor Teknologi Informasi dan Komunikasi",
            "tanggal_terbit": "2022-10-11",
            "url_tdpse_detail": "https://pse.komdigi.go.id/tdpse-detail/11754",
            "website": "relasinasional.com"
        },
        {
            "id": "9cb1ac03-c4c3-4104-a7f0-49b319b600a0",
            "nama_pse": "DILPA",
            "nama_se": "OKTORA",
            "sektor": "Sektor Perdagangan, Sektor Transportasi, Sektor Keuangan, Sektor Kesehatan, Sektor Teknologi Informasi dan Komunikasi, Sektor Pangan",
            "tanggal_terbit": "2022-10-11",
            "url_tdpse_detail": "https://pse.komdigi.go.id/tdpse-detail/11755",
            "website": "-"
        },
        {
            "id": "9cb1ac12-9585-441e-b950-02f481a2a603",
            "nama_pse": "ASAPERKASA ABIMULYA",
            "nama_se": "DIGITALISASI SP(P)BE",
            "sektor": "Sektor Energi dan Sumber Daya Mineral",
            "tanggal_terbit": "2022-10-11",
            "url_tdpse_detail": "https://pse.komdigi.go.id/tdpse-detail/11757",
            "website": "sppbe-digital.com"
        },
        {
            "id": "9cb1ac03-cba7-47c8-9f32-71af17ec6066",
            "nama_pse": "SAMSUNG ELECTRONICS INDONESIA",
            "nama_se": "PENUP",
            "sektor": "Sektor Teknologi Informasi dan Komunikasi",
            "tanggal_terbit": "2022-10-11",
            "url_tdpse_detail": "https://pse.komdigi.go.id/tdpse-detail/11758",
            "website": "-"
        },
        {
            "id": "9cb1ac03-cf3b-459b-8834-efa8fceb7b06",
            "nama_pse": "JAYA ABADI",
            "nama_se": "CV. JAYA ABADI",
            "sektor": "Sektor Perdagangan",
            "tanggal_terbit": "2022-10-11",
            "url_tdpse_detail": "https://pse.komdigi.go.id/tdpse-detail/11759",
            "website": "-"
        },
        {
            "id": "9cb1ac12-9d4a-4184-802e-f97547457c46",
            "nama_pse": "CYBE INDONESIA DIGITECPRO",
            "nama_se": "CYBE INDONESIA DIGITECPRO",
            "sektor": "Sektor Keuangan, Sektor Teknologi Informasi dan Komunikasi, Sektor Pertahanan dan Keamanan",
            "tanggal_terbit": "2022-10-11",
            "url_tdpse_detail": "https://pse.komdigi.go.id/tdpse-detail/11766",
            "website": "cybe.tech"
        },
        {
            "id": "9cb1abdb-df05-41ac-ac92-e9ce018df16c",
            "nama_pse": "QPRO SUKSES MANDIRI",
            "nama_se": "SPHAIRA",
            "sektor": "Sektor Perdagangan, Sektor Kesehatan, Sektor Teknologi Informasi dan Komunikasi",
            "tanggal_terbit": "2022-10-10",
            "url_tdpse_detail": "https://pse.komdigi.go.id/tdpse-detail/11232",
            "website": "qprosm.com"
        },
        {
            "id": "9cb1ac12-81bc-42e3-a931-da07d425b7a7",
            "nama_pse": "BHOBU RELOAD",
            "nama_se": "BHOBU RELOAD",
            "sektor": "Sektor Perdagangan, Sektor Teknologi Informasi dan Komunikasi",
            "tanggal_terbit": "2022-10-10",
            "url_tdpse_detail": "https://pse.komdigi.go.id/tdpse-detail/11736",
            "website": "bhobureload.com"
        },
        {
            "id": "9cb1abdf-7b2c-49f0-8b81-280d5ad9b3f8",
            "nama_pse": "PRIMA SELARAS TEKNOLOGI",
            "nama_se": "ORIGO",
            "sektor": "Sektor Transportasi",
            "tanggal_terbit": "2022-10-10",
            "url_tdpse_detail": "https://pse.komdigi.go.id/tdpse-detail/11737",
            "website": "origo.co.id"
        },
        {
            "id": "9cb1abdf-81e0-4c12-ae00-a26cfad243e1",
            "nama_pse": "GILANG AGUNG PERSADA",
            "nama_se": "AIR FREE INDONESIA",
            "sektor": "Sektor Perdagangan",
            "tanggal_terbit": "2022-10-10",
            "url_tdpse_detail": "https://pse.komdigi.go.id/tdpse-detail/11738",
            "website": "cleanair.gilangagung.co.id"
        },
        {
            "id": "9cb1ac12-856e-4fa1-acbc-6552fdccca09",
            "nama_pse": "GILANG AGUNG PERSADA",
            "nama_se": "WATCHZONE OFFICIAL STORE",
            "sektor": "Sektor Perdagangan",
            "tanggal_terbit": "2022-10-10",
            "url_tdpse_detail": "https://pse.komdigi.go.id/tdpse-detail/11739",
            "website": "watchzone.co.id"
        },
        {
            "id": "9cb1ac03-bbfe-494c-b85e-f42a6b4400eb",
            "nama_pse": "JURAGAN DIGITAL SOLUTION",
            "nama_se": "JURAGANWEB.COM",
            "sektor": "Sektor Teknologi Informasi dan Komunikasi",
            "tanggal_terbit": "2022-10-10",
            "url_tdpse_detail": "https://pse.komdigi.go.id/tdpse-detail/11740",
            "website": "juraganweb.com"
        },
        {
            "id": "9cb1abdf-8748-4867-bda0-905c61fb93f6",
            "nama_pse": "ADITIYA KARYA UTAMA",
            "nama_se": "DITOPUP",
            "sektor": "Sektor Perdagangan",
            "tanggal_terbit": "2022-10-10",
            "url_tdpse_detail": "https://pse.komdigi.go.id/tdpse-detail/11741",
            "website": "ditopup.id"
        },
        {
            "id": "9cb1abdf-93de-411b-9b42-a62a22fe8716",
            "nama_pse": "PERTAMINA TRAINING AND CONSULTING",
            "nama_se": "GURUMAYA",
            "sektor": "Sektor Perdagangan, Sektor Teknologi Informasi dan Komunikasi",
            "tanggal_terbit": "2022-10-10",
            "url_tdpse_detail": "https://pse.komdigi.go.id/tdpse-detail/11742",
            "website": "gurumaya.id"
        },
        {
            "id": "9cb1abdf-979c-4d6a-b427-20af70b0ab72",
            "nama_pse": "EIGHT SOLUTIONS INDONESIA",
            "nama_se": "8X8 COMMUNICATIONS",
            "sektor": "Sektor Teknologi Informasi dan Komunikasi",
            "tanggal_terbit": "2022-10-10",
            "url_tdpse_detail": "https://pse.komdigi.go.id/tdpse-detail/11743",
            "website": "wavecell.com"
        },
        {
            "id": "9cb1abdf-9b7d-4af1-bc88-3bf657600243",
            "nama_pse": "VIN PROTOCOL DIGITAL",
            "nama_se": "VIN PROTOCOL",
            "sektor": "Sektor Teknologi Informasi dan Komunikasi",
            "tanggal_terbit": "2022-10-10",
            "url_tdpse_detail": "https://pse.komdigi.go.id/tdpse-detail/11744",
            "website": "vinprotocol.com"
        },
        {
            "id": "9cb1abdf-9eeb-4e1e-8b2b-3570b1cf2fe3",
            "nama_pse": "MUHAMMAD ADNAN ARIES",
            "nama_se": "KEDIP",
            "sektor": "Sektor Perdagangan",
            "tanggal_terbit": "2022-10-10",
            "url_tdpse_detail": "https://pse.komdigi.go.id/tdpse-detail/11745",
            "website": "kedip.id"
        },
        {
            "id": "9cb1ac03-bf29-4e69-8fde-3b1ea0ab4247",
            "nama_pse": "ITDC NUSANTARA XPLORIN",
            "nama_se": "XPLORIN",
            "sektor": "Sektor Teknologi Informasi dan Komunikasi",
            "tanggal_terbit": "2022-10-10",
            "url_tdpse_detail": "https://pse.komdigi.go.id/tdpse-detail/11746",
            "website": "xplorin.id"
        },
        {
            "id": "9cb1abdf-a2f5-44c2-822d-24baba20df3f",
            "nama_pse": "UMROHKUY LANCAR BAROKAH",
            "nama_se": "UMROHKUY",
            "sektor": "Sektor Perdagangan",
            "tanggal_terbit": "2022-10-10",
            "url_tdpse_detail": "https://pse.komdigi.go.id/tdpse-detail/11747",
            "website": "umrohkuy.com"
        },
        {
            "id": "9cb1abdf-a857-4444-b47e-fc641bad8651",
            "nama_pse": "GRAHA EVANS ADJI",
            "nama_se": "ERP - ID-PATH",
            "sektor": "Sektor Teknologi Informasi dan Komunikasi",
            "tanggal_terbit": "2022-10-10",
            "url_tdpse_detail": "https://pse.komdigi.go.id/tdpse-detail/11748",
            "website": "ID-PATH.COM"
        },
        {
            "id": "9cb1ac02-f0a3-44b1-afb4-169df642a692",
            "nama_pse": "NIDA MANAGEMENT AND CONSULTING",
            "nama_se": "AMBERBUDDY",
            "sektor": "Sektor Perdagangan",
            "tanggal_terbit": "2022-10-07",
            "url_tdpse_detail": "https://pse.komdigi.go.id/tdpse-detail/11595",
            "website": "amberbuddy.co.id"
        },
        {
            "id": "9cb1ac02-fe8e-4535-9d2a-6e80cac9e73a",
            "nama_pse": "ANADANA KODE NONTUNAI",
            "nama_se": "MONY UANG ELECTRONIC",
            "sektor": "Sektor Keuangan",
            "tanggal_terbit": "2022-10-07",
            "url_tdpse_detail": "https://pse.komdigi.go.id/tdpse-detail/11598",
            "website": "anadana.com"
        },
        {
            "id": "9cb1ac11-9aba-4de0-9ee9-23dbfd9eb058",
            "nama_pse": "ACCLIME CONSULTING INDONESIA",
            "nama_se": "AGILITY",
            "sektor": "Sektor Perdagangan",
            "tanggal_terbit": "2022-10-07",
            "url_tdpse_detail": "https://pse.komdigi.go.id/tdpse-detail/11600",
            "website": "Acclime.com"
        },
        {
            "id": "9cb1ac03-01da-4299-a235-b9626d82be1b",
            "nama_pse": "EIGHT SOLUTIONS INDONESIA",
            "nama_se": "8X8 COMMUNICATIONS APIS",
            "sektor": "Sektor Teknologi Informasi dan Komunikasi",
            "tanggal_terbit": "2022-10-07",
            "url_tdpse_detail": "https://pse.komdigi.go.id/tdpse-detail/11616",
            "website": "8x8.com"
        },
        {
            "id": "9cb1ac11-aba3-440f-ab81-4fe67c7a3f93",
            "nama_pse": "TIGA PUTRA NANJUNG",
            "nama_se": "KABAR JOURNALIST",
            "sektor": "Sektor Teknologi Informasi dan Komunikasi",
            "tanggal_terbit": "2022-10-07",
            "url_tdpse_detail": "https://pse.komdigi.go.id/tdpse-detail/11601",
            "website": "kabarjournalist.com"
        },
        {
            "id": "9cb1ac11-bbd2-450f-9038-f722d60d69e2",
            "nama_pse": "BANK PERKREDITAN RAKYAT LUMBUNG MEKAR SENTOSA",
            "nama_se": "PT BPR LUMBUNG MEKAR SENTOSA",
            "sektor": "Sektor Keuangan",
            "tanggal_terbit": "2022-10-07",
            "url_tdpse_detail": "https://pse.komdigi.go.id/tdpse-detail/11602",
            "website": "bprlms.com"
        },
        {
            "id": "9cb1ac03-0623-404b-a45b-a1769f4d67da",
            "nama_pse": "GAPURA ANGKASA",
            "nama_se": "WEBSITE PT GAPURA ANGKASA",
            "sektor": "Sektor Transportasi, Sektor Teknologi Informasi dan Komunikasi",
            "tanggal_terbit": "2022-10-07",
            "url_tdpse_detail": "https://pse.komdigi.go.id/tdpse-detail/11603",
            "website": "gapura.id"
        },
        {
            "id": "9cb1ac11-c299-45ff-a782-85a410437d5e",
            "nama_pse": "BAKOOL NUSANTARA JAYA",
            "nama_se": "BAKOOL FRESH",
            "sektor": "Sektor Perdagangan",
            "tanggal_terbit": "2022-10-07",
            "url_tdpse_detail": "https://pse.komdigi.go.id/tdpse-detail/11615",
            "website": "-"
        },
        {
            "id": "9cb1ac03-09c9-45cc-9bbe-9f12e44d1cde",
            "nama_pse": "HEMATECH NUSANTARA",
            "nama_se": "LABORATORIUM PEMBELAJARAN",
            "sektor": "Sektor Teknologi Informasi dan Komunikasi",
            "tanggal_terbit": "2022-10-07",
            "url_tdpse_detail": "https://pse.komdigi.go.id/tdpse-detail/11606",
            "website": "-"
        },
        {
            "id": "9cb1abde-cb03-4a81-b51c-fc58144bb325",
            "nama_pse": "WIDEA DAGANG NUSANTARA",
            "nama_se": "ADALOKA",
            "sektor": "Sektor Perdagangan, Sektor Keuangan, Sektor Teknologi Informasi dan Komunikasi",
            "tanggal_terbit": "2022-10-07",
            "url_tdpse_detail": "https://pse.komdigi.go.id/tdpse-detail/11608",
            "website": "adaloka.com"
        },
        {
            "id": "9cb1abde-cf02-4115-a532-64358303777a",
            "nama_pse": "ARSA WORK INDONESIA",
            "nama_se": "ARSA WORK",
            "sektor": "Sektor Perdagangan, Sektor Teknologi Informasi dan Komunikasi",
            "tanggal_terbit": "2022-10-07",
            "url_tdpse_detail": "https://pse.komdigi.go.id/tdpse-detail/11609",
            "website": "-"
        },
        {
            "id": "9cb1ac00-b1a3-4701-9e92-cfec01e656ed",
            "nama_pse": "USAHA KREATIF INDONESIA",
            "nama_se": "UEX",
            "sektor": "Sektor Teknologi Informasi dan Komunikasi",
            "tanggal_terbit": "2022-10-06",
            "url_tdpse_detail": "https://pse.komdigi.go.id/tdpse-detail/11580",
            "website": "uex.co.id"
        },
        {
            "id": "9cb1ac00-e6bd-4985-8271-d07991cf9601",
            "nama_pse": "CEKAJA MERDEKA KEUANGAN",
            "nama_se": "CEKAJA.COM",
            "sektor": "Sektor Teknologi Informasi dan Komunikasi",
            "tanggal_terbit": "2022-10-06",
            "url_tdpse_detail": "https://pse.komdigi.go.id/tdpse-detail/11576",
            "website": "cekaja.com"
        },
        {
            "id": "9cb1abde-9ea1-4d99-a747-b066b261a97b",
            "nama_pse": "BANK PEREKONOMIAN RAKYAT AMANAT KESEJAHTERAAN INDONESIA",
            "nama_se": "ASSIST",
            "sektor": "Sektor Keuangan",
            "tanggal_terbit": "2022-10-06",
            "url_tdpse_detail": "https://pse.komdigi.go.id/tdpse-detail/11574",
            "website": "-"
        },
        {
            "id": "9cb1abde-a42b-407c-b7e6-938575a6f095",
            "nama_pse": "BANK PEREKONOMIAN RAKYAT AMANAT KESEJAHTERAAN INDONESIA",
            "nama_se": "BPR ASSIST",
            "sektor": "Sektor Keuangan",
            "tanggal_terbit": "2022-10-06",
            "url_tdpse_detail": "https://pse.komdigi.go.id/tdpse-detail/11575",
            "website": "-"
        },
        {
            "id": "9cb1abde-a9be-45d2-9e36-269b252d05cb",
            "nama_pse": "LANCAR REKA SAMPURNA",
            "nama_se": "PDGIMALL",
            "sektor": "Sektor Perdagangan, Sektor Kesehatan, Sektor Teknologi Informasi dan Komunikasi",
            "tanggal_terbit": "2022-10-06",
            "url_tdpse_detail": "https://pse.komdigi.go.id/tdpse-detail/11577",
            "website": "pdgimall.co.id"
        },
        {
            "id": "9cb1ac02-cd50-4f29-9636-391085bafa01",
            "nama_pse": "SOLUSI TRANSFORMA TEKNOLOGI",
            "nama_se": "PT. SOLUSI TRANSFOMA TEKNOLOGI WEBSITE",
            "sektor": "Sektor Perdagangan",
            "tanggal_terbit": "2022-10-06",
            "url_tdpse_detail": "https://pse.komdigi.go.id/tdpse-detail/11579",
            "website": "solusitransformateknologi.com"
        },
        {
            "id": "9cb1ac11-7eb2-4374-8618-a8c6cb629721",
            "nama_pse": "KARYA JENTERA INDONESIA",
            "nama_se": "JENTERA NEWS",
            "sektor": "Sektor Teknologi Informasi dan Komunikasi",
            "tanggal_terbit": "2022-10-06",
            "url_tdpse_detail": "https://pse.komdigi.go.id/tdpse-detail/11578",
            "website": "jenteranews.com"
        }
    ],
    "processingTimeMs": 10,
    "query": "",
    "totalHits": 19121,
    "hitsPerPage": 50,
    "page": 178,
    "totalPages": 383
}