{
    "hits": [
        {
            "id": "9cb1abbc-b64e-4303-af65-36dae7f3a295",
            "nama_pse": "BANK PERKREDITAN RAKYAT CARUBAN INDAH",
            "nama_se": "BPR CARUBAN INDAH",
            "sektor": "Sektor Keuangan",
            "tanggal_terbit": "2022-07-22",
            "url_tdpse_detail": "https://pse.komdigi.go.id/tdpse-detail/8800",
            "website": "-"
        },
        {
            "id": "9cb1abf2-8fa9-46e9-8dab-e12b2eb26437",
            "nama_pse": "ASURANSI EKA LLOYD JAYA",
            "nama_se": "WEBSITE EKALLOYD.COM",
            "sektor": "Sektor Keuangan",
            "tanggal_terbit": "2022-07-22",
            "url_tdpse_detail": "https://pse.komdigi.go.id/tdpse-detail/8827",
            "website": "ekalloyd.com"
        },
        {
            "id": "9cb1abbc-b863-4e2d-9795-aeaff5bce4f7",
            "nama_pse": "OKWI NUSANTARA SOLUSINDO",
            "nama_se": "OKWI NUSANTARA SOLUSINDO",
            "sektor": "Sektor Perdagangan",
            "tanggal_terbit": "2022-07-22",
            "url_tdpse_detail": "https://pse.komdigi.go.id/tdpse-detail/8801",
            "website": "-"
        },
        {
            "id": "9cb1abcc-c198-4f96-bc4b-9acc1ef3634d",
            "nama_pse": "BANK PERKREDITAN RAKYAT ARTA PUNDI MEKAR",
            "nama_se": "PT BPR ARTA PUNDI MEKAR",
            "sektor": "Sektor Keuangan",
            "tanggal_terbit": "2022-07-22",
            "url_tdpse_detail": "https://pse.komdigi.go.id/tdpse-detail/8802",
            "website": "artapundimekar.co.id"
        },
        {
            "id": "9cb1abf2-9415-4358-a389-8eb6ef2add01",
            "nama_pse": "KMO INDONESIA",
            "nama_se": "BUKULAKU",
            "sektor": "Sektor Teknologi Informasi dan Komunikasi",
            "tanggal_terbit": "2022-07-22",
            "url_tdpse_detail": "https://pse.komdigi.go.id/tdpse-detail/8804",
            "website": "bukulaku.id"
        },
        {
            "id": "9cb1abf2-9ab7-4813-8847-6f95a794aae1",
            "nama_pse": "WAHANA ANUGERAH ENERGI",
            "nama_se": "RAPEL INDONESIA",
            "sektor": "Sektor Teknologi Informasi dan Komunikasi",
            "tanggal_terbit": "2022-07-22",
            "url_tdpse_detail": "https://pse.komdigi.go.id/tdpse-detail/8805",
            "website": "rapel.id"
        },
        {
            "id": "9cb1abf2-9f5c-47e4-85d6-216d773153f4",
            "nama_pse": "EDEM CAPITAL SERVICE",
            "nama_se": "WWW.TAVOLOGROUP.COM",
            "sektor": "Sektor Perdagangan",
            "tanggal_terbit": "2022-07-22",
            "url_tdpse_detail": "https://pse.komdigi.go.id/tdpse-detail/8808",
            "website": "tavologroup.com"
        },
        {
            "id": "9cb1abf2-a322-4fcc-a0b1-a212fe3dac39",
            "nama_pse": "SUPRA PRIMATAMA NUSANTARA",
            "nama_se": "BIZNET HOTSPOT",
            "sektor": "Sektor Teknologi Informasi dan Komunikasi",
            "tanggal_terbit": "2022-07-22",
            "url_tdpse_detail": "https://pse.komdigi.go.id/tdpse-detail/8807",
            "website": "biznethotspot.com"
        },
        {
            "id": "9cb1abbc-ba35-4dc1-8326-ad2c528182b4",
            "nama_pse": "GLOBAL ONKOLAB FARMA",
            "nama_se": "HTTPS://WWW.ICCC.ID/",
            "sektor": "Sektor Kesehatan",
            "tanggal_terbit": "2022-07-22",
            "url_tdpse_detail": "https://pse.komdigi.go.id/tdpse-detail/8806",
            "website": "iccc.id"
        },
        {
            "id": "9cb1abf2-a6ec-43b2-a78e-1a34982e8d12",
            "nama_pse": "GLOBAL CIPTA LINEA",
            "nama_se": "DREAM WAIST",
            "sektor": "Sektor Perdagangan",
            "tanggal_terbit": "2022-07-22",
            "url_tdpse_detail": "https://pse.komdigi.go.id/tdpse-detail/8826",
            "website": "-"
        },
        {
            "id": "9cb1abbc-bbfe-491f-926e-11379d64ca9a",
            "nama_pse": "SKYSHI DIGITAL INDONESIA",
            "nama_se": "GETHIRED.ID",
            "sektor": "Sektor Teknologi Informasi dan Komunikasi",
            "tanggal_terbit": "2022-07-22",
            "url_tdpse_detail": "https://pse.komdigi.go.id/tdpse-detail/8810",
            "website": "Gethired.id"
        },
        {
            "id": "9cb1abcc-c5c4-4b07-9b3a-b6d7c6749138",
            "nama_pse": "BANK PEREKONOMIAN RAKYAT DIFOBUTAMA",
            "nama_se": "WEBSITE BPR DIFOBUTAMA",
            "sektor": "Sektor Keuangan",
            "tanggal_terbit": "2022-07-22",
            "url_tdpse_detail": "https://pse.komdigi.go.id/tdpse-detail/8809",
            "website": "bprdifobutama.co.id"
        },
        {
            "id": "9cb1abbc-beb4-4332-baf6-3c7d410cf7b7",
            "nama_pse": "STUDIO KAMI MANDIRI",
            "nama_se": "WEBSITE BALIKAMI.COM",
            "sektor": "Sektor Teknologi Informasi dan Komunikasi",
            "tanggal_terbit": "2022-07-22",
            "url_tdpse_detail": "https://pse.komdigi.go.id/tdpse-detail/8825",
            "website": "balikami.com"
        },
        {
            "id": "9cb1abf2-ab6e-43a7-8b6b-6c474b821af6",
            "nama_pse": "BANK PEREKONOMIAN RAKYAT KENCANA MANDIRI",
            "nama_se": "WEBSITE PT BPR KENCANA MANDIRI",
            "sektor": "Sektor Keuangan",
            "tanggal_terbit": "2022-07-22",
            "url_tdpse_detail": "https://pse.komdigi.go.id/tdpse-detail/8811",
            "website": "bprkencanamandiri.com"
        },
        {
            "id": "9cb1abcc-c8d7-4da1-a436-e37ed442626a",
            "nama_pse": "BANK PERKREDITAN RAKYAT NUSUMMA JOGJA",
            "nama_se": "WEBSITE BPR NUSUMMA JOGJA",
            "sektor": "Sektor Keuangan",
            "tanggal_terbit": "2022-07-22",
            "url_tdpse_detail": "https://pse.komdigi.go.id/tdpse-detail/8813",
            "website": "nusummajogja.co.id"
        },
        {
            "id": "9cb1abbc-c1ef-407a-838c-68aea8afa247",
            "nama_pse": "PINTU BAHAGIA BERSAMA",
            "nama_se": "OVENTO INDONESIA",
            "sektor": "Sektor Teknologi Informasi dan Komunikasi",
            "tanggal_terbit": "2022-07-22",
            "url_tdpse_detail": "https://pse.komdigi.go.id/tdpse-detail/8836",
            "website": "ovento.co.id"
        },
        {
            "id": "9cb1abbc-c542-4738-9357-af313dd22c29",
            "nama_pse": "INDAH LOGISTIK",
            "nama_se": "HRISINDAHGROUP.COM",
            "sektor": "Sektor Teknologi Informasi dan Komunikasi",
            "tanggal_terbit": "2022-07-22",
            "url_tdpse_detail": "https://pse.komdigi.go.id/tdpse-detail/8815",
            "website": "hrisindahgroup.com"
        },
        {
            "id": "9cb1abcc-cc36-46f6-906e-818a6f859fe2",
            "nama_pse": "ADI SARANA ARMADA",
            "nama_se": "SHARE CAR",
            "sektor": "Sektor Perdagangan",
            "tanggal_terbit": "2022-07-22",
            "url_tdpse_detail": "https://pse.komdigi.go.id/tdpse-detail/8823",
            "website": "sharecar.co.id"
        },
        {
            "id": "9cb1abbc-c898-4b49-b94c-5ae319aaf3fd",
            "nama_pse": "INDAH LOGISTIK",
            "nama_se": "INDAHONLINE.COM",
            "sektor": "Sektor Teknologi Informasi dan Komunikasi",
            "tanggal_terbit": "2022-07-22",
            "url_tdpse_detail": "https://pse.komdigi.go.id/tdpse-detail/8824",
            "website": "indahonline.com"
        },
        {
            "id": "9cb1abcc-d097-421f-b4e7-3440c1485520",
            "nama_pse": "BANK SYARIAH INDONESIA",
            "nama_se": "WEB IR BANK BSI",
            "sektor": "Sektor Keuangan",
            "tanggal_terbit": "2022-07-22",
            "url_tdpse_detail": "https://pse.komdigi.go.id/tdpse-detail/8828",
            "website": "ir.bankbsi.co.id"
        },
        {
            "id": "9cb1abcc-d645-4d7b-a3b6-c62350426f9b",
            "nama_pse": "MC OCEAN GLOBAL",
            "nama_se": "MC OCEAN GLOBAL",
            "sektor": "Sektor Perdagangan",
            "tanggal_terbit": "2022-07-22",
            "url_tdpse_detail": "https://pse.komdigi.go.id/tdpse-detail/8834",
            "website": "mcocean.co.id"
        },
        {
            "id": "9cb1abbc-cb36-4ca8-8dd6-980dc24fcc17",
            "nama_pse": "TEKNOLOGI MODAL BERSAMA",
            "nama_se": "KARMAFUND.ID",
            "sektor": "Sektor Keuangan",
            "tanggal_terbit": "2022-07-22",
            "url_tdpse_detail": "https://pse.komdigi.go.id/tdpse-detail/8830",
            "website": "karmafund.id"
        },
        {
            "id": "9cb1abbc-cddd-44b7-8499-807753bc3383",
            "nama_pse": "PUTERA KONSEPINDO",
            "nama_se": "HUSH PUPPIES ID ONLINE",
            "sektor": "Sektor Perdagangan",
            "tanggal_terbit": "2022-07-22",
            "url_tdpse_detail": "https://pse.komdigi.go.id/tdpse-detail/8831",
            "website": "hushpuppies.co.id"
        },
        {
            "id": "9cb1abf2-b0ae-4fce-87f8-1cb28c7b2030",
            "nama_pse": "BALIOLA ADI MAHA DUTA",
            "nama_se": "BALIOLA",
            "sektor": "Sektor Perdagangan, Sektor Teknologi Informasi dan Komunikasi",
            "tanggal_terbit": "2022-07-22",
            "url_tdpse_detail": "https://pse.komdigi.go.id/tdpse-detail/8832",
            "website": "baliola.com"
        },
        {
            "id": "9cb1abf2-b679-4730-a40c-31bfc1fa47b3",
            "nama_pse": "BANK PERKREDITAN RAKYAT AMBARKETAWANG PERSADA",
            "nama_se": "WEBSITE BPR AMBARKETAWANG PERSADA",
            "sektor": "Sektor Teknologi Informasi dan Komunikasi",
            "tanggal_terbit": "2022-07-22",
            "url_tdpse_detail": "https://pse.komdigi.go.id/tdpse-detail/8833",
            "website": "bprambarketawangpersada.co.id"
        },
        {
            "id": "9cb1abcc-dc62-4a4b-84b5-de483c504d93",
            "nama_pse": "SUPRA PRIMATAMA NUSANTARA",
            "nama_se": "BIZNET WIFI",
            "sektor": "Sektor Teknologi Informasi dan Komunikasi",
            "tanggal_terbit": "2022-07-22",
            "url_tdpse_detail": "https://pse.komdigi.go.id/tdpse-detail/8837",
            "website": "biznetwifi.com"
        },
        {
            "id": "9cb1abbc-d505-4aef-b6e2-a384ef9faa0a",
            "nama_pse": "VOSTRA INTERNASIONAL",
            "nama_se": "MOBILE DEVICE MANAGEMENT BY VOSTRA",
            "sektor": "Sektor Teknologi Informasi dan Komunikasi",
            "tanggal_terbit": "2022-07-22",
            "url_tdpse_detail": "https://pse.komdigi.go.id/tdpse-detail/8835",
            "website": "vostra.co.id"
        },
        {
            "id": "9cb1abf2-baf7-4d4d-89c3-8965d5c12d03",
            "nama_pse": "LIPPO GENERAL INSURANCE",
            "nama_se": "E-POLICY LIPPOINSURANCE",
            "sektor": "Sektor Perdagangan",
            "tanggal_terbit": "2022-07-22",
            "url_tdpse_detail": "https://pse.komdigi.go.id/tdpse-detail/8847",
            "website": "epolicy.lippoinsurance.com"
        },
        {
            "id": "9cb1abf2-be30-46ca-aaff-3f5a3dde6025",
            "nama_pse": "INDO SWARNA NUSANTARA",
            "nama_se": "SMART SOLUTION",
            "sektor": "Sektor Teknologi Informasi dan Komunikasi",
            "tanggal_terbit": "2022-07-22",
            "url_tdpse_detail": "https://pse.komdigi.go.id/tdpse-detail/8839",
            "website": "-"
        },
        {
            "id": "9cb1abf2-c1f7-48dc-b5ba-0c0f4830569b",
            "nama_pse": "BANK PERKREDITAN RAKYAT SINAR GARUDA PRIMA",
            "nama_se": "BPR SINAR GARUDA PRIMA",
            "sektor": "Sektor Teknologi Informasi dan Komunikasi",
            "tanggal_terbit": "2022-07-22",
            "url_tdpse_detail": "https://pse.komdigi.go.id/tdpse-detail/8838",
            "website": "-"
        },
        {
            "id": "9cb1abf2-c61a-44b5-8d8b-41da45ae7bd4",
            "nama_pse": "INDAH LOGISTIK",
            "nama_se": "MARKETINGINDAHLOGISTIK.COM",
            "sektor": "Sektor Teknologi Informasi dan Komunikasi",
            "tanggal_terbit": "2022-07-22",
            "url_tdpse_detail": "https://pse.komdigi.go.id/tdpse-detail/8840",
            "website": "marketingindahlogistik.com"
        },
        {
            "id": "9cb1abbc-da1d-4250-9226-5fb0a862be6d",
            "nama_pse": "SHUKSHUK INDONESIA BARU",
            "nama_se": "SHUKSHUK",
            "sektor": "Sektor Perdagangan",
            "tanggal_terbit": "2022-07-22",
            "url_tdpse_detail": "https://pse.komdigi.go.id/tdpse-detail/8848",
            "website": "shukshuk.com"
        },
        {
            "id": "9cb1abf2-ca79-45ea-a832-d6213ec2255d",
            "nama_pse": "BANK PEREKONOMIAN RAKYAT TUTUR GANDA",
            "nama_se": "SISTEM INFORMASI BPR TUTUR GANDA",
            "sektor": "Sektor Keuangan",
            "tanggal_terbit": "2022-07-22",
            "url_tdpse_detail": "https://pse.komdigi.go.id/tdpse-detail/8841",
            "website": "bprtuturganda.com"
        },
        {
            "id": "9cb1abbc-dd54-47a3-9d6b-d0d224141bc3",
            "nama_pse": "BANK PERKREDITAN RAKYAT SANGGABUANA AGUNG",
            "nama_se": "WEBSITE PT BPR SANGGABUANA AGUNG",
            "sektor": "Sektor Keuangan",
            "tanggal_terbit": "2022-07-22",
            "url_tdpse_detail": "https://pse.komdigi.go.id/tdpse-detail/8843",
            "website": "bprsba.co.id"
        },
        {
            "id": "9cb1abf2-ce1b-49e3-9f2d-05cf1ef2ae7e",
            "nama_pse": "PUTERA KONSEPINDO",
            "nama_se": "OBERMAIN ID ONLINE",
            "sektor": "Sektor Perdagangan",
            "tanggal_terbit": "2022-07-22",
            "url_tdpse_detail": "https://pse.komdigi.go.id/tdpse-detail/8842",
            "website": "obermain.co.id"
        },
        {
            "id": "9cb1abcc-e0a5-4145-94f8-788c0aa93e5b",
            "nama_pse": "BANK PEREKONOMIAN RAKYAT WAHYU NIRMALA",
            "nama_se": "IBS COLLECT",
            "sektor": "Sektor Keuangan",
            "tanggal_terbit": "2022-07-22",
            "url_tdpse_detail": "https://pse.komdigi.go.id/tdpse-detail/8844",
            "website": "bprwahyunirmala.com"
        },
        {
            "id": "9cb1abf2-d329-486b-8f12-5d1a8f46146d",
            "nama_pse": "BANK PERKREDITAN RAKYAT MUSI ARTA LESTARI",
            "nama_se": "PT. BPR MUSI ARTA LESTARI",
            "sektor": "Sektor Keuangan",
            "tanggal_terbit": "2022-07-22",
            "url_tdpse_detail": "https://pse.komdigi.go.id/tdpse-detail/8845",
            "website": "bprmal.com"
        },
        {
            "id": "9cb1abcc-e3f5-4bdc-90b8-9edb682c3d2b",
            "nama_pse": "INDAH LOGISTIK",
            "nama_se": "INDAHLOGISTIK",
            "sektor": "Sektor Teknologi Informasi dan Komunikasi",
            "tanggal_terbit": "2022-07-22",
            "url_tdpse_detail": "https://pse.komdigi.go.id/tdpse-detail/8846",
            "website": "indahlogistik.co.id"
        },
        {
            "id": "9cb1abf2-d6e8-4e55-9902-7ca918e4d5be",
            "nama_pse": "UNIVERSAL BROKER INDONESIA SEKURITAS",
            "nama_se": "EZYDEAL 7 BY DIGISAHAM",
            "sektor": "Sektor Perdagangan, Sektor Keuangan, Sektor Teknologi Informasi dan Komunikasi",
            "tanggal_terbit": "2022-07-22",
            "url_tdpse_detail": "https://pse.komdigi.go.id/tdpse-detail/8849",
            "website": "universalbroker.co.id"
        },
        {
            "id": "9cb1abbc-e1d2-4021-aeaf-3f4d0953f429",
            "nama_pse": "BANK PEREKONOMIAN RAKYAT NATUNA",
            "nama_se": "BPRNATUNA",
            "sektor": "Sektor Keuangan",
            "tanggal_terbit": "2022-07-22",
            "url_tdpse_detail": "https://pse.komdigi.go.id/tdpse-detail/8850",
            "website": "bprnatuna.com"
        },
        {
            "id": "9cb1abbc-e58e-4e9b-b80b-c29962569f45",
            "nama_pse": "VEXANIUM TEKNOLOGI NUSANTARA",
            "nama_se": "VEXASCAN.COM",
            "sektor": "Sektor Teknologi Informasi dan Komunikasi",
            "tanggal_terbit": "2022-07-22",
            "url_tdpse_detail": "https://pse.komdigi.go.id/tdpse-detail/8851",
            "website": "-"
        },
        {
            "id": "9cb1abcc-e94f-4722-b761-dabcb139acaa",
            "nama_pse": "ZETTA SEHATI NUSANTARA",
            "nama_se": "SEHATI BIDAN",
            "sektor": "Sektor Kesehatan, Sektor Teknologi Informasi dan Komunikasi",
            "tanggal_terbit": "2022-07-22",
            "url_tdpse_detail": "https://pse.komdigi.go.id/tdpse-detail/8854",
            "website": "sehati.co"
        },
        {
            "id": "9cb1abf2-db21-49af-bf3c-a18ba692fffd",
            "nama_pse": "INDAH YATAMA",
            "nama_se": "YATAMA165",
            "sektor": "Sektor Teknologi Informasi dan Komunikasi",
            "tanggal_terbit": "2022-07-22",
            "url_tdpse_detail": "https://pse.komdigi.go.id/tdpse-detail/8852",
            "website": "yatama165.com"
        },
        {
            "id": "9cb1abf2-e06c-4faa-b4cf-cdfbf74c0f49",
            "nama_pse": "BANK PEREKONOMIAN RAKYAT SADANA UTAMA BALI",
            "nama_se": "WEBSITE BPR SADANA",
            "sektor": "Sektor Keuangan",
            "tanggal_terbit": "2022-07-22",
            "url_tdpse_detail": "https://pse.komdigi.go.id/tdpse-detail/8853",
            "website": "bprsadana.co.id"
        },
        {
            "id": "9cb1abf2-e50f-40c4-8fa0-ba1c4e22f44a",
            "nama_pse": "KONTAKPERKASA FUTURES",
            "nama_se": "PORTAL NEWS",
            "sektor": "Sektor Perdagangan, Sektor Keuangan",
            "tanggal_terbit": "2022-07-22",
            "url_tdpse_detail": "https://pse.komdigi.go.id/tdpse-detail/8855",
            "website": "kp-press.com"
        },
        {
            "id": "9cb1abf2-ef5d-4c5e-94cc-a58303535117",
            "nama_pse": "NUSASTI KHENAI RAYA",
            "nama_se": "WE-HUB.CO",
            "sektor": "Sektor Perdagangan, Sektor Teknologi Informasi dan Komunikasi, Sektor Pangan",
            "tanggal_terbit": "2022-07-22",
            "url_tdpse_detail": "https://pse.komdigi.go.id/tdpse-detail/8871",
            "website": "we-hub.co"
        },
        {
            "id": "9cb1abbc-e983-45f0-8a37-d7228ed25824",
            "nama_pse": "INDAH YATAMA",
            "nama_se": "MARKETINGINDAHYATAMA",
            "sektor": "Sektor Teknologi Informasi dan Komunikasi",
            "tanggal_terbit": "2022-07-22",
            "url_tdpse_detail": "https://pse.komdigi.go.id/tdpse-detail/8856",
            "website": "marketingindahyatama.com"
        },
        {
            "id": "9cb1abbc-eed4-44a6-aa45-63f7d2e9e3d6",
            "nama_pse": "BANK PERKREDITAN RAKYAT ULATIDANA RAHAYU",
            "nama_se": "WEBSITE BPR UDARY",
            "sektor": "Sektor Keuangan",
            "tanggal_terbit": "2022-07-22",
            "url_tdpse_detail": "https://pse.komdigi.go.id/tdpse-detail/8859",
            "website": "bprudary.com"
        },
        {
            "id": "9cb1abcc-ee56-4eb9-a87f-e0fa950a5836",
            "nama_pse": "PD BPR BANK DAERAH BOJONEGORO",
            "nama_se": "PD BPR BANK DAERAH BOJONEGORO",
            "sektor": "Sektor Teknologi Informasi dan Komunikasi",
            "tanggal_terbit": "2022-07-22",
            "url_tdpse_detail": "https://pse.komdigi.go.id/tdpse-detail/8860",
            "website": "bankdaerahbojonegoro.com"
        },
        {
            "id": "9cb1abbc-f1a0-4034-8ee5-f15cb3e63aab",
            "nama_pse": "KONTAKPERKASA FUTURES",
            "nama_se": "TRADEPROFX",
            "sektor": "Sektor Perdagangan, Sektor Keuangan",
            "tanggal_terbit": "2022-07-22",
            "url_tdpse_detail": "https://pse.komdigi.go.id/tdpse-detail/8861",
            "website": "-"
        }
    ],
    "processingTimeMs": 4,
    "query": "",
    "totalHits": 19131,
    "hitsPerPage": 50,
    "page": 225,
    "totalPages": 383
}