{
    "hits": [
        {
            "id": "9cdd21d6-b167-4fe5-8bd2-3c46303bc5ad",
            "nama_pse": "MNC ASURANSI INDONESIA",
            "nama_se": "MOTION SAFE",
            "sektor": "Sektor Keuangan",
            "tanggal_terbit": "2024-08-27",
            "url_tdpse_detail": "https://pse.komdigi.go.id/tdpse-detail/20136",
            "website": "-"
        },
        {
            "id": "9cdcde24-796d-47b1-935f-d325e432d563",
            "nama_pse": "MARADEKATECH",
            "nama_se": "simkemas",
            "sektor": "Sektor Teknologi Informasi dan Komunikasi",
            "tanggal_terbit": "2024-08-27",
            "url_tdpse_detail": "https://pse.komdigi.go.id/tdpse-detail/20128",
            "website": "simkemas.maradekatech.com"
        },
        {
            "id": "9cdd00a3-5448-4ff7-b8de-c75e0d8d30c2",
            "nama_pse": "ARIEL",
            "nama_se": "GRAPHIE",
            "sektor": "Sektor Teknologi Informasi dan Komunikasi",
            "tanggal_terbit": "2024-08-27",
            "url_tdpse_detail": "https://pse.komdigi.go.id/tdpse-detail/20131",
            "website": "graphie.co.id"
        },
        {
            "id": "9cdce93b-9279-4d03-88f6-9f9ceb09f9ba",
            "nama_pse": "ASTRA HONDA MOTOR",
            "nama_se": "HONDA ROADSYNC",
            "sektor": "Sektor Perdagangan, Sektor Transportasi",
            "tanggal_terbit": "2024-08-27",
            "url_tdpse_detail": "https://pse.komdigi.go.id/tdpse-detail/20130",
            "website": "-"
        },
        {
            "id": "9cdd06aa-2118-4b1f-ae2e-0d9ccef7979d",
            "nama_pse": "MAJELIS PENDIDIKAN TINGGI KAHMI",
            "nama_se": "AICLASS (LEARNING MANAGEMENT SYSTEM – FEATURING ARTIFICIAL INTELLIGENCE)",
            "sektor": "Sektor Teknologi Informasi dan Komunikasi",
            "tanggal_terbit": "2024-08-27",
            "url_tdpse_detail": "https://pse.komdigi.go.id/tdpse-detail/20132",
            "website": "uici.ac.id"
        },
        {
            "id": "9cdd219c-9ba3-4959-a65c-e7af23d00453",
            "nama_pse": "ASURANSI JIWA SYARIAH KITABISA",
            "nama_se": "asuransikitabisa.com",
            "sektor": "Sektor Keuangan",
            "tanggal_terbit": "2024-08-27",
            "url_tdpse_detail": "https://pse.komdigi.go.id/tdpse-detail/20135",
            "website": "asuransikitabisa.com"
        },
        {
            "id": "9cdd3a47-4c3b-4292-bf1e-012d0c5e63d2",
            "nama_pse": "TYMY TEH INDONESIA",
            "nama_se": "TYMYS",
            "sektor": "Sektor Teknologi Informasi dan Komunikasi",
            "tanggal_terbit": "2024-08-27",
            "url_tdpse_detail": "https://pse.komdigi.go.id/tdpse-detail/20137",
            "website": "ctid.tymys.com"
        },
        {
            "id": "9cdd7490-8219-4763-ab10-5f30f8a2f12d",
            "nama_pse": "TIGA PUTRA BANGKA BERSATU",
            "nama_se": "3Putra Hotel Tour",
            "sektor": "Sektor Transportasi",
            "tanggal_terbit": "2024-08-27",
            "url_tdpse_detail": "https://pse.komdigi.go.id/tdpse-detail/20143",
            "website": "3putrahoteltour.com"
        },
        {
            "id": "9cdd4c17-7536-4153-af1b-ec8f1d735b21",
            "nama_pse": "SOLUSI KEUANGAN BERSAMA",
            "nama_se": "BISALUNAS",
            "sektor": "Sektor Perdagangan",
            "tanggal_terbit": "2024-08-27",
            "url_tdpse_detail": "https://pse.komdigi.go.id/tdpse-detail/20138",
            "website": "bisalunas.id"
        },
        {
            "id": "9cdd67f8-56c7-4be7-a3c7-081de6b117f0",
            "nama_pse": "BESARINDO JAYA SUKSES",
            "nama_se": "BESA IINDO JAYA SUKSES",
            "sektor": "Sektor Perdagangan",
            "tanggal_terbit": "2024-08-27",
            "url_tdpse_detail": "https://pse.komdigi.go.id/tdpse-detail/20140",
            "website": "besarindojayasukses.web.id"
        },
        {
            "id": "9cdd6ba6-01aa-44f8-9b48-b3edd1a3e892",
            "nama_pse": "ANAGATA MAHAKARYA SEJAHTERA",
            "nama_se": "KONSULTAN MANAJEMEN BISNIS",
            "sektor": "Sektor Perdagangan",
            "tanggal_terbit": "2024-08-27",
            "url_tdpse_detail": "https://pse.komdigi.go.id/tdpse-detail/20141",
            "website": "perizinanusahaptams.co.id"
        },
        {
            "id": "9cdd72a5-2417-41db-9cc8-7b50c035ace6",
            "nama_pse": "SOLUTOPIA UNTUK NUSANTARA",
            "nama_se": "SPUN",
            "sektor": "Sektor Teknologi Informasi dan Komunikasi",
            "tanggal_terbit": "2024-08-27",
            "url_tdpse_detail": "https://pse.komdigi.go.id/tdpse-detail/20142",
            "website": "spun.global"
        },
        {
            "id": "9cdd9698-be16-407d-9bd5-4a2647c6ccb6",
            "nama_pse": "CITRA NAYARA VISUAL",
            "nama_se": "SUARA TABANAN",
            "sektor": "Sektor Teknologi Informasi dan Komunikasi",
            "tanggal_terbit": "2024-08-27",
            "url_tdpse_detail": "https://pse.komdigi.go.id/tdpse-detail/20145",
            "website": "SuaraTabanan.ID"
        },
        {
            "id": "9cdd57e6-622b-4904-8a50-d10288f08170",
            "nama_pse": "DOROTHEE AND BENOIT BALI",
            "nama_se": "GO NANNY",
            "sektor": "Sektor Perdagangan",
            "tanggal_terbit": "2024-08-27",
            "url_tdpse_detail": "https://pse.komdigi.go.id/tdpse-detail/20139",
            "website": "go-nanny.id"
        },
        {
            "id": "9cdbc50a-4f77-4c12-9cca-c022651d46c3",
            "nama_pse": "AKHMAD GILANG",
            "nama_se": "LAYANAN RT RW NET LOKAL",
            "sektor": "Sektor Teknologi Informasi dan Komunikasi",
            "tanggal_terbit": "2024-08-26",
            "url_tdpse_detail": "https://pse.komdigi.go.id/tdpse-detail/20122",
            "website": "-"
        },
        {
            "id": "9cdae8a9-02b1-4cf3-866d-ef136843496e",
            "nama_pse": "LABORATORIUM BUNDA THAMRIN",
            "nama_se": "PROGRAM KLINIK BUNDA THAMRIN",
            "sektor": "Sektor Kesehatan",
            "tanggal_terbit": "2024-08-26",
            "url_tdpse_detail": "https://pse.komdigi.go.id/tdpse-detail/20109",
            "website": "-"
        },
        {
            "id": "9cdae101-98e7-4762-9f16-b97c3882c417",
            "nama_pse": "SOCIETY OF RENEWABLE ENERGY INDONESIA",
            "nama_se": "SHUPERSTORE",
            "sektor": "Sektor Perdagangan",
            "tanggal_terbit": "2024-08-26",
            "url_tdpse_detail": "https://pse.komdigi.go.id/tdpse-detail/20106",
            "website": "shuperstore.com"
        },
        {
            "id": "9cdae873-3e2b-45ea-b719-ab3b7e741ec7",
            "nama_pse": "MANDALA CITRA UTAMA",
            "nama_se": "MANDALA STORE",
            "sektor": "Sektor Perdagangan, Sektor Teknologi Informasi dan Komunikasi",
            "tanggal_terbit": "2024-08-26",
            "url_tdpse_detail": "https://pse.komdigi.go.id/tdpse-detail/20108",
            "website": "store.mandalacv.com"
        },
        {
            "id": "9cdb30fc-1cbb-44ba-92e4-5407e6d7cc98",
            "nama_pse": "LIVEIN HADAPAN KORPRASI",
            "nama_se": "LIVEIN",
            "sektor": "Sektor Perdagangan",
            "tanggal_terbit": "2024-08-26",
            "url_tdpse_detail": "https://pse.komdigi.go.id/tdpse-detail/20112",
            "website": "home.livein.com"
        },
        {
            "id": "9cdb3aac-9c72-494b-8259-c61e5905b576",
            "nama_pse": "PESAKU DIGITAL SOLUTION",
            "nama_se": "PESAKU DIGITAL SOLUTION",
            "sektor": "Sektor Perdagangan",
            "tanggal_terbit": "2024-08-26",
            "url_tdpse_detail": "https://pse.komdigi.go.id/tdpse-detail/20113",
            "website": "pesaku.com"
        },
        {
            "id": "9cdae209-be37-4e2d-b30a-b07898952a3e",
            "nama_pse": "FIX DULU SEMUA SENANG",
            "nama_se": "FIX BOOKING",
            "sektor": "Sektor Teknologi Informasi dan Komunikasi",
            "tanggal_terbit": "2024-08-26",
            "url_tdpse_detail": "https://pse.komdigi.go.id/tdpse-detail/20107",
            "website": "fix.co.id"
        },
        {
            "id": "9cdb2044-a810-47cd-a177-014d6d84ec85",
            "nama_pse": "NEURA INTEGRASI SOLUSI",
            "nama_se": "NEURABOT PLATFORM MYLAB",
            "sektor": "Sektor Kesehatan, Sektor Teknologi Informasi dan Komunikasi",
            "tanggal_terbit": "2024-08-26",
            "url_tdpse_detail": "https://pse.komdigi.go.id/tdpse-detail/20111",
            "website": "neurabot.ai"
        },
        {
            "id": "9cdb72f0-843e-41ee-b148-d31db1b3c878",
            "nama_pse": "NUSANTARA PUBLIK MULTIMEDIA",
            "nama_se": "PT. NUSANTARA PUBLIK MULTIMEDIA",
            "sektor": "Sektor Teknologi Informasi dan Komunikasi",
            "tanggal_terbit": "2024-08-26",
            "url_tdpse_detail": "https://pse.komdigi.go.id/tdpse-detail/20119",
            "website": "-"
        },
        {
            "id": "9cdb62d1-5a98-4cf9-90f9-bbe1ea859e68",
            "nama_pse": "TRIO MOTOR",
            "nama_se": "APLIKASI BAHUNDA",
            "sektor": "Sektor Perdagangan",
            "tanggal_terbit": "2024-08-26",
            "url_tdpse_detail": "https://pse.komdigi.go.id/tdpse-detail/20117",
            "website": "-"
        },
        {
            "id": "9cdb3ebe-9f25-49db-924f-cbfbb529fb4b",
            "nama_pse": "BIMA SEWAKA MADANI",
            "nama_se": "eSewaka",
            "sektor": "Sektor Perdagangan, Sektor Kesehatan, Sektor Teknologi Informasi dan Komunikasi",
            "tanggal_terbit": "2024-08-26",
            "url_tdpse_detail": "https://pse.komdigi.go.id/tdpse-detail/20114",
            "website": "esewaka.co.id"
        },
        {
            "id": "9cdbc208-43ed-4b98-acff-874e0daf7510",
            "nama_pse": "AKHMAD GILANG",
            "nama_se": "LAYANAN RT RW NET",
            "sektor": "Sektor Teknologi Informasi dan Komunikasi",
            "tanggal_terbit": "2024-08-26",
            "url_tdpse_detail": "https://pse.komdigi.go.id/tdpse-detail/20121",
            "website": "-"
        },
        {
            "id": "9cdbcca7-31f5-4f7d-912d-2676e795b4df",
            "nama_pse": "AKHMAD GILANG",
            "nama_se": "LIKWAN.NET",
            "sektor": "Sektor Teknologi Informasi dan Komunikasi",
            "tanggal_terbit": "2024-08-26",
            "url_tdpse_detail": "https://pse.komdigi.go.id/tdpse-detail/20123",
            "website": "-"
        },
        {
            "id": "9cdb6a6b-f91f-40c3-b74d-1d1a24bed986",
            "nama_pse": "ATOME FINANCE INDONESIA",
            "nama_se": "ATOME ID - SHOP NOW PAY LATER",
            "sektor": "Sektor Perdagangan",
            "tanggal_terbit": "2024-08-26",
            "url_tdpse_detail": "https://pse.komdigi.go.id/tdpse-detail/20118",
            "website": "atome.id"
        },
        {
            "id": "9cdb792a-3c8e-435e-8c8d-317a93a4fceb",
            "nama_pse": "ATOME FINANCE INDONESIA",
            "nama_se": "ATOME ID - SHOP NOW PAY LATER (APLIKASI)",
            "sektor": "Sektor Perdagangan",
            "tanggal_terbit": "2024-08-26",
            "url_tdpse_detail": "https://pse.komdigi.go.id/tdpse-detail/20120",
            "website": "-"
        },
        {
            "id": "9cdbcf03-0e7c-4e83-a68f-f2324abd72dc",
            "nama_pse": "AKHMAD GILANG",
            "nama_se": "KUMAPI.NET",
            "sektor": "Sektor Teknologi Informasi dan Komunikasi",
            "tanggal_terbit": "2024-08-26",
            "url_tdpse_detail": "https://pse.komdigi.go.id/tdpse-detail/20124",
            "website": "-"
        },
        {
            "id": "9cdc1425-24ac-4105-b80b-58f6dc8fcec3",
            "nama_pse": "NUSANTARA PUBLIK MULTIMEDIA",
            "nama_se": "nusantarapublik.co.id",
            "sektor": "Sektor Teknologi Informasi dan Komunikasi",
            "tanggal_terbit": "2024-08-26",
            "url_tdpse_detail": "https://pse.komdigi.go.id/tdpse-detail/20126",
            "website": "nusantarapublik.co.id"
        },
        {
            "id": "9cdb5bef-36c3-46d7-b716-a5fd4ebec491",
            "nama_pse": "NEXAGATE SIBER SEKURITI",
            "nama_se": "NSI",
            "sektor": "Sektor Teknologi Informasi dan Komunikasi",
            "tanggal_terbit": "2024-08-26",
            "url_tdpse_detail": "https://pse.komdigi.go.id/tdpse-detail/20116",
            "website": "nexagate.id"
        },
        {
            "id": "9cdb065d-be1a-4861-912a-9c833dae615a",
            "nama_pse": "INOVASI IDE CEMERLANG",
            "nama_se": "IDEMEDIKA",
            "sektor": "Sektor Kesehatan, Sektor Teknologi Informasi dan Komunikasi",
            "tanggal_terbit": "2024-08-26",
            "url_tdpse_detail": "https://pse.komdigi.go.id/tdpse-detail/20110",
            "website": "idemedika.com"
        },
        {
            "id": "9cdb5a51-691c-4ab7-8815-e5bf9c229be9",
            "nama_pse": "DIGITAL ESA KARSA",
            "nama_se": "LAHELU",
            "sektor": "Sektor Teknologi Informasi dan Komunikasi",
            "tanggal_terbit": "2024-08-26",
            "url_tdpse_detail": "https://pse.komdigi.go.id/tdpse-detail/20115",
            "website": "lahelu.com"
        },
        {
            "id": "9cd8794f-2cb6-4867-984f-be47a7d58197",
            "nama_pse": "XORA CITRA LESTARI",
            "nama_se": "XORALYTIC.COM",
            "sektor": "Sektor Teknologi Informasi dan Komunikasi",
            "tanggal_terbit": "2024-08-25",
            "url_tdpse_detail": "https://pse.komdigi.go.id/tdpse-detail/20099",
            "website": "xoralytic.com"
        },
        {
            "id": "9cd85deb-211e-4898-b73b-6ef3f6e3f630",
            "nama_pse": "XORA CITRA LESTARI",
            "nama_se": "MEDIAIDN.COM",
            "sektor": "Sektor Teknologi Informasi dan Komunikasi",
            "tanggal_terbit": "2024-08-25",
            "url_tdpse_detail": "https://pse.komdigi.go.id/tdpse-detail/20098",
            "website": "mediaidn.com"
        },
        {
            "id": "9cd8df4c-3958-4187-813a-0bd32b08bbe0",
            "nama_pse": "SAFATANC TECHNOLOGY DIGITAL",
            "nama_se": "SAFATANC TECHNOLOGY",
            "sektor": "Sektor Teknologi Informasi dan Komunikasi",
            "tanggal_terbit": "2024-08-25",
            "url_tdpse_detail": "https://pse.komdigi.go.id/tdpse-detail/20101",
            "website": "safatanc.com"
        },
        {
            "id": "9cd8ffe6-4b65-4ecf-9bac-cd34d5aa3898",
            "nama_pse": "METRO INDO GROUP",
            "nama_se": "metroindonews.com",
            "sektor": "Sektor Teknologi Informasi dan Komunikasi",
            "tanggal_terbit": "2024-08-25",
            "url_tdpse_detail": "https://pse.komdigi.go.id/tdpse-detail/20102",
            "website": "metroindonews.com"
        },
        {
            "id": "9cd8900c-8c6e-47eb-b0cd-2dedde224c04",
            "nama_pse": "EGOSANDI JUMRAN",
            "nama_se": "ELDATA HOTSPOT",
            "sektor": "Sektor Teknologi Informasi dan Komunikasi",
            "tanggal_terbit": "2024-08-25",
            "url_tdpse_detail": "https://pse.komdigi.go.id/tdpse-detail/20100",
            "website": "-"
        },
        {
            "id": "9cd9abcb-d034-41d1-9203-c9a18db2d59a",
            "nama_pse": "DIRGA JARINGAN NUSANTARA",
            "nama_se": "PT. DIRGA JARINGAN NUSANTARA",
            "sektor": "Sektor Teknologi Informasi dan Komunikasi",
            "tanggal_terbit": "2024-08-25",
            "url_tdpse_detail": "https://pse.komdigi.go.id/tdpse-detail/20104",
            "website": "djn.co.id"
        },
        {
            "id": "9cd9addf-d1ed-4d20-b889-333e2c2d0572",
            "nama_pse": "SENTRA VIDYA UTAMA",
            "nama_se": "KARIRLINK",
            "sektor": "Sektor Teknologi Informasi dan Komunikasi",
            "tanggal_terbit": "2024-08-25",
            "url_tdpse_detail": "https://pse.komdigi.go.id/tdpse-detail/20105",
            "website": "karirlink.id"
        },
        {
            "id": "9cd9a21e-c127-4bd2-85c9-a3ba5d911a14",
            "nama_pse": "SENTRA VIDYA UTAMA",
            "nama_se": "maukuliah.id",
            "sektor": "Sektor Teknologi Informasi dan Komunikasi",
            "tanggal_terbit": "2024-08-25",
            "url_tdpse_detail": "https://pse.komdigi.go.id/tdpse-detail/20103",
            "website": "maukuliah.id"
        },
        {
            "id": "9cd75808-692e-4e45-bd1b-095e677a8a31",
            "nama_pse": "ANDI PERMANA",
            "nama_se": "PENYEDIA JASA STREAMING MEDIA",
            "sektor": "Sektor Perdagangan",
            "tanggal_terbit": "2024-08-24",
            "url_tdpse_detail": "https://pse.komdigi.go.id/tdpse-detail/20095",
            "website": "-"
        },
        {
            "id": "9cd7d520-c0c9-4fdf-ae66-789c0391a471",
            "nama_pse": "KARYA PUTRA GANESHA",
            "nama_se": "calobisnis.com",
            "sektor": "Sektor Perdagangan",
            "tanggal_terbit": "2024-08-24",
            "url_tdpse_detail": "https://pse.komdigi.go.id/tdpse-detail/20096",
            "website": "cuanceban.com"
        },
        {
            "id": "9cd6cfe3-b972-428b-8dbb-3657abf67312",
            "nama_pse": "CEMERLANG DAYA SUKSES",
            "nama_se": "https://ijabahberkah.shop",
            "sektor": "Sektor Perdagangan",
            "tanggal_terbit": "2024-08-24",
            "url_tdpse_detail": "https://pse.komdigi.go.id/tdpse-detail/20093",
            "website": "-"
        },
        {
            "id": "9cb1ac5c-9073-459d-ad0e-1a0007b82553",
            "nama_pse": "TRANS FIBER NET",
            "nama_se": "TRANS FIBER NET",
            "sektor": "Sektor Perdagangan",
            "tanggal_terbit": "2024-08-24",
            "url_tdpse_detail": "https://pse.komdigi.go.id/tdpse-detail/20097",
            "website": "transfiber.net"
        },
        {
            "id": "9cd719ec-6cbc-4f10-9896-276f401e748d",
            "nama_pse": "DIGITAL PANTURA TELEMATIKA",
            "nama_se": "SEDAYU MEDIA TECHNOLOGI",
            "sektor": "Sektor Perdagangan, Sektor Teknologi Informasi dan Komunikasi, Sektor Pangan",
            "tanggal_terbit": "2024-08-24",
            "url_tdpse_detail": "https://pse.komdigi.go.id/tdpse-detail/20094",
            "website": "-"
        },
        {
            "id": "9cd4f194-a78a-4a52-b85c-b482110229ac",
            "nama_pse": "PANGURIPAN DJOYO ALAM SEJAHTERA",
            "nama_se": "PTPADAS",
            "sektor": "Sektor Perdagangan, Sektor Energi dan Sumber Daya Mineral, Sektor Transportasi",
            "tanggal_terbit": "2024-08-23",
            "url_tdpse_detail": "https://pse.komdigi.go.id/tdpse-detail/20079",
            "website": "-"
        },
        {
            "id": "9cd4fa68-2349-4eae-b274-4aedcda98265",
            "nama_pse": "INDITEK GLOBAL MEDIKA",
            "nama_se": "DIANESHACARE",
            "sektor": "Sektor Kesehatan, Sektor Teknologi Informasi dan Komunikasi",
            "tanggal_terbit": "2024-08-23",
            "url_tdpse_detail": "https://pse.komdigi.go.id/tdpse-detail/20080",
            "website": "-"
        },
        {
            "id": "9cd526b0-2a90-4140-a698-4cdc898a6c5a",
            "nama_pse": "CRYPTO STAKING TECHNOLOGY",
            "nama_se": "CRYPTO STAKING TECHNOLOGY",
            "sektor": "Sektor Teknologi Informasi dan Komunikasi",
            "tanggal_terbit": "2024-08-23",
            "url_tdpse_detail": "https://pse.komdigi.go.id/tdpse-detail/20084",
            "website": "-"
        }
    ],
    "processingTimeMs": 4,
    "query": "",
    "totalHits": 19131,
    "hitsPerPage": 50,
    "page": 45,
    "totalPages": 383
}