{
    "hits": [
        {
            "id": "9cb1abbc-3ac9-4b24-b12a-dfc41e171f34",
            "nama_pse": "DELAPAN BELAS HOLE",
            "nama_se": "18HOLE",
            "sektor": "Sektor Teknologi Informasi dan Komunikasi",
            "tanggal_terbit": "2022-07-21",
            "url_tdpse_detail": "https://pse.komdigi.go.id/tdpse-detail/8631",
            "website": "18hole.id"
        },
        {
            "id": "9cb1abcb-819d-47a6-b1a6-93f18c00b667",
            "nama_pse": "BANK PERKREDITAN RAKYAT BADAN KREDIT KECAMATAN BOYOLALI",
            "nama_se": "QRIS BPR BKK BOYOLALI",
            "sektor": "Sektor Keuangan",
            "tanggal_terbit": "2022-07-21",
            "url_tdpse_detail": "https://pse.komdigi.go.id/tdpse-detail/8633",
            "website": "bprbkkboyolali.com"
        },
        {
            "id": "9cb1abbc-3cf4-4fb6-aff3-1ff353e3028c",
            "nama_pse": "BANK PEMBANGUNAN DAERAH KALIMANTAN TIMUR DAN KALIMANTAN UTARA",
            "nama_se": "ATKP PT BPD KALTIM KALTARA",
            "sektor": "Sektor Keuangan",
            "tanggal_terbit": "2022-07-21",
            "url_tdpse_detail": "https://pse.komdigi.go.id/tdpse-detail/8635",
            "website": "atkp.bankaltimtara.co.id"
        },
        {
            "id": "9cb1abf1-619f-4d9a-8f20-f8034c8b495a",
            "nama_pse": "EQUITYWORLD FUTURES",
            "nama_se": "REGOLEWF",
            "sektor": "Sektor Perdagangan, Sektor Keuangan",
            "tanggal_terbit": "2022-07-21",
            "url_tdpse_detail": "https://pse.komdigi.go.id/tdpse-detail/8636",
            "website": "regol.equityworld-futures.co.id"
        },
        {
            "id": "9cb1abcb-883b-479a-8d82-fa15088f5b5d",
            "nama_pse": "REALTIME FOREX INDONESIA",
            "nama_se": "METATRADER 5",
            "sektor": "Sektor Perdagangan, Sektor Keuangan",
            "tanggal_terbit": "2022-07-21",
            "url_tdpse_detail": "https://pse.komdigi.go.id/tdpse-detail/8638",
            "website": "rtfi.co.id"
        },
        {
            "id": "9cb1abbc-3eaf-4d06-8b01-10cb8191579e",
            "nama_pse": "BANK PERKREDITAN RAKYAT BADAN KREDIT KECAMATAN BOYOLALI",
            "nama_se": "IBS BRANCHLESS PT BPR BKK BOYOLALI",
            "sektor": "Sektor Keuangan",
            "tanggal_terbit": "2022-07-21",
            "url_tdpse_detail": "https://pse.komdigi.go.id/tdpse-detail/8639",
            "website": "bprbkkboyolali.com"
        },
        {
            "id": "9cb1abcb-8da7-4856-88b9-36e553c4d204",
            "nama_pse": "KONTAKPERKASA FUTURES",
            "nama_se": "OFFICIAL WEBSITE",
            "sektor": "Sektor Perdagangan, Sektor Keuangan",
            "tanggal_terbit": "2022-07-21",
            "url_tdpse_detail": "https://pse.komdigi.go.id/tdpse-detail/8640",
            "website": "kp-futures.com"
        },
        {
            "id": "9cb1abbc-404c-46db-9f82-4c394834493f",
            "nama_pse": "PRIMA SYIRKAH INTERNATIONAL",
            "nama_se": "AFAHIJAB.COM",
            "sektor": "Sektor Perdagangan",
            "tanggal_terbit": "2022-07-21",
            "url_tdpse_detail": "https://pse.komdigi.go.id/tdpse-detail/8641",
            "website": "afahijab.com"
        },
        {
            "id": "9cb1abbc-42d9-4fd5-a870-6cbf7f66c1e2",
            "nama_pse": "PASAR KUOTA NUSANTARA",
            "nama_se": "PASAR KUOTA",
            "sektor": "Sektor Perdagangan, Sektor Teknologi Informasi dan Komunikasi",
            "tanggal_terbit": "2022-07-21",
            "url_tdpse_detail": "https://pse.komdigi.go.id/tdpse-detail/8642",
            "website": "pasarkuota.com"
        },
        {
            "id": "9cb1abf1-6505-4f89-a859-09a39c758382",
            "nama_pse": "BITS MILIARTHA",
            "nama_se": "BEECLOUD",
            "sektor": "Sektor Teknologi Informasi dan Komunikasi",
            "tanggal_terbit": "2022-07-21",
            "url_tdpse_detail": "https://pse.komdigi.go.id/tdpse-detail/8643",
            "website": "beecloud.id"
        },
        {
            "id": "9cb1abbc-4483-4d0f-baea-ecd76e422e01",
            "nama_pse": "JAWARA SOLUSI NUSANTARA",
            "nama_se": "HAI DAFAM",
            "sektor": "Sektor Perdagangan, Sektor Teknologi Informasi dan Komunikasi",
            "tanggal_terbit": "2022-07-21",
            "url_tdpse_detail": "https://pse.komdigi.go.id/tdpse-detail/8644",
            "website": "-"
        },
        {
            "id": "9cb1abcb-934b-41c9-b161-fac6e2a3a4ee",
            "nama_pse": "EQUITYWORLD FUTURES",
            "nama_se": "OFFICIAL WEBSITE",
            "sektor": "Sektor Perdagangan, Sektor Keuangan",
            "tanggal_terbit": "2022-07-21",
            "url_tdpse_detail": "https://pse.komdigi.go.id/tdpse-detail/8645",
            "website": "equityworld-futures.com"
        },
        {
            "id": "9cb1abf1-6b0d-4aa7-acf7-de2cb2f50640",
            "nama_pse": "MITRA JASA LEGALITAS",
            "nama_se": "MITRA JASA LEGALITAS",
            "sektor": "Sektor Teknologi Informasi dan Komunikasi",
            "tanggal_terbit": "2022-07-21",
            "url_tdpse_detail": "https://pse.komdigi.go.id/tdpse-detail/8646",
            "website": "mitrajasalegalitas.com"
        },
        {
            "id": "9cb1abcb-9745-4fd9-8dec-a46aa2793a95",
            "nama_pse": "FAHMI SANTOSO",
            "nama_se": "JAJANAN DIGITAL",
            "sektor": "Sektor Perdagangan",
            "tanggal_terbit": "2022-07-21",
            "url_tdpse_detail": "https://pse.komdigi.go.id/tdpse-detail/8647",
            "website": "jadiapps.bukaolshop.site"
        },
        {
            "id": "9cb1abf1-6e99-416b-b238-a139646cdcbc",
            "nama_pse": "ELECTRONIC DATA INTERCHANGE INDONESIA",
            "nama_se": "E-CMOS",
            "sektor": "Sektor Teknologi Informasi dan Komunikasi",
            "tanggal_terbit": "2022-07-21",
            "url_tdpse_detail": "https://pse.komdigi.go.id/tdpse-detail/8654",
            "website": "e-cmos.com"
        },
        {
            "id": "9cb1abf1-71b9-4c7c-aa5b-a2d24ca55320",
            "nama_pse": "BANK PERKREDITAN RAKYAT SINAR MAS PELITA",
            "nama_se": "PT BPR SINAR MAS PELITA",
            "sektor": "Sektor Keuangan",
            "tanggal_terbit": "2022-07-21",
            "url_tdpse_detail": "https://pse.komdigi.go.id/tdpse-detail/8651",
            "website": "bprsinarmaspelita.com"
        },
        {
            "id": "9cb1abcb-9c06-4fea-960e-ad7027a489da",
            "nama_pse": "YAMAHA INDONESIA MOTOR MANUFACTURING",
            "nama_se": "APLIKASI MY YAMAHA MOTOR",
            "sektor": "Sektor Perdagangan, Sektor Teknologi Informasi dan Komunikasi",
            "tanggal_terbit": "2022-07-21",
            "url_tdpse_detail": "https://pse.komdigi.go.id/tdpse-detail/8649",
            "website": "-"
        },
        {
            "id": "9cb1abbc-46bc-4ac2-9327-9604a7135f46",
            "nama_pse": "EQUITYWORLD FUTURES",
            "nama_se": "PORTAL NEWS",
            "sektor": "Sektor Perdagangan, Sektor Keuangan",
            "tanggal_terbit": "2022-07-21",
            "url_tdpse_detail": "https://pse.komdigi.go.id/tdpse-detail/8650",
            "website": "ewfpro.com"
        },
        {
            "id": "9cb1abcb-a930-4f10-8118-524c8d9d0f1d",
            "nama_pse": "PRIMA SYIRKAH INTERNATIONAL",
            "nama_se": "LABBAIKAPAREPARE.COM",
            "sektor": "Sektor Perdagangan",
            "tanggal_terbit": "2022-07-21",
            "url_tdpse_detail": "https://pse.komdigi.go.id/tdpse-detail/8652",
            "website": "labbaikaparepare.com"
        },
        {
            "id": "9cb1abf1-7539-4b65-b069-5792fe389380",
            "nama_pse": "BANK PERKREDITAN RAKYAT RAGAM PERANMANDIRI",
            "nama_se": "BPR RAGAM PERANMANDIRI",
            "sektor": "Sektor Keuangan",
            "tanggal_terbit": "2022-07-21",
            "url_tdpse_detail": "https://pse.komdigi.go.id/tdpse-detail/8653",
            "website": "bprrpm.com"
        },
        {
            "id": "9cb1abf1-7878-4ca8-b4bc-843cb63c4bad",
            "nama_pse": "BANK PEREKONOMIAN RAKYAT XEN",
            "nama_se": "WEBSITE",
            "sektor": "Sektor Keuangan",
            "tanggal_terbit": "2022-07-21",
            "url_tdpse_detail": "https://pse.komdigi.go.id/tdpse-detail/8667",
            "website": "bprxen.co"
        },
        {
            "id": "9cb1abf1-7dc1-4d1a-8a96-7fd13f6633e3",
            "nama_pse": "DINOMARKET",
            "nama_se": "DINOMAKET",
            "sektor": "Sektor Perdagangan",
            "tanggal_terbit": "2022-07-21",
            "url_tdpse_detail": "https://pse.komdigi.go.id/tdpse-detail/8659",
            "website": "DINOMARKET.com"
        },
        {
            "id": "9cb1abf1-814a-4445-a4a1-0eae5d75fa54",
            "nama_pse": "YAMAHA INDONESIA MOTOR MANUFACTURING",
            "nama_se": "APLIKASI YAMAHA MOTORCYCLE CONNECT / Y CONNECT",
            "sektor": "Sektor Perdagangan, Sektor Teknologi Informasi dan Komunikasi",
            "tanggal_terbit": "2022-07-21",
            "url_tdpse_detail": "https://pse.komdigi.go.id/tdpse-detail/8656",
            "website": "-"
        },
        {
            "id": "9cb1abcb-bd04-49d1-b430-267a1eafff98",
            "nama_pse": "EQUITYWORLD FUTURES",
            "nama_se": "TRADEPROFX",
            "sektor": "Sektor Perdagangan, Sektor Keuangan",
            "tanggal_terbit": "2022-07-21",
            "url_tdpse_detail": "https://pse.komdigi.go.id/tdpse-detail/8657",
            "website": "-"
        },
        {
            "id": "9cb1abbc-4874-4004-af09-d5e9a03ba659",
            "nama_pse": "BANK PERKREDITAN RAKYAT RAGA DANA SEJAHTERA",
            "nama_se": "PT BPR RAGA DANA SEJAHTERA",
            "sektor": "Sektor Keuangan",
            "tanggal_terbit": "2022-07-21",
            "url_tdpse_detail": "https://pse.komdigi.go.id/tdpse-detail/8658",
            "website": "bprragadanasejahtera.co.id"
        },
        {
            "id": "9cb1abbc-4a7d-49f6-ad42-b4cad13b423b",
            "nama_pse": "BANK PERKREDITAN RAKYAT BANK GIRI SUKA DANA WONOGIRI PERSERODA",
            "nama_se": "PT BPR BANK GIRI SUKA DANA WONOGIRI (PERSERODA)",
            "sektor": "Sektor Keuangan",
            "tanggal_terbit": "2022-07-21",
            "url_tdpse_detail": "https://pse.komdigi.go.id/tdpse-detail/8661",
            "website": "girisukadana.co.id"
        },
        {
            "id": "9cb1abf1-9950-49e3-bf4e-625283bfa09b",
            "nama_pse": "EUREKA BOOKHOUSE",
            "nama_se": "BUKUERLANGGA.COM",
            "sektor": "Sektor Perdagangan",
            "tanggal_terbit": "2022-07-21",
            "url_tdpse_detail": "https://pse.komdigi.go.id/tdpse-detail/8660",
            "website": "bukuerlangga.com"
        },
        {
            "id": "9cb1abf1-a296-4f35-b147-19396a94b73c",
            "nama_pse": "PRIMA SYIRKAH INTERNATIONAL",
            "nama_se": "NEOHAJJ.COM",
            "sektor": "Sektor Perdagangan",
            "tanggal_terbit": "2022-07-21",
            "url_tdpse_detail": "https://pse.komdigi.go.id/tdpse-detail/8662",
            "website": "neohajj.com"
        },
        {
            "id": "9cb1abf1-a61e-4988-8b09-563a65eef851",
            "nama_pse": "BANK PEREKONOMIAN RAKYAT SYARIAH BANGUN ARTA",
            "nama_se": "WEBSITE BPR KROYA BANGUNARTHA",
            "sektor": "Sektor Keuangan",
            "tanggal_terbit": "2022-07-21",
            "url_tdpse_detail": "https://pse.komdigi.go.id/tdpse-detail/8663",
            "website": "bankbangunartha.com"
        },
        {
            "id": "9cb1abf1-a9c2-4be7-ab39-0ca718069f31",
            "nama_pse": "ARVENTIS MEGA INDONESIA",
            "nama_se": "ARVENTIS MEGA INDONESIA",
            "sektor": "Sektor Perdagangan",
            "tanggal_terbit": "2022-07-21",
            "url_tdpse_detail": "https://pse.komdigi.go.id/tdpse-detail/8664",
            "website": "arventisintl.com"
        },
        {
            "id": "9cb1abf1-afac-4a95-97e0-2387aad8eb1b",
            "nama_pse": "RUANG RAYA INDONESIA",
            "nama_se": "BRAINACADEMY",
            "sektor": "Sektor Perdagangan, Sektor Teknologi Informasi dan Komunikasi",
            "tanggal_terbit": "2022-07-21",
            "url_tdpse_detail": "https://pse.komdigi.go.id/tdpse-detail/8665",
            "website": "brainacademy.id"
        },
        {
            "id": "9cb1abbc-4c2c-4e61-9f0f-b5ae60cf836a",
            "nama_pse": "PARAMA BOGA SEHAT",
            "nama_se": "LIGHTCOACH APP",
            "sektor": "Sektor Kesehatan",
            "tanggal_terbit": "2022-07-21",
            "url_tdpse_detail": "https://pse.komdigi.go.id/tdpse-detail/8666",
            "website": "lightcoach-indonesia.com"
        },
        {
            "id": "9cb1abcb-c53a-457f-8d0c-1ce14377097f",
            "nama_pse": "ELECTRONIC DATA INTERCHANGE INDONESIA",
            "nama_se": "HADIRKOE",
            "sektor": "Sektor Teknologi Informasi dan Komunikasi",
            "tanggal_terbit": "2022-07-21",
            "url_tdpse_detail": "https://pse.komdigi.go.id/tdpse-detail/8668",
            "website": "hadirkoe.com"
        },
        {
            "id": "9cb1abf1-b67c-4dab-96f4-0f032bc2b150",
            "nama_pse": "BANK PEREKONOMIAN RAKYAT BANK BALDAH SENTOSA",
            "nama_se": "BALDAH MOBILE",
            "sektor": "Sektor Keuangan",
            "tanggal_terbit": "2022-07-21",
            "url_tdpse_detail": "https://pse.komdigi.go.id/tdpse-detail/8670",
            "website": "-"
        },
        {
            "id": "9cb1abf1-bb6a-448d-8363-265ca2405398",
            "nama_pse": "RUANG RAYA INDONESIA",
            "nama_se": "ENGLISHACADEMY",
            "sektor": "Sektor Perdagangan, Sektor Teknologi Informasi dan Komunikasi",
            "tanggal_terbit": "2022-07-21",
            "url_tdpse_detail": "https://pse.komdigi.go.id/tdpse-detail/8669",
            "website": "english-academy.id"
        },
        {
            "id": "9cb1abcb-ca3f-4f7c-97ec-1e7d54ec2d6b",
            "nama_pse": "SYNAPSA MEDIKATAMA INDONESIA",
            "nama_se": "MEDIKLIK",
            "sektor": "Sektor Kesehatan, Sektor Teknologi Informasi dan Komunikasi",
            "tanggal_terbit": "2022-07-21",
            "url_tdpse_detail": "https://pse.komdigi.go.id/tdpse-detail/8671",
            "website": "mediklik.co.id"
        },
        {
            "id": "9cb1abbc-4e14-480b-a65c-8cc03d38c94a",
            "nama_pse": "NATA CONNEXINDO DIGITAL",
            "nama_se": "NATA CONNEXINDO DIGITAL",
            "sektor": "Sektor Teknologi Informasi dan Komunikasi",
            "tanggal_terbit": "2022-07-21",
            "url_tdpse_detail": "https://pse.komdigi.go.id/tdpse-detail/8672",
            "website": "nataconnexindo.com"
        },
        {
            "id": "9cb1abcb-cee8-450f-84d5-fd8fc42b231e",
            "nama_pse": "PERMATA CIPTA REJEKI",
            "nama_se": "SMS PREMIUM MACROKIOSK",
            "sektor": "Sektor Teknologi Informasi dan Komunikasi",
            "tanggal_terbit": "2022-07-21",
            "url_tdpse_detail": "https://pse.komdigi.go.id/tdpse-detail/8706",
            "website": "-"
        },
        {
            "id": "9cb1abf1-bf9c-453e-92fa-1aaedf1d514e",
            "nama_pse": "GOSEH KARYA SIMALEM",
            "nama_se": "GOSEH",
            "sektor": "Sektor Transportasi, Sektor Teknologi Informasi dan Komunikasi",
            "tanggal_terbit": "2022-07-21",
            "url_tdpse_detail": "https://pse.komdigi.go.id/tdpse-detail/8688",
            "website": "-"
        },
        {
            "id": "9cb1abbc-5054-4026-9d3b-6556abafc680",
            "nama_pse": "ASURANSI UMUM MEGA",
            "nama_se": "M-INSURANCE",
            "sektor": "Sektor Perdagangan",
            "tanggal_terbit": "2022-07-21",
            "url_tdpse_detail": "https://pse.komdigi.go.id/tdpse-detail/8676",
            "website": "megainsurance.id"
        },
        {
            "id": "9cb1abf1-c3e1-424c-b9ae-47acd78a5df1",
            "nama_pse": "BANK PERKREDITAN RAKYAT BANK DAERAH KARANGANYAR PERSERODA",
            "nama_se": "WEBSITE COMPANY PT. BPR BANK DAERAH KARANGANYAR (PERSERODA)",
            "sektor": "Sektor Keuangan",
            "tanggal_terbit": "2022-07-21",
            "url_tdpse_detail": "https://pse.komdigi.go.id/tdpse-detail/8673",
            "website": "bankdaerah.co.id"
        },
        {
            "id": "9cb1abf1-c748-47a7-9063-c0c77a489811",
            "nama_pse": "BANK PERKREDITAN RAKYAT BANK GIRI SUKA DANA WONOGIRI PERSERODA",
            "nama_se": "VA BANK GIRI SUKA DANA",
            "sektor": "Sektor Keuangan",
            "tanggal_terbit": "2022-07-21",
            "url_tdpse_detail": "https://pse.komdigi.go.id/tdpse-detail/8675",
            "website": "girisukadana.co.id"
        },
        {
            "id": "9cb1abf1-cd39-4c8e-8f53-362ed08b4d29",
            "nama_pse": "BANK PEREKONOMIAN RAKYAT DUTA PARAMARTA",
            "nama_se": "PT BANK PERKREDITAN RAKYAT DUTA PARAMARTA",
            "sektor": "Sektor Keuangan",
            "tanggal_terbit": "2022-07-21",
            "url_tdpse_detail": "https://pse.komdigi.go.id/tdpse-detail/8674",
            "website": "-"
        },
        {
            "id": "9cb1abcb-d3d4-4d63-9a6e-e87ae6c96bbc",
            "nama_pse": "WAHANA MEDITEK INDONESIA",
            "nama_se": "BACKOFFICE.PERIKSAIN.ID",
            "sektor": "Sektor Kesehatan",
            "tanggal_terbit": "2022-07-21",
            "url_tdpse_detail": "https://pse.komdigi.go.id/tdpse-detail/8677",
            "website": "backoffice.periksain.id"
        },
        {
            "id": "9cb1abcb-dcc9-4739-a7dd-5731c682406a",
            "nama_pse": "MEDIA MATA WAKTU",
            "nama_se": "MATAWAKTU.CO.ID",
            "sektor": "Sektor Teknologi Informasi dan Komunikasi",
            "tanggal_terbit": "2022-07-21",
            "url_tdpse_detail": "https://pse.komdigi.go.id/tdpse-detail/8679",
            "website": "matawaktu.co.id"
        },
        {
            "id": "9cb1abcb-e140-4742-8e1b-4d3373a827aa",
            "nama_pse": "WAHANA MEDITEK INDONESIA",
            "nama_se": "PARTNER.PERIKSAIN.ID",
            "sektor": "Sektor Kesehatan",
            "tanggal_terbit": "2022-07-21",
            "url_tdpse_detail": "https://pse.komdigi.go.id/tdpse-detail/8680",
            "website": "partner.periksain.id"
        },
        {
            "id": "9cb1abf1-d61b-419a-a1d1-78bb6fc7b273",
            "nama_pse": "WAHANA MEDITEK INDONESIA",
            "nama_se": "SERVICE.DEV.PERIKSAIN.ID",
            "sektor": "Sektor Kesehatan",
            "tanggal_terbit": "2022-07-21",
            "url_tdpse_detail": "https://pse.komdigi.go.id/tdpse-detail/8681",
            "website": "service.dev.periksain.id"
        },
        {
            "id": "9cb1abf1-e28b-44a2-8b77-94c114cff1f4",
            "nama_pse": "BANK PERKREDITAN RAKYAT BANK DAERAH KARANGANYAR PERSERODA",
            "nama_se": "BDK MOBILE PT. BPR BANK DAERAH KARANGANYAR (PERSERODA)",
            "sektor": "Sektor Keuangan",
            "tanggal_terbit": "2022-07-21",
            "url_tdpse_detail": "https://pse.komdigi.go.id/tdpse-detail/8682",
            "website": "-"
        },
        {
            "id": "9cb1abcb-e659-43bc-acd7-dff22a99fedb",
            "nama_pse": "WAHANA MEDITEK INDONESIA",
            "nama_se": "SERVICE.PERIKSAIN.ID",
            "sektor": "Sektor Kesehatan",
            "tanggal_terbit": "2022-07-21",
            "url_tdpse_detail": "https://pse.komdigi.go.id/tdpse-detail/8683",
            "website": "service.periksain.id"
        },
        {
            "id": "9cb1abbc-5202-4050-b17d-6eea92e6e525",
            "nama_pse": "PUNCAK AKSES FINANSIAL",
            "nama_se": "ISCORE",
            "sektor": "Sektor Keuangan",
            "tanggal_terbit": "2022-07-21",
            "url_tdpse_detail": "https://pse.komdigi.go.id/tdpse-detail/8685",
            "website": "-"
        }
    ],
    "processingTimeMs": 9,
    "query": "",
    "totalHits": 19121,
    "hitsPerPage": 50,
    "page": 231,
    "totalPages": 383
}