{
    "hits": [
        {
            "id": "9db6540f-62d2-4af5-a4b1-7880c3bddb88",
            "nama_pse": "SIPRAMA CAKRAWALA",
            "nama_se": "CAKRAWALA INTEGRATED SYSTEM",
            "sektor": "Sektor Teknologi Informasi dan Komunikasi",
            "tanggal_terbit": "2024-12-13",
            "url_tdpse_detail": "https://pse.komdigi.go.id/tdpse-detail/21774",
            "website": "apps-cakrawala.com"
        },
        {
            "id": "9db6193c-62ee-4e4d-8f2a-af1cc25781bc",
            "nama_pse": "ASIH EKA ABADI",
            "nama_se": "AEAMEDSITE8",
            "sektor": "Sektor Kesehatan",
            "tanggal_terbit": "2024-12-13",
            "url_tdpse_detail": "https://pse.komdigi.go.id/tdpse-detail/21767",
            "website": "-"
        },
        {
            "id": "9db61957-3f4f-4a77-867c-e3ec1e30ee7b",
            "nama_pse": "DAMAI MAKMUR PRIMA",
            "nama_se": "PLAYLOG",
            "sektor": "Sektor Teknologi Informasi dan Komunikasi",
            "tanggal_terbit": "2024-12-13",
            "url_tdpse_detail": "https://pse.komdigi.go.id/tdpse-detail/21768",
            "website": "portal.playlog.io"
        },
        {
            "id": "9db627c9-5ade-4af8-bd7f-e0674ceaffff",
            "nama_pse": "KIMIA FARMA TRADING \u0026 DISTRIBUTION",
            "nama_se": "ACTION",
            "sektor": "Sektor Kesehatan",
            "tanggal_terbit": "2024-12-13",
            "url_tdpse_detail": "https://pse.komdigi.go.id/tdpse-detail/21769",
            "website": "action.kftd.co.id"
        },
        {
            "id": "9db6e572-f044-412d-bcd6-ca8bcbc3be09",
            "nama_pse": "SIMPAN PINJAM DAN PEMBIAYAAN SYARIAH BAITUT TAMWIL MUHAMADIYAH SUMATERA BARAT",
            "nama_se": "IBS ON LINE",
            "sektor": "Sektor Teknologi Informasi dan Komunikasi",
            "tanggal_terbit": "2024-12-13",
            "url_tdpse_detail": "https://pse.komdigi.go.id/tdpse-detail/21784",
            "website": "-"
        },
        {
            "id": "9db4b560-5943-47a0-831d-6c9674a81617",
            "nama_pse": "G4S SECURITY SERVICES",
            "nama_se": "DIGITOOLS",
            "sektor": "Sektor Pertahanan dan Keamanan",
            "tanggal_terbit": "2024-12-12",
            "url_tdpse_detail": "https://pse.komdigi.go.id/tdpse-detail/21755",
            "website": "digitools.g4sindonesia.com"
        },
        {
            "id": "9db53c99-b4cf-4015-985a-4b5ed409d471",
            "nama_pse": "DEDE WIRYANA",
            "nama_se": "DEDE WIRYANA",
            "sektor": "Sektor Perdagangan",
            "tanggal_terbit": "2024-12-12",
            "url_tdpse_detail": "https://pse.komdigi.go.id/tdpse-detail/21762",
            "website": "-"
        },
        {
            "id": "9db4c96a-c9fb-402a-8df4-e325c676ea17",
            "nama_pse": "SEDAYU SEHAT TEKHNOLOGI",
            "nama_se": "YOSEHAT",
            "sektor": "Sektor Perdagangan, Sektor Transportasi, Sektor Kesehatan, Sektor Teknologi Informasi dan Komunikasi",
            "tanggal_terbit": "2024-12-12",
            "url_tdpse_detail": "https://pse.komdigi.go.id/tdpse-detail/21757",
            "website": "yosehat.id"
        },
        {
            "id": "9db4d09b-ba2d-4562-9547-200dbffc82e9",
            "nama_pse": "SAIF AHMAD ALMUTAALI",
            "nama_se": "ALI SAIF PHARMACY",
            "sektor": "Sektor Kesehatan",
            "tanggal_terbit": "2024-12-12",
            "url_tdpse_detail": "https://pse.komdigi.go.id/tdpse-detail/21758",
            "website": "-"
        },
        {
            "id": "9db4dff2-ce0c-4638-bdf2-3c81fbc3fbbe",
            "nama_pse": "ADYATMA INOVASI SEMESTA",
            "nama_se": "SERENIC AI",
            "sektor": "Sektor Teknologi Informasi dan Komunikasi",
            "tanggal_terbit": "2024-12-12",
            "url_tdpse_detail": "https://pse.komdigi.go.id/tdpse-detail/21759",
            "website": "-"
        },
        {
            "id": "9db4802c-805a-4baa-9f42-46b82d927f38",
            "nama_pse": "REDAKSI INDONESIA NEWS",
            "nama_se": "redaksiindonesianews.co.id",
            "sektor": "Sektor Teknologi Informasi dan Komunikasi",
            "tanggal_terbit": "2024-12-12",
            "url_tdpse_detail": "https://pse.komdigi.go.id/tdpse-detail/21748",
            "website": "redaksiindonesianews.co.id"
        },
        {
            "id": "9db36457-09b3-4f4a-b4a0-d28dbcc173cf",
            "nama_pse": "RATIFANET MEDIA DIGITAL",
            "nama_se": "ratifanet media digital",
            "sektor": "Sektor Teknologi Informasi dan Komunikasi",
            "tanggal_terbit": "2024-12-12",
            "url_tdpse_detail": "https://pse.komdigi.go.id/tdpse-detail/21739",
            "website": "-"
        },
        {
            "id": "9db542d3-c181-4b6d-9ce6-5e5464618368",
            "nama_pse": "KREASI DUMA BERSAUDARA",
            "nama_se": "HAIR AND BEYOND",
            "sektor": "Sektor Perdagangan",
            "tanggal_terbit": "2024-12-12",
            "url_tdpse_detail": "https://pse.komdigi.go.id/tdpse-detail/21763",
            "website": "-"
        },
        {
            "id": "9db4b38d-d005-4eda-8255-9a49ccbd1282",
            "nama_pse": "PELATFORM DIGITAL MANDIRI",
            "nama_se": "AVICCENA CREATIVE AGENCY",
            "sektor": "Sektor Perdagangan",
            "tanggal_terbit": "2024-12-12",
            "url_tdpse_detail": "https://pse.komdigi.go.id/tdpse-detail/21754",
            "website": "weddingsaas.id"
        },
        {
            "id": "9db44aa0-c5d6-49ea-8303-41e675c3f749",
            "nama_pse": "RIZKI PUTRA PRATAMA",
            "nama_se": "RIZKIPUTRA.COM",
            "sektor": "Sektor Perdagangan, Sektor Teknologi Informasi dan Komunikasi",
            "tanggal_terbit": "2024-12-12",
            "url_tdpse_detail": "https://pse.komdigi.go.id/tdpse-detail/21744",
            "website": "rizkiputra.com"
        },
        {
            "id": "9db4e868-c739-4ce7-bc0a-528e71cebe7f",
            "nama_pse": "MARKIBONG MEDIA MANDIRI",
            "nama_se": "MARKIBONG",
            "sektor": "Sektor Teknologi Informasi dan Komunikasi",
            "tanggal_terbit": "2024-12-12",
            "url_tdpse_detail": "https://pse.komdigi.go.id/tdpse-detail/21760",
            "website": "-"
        },
        {
            "id": "9db49a39-1675-4bb2-a3cd-765d594498a7",
            "nama_pse": "SEDAYU SEHAT TEKHNOLOGI",
            "nama_se": "SEHATTEK",
            "sektor": "Sektor Perdagangan, Sektor Teknologi Informasi dan Komunikasi",
            "tanggal_terbit": "2024-12-12",
            "url_tdpse_detail": "https://pse.komdigi.go.id/tdpse-detail/21752",
            "website": "sehattek.id"
        },
        {
            "id": "9db47b24-7d82-4a1d-8903-2d9f2c80f9f3",
            "nama_pse": "VISI KARYA PRAKARSA",
            "nama_se": "WAITHUB",
            "sektor": "Sektor Teknologi Informasi dan Komunikasi",
            "tanggal_terbit": "2024-12-12",
            "url_tdpse_detail": "https://pse.komdigi.go.id/tdpse-detail/21746",
            "website": "waithub.id"
        },
        {
            "id": "9db4ed62-8205-4d27-864c-57f049f9d7c6",
            "nama_pse": "SIPRAMA CAKRAWALA",
            "nama_se": "TRAXES",
            "sektor": "Sektor Teknologi Informasi dan Komunikasi",
            "tanggal_terbit": "2024-12-12",
            "url_tdpse_detail": "https://pse.komdigi.go.id/tdpse-detail/21761",
            "website": "traxes.id"
        },
        {
            "id": "9db4435e-4956-48c2-9f36-1c07b964e533",
            "nama_pse": "ASIH EKA ABADI",
            "nama_se": "AEAMEDSITE7",
            "sektor": "Sektor Kesehatan",
            "tanggal_terbit": "2024-12-12",
            "url_tdpse_detail": "https://pse.komdigi.go.id/tdpse-detail/21743",
            "website": "-"
        },
        {
            "id": "9db474d0-d6e8-439b-8afb-7eea9c801335",
            "nama_pse": "GERBANG POCER NUSANTARA",
            "nama_se": "POCER SHOP",
            "sektor": "Sektor Perdagangan, Sektor Teknologi Informasi dan Komunikasi",
            "tanggal_terbit": "2024-12-12",
            "url_tdpse_detail": "https://pse.komdigi.go.id/tdpse-detail/21745",
            "website": "store.pocer.shop"
        },
        {
            "id": "9db4b872-6750-42f8-85c3-03f26ac86cfa",
            "nama_pse": "KREATIF SOLUSI INFORMATIKA",
            "nama_se": "KREATIF SOLUSI INFORMATIKA",
            "sektor": "Sektor Teknologi Informasi dan Komunikasi",
            "tanggal_terbit": "2024-12-12",
            "url_tdpse_detail": "https://pse.komdigi.go.id/tdpse-detail/21756",
            "website": "kreatifsolutika.co.id"
        },
        {
            "id": "9db47bed-5551-4540-bbd1-13e3b6655058",
            "nama_pse": "WAHYU MEDIKA ESTETITAMA",
            "nama_se": "DRW SKINCARE SISTEM KLINIK",
            "sektor": "Sektor Kesehatan",
            "tanggal_terbit": "2024-12-12",
            "url_tdpse_detail": "https://pse.komdigi.go.id/tdpse-detail/21747",
            "website": "klinik.drwskincare.com"
        },
        {
            "id": "9db4383d-bb63-42cb-9983-800f1165664b",
            "nama_pse": "DUTA SUARA KALTENG",
            "nama_se": "KPFM PALANGKARAYA",
            "sektor": "Sektor Teknologi Informasi dan Komunikasi",
            "tanggal_terbit": "2024-12-12",
            "url_tdpse_detail": "https://pse.komdigi.go.id/tdpse-detail/21742",
            "website": "kpfmpalangkaraya.com"
        },
        {
            "id": "9db48401-0a5c-41f7-ad98-866d2d291deb",
            "nama_pse": "DISTRIBUSI SENTRA JAYA",
            "nama_se": "sfshop.id",
            "sektor": "Sektor Perdagangan",
            "tanggal_terbit": "2024-12-12",
            "url_tdpse_detail": "https://pse.komdigi.go.id/tdpse-detail/21749",
            "website": "sfshop.id"
        },
        {
            "id": "9db4897e-6de0-4187-90d7-be6d4e4c4ba3",
            "nama_pse": "SAHABAT APLIKASI INDONESIA",
            "nama_se": "sattu.id",
            "sektor": "Sektor Teknologi Informasi dan Komunikasi",
            "tanggal_terbit": "2024-12-12",
            "url_tdpse_detail": "https://pse.komdigi.go.id/tdpse-detail/21750",
            "website": "sattu.id"
        },
        {
            "id": "9db4971b-d129-4e2a-8c79-a9f442013cba",
            "nama_pse": "JABAT ERAT SOLUSINDO",
            "nama_se": "JES RME",
            "sektor": "Sektor Kesehatan",
            "tanggal_terbit": "2024-12-12",
            "url_tdpse_detail": "https://pse.komdigi.go.id/tdpse-detail/21751",
            "website": "si.klinikpmikarangpandan.com"
        },
        {
            "id": "9db4186e-f943-49f5-a3b4-deb2079f195e",
            "nama_pse": "KATIGA RITEL STRENGINDO",
            "nama_se": "K3MART",
            "sektor": "Sektor Perdagangan",
            "tanggal_terbit": "2024-12-12",
            "url_tdpse_detail": "https://pse.komdigi.go.id/tdpse-detail/21740",
            "website": "shop.k3mart.id"
        },
        {
            "id": "9cb1ac8b-b655-40e5-a306-8fee6af38f49",
            "nama_pse": "SETUNGKU INDONESIA MAKMUR",
            "nama_se": "SEMOOA",
            "sektor": "Sektor Teknologi Informasi dan Komunikasi",
            "tanggal_terbit": "2024-12-12",
            "url_tdpse_detail": "https://pse.komdigi.go.id/tdpse-detail/21741",
            "website": "semooa.com"
        },
        {
            "id": "9db22584-f5be-4230-9d78-ef0bcfe3678d",
            "nama_pse": "SUB KREATIF INDONESIA",
            "nama_se": "SUB KREATIF INDONESIA",
            "sektor": "Sektor Teknologi Informasi dan Komunikasi",
            "tanggal_terbit": "2024-12-11",
            "url_tdpse_detail": "https://pse.komdigi.go.id/tdpse-detail/21718",
            "website": "eastjavarunningfest.com"
        },
        {
            "id": "9cb1ac49-2931-492b-812e-86280f016462",
            "nama_pse": "PILAR ADHI KARYA",
            "nama_se": "PILARGROUP",
            "sektor": "Sektor Perdagangan, Sektor Teknologi Informasi dan Komunikasi",
            "tanggal_terbit": "2024-12-11",
            "url_tdpse_detail": "https://pse.komdigi.go.id/tdpse-detail/21717",
            "website": "pilargroup.net"
        },
        {
            "id": "9db2740e-ad0b-41e3-94e5-c846645688cd",
            "nama_pse": "ATOM DIGITAL INDONESIA",
            "nama_se": "ATOM SUPER",
            "sektor": "Sektor Teknologi Informasi dan Komunikasi",
            "tanggal_terbit": "2024-12-11",
            "url_tdpse_detail": "https://pse.komdigi.go.id/tdpse-detail/21720",
            "website": "atomsuper.id"
        },
        {
            "id": "9db200e6-7547-4562-98c8-002d606f0c31",
            "nama_pse": "ADISENA MITRA USAHA",
            "nama_se": "BEYONDTECH",
            "sektor": "Sektor Keuangan",
            "tanggal_terbit": "2024-12-11",
            "url_tdpse_detail": "https://pse.komdigi.go.id/tdpse-detail/21716",
            "website": "beyondtech.co.id"
        },
        {
            "id": "9db2784c-8fca-4601-8fb5-c899c9212443",
            "nama_pse": "BERKAH SUKSES TEKNOLOGI",
            "nama_se": "NSI WORLD",
            "sektor": "Sektor Perdagangan, Sektor Kesehatan, Sektor Teknologi Informasi dan Komunikasi",
            "tanggal_terbit": "2024-12-11",
            "url_tdpse_detail": "https://pse.komdigi.go.id/tdpse-detail/21721",
            "website": "nsi-world.com"
        },
        {
            "id": "9db2800f-6980-4427-a713-e4c906d1e68e",
            "nama_pse": "GEMA SARANA KOMUNIKA",
            "nama_se": "GEMA RELOAD",
            "sektor": "Sektor Teknologi Informasi dan Komunikasi",
            "tanggal_terbit": "2024-12-11",
            "url_tdpse_detail": "https://pse.komdigi.go.id/tdpse-detail/21722",
            "website": "gemareload.com"
        },
        {
            "id": "9db2986c-d0d5-46cc-a2d5-643aa0232f8d",
            "nama_pse": "MEGA KREASI INDOTAMA",
            "nama_se": "MEGA KREASI INDOTAMA",
            "sektor": "Sektor Perdagangan",
            "tanggal_terbit": "2024-12-11",
            "url_tdpse_detail": "https://pse.komdigi.go.id/tdpse-detail/21725",
            "website": "megakreasiindotama.id"
        },
        {
            "id": "9db29e4a-ef6e-42b1-968a-3eb1f3ef26dd",
            "nama_pse": "ARTHA GEMILANG NUSANTARA",
            "nama_se": "PENGEMBANGAN MONITORING DIGITAL PERALATAN PENUNJANG PROGRAM HARKAMTIBMAS PADA SATUAN WILAYAH JAWA, BALI DAN NTB",
            "sektor": "Sektor Teknologi Informasi dan Komunikasi",
            "tanggal_terbit": "2024-12-11",
            "url_tdpse_detail": "https://pse.komdigi.go.id/tdpse-detail/21726",
            "website": "-"
        },
        {
            "id": "9db2baa0-1fbf-49c3-80ed-f40ed3bf29a2",
            "nama_pse": "INOVASI TEKNOLOGI GENERASI CEMERLANG",
            "nama_se": "STEELYTOE",
            "sektor": "Sektor Perdagangan, Sektor Teknologi Informasi dan Komunikasi",
            "tanggal_terbit": "2024-12-11",
            "url_tdpse_detail": "https://pse.komdigi.go.id/tdpse-detail/21728",
            "website": "steelytoe.com"
        },
        {
            "id": "9db2f2d6-ccf1-456a-b8f5-0cb85fff34c1",
            "nama_pse": "G4S SECURITY SERVICES",
            "nama_se": "SMART PATROL",
            "sektor": "Sektor Pertahanan dan Keamanan",
            "tanggal_terbit": "2024-12-11",
            "url_tdpse_detail": "https://pse.komdigi.go.id/tdpse-detail/21735",
            "website": "g4s.smartsecurity.id"
        },
        {
            "id": "9db2f328-01cf-4b38-8122-2312737d8fff",
            "nama_pse": "G4S SECURITY SERVICES",
            "nama_se": "GRACIA",
            "sektor": "Sektor Pertahanan dan Keamanan",
            "tanggal_terbit": "2024-12-11",
            "url_tdpse_detail": "https://pse.komdigi.go.id/tdpse-detail/21736",
            "website": "gracia.g4sindonesia.com"
        },
        {
            "id": "9db28828-89a7-4600-8bab-91df2dba2d97",
            "nama_pse": "ARTHA GEMILANG NUSANTARA",
            "nama_se": "PENGEMBANGAN MONITORING DIGITAL PERALATAN PENUNJANG PROGRAM HARKAMTIBMAS PADA SATUAN WILAYAH LAMPUNG, RIAU, SUMSEL DAN SUMUT",
            "sektor": "Sektor Teknologi Informasi dan Komunikasi",
            "tanggal_terbit": "2024-12-11",
            "url_tdpse_detail": "https://pse.komdigi.go.id/tdpse-detail/21724",
            "website": "sarpras.baharkam.polri.go.id"
        },
        {
            "id": "9db334cd-dbe7-471f-b8c5-3bc8d5add457",
            "nama_pse": "REKXY SANJAYA PUTRA",
            "nama_se": "DUA PUTRA",
            "sektor": "Sektor Perdagangan",
            "tanggal_terbit": "2024-12-11",
            "url_tdpse_detail": "https://pse.komdigi.go.id/tdpse-detail/21738",
            "website": "duaputraconsultant.com"
        },
        {
            "id": "9db25175-363b-4863-a868-90dc47ec3628",
            "nama_pse": "BANTU DIGITAL INDONESIA",
            "nama_se": "BANTU SEHAT",
            "sektor": "Sektor Kesehatan, Sektor Teknologi Informasi dan Komunikasi",
            "tanggal_terbit": "2024-12-11",
            "url_tdpse_detail": "https://pse.komdigi.go.id/tdpse-detail/21719",
            "website": "bantusehat.id"
        },
        {
            "id": "9db31826-2902-4d7d-b011-9f37c849bbae",
            "nama_pse": "AKSES ONLINEX INDONESIA",
            "nama_se": "PULSA ONLINE X",
            "sektor": "Sektor Perdagangan, Sektor Teknologi Informasi dan Komunikasi",
            "tanggal_terbit": "2024-12-11",
            "url_tdpse_detail": "https://pse.komdigi.go.id/tdpse-detail/21737",
            "website": "-"
        },
        {
            "id": "9db28334-6ef2-4997-a885-3b20109dc501",
            "nama_pse": "G4S SECURITY SERVICES",
            "nama_se": "SARAS",
            "sektor": "Sektor Pertahanan dan Keamanan",
            "tanggal_terbit": "2024-12-11",
            "url_tdpse_detail": "https://pse.komdigi.go.id/tdpse-detail/21723",
            "website": "sroc.g4sindonesia.com"
        },
        {
            "id": "9db2adb8-65ab-4391-8cca-a97a0a7df25d",
            "nama_pse": "LANGIT NUSANTARA HUB DIGITAL",
            "nama_se": "LANGIT NUSANTARA HUB DIGITAL",
            "sektor": "Sektor Teknologi Informasi dan Komunikasi",
            "tanggal_terbit": "2024-12-11",
            "url_tdpse_detail": "https://pse.komdigi.go.id/tdpse-detail/21727",
            "website": "-"
        },
        {
            "id": "9db0f08c-0b22-486a-b39b-16ede7ea9471",
            "nama_pse": "DIGITAL VOUCHER MARKET BERSAMA",
            "nama_se": "SIKASIR",
            "sektor": "Sektor Perdagangan",
            "tanggal_terbit": "2024-12-10",
            "url_tdpse_detail": "https://pse.komdigi.go.id/tdpse-detail/21714",
            "website": "-"
        },
        {
            "id": "9db022d7-a068-4e4c-b490-fb96213133e4",
            "nama_pse": "CROOS POWER NETWORK",
            "nama_se": "PT CROSS POWER NETWORK",
            "sektor": "Sektor Teknologi Informasi dan Komunikasi",
            "tanggal_terbit": "2024-12-10",
            "url_tdpse_detail": "https://pse.komdigi.go.id/tdpse-detail/21706",
            "website": "-"
        },
        {
            "id": "9db0e9a4-d486-4720-87bf-5ffbf4a6558f",
            "nama_pse": "DANS MULTI PRO",
            "nama_se": "eRT",
            "sektor": "Sektor Teknologi Informasi dan Komunikasi",
            "tanggal_terbit": "2024-12-10",
            "url_tdpse_detail": "https://pse.komdigi.go.id/tdpse-detail/21713",
            "website": "rtindi.id"
        },
        {
            "id": "9db1412e-45d1-42ac-857d-e90ef0489cd2",
            "nama_pse": "NAURA NETWORK NUSANTARA",
            "nama_se": "NAURA NETWORK NUSANTARA",
            "sektor": "Sektor Teknologi Informasi dan Komunikasi",
            "tanggal_terbit": "2024-12-10",
            "url_tdpse_detail": "https://pse.komdigi.go.id/tdpse-detail/21715",
            "website": "naura.co.id"
        }
    ],
    "processingTimeMs": 2,
    "query": "",
    "totalHits": 19121,
    "hitsPerPage": 50,
    "page": 19,
    "totalPages": 383
}