{
    "hits": [
        {
            "id": "9cb1abcc-6e4a-495d-b341-0e8fe3881b6f",
            "nama_pse": "STORIAL INDONESIA JAYA",
            "nama_se": "STORIAL.CO",
            "sektor": "Sektor Teknologi Informasi dan Komunikasi",
            "tanggal_terbit": "2022-07-22",
            "url_tdpse_detail": "https://pse.komdigi.go.id/tdpse-detail/8750",
            "website": "storial.co"
        },
        {
            "id": "9cb1abcc-72df-423d-9f1c-f86d4d583241",
            "nama_pse": "KAPITAL GLOBAL AKADEMI",
            "nama_se": "CAPITAL",
            "sektor": "Sektor Perdagangan",
            "tanggal_terbit": "2022-07-22",
            "url_tdpse_detail": "https://pse.komdigi.go.id/tdpse-detail/8751",
            "website": "capitalwca.com"
        },
        {
            "id": "9cb1abbc-99b7-411d-991f-5d8168950f14",
            "nama_pse": "BANK PEREKONOMIAN RAKYAT BADAN KREDIT KECAMATAN TASIKMADU PERSERODA KABUPATEN KARANGANYAR",
            "nama_se": "WEBSITE PT BPR BKK TASIKMADU (PERSERODA)",
            "sektor": "Sektor Keuangan",
            "tanggal_terbit": "2022-07-22",
            "url_tdpse_detail": "https://pse.komdigi.go.id/tdpse-detail/8753",
            "website": "bprbkktasikmadu.com"
        },
        {
            "id": "9cb1abf2-4144-43de-8021-1218fb1119ce",
            "nama_pse": "RADYA LAB TEKNOLOGI",
            "nama_se": "RADYA LAB TEKNOLOGI",
            "sektor": "Sektor Teknologi Informasi dan Komunikasi",
            "tanggal_terbit": "2022-07-22",
            "url_tdpse_detail": "https://pse.komdigi.go.id/tdpse-detail/8867",
            "website": "radyadigital.com"
        },
        {
            "id": "9cb1abf2-44da-4012-a7d1-164355d0c014",
            "nama_pse": "WANTEG SEKURITAS",
            "nama_se": "WON MOBILE (WANTEG MOBILE TRADING) -  IOS \u0026 ANDROID",
            "sektor": "Sektor Keuangan",
            "tanggal_terbit": "2022-07-22",
            "url_tdpse_detail": "https://pse.komdigi.go.id/tdpse-detail/8754",
            "website": "WANTEG.COM"
        },
        {
            "id": "9cb1abcc-76a0-4958-abae-ce1e1f2317e2",
            "nama_pse": "DJOKO SUSANTO",
            "nama_se": "SIDOTOP",
            "sektor": "Sektor Perdagangan",
            "tanggal_terbit": "2022-07-22",
            "url_tdpse_detail": "https://pse.komdigi.go.id/tdpse-detail/8755",
            "website": "sidotop.com"
        },
        {
            "id": "9cb1abf2-4818-49b3-b354-499a46fc9b4c",
            "nama_pse": "REAL ESTATE TEKNOLOGI",
            "nama_se": "BELIRUMA",
            "sektor": "Sektor Perdagangan, Sektor Teknologi Informasi dan Komunikasi",
            "tanggal_terbit": "2022-07-22",
            "url_tdpse_detail": "https://pse.komdigi.go.id/tdpse-detail/8756",
            "website": "beliruma.co.id"
        },
        {
            "id": "9cb1abf2-4bac-4da5-a150-49b915330f0b",
            "nama_pse": "GAV PUTRA MANDIRI",
            "nama_se": "GAV",
            "sektor": "Sektor Perdagangan",
            "tanggal_terbit": "2022-07-22",
            "url_tdpse_detail": "https://pse.komdigi.go.id/tdpse-detail/8758",
            "website": "itsgav.com"
        },
        {
            "id": "9cb1abcc-7edc-4be5-a29d-2b7d55cd627c",
            "nama_pse": "TATUT SUHARSO",
            "nama_se": "DATASOLUSI",
            "sektor": "Sektor Keuangan",
            "tanggal_terbit": "2022-07-22",
            "url_tdpse_detail": "https://pse.komdigi.go.id/tdpse-detail/8759",
            "website": "bprdanantakudus.co.id"
        },
        {
            "id": "9cb1abbc-9bb8-4d4e-81c7-73ba36a10778",
            "nama_pse": "PRATIWI EXPRESS INDONESIA",
            "nama_se": "PRATIWI EXPRESS",
            "sektor": "Sektor Transportasi",
            "tanggal_terbit": "2022-07-22",
            "url_tdpse_detail": "https://pse.komdigi.go.id/tdpse-detail/8760",
            "website": "pratiwiexpress.com"
        },
        {
            "id": "9cb1abcc-848f-4450-a62b-424e221a964e",
            "nama_pse": "CITRA PERSADA",
            "nama_se": "CITRA PERSADA",
            "sektor": "Sektor Perdagangan",
            "tanggal_terbit": "2022-07-22",
            "url_tdpse_detail": "https://pse.komdigi.go.id/tdpse-detail/8763",
            "website": "citrapersada.org"
        },
        {
            "id": "9cb1abf2-4ec4-43a2-8f56-f1644840248a",
            "nama_pse": "GRAHA MEDIA BERITA NUSANTARA",
            "nama_se": "DEJOURNALINDONESIA.COM",
            "sektor": "Sektor Teknologi Informasi dan Komunikasi",
            "tanggal_terbit": "2022-07-22",
            "url_tdpse_detail": "https://pse.komdigi.go.id/tdpse-detail/8761",
            "website": "dejournalindonesia.com"
        },
        {
            "id": "9cb1abf2-5348-44da-9c12-bbcac537c77f",
            "nama_pse": "BANK PERKREDITAN RAKYAT WAHANA BERSAMA KPUM",
            "nama_se": "BANK PERKREDITAN RAKYAT WAHANA BERSAMA KPUM",
            "sektor": "Sektor Keuangan",
            "tanggal_terbit": "2022-07-22",
            "url_tdpse_detail": "https://pse.komdigi.go.id/tdpse-detail/8762",
            "website": "bprwahanabersamakpum.co.id"
        },
        {
            "id": "9cb1abbc-9db2-4a80-a0fc-8abd9df69361",
            "nama_pse": "BANK PEREKONOMIAN RAKYAT BADAN KREDIT KECAMATAN TASIKMADU PERSERODA KABUPATEN KARANGANYAR",
            "nama_se": "IBS BRANCHLESS",
            "sektor": "Sektor Keuangan",
            "tanggal_terbit": "2022-07-22",
            "url_tdpse_detail": "https://pse.komdigi.go.id/tdpse-detail/8764",
            "website": "-"
        },
        {
            "id": "9cb1abbc-9f81-4c6b-a062-720dcfb8bcdf",
            "nama_pse": "BANK PERKREDITAN RAKYAT DANAGUNG BAKTI",
            "nama_se": "WEBSITE BPR DANAGUNG BAKTI",
            "sektor": "Sektor Keuangan, Sektor Teknologi Informasi dan Komunikasi",
            "tanggal_terbit": "2022-07-22",
            "url_tdpse_detail": "https://pse.komdigi.go.id/tdpse-detail/8765",
            "website": "danagungbakti.co.id"
        },
        {
            "id": "9cb1abbc-a140-4b44-82b7-04caad3f8ee5",
            "nama_pse": "BESTPROFIT FUTURES",
            "nama_se": "REGOLBPF",
            "sektor": "Sektor Perdagangan, Sektor Keuangan",
            "tanggal_terbit": "2022-07-22",
            "url_tdpse_detail": "https://pse.komdigi.go.id/tdpse-detail/8766",
            "website": "regol.bestprofit-futures.co.id"
        },
        {
            "id": "9cb1abcc-8ff1-4e66-aebe-938156011ff3",
            "nama_pse": "BANK PEREKONOMIAN RAKYAT BUANA CITRA SEJAHTERA",
            "nama_se": "INTI COMP",
            "sektor": "Sektor Keuangan",
            "tanggal_terbit": "2022-07-22",
            "url_tdpse_detail": "https://pse.komdigi.go.id/tdpse-detail/8767",
            "website": "-"
        },
        {
            "id": "9cb1abf2-654b-42cd-b704-028579e26bd4",
            "nama_pse": "BESTPROFIT FUTURES",
            "nama_se": "OFFICIAL WEBSITE",
            "sektor": "Sektor Perdagangan, Sektor Keuangan",
            "tanggal_terbit": "2022-07-22",
            "url_tdpse_detail": "https://pse.komdigi.go.id/tdpse-detail/8776",
            "website": "bestprofit-futures.co.id"
        },
        {
            "id": "9cb1abcc-a44c-4507-85d1-afe9a2efd8d2",
            "nama_pse": "BANK PEREKONOMIAN RAKYAT SAPADHANA",
            "nama_se": "PT. BPR SAPADHANA",
            "sektor": "Sektor Keuangan",
            "tanggal_terbit": "2022-07-22",
            "url_tdpse_detail": "https://pse.komdigi.go.id/tdpse-detail/8777",
            "website": "-"
        },
        {
            "id": "9cb1abf2-6a92-4f71-b77d-02f6fbdcad8e",
            "nama_pse": "ALLIANSI SEGAR NUSANTARA",
            "nama_se": "KARMACLUB.ID",
            "sektor": "Sektor Teknologi Informasi dan Komunikasi",
            "tanggal_terbit": "2022-07-22",
            "url_tdpse_detail": "https://pse.komdigi.go.id/tdpse-detail/8778",
            "website": "karmaclub.id"
        },
        {
            "id": "9cb1abf2-6e23-42f6-b5f1-93b523097c06",
            "nama_pse": "BANK PERKREDITAN RAKYAT KEPRI BINTAN",
            "nama_se": "BPRKB",
            "sektor": "Sektor Teknologi Informasi dan Komunikasi",
            "tanggal_terbit": "2022-07-22",
            "url_tdpse_detail": "https://pse.komdigi.go.id/tdpse-detail/8780",
            "website": "bprkb.com"
        },
        {
            "id": "9cb1abcc-a86e-4b3a-a752-40e6e3649006",
            "nama_pse": "BESTPROFIT FUTURES",
            "nama_se": "PORTAL NEWS",
            "sektor": "Sektor Perdagangan, Sektor Keuangan",
            "tanggal_terbit": "2022-07-22",
            "url_tdpse_detail": "https://pse.komdigi.go.id/tdpse-detail/8779",
            "website": "bpfnews.com"
        },
        {
            "id": "9cb1abcc-ad62-4664-b7e6-45cc85beec94",
            "nama_pse": "BESTPROFIT FUTURES",
            "nama_se": "TRADEPROFX",
            "sektor": "Sektor Perdagangan, Sektor Keuangan",
            "tanggal_terbit": "2022-07-22",
            "url_tdpse_detail": "https://pse.komdigi.go.id/tdpse-detail/8781",
            "website": "-"
        },
        {
            "id": "9cb1abcc-b0e4-48e2-9cd0-ce76a9c06e57",
            "nama_pse": "BANK PERKREDITAN RAKYAT DANAGUNG BAKTI",
            "nama_se": "APLIKASI DANAGUNGGO",
            "sektor": "Sektor Keuangan",
            "tanggal_terbit": "2022-07-22",
            "url_tdpse_detail": "https://pse.komdigi.go.id/tdpse-detail/8782",
            "website": "-"
        },
        {
            "id": "9cb1abf2-75fd-42cd-b6dc-fa76f38a6631",
            "nama_pse": "BANK PERKREDITAN RAKYAT LEXI PRATAMA MANDIRI",
            "nama_se": "PT. BPR LEXI PRATAMA MANDIRI",
            "sektor": "Sektor Keuangan",
            "tanggal_terbit": "2022-07-22",
            "url_tdpse_detail": "https://pse.komdigi.go.id/tdpse-detail/8783",
            "website": "bprlpm.co.id"
        },
        {
            "id": "9cb1abcc-b3d3-470b-8c68-b621d61ce053",
            "nama_pse": "PERUM PERHUTANI",
            "nama_se": "PENJUALAN ONLINE TOKO PERHUTANI",
            "sektor": "Sektor Perdagangan",
            "tanggal_terbit": "2022-07-22",
            "url_tdpse_detail": "https://pse.komdigi.go.id/tdpse-detail/8786",
            "website": "tokoperhutani.com"
        },
        {
            "id": "9cb1abf2-7987-4368-9ec4-0c1ea1d99468",
            "nama_pse": "BANK PEREKONOMIAN RAKYAT RASYID",
            "nama_se": "EMBARE",
            "sektor": "Sektor Keuangan",
            "tanggal_terbit": "2022-07-22",
            "url_tdpse_detail": "https://pse.komdigi.go.id/tdpse-detail/8784",
            "website": "bprrasyid.co.id"
        },
        {
            "id": "9cb1abf2-7cf5-41e3-90a3-e84aecccae67",
            "nama_pse": "APLIKASI PROPERTI INDONESIA",
            "nama_se": "LINGKUP",
            "sektor": "Sektor Teknologi Informasi dan Komunikasi",
            "tanggal_terbit": "2022-07-22",
            "url_tdpse_detail": "https://pse.komdigi.go.id/tdpse-detail/8785",
            "website": "lingkup.co"
        },
        {
            "id": "9cb1abf2-872a-42d8-9ccf-4a59795ab8b2",
            "nama_pse": "BANK PEREKONOMIAN RAKYAT DANA BINTAN SEJAHTERA",
            "nama_se": "WEBSITE PT BPR DANA BINTAN SEJAHTERA",
            "sektor": "Sektor Keuangan",
            "tanggal_terbit": "2022-07-22",
            "url_tdpse_detail": "https://pse.komdigi.go.id/tdpse-detail/8787",
            "website": "dbs.com"
        },
        {
            "id": "9cb1abbc-a808-49b1-85eb-471851323e94",
            "nama_pse": "RIFAN FINANCINDO BERJANGKA",
            "nama_se": "REGOL RFB",
            "sektor": "Sektor Perdagangan, Sektor Keuangan",
            "tanggal_terbit": "2022-07-22",
            "url_tdpse_detail": "https://pse.komdigi.go.id/tdpse-detail/8789",
            "website": "regol.rifan-financindo-berjangka.co.id"
        },
        {
            "id": "9cb1abbc-a9c3-4ec5-85b8-3cb0dce6c0bf",
            "nama_pse": "WAHANA ANUGERAH ENERGI",
            "nama_se": "RAPEL",
            "sektor": "Sektor Teknologi Informasi dan Komunikasi",
            "tanggal_terbit": "2022-07-22",
            "url_tdpse_detail": "https://pse.komdigi.go.id/tdpse-detail/8803",
            "website": "rapel-id.com"
        },
        {
            "id": "9cb1abcc-b6db-4bd3-9e5c-5edc49f828dc",
            "nama_pse": "RIFAN FINANCINDO BERJANGKA",
            "nama_se": "OFFICIAL WEBSITE",
            "sektor": "Sektor Perdagangan, Sektor Keuangan",
            "tanggal_terbit": "2022-07-22",
            "url_tdpse_detail": "https://pse.komdigi.go.id/tdpse-detail/8791",
            "website": "rf-berjangka.com"
        },
        {
            "id": "9cb1abbc-ab68-4f2c-ae9f-c9ba1f1e1651",
            "nama_pse": "TRI SUKSES MAKMUR",
            "nama_se": "CELENGAN SEMAR",
            "sektor": "Sektor Perdagangan",
            "tanggal_terbit": "2022-07-22",
            "url_tdpse_detail": "https://pse.komdigi.go.id/tdpse-detail/8792",
            "website": "celengansemar.co.id"
        },
        {
            "id": "9cb1abbc-ad2e-4017-a5c7-6135325372a7",
            "nama_pse": "SOLUSI PERDANA PENGANTARAN",
            "nama_se": "MAXIM DELIVERY",
            "sektor": "Sektor Teknologi Informasi dan Komunikasi",
            "tanggal_terbit": "2022-07-22",
            "url_tdpse_detail": "https://pse.komdigi.go.id/tdpse-detail/8793",
            "website": "taximaxim.com"
        },
        {
            "id": "9cb1abcc-ba04-4a82-9c9e-46c65efb1a15",
            "nama_pse": "RIFAN FINANCINDO BERJANGKA",
            "nama_se": "PORTAL NEWS",
            "sektor": "Sektor Perdagangan, Sektor Keuangan",
            "tanggal_terbit": "2022-07-22",
            "url_tdpse_detail": "https://pse.komdigi.go.id/tdpse-detail/8794",
            "website": "rfbnews.com"
        },
        {
            "id": "9cb1abbc-af99-4acc-8e7f-184c35a560ef",
            "nama_pse": "RIFAN FINANCINDO BERJANGKA",
            "nama_se": "TRADEPROFX",
            "sektor": "Sektor Perdagangan, Sektor Keuangan",
            "tanggal_terbit": "2022-07-22",
            "url_tdpse_detail": "https://pse.komdigi.go.id/tdpse-detail/8795",
            "website": "-"
        },
        {
            "id": "9cb1abbc-b29c-438b-b1fb-d128df00ca79",
            "nama_pse": "INDAH KARGO MANDIRI",
            "nama_se": "ABUYA.CO.ID",
            "sektor": "Sektor Teknologi Informasi dan Komunikasi",
            "tanggal_terbit": "2022-07-22",
            "url_tdpse_detail": "https://pse.komdigi.go.id/tdpse-detail/8796",
            "website": "abuya.co.id"
        },
        {
            "id": "9cb1abbc-b46d-4884-b157-f9796b5b2f0c",
            "nama_pse": "SOLUSI PERDANA PENGANTARAN",
            "nama_se": "MAXIM",
            "sektor": "Sektor Perdagangan, Sektor Teknologi Informasi dan Komunikasi",
            "tanggal_terbit": "2022-07-22",
            "url_tdpse_detail": "https://pse.komdigi.go.id/tdpse-detail/8797",
            "website": "-"
        },
        {
            "id": "9cb1abf2-8b8e-4caa-8ee8-edd920035460",
            "nama_pse": "BANK PEREKONOMIAN RAKYAT KARYAPERDANA SEJAHTERA",
            "nama_se": "WEBSITE PT BPR KARYAPERDANA SEJAHTERA",
            "sektor": "Sektor Keuangan",
            "tanggal_terbit": "2022-07-22",
            "url_tdpse_detail": "https://pse.komdigi.go.id/tdpse-detail/8798",
            "website": "bprkps.co.id"
        },
        {
            "id": "9cb1abcc-bd00-46f9-a507-19c2143f28f3",
            "nama_pse": "PD BPR BAHTERAMAS RAHA",
            "nama_se": "PD. BPR BAHTERAMAS RAHA",
            "sektor": "Sektor Keuangan",
            "tanggal_terbit": "2022-07-22",
            "url_tdpse_detail": "https://pse.komdigi.go.id/tdpse-detail/8799",
            "website": "bprbahteramasraha.com"
        },
        {
            "id": "9cb1abbc-b64e-4303-af65-36dae7f3a295",
            "nama_pse": "BANK PERKREDITAN RAKYAT CARUBAN INDAH",
            "nama_se": "BPR CARUBAN INDAH",
            "sektor": "Sektor Keuangan",
            "tanggal_terbit": "2022-07-22",
            "url_tdpse_detail": "https://pse.komdigi.go.id/tdpse-detail/8800",
            "website": "-"
        },
        {
            "id": "9cb1abf2-8fa9-46e9-8dab-e12b2eb26437",
            "nama_pse": "ASURANSI EKA LLOYD JAYA",
            "nama_se": "WEBSITE EKALLOYD.COM",
            "sektor": "Sektor Keuangan",
            "tanggal_terbit": "2022-07-22",
            "url_tdpse_detail": "https://pse.komdigi.go.id/tdpse-detail/8827",
            "website": "ekalloyd.com"
        },
        {
            "id": "9cb1abbc-b863-4e2d-9795-aeaff5bce4f7",
            "nama_pse": "OKWI NUSANTARA SOLUSINDO",
            "nama_se": "OKWI NUSANTARA SOLUSINDO",
            "sektor": "Sektor Perdagangan",
            "tanggal_terbit": "2022-07-22",
            "url_tdpse_detail": "https://pse.komdigi.go.id/tdpse-detail/8801",
            "website": "-"
        },
        {
            "id": "9cb1abcc-c198-4f96-bc4b-9acc1ef3634d",
            "nama_pse": "BANK PERKREDITAN RAKYAT ARTA PUNDI MEKAR",
            "nama_se": "PT BPR ARTA PUNDI MEKAR",
            "sektor": "Sektor Keuangan",
            "tanggal_terbit": "2022-07-22",
            "url_tdpse_detail": "https://pse.komdigi.go.id/tdpse-detail/8802",
            "website": "artapundimekar.co.id"
        },
        {
            "id": "9cb1abf2-9415-4358-a389-8eb6ef2add01",
            "nama_pse": "KMO INDONESIA",
            "nama_se": "BUKULAKU",
            "sektor": "Sektor Teknologi Informasi dan Komunikasi",
            "tanggal_terbit": "2022-07-22",
            "url_tdpse_detail": "https://pse.komdigi.go.id/tdpse-detail/8804",
            "website": "bukulaku.id"
        },
        {
            "id": "9cb1abf2-9ab7-4813-8847-6f95a794aae1",
            "nama_pse": "WAHANA ANUGERAH ENERGI",
            "nama_se": "RAPEL INDONESIA",
            "sektor": "Sektor Teknologi Informasi dan Komunikasi",
            "tanggal_terbit": "2022-07-22",
            "url_tdpse_detail": "https://pse.komdigi.go.id/tdpse-detail/8805",
            "website": "rapel.id"
        },
        {
            "id": "9cb1abf2-9f5c-47e4-85d6-216d773153f4",
            "nama_pse": "EDEM CAPITAL SERVICE",
            "nama_se": "WWW.TAVOLOGROUP.COM",
            "sektor": "Sektor Perdagangan",
            "tanggal_terbit": "2022-07-22",
            "url_tdpse_detail": "https://pse.komdigi.go.id/tdpse-detail/8808",
            "website": "tavologroup.com"
        },
        {
            "id": "9cb1abf2-a322-4fcc-a0b1-a212fe3dac39",
            "nama_pse": "SUPRA PRIMATAMA NUSANTARA",
            "nama_se": "BIZNET HOTSPOT",
            "sektor": "Sektor Teknologi Informasi dan Komunikasi",
            "tanggal_terbit": "2022-07-22",
            "url_tdpse_detail": "https://pse.komdigi.go.id/tdpse-detail/8807",
            "website": "biznethotspot.com"
        },
        {
            "id": "9cb1abbc-ba35-4dc1-8326-ad2c528182b4",
            "nama_pse": "GLOBAL ONKOLAB FARMA",
            "nama_se": "HTTPS://WWW.ICCC.ID/",
            "sektor": "Sektor Kesehatan",
            "tanggal_terbit": "2022-07-22",
            "url_tdpse_detail": "https://pse.komdigi.go.id/tdpse-detail/8806",
            "website": "iccc.id"
        },
        {
            "id": "9cb1abf2-a6ec-43b2-a78e-1a34982e8d12",
            "nama_pse": "GLOBAL CIPTA LINEA",
            "nama_se": "DREAM WAIST",
            "sektor": "Sektor Perdagangan",
            "tanggal_terbit": "2022-07-22",
            "url_tdpse_detail": "https://pse.komdigi.go.id/tdpse-detail/8826",
            "website": "-"
        }
    ],
    "processingTimeMs": 3,
    "query": "",
    "totalHits": 19121,
    "hitsPerPage": 50,
    "page": 224,
    "totalPages": 383
}