{
    "hits": [
        {
            "id": "9cb1ab76-eb16-4f07-8ccf-393a7ef84097",
            "nama_pse": "PLUTONEXT DIGITAL ASET",
            "nama_se": "PLUTONEXT",
            "sektor": "Sektor Perdagangan, Sektor Perdagangan",
            "tanggal_terbit": "2022-02-17",
            "url_tdpse_detail": "https://pse.komdigi.go.id/tdpse-detail/3277",
            "website": "plutonext.com"
        },
        {
            "id": "9cb1ab89-ec42-43cc-8345-ddb9725ca984",
            "nama_pse": "DATACOMM DIANGRAHA",
            "nama_se": "DCLOUD",
            "sektor": "Sektor Teknologi Informasi dan Komunikasi, Sektor Teknologi Informasi dan Komunikasi",
            "tanggal_terbit": "2022-02-17",
            "url_tdpse_detail": "https://pse.komdigi.go.id/tdpse-detail/3275",
            "website": "Dcloud.co.id"
        },
        {
            "id": "9cb1ab7a-4d8c-4c96-8084-de48842aa6cd",
            "nama_pse": "HASTINAPURA MAKMUR SEJAHTERA",
            "nama_se": "HFX 6.1",
            "sektor": "Sektor Perdagangan, Sektor Perdagangan, Sektor Teknologi Informasi dan Komunikasi, Sektor Teknologi Informasi dan Komunikasi",
            "tanggal_terbit": "2022-02-17",
            "url_tdpse_detail": "https://pse.komdigi.go.id/tdpse-detail/3285",
            "website": "hastinapurafx.com"
        },
        {
            "id": "9cb1ab7a-d066-4f67-bdf1-7100f38e1884",
            "nama_pse": "BERKAH MAJU BERSAMA CIWIDEY",
            "nama_se": "POETAL WEB",
            "sektor": "Sektor Keuangan, Sektor Keuangan",
            "tanggal_terbit": "2022-02-17",
            "url_tdpse_detail": "https://pse.komdigi.go.id/tdpse-detail/3291",
            "website": "-"
        },
        {
            "id": "9cb1ab82-8778-4056-ad3a-2a0ac2dd3800",
            "nama_pse": "KREATIF INDOTEKNOLOGI ABADI",
            "nama_se": "SHAREVICO",
            "sektor": "Sektor Teknologi Informasi dan Komunikasi, Sektor Teknologi Informasi dan Komunikasi",
            "tanggal_terbit": "2022-02-17",
            "url_tdpse_detail": "https://pse.komdigi.go.id/tdpse-detail/3286",
            "website": "sharevico.com"
        },
        {
            "id": "9cb1ab8a-8ab4-4ae4-9693-16ceeeaa9f59",
            "nama_pse": "VIVO MOBILE INDONESIA",
            "nama_se": "SITUS VIVOCLUB.ID",
            "sektor": "Sektor Teknologi Informasi dan Komunikasi, Sektor Teknologi Informasi dan Komunikasi",
            "tanggal_terbit": "2022-02-17",
            "url_tdpse_detail": "https://pse.komdigi.go.id/tdpse-detail/3289",
            "website": "vivoclub.id"
        },
        {
            "id": "9cb1ab7a-f2b5-47ff-bf5e-11e1ae50a8b9",
            "nama_pse": "SEEGRUP TEKNOLOGI INDONESIA",
            "nama_se": "SEEGPS INDONESIA",
            "sektor": "Sektor Perdagangan, Sektor Perdagangan, Sektor Transportasi, Sektor Transportasi, Sektor Teknologi Informasi dan Komunikasi, Sektor Teknologi Informasi dan Komunikasi",
            "tanggal_terbit": "2022-02-17",
            "url_tdpse_detail": "https://pse.komdigi.go.id/tdpse-detail/3272",
            "website": "new.seegps.id"
        },
        {
            "id": "9cb1ab7b-02ff-42e4-a02e-2de45f784911",
            "nama_pse": "INTEGRA DATA SOLUSI",
            "nama_se": "SIAPKIRIM",
            "sektor": "Sektor Perdagangan, Sektor Perdagangan, Sektor Teknologi Informasi dan Komunikasi, Sektor Teknologi Informasi dan Komunikasi",
            "tanggal_terbit": "2022-02-17",
            "url_tdpse_detail": "https://pse.komdigi.go.id/tdpse-detail/3276",
            "website": "siapkirim.co.id"
        },
        {
            "id": "9cb1ab8a-be81-4d46-81ff-10bacc961fca",
            "nama_pse": "Pass Three Times",
            "nama_se": "WEBSITE ATAU PORTAL WEB",
            "sektor": "Sektor Teknologi Informasi dan Komunikasi, Sektor Teknologi Informasi dan Komunikasi, Sektor Teknologi Informasi dan Komunikasi",
            "tanggal_terbit": "2022-02-17",
            "url_tdpse_detail": "https://pse.komdigi.go.id/tdpse-detail/3273",
            "website": "creatory.id"
        },
        {
            "id": "9cb1ab82-c5ac-4507-b721-28ca485a6228",
            "nama_pse": "ALIANSI KOIN INDO",
            "nama_se": "KRIPTOSH",
            "sektor": "Sektor Perdagangan, Sektor Perdagangan",
            "tanggal_terbit": "2022-02-17",
            "url_tdpse_detail": "https://pse.komdigi.go.id/tdpse-detail/3287",
            "website": "kriptosh.com"
        },
        {
            "id": "9cb1ab82-daa3-4400-82c5-3d2dbe870dc9",
            "nama_pse": "BANGUN KARYA PERKASA JAYA",
            "nama_se": "PT BANGUN KARYA PERKASA JAYA",
            "sektor": "Sektor Perdagangan, Sektor Perdagangan",
            "tanggal_terbit": "2022-02-17",
            "url_tdpse_detail": "https://pse.komdigi.go.id/tdpse-detail/3279",
            "website": "ptbkpjaya.com"
        },
        {
            "id": "9cb1ab7b-0baa-4f79-8936-9e81c25fbe92",
            "nama_pse": "KEN BROTHERS INDONESIA",
            "nama_se": "KEN BROTHERS INDONESIA",
            "sektor": "Sektor Teknologi Informasi dan Komunikasi, Sektor Teknologi Informasi dan Komunikasi, Sektor Teknologi Informasi dan Komunikasi",
            "tanggal_terbit": "2022-02-17",
            "url_tdpse_detail": "https://pse.komdigi.go.id/tdpse-detail/3283",
            "website": "kenbrothers.id"
        },
        {
            "id": "9cb1ab7b-0eae-49ed-9e7e-96b2f29ef5bc",
            "nama_pse": "PAKET ANAK BANGSA",
            "nama_se": "GOSEND",
            "sektor": "Sektor Transportasi, Sektor Transportasi, Sektor Teknologi Informasi dan Komunikasi, Sektor Teknologi Informasi dan Komunikasi",
            "tanggal_terbit": "2022-02-17",
            "url_tdpse_detail": "https://pse.komdigi.go.id/tdpse-detail/3288",
            "website": "gosend.id"
        },
        {
            "id": "9cb1ab8a-cf66-4efc-983a-f7929473cf5f",
            "nama_pse": "SOLUSI NET INTERNUSA",
            "nama_se": "DIGISIGN",
            "sektor": "Sektor Teknologi Informasi dan Komunikasi",
            "tanggal_terbit": "2022-02-17",
            "url_tdpse_detail": "https://pse.komdigi.go.id/tdpse-detail/3290",
            "website": "digisign.id"
        },
        {
            "id": "9cb1ab8a-d160-4d13-8b98-cf3ed283f54b",
            "nama_pse": "LILY SUPRIYATIN",
            "nama_se": "PT.NOVA NOVI SHOP",
            "sektor": "Sektor Perdagangan, Sektor Perdagangan, Sektor Transportasi, Sektor Transportasi, Sektor Teknologi Informasi dan Komunikasi, Sektor Teknologi Informasi dan Komunikasi, Sektor Pertahanan dan Keamanan, Sektor Pertahanan dan Keamanan",
            "tanggal_terbit": "2022-02-17",
            "url_tdpse_detail": "https://pse.komdigi.go.id/tdpse-detail/3292",
            "website": "novanovishop.co.id"
        },
        {
            "id": "9cb1ab85-9855-4477-91cf-a1feaaf31231",
            "nama_pse": "GAGAS EDUKASI ANANTARA",
            "nama_se": "GREATNUSA.COM",
            "sektor": "Sektor Perdagangan, Sektor Perdagangan, Sektor Teknologi Informasi dan Komunikasi, Sektor Teknologi Informasi dan Komunikasi",
            "tanggal_terbit": "2022-02-17",
            "url_tdpse_detail": "https://pse.komdigi.go.id/tdpse-detail/3284",
            "website": "greatnusa.com"
        },
        {
            "id": "9cb1ab7e-22a2-416e-9b0e-3ec0289f50ee",
            "nama_pse": "IRON ASSET INDONESIA",
            "nama_se": "EC2 SERVICE/ AYOKITA WEB SERVICE",
            "sektor": "Sektor Perdagangan, Sektor Perdagangan",
            "tanggal_terbit": "2022-02-17",
            "url_tdpse_detail": "https://pse.komdigi.go.id/tdpse-detail/3282",
            "website": "ayokita.id"
        },
        {
            "id": "9cb1ab86-634f-4ec3-b479-a449afec64bd",
            "nama_pse": "CHUBB GENERAL INSURANCE INDONESIA",
            "nama_se": "CHUBB STUDIO",
            "sektor": "Sektor Keuangan, Sektor Keuangan",
            "tanggal_terbit": "2022-02-17",
            "url_tdpse_detail": "https://pse.komdigi.go.id/tdpse-detail/3274",
            "website": "chubb.com"
        },
        {
            "id": "9cb1ab8f-f4cb-4ccb-8c39-114403205ef3",
            "nama_pse": "DROPEZY MAJU INDONESIA",
            "nama_se": "PT DROPEZY MAJU INDONESIA",
            "sektor": "Sektor Perdagangan, Sektor Perdagangan, Sektor Perdagangan",
            "tanggal_terbit": "2022-02-17",
            "url_tdpse_detail": "https://pse.komdigi.go.id/tdpse-detail/3280",
            "website": "dropezy.com"
        },
        {
            "id": "9cb1ab81-9f32-46e3-9640-808fb686c69f",
            "nama_pse": "DISDUS INDONESIA",
            "nama_se": "FAVE | CASHBACK, DEALS, PAY LATER",
            "sektor": "Sektor Perdagangan, Sektor Perdagangan",
            "tanggal_terbit": "2022-02-16",
            "url_tdpse_detail": "https://pse.komdigi.go.id/tdpse-detail/3262",
            "website": "myfave.com"
        },
        {
            "id": "9cb1ab7a-da0f-4f6e-98ae-c1a84a69dd23",
            "nama_pse": "KREATIF INDOTEKNOLOGI ABADI",
            "nama_se": "SIPANDU (SISTEM INFORMASI PELAYANAN AKADEMIK \u0026 NILAI TERPADU)",
            "sektor": "Sektor Teknologi Informasi dan Komunikasi, Sektor Teknologi Informasi dan Komunikasi",
            "tanggal_terbit": "2022-02-16",
            "url_tdpse_detail": "https://pse.komdigi.go.id/tdpse-detail/3270",
            "website": "sipandukita.com"
        },
        {
            "id": "9cb1ab7a-e7ee-4572-8095-b0a4baf94036",
            "nama_pse": "BEKIND TEKNOLOGI ASIA",
            "nama_se": "BEKIND HUB",
            "sektor": "Sektor Teknologi Informasi dan Komunikasi, Sektor Teknologi Informasi dan Komunikasi",
            "tanggal_terbit": "2022-02-16",
            "url_tdpse_detail": "https://pse.komdigi.go.id/tdpse-detail/3267",
            "website": "bekindhub.org"
        },
        {
            "id": "9cb1ab8a-ac99-4a7e-b194-96930906620a",
            "nama_pse": "JULO TEKNOLOGI PERDANA",
            "nama_se": "AAPLIKASI JULO 360",
            "sektor": "Sektor Perdagangan, Sektor Teknologi Informasi dan Komunikasi, Sektor Teknologi Informasi dan Komunikasi",
            "tanggal_terbit": "2022-02-16",
            "url_tdpse_detail": "https://pse.komdigi.go.id/tdpse-detail/3263",
            "website": "-"
        },
        {
            "id": "9cb1ab8a-bc3c-477a-8ef1-cac19d5afec3",
            "nama_pse": "TALI KAMULAYANE JAGAD",
            "nama_se": "TAJAGA",
            "sektor": "Sektor Keuangan, Sektor Keuangan, Sektor Keuangan, Sektor Teknologi Informasi dan Komunikasi, Sektor Teknologi Informasi dan Komunikasi, Sektor Teknologi Informasi dan Komunikasi",
            "tanggal_terbit": "2022-02-16",
            "url_tdpse_detail": "https://pse.komdigi.go.id/tdpse-detail/3260",
            "website": "tajaga.com"
        },
        {
            "id": "9cb1ab8a-c1f5-4746-a692-590bc6541c54",
            "nama_pse": "ZONA MAKMUR",
            "nama_se": "TEMPATJUALAN",
            "sektor": "Sektor Perdagangan, Sektor Perdagangan, Sektor Teknologi Informasi dan Komunikasi, Sektor Teknologi Informasi dan Komunikasi",
            "tanggal_terbit": "2022-02-16",
            "url_tdpse_detail": "https://pse.komdigi.go.id/tdpse-detail/3261",
            "website": "tempatjualan.com"
        },
        {
            "id": "9cb1ab8a-c7b2-42cb-b67e-e1c456848d4c",
            "nama_pse": "QUANTUM METAL INDONESIA",
            "nama_se": "QM GOLD",
            "sektor": "Sektor Perdagangan, Sektor Perdagangan",
            "tanggal_terbit": "2022-02-16",
            "url_tdpse_detail": "https://pse.komdigi.go.id/tdpse-detail/3265",
            "website": "quantummetal.id"
        },
        {
            "id": "9cb1ab7b-092d-437f-b495-be3582f6494d",
            "nama_pse": "INFO NUSA MANDIRI",
            "nama_se": "INM",
            "sektor": "Sektor Perdagangan, Sektor Perdagangan, Sektor Teknologi Informasi dan Komunikasi, Sektor Teknologi Informasi dan Komunikasi",
            "tanggal_terbit": "2022-02-16",
            "url_tdpse_detail": "https://pse.komdigi.go.id/tdpse-detail/3268",
            "website": "INFONUSAMANDIRI.COM"
        },
        {
            "id": "9cb1ab82-cd1b-414d-a8aa-6e011c1821d9",
            "nama_pse": "SOLUSI KARYA NUSANTARA",
            "nama_se": "PT. SOLUSI KARYA NUSANTARA",
            "sektor": "Sektor Perdagangan, Sektor Perdagangan",
            "tanggal_terbit": "2022-02-16",
            "url_tdpse_detail": "https://pse.komdigi.go.id/tdpse-detail/3269",
            "website": "karyanusantara.co.id"
        },
        {
            "id": "9cb1ab8a-cb32-4db3-8496-2fda4f7195ff",
            "nama_pse": "BISH TEKNOLOGI LESTARI",
            "nama_se": "SISTEM INFORMASI MANAJEMEN INFORMASI DAN KEUANGAN",
            "sektor": "Sektor Keuangan, Sektor Keuangan, Sektor Kesehatan, Sektor Kesehatan, Sektor Teknologi Informasi dan Komunikasi, Sektor Teknologi Informasi dan Komunikasi",
            "tanggal_terbit": "2022-02-16",
            "url_tdpse_detail": "https://pse.komdigi.go.id/tdpse-detail/3271",
            "website": "-"
        },
        {
            "id": "9cb1ab86-83ea-4532-a8e0-e767dd99d93c",
            "nama_pse": "SATRIA TEKNOLOGI PERFORMA",
            "nama_se": "SATRIA TEKNOLOGI PERFORMA",
            "sektor": "Sektor Perdagangan, Sektor Perdagangan, Sektor Teknologi Informasi dan Komunikasi, Sektor Teknologi Informasi dan Komunikasi",
            "tanggal_terbit": "2022-02-16",
            "url_tdpse_detail": "https://pse.komdigi.go.id/tdpse-detail/3264",
            "website": "kitakirim.id"
        },
        {
            "id": "9cb1ab8d-faa8-477d-8c8c-a555803d8b37",
            "nama_pse": "SATRIA TEKNOLOGI PERFORMA",
            "nama_se": "KITAKIRIM.ID",
            "sektor": "Sektor Perdagangan, Sektor Perdagangan, Sektor Teknologi Informasi dan Komunikasi, Sektor Teknologi Informasi dan Komunikasi",
            "tanggal_terbit": "2022-02-16",
            "url_tdpse_detail": "https://pse.komdigi.go.id/tdpse-detail/3266",
            "website": "-"
        },
        {
            "id": "9cb1ab68-4c16-489e-afc4-025c1623e38b",
            "nama_pse": "INDOTAMA SENTOSA LESTARI",
            "nama_se": "STORE2GO",
            "sektor": "Sektor Teknologi Informasi dan Komunikasi, Sektor Teknologi Informasi dan Komunikasi, Sektor Teknologi Informasi dan Komunikasi, Sektor Teknologi Informasi dan Komunikasi",
            "tanggal_terbit": "2022-02-15",
            "url_tdpse_detail": "https://pse.komdigi.go.id/tdpse-detail/3255",
            "website": "store2go.co.id"
        },
        {
            "id": "9cb1ab77-5b2b-43bb-8dbe-df01bf43c419",
            "nama_pse": "MEDIA DIMENSI TEKNOLOGI INDONESIA",
            "nama_se": "EPAYSMART",
            "sektor": "Sektor Teknologi Informasi dan Komunikasi, Sektor Teknologi Informasi dan Komunikasi, Sektor Teknologi Informasi dan Komunikasi",
            "tanggal_terbit": "2022-02-15",
            "url_tdpse_detail": "https://pse.komdigi.go.id/tdpse-detail/3256",
            "website": "-"
        },
        {
            "id": "9cb1ab81-da8c-477b-a7d2-6166b63ceded",
            "nama_pse": "ANARGYARUPA KARYA DIGITAL",
            "nama_se": "SRUPA",
            "sektor": "Sektor Perdagangan, Sektor Perdagangan, Sektor Keuangan, Sektor Keuangan, Sektor Teknologi Informasi dan Komunikasi, Sektor Teknologi Informasi dan Komunikasi",
            "tanggal_terbit": "2022-02-15",
            "url_tdpse_detail": "https://pse.komdigi.go.id/tdpse-detail/3257",
            "website": "srupa.io"
        },
        {
            "id": "9cb1ab82-7d5e-4681-805e-bb410e7403c3",
            "nama_pse": "PERUSAHAAN PERSEROAN (PERSERO) PT. PENGUSAHAAN DAERAH INDUSTRI PULAU BATAM",
            "nama_se": "APLIKASI PELANGGAN (AKAPELA)",
            "sektor": "Sektor Transportasi, Sektor Transportasi, Sektor Teknologi Informasi dan Komunikasi, Sektor Teknologi Informasi dan Komunikasi",
            "tanggal_terbit": "2022-02-15",
            "url_tdpse_detail": "https://pse.komdigi.go.id/tdpse-detail/3252",
            "website": "akapela.perserobatam.id"
        },
        {
            "id": "9cb1ab7a-d72e-4bad-bbf3-83d24122fe04",
            "nama_pse": "PERUSAHAAN PERSEROAN (PERSERO) PT. PENGUSAHAAN DAERAH INDUSTRI PULAU BATAM",
            "nama_se": "LOGISTIK BATAM",
            "sektor": "Sektor Transportasi, Sektor Transportasi, Sektor Teknologi Informasi dan Komunikasi, Sektor Teknologi Informasi dan Komunikasi",
            "tanggal_terbit": "2022-02-15",
            "url_tdpse_detail": "https://pse.komdigi.go.id/tdpse-detail/3253",
            "website": "logistikbatam.com"
        },
        {
            "id": "9cb1ab8a-7b8c-4460-84ba-dcb3356c3002",
            "nama_pse": "PERUSAHAAN PERSEROAN (PERSERO) PT. PENGUSAHAAN DAERAH INDUSTRI PULAU BATAM",
            "nama_se": "WEBSITE PERUSAHAAN",
            "sektor": "Sektor Teknologi Informasi dan Komunikasi, Sektor Teknologi Informasi dan Komunikasi",
            "tanggal_terbit": "2022-02-15",
            "url_tdpse_detail": "https://pse.komdigi.go.id/tdpse-detail/3254",
            "website": "perserobatam.com"
        },
        {
            "id": "9cb1ab82-9ede-47c0-ad21-74e5f10c7bc7",
            "nama_pse": "OFFICIUM NOBILE INDOLAW",
            "nama_se": "E-LAWYER",
            "sektor": "Sektor Teknologi Informasi dan Komunikasi, Sektor Teknologi Informasi dan Komunikasi",
            "tanggal_terbit": "2022-02-15",
            "url_tdpse_detail": "https://pse.komdigi.go.id/tdpse-detail/3250",
            "website": "officiumnobile.com"
        },
        {
            "id": "9cb1ab8a-a408-4fea-9e3b-1317ccd58082",
            "nama_pse": "KUNCI TRANSFORMASI DIGITAL",
            "nama_se": "KUNCI SISTEM MANAJEMEN MUTU PENDIDIKAN",
            "sektor": "Sektor Teknologi Informasi dan Komunikasi, Sektor Teknologi Informasi dan Komunikasi",
            "tanggal_terbit": "2022-02-15",
            "url_tdpse_detail": "https://pse.komdigi.go.id/tdpse-detail/3258",
            "website": "demosmk.sekolah.kunci.co.id"
        },
        {
            "id": "9cb1ab8a-b0a4-4aee-a390-c29727f14056",
            "nama_pse": "AGAM MEDIA TEKNOLOGI",
            "nama_se": "AGAMPAYMENT",
            "sektor": "Sektor Perdagangan, Sektor Perdagangan, Sektor Teknologi Informasi dan Komunikasi, Sektor Teknologi Informasi dan Komunikasi",
            "tanggal_terbit": "2022-02-15",
            "url_tdpse_detail": "https://pse.komdigi.go.id/tdpse-detail/3259",
            "website": "agampayment.id"
        },
        {
            "id": "9cb1ab7e-1a58-4af6-a1b0-7b23152c59e3",
            "nama_pse": "BIGO INFORMATION INDONESIA",
            "nama_se": "BIGO LIVE",
            "sektor": "Sektor Teknologi Informasi dan Komunikasi, Sektor Teknologi Informasi dan Komunikasi",
            "tanggal_terbit": "2022-02-15",
            "url_tdpse_detail": "https://pse.komdigi.go.id/tdpse-detail/3251",
            "website": "bigo.tv"
        },
        {
            "id": "9cb1ab7a-87e9-4a71-af5c-cb76d7076343",
            "nama_pse": "TRANSMARCO",
            "nama_se": "9TO9 ONLINE",
            "sektor": "Sektor Perdagangan, Sektor Perdagangan",
            "tanggal_terbit": "2022-02-14",
            "url_tdpse_detail": "https://pse.komdigi.go.id/tdpse-detail/3245",
            "website": "9to9.co.id"
        },
        {
            "id": "9cb1ab7a-b923-490e-956b-c89fe150b4a4",
            "nama_pse": "TEKNOLOGI PINTAR NUSANTARA",
            "nama_se": "FINTAR",
            "sektor": "Sektor Teknologi Informasi dan Komunikasi, Sektor Teknologi Informasi dan Komunikasi",
            "tanggal_terbit": "2022-02-14",
            "url_tdpse_detail": "https://pse.komdigi.go.id/tdpse-detail/3242",
            "website": "fintar.co.id"
        },
        {
            "id": "9cb1ab8a-90a6-4854-98a6-1c11b3118383",
            "nama_pse": "INFOVESTA UTAMA",
            "nama_se": "INVESTDATA",
            "sektor": "Sektor Teknologi Informasi dan Komunikasi, Sektor Teknologi Informasi dan Komunikasi",
            "tanggal_terbit": "2022-02-14",
            "url_tdpse_detail": "https://pse.komdigi.go.id/tdpse-detail/3249",
            "website": "infovesta.com"
        },
        {
            "id": "9cb1ab8a-92de-4cc0-be81-76292fcd99e6",
            "nama_pse": "MAHAKA RADIO DIGITAL",
            "nama_se": "NOICE",
            "sektor": "Sektor Teknologi Informasi dan Komunikasi, Sektor Teknologi Informasi dan Komunikasi",
            "tanggal_terbit": "2022-02-14",
            "url_tdpse_detail": "https://pse.komdigi.go.id/tdpse-detail/3243",
            "website": "noice.id"
        },
        {
            "id": "9cb1ab8a-996b-4473-a9a7-08453a939a14",
            "nama_pse": "PERUSAHAAN PERSEROAN (PERSERO) PT. BIO FARMA DISINGKAT PT. BIO FARMA (PERSERO)",
            "nama_se": "MEDEVO",
            "sektor": "Sektor Kesehatan, Sektor Kesehatan",
            "tanggal_terbit": "2022-02-14",
            "url_tdpse_detail": "https://pse.komdigi.go.id/tdpse-detail/3244",
            "website": "medevo.id"
        },
        {
            "id": "9cb1ab82-a872-4cd6-ac0c-1b0fd5ae113f",
            "nama_pse": "KALYANU SOLUSI OPTIMA",
            "nama_se": "GAME MERCHANT KALYANU SOLUSI OPTIMA",
            "sektor": "Sektor Teknologi Informasi dan Komunikasi, Sektor Teknologi Informasi dan Komunikasi",
            "tanggal_terbit": "2022-02-14",
            "url_tdpse_detail": "https://pse.komdigi.go.id/tdpse-detail/3246",
            "website": "-"
        },
        {
            "id": "9cb1ab86-7e5a-4038-89b0-526b09893fe6",
            "nama_pse": "CITA TEKNOLOGI INDONESIA",
            "nama_se": "MASWINDOKU",
            "sektor": "Sektor Perdagangan, Sektor Perdagangan, Sektor Teknologi Informasi dan Komunikasi, Sektor Teknologi Informasi dan Komunikasi",
            "tanggal_terbit": "2022-02-14",
            "url_tdpse_detail": "https://pse.komdigi.go.id/tdpse-detail/3247",
            "website": "maswindokupay.com"
        },
        {
            "id": "9cb1ab8f-f258-4f19-bbb8-44d9f244f3f6",
            "nama_pse": "FINACCEL TEKNOLOGI INDONESIA",
            "nama_se": "HALOKAS.COM",
            "sektor": "Sektor Teknologi Informasi dan Komunikasi, Sektor Teknologi Informasi dan Komunikasi",
            "tanggal_terbit": "2022-02-14",
            "url_tdpse_detail": "https://pse.komdigi.go.id/tdpse-detail/3248",
            "website": "halokas.com"
        },
        {
            "id": "9cb1ab9f-3ef9-4c86-9379-4dac2ca04724",
            "nama_pse": "HARUNIA JAYA GRUP",
            "nama_se": "SHOPPY",
            "sektor": "Sektor Perdagangan, Sektor Perdagangan, Sektor Perdagangan, Sektor Pangan, Sektor Pangan, Sektor Pangan",
            "tanggal_terbit": "2022-02-14",
            "url_tdpse_detail": "https://pse.komdigi.go.id/tdpse-detail/3241",
            "website": "-"
        }
    ],
    "processingTimeMs": 10,
    "query": "",
    "totalHits": 19121,
    "hitsPerPage": 50,
    "page": 321,
    "totalPages": 383
}