{
    "hits": [
        {
            "id": "9cb1abe7-5764-48af-b3d6-bbe30b1c906d",
            "nama_pse": "BANK PEMBANGUNAN DAERAH KALIMANTAN SELATAN PERSERODA",
            "nama_se": "EMPLOYEE HEALTH SERVICE",
            "sektor": "Sektor Teknologi Informasi dan Komunikasi",
            "tanggal_terbit": "2022-07-19",
            "url_tdpse_detail": "https://pse.komdigi.go.id/tdpse-detail/7100",
            "website": "hcis.bankkalsel.co.id"
        },
        {
            "id": "9cb1abc1-fa2e-41b9-a1d0-057b91a80c4c",
            "nama_pse": "BANK PEMBANGUNAN DAERAH KALIMANTAN SELATAN PERSERODA",
            "nama_se": "DIGITAL ASSESSMENT TEST",
            "sektor": "Sektor Teknologi Informasi dan Komunikasi",
            "tanggal_terbit": "2022-07-19",
            "url_tdpse_detail": "https://pse.komdigi.go.id/tdpse-detail/7097",
            "website": "hcis.bankkalsel.co.id"
        },
        {
            "id": "9cb1abe7-5c6b-4531-9c12-673355448080",
            "nama_pse": "MNC FINANCE",
            "nama_se": "SALES FORCE DANAMOBIL",
            "sektor": "Sektor Keuangan",
            "tanggal_terbit": "2022-07-19",
            "url_tdpse_detail": "https://pse.komdigi.go.id/tdpse-detail/7087",
            "website": "mncdanamobil.com"
        },
        {
            "id": "9cb1abe7-617e-44d2-aaa1-af79c9f1305b",
            "nama_pse": "BANK PEREKONOMIAN RAKYAT UTOMO MANUNGGAL SEJAHTERA LAMPUNG",
            "nama_se": "EMAIL HOSTING BPR UTOMO",
            "sektor": "Sektor Keuangan",
            "tanggal_terbit": "2022-07-19",
            "url_tdpse_detail": "https://pse.komdigi.go.id/tdpse-detail/7086",
            "website": "utomobank.com"
        },
        {
            "id": "9cb1abc1-fc57-4d03-8dca-f3502060747f",
            "nama_pse": "BANK PERKREDITAN RAKYAT MITRA DAYA MANDIRI",
            "nama_se": "NBP SYS",
            "sektor": "Sektor Keuangan",
            "tanggal_terbit": "2022-07-19",
            "url_tdpse_detail": "https://pse.komdigi.go.id/tdpse-detail/7089",
            "website": "-"
        },
        {
            "id": "9cb1abe7-6601-415b-acda-aba65059696d",
            "nama_pse": "INTI DHARMA GLOBAL INDO",
            "nama_se": "FASTLAB",
            "sektor": "Sektor Kesehatan, Sektor Teknologi Informasi dan Komunikasi",
            "tanggal_terbit": "2022-07-19",
            "url_tdpse_detail": "https://pse.komdigi.go.id/tdpse-detail/7084",
            "website": "fastlab.id"
        },
        {
            "id": "9cb1abb6-dabe-434e-9e6b-7f8f7dd854c3",
            "nama_pse": "BANK PEMBANGUNAN DAERAH RIAU KEPRI SYARIAH PERSERODA",
            "nama_se": "WEBSITE BANK RIAU KEPRI",
            "sektor": "Sektor Keuangan",
            "tanggal_terbit": "2022-07-19",
            "url_tdpse_detail": "https://pse.komdigi.go.id/tdpse-detail/7083",
            "website": "bankriaukepri.co.id"
        },
        {
            "id": "9cb1abe7-6aae-4313-981b-5bd9a5806a6e",
            "nama_pse": "BANK PEMBANGUNAN DAERAH KALIMANTAN SELATAN PERSERODA",
            "nama_se": "I-STAND",
            "sektor": "Sektor Teknologi Informasi dan Komunikasi",
            "tanggal_terbit": "2022-07-19",
            "url_tdpse_detail": "https://pse.komdigi.go.id/tdpse-detail/7106",
            "website": "istand.bankkalsel.co.id"
        },
        {
            "id": "9cb1abb6-dccb-4a2f-b8bd-f20a084de2dd",
            "nama_pse": "KALIMASADA SAKTI TEKNOLOGI",
            "nama_se": "TYXMA.COM",
            "sektor": "Sektor Perdagangan",
            "tanggal_terbit": "2022-07-19",
            "url_tdpse_detail": "https://pse.komdigi.go.id/tdpse-detail/7088",
            "website": "tyxma.com"
        },
        {
            "id": "9cb1abc1-fe83-4c82-a8ce-017736e9d141",
            "nama_pse": "XL AXIATA",
            "nama_se": "FLEXIOT",
            "sektor": "Sektor Teknologi Informasi dan Komunikasi",
            "tanggal_terbit": "2022-07-19",
            "url_tdpse_detail": "https://pse.komdigi.go.id/tdpse-detail/7090",
            "website": "flexiot.xl.co.id"
        },
        {
            "id": "9cb1abc2-008c-455b-adb4-7517e8f20410",
            "nama_pse": "BANK SYARIAH INDONESIA",
            "nama_se": "SISTEM INFORMASI PEGAWAI VERSI MOBILE",
            "sektor": "Sektor Keuangan",
            "tanggal_terbit": "2022-07-19",
            "url_tdpse_detail": "https://pse.komdigi.go.id/tdpse-detail/7091",
            "website": "msip.bsm.co.id"
        },
        {
            "id": "9cb1abe7-6f5c-412a-8822-03641b728adb",
            "nama_pse": "BANK PEREKONOMIAN RAKYAT HAYURA ARTALOLA",
            "nama_se": "COMPANY PROFILE BPR HAYURA ARTALOLA",
            "sektor": "Sektor Keuangan",
            "tanggal_terbit": "2022-07-19",
            "url_tdpse_detail": "https://pse.komdigi.go.id/tdpse-detail/7094",
            "website": "bprhayura.co.id"
        },
        {
            "id": "9cb1abc2-02dc-411c-b8eb-396a4caca08e",
            "nama_pse": "AFIF SUBAGJA",
            "nama_se": "ASB STORE",
            "sektor": "Sektor Teknologi Informasi dan Komunikasi",
            "tanggal_terbit": "2022-07-19",
            "url_tdpse_detail": "https://pse.komdigi.go.id/tdpse-detail/7095",
            "website": "-"
        },
        {
            "id": "9cb1abc2-05de-43da-98b3-267d0ba84d66",
            "nama_pse": "BANK PERKREDITAN RAKYAT MODERN EXPRESS SULTRA",
            "nama_se": "DIGITAL MODERN (DIGIMOD) E-LOAN  BPR MODERN EXPRESS SULTRA",
            "sektor": "Sektor Keuangan",
            "tanggal_terbit": "2022-07-19",
            "url_tdpse_detail": "https://pse.komdigi.go.id/tdpse-detail/7096",
            "website": "digimod.bprmodernkendari.com"
        },
        {
            "id": "9cb1abb6-df1d-4000-bbfe-c5d26887612b",
            "nama_pse": "PUJI ASTUTI",
            "nama_se": "KIOS KONTER",
            "sektor": "Sektor Perdagangan",
            "tanggal_terbit": "2022-07-19",
            "url_tdpse_detail": "https://pse.komdigi.go.id/tdpse-detail/7098",
            "website": "kioskonter.com"
        },
        {
            "id": "9cb1abe7-7422-4be1-9587-1f518c635446",
            "nama_pse": "BURSA EFEK INDONESIA",
            "nama_se": "CENTRALIZED TRADING PLATFORM - PENERIMA LAPORAN TRANSAKSI EFEK (CTP-PLTE)",
            "sektor": "Sektor Keuangan",
            "tanggal_terbit": "2022-07-19",
            "url_tdpse_detail": "https://pse.komdigi.go.id/tdpse-detail/7115",
            "website": "-"
        },
        {
            "id": "9cb1abc2-0861-419e-977b-5a92450ed3de",
            "nama_pse": "SARANA GLOBAL FINANCE INDONESIA",
            "nama_se": "SARANA GLOBAL FINANCE INDONESIA",
            "sektor": "Sektor Perdagangan, Sektor Keuangan",
            "tanggal_terbit": "2022-07-19",
            "url_tdpse_detail": "https://pse.komdigi.go.id/tdpse-detail/7099",
            "website": "sgfinance.co.id"
        },
        {
            "id": "9cb1abe7-78eb-409e-9c21-d6196b4d151b",
            "nama_pse": "CSM CORPORATAMA",
            "nama_se": "CSM CORPORATAMA (ELITE CAR RENTAL)",
            "sektor": "Sektor Transportasi",
            "tanggal_terbit": "2022-07-19",
            "url_tdpse_detail": "https://pse.komdigi.go.id/tdpse-detail/7107",
            "website": "elite.indorent.co.id"
        },
        {
            "id": "9cb1abb6-e0d1-4f35-80c6-49e49174081d",
            "nama_pse": "BANK PEMBIAYAAN RAKYAT SYARIAH BANDAR LAMPUNG",
            "nama_se": "ISLAMIC BANKING APPLICATION",
            "sektor": "Sektor Teknologi Informasi dan Komunikasi",
            "tanggal_terbit": "2022-07-19",
            "url_tdpse_detail": "https://pse.komdigi.go.id/tdpse-detail/7108",
            "website": "banksyariahbandarlampung.co.id"
        },
        {
            "id": "9cb1abe7-7cc3-42e8-8cbc-52af034a03bd",
            "nama_pse": "ETHIS FINTEK INDONESIA",
            "nama_se": "ETHIS",
            "sektor": "Sektor Keuangan, Sektor Teknologi Informasi dan Komunikasi",
            "tanggal_terbit": "2022-07-19",
            "url_tdpse_detail": "https://pse.komdigi.go.id/tdpse-detail/7104",
            "website": "ethis.co.id"
        },
        {
            "id": "9cb1abc2-0b87-4b49-b002-180ab7636f61",
            "nama_pse": "BANK PERKREDITAN RAKYAT MODERN EXPRESS SULTRA",
            "nama_se": "DIGITAL MODERN (DIGIMOD) E-COLLECTION-BPR MODERN EXPRESS SULTRA",
            "sektor": "Sektor Keuangan",
            "tanggal_terbit": "2022-07-19",
            "url_tdpse_detail": "https://pse.komdigi.go.id/tdpse-detail/7109",
            "website": "-"
        },
        {
            "id": "9cb1abc2-0fd8-420f-8813-09f83a59929a",
            "nama_pse": "BANK PERKREDITAN RAKYAT CIANJUR JABAR",
            "nama_se": "WEBSITE PT BPR CIANJUR JABAR",
            "sektor": "Sektor Keuangan",
            "tanggal_terbit": "2022-07-19",
            "url_tdpse_detail": "https://pse.komdigi.go.id/tdpse-detail/7112",
            "website": "bprcianjur.co.id"
        },
        {
            "id": "9cb1abb6-e5f2-4bcf-a358-bfea0e5c3502",
            "nama_pse": "META MORPHOO STUDIOS",
            "nama_se": "MORPHOO",
            "sektor": "Sektor Teknologi Informasi dan Komunikasi",
            "tanggal_terbit": "2022-07-19",
            "url_tdpse_detail": "https://pse.komdigi.go.id/tdpse-detail/7110",
            "website": "ns8.wixdns.net"
        },
        {
            "id": "9cb1abb6-e79e-44a2-9ca2-0edaba1cc4b7",
            "nama_pse": "BANK PERKREDITAN RAKYAT ELESKA ARTHA",
            "nama_se": "BPR ELESKA ARTHA",
            "sektor": "Sektor Keuangan",
            "tanggal_terbit": "2022-07-19",
            "url_tdpse_detail": "https://pse.komdigi.go.id/tdpse-detail/7111",
            "website": "bpreleskaartha.com"
        },
        {
            "id": "9cb1abe7-8334-4181-a0f4-6925a4fe3d9f",
            "nama_pse": "Solihin",
            "nama_se": "EBUDSPAY",
            "sektor": "Sektor Perdagangan",
            "tanggal_terbit": "2022-07-19",
            "url_tdpse_detail": "https://pse.komdigi.go.id/tdpse-detail/7116",
            "website": "ebudspay.com"
        },
        {
            "id": "9cb1abb6-eb12-4234-820d-b116c6e26875",
            "nama_pse": "BANK PERKREDITAN RAKYAT MITRA KOPJAYA MANDIRI",
            "nama_se": "BANK PERKREDITAN RAKYAT MITRA KOPJAYA MANDIRI",
            "sektor": "Sektor Keuangan",
            "tanggal_terbit": "2022-07-19",
            "url_tdpse_detail": "https://pse.komdigi.go.id/tdpse-detail/7117",
            "website": "bprmitrakopjaya.com"
        },
        {
            "id": "9cb1abe7-8d77-4421-abc1-5f06447e5a7e",
            "nama_pse": "QEONG MAS INDONESIA",
            "nama_se": "PT QEONG MAS INDONESIA",
            "sektor": "Sektor Perdagangan, Sektor Teknologi Informasi dan Komunikasi",
            "tanggal_terbit": "2022-07-19",
            "url_tdpse_detail": "https://pse.komdigi.go.id/tdpse-detail/7118",
            "website": "Qeong.com"
        },
        {
            "id": "9cb1abe7-9439-465a-bace-51720dab89bc",
            "nama_pse": "BANUA KREASI TEKNOLOGI",
            "nama_se": "BANUA EPAY",
            "sektor": "Sektor Perdagangan",
            "tanggal_terbit": "2022-07-19",
            "url_tdpse_detail": "https://pse.komdigi.go.id/tdpse-detail/7119",
            "website": "banuaepay.co.id"
        },
        {
            "id": "9cb1abc2-128a-47bf-83bf-0e25ea3a5325",
            "nama_pse": "ANTAR CEPAT ABADI",
            "nama_se": "SEIGO",
            "sektor": "Sektor Perdagangan",
            "tanggal_terbit": "2022-07-19",
            "url_tdpse_detail": "https://pse.komdigi.go.id/tdpse-detail/7120",
            "website": "seigo.co.id"
        },
        {
            "id": "9cb1abc2-1539-48d5-8564-08fa04d1adbe",
            "nama_pse": "WAHYU GUNAWAN",
            "nama_se": "EVOTA",
            "sektor": "Sektor Perdagangan, Sektor Teknologi Informasi dan Komunikasi",
            "tanggal_terbit": "2022-07-19",
            "url_tdpse_detail": "https://pse.komdigi.go.id/tdpse-detail/7122",
            "website": "evota.net"
        },
        {
            "id": "9cb1abb6-ecfa-4711-bab7-8d3443fbe62e",
            "nama_pse": "BANK PERKREDITAN RAKYAT PRISMABERLIAN DANARTA",
            "nama_se": "BANK PERKREDITAN RAKYAT PRISMABERLIAN DANARTA",
            "sektor": "Sektor Keuangan",
            "tanggal_terbit": "2022-07-19",
            "url_tdpse_detail": "https://pse.komdigi.go.id/tdpse-detail/7124",
            "website": "-"
        },
        {
            "id": "9cb1abc2-17b2-458e-9498-b3f6a5c2cb29",
            "nama_pse": "Muhammad Taufik",
            "nama_se": "SULTRAPAYMENT",
            "sektor": "Sektor Perdagangan",
            "tanggal_terbit": "2022-07-19",
            "url_tdpse_detail": "https://pse.komdigi.go.id/tdpse-detail/7125",
            "website": "sultrapayment.com"
        },
        {
            "id": "9cb1abc2-1af8-4295-a3ae-9b4e0a09a44d",
            "nama_pse": "TRIPEDIA GLOBAL ADVENTURA",
            "nama_se": "TRIPWE",
            "sektor": "Sektor Perdagangan",
            "tanggal_terbit": "2022-07-19",
            "url_tdpse_detail": "https://pse.komdigi.go.id/tdpse-detail/7133",
            "website": "tripwe.com"
        },
        {
            "id": "9cb1abe7-9dec-40ed-94a4-7afb310ecec1",
            "nama_pse": "XL AXIATA",
            "nama_se": "LAUT NUSANTARA",
            "sektor": "Sektor Teknologi Informasi dan Komunikasi",
            "tanggal_terbit": "2022-07-19",
            "url_tdpse_detail": "https://pse.komdigi.go.id/tdpse-detail/7126",
            "website": "lanus.xl.co.id"
        },
        {
            "id": "9cb1abb6-f2c1-4b35-af3f-64eb7f414d4e",
            "nama_pse": "BANK PERKREDITAN RAKYAT NUSANTARA BONA PASOGIT 20",
            "nama_se": "BANK PERKREDITAN RAKYAT NUSANTARA BONA PASOGIT 20",
            "sektor": "Sektor Keuangan",
            "tanggal_terbit": "2022-07-19",
            "url_tdpse_detail": "https://pse.komdigi.go.id/tdpse-detail/7127",
            "website": "bprnbp20.co.id"
        },
        {
            "id": "9cb1abb6-f556-4433-8746-a648641104f7",
            "nama_pse": "BANK PERKREDITAN RAKYAT SHINTA DAYA",
            "nama_se": "WEBSITE BPR SHINTA DAYA",
            "sektor": "Sektor Keuangan",
            "tanggal_terbit": "2022-07-19",
            "url_tdpse_detail": "https://pse.komdigi.go.id/tdpse-detail/7132",
            "website": "bankshintadaya.com"
        },
        {
            "id": "9cb1abb6-f7cf-4206-980e-7bc6d0178310",
            "nama_pse": "BANK PERKREDITAN RAKYAT UKABIMA LUMBUNG SEJAHTERA",
            "nama_se": "EBPR",
            "sektor": "Sektor Keuangan",
            "tanggal_terbit": "2022-07-19",
            "url_tdpse_detail": "https://pse.komdigi.go.id/tdpse-detail/7131",
            "website": "ukabima-lumbung-sejahtera.co.id"
        },
        {
            "id": "9cb1abb6-fa2a-4f77-8825-67b45f08d71b",
            "nama_pse": "BANK PEREKONOMIAN RAKYAT NAGA",
            "nama_se": "WEBSITE BPR NAGA",
            "sektor": "Sektor Keuangan",
            "tanggal_terbit": "2022-07-19",
            "url_tdpse_detail": "https://pse.komdigi.go.id/tdpse-detail/7128",
            "website": "bprnaga.com"
        },
        {
            "id": "9cb1abc2-1e32-40c4-ac02-57c616f66648",
            "nama_pse": "BANK PEREKONOMIAN RAKYAT CINTA MANIS AGROLOKA",
            "nama_se": "PT BANK PERKREDITAN RAKYAT CINTA MANIS AGROLOKA",
            "sektor": "Sektor Keuangan",
            "tanggal_terbit": "2022-07-19",
            "url_tdpse_detail": "https://pse.komdigi.go.id/tdpse-detail/7130",
            "website": "bprcintamanisagroloka.com"
        },
        {
            "id": "9cb1abb6-ffe9-4c85-a3fc-8d4d652ba721",
            "nama_pse": "SYAHRUL SHAHRIAL",
            "nama_se": "EAZYIN",
            "sektor": "Sektor Teknologi Informasi dan Komunikasi",
            "tanggal_terbit": "2022-07-19",
            "url_tdpse_detail": "https://pse.komdigi.go.id/tdpse-detail/7134",
            "website": "eazyin.co.id"
        },
        {
            "id": "9cb1abc2-2471-4bd1-8868-3fb55aec8cc4",
            "nama_pse": "STEFANUS HARTONO KURNIAWAN",
            "nama_se": "RAJAWALI RELOAD",
            "sektor": "Sektor Perdagangan",
            "tanggal_terbit": "2022-07-19",
            "url_tdpse_detail": "https://pse.komdigi.go.id/tdpse-detail/7148",
            "website": "Rajawalireload.com"
        },
        {
            "id": "9cb1abe7-a112-45df-b812-ea4a84e8ff79",
            "nama_pse": "CISCO TECHNOLOGIES INDONESIA",
            "nama_se": "WEBEX",
            "sektor": "Sektor Teknologi Informasi dan Komunikasi",
            "tanggal_terbit": "2022-07-19",
            "url_tdpse_detail": "https://pse.komdigi.go.id/tdpse-detail/7147",
            "website": "webex.com"
        },
        {
            "id": "9cb1abe7-a570-4ba9-96ec-c1f85b9fd43c",
            "nama_pse": "Wawan Candra Dinata ",
            "nama_se": "TRAVELDATA: AGEN PULSA \u0026 KUOTA",
            "sektor": "Sektor Perdagangan",
            "tanggal_terbit": "2022-07-19",
            "url_tdpse_detail": "https://pse.komdigi.go.id/tdpse-detail/7136",
            "website": "traveldata.id"
        },
        {
            "id": "9cb1abe7-a906-478f-a66c-31b48d76d877",
            "nama_pse": "BANK SMBC INDONESIA",
            "nama_se": "AKSESBISNIS@BTPN",
            "sektor": "Sektor Keuangan",
            "tanggal_terbit": "2022-07-19",
            "url_tdpse_detail": "https://pse.komdigi.go.id/tdpse-detail/7138",
            "website": "aksesbisnis.btpn.com"
        },
        {
            "id": "9cb1abe7-adfd-4150-b3a8-c2f14776991e",
            "nama_pse": "STEFANUS HARTONO KURNIAWAN",
            "nama_se": "RAJAWALI PULSA",
            "sektor": "Sektor Perdagangan",
            "tanggal_terbit": "2022-07-19",
            "url_tdpse_detail": "https://pse.komdigi.go.id/tdpse-detail/7137",
            "website": "Rajawalireload.com"
        },
        {
            "id": "9cb1abe7-b38a-4ee6-ac98-dd71653d17ba",
            "nama_pse": "BANK PEMBANGUNAN DAERAH BALI",
            "nama_se": "E-RETRIBUSI BANK BPD BALI",
            "sektor": "Sektor Keuangan",
            "tanggal_terbit": "2022-07-19",
            "url_tdpse_detail": "https://pse.komdigi.go.id/tdpse-detail/7142",
            "website": "eretribusi.bpdbali.co.id"
        },
        {
            "id": "9cb1abc2-2788-4eed-93cb-50e80b956655",
            "nama_pse": "MOHAMMAD TAUFIQURROHMAN",
            "nama_se": "APLIKASI PENCATATAN INFORMASI KEUANGAN BLUD RSUD SULTAN FATAH KABUPATEN DEMAK",
            "sektor": "Sektor Teknologi Informasi dan Komunikasi",
            "tanggal_terbit": "2022-07-19",
            "url_tdpse_detail": "https://pse.komdigi.go.id/tdpse-detail/7143",
            "website": "blud.rsudsulfat.com"
        },
        {
            "id": "9cb1abe7-b9c8-411d-b867-553ebf99ff90",
            "nama_pse": "INTI CAKRAWALA CITRA",
            "nama_se": "STOCK POINT INDOGROSIR (SPI)",
            "sektor": "Sektor Perdagangan",
            "tanggal_terbit": "2022-07-19",
            "url_tdpse_detail": "https://pse.komdigi.go.id/tdpse-detail/7144",
            "website": "spi.klikindogrosir.com"
        },
        {
            "id": "9cb1abc2-2cbc-4ad4-9787-ccba05d5e789",
            "nama_pse": "BANK HSBC INDONESIA",
            "nama_se": "CORPORATE INTERNET BANKING HSBCNET",
            "sektor": "Sektor Keuangan",
            "tanggal_terbit": "2022-07-19",
            "url_tdpse_detail": "https://pse.komdigi.go.id/tdpse-detail/7145",
            "website": "hsbcnet.com"
        },
        {
            "id": "9cb1abc2-2f49-4ea9-9ad1-ac707349ae7d",
            "nama_pse": "ENVIPEDIA HARMONI INDONESIA",
            "nama_se": "ENVIPEDIA",
            "sektor": "Sektor Perdagangan",
            "tanggal_terbit": "2022-07-19",
            "url_tdpse_detail": "https://pse.komdigi.go.id/tdpse-detail/7146",
            "website": "-"
        }
    ],
    "processingTimeMs": 4,
    "query": "",
    "totalHits": 19121,
    "hitsPerPage": 50,
    "page": 263,
    "totalPages": 383
}