{
    "hits": [
        {
            "id": "9cb1ac82-aa4a-4d0e-a6d5-d4ba006485eb",
            "nama_pse": "SENS DIGITAL INDONESIA",
            "nama_se": "SENSDIGI.COM",
            "sektor": "Sektor Perdagangan, Sektor Teknologi Informasi dan Komunikasi",
            "tanggal_terbit": "2024-04-02",
            "url_tdpse_detail": "https://pse.komdigi.go.id/tdpse-detail/18515",
            "website": "sensdigi.com"
        },
        {
            "id": "9cb1ac58-ddb8-44a2-a23c-3fe36bab59c0",
            "nama_pse": "DOMPET CLASSIFIED ADS",
            "nama_se": "DOMPET",
            "sektor": "Sektor Perdagangan",
            "tanggal_terbit": "2024-04-02",
            "url_tdpse_detail": "https://pse.komdigi.go.id/tdpse-detail/18514",
            "website": "dompet.my.id"
        },
        {
            "id": "9cb1ac58-c53c-48a2-915c-74cd1ee8d2fe",
            "nama_pse": "KUMALA NUGRAHA RACHMI",
            "nama_se": "SISTEM INFORMASI KLINIK RACHMI",
            "sektor": "Sektor Kesehatan, Sektor Teknologi Informasi dan Komunikasi",
            "tanggal_terbit": "2024-04-02",
            "url_tdpse_detail": "https://pse.komdigi.go.id/tdpse-detail/18512",
            "website": "-"
        },
        {
            "id": "9cb1ac6e-180a-427d-b0ad-479cba1daf7b",
            "nama_pse": "DOMPET CLASSIFIED ADS",
            "nama_se": "DOMPET DONATION",
            "sektor": "Sektor Perdagangan",
            "tanggal_terbit": "2024-04-02",
            "url_tdpse_detail": "https://pse.komdigi.go.id/tdpse-detail/18513",
            "website": "donation.dompet.my.id"
        },
        {
            "id": "9cb1ac82-a45c-46f6-9f51-bcf656f41604",
            "nama_pse": "NAWINDO",
            "nama_se": "SIEJAKA",
            "sektor": "Sektor Kesehatan",
            "tanggal_terbit": "2024-04-02",
            "url_tdpse_detail": "https://pse.komdigi.go.id/tdpse-detail/18508",
            "website": "-"
        },
        {
            "id": "9cb1ac6e-1073-4b5e-8d80-22cbe789d441",
            "nama_pse": "FAKTA DELAPAN DELAPAN",
            "nama_se": "FAKTA88.CO.ID",
            "sektor": "Sektor Teknologi Informasi dan Komunikasi",
            "tanggal_terbit": "2024-04-02",
            "url_tdpse_detail": "https://pse.komdigi.go.id/tdpse-detail/18509",
            "website": "fakta88.co.id"
        },
        {
            "id": "9cb1ac6e-1496-4953-b59c-de90ae88a898",
            "nama_pse": "DICKY PRIBADI WIBAWA",
            "nama_se": "KLINIKGITAMEDIKA",
            "sektor": "Sektor Kesehatan",
            "tanggal_terbit": "2024-04-02",
            "url_tdpse_detail": "https://pse.komdigi.go.id/tdpse-detail/18510",
            "website": "klinikgitamedika.com"
        },
        {
            "id": "9cb1ac81-f91e-4a20-9b7c-3f023f1e5ed2",
            "nama_pse": "DEWATA KARYA MANDIRI",
            "nama_se": "DEWATA GALLERY",
            "sektor": "Sektor Perdagangan",
            "tanggal_terbit": "2024-04-01",
            "url_tdpse_detail": "https://pse.komdigi.go.id/tdpse-detail/18503",
            "website": "-"
        },
        {
            "id": "9cb1ac6e-0612-4494-a9b5-fd264a6069c1",
            "nama_pse": "DOMPET CLASSIFIED ADS",
            "nama_se": "DOMPET INDONESIA",
            "sektor": "Sektor Perdagangan",
            "tanggal_terbit": "2024-04-01",
            "url_tdpse_detail": "https://pse.komdigi.go.id/tdpse-detail/18506",
            "website": "id.dompet.my.id"
        },
        {
            "id": "9cb1ac58-cbcb-498f-8e26-b9e0d83d67b7",
            "nama_pse": "AKSARA DIGITAL",
            "nama_se": "AKSARA DIGITAL",
            "sektor": "Sektor Teknologi Informasi dan Komunikasi",
            "tanggal_terbit": "2024-04-01",
            "url_tdpse_detail": "https://pse.komdigi.go.id/tdpse-detail/18492",
            "website": "wunik.id"
        },
        {
            "id": "9cb1ac82-937f-4745-b84c-873a232ded00",
            "nama_pse": "TAUFIK KADAFIK NAMAKULE",
            "nama_se": "SIMRS MASOHI",
            "sektor": "Sektor Kesehatan",
            "tanggal_terbit": "2024-04-01",
            "url_tdpse_detail": "https://pse.komdigi.go.id/tdpse-detail/18498",
            "website": "-"
        },
        {
            "id": "9cb1ac6d-facf-453d-93d5-790d6ed9f8c1",
            "nama_pse": "TAUFIK KADAFIK NAMAKULE",
            "nama_se": "SIMRSUD PIRU",
            "sektor": "Sektor Kesehatan",
            "tanggal_terbit": "2024-04-01",
            "url_tdpse_detail": "https://pse.komdigi.go.id/tdpse-detail/18499",
            "website": "-"
        },
        {
            "id": "9cb1ac82-a1c4-4258-a7ff-1a1884cb9a8e",
            "nama_pse": "SHARIA TRAVEL INTERNATIONAL",
            "nama_se": "MABROOR",
            "sektor": "Sektor Teknologi Informasi dan Komunikasi",
            "tanggal_terbit": "2024-04-01",
            "url_tdpse_detail": "https://pse.komdigi.go.id/tdpse-detail/18505",
            "website": "mabroor.id"
        },
        {
            "id": "9cb1ac58-d4eb-43ce-a886-a381bb359a13",
            "nama_pse": "PAPAN SARANABHAKTI",
            "nama_se": "NARITA HOTEL",
            "sektor": "Sektor Perdagangan",
            "tanggal_terbit": "2024-04-01",
            "url_tdpse_detail": "https://pse.komdigi.go.id/tdpse-detail/18504",
            "website": "naritahotel.com"
        },
        {
            "id": "9cb1ac6d-ff2b-4dcf-91c8-ec811d6a800f",
            "nama_pse": "LODA ELECTRONIC COMMERCE",
            "nama_se": "LODA INDONESIA",
            "sektor": "Sektor Perdagangan",
            "tanggal_terbit": "2024-04-01",
            "url_tdpse_detail": "https://pse.komdigi.go.id/tdpse-detail/18500",
            "website": "-"
        },
        {
            "id": "9cb1ac6d-c9fc-4f32-8f8d-bd3f55bf00dc",
            "nama_pse": "KARAKTER PALOMA SEJATI",
            "nama_se": "CHARACTER-LAND",
            "sektor": "Sektor Perdagangan",
            "tanggal_terbit": "2024-04-01",
            "url_tdpse_detail": "https://pse.komdigi.go.id/tdpse-detail/18501",
            "website": "character-land.com"
        },
        {
            "id": "9cb1ac6d-f000-4b1c-b3ba-9334de324111",
            "nama_pse": "DADI JUNAEDI",
            "nama_se": "AIP-SMARTCLINIC",
            "sektor": "Sektor Teknologi Informasi dan Komunikasi",
            "tanggal_terbit": "2024-03-31",
            "url_tdpse_detail": "https://pse.komdigi.go.id/tdpse-detail/18489",
            "website": "-"
        },
        {
            "id": "9cb1ac82-8777-4859-8b4c-b8b4ec0e28b5",
            "nama_pse": "ARRA MEDIA CENTER",
            "nama_se": "LAYANAN INTERNET LOKAL ( RT RW NET )",
            "sektor": "Sektor Teknologi Informasi dan Komunikasi",
            "tanggal_terbit": "2024-03-31",
            "url_tdpse_detail": "https://pse.komdigi.go.id/tdpse-detail/18487",
            "website": "-"
        },
        {
            "id": "9cb1ac82-8c01-4c79-85a8-d60eb01283ab",
            "nama_pse": "JIWA SUKSES BERSAMA",
            "nama_se": "SEJIWA",
            "sektor": "Sektor Teknologi Informasi dan Komunikasi",
            "tanggal_terbit": "2024-03-31",
            "url_tdpse_detail": "https://pse.komdigi.go.id/tdpse-detail/18488",
            "website": "sejiwa.id"
        },
        {
            "id": "9cb1ac58-c8a5-44de-a37f-6a18bc9c2bbf",
            "nama_pse": "FOKUS LINTAS MEDIA",
            "nama_se": "RN-NEWS.COM",
            "sektor": "Sektor Teknologi Informasi dan Komunikasi",
            "tanggal_terbit": "2024-03-31",
            "url_tdpse_detail": "https://pse.komdigi.go.id/tdpse-detail/18490",
            "website": "rn-news.com"
        },
        {
            "id": "9cb1ac6d-f384-415a-a37d-a2a295e00cf7",
            "nama_pse": "LIBERA SOLUTIF PRATAMA",
            "nama_se": "LIBERA",
            "sektor": "Sektor Teknologi Informasi dan Komunikasi",
            "tanggal_terbit": "2024-03-31",
            "url_tdpse_detail": "https://pse.komdigi.go.id/tdpse-detail/18491",
            "website": "libera.id"
        },
        {
            "id": "9cb1ac58-c29d-4313-8734-a4e90a88d7ba",
            "nama_pse": "BALAI LABORATORIUM KESEHATAN DAN KALIBRASI PROVINSI DAERAH LSTIMEWA YOGYAKARTA",
            "nama_se": "EMILAB",
            "sektor": "Sektor Kesehatan",
            "tanggal_terbit": "2024-03-30",
            "url_tdpse_detail": "https://pse.komdigi.go.id/tdpse-detail/18485",
            "website": "-"
        },
        {
            "id": "9cb1ac6d-ec2a-4de6-9e46-dc8af1d7dc67",
            "nama_pse": "KURVA DIGITAL NUSANTARA",
            "nama_se": "SISTEM INFORMASI MANAJEMEN PUSKESMAS, KLINIK DAN RUMAH SAKIT",
            "sektor": "Sektor Kesehatan, Sektor Teknologi Informasi dan Komunikasi",
            "tanggal_terbit": "2024-03-30",
            "url_tdpse_detail": "https://pse.komdigi.go.id/tdpse-detail/18486",
            "website": "-"
        },
        {
            "id": "9cb1ac6d-8e07-486d-8d1c-f1a5d3c39b69",
            "nama_pse": "ANJANA JAYA TEKNOLOGI",
            "nama_se": "ANJANA JAYA TEKNOLOGI",
            "sektor": "Sektor Perdagangan, Sektor Teknologi Informasi dan Komunikasi",
            "tanggal_terbit": "2024-03-29",
            "url_tdpse_detail": "https://pse.komdigi.go.id/tdpse-detail/18479",
            "website": "anjanajayateknologi.com"
        },
        {
            "id": "9cb1ac6d-e4c4-4033-867b-54e367310318",
            "nama_pse": "PUGUH GITA JANUAR",
            "nama_se": "HALAL GRATIS",
            "sektor": "Sektor Teknologi Informasi dan Komunikasi",
            "tanggal_terbit": "2024-03-29",
            "url_tdpse_detail": "https://pse.komdigi.go.id/tdpse-detail/18484",
            "website": "halal.gratis"
        },
        {
            "id": "9cb1ac58-b58b-4df2-ba6d-5ab454d462e4",
            "nama_pse": "MEDIKA DIGITAL INDONESIA",
            "nama_se": "APLIKASI KLINIK WASIR",
            "sektor": "Sektor Kesehatan",
            "tanggal_terbit": "2024-03-29",
            "url_tdpse_detail": "https://pse.komdigi.go.id/tdpse-detail/18480",
            "website": "web.dokterwasir.id"
        },
        {
            "id": "9cb1ac58-b979-44ed-babf-c181cc90f5a7",
            "nama_pse": "JANTUNG BALI MEDIKA",
            "nama_se": "HAMIS KARANGASEM BALI",
            "sektor": "Sektor Kesehatan",
            "tanggal_terbit": "2024-03-29",
            "url_tdpse_detail": "https://pse.komdigi.go.id/tdpse-detail/18481",
            "website": "-"
        },
        {
            "id": "9cb1ac6d-ddc0-4dfe-bbbf-e57753ac0261",
            "nama_pse": "EL-SYIFA",
            "nama_se": "SIMRS EL-SYIFA",
            "sektor": "Sektor Kesehatan",
            "tanggal_terbit": "2024-03-29",
            "url_tdpse_detail": "https://pse.komdigi.go.id/tdpse-detail/18482",
            "website": "-"
        },
        {
            "id": "9cb1ac6d-e102-4317-a983-02128f54a74e",
            "nama_pse": "AL MIZAN",
            "nama_se": "AL MIZAN",
            "sektor": "Sektor Perdagangan",
            "tanggal_terbit": "2024-03-29",
            "url_tdpse_detail": "https://pse.komdigi.go.id/tdpse-detail/18483",
            "website": "mizan-apostille.my.id"
        },
        {
            "id": "9cb1ac82-7b0e-4c33-938a-9d1a8f6ca417",
            "nama_pse": "EASTWOOD INVESTA CAKRAWALA",
            "nama_se": "EAST WOOD INVESTA CAKRAWALA",
            "sektor": "Sektor Keuangan",
            "tanggal_terbit": "2024-03-28",
            "url_tdpse_detail": "https://pse.komdigi.go.id/tdpse-detail/18466",
            "website": "kspeastwood.id"
        },
        {
            "id": "9cb1ac6d-9715-4924-9646-81654d1cbd2f",
            "nama_pse": "PINJAMAN KEMAKMURAN RAKYAT",
            "nama_se": "APLIKASI KLIKUMKM",
            "sektor": "Sektor Keuangan",
            "tanggal_terbit": "2024-03-28",
            "url_tdpse_detail": "https://pse.komdigi.go.id/tdpse-detail/18468",
            "website": "-"
        },
        {
            "id": "9cb1ac6d-a00d-4d5c-a05a-76179b99178e",
            "nama_pse": "KUSTODIAN SENTRAL EFEK INDONESIA",
            "nama_se": "CORES.KSEI (CENTRALIZED INVESTOR DATA MANAGEMENT SYSTEM)",
            "sektor": "Sektor Keuangan",
            "tanggal_terbit": "2024-03-28",
            "url_tdpse_detail": "https://pse.komdigi.go.id/tdpse-detail/18467",
            "website": "-"
        },
        {
            "id": "9cb1ac6d-c1c3-40df-99dc-cb8d6daeb0cd",
            "nama_pse": "DR. YAP PRAWIROHUSODO",
            "nama_se": "SISTEM INFORMASI MANAJEMEN KLINIK UTAMA MATA \"DR. YAP\" MAGELANG",
            "sektor": "Sektor Teknologi Informasi dan Komunikasi",
            "tanggal_terbit": "2024-03-28",
            "url_tdpse_detail": "https://pse.komdigi.go.id/tdpse-detail/18469",
            "website": "-"
        },
        {
            "id": "9cb1ac58-a606-4b3b-835a-297ccbb72486",
            "nama_pse": "JASA KARTINI KLINIKA",
            "nama_se": "SIM JKK KPJK BANJAR",
            "sektor": "Sektor Kesehatan",
            "tanggal_terbit": "2024-03-28",
            "url_tdpse_detail": "https://pse.komdigi.go.id/tdpse-detail/18460",
            "website": "-"
        },
        {
            "id": "9cb1ac58-a938-438c-a9eb-3b4efc0e4694",
            "nama_pse": "JASA KARTINI KLINIKA",
            "nama_se": "SIM JKK KPJK CIAMIS",
            "sektor": "Sektor Kesehatan",
            "tanggal_terbit": "2024-03-28",
            "url_tdpse_detail": "https://pse.komdigi.go.id/tdpse-detail/18462",
            "website": "-"
        },
        {
            "id": "9cb1ac58-b266-4496-9e12-e644b5989761",
            "nama_pse": "AA INTERNATIONAL INDONESIA",
            "nama_se": "ACROSS ASIA ASSIST",
            "sektor": "Sektor Kesehatan",
            "tanggal_terbit": "2024-03-28",
            "url_tdpse_detail": "https://pse.komdigi.go.id/tdpse-detail/18475",
            "website": "acrossasiaassist.co.id"
        },
        {
            "id": "9cb1ac82-738e-424a-82b5-1b9843cd9a21",
            "nama_pse": "AA INTERNATIONAL INDONESIA",
            "nama_se": "NOVA SYSTEM",
            "sektor": "Sektor Kesehatan",
            "tanggal_terbit": "2024-03-28",
            "url_tdpse_detail": "https://pse.komdigi.go.id/tdpse-detail/18463",
            "website": "nova.acrossasiaassist.co.id"
        },
        {
            "id": "9cb1ac82-76a9-43ec-9c67-43f76417a412",
            "nama_pse": "FAIZA BAKTI MEDIKA",
            "nama_se": "SIM KLINIK UTAMA FAIZA",
            "sektor": "Sektor Kesehatan",
            "tanggal_terbit": "2024-03-28",
            "url_tdpse_detail": "https://pse.komdigi.go.id/tdpse-detail/18472",
            "website": "-"
        },
        {
            "id": "9cb1ac6d-b9f0-4d1e-9585-5c3f57b0e189",
            "nama_pse": "MIL PLATINUM BERSAUDARA SURABAYA",
            "nama_se": "VHP SYSTEM HOTEL",
            "sektor": "Sektor Teknologi Informasi dan Komunikasi",
            "tanggal_terbit": "2024-03-28",
            "url_tdpse_detail": "https://pse.komdigi.go.id/tdpse-detail/18465",
            "website": "platinumhotelindonesia.com"
        },
        {
            "id": "9cb1ac82-56aa-48d3-8037-55c00f691762",
            "nama_pse": "BNC SEKURITAS INDONESIA",
            "nama_se": "SAS REMOTE TRADING DAN BACK OFFICE",
            "sektor": "Sektor Keuangan",
            "tanggal_terbit": "2024-03-28",
            "url_tdpse_detail": "https://pse.komdigi.go.id/tdpse-detail/18473",
            "website": "bncsekuritas.com"
        },
        {
            "id": "9cb1ac6d-d677-458e-999d-7ada1a7c561a",
            "nama_pse": "ELMI PERDANA",
            "nama_se": "ELMI HOTEL",
            "sektor": "Sektor Perdagangan",
            "tanggal_terbit": "2024-03-28",
            "url_tdpse_detail": "https://pse.komdigi.go.id/tdpse-detail/18477",
            "website": "elmihotel.co.id"
        },
        {
            "id": "9cb1ac58-ac1c-4f3e-abeb-cb99b353c6e6",
            "nama_pse": "PUTRA DWI MUKTI",
            "nama_se": "RELASI CLINIC ERP KMC",
            "sektor": "Sektor Kesehatan",
            "tanggal_terbit": "2024-03-28",
            "url_tdpse_detail": "https://pse.komdigi.go.id/tdpse-detail/18470",
            "website": "-"
        },
        {
            "id": "9cb1ac6d-ce31-4e02-b133-f0e85d133b22",
            "nama_pse": "DIGITAL SOLUSI GRUP",
            "nama_se": "DSG",
            "sektor": "Sektor Teknologi Informasi dan Komunikasi",
            "tanggal_terbit": "2024-03-28",
            "url_tdpse_detail": "https://pse.komdigi.go.id/tdpse-detail/18474",
            "website": "dsg.id"
        },
        {
            "id": "9cb1ac58-af1c-47fb-a437-44ba5cf1e9d9",
            "nama_pse": "MEDIKA DIGITAL INDONESIA",
            "nama_se": "APLIKASI KLINIK SUNAT",
            "sektor": "Sektor Kesehatan",
            "tanggal_terbit": "2024-03-28",
            "url_tdpse_detail": "https://pse.komdigi.go.id/tdpse-detail/18476",
            "website": "rumahsunatan.net"
        },
        {
            "id": "9cb1ac82-7eeb-4316-bc78-2b146f64cbd4",
            "nama_pse": "ALGOSTUDIO",
            "nama_se": "YARA FARMCARE",
            "sektor": "Sektor Pangan",
            "tanggal_terbit": "2024-03-28",
            "url_tdpse_detail": "https://pse.komdigi.go.id/tdpse-detail/18478",
            "website": "-"
        },
        {
            "id": "9cb1ac82-7097-4e7c-b958-bad1f1ac2d32",
            "nama_pse": "GELORA DJAJA",
            "nama_se": "WHIS.WISMILAK",
            "sektor": "Sektor Kesehatan",
            "tanggal_terbit": "2024-03-28",
            "url_tdpse_detail": "https://pse.komdigi.go.id/tdpse-detail/18464",
            "website": "whis.wismilak.com"
        },
        {
            "id": "9cb1ac58-9439-4f37-8932-8f65a24283fd",
            "nama_pse": "JASA KARTINI KLINIKA",
            "nama_se": "SIM JKK KPJK TASIKMALAYA",
            "sektor": "Sektor Kesehatan",
            "tanggal_terbit": "2024-03-27",
            "url_tdpse_detail": "https://pse.komdigi.go.id/tdpse-detail/18446",
            "website": "-"
        },
        {
            "id": "9cb1ac58-916c-4b88-b443-e726fa9fbb21",
            "nama_pse": "CIPTA SELARAS MADANI",
            "nama_se": "CASMEDIC",
            "sektor": "Sektor Kesehatan",
            "tanggal_terbit": "2024-03-27",
            "url_tdpse_detail": "https://pse.komdigi.go.id/tdpse-detail/18440",
            "website": "-"
        },
        {
            "id": "9cb1ac6d-916c-4482-9fb7-d7f982becd56",
            "nama_pse": "DWI KARYA DIGITAL",
            "nama_se": "GETCLINIC",
            "sektor": "Sektor Kesehatan, Sektor Teknologi Informasi dan Komunikasi",
            "tanggal_terbit": "2024-03-27",
            "url_tdpse_detail": "https://pse.komdigi.go.id/tdpse-detail/18441",
            "website": "dkd.co.id"
        },
        {
            "id": "9cb1ac82-635f-4435-a48f-8ace51d4c81f",
            "nama_pse": "NUSANTARA SEBELAS MEDIKA",
            "nama_se": "SINUSA",
            "sektor": "Sektor Kesehatan",
            "tanggal_terbit": "2024-03-27",
            "url_tdpse_detail": "https://pse.komdigi.go.id/tdpse-detail/18442",
            "website": "-"
        }
    ],
    "processingTimeMs": 1,
    "query": "",
    "totalHits": 19121,
    "hitsPerPage": 50,
    "page": 74,
    "totalPages": 383
}