{
    "hits": [
        {
            "id": "9cb1abd9-0b24-4a95-897a-0f8ee0ce3747",
            "nama_pse": "EXPERT DATA VOICE SOLUTION",
            "nama_se": "EDAVOS.COM",
            "sektor": "Sektor Teknologi Informasi dan Komunikasi",
            "tanggal_terbit": "2022-08-23",
            "url_tdpse_detail": "https://pse.komdigi.go.id/tdpse-detail/10712",
            "website": "edavos.com"
        },
        {
            "id": "9cb1abd9-0efc-4ec3-99a6-3f63216f1201",
            "nama_pse": "TRUST SEKURITAS",
            "nama_se": "TRUST ONLINE SISTEM",
            "sektor": "Sektor Keuangan",
            "tanggal_terbit": "2022-08-23",
            "url_tdpse_detail": "https://pse.komdigi.go.id/tdpse-detail/10713",
            "website": "trust.co.id"
        },
        {
            "id": "9cb1abd9-166b-4f80-b73a-5283f5906172",
            "nama_pse": "KINIKU MUDA INDONESIA",
            "nama_se": "BUJO",
            "sektor": "Sektor Perdagangan",
            "tanggal_terbit": "2022-08-23",
            "url_tdpse_detail": "https://pse.komdigi.go.id/tdpse-detail/10714",
            "website": "bujo.info"
        },
        {
            "id": "9cb1abfe-c230-412d-be55-139878f955da",
            "nama_pse": "MINUM YUK KAKA",
            "nama_se": "WWW.MINUMYUKKAKA.COM",
            "sektor": "Sektor Perdagangan",
            "tanggal_terbit": "2022-08-23",
            "url_tdpse_detail": "https://pse.komdigi.go.id/tdpse-detail/10716",
            "website": "-"
        },
        {
            "id": "9cb1abfe-c560-4b64-8c35-a55c59f032a0",
            "nama_pse": "JACCS MITRA PINASTHIKA MUSTIKA FINANCE INDONESIA",
            "nama_se": "JM CARE",
            "sektor": "Sektor Perdagangan",
            "tanggal_terbit": "2022-08-23",
            "url_tdpse_detail": "https://pse.komdigi.go.id/tdpse-detail/10715",
            "website": "-"
        },
        {
            "id": "9cb1ac0d-a64e-4d8c-a0cb-db5bf1142339",
            "nama_pse": "HYDRO FARM INDONESIA",
            "nama_se": "WWW.HYDROFARM.CO.ID",
            "sektor": "Sektor Perdagangan, Sektor Pangan",
            "tanggal_terbit": "2022-08-23",
            "url_tdpse_detail": "https://pse.komdigi.go.id/tdpse-detail/10717",
            "website": "hydrofarm.co.id"
        },
        {
            "id": "9cb1abd9-19a1-42d6-9597-ee50f374d11e",
            "nama_pse": "BANK PEREKONOMIAN RAKYAT SYARIAH MITRA AGRO USAHA",
            "nama_se": "ISLAMIC BANKING APLICATION (IBA)",
            "sektor": "Sektor Keuangan",
            "tanggal_terbit": "2022-08-23",
            "url_tdpse_detail": "https://pse.komdigi.go.id/tdpse-detail/10718",
            "website": "bankmausyariah.co.id"
        },
        {
            "id": "9cb1ac0d-a9a6-47de-8c94-bb42a84cae5c",
            "nama_pse": "PILARMAS INVESTINDO SEKURITAS",
            "nama_se": "POT2.PILARMAS-INVESTINDO.CO.ID",
            "sektor": "Sektor Keuangan",
            "tanggal_terbit": "2022-08-23",
            "url_tdpse_detail": "https://pse.komdigi.go.id/tdpse-detail/10719",
            "website": "pot2.pilarmas-investindo.co.id"
        },
        {
            "id": "9cb1ac0d-ad0f-4518-946e-c9a535ad7771",
            "nama_pse": "BANK PEREKONOMIAN RAKYAT GAMON",
            "nama_se": "WEBSITE PT BPR GAMON",
            "sektor": "Sektor Keuangan",
            "tanggal_terbit": "2022-08-23",
            "url_tdpse_detail": "https://pse.komdigi.go.id/tdpse-detail/10734",
            "website": "bprgamon.co.id"
        },
        {
            "id": "9cb1abd9-1f36-4d1b-be89-e6e1ec28e1cf",
            "nama_pse": "E2PAY GLOBAL UTAMA",
            "nama_se": "E2PAY",
            "sektor": "Sektor Keuangan, Sektor Teknologi Informasi dan Komunikasi",
            "tanggal_terbit": "2022-08-23",
            "url_tdpse_detail": "https://pse.komdigi.go.id/tdpse-detail/10721",
            "website": "e2pay.co.id"
        },
        {
            "id": "9cb1ac0d-b03f-4752-b4a6-a7b3160ab347",
            "nama_pse": "PILARMAS INVESTINDO SEKURITAS",
            "nama_se": "PILARMAS ONLINE TRADING DEKSTOP",
            "sektor": "Sektor Keuangan",
            "tanggal_terbit": "2022-08-23",
            "url_tdpse_detail": "https://pse.komdigi.go.id/tdpse-detail/10722",
            "website": "-"
        },
        {
            "id": "9cb1ac0d-b397-45db-b49f-916af140c966",
            "nama_pse": "BANK PEMBIAYAAN RAKYAT SYARIAH RAHMANIA DANA SEJAHTERA",
            "nama_se": "ISLAMIC APLICATION BANKING",
            "sektor": "Sektor Keuangan",
            "tanggal_terbit": "2022-08-23",
            "url_tdpse_detail": "https://pse.komdigi.go.id/tdpse-detail/10723",
            "website": "banksyariahrahmania.com"
        },
        {
            "id": "9cb1abd9-2292-47ae-b83e-116239a730db",
            "nama_pse": "KARUNIA INTERNASIONAL CITRA KENCANA",
            "nama_se": "KICK AVENUE",
            "sektor": "Sektor Perdagangan",
            "tanggal_terbit": "2022-08-23",
            "url_tdpse_detail": "https://pse.komdigi.go.id/tdpse-detail/10724",
            "website": "kickavenue.com"
        },
        {
            "id": "9cb1abfe-c8f5-4097-9db4-cb24445312a5",
            "nama_pse": "SARANA INFORMASI ANDALAN PRATAMA",
            "nama_se": "SIAPGAWE.COM",
            "sektor": "Sektor Teknologi Informasi dan Komunikasi",
            "tanggal_terbit": "2022-08-23",
            "url_tdpse_detail": "https://pse.komdigi.go.id/tdpse-detail/10725",
            "website": "SiapGawe.com"
        },
        {
            "id": "9cb1abfe-cf31-4e1a-860b-bf8caaddea47",
            "nama_pse": "PILARMAS INVESTINDO SEKURITAS",
            "nama_se": "EFORM PILARMAS INVESTINDO SEKURITAS",
            "sektor": "Sektor Keuangan",
            "tanggal_terbit": "2022-08-23",
            "url_tdpse_detail": "https://pse.komdigi.go.id/tdpse-detail/10727",
            "website": "eform.pilarmas-investindo.co.id"
        },
        {
            "id": "9cb1abd9-2821-48e4-bf6b-d663487cef38",
            "nama_pse": "PILARMAS INVESTINDO SEKURITAS",
            "nama_se": "FORGOT PASSWORD PILARMAS INVESTINDO SEKURITAS",
            "sektor": "Sektor Keuangan",
            "tanggal_terbit": "2022-08-23",
            "url_tdpse_detail": "https://pse.komdigi.go.id/tdpse-detail/10728",
            "website": "eform.pilarmas-investindo.co.id"
        },
        {
            "id": "9cb1ac0d-b6e1-4920-a532-9f2e5c8cc214",
            "nama_pse": "BANK PEMBIAYAAN RAKYAT SYARIAH METRO MADANI",
            "nama_se": "PT BANK PEMBIAYAAN RAKYAT SYARIAH METRO MADANI",
            "sektor": "Sektor Keuangan",
            "tanggal_terbit": "2022-08-23",
            "url_tdpse_detail": "https://pse.komdigi.go.id/tdpse-detail/10729",
            "website": "banksyariahmetromadani.co.id"
        },
        {
            "id": "9cb1ac0d-ba4a-43ff-9967-ee5801012cb4",
            "nama_pse": "PILARMAS INVESTINDO SEKURITAS",
            "nama_se": "WEBSITE PILARMAS INVESTINDO SEKURITAS",
            "sektor": "Sektor Keuangan",
            "tanggal_terbit": "2022-08-23",
            "url_tdpse_detail": "https://pse.komdigi.go.id/tdpse-detail/10730",
            "website": "pilarmas-investindo.co.id"
        },
        {
            "id": "9cb1abd9-2efa-4352-961d-69e34d922eec",
            "nama_pse": "BANK PEMBIAYAAN RAKYAT SYARIAH MASLAHAT DANA SYARIAH NUSANTARA",
            "nama_se": "BANK MASLAHAT DANA SYARIAH NUSANTARA",
            "sektor": "Sektor Keuangan",
            "tanggal_terbit": "2022-08-23",
            "url_tdpse_detail": "https://pse.komdigi.go.id/tdpse-detail/10731",
            "website": "bankmaslahatbengkulu.com"
        },
        {
            "id": "9cb1abd9-33ba-4674-b31a-1d977801a850",
            "nama_pse": "BANK PEMBIAYAAN RAKYAT SYARI`AH RIF`ATUL UMMAH",
            "nama_se": "BANKBIRU.COM",
            "sektor": "Sektor Keuangan",
            "tanggal_terbit": "2022-08-23",
            "url_tdpse_detail": "https://pse.komdigi.go.id/tdpse-detail/10733",
            "website": "bankbiru.com"
        },
        {
            "id": "9cb1abfe-d24a-4cc9-9c00-3983bfc0750b",
            "nama_pse": "BANK PERKREDITAN RAKYAT KABALONG ABDI SWADAYA",
            "nama_se": "IBS CORE BANKING SISTEM",
            "sektor": "Sektor Keuangan",
            "tanggal_terbit": "2022-08-23",
            "url_tdpse_detail": "https://pse.komdigi.go.id/tdpse-detail/10738",
            "website": "-"
        },
        {
            "id": "9cb1abd9-3b9d-42ea-b049-abbdf9486dc2",
            "nama_pse": "INKLUSI FINANSIAL INDONESIA",
            "nama_se": "FLOCK ASIA",
            "sektor": "Sektor Teknologi Informasi dan Komunikasi",
            "tanggal_terbit": "2022-08-23",
            "url_tdpse_detail": "https://pse.komdigi.go.id/tdpse-detail/10739",
            "website": "flockasia.com"
        },
        {
            "id": "9cb1abfe-d4de-4d5e-a869-b1f5200997cf",
            "nama_pse": "BARDI SOLUSI OTOMASI",
            "nama_se": "BARDI SMART HOME",
            "sektor": "Sektor Perdagangan, Sektor Teknologi Informasi dan Komunikasi",
            "tanggal_terbit": "2022-08-23",
            "url_tdpse_detail": "https://pse.komdigi.go.id/tdpse-detail/10740",
            "website": "bardi.co.id"
        },
        {
            "id": "9cb1ac0d-c808-4706-8897-e4b8a6ff91e9",
            "nama_pse": "BIG DEAL CREATIVE",
            "nama_se": "PENERBITAN PIRANTI LUNAK ATAU SOFTWARE",
            "sektor": "Sektor Teknologi Informasi dan Komunikasi",
            "tanggal_terbit": "2022-08-23",
            "url_tdpse_detail": "https://pse.komdigi.go.id/tdpse-detail/10741",
            "website": "-"
        },
        {
            "id": "9cb1abd2-7228-4796-b5a7-34d44f1373cb",
            "nama_pse": "PREMIUM GARANSI INDONESIA",
            "nama_se": "WEBSITE PREMIUMGARANSI",
            "sektor": "Sektor Perdagangan",
            "tanggal_terbit": "2022-08-22",
            "url_tdpse_detail": "https://pse.komdigi.go.id/tdpse-detail/9552",
            "website": "premiumgaransi.id"
        },
        {
            "id": "9cb1abf7-7ff6-4e72-8149-f3b0b18b85a4",
            "nama_pse": "PREMIUM GARANSI INDONESIA",
            "nama_se": "APLIKASI PREMIUMGARANSI",
            "sektor": "Sektor Perdagangan",
            "tanggal_terbit": "2022-08-22",
            "url_tdpse_detail": "https://pse.komdigi.go.id/tdpse-detail/9554",
            "website": "premiumgaransi.id"
        },
        {
            "id": "9cb1ac0a-606d-43d2-ac81-07b606c4ff7f",
            "nama_pse": "ANUGERAH PHARMINDO LESTARI",
            "nama_se": "APL RECRUITMENT",
            "sektor": "Sektor Kesehatan",
            "tanggal_terbit": "2022-08-22",
            "url_tdpse_detail": "https://pse.komdigi.go.id/tdpse-detail/10668",
            "website": "aplcare.com"
        },
        {
            "id": "9cb1abd6-c56b-4331-a11c-21d79af40a7d",
            "nama_pse": "PROFINDO SEKURITAS INDONESIA",
            "nama_se": "NEO PROCLICK",
            "sektor": "Sektor Keuangan",
            "tanggal_terbit": "2022-08-22",
            "url_tdpse_detail": "https://pse.komdigi.go.id/tdpse-detail/10654",
            "website": "profindo.com"
        },
        {
            "id": "9cb1abd7-6d05-4b6e-b64c-5f7fa0ecb536",
            "nama_pse": "BANK PEMBIAYAAN RAKYAT SYARIAH ALMASOEM",
            "nama_se": "WEBSITE PROFIL BPRS ALMASOEM",
            "sektor": "Sektor Keuangan",
            "tanggal_terbit": "2022-08-22",
            "url_tdpse_detail": "https://pse.komdigi.go.id/tdpse-detail/10658",
            "website": "almasoembank.co.id"
        },
        {
            "id": "9cb1abd7-dc15-41e2-b4cd-4d584007ea3f",
            "nama_pse": "PERUSAHAAN UMUM DAERAH BANK PERKREDITAN RAKYAT BANGKALAN",
            "nama_se": "PERUMDA BPR BANGKALAN",
            "sektor": "Sektor Keuangan",
            "tanggal_terbit": "2022-08-22",
            "url_tdpse_detail": "https://pse.komdigi.go.id/tdpse-detail/10488",
            "website": "perumdabprbangkalan.com"
        },
        {
            "id": "9cb1ac0c-ea47-4a36-8646-fc2f39fca056",
            "nama_pse": "BUNKER TECHNOLOGIES INDONESIA",
            "nama_se": "BUNKER",
            "sektor": "Sektor Teknologi Informasi dan Komunikasi",
            "tanggal_terbit": "2022-08-22",
            "url_tdpse_detail": "https://pse.komdigi.go.id/tdpse-detail/10547",
            "website": "app.bunkertech.id"
        },
        {
            "id": "9cb1ac0c-f199-4e75-9cd5-dd00c2b57fa2",
            "nama_pse": "JURNALINDO AKSARA GRAFIKA",
            "nama_se": "HYPEABIS",
            "sektor": "Sektor Teknologi Informasi dan Komunikasi",
            "tanggal_terbit": "2022-08-22",
            "url_tdpse_detail": "https://pse.komdigi.go.id/tdpse-detail/10570",
            "website": "hypeabis.id"
        },
        {
            "id": "9cb1abfe-2845-4c24-a987-685f7c719953",
            "nama_pse": "JURNALINDO AKSARA GRAFIKA",
            "nama_se": "BISNIS INDONESIA ID",
            "sektor": "Sektor Teknologi Informasi dan Komunikasi",
            "tanggal_terbit": "2022-08-22",
            "url_tdpse_detail": "https://pse.komdigi.go.id/tdpse-detail/10566",
            "website": "bisnisindonesia.id"
        },
        {
            "id": "9cb1abfe-2b47-4f8e-892a-6649325ed341",
            "nama_pse": "JURNALINDO AKSARA GRAFIKA",
            "nama_se": "DATA INDONESIA",
            "sektor": "Sektor Teknologi Informasi dan Komunikasi",
            "tanggal_terbit": "2022-08-22",
            "url_tdpse_detail": "https://pse.komdigi.go.id/tdpse-detail/10567",
            "website": "dataindonesia.id"
        },
        {
            "id": "9cb1ac0d-074a-4c21-be47-8372677333e5",
            "nama_pse": "JURNALINDO AKSARA GRAFIKA",
            "nama_se": "CONTEXT",
            "sektor": "Sektor Teknologi Informasi dan Komunikasi",
            "tanggal_terbit": "2022-08-22",
            "url_tdpse_detail": "https://pse.komdigi.go.id/tdpse-detail/10568",
            "website": "context.id"
        },
        {
            "id": "9cb1ac0d-217c-476f-8af7-da2c0ab7fdfc",
            "nama_pse": "TRIBUN DIGITAL TERNATE",
            "nama_se": "TRIBUNTERNATE.COM",
            "sektor": "Sektor Teknologi Informasi dan Komunikasi",
            "tanggal_terbit": "2022-08-22",
            "url_tdpse_detail": "https://pse.komdigi.go.id/tdpse-detail/10665",
            "website": "tribunternate.com"
        },
        {
            "id": "9cb1abd8-9149-40de-b1c6-c62ea6a92f06",
            "nama_pse": "MARS BLOCKCHAIN TEKNOLOGI",
            "nama_se": "BEELLI.COM",
            "sektor": "Sektor Teknologi Informasi dan Komunikasi",
            "tanggal_terbit": "2022-08-22",
            "url_tdpse_detail": "https://pse.komdigi.go.id/tdpse-detail/10631",
            "website": "Beelli.com"
        },
        {
            "id": "9cb1ac0d-451d-4b92-acd1-1036214b41db",
            "nama_pse": "TEKNOLOGI DIGITAL INOVATIF",
            "nama_se": "ARBITGO",
            "sektor": "Sektor Perdagangan",
            "tanggal_terbit": "2022-08-22",
            "url_tdpse_detail": "https://pse.komdigi.go.id/tdpse-detail/10634",
            "website": "Arbitgo.id"
        },
        {
            "id": "9cb1ac0d-627d-451b-bd2d-3e71090fcdcb",
            "nama_pse": "BANK PEMBIAYAAN RAKYAT SYARIAH MITRA MENTARI SEJAHTERA",
            "nama_se": "WEBSITE",
            "sektor": "Sektor Keuangan",
            "tanggal_terbit": "2022-08-22",
            "url_tdpse_detail": "https://pse.komdigi.go.id/tdpse-detail/10648",
            "website": "mitrasyariahbank.com"
        },
        {
            "id": "9cb1abfe-74f7-4c03-80b6-b4d53a8a426e",
            "nama_pse": "TRIBUN DIGITAL JATIM",
            "nama_se": "SURYAMALANG.COM",
            "sektor": "Sektor Teknologi Informasi dan Komunikasi",
            "tanggal_terbit": "2022-08-22",
            "url_tdpse_detail": "https://pse.komdigi.go.id/tdpse-detail/10650",
            "website": "suryamalang.com"
        },
        {
            "id": "9cb1abd8-c2cf-4aaf-9720-bf6669cccd5d",
            "nama_pse": "TRIBUN DIGITAL MALUKU",
            "nama_se": "TRIBUNAMBON.COM",
            "sektor": "Sektor Teknologi Informasi dan Komunikasi",
            "tanggal_terbit": "2022-08-22",
            "url_tdpse_detail": "https://pse.komdigi.go.id/tdpse-detail/10651",
            "website": "tribunambon.com"
        },
        {
            "id": "9cb1abfe-782a-4c19-b5f7-b1bb949c91aa",
            "nama_pse": "TRANSNUSA AVIATION MANDIRI",
            "nama_se": "INTERNET BOOKING ENGINE (IBE) TRANSNUSA",
            "sektor": "Sektor Transportasi",
            "tanggal_terbit": "2022-08-22",
            "url_tdpse_detail": "https://pse.komdigi.go.id/tdpse-detail/10652",
            "website": "transnusa.co.id"
        },
        {
            "id": "9cb1abfe-7b7a-4cb7-90f6-fb09a8251bb5",
            "nama_pse": "BANK PEMBIAYAAN RAKYAT SYARIAH ANNISA MUKTI",
            "nama_se": "AM CBS",
            "sektor": "Sektor Keuangan",
            "tanggal_terbit": "2022-08-22",
            "url_tdpse_detail": "https://pse.komdigi.go.id/tdpse-detail/10655",
            "website": "annisamukti.co.id"
        },
        {
            "id": "9cb1abfe-7eb6-4e61-b798-7ce10d773af1",
            "nama_pse": "BANK PEREKONOMIAN RAKYAT SYARIAH ARTHA MAS ABADI",
            "nama_se": "IBA BPRS ARTHA MAS ABADI",
            "sektor": "Sektor Keuangan",
            "tanggal_terbit": "2022-08-22",
            "url_tdpse_detail": "https://pse.komdigi.go.id/tdpse-detail/10656",
            "website": "bprsarthamasabadi.co.id"
        },
        {
            "id": "9cb1ac0d-6942-40d8-a4b7-9ff1cda43bbe",
            "nama_pse": "BANK PEMBIAYAAN RAKYAT SYARIAH RAHMAH HIJRAH AGUNG",
            "nama_se": "ALTERNATE APPS SYARIAH",
            "sektor": "Sektor Keuangan",
            "tanggal_terbit": "2022-08-22",
            "url_tdpse_detail": "https://pse.komdigi.go.id/tdpse-detail/10657",
            "website": "bprsrahmah.com"
        },
        {
            "id": "9cb1abd8-c5d5-4f81-9251-307fdad6db46",
            "nama_pse": "BANK PERKREDITAN RAKYAT MURIA HARTA NUSANTARA",
            "nama_se": "WEB SITE",
            "sektor": "Sektor Keuangan",
            "tanggal_terbit": "2022-08-22",
            "url_tdpse_detail": "https://pse.komdigi.go.id/tdpse-detail/10659",
            "website": "bprmhn.com"
        },
        {
            "id": "9cb1abfe-81f3-40bc-9aed-c5956ad2595e",
            "nama_pse": "DELIMA PANDU BERJAYA",
            "nama_se": "ECOMMERCE PERFECT HEALTH",
            "sektor": "Sektor Perdagangan",
            "tanggal_terbit": "2022-08-22",
            "url_tdpse_detail": "https://pse.komdigi.go.id/tdpse-detail/10662",
            "website": "perfecthealth.co.id"
        },
        {
            "id": "9cb1abd8-c8bf-44d8-9f6f-164ed971f15a",
            "nama_pse": "INTIMAP",
            "nama_se": "INTELLITRAC GPS",
            "sektor": "Sektor Perdagangan, Sektor Teknologi Informasi dan Komunikasi",
            "tanggal_terbit": "2022-08-22",
            "url_tdpse_detail": "https://pse.komdigi.go.id/tdpse-detail/10660",
            "website": "intellitrac.co.id"
        },
        {
            "id": "9cb1ac0d-6c53-425d-9141-1ef7fe8af698",
            "nama_pse": "BANK PEREKONOMIAN RAKYAT BALONGPANGGANG SENTOSA",
            "nama_se": "HTTPS://WWW.BPRBALONGPANGGANGSENTOSA.CO.ID/",
            "sektor": "Sektor Keuangan",
            "tanggal_terbit": "2022-08-22",
            "url_tdpse_detail": "https://pse.komdigi.go.id/tdpse-detail/10661",
            "website": "bprbalongpanggangsentosa.co.id"
        },
        {
            "id": "9cb1abd8-cc7d-46ee-89fa-fc8e591152f7",
            "nama_pse": "BANK PEREKONOMIAN RAKYAT SYARIAH ASAD ALIF",
            "nama_se": "BPRS ASAD ALIF",
            "sektor": "Sektor Keuangan",
            "tanggal_terbit": "2022-08-22",
            "url_tdpse_detail": "https://pse.komdigi.go.id/tdpse-detail/10663",
            "website": "bprsasadalif.com"
        }
    ],
    "processingTimeMs": 58,
    "query": "",
    "totalHits": 19121,
    "hitsPerPage": 50,
    "page": 193,
    "totalPages": 383
}