{
    "hits": [
        {
            "id": "9cb1ab7b-96cc-43aa-9024-9817c019bb67",
            "nama_pse": "PYRIDAM FARMA",
            "nama_se": "PYFAHEALTH.COM",
            "sektor": "Sektor Perdagangan, Sektor Perdagangan, Sektor Kesehatan, Sektor Kesehatan",
            "tanggal_terbit": "2021-04-26",
            "url_tdpse_detail": "https://pse.komdigi.go.id/tdpse-detail/619",
            "website": "pyfa.co.id"
        },
        {
            "id": "9cb1ab83-5fec-4c53-b4fa-1bf357aa1fc0",
            "nama_pse": "SANDIARTA SUKSES",
            "nama_se": "BIZONE",
            "sektor": "Sektor Perdagangan, Sektor Perdagangan",
            "tanggal_terbit": "2021-04-26",
            "url_tdpse_detail": "https://pse.komdigi.go.id/tdpse-detail/680",
            "website": "bizone.co.id"
        },
        {
            "id": "9cb1ab7b-a590-4ae3-8783-5ff418c64422",
            "nama_pse": "KOLTIVA",
            "nama_se": "KOLTIMART",
            "sektor": "Sektor Perdagangan, Sektor Perdagangan, Sektor Teknologi Informasi dan Komunikasi, Sektor Teknologi Informasi dan Komunikasi",
            "tanggal_terbit": "2021-04-26",
            "url_tdpse_detail": "https://pse.komdigi.go.id/tdpse-detail/644",
            "website": "koltimart.com"
        },
        {
            "id": "9cb1ab7b-afba-4c17-bb0e-7011bf989250",
            "nama_pse": "SINERGI TEKNO CIPTA",
            "nama_se": "JOB2GO",
            "sektor": "Sektor Teknologi Informasi dan Komunikasi, Sektor Teknologi Informasi dan Komunikasi",
            "tanggal_terbit": "2021-04-26",
            "url_tdpse_detail": "https://pse.komdigi.go.id/tdpse-detail/582",
            "website": "Job2go.net, job2go.id"
        },
        {
            "id": "9cb1ab83-8cd0-4e07-803d-3e5e327e2c98",
            "nama_pse": "SHOPEE INTERNATIONAL INDONESIA",
            "nama_se": "WEBSITE DAN APLIKASI",
            "sektor": "Sektor Perdagangan, Sektor Perdagangan",
            "tanggal_terbit": "2021-04-26",
            "url_tdpse_detail": "https://pse.komdigi.go.id/tdpse-detail/642",
            "website": "shopee.co.id/"
        },
        {
            "id": "9cb1ab8b-7679-41c8-bc84-ca36048a11c6",
            "nama_pse": "SIMPAN PINJAM TANGO PURWA RIBU",
            "nama_se": "DANA COIN",
            "sektor": "Sektor Teknologi Informasi dan Komunikasi, Sektor Teknologi Informasi dan Komunikasi",
            "tanggal_terbit": "2021-04-26",
            "url_tdpse_detail": "https://pse.komdigi.go.id/tdpse-detail/544",
            "website": "danacoin.com"
        },
        {
            "id": "9cb1ab8b-7c97-4523-91a4-58e7a6e31f7a",
            "nama_pse": "KUAIKUAI TECH INDONESIA",
            "nama_se": "PINJAM YUK",
            "sektor": "Sektor Keuangan, Sektor Keuangan, Sektor Teknologi Informasi dan Komunikasi, Sektor Teknologi Informasi dan Komunikasi",
            "tanggal_terbit": "2021-04-26",
            "url_tdpse_detail": "https://pse.komdigi.go.id/tdpse-detail/696",
            "website": "pinjamyuk.co.id"
        },
        {
            "id": "9cb1ab8b-9ff3-4b08-a8c1-ef642e1c8cf2",
            "nama_pse": "SIMPAN PINJAM JAYA BERKAH AMAL",
            "nama_se": "DANA CARI",
            "sektor": "Sektor Teknologi Informasi dan Komunikasi, Sektor Teknologi Informasi dan Komunikasi",
            "tanggal_terbit": "2021-04-26",
            "url_tdpse_detail": "https://pse.komdigi.go.id/tdpse-detail/712",
            "website": "danacari.com"
        },
        {
            "id": "9cb1ab8b-aaf2-4bf4-bf36-c970e9b65842",
            "nama_pse": "KARYA HASTA DINAMIKA",
            "nama_se": "KALCARE.COM",
            "sektor": "Sektor Perdagangan, Sektor Perdagangan, Sektor Kesehatan, Sektor Kesehatan, Sektor Teknologi Informasi dan Komunikasi, Sektor Teknologi Informasi dan Komunikasi",
            "tanggal_terbit": "2021-04-26",
            "url_tdpse_detail": "https://pse.komdigi.go.id/tdpse-detail/650",
            "website": "kalcare.com"
        },
        {
            "id": "9cb1ab8b-cc55-4570-9559-61581487de54",
            "nama_pse": "MEDIKA KOMUNIKA TEKNOLOGI",
            "nama_se": "KLIKDOKTER",
            "sektor": "Sektor Perdagangan, Sektor Perdagangan, Sektor Kesehatan, Sektor Kesehatan, Sektor Teknologi Informasi dan Komunikasi, Sektor Teknologi Informasi dan Komunikasi",
            "tanggal_terbit": "2021-04-26",
            "url_tdpse_detail": "https://pse.komdigi.go.id/tdpse-detail/670",
            "website": "klikdokter.com"
        },
        {
            "id": "9cb1ab7c-0ca8-4691-82a8-54477fd4b05f",
            "nama_pse": "DATASCRIP",
            "nama_se": "DATASCRIPMALL.ID",
            "sektor": "Sektor Perdagangan, Sektor Perdagangan",
            "tanggal_terbit": "2021-04-26",
            "url_tdpse_detail": "https://pse.komdigi.go.id/tdpse-detail/592",
            "website": "datascripmall.id"
        },
        {
            "id": "9cb1ab84-bd95-40f7-9b5b-f86647cab59a",
            "nama_pse": "ASIAPAY TECHNOLOGY INDONESIA",
            "nama_se": "PAYDOLLAR.CO.ID",
            "sektor": "Sektor Keuangan, Sektor Keuangan",
            "tanggal_terbit": "2021-04-26",
            "url_tdpse_detail": "https://pse.komdigi.go.id/tdpse-detail/575",
            "website": "paydollar.co.id"
        },
        {
            "id": "9cb1ab84-e97a-49bd-ba0e-394edda87006",
            "nama_pse": "GLOBAL MEDIA VISUAL",
            "nama_se": "MOLA TV",
            "sektor": "Sektor Teknologi Informasi dan Komunikasi, Sektor Teknologi Informasi dan Komunikasi",
            "tanggal_terbit": "2021-04-26",
            "url_tdpse_detail": "https://pse.komdigi.go.id/tdpse-detail/640",
            "website": "mola.tv"
        },
        {
            "id": "9cb1ab8c-ae5f-4a42-b069-0e3956a5c2a9",
            "nama_pse": "MAPAN GLOBAL REKSA",
            "nama_se": "FINDAYA (PLATFORM PINJAMAN)",
            "sektor": "Sektor Keuangan, Sektor Keuangan",
            "tanggal_terbit": "2021-04-26",
            "url_tdpse_detail": "https://pse.komdigi.go.id/tdpse-detail/689",
            "website": "www.findaya.com, www.findaya.co.id"
        },
        {
            "id": "9cb1ab8c-b793-42e3-85e1-164a80ef8d9f",
            "nama_pse": "SMILE TRAIN INDONESIA",
            "nama_se": "SMILE TRAIN INDONESIA",
            "sektor": "Sektor Kesehatan, Sektor Kesehatan",
            "tanggal_terbit": "2021-04-26",
            "url_tdpse_detail": "https://pse.komdigi.go.id/tdpse-detail/624",
            "website": "smiletrainindonesia.org"
        },
        {
            "id": "9cb1ab8c-c807-4169-9553-ffc3caefeda2",
            "nama_pse": "FORTUNA PLATINA INDONESIA",
            "nama_se": "LICORICE INDONESIA",
            "sektor": "Sektor Teknologi Informasi dan Komunikasi, Sektor Teknologi Informasi dan Komunikasi",
            "tanggal_terbit": "2021-04-26",
            "url_tdpse_detail": "https://pse.komdigi.go.id/tdpse-detail/571",
            "website": "licorice.pink/?locale=indo"
        },
        {
            "id": "9cb1ab85-52d4-4ebd-85ee-3b3ca528291f",
            "nama_pse": "FORTUNA PLATINA INDONESIA",
            "nama_se": "FLASHJOB",
            "sektor": "Sektor Teknologi Informasi dan Komunikasi, Sektor Teknologi Informasi dan Komunikasi",
            "tanggal_terbit": "2021-04-26",
            "url_tdpse_detail": "https://pse.komdigi.go.id/tdpse-detail/573",
            "website": "flashjob.blue"
        },
        {
            "id": "9cb1ab7d-484c-492e-8066-8f0038a8508e",
            "nama_pse": "SMART ONLINE MARKETING",
            "nama_se": "MAATLOOB",
            "sektor": "Sektor Perdagangan, Sektor Perdagangan, Sektor Teknologi Informasi dan Komunikasi, Sektor Teknologi Informasi dan Komunikasi",
            "tanggal_terbit": "2021-04-26",
            "url_tdpse_detail": "https://pse.komdigi.go.id/tdpse-detail/633",
            "website": "maatloob.com"
        },
        {
            "id": "9cb1ab7d-55af-47b3-a970-9fab1a9d9b39",
            "nama_pse": "LINTAS ARTHA MEDIA",
            "nama_se": "ZONACOMPUTER.ID",
            "sektor": "Sektor Perdagangan, Sektor Perdagangan",
            "tanggal_terbit": "2021-04-26",
            "url_tdpse_detail": "https://pse.komdigi.go.id/tdpse-detail/593",
            "website": "zonacomputer.id"
        },
        {
            "id": "9cb1ab85-7f1c-49cb-aa79-1ccc41228d32",
            "nama_pse": "JAA LIFESTYLE INDONESIA",
            "nama_se": "JAALIFESTYLE",
            "sektor": "Sektor Teknologi Informasi dan Komunikasi, Sektor Teknologi Informasi dan Komunikasi",
            "tanggal_terbit": "2021-04-26",
            "url_tdpse_detail": "https://pse.komdigi.go.id/tdpse-detail/678",
            "website": "jaalifestyle.com"
        },
        {
            "id": "9cb1ab7d-8b91-4e81-b3dd-6bd9e1a8a9f0",
            "nama_pse": "MNC OKEZONE NETWORK",
            "nama_se": "OKEZONE",
            "sektor": "Sektor Teknologi Informasi dan Komunikasi, Sektor Teknologi Informasi dan Komunikasi",
            "tanggal_terbit": "2021-04-26",
            "url_tdpse_detail": "https://pse.komdigi.go.id/tdpse-detail/620",
            "website": "okezone.com"
        },
        {
            "id": "9cb1ab85-a233-4390-b79a-fbf29081065a",
            "nama_pse": "INEWS DIGITAL INDONESIA",
            "nama_se": "INEWS.ID",
            "sektor": "Sektor Teknologi Informasi dan Komunikasi",
            "tanggal_terbit": "2021-04-26",
            "url_tdpse_detail": "https://pse.komdigi.go.id/tdpse-detail/611",
            "website": "inews.id"
        },
        {
            "id": "9cb1ab8d-5c8f-43a7-b816-d30df2c37e92",
            "nama_pse": "MULTI ADIPRAKARSA MANUNGGAL",
            "nama_se": "1) SPOTS (LAYANAN PAYMENT GATEWAY); 2) GOBIZ (LAYANAN MANAJEMEN KASIR)",
            "sektor": "Sektor Keuangan, Sektor Keuangan",
            "tanggal_terbit": "2021-04-26",
            "url_tdpse_detail": "https://pse.komdigi.go.id/tdpse-detail/538",
            "website": "1) https://spots.co.id/; 2) https://gobiz.co.id/"
        },
        {
            "id": "9cb1ab8d-75d3-4722-b36f-3502da803fb8",
            "nama_pse": "BANK CIMB NIAGA",
            "nama_se": "OCTO MERCHANT",
            "sektor": "Sektor Keuangan, Sektor Keuangan, Sektor Keuangan, Sektor Keuangan, Sektor Keuangan",
            "tanggal_terbit": "2021-04-26",
            "url_tdpse_detail": "https://pse.komdigi.go.id/tdpse-detail/646",
            "website": "branchlessbanking.cimbniaga.co.id/octo-merchant"
        },
        {
            "id": "9cb1ab85-d9e6-4540-9ba7-ab45d79f9419",
            "nama_pse": "BANK CIMB NIAGA",
            "nama_se": "PLUG N PAY BY CIMB NIAGA",
            "sektor": "Sektor Keuangan, Sektor Keuangan, Sektor Keuangan, Sektor Keuangan, Sektor Keuangan",
            "tanggal_terbit": "2021-04-26",
            "url_tdpse_detail": "https://pse.komdigi.go.id/tdpse-detail/647",
            "website": "-"
        },
        {
            "id": "9cb1ab7d-e164-4086-ae0c-adffa1fefbe0",
            "nama_pse": "SOLUSI TEKNO KONSULTAN",
            "nama_se": "SOMASI LEGAL",
            "sektor": "Sektor Teknologi Informasi dan Komunikasi, Sektor Teknologi Informasi dan Komunikasi",
            "tanggal_terbit": "2021-04-26",
            "url_tdpse_detail": "https://pse.komdigi.go.id/tdpse-detail/600",
            "website": "somasilegal.com"
        },
        {
            "id": "9cb1ab8d-9827-444d-a3f0-c70997180e0f",
            "nama_pse": "CREATIVE MOBILE ADVENTURE",
            "nama_se": "ASPIRASI",
            "sektor": "Sektor Keuangan, Sektor Keuangan",
            "tanggal_terbit": "2021-04-26",
            "url_tdpse_detail": "https://pse.komdigi.go.id/tdpse-detail/574",
            "website": "aspirasi.co.id"
        },
        {
            "id": "9cb1ab8d-b410-4ab8-af43-2dab2df42060",
            "nama_pse": "KREDIGRAM PEMBAYARAN ELEKTRONIS",
            "nama_se": "KREDIGRAM",
            "sektor": "Sektor Keuangan, Sektor Keuangan, Sektor Teknologi Informasi dan Komunikasi, Sektor Teknologi Informasi dan Komunikasi",
            "tanggal_terbit": "2021-04-26",
            "url_tdpse_detail": "https://pse.komdigi.go.id/tdpse-detail/706",
            "website": "kredigram.com"
        },
        {
            "id": "9cb1ab86-6714-4bf3-8bed-15e79d79ab47",
            "nama_pse": "KITA LULUS INTERNASIONAL",
            "nama_se": "KITALULUS",
            "sektor": "Sektor Teknologi Informasi dan Komunikasi, Sektor Teknologi Informasi dan Komunikasi",
            "tanggal_terbit": "2021-04-26",
            "url_tdpse_detail": "https://pse.komdigi.go.id/tdpse-detail/595",
            "website": "kitalulus.com"
        },
        {
            "id": "9cb1ab90-add2-41ab-b838-c8296f34506b",
            "nama_pse": "SOLUSI SENYUM INDONESIA",
            "nama_se": "KLAR SMILE",
            "sektor": "Sektor Kesehatan, Sektor Kesehatan",
            "tanggal_terbit": "2021-04-26",
            "url_tdpse_detail": "https://pse.komdigi.go.id/tdpse-detail/545",
            "website": "klarsmile.com"
        },
        {
            "id": "9cb1ab9e-87c7-4d71-84c1-08b30e27598e",
            "nama_pse": "SANGKURIANG SAKTI INDONESIA",
            "nama_se": "SMART STORE INDONESIA (SSI)",
            "sektor": "Sektor Perdagangan, Sektor Perdagangan, Sektor Perdagangan, Sektor Teknologi Informasi dan Komunikasi, Sektor Teknologi Informasi dan Komunikasi, Sektor Teknologi Informasi dan Komunikasi",
            "tanggal_terbit": "2021-04-26",
            "url_tdpse_detail": "https://pse.komdigi.go.id/tdpse-detail/554",
            "website": "smartstoreindonesia.com"
        },
        {
            "id": "9cb1aba8-ec1b-421e-859c-f4bd87821d56",
            "nama_pse": "SANGKURIANG SAKTI INDONESIA",
            "nama_se": "SMART STORE INDONESIA (SSI)",
            "sektor": "Sektor Perdagangan, Sektor Perdagangan, Sektor Perdagangan, Sektor Teknologi Informasi dan Komunikasi, Sektor Teknologi Informasi dan Komunikasi, Sektor Teknologi Informasi dan Komunikasi",
            "tanggal_terbit": "2021-04-26",
            "url_tdpse_detail": "https://pse.komdigi.go.id/tdpse-detail/705",
            "website": "smartstoreindonesia.com"
        },
        {
            "id": "9cb1ab91-1687-488c-af88-31b91cdd9607",
            "nama_pse": "PAPRIKA MULTI MEDIA",
            "nama_se": "PAPRIKA",
            "sektor": "Sektor Keuangan, Sektor Keuangan, Sektor Keuangan, Sektor Keuangan, Sektor Keuangan, Sektor Keuangan",
            "tanggal_terbit": "2021-04-26",
            "url_tdpse_detail": "https://pse.komdigi.go.id/tdpse-detail/558",
            "website": "paprika.co.id/"
        },
        {
            "id": "9cb1aba8-ee26-4823-9376-577383b5a889",
            "nama_pse": "PAPRIKA MULTI MEDIA",
            "nama_se": "PAPRIKA",
            "sektor": "Sektor Keuangan, Sektor Keuangan, Sektor Keuangan, Sektor Keuangan, Sektor Keuangan, Sektor Keuangan",
            "tanggal_terbit": "2021-04-26",
            "url_tdpse_detail": "https://pse.komdigi.go.id/tdpse-detail/583",
            "website": "paprika.co.id/"
        },
        {
            "id": "9cb1ab9e-91dc-402d-88cb-02e0d15ff49c",
            "nama_pse": "PAPRIKA MULTI MEDIA",
            "nama_se": "PAPRIKA",
            "sektor": "Sektor Keuangan, Sektor Keuangan, Sektor Keuangan, Sektor Keuangan, Sektor Keuangan, Sektor Keuangan",
            "tanggal_terbit": "2021-04-26",
            "url_tdpse_detail": "https://pse.komdigi.go.id/tdpse-detail/603",
            "website": "paprika.co.id/"
        },
        {
            "id": "9cb1ab9e-956c-497f-a48f-0a302c917c93",
            "nama_pse": "PAPRIKA MULTI MEDIA",
            "nama_se": "PAPRIKA",
            "sektor": "Sektor Keuangan, Sektor Keuangan, Sektor Keuangan, Sektor Keuangan, Sektor Keuangan, Sektor Keuangan",
            "tanggal_terbit": "2021-04-26",
            "url_tdpse_detail": "https://pse.komdigi.go.id/tdpse-detail/604",
            "website": "paprika.co.id/"
        },
        {
            "id": "9cb1ab9e-9830-4bae-8c4b-8b0acd74a865",
            "nama_pse": "PAPRIKA MULTI MEDIA",
            "nama_se": "PAPRIKA",
            "sektor": "Sektor Keuangan, Sektor Keuangan, Sektor Keuangan, Sektor Keuangan, Sektor Keuangan, Sektor Keuangan",
            "tanggal_terbit": "2021-04-26",
            "url_tdpse_detail": "https://pse.komdigi.go.id/tdpse-detail/634",
            "website": "paprika.co.id/"
        },
        {
            "id": "9cb1ab91-18ca-4915-86fd-adbaf1e21e84",
            "nama_pse": "GEMANUSA SENTRA TEKNOLOGI",
            "nama_se": "SIXTYDB",
            "sektor": "Sektor Perdagangan, Sektor Perdagangan, Sektor Teknologi Informasi dan Komunikasi, Sektor Teknologi Informasi dan Komunikasi",
            "tanggal_terbit": "2021-04-26",
            "url_tdpse_detail": "https://pse.komdigi.go.id/tdpse-detail/569",
            "website": "sixtydb.com"
        },
        {
            "id": "9cb1ab91-1b26-498e-973c-0ba8013d7ee4",
            "nama_pse": "AMAZON DATA SERVICES INDONESIA",
            "nama_se": "AMAZON DATA SERVICES INDONESIA",
            "sektor": "Sektor Teknologi Informasi dan Komunikasi, Sektor Teknologi Informasi dan Komunikasi",
            "tanggal_terbit": "2021-04-26",
            "url_tdpse_detail": "https://pse.komdigi.go.id/tdpse-detail/570",
            "website": "aws.amazon.com/id/"
        },
        {
            "id": "9cb1ab91-1d80-471a-bf30-24fc900db5eb",
            "nama_pse": "BEEGROUP FINANCIAL INDONESIA",
            "nama_se": "BUKUKAS",
            "sektor": "Sektor Perdagangan, Sektor Perdagangan, Sektor Perdagangan",
            "tanggal_terbit": "2021-04-26",
            "url_tdpse_detail": "https://pse.komdigi.go.id/tdpse-detail/580",
            "website": "bukukas.co.id/"
        },
        {
            "id": "9cb1ab91-1fb1-45fc-98cf-06ac8f499546",
            "nama_pse": "BEEGROUP FINANCIAL INDONESIA",
            "nama_se": "BUKUKAS",
            "sektor": "Sektor Perdagangan, Sektor Perdagangan, Sektor Perdagangan",
            "tanggal_terbit": "2021-04-26",
            "url_tdpse_detail": "https://pse.komdigi.go.id/tdpse-detail/717",
            "website": "bukukas.co.id/"
        },
        {
            "id": "9cb1ab91-2229-4064-bebc-f451f8eb054e",
            "nama_pse": "BRICK TEKNOLOGI INDONESIA",
            "nama_se": "BRICK",
            "sektor": "Sektor Keuangan, Sektor Keuangan, Sektor Keuangan",
            "tanggal_terbit": "2021-04-26",
            "url_tdpse_detail": "https://pse.komdigi.go.id/tdpse-detail/594",
            "website": "onebrick.id"
        },
        {
            "id": "9cb1ab91-2590-4dec-b80d-cc228126b25d",
            "nama_pse": "BRICK TEKNOLOGI INDONESIA",
            "nama_se": "BRICK",
            "sektor": "Sektor Keuangan, Sektor Keuangan, Sektor Keuangan",
            "tanggal_terbit": "2021-04-26",
            "url_tdpse_detail": "https://pse.komdigi.go.id/tdpse-detail/597",
            "website": "onebrick.id"
        },
        {
            "id": "9cb1ab91-2787-4a1b-b50a-5b3aca7b3977",
            "nama_pse": "GAMERTOGAMER GLOBAL GROUP",
            "nama_se": "G2G.COM",
            "sektor": "Sektor Perdagangan, Sektor Perdagangan, Sektor Perdagangan, Sektor Perdagangan",
            "tanggal_terbit": "2021-04-26",
            "url_tdpse_detail": "https://pse.komdigi.go.id/tdpse-detail/596",
            "website": "g2g.com"
        },
        {
            "id": "9cb1aba8-f3d1-4240-8cf6-de73062d2e30",
            "nama_pse": "TEKNOLOGI APLIKASI SEHAT",
            "nama_se": "CONVATEX",
            "sektor": "Sektor Kesehatan, Sektor Kesehatan",
            "tanggal_terbit": "2021-04-26",
            "url_tdpse_detail": "https://pse.komdigi.go.id/tdpse-detail/598",
            "website": "convatex.com"
        },
        {
            "id": "9cb1ab9e-9bb2-4593-b9f7-00cfe965c9c5",
            "nama_pse": "AKEZ ADAPHAN HOSPITALITI",
            "nama_se": "CARI TEMPAT",
            "sektor": "Sektor Perdagangan, Sektor Perdagangan, Sektor Transportasi, Sektor Transportasi, Sektor Teknologi Informasi dan Komunikasi, Sektor Teknologi Informasi dan Komunikasi",
            "tanggal_terbit": "2021-04-26",
            "url_tdpse_detail": "https://pse.komdigi.go.id/tdpse-detail/602",
            "website": "caritempat.co.id"
        },
        {
            "id": "9cb1ab9e-9ea7-43f0-b042-c38e0c4e661d",
            "nama_pse": "KB VALBURY SEKURITAS",
            "nama_se": "REGISTRASI ONLINE VOLT",
            "sektor": "Sektor Keuangan, Sektor Keuangan",
            "tanggal_terbit": "2021-04-26",
            "url_tdpse_detail": "https://pse.komdigi.go.id/tdpse-detail/605",
            "website": "volt.valbury.co.id"
        },
        {
            "id": "9cb1ab9e-a1c0-41f3-adf2-bddfe55035c8",
            "nama_pse": "BILNA",
            "nama_se": "ORAMI.CO.ID",
            "sektor": "Sektor Perdagangan, Sektor Perdagangan, Sektor Teknologi Informasi dan Komunikasi, Sektor Teknologi Informasi dan Komunikasi",
            "tanggal_terbit": "2021-04-26",
            "url_tdpse_detail": "https://pse.komdigi.go.id/tdpse-detail/606",
            "website": "orami.co.id"
        },
        {
            "id": "9cb1ab9e-a4a6-486c-97b9-6a86b5ced7ed",
            "nama_pse": "DYNAMO MEDIA NETWORK",
            "nama_se": "KUMPARAN.COM",
            "sektor": "Sektor Teknologi Informasi dan Komunikasi, Sektor Teknologi Informasi dan Komunikasi, Sektor Teknologi Informasi dan Komunikasi, Sektor Teknologi Informasi dan Komunikasi",
            "tanggal_terbit": "2021-04-26",
            "url_tdpse_detail": "https://pse.komdigi.go.id/tdpse-detail/607",
            "website": "kumparan.com"
        },
        {
            "id": "9cb1aba8-f629-43e0-9726-8ec4792141a2",
            "nama_pse": "DYNAMO MEDIA NETWORK",
            "nama_se": "KUMPARAN.CO.ID",
            "sektor": "Sektor Teknologi Informasi dan Komunikasi, Sektor Teknologi Informasi dan Komunikasi, Sektor Teknologi Informasi dan Komunikasi, Sektor Teknologi Informasi dan Komunikasi",
            "tanggal_terbit": "2021-04-26",
            "url_tdpse_detail": "https://pse.komdigi.go.id/tdpse-detail/609",
            "website": "kumparan.co.id"
        }
    ],
    "processingTimeMs": 17,
    "query": "",
    "totalHits": 19121,
    "hitsPerPage": 50,
    "page": 372,
    "totalPages": 383
}