{
    "hits": [
        {
            "id": "9cb1ac02-d0a8-47b8-8b04-e3f18d8e19ed",
            "nama_pse": "MENARA MAS FUTURES",
            "nama_se": "SISTEM PENERIMAAN NASABAH ONLINE PT MENARA MAS FUTURES",
            "sektor": "Sektor Keuangan",
            "tanggal_terbit": "2022-10-06",
            "url_tdpse_detail": "https://pse.komdigi.go.id/tdpse-detail/11581",
            "website": "menaramas.co.id"
        },
        {
            "id": "9cb1ac11-81be-490f-bc44-89a81ab88680",
            "nama_pse": "AVATARA JAGAT NUSANTARA",
            "nama_se": "JAGAT",
            "sektor": "Sektor Teknologi Informasi dan Komunikasi",
            "tanggal_terbit": "2022-10-06",
            "url_tdpse_detail": "https://pse.komdigi.go.id/tdpse-detail/11583",
            "website": "jagat.io"
        },
        {
            "id": "9cb1ac02-d469-485e-b719-5ba6034dc8da",
            "nama_pse": "TEKNOLOGI CIPTA KARYA BANGSA",
            "nama_se": "TEKNOLOGI CIPTA KARYA BANGSA",
            "sektor": "Sektor Teknologi Informasi dan Komunikasi",
            "tanggal_terbit": "2022-10-06",
            "url_tdpse_detail": "https://pse.komdigi.go.id/tdpse-detail/11584",
            "website": "-"
        },
        {
            "id": "9cb1ac11-84ca-4956-b5cb-4e65e98cee1c",
            "nama_pse": "ANADANA KODE NONTUNAI",
            "nama_se": "MONY UANG ELEKTRONIK",
            "sektor": "Sektor Keuangan",
            "tanggal_terbit": "2022-10-06",
            "url_tdpse_detail": "https://pse.komdigi.go.id/tdpse-detail/11585",
            "website": "anadana.com"
        },
        {
            "id": "9cb1ac11-91e9-4c0f-ac5c-0d296f2e2631",
            "nama_pse": "EKSAKTA INTEGRA ISLAMICA",
            "nama_se": "MATEMATIKA AJAIB",
            "sektor": "Sektor Teknologi Informasi dan Komunikasi",
            "tanggal_terbit": "2022-10-06",
            "url_tdpse_detail": "https://pse.komdigi.go.id/tdpse-detail/11587",
            "website": "matematikaajaib.my.id"
        },
        {
            "id": "9cb1abde-b1ac-4eee-862e-742881db75ed",
            "nama_pse": "SOLUSI ANAK NEGERI",
            "nama_se": "PAJAKIND",
            "sektor": "Sektor Keuangan, Sektor Teknologi Informasi dan Komunikasi",
            "tanggal_terbit": "2022-10-06",
            "url_tdpse_detail": "https://pse.komdigi.go.id/tdpse-detail/11588",
            "website": "pajakind.com"
        },
        {
            "id": "9cb1ac02-d7af-4474-8de9-4a9efcd27c23",
            "nama_pse": "PERUSAHAAN PERSEROAN (PERSERO) PT. TELEKOMUNIKASI INDONESIA",
            "nama_se": "BIG SIGHT",
            "sektor": "Sektor Teknologi Informasi dan Komunikasi",
            "tanggal_terbit": "2022-10-06",
            "url_tdpse_detail": "https://pse.komdigi.go.id/tdpse-detail/11590",
            "website": "bigsight.id"
        },
        {
            "id": "9cb1ac02-dd0b-4480-a6f3-2dc1a53b0cb9",
            "nama_pse": "PERUSAHAAN PERSEROAN (PERSERO) PT. TELEKOMUNIKASI INDONESIA",
            "nama_se": "SMART CITY NUSANTARA",
            "sektor": "Sektor Teknologi Informasi dan Komunikasi",
            "tanggal_terbit": "2022-10-06",
            "url_tdpse_detail": "https://pse.komdigi.go.id/tdpse-detail/11591",
            "website": "smartcitynusantara.id"
        },
        {
            "id": "9cb1ac02-e468-404d-98db-19b565d41b74",
            "nama_pse": "IFORTE PAYMENT INFRASTRUCTURE",
            "nama_se": "MCPAYMENT",
            "sektor": "Sektor Teknologi Informasi dan Komunikasi",
            "tanggal_terbit": "2022-10-06",
            "url_tdpse_detail": "https://pse.komdigi.go.id/tdpse-detail/11592",
            "website": "mcpayment.id"
        },
        {
            "id": "9cb1abde-b7d6-4329-9cae-9316163df4a0",
            "nama_pse": "Pass Three Times",
            "nama_se": "APP.PLAY3.GG",
            "sektor": "Sektor Perdagangan",
            "tanggal_terbit": "2022-10-06",
            "url_tdpse_detail": "https://pse.komdigi.go.id/tdpse-detail/11593",
            "website": "app.play3.gg"
        },
        {
            "id": "9cb1abde-bbe0-47e8-89c1-04f145d36de6",
            "nama_pse": "MEGA INTI TELAGA",
            "nama_se": "MEGAKOMPUTER",
            "sektor": "Sektor Perdagangan, Sektor Teknologi Informasi dan Komunikasi",
            "tanggal_terbit": "2022-10-06",
            "url_tdpse_detail": "https://pse.komdigi.go.id/tdpse-detail/11594",
            "website": "megakomputer.com"
        },
        {
            "id": "9cb1abdb-6323-4286-971f-ffb1c4aceed0",
            "nama_pse": "SINARMAS PENJAMINAN KREDIT",
            "nama_se": "WEBSITE SPK",
            "sektor": "Sektor Keuangan",
            "tanggal_terbit": "2022-10-05",
            "url_tdpse_detail": "https://pse.komdigi.go.id/tdpse-detail/11136",
            "website": "simaspenjaminan.com"
        },
        {
            "id": "9cb1abdc-3b67-4ac0-8ef7-f84a9af666a8",
            "nama_pse": "HMD MOBILE INDONESIA",
            "nama_se": "HMD ENABLE PRO",
            "sektor": "Sektor Teknologi Informasi dan Komunikasi",
            "tanggal_terbit": "2022-10-05",
            "url_tdpse_detail": "https://pse.komdigi.go.id/tdpse-detail/11224",
            "website": "-"
        },
        {
            "id": "9cb1ab9b-d72a-4ad0-84d8-228d1abf0841",
            "nama_pse": "MELINDO DIGITAMA",
            "nama_se": "MEMEFLORIST",
            "sektor": "Sektor Perdagangan",
            "tanggal_terbit": "2022-10-05",
            "url_tdpse_detail": "https://pse.komdigi.go.id/tdpse-detail/5587",
            "website": "memeflorist.com"
        },
        {
            "id": "9cb1ab9b-da39-4453-9638-295a864f415d",
            "nama_pse": "WATERFRONT SEKURITAS INDONESIA",
            "nama_se": "WINTRADING",
            "sektor": "Sektor Keuangan",
            "tanggal_terbit": "2022-10-05",
            "url_tdpse_detail": "https://pse.komdigi.go.id/tdpse-detail/5591",
            "website": "waterfront.com"
        },
        {
            "id": "9cb1abde-61d3-4240-8843-7a16314f52b2",
            "nama_pse": "ERESTO DIGITAL SOLUTION",
            "nama_se": "ERESTO",
            "sektor": "Sektor Perdagangan, Sektor Keuangan, Sektor Teknologi Informasi dan Komunikasi",
            "tanggal_terbit": "2022-10-05",
            "url_tdpse_detail": "https://pse.komdigi.go.id/tdpse-detail/11533",
            "website": "eresto.co.id"
        },
        {
            "id": "9cb1ac02-b1ca-4541-bfe6-3f60e3c75be2",
            "nama_pse": "ASURANSI CANDI UTAMA",
            "nama_se": "CANDIUTAMA.CO.ID",
            "sektor": "Sektor Keuangan",
            "tanggal_terbit": "2022-10-05",
            "url_tdpse_detail": "https://pse.komdigi.go.id/tdpse-detail/11534",
            "website": "candiutama.co.id"
        },
        {
            "id": "9cb1ac02-b551-4ef4-94e8-da57dd82dc50",
            "nama_pse": "BERSAMA KITA BANTU",
            "nama_se": "SOLVIN",
            "sektor": "Sektor Perdagangan, Sektor Teknologi Informasi dan Komunikasi",
            "tanggal_terbit": "2022-10-05",
            "url_tdpse_detail": "https://pse.komdigi.go.id/tdpse-detail/11535",
            "website": "solvin.co.id"
        },
        {
            "id": "9cb1abde-669c-476a-959f-4d9cf58e49b9",
            "nama_pse": "RENOS MARKETPLACE INDONESIA",
            "nama_se": "RENOS",
            "sektor": "Sektor Perdagangan",
            "tanggal_terbit": "2022-10-05",
            "url_tdpse_detail": "https://pse.komdigi.go.id/tdpse-detail/11540",
            "website": "renos.id"
        },
        {
            "id": "9cb1abde-6a43-4aab-9d4e-603748dedfdd",
            "nama_pse": "DUTA DAYA DIGITAL",
            "nama_se": "WWW.CREDIBLE.COM",
            "sektor": "Sektor Perdagangan",
            "tanggal_terbit": "2022-10-05",
            "url_tdpse_detail": "https://pse.komdigi.go.id/tdpse-detail/11536",
            "website": "-"
        },
        {
            "id": "9cb1abde-7072-43f3-93fb-5e84b28fa760",
            "nama_pse": "DUTA DAYA DIGITAL",
            "nama_se": "HTTPS://WWW.CREWDIBLE.COM",
            "sektor": "Sektor Perdagangan",
            "tanggal_terbit": "2022-10-05",
            "url_tdpse_detail": "https://pse.komdigi.go.id/tdpse-detail/11537",
            "website": "crewdible.com"
        },
        {
            "id": "9cb1abde-75d3-4b3e-b63d-8d46629e07cd",
            "nama_pse": "REINHART PREVIANO KOENTJORO",
            "nama_se": "MY SPIRITUAL JOURNEY (MSJ) TELEGRAM BOT",
            "sektor": "Sektor Teknologi Informasi dan Komunikasi",
            "tanggal_terbit": "2022-10-05",
            "url_tdpse_detail": "https://pse.komdigi.go.id/tdpse-detail/11538",
            "website": "gms-msj-telegram-bot.reinhart1010.id"
        },
        {
            "id": "9cb1ac02-b8fc-4dbe-a500-b83c2f048711",
            "nama_pse": "ASURANSI ALLIANZ LIFE INDONESIA",
            "nama_se": "EPREGNANCY",
            "sektor": "Sektor Keuangan",
            "tanggal_terbit": "2022-10-05",
            "url_tdpse_detail": "https://pse.komdigi.go.id/tdpse-detail/11541",
            "website": "-"
        },
        {
            "id": "9cb1ac02-bc95-45c2-9d5a-ae0da0759afd",
            "nama_pse": "JASAMARGA TOLLROAD OPERATOR",
            "nama_se": "SETTLEMENT MONITORING TOOLS",
            "sektor": "Sektor Teknologi Informasi dan Komunikasi",
            "tanggal_terbit": "2022-10-05",
            "url_tdpse_detail": "https://pse.komdigi.go.id/tdpse-detail/11539",
            "website": "jmto.co.id"
        },
        {
            "id": "9cb1abde-79cb-481d-a1ee-50f83195a0e6",
            "nama_pse": "SANTE INTERNATIONAL INDONESIA",
            "nama_se": "WWW.MYSANTE.COM",
            "sektor": "Sektor Perdagangan",
            "tanggal_terbit": "2022-10-05",
            "url_tdpse_detail": "https://pse.komdigi.go.id/tdpse-detail/11572",
            "website": "main.santebarley.com"
        },
        {
            "id": "9cb1ac02-c013-4ce5-9c9c-ce4800eebfdc",
            "nama_pse": "AIRUDDER INFORMATION TECHNOLOGY",
            "nama_se": "AIRUDDER AIROBOT",
            "sektor": "Sektor Teknologi Informasi dan Komunikasi",
            "tanggal_terbit": "2022-10-05",
            "url_tdpse_detail": "https://pse.komdigi.go.id/tdpse-detail/11552",
            "website": "airudder.com"
        },
        {
            "id": "9cb1ac11-6c02-4671-b34a-ac783f19de96",
            "nama_pse": "ASURANSI UMUM BCA",
            "nama_se": "ECLAIM",
            "sektor": "Sektor Keuangan",
            "tanggal_terbit": "2022-10-05",
            "url_tdpse_detail": "https://pse.komdigi.go.id/tdpse-detail/11553",
            "website": "eclaim.bcainsurance.co.id"
        },
        {
            "id": "9cb1ac02-c38f-4f3f-a84a-77042550a8d6",
            "nama_pse": "BRAND POLITIKA INDONESIA",
            "nama_se": "BRAND POLITIKA",
            "sektor": "Sektor Teknologi Informasi dan Komunikasi",
            "tanggal_terbit": "2022-10-05",
            "url_tdpse_detail": "https://pse.komdigi.go.id/tdpse-detail/11563",
            "website": "brandpolitika.com"
        },
        {
            "id": "9cb1ac11-6f05-45b3-8321-cbcaf291feb6",
            "nama_pse": "JASAMARGA TOLLROAD OPERATOR",
            "nama_se": "GETOLL",
            "sektor": "Sektor Teknologi Informasi dan Komunikasi",
            "tanggal_terbit": "2022-10-05",
            "url_tdpse_detail": "https://pse.komdigi.go.id/tdpse-detail/11554",
            "website": "getoll.jmto.co.id"
        },
        {
            "id": "9cb1ac02-c727-480f-ac51-6db2aeb08af0",
            "nama_pse": "JASAMARGA TOLLROAD OPERATOR",
            "nama_se": "LET IT FLO",
            "sektor": "Sektor Teknologi Informasi dan Komunikasi",
            "tanggal_terbit": "2022-10-05",
            "url_tdpse_detail": "https://pse.komdigi.go.id/tdpse-detail/11558",
            "website": "letitflo.id"
        },
        {
            "id": "9cb1abde-7e06-4c83-9efd-5c39fb43cf94",
            "nama_pse": "TELUNJUK KOMPUTASI INDONESIA",
            "nama_se": "COMPAS.CO.ID",
            "sektor": "Sektor Teknologi Informasi dan Komunikasi",
            "tanggal_terbit": "2022-10-05",
            "url_tdpse_detail": "https://pse.komdigi.go.id/tdpse-detail/11559",
            "website": "compas.co.id"
        },
        {
            "id": "9cb1abde-8254-4960-9ff6-59727c6734fa",
            "nama_pse": "TITUS MENJANG",
            "nama_se": "SOLUSI SPA",
            "sektor": "Sektor Kesehatan",
            "tanggal_terbit": "2022-10-05",
            "url_tdpse_detail": "https://pse.komdigi.go.id/tdpse-detail/11560",
            "website": "-"
        },
        {
            "id": "9cb1abde-8a45-4823-b669-7fea8eb2fb42",
            "nama_pse": "ANUGERAH PROTECINDO",
            "nama_se": "INDOBAN",
            "sektor": "Sektor Perdagangan",
            "tanggal_terbit": "2022-10-05",
            "url_tdpse_detail": "https://pse.komdigi.go.id/tdpse-detail/11561",
            "website": "indoban.co.id"
        },
        {
            "id": "9cb1ac11-71f0-4624-8249-ca4642aae704",
            "nama_pse": "SOVO ISM INDONESIA",
            "nama_se": "SOVOISM",
            "sektor": "Sektor Teknologi Informasi dan Komunikasi",
            "tanggal_terbit": "2022-10-05",
            "url_tdpse_detail": "https://pse.komdigi.go.id/tdpse-detail/11562",
            "website": "sovoism.com"
        },
        {
            "id": "9cb1ac11-7846-460c-9639-e77139ff140f",
            "nama_pse": "TUJUH BERLIAN MEDIATAMA",
            "nama_se": "GOODDREAMER.ID",
            "sektor": "Sektor Perdagangan",
            "tanggal_terbit": "2022-10-05",
            "url_tdpse_detail": "https://pse.komdigi.go.id/tdpse-detail/11566",
            "website": "gooddreamer.id"
        },
        {
            "id": "9cb1abde-8f78-40ea-8e47-88b2be044fd4",
            "nama_pse": "ANUGERAH PROTECINDO",
            "nama_se": "WWW.ZIEBART.ID",
            "sektor": "Sektor Perdagangan",
            "tanggal_terbit": "2022-10-05",
            "url_tdpse_detail": "https://pse.komdigi.go.id/tdpse-detail/11567",
            "website": "ziebart.id"
        },
        {
            "id": "9cb1abde-9334-422d-ae54-5057ae8bb82a",
            "nama_pse": "BANK PERKREDITAN RAKYAT TAMAN DHANA",
            "nama_se": "TD APP",
            "sektor": "Sektor Keuangan",
            "tanggal_terbit": "2022-10-05",
            "url_tdpse_detail": "https://pse.komdigi.go.id/tdpse-detail/11568",
            "website": "bprtamandhana.com"
        },
        {
            "id": "9cb1ac02-ca58-44e8-958e-f51cdcfc9466",
            "nama_pse": "SCOREX TEKNOLOGI INDONESIA",
            "nama_se": "DOLPHEEN INDONESIA",
            "sektor": "Sektor Teknologi Informasi dan Komunikasi",
            "tanggal_terbit": "2022-10-05",
            "url_tdpse_detail": "https://pse.komdigi.go.id/tdpse-detail/11569",
            "website": "dolpheen.id"
        },
        {
            "id": "9cb1abde-9a09-473b-b997-60eefe4c0822",
            "nama_pse": "INTERMEDIA MULTIBAHASA INDONESIA",
            "nama_se": "LINGOJUNIOR",
            "sektor": "Sektor Teknologi Informasi dan Komunikasi",
            "tanggal_terbit": "2022-10-05",
            "url_tdpse_detail": "https://pse.komdigi.go.id/tdpse-detail/11573",
            "website": "lingotalk.co"
        },
        {
            "id": "9cb1ac11-0cc4-4b83-8d55-ae5c7d1bba6a",
            "nama_pse": "COINJOSS DATA UTAMA",
            "nama_se": "HTTPS://COINJOSS.COM/",
            "sektor": "Sektor Perdagangan, Sektor Keuangan, Sektor Teknologi Informasi dan Komunikasi",
            "tanggal_terbit": "2022-10-04",
            "url_tdpse_detail": "https://pse.komdigi.go.id/tdpse-detail/11494",
            "website": "coinjoss.com"
        },
        {
            "id": "9cb1ac02-7252-49ca-a134-0aacadc494d9",
            "nama_pse": "DLN KARYA BANGSA",
            "nama_se": "MEJADOKTER",
            "sektor": "Sektor Kesehatan",
            "tanggal_terbit": "2022-10-04",
            "url_tdpse_detail": "https://pse.komdigi.go.id/tdpse-detail/11486",
            "website": "mejadokter.com"
        },
        {
            "id": "9cb1abdd-e843-419c-afb7-c4f49a98450b",
            "nama_pse": "INDOTECH GLOBAL UTAMA",
            "nama_se": "ME12PAY DIGITAL",
            "sektor": "Sektor Perdagangan, Sektor Keuangan, Sektor Teknologi Informasi dan Komunikasi",
            "tanggal_terbit": "2022-10-04",
            "url_tdpse_detail": "https://pse.komdigi.go.id/tdpse-detail/11488",
            "website": "-"
        },
        {
            "id": "9cb1ac11-4d8c-41b1-b141-7e502db11607",
            "nama_pse": "SETIAP HARI DIPAKAI",
            "nama_se": "POPAKET",
            "sektor": "Sektor Transportasi",
            "tanggal_terbit": "2022-10-04",
            "url_tdpse_detail": "https://pse.komdigi.go.id/tdpse-detail/11489",
            "website": "popaket.com"
        },
        {
            "id": "9cb1abdd-ed2c-447f-ba66-d34306f837c0",
            "nama_pse": "LUMIO INOVASI TECHNOLOGY",
            "nama_se": "LUMIO CMS",
            "sektor": "Sektor Teknologi Informasi dan Komunikasi",
            "tanggal_terbit": "2022-10-04",
            "url_tdpse_detail": "https://pse.komdigi.go.id/tdpse-detail/11490",
            "website": "lumio.id"
        },
        {
            "id": "9cb1abdd-f208-4c9d-b75a-65ae2cdabb7c",
            "nama_pse": "SETIAP HARI DIPAKAI",
            "nama_se": "EVERPRO - KIRIM PAKET \u0026 COD",
            "sektor": "Sektor Perdagangan, Sektor Transportasi",
            "tanggal_terbit": "2022-10-04",
            "url_tdpse_detail": "https://pse.komdigi.go.id/tdpse-detail/11491",
            "website": "everpro.id"
        },
        {
            "id": "9cb1ac11-507a-4442-8d62-f778d0bb46e9",
            "nama_pse": "LUMIO INOVASI TECHNOLOGY",
            "nama_se": "LUMIO AMS",
            "sektor": "Sektor Teknologi Informasi dan Komunikasi",
            "tanggal_terbit": "2022-10-04",
            "url_tdpse_detail": "https://pse.komdigi.go.id/tdpse-detail/11492",
            "website": "-"
        },
        {
            "id": "9cb1ac02-78a1-4b64-8a77-5e8a7a6aef2b",
            "nama_pse": "MUSTIKA SHAFWAH SUKSES",
            "nama_se": "SUKSESKU.COM",
            "sektor": "Sektor Perdagangan, Sektor Kesehatan, Sektor Teknologi Informasi dan Komunikasi",
            "tanggal_terbit": "2022-10-04",
            "url_tdpse_detail": "https://pse.komdigi.go.id/tdpse-detail/11495",
            "website": "suksesku.com"
        },
        {
            "id": "9cb1ac11-53da-4007-b2a0-b84371dc93ea",
            "nama_pse": "CLEOVA INOVASI TEKNOLOGI",
            "nama_se": "PT CLEOVA INOVASI TEKNOLOGI",
            "sektor": "Sektor Teknologi Informasi dan Komunikasi",
            "tanggal_terbit": "2022-10-04",
            "url_tdpse_detail": "https://pse.komdigi.go.id/tdpse-detail/11493",
            "website": "cleova.com"
        },
        {
            "id": "9cb1ac02-7c75-4e7f-a2da-c7f3c2553fb8",
            "nama_pse": "COINJOSS DATA UTAMA",
            "nama_se": "COINJOSS.COM",
            "sektor": "Sektor Perdagangan, Sektor Keuangan, Sektor Teknologi Informasi dan Komunikasi",
            "tanggal_terbit": "2022-10-04",
            "url_tdpse_detail": "https://pse.komdigi.go.id/tdpse-detail/11496",
            "website": "coinjoss.com"
        },
        {
            "id": "9cb1abdd-f8c4-412b-bc67-90b8a5ef08c9",
            "nama_pse": "HOURLOGY INDAH PERKASA",
            "nama_se": "HOURLOGY ONLINE",
            "sektor": "Sektor Perdagangan",
            "tanggal_terbit": "2022-10-04",
            "url_tdpse_detail": "https://pse.komdigi.go.id/tdpse-detail/11497",
            "website": "hourlogy-online.com"
        }
    ],
    "processingTimeMs": 3,
    "query": "",
    "totalHits": 19121,
    "hitsPerPage": 50,
    "page": 179,
    "totalPages": 383
}