{
    "hits": [
        {
            "id": "9cb1abdd-fbf2-4a2a-98f6-9184aaf5efcd",
            "nama_pse": "MAWARINA",
            "nama_se": "PD. KIRANA ELEKTRONIK",
            "sektor": "Sektor Perdagangan",
            "tanggal_terbit": "2022-10-04",
            "url_tdpse_detail": "https://pse.komdigi.go.id/tdpse-detail/11498",
            "website": "-"
        },
        {
            "id": "9cb1abdd-ff72-48cc-9115-10b65c04a198",
            "nama_pse": "FIRMAN ADRIANSAH",
            "nama_se": "MSL-CF",
            "sektor": "Sektor Keuangan",
            "tanggal_terbit": "2022-10-04",
            "url_tdpse_detail": "https://pse.komdigi.go.id/tdpse-detail/11499",
            "website": "msl-cf.id"
        },
        {
            "id": "9cb1ac11-56e8-4ecd-b846-5a06c47ca720",
            "nama_pse": "PUSAT TEKNOLOGI INDONESIA",
            "nama_se": "DRAGON",
            "sektor": "Sektor Teknologi Informasi dan Komunikasi",
            "tanggal_terbit": "2022-10-04",
            "url_tdpse_detail": "https://pse.komdigi.go.id/tdpse-detail/11500",
            "website": "pusateknoindo.com"
        },
        {
            "id": "9cb1abde-0d92-4ea3-b9d0-697e2a1d1c4c",
            "nama_pse": "MEDIA COBRA INDONESIA",
            "nama_se": "WWW.BHAYANGKARANEWS.MY.ID",
            "sektor": "Sektor Teknologi Informasi dan Komunikasi",
            "tanggal_terbit": "2022-10-04",
            "url_tdpse_detail": "https://pse.komdigi.go.id/tdpse-detail/11501",
            "website": "bhayangkaranews.my.id"
        },
        {
            "id": "9cb1abde-1593-44db-aef1-265d8811388d",
            "nama_pse": "M SHOLIHIN AL IRFANI",
            "nama_se": "AL-IRFANI.ONLINE",
            "sektor": "Sektor Perdagangan",
            "tanggal_terbit": "2022-10-04",
            "url_tdpse_detail": "https://pse.komdigi.go.id/tdpse-detail/11502",
            "website": "al-irfani.online"
        },
        {
            "id": "9cb1abde-1944-49f3-b3f7-f55787b5029d",
            "nama_pse": "ARDIAN SUSANTO",
            "nama_se": "GROW \u0026 BLESS DIGITAL MARKETING",
            "sektor": "Sektor Teknologi Informasi dan Komunikasi",
            "tanggal_terbit": "2022-10-04",
            "url_tdpse_detail": "https://pse.komdigi.go.id/tdpse-detail/11503",
            "website": "growandbless.com"
        },
        {
            "id": "9cb1ac02-7f43-4ce6-88fa-d6ef4969f6fe",
            "nama_pse": "SINAR CIPTA NIAGA",
            "nama_se": "WEBSITE (MAGNET OTOMOTIF) DAN APLIKASI ANDROID (MOMO)",
            "sektor": "Sektor Perdagangan",
            "tanggal_terbit": "2022-10-04",
            "url_tdpse_detail": "https://pse.komdigi.go.id/tdpse-detail/11504",
            "website": "magnetotomotif.website"
        },
        {
            "id": "9cb1ac02-562b-4f70-9eb0-238b241dab6c",
            "nama_pse": "PRAKARSA GEMILANG JAYA",
            "nama_se": "BEYOND MARKET",
            "sektor": "Sektor Pangan",
            "tanggal_terbit": "2022-10-03",
            "url_tdpse_detail": "https://pse.komdigi.go.id/tdpse-detail/11464",
            "website": "beyondmarket.co.id"
        },
        {
            "id": "9cb1abdd-d363-4645-875e-96e2e5f1180e",
            "nama_pse": "BANK PEMBANGUNAN DAERAH MALUKU DAN MALUKU UTARA",
            "nama_se": "ALPHABITS CORE BANKING SYSTEM",
            "sektor": "Sektor Keuangan",
            "tanggal_terbit": "2022-10-03",
            "url_tdpse_detail": "https://pse.komdigi.go.id/tdpse-detail/11463",
            "website": "bankmalukumalut.co.id"
        },
        {
            "id": "9cb1ac02-597d-4a29-91ce-086a0933cc21",
            "nama_pse": "MIRZUNO GLOBAL SOLUSI",
            "nama_se": "MIRZUNO.COM",
            "sektor": "Sektor Teknologi Informasi dan Komunikasi",
            "tanggal_terbit": "2022-10-03",
            "url_tdpse_detail": "https://pse.komdigi.go.id/tdpse-detail/11465",
            "website": "mirzuno.com"
        },
        {
            "id": "9cb1ac02-5c96-457f-8302-2fe2b476bb5a",
            "nama_pse": "LULY WIDAYANTI, S.KOM",
            "nama_se": "MOBILE ID",
            "sektor": "Sektor Perdagangan",
            "tanggal_terbit": "2022-10-03",
            "url_tdpse_detail": "https://pse.komdigi.go.id/tdpse-detail/11466",
            "website": "-"
        },
        {
            "id": "9cb1ac11-2926-4dec-b5d5-11769523b56e",
            "nama_pse": "REDCORPINDO TEKNOLOGI INDONESIA",
            "nama_se": "QLOK SUITE",
            "sektor": "Sektor Teknologi Informasi dan Komunikasi",
            "tanggal_terbit": "2022-10-03",
            "url_tdpse_detail": "https://pse.komdigi.go.id/tdpse-detail/11468",
            "website": "qloksuite.com"
        },
        {
            "id": "9cb1ac11-2c57-4487-af15-17f92dfb8bd1",
            "nama_pse": "JAMBI MEDIA GRAFIKA",
            "nama_se": "TRIBUNJAMBI.COM",
            "sektor": "Sektor Teknologi Informasi dan Komunikasi",
            "tanggal_terbit": "2022-10-03",
            "url_tdpse_detail": "https://pse.komdigi.go.id/tdpse-detail/11469",
            "website": "tribunjambi.com"
        },
        {
            "id": "9cb1ac02-6021-4c3e-811a-26009debb530",
            "nama_pse": "KAPUAS MEDIA GRAFIKA",
            "nama_se": "TRIBUNPONTIANAK.CO.ID",
            "sektor": "Sektor Teknologi Informasi dan Komunikasi",
            "tanggal_terbit": "2022-10-03",
            "url_tdpse_detail": "https://pse.komdigi.go.id/tdpse-detail/11470",
            "website": "tribunpontianak.co.id"
        },
        {
            "id": "9cb1ac11-2f5e-4544-b136-42552d11c3b6",
            "nama_pse": "JAMPANG MANGGUNG MULTIMEDIA",
            "nama_se": "LINGKAR PENA",
            "sektor": "Sektor Teknologi Informasi dan Komunikasi",
            "tanggal_terbit": "2022-10-03",
            "url_tdpse_detail": "https://pse.komdigi.go.id/tdpse-detail/11471",
            "website": "lingkarpena.id"
        },
        {
            "id": "9cb1abdd-df07-4a5d-b6e4-5bd53ea289bc",
            "nama_pse": "RIAU MEDIA GRAFIKA",
            "nama_se": "TRIBUNPEKANBARU.COM",
            "sektor": "Sektor Teknologi Informasi dan Komunikasi",
            "tanggal_terbit": "2022-10-03",
            "url_tdpse_detail": "https://pse.komdigi.go.id/tdpse-detail/11472",
            "website": "tribunpekanbaru.com"
        },
        {
            "id": "9cb1ac11-3302-4579-b843-5bf38ccaae0b",
            "nama_pse": "SUMSEL MEDIA GRAFIKA",
            "nama_se": "TRIBUNSUMSEL.COM",
            "sektor": "Sektor Teknologi Informasi dan Komunikasi",
            "tanggal_terbit": "2022-10-03",
            "url_tdpse_detail": "https://pse.komdigi.go.id/tdpse-detail/11473",
            "website": "tribunsumsel.com"
        },
        {
            "id": "9cb1ac02-660d-4c25-a1fe-afb84ef1432c",
            "nama_pse": "ACEH MEDIA GRAFIKA",
            "nama_se": "PROHABA.CO",
            "sektor": "Sektor Teknologi Informasi dan Komunikasi",
            "tanggal_terbit": "2022-10-03",
            "url_tdpse_detail": "https://pse.komdigi.go.id/tdpse-detail/11474",
            "website": "prohaba.co"
        },
        {
            "id": "9cb1ac11-3686-4b35-a40c-c0f26644721f",
            "nama_pse": "CIPTA KREASI MAHAPUTRA",
            "nama_se": "MAHAPUTRA.ID",
            "sektor": "Sektor Perdagangan",
            "tanggal_terbit": "2022-10-03",
            "url_tdpse_detail": "https://pse.komdigi.go.id/tdpse-detail/11475",
            "website": "mahaputra.id"
        },
        {
            "id": "9cb1ac02-68af-46b8-8340-866459647adb",
            "nama_pse": "APRIANDI WARI KUDORO",
            "nama_se": "COINBAZOOKA",
            "sektor": "Sektor Teknologi Informasi dan Komunikasi",
            "tanggal_terbit": "2022-10-03",
            "url_tdpse_detail": "https://pse.komdigi.go.id/tdpse-detail/11476",
            "website": "coinbazooka.com"
        },
        {
            "id": "9cb1ac11-39e0-4c32-9c33-8bf78b203dca",
            "nama_pse": "GILANG AGUNG PERSADA",
            "nama_se": "GUESS INDONESIA",
            "sektor": "Sektor Perdagangan",
            "tanggal_terbit": "2022-10-03",
            "url_tdpse_detail": "https://pse.komdigi.go.id/tdpse-detail/11477",
            "website": "guess.id"
        },
        {
            "id": "9cb1ac11-3d37-4813-b4da-5d836715a980",
            "nama_pse": "MENARA SINAR SEMESTA",
            "nama_se": "CLOUDKU.ID",
            "sektor": "Sektor Teknologi Informasi dan Komunikasi",
            "tanggal_terbit": "2022-10-03",
            "url_tdpse_detail": "https://pse.komdigi.go.id/tdpse-detail/11479",
            "website": "cloudku.id"
        },
        {
            "id": "9cb1ac11-1aeb-4aef-9cfc-5909533bd0f3",
            "nama_pse": "JEJAK KASUS NEWS",
            "nama_se": "REKAMKASUS.ID",
            "sektor": "Sektor Teknologi Informasi dan Komunikasi",
            "tanggal_terbit": "2022-10-02",
            "url_tdpse_detail": "https://pse.komdigi.go.id/tdpse-detail/11459",
            "website": "rekamkasus.id"
        },
        {
            "id": "9cb1ac11-1d98-410b-832d-22698a8fa619",
            "nama_pse": "JEJAK KASUS NEWS",
            "nama_se": "SINERGITASNASIONAL.ID",
            "sektor": "Sektor Teknologi Informasi dan Komunikasi",
            "tanggal_terbit": "2022-10-02",
            "url_tdpse_detail": "https://pse.komdigi.go.id/tdpse-detail/11460",
            "website": "sinergitasnasional.id"
        },
        {
            "id": "9cb1ac11-20d1-40c7-bd5e-89d86e4e1532",
            "nama_pse": "SEHAT SENANG SELALU",
            "nama_se": "HEYVA",
            "sektor": "Sektor Kesehatan, Sektor Teknologi Informasi dan Komunikasi",
            "tanggal_terbit": "2022-10-02",
            "url_tdpse_detail": "https://pse.komdigi.go.id/tdpse-detail/11461",
            "website": "Heyva.health"
        },
        {
            "id": "9cb1ac11-23c2-4118-b87c-4764f32b7ec5",
            "nama_pse": "DEDE RUSNIA",
            "nama_se": "TOKO MAJU SEJAHTERA",
            "sektor": "Sektor Perdagangan",
            "tanggal_terbit": "2022-10-02",
            "url_tdpse_detail": "https://pse.komdigi.go.id/tdpse-detail/11462",
            "website": "-"
        },
        {
            "id": "9cb1abdd-ca58-44d9-b586-136f557181e5",
            "nama_pse": "SIMA BERKAH ABADI",
            "nama_se": "SIMA BERKAH ABADI",
            "sektor": "Sektor Perdagangan, Sektor Pangan",
            "tanggal_terbit": "2022-10-01",
            "url_tdpse_detail": "https://pse.komdigi.go.id/tdpse-detail/11455",
            "website": "-"
        },
        {
            "id": "9cb1abdd-ce19-4c3d-b9e2-c19e87499b59",
            "nama_pse": "PANONPOE MEDIA",
            "nama_se": "PROJECTS.CO.ID",
            "sektor": "Sektor Perdagangan",
            "tanggal_terbit": "2022-10-01",
            "url_tdpse_detail": "https://pse.komdigi.go.id/tdpse-detail/11456",
            "website": "projects.co.id"
        },
        {
            "id": "9cb1ac11-121c-4fd1-b17e-9adb08ca85ac",
            "nama_pse": "HOURLOGY INDAH PERKASA",
            "nama_se": "OMOLOGATO WATCHES INDONESIA",
            "sektor": "Sektor Perdagangan",
            "tanggal_terbit": "2022-09-30",
            "url_tdpse_detail": "https://pse.komdigi.go.id/tdpse-detail/11451",
            "website": "omologatowatches.co.id"
        },
        {
            "id": "9cb1abdd-bf19-4619-8530-0a7b67416e58",
            "nama_pse": "JAYA SAMUDRA",
            "nama_se": "BELAPENGADAAN",
            "sektor": "Sektor Perdagangan, Sektor Pangan",
            "tanggal_terbit": "2022-09-30",
            "url_tdpse_detail": "https://pse.komdigi.go.id/tdpse-detail/11452",
            "website": "-"
        },
        {
            "id": "9cb1ac10-cdd3-4a6f-a550-12d4d9fe7662",
            "nama_pse": "SUKACITA TEKNOLOGI INDONESIA",
            "nama_se": "COSMART.ID",
            "sektor": "Sektor Perdagangan",
            "tanggal_terbit": "2022-09-29",
            "url_tdpse_detail": "https://pse.komdigi.go.id/tdpse-detail/11416",
            "website": "cosmart.id"
        },
        {
            "id": "9cb1ac02-2fe5-4fa2-96bc-49abeae66c19",
            "nama_pse": "DEUTSCHE BANK AG",
            "nama_se": "DB-DIRECT INTERNET",
            "sektor": "Sektor Perdagangan, Sektor Keuangan",
            "tanggal_terbit": "2022-09-29",
            "url_tdpse_detail": "https://pse.komdigi.go.id/tdpse-detail/11418",
            "website": "db-direct.ap.alt.gtb.db.com"
        },
        {
            "id": "9cb1abdd-85c2-4894-bee5-6d13d2dd598b",
            "nama_pse": "FAMILI BOGA INDONESIA",
            "nama_se": "FOODBUY",
            "sektor": "Sektor Perdagangan",
            "tanggal_terbit": "2022-09-29",
            "url_tdpse_detail": "https://pse.komdigi.go.id/tdpse-detail/11417",
            "website": "foodbuy.id"
        },
        {
            "id": "9cb1ac02-32c6-4471-936b-b9037b92cd82",
            "nama_pse": "IVONESIA SOLUSI DATA",
            "nama_se": "SOCIOMILE",
            "sektor": "Sektor Teknologi Informasi dan Komunikasi",
            "tanggal_terbit": "2022-09-29",
            "url_tdpse_detail": "https://pse.komdigi.go.id/tdpse-detail/11419",
            "website": "sociomile.com"
        },
        {
            "id": "9cb1ac10-db2e-43b8-89c8-5d0766ec57e0",
            "nama_pse": "DEUTSCHE BANK AG",
            "nama_se": "AUTOBAHN TOOLBAR",
            "sektor": "Sektor Perdagangan, Sektor Keuangan",
            "tanggal_terbit": "2022-09-29",
            "url_tdpse_detail": "https://pse.komdigi.go.id/tdpse-detail/11420",
            "website": "toolbar.autobahn.db.com"
        },
        {
            "id": "9cb1ac02-3a01-43e2-b071-5711e5cd2b31",
            "nama_pse": "NUSANTARA APLIKASI APARTINDO",
            "nama_se": "MOAJA",
            "sektor": "Sektor Perdagangan, Sektor Teknologi Informasi dan Komunikasi",
            "tanggal_terbit": "2022-09-29",
            "url_tdpse_detail": "https://pse.komdigi.go.id/tdpse-detail/11422",
            "website": "moaja.id"
        },
        {
            "id": "9cb1ac10-df3f-4b6b-9921-1928aad6abb1",
            "nama_pse": "KLIRING PENJAMINAN EFEK INDONESIA",
            "nama_se": "MEMBER AREA – SPP MKBD",
            "sektor": "Sektor Keuangan",
            "tanggal_terbit": "2022-09-29",
            "url_tdpse_detail": "https://pse.komdigi.go.id/tdpse-detail/11423",
            "website": "marea.kpei.co.id"
        },
        {
            "id": "9cb1ac10-e303-4803-960c-d0494fd4e42d",
            "nama_pse": "KLIRING PENJAMINAN EFEK INDONESIA",
            "nama_se": "MEMBER INTERFACE",
            "sektor": "Sektor Keuangan",
            "tanggal_terbit": "2022-09-29",
            "url_tdpse_detail": "https://pse.komdigi.go.id/tdpse-detail/11424",
            "website": "mi.kpei.co.id"
        },
        {
            "id": "9cb1ac10-e647-4626-8101-7ef3c961ba2a",
            "nama_pse": "KLIRING PENJAMINAN EFEK INDONESIA",
            "nama_se": "MEMBER AREA – PORTOFOLIO",
            "sektor": "Sektor Keuangan",
            "tanggal_terbit": "2022-09-29",
            "url_tdpse_detail": "https://pse.komdigi.go.id/tdpse-detail/11425",
            "website": "marea.kpei.co.id"
        },
        {
            "id": "9cb1ac10-ea7f-4aac-849b-9b0409668b9a",
            "nama_pse": "DEUTSCHE BANK AG",
            "nama_se": "DEUTSCHE BANK  INDONESIA COUNTRY WEBSITE",
            "sektor": "Sektor Perdagangan, Sektor Keuangan",
            "tanggal_terbit": "2022-09-29",
            "url_tdpse_detail": "https://pse.komdigi.go.id/tdpse-detail/11426",
            "website": "country.db.com"
        },
        {
            "id": "9cb1abdd-8928-499f-8f6a-2d1790cbb610",
            "nama_pse": "BINTANG INTI MEDIA AGUNG",
            "nama_se": "BINTANG.ID",
            "sektor": "Sektor Teknologi Informasi dan Komunikasi",
            "tanggal_terbit": "2022-09-29",
            "url_tdpse_detail": "https://pse.komdigi.go.id/tdpse-detail/11427",
            "website": "-"
        },
        {
            "id": "9cb1abdd-8c35-48b5-9936-d87849a95b95",
            "nama_pse": "REDBY MEDIA GROUP",
            "nama_se": "REDBY JEK",
            "sektor": "Sektor Transportasi",
            "tanggal_terbit": "2022-09-29",
            "url_tdpse_detail": "https://pse.komdigi.go.id/tdpse-detail/11428",
            "website": "-"
        },
        {
            "id": "9cb1ac10-eda4-4e28-a5cf-a339bd3e6e8d",
            "nama_pse": "ARAH QIBLA NUSANTARA",
            "nama_se": "ARAH MUSLIM",
            "sektor": "Sektor Perdagangan, Sektor Teknologi Informasi dan Komunikasi",
            "tanggal_terbit": "2022-09-29",
            "url_tdpse_detail": "https://pse.komdigi.go.id/tdpse-detail/11429",
            "website": "arahmuslim.id"
        },
        {
            "id": "9cb1ac10-f76e-4af4-92cb-071e59c32fe4",
            "nama_pse": "BANK PEMBIAYAAN RAKYAT SYARIAH SINDANGLAYA KOTANOPAN",
            "nama_se": "PT BANK PEMBIAYAAN RAKYAT SYARIAH SINDANGLAYA KOTANOPAN",
            "sektor": "Sektor Keuangan",
            "tanggal_terbit": "2022-09-29",
            "url_tdpse_detail": "https://pse.komdigi.go.id/tdpse-detail/11432",
            "website": "-"
        },
        {
            "id": "9cb1ac10-fa2f-4132-8ab1-865e071532f9",
            "nama_pse": "DESA TECH NUSANTARA",
            "nama_se": "SISTEM MANAJEMEN INFORMASI KOPERASI",
            "sektor": "Sektor Teknologi Informasi dan Komunikasi",
            "tanggal_terbit": "2022-09-29",
            "url_tdpse_detail": "https://pse.komdigi.go.id/tdpse-detail/11433",
            "website": "smik.id"
        },
        {
            "id": "9cb1abdd-61ab-4ae7-b4aa-c0f7b63e86df",
            "nama_pse": "FASTRATA BUANA",
            "nama_se": "WWW.KAPALAPISTORE.COM",
            "sektor": "Sektor Perdagangan",
            "tanggal_terbit": "2022-09-28",
            "url_tdpse_detail": "https://pse.komdigi.go.id/tdpse-detail/11398",
            "website": "-"
        },
        {
            "id": "9cb1abdd-4011-4849-973b-66ef88d1e716",
            "nama_pse": "SAMUDERA MANGKUPALAS INDONESIA",
            "nama_se": "TRACE REPORT",
            "sektor": "Sektor Teknologi Informasi dan Komunikasi",
            "tanggal_terbit": "2022-09-28",
            "url_tdpse_detail": "https://pse.komdigi.go.id/tdpse-detail/11400",
            "website": "tracereport.id"
        },
        {
            "id": "9cb1ac10-b942-45a4-b4d2-daa806781541",
            "nama_pse": "ANNYEONG SOFTWARE INTERNATIONAL",
            "nama_se": "ANSIM HOSPITAL SYSTEM",
            "sektor": "Sektor Kesehatan",
            "tanggal_terbit": "2022-09-28",
            "url_tdpse_detail": "https://pse.komdigi.go.id/tdpse-detail/11397",
            "website": "simrs.kr"
        },
        {
            "id": "9cb1ac10-bbcb-45b2-9d17-9c5c1403a3d8",
            "nama_pse": "BULLION ECOSYSTEM INTERNATIONAL",
            "nama_se": "SISTEM LIKUIDITAS PERDAGANGAN FISIK EMAS DIGITAL DALAM BURSA",
            "sektor": "Sektor Perdagangan",
            "tanggal_terbit": "2022-09-28",
            "url_tdpse_detail": "https://pse.komdigi.go.id/tdpse-detail/11399",
            "website": "kinesis.money"
        },
        {
            "id": "9cb1ac10-becb-49b9-bc8e-9d424da0b7d4",
            "nama_pse": "FAMINDO DIGITAL INDONESIA",
            "nama_se": "DOYANREBAHAN",
            "sektor": "Sektor Teknologi Informasi dan Komunikasi",
            "tanggal_terbit": "2022-09-28",
            "url_tdpse_detail": "https://pse.komdigi.go.id/tdpse-detail/11401",
            "website": "doyanrebahan.com"
        }
    ],
    "processingTimeMs": 5,
    "query": "",
    "totalHits": 19121,
    "hitsPerPage": 50,
    "page": 180,
    "totalPages": 383
}