{
    "hits": [
        {
            "id": "9cb1ac71-9d43-442e-9976-45580b2dda10",
            "nama_pse": "RIFKA MEDIA TRAVELLINDO",
            "nama_se": "BERITA PANTAU",
            "sektor": "Sektor Teknologi Informasi dan Komunikasi",
            "tanggal_terbit": "2024-06-12",
            "url_tdpse_detail": "https://pse.komdigi.go.id/tdpse-detail/19234",
            "website": "beritapantau.com"
        },
        {
            "id": "9cb1ac5c-cd5a-41d2-9a61-b96beb184e90",
            "nama_pse": "INSAN PERKASA GROUP",
            "nama_se": "EXPLORASINEWS",
            "sektor": "Sektor Teknologi Informasi dan Komunikasi",
            "tanggal_terbit": "2024-06-12",
            "url_tdpse_detail": "https://pse.komdigi.go.id/tdpse-detail/19233",
            "website": "explorasinews.com"
        },
        {
            "id": "9cb1ac5c-d006-4bae-a1dc-14a9c8d76f42",
            "nama_pse": "BALI JAYA SWALAYAN",
            "nama_se": "CV BALI JAYA SWALAYAN",
            "sektor": "Sektor Perdagangan",
            "tanggal_terbit": "2024-06-12",
            "url_tdpse_detail": "https://pse.komdigi.go.id/tdpse-detail/19235",
            "website": "-"
        },
        {
            "id": "9cb1ac5c-d313-438f-ad2c-3a9c6ea53653",
            "nama_pse": "Yayasan Cahaya Lentera Kasih",
            "nama_se": "REKAM MEDIK ELEKTRONIK KLINIK PRATAMA RUMAH MUJIZAT",
            "sektor": "Sektor Kesehatan",
            "tanggal_terbit": "2024-06-12",
            "url_tdpse_detail": "https://pse.komdigi.go.id/tdpse-detail/19236",
            "website": "-"
        },
        {
            "id": "9cb1ac5c-d5ff-4bce-832d-ff54f9a5084a",
            "nama_pse": "ASIA SPORT RETAIL",
            "nama_se": "FILA INDONESIA",
            "sektor": "Sektor Perdagangan",
            "tanggal_terbit": "2024-06-12",
            "url_tdpse_detail": "https://pse.komdigi.go.id/tdpse-detail/19239",
            "website": "fila.co.id"
        },
        {
            "id": "9cb1ac71-dfac-4d1f-8666-23943fb58678",
            "nama_pse": "INTERNASIONAL TRUSINDO SERTIFIKASI",
            "nama_se": "PT INTERNASIONAL TRUSINDO SERTIFIKASI",
            "sektor": "Sektor Perdagangan",
            "tanggal_terbit": "2024-06-12",
            "url_tdpse_detail": "https://pse.komdigi.go.id/tdpse-detail/19238",
            "website": "internasionaltrusindosertifikasi.co.id"
        },
        {
            "id": "9cb1ac71-e334-4148-8fd5-ce7a272eb30a",
            "nama_pse": "MARKETING SENTRATAMA INDONESIA",
            "nama_se": "FIRE (FRONTIER INTEGRATED RESEARCH ENGINE)",
            "sektor": "Sektor Teknologi Informasi dan Komunikasi",
            "tanggal_terbit": "2024-06-12",
            "url_tdpse_detail": "https://pse.komdigi.go.id/tdpse-detail/19237",
            "website": "fireapp.id"
        },
        {
            "id": "9cb1ac71-e713-49ec-85a0-63b9c69f3e15",
            "nama_pse": "MIDI EDUKASI INDONESIA",
            "nama_se": "MEDIALEARN",
            "sektor": "Sektor Teknologi Informasi dan Komunikasi",
            "tanggal_terbit": "2024-06-12",
            "url_tdpse_detail": "https://pse.komdigi.go.id/tdpse-detail/19241",
            "website": "medialearn.id"
        },
        {
            "id": "9cb1ac5c-d922-4105-b298-1ea75fa5317f",
            "nama_pse": "REMALA ABADI",
            "nama_se": "TACHYON",
            "sektor": "Sektor Teknologi Informasi dan Komunikasi",
            "tanggal_terbit": "2024-06-12",
            "url_tdpse_detail": "https://pse.komdigi.go.id/tdpse-detail/19243",
            "website": "remala.id"
        },
        {
            "id": "9cb1ac5c-e520-4e17-8712-436c926406e5",
            "nama_pse": "GERAKAN EKONOMI INDONESIA MANDIRI",
            "nama_se": "KLIKGENI",
            "sektor": "Sektor Teknologi Informasi dan Komunikasi",
            "tanggal_terbit": "2024-06-12",
            "url_tdpse_detail": "https://pse.komdigi.go.id/tdpse-detail/19245",
            "website": "klikgeni.com"
        },
        {
            "id": "9cb1ac87-cf46-4a80-97df-5a72d5e381e5",
            "nama_pse": "SUARA KEADILAN MASYARAKAT",
            "nama_se": "SUARA BIDIK KEADILAN MASYARAKAT",
            "sektor": "Sektor Teknologi Informasi dan Komunikasi",
            "tanggal_terbit": "2024-06-12",
            "url_tdpse_detail": "https://pse.komdigi.go.id/tdpse-detail/19244",
            "website": "httpssuarabidikkeadilanmasyarakat.com"
        },
        {
            "id": "9cb1ac5c-f10e-4453-9ba4-3bff4811bc82",
            "nama_pse": "OPSI UTAMA INDONESIA",
            "nama_se": "SITUS PT OUI",
            "sektor": "Sektor Teknologi Informasi dan Komunikasi",
            "tanggal_terbit": "2024-06-12",
            "url_tdpse_detail": "https://pse.komdigi.go.id/tdpse-detail/19246",
            "website": "opsiutama.id"
        },
        {
            "id": "9cb1ac87-d354-4143-a62d-297a0fd68905",
            "nama_pse": "DOMAIN EJI ERUBANI",
            "nama_se": "PSE E2 BY EJI-SAN",
            "sektor": "Sektor Teknologi Informasi dan Komunikasi",
            "tanggal_terbit": "2024-06-12",
            "url_tdpse_detail": "https://pse.komdigi.go.id/tdpse-detail/19247",
            "website": "ejierubani.com"
        },
        {
            "id": "9cb1ac87-d673-4f4c-81be-a21813c700d8",
            "nama_pse": "MARJUDDIN NAZWAR",
            "nama_se": "BUSER BHAYANGKARA TV",
            "sektor": "Sektor Teknologi Informasi dan Komunikasi",
            "tanggal_terbit": "2024-06-12",
            "url_tdpse_detail": "https://pse.komdigi.go.id/tdpse-detail/19248",
            "website": "BUSERBHAYANGKARATV.COM"
        },
        {
            "id": "9cb1ac58-e97e-4e56-a1b8-27d1a5d1321d",
            "nama_pse": "INTIDAYAGUNA ANEKAWARNA",
            "nama_se": "MYINDANA",
            "sektor": "Sektor Perdagangan",
            "tanggal_terbit": "2024-06-12",
            "url_tdpse_detail": "https://pse.komdigi.go.id/tdpse-detail/19240",
            "website": "-"
        },
        {
            "id": "9cb1ac5b-df6a-4427-af25-6111a53d2310",
            "nama_pse": "NUR BEKTI ARUM WIBOWO",
            "nama_se": "PRAKTECH",
            "sektor": "Sektor Kesehatan",
            "tanggal_terbit": "2024-06-11",
            "url_tdpse_detail": "https://pse.komdigi.go.id/tdpse-detail/19221",
            "website": "praktech.cloud"
        },
        {
            "id": "9cb1ac87-58e9-4115-acc2-41edb042bbfa",
            "nama_pse": "AXXESINDO",
            "nama_se": "AXXESINDO",
            "sektor": "Sektor Perdagangan",
            "tanggal_terbit": "2024-06-11",
            "url_tdpse_detail": "https://pse.komdigi.go.id/tdpse-detail/19219",
            "website": "axxesindo.com"
        },
        {
            "id": "9cb1ac5c-b034-4f6f-a200-d9897c6aa28c",
            "nama_pse": "TALENT SUKSES MAKMUR",
            "nama_se": "HI:RE.AI",
            "sektor": "Sektor Teknologi Informasi dan Komunikasi",
            "tanggal_terbit": "2024-06-11",
            "url_tdpse_detail": "https://pse.komdigi.go.id/tdpse-detail/19217",
            "website": "hiire.ai"
        },
        {
            "id": "9cb1ac5c-b446-4384-99e7-79478b24b5dc",
            "nama_pse": "KOMPAS MEDIA GROUP",
            "nama_se": "BHAHANA NUSANTARA NEWS.COM",
            "sektor": "Sektor Teknologi Informasi dan Komunikasi",
            "tanggal_terbit": "2024-06-11",
            "url_tdpse_detail": "https://pse.komdigi.go.id/tdpse-detail/19212",
            "website": "bhahananusantaranews.com"
        },
        {
            "id": "9cb1ac5c-b8e2-4ba2-9236-8283d338e025",
            "nama_pse": "AXIS TUNGGAL UTAMA",
            "nama_se": "AXIS MEDICAS",
            "sektor": "Sektor Kesehatan",
            "tanggal_terbit": "2024-06-11",
            "url_tdpse_detail": "https://pse.komdigi.go.id/tdpse-detail/19213",
            "website": "-"
        },
        {
            "id": "9cb1ac71-c115-40db-a89c-e2fb1d61695d",
            "nama_pse": "NAGA SENTOSA MULIA",
            "nama_se": "NAGA SENTOSA MULIA",
            "sektor": "Sektor Perdagangan, Sektor Teknologi Informasi dan Komunikasi",
            "tanggal_terbit": "2024-06-11",
            "url_tdpse_detail": "https://pse.komdigi.go.id/tdpse-detail/19214",
            "website": "-"
        },
        {
            "id": "9cb1ac5c-bbcb-4d03-983f-21039566840e",
            "nama_pse": "GRAFIKA PARIWARA KUSUMAH",
            "nama_se": "GRAFIKAPARIWARA.COM",
            "sektor": "Sektor Perdagangan",
            "tanggal_terbit": "2024-06-11",
            "url_tdpse_detail": "https://pse.komdigi.go.id/tdpse-detail/19215",
            "website": "grafikapariwara.com"
        },
        {
            "id": "9cb1ac71-c4cb-48f3-a5fe-79863858f65e",
            "nama_pse": "KOMPAS MEDIA GROUP",
            "nama_se": "GORESAN PENA JURNALIS",
            "sektor": "Sektor Teknologi Informasi dan Komunikasi",
            "tanggal_terbit": "2024-06-11",
            "url_tdpse_detail": "https://pse.komdigi.go.id/tdpse-detail/19216",
            "website": "goresanpenajurnalis.com"
        },
        {
            "id": "9cb1ac87-b0bf-45af-a967-2d1bb740c649",
            "nama_pse": "METRO SMART TECHNOLOGY",
            "nama_se": "SEHAT (SISTEM ELEKTRONIK KESEHATAN)",
            "sektor": "Sektor Kesehatan, Sektor Teknologi Informasi dan Komunikasi",
            "tanggal_terbit": "2024-06-11",
            "url_tdpse_detail": "https://pse.komdigi.go.id/tdpse-detail/19218",
            "website": "metrost.id"
        },
        {
            "id": "9cb1ac71-c84c-46c9-ab06-b2cdc7ed450b",
            "nama_pse": "SXORED VERITAS FINANSIAL",
            "nama_se": "SXORED",
            "sektor": "Sektor Teknologi Informasi dan Komunikasi",
            "tanggal_terbit": "2024-06-11",
            "url_tdpse_detail": "https://pse.komdigi.go.id/tdpse-detail/19220",
            "website": "sxored.com"
        },
        {
            "id": "9cb1ac87-b3ff-46bb-952a-0add32550e6f",
            "nama_pse": "HARMONI CITRA KREASI",
            "nama_se": "HARMONIGAMES",
            "sektor": "Sektor Perdagangan",
            "tanggal_terbit": "2024-06-11",
            "url_tdpse_detail": "https://pse.komdigi.go.id/tdpse-detail/19222",
            "website": "harmonigame.com"
        },
        {
            "id": "9cb1ac71-cb52-4d36-b72f-686b59037971",
            "nama_pse": "USSI PINBUK PRIMA SOFTWARE",
            "nama_se": "IBS IMS",
            "sektor": "Sektor Teknologi Informasi dan Komunikasi",
            "tanggal_terbit": "2024-06-11",
            "url_tdpse_detail": "https://pse.komdigi.go.id/tdpse-detail/19223",
            "website": "-"
        },
        {
            "id": "9cb1ac87-b701-47c8-9d33-ce196eff62a8",
            "nama_pse": "IRMA DEWI",
            "nama_se": "TPMB HJ. IRMA DEWI S.ST",
            "sektor": "Sektor Kesehatan",
            "tanggal_terbit": "2024-06-11",
            "url_tdpse_detail": "https://pse.komdigi.go.id/tdpse-detail/19224",
            "website": "-"
        },
        {
            "id": "9cb1ac5c-c46b-4bf6-803e-4e36222eec0a",
            "nama_pse": "ENZ DIGITAL SOLUTIONS",
            "nama_se": "ENZ SOFT",
            "sektor": "Sektor Kesehatan, Sektor Teknologi Informasi dan Komunikasi",
            "tanggal_terbit": "2024-06-11",
            "url_tdpse_detail": "https://pse.komdigi.go.id/tdpse-detail/19225",
            "website": "enzsoft.com"
        },
        {
            "id": "9cb1ac87-bfa7-4025-ba6f-d53549112b65",
            "nama_pse": "TUNAS DWIPA MATRA",
            "nama_se": "MOTORAN",
            "sektor": "Sektor Perdagangan",
            "tanggal_terbit": "2024-06-11",
            "url_tdpse_detail": "https://pse.komdigi.go.id/tdpse-detail/19226",
            "website": "motoran-lampung.com"
        },
        {
            "id": "9cb1ac71-d894-408c-b588-85c60bf462e3",
            "nama_pse": "INTERNET SUKSES MEDIA",
            "nama_se": "SUKSESMEDIA",
            "sektor": "Sektor Teknologi Informasi dan Komunikasi",
            "tanggal_terbit": "2024-06-11",
            "url_tdpse_detail": "https://pse.komdigi.go.id/tdpse-detail/19227",
            "website": "suksesmedia.co"
        },
        {
            "id": "9cb1ac5c-c778-4363-88a1-cb23ce63421d",
            "nama_pse": "PACUNEWS MEDIA GLOBAL",
            "nama_se": "JABAR.SOROTNEWS24.COM",
            "sektor": "Sektor Teknologi Informasi dan Komunikasi",
            "tanggal_terbit": "2024-06-11",
            "url_tdpse_detail": "https://pse.komdigi.go.id/tdpse-detail/19228",
            "website": "jabar.sorotnews24.com"
        },
        {
            "id": "9cb1ac71-dc07-45e8-b28a-75b2066cf755",
            "nama_pse": "PACUNEWS MEDIA GLOBAL",
            "nama_se": "JATENG.SOROTNEWS24.COM",
            "sektor": "Sektor Teknologi Informasi dan Komunikasi",
            "tanggal_terbit": "2024-06-11",
            "url_tdpse_detail": "https://pse.komdigi.go.id/tdpse-detail/19229",
            "website": "Jateng.SorotNews24.com"
        },
        {
            "id": "9cb1ac87-c2c5-45c0-a1ed-7f61aa82d44f",
            "nama_pse": "KRAFTHAUS INDONESIA",
            "nama_se": "KRAFTHAUS INDONESIA",
            "sektor": "Sektor Teknologi Informasi dan Komunikasi",
            "tanggal_terbit": "2024-06-11",
            "url_tdpse_detail": "https://pse.komdigi.go.id/tdpse-detail/19230",
            "website": "krafthaus.co.id"
        },
        {
            "id": "9cb1ac5c-ca5f-4ad2-9d56-f49379027528",
            "nama_pse": "PACUNEWS MEDIA GLOBAL",
            "nama_se": "CBO.SOROTNEWS24.COM",
            "sektor": "Sektor Teknologi Informasi dan Komunikasi",
            "tanggal_terbit": "2024-06-11",
            "url_tdpse_detail": "https://pse.komdigi.go.id/tdpse-detail/19231",
            "website": "cbo.sorotnews24.com"
        },
        {
            "id": "9cb1ac87-c786-41a5-94e3-9fad797969a0",
            "nama_pse": "ANUGRAH BHUMI AMBARA",
            "nama_se": "SISTEM INFORMASI MANAJEMEN RS BHUMI AMBARA",
            "sektor": "Sektor Kesehatan, Sektor Teknologi Informasi dan Komunikasi",
            "tanggal_terbit": "2024-06-11",
            "url_tdpse_detail": "https://pse.komdigi.go.id/tdpse-detail/19232",
            "website": "kebhumi.id"
        },
        {
            "id": "9cb1ac70-fc27-41e2-9840-656662b3be56",
            "nama_pse": "WILLOW MANDIRI INTERNUSA",
            "nama_se": "WILLOW BABY \u0026 KIDS",
            "sektor": "Sektor Perdagangan",
            "tanggal_terbit": "2024-06-10",
            "url_tdpse_detail": "https://pse.komdigi.go.id/tdpse-detail/19206",
            "website": "willowbabyshop.com"
        },
        {
            "id": "9cb1ac87-1103-4bb2-be3a-f5e35ad46124",
            "nama_pse": "DOCTOR PHC INDONESIA",
            "nama_se": "DOCTORPHC",
            "sektor": "Sektor Kesehatan, Sektor Teknologi Informasi dan Komunikasi",
            "tanggal_terbit": "2024-06-10",
            "url_tdpse_detail": "https://pse.komdigi.go.id/tdpse-detail/19199",
            "website": "doctorphc.id"
        },
        {
            "id": "9cb1ac87-5520-4dc8-b9d0-5b1d5569cbe1",
            "nama_pse": "NASANUERA GLOBAL SYNERGY",
            "nama_se": "APLIKASI \"NASANUERA\"",
            "sektor": "Sektor Perdagangan",
            "tanggal_terbit": "2024-06-10",
            "url_tdpse_detail": "https://pse.komdigi.go.id/tdpse-detail/19204",
            "website": "-"
        },
        {
            "id": "9cb1ac87-5c6c-4e04-a8f7-4c3b075d49a9",
            "nama_pse": "HANIF MUZAQQI",
            "nama_se": "ANDARES SIM KLINIK ID",
            "sektor": "Sektor Teknologi Informasi dan Komunikasi",
            "tanggal_terbit": "2024-06-10",
            "url_tdpse_detail": "https://pse.komdigi.go.id/tdpse-detail/19197",
            "website": "-"
        },
        {
            "id": "9cb1ac87-7874-4ab6-b4d3-18dd56a65f56",
            "nama_pse": "LEMBAGA PEMBIAYAAN EKSPOR INDONESIA (INDONESIA EXIMBANK)",
            "nama_se": "KOMODOIN",
            "sektor": "Sektor Perdagangan, Sektor Teknologi Informasi dan Komunikasi",
            "tanggal_terbit": "2024-06-10",
            "url_tdpse_detail": "https://pse.komdigi.go.id/tdpse-detail/19209",
            "website": "komodoin.com"
        },
        {
            "id": "9cb1ac87-7fbf-4128-9112-be238db311dc",
            "nama_pse": "NEW RAHMADI SHOP",
            "nama_se": "RAHMADI SHOP",
            "sektor": "Sektor Perdagangan",
            "tanggal_terbit": "2024-06-10",
            "url_tdpse_detail": "https://pse.komdigi.go.id/tdpse-detail/19196",
            "website": "rahmadi.shop"
        },
        {
            "id": "9cb1ac87-8567-4b9a-9a9f-0aa15be65a99",
            "nama_pse": "LOCAL PRIDE INDONESIA",
            "nama_se": "LOCAL PRIDE INDONESIA",
            "sektor": "Sektor Teknologi Informasi dan Komunikasi",
            "tanggal_terbit": "2024-06-10",
            "url_tdpse_detail": "https://pse.komdigi.go.id/tdpse-detail/19200",
            "website": "localpride.id"
        },
        {
            "id": "9cb1ac87-9f85-450f-a35f-a116fbd69b7c",
            "nama_pse": "JAKARTA INSIDE DOTCOM",
            "nama_se": "JAKARTA INSIDE DOTCOM",
            "sektor": "Sektor Teknologi Informasi dan Komunikasi",
            "tanggal_terbit": "2024-06-10",
            "url_tdpse_detail": "https://pse.komdigi.go.id/tdpse-detail/19205",
            "website": "jakartainside.com"
        },
        {
            "id": "9cb1ac87-a3a6-47b0-9824-607c73a03357",
            "nama_pse": "PARAMITA DIGITAL NUSANTARA",
            "nama_se": "PT PARAMITA DIGITAL NUSANTARA",
            "sektor": "Sektor Teknologi Informasi dan Komunikasi",
            "tanggal_terbit": "2024-06-10",
            "url_tdpse_detail": "https://pse.komdigi.go.id/tdpse-detail/19207",
            "website": "EASESIGN.ID"
        },
        {
            "id": "9cb1ac71-b8e7-4e19-8218-2c81096b52a5",
            "nama_pse": "GIAT MELANGKAH MAJU",
            "nama_se": "GIAT MELANGKAH MAJU",
            "sektor": "Sektor Perdagangan, Sektor Teknologi Informasi dan Komunikasi",
            "tanggal_terbit": "2024-06-10",
            "url_tdpse_detail": "https://pse.komdigi.go.id/tdpse-detail/19208",
            "website": "-"
        },
        {
            "id": "9cb1ac87-a6ae-4d9e-833f-c3554dc6ec7b",
            "nama_pse": "CYBER GLOBAL SUKSES",
            "nama_se": "CYBERGLOBALBHAYANGKARA.ID",
            "sektor": "Sektor Teknologi Informasi dan Komunikasi",
            "tanggal_terbit": "2024-06-10",
            "url_tdpse_detail": "https://pse.komdigi.go.id/tdpse-detail/19210",
            "website": "cyberglobalbhayangkara.id"
        },
        {
            "id": "9cb1ac87-a9e1-40f0-ab0a-976022af54bc",
            "nama_pse": "ABDI BISNIS NUSANTARA",
            "nama_se": "ABDI BISNIS NUSANTARA",
            "sektor": "Sektor Perdagangan",
            "tanggal_terbit": "2024-06-10",
            "url_tdpse_detail": "https://pse.komdigi.go.id/tdpse-detail/19211",
            "website": "abdibisnis.id"
        },
        {
            "id": "9cb1ac59-f55b-45ef-8510-bc7bd33218d1",
            "nama_pse": "AKIO KREASI INDONESIA",
            "nama_se": "OUR WEDDING LINK",
            "sektor": "Sektor Teknologi Informasi dan Komunikasi",
            "tanggal_terbit": "2024-06-10",
            "url_tdpse_detail": "https://pse.komdigi.go.id/tdpse-detail/19198",
            "website": "Ourwedding.link"
        },
        {
            "id": "9cb1ac87-70b3-40d1-a2d7-d0de09750ed8",
            "nama_pse": "CIHUY TEKNOLOGI INDONESIA",
            "nama_se": "CIHUYAPPS",
            "sektor": "Sektor Perdagangan, Sektor Transportasi",
            "tanggal_terbit": "2024-06-09",
            "url_tdpse_detail": "https://pse.komdigi.go.id/tdpse-detail/19193",
            "website": "cihuyapp.com"
        }
    ],
    "processingTimeMs": 2,
    "query": "",
    "totalHits": 19131,
    "hitsPerPage": 50,
    "page": 61,
    "totalPages": 383
}