{
    "hits": [
        {
            "id": "9daf1aad-55d5-494d-9ca8-f9f04ba188e0",
            "nama_pse": "TRI MARTONO",
            "nama_se": "WB.NET",
            "sektor": "Sektor Teknologi Informasi dan Komunikasi",
            "tanggal_terbit": "2024-12-09",
            "url_tdpse_detail": "https://pse.komdigi.go.id/tdpse-detail/21701",
            "website": "-"
        },
        {
            "id": "9da887ee-0672-4a5f-bd12-721970a37ce2",
            "nama_pse": "BERKAH USAHA MANDIRI CONSULTANT",
            "nama_se": "BUMCONSULTANT",
            "sektor": "Sektor Perdagangan",
            "tanggal_terbit": "2024-12-06",
            "url_tdpse_detail": "https://pse.komdigi.go.id/tdpse-detail/21631",
            "website": "bumconsultant.id"
        },
        {
            "id": "9d801128-d228-418e-b989-8c7efeab3ac0",
            "nama_pse": "HERUN INTERNATIONAL BRAND MANAGEMENT JAKARTA",
            "nama_se": "shopee , lazada , tiktok , tokpedia",
            "sektor": "Sektor Perdagangan",
            "tanggal_terbit": "2024-11-16",
            "url_tdpse_detail": "https://pse.komdigi.go.id/tdpse-detail/21235",
            "website": "-"
        },
        {
            "id": "9d701454-3dd8-4e74-9afc-4c831a95a712",
            "nama_pse": "KAWAN MEDIA NUSANTARA",
            "nama_se": "09.Net",
            "sektor": "Sektor Teknologi Informasi dan Komunikasi",
            "tanggal_terbit": "2024-11-08",
            "url_tdpse_detail": "https://pse.komdigi.go.id/tdpse-detail/21108",
            "website": "-"
        },
        {
            "id": "9d6e202a-512f-4bc2-9e03-e6f262de59ee",
            "nama_pse": "IHAI NETWORK",
            "nama_se": "CV IHAI NETWORK",
            "sektor": "Sektor Teknologi Informasi dan Komunikasi",
            "tanggal_terbit": "2024-11-07",
            "url_tdpse_detail": "https://pse.komdigi.go.id/tdpse-detail/21085",
            "website": "-"
        },
        {
            "id": "9d6e26fc-40bb-40ab-9671-56ff72346ddf",
            "nama_pse": "IHAI NETWORK",
            "nama_se": "IHAI.NET",
            "sektor": "Sektor Teknologi Informasi dan Komunikasi",
            "tanggal_terbit": "2024-11-07",
            "url_tdpse_detail": "https://pse.komdigi.go.id/tdpse-detail/21086",
            "website": "-"
        },
        {
            "id": "9d6bd6ad-237c-4d61-b827-d830cf231839",
            "nama_pse": "FIZHA MEDIA JAYA",
            "nama_se": "FIZHANET",
            "sektor": "Sektor Teknologi Informasi dan Komunikasi",
            "tanggal_terbit": "2024-11-06",
            "url_tdpse_detail": "https://pse.komdigi.go.id/tdpse-detail/21065",
            "website": "-"
        },
        {
            "id": "9d6ae8f4-2430-4f4a-be2d-3f161ecf5c50",
            "nama_pse": "FIZHA MEDIA JAYA",
            "nama_se": "FIZHA MEDIA JAYA",
            "sektor": "Sektor Teknologi Informasi dan Komunikasi",
            "tanggal_terbit": "2024-11-05",
            "url_tdpse_detail": "https://pse.komdigi.go.id/tdpse-detail/21060",
            "website": "-"
        },
        {
            "id": "9d59d97b-6c64-45d1-a069-754fd3437917",
            "nama_pse": "BINA KOMPETISI INDONESIA",
            "nama_se": "BINA KOMPETISI INDONESIA",
            "sektor": "Sektor Teknologi Informasi dan Komunikasi",
            "tanggal_terbit": "2024-10-28",
            "url_tdpse_detail": "https://pse.komdigi.go.id/tdpse-detail/20928",
            "website": "-"
        },
        {
            "id": "9d54aa75-254f-44fb-9ee9-eba7e2a76975",
            "nama_pse": "NUSANTARA ANUGERAH ABADI MANDIRI",
            "nama_se": "CV NUSANTARA ANUGERAH ABADI MANDIRI",
            "sektor": "Sektor Teknologi Informasi dan Komunikasi",
            "tanggal_terbit": "2024-10-25",
            "url_tdpse_detail": "https://pse.komdigi.go.id/tdpse-detail/20909",
            "website": "-"
        },
        {
            "id": "9ce1fd10-3cc0-4280-b778-90dc0d891810",
            "nama_pse": "MULTI GUNA INTERKONEKSI",
            "nama_se": "PT MULTI GUNA INTERKONEKSI",
            "sektor": "Sektor Teknologi Informasi dan Komunikasi",
            "tanggal_terbit": "2024-08-29",
            "url_tdpse_detail": "https://pse.komdigi.go.id/tdpse-detail/20176",
            "website": "-"
        },
        {
            "id": "9cd4fc97-1950-4926-a200-5db16db27986",
            "nama_pse": "PANGURIPAN DJOYO ALAM SEJAHTERA",
            "nama_se": "PANGURIPAN DJOYO ALAM SEJAHTERA",
            "sektor": "Sektor Perdagangan, Sektor Energi dan Sumber Daya Mineral, Sektor Transportasi, Sektor Teknologi Informasi dan Komunikasi, Sektor Pangan, Sektor Pertahanan dan Keamanan",
            "tanggal_terbit": "2024-08-23",
            "url_tdpse_detail": "https://pse.komdigi.go.id/tdpse-detail/20081",
            "website": "-"
        },
        {
            "id": "9ccdf142-4a86-4c48-9634-371bb428f700",
            "nama_pse": "GULA TEKNOLOGI INDONESIA",
            "nama_se": "MATCHA",
            "sektor": "Sektor Kesehatan",
            "tanggal_terbit": "2024-08-19",
            "url_tdpse_detail": "https://pse.komdigi.go.id/tdpse-detail/20008",
            "website": "matcha.co.id"
        },
        {
            "id": "9cbcfddb-663d-4c2b-a556-962115d9095a",
            "nama_pse": "SUSILO",
            "nama_se": "SUMUTBERDAYA.COM",
            "sektor": "Sektor Teknologi Informasi dan Komunikasi",
            "tanggal_terbit": "2024-08-11",
            "url_tdpse_detail": "https://pse.komdigi.go.id/tdpse-detail/19868",
            "website": "sumutberdaya.com"
        },
        {
            "id": "9cbd82d4-c301-4e1e-8b89-b5c0b2196a35",
            "nama_pse": "BAYU GARDAN GUMILANG",
            "nama_se": "REGONZ NET",
            "sektor": "Sektor Teknologi Informasi dan Komunikasi",
            "tanggal_terbit": "2024-08-11",
            "url_tdpse_detail": "https://pse.komdigi.go.id/tdpse-detail/19871",
            "website": "-"
        },
        {
            "id": "9cb8c9d7-340d-4e74-a699-fab37d721c86",
            "nama_pse": "MEDIA KOMUNIKASI INFORMASI",
            "nama_se": "halloindonesia.co.id",
            "sektor": "Sektor Teknologi Informasi dan Komunikasi",
            "tanggal_terbit": "2024-08-09",
            "url_tdpse_detail": "https://pse.komdigi.go.id/tdpse-detail/19842",
            "website": "halloindonesia.co.id"
        },
        {
            "id": "9cb6c11f-6ac5-4a93-b25e-c02469b5bfe4",
            "nama_pse": "RADAR MEDIA GROUP",
            "nama_se": "radar007.co.id",
            "sektor": "Sektor Teknologi Informasi dan Komunikasi",
            "tanggal_terbit": "2024-08-08",
            "url_tdpse_detail": "https://pse.komdigi.go.id/tdpse-detail/19809",
            "website": "radar007.co.id"
        },
        {
            "id": "9cb5ae4b-d3e0-47c7-9e5a-a60d3daee67a",
            "nama_pse": "TARGET MEDIA KREATIF",
            "nama_se": "targetrilis.online",
            "sektor": "Sektor Teknologi Informasi dan Komunikasi",
            "tanggal_terbit": "2024-08-07",
            "url_tdpse_detail": "https://pse.komdigi.go.id/tdpse-detail/19805",
            "website": "targetrilis.online"
        },
        {
            "id": "9cb5af1a-a0e0-47dc-885b-9efa628edc02",
            "nama_pse": "TARGET MEDIA KREATIF",
            "nama_se": "targetrilis.online",
            "sektor": "Sektor Teknologi Informasi dan Komunikasi",
            "tanggal_terbit": "2024-08-07",
            "url_tdpse_detail": "https://pse.komdigi.go.id/tdpse-detail/19806",
            "website": "targetrilis.online"
        },
        {
            "id": "9cb1ac74-cda1-4cd7-a431-982410091ca6",
            "nama_pse": "LAJU BERSAMA MAKMUR",
            "nama_se": "LAJU BERSAMA MAKMUR",
            "sektor": "Sektor Teknologi Informasi dan Komunikasi",
            "tanggal_terbit": "2024-08-03",
            "url_tdpse_detail": "https://pse.komdigi.go.id/tdpse-detail/19731",
            "website": "-"
        },
        {
            "id": "9cb1ac74-078f-4809-a799-dd35a1d179c3",
            "nama_pse": "ARYANATA SEJAHTERA LESTARI",
            "nama_se": "INSIS",
            "sektor": "Sektor Kesehatan",
            "tanggal_terbit": "2024-07-29",
            "url_tdpse_detail": "https://pse.komdigi.go.id/tdpse-detail/19649",
            "website": "-"
        },
        {
            "id": "9cb1ac74-3c4f-467e-a19b-3719a530b90e",
            "nama_pse": "ONE NEWS GROUP",
            "nama_se": "ONENEWS.CO.ID",
            "sektor": "Sektor Teknologi Informasi dan Komunikasi",
            "tanggal_terbit": "2024-07-26",
            "url_tdpse_detail": "https://pse.komdigi.go.id/tdpse-detail/19628",
            "website": "-"
        },
        {
            "id": "9cb1ac74-1960-4485-9c84-1be5972f757f",
            "nama_pse": "AMANAH SEHAT",
            "nama_se": "SISTEM REKAM MEDIS ELEKTRONIK AMANAH SEHAT",
            "sektor": "Sektor Kesehatan",
            "tanggal_terbit": "2024-07-24",
            "url_tdpse_detail": "https://pse.komdigi.go.id/tdpse-detail/19583",
            "website": "-"
        },
        {
            "id": "9cb1ac8a-4ceb-4462-9020-11bb8561d381",
            "nama_pse": "PUTRA KUTAI MULTIMEDIA",
            "nama_se": "REPORTASEEXPOSE",
            "sektor": "Sektor Teknologi Informasi dan Komunikasi",
            "tanggal_terbit": "2024-07-21",
            "url_tdpse_detail": "https://pse.komdigi.go.id/tdpse-detail/19551",
            "website": "-"
        },
        {
            "id": "9cb1ac73-d805-452f-9013-474befdea6d7",
            "nama_pse": "MULTIMEDIA PANJI NUSANTARA",
            "nama_se": "IKNNEWS",
            "sektor": "Sektor Teknologi Informasi dan Komunikasi",
            "tanggal_terbit": "2024-07-21",
            "url_tdpse_detail": "https://pse.komdigi.go.id/tdpse-detail/19549",
            "website": "-"
        },
        {
            "id": "9cb1ac73-aaa4-4d29-b67e-d756a0ab7058",
            "nama_pse": "MEDIA TARGET KRIMSUS",
            "nama_se": "MEDIATARGETKRIMSUS.COM",
            "sektor": "Sektor Teknologi Informasi dan Komunikasi",
            "tanggal_terbit": "2024-07-18",
            "url_tdpse_detail": "https://pse.komdigi.go.id/tdpse-detail/19528",
            "website": "mediatargetkrimsus.com"
        },
        {
            "id": "9cb1ac8a-1653-4bc3-8529-556f2cc48390",
            "nama_pse": "MULTIMEDIA PANJI NUSANTARA",
            "nama_se": "SIDIKINVESTIGASI.COM",
            "sektor": "Sektor Teknologi Informasi dan Komunikasi",
            "tanggal_terbit": "2024-07-18",
            "url_tdpse_detail": "https://pse.komdigi.go.id/tdpse-detail/19530",
            "website": "sidikinvestigasi.com"
        },
        {
            "id": "9cb1ac8a-0c79-4f8d-b130-f6197e366b8a",
            "nama_pse": "GLOBAL PRIMA UTAMA",
            "nama_se": "MEDIC SAF",
            "sektor": "Sektor Kesehatan",
            "tanggal_terbit": "2024-07-17",
            "url_tdpse_detail": "https://pse.komdigi.go.id/tdpse-detail/19527",
            "website": "-"
        },
        {
            "id": "9cb1ac89-29c8-48b2-bd8b-1413ee1a6ce5",
            "nama_pse": "PORTAL INTERKONEKSI NUSANTARA",
            "nama_se": "KAWALNUSANTARA.COM",
            "sektor": "Sektor Teknologi Informasi dan Komunikasi",
            "tanggal_terbit": "2024-07-08",
            "url_tdpse_detail": "https://pse.komdigi.go.id/tdpse-detail/19418",
            "website": "kawalnusantara.com"
        },
        {
            "id": "9cb1ac89-01cb-4cf6-8a7a-467ec3030a9c",
            "nama_pse": "DAUN TEKNOLOGI",
            "nama_se": "DAUN TEKNOLOGI",
            "sektor": "Sektor Kesehatan, Sektor Teknologi Informasi dan Komunikasi",
            "tanggal_terbit": "2024-07-07",
            "url_tdpse_detail": "https://pse.komdigi.go.id/tdpse-detail/19398",
            "website": "-"
        },
        {
            "id": "9cb1ac72-bf19-4ff8-8562-b33c3ef64bf3",
            "nama_pse": "MEDIA KOMUNIKASI INFORMASI",
            "nama_se": "SERGAPINVESTIGASI.COM",
            "sektor": "Sektor Teknologi Informasi dan Komunikasi",
            "tanggal_terbit": "2024-07-06",
            "url_tdpse_detail": "https://pse.komdigi.go.id/tdpse-detail/19391",
            "website": "sergapinvestigasi.com"
        },
        {
            "id": "9cb1ac86-5632-495f-b947-ae9f6c6bcd3d",
            "nama_pse": "MONITOR DELAPAN ENAM",
            "nama_se": "MONITORONE.ID",
            "sektor": "Sektor Teknologi Informasi dan Komunikasi",
            "tanggal_terbit": "2024-05-27",
            "url_tdpse_detail": "https://pse.komdigi.go.id/tdpse-detail/19043",
            "website": "monitorone.id"
        },
        {
            "id": "9cb1ac86-5bc4-4619-ae3c-cad85c13e9bc",
            "nama_pse": "MONITOR DELAPAN ENAM",
            "nama_se": "MONITORKRIMSUS.COM",
            "sektor": "Sektor Teknologi Informasi dan Komunikasi",
            "tanggal_terbit": "2024-05-27",
            "url_tdpse_detail": "https://pse.komdigi.go.id/tdpse-detail/19044",
            "website": "monitorkrimsus.com"
        },
        {
            "id": "9cb1ac6f-96d2-4b9a-b5fd-d3adc1c1a665",
            "nama_pse": "GUNUNG MAS INOVASI",
            "nama_se": "AHIMSA",
            "sektor": "Sektor Teknologi Informasi dan Komunikasi",
            "tanggal_terbit": "2024-05-07",
            "url_tdpse_detail": "https://pse.komdigi.go.id/tdpse-detail/18844",
            "website": "-"
        },
        {
            "id": "9cb1ac84-4809-42c4-aa5a-5a366aad0a13",
            "nama_pse": "AZANA CITRA INDONESIA",
            "nama_se": "AZANA CAREER",
            "sektor": "Sektor Teknologi Informasi dan Komunikasi",
            "tanggal_terbit": "2024-04-29",
            "url_tdpse_detail": "https://pse.komdigi.go.id/tdpse-detail/18732",
            "website": "azanajob.com"
        },
        {
            "id": "9cb1ac6e-ec9d-4efb-abd3-1ef0192e7a1f",
            "nama_pse": "AZANA CITRA INDONESIA",
            "nama_se": "AZANA LEARNING CENTER",
            "sektor": "Sektor Teknologi Informasi dan Komunikasi",
            "tanggal_terbit": "2024-04-25",
            "url_tdpse_detail": "https://pse.komdigi.go.id/tdpse-detail/18707",
            "website": "azanalearningcenter.com"
        },
        {
            "id": "9cb1ac83-ebcf-49a1-bcad-ecf04182e1d4",
            "nama_pse": "CITRA ANUGERAH SOLUSINDO",
            "nama_se": "KLINIK HUB",
            "sektor": "Sektor Teknologi Informasi dan Komunikasi",
            "tanggal_terbit": "2024-04-23",
            "url_tdpse_detail": "https://pse.komdigi.go.id/tdpse-detail/18678",
            "website": "httpsklinik-hub.com"
        },
        {
            "id": "9cb1ac83-d168-458f-8ea2-4692f67b84c8",
            "nama_pse": "SARMINI MEDIA WARNA",
            "nama_se": "MEDIAWARNA",
            "sektor": "Sektor Teknologi Informasi dan Komunikasi",
            "tanggal_terbit": "2024-04-22",
            "url_tdpse_detail": "https://pse.komdigi.go.id/tdpse-detail/18672",
            "website": "-"
        },
        {
            "id": "9cb1ac59-a4b2-46df-871f-348af644c570",
            "nama_pse": "AZANA CITRA INDONESIA",
            "nama_se": "AZANAHOTEL.COM",
            "sektor": "Sektor Teknologi Informasi dan Komunikasi",
            "tanggal_terbit": "2024-04-17",
            "url_tdpse_detail": "https://pse.komdigi.go.id/tdpse-detail/18625",
            "website": "azanahotel.com"
        },
        {
            "id": "9cb1ac6e-6ec7-4f91-906c-152586ae71b2",
            "nama_pse": "RASA AKSATA NUSANTARA",
            "nama_se": "DULUIN",
            "sektor": "Sektor Teknologi Informasi dan Komunikasi",
            "tanggal_terbit": "2024-04-16",
            "url_tdpse_detail": "https://pse.komdigi.go.id/tdpse-detail/18612",
            "website": "duluin.com"
        },
        {
            "id": "9cb1ac83-4220-4490-951e-de7118649b68",
            "nama_pse": "POURAN NETWORK SOLUTION",
            "nama_se": "POURAN NET",
            "sektor": "Sektor Teknologi Informasi dan Komunikasi",
            "tanggal_terbit": "2024-04-15",
            "url_tdpse_detail": "https://pse.komdigi.go.id/tdpse-detail/18602",
            "website": "-"
        },
        {
            "id": "9cb1ac82-fad3-4aa2-bc6c-38b707cc30cd",
            "nama_pse": "AZANA CITRA INDONESIA",
            "nama_se": "AZANAHOTEL.ID",
            "sektor": "Sektor Perdagangan, Sektor Teknologi Informasi dan Komunikasi",
            "tanggal_terbit": "2024-04-05",
            "url_tdpse_detail": "https://pse.komdigi.go.id/tdpse-detail/18561",
            "website": "azanahotel.id"
        },
        {
            "id": "9cb1ac6c-fbf5-4f39-ab61-a60c18ef09fa",
            "nama_pse": "YUYUN YULIANA",
            "nama_se": "SIMLITE",
            "sektor": "Sektor Teknologi Informasi dan Komunikasi",
            "tanggal_terbit": "2024-04-04",
            "url_tdpse_detail": "https://pse.komdigi.go.id/tdpse-detail/18547",
            "website": "-"
        },
        {
            "id": "9cb1ac82-96db-4e97-98c7-d64cef4bca68",
            "nama_pse": "DINAMIKA DIGITAL SEMESTA",
            "nama_se": "PANDORA",
            "sektor": "Sektor Kesehatan",
            "tanggal_terbit": "2024-04-01",
            "url_tdpse_detail": "https://pse.komdigi.go.id/tdpse-detail/18502",
            "website": "-"
        },
        {
            "id": "9cb1ac6d-a36c-4584-a835-4db842f1a62a",
            "nama_pse": "DHARMA SIDHI NIAGATAMA",
            "nama_se": "SIMRS KHANZA RSKB DHARMA USADHA SIDHI",
            "sektor": "Sektor Kesehatan",
            "tanggal_terbit": "2024-03-27",
            "url_tdpse_detail": "https://pse.komdigi.go.id/tdpse-detail/18453",
            "website": "-"
        },
        {
            "id": "9cb1ac6d-4522-49fe-9245-e9d030839df8",
            "nama_pse": "DIVISI JAYA GROUP",
            "nama_se": "DIVISI88NEWS.COM",
            "sektor": "Sektor Teknologi Informasi dan Komunikasi",
            "tanggal_terbit": "2024-03-24",
            "url_tdpse_detail": "https://pse.komdigi.go.id/tdpse-detail/18393",
            "website": "divisi88news.com"
        },
        {
            "id": "9cb1ac81-ca17-445b-8b55-7cd243aa840d",
            "nama_pse": "CHERYL PETER PIJE",
            "nama_se": "PPCO RME",
            "sektor": "Sektor Kesehatan",
            "tanggal_terbit": "2024-03-22",
            "url_tdpse_detail": "https://pse.komdigi.go.id/tdpse-detail/18378",
            "website": "-"
        },
        {
            "id": "9cb1ac6c-f8a7-4622-a78b-357959a408b5",
            "nama_pse": "SUBUR ABDITAMA HUSADA",
            "nama_se": "SISTEM INFORMASI KLINIK PT SAH",
            "sektor": "Sektor Kesehatan",
            "tanggal_terbit": "2024-03-21",
            "url_tdpse_detail": "https://pse.komdigi.go.id/tdpse-detail/18342",
            "website": "lhc.id"
        },
        {
            "id": "9cb1ac58-1d8a-4e93-aa5a-ce10ee961227",
            "nama_pse": "PENA JURNALIS GROUP",
            "nama_se": "PENAJURNALIST.COM",
            "sektor": "Sektor Teknologi Informasi dan Komunikasi",
            "tanggal_terbit": "2024-03-21",
            "url_tdpse_detail": "https://pse.komdigi.go.id/tdpse-detail/18364",
            "website": "penajurnalist.com"
        },
        {
            "id": "9cb1ac81-d745-45b5-abe1-02c4103208b4",
            "nama_pse": "SAMUDERA MEDIA GROUP",
            "nama_se": "LINTASSAMUDERA.COM",
            "sektor": "Sektor Teknologi Informasi dan Komunikasi",
            "tanggal_terbit": "2024-03-21",
            "url_tdpse_detail": "https://pse.komdigi.go.id/tdpse-detail/18359",
            "website": "lintassamudera.com"
        }
    ],
    "processingTimeMs": 1,
    "query": "",
    "totalHits": 414,
    "hitsPerPage": 50,
    "page": 1,
    "totalPages": 9
}