{
    "hits": [
        {
            "id": "9cb1ab87-3c8a-4faa-a843-15733e2a9b6c",
            "nama_pse": "BUKALEGAL TEKNO DIGITAL",
            "nama_se": "BUKALEGAL.COM",
            "sektor": "Sektor Perdagangan, Sektor Perdagangan, Sektor Perdagangan",
            "tanggal_terbit": "2022-03-16",
            "url_tdpse_detail": "https://pse.komdigi.go.id/tdpse-detail/3552",
            "website": "bukalegal.com"
        },
        {
            "id": "9cb1ab8e-e083-4156-b0f2-3612fcd85f5b",
            "nama_pse": "RAHASIA INVESTASI SUKSES",
            "nama_se": "RAHASIA INVESTASI SUKSES",
            "sektor": "Sektor Teknologi Informasi dan Komunikasi, Sektor Teknologi Informasi dan Komunikasi",
            "tanggal_terbit": "2022-03-16",
            "url_tdpse_detail": "https://pse.komdigi.go.id/tdpse-detail/3553",
            "website": "-"
        },
        {
            "id": "9cb1ab87-43f1-436a-871e-bad95d4be057",
            "nama_pse": "SRIYANTO",
            "nama_se": "E-INVOICE",
            "sektor": "Sektor Transportasi, Sektor Transportasi",
            "tanggal_terbit": "2022-03-16",
            "url_tdpse_detail": "https://pse.komdigi.go.id/tdpse-detail/3548",
            "website": "-"
        },
        {
            "id": "9cb1ab9e-61ca-4b10-90eb-8d720b20f982",
            "nama_pse": "MANULIFE ASET MANAJEMEN INDONESIA",
            "nama_se": "MANULIFE IFUNDS",
            "sektor": "Sektor Keuangan, Sektor Keuangan",
            "tanggal_terbit": "2022-03-16",
            "url_tdpse_detail": "https://pse.komdigi.go.id/tdpse-detail/3551",
            "website": "ifunds.manulifeim.co.id"
        },
        {
            "id": "9cb1aba9-6736-4e11-acd0-71a618c00353",
            "nama_pse": "CAR SOME INDONESIA",
            "nama_se": "CAR SOME INDONESIA",
            "sektor": "Sektor Perdagangan",
            "tanggal_terbit": "2022-03-16",
            "url_tdpse_detail": "https://pse.komdigi.go.id/tdpse-detail/3549",
            "website": "carsome.id"
        },
        {
            "id": "9cb1ab8e-53b9-4567-a5e2-a6cab3e7b76d",
            "nama_pse": "NTT INDONESIA TECHNOLOGY",
            "nama_se": "SERVICE DESK AS A SERVICE (SDAAS) DAN NETWORK OPERATION CENTER AS A SERVICE (NOCAAS)",
            "sektor": "Sektor Teknologi Informasi dan Komunikasi, Sektor Teknologi Informasi dan Komunikasi",
            "tanggal_terbit": "2022-03-15",
            "url_tdpse_detail": "https://pse.komdigi.go.id/tdpse-detail/3537",
            "website": "ddiopscenter.com"
        },
        {
            "id": "9cb1ab8e-7fc5-4cf8-b775-580e50c51808",
            "nama_pse": "BINTANG ASET INDONESIA",
            "nama_se": "BELANJARUTIN.ID",
            "sektor": "Sektor Perdagangan, Sektor Perdagangan, Sektor Teknologi Informasi dan Komunikasi, Sektor Teknologi Informasi dan Komunikasi",
            "tanggal_terbit": "2022-03-15",
            "url_tdpse_detail": "https://pse.komdigi.go.id/tdpse-detail/3544",
            "website": "belanjarutin.id"
        },
        {
            "id": "9cb1ab8e-da52-4720-8468-a73820146700",
            "nama_pse": "BANGUN CIPTA MASA DEPAN",
            "nama_se": "AZFORCE",
            "sektor": "Sektor Perdagangan, Sektor Perdagangan, Sektor Perdagangan, Sektor Teknologi Informasi dan Komunikasi, Sektor Teknologi Informasi dan Komunikasi, Sektor Teknologi Informasi dan Komunikasi",
            "tanggal_terbit": "2022-03-15",
            "url_tdpse_detail": "https://pse.komdigi.go.id/tdpse-detail/3538",
            "website": "-"
        },
        {
            "id": "9cb1ab87-39a4-4aa2-be95-6da5700474a5",
            "nama_pse": "SOLUSI INFINITI PRIMA",
            "nama_se": "MICROSOFT WINDOWS",
            "sektor": "Sektor Keuangan, Sektor Keuangan",
            "tanggal_terbit": "2022-03-15",
            "url_tdpse_detail": "https://pse.komdigi.go.id/tdpse-detail/3534",
            "website": "-"
        },
        {
            "id": "9cb1ab7e-d144-437b-bcf7-034001880f04",
            "nama_pse": "WAHANA RAHMAT NUSA",
            "nama_se": "IZIN.CO.ID",
            "sektor": "Sektor Perdagangan, Sektor Perdagangan, Sektor Teknologi Informasi dan Komunikasi, Sektor Teknologi Informasi dan Komunikasi",
            "tanggal_terbit": "2022-03-15",
            "url_tdpse_detail": "https://pse.komdigi.go.id/tdpse-detail/3536",
            "website": "izin.co.id"
        },
        {
            "id": "9cb1ab8e-dd6b-4714-b891-ab8166d10129",
            "nama_pse": "MEGA HARAPAN MULIA",
            "nama_se": "KELAS.COM DAN KELAS.CENTER",
            "sektor": "Sektor Teknologi Informasi dan Komunikasi, Sektor Teknologi Informasi dan Komunikasi",
            "tanggal_terbit": "2022-03-15",
            "url_tdpse_detail": "https://pse.komdigi.go.id/tdpse-detail/3545",
            "website": "kelas.center"
        },
        {
            "id": "9cb1ab8e-e38d-432d-bdd9-c242f6db0b0c",
            "nama_pse": "ACO GOLD INDONESIA",
            "nama_se": "ACO GOLD INDONESIA",
            "sektor": "Sektor Perdagangan, Sektor Perdagangan, Sektor Keuangan, Sektor Keuangan",
            "tanggal_terbit": "2022-03-15",
            "url_tdpse_detail": "https://pse.komdigi.go.id/tdpse-detail/3540",
            "website": "acogold.id"
        },
        {
            "id": "9cb1ab8e-e9f6-4dbc-b36d-998b4a567e6c",
            "nama_pse": "TIKET KEREN NUSANTARA",
            "nama_se": "KREEN",
            "sektor": "Sektor Teknologi Informasi dan Komunikasi, Sektor Teknologi Informasi dan Komunikasi",
            "tanggal_terbit": "2022-03-15",
            "url_tdpse_detail": "https://pse.komdigi.go.id/tdpse-detail/3543",
            "website": "kreen.id"
        },
        {
            "id": "9cb1ab8f-d3f8-4143-8eef-08296ef01099",
            "nama_pse": "MASTRO LUXE INDONESIA",
            "nama_se": "MASTROLUXE",
            "sektor": "Sektor Perdagangan, Sektor Perdagangan",
            "tanggal_terbit": "2022-03-15",
            "url_tdpse_detail": "https://pse.komdigi.go.id/tdpse-detail/3535",
            "website": "Mastroluxe.com"
        },
        {
            "id": "9cb1ab9e-5e0a-459c-8a84-242791c6d741",
            "nama_pse": "GO ONLINE DESTINATIONS",
            "nama_se": "PEGIPEGI",
            "sektor": "Sektor Perdagangan, Sektor Perdagangan, Sektor Teknologi Informasi dan Komunikasi, Sektor Teknologi Informasi dan Komunikasi",
            "tanggal_terbit": "2022-03-15",
            "url_tdpse_detail": "https://pse.komdigi.go.id/tdpse-detail/3539",
            "website": "pegipegi.com"
        },
        {
            "id": "9cb1ab9e-5fe4-45aa-b4a0-080e1f8248b2",
            "nama_pse": "ASTRA HONDA MOTOR",
            "nama_se": "EDUKASI SATU HATI",
            "sektor": "Sektor Teknologi Informasi dan Komunikasi, Sektor Teknologi Informasi dan Komunikasi",
            "tanggal_terbit": "2022-03-15",
            "url_tdpse_detail": "https://pse.komdigi.go.id/tdpse-detail/3541",
            "website": "edukasi.satuhati.id"
        },
        {
            "id": "9cb1ab92-1521-4e79-a4b7-2a0131bcf324",
            "nama_pse": "MITRA MANUNGGAL MAHARDIKA",
            "nama_se": "ADELLEJEWELLERY.COM",
            "sektor": "Sektor Perdagangan, Sektor Perdagangan, Sektor Perdagangan",
            "tanggal_terbit": "2022-03-15",
            "url_tdpse_detail": "https://pse.komdigi.go.id/tdpse-detail/3542",
            "website": "adellejewellery.com"
        },
        {
            "id": "9cb1ab86-ca8f-4d50-b6cd-37a5b095cf1b",
            "nama_pse": "DIPO STAR FINANCE",
            "nama_se": "STAR EXPERIENCE",
            "sektor": "Sektor Keuangan, Sektor Keuangan, Sektor Teknologi Informasi dan Komunikasi, Sektor Teknologi Informasi dan Komunikasi",
            "tanggal_terbit": "2022-03-14",
            "url_tdpse_detail": "https://pse.komdigi.go.id/tdpse-detail/3526",
            "website": "starxperience.id"
        },
        {
            "id": "9cb1ab8e-498c-4426-a994-37800cc80883",
            "nama_pse": "DIPO STAR FINANCE",
            "nama_se": "MOCIL.ID",
            "sektor": "Sektor Perdagangan, Sektor Perdagangan, Sektor Keuangan, Sektor Keuangan",
            "tanggal_terbit": "2022-03-14",
            "url_tdpse_detail": "https://pse.komdigi.go.id/tdpse-detail/3527",
            "website": "mocil.id"
        },
        {
            "id": "9cb1ab8e-4cfb-4b59-96ab-c545f8f008c6",
            "nama_pse": "DIPO STAR FINANCE",
            "nama_se": "WEBSITE DIPO STAR FINANCE",
            "sektor": "Sektor Keuangan, Sektor Keuangan, Sektor Teknologi Informasi dan Komunikasi, Sektor Teknologi Informasi dan Komunikasi",
            "tanggal_terbit": "2022-03-14",
            "url_tdpse_detail": "https://pse.komdigi.go.id/tdpse-detail/3528",
            "website": "dipostar.com"
        },
        {
            "id": "9cb1ab86-d011-49c4-8e10-e2591d46f64c",
            "nama_pse": "DIPO STAR FINANCE",
            "nama_se": "KEMOODI",
            "sektor": "Sektor Transportasi, Sektor Transportasi, Sektor Teknologi Informasi dan Komunikasi, Sektor Teknologi Informasi dan Komunikasi",
            "tanggal_terbit": "2022-03-14",
            "url_tdpse_detail": "https://pse.komdigi.go.id/tdpse-detail/3529",
            "website": "kemoodi.com"
        },
        {
            "id": "9cb1ab7e-877b-4d62-ba19-c6e98bc3e43e",
            "nama_pse": "DIPO STAR FINANCE",
            "nama_se": "MOBILE APPLICATION FOR SALESMAN (MAFS)",
            "sektor": "Sektor Keuangan, Sektor Keuangan, Sektor Teknologi Informasi dan Komunikasi, Sektor Teknologi Informasi dan Komunikasi",
            "tanggal_terbit": "2022-03-14",
            "url_tdpse_detail": "https://pse.komdigi.go.id/tdpse-detail/3530",
            "website": "dipostar.com"
        },
        {
            "id": "9cb1ab86-e819-4008-8aa6-61b9ffbfc48d",
            "nama_pse": "EQUITY LIFE INDONESIA",
            "nama_se": "MICROSITE EQUITY LIFE INDONESIA",
            "sektor": "Sektor Keuangan, Sektor Keuangan, Sektor Keuangan",
            "tanggal_terbit": "2022-03-14",
            "url_tdpse_detail": "https://pse.komdigi.go.id/tdpse-detail/3533",
            "website": "-"
        },
        {
            "id": "9cb1ab87-369f-4acc-be56-1adbbe173983",
            "nama_pse": "INDONESIA FINTOPIA TECHNOLOGY",
            "nama_se": "EASYCASH",
            "sektor": "Sektor Keuangan, Sektor Keuangan",
            "tanggal_terbit": "2022-03-14",
            "url_tdpse_detail": "https://pse.komdigi.go.id/tdpse-detail/3531",
            "website": "geteasycash.asia"
        },
        {
            "id": "9cb1ab8f-d05c-445d-b015-fe7c7844758b",
            "nama_pse": "YUKK KREASI INDONESIA",
            "nama_se": "PT. YUKK KREASI INDONESIA",
            "sektor": "Sektor Keuangan, Sektor Keuangan, Sektor Teknologi Informasi dan Komunikasi, Sektor Teknologi Informasi dan Komunikasi",
            "tanggal_terbit": "2022-03-14",
            "url_tdpse_detail": "https://pse.komdigi.go.id/tdpse-detail/3525",
            "website": "yukk.co.id"
        },
        {
            "id": "9cb1ab91-ebc5-4e7f-88ae-0172061e2772",
            "nama_pse": "SHOPLINE TECHNOLOGY INDONESIA",
            "nama_se": "ONESHIP",
            "sektor": "Sektor Perdagangan",
            "tanggal_terbit": "2022-03-14",
            "url_tdpse_detail": "https://pse.komdigi.go.id/tdpse-detail/3521",
            "website": "oneship.io"
        },
        {
            "id": "9cb1aba9-6ea9-4147-96de-00a20cf89c23",
            "nama_pse": "SHOPLINE TECHNOLOGY INDONESIA",
            "nama_se": "SHOPHUB",
            "sektor": "Sektor Teknologi Informasi dan Komunikasi",
            "tanggal_terbit": "2022-03-14",
            "url_tdpse_detail": "https://pse.komdigi.go.id/tdpse-detail/3523",
            "website": "myshophub.com"
        },
        {
            "id": "9cb1ab92-1811-4599-84a2-062cda5c4bd2",
            "nama_pse": "ANGKUT TEKNOLOGI INDONESIA",
            "nama_se": "DELIVEREE - DELIVERY LOGISTICS",
            "sektor": "Sektor Transportasi, Sektor Transportasi",
            "tanggal_terbit": "2022-03-14",
            "url_tdpse_detail": "https://pse.komdigi.go.id/tdpse-detail/3524",
            "website": "deliveree.com/id/satu-kendaraan-cek-ongkir/"
        },
        {
            "id": "9cb1ab8e-d2b3-40df-9641-db3168944e47",
            "nama_pse": "CAHAYA AMALIA TAMAMI",
            "nama_se": "CAHAYA AMALIA TAMAMI",
            "sektor": "Sektor Perdagangan, Sektor Perdagangan, Sektor Teknologi Informasi dan Komunikasi, Sektor Teknologi Informasi dan Komunikasi",
            "tanggal_terbit": "2022-03-13",
            "url_tdpse_detail": "https://pse.komdigi.go.id/tdpse-detail/3520",
            "website": "-"
        },
        {
            "id": "9cb1ab8e-c9ab-4830-ac5c-d032d4df60f8",
            "nama_pse": "IRVAN ANGGARA S",
            "nama_se": "RJH OFFICIALSTORE",
            "sektor": "Sektor Perdagangan, Sektor Perdagangan, Sektor Keuangan, Sektor Keuangan",
            "tanggal_terbit": "2022-03-12",
            "url_tdpse_detail": "https://pse.komdigi.go.id/tdpse-detail/3519",
            "website": "-"
        },
        {
            "id": "9cb1ab7e-9328-44cc-bcfb-5ec4a91d5dd4",
            "nama_pse": "XTREMAX TEKNOLOGI INDONESIA",
            "nama_se": "PT. XTREMAX TEKNOLOGI INDONESIA",
            "sektor": "Sektor Teknologi Informasi dan Komunikasi, Sektor Teknologi Informasi dan Komunikasi",
            "tanggal_terbit": "2022-03-11",
            "url_tdpse_detail": "https://pse.komdigi.go.id/tdpse-detail/3514",
            "website": "xtremax.co.id"
        },
        {
            "id": "9cb1ab87-22bf-4f44-a09f-4eb0c7b4f389",
            "nama_pse": "INVESTREE RADHIKA JAYA",
            "nama_se": "INVESTREE",
            "sektor": "Sektor Keuangan, Sektor Keuangan",
            "tanggal_terbit": "2022-03-11",
            "url_tdpse_detail": "https://pse.komdigi.go.id/tdpse-detail/3509",
            "website": "investree.id"
        },
        {
            "id": "9cb1ab7e-c0c0-4feb-87cc-51de587c6cdb",
            "nama_pse": "IBG SOLUSI INDONESIA",
            "nama_se": "DIGITAL MEDIA MARKETING",
            "sektor": "Sektor Perdagangan, Sektor Perdagangan, Sektor Teknologi Informasi dan Komunikasi, Sektor Teknologi Informasi dan Komunikasi",
            "tanggal_terbit": "2022-03-11",
            "url_tdpse_detail": "https://pse.komdigi.go.id/tdpse-detail/3506",
            "website": "ibgsolutions2u.com"
        },
        {
            "id": "9cb1ab7e-c58c-4663-8bfa-f877328b036d",
            "nama_pse": "IBG SOLUSI INDONESIA",
            "nama_se": "DIGITAL MEDIA MARKETING_AFFILIATE",
            "sektor": "Sektor Perdagangan, Sektor Perdagangan, Sektor Teknologi Informasi dan Komunikasi, Sektor Teknologi Informasi dan Komunikasi",
            "tanggal_terbit": "2022-03-11",
            "url_tdpse_detail": "https://pse.komdigi.go.id/tdpse-detail/3507",
            "website": "ibgsolutions2u.com"
        },
        {
            "id": "9cb1ab7e-cee8-4527-9944-198fa88cf877",
            "nama_pse": "DAMAR INSPIRASI NUSANTARA",
            "nama_se": "DAMAR.IN PLATFORM",
            "sektor": "Sektor Teknologi Informasi dan Komunikasi, Sektor Teknologi Informasi dan Komunikasi",
            "tanggal_terbit": "2022-03-11",
            "url_tdpse_detail": "https://pse.komdigi.go.id/tdpse-detail/3508",
            "website": "damar.in"
        },
        {
            "id": "9cb1ab8e-bd23-4cb8-90b8-431fed520e6a",
            "nama_pse": "TRANS INTERNASIONAL ONLINE",
            "nama_se": "TENAR",
            "sektor": "Sektor Perdagangan, Sektor Perdagangan, Sektor Perdagangan, Sektor Teknologi Informasi dan Komunikasi, Sektor Teknologi Informasi dan Komunikasi, Sektor Teknologi Informasi dan Komunikasi",
            "tanggal_terbit": "2022-03-11",
            "url_tdpse_detail": "https://pse.komdigi.go.id/tdpse-detail/3510",
            "website": "tenar.in"
        },
        {
            "id": "9cb1ab87-3138-4a81-8130-c621f8e3880f",
            "nama_pse": "SEJUK PRIMA INDONESIA",
            "nama_se": "WWW.COOLZY.CO.ID",
            "sektor": "Sektor Perdagangan, Sektor Perdagangan, Sektor Perdagangan",
            "tanggal_terbit": "2022-03-11",
            "url_tdpse_detail": "https://pse.komdigi.go.id/tdpse-detail/3512",
            "website": "coolzy.co.id"
        },
        {
            "id": "9cb1ab8e-c109-4c95-b385-efcea6304c08",
            "nama_pse": "MIDDYN KALAMBI RAHAYU",
            "nama_se": "WEBSITE",
            "sektor": "Sektor Perdagangan, Sektor Perdagangan",
            "tanggal_terbit": "2022-03-11",
            "url_tdpse_detail": "https://pse.komdigi.go.id/tdpse-detail/3516",
            "website": "-"
        },
        {
            "id": "9cb1ab8e-c45e-4357-a22f-d188d4f631f5",
            "nama_pse": "INDO KOIN PERDANA",
            "nama_se": "TRANSAKSI PERDAGANGAN ,KEUANGAN LAIN NYA MELALUI BLOCKCHAIN, DAN ALIKASI LAINYA",
            "sektor": "Sektor Perdagangan, Sektor Perdagangan, Sektor Transportasi, Sektor Transportasi, Sektor Keuangan, Sektor Keuangan, Sektor Kesehatan, Sektor Kesehatan, Sektor Teknologi Informasi dan Komunikasi, Sektor Teknologi Informasi dan Komunikasi, Sektor Pangan, Sektor Pangan, Sektor Pertahanan dan Keamanan, Sektor Pertahanan dan Keamanan",
            "tanggal_terbit": "2022-03-11",
            "url_tdpse_detail": "https://pse.komdigi.go.id/tdpse-detail/3518",
            "website": "-"
        },
        {
            "id": "9cb1ab8f-cce6-48fe-9ee8-a36775911a7a",
            "nama_pse": "TRISNAWAN",
            "nama_se": "MARURAH",
            "sektor": "Sektor Perdagangan, Sektor Perdagangan, Sektor Teknologi Informasi dan Komunikasi, Sektor Teknologi Informasi dan Komunikasi",
            "tanggal_terbit": "2022-03-11",
            "url_tdpse_detail": "https://pse.komdigi.go.id/tdpse-detail/3511",
            "website": "marurah.com"
        },
        {
            "id": "9cb1ab9e-57ca-4ea3-88cc-065e8fa4167d",
            "nama_pse": "MULTI PRATAMA ASIA",
            "nama_se": "MULTI PRATAMA ASIA - MPA",
            "sektor": "Sektor Perdagangan, Sektor Perdagangan, Sektor Transportasi, Sektor Transportasi, Sektor Keuangan, Sektor Keuangan, Sektor Teknologi Informasi dan Komunikasi, Sektor Teknologi Informasi dan Komunikasi",
            "tanggal_terbit": "2022-03-11",
            "url_tdpse_detail": "https://pse.komdigi.go.id/tdpse-detail/3517",
            "website": "multijasasolusindo.id"
        },
        {
            "id": "9cb1ab9e-59d4-45a0-91e0-08a76655f515",
            "nama_pse": "TEKNOLOGI PERDANA INDONESIA",
            "nama_se": "MAXIM",
            "sektor": "Sektor Perdagangan, Sektor Perdagangan, Sektor Transportasi, Sektor Transportasi, Sektor Teknologi Informasi dan Komunikasi, Sektor Teknologi Informasi dan Komunikasi",
            "tanggal_terbit": "2022-03-11",
            "url_tdpse_detail": "https://pse.komdigi.go.id/tdpse-detail/3513",
            "website": "id.taximaxim.com"
        },
        {
            "id": "9cb1ab9e-5bb7-482f-a3a3-06158c05a69b",
            "nama_pse": "QONTAK TUMBUH MAKMUR",
            "nama_se": "QONTAK",
            "sektor": "Sektor Teknologi Informasi dan Komunikasi, Sektor Teknologi Informasi dan Komunikasi",
            "tanggal_terbit": "2022-03-11",
            "url_tdpse_detail": "https://pse.komdigi.go.id/tdpse-detail/3515",
            "website": "qontak.com"
        },
        {
            "id": "9cb1ab86-f41e-4e60-ae2e-6a7a870e2000",
            "nama_pse": "DOCTOR ANYWHERE INDONESIA",
            "nama_se": "DOCTOR ANYWHERE",
            "sektor": "Sektor Kesehatan, Sektor Kesehatan, Sektor Teknologi Informasi dan Komunikasi, Sektor Teknologi Informasi dan Komunikasi",
            "tanggal_terbit": "2022-03-10",
            "url_tdpse_detail": "https://pse.komdigi.go.id/tdpse-detail/3498",
            "website": "doctoranywhere.com"
        },
        {
            "id": "9cb1ab8e-afe3-4efb-8825-63d9dd84015c",
            "nama_pse": "TOKENIZE INDO UTAMA",
            "nama_se": "TOKENIZE XCHANGE",
            "sektor": "Sektor Keuangan, Sektor Keuangan",
            "tanggal_terbit": "2022-03-10",
            "url_tdpse_detail": "https://pse.komdigi.go.id/tdpse-detail/3501",
            "website": "tokenize.id"
        },
        {
            "id": "9cb1ab87-160d-43eb-9dcc-3469ca1873bc",
            "nama_pse": "TEES PRATAMA INDONESIA",
            "nama_se": "OFFICEBEE",
            "sektor": "Sektor Perdagangan, Sektor Perdagangan, Sektor Teknologi Informasi dan Komunikasi, Sektor Teknologi Informasi dan Komunikasi",
            "tanggal_terbit": "2022-03-10",
            "url_tdpse_detail": "https://pse.komdigi.go.id/tdpse-detail/3502",
            "website": "Officebee.co"
        },
        {
            "id": "9cb1ab7e-b9fb-4830-be9d-e5bce924fd7f",
            "nama_pse": "ARTHA TEKNOLOGI MAHAKARYA",
            "nama_se": "KAMPUSKITA",
            "sektor": "Sektor Teknologi Informasi dan Komunikasi, Sektor Teknologi Informasi dan Komunikasi",
            "tanggal_terbit": "2022-03-10",
            "url_tdpse_detail": "https://pse.komdigi.go.id/tdpse-detail/3503",
            "website": "kampuskita.co"
        },
        {
            "id": "9cb1ab87-25a5-4176-a16b-87ec98be0b77",
            "nama_pse": "DELAPAN BERUANG MADU",
            "nama_se": "BEETU",
            "sektor": "Sektor Transportasi, Sektor Transportasi",
            "tanggal_terbit": "2022-03-10",
            "url_tdpse_detail": "https://pse.komdigi.go.id/tdpse-detail/3500",
            "website": "beetu.id"
        },
        {
            "id": "9cb1ab7e-bce6-46eb-916d-19559adf8a9c",
            "nama_pse": "CODEHOUSE TEKNOLOGI OASE",
            "nama_se": "CODEHOUSE TEKNOLOGI OASE",
            "sektor": "Sektor Teknologi Informasi dan Komunikasi, Sektor Teknologi Informasi dan Komunikasi",
            "tanggal_terbit": "2022-03-10",
            "url_tdpse_detail": "https://pse.komdigi.go.id/tdpse-detail/3499",
            "website": "codehouse.id"
        },
        {
            "id": "9cb1ab8e-b92f-4926-8c99-54f05550341b",
            "nama_pse": "BUANA CAPITAL SEKURITAS",
            "nama_se": "TREN",
            "sektor": "Sektor Keuangan, Sektor Keuangan",
            "tanggal_terbit": "2022-03-10",
            "url_tdpse_detail": "https://pse.komdigi.go.id/tdpse-detail/3504",
            "website": "buanacapital.com"
        }
    ],
    "processingTimeMs": 9,
    "query": "",
    "totalHits": 19121,
    "hitsPerPage": 50,
    "page": 316,
    "totalPages": 383
}