{
    "hits": [
        {
            "id": "9cb1ab6e-0c46-4eb2-be21-8e284ad8f404",
            "nama_pse": "KREATIVA MEDIKA SEJAHTERA",
            "nama_se": "BIDANG KEGIATAN SPESIFIK:PORTAL WEB DAN/ATAU PLATFORM DIGITAL DENGAN TUJUAN KOMERSIAL",
            "sektor": "Sektor Teknologi Informasi dan Komunikasi, Sektor Teknologi Informasi dan Komunikasi",
            "tanggal_terbit": "2021-06-24",
            "url_tdpse_detail": "https://pse.komdigi.go.id/tdpse-detail/1569",
            "website": "http://klikdialisis.com"
        },
        {
            "id": "9cb1ab6e-127b-4869-a500-152d217ec6c5",
            "nama_pse": "BLUEPAY DIGITAL INTERNATIONAL",
            "nama_se": "BLUEPAY",
            "sektor": "Sektor Keuangan, Sektor Keuangan",
            "tanggal_terbit": "2021-06-24",
            "url_tdpse_detail": "https://pse.komdigi.go.id/tdpse-detail/1541",
            "website": "bluepay.id"
        },
        {
            "id": "9cb1ab74-63aa-4e0f-ba16-ad0b6e66b8b3",
            "nama_pse": "RAJAPREMI DOT COM",
            "nama_se": "RAJAPREMI DOT COM",
            "sektor": "Sektor Teknologi Informasi dan Komunikasi",
            "tanggal_terbit": "2021-06-24",
            "url_tdpse_detail": "https://pse.komdigi.go.id/tdpse-detail/1516",
            "website": "rajapremi.com"
        },
        {
            "id": "9cb1ab6e-1541-420b-a6f4-552db0eedbb8",
            "nama_pse": "JEJARING CEPAT INDONESIA",
            "nama_se": "PT JEJARING CEPAT INDONESIA",
            "sektor": "Sektor Teknologi Informasi dan Komunikasi, Sektor Teknologi Informasi dan Komunikasi, Sektor Teknologi Informasi dan Komunikasi",
            "tanggal_terbit": "2021-06-24",
            "url_tdpse_detail": "https://pse.komdigi.go.id/tdpse-detail/1511",
            "website": "goldenfast.net"
        },
        {
            "id": "9cb1ab6e-206e-4f76-a366-d7cb141d912a",
            "nama_pse": "AKSARA DATA DIGITAL",
            "nama_se": "PT AKSARA DATA DIGITAL",
            "sektor": "Sektor Teknologi Informasi dan Komunikasi, Sektor Teknologi Informasi dan Komunikasi",
            "tanggal_terbit": "2021-06-24",
            "url_tdpse_detail": "https://pse.komdigi.go.id/tdpse-detail/1531",
            "website": "aksaradata.id"
        },
        {
            "id": "9cb1ab67-dca3-403d-b99b-a6ada25b1bed",
            "nama_pse": "NUTRIFOOD INDONESIA",
            "nama_se": "NUTRIMART",
            "sektor": "Sektor Perdagangan, Sektor Perdagangan",
            "tanggal_terbit": "2021-06-24",
            "url_tdpse_detail": "https://pse.komdigi.go.id/tdpse-detail/1524",
            "website": "nutrimart.co.id"
        },
        {
            "id": "9cb1ab74-6d95-4645-9600-891b5dc942ea",
            "nama_pse": "DANASAKTI SEKURITAS INDONESIA",
            "nama_se": "INSISTPRO DANASAKTI - REMOTE TRADING",
            "sektor": "Sektor Keuangan, Sektor Keuangan",
            "tanggal_terbit": "2021-06-24",
            "url_tdpse_detail": "https://pse.komdigi.go.id/tdpse-detail/1521",
            "website": "danasaktisekuritas.com"
        },
        {
            "id": "9cb1ab6e-230c-45b6-90a7-c100ece14c70",
            "nama_pse": "PAPABLI BISNIS SEMESTA",
            "nama_se": "PAPABLI.COM",
            "sektor": "Sektor Perdagangan, Sektor Perdagangan, Sektor Teknologi Informasi dan Komunikasi, Sektor Teknologi Informasi dan Komunikasi",
            "tanggal_terbit": "2021-06-24",
            "url_tdpse_detail": "https://pse.komdigi.go.id/tdpse-detail/1520",
            "website": "papabli.com"
        },
        {
            "id": "9cb1ab67-e292-4f05-b3e7-6a1bcd68eeb7",
            "nama_pse": "KUDO TEKNOLOGI INDONESIA",
            "nama_se": "KUDO",
            "sektor": "Sektor Perdagangan, Sektor Perdagangan, Sektor Teknologi Informasi dan Komunikasi, Sektor Teknologi Informasi dan Komunikasi",
            "tanggal_terbit": "2021-06-24",
            "url_tdpse_detail": "https://pse.komdigi.go.id/tdpse-detail/1523",
            "website": "grab.com/id/kios/"
        },
        {
            "id": "9cb1ab67-e95f-49ef-ab09-6ec79d914d10",
            "nama_pse": "KELAS DUNIA EKASAKTI",
            "nama_se": "KELAS DIGITAL",
            "sektor": "Sektor Teknologi Informasi dan Komunikasi, Sektor Teknologi Informasi dan Komunikasi",
            "tanggal_terbit": "2021-06-24",
            "url_tdpse_detail": "https://pse.komdigi.go.id/tdpse-detail/1533",
            "website": "kelas-digital.id"
        },
        {
            "id": "9cb1ab67-eb8c-4276-a381-a471d6353bb0",
            "nama_pse": "UNICORN INTERNATIONAL INDONESIA",
            "nama_se": "BIKEBIKE.ID",
            "sektor": "Sektor Perdagangan, Sektor Perdagangan",
            "tanggal_terbit": "2021-06-24",
            "url_tdpse_detail": "https://pse.komdigi.go.id/tdpse-detail/1537",
            "website": "digitalocean.com/"
        },
        {
            "id": "9cb1ab74-7937-4dd1-8faf-98cc2080a7f1",
            "nama_pse": "GO ONLINE DESTINATIONS",
            "nama_se": "PEGIPEGI",
            "sektor": "Sektor Teknologi Informasi dan Komunikasi, Sektor Teknologi Informasi dan Komunikasi, Sektor Teknologi Informasi dan Komunikasi, Sektor Teknologi Informasi dan Komunikasi",
            "tanggal_terbit": "2021-06-24",
            "url_tdpse_detail": "https://pse.komdigi.go.id/tdpse-detail/1543",
            "website": "pegipegi.com"
        },
        {
            "id": "9cb1ab74-7d3f-44fd-9bfc-10c10a9f5ba7",
            "nama_pse": "KITA INDONESIA PLUS",
            "nama_se": "WEPLUS (WE+)",
            "sektor": "Sektor Perdagangan, Sektor Perdagangan, Sektor Perdagangan, Sektor Perdagangan",
            "tanggal_terbit": "2021-06-24",
            "url_tdpse_detail": "https://pse.komdigi.go.id/tdpse-detail/1544",
            "website": "weplus.id"
        },
        {
            "id": "9cb1ab67-ee06-4611-9407-7baa91e8feea",
            "nama_pse": "GITS INDONESIA",
            "nama_se": "GITS INDONESIA",
            "sektor": "Sektor Teknologi Informasi dan Komunikasi, Sektor Teknologi Informasi dan Komunikasi",
            "tanggal_terbit": "2021-06-24",
            "url_tdpse_detail": "https://pse.komdigi.go.id/tdpse-detail/1548",
            "website": "gits.id"
        },
        {
            "id": "9cb1ab6e-373d-49e8-a9db-761940c6e451",
            "nama_pse": "SURYA ANUGRAH MULYA",
            "nama_se": "METATRADER 5",
            "sektor": "Sektor Perdagangan, Sektor Perdagangan",
            "tanggal_terbit": "2021-06-24",
            "url_tdpse_detail": "https://pse.komdigi.go.id/tdpse-detail/1559",
            "website": "www.surya-am.id, www.surya-am.com"
        },
        {
            "id": "9cb1ab6e-3ada-4ac1-a662-2d9eb2d4f488",
            "nama_pse": "BIMASAKTI CAHAYA ABADI",
            "nama_se": "OKE GENIUS",
            "sektor": "Sektor Perdagangan, Sektor Perdagangan",
            "tanggal_terbit": "2021-06-24",
            "url_tdpse_detail": "https://pse.komdigi.go.id/tdpse-detail/1560",
            "website": "Okegenius.co.id"
        },
        {
            "id": "9cb1ab6e-3fae-4d2b-8b8e-47579ae9a426",
            "nama_pse": "EKOKAPITAL SEKURITAS",
            "nama_se": "E-TOP",
            "sektor": "Sektor Keuangan, Sektor Keuangan",
            "tanggal_terbit": "2021-06-24",
            "url_tdpse_detail": "https://pse.komdigi.go.id/tdpse-detail/1564",
            "website": "EKOKAPITAL.COM"
        },
        {
            "id": "9cb1ab6e-4416-4826-8c82-2ca844fee532",
            "nama_pse": "SENTRA MEGAH INDOTEK",
            "nama_se": "EA-50",
            "sektor": "Sektor Perdagangan, Sektor Perdagangan, Sektor Teknologi Informasi dan Komunikasi, Sektor Teknologi Informasi dan Komunikasi",
            "tanggal_terbit": "2021-06-24",
            "url_tdpse_detail": "https://pse.komdigi.go.id/tdpse-detail/1584",
            "website": "digitek.co.id"
        },
        {
            "id": "9cb1ab6e-467c-4910-8abf-ae90b5cc9c72",
            "nama_pse": "SARANA PEMBAYARAN SYARIAH",
            "nama_se": "HIJRAH NUSWANTARA",
            "sektor": "Sektor Keuangan, Sektor Keuangan, Sektor Keuangan, Sektor Teknologi Informasi dan Komunikasi, Sektor Teknologi Informasi dan Komunikasi, Sektor Teknologi Informasi dan Komunikasi",
            "tanggal_terbit": "2021-06-24",
            "url_tdpse_detail": "https://pse.komdigi.go.id/tdpse-detail/1557",
            "website": "hijrahnuswantara.com"
        },
        {
            "id": "9cb1ab67-f266-465b-97f7-7ee4d64243d6",
            "nama_pse": "BUANA MEDIA TEKNOLOGI",
            "nama_se": "GV E-MONEY",
            "sektor": "Sektor Keuangan, Sektor Keuangan, Sektor Teknologi Informasi dan Komunikasi, Sektor Teknologi Informasi dan Komunikasi",
            "tanggal_terbit": "2021-06-24",
            "url_tdpse_detail": "https://pse.komdigi.go.id/tdpse-detail/1566",
            "website": "gudangvoucher.com"
        },
        {
            "id": "9cb1ab74-9cb4-42cb-b453-38bb08302b80",
            "nama_pse": "RESKA MULTI USAHA",
            "nama_se": "LOKOLIFE",
            "sektor": "Sektor Perdagangan, Sektor Perdagangan, Sektor Perdagangan, Sektor Perdagangan",
            "tanggal_terbit": "2021-06-24",
            "url_tdpse_detail": "https://pse.komdigi.go.id/tdpse-detail/1571",
            "website": "lokolife.reska.id"
        },
        {
            "id": "9cb1ab74-a243-459d-9acb-28df4b319664",
            "nama_pse": "BANDUNG ECO SINERGI TEKNOLOGI",
            "nama_se": "BEST-WORLD.ID",
            "sektor": "Sektor Perdagangan, Sektor Perdagangan",
            "tanggal_terbit": "2021-06-24",
            "url_tdpse_detail": "https://pse.komdigi.go.id/tdpse-detail/1561",
            "website": "best-worl.id/home"
        },
        {
            "id": "9cb1ab67-fc2f-4df1-a5b7-5b6a692d94f6",
            "nama_pse": "BANK MEGA",
            "nama_se": "BANK MEGA M-SMILE",
            "sektor": "Sektor Keuangan, Sektor Keuangan, Sektor Keuangan, Sektor Keuangan",
            "tanggal_terbit": "2021-06-24",
            "url_tdpse_detail": "https://pse.komdigi.go.id/tdpse-detail/1579",
            "website": "-"
        },
        {
            "id": "9cb1ab74-a7b3-4edf-a553-8b61d77e6c52",
            "nama_pse": "BANK MEGA",
            "nama_se": "BANK MEGA INTERNET BANKING",
            "sektor": "Sektor Keuangan, Sektor Keuangan, Sektor Keuangan, Sektor Keuangan",
            "tanggal_terbit": "2021-06-24",
            "url_tdpse_detail": "https://pse.komdigi.go.id/tdpse-detail/1580",
            "website": "ibank.bankmega.com"
        },
        {
            "id": "9cb1ab6e-4b2f-4c54-95e3-8b0327984ec8",
            "nama_pse": "BANK MEGA",
            "nama_se": "BANK MEGA EMAIL",
            "sektor": "Sektor Keuangan, Sektor Keuangan, Sektor Keuangan, Sektor Keuangan",
            "tanggal_terbit": "2021-06-24",
            "url_tdpse_detail": "https://pse.komdigi.go.id/tdpse-detail/1581",
            "website": "mail.bankmega.com"
        },
        {
            "id": "9cb1ab6e-4d23-42d9-b69b-b4dfba400d96",
            "nama_pse": "BANK MEGA",
            "nama_se": "BANK MEGA WEB",
            "sektor": "Sektor Keuangan, Sektor Keuangan, Sektor Keuangan, Sektor Keuangan",
            "tanggal_terbit": "2021-06-24",
            "url_tdpse_detail": "https://pse.komdigi.go.id/tdpse-detail/1586",
            "website": "bankmega.com"
        },
        {
            "id": "9cb1ab68-16e2-492b-b195-bc526bce1e14",
            "nama_pse": "INOVASI BAGI BANGSA",
            "nama_se": "PACKETINDONESIA",
            "sektor": "Sektor Transportasi, Sektor Transportasi, Sektor Transportasi",
            "tanggal_terbit": "2021-06-24",
            "url_tdpse_detail": "https://pse.komdigi.go.id/tdpse-detail/1583",
            "website": "-"
        },
        {
            "id": "9cb1ab74-e404-4be0-86fd-8e30a5e6e526",
            "nama_pse": "ICART GROUP INDONESIA",
            "nama_se": "HAPPYFRESH",
            "sektor": "Sektor Perdagangan, Sektor Perdagangan, Sektor Perdagangan, Sektor Perdagangan",
            "tanggal_terbit": "2021-06-24",
            "url_tdpse_detail": "https://pse.komdigi.go.id/tdpse-detail/1570",
            "website": "happyfresh.id"
        },
        {
            "id": "9cb1ab68-21f8-49d1-92fd-e3309060bb42",
            "nama_pse": "SIMPAN PINJAM BUANA SATU TUJUH",
            "nama_se": "KREDIT KILAT PRO",
            "sektor": "Sektor Teknologi Informasi dan Komunikasi, Sektor Teknologi Informasi dan Komunikasi, Sektor Teknologi Informasi dan Komunikasi, Sektor Teknologi Informasi dan Komunikasi",
            "tanggal_terbit": "2021-06-24",
            "url_tdpse_detail": "https://pse.komdigi.go.id/tdpse-detail/1582",
            "website": "kreditkilatpro.com"
        },
        {
            "id": "9cb1ab68-2500-4b02-87f7-745cfb254e01",
            "nama_pse": "DIGITAL PRIMA LESTARI",
            "nama_se": "FUREE",
            "sektor": "Sektor Perdagangan, Sektor Perdagangan, Sektor Perdagangan",
            "tanggal_terbit": "2021-06-24",
            "url_tdpse_detail": "https://pse.komdigi.go.id/tdpse-detail/1589",
            "website": "furee.id"
        },
        {
            "id": "9cb1ab74-ee0b-4bf4-8266-c0fed127a635",
            "nama_pse": "TERNAKNESIA FARM INNOVATION",
            "nama_se": "TERNAKNESIA",
            "sektor": "Sektor Perdagangan, Sektor Perdagangan, Sektor Pangan, Sektor Pangan",
            "tanggal_terbit": "2021-06-24",
            "url_tdpse_detail": "https://pse.komdigi.go.id/tdpse-detail/1585",
            "website": "Ternaknesia.com"
        },
        {
            "id": "9cb1ab83-66e7-4a18-9015-f7f89b5c0d75",
            "nama_pse": "ZONA EDUKASI NUSANTARA",
            "nama_se": "ZENIUSLAND",
            "sektor": "Sektor Perdagangan, Sektor Perdagangan, Sektor Perdagangan",
            "tanggal_terbit": "2021-06-24",
            "url_tdpse_detail": "https://pse.komdigi.go.id/tdpse-detail/1532",
            "website": "-"
        },
        {
            "id": "9cb1ab8b-e330-4791-beab-bda9f8880338",
            "nama_pse": "BEEVER SYSTEM INDONESIA",
            "nama_se": "BEEVER FINANCIAL SOLUTION",
            "sektor": "Sektor Keuangan, Sektor Keuangan",
            "tanggal_terbit": "2021-06-24",
            "url_tdpse_detail": "https://pse.komdigi.go.id/tdpse-detail/1563",
            "website": "beever-ecosystem.com"
        },
        {
            "id": "9cb1ab7d-7e9f-4bf0-86dd-1f32cb367f68",
            "nama_pse": "ASURANSI JIWA GENERALI INDONESIA",
            "nama_se": "IPROPOSE",
            "sektor": "Sektor Keuangan, Sektor Keuangan",
            "tanggal_terbit": "2021-06-24",
            "url_tdpse_detail": "https://pse.komdigi.go.id/tdpse-detail/1526",
            "website": "-"
        },
        {
            "id": "9cb1ab8d-0792-454d-b912-1ac30c9f2526",
            "nama_pse": "ASURANSI JIWA GENERALI INDONESIA",
            "nama_se": "ISERVICES.GENERALI.CO.ID",
            "sektor": "Sektor Keuangan, Sektor Keuangan",
            "tanggal_terbit": "2021-06-24",
            "url_tdpse_detail": "https://pse.komdigi.go.id/tdpse-detail/1527",
            "website": "iservices.generali.co.id"
        },
        {
            "id": "9cb1ab7d-9db2-4c0c-a4ee-772633a48792",
            "nama_pse": "SARANA SANTOSA SEJATI",
            "nama_se": "PLUANG-GROW",
            "sektor": "Sektor Keuangan, Sektor Keuangan",
            "tanggal_terbit": "2021-06-24",
            "url_tdpse_detail": "https://pse.komdigi.go.id/tdpse-detail/1517",
            "website": "pluang-grow.com"
        },
        {
            "id": "9cb1ab8d-429e-47f0-a66a-43f77bcebcf4",
            "nama_pse": "HYUNDAI MOTORS INDONESIA",
            "nama_se": "HYUNDAI GLOBAL CUSTOMER EXPERIENCE (HGCX)",
            "sektor": "Sektor Teknologi Informasi dan Komunikasi, Sektor Teknologi Informasi dan Komunikasi, Sektor Teknologi Informasi dan Komunikasi",
            "tanggal_terbit": "2021-06-24",
            "url_tdpse_detail": "https://pse.komdigi.go.id/tdpse-detail/1556",
            "website": "ap.hyundaiglobalcx.com/mngwsercgateway/getLogin.do"
        },
        {
            "id": "9cb1ab90-b049-4c74-b259-1189b1fe7268",
            "nama_pse": "KREASI SOLUSI BANGSA",
            "nama_se": "SMART LEGAL ACADEMY",
            "sektor": "Sektor Perdagangan",
            "tanggal_terbit": "2021-06-24",
            "url_tdpse_detail": "https://pse.komdigi.go.id/tdpse-detail/1587",
            "website": "Smartlegalacademy.id"
        },
        {
            "id": "9cb1ab9e-b92d-4930-b0aa-11664ed05c0c",
            "nama_pse": "KREDIT UTAMA FINTECH INDONESIA",
            "nama_se": "SISTEM BACKEND RUPIAH CEPAT",
            "sektor": "Sektor Keuangan, Sektor Keuangan, Sektor Teknologi Informasi dan Komunikasi, Sektor Teknologi Informasi dan Komunikasi",
            "tanggal_terbit": "2021-06-24",
            "url_tdpse_detail": "https://pse.komdigi.go.id/tdpse-detail/1565",
            "website": "rupiahcepatweb.com"
        },
        {
            "id": "9cb1aba9-3783-47d5-a136-2c9e3163a00f",
            "nama_pse": "SAMPINGAN MITRA INDONESIA",
            "nama_se": "KERJAAN",
            "sektor": "Sektor Teknologi Informasi dan Komunikasi, Sektor Teknologi Informasi dan Komunikasi, Sektor Teknologi Informasi dan Komunikasi",
            "tanggal_terbit": "2021-06-24",
            "url_tdpse_detail": "https://pse.komdigi.go.id/tdpse-detail/1545",
            "website": "kerjaan.co.id"
        },
        {
            "id": "9cb1ab9e-f280-4c99-9272-743fffd93e65",
            "nama_pse": "CUMA UNTUK ANAK NEGERI",
            "nama_se": "CFUND",
            "sektor": "Sektor Perdagangan, Sektor Perdagangan",
            "tanggal_terbit": "2021-06-24",
            "url_tdpse_detail": "https://pse.komdigi.go.id/tdpse-detail/1562",
            "website": "cfund.id"
        },
        {
            "id": "9cb1aba9-83cf-4876-b2f2-191afe2b4367",
            "nama_pse": "CGS International Sekuritas Indonesia",
            "nama_se": "WWW.CGS-CIMB.CO.ID",
            "sektor": "Sektor Keuangan, Sektor Keuangan, Sektor Keuangan, Sektor Keuangan, Sektor Keuangan, Sektor Keuangan, Sektor Keuangan, Sektor Keuangan",
            "tanggal_terbit": "2021-06-24",
            "url_tdpse_detail": "https://pse.komdigi.go.id/tdpse-detail/1572",
            "website": "cgs-cimb.co.id"
        },
        {
            "id": "9cb1ab9f-7d17-4e1f-8cae-4fe630914cce",
            "nama_pse": "INFO PENA INDONESIA",
            "nama_se": "JITUNEWS",
            "sektor": "Sektor Teknologi Informasi dan Komunikasi, Sektor Teknologi Informasi dan Komunikasi, Sektor Teknologi Informasi dan Komunikasi",
            "tanggal_terbit": "2021-06-24",
            "url_tdpse_detail": "https://pse.komdigi.go.id/tdpse-detail/1588",
            "website": "jitunews.com"
        },
        {
            "id": "9cb1aba9-d33c-4427-9a7c-d4e4d7b9d346",
            "nama_pse": "TT TECHNO PARK INDONESIA",
            "nama_se": "GS-EDI",
            "sektor": "Sektor Teknologi Informasi dan Komunikasi, Sektor Teknologi Informasi dan Komunikasi",
            "tanggal_terbit": "2021-06-24",
            "url_tdpse_detail": "https://pse.komdigi.go.id/tdpse-detail/1503",
            "website": "gsedi.com"
        },
        {
            "id": "9cb1ab74-7342-4f1a-afe2-f66d0b9a5d61",
            "nama_pse": "URUN BANGUN NEGERI",
            "nama_se": "URUN-RI",
            "sektor": "Sektor Keuangan, Sektor Keuangan",
            "tanggal_terbit": "2021-06-24",
            "url_tdpse_detail": "https://pse.komdigi.go.id/tdpse-detail/1573",
            "website": "urun-ri.id"
        },
        {
            "id": "9cb1ab74-56bc-4526-ad73-5b8580e67e9a",
            "nama_pse": "SURYA BUMI RETAILINDO",
            "nama_se": "CYCLOPEDIA.ID",
            "sektor": "Sektor Perdagangan, Sektor Perdagangan, Sektor Teknologi Informasi dan Komunikasi, Sektor Teknologi Informasi dan Komunikasi",
            "tanggal_terbit": "2021-06-14",
            "url_tdpse_detail": "https://pse.komdigi.go.id/tdpse-detail/1495",
            "website": "cyclopedia.id"
        },
        {
            "id": "9cb1ab64-d7ea-4a04-8431-6e59bdba4cd2",
            "nama_pse": "K-LINK NUSANTARA",
            "nama_se": "K-MART",
            "sektor": "Sektor Perdagangan, Sektor Perdagangan",
            "tanggal_terbit": "2021-06-14",
            "url_tdpse_detail": "https://pse.komdigi.go.id/tdpse-detail/1492",
            "website": "-"
        },
        {
            "id": "9cb1ab65-eca6-4094-b0bb-bc8bb5921de7",
            "nama_pse": "RAJA SOLUSI KREATIF",
            "nama_se": "BOSONDERDIL.COM",
            "sektor": "Sektor Perdagangan, Sektor Perdagangan, Sektor Perdagangan",
            "tanggal_terbit": "2021-06-14",
            "url_tdpse_detail": "https://pse.komdigi.go.id/tdpse-detail/1473",
            "website": "bosonderdil.com"
        },
        {
            "id": "9cb1ab6c-5aaf-44cf-a70d-e2df9b9fdbca",
            "nama_pse": "EUREKA BOOKHOUSE",
            "nama_se": "RAJA CEPAT",
            "sektor": "Sektor Perdagangan, Sektor Perdagangan, Sektor Transportasi, Sektor Transportasi",
            "tanggal_terbit": "2021-06-14",
            "url_tdpse_detail": "https://pse.komdigi.go.id/tdpse-detail/1462",
            "website": "rajacepat.com"
        },
        {
            "id": "9cb1ab72-e8d4-42cd-983b-e0f9ad1d92ad",
            "nama_pse": "EUREKA BOOKHOUSE",
            "nama_se": "MASTER DISKON",
            "sektor": "Sektor Perdagangan, Sektor Perdagangan, Sektor Teknologi Informasi dan Komunikasi, Sektor Teknologi Informasi dan Komunikasi",
            "tanggal_terbit": "2021-06-14",
            "url_tdpse_detail": "https://pse.komdigi.go.id/tdpse-detail/1463",
            "website": "masterdiskon.com"
        }
    ],
    "processingTimeMs": 10,
    "query": "",
    "totalHits": 19121,
    "hitsPerPage": 50,
    "page": 354,
    "totalPages": 383
}