{
    "hits": [
        {
            "id": "9cb1ac21-15d4-4a0b-b0fc-6594a59352b4",
            "nama_pse": "LUXTER GLOBAL TECHNOLOGY",
            "nama_se": "SIPILMA",
            "sektor": "Sektor Teknologi Informasi dan Komunikasi",
            "tanggal_terbit": "2023-05-08",
            "url_tdpse_detail": "https://pse.komdigi.go.id/tdpse-detail/14591",
            "website": "sipilma.id"
        },
        {
            "id": "9cb1ac21-1b59-4a84-a119-93d7e636f0f1",
            "nama_pse": "STARGO DIGITAL INDONESIA",
            "nama_se": "BINTANGO.ID",
            "sektor": "Sektor Perdagangan, Sektor Teknologi Informasi dan Komunikasi",
            "tanggal_terbit": "2023-05-08",
            "url_tdpse_detail": "https://pse.komdigi.go.id/tdpse-detail/14604",
            "website": "-"
        },
        {
            "id": "9cb1ac43-2c7a-4009-89c3-a94bef37a78d",
            "nama_pse": "GLOBAL ABADI SOLUSINDO",
            "nama_se": "GLOBAL ABADI SOLUSINDO",
            "sektor": "Sektor Transportasi",
            "tanggal_terbit": "2023-05-08",
            "url_tdpse_detail": "https://pse.komdigi.go.id/tdpse-detail/14599",
            "website": "varexpress.id"
        },
        {
            "id": "9cb1ac33-5519-453d-a344-10da29512c89",
            "nama_pse": "PRASETIA ARTHA NIAGA",
            "nama_se": "ELVEN",
            "sektor": "Sektor Perdagangan, Sektor Teknologi Informasi dan Komunikasi",
            "tanggal_terbit": "2023-05-08",
            "url_tdpse_detail": "https://pse.komdigi.go.id/tdpse-detail/14597",
            "website": "elven.co.id"
        },
        {
            "id": "9cb1ac43-128a-4b68-a805-b0e979244b1e",
            "nama_pse": "RADEN RIZKY ADI PRASETYA",
            "nama_se": "PT BERSAMA PRASETYA SEJAHTERA (ELVEN)",
            "sektor": "Sektor Perdagangan, Sektor Teknologi Informasi dan Komunikasi",
            "tanggal_terbit": "2023-05-07",
            "url_tdpse_detail": "https://pse.komdigi.go.id/tdpse-detail/14584",
            "website": "-"
        },
        {
            "id": "9cb1ac43-075b-43ca-af67-727eb7c7c901",
            "nama_pse": "OTAK KREASI INDONESIA",
            "nama_se": "SIMRS DRPREM",
            "sektor": "Sektor Kesehatan",
            "tanggal_terbit": "2023-05-06",
            "url_tdpse_detail": "https://pse.komdigi.go.id/tdpse-detail/14581",
            "website": "-"
        },
        {
            "id": "9cb1ac43-0a33-4f7e-973d-c3e790480c30",
            "nama_pse": "OTAK KREASI INDONESIA",
            "nama_se": "SIM DRPREM",
            "sektor": "Sektor Kesehatan",
            "tanggal_terbit": "2023-05-06",
            "url_tdpse_detail": "https://pse.komdigi.go.id/tdpse-detail/14582",
            "website": "-"
        },
        {
            "id": "9cb1ac42-98cc-4b68-b210-004981ab6404",
            "nama_pse": "ESTETIKA MEDIK PRATAMA",
            "nama_se": "KLINIK SKINCARE",
            "sektor": "Sektor Perdagangan",
            "tanggal_terbit": "2023-05-05",
            "url_tdpse_detail": "https://pse.komdigi.go.id/tdpse-detail/14575",
            "website": "KURSUSESTETIKA.COM"
        },
        {
            "id": "9cb1ac32-d5f4-47b8-bc1f-3ebaa72709dc",
            "nama_pse": "BANK PEMBANGUNAN DAERAH SUMATERA UTARA",
            "nama_se": "SUMUTLINK",
            "sektor": "Sektor Keuangan",
            "tanggal_terbit": "2023-05-05",
            "url_tdpse_detail": "https://pse.komdigi.go.id/tdpse-detail/14572",
            "website": "-"
        },
        {
            "id": "9cb1ac42-c9c2-4050-9484-4195a77b000b",
            "nama_pse": "ARAFAH ANWAR MEDIKA",
            "nama_se": "RUMAH SAKIT ARAFAH ANWAR MEDIKA",
            "sektor": "Sektor Kesehatan",
            "tanggal_terbit": "2023-05-05",
            "url_tdpse_detail": "https://pse.komdigi.go.id/tdpse-detail/14570",
            "website": "-"
        },
        {
            "id": "9cb1ac32-f8ce-4d79-af38-3cea84573459",
            "nama_pse": "NETRAL KONTINENTAL MEDIA",
            "nama_se": "NETRALNEWS.COM",
            "sektor": "Sektor Teknologi Informasi dan Komunikasi",
            "tanggal_terbit": "2023-05-05",
            "url_tdpse_detail": "https://pse.komdigi.go.id/tdpse-detail/14579",
            "website": "netralnews.com"
        },
        {
            "id": "9cb1ac20-d7d9-4c39-95e3-10a80c0fe9c9",
            "nama_pse": "PITA POS INDONESIA",
            "nama_se": "SISTEM PITA POS",
            "sektor": "Sektor Perdagangan, Sektor Teknologi Informasi dan Komunikasi",
            "tanggal_terbit": "2023-05-05",
            "url_tdpse_detail": "https://pse.komdigi.go.id/tdpse-detail/14577",
            "website": "pitapos.com"
        },
        {
            "id": "9cb1ac20-deb0-48d0-b37f-485421c02f3a",
            "nama_pse": "KLINIK SEHAT TEKNOLOGI",
            "nama_se": "KLINIKSEHAT",
            "sektor": "Sektor Kesehatan",
            "tanggal_terbit": "2023-05-05",
            "url_tdpse_detail": "https://pse.komdigi.go.id/tdpse-detail/14573",
            "website": "kliniksehat.id"
        },
        {
            "id": "9cb1ac33-1b76-4fe4-92dc-cbedcc34c5aa",
            "nama_pse": "NETRAL KONTINENTAL MEDIA",
            "nama_se": "NNC",
            "sektor": "Sektor Teknologi Informasi dan Komunikasi",
            "tanggal_terbit": "2023-05-05",
            "url_tdpse_detail": "https://pse.komdigi.go.id/tdpse-detail/14574",
            "website": "-"
        },
        {
            "id": "9cb1ac33-2703-41bb-9321-bea19e822d6c",
            "nama_pse": "SUPERKIOSK TEKNORETAIL INDONESIA",
            "nama_se": "SUPER-KIOSK.COM",
            "sektor": "Sektor Perdagangan",
            "tanggal_terbit": "2023-05-05",
            "url_tdpse_detail": "https://pse.komdigi.go.id/tdpse-detail/14576",
            "website": "super-kiosk.com"
        },
        {
            "id": "9cb1ac33-351e-4f1d-a27c-977cfe156b6d",
            "nama_pse": "KOLOSAL MITRA TERPERCAYA",
            "nama_se": "PT KOLOSAL MITRA TERPERCAYA",
            "sektor": "Sektor Kesehatan",
            "tanggal_terbit": "2023-05-05",
            "url_tdpse_detail": "https://pse.komdigi.go.id/tdpse-detail/18444",
            "website": "komite.co.id"
        },
        {
            "id": "9cb1ac20-e23c-4c3c-8559-79a2e20fda9b",
            "nama_pse": "TEKNOLOGI HANTAR NILAI",
            "nama_se": "KENTARA ERP",
            "sektor": "Sektor Teknologi Informasi dan Komunikasi",
            "tanggal_terbit": "2023-05-05",
            "url_tdpse_detail": "https://pse.komdigi.go.id/tdpse-detail/14578",
            "website": "apps.kentara.io"
        },
        {
            "id": "9cb1ac33-3a1a-4bf5-8abc-cd6cd3ca3469",
            "nama_pse": "KNUT KIENE INDONESIA",
            "nama_se": "CINTALIA.ID",
            "sektor": "Sektor Perdagangan",
            "tanggal_terbit": "2023-05-05",
            "url_tdpse_detail": "https://pse.komdigi.go.id/tdpse-detail/14580",
            "website": "cintalia.id"
        },
        {
            "id": "9cb1ac3f-0075-4aa0-9146-d887ce36c7ed",
            "nama_pse": "SAVE THE CHILDREN INDONESIA",
            "nama_se": "SAVE THE CHILDREN INDONESIA",
            "sektor": "Sektor Teknologi Informasi dan Komunikasi",
            "tanggal_terbit": "2023-05-04",
            "url_tdpse_detail": "https://pse.komdigi.go.id/tdpse-detail/14553",
            "website": "savethechildren.or.id"
        },
        {
            "id": "9cb1ac32-8456-4d22-8029-802c5d48bf8c",
            "nama_pse": "JALIN MAYANTARA INDONESIA",
            "nama_se": "SIAP PPDB ONLINE",
            "sektor": "Sektor Teknologi Informasi dan Komunikasi",
            "tanggal_terbit": "2023-05-04",
            "url_tdpse_detail": "https://pse.komdigi.go.id/tdpse-detail/14549",
            "website": "siap-ppdb.com"
        },
        {
            "id": "9cb1ac20-9f6c-4647-96c3-4ce8f203ec5f",
            "nama_pse": "FORTYTWO HOME INDONESIA",
            "nama_se": "FORTYTWO",
            "sektor": "Sektor Perdagangan",
            "tanggal_terbit": "2023-05-04",
            "url_tdpse_detail": "https://pse.komdigi.go.id/tdpse-detail/14548",
            "website": "fortytwo.id"
        },
        {
            "id": "9cb1ac42-ccdb-4290-8f36-4a3843db24ee",
            "nama_pse": "COLLEGA INTI PRATAMA",
            "nama_se": "LAYANAN DIGITAL COLLEGA",
            "sektor": "Sektor Teknologi Informasi dan Komunikasi",
            "tanggal_terbit": "2023-05-04",
            "url_tdpse_detail": "https://pse.komdigi.go.id/tdpse-detail/14547",
            "website": "collega.co.id"
        },
        {
            "id": "9cb1ac20-b964-4f02-973e-cdcadd66f0dc",
            "nama_pse": "ICONS MEDIA NUSANTARA",
            "nama_se": "IDS DESA",
            "sektor": "Sektor Teknologi Informasi dan Komunikasi",
            "tanggal_terbit": "2023-05-04",
            "url_tdpse_detail": "https://pse.komdigi.go.id/tdpse-detail/14551",
            "website": "ids-desa.centurion.id"
        },
        {
            "id": "9cb1ac32-f21d-49e2-8ab2-35fe451ea3ee",
            "nama_pse": "PEMBAYARAN DANA INOVASI",
            "nama_se": "PT PEMBAYARAN DANA INOVASI",
            "sektor": "Sektor Perdagangan",
            "tanggal_terbit": "2023-05-04",
            "url_tdpse_detail": "https://pse.komdigi.go.id/tdpse-detail/14550",
            "website": "vouchermurah.co.id"
        },
        {
            "id": "9cb1ac42-e562-46dd-b547-3870ddca1ab8",
            "nama_pse": "AKTIVITAS INSANI MADANI",
            "nama_se": "MANRISK.ID",
            "sektor": "Sektor Teknologi Informasi dan Komunikasi",
            "tanggal_terbit": "2023-05-04",
            "url_tdpse_detail": "https://pse.komdigi.go.id/tdpse-detail/14552",
            "website": "manrisk.id"
        },
        {
            "id": "9cb1ac42-ea0a-4518-992c-26b895855737",
            "nama_pse": "ORRATTO TEKNOLOGI INDONESIA",
            "nama_se": "ORRATTO",
            "sektor": "Sektor Perdagangan, Sektor Teknologi Informasi dan Komunikasi",
            "tanggal_terbit": "2023-05-04",
            "url_tdpse_detail": "https://pse.komdigi.go.id/tdpse-detail/14554",
            "website": "orratto.com"
        },
        {
            "id": "9cb1ac32-fd56-4c3e-affd-1ef75a5a5164",
            "nama_pse": "GIG KITA BERSAMA",
            "nama_se": "PROTEKZI360",
            "sektor": "Sektor Teknologi Informasi dan Komunikasi",
            "tanggal_terbit": "2023-05-04",
            "url_tdpse_detail": "https://pse.komdigi.go.id/tdpse-detail/14555",
            "website": "protekzi360.com"
        },
        {
            "id": "9cb1ac20-c7ad-4997-887d-e12b7a82eeb1",
            "nama_pse": "SHOPINGKU TEKNOLOGI INDONESIA",
            "nama_se": "SHOPINGKU",
            "sektor": "Sektor Perdagangan",
            "tanggal_terbit": "2023-05-04",
            "url_tdpse_detail": "https://pse.komdigi.go.id/tdpse-detail/14556",
            "website": "shopingku.co.id"
        },
        {
            "id": "9cb1ac20-caf3-4957-9eb5-9c165c446f62",
            "nama_pse": "PONDASI BISNIS INDONESIA",
            "nama_se": "POBI.MY.ID",
            "sektor": "Sektor Perdagangan, Sektor Teknologi Informasi dan Komunikasi",
            "tanggal_terbit": "2023-05-04",
            "url_tdpse_detail": "https://pse.komdigi.go.id/tdpse-detail/14557",
            "website": "pobi.my.id"
        },
        {
            "id": "9cb1ac31-3fa6-45db-bccd-a27e942c2550",
            "nama_pse": "AIR MAS PERKASA",
            "nama_se": "AYOOMALL.COM",
            "sektor": "Sektor Perdagangan, Sektor Teknologi Informasi dan Komunikasi",
            "tanggal_terbit": "2023-05-03",
            "url_tdpse_detail": "https://pse.komdigi.go.id/tdpse-detail/14535",
            "website": "ayoomall.com"
        },
        {
            "id": "9cb1ac32-036d-42d1-b446-8cb8bfe53853",
            "nama_pse": "BISA ASAL MAU",
            "nama_se": "CASHBOX",
            "sektor": "Sektor Perdagangan",
            "tanggal_terbit": "2023-05-03",
            "url_tdpse_detail": "https://pse.komdigi.go.id/tdpse-detail/14530",
            "website": "cashbox.live"
        },
        {
            "id": "9cb1ac42-33d1-4981-af0a-92c3585264ed",
            "nama_pse": "CIPTA KREASI BISNIS",
            "nama_se": "OMAKLON",
            "sektor": "Sektor Teknologi Informasi dan Komunikasi",
            "tanggal_terbit": "2023-05-03",
            "url_tdpse_detail": "https://pse.komdigi.go.id/tdpse-detail/14521",
            "website": "omaklon.com"
        },
        {
            "id": "9cb1ac20-94ad-4560-b57b-29a95920deb7",
            "nama_pse": "MANDIRI TUNAS FINANCE",
            "nama_se": "ONEPERWIRA VPN MTF",
            "sektor": "Sektor Keuangan",
            "tanggal_terbit": "2023-05-03",
            "url_tdpse_detail": "https://pse.komdigi.go.id/tdpse-detail/14527",
            "website": "oneperwira.mtf.co.id"
        },
        {
            "id": "9cb1ac42-b252-4a47-a698-f3385392a89b",
            "nama_pse": "IDFY TECHNOLOGIES INDONESIA",
            "nama_se": "IDFY",
            "sektor": "Sektor Teknologi Informasi dan Komunikasi",
            "tanggal_terbit": "2023-05-03",
            "url_tdpse_detail": "https://pse.komdigi.go.id/tdpse-detail/14531",
            "website": "id.idfy.com"
        },
        {
            "id": "9cb1ac20-aa55-47b2-878d-f24aced1f6b1",
            "nama_pse": "MUNAWAR",
            "nama_se": "INDO-JEK",
            "sektor": "Sektor Perdagangan",
            "tanggal_terbit": "2023-05-03",
            "url_tdpse_detail": "https://pse.komdigi.go.id/tdpse-detail/14525",
            "website": "ind-jek.com"
        },
        {
            "id": "9cb1ac42-c427-4ba1-a7cb-dff7c3b9b8f2",
            "nama_pse": "VIKTOR SITOHANG",
            "nama_se": "VISION JEK",
            "sektor": "Sektor Transportasi, Sektor Teknologi Informasi dan Komunikasi",
            "tanggal_terbit": "2023-05-03",
            "url_tdpse_detail": "https://pse.komdigi.go.id/tdpse-detail/14528",
            "website": "-"
        },
        {
            "id": "9cb1ac20-b32a-4568-ab18-72ee79f6543b",
            "nama_pse": "CIPTA MEDIKA INFORMASI",
            "nama_se": "APLIKASI PRIMAKU",
            "sektor": "Sektor Perdagangan, Sektor Kesehatan",
            "tanggal_terbit": "2023-05-03",
            "url_tdpse_detail": "https://pse.komdigi.go.id/tdpse-detail/14529",
            "website": "primaku.com"
        },
        {
            "id": "9cb1ac32-d963-4486-8e15-37ae1ecd1c5f",
            "nama_pse": "SAMSUNG ELECTRONICS INDONESIA",
            "nama_se": "GALAXYWEARABLE",
            "sektor": "Sektor Teknologi Informasi dan Komunikasi",
            "tanggal_terbit": "2023-05-03",
            "url_tdpse_detail": "https://pse.komdigi.go.id/tdpse-detail/14532",
            "website": "-"
        },
        {
            "id": "9cb1ac42-c6e0-42e3-820c-added5ac0d70",
            "nama_pse": "ALDIAN PUTRA WIJAYA",
            "nama_se": "ASHA",
            "sektor": "Sektor Kesehatan",
            "tanggal_terbit": "2023-05-03",
            "url_tdpse_detail": "https://pse.komdigi.go.id/tdpse-detail/14533",
            "website": "rsbun.co.id"
        },
        {
            "id": "9cb1ac32-dcd1-4c49-971a-ffbf6477cb1c",
            "nama_pse": "SCSK GLOBAL INDONESIA",
            "nama_se": "CELF",
            "sektor": "Sektor Teknologi Informasi dan Komunikasi",
            "tanggal_terbit": "2023-05-03",
            "url_tdpse_detail": "https://pse.komdigi.go.id/tdpse-detail/14534",
            "website": "celf.scskidn.com"
        },
        {
            "id": "9cb1ac32-e0ab-4cba-bf91-71eee4103c44",
            "nama_pse": "BUSINESS TRACKS FOR TRADING",
            "nama_se": "SUPPLY PLUS",
            "sektor": "Sektor Perdagangan",
            "tanggal_terbit": "2023-05-03",
            "url_tdpse_detail": "https://pse.komdigi.go.id/tdpse-detail/14536",
            "website": "supplyplus.app"
        },
        {
            "id": "9cb1ac32-e46f-4d8b-b38a-670da064c927",
            "nama_pse": "TENANG UNTUK DUNIA",
            "nama_se": "TENANG",
            "sektor": "Sektor Perdagangan, Sektor Kesehatan, Sektor Teknologi Informasi dan Komunikasi",
            "tanggal_terbit": "2023-05-03",
            "url_tdpse_detail": "https://pse.komdigi.go.id/tdpse-detail/14537",
            "website": "tenangaja.co.id"
        },
        {
            "id": "9cb1ac31-733e-4bde-bd9a-6c8c2040445f",
            "nama_pse": "VALDO SUMBER DAYA MANDIRI",
            "nama_se": "AKU MAJU",
            "sektor": "Sektor Teknologi Informasi dan Komunikasi",
            "tanggal_terbit": "2023-05-02",
            "url_tdpse_detail": "https://pse.komdigi.go.id/tdpse-detail/14519",
            "website": "akumaju.com"
        },
        {
            "id": "9cb1ac20-337f-4bfe-89e4-3e791eded0c6",
            "nama_pse": "RUMAH SAKIT ANWAR MEDIKA",
            "nama_se": "E-HOS SYSTEM RSU ANWAR MEDIKA",
            "sektor": "Sektor Kesehatan",
            "tanggal_terbit": "2023-05-02",
            "url_tdpse_detail": "https://pse.komdigi.go.id/tdpse-detail/14510",
            "website": "ehos.rsanwarmedika.com"
        },
        {
            "id": "9cb1ac42-879a-4be1-82ed-81a44a572406",
            "nama_pse": "SINAR MITRA SEPADAN FINANCE",
            "nama_se": "PT SINAR MITRA SEPADAN FINANCE",
            "sektor": "Sektor Keuangan",
            "tanggal_terbit": "2023-05-02",
            "url_tdpse_detail": "https://pse.komdigi.go.id/tdpse-detail/14514",
            "website": "-"
        },
        {
            "id": "9cb1ac32-9604-4e78-aa51-0873525028a9",
            "nama_pse": "SINAR MITRA SEPADAN FINANCE",
            "nama_se": "APLIKASI PRODUK PT SINAR MITRA SEPADAN FINANCE",
            "sektor": "Sektor Keuangan",
            "tanggal_terbit": "2023-05-02",
            "url_tdpse_detail": "https://pse.komdigi.go.id/tdpse-detail/14515",
            "website": "-"
        },
        {
            "id": "9cb1ac20-8a05-4c48-b305-b26f4d228568",
            "nama_pse": "MANDIRI TUNAS FINANCE",
            "nama_se": "MTF MOBILE",
            "sektor": "Sektor Keuangan",
            "tanggal_terbit": "2023-05-02",
            "url_tdpse_detail": "https://pse.komdigi.go.id/tdpse-detail/14516",
            "website": "-"
        },
        {
            "id": "9cb1ac42-a26c-4ebc-9a75-4fe82a7940c2",
            "nama_pse": "PRACTICUM INDONESIA CANGGIH",
            "nama_se": "PRACTICUM INDONESIA CANGGIH",
            "sektor": "Sektor Teknologi Informasi dan Komunikasi",
            "tanggal_terbit": "2023-05-02",
            "url_tdpse_detail": "https://pse.komdigi.go.id/tdpse-detail/14511",
            "website": "tripleten.com"
        },
        {
            "id": "9cb1ac32-b6fd-4199-8ac8-87c780e74eb4",
            "nama_pse": "SAUMATA TEKNOSAINS GLOBAL",
            "nama_se": "PASAR SAUMATA",
            "sektor": "Sektor Perdagangan, Sektor Teknologi Informasi dan Komunikasi",
            "tanggal_terbit": "2023-05-02",
            "url_tdpse_detail": "https://pse.komdigi.go.id/tdpse-detail/14512",
            "website": "pasarsaumata.com"
        },
        {
            "id": "9cb1ac20-a37f-4c5b-b1c9-d324963c345b",
            "nama_pse": "INDONESIAN CLOUD",
            "nama_se": "INDONESIAN CLOUD",
            "sektor": "Sektor Teknologi Informasi dan Komunikasi",
            "tanggal_terbit": "2023-05-02",
            "url_tdpse_detail": "https://pse.komdigi.go.id/tdpse-detail/14513",
            "website": "indonesiancloud.com"
        }
    ],
    "processingTimeMs": 3,
    "query": "",
    "totalHits": 19131,
    "hitsPerPage": 50,
    "page": 142,
    "totalPages": 383
}