{
    "hits": [
        {
            "id": "9cb1ac0d-1101-4f2c-97c5-64718e7e15e4",
            "nama_pse": "GLOBAL MILENIAL MULTIMEDIA",
            "nama_se": "GMM.ID",
            "sektor": "Sektor Teknologi Informasi dan Komunikasi",
            "tanggal_terbit": "2022-08-19",
            "url_tdpse_detail": "https://pse.komdigi.go.id/tdpse-detail/10594",
            "website": "gmm.id"
        },
        {
            "id": "9cb1abfe-38b9-409c-801d-fe09fa309302",
            "nama_pse": "SCHAEFFLER BEARINGS INDONESIA",
            "nama_se": "OPTIME",
            "sektor": "Sektor Teknologi Informasi dan Komunikasi",
            "tanggal_terbit": "2022-08-19",
            "url_tdpse_detail": "https://pse.komdigi.go.id/tdpse-detail/10598",
            "website": "-"
        },
        {
            "id": "9cb1abd8-619f-4ecb-a715-52cb228f406e",
            "nama_pse": "NUSANTARA EKSPRES KILAT",
            "nama_se": "SPX TRACKING WEBSITE",
            "sektor": "Sektor Transportasi",
            "tanggal_terbit": "2022-08-19",
            "url_tdpse_detail": "https://pse.komdigi.go.id/tdpse-detail/10614",
            "website": "spx.co.id"
        },
        {
            "id": "9cb1abd8-6551-4819-954c-ed79a5fb2775",
            "nama_pse": "ANUGRAH EKSTRAVISI RAYA",
            "nama_se": "AER OFFICIAL STORE",
            "sektor": "Sektor Perdagangan",
            "tanggal_terbit": "2022-08-19",
            "url_tdpse_detail": "https://pse.komdigi.go.id/tdpse-detail/10595",
            "website": "aer.co.id"
        },
        {
            "id": "9cb1abd8-6886-4112-bee1-a5a49b6f9039",
            "nama_pse": "ANTAR SURYA MEDIA",
            "nama_se": "SURYA.CO.ID",
            "sektor": "Sektor Teknologi Informasi dan Komunikasi",
            "tanggal_terbit": "2022-08-19",
            "url_tdpse_detail": "https://pse.komdigi.go.id/tdpse-detail/10596",
            "website": "surya.co.id"
        },
        {
            "id": "9cb1abfe-3bf8-4931-87a5-e389664ecd05",
            "nama_pse": "GILLAND GANESHA",
            "nama_se": "EDUNITAS.COM",
            "sektor": "Sektor Perdagangan",
            "tanggal_terbit": "2022-08-19",
            "url_tdpse_detail": "https://pse.komdigi.go.id/tdpse-detail/10597",
            "website": "edunitas.com"
        },
        {
            "id": "9cb1abfe-3f8c-49e7-b56a-acf861888f8d",
            "nama_pse": "MITRA MULTIDIMENSI SEJAHTERA",
            "nama_se": "MOBILE APPS SIAPCAIR",
            "sektor": "Sektor Keuangan",
            "tanggal_terbit": "2022-08-19",
            "url_tdpse_detail": "https://pse.komdigi.go.id/tdpse-detail/10599",
            "website": "siapcair.com"
        },
        {
            "id": "9cb1ac0d-1595-453d-a107-7cc7ef406c8b",
            "nama_pse": "GRAFIKA WANGI KALIMANTAN",
            "nama_se": "BANJARMASINPOST.CO.ID",
            "sektor": "Sektor Teknologi Informasi dan Komunikasi",
            "tanggal_terbit": "2022-08-19",
            "url_tdpse_detail": "https://pse.komdigi.go.id/tdpse-detail/10600",
            "website": "banjarmasinpost.co.id"
        },
        {
            "id": "9cb1abfe-42a2-4614-81f2-7cf53b7b9549",
            "nama_pse": "SRIWIJAYA PERDANA",
            "nama_se": "SRIPOKU.COM",
            "sektor": "Sektor Teknologi Informasi dan Komunikasi",
            "tanggal_terbit": "2022-08-19",
            "url_tdpse_detail": "https://pse.komdigi.go.id/tdpse-detail/10601",
            "website": "sripoku.com"
        },
        {
            "id": "9cb1abfe-45de-4559-9250-c8acee6146b7",
            "nama_pse": "SELEKTA MEDIA MAHAKARYA",
            "nama_se": "SELEKTIFNEWS | WWW.SELEKTIFNEWS.COM",
            "sektor": "Sektor Teknologi Informasi dan Komunikasi",
            "tanggal_terbit": "2022-08-19",
            "url_tdpse_detail": "https://pse.komdigi.go.id/tdpse-detail/10602",
            "website": "-"
        },
        {
            "id": "9cb1abd8-6d65-43f8-8fd2-38b78cead532",
            "nama_pse": "TRIBUN MEDIA GRAFIKA",
            "nama_se": "TRIBUNBATAM.ID",
            "sektor": "Sektor Teknologi Informasi dan Komunikasi",
            "tanggal_terbit": "2022-08-19",
            "url_tdpse_detail": "https://pse.komdigi.go.id/tdpse-detail/10605",
            "website": "tribunbatam.id"
        },
        {
            "id": "9cb1ac0d-18a2-45d2-84eb-de75111d1d0d",
            "nama_pse": "ARTHA DANA MANDIRI",
            "nama_se": "INDONESIA RISK EXCHANGE",
            "sektor": "Sektor Keuangan",
            "tanggal_terbit": "2022-08-19",
            "url_tdpse_detail": "https://pse.komdigi.go.id/tdpse-detail/10606",
            "website": "IDRX.ID"
        },
        {
            "id": "9cb1ac0d-1b63-48fa-9295-92cdd1ab3fca",
            "nama_pse": "MAHAKAM MEDIA GRAFIKA",
            "nama_se": "TRIBUNKALTIM.CO",
            "sektor": "Sektor Teknologi Informasi dan Komunikasi",
            "tanggal_terbit": "2022-08-19",
            "url_tdpse_detail": "https://pse.komdigi.go.id/tdpse-detail/10608",
            "website": "kaltim.tribunnews.com"
        },
        {
            "id": "9cb1abd8-753d-48bc-b49a-48d7a2a83f84",
            "nama_pse": "HARIAN TRIBUN MEDAN",
            "nama_se": "TRIBUN-MEDAN.COM",
            "sektor": "Sektor Teknologi Informasi dan Komunikasi",
            "tanggal_terbit": "2022-08-19",
            "url_tdpse_detail": "https://pse.komdigi.go.id/tdpse-detail/10609",
            "website": "tribun-medan.com"
        },
        {
            "id": "9cb1abfe-4d9f-4946-99a7-bb2871d7f5aa",
            "nama_pse": "BOSOWA MEDIA GRAFIKA",
            "nama_se": "TRIBUN-TIMUR.COM",
            "sektor": "Sektor Teknologi Informasi dan Komunikasi",
            "tanggal_terbit": "2022-08-19",
            "url_tdpse_detail": "https://pse.komdigi.go.id/tdpse-detail/10611",
            "website": "tribun-timur.com"
        },
        {
            "id": "9cb1ac0d-1e4c-4b6d-9776-eb4f112736e2",
            "nama_pse": "ANTAR SURYA MEDIA",
            "nama_se": "SURYAMALANG.COM",
            "sektor": "Sektor Teknologi Informasi dan Komunikasi",
            "tanggal_terbit": "2022-08-19",
            "url_tdpse_detail": "https://pse.komdigi.go.id/tdpse-detail/10612",
            "website": "suryamalang.com"
        },
        {
            "id": "9cb1abfe-50a4-4e7e-ad41-2f362657d40b",
            "nama_pse": "TRIBUN DIGITAL SULTENG",
            "nama_se": "TRIBUNPALU.COM",
            "sektor": "Sektor Teknologi Informasi dan Komunikasi",
            "tanggal_terbit": "2022-08-19",
            "url_tdpse_detail": "https://pse.komdigi.go.id/tdpse-detail/10613",
            "website": "tribunpalu.com"
        },
        {
            "id": "9cb1ac0d-2481-412e-a5fe-354d32bab6f5",
            "nama_pse": "TRIBUN DIGITAL LOMBOK",
            "nama_se": "TRIBUNMATARAM.COM",
            "sektor": "Sektor Teknologi Informasi dan Komunikasi",
            "tanggal_terbit": "2022-08-19",
            "url_tdpse_detail": "https://pse.komdigi.go.id/tdpse-detail/10615",
            "website": "tribunmataram.coM"
        },
        {
            "id": "9cb1ac0d-2832-490f-9b62-0865e7771eb3",
            "nama_pse": "SUTINDO RAYA MULIA",
            "nama_se": "SUTINDO OFFICIAL STORE",
            "sektor": "Sektor Perdagangan",
            "tanggal_terbit": "2022-08-19",
            "url_tdpse_detail": "https://pse.komdigi.go.id/tdpse-detail/10617",
            "website": "store.sutindo.com"
        },
        {
            "id": "9cb1ac0d-2b44-402b-8a00-0b05f365a5d4",
            "nama_pse": "APLIKASI DODOLANS INDONESIA",
            "nama_se": "APLIKASI DODOLANS",
            "sektor": "Sektor Perdagangan, Sektor Transportasi",
            "tanggal_terbit": "2022-08-19",
            "url_tdpse_detail": "https://pse.komdigi.go.id/tdpse-detail/10616",
            "website": "-"
        },
        {
            "id": "9cb1abd8-78f1-4674-bb66-d212499645b0",
            "nama_pse": "BANK PEMBIAYAAN RAKYAT SYARIAH SYARIKAT MADANI",
            "nama_se": "ISLAMIC BANKING APLICATION",
            "sektor": "Sektor Keuangan",
            "tanggal_terbit": "2022-08-19",
            "url_tdpse_detail": "https://pse.komdigi.go.id/tdpse-detail/10618",
            "website": "bprsmadani.com"
        },
        {
            "id": "9cb1abfc-e06b-4f0f-883e-7c923ed1aa53",
            "nama_pse": "BANK PEMBANGUNAN DAERAH SUMATERA SELATAN DAN BANGKA BELITUNG",
            "nama_se": "LAYANAN BOS NONTUNAI",
            "sektor": "Sektor Keuangan",
            "tanggal_terbit": "2022-08-18",
            "url_tdpse_detail": "https://pse.komdigi.go.id/tdpse-detail/10345",
            "website": "banksumselbabel.com"
        },
        {
            "id": "9cb1abfd-3f9f-4ff8-bdd6-2ff4dae29078",
            "nama_pse": "KAPAN LAGI DOT COM NETWORKS",
            "nama_se": "WWW.OTOASIA.COM",
            "sektor": "Sektor Teknologi Informasi dan Komunikasi",
            "tanggal_terbit": "2022-08-18",
            "url_tdpse_detail": "https://pse.komdigi.go.id/tdpse-detail/10387",
            "website": "otoasia.com"
        },
        {
            "id": "9cb1abd7-3bf0-4d8f-8900-63f412701c05",
            "nama_pse": "KAPAN LAGI DOT COM NETWORKS",
            "nama_se": "WWW.MERDEKA.COM",
            "sektor": "Sektor Teknologi Informasi dan Komunikasi",
            "tanggal_terbit": "2022-08-18",
            "url_tdpse_detail": "https://pse.komdigi.go.id/tdpse-detail/10388",
            "website": "merdeka.com"
        },
        {
            "id": "9cb1ac0b-ffab-43b1-b3af-fa27efa3f21d",
            "nama_pse": "KAPAN LAGI DOT COM NETWORKS",
            "nama_se": "WWW.FIMELA.COM",
            "sektor": "Sektor Teknologi Informasi dan Komunikasi",
            "tanggal_terbit": "2022-08-18",
            "url_tdpse_detail": "https://pse.komdigi.go.id/tdpse-detail/10386",
            "website": "fimela.com"
        },
        {
            "id": "9cb1abfd-426c-4a57-8ca2-b7b1d13f3e61",
            "nama_pse": "BANK PEMBANGUNAN DAERAH SUMATERA SELATAN DAN BANGKA BELITUNG",
            "nama_se": "LAYANAN DEVELOPMENT BSBCALL",
            "sektor": "Sektor Keuangan",
            "tanggal_terbit": "2022-08-18",
            "url_tdpse_detail": "https://pse.komdigi.go.id/tdpse-detail/10384",
            "website": "banksumselbabel.com"
        },
        {
            "id": "9cb1ac0c-5a5f-4b09-9b96-32ab64ea8efa",
            "nama_pse": "PERUSAHAAN PERSEROAN (PERSERO) PT. PELAYARAN NASIONAL INDONESIA",
            "nama_se": "SITUS RESMI PT PELAYARAN NASIONAL INDONESIA (PERSERO)",
            "sektor": "Sektor Transportasi",
            "tanggal_terbit": "2022-08-18",
            "url_tdpse_detail": "https://pse.komdigi.go.id/tdpse-detail/10441",
            "website": "pelni.co.id"
        },
        {
            "id": "9cb1abfd-7ee5-42f2-aa7f-04bba45cfc17",
            "nama_pse": "MASS RAPID TRANSIT JAKARTA PERSERODA",
            "nama_se": "WEBSITE MRT JAKARTA",
            "sektor": "Sektor Transportasi",
            "tanggal_terbit": "2022-08-18",
            "url_tdpse_detail": "https://pse.komdigi.go.id/tdpse-detail/10482",
            "website": "jakartamrt.co.id"
        },
        {
            "id": "9cb1ac0c-7456-4e7f-94d9-f055121fc126",
            "nama_pse": "MASS RAPID TRANSIT JAKARTA PERSERODA",
            "nama_se": "WEBSITE UBAHJAKARTA",
            "sektor": "Sektor Transportasi",
            "tanggal_terbit": "2022-08-18",
            "url_tdpse_detail": "https://pse.komdigi.go.id/tdpse-detail/10481",
            "website": "ubahjakarta.com"
        },
        {
            "id": "9cb1abd7-c5af-4fad-887c-012dc386e4ea",
            "nama_pse": "MOBILITAS DIGITAL INDONESIA",
            "nama_se": "MOVIC.ID",
            "sektor": "Sektor Perdagangan",
            "tanggal_terbit": "2022-08-18",
            "url_tdpse_detail": "https://pse.komdigi.go.id/tdpse-detail/10474",
            "website": "movic.id"
        },
        {
            "id": "9cb1abfd-9c53-42fc-af77-0da0c0a4c9d0",
            "nama_pse": "GLOBAL CHEMINDO MEGATRADING",
            "nama_se": "GLOB",
            "sektor": "Sektor Perdagangan",
            "tanggal_terbit": "2022-08-18",
            "url_tdpse_detail": "https://pse.komdigi.go.id/tdpse-detail/10465",
            "website": "glob.co.id"
        },
        {
            "id": "9cb1ac0c-7a36-44d3-a4af-cfdaa2071298",
            "nama_pse": "BANK PEMBIAYAAN RAKYAT SYARIAH RAHMAH HIJRAH AGUNG",
            "nama_se": "ALTERNATE APPS",
            "sektor": "Sektor Keuangan",
            "tanggal_terbit": "2022-08-18",
            "url_tdpse_detail": "https://pse.komdigi.go.id/tdpse-detail/10466",
            "website": "bprsrahmah.com"
        },
        {
            "id": "9cb1abfd-a05c-4e6f-8902-380f8f2652bb",
            "nama_pse": "PAIB INDONESIA",
            "nama_se": "PAIB.,CO.ID",
            "sektor": "Sektor Keuangan",
            "tanggal_terbit": "2022-08-18",
            "url_tdpse_detail": "https://pse.komdigi.go.id/tdpse-detail/10467",
            "website": "PAIB.CO.ID"
        },
        {
            "id": "9cb1ac0c-7d2e-4040-9fd3-43cc9f8ab68d",
            "nama_pse": "PAIB INDONESIA",
            "nama_se": "RUMAHPOLIS.COM",
            "sektor": "Sektor Keuangan",
            "tanggal_terbit": "2022-08-18",
            "url_tdpse_detail": "https://pse.komdigi.go.id/tdpse-detail/10468",
            "website": "RUMAHPOLIS.COM"
        },
        {
            "id": "9cb1abd7-c8d3-40e0-829f-d2d4cc8b207e",
            "nama_pse": "SATULINK LINTAS INDONESIA",
            "nama_se": "MATERAI.ID",
            "sektor": "Sektor Teknologi Informasi dan Komunikasi",
            "tanggal_terbit": "2022-08-18",
            "url_tdpse_detail": "https://pse.komdigi.go.id/tdpse-detail/10469",
            "website": "materai.id"
        },
        {
            "id": "9cb1abd7-cc86-483c-9cd3-0b2992b73acf",
            "nama_pse": "MASS RAPID TRANSIT JAKARTA PERSERODA",
            "nama_se": "MOBILE APPS MRTJ",
            "sektor": "Sektor Transportasi",
            "tanggal_terbit": "2022-08-18",
            "url_tdpse_detail": "https://pse.komdigi.go.id/tdpse-detail/10477",
            "website": "mrtjakarta.co.id"
        },
        {
            "id": "9cb1ac0c-8028-439d-a584-ef8783fe4418",
            "nama_pse": "BANK PEMBIAYAAN RAKYAT SYARIAH ATTAQWA",
            "nama_se": "APLIKASI IBANK",
            "sektor": "Sektor Perdagangan, Sektor Keuangan",
            "tanggal_terbit": "2022-08-18",
            "url_tdpse_detail": "https://pse.komdigi.go.id/tdpse-detail/10470",
            "website": "iBank.co.id"
        },
        {
            "id": "9cb1ac0c-8327-41c1-86b1-0ecf085bcb02",
            "nama_pse": "BANK PEMBIAYAAN RAKYAT SYARIAH FORMES",
            "nama_se": "BPRS FORMES",
            "sektor": "Sektor Keuangan",
            "tanggal_terbit": "2022-08-18",
            "url_tdpse_detail": "https://pse.komdigi.go.id/tdpse-detail/10471",
            "website": "-"
        },
        {
            "id": "9cb1abfd-a5dd-4cd0-a51b-cee354a2d648",
            "nama_pse": "BANK PERKREDITAN RAKYAT MITRA DANA UTAMA",
            "nama_se": "BANK PERKREDITAN RAKYAT MITRA DANA UTAMA",
            "sektor": "Sektor Keuangan",
            "tanggal_terbit": "2022-08-18",
            "url_tdpse_detail": "https://pse.komdigi.go.id/tdpse-detail/10472",
            "website": "-"
        },
        {
            "id": "9cb1ac0c-864a-45e7-8f85-eb979299449a",
            "nama_pse": "BERKAH USAHA DANIEL",
            "nama_se": "WEBSITE \u0026 APLIKASI IATEK UNSRI",
            "sektor": "Sektor Perdagangan, Sektor Teknologi Informasi dan Komunikasi",
            "tanggal_terbit": "2022-08-18",
            "url_tdpse_detail": "https://pse.komdigi.go.id/tdpse-detail/10473",
            "website": "iatekunsri.com"
        },
        {
            "id": "9cb1abd7-d105-4aac-adac-c31c77844b92",
            "nama_pse": "ABADI SEJAHTERA FINANSINDO",
            "nama_se": "SINGA",
            "sektor": "Sektor Keuangan",
            "tanggal_terbit": "2022-08-18",
            "url_tdpse_detail": "https://pse.komdigi.go.id/tdpse-detail/10475",
            "website": "singa.id"
        },
        {
            "id": "9cb1abfd-a9f7-4a93-a396-a64476c2ced6",
            "nama_pse": "MASS RAPID TRANSIT JAKARTA PERSERODA",
            "nama_se": "DINA",
            "sektor": "Sektor Transportasi",
            "tanggal_terbit": "2022-08-18",
            "url_tdpse_detail": "https://pse.komdigi.go.id/tdpse-detail/10478",
            "website": "textphone.jakartamrt.co.id"
        },
        {
            "id": "9cb1ac0c-895d-452e-85b4-c1b6e9111fca",
            "nama_pse": "BANK PEMBIAYAAN RAKYAT SYARIAH MUAMALAH CILEGON",
            "nama_se": "ISLAMIC BANKING APPLICATION (IBA)",
            "sektor": "Sektor Keuangan",
            "tanggal_terbit": "2022-08-18",
            "url_tdpse_detail": "https://pse.komdigi.go.id/tdpse-detail/10476",
            "website": "-"
        },
        {
            "id": "9cb1ac0c-8c34-4425-9ebc-0f61a24ab8ef",
            "nama_pse": "ANUGERAH TETAP ABADI",
            "nama_se": "GRASS",
            "sektor": "Sektor Perdagangan",
            "tanggal_terbit": "2022-08-18",
            "url_tdpse_detail": "https://pse.komdigi.go.id/tdpse-detail/10479",
            "website": "grass.atacorp.id"
        },
        {
            "id": "9cb1abfd-ad9a-48d8-a803-27f9dcda8ace",
            "nama_pse": "DELMAN DATA TEKNOLOGI",
            "nama_se": "DELMAN DATA LAB",
            "sektor": "Sektor Teknologi Informasi dan Komunikasi",
            "tanggal_terbit": "2022-08-18",
            "url_tdpse_detail": "https://pse.komdigi.go.id/tdpse-detail/10480",
            "website": "cloud.delman.io"
        },
        {
            "id": "9cb1abfd-b144-4bc0-be80-673798db2718",
            "nama_pse": "ANUGERAH TETAP ABADI",
            "nama_se": "RETROSS",
            "sektor": "Sektor Perdagangan",
            "tanggal_terbit": "2022-08-18",
            "url_tdpse_detail": "https://pse.komdigi.go.id/tdpse-detail/10483",
            "website": "retross.com"
        },
        {
            "id": "9cb1ac0c-8f2b-4c45-95d5-670221df159d",
            "nama_pse": "ASURANSI KERUGIAN JASA RAHARJA",
            "nama_se": "JRKU",
            "sektor": "Sektor Keuangan",
            "tanggal_terbit": "2022-08-18",
            "url_tdpse_detail": "https://pse.komdigi.go.id/tdpse-detail/10484",
            "website": "jrku.jasaraharja.co.id"
        },
        {
            "id": "9cb1abd7-d6ac-489e-a65c-98c732d6ec7c",
            "nama_pse": "ASURANSI KERUGIAN JASA RAHARJA",
            "nama_se": "CORPORATE WEBSITE",
            "sektor": "Sektor Keuangan",
            "tanggal_terbit": "2022-08-18",
            "url_tdpse_detail": "https://pse.komdigi.go.id/tdpse-detail/10485",
            "website": "jasaraharja.co.id"
        },
        {
            "id": "9cb1ac0c-9c9b-4eed-b810-267ae29a804e",
            "nama_pse": "ASURANSI KERUGIAN JASA RAHARJA",
            "nama_se": "E-PROCUREMENT",
            "sektor": "Sektor Keuangan",
            "tanggal_terbit": "2022-08-18",
            "url_tdpse_detail": "https://pse.komdigi.go.id/tdpse-detail/10486",
            "website": "eprocurement.jasaraharja.co.id"
        },
        {
            "id": "9cb1ac0c-aa6e-4aab-be7c-fc087bde730b",
            "nama_pse": "BANK PEMBANGUNAN DAERAH SUMATERA SELATAN DAN BANGKA BELITUNG",
            "nama_se": "LAYANAN BSBPRO",
            "sektor": "Sektor Keuangan",
            "tanggal_terbit": "2022-08-18",
            "url_tdpse_detail": "https://pse.komdigi.go.id/tdpse-detail/10487",
            "website": "banksumselbabel.com"
        }
    ],
    "processingTimeMs": 4,
    "query": "",
    "totalHits": 19121,
    "hitsPerPage": 50,
    "page": 195,
    "totalPages": 383
}