{
    "hits": [
        {
            "id": "9cb1abb0-01dc-4dec-8a7e-3c14f2eb504f",
            "nama_pse": "PERUSAHAAN PERSEROAN (PERSERO) PT. BANK RAKYAT INDONESIA",
            "nama_se": "BRICARD",
            "sektor": "Sektor Keuangan",
            "tanggal_terbit": "2022-07-13",
            "url_tdpse_detail": "https://pse.komdigi.go.id/tdpse-detail/5435",
            "website": "bricard.bri.co.id"
        },
        {
            "id": "9cb1abb0-0453-4ffb-85e6-cf085297a6d0",
            "nama_pse": "HALO BELANJA DOTCOM",
            "nama_se": "HALO BELANJA",
            "sektor": "Sektor Teknologi Informasi dan Komunikasi",
            "tanggal_terbit": "2022-07-13",
            "url_tdpse_detail": "https://pse.komdigi.go.id/tdpse-detail/5436",
            "website": "halobelanja.com"
        },
        {
            "id": "9cb1abb0-0699-45c3-9ae5-9825fa4a292d",
            "nama_pse": "ALIRAN SUMBER BERKAT",
            "nama_se": "WAHYOO",
            "sektor": "Sektor Perdagangan",
            "tanggal_terbit": "2022-07-13",
            "url_tdpse_detail": "https://pse.komdigi.go.id/tdpse-detail/5439",
            "website": "-"
        },
        {
            "id": "9cb1abb0-0925-47bf-85b6-a32e94dec310",
            "nama_pse": "PERUSAHAAN PERSEROAN (PERSERO) PT. BANK RAKYAT INDONESIA",
            "nama_se": "NELAYAN SEJAHTERA",
            "sektor": "Sektor Teknologi Informasi dan Komunikasi",
            "tanggal_terbit": "2022-07-13",
            "url_tdpse_detail": "https://pse.komdigi.go.id/tdpse-detail/5438",
            "website": "nelayansejahtera.bri.co.id"
        },
        {
            "id": "9cb1ab9b-6887-48fa-907e-b0872c8fb353",
            "nama_pse": "HALO BELANJA DOTCOM",
            "nama_se": "HALOBELANJADOTCOM",
            "sektor": "Sektor Teknologi Informasi dan Komunikasi",
            "tanggal_terbit": "2022-07-13",
            "url_tdpse_detail": "https://pse.komdigi.go.id/tdpse-detail/5441",
            "website": "halobelanja.com"
        },
        {
            "id": "9cb1aba6-3a91-4e4e-bf0a-36e54614d8ad",
            "nama_pse": "ASURANSI JIWA INHEALTH INDONESIA",
            "nama_se": "SIMO",
            "sektor": "Sektor Kesehatan",
            "tanggal_terbit": "2022-07-13",
            "url_tdpse_detail": "https://pse.komdigi.go.id/tdpse-detail/5442",
            "website": "simo.inhealth.co.id"
        },
        {
            "id": "9cb1aba6-3c4d-4d4d-9a61-f97b8fd875c2",
            "nama_pse": "PERUSAHAAN PERSEROAN (PERSERO) PT. BANK RAKYAT INDONESIA",
            "nama_se": "SINPI (SISTEM INFORMASI PERTANIAN INDONESIA)",
            "sektor": "Sektor Keuangan",
            "tanggal_terbit": "2022-07-13",
            "url_tdpse_detail": "https://pse.komdigi.go.id/tdpse-detail/5443",
            "website": "sinpi.bri.co.id"
        },
        {
            "id": "9cb1abb0-0b78-4d82-a4ab-59ba3dadb988",
            "nama_pse": "HALO BELANJA DOTCOM",
            "nama_se": "HALOBELANJA DOTCOM",
            "sektor": "Sektor Transportasi",
            "tanggal_terbit": "2022-07-13",
            "url_tdpse_detail": "https://pse.komdigi.go.id/tdpse-detail/5444",
            "website": "halobelanja.com"
        },
        {
            "id": "9cb1ab9b-6ab8-4c87-a6fd-63ae108db03a",
            "nama_pse": "PERUSAHAAN PERSEROAN (PERSERO) PT. BANK RAKYAT INDONESIA",
            "nama_se": "DASHBOARD BPUM",
            "sektor": "Sektor Teknologi Informasi dan Komunikasi",
            "tanggal_terbit": "2022-07-13",
            "url_tdpse_detail": "https://pse.komdigi.go.id/tdpse-detail/5445",
            "website": "dashboard.bri.co.id"
        },
        {
            "id": "9cb1aba6-3eb5-45a9-bda6-4b3b99032c4e",
            "nama_pse": "SARANA SANTOSA SEJATI",
            "nama_se": "PLUANGGROW.COM",
            "sektor": "Sektor Keuangan",
            "tanggal_terbit": "2022-07-13",
            "url_tdpse_detail": "https://pse.komdigi.go.id/tdpse-detail/5446",
            "website": "pluanggrow.com"
        },
        {
            "id": "9cb1abb0-0e0c-4cd5-9179-e5fc209ae8bd",
            "nama_pse": "LOLC VENTURA INDONESIA",
            "nama_se": "OFFICIAL WEBSITE",
            "sektor": "Sektor Keuangan",
            "tanggal_terbit": "2022-07-13",
            "url_tdpse_detail": "https://pse.komdigi.go.id/tdpse-detail/5447",
            "website": "lolcventura.co.id"
        },
        {
            "id": "9cb1ab9b-6ceb-4beb-ad49-8c432880fbd5",
            "nama_pse": "ASURANSI JIWA INHEALTH INDONESIA",
            "nama_se": "MI PORTAL",
            "sektor": "Sektor Kesehatan",
            "tanggal_terbit": "2022-07-13",
            "url_tdpse_detail": "https://pse.komdigi.go.id/tdpse-detail/5448",
            "website": "miportal.inhealth.co.id"
        },
        {
            "id": "9cb1ab9b-6ef0-45f1-a9cd-471bcf49fbfe",
            "nama_pse": "PERUSAHAAN PERSEROAN (PERSERO) PT. BANK RAKYAT INDONESIA",
            "nama_se": "SIMPI (SISTEM INFORMASI MANAJEMEN PANGAN INDONESIA)",
            "sektor": "Sektor Teknologi Informasi dan Komunikasi",
            "tanggal_terbit": "2022-07-13",
            "url_tdpse_detail": "https://pse.komdigi.go.id/tdpse-detail/5449",
            "website": "simpi.bri.co.id"
        },
        {
            "id": "9cb1aba6-41f8-4f96-a96a-338a51781a97",
            "nama_pse": "PERUSAHAAN PERSEROAN (PERSERO) PT. BANK RAKYAT INDONESIA",
            "nama_se": "APLIKASI PANEN",
            "sektor": "Sektor Pangan",
            "tanggal_terbit": "2022-07-13",
            "url_tdpse_detail": "https://pse.komdigi.go.id/tdpse-detail/5450",
            "website": "panen.bri.co.id"
        },
        {
            "id": "9cb1abb0-1275-449e-b63a-a13df0461c48",
            "nama_pse": "BIOMETRIK CITRA SOLUSI",
            "nama_se": "FINGERSPOT.COM",
            "sektor": "Sektor Teknologi Informasi dan Komunikasi",
            "tanggal_terbit": "2022-07-13",
            "url_tdpse_detail": "https://pse.komdigi.go.id/tdpse-detail/5451",
            "website": "fingerspot.com"
        },
        {
            "id": "9cb1ab9b-70f5-46e6-979e-631538c53fcb",
            "nama_pse": "PERUSAHAAN PERSEROAN (PERSERO) PT. BANK RAKYAT INDONESIA",
            "nama_se": "MAKNA",
            "sektor": "Sektor Teknologi Informasi dan Komunikasi",
            "tanggal_terbit": "2022-07-13",
            "url_tdpse_detail": "https://pse.komdigi.go.id/tdpse-detail/5452",
            "website": "bansos.bri.co.id"
        },
        {
            "id": "9cb1ab9b-72fe-48ef-af4e-4086fb0bb46b",
            "nama_pse": "ERA LINTAS TEKNOLOGI",
            "nama_se": "DEVELOPER.FINGERSPOT.IO",
            "sektor": "Sektor Teknologi Informasi dan Komunikasi",
            "tanggal_terbit": "2022-07-13",
            "url_tdpse_detail": "https://pse.komdigi.go.id/tdpse-detail/5455",
            "website": "developer.fingerspot.io"
        },
        {
            "id": "9cb1ab9b-77c6-4551-bd2d-bc5489f1eca6",
            "nama_pse": "CLIPAN FINANCE INDONESIA",
            "nama_se": "WEBSITE",
            "sektor": "Sektor Keuangan",
            "tanggal_terbit": "2022-07-13",
            "url_tdpse_detail": "https://pse.komdigi.go.id/tdpse-detail/5464",
            "website": "clipan.co.id"
        },
        {
            "id": "9cb1ab9b-79e2-4d34-b702-4667fb2c47e5",
            "nama_pse": "CIPTADANA MULTIFINANCE",
            "nama_se": "DANA MULTIGUNA",
            "sektor": "Sektor Keuangan",
            "tanggal_terbit": "2022-07-13",
            "url_tdpse_detail": "https://pse.komdigi.go.id/tdpse-detail/5456",
            "website": "ciptadana-mf.com"
        },
        {
            "id": "9cb1abb0-1871-4162-b6c2-5e4dfe6b48cf",
            "nama_pse": "QUANTUS TELEMATIKA INDONESIA",
            "nama_se": "QUANTUS TELEMATIKA INDONESIA",
            "sektor": "Sektor Teknologi Informasi dan Komunikasi",
            "tanggal_terbit": "2022-07-13",
            "url_tdpse_detail": "https://pse.komdigi.go.id/tdpse-detail/5457",
            "website": "qti.co.id"
        },
        {
            "id": "9cb1aba6-4476-4d1c-b8fc-19cd4b0915cd",
            "nama_pse": "ASIA BAUT",
            "nama_se": "ASIA BAUT",
            "sektor": "Sektor Perdagangan",
            "tanggal_terbit": "2022-07-13",
            "url_tdpse_detail": "https://pse.komdigi.go.id/tdpse-detail/5458",
            "website": "asiabaut.com"
        },
        {
            "id": "9cb1aba6-4713-4dea-9c24-141c377fabb3",
            "nama_pse": "ARTOTEL INDONESIA",
            "nama_se": "ARTOTEL GROUP",
            "sektor": "Sektor Teknologi Informasi dan Komunikasi",
            "tanggal_terbit": "2022-07-13",
            "url_tdpse_detail": "https://pse.komdigi.go.id/tdpse-detail/5459",
            "website": "artotelgroup.com"
        },
        {
            "id": "9cb1abb0-1b5d-4c67-b163-d912b0f52f02",
            "nama_pse": "QUANTUS TELEMATIKA INDONESIA",
            "nama_se": "QUANTUS TELEMATIKA IND",
            "sektor": "Sektor Teknologi Informasi dan Komunikasi",
            "tanggal_terbit": "2022-07-13",
            "url_tdpse_detail": "https://pse.komdigi.go.id/tdpse-detail/5460",
            "website": "qti.co.id"
        },
        {
            "id": "9cb1aba6-4cdb-46fa-be81-2fadc41ba7be",
            "nama_pse": "OPINIA MEDIA TEKNOLOGI",
            "nama_se": "OPINIA",
            "sektor": "Sektor Perdagangan, Sektor Teknologi Informasi dan Komunikasi",
            "tanggal_terbit": "2022-07-13",
            "url_tdpse_detail": "https://pse.komdigi.go.id/tdpse-detail/5461",
            "website": "opinia.id"
        },
        {
            "id": "9cb1aba6-4f96-4637-854e-43ccb4d9b8ce",
            "nama_pse": "TASELA MEDIA PRATAMA",
            "nama_se": "KABARTASELA.COM",
            "sektor": "Sektor Teknologi Informasi dan Komunikasi",
            "tanggal_terbit": "2022-07-13",
            "url_tdpse_detail": "https://pse.komdigi.go.id/tdpse-detail/5462",
            "website": "kabartasela.com"
        },
        {
            "id": "9cb1aba6-5226-42fa-8d47-90cef41c5353",
            "nama_pse": "NUSANTARA ELANG SEJAHTERA",
            "nama_se": "TIX ID",
            "sektor": "Sektor Perdagangan",
            "tanggal_terbit": "2022-07-13",
            "url_tdpse_detail": "https://pse.komdigi.go.id/tdpse-detail/5463",
            "website": "tix.id"
        },
        {
            "id": "9cb1abb0-1e56-486e-b228-6755087ee72c",
            "nama_pse": "GEMILANG CITRUS BERJAYA",
            "nama_se": "OURCITRUS TODAY \u0026 FUTURE",
            "sektor": "Sektor Perdagangan",
            "tanggal_terbit": "2022-07-13",
            "url_tdpse_detail": "https://pse.komdigi.go.id/tdpse-detail/5465",
            "website": "ourcitrus.com"
        },
        {
            "id": "9cb1ab9b-7bb5-48fb-8d74-e1a411fcfe7f",
            "nama_pse": "ASURANSI UMUM BCA",
            "nama_se": "TRAVEL INSURANCE",
            "sektor": "Sektor Keuangan",
            "tanggal_terbit": "2022-07-13",
            "url_tdpse_detail": "https://pse.komdigi.go.id/tdpse-detail/5466",
            "website": "apps.bcainsurance.co.id"
        },
        {
            "id": "9cb1ab9b-7e8c-4c5a-afb1-576c3c5c6f7f",
            "nama_pse": "CROWDE MEMBANGUN BANGSA",
            "nama_se": "CROWDE.CO",
            "sektor": "Sektor Keuangan",
            "tanggal_terbit": "2022-07-13",
            "url_tdpse_detail": "https://pse.komdigi.go.id/tdpse-detail/5467",
            "website": "crowde.co"
        },
        {
            "id": "9cb1abb0-20aa-4b48-bae8-ab2b365ab8cc",
            "nama_pse": "PT. BANK PEMBANGUNAN DAERAH JAWA BARAT DAN BANTEN TBK (BANK BJB)",
            "nama_se": "BJB EPROCUREMENT",
            "sektor": "Sektor Keuangan",
            "tanggal_terbit": "2022-07-13",
            "url_tdpse_detail": "https://pse.komdigi.go.id/tdpse-detail/5468",
            "website": "eproc.bankbjb.co.id"
        },
        {
            "id": "9cb1aba6-54b1-4f32-b00c-4c3a464eb5bc",
            "nama_pse": "ASURANSI JIWA MANULIFE INDONESIA",
            "nama_se": "MIE-CLAIM",
            "sektor": "Sektor Keuangan",
            "tanggal_terbit": "2022-07-13",
            "url_tdpse_detail": "https://pse.komdigi.go.id/tdpse-detail/5469",
            "website": "eclaim.manulife.co.id"
        },
        {
            "id": "9cb1ab9b-80b5-4ec3-9398-872efa95a6db",
            "nama_pse": "HERCO DIGITAL INDONESIA",
            "nama_se": "HERCO DIGITAL",
            "sektor": "Sektor Perdagangan",
            "tanggal_terbit": "2022-07-13",
            "url_tdpse_detail": "https://pse.komdigi.go.id/tdpse-detail/5470",
            "website": "hercodigital.id"
        },
        {
            "id": "9cb1aba6-5736-4251-9926-f0618e1364d8",
            "nama_pse": "IVARO VENTURA",
            "nama_se": "WEB",
            "sektor": "Sektor Keuangan",
            "tanggal_terbit": "2022-07-13",
            "url_tdpse_detail": "https://pse.komdigi.go.id/tdpse-detail/5473",
            "website": "ivaroventura.com"
        },
        {
            "id": "9cb1ab9b-8545-4e36-8260-607cf38c0a33",
            "nama_pse": "MAYBANK SEKURITAS INDONESIA",
            "nama_se": "MAYBANKTRADE",
            "sektor": "Sektor Keuangan",
            "tanggal_terbit": "2022-07-13",
            "url_tdpse_detail": "https://pse.komdigi.go.id/tdpse-detail/5476",
            "website": "-"
        },
        {
            "id": "9cb1abb0-2478-4c82-a06a-1b2ace99f6e8",
            "nama_pse": "BANK OF INDIA INDONESIA",
            "nama_se": "WEBSITE BOIINDONESIA",
            "sektor": "Sektor Keuangan",
            "tanggal_terbit": "2022-07-13",
            "url_tdpse_detail": "https://pse.komdigi.go.id/tdpse-detail/5486",
            "website": "boiindonesia.co.id"
        },
        {
            "id": "9cb1aba6-5e82-418d-9bb1-3a7f829ae8e6",
            "nama_pse": "CHANDRA SAKTI UTAMA LEASING",
            "nama_se": "KMK DIGITAL CSUL FINANCE",
            "sektor": "Sektor Keuangan",
            "tanggal_terbit": "2022-07-13",
            "url_tdpse_detail": "https://pse.komdigi.go.id/tdpse-detail/5488",
            "website": "kmkdigital.csulfinance.com"
        },
        {
            "id": "9cb1aba6-616b-4cd5-bf5d-d54a8fa652c3",
            "nama_pse": "BANK MEGA SYARIAH",
            "nama_se": "WEBSITE BANK MEGA SYARIAH",
            "sektor": "Sektor Keuangan",
            "tanggal_terbit": "2022-07-13",
            "url_tdpse_detail": "https://pse.komdigi.go.id/tdpse-detail/5487",
            "website": "megasyariah.co.id"
        },
        {
            "id": "9cb1abb0-26d6-46a0-9867-2569422054c0",
            "nama_pse": "D \u0026 W INTERNASIONAL",
            "nama_se": "UTERRA.ID",
            "sektor": "Sektor Perdagangan, Sektor Teknologi Informasi dan Komunikasi",
            "tanggal_terbit": "2022-07-13",
            "url_tdpse_detail": "https://pse.komdigi.go.id/tdpse-detail/5497",
            "website": "uterra.id"
        },
        {
            "id": "9cb1aba6-6696-4383-83ae-71d538568d39",
            "nama_pse": "BANK MEGA SYARIAH",
            "nama_se": "CASH MANAGEMENT SERVICES BANK MEGA SYARIAH",
            "sektor": "Sektor Keuangan",
            "tanggal_terbit": "2022-07-13",
            "url_tdpse_detail": "https://pse.komdigi.go.id/tdpse-detail/5491",
            "website": "cms.megasyariah.co.id"
        },
        {
            "id": "9cb1abb0-292c-471b-8981-530820ecd94c",
            "nama_pse": "BANK CENTRAL ASIA",
            "nama_se": "APLIKASI WEB FIRE",
            "sektor": "Sektor Keuangan",
            "tanggal_terbit": "2022-07-13",
            "url_tdpse_detail": "https://pse.komdigi.go.id/tdpse-detail/5492",
            "website": "bcaremit.klikbca.com"
        },
        {
            "id": "9cb1abb0-2bb3-4165-94d0-e5fd44d34a01",
            "nama_pse": "ADIRA DINAMIKA MULTI FINANCE",
            "nama_se": "HTTPS://WWW.ADIRA.CO.ID",
            "sektor": "Sektor Keuangan",
            "tanggal_terbit": "2022-07-13",
            "url_tdpse_detail": "https://pse.komdigi.go.id/tdpse-detail/5493",
            "website": "adira.co.id"
        },
        {
            "id": "9cb1abb0-303b-499d-b7bc-d667657504cb",
            "nama_pse": "BENUANTA KREASI MANDIRI",
            "nama_se": "PLP MARI BERPROSES",
            "sektor": "Sektor Kesehatan",
            "tanggal_terbit": "2022-07-13",
            "url_tdpse_detail": "https://pse.komdigi.go.id/tdpse-detail/5494",
            "website": "mariberproses.com"
        },
        {
            "id": "9cb1abb0-3331-4f54-b946-5c25f3161342",
            "nama_pse": "BANK CENTRAL ASIA",
            "nama_se": "BCA E-COMMERCE PAYMENT GATEWAY",
            "sektor": "Sektor Keuangan",
            "tanggal_terbit": "2022-07-13",
            "url_tdpse_detail": "https://pse.komdigi.go.id/tdpse-detail/5495",
            "website": "ecommpg.klikbca.com"
        },
        {
            "id": "9cb1ab9b-8966-4f92-99ba-a7c06609233c",
            "nama_pse": "BANK CENTRAL ASIA",
            "nama_se": "FIRE API",
            "sektor": "Sektor Keuangan",
            "tanggal_terbit": "2022-07-13",
            "url_tdpse_detail": "https://pse.komdigi.go.id/tdpse-detail/5496",
            "website": "api.klikbca.com"
        },
        {
            "id": "9cb1ab9b-8b34-4c86-bfb0-38110c292e75",
            "nama_pse": "BANK CENTRAL ASIA",
            "nama_se": "BCA PAYMENT GATEWAY",
            "sektor": "Sektor Keuangan",
            "tanggal_terbit": "2022-07-13",
            "url_tdpse_detail": "https://pse.komdigi.go.id/tdpse-detail/5498",
            "website": "ecommpg.klikbca.com"
        },
        {
            "id": "9cb1abb0-35f0-4af8-81a3-a143b8221605",
            "nama_pse": "TERA KREASI SEMESTA",
            "nama_se": "KAWANBAYAR",
            "sektor": "Sektor Perdagangan",
            "tanggal_terbit": "2022-07-13",
            "url_tdpse_detail": "https://pse.komdigi.go.id/tdpse-detail/5501",
            "website": "kawanbayar.com"
        },
        {
            "id": "9cb1abb0-388b-4077-ab89-a4ec4428efb7",
            "nama_pse": "KOLABORASI GLOBAL SUKSES",
            "nama_se": "GOWORK COWORKING OFFICE SPACE",
            "sektor": "Sektor Perdagangan",
            "tanggal_terbit": "2022-07-13",
            "url_tdpse_detail": "https://pse.komdigi.go.id/tdpse-detail/5499",
            "website": "go-work.com"
        },
        {
            "id": "9cb1aba6-6920-4e09-9f8e-f433256da931",
            "nama_pse": "ISAN TECHNOLOGY INDONESIA",
            "nama_se": "AGRION AGENT",
            "sektor": "Sektor Keuangan, Sektor Teknologi Informasi dan Komunikasi",
            "tanggal_terbit": "2022-07-13",
            "url_tdpse_detail": "https://pse.komdigi.go.id/tdpse-detail/5502",
            "website": "-"
        },
        {
            "id": "9cb1abb0-3e60-4ed8-8be2-1f175df054e4",
            "nama_pse": "RUKUN SOLUSI MEDIKA",
            "nama_se": "SOLUMED",
            "sektor": "Sektor Perdagangan, Sektor Kesehatan, Sektor Teknologi Informasi dan Komunikasi",
            "tanggal_terbit": "2022-07-13",
            "url_tdpse_detail": "https://pse.komdigi.go.id/tdpse-detail/5503",
            "website": "solumedis.com"
        },
        {
            "id": "9cb1ab9b-8d41-442b-a24a-5b0a5d2b18fd",
            "nama_pse": "TERA KREASI SEMESTA",
            "nama_se": "CUAN AE",
            "sektor": "Sektor Perdagangan",
            "tanggal_terbit": "2022-07-13",
            "url_tdpse_detail": "https://pse.komdigi.go.id/tdpse-detail/5504",
            "website": "cuanae.com"
        }
    ],
    "processingTimeMs": 3,
    "query": "",
    "totalHits": 19131,
    "hitsPerPage": 50,
    "page": 285,
    "totalPages": 383
}