{
    "hits": [
        {
            "id": "9cb1ac0a-685f-48a4-9708-1ca84a4315eb",
            "nama_pse": "TOMISUI AFILIASI GLOBAL",
            "nama_se": "TOMISUI.ID",
            "sektor": "Sektor Perdagangan",
            "tanggal_terbit": "2022-08-08",
            "url_tdpse_detail": "https://pse.komdigi.go.id/tdpse-detail/10016",
            "website": "tomisui.id"
        },
        {
            "id": "9cb1ac0a-6b92-48c2-bfe4-94625e066335",
            "nama_pse": "QODE TECH INDONESIA",
            "nama_se": "QODE",
            "sektor": "Sektor Teknologi Informasi dan Komunikasi",
            "tanggal_terbit": "2022-08-08",
            "url_tdpse_detail": "https://pse.komdigi.go.id/tdpse-detail/10017",
            "website": "qode.co.id"
        },
        {
            "id": "9cb1abd5-325d-4ca3-9ff5-6259c03e5475",
            "nama_pse": "LAKON CIPTA BUDAYA",
            "nama_se": "PT LAKON CIPTA BUDAYA",
            "sektor": "Sektor Perdagangan",
            "tanggal_terbit": "2022-08-08",
            "url_tdpse_detail": "https://pse.komdigi.go.id/tdpse-detail/10018",
            "website": "lakonindonesia.com"
        },
        {
            "id": "9cb1abd5-3762-4cd8-89e8-96b634806d93",
            "nama_pse": "PENERBITAN SARANA BOBO",
            "nama_se": "WWW.BOBO.ID",
            "sektor": "Sektor Teknologi Informasi dan Komunikasi",
            "tanggal_terbit": "2022-08-08",
            "url_tdpse_detail": "https://pse.komdigi.go.id/tdpse-detail/10019",
            "website": "bobo.grid.id"
        },
        {
            "id": "9cb1abfb-30da-4304-99ec-d2e27119f973",
            "nama_pse": "ERA AWAN DIGITAL",
            "nama_se": "SELF SERVICE PORTAL",
            "sektor": "Sektor Teknologi Informasi dan Komunikasi",
            "tanggal_terbit": "2022-08-08",
            "url_tdpse_detail": "https://pse.komdigi.go.id/tdpse-detail/10020",
            "website": "eranyacloud.com"
        },
        {
            "id": "9cb1ac0a-6e9e-4311-b00d-19d7acf1f729",
            "nama_pse": "INFOMETRO MEDIATAMA",
            "nama_se": "WWW.FOTOKITA.NET",
            "sektor": "Sektor Teknologi Informasi dan Komunikasi",
            "tanggal_terbit": "2022-08-08",
            "url_tdpse_detail": "https://pse.komdigi.go.id/tdpse-detail/10021",
            "website": "fotokita.grid.id"
        },
        {
            "id": "9cb1ac0a-71ca-4870-afb8-b2a1f0979d4f",
            "nama_pse": "PRIMA INFOSARANA MEDIA",
            "nama_se": "WWW.ADJAR.ID",
            "sektor": "Sektor Teknologi Informasi dan Komunikasi",
            "tanggal_terbit": "2022-08-08",
            "url_tdpse_detail": "https://pse.komdigi.go.id/tdpse-detail/10022",
            "website": "adjar.grid.id"
        },
        {
            "id": "9cb1ac0a-74d1-43d2-b2f8-19d6c04c7378",
            "nama_pse": "FORSTOK TEKNOLOGI INDONESIA",
            "nama_se": "FORSTOK",
            "sektor": "Sektor Teknologi Informasi dan Komunikasi",
            "tanggal_terbit": "2022-08-08",
            "url_tdpse_detail": "https://pse.komdigi.go.id/tdpse-detail/10023",
            "website": "forstok.com"
        },
        {
            "id": "9cb1abfb-3402-47ca-b830-7ec7747e6391",
            "nama_pse": "PRIMA INFOSARANA MEDIA",
            "nama_se": "WWW.BOLANAS.COM",
            "sektor": "Sektor Teknologi Informasi dan Komunikasi",
            "tanggal_terbit": "2022-08-08",
            "url_tdpse_detail": "https://pse.komdigi.go.id/tdpse-detail/10024",
            "website": "bolanas.bolaspot.com"
        },
        {
            "id": "9cb1ac0a-77eb-4182-8590-24f12c60a59f",
            "nama_pse": "PRIMA INFOSARANA MEDIA",
            "nama_se": "WWW.BOLASPORT.COM",
            "sektor": "Sektor Teknologi Informasi dan Komunikasi",
            "tanggal_terbit": "2022-08-08",
            "url_tdpse_detail": "https://pse.komdigi.go.id/tdpse-detail/10025",
            "website": "bolasport.com"
        },
        {
            "id": "9cb1ac0a-7b3f-4ded-b951-15957931c627",
            "nama_pse": "PRIMA INFOSARANA MEDIA",
            "nama_se": "WWW.BOLASTYLO.COM",
            "sektor": "Sektor Teknologi Informasi dan Komunikasi",
            "tanggal_terbit": "2022-08-08",
            "url_tdpse_detail": "https://pse.komdigi.go.id/tdpse-detail/10026",
            "website": "bolastylo.bolasport.com"
        },
        {
            "id": "9cb1abd5-3b6f-41aa-9209-65b785ea0489",
            "nama_pse": "INFORMATIKA PERKASA ABADI",
            "nama_se": "PT. INFORMATIKA PERKASA ABADI",
            "sektor": "Sektor Perdagangan, Sektor Teknologi Informasi dan Komunikasi",
            "tanggal_terbit": "2022-08-08",
            "url_tdpse_detail": "https://pse.komdigi.go.id/tdpse-detail/10028",
            "website": "ipa.co.id"
        },
        {
            "id": "9cb1abfb-3e5b-45f5-bc78-39765bf8d528",
            "nama_pse": "PRIMA INFOSARANA MEDIA",
            "nama_se": "WWW.CERDASBELANJA.ID",
            "sektor": "Sektor Teknologi Informasi dan Komunikasi",
            "tanggal_terbit": "2022-08-08",
            "url_tdpse_detail": "https://pse.komdigi.go.id/tdpse-detail/10027",
            "website": "cerdasbelanja.grid.id"
        },
        {
            "id": "9cb1abfb-4623-4a8c-b79d-0e8967ffc8b0",
            "nama_pse": "BINC TEKNOLOGI GRUP",
            "nama_se": "ANALISA.IO",
            "sektor": "Sektor Perdagangan, Sektor Teknologi Informasi dan Komunikasi",
            "tanggal_terbit": "2022-08-08",
            "url_tdpse_detail": "https://pse.komdigi.go.id/tdpse-detail/10029",
            "website": "analisa.io"
        },
        {
            "id": "9cb1abfb-4aa5-4fdf-a4c6-8ba18cd98fdc",
            "nama_pse": "PRIMA INFOSARANA MEDIA",
            "nama_se": "WWW.CEWEKBANGET.ID",
            "sektor": "Sektor Teknologi Informasi dan Komunikasi",
            "tanggal_terbit": "2022-08-08",
            "url_tdpse_detail": "https://pse.komdigi.go.id/tdpse-detail/10031",
            "website": "cewekbanget.grid.id"
        },
        {
            "id": "9cb1abd5-4583-486c-b880-abacb51eff53",
            "nama_pse": "NARA TEKHNIK KREASINDO",
            "nama_se": "MEDIA FAKTA SATU",
            "sektor": "Sektor Teknologi Informasi dan Komunikasi",
            "tanggal_terbit": "2022-08-08",
            "url_tdpse_detail": "https://pse.komdigi.go.id/tdpse-detail/10030",
            "website": "mediafaktasatu.com"
        },
        {
            "id": "9cb1abfb-4ec1-43ce-b760-931d66948780",
            "nama_pse": "BANK OF CHINA (HONGKONG) LIMITED JAKARTA",
            "nama_se": "BOC INTERNET BANKING (BOCNET)",
            "sektor": "Sektor Keuangan",
            "tanggal_terbit": "2022-08-08",
            "url_tdpse_detail": "https://pse.komdigi.go.id/tdpse-detail/10036",
            "website": "bankofchina.com"
        },
        {
            "id": "9cb1abfb-5395-42ef-b38e-c6987cf28310",
            "nama_pse": "DIGITAL INISIATIF",
            "nama_se": "WWW.GRID.CO.ID",
            "sektor": "Sektor Teknologi Informasi dan Komunikasi",
            "tanggal_terbit": "2022-08-08",
            "url_tdpse_detail": "https://pse.komdigi.go.id/tdpse-detail/10033",
            "website": "Grid.co.id"
        },
        {
            "id": "9cb1abd5-4a2b-4f75-a3f4-994f0633496d",
            "nama_pse": "BANK PERKREDITAN RAKYAT AGRO CIPTA ADIGUNA",
            "nama_se": "BPR AGRO CIPTA ADIGUNA",
            "sektor": "Sektor Keuangan",
            "tanggal_terbit": "2022-08-08",
            "url_tdpse_detail": "https://pse.komdigi.go.id/tdpse-detail/10032",
            "website": "bpragrocipta.com"
        },
        {
            "id": "9cb1ac0a-7ede-4e72-8a8e-607170110ad5",
            "nama_pse": "DIGITAL INISIATIF",
            "nama_se": "WWW.GRIDVOICE.CO.ID",
            "sektor": "Sektor Teknologi Informasi dan Komunikasi",
            "tanggal_terbit": "2022-08-08",
            "url_tdpse_detail": "https://pse.komdigi.go.id/tdpse-detail/10034",
            "website": "Gridvoice.co.id"
        },
        {
            "id": "9cb1ac0a-8241-49f1-be0f-83a0c822e6f8",
            "nama_pse": "GENERASI NUSANTARA KARYA MEDIA",
            "nama_se": "GENERASI NUSANTARA KARYA MEDIA",
            "sektor": "Sektor Teknologi Informasi dan Komunikasi",
            "tanggal_terbit": "2022-08-08",
            "url_tdpse_detail": "https://pse.komdigi.go.id/tdpse-detail/10035",
            "website": "-"
        },
        {
            "id": "9cb1abfb-577d-4daf-a371-ffb64cabd257",
            "nama_pse": "PRIMA INFOSARANA MEDIA",
            "nama_se": "WWW.GRIDFAME.ID",
            "sektor": "Sektor Teknologi Informasi dan Komunikasi",
            "tanggal_terbit": "2022-08-08",
            "url_tdpse_detail": "https://pse.komdigi.go.id/tdpse-detail/10037",
            "website": "fame.grid.id"
        },
        {
            "id": "9cb1abd5-4df8-41fa-bf96-9716846ef366",
            "nama_pse": "BANK OF CHINA (HONGKONG) LIMITED JAKARTA",
            "nama_se": "BOC INTERNET BANKING",
            "sektor": "Sektor Keuangan",
            "tanggal_terbit": "2022-08-08",
            "url_tdpse_detail": "https://pse.komdigi.go.id/tdpse-detail/10041",
            "website": "bankofchina.co.id"
        },
        {
            "id": "9cb1ac0a-85cb-4a67-8cae-8025b8b557b3",
            "nama_pse": "PRIMA INFOSARANA MEDIA",
            "nama_se": "WWW.GRIDGAMES.ID",
            "sektor": "Sektor Teknologi Informasi dan Komunikasi",
            "tanggal_terbit": "2022-08-08",
            "url_tdpse_detail": "https://pse.komdigi.go.id/tdpse-detail/10038",
            "website": "games.grid.id"
        },
        {
            "id": "9cb1abd5-546c-4b71-8911-6d99b44eea1f",
            "nama_pse": "PRIMA INFOSARANA MEDIA",
            "nama_se": "WWW.GRIDHITS.ID",
            "sektor": "Sektor Teknologi Informasi dan Komunikasi",
            "tanggal_terbit": "2022-08-08",
            "url_tdpse_detail": "https://pse.komdigi.go.id/tdpse-detail/10039",
            "website": "hits.grid.id"
        },
        {
            "id": "9cb1abfb-5a94-4826-9659-ceafb4dc6571",
            "nama_pse": "PRIMA INFOSARANA MEDIA",
            "nama_se": "WWW.GRIDHOT.ID",
            "sektor": "Sektor Teknologi Informasi dan Komunikasi",
            "tanggal_terbit": "2022-08-08",
            "url_tdpse_detail": "https://pse.komdigi.go.id/tdpse-detail/10040",
            "website": "hot.grid.id"
        },
        {
            "id": "9cb1abfb-5d6b-4d0d-8ba9-8479dd785b35",
            "nama_pse": "BANK OF CHINA (HONGKONG) LIMITED JAKARTA",
            "nama_se": "BOC JAKARTA WEBSITE",
            "sektor": "Sektor Keuangan",
            "tanggal_terbit": "2022-08-08",
            "url_tdpse_detail": "https://pse.komdigi.go.id/tdpse-detail/10052",
            "website": "bankofchina.co.id"
        },
        {
            "id": "9cb1abfb-604b-48dd-81d8-1cbd3e306516",
            "nama_pse": "SENSOR INDONESIA",
            "nama_se": "WEBSITE PT SENSOR INDONESIA (WWW.SENSORINDO.CO.ID)",
            "sektor": "Sektor Perdagangan, Sektor Teknologi Informasi dan Komunikasi",
            "tanggal_terbit": "2022-08-08",
            "url_tdpse_detail": "https://pse.komdigi.go.id/tdpse-detail/10043",
            "website": "sensorindo.co.id"
        },
        {
            "id": "9cb1abd5-58b0-404d-a5ac-74d6a8f7f8e0",
            "nama_pse": "PRIMA INFOSARANA MEDIA",
            "nama_se": "WWW.GRIDHYPE.ID",
            "sektor": "Sektor Teknologi Informasi dan Komunikasi",
            "tanggal_terbit": "2022-08-08",
            "url_tdpse_detail": "https://pse.komdigi.go.id/tdpse-detail/10042",
            "website": "hype.grid.id"
        },
        {
            "id": "9cb1abd5-5d9c-46d1-9161-487efb5f1d89",
            "nama_pse": "PRIMA INFOSARANA MEDIA",
            "nama_se": "WWW.GRIDKIDS.ID",
            "sektor": "Sektor Teknologi Informasi dan Komunikasi",
            "tanggal_terbit": "2022-08-08",
            "url_tdpse_detail": "https://pse.komdigi.go.id/tdpse-detail/10044",
            "website": "kids.grid.id"
        },
        {
            "id": "9cb1abd5-6475-411a-a3e5-f827ae6e3cbc",
            "nama_pse": "PRIMA INFOSARANA MEDIA",
            "nama_se": "WWW.GRIDMOTOR.ID",
            "sektor": "Sektor Teknologi Informasi dan Komunikasi",
            "tanggal_terbit": "2022-08-08",
            "url_tdpse_detail": "https://pse.komdigi.go.id/tdpse-detail/10045",
            "website": "gridmotor.motorplus-online.com"
        },
        {
            "id": "9cb1ac0a-8926-455e-be70-1248f549dc18",
            "nama_pse": "PRIMA INFOSARANA MEDIA",
            "nama_se": "WWW.GRIDOTO.COM",
            "sektor": "Sektor Teknologi Informasi dan Komunikasi",
            "tanggal_terbit": "2022-08-08",
            "url_tdpse_detail": "https://pse.komdigi.go.id/tdpse-detail/10046",
            "website": "gridoto.com"
        },
        {
            "id": "9cb1ac0a-8c54-4b45-8193-24caacafb076",
            "nama_pse": "PRIMA INFOSARANA MEDIA",
            "nama_se": "WWW.GRIDPOP.ID",
            "sektor": "Sektor Teknologi Informasi dan Komunikasi",
            "tanggal_terbit": "2022-08-08",
            "url_tdpse_detail": "https://pse.komdigi.go.id/tdpse-detail/10047",
            "website": "pop.grid.id"
        },
        {
            "id": "9cb1abfb-63f8-4102-9464-62e9d6fcc991",
            "nama_pse": "PRIMA INFOSARANA MEDIA",
            "nama_se": "WWW.GRIDSTAR.ID",
            "sektor": "Sektor Teknologi Informasi dan Komunikasi",
            "tanggal_terbit": "2022-08-08",
            "url_tdpse_detail": "https://pse.komdigi.go.id/tdpse-detail/10048",
            "website": "star.grid.id"
        },
        {
            "id": "9cb1abfb-66a6-4b5e-b38d-d07bfd16adcb",
            "nama_pse": "PRIMA INFOSARANA MEDIA",
            "nama_se": "WWW.GRIDSTORE.ID",
            "sektor": "Sektor Teknologi Informasi dan Komunikasi",
            "tanggal_terbit": "2022-08-08",
            "url_tdpse_detail": "https://pse.komdigi.go.id/tdpse-detail/10049",
            "website": "gridstore.id"
        },
        {
            "id": "9cb1abd5-69a3-4e2a-bb15-3afe6dba252c",
            "nama_pse": "PRIMA INFOSARANA MEDIA",
            "nama_se": "WWW.GRIDVIDEO.ID",
            "sektor": "Sektor Teknologi Informasi dan Komunikasi",
            "tanggal_terbit": "2022-08-08",
            "url_tdpse_detail": "https://pse.komdigi.go.id/tdpse-detail/10050",
            "website": "video.grid.id"
        },
        {
            "id": "9cb1ac0a-924b-4481-8451-fbd3623be11d",
            "nama_pse": "PRIMA INFOSARANA MEDIA",
            "nama_se": "WWW.HAI-ONLINE.COM",
            "sektor": "Sektor Teknologi Informasi dan Komunikasi",
            "tanggal_terbit": "2022-08-08",
            "url_tdpse_detail": "https://pse.komdigi.go.id/tdpse-detail/10051",
            "website": "hai.grid.id"
        },
        {
            "id": "9cb1ac0a-965c-44b4-a747-096c02f90c32",
            "nama_pse": "TRANS DIGITAL MEDIA",
            "nama_se": "DETIKCOM",
            "sektor": "Sektor Teknologi Informasi dan Komunikasi",
            "tanggal_terbit": "2022-08-08",
            "url_tdpse_detail": "https://pse.komdigi.go.id/tdpse-detail/10054",
            "website": "detik.com"
        },
        {
            "id": "9cb1ac0a-9b52-46f7-bb83-499b183b205a",
            "nama_pse": "AIRMAS PERKASA EKSPRES",
            "nama_se": "AYOOKLIK",
            "sektor": "Sektor Teknologi Informasi dan Komunikasi",
            "tanggal_terbit": "2022-08-08",
            "url_tdpse_detail": "https://pse.komdigi.go.id/tdpse-detail/10053",
            "website": "ayooklik.id"
        },
        {
            "id": "9cb1ac0a-9e95-46c5-88b2-b80481057b2c",
            "nama_pse": "PENERBITAN SARANA BOBO",
            "nama_se": "WWW.IDEAONLINE.CO.ID",
            "sektor": "Sektor Teknologi Informasi dan Komunikasi",
            "tanggal_terbit": "2022-08-08",
            "url_tdpse_detail": "https://pse.komdigi.go.id/tdpse-detail/10055",
            "website": "idea.grid.id"
        },
        {
            "id": "9cb1abfb-6d35-4c4c-a113-1a104cd38d26",
            "nama_pse": "ASTRA DIGITAL MOBIL",
            "nama_se": "MO88I",
            "sektor": "Sektor Perdagangan",
            "tanggal_terbit": "2022-08-08",
            "url_tdpse_detail": "https://pse.komdigi.go.id/tdpse-detail/10056",
            "website": "mo88i.com"
        },
        {
            "id": "9cb1abfb-708f-4b83-a9ea-3cbb5a1d3afb",
            "nama_pse": "INFOMETRO MEDIATAMA",
            "nama_se": "WWW.INFOKOMPUTER.COM",
            "sektor": "Sektor Teknologi Informasi dan Komunikasi",
            "tanggal_terbit": "2022-08-08",
            "url_tdpse_detail": "https://pse.komdigi.go.id/tdpse-detail/10057",
            "website": "infokomputer.grid.id"
        },
        {
            "id": "9cb1ac0a-a536-4fb2-ab06-df8d6e7a8858",
            "nama_pse": "VITA INTI SELARAS",
            "nama_se": "HTTP://WWW.OTELLOGAMING.COM",
            "sektor": "Sektor Perdagangan",
            "tanggal_terbit": "2022-08-08",
            "url_tdpse_detail": "https://pse.komdigi.go.id/tdpse-detail/10058",
            "website": "otellogaming.com"
        },
        {
            "id": "9cb1abfb-741c-427e-870e-66d85618fa43",
            "nama_pse": "AKU CINTA INDONESIA RAYA",
            "nama_se": "ACI",
            "sektor": "Sektor Perdagangan, Sektor Teknologi Informasi dan Komunikasi",
            "tanggal_terbit": "2022-08-08",
            "url_tdpse_detail": "https://pse.komdigi.go.id/tdpse-detail/10059",
            "website": "aci.id"
        },
        {
            "id": "9cb1abd5-6cf7-4aef-aae0-99cb15b250fe",
            "nama_pse": "VITA INTI SELARAS",
            "nama_se": "HTTPS://WWW.OTELLOGAMING.COM",
            "sektor": "Sektor Perdagangan",
            "tanggal_terbit": "2022-08-08",
            "url_tdpse_detail": "https://pse.komdigi.go.id/tdpse-detail/10060",
            "website": "otellogaming.com"
        },
        {
            "id": "9cb1abfb-7704-40a1-9307-fb53da809c7d",
            "nama_pse": "ENSTRA MITRA MANDIRI",
            "nama_se": "NIAGA TANI",
            "sektor": "Sektor Perdagangan",
            "tanggal_terbit": "2022-08-08",
            "url_tdpse_detail": "https://pse.komdigi.go.id/tdpse-detail/10061",
            "website": "niagatani.id"
        },
        {
            "id": "9cb1abd5-7be2-409f-98d5-a6a6d9a5f77e",
            "nama_pse": "SARABAADA MITRA UTAMA",
            "nama_se": "SARABAADA",
            "sektor": "Sektor Perdagangan, Sektor Keuangan, Sektor Teknologi Informasi dan Komunikasi",
            "tanggal_terbit": "2022-08-08",
            "url_tdpse_detail": "https://pse.komdigi.go.id/tdpse-detail/10063",
            "website": "sarabaada.com"
        },
        {
            "id": "9cb1abfb-7a3b-4a5f-adc7-d7c7fde690a7",
            "nama_pse": "FERRI GUSTIANSAH",
            "nama_se": "SIGNAL TRONIK",
            "sektor": "Sektor Perdagangan",
            "tanggal_terbit": "2022-08-08",
            "url_tdpse_detail": "https://pse.komdigi.go.id/tdpse-detail/10064",
            "website": "signaltronik.com"
        },
        {
            "id": "9cb1ac0a-b879-461f-a8f7-9495b8f5fa8a",
            "nama_pse": "ATHENA RUANG BELAJAR",
            "nama_se": "AROOM.ID",
            "sektor": "Sektor Teknologi Informasi dan Komunikasi",
            "tanggal_terbit": "2022-08-08",
            "url_tdpse_detail": "https://pse.komdigi.go.id/tdpse-detail/10065",
            "website": "aroom.id"
        },
        {
            "id": "9cb1ab9b-82f1-4592-8636-aeaa6c36fa07",
            "nama_pse": "PT. BANK PEMBANGUNAN DAERAH JAWA BARAT DAN BANTEN TBK (BANK BJB)",
            "nama_se": "BJB HCS",
            "sektor": "Sektor Keuangan",
            "tanggal_terbit": "2022-08-08",
            "url_tdpse_detail": "https://pse.komdigi.go.id/tdpse-detail/5481",
            "website": "hcs.bankbjb.co.id"
        }
    ],
    "processingTimeMs": 5,
    "query": "",
    "totalHits": 19131,
    "hitsPerPage": 50,
    "page": 204,
    "totalPages": 383
}