{
    "hits": [
        {
            "id": "9cb1ab74-97f7-432c-b4c4-7f5d85f91bd1",
            "nama_pse": "SWIFT SHIPMENT SOLUTIONS",
            "nama_se": "WMS SWIFT SOLUTIONS",
            "sektor": "Sektor Perdagangan, Sektor Perdagangan, Sektor Perdagangan, Sektor Transportasi, Sektor Transportasi, Sektor Transportasi, Sektor Teknologi Informasi dan Komunikasi, Sektor Teknologi Informasi dan Komunikasi, Sektor Teknologi Informasi dan Komunikasi",
            "tanggal_terbit": "2021-10-26",
            "url_tdpse_detail": "https://pse.komdigi.go.id/tdpse-detail/2016",
            "website": "wms.swiftsolutions.id/"
        },
        {
            "id": "9cb1ab6e-491b-4c5e-b5d2-8b56d0d4a12e",
            "nama_pse": "DAILY DINAMIKA KREASI",
            "nama_se": "FEMALEDAILY",
            "sektor": "Sektor Teknologi Informasi dan Komunikasi, Sektor Teknologi Informasi dan Komunikasi",
            "tanggal_terbit": "2021-10-26",
            "url_tdpse_detail": "https://pse.komdigi.go.id/tdpse-detail/2019",
            "website": "femaledaily.com"
        },
        {
            "id": "9cb1ab74-d15b-4bb4-bc71-cee4c29bc1ac",
            "nama_pse": "BANK MEGA",
            "nama_se": "BANK MEGA EMPLOYEE MOBILE",
            "sektor": "Sektor Keuangan, Sektor Keuangan, Sektor Keuangan, Sektor Keuangan",
            "tanggal_terbit": "2021-10-26",
            "url_tdpse_detail": "https://pse.komdigi.go.id/tdpse-detail/2014",
            "website": "memo.bankmega.com"
        },
        {
            "id": "9cb1ab68-1a2e-4d71-b931-59e83af5bd54",
            "nama_pse": "LAMUDI CLASSIFIEDS INDONESIA",
            "nama_se": "LAMUDI INDONESIA",
            "sektor": "Sektor Perdagangan, Sektor Perdagangan",
            "tanggal_terbit": "2021-10-26",
            "url_tdpse_detail": "https://pse.komdigi.go.id/tdpse-detail/2146",
            "website": "lamudi.co.id"
        },
        {
            "id": "9cb1ab6f-40ef-4739-8fe4-a658790a1145",
            "nama_pse": "PERUSAHAAN PERSEROAN (PERSERO) PT. TELEKOMUNIKASI INDONESIA",
            "nama_se": "SIPLAHTELKOM",
            "sektor": "Sektor Perdagangan, Sektor Perdagangan, Sektor Perdagangan, Sektor Perdagangan",
            "tanggal_terbit": "2021-10-26",
            "url_tdpse_detail": "https://pse.komdigi.go.id/tdpse-detail/2018",
            "website": "siplahtelkom.com"
        },
        {
            "id": "9cb1ab6f-4392-49b9-978e-04b17d4dfdf1",
            "nama_pse": "PERUSAHAAN PERSEROAN (PERSERO) PT. TELEKOMUNIKASI INDONESIA",
            "nama_se": "TELKOM DIGITAL SOLUTION",
            "sektor": "Sektor Teknologi Informasi dan Komunikasi, Sektor Teknologi Informasi dan Komunikasi, Sektor Teknologi Informasi dan Komunikasi, Sektor Teknologi Informasi dan Komunikasi",
            "tanggal_terbit": "2021-10-26",
            "url_tdpse_detail": "https://pse.komdigi.go.id/tdpse-detail/2163",
            "website": "telkomdigitalsolution.com"
        },
        {
            "id": "9cb1ab6f-80c4-47f8-acbc-f6ba05fc7111",
            "nama_pse": "PERUSAHAAN PERSEROAN (PERSERO) PT. TELEKOMUNIKASI INDONESIA",
            "nama_se": "SMARTBISNIS",
            "sektor": "Sektor Teknologi Informasi dan Komunikasi, Sektor Teknologi Informasi dan Komunikasi, Sektor Teknologi Informasi dan Komunikasi, Sektor Teknologi Informasi dan Komunikasi",
            "tanggal_terbit": "2021-10-26",
            "url_tdpse_detail": "https://pse.komdigi.go.id/tdpse-detail/2164",
            "website": "smartbisnis.id"
        },
        {
            "id": "9cb1ab6f-8b40-49c9-90bf-a270ce4b62e4",
            "nama_pse": "PERUSAHAAN PERSEROAN (PERSERO) PT. TELEKOMUNIKASI INDONESIA",
            "nama_se": "INDIHOME",
            "sektor": "Sektor Teknologi Informasi dan Komunikasi, Sektor Teknologi Informasi dan Komunikasi, Sektor Teknologi Informasi dan Komunikasi, Sektor Teknologi Informasi dan Komunikasi",
            "tanggal_terbit": "2021-10-26",
            "url_tdpse_detail": "https://pse.komdigi.go.id/tdpse-detail/2165",
            "website": "indihome.co.id"
        },
        {
            "id": "9cb1ab75-da11-449e-bee5-5b7583fdc7c2",
            "nama_pse": "FAJAR MITRA INDAH",
            "nama_se": "FAMILYMART SHOP",
            "sektor": "Sektor Perdagangan, Sektor Perdagangan, Sektor Teknologi Informasi dan Komunikasi, Sektor Teknologi Informasi dan Komunikasi",
            "tanggal_terbit": "2021-10-26",
            "url_tdpse_detail": "https://pse.komdigi.go.id/tdpse-detail/2057",
            "website": "familymartshop.id"
        },
        {
            "id": "9cb1ab6f-e501-4ff2-8e8c-caea2b968b4f",
            "nama_pse": "HAGO KREATIF INDONESIA",
            "nama_se": "HAGO",
            "sektor": "Sektor Teknologi Informasi dan Komunikasi, Sektor Teknologi Informasi dan Komunikasi, Sektor Teknologi Informasi dan Komunikasi, Sektor Teknologi Informasi dan Komunikasi",
            "tanggal_terbit": "2021-10-26",
            "url_tdpse_detail": "https://pse.komdigi.go.id/tdpse-detail/2064",
            "website": "-"
        },
        {
            "id": "9cb1ab69-3862-4e95-b6b6-3b30f590f0f7",
            "nama_pse": "ANGKASA PURA SUPORT",
            "nama_se": "PANGGILAJA.COM",
            "sektor": "Sektor Perdagangan, Sektor Perdagangan, Sektor Perdagangan",
            "tanggal_terbit": "2021-10-26",
            "url_tdpse_detail": "https://pse.komdigi.go.id/tdpse-detail/2069",
            "website": "panggilaja.com"
        },
        {
            "id": "9cb1ab70-19b7-49ad-8b5f-bf69ce032d08",
            "nama_pse": "PELOPOR TEKNOLOGI INDONESIA",
            "nama_se": "WWW.TRIUMPH-OFFICIAL.LTD",
            "sektor": "Sektor Teknologi Informasi dan Komunikasi, Sektor Teknologi Informasi dan Komunikasi, Sektor Teknologi Informasi dan Komunikasi",
            "tanggal_terbit": "2021-10-26",
            "url_tdpse_detail": "https://pse.komdigi.go.id/tdpse-detail/2023",
            "website": "triumph-official.ltd"
        },
        {
            "id": "9cb1ab76-0ad6-4290-bc2d-1c385f3b7e0d",
            "nama_pse": "JEFF TOP SKOR",
            "nama_se": "JEFF",
            "sektor": "Sektor Teknologi Informasi dan Komunikasi, Sektor Teknologi Informasi dan Komunikasi",
            "tanggal_terbit": "2021-10-26",
            "url_tdpse_detail": "https://pse.komdigi.go.id/tdpse-detail/2022",
            "website": "jeff.co.id"
        },
        {
            "id": "9cb1ab76-11e1-47fd-9e2b-6c614bfd001b",
            "nama_pse": "KITA SERBA DIGITAL",
            "nama_se": "BISAKERJA.CO.ID",
            "sektor": "Sektor Teknologi Informasi dan Komunikasi, Sektor Teknologi Informasi dan Komunikasi",
            "tanggal_terbit": "2021-10-26",
            "url_tdpse_detail": "https://pse.komdigi.go.id/tdpse-detail/2056",
            "website": "BISAKERJA.CO.ID"
        },
        {
            "id": "9cb1ab70-32ff-4d32-ae2c-85d011438d8a",
            "nama_pse": "KITA SERBA DIGITAL",
            "nama_se": "SIAPLAH.CO.ID",
            "sektor": "Sektor Teknologi Informasi dan Komunikasi, Sektor Teknologi Informasi dan Komunikasi",
            "tanggal_terbit": "2021-10-26",
            "url_tdpse_detail": "https://pse.komdigi.go.id/tdpse-detail/2067",
            "website": "SIAPLAH.CO.ID"
        },
        {
            "id": "9cb1ab69-67eb-417d-9c1e-217622eed42b",
            "nama_pse": "VELOCE INDONESIA JAYA",
            "nama_se": "VELOCE TRAX",
            "sektor": "Sektor Perdagangan",
            "tanggal_terbit": "2021-10-26",
            "url_tdpse_detail": "https://pse.komdigi.go.id/tdpse-detail/2020",
            "website": "velocetrax.com"
        },
        {
            "id": "9cb1ab76-2102-4787-8398-4412fad08d2d",
            "nama_pse": "VELOCE INDONESIA JAYA",
            "nama_se": "VELOCETRAX",
            "sektor": "Sektor Perdagangan, Sektor Teknologi Informasi dan Komunikasi",
            "tanggal_terbit": "2021-10-26",
            "url_tdpse_detail": "https://pse.komdigi.go.id/tdpse-detail/2147",
            "website": "velocetrax.com"
        },
        {
            "id": "9cb1ab70-4bee-4658-8841-2205a9db492b",
            "nama_pse": "SOLUSI INFOTECH SEMESTA INDONESIA",
            "nama_se": "PESANTRENQU",
            "sektor": "Sektor Keuangan, Sektor Keuangan, Sektor Teknologi Informasi dan Komunikasi, Sektor Teknologi Informasi dan Komunikasi",
            "tanggal_terbit": "2021-10-26",
            "url_tdpse_detail": "https://pse.komdigi.go.id/tdpse-detail/2142",
            "website": "pesantrenqu.id"
        },
        {
            "id": "9cb1ab69-8773-4445-9d9c-8637050203aa",
            "nama_pse": "MITRA TEKNO MADANI",
            "nama_se": "PNM DIGI",
            "sektor": "Sektor Teknologi Informasi dan Komunikasi, Sektor Teknologi Informasi dan Komunikasi, Sektor Teknologi Informasi dan Komunikasi, Sektor Teknologi Informasi dan Komunikasi",
            "tanggal_terbit": "2021-10-26",
            "url_tdpse_detail": "https://pse.komdigi.go.id/tdpse-detail/2076",
            "website": "mtm.co.id"
        },
        {
            "id": "9cb1ab77-49b3-4554-8228-61b1a42aa221",
            "nama_pse": "INOVASI KECANTIKAN DIGITAL INDONESIA",
            "nama_se": "CANTIKID.COM",
            "sektor": "Sektor Perdagangan, Sektor Perdagangan, Sektor Kesehatan, Sektor Kesehatan",
            "tanggal_terbit": "2021-10-26",
            "url_tdpse_detail": "https://pse.komdigi.go.id/tdpse-detail/2042",
            "website": "cantikid.com"
        },
        {
            "id": "9cb1ab76-3b51-43a9-a73b-7635a2190c0a",
            "nama_pse": "SAVVIX DIGITAL BLOCKCHAIN",
            "nama_se": "SAVVIX DEFI BLOCKCHAIN",
            "sektor": "Sektor Perdagangan, Sektor Perdagangan, Sektor Perdagangan",
            "tanggal_terbit": "2021-10-26",
            "url_tdpse_detail": "https://pse.komdigi.go.id/tdpse-detail/2028",
            "website": "savvix.io"
        },
        {
            "id": "9cb1ab76-3e25-4518-83f1-642d99ad28ec",
            "nama_pse": "BANK BTPN SYARIAH",
            "nama_se": "MOBILE BANKING BTPN SYARIAH",
            "sektor": "Sektor Keuangan, Sektor Keuangan, Sektor Keuangan",
            "tanggal_terbit": "2021-10-26",
            "url_tdpse_detail": "https://pse.komdigi.go.id/tdpse-detail/2124",
            "website": "btpnsyariahmobile(appstrore/playstoreinstaller); https://webadmin-mbank.corp.btpns.com/ebanking-web/login; https://dashboard.btpnsyariah.com"
        },
        {
            "id": "9cb1ab76-4390-4f3b-94eb-9a5a1ac7b0bb",
            "nama_pse": "BANK BTPN SYARIAH",
            "nama_se": "COMPANY PORTAL BTPN SYARIAH",
            "sektor": "Sektor Keuangan, Sektor Keuangan, Sektor Keuangan",
            "tanggal_terbit": "2021-10-26",
            "url_tdpse_detail": "https://pse.komdigi.go.id/tdpse-detail/2125",
            "website": "btpnsyariah.com/"
        },
        {
            "id": "9cb1ab69-9340-45ad-b551-8fdf5ca0c68d",
            "nama_pse": "MONETA PEMBAYARAN TEKNOLOGI",
            "nama_se": "MONETA PAY",
            "sektor": "Sektor Keuangan, Sektor Keuangan",
            "tanggal_terbit": "2021-10-26",
            "url_tdpse_detail": "https://pse.komdigi.go.id/tdpse-detail/2136",
            "website": "monetapay.id"
        },
        {
            "id": "9cb1ab69-97d0-4e7f-8236-73d67e7644a0",
            "nama_pse": "NINETY NINE DOTCO",
            "nama_se": "99.CO",
            "sektor": "Sektor Teknologi Informasi dan Komunikasi, Sektor Teknologi Informasi dan Komunikasi",
            "tanggal_terbit": "2021-10-26",
            "url_tdpse_detail": "https://pse.komdigi.go.id/tdpse-detail/2043",
            "website": "99.co"
        },
        {
            "id": "9cb1ab76-4706-449b-bfb6-1bbe59923568",
            "nama_pse": "MOVEIT LOGISTIC SOLUTIONS",
            "nama_se": "MOVEIT",
            "sektor": "Sektor Transportasi, Sektor Transportasi, Sektor Transportasi",
            "tanggal_terbit": "2021-10-26",
            "url_tdpse_detail": "https://pse.komdigi.go.id/tdpse-detail/2027",
            "website": "ittgmoveit.com"
        },
        {
            "id": "9cb1ab77-54cc-4033-b0dc-a9c7083f9608",
            "nama_pse": "SOLUSI DANA BAHAGIA",
            "nama_se": "SOLUNA (SOLUSI DANA BAHAGIA)",
            "sektor": "Sektor Teknologi Informasi dan Komunikasi, Sektor Teknologi Informasi dan Komunikasi",
            "tanggal_terbit": "2021-10-26",
            "url_tdpse_detail": "https://pse.komdigi.go.id/tdpse-detail/2029",
            "website": "soluna.id/"
        },
        {
            "id": "9cb1ab76-50ac-4591-8319-7d86a474cc51",
            "nama_pse": "TEDDY SEPTIADI",
            "nama_se": "NEXTWEB.ID",
            "sektor": "Sektor Teknologi Informasi dan Komunikasi, Sektor Teknologi Informasi dan Komunikasi",
            "tanggal_terbit": "2021-10-26",
            "url_tdpse_detail": "https://pse.komdigi.go.id/tdpse-detail/2046",
            "website": "netxweb.id"
        },
        {
            "id": "9cb1ab76-5b1a-4fbd-b49e-4f6c3c1f7afa",
            "nama_pse": "SOLUSI NUSANTARA TERPADU",
            "nama_se": "BPDNET",
            "sektor": "Sektor Perdagangan, Sektor Perdagangan, Sektor Perdagangan, Sektor Teknologi Informasi dan Komunikasi, Sektor Teknologi Informasi dan Komunikasi, Sektor Teknologi Informasi dan Komunikasi",
            "tanggal_terbit": "2021-10-26",
            "url_tdpse_detail": "https://pse.komdigi.go.id/tdpse-detail/2073",
            "website": "bpdnet.com"
        },
        {
            "id": "9cb1ab69-9f82-4602-8d5f-017e2cf294be",
            "nama_pse": "STUCEL MEDIA KREATIF",
            "nama_se": "STUCEL",
            "sektor": "Sektor Perdagangan, Sektor Perdagangan",
            "tanggal_terbit": "2021-10-26",
            "url_tdpse_detail": "https://pse.komdigi.go.id/tdpse-detail/2033",
            "website": "stucel.com"
        },
        {
            "id": "9cb1ab69-a296-415a-9a86-8955f13ef0ad",
            "nama_pse": "STUCEL MEDIA KREATIF",
            "nama_se": "STUCEL",
            "sektor": "Sektor Perdagangan, Sektor Perdagangan, Sektor Teknologi Informasi dan Komunikasi, Sektor Teknologi Informasi dan Komunikasi",
            "tanggal_terbit": "2021-10-26",
            "url_tdpse_detail": "https://pse.komdigi.go.id/tdpse-detail/2139",
            "website": "stucel.com"
        },
        {
            "id": "9cb1ab69-a8d4-421e-8e80-0ed4e0c79552",
            "nama_pse": "DOCQUITY GLOBAL INDONESIA",
            "nama_se": "DOCQUITY CLINIC",
            "sektor": "Sektor Perdagangan, Sektor Perdagangan",
            "tanggal_terbit": "2021-10-26",
            "url_tdpse_detail": "https://pse.komdigi.go.id/tdpse-detail/2032",
            "website": "docquity.com"
        },
        {
            "id": "9cb1ab76-5e99-4193-9fb4-91640a1bf59f",
            "nama_pse": "KANMO RETAILINDO",
            "nama_se": "COACH WEB",
            "sektor": "Sektor Perdagangan, Sektor Perdagangan, Sektor Perdagangan",
            "tanggal_terbit": "2021-10-26",
            "url_tdpse_detail": "https://pse.komdigi.go.id/tdpse-detail/2040",
            "website": "id.coach.com"
        },
        {
            "id": "9cb1ab69-ab4c-4d2e-bc4d-7a28af681078",
            "nama_pse": "KANMO RETAILINDO",
            "nama_se": "KATESPADE WEB",
            "sektor": "Sektor Perdagangan, Sektor Perdagangan, Sektor Perdagangan",
            "tanggal_terbit": "2021-10-26",
            "url_tdpse_detail": "https://pse.komdigi.go.id/tdpse-detail/2041",
            "website": "katespade.co.id"
        },
        {
            "id": "9cb1ab69-ad5a-4704-9d6f-c66fe65f6f69",
            "nama_pse": "MANGGALA ARTHA SEJAHTERA",
            "nama_se": "EZYPOLIS",
            "sektor": "Sektor Keuangan, Sektor Keuangan, Sektor Keuangan, Sektor Teknologi Informasi dan Komunikasi, Sektor Teknologi Informasi dan Komunikasi, Sektor Teknologi Informasi dan Komunikasi",
            "tanggal_terbit": "2021-10-26",
            "url_tdpse_detail": "https://pse.komdigi.go.id/tdpse-detail/2050",
            "website": "ezypolis.com"
        },
        {
            "id": "9cb1ab77-62eb-4899-9e98-277f2e456a82",
            "nama_pse": "RAKIT TALENTA NUSANTARA",
            "nama_se": "MENTOR INC.",
            "sektor": "Sektor Perdagangan, Sektor Perdagangan, Sektor Perdagangan, Sektor Teknologi Informasi dan Komunikasi, Sektor Teknologi Informasi dan Komunikasi, Sektor Teknologi Informasi dan Komunikasi",
            "tanggal_terbit": "2021-10-26",
            "url_tdpse_detail": "https://pse.komdigi.go.id/tdpse-detail/2039",
            "website": "mentorinc.io"
        },
        {
            "id": "9cb1ab69-b172-4600-bcc0-809ee5a54595",
            "nama_pse": "MARECO PRIMA MANDIRI",
            "nama_se": "DIPAY",
            "sektor": "Sektor Keuangan, Sektor Keuangan, Sektor Teknologi Informasi dan Komunikasi, Sektor Teknologi Informasi dan Komunikasi",
            "tanggal_terbit": "2021-10-26",
            "url_tdpse_detail": "https://pse.komdigi.go.id/tdpse-detail/2090",
            "website": "dipay.id"
        },
        {
            "id": "9cb1ab69-b59c-4bdb-ab95-a81cc5b9fe69",
            "nama_pse": "BELPIN BLESSIN INDONESIA",
            "nama_se": "HTTPS://BELIPINTAR.CO.ID/",
            "sektor": "Sektor Perdagangan, Sektor Perdagangan, Sektor Teknologi Informasi dan Komunikasi, Sektor Teknologi Informasi dan Komunikasi",
            "tanggal_terbit": "2021-10-26",
            "url_tdpse_detail": "https://pse.komdigi.go.id/tdpse-detail/2034",
            "website": "belipintar.co.id"
        },
        {
            "id": "9cb1ab76-6943-4594-aed9-394f3e4c7eb2",
            "nama_pse": "DUNIA PERKAKAS INDONESIA",
            "nama_se": "DUNIAPERKAKAS.CO.ID",
            "sektor": "Sektor Perdagangan, Sektor Perdagangan, Sektor Teknologi Informasi dan Komunikasi, Sektor Teknologi Informasi dan Komunikasi",
            "tanggal_terbit": "2021-10-26",
            "url_tdpse_detail": "https://pse.komdigi.go.id/tdpse-detail/2038",
            "website": "DUNIAPERKAKAS.CO.ID"
        },
        {
            "id": "9cb1ab76-7551-4a31-9620-af871273d89a",
            "nama_pse": "UNGGUL ADI JAYA",
            "nama_se": "GETSTOK",
            "sektor": "Sektor Perdagangan, Sektor Perdagangan, Sektor Perdagangan, Sektor Perdagangan, Sektor Perdagangan, Sektor Perdagangan",
            "tanggal_terbit": "2021-10-26",
            "url_tdpse_detail": "https://pse.komdigi.go.id/tdpse-detail/2047",
            "website": "getstok.com"
        },
        {
            "id": "9cb1ab69-bd4b-4c26-acf7-8b973c25ab17",
            "nama_pse": "NTB MALL GEMILANG",
            "nama_se": "NTB MALL",
            "sektor": "Sektor Perdagangan, Sektor Perdagangan, Sektor Perdagangan",
            "tanggal_terbit": "2021-10-26",
            "url_tdpse_detail": "https://pse.komdigi.go.id/tdpse-detail/2133",
            "website": "http://ntbmall.com/"
        },
        {
            "id": "9cb1ab77-65d0-4868-b9b4-eedf1796b468",
            "nama_pse": "ILAGAJAYA DIGITAL INDONESIA",
            "nama_se": "ILAGAJAYA",
            "sektor": "Sektor Perdagangan, Sektor Perdagangan, Sektor Teknologi Informasi dan Komunikasi, Sektor Teknologi Informasi dan Komunikasi",
            "tanggal_terbit": "2021-10-26",
            "url_tdpse_detail": "https://pse.komdigi.go.id/tdpse-detail/2117",
            "website": "ilagajaya.com"
        },
        {
            "id": "9cb1ab7f-29f9-45fb-b758-baf9337207f4",
            "nama_pse": "SINARMAS SEKURITAS",
            "nama_se": "SIMINVEST",
            "sektor": "Sektor Keuangan, Sektor Keuangan",
            "tanggal_terbit": "2021-10-26",
            "url_tdpse_detail": "https://pse.komdigi.go.id/tdpse-detail/2162",
            "website": "siminvest.co.id"
        },
        {
            "id": "9cb1ab77-689a-42bc-a240-9ff2b85eac43",
            "nama_pse": "MEDIA INDONUSA",
            "nama_se": "FASPAY PAYMENT GATEWAY",
            "sektor": "Sektor Keuangan, Sektor Keuangan, Sektor Keuangan",
            "tanggal_terbit": "2021-10-26",
            "url_tdpse_detail": "https://pse.komdigi.go.id/tdpse-detail/2108",
            "website": "faspay.co.id"
        },
        {
            "id": "9cb1ab76-958e-4776-bcea-91e487f15550",
            "nama_pse": "LEGALKU SERVICIA CORPORA",
            "nama_se": "LEGALKU DIGITAL",
            "sektor": "Sektor Teknologi Informasi dan Komunikasi, Sektor Teknologi Informasi dan Komunikasi",
            "tanggal_terbit": "2021-10-26",
            "url_tdpse_detail": "https://pse.komdigi.go.id/tdpse-detail/2068",
            "website": "legalku.com"
        },
        {
            "id": "9cb1ab76-9893-4ce5-ae6b-3065c28d70d9",
            "nama_pse": "BERSAMA KARUNIA MANDIRI",
            "nama_se": "HTTPS://WWW.BERSHKA.COM/ID/",
            "sektor": "Sektor Perdagangan, Sektor Perdagangan",
            "tanggal_terbit": "2021-10-26",
            "url_tdpse_detail": "https://pse.komdigi.go.id/tdpse-detail/2058",
            "website": "bershka.com/id/"
        },
        {
            "id": "9cb1ab76-9a9e-483f-98c5-9a688e626633",
            "nama_pse": "CTXG INDONESIA BERKARYA",
            "nama_se": "KOMODO POWERED BY CTXG",
            "sektor": "Sektor Perdagangan, Sektor Perdagangan, Sektor Perdagangan",
            "tanggal_terbit": "2021-10-26",
            "url_tdpse_detail": "https://pse.komdigi.go.id/tdpse-detail/2081",
            "website": "komodoexchange.com"
        },
        {
            "id": "9cb1ab76-9c96-4611-9712-497798d4685d",
            "nama_pse": "RANTAI MAS MEBELINDO",
            "nama_se": "ATOZFURNITURE.CO.ID",
            "sektor": "Sektor Perdagangan, Sektor Perdagangan",
            "tanggal_terbit": "2021-10-26",
            "url_tdpse_detail": "https://pse.komdigi.go.id/tdpse-detail/2109",
            "website": "ATOZFURNITURE.CO.ID"
        },
        {
            "id": "9cb1ab7f-32fe-4af6-a8a9-86b8ccfb1846",
            "nama_pse": "SCORING TEKNOLOGI INDONESIA",
            "nama_se": "WEBSITE DAN API",
            "sektor": "Sektor Teknologi Informasi dan Komunikasi, Sektor Teknologi Informasi dan Komunikasi",
            "tanggal_terbit": "2021-10-26",
            "url_tdpse_detail": "https://pse.komdigi.go.id/tdpse-detail/2045",
            "website": "scoring.co.id"
        },
        {
            "id": "9cb1ab76-a084-4ce1-956a-beb7957be735",
            "nama_pse": "KASISOLUSI USAHA INDONESIA",
            "nama_se": "KASISOLUSI",
            "sektor": "Sektor Perdagangan, Sektor Perdagangan, Sektor Perdagangan",
            "tanggal_terbit": "2021-10-26",
            "url_tdpse_detail": "https://pse.komdigi.go.id/tdpse-detail/2138",
            "website": "kasisolusi.com"
        }
    ],
    "processingTimeMs": 8,
    "query": "",
    "totalHits": 19131,
    "hitsPerPage": 50,
    "page": 343,
    "totalPages": 383
}