{
    "hits": [
        {
            "id": "9cb1ab74-160b-452c-91d9-7809ee721461",
            "nama_pse": "TEKNOLOGI LAYANAN INFORMASI YOKA",
            "nama_se": "XM HELPER",
            "sektor": "Sektor Teknologi Informasi dan Komunikasi, Sektor Teknologi Informasi dan Komunikasi, Sektor Teknologi Informasi dan Komunikasi",
            "tanggal_terbit": "2021-06-25",
            "url_tdpse_detail": "https://pse.komdigi.go.id/tdpse-detail/1595",
            "website": "xmhelper.com"
        },
        {
            "id": "9cb1ab74-6ba9-4eaf-9343-91fdbbb82d21",
            "nama_pse": "KONSEP DIGITAL INDONESIA",
            "nama_se": "PT KONSEP DIGITAL INDONESIA",
            "sektor": "Sektor Teknologi Informasi dan Komunikasi, Sektor Teknologi Informasi dan Komunikasi",
            "tanggal_terbit": "2021-06-25",
            "url_tdpse_detail": "https://pse.komdigi.go.id/tdpse-detail/1594",
            "website": "kodi.pictures"
        },
        {
            "id": "9cb1ab67-f4f7-4e48-84d6-9f296de2ea32",
            "nama_pse": "PANSAKY BERDIKARI BERSAMA",
            "nama_se": "PANSAKA",
            "sektor": "Sektor Perdagangan, Sektor Perdagangan, Sektor Perdagangan",
            "tanggal_terbit": "2021-06-25",
            "url_tdpse_detail": "https://pse.komdigi.go.id/tdpse-detail/1602",
            "website": "Pansaka.co.id"
        },
        {
            "id": "9cb1ab67-fee0-4801-83e3-4b9c467c1bda",
            "nama_pse": "BANK MEGA",
            "nama_se": "BANK MEGA EMPLOYEE MOBILE",
            "sektor": "Sektor Keuangan, Sektor Keuangan, Sektor Keuangan, Sektor Keuangan",
            "tanggal_terbit": "2021-06-25",
            "url_tdpse_detail": "https://pse.komdigi.go.id/tdpse-detail/1590",
            "website": "memo.bankmega.com"
        },
        {
            "id": "9cb1ab6e-4fa2-440f-b038-69083e76a8e4",
            "nama_pse": "BANK MEGA",
            "nama_se": "BANK MEGA VPN",
            "sektor": "Sektor Keuangan, Sektor Keuangan, Sektor Keuangan, Sektor Keuangan",
            "tanggal_terbit": "2021-06-25",
            "url_tdpse_detail": "https://pse.komdigi.go.id/tdpse-detail/1598",
            "website": "vpn.bankmega.com"
        },
        {
            "id": "9cb1ab74-a9ff-4436-ba6a-abb309820912",
            "nama_pse": "BANK MEGA",
            "nama_se": "BANK MEGA CAREER",
            "sektor": "Sektor Keuangan, Sektor Keuangan, Sektor Keuangan, Sektor Keuangan",
            "tanggal_terbit": "2021-06-25",
            "url_tdpse_detail": "https://pse.komdigi.go.id/tdpse-detail/1599",
            "website": "career.bankmega.com"
        },
        {
            "id": "9cb1ab74-e8ae-423b-ae40-067b861bafd6",
            "nama_pse": "BLUE BIRD Tbk",
            "nama_se": "MYBLUEBIRD",
            "sektor": "Sektor Transportasi, Sektor Transportasi, Sektor Transportasi",
            "tanggal_terbit": "2021-06-25",
            "url_tdpse_detail": "https://pse.komdigi.go.id/tdpse-detail/1592",
            "website": "bluebirdgroup.com"
        },
        {
            "id": "9cb1ab6e-5bfb-460c-a0c3-75c502767134",
            "nama_pse": "ELIZABETH HANJAYA",
            "nama_se": "ELIZABETH",
            "sektor": "Sektor Perdagangan, Sektor Perdagangan, Sektor Perdagangan",
            "tanggal_terbit": "2021-06-25",
            "url_tdpse_detail": "https://pse.komdigi.go.id/tdpse-detail/1604",
            "website": "elizabeth.co.id"
        },
        {
            "id": "9cb1ab74-f5e0-473c-b1b4-3728dab24224",
            "nama_pse": "BANK SEABANK INDONESIA",
            "nama_se": "APLIKASI SEABANK",
            "sektor": "Sektor Keuangan, Sektor Keuangan",
            "tanggal_terbit": "2021-06-25",
            "url_tdpse_detail": "https://pse.komdigi.go.id/tdpse-detail/1596",
            "website": "www.bankbke.co.id \u0026 www.seabank.co.id"
        },
        {
            "id": "9cb1ab74-fe57-4ac3-8f60-4b29224b1fed",
            "nama_pse": "VISI MEDIA TARA",
            "nama_se": "WEBSITE",
            "sektor": "Sektor Perdagangan, Sektor Perdagangan, Sektor Perdagangan, Sektor Perdagangan, Sektor Teknologi Informasi dan Komunikasi, Sektor Teknologi Informasi dan Komunikasi, Sektor Teknologi Informasi dan Komunikasi, Sektor Teknologi Informasi dan Komunikasi",
            "tanggal_terbit": "2021-06-25",
            "url_tdpse_detail": "https://pse.komdigi.go.id/tdpse-detail/1603",
            "website": "Visimediatara.com"
        },
        {
            "id": "9cb1ab64-a3ba-4302-8c5c-629be4fdbda3",
            "nama_pse": "TEKNOLOGI PERDANA INDONESIA",
            "nama_se": "APLIKASI MAXIM",
            "sektor": "Sektor Perdagangan, Sektor Perdagangan, Sektor Perdagangan, Sektor Teknologi Informasi dan Komunikasi, Sektor Teknologi Informasi dan Komunikasi, Sektor Teknologi Informasi dan Komunikasi",
            "tanggal_terbit": "2021-06-24",
            "url_tdpse_detail": "https://pse.komdigi.go.id/tdpse-detail/1574",
            "website": "taximaxim.com/"
        },
        {
            "id": "9cb1ab65-0a1f-4dbe-810b-cd4c689a562b",
            "nama_pse": "USSI",
            "nama_se": "IBS E-CHANNEL",
            "sektor": "Sektor Teknologi Informasi dan Komunikasi, Sektor Teknologi Informasi dan Komunikasi",
            "tanggal_terbit": "2021-06-24",
            "url_tdpse_detail": "https://pse.komdigi.go.id/tdpse-detail/1552",
            "website": "ussi.co.id/"
        },
        {
            "id": "9cb1ab6a-9307-460c-a583-cd6118955023",
            "nama_pse": "GERAKAN MIMPI INDONESIA",
            "nama_se": "MIMPI MOVEMENT",
            "sektor": "Sektor Perdagangan, Sektor Perdagangan",
            "tanggal_terbit": "2021-06-24",
            "url_tdpse_detail": "https://pse.komdigi.go.id/tdpse-detail/1550",
            "website": "mimpimovement.com"
        },
        {
            "id": "9cb1ab6a-afc0-4100-bc94-ad2f0ed11e75",
            "nama_pse": "SEHATQ HARSANA EMEDIKA",
            "nama_se": "SEHATQ.COM",
            "sektor": "Sektor Kesehatan, Sektor Kesehatan",
            "tanggal_terbit": "2021-06-24",
            "url_tdpse_detail": "https://pse.komdigi.go.id/tdpse-detail/1539",
            "website": "sehatq.com"
        },
        {
            "id": "9cb1ab71-e86d-48d9-8eff-d9944ee6f480",
            "nama_pse": "NET SEKURITAS",
            "nama_se": "WEBSITE NET SEKURITAS",
            "sektor": "Sektor Keuangan, Sektor Keuangan",
            "tanggal_terbit": "2021-06-24",
            "url_tdpse_detail": "https://pse.komdigi.go.id/tdpse-detail/1577",
            "website": "netsekuritas.co.id"
        },
        {
            "id": "9cb1ab72-296e-45da-8ec0-34f3e18d77c3",
            "nama_pse": "DOMPET AMAN INDONESIA",
            "nama_se": "DOMPET AMAN",
            "sektor": "Sektor Perdagangan, Sektor Perdagangan",
            "tanggal_terbit": "2021-06-24",
            "url_tdpse_detail": "https://pse.komdigi.go.id/tdpse-detail/1546",
            "website": "dompetaman.com"
        },
        {
            "id": "9cb1ab72-a1f1-47ef-aa8a-e4702afd09c0",
            "nama_pse": "GLOBAL SERSCODE TECH",
            "nama_se": "SERSCODE",
            "sektor": "Sektor Teknologi Informasi dan Komunikasi, Sektor Teknologi Informasi dan Komunikasi",
            "tanggal_terbit": "2021-06-24",
            "url_tdpse_detail": "https://pse.komdigi.go.id/tdpse-detail/1507",
            "website": "serscode.com"
        },
        {
            "id": "9cb1ab6c-b08d-4349-b348-4fd9e9423e28",
            "nama_pse": "FUJITSU INDONESIA",
            "nama_se": "MIKRON (MANAGEMEN INFORMASI KLINIK DAN RUMAH SAKIT ONLINE)",
            "sektor": "Sektor Perdagangan, Sektor Perdagangan, Sektor Perdagangan, Sektor Energi dan Sumber Daya Mineral, Sektor Energi dan Sumber Daya Mineral, Sektor Energi dan Sumber Daya Mineral, Sektor Transportasi, Sektor Transportasi, Sektor Transportasi, Sektor Keuangan, Sektor Keuangan, Sektor Keuangan, Sektor Kesehatan, Sektor Kesehatan, Sektor Kesehatan, Sektor Teknologi Informasi dan Komunikasi, Sektor Teknologi Informasi dan Komunikasi, Sektor Teknologi Informasi dan Komunikasi, Sektor Pangan, Sektor Pangan, Sektor Pangan, Sektor Pertahanan dan Keamanan, Sektor Pertahanan dan Keamanan, Sektor Pertahanan dan Keamanan",
            "tanggal_terbit": "2021-06-24",
            "url_tdpse_detail": "https://pse.komdigi.go.id/tdpse-detail/1568",
            "website": "mikron.id.id"
        },
        {
            "id": "9cb1ab66-b9aa-47a7-8092-96ed4e6a2914",
            "nama_pse": "MODAL RAKYAT INDONESIA",
            "nama_se": "APLIKASI MODAL RAKYAT (ANDROID)",
            "sektor": "Sektor Keuangan, Sektor Keuangan, Sektor Keuangan, Sektor Teknologi Informasi dan Komunikasi, Sektor Teknologi Informasi dan Komunikasi, Sektor Teknologi Informasi dan Komunikasi",
            "tanggal_terbit": "2021-06-24",
            "url_tdpse_detail": "https://pse.komdigi.go.id/tdpse-detail/1535",
            "website": "modalrakyat.id"
        },
        {
            "id": "9cb1ab6d-1b94-48c5-9abb-6c147cd0599f",
            "nama_pse": "MODAL RAKYAT INDONESIA",
            "nama_se": "APLIKASI MODAL RAKYAT (IOS)",
            "sektor": "Sektor Keuangan, Sektor Keuangan, Sektor Keuangan, Sektor Teknologi Informasi dan Komunikasi, Sektor Teknologi Informasi dan Komunikasi, Sektor Teknologi Informasi dan Komunikasi",
            "tanggal_terbit": "2021-06-24",
            "url_tdpse_detail": "https://pse.komdigi.go.id/tdpse-detail/1536",
            "website": "modalrakyat.id"
        },
        {
            "id": "9cb1ab6d-1dc9-4895-ae8f-bdc49accfaea",
            "nama_pse": "BANK INDEX SELINDO",
            "nama_se": "WEBSITE",
            "sektor": "Sektor Keuangan, Sektor Keuangan, Sektor Keuangan",
            "tanggal_terbit": "2021-06-24",
            "url_tdpse_detail": "https://pse.komdigi.go.id/tdpse-detail/1508",
            "website": "bankindex.co.id/"
        },
        {
            "id": "9cb1ab73-77d8-497f-bee2-ad5bc6efb65d",
            "nama_pse": "BANK INDEX SELINDO",
            "nama_se": "INDEXQU BUSINESS",
            "sektor": "Sektor Keuangan, Sektor Keuangan, Sektor Keuangan",
            "tanggal_terbit": "2021-06-24",
            "url_tdpse_detail": "https://pse.komdigi.go.id/tdpse-detail/1509",
            "website": "bankindex.co.id/"
        },
        {
            "id": "9cb1ab6d-205f-4c96-aab3-e189fdb9b72e",
            "nama_pse": "BANK INDEX SELINDO",
            "nama_se": "INDEXQU",
            "sektor": "Sektor Keuangan, Sektor Keuangan, Sektor Keuangan",
            "tanggal_terbit": "2021-06-24",
            "url_tdpse_detail": "https://pse.komdigi.go.id/tdpse-detail/1510",
            "website": "bankindex.co.id/"
        },
        {
            "id": "9cb1ab73-7a9d-4674-910f-f4f99451d0e4",
            "nama_pse": "PASAR DANA PINJAMAN",
            "nama_se": "LANCAR",
            "sektor": "Sektor Keuangan, Sektor Keuangan",
            "tanggal_terbit": "2021-06-24",
            "url_tdpse_detail": "https://pse.komdigi.go.id/tdpse-detail/1528",
            "website": "lancar.id"
        },
        {
            "id": "9cb1ab66-f96e-4ae6-829f-d7cc0ccd0dd8",
            "nama_pse": "DPO INDONESIA FMCG",
            "nama_se": "NAMA WEBSITE : BIGBOXASIA",
            "sektor": "Sektor Perdagangan, Sektor Perdagangan, Sektor Perdagangan, Sektor Perdagangan, Sektor Pangan, Sektor Pangan, Sektor Pangan, Sektor Pangan",
            "tanggal_terbit": "2021-06-24",
            "url_tdpse_detail": "https://pse.komdigi.go.id/tdpse-detail/1513",
            "website": "bigboxasia.co.id"
        },
        {
            "id": "9cb1ab67-1b93-4bb6-89a5-90ff2a1efa7b",
            "nama_pse": "ALHASAN PRIMA EDUKASI",
            "nama_se": "PROEDU",
            "sektor": "Sektor Teknologi Informasi dan Komunikasi, Sektor Teknologi Informasi dan Komunikasi, Sektor Teknologi Informasi dan Komunikasi",
            "tanggal_terbit": "2021-06-24",
            "url_tdpse_detail": "https://pse.komdigi.go.id/tdpse-detail/1547",
            "website": "proedu.id"
        },
        {
            "id": "9cb1ab73-f1d4-4647-855c-d17c4f3fc425",
            "nama_pse": "SOMPO INSURANCE INDONESIA",
            "nama_se": "SOMPO MICROSITE",
            "sektor": "Sektor Keuangan, Sektor Keuangan",
            "tanggal_terbit": "2021-06-24",
            "url_tdpse_detail": "https://pse.komdigi.go.id/tdpse-detail/1530",
            "website": "sompo.co.id/sompomicro/"
        },
        {
            "id": "9cb1ab6d-aed3-4312-91d3-3f360cf2bd68",
            "nama_pse": "EDUKITA BUDAYA CINTA BELAJAR",
            "nama_se": "EDUKITA",
            "sektor": "Sektor Perdagangan, Sektor Perdagangan, Sektor Teknologi Informasi dan Komunikasi, Sektor Teknologi Informasi dan Komunikasi",
            "tanggal_terbit": "2021-06-24",
            "url_tdpse_detail": "https://pse.komdigi.go.id/tdpse-detail/1529",
            "website": "edukita.com"
        },
        {
            "id": "9cb1ab6d-c03b-4896-a1c8-322611089376",
            "nama_pse": "JUAL BELI OKE",
            "nama_se": "JUALBELIOK.COM",
            "sektor": "Sektor Perdagangan, Sektor Perdagangan",
            "tanggal_terbit": "2021-06-24",
            "url_tdpse_detail": "https://pse.komdigi.go.id/tdpse-detail/1551",
            "website": "jualbeliok.com"
        },
        {
            "id": "9cb1ab67-8385-41d9-a2de-4f233426d098",
            "nama_pse": "DOS-NI-ROHA",
            "nama_se": "DNRPLUS",
            "sektor": "Sektor Perdagangan, Sektor Perdagangan, Sektor Perdagangan",
            "tanggal_terbit": "2021-06-24",
            "url_tdpse_detail": "https://pse.komdigi.go.id/tdpse-detail/1542",
            "website": "DnrPlus.com"
        },
        {
            "id": "9cb1ab67-86eb-4d1c-a673-ec2e7f73c26f",
            "nama_pse": "SINEMA DIGITAL TRANSFORMASI",
            "nama_se": "FLIPFLOP TV",
            "sektor": "Sektor Teknologi Informasi dan Komunikasi, Sektor Teknologi Informasi dan Komunikasi",
            "tanggal_terbit": "2021-06-24",
            "url_tdpse_detail": "https://pse.komdigi.go.id/tdpse-detail/1504",
            "website": "flipfloptv.id"
        },
        {
            "id": "9cb1ab6d-dee6-4fd8-9a90-72c88677cc5c",
            "nama_pse": "PDAM TIRTANADI",
            "nama_se": "APLIKASI TIRTANADI WHISTLE BLOWING SYSTEM",
            "sektor": "Sektor Teknologi Informasi dan Komunikasi, Sektor Teknologi Informasi dan Komunikasi",
            "tanggal_terbit": "2021-06-24",
            "url_tdpse_detail": "https://pse.komdigi.go.id/tdpse-detail/1576",
            "website": "pdamtirtanadi.co.id"
        },
        {
            "id": "9cb1ab6d-e0d4-4a98-ad05-f64bcb6a6431",
            "nama_pse": "PDAM TIRTANADI",
            "nama_se": "APLIKASI E-PROCUREMENT LPSE ONLINE",
            "sektor": "Sektor Teknologi Informasi dan Komunikasi, Sektor Teknologi Informasi dan Komunikasi",
            "tanggal_terbit": "2021-06-24",
            "url_tdpse_detail": "https://pse.komdigi.go.id/tdpse-detail/1578",
            "website": "pdamtirtanadi.co.id"
        },
        {
            "id": "9cb1ab67-99fa-464a-a67f-9eeb6e458ed7",
            "nama_pse": "COMMERCE FINANCE",
            "nama_se": "COMMERCE FINANCE",
            "sektor": "Sektor Keuangan, Sektor Keuangan",
            "tanggal_terbit": "2021-06-24",
            "url_tdpse_detail": "https://pse.komdigi.go.id/tdpse-detail/1554",
            "website": "commerce-finance.com"
        },
        {
            "id": "9cb1ab67-b517-4bb9-9ee5-661d636ef839",
            "nama_pse": "HELLO KREASI INDONESIA",
            "nama_se": "HI APP",
            "sektor": "Sektor Teknologi Informasi dan Komunikasi, Sektor Teknologi Informasi dan Komunikasi, Sektor Teknologi Informasi dan Komunikasi",
            "tanggal_terbit": "2021-06-24",
            "url_tdpse_detail": "https://pse.komdigi.go.id/tdpse-detail/1549",
            "website": "hiapp.id"
        },
        {
            "id": "9cb1ab67-bb58-49f9-b99d-e1cbe4909586",
            "nama_pse": "HELLO KREASI INDONESIA",
            "nama_se": "HI APP",
            "sektor": "Sektor Teknologi Informasi dan Komunikasi, Sektor Teknologi Informasi dan Komunikasi, Sektor Teknologi Informasi dan Komunikasi",
            "tanggal_terbit": "2021-06-24",
            "url_tdpse_detail": "https://pse.komdigi.go.id/tdpse-detail/1553",
            "website": "hiapp.id"
        },
        {
            "id": "9cb1ab6d-fa0d-4266-8c33-7c0122a18326",
            "nama_pse": "RATNA HAPSARI MAHAKARYA CENDEKIA",
            "nama_se": "TELEPATHOLOGY",
            "sektor": "Sektor Kesehatan, Sektor Kesehatan",
            "tanggal_terbit": "2021-06-24",
            "url_tdpse_detail": "https://pse.komdigi.go.id/tdpse-detail/1519",
            "website": "-"
        },
        {
            "id": "9cb1ab6d-fbdc-4fb8-ac0a-fefad7f1f6ed",
            "nama_pse": "INDOSMART KOMUNIKASI GLOBAL",
            "nama_se": "DISTRIBUTOR PULSA ELEKTRONIK SEMUA OPERATOR",
            "sektor": "Sektor Teknologi Informasi dan Komunikasi, Sektor Teknologi Informasi dan Komunikasi",
            "tanggal_terbit": "2021-06-24",
            "url_tdpse_detail": "https://pse.komdigi.go.id/tdpse-detail/1505",
            "website": "indosmart.co.id"
        },
        {
            "id": "9cb1ab6d-ff3d-4239-8c1a-b098f8d0aba5",
            "nama_pse": "ARUNA JAYA NUSWANTARA",
            "nama_se": "BUYER APPS",
            "sektor": "Sektor Perdagangan, Sektor Perdagangan",
            "tanggal_terbit": "2021-06-24",
            "url_tdpse_detail": "https://pse.komdigi.go.id/tdpse-detail/1534",
            "website": "inquiry.aruna.id"
        },
        {
            "id": "9cb1ab67-c414-423d-8a85-1be3597d9f94",
            "nama_pse": "DREAM BAHAGIA INDONESIA",
            "nama_se": "WWW.DREAM.CO.ID",
            "sektor": "Sektor Teknologi Informasi dan Komunikasi, Sektor Teknologi Informasi dan Komunikasi",
            "tanggal_terbit": "2021-06-24",
            "url_tdpse_detail": "https://pse.komdigi.go.id/tdpse-detail/1567",
            "website": "dream.co.id"
        },
        {
            "id": "9cb1ab67-c918-456f-b7de-fe871cd9097f",
            "nama_pse": "CLOUD HOSTING INDONESIA",
            "nama_se": "IDCLOUDHOST",
            "sektor": "Sektor Teknologi Informasi dan Komunikasi, Sektor Teknologi Informasi dan Komunikasi",
            "tanggal_terbit": "2021-06-24",
            "url_tdpse_detail": "https://pse.komdigi.go.id/tdpse-detail/1518",
            "website": "idcloudhost.com"
        },
        {
            "id": "9cb1ab74-52d3-41b5-aa55-623ac1d3b922",
            "nama_pse": "KOMUNITAS SAHABAT SEHAT",
            "nama_se": "KOMUNITASSAHABATSEHAT.COM",
            "sektor": "Sektor Teknologi Informasi dan Komunikasi, Sektor Teknologi Informasi dan Komunikasi, Sektor Teknologi Informasi dan Komunikasi",
            "tanggal_terbit": "2021-06-24",
            "url_tdpse_detail": "https://pse.komdigi.go.id/tdpse-detail/1506",
            "website": "komunitassahabatsehat.com"
        },
        {
            "id": "9cb1ab67-cb46-4f14-a044-80a6cda36c63",
            "nama_pse": "UNICORN TECHNOLOGY INDONESIA",
            "nama_se": "HTTP://UNIKORNTECH.COM/",
            "sektor": "Sektor Teknologi Informasi dan Komunikasi, Sektor Teknologi Informasi dan Komunikasi",
            "tanggal_terbit": "2021-06-24",
            "url_tdpse_detail": "https://pse.komdigi.go.id/tdpse-detail/1538",
            "website": "unikorntech.com"
        },
        {
            "id": "9cb1ab67-d001-4a2a-8ff8-79f622cc9616",
            "nama_pse": "GERBANG BARU TEKSTIL INDONESIA",
            "nama_se": "MYGBTI",
            "sektor": "Sektor Perdagangan, Sektor Perdagangan, Sektor Perdagangan",
            "tanggal_terbit": "2021-06-24",
            "url_tdpse_detail": "https://pse.komdigi.go.id/tdpse-detail/1525",
            "website": "gbti.id"
        },
        {
            "id": "9cb1ab6e-0a03-4582-aba4-5966a0e744be",
            "nama_pse": "KREDITEK FINANCIAL ACCESS",
            "nama_se": "PACOAJARA",
            "sektor": "Sektor Keuangan, Sektor Keuangan, Sektor Teknologi Informasi dan Komunikasi, Sektor Teknologi Informasi dan Komunikasi",
            "tanggal_terbit": "2021-06-24",
            "url_tdpse_detail": "https://pse.komdigi.go.id/tdpse-detail/1555",
            "website": "kreditekfa.co.id"
        },
        {
            "id": "9cb1ab74-5b32-433f-8118-8d39eeb8c8bb",
            "nama_pse": "SAHABAT SUKSES BANGSA",
            "nama_se": "SAHABATBANGSA.COM",
            "sektor": "Sektor Perdagangan, Sektor Perdagangan, Sektor Keuangan, Sektor Keuangan, Sektor Teknologi Informasi dan Komunikasi, Sektor Teknologi Informasi dan Komunikasi, Sektor Pangan, Sektor Pangan",
            "tanggal_terbit": "2021-06-24",
            "url_tdpse_detail": "https://pse.komdigi.go.id/tdpse-detail/1512",
            "website": "sahabatbangsa.com"
        },
        {
            "id": "9cb1ab67-d1f9-467d-a405-bb0ba721185e",
            "nama_pse": "TIRA SATRIA NIAGA",
            "nama_se": "TIRA COMMERCE",
            "sektor": "Sektor Perdagangan, Sektor Perdagangan, Sektor Perdagangan, Sektor Perdagangan",
            "tanggal_terbit": "2021-06-24",
            "url_tdpse_detail": "https://pse.komdigi.go.id/tdpse-detail/1522",
            "website": "tira-commerce.com"
        },
        {
            "id": "9cb1ab74-6168-4f65-928a-971142269f63",
            "nama_pse": "TIMKADO SEJAHTERA INDONESIA",
            "nama_se": "DAISI",
            "sektor": "Sektor Teknologi Informasi dan Komunikasi, Sektor Teknologi Informasi dan Komunikasi, Sektor Teknologi Informasi dan Komunikasi",
            "tanggal_terbit": "2021-06-24",
            "url_tdpse_detail": "https://pse.komdigi.go.id/tdpse-detail/1514",
            "website": "daisi.id"
        },
        {
            "id": "9cb1ab67-d67b-4f5a-90ac-0ffa22e5276b",
            "nama_pse": "SIWARGA INDO MEDIA",
            "nama_se": "PASARWARGA",
            "sektor": "Sektor Perdagangan, Sektor Perdagangan, Sektor Teknologi Informasi dan Komunikasi, Sektor Teknologi Informasi dan Komunikasi",
            "tanggal_terbit": "2021-06-24",
            "url_tdpse_detail": "https://pse.komdigi.go.id/tdpse-detail/1558",
            "website": "pasarwarga.com"
        },
        {
            "id": "9cb1ab67-d9bd-4e03-bf6b-e56011f0504f",
            "nama_pse": "KREATIVA MEDIKA SEJAHTERA",
            "nama_se": "BIDANG KEGIATAN SPESIFIK:PORTAL WEB DAN/ATAU PLATFORM DIGITAL DENGAN TUJUAN KOMERSIAL",
            "sektor": "Sektor Teknologi Informasi dan Komunikasi, Sektor Teknologi Informasi dan Komunikasi",
            "tanggal_terbit": "2021-06-24",
            "url_tdpse_detail": "https://pse.komdigi.go.id/tdpse-detail/1540",
            "website": "http://klikdialisis.com"
        }
    ],
    "processingTimeMs": 11,
    "query": "",
    "totalHits": 19121,
    "hitsPerPage": 50,
    "page": 353,
    "totalPages": 383
}