{
    "hits": [
        {
            "id": "9cb1ac1a-8ec9-4d3a-b032-12a143e356e9",
            "nama_pse": "USSI PINBUK GLOBAL SOLUSI",
            "nama_se": "KOPERASI ONLINE",
            "sektor": "Sektor Teknologi Informasi dan Komunikasi",
            "tanggal_terbit": "2023-01-13",
            "url_tdpse_detail": "https://pse.komdigi.go.id/tdpse-detail/13505",
            "website": "-"
        },
        {
            "id": "9cb1ac3b-e76d-40f2-9b56-60155299a588",
            "nama_pse": "INFOTAMA SOLUSINDO",
            "nama_se": "RS BHAYANGKARA TK III BONDOWOSO",
            "sektor": "Sektor Kesehatan",
            "tanggal_terbit": "2023-01-13",
            "url_tdpse_detail": "https://pse.komdigi.go.id/tdpse-detail/13506",
            "website": "-"
        },
        {
            "id": "9cb1ac3b-ea3b-41b9-a8fb-fd455347496b",
            "nama_pse": "USSI PINBUK GLOBAL SOLUSI",
            "nama_se": "BMT MOBILE ON LINE",
            "sektor": "Sektor Teknologi Informasi dan Komunikasi",
            "tanggal_terbit": "2023-01-13",
            "url_tdpse_detail": "https://pse.komdigi.go.id/tdpse-detail/13507",
            "website": "-"
        },
        {
            "id": "9cb1ac2c-240c-47ba-a8f4-f664d02fabef",
            "nama_pse": "INFOTAMA SOLUSINDO",
            "nama_se": "RSUD KETAPANG",
            "sektor": "Sektor Kesehatan",
            "tanggal_terbit": "2023-01-13",
            "url_tdpse_detail": "https://pse.komdigi.go.id/tdpse-detail/13508",
            "website": "-"
        },
        {
            "id": "9cb1ac1a-9199-4b02-87bf-3050251367a4",
            "nama_pse": "VRITA MONDES SATYA",
            "nama_se": "VRITA MONDES SATYA (MONDES)",
            "sektor": "Sektor Perdagangan, Sektor Teknologi Informasi dan Komunikasi",
            "tanggal_terbit": "2023-01-13",
            "url_tdpse_detail": "https://pse.komdigi.go.id/tdpse-detail/13509",
            "website": "Mondes.co.id"
        },
        {
            "id": "9cb1ac2b-51f9-435a-8474-8714e0666fd7",
            "nama_pse": "NOVAL KUSUMA",
            "nama_se": "HIBURAN KITA",
            "sektor": "Sektor Teknologi Informasi dan Komunikasi",
            "tanggal_terbit": "2023-01-12",
            "url_tdpse_detail": "https://pse.komdigi.go.id/tdpse-detail/13479",
            "website": "-"
        },
        {
            "id": "9cb1ac2b-ee7d-4312-b47c-7467258d5e20",
            "nama_pse": "CENDANA TEKNIKA UTAMA",
            "nama_se": "SISTEM INFORMASI MANAJEMEN PAJAK BUMI BANGUNAN (SIMPBB)",
            "sektor": "Sektor Teknologi Informasi dan Komunikasi",
            "tanggal_terbit": "2023-01-12",
            "url_tdpse_detail": "https://pse.komdigi.go.id/tdpse-detail/13470",
            "website": "cendana2000.co.id"
        },
        {
            "id": "9cb1ac3b-b4b9-46ec-822e-d698fad4d42f",
            "nama_pse": "CENDANA TEKNIKA UTAMA",
            "nama_se": "SISTEM INFORMASI BEA PEROLEHAN HAK ATAS TANAH DAN BANGUNAN",
            "sektor": "Sektor Teknologi Informasi dan Komunikasi",
            "tanggal_terbit": "2023-01-12",
            "url_tdpse_detail": "https://pse.komdigi.go.id/tdpse-detail/13471",
            "website": "-"
        },
        {
            "id": "9cb1ac2b-f2a4-4779-b5e0-e776a761c6cf",
            "nama_pse": "CENDANA TEKNIKA UTAMA",
            "nama_se": "SIMPADA",
            "sektor": "Sektor Teknologi Informasi dan Komunikasi",
            "tanggal_terbit": "2023-01-12",
            "url_tdpse_detail": "https://pse.komdigi.go.id/tdpse-detail/13472",
            "website": "-"
        },
        {
            "id": "9cb1ac1a-7f77-4f87-b84e-1dd892cdf50c",
            "nama_pse": "COMIKA TAWA INDONESIA",
            "nama_se": "COMIKA.ID",
            "sektor": "Sektor Teknologi Informasi dan Komunikasi",
            "tanggal_terbit": "2023-01-12",
            "url_tdpse_detail": "https://pse.komdigi.go.id/tdpse-detail/13476",
            "website": "comika.id"
        },
        {
            "id": "9cb1ac2b-f667-4dd3-9fda-1a2ba1cb6bf7",
            "nama_pse": "KOLTIVA",
            "nama_se": "KOLTIPAY",
            "sektor": "Sektor Teknologi Informasi dan Komunikasi",
            "tanggal_terbit": "2023-01-12",
            "url_tdpse_detail": "https://pse.komdigi.go.id/tdpse-detail/13473",
            "website": "-"
        },
        {
            "id": "9cb1ac2b-fa98-49c1-a013-b3276e1ed0b7",
            "nama_pse": "PRIMA INFODATA SOLUSI",
            "nama_se": "PRIMA INFODATA SISTEM",
            "sektor": "Sektor Teknologi Informasi dan Komunikasi",
            "tanggal_terbit": "2023-01-12",
            "url_tdpse_detail": "https://pse.komdigi.go.id/tdpse-detail/13474",
            "website": "prima-infodata.com"
        },
        {
            "id": "9cb1ac2b-fe7c-4ac5-9bfb-cb87f3d6b533",
            "nama_pse": "BIG TREE ENTERTAINMENT INDONESIA",
            "nama_se": "BOOKMYSHOW INDONESIA",
            "sektor": "Sektor Teknologi Informasi dan Komunikasi",
            "tanggal_terbit": "2023-01-12",
            "url_tdpse_detail": "https://pse.komdigi.go.id/tdpse-detail/13477",
            "website": "id.bookmyshow.com"
        },
        {
            "id": "9cb1ac3b-ba51-48cb-a5d0-d09de1fad77a",
            "nama_pse": "PRIMA INFODATA SOLUSI",
            "nama_se": "PRIMA INFODATA SOFTWARE",
            "sektor": "Sektor Teknologi Informasi dan Komunikasi",
            "tanggal_terbit": "2023-01-12",
            "url_tdpse_detail": "https://pse.komdigi.go.id/tdpse-detail/13475",
            "website": "-"
        },
        {
            "id": "9cb1ac2c-091d-4f2a-9cf4-c340812d8756",
            "nama_pse": "GLOBAL AKSES INFORMATIKA",
            "nama_se": "GLOBAL AKSES INFORMATIKA",
            "sektor": "Sektor Perdagangan",
            "tanggal_terbit": "2023-01-12",
            "url_tdpse_detail": "https://pse.komdigi.go.id/tdpse-detail/13478",
            "website": "globalaksesinformatika.com"
        },
        {
            "id": "9cb1ac2c-0d78-4cff-b65d-83c98e928db9",
            "nama_pse": "KALPIKA LOKA PERSADA",
            "nama_se": "TRI JAGABAYA BALI",
            "sektor": "Sektor Teknologi Informasi dan Komunikasi",
            "tanggal_terbit": "2023-01-12",
            "url_tdpse_detail": "https://pse.komdigi.go.id/tdpse-detail/13480",
            "website": "trijagabaya.co.id"
        },
        {
            "id": "9cb1ac19-277a-42be-adfd-80a4fa6057cd",
            "nama_pse": "TEKNOLOGI INSPIRASI NUSANTARA",
            "nama_se": "KAZHIER",
            "sektor": "Sektor Teknologi Informasi dan Komunikasi",
            "tanggal_terbit": "2023-01-11",
            "url_tdpse_detail": "https://pse.komdigi.go.id/tdpse-detail/13469",
            "website": "kazhier.com"
        },
        {
            "id": "9cb1ac3b-a749-4b1a-8265-c68f72824b3e",
            "nama_pse": "ASURANSI JIWA IFG",
            "nama_se": "MIFG",
            "sektor": "Sektor Keuangan",
            "tanggal_terbit": "2023-01-11",
            "url_tdpse_detail": "https://pse.komdigi.go.id/tdpse-detail/13465",
            "website": "mifg.ifg-life.id"
        },
        {
            "id": "9cb1ac1a-7975-4b8c-ae2f-44114e099d7d",
            "nama_pse": "BTH UMMAT MANDIRI",
            "nama_se": "IBSS CORE BANKING SYSTEM",
            "sektor": "Sektor Teknologi Informasi dan Komunikasi",
            "tanggal_terbit": "2023-01-11",
            "url_tdpse_detail": "https://pse.komdigi.go.id/tdpse-detail/13462",
            "website": "-"
        },
        {
            "id": "9cb1ac3b-af69-4141-aae3-e76ac76bea1d",
            "nama_pse": "BTH UMMAT MANDIRI",
            "nama_se": "LAYANAN VIRTUAL ACCOUNT BTH UMMAT MANDIRI",
            "sektor": "Sektor Teknologi Informasi dan Komunikasi",
            "tanggal_terbit": "2023-01-11",
            "url_tdpse_detail": "https://pse.komdigi.go.id/tdpse-detail/13466",
            "website": "-"
        },
        {
            "id": "9cb1ac2b-e4b2-4c18-b876-c38786c54f7e",
            "nama_pse": "PERUSAHAAN PERSEROAN (PERSERO ) PT INDUSTRI TELEKOMUNIKASI INDONESIA",
            "nama_se": "INTICLOUD",
            "sektor": "Sektor Teknologi Informasi dan Komunikasi",
            "tanggal_terbit": "2023-01-11",
            "url_tdpse_detail": "https://pse.komdigi.go.id/tdpse-detail/13467",
            "website": "inticloud.id"
        },
        {
            "id": "9cb1ac2b-e7ad-48b9-8937-d7cba17ab1e3",
            "nama_pse": "KURNIA CIPTA TEKNOLOGI",
            "nama_se": "SWIMPRO",
            "sektor": "Sektor Teknologi Informasi dan Komunikasi",
            "tanggal_terbit": "2023-01-11",
            "url_tdpse_detail": "https://pse.komdigi.go.id/tdpse-detail/13468",
            "website": "swimpro.co.id"
        },
        {
            "id": "9cb1ac3b-932f-4c9a-9d86-15382a15e99e",
            "nama_pse": "MAJU KREATIF DIGITAL",
            "nama_se": "FINNIX",
            "sektor": "Sektor Teknologi Informasi dan Komunikasi",
            "tanggal_terbit": "2023-01-10",
            "url_tdpse_detail": "https://pse.komdigi.go.id/tdpse-detail/13459",
            "website": "finnix.io"
        },
        {
            "id": "9cb1ac1a-770c-466c-afd5-71b6d5ee662e",
            "nama_pse": "DIGITAL MULTI EKSPRESS",
            "nama_se": "KIOSME",
            "sektor": "Sektor Teknologi Informasi dan Komunikasi",
            "tanggal_terbit": "2023-01-10",
            "url_tdpse_detail": "https://pse.komdigi.go.id/tdpse-detail/13460",
            "website": "kiosme.com"
        },
        {
            "id": "9cb1ac3b-a9ed-4371-afb0-49273ef88d6e",
            "nama_pse": "TAUFIK HIDAYAT",
            "nama_se": "SISTEM INFORMASI DESA DIGITAL",
            "sektor": "Sektor Teknologi Informasi dan Komunikasi",
            "tanggal_terbit": "2023-01-10",
            "url_tdpse_detail": "https://pse.komdigi.go.id/tdpse-detail/13461",
            "website": "site-desa.id"
        },
        {
            "id": "9cb1ac2b-a63a-4310-ad4e-422001afe3d7",
            "nama_pse": "GWL GWLADYS STUYCK",
            "nama_se": "GWLATELIER.COM",
            "sektor": "Sektor Perdagangan",
            "tanggal_terbit": "2023-01-09",
            "url_tdpse_detail": "https://pse.komdigi.go.id/tdpse-detail/13450",
            "website": "gwlatelier.com"
        },
        {
            "id": "9cb1ac3b-9d18-43e5-82f2-6cb45faafe75",
            "nama_pse": "ADIWISISTA SARANA FINANSIAL",
            "nama_se": "DANAI",
            "sektor": "Sektor Teknologi Informasi dan Komunikasi",
            "tanggal_terbit": "2023-01-09",
            "url_tdpse_detail": "https://pse.komdigi.go.id/tdpse-detail/13451",
            "website": "danai.co.id"
        },
        {
            "id": "9cb1ac3b-a1c8-49f3-a3fc-fb7dde18830c",
            "nama_pse": "INDONESIA BROADBAND COMMUNICATIONS",
            "nama_se": "MEGAVISION",
            "sektor": "Sektor Teknologi Informasi dan Komunikasi",
            "tanggal_terbit": "2023-01-09",
            "url_tdpse_detail": "https://pse.komdigi.go.id/tdpse-detail/13452",
            "website": "megavision.net.id"
        },
        {
            "id": "9cb1ac2b-aa68-412c-a326-43cd51d154aa",
            "nama_pse": "INDONESIA CABLE NETWORK",
            "nama_se": "MEGAVISION",
            "sektor": "Sektor Teknologi Informasi dan Komunikasi",
            "tanggal_terbit": "2023-01-09",
            "url_tdpse_detail": "https://pse.komdigi.go.id/tdpse-detail/13453",
            "website": "megavisioninternet.com"
        },
        {
            "id": "9cb1ac2b-aea8-4342-9db3-8ca28488b2fd",
            "nama_pse": "AKTIF MOTIVASI INDONESIA",
            "nama_se": "AKTIVIN",
            "sektor": "Sektor Teknologi Informasi dan Komunikasi",
            "tanggal_terbit": "2023-01-09",
            "url_tdpse_detail": "https://pse.komdigi.go.id/tdpse-detail/13454",
            "website": "-"
        },
        {
            "id": "9cb1ac1a-6b23-4154-85ec-29c2dcca043f",
            "nama_pse": "DOKTER MOEZ INDONESIA",
            "nama_se": "KLINIKITA INDONESIA",
            "sektor": "Sektor Kesehatan",
            "tanggal_terbit": "2023-01-09",
            "url_tdpse_detail": "https://pse.komdigi.go.id/tdpse-detail/13455",
            "website": "klinikita.id"
        },
        {
            "id": "9cb1ac1a-6ff6-4418-b933-e5df648ba06f",
            "nama_pse": "DOKTER MOEZ INDONESIA",
            "nama_se": "APLIKASI KLINIKITA INDONESIA",
            "sektor": "Sektor Teknologi Informasi dan Komunikasi",
            "tanggal_terbit": "2023-01-09",
            "url_tdpse_detail": "https://pse.komdigi.go.id/tdpse-detail/13456",
            "website": "mitraklinik.com"
        },
        {
            "id": "9cb1ac2b-9ebb-47a8-9c8d-e3f67ab5dafc",
            "nama_pse": "HARTO MITRA SOLUSINDO",
            "nama_se": "KIMO KARGO",
            "sektor": "Sektor Perdagangan, Sektor Transportasi, Sektor Teknologi Informasi dan Komunikasi",
            "tanggal_terbit": "2023-01-07",
            "url_tdpse_detail": "https://pse.komdigi.go.id/tdpse-detail/13446",
            "website": "kimokargo.com"
        },
        {
            "id": "9cb1ac1a-6170-42bc-b43f-13cccd198aa5",
            "nama_pse": "VENTUREMIND LABS INDONESIA",
            "nama_se": "MINDLABS",
            "sektor": "Sektor Teknologi Informasi dan Komunikasi",
            "tanggal_terbit": "2023-01-07",
            "url_tdpse_detail": "https://pse.komdigi.go.id/tdpse-detail/13447",
            "website": "mindlabs.co.id"
        },
        {
            "id": "9cb1ac2b-a214-4e24-8a0b-8f9941cababe",
            "nama_pse": "KLIK CARE",
            "nama_se": "KLIKCARE",
            "sektor": "Sektor Perdagangan, Sektor Kesehatan, Sektor Teknologi Informasi dan Komunikasi",
            "tanggal_terbit": "2023-01-07",
            "url_tdpse_detail": "https://pse.komdigi.go.id/tdpse-detail/13448",
            "website": "klikcare.id"
        },
        {
            "id": "9cb1ac18-8efc-4157-9d16-a339954c2635",
            "nama_pse": "GENESIS GEMILANG FUTURES",
            "nama_se": "GENESIS GEMILANG FUTURES",
            "sektor": "Sektor Keuangan",
            "tanggal_terbit": "2023-01-06",
            "url_tdpse_detail": "https://pse.komdigi.go.id/tdpse-detail/13442",
            "website": "-"
        },
        {
            "id": "9cb1ac1a-4ad5-41b5-aefe-6f02b7be9bc2",
            "nama_pse": "BARAZA GLOBAL SINERGI",
            "nama_se": "GLOTA",
            "sektor": "Sektor Perdagangan",
            "tanggal_terbit": "2023-01-06",
            "url_tdpse_detail": "https://pse.komdigi.go.id/tdpse-detail/13444",
            "website": "glota.net"
        },
        {
            "id": "9cb1ac1a-57f9-420d-88dc-4c41bca802b2",
            "nama_pse": "BISNIS SUKSES MULIA",
            "nama_se": "CRINDONESIA.COM",
            "sektor": "Sektor Perdagangan",
            "tanggal_terbit": "2023-01-06",
            "url_tdpse_detail": "https://pse.komdigi.go.id/tdpse-detail/13437",
            "website": "Crindonesia.com"
        },
        {
            "id": "9cb1ac2b-7584-4369-96af-59918fdf2367",
            "nama_pse": "BIMASOFT",
            "nama_se": "BIMASOFT",
            "sektor": "Sektor Perdagangan",
            "tanggal_terbit": "2023-01-06",
            "url_tdpse_detail": "https://pse.komdigi.go.id/tdpse-detail/13438",
            "website": "bimasoft.web.id"
        },
        {
            "id": "9cb1ac2b-7938-451e-b6fb-04f9abbf380d",
            "nama_pse": "ANALISIS SIBER",
            "nama_se": "CV ANALISIS SIBER",
            "sektor": "Sektor Teknologi Informasi dan Komunikasi",
            "tanggal_terbit": "2023-01-06",
            "url_tdpse_detail": "https://pse.komdigi.go.id/tdpse-detail/13439",
            "website": "-"
        },
        {
            "id": "9cb1ac2b-9887-476f-ae7d-6688f2e11bab",
            "nama_pse": "BTH UMMAT MANDIRI",
            "nama_se": "LAYANAN VIRTUAL ACCOUNT",
            "sektor": "Sektor Teknologi Informasi dan Komunikasi",
            "tanggal_terbit": "2023-01-06",
            "url_tdpse_detail": "https://pse.komdigi.go.id/tdpse-detail/13443",
            "website": "-"
        },
        {
            "id": "9cb1ac2b-9bb1-490b-8009-c7b616d22f4c",
            "nama_pse": "TAUFIK",
            "nama_se": "MOBILSIA.COM",
            "sektor": "Sektor Teknologi Informasi dan Komunikasi",
            "tanggal_terbit": "2023-01-06",
            "url_tdpse_detail": "https://pse.komdigi.go.id/tdpse-detail/13445",
            "website": "mobilsia.com"
        },
        {
            "id": "9cb1ac19-550c-4816-b3a4-b87e1d2c8e2e",
            "nama_pse": "TRIPUTRA PERKASA INDONESIA",
            "nama_se": "MILD STORE",
            "sektor": "Sektor Perdagangan",
            "tanggal_terbit": "2023-01-05",
            "url_tdpse_detail": "https://pse.komdigi.go.id/tdpse-detail/13427",
            "website": "mild-store.com"
        },
        {
            "id": "9cb1ac18-80a8-43bb-8f55-d4c54d0803ac",
            "nama_pse": "TIGA INTI UTAMA",
            "nama_se": "TRIV.CO.ID",
            "sektor": "Sektor Perdagangan, Sektor Keuangan, Sektor Teknologi Informasi dan Komunikasi",
            "tanggal_terbit": "2023-01-05",
            "url_tdpse_detail": "https://pse.komdigi.go.id/tdpse-detail/13424",
            "website": "triv.co.id"
        },
        {
            "id": "9cb1ac2b-57c1-4b40-89e0-30460283c648",
            "nama_pse": "CYBERQUOTE INDONESIA",
            "nama_se": "WEBSITE",
            "sektor": "Sektor Perdagangan",
            "tanggal_terbit": "2023-01-05",
            "url_tdpse_detail": "https://pse.komdigi.go.id/tdpse-detail/13422",
            "website": "indoinfo.co.id"
        },
        {
            "id": "9cb1ac2b-62b4-42c0-a27f-44f2e473c5ce",
            "nama_pse": "SYARIAH BMT DAARUSSALAAM SERUYAN",
            "nama_se": "BMT MOBILE ONLINE",
            "sektor": "Sektor Teknologi Informasi dan Komunikasi",
            "tanggal_terbit": "2023-01-05",
            "url_tdpse_detail": "https://pse.komdigi.go.id/tdpse-detail/13426",
            "website": "-"
        },
        {
            "id": "9cb1ac18-9da2-47da-a544-1666bdb53137",
            "nama_pse": "NOVAL KUSUMA",
            "nama_se": "HIBURANKITA.ID",
            "sektor": "Sektor Teknologi Informasi dan Komunikasi",
            "tanggal_terbit": "2023-01-05",
            "url_tdpse_detail": "https://pse.komdigi.go.id/tdpse-detail/13429",
            "website": "hiburankita.id"
        },
        {
            "id": "9cb1ac2b-6591-415b-a8be-efa2928831f1",
            "nama_pse": "PERUSAHAAN PERSEROAN (PERSERO) PT INDUSTRI KERETA API",
            "nama_se": "WEBSITE PT INKA (PERSERO)",
            "sektor": "Sektor Perdagangan, Sektor Transportasi",
            "tanggal_terbit": "2023-01-05",
            "url_tdpse_detail": "https://pse.komdigi.go.id/tdpse-detail/13430",
            "website": "inka.co.id"
        },
        {
            "id": "9cb1ac1a-4fa0-4d97-b31e-e56c840ea303",
            "nama_pse": "AKSES KEUANGAN INDONESIA",
            "nama_se": "CREDIPASS",
            "sektor": "Sektor Teknologi Informasi dan Komunikasi",
            "tanggal_terbit": "2023-01-05",
            "url_tdpse_detail": "https://pse.komdigi.go.id/tdpse-detail/13432",
            "website": "credipass.id"
        },
        {
            "id": "9cb1ac1a-5258-4492-8bbb-92b7fbe10d83",
            "nama_pse": "LOKA DIGITAL NIAGA",
            "nama_se": "WAKOTHEME.COM",
            "sektor": "Sektor Teknologi Informasi dan Komunikasi",
            "tanggal_terbit": "2023-01-05",
            "url_tdpse_detail": "https://pse.komdigi.go.id/tdpse-detail/13431",
            "website": "wakotheme.com"
        }
    ],
    "processingTimeMs": 4,
    "query": "",
    "totalHits": 19121,
    "hitsPerPage": 50,
    "page": 161,
    "totalPages": 383
}