{
    "hits": [
        {
            "id": "9cb1ac7a-06be-413e-9215-5279e5f043f8",
            "nama_pse": "MILEZONE MEDIA NUSANTARA",
            "nama_se": "MILEZONE.ID",
            "sektor": "Sektor Teknologi Informasi dan Komunikasi",
            "tanggal_terbit": "2024-01-02",
            "url_tdpse_detail": "https://pse.komdigi.go.id/tdpse-detail/17136",
            "website": "milezone.id"
        },
        {
            "id": "9cb1ac52-8813-45f0-8762-2a53cfac1780",
            "nama_pse": "SYARIAH SENYUM BERKAH MANFAAT",
            "nama_se": "KOPERASI MOBILE ON LINE",
            "sektor": "Sektor Teknologi Informasi dan Komunikasi",
            "tanggal_terbit": "2024-01-02",
            "url_tdpse_detail": "https://pse.komdigi.go.id/tdpse-detail/17137",
            "website": "-"
        },
        {
            "id": "9cb1ac7a-094f-4f07-8fb5-6cd12ebfadbe",
            "nama_pse": "HUSADA PURWAKARTA",
            "nama_se": "SIMRS BHAKTI HUSADA II PURWAKARTA",
            "sektor": "Sektor Kesehatan",
            "tanggal_terbit": "2024-01-02",
            "url_tdpse_detail": "https://pse.komdigi.go.id/tdpse-detail/17139",
            "website": "purwakarta.rsbh.co.id"
        },
        {
            "id": "9cb1ac52-8ab9-4291-9a3b-f0dd97477446",
            "nama_pse": "MUSTARIFIN MUHTAR",
            "nama_se": "SIMPUS CODINGRUN",
            "sektor": "Sektor Teknologi Informasi dan Komunikasi",
            "tanggal_terbit": "2024-01-02",
            "url_tdpse_detail": "https://pse.komdigi.go.id/tdpse-detail/17138",
            "website": "simpus.codingrun.id"
        },
        {
            "id": "9cb1ac7a-0c36-48b6-aad7-f86453cbe356",
            "nama_pse": "KLINIK RAWAT JALAN PRATAMA MUHAMMADIYAH KEDUNGADEM 2",
            "nama_se": "SIMMU",
            "sektor": "Sektor Kesehatan",
            "tanggal_terbit": "2024-01-02",
            "url_tdpse_detail": "https://pse.komdigi.go.id/tdpse-detail/17140",
            "website": "-"
        },
        {
            "id": "9cb1ac65-fd67-48ff-a2ac-e70873291aee",
            "nama_pse": "INASA LAFACOS",
            "nama_se": "EMRSAMPURNA",
            "sektor": "Sektor Kesehatan",
            "tanggal_terbit": "2024-01-02",
            "url_tdpse_detail": "https://pse.komdigi.go.id/tdpse-detail/17141",
            "website": "posklinik.kusuma-crm.com"
        },
        {
            "id": "9cb1ac66-0059-487b-9e2c-d3cb3f7f4ac2",
            "nama_pse": "EMR HIS SYSTEM",
            "nama_se": "EMR HIS",
            "sektor": "Sektor Kesehatan",
            "tanggal_terbit": "2024-01-02",
            "url_tdpse_detail": "https://pse.komdigi.go.id/tdpse-detail/17142",
            "website": "-"
        },
        {
            "id": "9cb1ac52-9041-4b10-8f42-871eef1da96c",
            "nama_pse": "PENUKARAN ANEKA UANG",
            "nama_se": "MONEX BALI",
            "sektor": "Sektor Teknologi Informasi dan Komunikasi",
            "tanggal_terbit": "2024-01-02",
            "url_tdpse_detail": "https://pse.komdigi.go.id/tdpse-detail/17143",
            "website": "monexbali.com"
        },
        {
            "id": "9cb1ac52-9359-46f1-a399-72b054ee999e",
            "nama_pse": "DHAFA USAHA MANDIRI",
            "nama_se": "DHAFAUS.COM",
            "sektor": "Sektor Perdagangan, Sektor Teknologi Informasi dan Komunikasi",
            "tanggal_terbit": "2024-01-02",
            "url_tdpse_detail": "https://pse.komdigi.go.id/tdpse-detail/17145",
            "website": "dhafaus.com"
        },
        {
            "id": "9cb1ac52-9644-4474-85c1-6c2b3a8d733c",
            "nama_pse": "QANI URRIZKI",
            "nama_se": "SISPRO",
            "sektor": "Sektor Kesehatan",
            "tanggal_terbit": "2024-01-02",
            "url_tdpse_detail": "https://pse.komdigi.go.id/tdpse-detail/17147",
            "website": "rsiapermatahati.id"
        },
        {
            "id": "9cb1ac52-9917-4917-b453-43b669e64811",
            "nama_pse": "MAHAZ ENERGI BORNEO",
            "nama_se": "BANUA SEHAT",
            "sektor": "Sektor Teknologi Informasi dan Komunikasi",
            "tanggal_terbit": "2024-01-02",
            "url_tdpse_detail": "https://pse.komdigi.go.id/tdpse-detail/17148",
            "website": "-"
        },
        {
            "id": "9cb1ac66-032c-4ad0-aee7-62c1ddcda5af",
            "nama_pse": "DARUSYIFA",
            "nama_se": "SISTEM INFORMASI KLINIK YASDAR",
            "sektor": "Sektor Kesehatan",
            "tanggal_terbit": "2024-01-02",
            "url_tdpse_detail": "https://pse.komdigi.go.id/tdpse-detail/17149",
            "website": "-"
        },
        {
            "id": "9cb1ac52-9d75-4c55-a133-0fd5370aacc8",
            "nama_pse": "RUMAH SAKIT UMUM DAERAH ASY-SYIFA'",
            "nama_se": "SIMRS RSUD ASY-SYIFA' SUMBAWA BARAT",
            "sektor": "Sektor Kesehatan, Sektor Teknologi Informasi dan Komunikasi",
            "tanggal_terbit": "2024-01-02",
            "url_tdpse_detail": "https://pse.komdigi.go.id/tdpse-detail/17150",
            "website": "rs-asy-syifasumbawabarat.com"
        },
        {
            "id": "9cb1ac7a-1498-4b4e-ab85-886d1f5985bc",
            "nama_pse": "CITRA WIRA BAWANA",
            "nama_se": "BMS",
            "sektor": "Sektor Kesehatan, Sektor Teknologi Informasi dan Komunikasi",
            "tanggal_terbit": "2024-01-02",
            "url_tdpse_detail": "https://pse.komdigi.go.id/tdpse-detail/17156",
            "website": "bms.idsystems.co.id"
        },
        {
            "id": "9cb1ac52-a069-40ad-a26e-fe973a502771",
            "nama_pse": "PERSATUAN DOKTER GIGI INDONESIA",
            "nama_se": "RME PDGI",
            "sektor": "Sektor Kesehatan",
            "tanggal_terbit": "2024-01-02",
            "url_tdpse_detail": "https://pse.komdigi.go.id/tdpse-detail/17152",
            "website": "-"
        },
        {
            "id": "9cb1ac7a-178e-40b3-a1fd-f6d2cbf6698e",
            "nama_pse": "AGUS WIDIYANTO",
            "nama_se": "OPTIM",
            "sektor": "Sektor Kesehatan",
            "tanggal_terbit": "2024-01-02",
            "url_tdpse_detail": "https://pse.komdigi.go.id/tdpse-detail/17155",
            "website": "klinik.optim.co.id"
        },
        {
            "id": "9cb1ac66-1048-4718-91d7-eb3deb9dd59f",
            "nama_pse": "AUDY INTERNET CONNECTED",
            "nama_se": "AUDYTV",
            "sektor": "Sektor Teknologi Informasi dan Komunikasi",
            "tanggal_terbit": "2024-01-02",
            "url_tdpse_detail": "https://pse.komdigi.go.id/tdpse-detail/17157",
            "website": "audytv.com"
        },
        {
            "id": "9cb1ac66-134e-4f55-848f-721571ee6317",
            "nama_pse": "BINTARTA ARNIRAH",
            "nama_se": "SELARAS MANDIRI",
            "sektor": "Sektor Kesehatan",
            "tanggal_terbit": "2024-01-02",
            "url_tdpse_detail": "https://pse.komdigi.go.id/tdpse-detail/17158",
            "website": "rs-selaras.com"
        },
        {
            "id": "9cb1ac7a-1ac4-4d4b-a98a-d2cbbc690135",
            "nama_pse": "RETNO SUKSES SEJAHTERA",
            "nama_se": "RAS NOTARIS",
            "sektor": "Sektor Perdagangan, Sektor Teknologi Informasi dan Komunikasi",
            "tanggal_terbit": "2024-01-02",
            "url_tdpse_detail": "https://pse.komdigi.go.id/tdpse-detail/17159",
            "website": "-"
        },
        {
            "id": "9cb1ac79-f7aa-4fa7-9fc6-22ff52032ab5",
            "nama_pse": "AL MUGHNII AS SALAAM",
            "nama_se": "SIM KEH",
            "sektor": "Sektor Teknologi Informasi dan Komunikasi",
            "tanggal_terbit": "2024-01-01",
            "url_tdpse_detail": "https://pse.komdigi.go.id/tdpse-detail/17125",
            "website": "-"
        },
        {
            "id": "9cb1ac79-fad6-4cf8-8b64-8e2d9dc162fd",
            "nama_pse": "MEDIA SIDIK GROUP",
            "nama_se": "SIDIK24JAM.COM",
            "sektor": "Sektor Teknologi Informasi dan Komunikasi",
            "tanggal_terbit": "2024-01-01",
            "url_tdpse_detail": "https://pse.komdigi.go.id/tdpse-detail/17126",
            "website": "sidik24jam.com"
        },
        {
            "id": "9cb1ac65-f534-42bf-b687-85c2fcc41c7a",
            "nama_pse": "HARIAN DETIK MULTIMEDIA",
            "nama_se": "HARIANDETIKNEWS.COM",
            "sektor": "Sektor Teknologi Informasi dan Komunikasi",
            "tanggal_terbit": "2024-01-01",
            "url_tdpse_detail": "https://pse.komdigi.go.id/tdpse-detail/17127",
            "website": "hariandetiknews.com"
        },
        {
            "id": "9cb1ac79-fdbe-4287-a61f-c9cbe006b9c5",
            "nama_pse": "MURIA GLOBAL MEDIA",
            "nama_se": "INTERNET SERVICE PROVIDER ( ISP )",
            "sektor": "Sektor Teknologi Informasi dan Komunikasi",
            "tanggal_terbit": "2024-01-01",
            "url_tdpse_detail": "https://pse.komdigi.go.id/tdpse-detail/17128",
            "website": "-"
        },
        {
            "id": "9cb1ac52-7cfe-400f-8df8-967572050ef8",
            "nama_pse": "POINTEN",
            "nama_se": "POINTMEDIC",
            "sektor": "Sektor Kesehatan",
            "tanggal_terbit": "2024-01-01",
            "url_tdpse_detail": "https://pse.komdigi.go.id/tdpse-detail/17129",
            "website": "-"
        },
        {
            "id": "9cb1ac52-7a70-49e8-856a-a98240547388",
            "nama_pse": "KASIH IBU",
            "nama_se": "SIMRS MEDICPLUS",
            "sektor": "Sektor Kesehatan",
            "tanggal_terbit": "2023-12-31",
            "url_tdpse_detail": "https://pse.komdigi.go.id/tdpse-detail/17122",
            "website": "medicplus.co.id"
        },
        {
            "id": "9cb1ac79-f259-41f0-8b86-adcd66718ed9",
            "nama_pse": "YOSEPH ARRAHMAN",
            "nama_se": "BOSPRO",
            "sektor": "Sektor Teknologi Informasi dan Komunikasi",
            "tanggal_terbit": "2023-12-31",
            "url_tdpse_detail": "https://pse.komdigi.go.id/tdpse-detail/17123",
            "website": "-"
        },
        {
            "id": "9cb1ac79-f4f2-4078-879f-28249c6a08d5",
            "nama_pse": "NURDIN BUDI MUSTOFA",
            "nama_se": "SISTEM INFORMASI MANAJEMEN RUMAH SAKIRT",
            "sektor": "Sektor Kesehatan",
            "tanggal_terbit": "2023-12-31",
            "url_tdpse_detail": "https://pse.komdigi.go.id/tdpse-detail/17124",
            "website": "-"
        },
        {
            "id": "9cb1ac79-dbc6-4e51-9afb-baf4c71276c7",
            "nama_pse": "IWAK PEYEK INDONESIA",
            "nama_se": "SOBATMEDIS.ID",
            "sektor": "Sektor Kesehatan",
            "tanggal_terbit": "2023-12-30",
            "url_tdpse_detail": "https://pse.komdigi.go.id/tdpse-detail/17114",
            "website": "sobatmedis.id"
        },
        {
            "id": "9cb1ac65-eb67-4145-9be2-833a09b98d25",
            "nama_pse": "M. FACHRUL RIZAL",
            "nama_se": "LABORATORIUM SAFARI",
            "sektor": "Sektor Kesehatan",
            "tanggal_terbit": "2023-12-30",
            "url_tdpse_detail": "https://pse.komdigi.go.id/tdpse-detail/17115",
            "website": "-"
        },
        {
            "id": "9cb1ac79-e256-44f2-88f5-a517bc63dbc7",
            "nama_pse": "GRAHA MAHAKARYA FLAMBOYAN",
            "nama_se": "MAGENTA-DIVINGRESORT.COM",
            "sektor": "Sektor Teknologi Informasi dan Komunikasi",
            "tanggal_terbit": "2023-12-30",
            "url_tdpse_detail": "https://pse.komdigi.go.id/tdpse-detail/17116",
            "website": "-"
        },
        {
            "id": "9cb1ac65-eeb5-4c37-98e9-df2d2c40b0a6",
            "nama_pse": "ESA DIGITAL MANGGALA",
            "nama_se": "CLUEPAY",
            "sektor": "Sektor Perdagangan",
            "tanggal_terbit": "2023-12-30",
            "url_tdpse_detail": "https://pse.komdigi.go.id/tdpse-detail/17117",
            "website": "-"
        },
        {
            "id": "9cb1ac79-e955-480e-902d-4fc5c415dd38",
            "nama_pse": "MAHAVIKRI NETWORK TECHNOLOGY",
            "nama_se": "PT. MAHAVIKRI NETWORK TECHNOLOGY",
            "sektor": "Sektor Teknologi Informasi dan Komunikasi",
            "tanggal_terbit": "2023-12-30",
            "url_tdpse_detail": "https://pse.komdigi.go.id/tdpse-detail/17118",
            "website": "mahavikri.co.id"
        },
        {
            "id": "9cb1ac32-8925-4e44-9ef2-9977aad8265e",
            "nama_pse": "DIGITA TEKNOLOGI INDONESIA",
            "nama_se": "KLINISCARE",
            "sektor": "Sektor Teknologi Informasi dan Komunikasi",
            "tanggal_terbit": "2023-12-29",
            "url_tdpse_detail": "https://pse.komdigi.go.id/tdpse-detail/17088",
            "website": "kliniscare.com"
        },
        {
            "id": "9cb1ac65-3fe0-4a9b-af79-1684ad9fe666",
            "nama_pse": "BANK NANO SYARIAH",
            "nama_se": "WEBSITE BANK NANO SYARIAH",
            "sektor": "Sektor Keuangan",
            "tanggal_terbit": "2023-12-29",
            "url_tdpse_detail": "https://pse.komdigi.go.id/tdpse-detail/17090",
            "website": "nanobanksyariah.id"
        },
        {
            "id": "9cb1ac51-d6e6-44ed-8544-47f122cad047",
            "nama_pse": "SEHATI MAKMUR ABADI",
            "nama_se": "SEHATI MOBILE APPS",
            "sektor": "Sektor Keuangan, Sektor Teknologi Informasi dan Komunikasi",
            "tanggal_terbit": "2023-12-29",
            "url_tdpse_detail": "https://pse.komdigi.go.id/tdpse-detail/17091",
            "website": "-"
        },
        {
            "id": "9cb1ac52-38eb-4315-8d39-c0ec17dc8369",
            "nama_pse": "BFI FINANCE INDONESIA",
            "nama_se": "BFI PAS CUSTOMER",
            "sektor": "Sektor Keuangan",
            "tanggal_terbit": "2023-12-29",
            "url_tdpse_detail": "https://pse.komdigi.go.id/tdpse-detail/17092",
            "website": "prod.bravo.bfi.co.id"
        },
        {
            "id": "9cb1ac79-b23d-4f5b-8e92-5d599624c8f6",
            "nama_pse": "APPLIMETIS PARAMA SOLUSI",
            "nama_se": "MEDQLAB",
            "sektor": "Sektor Teknologi Informasi dan Komunikasi",
            "tanggal_terbit": "2023-12-29",
            "url_tdpse_detail": "https://pse.komdigi.go.id/tdpse-detail/17084",
            "website": "medqlab.id"
        },
        {
            "id": "9cb1ac52-454d-4917-a128-7ff2e3df5b06",
            "nama_pse": "JOD TEKNOLOGI INDONESIA",
            "nama_se": "JOD INDONESIA",
            "sektor": "Sektor Teknologi Informasi dan Komunikasi",
            "tanggal_terbit": "2023-12-29",
            "url_tdpse_detail": "https://pse.komdigi.go.id/tdpse-detail/17086",
            "website": "jodindo.co"
        },
        {
            "id": "9cb1ac52-48c2-4880-a6c3-af45feffa03c",
            "nama_pse": "RSD IDAMAN KOTA BANJARBARU",
            "nama_se": "SIMRS KHANZA RSD IDAMAN",
            "sektor": "Sektor Kesehatan",
            "tanggal_terbit": "2023-12-29",
            "url_tdpse_detail": "https://pse.komdigi.go.id/tdpse-detail/17085",
            "website": "rsidaman.banjarbarukota.go.id"
        },
        {
            "id": "9cb1ac79-b59f-4b53-b25d-b6aa6e19f75f",
            "nama_pse": "DIANRA KARTIKA NASIR",
            "nama_se": "SIMRS SYAFIRA",
            "sektor": "Sektor Kesehatan",
            "tanggal_terbit": "2023-12-29",
            "url_tdpse_detail": "https://pse.komdigi.go.id/tdpse-detail/17087",
            "website": "rs-syafira.com"
        },
        {
            "id": "9cb1ac79-b8d4-4b4a-84f6-c9a4212f8b04",
            "nama_pse": "TESENA INOVINDO",
            "nama_se": "KLIK IN THIS",
            "sektor": "Sektor Kesehatan, Sektor Teknologi Informasi dan Komunikasi",
            "tanggal_terbit": "2023-12-29",
            "url_tdpse_detail": "https://pse.komdigi.go.id/tdpse-detail/17089",
            "website": "klikinthis.id"
        },
        {
            "id": "9cb1ac79-bc6d-488a-bd66-ecf3e53a5869",
            "nama_pse": "KALS BERSAMA HAWA",
            "nama_se": "GERAI HAWA",
            "sektor": "Sektor Perdagangan",
            "tanggal_terbit": "2023-12-29",
            "url_tdpse_detail": "https://pse.komdigi.go.id/tdpse-detail/17093",
            "website": "geraihawa.co.id"
        },
        {
            "id": "9cb1ac65-c7c9-4b37-ace9-b90e8a6de664",
            "nama_pse": "MINDSET DIGITAL CORP",
            "nama_se": "MINDSET TECHNOLOGY",
            "sektor": "Sektor Kesehatan, Sektor Teknologi Informasi dan Komunikasi",
            "tanggal_terbit": "2023-12-29",
            "url_tdpse_detail": "https://pse.komdigi.go.id/tdpse-detail/17094",
            "website": "mindsetdigital.id"
        },
        {
            "id": "9cb1ac65-cb44-467f-a4b2-6af084b21537",
            "nama_pse": "MEVIN GIGANTEA HANDOYO",
            "nama_se": "SIMEDIK.NET",
            "sektor": "Sektor Kesehatan",
            "tanggal_terbit": "2023-12-29",
            "url_tdpse_detail": "https://pse.komdigi.go.id/tdpse-detail/17095",
            "website": "simedik.net"
        },
        {
            "id": "9cb1ac52-4bf0-49e7-8da7-84d5c453e368",
            "nama_pse": "INOVATIF TUJUH DELAPAN",
            "nama_se": "INOVATIF TUJUH DELAPAN",
            "sektor": "Sektor Perdagangan, Sektor Teknologi Informasi dan Komunikasi",
            "tanggal_terbit": "2023-12-29",
            "url_tdpse_detail": "https://pse.komdigi.go.id/tdpse-detail/17096",
            "website": "inovatif78.com"
        },
        {
            "id": "9cb1ac65-da0f-4d76-89d3-6375233bfe46",
            "nama_pse": "FERI ADI BURHANI",
            "nama_se": "DSS MEDIKA",
            "sektor": "Sektor Kesehatan",
            "tanggal_terbit": "2023-12-29",
            "url_tdpse_detail": "https://pse.komdigi.go.id/tdpse-detail/17098",
            "website": "-"
        },
        {
            "id": "9cb1ac65-dda9-4327-80de-d217abf0b921",
            "nama_pse": "HAMDAN BURHANUDDIN ST",
            "nama_se": "SISMEDIS",
            "sektor": "Sektor Kesehatan",
            "tanggal_terbit": "2023-12-29",
            "url_tdpse_detail": "https://pse.komdigi.go.id/tdpse-detail/17099",
            "website": "-"
        },
        {
            "id": "9cb1ac52-5014-45fd-aa59-ea16edec7d67",
            "nama_pse": "TEKNOLOGI JARINGAN PRIMA",
            "nama_se": "TUNNELKU",
            "sektor": "Sektor Teknologi Informasi dan Komunikasi",
            "tanggal_terbit": "2023-12-29",
            "url_tdpse_detail": "https://pse.komdigi.go.id/tdpse-detail/17100",
            "website": "tunnelku.com"
        },
        {
            "id": "9cb1ac79-cd86-46a5-94ee-f92f9357e5f8",
            "nama_pse": "DIAN NUR UTOMO",
            "nama_se": "LAYANAN INTERNET LOKAL ( RT RW NET )",
            "sektor": "Sektor Teknologi Informasi dan Komunikasi",
            "tanggal_terbit": "2023-12-29",
            "url_tdpse_detail": "https://pse.komdigi.go.id/tdpse-detail/17101",
            "website": "-"
        },
        {
            "id": "9cb1ac79-d07b-433c-a3fb-cf966a99e967",
            "nama_pse": "DARWIS MARHOKOM HUTAGAOL",
            "nama_se": "LAYANAN INTERNET LOKAL ( RT RW NET )",
            "sektor": "Sektor Teknologi Informasi dan Komunikasi",
            "tanggal_terbit": "2023-12-29",
            "url_tdpse_detail": "https://pse.komdigi.go.id/tdpse-detail/17102",
            "website": "-"
        }
    ],
    "processingTimeMs": 1,
    "query": "",
    "totalHits": 19121,
    "hitsPerPage": 50,
    "page": 97,
    "totalPages": 383
}