{
    "hits": [
        {
            "id": "9cb1ac2f-1522-4203-b787-d418f5d8fcc5",
            "nama_pse": "ONKLAS PRIMA INDONESIA",
            "nama_se": "INDESA.ID",
            "sektor": "Sektor Teknologi Informasi dan Komunikasi",
            "tanggal_terbit": "2023-02-27",
            "url_tdpse_detail": "https://pse.komdigi.go.id/tdpse-detail/13949",
            "website": "indesa.id"
        },
        {
            "id": "9cb1ac1c-a37a-4b37-abc2-496e991b1ee4",
            "nama_pse": "PERMATA AZZURI SEHAT",
            "nama_se": "KLINIKME",
            "sektor": "Sektor Kesehatan, Sektor Teknologi Informasi dan Komunikasi",
            "tanggal_terbit": "2023-02-27",
            "url_tdpse_detail": "https://pse.komdigi.go.id/tdpse-detail/13951",
            "website": "klinikme.com"
        },
        {
            "id": "9cb1ac3e-b342-4fe5-b776-35885dc4666a",
            "nama_pse": "KSPPS BMT DANA INSANI",
            "nama_se": "IBS MOBILE ON LINE",
            "sektor": "Sektor Teknologi Informasi dan Komunikasi",
            "tanggal_terbit": "2023-02-27",
            "url_tdpse_detail": "https://pse.komdigi.go.id/tdpse-detail/13952",
            "website": "-"
        },
        {
            "id": "9cb1ac3e-b710-4699-990b-f0d32a3bc80b",
            "nama_pse": "QUANTUM TOSAN INTERNASIONAL",
            "nama_se": "DOMIBED.ID",
            "sektor": "Sektor Perdagangan",
            "tanggal_terbit": "2023-02-27",
            "url_tdpse_detail": "https://pse.komdigi.go.id/tdpse-detail/13950",
            "website": "domibed.id"
        },
        {
            "id": "9cb1ac1c-a632-44d8-901d-1cd3d455b189",
            "nama_pse": "KSPPS BMT DANA INSANI",
            "nama_se": "IBS MOBILE ONLINE",
            "sektor": "Sektor Teknologi Informasi dan Komunikasi",
            "tanggal_terbit": "2023-02-27",
            "url_tdpse_detail": "https://pse.komdigi.go.id/tdpse-detail/13953",
            "website": "-"
        },
        {
            "id": "9cb1ac2f-280d-474f-8968-6e248a55894f",
            "nama_pse": "TEKNOLOGI SERBA BISA",
            "nama_se": "CHATAPP",
            "sektor": "Sektor Teknologi Informasi dan Komunikasi",
            "tanggal_terbit": "2023-02-27",
            "url_tdpse_detail": "https://pse.komdigi.go.id/tdpse-detail/13955",
            "website": "chatapp.id"
        },
        {
            "id": "9cb1ac3e-baa2-4e76-a5d9-05fc8c868656",
            "nama_pse": "MEDITECH LIMASINDO PLUS",
            "nama_se": "MEDITECH PLUS",
            "sektor": "Sektor Kesehatan, Sektor Teknologi Informasi dan Komunikasi",
            "tanggal_terbit": "2023-02-27",
            "url_tdpse_detail": "https://pse.komdigi.go.id/tdpse-detail/13956",
            "website": "meditechindo.com"
        },
        {
            "id": "9cb1ac2f-313c-47fe-9266-3ee347666dd4",
            "nama_pse": "PUTERI AULIA DITA MEDICA",
            "nama_se": "IRHIS",
            "sektor": "Sektor Kesehatan",
            "tanggal_terbit": "2023-02-27",
            "url_tdpse_detail": "https://pse.komdigi.go.id/tdpse-detail/13957",
            "website": "auliahospital.co.id"
        },
        {
            "id": "9cb1ac2f-34b1-4515-9ba8-1371e0bc4267",
            "nama_pse": "PANGERAN NAPOLEON PERKASA",
            "nama_se": "CV PANGERAN NAPOLEON PERKASA",
            "sektor": "Sektor Perdagangan",
            "tanggal_terbit": "2023-02-27",
            "url_tdpse_detail": "https://pse.komdigi.go.id/tdpse-detail/13958",
            "website": "-"
        },
        {
            "id": "9cb1ac1c-a8ea-420a-af3d-be1ab02aca6c",
            "nama_pse": "SEGITIGA SAMA SISI",
            "nama_se": "SIMDATA",
            "sektor": "Sektor Teknologi Informasi dan Komunikasi",
            "tanggal_terbit": "2023-02-27",
            "url_tdpse_detail": "https://pse.komdigi.go.id/tdpse-detail/13960",
            "website": "simdata.sultraprov.go.id"
        },
        {
            "id": "9cb1ac1c-ae42-4707-b5cf-401df7222dd0",
            "nama_pse": "SAHYA AGHA TEKNOLOGI",
            "nama_se": "SAHYA AGHA ANEKA PLASTIK",
            "sektor": "Sektor Perdagangan",
            "tanggal_terbit": "2023-02-27",
            "url_tdpse_detail": "https://pse.komdigi.go.id/tdpse-detail/13959",
            "website": "sahyaaghateknologi.com"
        },
        {
            "id": "9cb1ac2f-37b5-4867-8096-4301770f471e",
            "nama_pse": "ITSEC ASIA",
            "nama_se": "ITSEC ASIA",
            "sektor": "Sektor Teknologi Informasi dan Komunikasi",
            "tanggal_terbit": "2023-02-27",
            "url_tdpse_detail": "https://pse.komdigi.go.id/tdpse-detail/13961",
            "website": "itsec.asia"
        },
        {
            "id": "9cb1ac2f-3b08-4417-9df6-874f20f47fae",
            "nama_pse": "FALAN ARKATAMA TEKNOLOGI",
            "nama_se": "FALAN ARKATAMA INDONESIA",
            "sektor": "Sektor Perdagangan",
            "tanggal_terbit": "2023-02-27",
            "url_tdpse_detail": "https://pse.komdigi.go.id/tdpse-detail/13962",
            "website": "falanarkatamaindonesia.com"
        },
        {
            "id": "9cb1ac2f-3e93-4927-85e8-c4956be07613",
            "nama_pse": "MUTIARA MEGA KREASI",
            "nama_se": "MUTIARA MEGA KREASI",
            "sektor": "Sektor Perdagangan",
            "tanggal_terbit": "2023-02-27",
            "url_tdpse_detail": "https://pse.komdigi.go.id/tdpse-detail/13963",
            "website": "mutiaramegakreasi.com"
        },
        {
            "id": "9cb1ac1c-b16c-4f2a-9515-fd478df024c6",
            "nama_pse": "KSPPS BMT DS NETWORK",
            "nama_se": "BMT MOBILE ON LINE",
            "sektor": "Sektor Teknologi Informasi dan Komunikasi",
            "tanggal_terbit": "2023-02-27",
            "url_tdpse_detail": "https://pse.komdigi.go.id/tdpse-detail/13964",
            "website": "-"
        },
        {
            "id": "9cb1ac2f-430e-47c5-811d-e6c9d66aeb1f",
            "nama_pse": "OCTOPUS LABORATORY INDONESIA",
            "nama_se": "OCTOPUS LABORATORY SYSTEM",
            "sektor": "Sektor Teknologi Informasi dan Komunikasi",
            "tanggal_terbit": "2023-02-27",
            "url_tdpse_detail": "https://pse.komdigi.go.id/tdpse-detail/13966",
            "website": "octopuslab.co.id"
        },
        {
            "id": "9cb1abc5-f602-48e9-8532-143835d03d5e",
            "nama_pse": "INOVASI TEKNOLOGI SOLUSINDO",
            "nama_se": "DOCTUGO BY TRUSTMEDIS",
            "sektor": "Sektor Teknologi Informasi dan Komunikasi",
            "tanggal_terbit": "2023-02-27",
            "url_tdpse_detail": "https://pse.komdigi.go.id/tdpse-detail/13948",
            "website": "trustmedis.com"
        },
        {
            "id": "9cb1ac3e-a973-4c34-a6bf-f12bc1daff6a",
            "nama_pse": "INNOVIEW INDO TECH",
            "nama_se": "MEDICTECH",
            "sektor": "Sektor Kesehatan",
            "tanggal_terbit": "2023-02-26",
            "url_tdpse_detail": "https://pse.komdigi.go.id/tdpse-detail/13943",
            "website": "-"
        },
        {
            "id": "9cb1ac2f-0d2b-44c3-b842-de37ed161570",
            "nama_pse": "KREATIF SISTEM TEKNOLOGI",
            "nama_se": "BUKUJANJI",
            "sektor": "Sektor Teknologi Informasi dan Komunikasi",
            "tanggal_terbit": "2023-02-26",
            "url_tdpse_detail": "https://pse.komdigi.go.id/tdpse-detail/13944",
            "website": "bukujanji.com"
        },
        {
            "id": "9cb1ac1c-9a00-43b3-8760-315665f8d6bd",
            "nama_pse": "KHAMAL ISMADIE",
            "nama_se": "KAMALISMADI.COM",
            "sektor": "Sektor Teknologi Informasi dan Komunikasi",
            "tanggal_terbit": "2023-02-26",
            "url_tdpse_detail": "https://pse.komdigi.go.id/tdpse-detail/13945",
            "website": "-"
        },
        {
            "id": "9cb1ac2f-1089-45f6-a8f4-5ff9583ddc54",
            "nama_pse": "TOPAN ADI PAMUNGKAS",
            "nama_se": "AMAL",
            "sektor": "Sektor Perdagangan, Sektor Teknologi Informasi dan Komunikasi",
            "tanggal_terbit": "2023-02-26",
            "url_tdpse_detail": "https://pse.komdigi.go.id/tdpse-detail/13946",
            "website": "amal.co.id"
        },
        {
            "id": "9cb1ac2e-fc8c-4a09-9e4c-56748484f48c",
            "nama_pse": "RBS PRODUCTION ABADI",
            "nama_se": "RBS NEWS | WWW.RBSNEWS.MY.ID",
            "sektor": "Sektor Perdagangan, Sektor Teknologi Informasi dan Komunikasi",
            "tanggal_terbit": "2023-02-25",
            "url_tdpse_detail": "https://pse.komdigi.go.id/tdpse-detail/13938",
            "website": "rbsnews.my.id"
        },
        {
            "id": "9cb1ac3e-a12e-4d32-8b22-9423896c2c8e",
            "nama_pse": "PERMATA BUNDA BERSAMA",
            "nama_se": "SIMRS KHANZA RS BUNDA SUABAYA",
            "sektor": "Sektor Kesehatan",
            "tanggal_terbit": "2023-02-25",
            "url_tdpse_detail": "https://pse.komdigi.go.id/tdpse-detail/13939",
            "website": "-"
        },
        {
            "id": "9cb1ac2f-00d5-42de-9350-1444ef563570",
            "nama_pse": "INFO MEMORY LESTARI",
            "nama_se": "ISOFT",
            "sektor": "Sektor Teknologi Informasi dan Komunikasi",
            "tanggal_terbit": "2023-02-25",
            "url_tdpse_detail": "https://pse.komdigi.go.id/tdpse-detail/13940",
            "website": "infomemorylestari.com"
        },
        {
            "id": "9cb1ac3e-a4e1-4418-aaed-83194771dcc4",
            "nama_pse": "VIXILOC DIGITAL CORP",
            "nama_se": "VIXILOC",
            "sektor": "Sektor Perdagangan",
            "tanggal_terbit": "2023-02-25",
            "url_tdpse_detail": "https://pse.komdigi.go.id/tdpse-detail/13941",
            "website": "vixiloc.co.id"
        },
        {
            "id": "9cb1ac2f-08c7-4db5-b52c-7ad1fd1ba85c",
            "nama_pse": "BUDI SETIA BHAKTI",
            "nama_se": "SIMRS KHANZA",
            "sektor": "Sektor Kesehatan",
            "tanggal_terbit": "2023-02-25",
            "url_tdpse_detail": "https://pse.komdigi.go.id/tdpse-detail/13942",
            "website": "-"
        },
        {
            "id": "9cb1ac1c-7328-4d38-a4f1-df21a4595139",
            "nama_pse": "AXA FINANCIAL INDONESIA",
            "nama_se": "EMMA APPLICATIONS",
            "sektor": "Sektor Keuangan",
            "tanggal_terbit": "2023-02-24",
            "url_tdpse_detail": "https://pse.komdigi.go.id/tdpse-detail/13923",
            "website": "-"
        },
        {
            "id": "9cb1ac3e-7435-4d63-b442-63f2fd6c8cd4",
            "nama_pse": "SINAR MERAK SANTOSO SYARIAH",
            "nama_se": "SMS PAY",
            "sektor": "Sektor Keuangan",
            "tanggal_terbit": "2023-02-24",
            "url_tdpse_detail": "https://pse.komdigi.go.id/tdpse-detail/13924",
            "website": "smspay.co.id"
        },
        {
            "id": "9cb1ac2e-ece0-4972-9da7-b0328b413e09",
            "nama_pse": "INDO KALBAR GRUP",
            "nama_se": "INDOKALBAR.COM",
            "sektor": "Sektor Teknologi Informasi dan Komunikasi",
            "tanggal_terbit": "2023-02-24",
            "url_tdpse_detail": "https://pse.komdigi.go.id/tdpse-detail/13922",
            "website": "indokalbar.com"
        },
        {
            "id": "9cb1ac3e-7a1f-469d-93a6-5552ec120783",
            "nama_pse": "KADEK ADY SUMIARTA",
            "nama_se": "POLIKITA",
            "sektor": "Sektor Kesehatan, Sektor Teknologi Informasi dan Komunikasi",
            "tanggal_terbit": "2023-02-24",
            "url_tdpse_detail": "https://pse.komdigi.go.id/tdpse-detail/13925",
            "website": "polikita.com"
        },
        {
            "id": "9cb1ac2e-eff8-4519-bca0-b8356da71630",
            "nama_pse": "PATTRA AKSA JAYA",
            "nama_se": "PAKE KTP",
            "sektor": "Sektor Keuangan",
            "tanggal_terbit": "2023-02-24",
            "url_tdpse_detail": "https://pse.komdigi.go.id/tdpse-detail/13928",
            "website": "-"
        },
        {
            "id": "9cb1ac1c-8b7b-46e6-9791-a2695d8a1e3c",
            "nama_pse": "YAN SEN",
            "nama_se": "NASER_INDONESIA",
            "sektor": "Sektor Perdagangan",
            "tanggal_terbit": "2023-02-24",
            "url_tdpse_detail": "https://pse.komdigi.go.id/tdpse-detail/13930",
            "website": "naserindonesia.com"
        },
        {
            "id": "9cb1ac2e-f2a5-435a-8b5c-981724437986",
            "nama_pse": "RUMAH SAKIT KHUSUS DAERAH DUREN SAWIT",
            "nama_se": "SISTEM INFORMASI REKAM MEDIK ELEKTRONIK (SIRAME)",
            "sektor": "Sektor Kesehatan",
            "tanggal_terbit": "2023-02-24",
            "url_tdpse_detail": "https://pse.komdigi.go.id/tdpse-detail/13933",
            "website": "rsdurensawit.jakarta.go.id"
        },
        {
            "id": "9cb1ac2e-f5b5-4c6b-b63b-c886b15c1217",
            "nama_pse": "PERMATA BUNDA BERSAMA",
            "nama_se": "SIMRS KHANZA RSU BUNDA SIDOARJO",
            "sektor": "Sektor Kesehatan",
            "tanggal_terbit": "2023-02-24",
            "url_tdpse_detail": "https://pse.komdigi.go.id/tdpse-detail/13932",
            "website": "rsubunda.com"
        },
        {
            "id": "9cb1ac3e-997f-4109-aac7-46912ab24062",
            "nama_pse": "HOSANA MEDICA PRATAMA",
            "nama_se": "SIMRS KHANZA",
            "sektor": "Sektor Kesehatan",
            "tanggal_terbit": "2023-02-24",
            "url_tdpse_detail": "https://pse.komdigi.go.id/tdpse-detail/13934",
            "website": "-"
        },
        {
            "id": "9cb1ac3e-9d35-43df-a1dc-46556173c895",
            "nama_pse": "IRFAN NABHANI",
            "nama_se": "SISTEM INFORMASI LAYANAN PENDIDIKAN ISLAM",
            "sektor": "Sektor Teknologi Informasi dan Komunikasi",
            "tanggal_terbit": "2023-02-24",
            "url_tdpse_detail": "https://pse.komdigi.go.id/tdpse-detail/13937",
            "website": "silpisolusi.com"
        },
        {
            "id": "9cb1ac2e-f91c-430d-a811-25810562af86",
            "nama_pse": "SUBANG PRIMA MEDITAMA",
            "nama_se": "SIMRS KHANZA",
            "sektor": "Sektor Kesehatan",
            "tanggal_terbit": "2023-02-24",
            "url_tdpse_detail": "https://pse.komdigi.go.id/tdpse-detail/13935",
            "website": "-"
        },
        {
            "id": "9cb1ac1c-8e47-4ea3-a4c0-8bebd4f9492c",
            "nama_pse": "RBS PRODUCTION ABADI",
            "nama_se": "BHAYANGKARA NEWS | WWW.LANGKATBHAYANGKARANEWS.MY.ID",
            "sektor": "Sektor Teknologi Informasi dan Komunikasi",
            "tanggal_terbit": "2023-02-24",
            "url_tdpse_detail": "https://pse.komdigi.go.id/tdpse-detail/13936",
            "website": "-"
        },
        {
            "id": "9cb1ac3c-1e02-420d-aed3-245ee4e357a4",
            "nama_pse": "PAKONS HOTELINDO SUKSES",
            "nama_se": "PAKONSPRIMEHOTELS.COM",
            "sektor": "Sektor Perdagangan",
            "tanggal_terbit": "2023-02-23",
            "url_tdpse_detail": "https://pse.komdigi.go.id/tdpse-detail/13917",
            "website": "-"
        },
        {
            "id": "9cb1ac3e-5073-4db5-8bc2-f66d9ca8eebc",
            "nama_pse": "ASURANSI TRI PAKARTA",
            "nama_se": "APLIKASI MOBILE TRIPA SMART",
            "sektor": "Sektor Perdagangan",
            "tanggal_terbit": "2023-02-23",
            "url_tdpse_detail": "https://pse.komdigi.go.id/tdpse-detail/13911",
            "website": "tripakarta.co.id"
        },
        {
            "id": "9cb1ac2e-c53f-4908-acac-8e1ec15d5f8c",
            "nama_pse": "ADHOUSE INDONESIA CIPTA",
            "nama_se": "ANAK BISNIS",
            "sektor": "Sektor Teknologi Informasi dan Komunikasi",
            "tanggal_terbit": "2023-02-23",
            "url_tdpse_detail": "https://pse.komdigi.go.id/tdpse-detail/13912",
            "website": "anakbisnis.com"
        },
        {
            "id": "9cb1ac1c-6bc1-462f-a9a4-c74a4a22c4d9",
            "nama_pse": "FANA BAKA TEKNOLOGI",
            "nama_se": "PABRYK",
            "sektor": "Sektor Perdagangan",
            "tanggal_terbit": "2023-02-23",
            "url_tdpse_detail": "https://pse.komdigi.go.id/tdpse-detail/13908",
            "website": "pabryk.com"
        },
        {
            "id": "9cb1ac3e-6a3b-4c17-aea8-fd79f55536ad",
            "nama_pse": "FANA BAKA TEKNOLOGI",
            "nama_se": "TUKARPAY",
            "sektor": "Sektor Perdagangan",
            "tanggal_terbit": "2023-02-23",
            "url_tdpse_detail": "https://pse.komdigi.go.id/tdpse-detail/13909",
            "website": "-"
        },
        {
            "id": "9cb1ac1c-6f39-4dbf-9ad5-ea9a88b4c05a",
            "nama_pse": "APIK EDU INDONESIA",
            "nama_se": "BLORA BERSATU",
            "sektor": "Sektor Teknologi Informasi dan Komunikasi",
            "tanggal_terbit": "2023-02-23",
            "url_tdpse_detail": "https://pse.komdigi.go.id/tdpse-detail/13910",
            "website": "-"
        },
        {
            "id": "9cb1ac1c-76f7-4684-baf3-1429a5c2f831",
            "nama_pse": "KONSULTAN BISNIS DAN INFORMATIKA",
            "nama_se": "OLEH OLEH ONLINE",
            "sektor": "Sektor Perdagangan",
            "tanggal_terbit": "2023-02-23",
            "url_tdpse_detail": "https://pse.komdigi.go.id/tdpse-detail/13913",
            "website": "oleholehonline.id"
        },
        {
            "id": "9cb1ac2e-cd95-4bb5-93f1-2842a7ae50a2",
            "nama_pse": "BIGS INTEGRASI TEKNOLOGI",
            "nama_se": "EMESYS",
            "sektor": "Sektor Kesehatan, Sektor Teknologi Informasi dan Komunikasi",
            "tanggal_terbit": "2023-02-23",
            "url_tdpse_detail": "https://pse.komdigi.go.id/tdpse-detail/13914",
            "website": "emesys.id"
        },
        {
            "id": "9cb1ac2e-d11c-4ac1-905e-f350585a377a",
            "nama_pse": "KARYA PRIMA PUTERA PERKASA",
            "nama_se": "AVIAT",
            "sektor": "Sektor Kesehatan, Sektor Teknologi Informasi dan Komunikasi",
            "tanggal_terbit": "2023-02-23",
            "url_tdpse_detail": "https://pse.komdigi.go.id/tdpse-detail/13918",
            "website": "-"
        },
        {
            "id": "9cb1ac1c-7b0b-4b16-aaf5-63ced65cf223",
            "nama_pse": "BEIDIAN TECHNOLOGY SERVICE",
            "nama_se": "BEIDIAN",
            "sektor": "Sektor Teknologi Informasi dan Komunikasi",
            "tanggal_terbit": "2023-02-23",
            "url_tdpse_detail": "https://pse.komdigi.go.id/tdpse-detail/13916",
            "website": "beidian.com.cn"
        },
        {
            "id": "9cb1ac1c-805b-4141-a376-35b8c85694c1",
            "nama_pse": "SISTEM KESEHATAN INDONESIA",
            "nama_se": "SISTEMKESEHATAN.ID",
            "sektor": "Sektor Kesehatan, Sektor Teknologi Informasi dan Komunikasi",
            "tanggal_terbit": "2023-02-23",
            "url_tdpse_detail": "https://pse.komdigi.go.id/tdpse-detail/13919",
            "website": "sistemkesehatan.id"
        },
        {
            "id": "9cb1ac3e-7732-440c-a976-5f3c3a915454",
            "nama_pse": "FANA BAKA TEKNOLOGI",
            "nama_se": "KONNEKIN",
            "sektor": "Sektor Perdagangan",
            "tanggal_terbit": "2023-02-23",
            "url_tdpse_detail": "https://pse.komdigi.go.id/tdpse-detail/13920",
            "website": "konnekin.com"
        }
    ],
    "processingTimeMs": 4,
    "query": "",
    "totalHits": 19121,
    "hitsPerPage": 50,
    "page": 153,
    "totalPages": 383
}