{
    "hits": [
        {
            "id": "9cb1ac85-29b3-4a58-97bd-d3ac4231a610",
            "nama_pse": "GLOBAL PRIMA UTAMA",
            "nama_se": "SISTEM INFORMASI RUMAH SAKIT BUKIT MENOREH",
            "sektor": "Sektor Kesehatan",
            "tanggal_terbit": "2024-05-29",
            "url_tdpse_detail": "https://pse.komdigi.go.id/tdpse-detail/19072",
            "website": "-"
        },
        {
            "id": "9cb1ac5b-ffad-43ed-9da8-e127e67f3bb9",
            "nama_pse": "MMC MARKETING GROUP",
            "nama_se": "EREZ",
            "sektor": "Sektor Teknologi Informasi dan Komunikasi",
            "tanggal_terbit": "2024-05-29",
            "url_tdpse_detail": "https://pse.komdigi.go.id/tdpse-detail/19066",
            "website": "MMCMG.COM"
        },
        {
            "id": "9cb1ac5c-024f-44c8-8332-400473fd5a7a",
            "nama_pse": "TYA ADHYAKSA MEDIA",
            "nama_se": "CAKRAWALANATIONAL.NEWS",
            "sektor": "Sektor Teknologi Informasi dan Komunikasi",
            "tanggal_terbit": "2024-05-29",
            "url_tdpse_detail": "https://pse.komdigi.go.id/tdpse-detail/19068",
            "website": "cakrawalanational.news"
        },
        {
            "id": "9cb1ac86-7766-4403-8a5e-8cab82ec23da",
            "nama_pse": "KURSUS WORDPRESS INDONESIA",
            "nama_se": "PT. KURSUS WORDPRESS INDONESIA",
            "sektor": "Sektor Teknologi Informasi dan Komunikasi",
            "tanggal_terbit": "2024-05-29",
            "url_tdpse_detail": "https://pse.komdigi.go.id/tdpse-detail/19069",
            "website": "kursusword.press"
        },
        {
            "id": "9cb1ac70-e97f-4fcb-b89c-78a44c853191",
            "nama_pse": "DANGHUAN TEKNOLOGI INDONESIA",
            "nama_se": "ESWOP",
            "sektor": "Sektor Perdagangan, Sektor Teknologi Informasi dan Komunikasi",
            "tanggal_terbit": "2024-05-29",
            "url_tdpse_detail": "https://pse.komdigi.go.id/tdpse-detail/19070",
            "website": "indon-h5-700001.eswopvn.com"
        },
        {
            "id": "9cb1ac70-eccf-426d-9ace-dd5fc40d9f64",
            "nama_pse": "WIDYA PRESISI SOLUSI",
            "nama_se": "EMAIL E-BUPOT",
            "sektor": "Sektor Teknologi Informasi dan Komunikasi",
            "tanggal_terbit": "2024-05-29",
            "url_tdpse_detail": "https://pse.komdigi.go.id/tdpse-detail/19074",
            "website": "e-bupot.com"
        },
        {
            "id": "9cb1ac5c-056a-4ef1-b9e1-4dcfee5c2218",
            "nama_pse": "APLIKASI KARYA ANAK MILENIAL",
            "nama_se": "GANESA.AI",
            "sektor": "Sektor Teknologi Informasi dan Komunikasi",
            "tanggal_terbit": "2024-05-29",
            "url_tdpse_detail": "https://pse.komdigi.go.id/tdpse-detail/19073",
            "website": "ganesa.ai"
        },
        {
            "id": "9cb1ac70-f077-495c-abcf-87975fe785cd",
            "nama_pse": "JASA ELEKTRONIK LEGAL",
            "nama_se": "PT. JASA ELEKTRONIK LEGAL",
            "sektor": "Sektor Teknologi Informasi dan Komunikasi",
            "tanggal_terbit": "2024-05-29",
            "url_tdpse_detail": "https://pse.komdigi.go.id/tdpse-detail/19075",
            "website": "elektroniklegal.my.id"
        },
        {
            "id": "9cb1ac86-7beb-439a-8cdf-5d4ced3425ef",
            "nama_pse": "KERTHI BALI SANTHI",
            "nama_se": "KERTHI BALI SANTHI SISTEM MANAJEMEN SEKOLAH (KBS SMS)",
            "sektor": "Sektor Teknologi Informasi dan Komunikasi",
            "tanggal_terbit": "2024-05-29",
            "url_tdpse_detail": "https://pse.komdigi.go.id/tdpse-detail/19076",
            "website": "kbs-sms.co.id"
        },
        {
            "id": "9cb1ac5c-07ec-4ada-8ea9-40b846480fb6",
            "nama_pse": "SINAR RIAU MULTIMEDIA",
            "nama_se": "SINARRIAU.COM",
            "sektor": "Sektor Teknologi Informasi dan Komunikasi",
            "tanggal_terbit": "2024-05-29",
            "url_tdpse_detail": "https://pse.komdigi.go.id/tdpse-detail/19077",
            "website": "sinarriau.com"
        },
        {
            "id": "9cb1ac86-83d5-4d32-8884-99f706734ecb",
            "nama_pse": "SEKTOR UTAMA BAKTI",
            "nama_se": "SEKTORHUKUM.COM",
            "sektor": "Sektor Perdagangan, Sektor Teknologi Informasi dan Komunikasi",
            "tanggal_terbit": "2024-05-29",
            "url_tdpse_detail": "https://pse.komdigi.go.id/tdpse-detail/19078",
            "website": "sektorhukum.com"
        },
        {
            "id": "9cb1ac5c-0b22-4b9f-a5c1-33a379ee8cb9",
            "nama_pse": "WIRA DIKU SUMA",
            "nama_se": "MOMENIAL",
            "sektor": "Sektor Teknologi Informasi dan Komunikasi",
            "tanggal_terbit": "2024-05-29",
            "url_tdpse_detail": "https://pse.komdigi.go.id/tdpse-detail/19079",
            "website": "momenial.com"
        },
        {
            "id": "9cb1ac86-8a65-46aa-ba6e-4a334b6585e9",
            "nama_pse": "KOLO COKRO GROUP",
            "nama_se": "KOLOCOKRONEWS.COM",
            "sektor": "Sektor Teknologi Informasi dan Komunikasi",
            "tanggal_terbit": "2024-05-29",
            "url_tdpse_detail": "https://pse.komdigi.go.id/tdpse-detail/19080",
            "website": "kolocokronews.com"
        },
        {
            "id": "9cb1ac34-36ab-41e3-9992-562f3da62af0",
            "nama_pse": "SOLUSI DIGITAL HANDAL",
            "nama_se": "THEBEE",
            "sektor": "Sektor Teknologi Informasi dan Komunikasi",
            "tanggal_terbit": "2024-05-29",
            "url_tdpse_detail": "https://pse.komdigi.go.id/tdpse-detail/19064",
            "website": "thebee.id"
        },
        {
            "id": "9cb1ac6e-0cf6-4b28-9c9d-2552ef24a5e9",
            "nama_pse": "INTERAKTIF INTERNASIONAL",
            "nama_se": "INTERACTIVE MYPARKING",
            "sektor": "Sektor Transportasi",
            "tanggal_terbit": "2024-05-29",
            "url_tdpse_detail": "https://pse.komdigi.go.id/tdpse-detail/19071",
            "website": "-"
        },
        {
            "id": "9cb1ac70-4d16-4c7c-bbc4-922da41b2581",
            "nama_pse": "FAHMI REZA FERDIANSYAH",
            "nama_se": "E-SO MEDIKA",
            "sektor": "Sektor Kesehatan, Sektor Teknologi Informasi dan Komunikasi",
            "tanggal_terbit": "2024-05-29",
            "url_tdpse_detail": "https://pse.komdigi.go.id/tdpse-detail/19065",
            "website": "somedika.com"
        },
        {
            "id": "9cb1ac70-5bfa-4733-84ce-6569d6aef932",
            "nama_pse": "UMMA DIGITAL CREATIONS",
            "nama_se": "UMMA DENTAL CARE",
            "sektor": "Sektor Kesehatan, Sektor Teknologi Informasi dan Komunikasi",
            "tanggal_terbit": "2024-05-28",
            "url_tdpse_detail": "https://pse.komdigi.go.id/tdpse-detail/19061",
            "website": "ummadentalcare.my.id"
        },
        {
            "id": "9cb1ac5b-be01-4d38-be5e-cd91e3351903",
            "nama_pse": "-",
            "nama_se": "HOME BUDGET STUFF",
            "sektor": "Sektor Perdagangan",
            "tanggal_terbit": "2024-05-28",
            "url_tdpse_detail": "https://pse.komdigi.go.id/tdpse-detail/19051",
            "website": "homebudgetstuff.com"
        },
        {
            "id": "9cb1ac5b-f50e-4109-831a-df411e783778",
            "nama_pse": "MITRAJAYA DIGITAL KOMUNIKASI",
            "nama_se": "DIGITAL FOUR ID",
            "sektor": "Sektor Perdagangan, Sektor Teknologi Informasi dan Komunikasi",
            "tanggal_terbit": "2024-05-28",
            "url_tdpse_detail": "https://pse.komdigi.go.id/tdpse-detail/19049",
            "website": "-"
        },
        {
            "id": "9cb1ac86-62f0-4a3d-a821-06eaa3ef909d",
            "nama_pse": "MUHAMAD IHSAN FIRDAUS",
            "nama_se": "DAFTAR HKI",
            "sektor": "Sektor Perdagangan",
            "tanggal_terbit": "2024-05-28",
            "url_tdpse_detail": "https://pse.komdigi.go.id/tdpse-detail/19050",
            "website": "daftarhki.id"
        },
        {
            "id": "9cb1ac5b-f7bb-4eb8-86e0-553311b39c80",
            "nama_pse": "INTERAKTIF INTERNASIONAL",
            "nama_se": "INTERACTIVE MYBILLIARDS",
            "sektor": "Sektor Teknologi Informasi dan Komunikasi",
            "tanggal_terbit": "2024-05-28",
            "url_tdpse_detail": "https://pse.komdigi.go.id/tdpse-detail/19053",
            "website": "-"
        },
        {
            "id": "9cb1ac70-d261-4aa5-a8fb-0d3123f32afb",
            "nama_pse": "ANDIKA BAYU KURNIAWAN",
            "nama_se": "JURAGAN WIFI",
            "sektor": "Sektor Teknologi Informasi dan Komunikasi",
            "tanggal_terbit": "2024-05-28",
            "url_tdpse_detail": "https://pse.komdigi.go.id/tdpse-detail/19052",
            "website": "-"
        },
        {
            "id": "9cb1ac86-7002-4697-ad77-7ff6a202b1b7",
            "nama_pse": "INOVASI SATU KONEKSI",
            "nama_se": "INOVASI SATU KONEKSI",
            "sektor": "Sektor Teknologi Informasi dan Komunikasi",
            "tanggal_terbit": "2024-05-28",
            "url_tdpse_detail": "https://pse.komdigi.go.id/tdpse-detail/19063",
            "website": "-"
        },
        {
            "id": "9cb1ac70-d60e-4704-a971-1b450559244a",
            "nama_pse": "METROSOFT SOLUSI INTEGRASI",
            "nama_se": "HARMOVIA",
            "sektor": "Sektor Perdagangan",
            "tanggal_terbit": "2024-05-28",
            "url_tdpse_detail": "https://pse.komdigi.go.id/tdpse-detail/19055",
            "website": "harmovia.co.id"
        },
        {
            "id": "9cb1ac70-da2c-4830-9296-cc3f8ee34c71",
            "nama_pse": "ROYAL TRUST FUTURES",
            "nama_se": "MEMBERS.ROYALFX.CO.ID",
            "sektor": "Sektor Perdagangan",
            "tanggal_terbit": "2024-05-28",
            "url_tdpse_detail": "https://pse.komdigi.go.id/tdpse-detail/19056",
            "website": "royalfx.co.id"
        },
        {
            "id": "9cb1ac70-ddcf-4152-90c8-4ceeb525e2b1",
            "nama_pse": "HIGEA MEDIKA INSURA SOLUSI INDONESIA",
            "nama_se": "HIGEA",
            "sektor": "Sektor Perdagangan, Sektor Kesehatan",
            "tanggal_terbit": "2024-05-28",
            "url_tdpse_detail": "https://pse.komdigi.go.id/tdpse-detail/19058",
            "website": "higea.id"
        },
        {
            "id": "9cb1ac70-e565-40dc-975c-dac240e17f16",
            "nama_pse": "MULTI BANGUN ABADI",
            "nama_se": "LAPAK RIZKI",
            "sektor": "Sektor Teknologi Informasi dan Komunikasi",
            "tanggal_terbit": "2024-05-28",
            "url_tdpse_detail": "https://pse.komdigi.go.id/tdpse-detail/19059",
            "website": "-"
        },
        {
            "id": "9cb1ac5b-fa5b-4c9b-ab17-af6f31a12ec9",
            "nama_pse": "MISTER JASA GROUP",
            "nama_se": "PT. MISTER JASA",
            "sektor": "Sektor Teknologi Informasi dan Komunikasi",
            "tanggal_terbit": "2024-05-28",
            "url_tdpse_detail": "https://pse.komdigi.go.id/tdpse-detail/19060",
            "website": "misterjasa.com"
        },
        {
            "id": "9cb1ac5b-fcd4-4d36-b20a-0250cef4aa97",
            "nama_pse": "ASSAJJAD MULTI SINERGI",
            "nama_se": "EVO MULTIPAY",
            "sektor": "Sektor Perdagangan",
            "tanggal_terbit": "2024-05-28",
            "url_tdpse_detail": "https://pse.komdigi.go.id/tdpse-detail/19062",
            "website": "-"
        },
        {
            "id": "9cb1ac86-665b-47c4-93cb-c3e0ce42b016",
            "nama_pse": "BAHRUL MAGHFIROH CINTA INDONESIA",
            "nama_se": "E-CLINICBM",
            "sektor": "Sektor Kesehatan",
            "tanggal_terbit": "2024-05-28",
            "url_tdpse_detail": "https://pse.komdigi.go.id/tdpse-detail/19054",
            "website": "klinikbmci.com"
        },
        {
            "id": "9cb1ac85-e588-40b4-9345-69bd2b30aafd",
            "nama_pse": "PRATAMA INTERDANA FINANCE",
            "nama_se": "YESSSCREDIT",
            "sektor": "Sektor Keuangan",
            "tanggal_terbit": "2024-05-28",
            "url_tdpse_detail": "https://pse.komdigi.go.id/tdpse-detail/19057",
            "website": "yessscredit.id"
        },
        {
            "id": "9cb1ac70-bc18-4fc4-845e-0aca6556582d",
            "nama_pse": "ZAMHUR MALIK PATHUR HAPIZ",
            "nama_se": "HRR_HOTSPOT",
            "sektor": "Sektor Teknologi Informasi dan Komunikasi",
            "tanggal_terbit": "2024-05-27",
            "url_tdpse_detail": "https://pse.komdigi.go.id/tdpse-detail/19035",
            "website": "-"
        },
        {
            "id": "9cb1ac5b-e504-4dba-9200-05ef25211421",
            "nama_pse": "BONA MEDIKA UTAMA",
            "nama_se": "BONA MEDIKA",
            "sektor": "Sektor Kesehatan",
            "tanggal_terbit": "2024-05-27",
            "url_tdpse_detail": "https://pse.komdigi.go.id/tdpse-detail/19036",
            "website": "klinik.bonamedika.com"
        },
        {
            "id": "9cb1ac5b-e76e-48ca-aa28-ae4dfe4e1eb9",
            "nama_pse": "TRIYAKOM",
            "nama_se": "PRETTY SQUAD",
            "sektor": "Sektor Teknologi Informasi dan Komunikasi",
            "tanggal_terbit": "2024-05-27",
            "url_tdpse_detail": "https://pse.komdigi.go.id/tdpse-detail/19037",
            "website": "prettysquad.co.id"
        },
        {
            "id": "9cb1ac70-bf8d-46eb-886b-ddc43a32210b",
            "nama_pse": "FTF GLOBALINDO",
            "nama_se": "APLIKASI ADMINISTRASI",
            "sektor": "Sektor Teknologi Informasi dan Komunikasi",
            "tanggal_terbit": "2024-05-27",
            "url_tdpse_detail": "https://pse.komdigi.go.id/tdpse-detail/19038",
            "website": "-"
        },
        {
            "id": "9cb1ac5b-ea4a-4ff3-b254-cd9351e58bb0",
            "nama_pse": "MITRA SETIA SEJATI",
            "nama_se": "INSPIRE MITRA SETIA",
            "sektor": "Sektor Kesehatan",
            "tanggal_terbit": "2024-05-27",
            "url_tdpse_detail": "https://pse.komdigi.go.id/tdpse-detail/19039",
            "website": "-"
        },
        {
            "id": "9cb1ac70-c309-4bd3-a51e-8a510854089b",
            "nama_pse": "DEDIKASI MASYARAKAT SOLUSI",
            "nama_se": "PELAPORAN ONLINE",
            "sektor": "Sektor Teknologi Informasi dan Komunikasi",
            "tanggal_terbit": "2024-05-27",
            "url_tdpse_detail": "https://pse.komdigi.go.id/tdpse-detail/19040",
            "website": "-"
        },
        {
            "id": "9cb1ac70-c9f6-461b-ade7-f75e2fa9e879",
            "nama_pse": "SARANA KREATIVITAS TEKNOLOGI",
            "nama_se": "EXPANSI",
            "sektor": "Sektor Teknologi Informasi dan Komunikasi",
            "tanggal_terbit": "2024-05-27",
            "url_tdpse_detail": "https://pse.komdigi.go.id/tdpse-detail/19041",
            "website": "expansi.id"
        },
        {
            "id": "9cb1ac5b-eccf-46ba-8f48-a339bba65daf",
            "nama_pse": "KERTHI BALI SANTHI",
            "nama_se": "BALI XPERIENCE",
            "sektor": "Sektor Perdagangan, Sektor Transportasi, Sektor Teknologi Informasi dan Komunikasi",
            "tanggal_terbit": "2024-05-27",
            "url_tdpse_detail": "https://pse.komdigi.go.id/tdpse-detail/19042",
            "website": "baliexperience.co.id"
        },
        {
            "id": "9cb1ac5b-ef6d-40b4-8eea-33f78fe9775e",
            "nama_pse": "DIMAS RADITYA WISNU",
            "nama_se": "DIGITALKU",
            "sektor": "Sektor Teknologi Informasi dan Komunikasi",
            "tanggal_terbit": "2024-05-27",
            "url_tdpse_detail": "https://pse.komdigi.go.id/tdpse-detail/19045",
            "website": "digitalku.net"
        },
        {
            "id": "9cb1ac86-5f31-4a7a-b087-72618f650eaa",
            "nama_pse": "PUSAT KREASI RAKYAT",
            "nama_se": "KREYAT CENTER",
            "sektor": "Sektor Perdagangan, Sektor Teknologi Informasi dan Komunikasi",
            "tanggal_terbit": "2024-05-27",
            "url_tdpse_detail": "https://pse.komdigi.go.id/tdpse-detail/19046",
            "website": "kreyatcenter.com"
        },
        {
            "id": "9cb1ac70-ce06-4416-935a-35219ebaa5ee",
            "nama_pse": "RISELL MITRA ASIA",
            "nama_se": "PT RISELL MITRA ASIA",
            "sektor": "Sektor Perdagangan",
            "tanggal_terbit": "2024-05-27",
            "url_tdpse_detail": "https://pse.komdigi.go.id/tdpse-detail/19047",
            "website": "buyvely.com"
        },
        {
            "id": "9cb1ac5b-f274-414c-9bdd-c29dc7a752b3",
            "nama_pse": "VIRTUAL STAF INDONESIA",
            "nama_se": "VIRTUAL STAF INDONESIA",
            "sektor": "Sektor Perdagangan",
            "tanggal_terbit": "2024-05-27",
            "url_tdpse_detail": "https://pse.komdigi.go.id/tdpse-detail/19048",
            "website": "virtualstaf.com"
        },
        {
            "id": "9cb1ac5b-dca8-485d-897e-8d869e996c3e",
            "nama_pse": "GEMALA NUSANTARA SOLUTION",
            "nama_se": "GEMALA NUSANTARA INDONESIA",
            "sektor": "Sektor Perdagangan",
            "tanggal_terbit": "2024-05-26",
            "url_tdpse_detail": "https://pse.komdigi.go.id/tdpse-detail/19033",
            "website": "gemalanusantara.com"
        },
        {
            "id": "9cb1ac5b-d768-41b5-8ce4-20acdc251d4b",
            "nama_pse": "FIKA JAYA NUSANTARA",
            "nama_se": "TOPIKWIFI",
            "sektor": "Sektor Perdagangan",
            "tanggal_terbit": "2024-05-25",
            "url_tdpse_detail": "https://pse.komdigi.go.id/tdpse-detail/19023",
            "website": "-"
        },
        {
            "id": "9cb1ac86-1c9b-44d7-b789-3c1243564cc8",
            "nama_pse": "MUMASA GRUP DIGITAL",
            "nama_se": "HOSTINGAJA.BIZ.ID",
            "sektor": "Sektor Teknologi Informasi dan Komunikasi",
            "tanggal_terbit": "2024-05-25",
            "url_tdpse_detail": "https://pse.komdigi.go.id/tdpse-detail/19024",
            "website": "Hostingaja.biz.id"
        },
        {
            "id": "9cb1ac86-1fab-46a0-bcb9-8ca0ff14e92d",
            "nama_pse": "MUMASA GRUP DIGITAL",
            "nama_se": "RATUBASRENG.COM",
            "sektor": "Sektor Perdagangan, Sektor Teknologi Informasi dan Komunikasi",
            "tanggal_terbit": "2024-05-25",
            "url_tdpse_detail": "https://pse.komdigi.go.id/tdpse-detail/19025",
            "website": "ratubasreng.com"
        },
        {
            "id": "9cb1ac70-b405-4e86-a019-498eab2e6072",
            "nama_pse": "AL FURQON AL ISLAMI",
            "nama_se": "APLIKASI KLINIK AL-IMAN",
            "sektor": "Sektor Kesehatan",
            "tanggal_terbit": "2024-05-25",
            "url_tdpse_detail": "https://pse.komdigi.go.id/tdpse-detail/19026",
            "website": "-"
        },
        {
            "id": "9cb1ac86-233e-49be-9ae2-105932456193",
            "nama_pse": "SIMPLE PAYMENT INDONESIA",
            "nama_se": "SIMPLEPAY",
            "sektor": "Sektor Perdagangan",
            "tanggal_terbit": "2024-05-25",
            "url_tdpse_detail": "https://pse.komdigi.go.id/tdpse-detail/19027",
            "website": "-"
        },
        {
            "id": "9cb1ac5b-da06-4ff1-9ba6-2f5315c9f8f7",
            "nama_pse": "BEDAH NUSANTARA GROUP",
            "nama_se": "BEDAHNUSANTARAINDONESIA.ID",
            "sektor": "Sektor Teknologi Informasi dan Komunikasi",
            "tanggal_terbit": "2024-05-25",
            "url_tdpse_detail": "https://pse.komdigi.go.id/tdpse-detail/19028",
            "website": "bedahnusantaraindonesia.id"
        }
    ],
    "processingTimeMs": 1,
    "query": "",
    "totalHits": 19121,
    "hitsPerPage": 50,
    "page": 64,
    "totalPages": 383
}