{
    "hits": [
        {
            "id": "9cb1aba1-0b04-42b1-9681-014aa2669074",
            "nama_pse": "DIGITAL APLIKASI SOLUSI",
            "nama_se": "DIGISERVE PROFESSIONAL SERVICE",
            "sektor": "Sektor Teknologi Informasi dan Komunikasi",
            "tanggal_terbit": "2022-04-21",
            "url_tdpse_detail": "https://pse.komdigi.go.id/tdpse-detail/3976",
            "website": "Digiserve.co.id"
        },
        {
            "id": "9cb1ab94-c240-4726-8a14-8eef151c58a0",
            "nama_pse": "DIGITAL APLIKASI SOLUSI",
            "nama_se": "DIGISERVE MANAGED CLOUD SERVICE – SAAS PAAS",
            "sektor": "Sektor Teknologi Informasi dan Komunikasi",
            "tanggal_terbit": "2022-04-21",
            "url_tdpse_detail": "https://pse.komdigi.go.id/tdpse-detail/3978",
            "website": "Digiserve.co.id"
        },
        {
            "id": "9cb1ab94-c772-4c29-9002-1d1d60ad8226",
            "nama_pse": "DIGITAL APLIKASI SOLUSI",
            "nama_se": "DIGISERVE PROFESSIONAL SERVICE - CLOUD",
            "sektor": "Sektor Teknologi Informasi dan Komunikasi",
            "tanggal_terbit": "2022-04-21",
            "url_tdpse_detail": "https://pse.komdigi.go.id/tdpse-detail/3980",
            "website": "Digiserve.co.id"
        },
        {
            "id": "9cb1aba1-0d5b-4da8-bd03-eb42504e22d0",
            "nama_pse": "DIGITAL APLIKASI SOLUSI",
            "nama_se": "DIGISERVE MANAGED CLOUD SERVICE - IAAS",
            "sektor": "Sektor Teknologi Informasi dan Komunikasi",
            "tanggal_terbit": "2022-04-21",
            "url_tdpse_detail": "https://pse.komdigi.go.id/tdpse-detail/3982",
            "website": "Digiserve.co.id"
        },
        {
            "id": "9cb1ab94-cbfa-4f6c-a1bb-bc2d042a4ede",
            "nama_pse": "HINDO",
            "nama_se": "ID.HM.COM",
            "sektor": "Sektor Perdagangan",
            "tanggal_terbit": "2022-04-21",
            "url_tdpse_detail": "https://pse.komdigi.go.id/tdpse-detail/3970",
            "website": "id.hm.com"
        },
        {
            "id": "9cb1abab-c388-4517-8c53-dc97eb64a44c",
            "nama_pse": "DECATHLON SPORTS INDONESIA",
            "nama_se": "DECATHLON.CO.ID",
            "sektor": "Sektor Perdagangan",
            "tanggal_terbit": "2022-04-21",
            "url_tdpse_detail": "https://pse.komdigi.go.id/tdpse-detail/3969",
            "website": "decathlon.co.id"
        },
        {
            "id": "9cb1abab-c929-47ca-90e3-0697a239a5a9",
            "nama_pse": "LAKU6 ONLINE INDONESIA",
            "nama_se": "LAKU6 TRADE CENTER",
            "sektor": "Sektor Perdagangan, Sektor Teknologi Informasi dan Komunikasi",
            "tanggal_terbit": "2022-04-21",
            "url_tdpse_detail": "https://pse.komdigi.go.id/tdpse-detail/3986",
            "website": "-"
        },
        {
            "id": "9cb1aba1-30a4-4455-a6ed-e6bbba23ebe4",
            "nama_pse": "LAKU6 ONLINE INDONESIA",
            "nama_se": "MAUJUAL",
            "sektor": "Sektor Perdagangan, Sektor Teknologi Informasi dan Komunikasi",
            "tanggal_terbit": "2022-04-21",
            "url_tdpse_detail": "https://pse.komdigi.go.id/tdpse-detail/3987",
            "website": "maujual.com"
        },
        {
            "id": "9cb1aba1-32af-43d3-a603-ae992ee1896e",
            "nama_pse": "LAKU6 ONLINE INDONESIA",
            "nama_se": "TUKAR TAMBAH",
            "sektor": "Sektor Teknologi Informasi dan Komunikasi",
            "tanggal_terbit": "2022-04-21",
            "url_tdpse_detail": "https://pse.komdigi.go.id/tdpse-detail/6313",
            "website": "-"
        },
        {
            "id": "9cb1aba1-397a-4c5f-ac87-f3e359660661",
            "nama_pse": "MEDIA KATE INDONESIA",
            "nama_se": "PORTAL BERITA ONLINE",
            "sektor": "Sektor Teknologi Informasi dan Komunikasi",
            "tanggal_terbit": "2022-04-21",
            "url_tdpse_detail": "https://pse.komdigi.go.id/tdpse-detail/3964",
            "website": "kate.id"
        },
        {
            "id": "9cb1aba1-3b9c-45e2-8393-120dd17d730f",
            "nama_pse": "ARTHAMAS SOLUSINDO",
            "nama_se": "AMS",
            "sektor": "Sektor Teknologi Informasi dan Komunikasi",
            "tanggal_terbit": "2022-04-21",
            "url_tdpse_detail": "https://pse.komdigi.go.id/tdpse-detail/3971",
            "website": "amconsults.net"
        },
        {
            "id": "9cb1abab-dbd5-4038-954f-b575fb1afccd",
            "nama_pse": "CARMEL ANUGERAH CEMERLANG",
            "nama_se": "PANENSAHAM",
            "sektor": "Sektor Perdagangan, Sektor Teknologi Informasi dan Komunikasi",
            "tanggal_terbit": "2022-04-21",
            "url_tdpse_detail": "https://pse.komdigi.go.id/tdpse-detail/3979",
            "website": "panensaham.com"
        },
        {
            "id": "9cb1ab94-fd1b-49f5-85cd-01429998dc2b",
            "nama_pse": "CARMEL ANUGERAH CEMERLANG",
            "nama_se": "APLIKASI PANENSAHAM",
            "sektor": "Sektor Perdagangan, Sektor Teknologi Informasi dan Komunikasi",
            "tanggal_terbit": "2022-04-21",
            "url_tdpse_detail": "https://pse.komdigi.go.id/tdpse-detail/3981",
            "website": "panensaham.com"
        },
        {
            "id": "9cb1ab94-ff59-4e97-bf3e-5cd03ec40d58",
            "nama_pse": "LOYALTY PROGRAM INDONESIA",
            "nama_se": "QOIN CRYPTO",
            "sektor": "Sektor Teknologi Informasi dan Komunikasi",
            "tanggal_terbit": "2022-04-21",
            "url_tdpse_detail": "https://pse.komdigi.go.id/tdpse-detail/3984",
            "website": "qoincrypto.id"
        },
        {
            "id": "9cb1abab-f557-4715-9929-30f75c4be3b0",
            "nama_pse": "SOTTA TEKNOLOGI INDONESIA",
            "nama_se": "TOKEN VCGAMERS",
            "sektor": "Sektor Perdagangan",
            "tanggal_terbit": "2022-04-21",
            "url_tdpse_detail": "https://pse.komdigi.go.id/tdpse-detail/3983",
            "website": "token.vcgamers.com"
        },
        {
            "id": "9cb1ab95-0d52-43bf-b749-2f77802982ac",
            "nama_pse": "ZURICH TOPAS LIFE",
            "nama_se": "MICROSITE PEMBELIAN ASURANSI JIWA",
            "sektor": "Sektor Keuangan",
            "tanggal_terbit": "2022-04-21",
            "url_tdpse_detail": "https://pse.komdigi.go.id/tdpse-detail/3967",
            "website": "bareng.zurich.co.id"
        },
        {
            "id": "9cb1abad-7015-4371-8db8-ebd9423f85c9",
            "nama_pse": "MAHA NAGARI NUSANTARA",
            "nama_se": "MAHA NAGARI NUSANTARA",
            "sektor": "Sektor Perdagangan",
            "tanggal_terbit": "2022-04-21",
            "url_tdpse_detail": "https://pse.komdigi.go.id/tdpse-detail/4536",
            "website": "Torch.id"
        },
        {
            "id": "9cb1aba3-a9e7-4ab3-b9ef-26af4dff863f",
            "nama_pse": "MILLO PERKASA",
            "nama_se": "KOMPUTER DAN PERLENGKAPANNYA",
            "sektor": "Sektor Teknologi Informasi dan Komunikasi",
            "tanggal_terbit": "2022-04-21",
            "url_tdpse_detail": "https://pse.komdigi.go.id/tdpse-detail/4594",
            "website": "-"
        },
        {
            "id": "9cb1ab93-f97d-47aa-8d6a-a7dc7a6bce86",
            "nama_pse": "RADIOSTAR KREASI MEDIA",
            "nama_se": "JAPANESE MUSIC ID",
            "sektor": "Sektor Teknologi Informasi dan Komunikasi",
            "tanggal_terbit": "2022-04-20",
            "url_tdpse_detail": "https://pse.komdigi.go.id/tdpse-detail/3944",
            "website": "japanesemusicid.com"
        },
        {
            "id": "9cb1abab-25f4-4594-bc40-9f046ba91a7a",
            "nama_pse": "KENALINKED INDONESIA GRUP",
            "nama_se": "KENALINKED",
            "sektor": "Sektor Perdagangan, Sektor Teknologi Informasi dan Komunikasi",
            "tanggal_terbit": "2022-04-20",
            "url_tdpse_detail": "https://pse.komdigi.go.id/tdpse-detail/3957",
            "website": "kenalinked.com"
        },
        {
            "id": "9cb1ab94-118d-4bbb-ba50-01bac084d6e6",
            "nama_pse": "ONDEL TEKNOLOGI INDONESIA",
            "nama_se": "ONDELIVERY SMART AGENT SYSTEM",
            "sektor": "Sektor Transportasi",
            "tanggal_terbit": "2022-04-20",
            "url_tdpse_detail": "https://pse.komdigi.go.id/tdpse-detail/3956",
            "website": "ondelivery.id"
        },
        {
            "id": "9cb1aba0-be44-4146-9b65-c1fd46d09e53",
            "nama_pse": "SOLUSI KECERDASAN BUATAN",
            "nama_se": "KELAS KODING",
            "sektor": "Sektor Teknologi Informasi dan Komunikasi",
            "tanggal_terbit": "2022-04-20",
            "url_tdpse_detail": "https://pse.komdigi.go.id/tdpse-detail/3961",
            "website": "kelaskoding.co.id"
        },
        {
            "id": "9cb1aba0-c149-4b3d-b17a-86d975524e47",
            "nama_pse": "SOLUSI KECERDASAN BUATAN",
            "nama_se": "KELAS KODING",
            "sektor": "Sektor Teknologi Informasi dan Komunikasi",
            "tanggal_terbit": "2022-04-20",
            "url_tdpse_detail": "https://pse.komdigi.go.id/tdpse-detail/3963",
            "website": "kelaskoding.co.id"
        },
        {
            "id": "9cb1ab94-4967-4ca3-a92a-17aeb11ec303",
            "nama_pse": "PENDIDIKAN BISA ARTIFISIAL INDONESIA",
            "nama_se": "BISA DESIGN ACADEMY",
            "sektor": "Sektor Teknologi Informasi dan Komunikasi",
            "tanggal_terbit": "2022-04-20",
            "url_tdpse_detail": "https://pse.komdigi.go.id/tdpse-detail/3962",
            "website": "bisa.design"
        },
        {
            "id": "9cb1ab94-6cd1-418f-9a95-67eec8b34961",
            "nama_pse": "TENTANG ANAK BAHAGIA",
            "nama_se": "TENTANG ANAK",
            "sektor": "Sektor Teknologi Informasi dan Komunikasi",
            "tanggal_terbit": "2022-04-20",
            "url_tdpse_detail": "https://pse.komdigi.go.id/tdpse-detail/3942",
            "website": "tentanganak.id"
        },
        {
            "id": "9cb1abab-4d9a-4475-8362-793267a2039d",
            "nama_pse": "PT STARLINK GLOBAL NETWORK",
            "nama_se": "STARLINK GLOBAL NETWORK",
            "sektor": "Sektor Teknologi Informasi dan Komunikasi",
            "tanggal_terbit": "2022-04-20",
            "url_tdpse_detail": "https://pse.komdigi.go.id/tdpse-detail/3943",
            "website": "starlink.id"
        },
        {
            "id": "9cb1ab94-8c49-4883-b99f-535e48c9ab83",
            "nama_pse": "NELVIUCE TILADURU",
            "nama_se": "63122",
            "sektor": "Sektor Perdagangan, Sektor Keuangan",
            "tanggal_terbit": "2022-04-20",
            "url_tdpse_detail": "https://pse.komdigi.go.id/tdpse-detail/3960",
            "website": "-"
        },
        {
            "id": "9cb1aba0-f3d2-4ee5-8090-64c26aa57e26",
            "nama_pse": "DIGITAL KOMPARASI SOLUSI",
            "nama_se": "CHECK DISINI",
            "sektor": "Sektor Perdagangan",
            "tanggal_terbit": "2022-04-20",
            "url_tdpse_detail": "https://pse.komdigi.go.id/tdpse-detail/3950",
            "website": "checkdisini.com"
        },
        {
            "id": "9cb1abab-a25d-426c-ae34-92cc4bfeac2b",
            "nama_pse": "PERUM PERCETAKAN UANG RI",
            "nama_se": "PERURI DIGITAL",
            "sektor": "Sektor Teknologi Informasi dan Komunikasi",
            "tanggal_terbit": "2022-04-20",
            "url_tdpse_detail": "https://pse.komdigi.go.id/tdpse-detail/3955",
            "website": "peruri.co.id"
        },
        {
            "id": "9cb1abab-a5b8-401b-8a0d-14dcc4bcf289",
            "nama_pse": "PYRIDAM FARMA",
            "nama_se": "CERVIRAY A.I.",
            "sektor": "Sektor Perdagangan, Sektor Kesehatan",
            "tanggal_terbit": "2022-04-20",
            "url_tdpse_detail": "https://pse.komdigi.go.id/tdpse-detail/3958",
            "website": "cerviray.pyfa.co.id"
        },
        {
            "id": "9cb1aba1-00b8-4d51-9812-43f4675d038e",
            "nama_pse": "ABS MULTIMEDIA INDONESIA",
            "nama_se": "ABS.NET",
            "sektor": "Sektor Teknologi Informasi dan Komunikasi",
            "tanggal_terbit": "2022-04-20",
            "url_tdpse_detail": "https://pse.komdigi.go.id/tdpse-detail/3939",
            "website": "abs.net.id"
        },
        {
            "id": "9cb1aba1-02c8-435a-82cd-cd6d562f4a9c",
            "nama_pse": "ABS MULTIMEDIA INDONESIA",
            "nama_se": "ABS DIGITAL",
            "sektor": "Sektor Perdagangan, Sektor Teknologi Informasi dan Komunikasi",
            "tanggal_terbit": "2022-04-20",
            "url_tdpse_detail": "https://pse.komdigi.go.id/tdpse-detail/3940",
            "website": "abs.net.id"
        },
        {
            "id": "9cb1aba1-36c3-43af-ab10-f63ae0d12ecc",
            "nama_pse": "CARMEL ANUGERAH MANDIRI",
            "nama_se": "PANENSAHAM",
            "sektor": "Sektor Teknologi Informasi dan Komunikasi",
            "tanggal_terbit": "2022-04-20",
            "url_tdpse_detail": "https://pse.komdigi.go.id/tdpse-detail/3947",
            "website": "panensaham.com"
        },
        {
            "id": "9cb1ab94-e437-4541-a35f-4670615d9d9b",
            "nama_pse": "CARMEL ANUGERAH MANDIRI",
            "nama_se": "APLIKASI MONIKA PANENSAHAM",
            "sektor": "Sektor Perdagangan, Sektor Teknologi Informasi dan Komunikasi",
            "tanggal_terbit": "2022-04-20",
            "url_tdpse_detail": "https://pse.komdigi.go.id/tdpse-detail/3948",
            "website": "-"
        },
        {
            "id": "9cb1abab-d095-40d3-892c-5b6c1216d04f",
            "nama_pse": "CARMEL ANUGERAH MANDIRI",
            "nama_se": "APLIKASI MR.KRIP PANENSAHAM",
            "sektor": "Sektor Perdagangan, Sektor Teknologi Informasi dan Komunikasi",
            "tanggal_terbit": "2022-04-20",
            "url_tdpse_detail": "https://pse.komdigi.go.id/tdpse-detail/3949",
            "website": "-"
        },
        {
            "id": "9cb1aba1-4451-4b88-85cb-c5357731a06d",
            "nama_pse": "SUARA MAS ABADI",
            "nama_se": "STARHITS",
            "sektor": "Sektor Teknologi Informasi dan Komunikasi",
            "tanggal_terbit": "2022-04-20",
            "url_tdpse_detail": "https://pse.komdigi.go.id/tdpse-detail/3954",
            "website": "starhits.id"
        },
        {
            "id": "9cb1abab-f28f-42df-bc61-d2468162d10d",
            "nama_pse": "SOLUSI KAMPUS INDONESIA",
            "nama_se": "ESPMI",
            "sektor": "Sektor Teknologi Informasi dan Komunikasi",
            "tanggal_terbit": "2022-04-20",
            "url_tdpse_detail": "https://pse.komdigi.go.id/tdpse-detail/3945",
            "website": "suite.ecampuz.com/"
        },
        {
            "id": "9cb1aba1-52b2-49a5-8039-55adc30bd281",
            "nama_pse": "NONGHYUP KORINDO SEKURITAS INDONESIA",
            "nama_se": "NAIKMOBILE",
            "sektor": "Sektor Perdagangan, Sektor Keuangan",
            "tanggal_terbit": "2022-04-20",
            "url_tdpse_detail": "https://pse.komdigi.go.id/tdpse-detail/3951",
            "website": "-"
        },
        {
            "id": "9cb1ab95-04dd-4ba5-8fec-eb555a94b2c9",
            "nama_pse": "NONGHYUP KORINDO SEKURITAS INDONESIA",
            "nama_se": "NHIS WEB",
            "sektor": "Sektor Perdagangan, Sektor Keuangan",
            "tanggal_terbit": "2022-04-20",
            "url_tdpse_detail": "https://pse.komdigi.go.id/tdpse-detail/3952",
            "website": "nhis.co.id"
        },
        {
            "id": "9cb1ab95-13a1-4dff-8f65-0bd3f7ad6593",
            "nama_pse": "MULTI PRATAMA INDONESIA",
            "nama_se": "MULTI PRATAMA INDONESIA",
            "sektor": "Sektor Perdagangan",
            "tanggal_terbit": "2022-04-20",
            "url_tdpse_detail": "https://pse.komdigi.go.id/tdpse-detail/3959",
            "website": "-"
        },
        {
            "id": "9cb1aba3-ad65-4252-b456-d8fd5d1280b5",
            "nama_pse": "DONDON OOKIKU NARU",
            "nama_se": "DONDON HARU JAPAN",
            "sektor": "Sektor Perdagangan, Sektor Teknologi Informasi dan Komunikasi",
            "tanggal_terbit": "2022-04-20",
            "url_tdpse_detail": "https://pse.komdigi.go.id/tdpse-detail/4595",
            "website": "dondonharu.jp"
        },
        {
            "id": "9cb1ab93-aa1d-455c-9da1-eb68ee8797b9",
            "nama_pse": "ROEDY RUSTAM",
            "nama_se": "SIDEKA",
            "sektor": "Sektor Teknologi Informasi dan Komunikasi",
            "tanggal_terbit": "2022-04-19",
            "url_tdpse_detail": "https://pse.komdigi.go.id/tdpse-detail/3918",
            "website": "Sideka.id"
        },
        {
            "id": "9cb1aba0-5830-4970-9196-be228ea0c5ca",
            "nama_pse": "BASISTA TEAMWORK",
            "nama_se": "WARUNG KITA MERCHANT",
            "sektor": "Sektor Perdagangan",
            "tanggal_terbit": "2022-04-19",
            "url_tdpse_detail": "https://pse.komdigi.go.id/tdpse-detail/3938",
            "website": "warungkita.info"
        },
        {
            "id": "9cb1aba0-b574-4144-8578-9e7f56db84e0",
            "nama_pse": "TIRA SATRIA NIAGA",
            "nama_se": "WEBSITE TIRA-SF.ID",
            "sektor": "Sektor Perdagangan",
            "tanggal_terbit": "2022-04-19",
            "url_tdpse_detail": "https://pse.komdigi.go.id/tdpse-detail/3935",
            "website": "tira-sf.id"
        },
        {
            "id": "9cb1ab94-3cb3-433f-a3db-0f051eaa0259",
            "nama_pse": "FANAGO INTI PERKASA",
            "nama_se": "FANAGO",
            "sektor": "Sektor Perdagangan, Sektor Energi dan Sumber Daya Mineral, Sektor Keuangan, Sektor Kesehatan, Sektor Teknologi Informasi dan Komunikasi, Sektor Pangan, Sektor Pertahanan dan Keamanan",
            "tanggal_terbit": "2022-04-19",
            "url_tdpse_detail": "https://pse.komdigi.go.id/tdpse-detail/3927",
            "website": "fanago.net"
        },
        {
            "id": "9cb1ab94-639b-4128-bc04-1d2ac01badf3",
            "nama_pse": "BANK PEMBANGUNAN DAERAH KALIMANTAN BARAT",
            "nama_se": "MOBILE BANKING BANK KALBAR",
            "sektor": "Sektor Keuangan",
            "tanggal_terbit": "2022-04-19",
            "url_tdpse_detail": "https://pse.komdigi.go.id/tdpse-detail/3923",
            "website": "bankkalbar.co.id"
        },
        {
            "id": "9cb1ab94-6f4b-4eb3-b7d7-09633ab47da8",
            "nama_pse": "HENDI RIAN MAULANA",
            "nama_se": "BANK PUSAKA ALAM NUSANTARA",
            "sektor": "Sektor Perdagangan, Sektor Energi dan Sumber Daya Mineral, Sektor Transportasi, Sektor Keuangan, Sektor Kesehatan, Sektor Teknologi Informasi dan Komunikasi, Sektor Pangan, Sektor Pertahanan dan Keamanan",
            "tanggal_terbit": "2022-04-19",
            "url_tdpse_detail": "https://pse.komdigi.go.id/tdpse-detail/3933",
            "website": "-"
        },
        {
            "id": "9cb1abab-4ac2-4cb4-b99b-09c72eb9d352",
            "nama_pse": "APLIKASI BERKAH BERSAMA",
            "nama_se": "USYARIAH",
            "sektor": "Sektor Keuangan",
            "tanggal_terbit": "2022-04-19",
            "url_tdpse_detail": "https://pse.komdigi.go.id/tdpse-detail/3921",
            "website": "usyariah.com"
        },
        {
            "id": "9cb1abab-5a75-46b7-be3b-0e4a1b7f86f1",
            "nama_pse": "SOLUTAMA SINERGI DATA",
            "nama_se": "THAMA WEB SERVICES",
            "sektor": "Sektor Teknologi Informasi dan Komunikasi",
            "tanggal_terbit": "2022-04-19",
            "url_tdpse_detail": "https://pse.komdigi.go.id/tdpse-detail/3912",
            "website": "thama.co.id"
        },
        {
            "id": "9cb1ab94-86ed-4198-b8de-1bba769b8cf7",
            "nama_pse": "SOLUTAMA SINERGI DATA",
            "nama_se": "SMARTHAMA",
            "sektor": "Sektor Teknologi Informasi dan Komunikasi",
            "tanggal_terbit": "2022-04-19",
            "url_tdpse_detail": "https://pse.komdigi.go.id/tdpse-detail/3934",
            "website": "thama.id"
        }
    ],
    "processingTimeMs": 78,
    "query": "",
    "totalHits": 19121,
    "hitsPerPage": 50,
    "page": 308,
    "totalPages": 383
}