{
    "hits": [
        {
            "id": "9cb1abad-4981-4778-acbd-d90a9555a19b",
            "nama_pse": "YUSUF FAISAL",
            "nama_se": "KORNET INTER MEDIA",
            "sektor": "Sektor Teknologi Informasi dan Komunikasi",
            "tanggal_terbit": "2022-05-15",
            "url_tdpse_detail": "https://pse.komdigi.go.id/tdpse-detail/4471",
            "website": "-"
        },
        {
            "id": "9cb1ab97-8227-40db-b106-1936fd0b195e",
            "nama_pse": "PASAR MIKRO GLOBAL",
            "nama_se": "PASAR MIKRO",
            "sektor": "Sektor Perdagangan, Sektor Teknologi Informasi dan Komunikasi",
            "tanggal_terbit": "2022-05-15",
            "url_tdpse_detail": "https://pse.komdigi.go.id/tdpse-detail/4472",
            "website": "pasarmikro.id"
        },
        {
            "id": "9cb1aba3-2675-470b-86c7-ac85eacb019f",
            "nama_pse": "SAKTI KINERJA KOLABORASINDO",
            "nama_se": "SAKTI",
            "sektor": "Sektor Teknologi Informasi dan Komunikasi",
            "tanggal_terbit": "2022-05-14",
            "url_tdpse_detail": "https://pse.komdigi.go.id/tdpse-detail/4470",
            "website": "ptskk.id"
        },
        {
            "id": "9cb1aba2-adf9-491d-a8b6-66a59ff72b6d",
            "nama_pse": "MEDLINX ASIA TEKNOLOGI",
            "nama_se": "FARMAZI",
            "sektor": "Sektor Kesehatan, Sektor Teknologi Informasi dan Komunikasi",
            "tanggal_terbit": "2022-05-13",
            "url_tdpse_detail": "https://pse.komdigi.go.id/tdpse-detail/4354",
            "website": "Farmazi.id"
        },
        {
            "id": "9cb1aba3-1455-457f-9cd3-17d85bfd65f2",
            "nama_pse": "INMOBI INDONESIA TECHNOLOGIES",
            "nama_se": "SWISH SHOPPING FOLDER",
            "sektor": "Sektor Perdagangan",
            "tanggal_terbit": "2022-05-13",
            "url_tdpse_detail": "https://pse.komdigi.go.id/tdpse-detail/4452",
            "website": "-"
        },
        {
            "id": "9cb1aba3-2085-410a-915a-ee876b0d4da3",
            "nama_pse": "NINGRAT MUDA MANDIRI",
            "nama_se": "NINGRAT MUDA MANDIRI",
            "sektor": "Sektor Transportasi",
            "tanggal_terbit": "2022-05-13",
            "url_tdpse_detail": "https://pse.komdigi.go.id/tdpse-detail/4463",
            "website": "ningratmudamandiri.com"
        },
        {
            "id": "9cb1ab97-799a-4c60-b835-57e5e3120e0d",
            "nama_pse": "MONEX INVESTINDO FUTURES",
            "nama_se": "MIFX",
            "sektor": "Sektor Keuangan",
            "tanggal_terbit": "2022-05-13",
            "url_tdpse_detail": "https://pse.komdigi.go.id/tdpse-detail/4464",
            "website": "mifx.com"
        },
        {
            "id": "9cb1abad-43ba-4e65-9e2c-839f73caedde",
            "nama_pse": "TOKBAN GRAHA TEKNOLOGI",
            "nama_se": "TOKBAN",
            "sektor": "Sektor Perdagangan, Sektor Transportasi, Sektor Teknologi Informasi dan Komunikasi",
            "tanggal_terbit": "2022-05-13",
            "url_tdpse_detail": "https://pse.komdigi.go.id/tdpse-detail/4465",
            "website": "tokban.com"
        },
        {
            "id": "9cb1abad-4799-4f5c-ae9e-f661863abd61",
            "nama_pse": "KULINER INOVATIF INDONESIA",
            "nama_se": "DISHSERVE",
            "sektor": "Sektor Perdagangan",
            "tanggal_terbit": "2022-05-13",
            "url_tdpse_detail": "https://pse.komdigi.go.id/tdpse-detail/4468",
            "website": "dishserve.com"
        },
        {
            "id": "9cb1aba3-234b-4973-a7c5-89f7e461b8e9",
            "nama_pse": "TANA HULU TERBAIK",
            "nama_se": "TANA HULU TERBAIK",
            "sektor": "Sektor Pertahanan dan Keamanan",
            "tanggal_terbit": "2022-05-13",
            "url_tdpse_detail": "https://pse.komdigi.go.id/tdpse-detail/4469",
            "website": "-"
        },
        {
            "id": "9cb1abac-f929-4e2d-b1aa-eed72257af2f",
            "nama_pse": "TELEAKSES SOLUSINDO",
            "nama_se": "ARTIFICIAL INTELLIGENCE",
            "sektor": "Sektor Teknologi Informasi dan Komunikasi",
            "tanggal_terbit": "2022-05-12",
            "url_tdpse_detail": "https://pse.komdigi.go.id/tdpse-detail/4352",
            "website": "tel-access.biz"
        },
        {
            "id": "9cb1aba2-aa2c-47d5-9ee2-1951e7f41e8d",
            "nama_pse": "TELEAKSES SOLUSINDO",
            "nama_se": "ARTIFICIAL INTELLIGENCE (AI)",
            "sektor": "Sektor Teknologi Informasi dan Komunikasi",
            "tanggal_terbit": "2022-05-12",
            "url_tdpse_detail": "https://pse.komdigi.go.id/tdpse-detail/4353",
            "website": "tel-access.biz"
        },
        {
            "id": "9cb1ab97-4f2e-46e9-95ed-a4698792c480",
            "nama_pse": "RANUP SIGAPU",
            "nama_se": "RANUP SIGAPU",
            "sektor": "Sektor Perdagangan",
            "tanggal_terbit": "2022-05-12",
            "url_tdpse_detail": "https://pse.komdigi.go.id/tdpse-detail/4442",
            "website": "-"
        },
        {
            "id": "9cb1aba3-0f01-4627-8513-30660cddc87b",
            "nama_pse": "FUTURE COMMERCE INDONESIA",
            "nama_se": "FUTURE COMMERCE",
            "sektor": "Sektor Teknologi Informasi dan Komunikasi",
            "tanggal_terbit": "2022-05-12",
            "url_tdpse_detail": "https://pse.komdigi.go.id/tdpse-detail/4443",
            "website": "futurecommerce.cn"
        },
        {
            "id": "9cb1abad-3e50-4dfc-b8ea-51d6d9142023",
            "nama_pse": "BRAVO SOLUTION INDONESIA",
            "nama_se": "WEBSITE DAN WEBSISTEM",
            "sektor": "Sektor Teknologi Informasi dan Komunikasi",
            "tanggal_terbit": "2022-05-12",
            "url_tdpse_detail": "https://pse.komdigi.go.id/tdpse-detail/4444",
            "website": "bravosolutionindonesia.com"
        },
        {
            "id": "9cb1ab97-5188-472f-a5fe-ac4c06c8bee2",
            "nama_pse": "BRAVO SOLUTION INDONESIA",
            "nama_se": "SIMPEL MAS",
            "sektor": "Sektor Teknologi Informasi dan Komunikasi",
            "tanggal_terbit": "2022-05-12",
            "url_tdpse_detail": "https://pse.komdigi.go.id/tdpse-detail/4445",
            "website": "-"
        },
        {
            "id": "9cb1ab97-545a-4998-a044-898a0e3bd255",
            "nama_pse": "BRAVO SOLUTION INDONESIA",
            "nama_se": "WEBSISTEM",
            "sektor": "Sektor Teknologi Informasi dan Komunikasi",
            "tanggal_terbit": "2022-05-12",
            "url_tdpse_detail": "https://pse.komdigi.go.id/tdpse-detail/4446",
            "website": "bravosolutionindonesia.com"
        },
        {
            "id": "9cb1ab97-57b9-4bec-bd51-9c50a85c153c",
            "nama_pse": "BRAVO SOLUTION INDONESIA",
            "nama_se": "PEMBUATAN WEBSITE COMPANY PROFILE,WEBSISTEM DLL",
            "sektor": "Sektor Teknologi Informasi dan Komunikasi",
            "tanggal_terbit": "2022-05-12",
            "url_tdpse_detail": "https://pse.komdigi.go.id/tdpse-detail/4447",
            "website": "bravosolutionindonesia.com"
        },
        {
            "id": "9cb1ab97-5fdc-4d9f-97b4-58ea139be2c7",
            "nama_pse": "ARTHA BANGSA SUKSES",
            "nama_se": "FUNDGROW",
            "sektor": "Sektor Keuangan, Sektor Teknologi Informasi dan Komunikasi",
            "tanggal_terbit": "2022-05-12",
            "url_tdpse_detail": "https://pse.komdigi.go.id/tdpse-detail/4448",
            "website": "fundgrow.id"
        },
        {
            "id": "9cb1aba3-10fe-4c5d-bb27-5153aa7f3b07",
            "nama_pse": "PARFUM INDONESIA RAYA",
            "nama_se": "KOKO DE PARFUM",
            "sektor": "Sektor Perdagangan",
            "tanggal_terbit": "2022-05-12",
            "url_tdpse_detail": "https://pse.komdigi.go.id/tdpse-detail/4449",
            "website": "kokodeparfum.com"
        },
        {
            "id": "9cb1ab97-629e-4aff-901a-1ceb04b48669",
            "nama_pse": "ACCLIVIS TECHNOLOGIES AND SOLUTIONS",
            "nama_se": "ACCLIVIS COMMERCIAL CLOUD",
            "sektor": "Sektor Teknologi Informasi dan Komunikasi",
            "tanggal_terbit": "2022-05-12",
            "url_tdpse_detail": "https://pse.komdigi.go.id/tdpse-detail/4450",
            "website": "acclivis.com"
        },
        {
            "id": "9cb1aba3-12ad-4026-a734-4232b305c3cf",
            "nama_pse": "BERSATU TERBANG TINGGI",
            "nama_se": "REVA",
            "sektor": "Sektor Perdagangan",
            "tanggal_terbit": "2022-05-12",
            "url_tdpse_detail": "https://pse.komdigi.go.id/tdpse-detail/4451",
            "website": "reva.co.id"
        },
        {
            "id": "9cb1ab97-72df-4ade-8d3e-ce1fc8132d6d",
            "nama_pse": "NUSANTARA CARD SEMESTA",
            "nama_se": "INTEGRATED DISTRIBUTIONS SEMESTA SYSTEM (IDSS)",
            "sektor": "Sektor Teknologi Informasi dan Komunikasi",
            "tanggal_terbit": "2022-05-12",
            "url_tdpse_detail": "https://pse.komdigi.go.id/tdpse-detail/4454",
            "website": "idss.ptncs.co.id"
        },
        {
            "id": "9cb1aba3-1633-466f-851d-01100ee72235",
            "nama_pse": "BUDIMANMAJU MEGAH FARMASI",
            "nama_se": "BUMAME",
            "sektor": "Sektor Kesehatan",
            "tanggal_terbit": "2022-05-12",
            "url_tdpse_detail": "https://pse.komdigi.go.id/tdpse-detail/4455",
            "website": "bumamefarmasi.com"
        },
        {
            "id": "9cb1ab97-75ca-4a38-b30e-2ce50fad09b5",
            "nama_pse": "KANARA EMAS NUSANTARA",
            "nama_se": "KENGOLD",
            "sektor": "Sektor Perdagangan",
            "tanggal_terbit": "2022-05-12",
            "url_tdpse_detail": "https://pse.komdigi.go.id/tdpse-detail/4137",
            "website": "kengold.co.id"
        },
        {
            "id": "9cb1aba3-180f-448c-b88a-a66e51e548e9",
            "nama_pse": "EMARO ONLINE INDONESIA",
            "nama_se": "KLIKMRO.COM",
            "sektor": "Sektor Perdagangan",
            "tanggal_terbit": "2022-05-12",
            "url_tdpse_detail": "https://pse.komdigi.go.id/tdpse-detail/4458",
            "website": "klikMRO.com"
        },
        {
            "id": "9cb1aba3-1ad8-4f3a-9717-3d4a6b193c97",
            "nama_pse": "GRAHA SEWA INOVASI",
            "nama_se": "SEWAAJA",
            "sektor": "Sektor Perdagangan",
            "tanggal_terbit": "2022-05-12",
            "url_tdpse_detail": "https://pse.komdigi.go.id/tdpse-detail/4459",
            "website": "sewaaja.co.id"
        },
        {
            "id": "9cb1aba3-1eb4-4423-8580-cbb00bde711c",
            "nama_pse": "VEMO DIGITAL INDONESIA",
            "nama_se": "VAPEMAL",
            "sektor": "Sektor Perdagangan",
            "tanggal_terbit": "2022-05-12",
            "url_tdpse_detail": "https://pse.komdigi.go.id/tdpse-detail/4462",
            "website": "vapemal.com"
        },
        {
            "id": "9cb1abad-37b0-40d3-a04b-24146a4d5ddc",
            "nama_pse": "PASAR TANI INDONESIA",
            "nama_se": "E-COMMERCE \u0026 KEMITRAAN MARKET TANI",
            "sektor": "Sektor Perdagangan",
            "tanggal_terbit": "2022-05-11",
            "url_tdpse_detail": "https://pse.komdigi.go.id/tdpse-detail/4434",
            "website": "marketani.com"
        },
        {
            "id": "9cb1abad-3a3f-4f92-9a38-941b85a69776",
            "nama_pse": "PASAR TANI INDONESIA",
            "nama_se": "MARKETPLACE \u0026 KEMITRAAN USAHA",
            "sektor": "Sektor Perdagangan, Sektor Keuangan, Sektor Pangan",
            "tanggal_terbit": "2022-05-11",
            "url_tdpse_detail": "https://pse.komdigi.go.id/tdpse-detail/4435",
            "website": "marketani.com"
        },
        {
            "id": "9cb1ab97-4a86-4384-a93f-c0922119e86e",
            "nama_pse": "BERJAYA KREASI INDONESIA",
            "nama_se": "REFLOW INDONESIA",
            "sektor": "Sektor Teknologi Informasi dan Komunikasi",
            "tanggal_terbit": "2022-05-11",
            "url_tdpse_detail": "https://pse.komdigi.go.id/tdpse-detail/4436",
            "website": "reflowindonesia.id"
        },
        {
            "id": "9cb1aba3-05ee-4e7f-a06a-d4352d0e3299",
            "nama_pse": "KHARISMA SENTOSA RETAIL",
            "nama_se": "SAVESOLA",
            "sektor": "Sektor Perdagangan",
            "tanggal_terbit": "2022-05-11",
            "url_tdpse_detail": "https://pse.komdigi.go.id/tdpse-detail/4437",
            "website": "lippershop.id"
        },
        {
            "id": "9cb1aba3-0884-48e2-8f51-4a9b90bae9e2",
            "nama_pse": "ANDARA BARATA SUKSES",
            "nama_se": "LIPPERSHOP",
            "sektor": "Sektor Perdagangan",
            "tanggal_terbit": "2022-05-11",
            "url_tdpse_detail": "https://pse.komdigi.go.id/tdpse-detail/4438",
            "website": "lippershop.id"
        },
        {
            "id": "9cb1abad-3c83-4196-bbad-945098b19746",
            "nama_pse": "PANEN INDONESIA SEJAHTERA",
            "nama_se": "PANENID",
            "sektor": "Sektor Perdagangan",
            "tanggal_terbit": "2022-05-11",
            "url_tdpse_detail": "https://pse.komdigi.go.id/tdpse-detail/4439",
            "website": "panen.id"
        },
        {
            "id": "9cb1aba3-0b79-4ca0-9078-5c54ebbb7cdb",
            "nama_pse": "ARKATAMA CAKKAVATI INDONESIA",
            "nama_se": "O'SWEET SINGAPORE",
            "sektor": "Sektor Perdagangan",
            "tanggal_terbit": "2022-05-11",
            "url_tdpse_detail": "https://pse.komdigi.go.id/tdpse-detail/4440",
            "website": "osweetsingapore.com"
        },
        {
            "id": "9cb1aba3-0d4a-4e18-9bad-762d0ec63b28",
            "nama_pse": "NATINDO SEJAHTERA INDONESIA",
            "nama_se": "NATINDOCARGO.COM",
            "sektor": "Sektor Perdagangan",
            "tanggal_terbit": "2022-05-11",
            "url_tdpse_detail": "https://pse.komdigi.go.id/tdpse-detail/4441",
            "website": "natindocargo.com"
        },
        {
            "id": "9cb1aba3-97ea-4223-a9aa-2f4f4aa240b5",
            "nama_pse": "BITRAS",
            "nama_se": "BITRAS",
            "sektor": "Sektor Perdagangan, Sektor Transportasi, Sektor Teknologi Informasi dan Komunikasi, Sektor Pertahanan dan Keamanan",
            "tanggal_terbit": "2022-05-11",
            "url_tdpse_detail": "https://pse.komdigi.go.id/tdpse-detail/4586",
            "website": "bitras.com"
        },
        {
            "id": "9cb1ab96-b30a-47e0-8d86-9f7bc7a37302",
            "nama_pse": "SELALU SIAP SOLUSI",
            "nama_se": "KIRIMINAJA AGGREGATOR LOGISTIK",
            "sektor": "Sektor Teknologi Informasi dan Komunikasi",
            "tanggal_terbit": "2022-05-10",
            "url_tdpse_detail": "https://pse.komdigi.go.id/tdpse-detail/4347",
            "website": "kiriminaja.com"
        },
        {
            "id": "9cb1aba3-03d9-4fc1-8134-d09dcb8f7195",
            "nama_pse": "GLOBAL JET EXPRESS",
            "nama_se": "J\u0026T EXPRESS",
            "sektor": "Sektor Transportasi",
            "tanggal_terbit": "2022-05-10",
            "url_tdpse_detail": "https://pse.komdigi.go.id/tdpse-detail/4430",
            "website": "jet.co.id"
        },
        {
            "id": "9cb1abad-3332-4d15-aa22-12a39d8aa52c",
            "nama_pse": "GLOBAL JET EXPRESS",
            "nama_se": "WWW.JET.CO.ID",
            "sektor": "Sektor Transportasi",
            "tanggal_terbit": "2022-05-10",
            "url_tdpse_detail": "https://pse.komdigi.go.id/tdpse-detail/4431",
            "website": "jet.co.id"
        },
        {
            "id": "9cb1ab97-47bf-4662-ac15-244ed878a807",
            "nama_pse": "GLOBAL AIDEN TEKNOLOGI",
            "nama_se": "GLOBAL AIDEN TEKNOLOGI",
            "sektor": "Sektor Kesehatan, Sektor Teknologi Informasi dan Komunikasi",
            "tanggal_terbit": "2022-05-10",
            "url_tdpse_detail": "https://pse.komdigi.go.id/tdpse-detail/4432",
            "website": "aidenasia.com"
        },
        {
            "id": "9cb1abad-3573-4dc9-a05b-44d7b392e041",
            "nama_pse": "E2PAY GLOBAL UTAMA",
            "nama_se": "E2PAY PAYMENT GATEWAY",
            "sektor": "Sektor Keuangan, Sektor Teknologi Informasi dan Komunikasi",
            "tanggal_terbit": "2022-05-10",
            "url_tdpse_detail": "https://pse.komdigi.go.id/tdpse-detail/4433",
            "website": "e2pay.co.id"
        },
        {
            "id": "9cb1aba2-b9ff-4c88-8e81-16229f5adf6e",
            "nama_pse": "HOME CREDIT INDONESIA",
            "nama_se": "CANDIDATE MOBILE APPLICATION (CMA)",
            "sektor": "Sektor Keuangan",
            "tanggal_terbit": "2022-05-09",
            "url_tdpse_detail": "https://pse.komdigi.go.id/tdpse-detail/4360",
            "website": "cma.homecredit.co.id"
        },
        {
            "id": "9cb1aba2-bd60-450c-91d4-4c945ada191a",
            "nama_pse": "HOME CREDIT INDONESIA",
            "nama_se": "E-RECRUITMENT",
            "sektor": "Sektor Keuangan",
            "tanggal_terbit": "2022-05-09",
            "url_tdpse_detail": "https://pse.komdigi.go.id/tdpse-detail/4361",
            "website": "recruitment.homecredit.co.id"
        },
        {
            "id": "9cb1aba2-fd2b-496d-a5de-3740486493dc",
            "nama_pse": "DURASAFE WORKWEAR INDONESIA",
            "nama_se": "DURASAFE",
            "sektor": "Sektor Perdagangan",
            "tanggal_terbit": "2022-05-09",
            "url_tdpse_detail": "https://pse.komdigi.go.id/tdpse-detail/4422",
            "website": "durasafe.co.id"
        },
        {
            "id": "9cb1abad-2b8f-4e3a-b5c5-38b749dadf4b",
            "nama_pse": "ENERBA TEKNOLOGI",
            "nama_se": "ENERBA TEKNOLOGI",
            "sektor": "Sektor Perdagangan",
            "tanggal_terbit": "2022-05-09",
            "url_tdpse_detail": "https://pse.komdigi.go.id/tdpse-detail/4423",
            "website": "enerba-teknologi.co.id"
        },
        {
            "id": "9cb1ab97-3b25-4000-9db9-403fadefff70",
            "nama_pse": "CHUROTUL AINNIAH",
            "nama_se": "AIN SHOP",
            "sektor": "Sektor Perdagangan",
            "tanggal_terbit": "2022-05-09",
            "url_tdpse_detail": "https://pse.komdigi.go.id/tdpse-detail/4424",
            "website": "-"
        },
        {
            "id": "9cb1aba2-ff21-4ba8-89da-635a5d971e7f",
            "nama_pse": "KLINIK PERMATA MEDIKA",
            "nama_se": "KESEHATAN",
            "sektor": "Sektor Kesehatan",
            "tanggal_terbit": "2022-05-09",
            "url_tdpse_detail": "https://pse.komdigi.go.id/tdpse-detail/4425",
            "website": "-"
        },
        {
            "id": "9cb1ab97-41f3-4765-9e32-e86baa54a6d5",
            "nama_pse": "FLASH PAY INDONESIA",
            "nama_se": "FLASH PAY",
            "sektor": "Sektor Keuangan, Sektor Teknologi Informasi dan Komunikasi",
            "tanggal_terbit": "2022-05-09",
            "url_tdpse_detail": "https://pse.komdigi.go.id/tdpse-detail/4426",
            "website": "flashpay.co.th"
        },
        {
            "id": "9cb1aba3-01ca-4b79-8c90-9b3bee576ed2",
            "nama_pse": "SANGKURIANG BERKAH NUSANTARA",
            "nama_se": "WARGA STORE",
            "sektor": "Sektor Perdagangan, Sektor Teknologi Informasi dan Komunikasi",
            "tanggal_terbit": "2022-05-09",
            "url_tdpse_detail": "https://pse.komdigi.go.id/tdpse-detail/4427",
            "website": "-"
        }
    ],
    "processingTimeMs": 5,
    "query": "",
    "totalHits": 19131,
    "hitsPerPage": 50,
    "page": 305,
    "totalPages": 383
}