{
    "hits": [
        {
            "id": "9cb1abb9-3a7f-4455-ac25-d2978153e8a9",
            "nama_pse": "BANK DANAMON INDONESIA",
            "nama_se": "CASH@WORK HOST TO HOST",
            "sektor": "Sektor Keuangan",
            "tanggal_terbit": "2022-07-20",
            "url_tdpse_detail": "https://pse.komdigi.go.id/tdpse-detail/7799",
            "website": "direct.danamon.co.id"
        },
        {
            "id": "9cb1abeb-e8a2-4362-a114-19d23faae3fe",
            "nama_pse": "ASURANSI SINAR MAS",
            "nama_se": "APLIKASI PETKOE",
            "sektor": "Sektor Keuangan",
            "tanggal_terbit": "2022-07-20",
            "url_tdpse_detail": "https://pse.komdigi.go.id/tdpse-detail/7808",
            "website": "simaspet.com"
        },
        {
            "id": "9cb1abb9-3e0a-4ddc-a72a-45c57c5a4b08",
            "nama_pse": "BANK PERKREDITAN RAKYAT SUMBER TIOPAN RAYA",
            "nama_se": "PT. BANK PERKREDITAN RAKYAT SUMBER TIOPAN RAYA",
            "sektor": "Sektor Keuangan",
            "tanggal_terbit": "2022-07-20",
            "url_tdpse_detail": "https://pse.komdigi.go.id/tdpse-detail/7800",
            "website": "-"
        },
        {
            "id": "9cb1abeb-ed5d-46d6-9520-fffa8ea9e283",
            "nama_pse": "INOVASI MERAH PUTIH",
            "nama_se": "PENJUALAN MOBIL ONLINE",
            "sektor": "Sektor Perdagangan, Sektor Teknologi Informasi dan Komunikasi",
            "tanggal_terbit": "2022-07-20",
            "url_tdpse_detail": "https://pse.komdigi.go.id/tdpse-detail/7801",
            "website": "otr.id"
        },
        {
            "id": "9cb1abeb-f345-4386-a631-006c4df1639f",
            "nama_pse": "BANK PERKREDITAN RAKYAT SEDANA YASA",
            "nama_se": "BANKING SMART SYSTEM",
            "sektor": "Sektor Keuangan",
            "tanggal_terbit": "2022-07-20",
            "url_tdpse_detail": "https://pse.komdigi.go.id/tdpse-detail/7806",
            "website": "-"
        },
        {
            "id": "9cb1abb9-4136-4754-a13d-92a90fcb27f2",
            "nama_pse": "BANK PEREKONOMIAN RAKYAT WIRANADI",
            "nama_se": "INTEGRATED BANKING SYSTEM ( IBS )",
            "sektor": "Sektor Keuangan",
            "tanggal_terbit": "2022-07-20",
            "url_tdpse_detail": "https://pse.komdigi.go.id/tdpse-detail/7809",
            "website": "bprwiranadi.com"
        },
        {
            "id": "9cb1abeb-f8e5-4bd9-81eb-b8976683415d",
            "nama_pse": "BANK PEREKONOMIAN RAKYAT MITRA SEJAHTERA LESTARI",
            "nama_se": "PT BPR MITRA SEJAHTERA LESTARI",
            "sektor": "Sektor Keuangan",
            "tanggal_terbit": "2022-07-20",
            "url_tdpse_detail": "https://pse.komdigi.go.id/tdpse-detail/7824",
            "website": "-"
        },
        {
            "id": "9cb1abec-050c-4116-a40b-0008ec1d9f2e",
            "nama_pse": "BANK PEREKONOMIAN RAKYAT GUNA RAKYAT",
            "nama_se": "PT. BPR GUNA RAKYAT",
            "sektor": "Sektor Keuangan",
            "tanggal_terbit": "2022-07-20",
            "url_tdpse_detail": "https://pse.komdigi.go.id/tdpse-detail/7804",
            "website": "bprgunarakyat.id"
        },
        {
            "id": "9cb1abb9-4531-4460-ae92-5a215f788842",
            "nama_pse": "HANSEL PRIMATECH ASIA",
            "nama_se": "FLAZZTAX - LAYANAN PAJAK",
            "sektor": "Sektor Perdagangan, Sektor Teknologi Informasi dan Komunikasi",
            "tanggal_terbit": "2022-07-20",
            "url_tdpse_detail": "https://pse.komdigi.go.id/tdpse-detail/7815",
            "website": "flazztax.com"
        },
        {
            "id": "9cb1abb9-48d6-4b3d-a978-50cb8d5944c0",
            "nama_pse": "BANK PEREKONOMIAN RAKYAT ANUGERAHDHARMA YUWANA BONDOWOSO",
            "nama_se": "ASSIST",
            "sektor": "Sektor Keuangan",
            "tanggal_terbit": "2022-07-20",
            "url_tdpse_detail": "https://pse.komdigi.go.id/tdpse-detail/7811",
            "website": "-"
        },
        {
            "id": "9cb1abc5-f288-491f-90d6-bebd840783ac",
            "nama_pse": "MAYBANK INDONESIA FINANCE",
            "nama_se": "KPM",
            "sektor": "Sektor Keuangan",
            "tanggal_terbit": "2022-07-20",
            "url_tdpse_detail": "https://pse.komdigi.go.id/tdpse-detail/7814",
            "website": "kreditpastimudah.id"
        },
        {
            "id": "9cb1abc5-f927-4065-9d6f-99723bb9bf5d",
            "nama_pse": "BFI FINANCE INDONESIA",
            "nama_se": "E-MAIL BFI FINANCE",
            "sektor": "Sektor Keuangan",
            "tanggal_terbit": "2022-07-20",
            "url_tdpse_detail": "https://pse.komdigi.go.id/tdpse-detail/7810",
            "website": "mail.bfi.co.id"
        },
        {
            "id": "9cb1abc5-fcf9-48af-8283-56974e8c5162",
            "nama_pse": "AMADEUS TECHNOLOGY INDONESIA",
            "nama_se": "AMADEUS SELLING PLATFORM CONNECT",
            "sektor": "Sektor Teknologi Informasi dan Komunikasi",
            "tanggal_terbit": "2022-07-20",
            "url_tdpse_detail": "https://pse.komdigi.go.id/tdpse-detail/7813",
            "website": "-"
        },
        {
            "id": "9cb1abc6-00f5-4328-8436-20d81b3de414",
            "nama_pse": "AMAN DEVLOOP INDONESIA",
            "nama_se": "TRIPPLE HOKI",
            "sektor": "Sektor Teknologi Informasi dan Komunikasi",
            "tanggal_terbit": "2022-07-20",
            "url_tdpse_detail": "https://pse.komdigi.go.id/tdpse-detail/7991",
            "website": "3plehoki.id"
        },
        {
            "id": "9cb1abec-09c3-4ce4-90eb-486597fa57dc",
            "nama_pse": "BANK PERKREDITAN RAKYAT HARAPAN BUNDA BATAM",
            "nama_se": "PT. BPR HARAPAN BUNDA BATAM",
            "sektor": "Sektor Keuangan",
            "tanggal_terbit": "2022-07-20",
            "url_tdpse_detail": "https://pse.komdigi.go.id/tdpse-detail/7816",
            "website": "sibprhbb.my.id"
        },
        {
            "id": "9cb1abb9-4dde-439e-a0b1-d2f270500ae0",
            "nama_pse": "INOVASI TEKNOLOGI SOLUSINDO",
            "nama_se": "DOCTUGO",
            "sektor": "Sektor Teknologi Informasi dan Komunikasi",
            "tanggal_terbit": "2022-07-20",
            "url_tdpse_detail": "https://pse.komdigi.go.id/tdpse-detail/7820",
            "website": "doctugo.com"
        },
        {
            "id": "9cb1abb9-511c-4487-85a9-cec37110433d",
            "nama_pse": "BANK PEREKONOMIAN RAKYAT ANUGERAHDHARMA YUWANA JEMBER",
            "nama_se": "ASSIST",
            "sektor": "Sektor Keuangan",
            "tanggal_terbit": "2022-07-20",
            "url_tdpse_detail": "https://pse.komdigi.go.id/tdpse-detail/7817",
            "website": "-"
        },
        {
            "id": "9cb1abec-0fc3-477d-8c9c-96fa7b24e42f",
            "nama_pse": "BINTANG TEKNOLOGI PRATAMA",
            "nama_se": "WEBSITE KOPERASI BERSAMA ( KOBAR )",
            "sektor": "Sektor Perdagangan",
            "tanggal_terbit": "2022-07-20",
            "url_tdpse_detail": "https://pse.komdigi.go.id/tdpse-detail/7828",
            "website": "kobar.co.id"
        },
        {
            "id": "9cb1abc6-0ce8-4603-90d0-7830c7eed1d1",
            "nama_pse": "ARNANTO KARTAMIHARDJA",
            "nama_se": "AGEN ASURANSI ONLINE",
            "sektor": "Sektor Keuangan",
            "tanggal_terbit": "2022-07-20",
            "url_tdpse_detail": "https://pse.komdigi.go.id/tdpse-detail/7819",
            "website": "klikasuransionline.com"
        },
        {
            "id": "9cb1abb9-53e0-4b67-ad90-3cbdd6720841",
            "nama_pse": "BANK PEREKONOMIAN RAKYAT HARTASARANA",
            "nama_se": "WEBSITE PT BPR HARTASARANA",
            "sektor": "Sektor Keuangan",
            "tanggal_terbit": "2022-07-20",
            "url_tdpse_detail": "https://pse.komdigi.go.id/tdpse-detail/7821",
            "website": "hartasarana.com"
        },
        {
            "id": "9cb1abc6-129c-4b9b-89fd-7ab70dd3bf17",
            "nama_pse": "BANK PERKREDITAN RAKYAT EKA BUMI ARTHA",
            "nama_se": "WEBSITE BANK EKA",
            "sektor": "Sektor Keuangan",
            "tanggal_terbit": "2022-07-20",
            "url_tdpse_detail": "https://pse.komdigi.go.id/tdpse-detail/7825",
            "website": "bankeka.co.id"
        },
        {
            "id": "9cb1abb9-5821-4aac-975c-c535f3e81c39",
            "nama_pse": "BANK PERKREDITAN RAKYAT TOELANGAN DASA NUSANTARA",
            "nama_se": "WWW.BPRTOELANGAN.ID",
            "sektor": "Sektor Keuangan",
            "tanggal_terbit": "2022-07-20",
            "url_tdpse_detail": "https://pse.komdigi.go.id/tdpse-detail/7823",
            "website": "bprtoelangan.id"
        },
        {
            "id": "9cb1abb9-5b53-4813-be8c-67969003bcfe",
            "nama_pse": "BANK PEREKONOMIAN RAKYAT ARTHA BUANA",
            "nama_se": "PT BPR ARTHA BUANA",
            "sektor": "Sektor Keuangan",
            "tanggal_terbit": "2022-07-20",
            "url_tdpse_detail": "https://pse.komdigi.go.id/tdpse-detail/8184",
            "website": "-"
        },
        {
            "id": "9cb1abec-14b5-455b-bd50-9f6edabbe00c",
            "nama_pse": "ULAT BULU BERSAMA",
            "nama_se": "SERBA HOKI",
            "sektor": "Sektor Teknologi Informasi dan Komunikasi",
            "tanggal_terbit": "2022-07-20",
            "url_tdpse_detail": "https://pse.komdigi.go.id/tdpse-detail/7844",
            "website": "serbahoki.id"
        },
        {
            "id": "9cb1abec-17fd-43d7-b9ac-f191f3c87133",
            "nama_pse": "BANK PERKREDITAN RAKYAT RANGKIANG NAGARI",
            "nama_se": "PT BPR RANGKIANG NAGARI",
            "sektor": "Sektor Keuangan",
            "tanggal_terbit": "2022-07-20",
            "url_tdpse_detail": "https://pse.komdigi.go.id/tdpse-detail/7829",
            "website": "-"
        },
        {
            "id": "9cb1abb9-5e8a-40e9-b3fb-8218c6f8d807",
            "nama_pse": "NUSANTARA BONAPASOGIT",
            "nama_se": "DOMPET NBP",
            "sektor": "Sektor Keuangan",
            "tanggal_terbit": "2022-07-20",
            "url_tdpse_detail": "https://pse.komdigi.go.id/tdpse-detail/7827",
            "website": "REVORMA.NET"
        },
        {
            "id": "9cb1abc6-1682-458b-8437-fecd9d26a4d2",
            "nama_pse": "TRIMEGAH AUTO PLAZA",
            "nama_se": "WEBSITE",
            "sektor": "Sektor Perdagangan",
            "tanggal_terbit": "2022-07-20",
            "url_tdpse_detail": "https://pse.komdigi.go.id/tdpse-detail/7857",
            "website": "honda-bsd.com"
        },
        {
            "id": "9cb1abb9-60bf-4ee2-9b3a-bb22bebe579c",
            "nama_pse": "BENSON MEDIA KREASI",
            "nama_se": "JAGAT.LIVE",
            "sektor": "Sektor Perdagangan",
            "tanggal_terbit": "2022-07-20",
            "url_tdpse_detail": "https://pse.komdigi.go.id/tdpse-detail/7958",
            "website": "-"
        },
        {
            "id": "9cb1abb9-634e-41da-b7fa-ebb36a03af11",
            "nama_pse": "INOVASI TEKNOLOGI SOLUSINDO",
            "nama_se": "TRUSTMEDIS HISV1",
            "sektor": "Sektor Teknologi Informasi dan Komunikasi",
            "tanggal_terbit": "2022-07-20",
            "url_tdpse_detail": "https://pse.komdigi.go.id/tdpse-detail/7830",
            "website": "trustmedis.id"
        },
        {
            "id": "9cb1abc6-19b6-426f-99fc-3537a018b520",
            "nama_pse": "BINTANG TEKNOLOGI PRATAMA",
            "nama_se": "WEBSITE INDOPLAY",
            "sektor": "Sektor Teknologi Informasi dan Komunikasi",
            "tanggal_terbit": "2022-07-20",
            "url_tdpse_detail": "https://pse.komdigi.go.id/tdpse-detail/7867",
            "website": "indoplay.id"
        },
        {
            "id": "9cb1abb9-65c9-4ad8-bab6-d0b6e1c8dca9",
            "nama_pse": "INOVASI MERAH PUTIH",
            "nama_se": "SISTEM PERDAGANGAN ONLINE",
            "sektor": "Sektor Perdagangan, Sektor Teknologi Informasi dan Komunikasi",
            "tanggal_terbit": "2022-07-20",
            "url_tdpse_detail": "https://pse.komdigi.go.id/tdpse-detail/7839",
            "website": "otr.id"
        },
        {
            "id": "9cb1abc6-1d16-4d72-be27-b2c2607a865e",
            "nama_pse": "BANK MAYBANK INDONESIA",
            "nama_se": "ECUSTODY",
            "sektor": "Sektor Keuangan",
            "tanggal_terbit": "2022-07-20",
            "url_tdpse_detail": "https://pse.komdigi.go.id/tdpse-detail/7831",
            "website": "ecustody.maybank.co.id"
        },
        {
            "id": "9cb1abb9-6af8-4656-9af4-573a9364b3eb",
            "nama_pse": "BANK PERKREDITAN RAKYAT MEGA ARTHA MUSTIKA",
            "nama_se": "PT BPR MEGA ARTHA MUSTIKA",
            "sektor": "Sektor Keuangan",
            "tanggal_terbit": "2022-07-20",
            "url_tdpse_detail": "https://pse.komdigi.go.id/tdpse-detail/7832",
            "website": "bprmega.com"
        },
        {
            "id": "9cb1abec-206c-494f-9f2f-11d7ece58d74",
            "nama_pse": "ASTRA SEDAYA FINANCE",
            "nama_se": "ASISTEN VIRTUAL: YUNA",
            "sektor": "Sektor Keuangan",
            "tanggal_terbit": "2022-07-20",
            "url_tdpse_detail": "https://pse.komdigi.go.id/tdpse-detail/7834",
            "website": "acc.co.id"
        },
        {
            "id": "9cb1abc6-1ff0-4a0d-be77-b8f5ba502c56",
            "nama_pse": "BANK PEREKONOMIAN RAKYAT APTA SEJAHTERA",
            "nama_se": "PT. BPR APTA SEJAHTERA",
            "sektor": "Sektor Keuangan",
            "tanggal_terbit": "2022-07-20",
            "url_tdpse_detail": "https://pse.komdigi.go.id/tdpse-detail/7837",
            "website": "bpraptasejahtera.com"
        },
        {
            "id": "9cb1abec-2559-452b-9ae6-0575ee2eecf5",
            "nama_pse": "BANK PERKREDITAN RAKYAT BINTANG DANA PERSADA",
            "nama_se": "WEBSITE PT. BPR BINTANG DANA PERSADA",
            "sektor": "Sektor Keuangan",
            "tanggal_terbit": "2022-07-20",
            "url_tdpse_detail": "https://pse.komdigi.go.id/tdpse-detail/7850",
            "website": "bprbintang.com"
        },
        {
            "id": "9cb1abec-2c50-437c-a119-271e7d01b095",
            "nama_pse": "ARTA TRITUNGGAL JAYA",
            "nama_se": "HONDA ARTA",
            "sektor": "Sektor Perdagangan",
            "tanggal_terbit": "2022-07-20",
            "url_tdpse_detail": "https://pse.komdigi.go.id/tdpse-detail/7840",
            "website": "honda-arta.com"
        },
        {
            "id": "9cb1abec-314c-489e-a830-e289898dc046",
            "nama_pse": "INOVASI TEKNOLOGI SOLUSINDO",
            "nama_se": "TRUSTMEDIS HISV2",
            "sektor": "Sektor Teknologi Informasi dan Komunikasi",
            "tanggal_terbit": "2022-07-20",
            "url_tdpse_detail": "https://pse.komdigi.go.id/tdpse-detail/7833",
            "website": "trustmedis.net"
        },
        {
            "id": "9cb1abb9-72d9-4772-8d8d-f001bcee2615",
            "nama_pse": "AXA FINANCIAL INDONESIA",
            "nama_se": "AFI ONE PORTAL (WEB BASED)",
            "sektor": "Sektor Keuangan",
            "tanggal_terbit": "2022-07-20",
            "url_tdpse_detail": "https://pse.komdigi.go.id/tdpse-detail/7847",
            "website": "portal.axa.co.id"
        },
        {
            "id": "9cb1abc6-22e1-48a5-8b00-f2a3fb03dead",
            "nama_pse": "BANK PERKREDITAN RAKYAT ASIA BINTANG CEMERLANG",
            "nama_se": "PT. BANK PERKREDITAN RAKYAT ASIA BINTANG CEMERLANG",
            "sektor": "Sektor Keuangan",
            "tanggal_terbit": "2022-07-20",
            "url_tdpse_detail": "https://pse.komdigi.go.id/tdpse-detail/7845",
            "website": "-"
        },
        {
            "id": "9cb1abb9-7840-4806-b6c1-e3fd04569434",
            "nama_pse": "BIZTECH JAYA MAKMUR",
            "nama_se": "PLATFORM PRE-O",
            "sektor": "Sektor Perdagangan",
            "tanggal_terbit": "2022-07-20",
            "url_tdpse_detail": "https://pse.komdigi.go.id/tdpse-detail/7835",
            "website": "pre-o.co.id"
        },
        {
            "id": "9cb1abb9-7a37-469c-ab0b-884ea78b0cd5",
            "nama_pse": "BINTANG TEKNOLOGI PRATAMA",
            "nama_se": "WEBSITE HALALKUY",
            "sektor": "Sektor Teknologi Informasi dan Komunikasi",
            "tanggal_terbit": "2022-07-20",
            "url_tdpse_detail": "https://pse.komdigi.go.id/tdpse-detail/7868",
            "website": "halalkuy.com"
        },
        {
            "id": "9cb1abec-351b-4c17-8104-8783da4b51c8",
            "nama_pse": "GRAHAWITA SANTIKA",
            "nama_se": "MYSANTIKA",
            "sektor": "Sektor Perdagangan",
            "tanggal_terbit": "2022-07-20",
            "url_tdpse_detail": "https://pse.komdigi.go.id/tdpse-detail/7838",
            "website": "mysantika.com"
        },
        {
            "id": "9cb1abb9-7c20-44cc-bd5f-4b42d149d0f2",
            "nama_pse": "ULAT BULU BERSAMA",
            "nama_se": "ULAT BULU BERSAMA",
            "sektor": "Sektor Teknologi Informasi dan Komunikasi",
            "tanggal_terbit": "2022-07-20",
            "url_tdpse_detail": "https://pse.komdigi.go.id/tdpse-detail/7841",
            "website": "ulatbulu.id"
        },
        {
            "id": "9cb1abc6-26a5-4346-bcd9-1c61359731d0",
            "nama_pse": "WIDYA KREASI BANGSA",
            "nama_se": "WIDYA EDU",
            "sektor": "Sektor Teknologi Informasi dan Komunikasi",
            "tanggal_terbit": "2022-07-20",
            "url_tdpse_detail": "https://pse.komdigi.go.id/tdpse-detail/7842",
            "website": "widyaedu.com"
        },
        {
            "id": "9cb1abb9-7e18-4c31-9385-78ba68f7b0d0",
            "nama_pse": "NUROHO SOFTWARE CONSULTING",
            "nama_se": "FLITS TMS",
            "sektor": "Sektor Transportasi, Sektor Teknologi Informasi dan Komunikasi",
            "tanggal_terbit": "2022-07-20",
            "url_tdpse_detail": "https://pse.komdigi.go.id/tdpse-detail/7848",
            "website": "erp.flits.id"
        },
        {
            "id": "9cb1abc6-2a38-43cc-89e7-af4563d8a70f",
            "nama_pse": "BANK SYARIAH INDONESIA",
            "nama_se": "GRC COMPAS",
            "sektor": "Sektor Keuangan",
            "tanggal_terbit": "2022-07-20",
            "url_tdpse_detail": "https://pse.komdigi.go.id/tdpse-detail/7849",
            "website": "bsm.compas.id"
        },
        {
            "id": "9cb1abc6-2eea-492c-a430-70e53124b050",
            "nama_pse": "BANK PEREKONOMIAN RAKYAT NASIONAL NUSANTARA",
            "nama_se": "NASIONAL NUSANTARA",
            "sektor": "Sektor Perdagangan",
            "tanggal_terbit": "2022-07-20",
            "url_tdpse_detail": "https://pse.komdigi.go.id/tdpse-detail/7854",
            "website": "nasionalnusantara.com"
        },
        {
            "id": "9cb1abec-3a79-40cf-b457-c8ed01ac284c",
            "nama_pse": "BANK PEREKONOMIAN RAKYAT DUTA KEPULAUAN RIAU",
            "nama_se": "BETASOFT",
            "sektor": "Sektor Keuangan",
            "tanggal_terbit": "2022-07-20",
            "url_tdpse_detail": "https://pse.komdigi.go.id/tdpse-detail/8290",
            "website": "dutakepri.com"
        },
        {
            "id": "9cb1abec-3ecd-4c82-bc5c-301a628a6d19",
            "nama_pse": "INOVASI TEKNOLOGI SOLUSINDO",
            "nama_se": "MEDISITE BY TRUSTMEDIS",
            "sektor": "Sektor Teknologi Informasi dan Komunikasi",
            "tanggal_terbit": "2022-07-20",
            "url_tdpse_detail": "https://pse.komdigi.go.id/tdpse-detail/7851",
            "website": "medisite.id"
        }
    ],
    "processingTimeMs": 4,
    "query": "",
    "totalHits": 19121,
    "hitsPerPage": 50,
    "page": 243,
    "totalPages": 383
}