{
    "hits": [
        {
            "id": "9cb1ab6b-91fd-40fc-9c8e-922694a00998",
            "nama_pse": "UANGME FINTEK INDONESIA",
            "nama_se": "UANGME.ID",
            "sektor": "Sektor Keuangan, Sektor Keuangan",
            "tanggal_terbit": "2021-06-02",
            "url_tdpse_detail": "https://pse.komdigi.go.id/tdpse-detail/1081",
            "website": "uangme.id"
        },
        {
            "id": "9cb1ab6b-9511-42ce-b1cc-70b4c582da73",
            "nama_pse": "UANGME FINTEK INDONESIA",
            "nama_se": "APLIKASI \"UANGME\"  (ANDROID)",
            "sektor": "Sektor Keuangan, Sektor Keuangan",
            "tanggal_terbit": "2021-06-02",
            "url_tdpse_detail": "https://pse.komdigi.go.id/tdpse-detail/1082",
            "website": "-"
        },
        {
            "id": "9cb1ab6b-9768-4313-bcd4-e9f52ecdd8bb",
            "nama_pse": "UANGME FINTEK INDONESIA",
            "nama_se": "APLIKASI \"UANGME\"  (IOS)",
            "sektor": "Sektor Keuangan, Sektor Keuangan",
            "tanggal_terbit": "2021-06-02",
            "url_tdpse_detail": "https://pse.komdigi.go.id/tdpse-detail/1084",
            "website": "-"
        },
        {
            "id": "9cb1ab72-a42c-4bdb-a149-f1aef7c76609",
            "nama_pse": "ASTRA DIGITAL INTERNASIONAL",
            "nama_se": "SEVA",
            "sektor": "Sektor Perdagangan, Sektor Perdagangan",
            "tanggal_terbit": "2021-06-02",
            "url_tdpse_detail": "https://pse.komdigi.go.id/tdpse-detail/1132",
            "website": "seva.id"
        },
        {
            "id": "9cb1ab95-30aa-4f69-b3a4-0cab80bb80b9",
            "nama_pse": "SIMPAN PINJAM DANA SUMBER REJEKI",
            "nama_se": "PINJAMDANA",
            "sektor": "Sektor Teknologi Informasi dan Komunikasi",
            "tanggal_terbit": "2021-06-02",
            "url_tdpse_detail": "https://pse.komdigi.go.id/tdpse-detail/1327",
            "website": "pinjamdana.id"
        },
        {
            "id": "9cb1ab71-33d5-4eff-a4cd-3f15bf3cb46d",
            "nama_pse": "KB VALBURY ASSET MANAGEMENT",
            "nama_se": "BRAVO (BELANJA REKSA DANA VALBURY ONLINE)",
            "sektor": "Sektor Keuangan, Sektor Keuangan",
            "tanggal_terbit": "2021-05-11",
            "url_tdpse_detail": "https://pse.komdigi.go.id/tdpse-detail/889",
            "website": "bravo.valbury.co.id"
        },
        {
            "id": "9cb1ab63-4589-4e55-a82f-34b7cfdda32e",
            "nama_pse": "INFO TEKNO SIAGA",
            "nama_se": "ADAPUNDI",
            "sektor": "Sektor Keuangan, Sektor Keuangan",
            "tanggal_terbit": "2021-05-11",
            "url_tdpse_detail": "https://pse.komdigi.go.id/tdpse-detail/867",
            "website": "adapundi.com"
        },
        {
            "id": "9cb1aba1-80fa-42f6-b795-027e10fca8fd",
            "nama_pse": "TELEKOMUNIKASI SELULAR",
            "nama_se": "KUNCIE",
            "sektor": "Sektor Teknologi Informasi dan Komunikasi, Sektor Teknologi Informasi dan Komunikasi, Sektor Teknologi Informasi dan Komunikasi, Sektor Teknologi Informasi dan Komunikasi, Sektor Teknologi Informasi dan Komunikasi, Sektor Teknologi Informasi dan Komunikasi, Sektor Teknologi Informasi dan Komunikasi, Sektor Teknologi Informasi dan Komunikasi, Sektor Teknologi Informasi dan Komunikasi, Sektor Teknologi Informasi dan Komunikasi, Sektor Teknologi Informasi dan Komunikasi",
            "tanggal_terbit": "2021-05-11",
            "url_tdpse_detail": "https://pse.komdigi.go.id/tdpse-detail/896",
            "website": "https://www.kuncie.com/ (main website) dan https://www.kuncie.id/"
        },
        {
            "id": "9cb1ab95-60d0-435e-9ec0-f8605cabf2dc",
            "nama_pse": "TELEKOMUNIKASI SELULAR",
            "nama_se": "FITA",
            "sektor": "Sektor Teknologi Informasi dan Komunikasi, Sektor Teknologi Informasi dan Komunikasi, Sektor Teknologi Informasi dan Komunikasi, Sektor Teknologi Informasi dan Komunikasi, Sektor Teknologi Informasi dan Komunikasi, Sektor Teknologi Informasi dan Komunikasi, Sektor Teknologi Informasi dan Komunikasi, Sektor Teknologi Informasi dan Komunikasi, Sektor Teknologi Informasi dan Komunikasi, Sektor Teknologi Informasi dan Komunikasi, Sektor Teknologi Informasi dan Komunikasi",
            "tanggal_terbit": "2021-05-11",
            "url_tdpse_detail": "https://pse.komdigi.go.id/tdpse-detail/899",
            "website": "https://www.fitaapp.com/ dan https://www.myfita.com/ (new website, will redirect the traffic to this one)"
        },
        {
            "id": "9cb1ab83-839a-48f4-ba72-77f9d66b2750",
            "nama_pse": "HUTCHISON 3 INDONESIA",
            "nama_se": "TRI WEBSITE",
            "sektor": "Sektor Perdagangan, Sektor Perdagangan, Sektor Teknologi Informasi dan Komunikasi, Sektor Teknologi Informasi dan Komunikasi",
            "tanggal_terbit": "2021-05-11",
            "url_tdpse_detail": "https://pse.komdigi.go.id/tdpse-detail/953",
            "website": "tri.co.id"
        },
        {
            "id": "9cb1ab9e-dd18-4ede-ad6c-39184a832678",
            "nama_pse": "SURYA FAJAR URUN DANA",
            "nama_se": "SFUND",
            "sektor": "Sektor Keuangan, Sektor Keuangan",
            "tanggal_terbit": "2021-05-11",
            "url_tdpse_detail": "https://pse.komdigi.go.id/tdpse-detail/971",
            "website": "sfund.id"
        },
        {
            "id": "9cb1aba1-7e2b-41e0-ab17-9d4ccf55153c",
            "nama_pse": "TELEKOMUNIKASI SELULAR",
            "nama_se": "TELKOMSEL DIGITAL ADVERTISING (DIGIADS)",
            "sektor": "Sektor Teknologi Informasi dan Komunikasi, Sektor Teknologi Informasi dan Komunikasi, Sektor Teknologi Informasi dan Komunikasi, Sektor Teknologi Informasi dan Komunikasi, Sektor Teknologi Informasi dan Komunikasi, Sektor Teknologi Informasi dan Komunikasi, Sektor Teknologi Informasi dan Komunikasi, Sektor Teknologi Informasi dan Komunikasi, Sektor Teknologi Informasi dan Komunikasi, Sektor Teknologi Informasi dan Komunikasi, Sektor Teknologi Informasi dan Komunikasi",
            "tanggal_terbit": "2021-05-10",
            "url_tdpse_detail": "https://pse.komdigi.go.id/tdpse-detail/835",
            "website": "digiads.co.id"
        },
        {
            "id": "9cb1aba1-6985-4b05-9779-5e0b838e783a",
            "nama_pse": "TELEKOMUNIKASI SELULAR",
            "nama_se": "LOOP",
            "sektor": "Sektor Teknologi Informasi dan Komunikasi, Sektor Teknologi Informasi dan Komunikasi, Sektor Teknologi Informasi dan Komunikasi, Sektor Teknologi Informasi dan Komunikasi, Sektor Teknologi Informasi dan Komunikasi, Sektor Teknologi Informasi dan Komunikasi, Sektor Teknologi Informasi dan Komunikasi, Sektor Teknologi Informasi dan Komunikasi, Sektor Teknologi Informasi dan Komunikasi, Sektor Teknologi Informasi dan Komunikasi, Sektor Teknologi Informasi dan Komunikasi",
            "tanggal_terbit": "2021-05-07",
            "url_tdpse_detail": "https://pse.komdigi.go.id/tdpse-detail/822",
            "website": "loop.co.id"
        },
        {
            "id": "9cb1aba1-75d8-4cce-a525-4d81bf161805",
            "nama_pse": "TELEKOMUNIKASI SELULAR",
            "nama_se": "KLOP!",
            "sektor": "Sektor Teknologi Informasi dan Komunikasi, Sektor Teknologi Informasi dan Komunikasi, Sektor Teknologi Informasi dan Komunikasi, Sektor Teknologi Informasi dan Komunikasi, Sektor Teknologi Informasi dan Komunikasi, Sektor Teknologi Informasi dan Komunikasi, Sektor Teknologi Informasi dan Komunikasi, Sektor Teknologi Informasi dan Komunikasi, Sektor Teknologi Informasi dan Komunikasi, Sektor Teknologi Informasi dan Komunikasi, Sektor Teknologi Informasi dan Komunikasi",
            "tanggal_terbit": "2021-05-07",
            "url_tdpse_detail": "https://pse.komdigi.go.id/tdpse-detail/829",
            "website": "klop.co"
        },
        {
            "id": "9cb1ab95-4ebc-46ae-bd90-c5ac2b1b03ee",
            "nama_pse": "TELEKOMUNIKASI SELULAR",
            "nama_se": "KLOP TELKOMSEL",
            "sektor": "Sektor Teknologi Informasi dan Komunikasi, Sektor Teknologi Informasi dan Komunikasi, Sektor Teknologi Informasi dan Komunikasi, Sektor Teknologi Informasi dan Komunikasi, Sektor Teknologi Informasi dan Komunikasi, Sektor Teknologi Informasi dan Komunikasi, Sektor Teknologi Informasi dan Komunikasi, Sektor Teknologi Informasi dan Komunikasi, Sektor Teknologi Informasi dan Komunikasi, Sektor Teknologi Informasi dan Komunikasi, Sektor Teknologi Informasi dan Komunikasi",
            "tanggal_terbit": "2021-05-07",
            "url_tdpse_detail": "https://pse.komdigi.go.id/tdpse-detail/832",
            "website": "klop.telkomsel.com"
        },
        {
            "id": "9cb1aba1-72f9-4c13-a08a-c41d1bbf9026",
            "nama_pse": "TELEKOMUNIKASI SELULAR",
            "nama_se": "99% USAHAKU",
            "sektor": "Sektor Perdagangan, Sektor Perdagangan, Sektor Perdagangan, Sektor Perdagangan, Sektor Perdagangan, Sektor Perdagangan, Sektor Perdagangan, Sektor Perdagangan, Sektor Perdagangan, Sektor Perdagangan, Sektor Perdagangan",
            "tanggal_terbit": "2021-05-07",
            "url_tdpse_detail": "https://pse.komdigi.go.id/tdpse-detail/828",
            "website": "99usahaku.com"
        },
        {
            "id": "9cb1ab95-51cf-499f-9245-4ba8bcd590eb",
            "nama_pse": "TELEKOMUNIKASI SELULAR",
            "nama_se": "MSIGHT DASHBOARD",
            "sektor": "Sektor Teknologi Informasi dan Komunikasi, Sektor Teknologi Informasi dan Komunikasi, Sektor Teknologi Informasi dan Komunikasi, Sektor Teknologi Informasi dan Komunikasi, Sektor Teknologi Informasi dan Komunikasi, Sektor Teknologi Informasi dan Komunikasi, Sektor Teknologi Informasi dan Komunikasi, Sektor Teknologi Informasi dan Komunikasi, Sektor Teknologi Informasi dan Komunikasi, Sektor Teknologi Informasi dan Komunikasi, Sektor Teknologi Informasi dan Komunikasi",
            "tanggal_terbit": "2021-05-07",
            "url_tdpse_detail": "https://pse.komdigi.go.id/tdpse-detail/833",
            "website": "msight.telkomsel.com/dashboard"
        },
        {
            "id": "9cb1ab95-4b75-44c0-9591-ee16b68d276e",
            "nama_pse": "TELEKOMUNIKASI SELULAR",
            "nama_se": "SKUL.ID",
            "sektor": "Sektor Teknologi Informasi dan Komunikasi, Sektor Teknologi Informasi dan Komunikasi, Sektor Teknologi Informasi dan Komunikasi, Sektor Teknologi Informasi dan Komunikasi, Sektor Teknologi Informasi dan Komunikasi, Sektor Teknologi Informasi dan Komunikasi, Sektor Teknologi Informasi dan Komunikasi, Sektor Teknologi Informasi dan Komunikasi, Sektor Teknologi Informasi dan Komunikasi, Sektor Teknologi Informasi dan Komunikasi, Sektor Teknologi Informasi dan Komunikasi",
            "tanggal_terbit": "2021-05-07",
            "url_tdpse_detail": "https://pse.komdigi.go.id/tdpse-detail/830",
            "website": "skul.id"
        },
        {
            "id": "9cb1ab69-c017-49cf-8f15-5e7712aa01e6",
            "nama_pse": "NUON DIGITAL INDONESIA",
            "nama_se": "PORTAL WEB / PLATFORM DIGITAL",
            "sektor": "Sektor Perdagangan, Sektor Perdagangan, Sektor Teknologi Informasi dan Komunikasi, Sektor Teknologi Informasi dan Komunikasi",
            "tanggal_terbit": "2021-05-07",
            "url_tdpse_detail": "https://pse.komdigi.go.id/tdpse-detail/721",
            "website": "www.upoint.id dan www.tiketapasaja.com"
        },
        {
            "id": "9cb1ab9e-81b4-47f7-b396-8ffa1a659182",
            "nama_pse": "INDONESIA PAYMENT INCORPORATED",
            "nama_se": "COOP ACCESS",
            "sektor": "Sektor Keuangan, Sektor Keuangan, Sektor Keuangan",
            "tanggal_terbit": "2021-04-26",
            "url_tdpse_detail": "https://pse.komdigi.go.id/tdpse-detail/551",
            "website": "coopaccess.co.id"
        },
        {
            "id": "9cb1ab94-411d-4c98-8880-82e5d385cc16",
            "nama_pse": "SIMPAN PINJAM SUMBER DANA BESAR",
            "nama_se": "CREDIT TUNAI",
            "sektor": "Sektor Teknologi Informasi dan Komunikasi, Sektor Teknologi Informasi dan Komunikasi",
            "tanggal_terbit": "2021-04-26",
            "url_tdpse_detail": "https://pse.komdigi.go.id/tdpse-detail/713",
            "website": "credittunai.com"
        },
        {
            "id": "9cb1ab95-23ff-4df5-9ede-d84231163ec5",
            "nama_pse": "SIMPAN PINJAM TETAP JAYA ABADI",
            "nama_se": "KREDIT KILAT",
            "sektor": "Sektor Teknologi Informasi dan Komunikasi",
            "tanggal_terbit": "2021-04-26",
            "url_tdpse_detail": "https://pse.komdigi.go.id/tdpse-detail/552",
            "website": "kreditkilat.com"
        },
        {
            "id": "9cb1ab95-346a-4571-b1df-61211243c23f",
            "nama_pse": "SIMPAN PINJAM DANA PASTI JAYA",
            "nama_se": "KREDIT TUNAI",
            "sektor": "Sektor Teknologi Informasi dan Komunikasi",
            "tanggal_terbit": "2021-04-26",
            "url_tdpse_detail": "https://pse.komdigi.go.id/tdpse-detail/550",
            "website": "Http://danapastijaya.com"
        },
        {
            "id": "9cb1ab83-8017-4307-9017-f288a96c30d1",
            "nama_pse": "HUTCHISON 3 INDONESIA",
            "nama_se": "BIMA+",
            "sektor": "Sektor Perdagangan, Sektor Perdagangan, Sektor Teknologi Informasi dan Komunikasi, Sektor Teknologi Informasi dan Komunikasi",
            "tanggal_terbit": "2021-04-26",
            "url_tdpse_detail": "https://pse.komdigi.go.id/tdpse-detail/576",
            "website": "mytri.tri.co.id, bima.tri.co.id, my.tri.co.id, internet.tri.co.id, bimaplus.tri.co.id"
        },
        {
            "id": "9cb1ab63-0d4e-4c6a-9373-8c94b13f9c13",
            "nama_pse": "TRIMEGAH KARYA PRATAMA",
            "nama_se": "APLIKASI ULTRA VOUCHER",
            "sektor": "Sektor Perdagangan, Sektor Perdagangan",
            "tanggal_terbit": "2021-04-26",
            "url_tdpse_detail": "https://pse.komdigi.go.id/tdpse-detail/612",
            "website": "ultravoucher.co.id"
        },
        {
            "id": "9cb1ab61-f99d-46cc-ba7d-0db5672d1a6c",
            "nama_pse": "VOLVO INDONESIA",
            "nama_se": "VOLVO TELEMATICS SYSTEM – CARETRACK",
            "sektor": "Sektor Teknologi Informasi dan Komunikasi, Sektor Teknologi Informasi dan Komunikasi",
            "tanggal_terbit": "2021-04-20",
            "url_tdpse_detail": "https://pse.komdigi.go.id/tdpse-detail/506",
            "website": "caretrackvolvo.com/caretrack/"
        },
        {
            "id": "9cb1ab86-409f-4b6d-baf5-8e42f8684471",
            "nama_pse": "LION SUPER INDO",
            "nama_se": "MY SUPER INDO",
            "sektor": "Sektor Perdagangan, Sektor Perdagangan",
            "tanggal_terbit": "2021-04-19",
            "url_tdpse_detail": "https://pse.komdigi.go.id/tdpse-detail/469",
            "website": "-"
        },
        {
            "id": "9cb1ab9f-9364-4f6b-ae0d-d274ecd1c9d7",
            "nama_pse": "OSLE INDONESIA",
            "nama_se": "OSLE INDONESIA",
            "sektor": "Sektor Teknologi Informasi dan Komunikasi, Sektor Teknologi Informasi dan Komunikasi",
            "tanggal_terbit": "2021-04-14",
            "url_tdpse_detail": "https://pse.komdigi.go.id/tdpse-detail/439",
            "website": "osleindonesia.com"
        },
        {
            "id": "9cb1ab64-9461-44ef-9225-1d43cbde3a72",
            "nama_pse": "SALVUS INTI",
            "nama_se": "SPRINT",
            "sektor": "Sektor Perdagangan, Sektor Perdagangan, Sektor Perdagangan, Sektor Perdagangan",
            "tanggal_terbit": "2021-04-09",
            "url_tdpse_detail": "https://pse.komdigi.go.id/tdpse-detail/418",
            "website": "-"
        },
        {
            "id": "9cb1ab7d-eda7-44d5-973c-78302b45faca",
            "nama_pse": "BEAUTE HAUL INDONESIA",
            "nama_se": "BEAUTYHAUL",
            "sektor": "Sektor Perdagangan, Sektor Perdagangan",
            "tanggal_terbit": "2021-04-09",
            "url_tdpse_detail": "https://pse.komdigi.go.id/tdpse-detail/434",
            "website": "beautyhaul.com"
        },
        {
            "id": "9cb1aba1-6013-4547-a405-04ec96bdf3c4",
            "nama_pse": "TELEKOMUNIKASI SELULAR",
            "nama_se": "TELKOMSEL REDI",
            "sektor": "Sektor Teknologi Informasi dan Komunikasi, Sektor Teknologi Informasi dan Komunikasi, Sektor Teknologi Informasi dan Komunikasi, Sektor Teknologi Informasi dan Komunikasi, Sektor Teknologi Informasi dan Komunikasi, Sektor Teknologi Informasi dan Komunikasi, Sektor Teknologi Informasi dan Komunikasi, Sektor Teknologi Informasi dan Komunikasi, Sektor Teknologi Informasi dan Komunikasi, Sektor Teknologi Informasi dan Komunikasi, Sektor Teknologi Informasi dan Komunikasi",
            "tanggal_terbit": "2021-03-31",
            "url_tdpse_detail": "https://pse.komdigi.go.id/tdpse-detail/412",
            "website": "-"
        },
        {
            "id": "9cb1ab61-cae1-4edd-b6f5-b365ee733d7d",
            "nama_pse": "SALVUS INTI",
            "nama_se": "SALVUSMART",
            "sektor": "Sektor Perdagangan, Sektor Perdagangan, Sektor Perdagangan, Sektor Perdagangan",
            "tanggal_terbit": "2021-03-09",
            "url_tdpse_detail": "https://pse.komdigi.go.id/tdpse-detail/356",
            "website": "salvusmart.id"
        },
        {
            "id": "9cb1ab61-f0e7-447a-81ab-690f31d6d1a1",
            "nama_pse": "INDONESIA DIGITAL EXCHANGE",
            "nama_se": "DIGITAL EXCHANGE INDONESIA",
            "sektor": "Sektor Perdagangan, Sektor Perdagangan",
            "tanggal_terbit": "2021-03-09",
            "url_tdpse_detail": "https://pse.komdigi.go.id/tdpse-detail/343",
            "website": "digitalexchange.id"
        },
        {
            "id": "9cb1abac-0224-406c-9e3f-21d5e8c83e21",
            "nama_pse": "SIMPAN PINJAM DANA PASTI JAYA",
            "nama_se": "SOLUSI DANAKU",
            "sektor": "Sektor Keuangan",
            "tanggal_terbit": "2021-03-08",
            "url_tdpse_detail": "https://pse.komdigi.go.id/tdpse-detail/338",
            "website": "Http://www.danapastijaya.com"
        },
        {
            "id": "9cb1aba9-c7db-45fa-b96c-d18a83eb30ec",
            "nama_pse": "ASET DIGITAL BERKAT",
            "nama_se": "TOKOCRYPTO",
            "sektor": "Sektor Perdagangan, Sektor Perdagangan",
            "tanggal_terbit": "2021-03-04",
            "url_tdpse_detail": "https://pse.komdigi.go.id/tdpse-detail/314",
            "website": "tokocrypto.com"
        },
        {
            "id": "9cb1ab95-3c64-4248-8fb3-a9918b6fe060",
            "nama_pse": "MALESUNG MINAESA DWIPANTARA",
            "nama_se": "APLIKASI TRANSPORTASI ONLINE",
            "sektor": "Sektor Transportasi, Sektor Teknologi Informasi dan Komunikasi",
            "tanggal_terbit": "2021-03-04",
            "url_tdpse_detail": "https://pse.komdigi.go.id/tdpse-detail/290",
            "website": "rodaindonesia.site"
        },
        {
            "id": "9cb1ab7d-f093-4811-b7ae-885fdf5df27c",
            "nama_pse": "ANUGERAH DIGITAL INDONESIA",
            "nama_se": "SOLUSIKU",
            "sektor": "Sektor Keuangan, Sektor Keuangan, Sektor Keuangan",
            "tanggal_terbit": "2021-02-26",
            "url_tdpse_detail": "https://pse.komdigi.go.id/tdpse-detail/262",
            "website": "solusi-ku.id"
        },
        {
            "id": "9cb1ab7b-c947-4562-951b-170ca5d92356",
            "nama_pse": "GIT GOW AYO",
            "nama_se": "MAMIKOS",
            "sektor": "Sektor Teknologi Informasi dan Komunikasi, Sektor Teknologi Informasi dan Komunikasi",
            "tanggal_terbit": "2021-02-25",
            "url_tdpse_detail": "https://pse.komdigi.go.id/tdpse-detail/189",
            "website": "mamikos.co.id"
        },
        {
            "id": "9cb1ab95-1d42-4147-a5aa-3c4293509fb6",
            "nama_pse": "SIMPAN PINJAM RENGAS DENGKLOK INDONESIA",
            "nama_se": "INDOCASH",
            "sektor": "Sektor Keuangan",
            "tanggal_terbit": "2021-02-24",
            "url_tdpse_detail": "https://pse.komdigi.go.id/tdpse-detail/138",
            "website": "-"
        },
        {
            "id": "9cb1aba1-5d33-4f09-8bac-7384ee6b6d78",
            "nama_pse": "SIMPAN PINJAM DANA PASTI JAYA",
            "nama_se": "SUMBER TUNAI PRO",
            "sektor": "Sektor Keuangan",
            "tanggal_terbit": "2021-02-24",
            "url_tdpse_detail": "https://pse.komdigi.go.id/tdpse-detail/169",
            "website": "-"
        },
        {
            "id": "9cb1ab7d-12db-4c47-8bb6-c9b017145245",
            "nama_pse": "PROTEMUS DANA BERSAMA",
            "nama_se": "PRODANA",
            "sektor": "Sektor Keuangan, Sektor Keuangan",
            "tanggal_terbit": "2021-02-24",
            "url_tdpse_detail": "https://pse.komdigi.go.id/tdpse-detail/151",
            "website": "prodana.id"
        },
        {
            "id": "9cb1ab8c-a97b-4c54-baa9-6e8dc5c80d02",
            "nama_pse": "LBS URUN DANA",
            "nama_se": "LBS URUN DANA",
            "sektor": "Sektor Perdagangan, Sektor Perdagangan, Sektor Keuangan, Sektor Keuangan, Sektor Teknologi Informasi dan Komunikasi, Sektor Teknologi Informasi dan Komunikasi",
            "tanggal_terbit": "2021-02-24",
            "url_tdpse_detail": "https://pse.komdigi.go.id/tdpse-detail/147",
            "website": "lbs.id"
        },
        {
            "id": "9cb1ab8c-0300-47c4-aee3-16c6ddc930ca",
            "nama_pse": "ASURANSI JIWA SEQUIS LIFE",
            "nama_se": "SEQUIS EZ",
            "sektor": "Sektor Keuangan, Sektor Keuangan",
            "tanggal_terbit": "2021-02-23",
            "url_tdpse_detail": "https://pse.komdigi.go.id/tdpse-detail/58",
            "website": "sequisez.sequis.co.id"
        },
        {
            "id": "9cb1ab84-95fb-446b-9ca7-a8223902009b",
            "nama_pse": "PRODUK KEUANGAN DIGITAL",
            "nama_se": "KREDITLIST",
            "sektor": "Sektor Perdagangan, Sektor Perdagangan, Sektor Keuangan, Sektor Keuangan, Sektor Teknologi Informasi dan Komunikasi, Sektor Teknologi Informasi dan Komunikasi",
            "tanggal_terbit": "2021-02-23",
            "url_tdpse_detail": "https://pse.komdigi.go.id/tdpse-detail/112",
            "website": "http://www.kreditlist.com/"
        },
        {
            "id": "9cb1abab-fe1e-4073-b01d-529f6c6ce4c0",
            "nama_pse": "SIMPAN PINJAM MUARA BARU INDAH",
            "nama_se": "DANA RAKYAT PRO",
            "sektor": "Sektor Keuangan",
            "tanggal_terbit": "2021-02-23",
            "url_tdpse_detail": "https://pse.komdigi.go.id/tdpse-detail/88",
            "website": "-"
        },
        {
            "id": "9cb1ab95-3942-4b9b-8996-5534c3ab0117",
            "nama_pse": "SIMPAN PINJAM MAJU INDAH BERSAMA",
            "nama_se": "ONE DANA",
            "sektor": "Sektor Keuangan",
            "tanggal_terbit": "2021-02-23",
            "url_tdpse_detail": "https://pse.komdigi.go.id/tdpse-detail/89",
            "website": "-"
        },
        {
            "id": "9cb1ab83-b5a6-42ce-88fd-67f705ea3851",
            "nama_pse": "HARMONI DINAMIKA SOLUSI",
            "nama_se": "FUSE PRO",
            "sektor": "Sektor Teknologi Informasi dan Komunikasi, Sektor Teknologi Informasi dan Komunikasi",
            "tanggal_terbit": "2021-02-22",
            "url_tdpse_detail": "https://pse.komdigi.go.id/tdpse-detail/23",
            "website": "fuse.co.id"
        }
    ],
    "processingTimeMs": 1,
    "query": "",
    "totalHits": 247,
    "hitsPerPage": 50,
    "page": 5,
    "totalPages": 5
}