{
    "hits": [
        {
            "id": "9cb1abaf-d3ff-46a9-baa9-b01ec76180bd",
            "nama_pse": "PT. BANK PEMBANGUNAN DAERAH JAWA BARAT DAN BANTEN TBK (BANK BJB)",
            "nama_se": "BJB CASH MANAGEMENT ACCOUNT SERVICE ONLINE",
            "sektor": "Sektor Keuangan",
            "tanggal_terbit": "2022-07-12",
            "url_tdpse_detail": "https://pse.komdigi.go.id/tdpse-detail/5365",
            "website": "cms.bankbjb.co.id"
        },
        {
            "id": "9cb1abaf-d5e0-45e5-9cca-1d5287f85b24",
            "nama_pse": "JACCS MITRA PINASTHIKA MUSTIKA FINANCE INDONESIA",
            "nama_se": "WEBSITE JACCS MPM FINANCE",
            "sektor": "Sektor Keuangan",
            "tanggal_terbit": "2022-07-12",
            "url_tdpse_detail": "https://pse.komdigi.go.id/tdpse-detail/5366",
            "website": "jaccs-mpmfinance.com"
        },
        {
            "id": "9cb1ab9b-2516-4421-a036-00f004ad2795",
            "nama_pse": "ADYA TOURS",
            "nama_se": "VIA.ID INDONESIA",
            "sektor": "Sektor Perdagangan",
            "tanggal_terbit": "2022-07-12",
            "url_tdpse_detail": "https://pse.komdigi.go.id/tdpse-detail/5367",
            "website": "via.id"
        },
        {
            "id": "9cb1aba5-fd17-4bf8-bbd1-bb464033c552",
            "nama_pse": "VFIRST KOMUNIKASI INDONESIA",
            "nama_se": "CPAAS",
            "sektor": "Sektor Teknologi Informasi dan Komunikasi",
            "tanggal_terbit": "2022-07-12",
            "url_tdpse_detail": "https://pse.komdigi.go.id/tdpse-detail/5368",
            "website": "vfirst.id"
        },
        {
            "id": "9cb1abaf-d7c5-4bf8-8d5b-fe8693178d48",
            "nama_pse": "JACCS MITRA PINASTHIKA MUSTIKA FINANCE INDONESIA",
            "nama_se": "MICROSITE MYCASH",
            "sektor": "Sektor Keuangan",
            "tanggal_terbit": "2022-07-12",
            "url_tdpse_detail": "https://pse.komdigi.go.id/tdpse-detail/5369",
            "website": "mycash.co.id"
        },
        {
            "id": "9cb1ab9b-27a1-4b79-8a30-3dbe6c473982",
            "nama_pse": "RELIANCEINTEGRASI DUNIA ANDA",
            "nama_se": "WEBSITE",
            "sektor": "Sektor Keuangan",
            "tanggal_terbit": "2022-07-12",
            "url_tdpse_detail": "https://pse.komdigi.go.id/tdpse-detail/5370",
            "website": "reli.id"
        },
        {
            "id": "9cb1abaf-d977-418f-9c3a-d42339e655bb",
            "nama_pse": "INDOMOBIL FINANCE INDONESIA",
            "nama_se": "IMFI MIKRO",
            "sektor": "Sektor Keuangan",
            "tanggal_terbit": "2022-07-12",
            "url_tdpse_detail": "https://pse.komdigi.go.id/tdpse-detail/5372",
            "website": "-"
        },
        {
            "id": "9cb1aba5-feda-4d2d-b1b9-6a0d1087d459",
            "nama_pse": "LAKU6 ONLINE INDONESIA",
            "nama_se": "MISHOP TRADE-IN",
            "sektor": "Sektor Teknologi Informasi dan Komunikasi",
            "tanggal_terbit": "2022-07-12",
            "url_tdpse_detail": "https://pse.komdigi.go.id/tdpse-detail/5373",
            "website": "-"
        },
        {
            "id": "9cb1abaf-db72-48a5-ba87-9054ce8c5809",
            "nama_pse": "PRIMA KREDIT SOLUSI",
            "nama_se": "360 FINMART",
            "sektor": "Sektor Keuangan",
            "tanggal_terbit": "2022-07-12",
            "url_tdpse_detail": "https://pse.komdigi.go.id/tdpse-detail/5375",
            "website": "360finmart.id"
        },
        {
            "id": "9cb1abaf-dde1-46fa-9cd7-bcb7b9cebd25",
            "nama_pse": "CAPELLA MULTIDANA",
            "nama_se": "PT CAPELLA MULTIDANA",
            "sektor": "Sektor Keuangan",
            "tanggal_terbit": "2022-07-12",
            "url_tdpse_detail": "https://pse.komdigi.go.id/tdpse-detail/5376",
            "website": "cmd.co.id"
        },
        {
            "id": "9cb1abaf-e010-41a0-88d8-ca658be32826",
            "nama_pse": "VFIRST KOMUNIKASI INDONESIA",
            "nama_se": "INFINITO",
            "sektor": "Sektor Teknologi Informasi dan Komunikasi",
            "tanggal_terbit": "2022-07-12",
            "url_tdpse_detail": "https://pse.komdigi.go.id/tdpse-detail/5377",
            "website": "-"
        },
        {
            "id": "9cb1abaf-e1df-4424-8d1f-49d9197d2014",
            "nama_pse": "GREAT EASTERN LIFE INDONESIA",
            "nama_se": "GOGREAT!",
            "sektor": "Sektor Keuangan",
            "tanggal_terbit": "2022-07-12",
            "url_tdpse_detail": "https://pse.komdigi.go.id/tdpse-detail/5378",
            "website": "gogreat.greateasternlife.co.id"
        },
        {
            "id": "9cb1ab9b-2d1c-4a73-bac8-e42f884d5d38",
            "nama_pse": "CHAILEASE FINANCE INDONESIA",
            "nama_se": "CHAILEASE.CO.ID",
            "sektor": "Sektor Keuangan",
            "tanggal_terbit": "2022-07-12",
            "url_tdpse_detail": "https://pse.komdigi.go.id/tdpse-detail/5379",
            "website": "chailease.co.id"
        },
        {
            "id": "9cb1abaf-e492-4b4e-b7f9-339e97515208",
            "nama_pse": "SPORT GLOVE INDONESIA",
            "nama_se": "WEBSITE SPORT GLOVE INDONESIA",
            "sektor": "Sektor Teknologi Informasi dan Komunikasi",
            "tanggal_terbit": "2022-07-12",
            "url_tdpse_detail": "https://pse.komdigi.go.id/tdpse-detail/5380",
            "website": "ptsgi.co.id"
        },
        {
            "id": "9cb1ab9b-2fea-4ff6-acb7-12d6dba37249",
            "nama_pse": "SUNDAY INSURANCE INDONESIA",
            "nama_se": "PT SUNDAY INSURANCE INDONESIA",
            "sektor": "Sektor Keuangan",
            "tanggal_terbit": "2022-07-12",
            "url_tdpse_detail": "https://pse.komdigi.go.id/tdpse-detail/5381",
            "website": "sundayinsurance.co.id"
        },
        {
            "id": "9cb1aba6-04c6-49de-b8ea-1f5bb4fccf1b",
            "nama_pse": "BIMASAKTI MULTI SINERGI",
            "nama_se": "PLASAMALL",
            "sektor": "Sektor Perdagangan",
            "tanggal_terbit": "2022-07-12",
            "url_tdpse_detail": "https://pse.komdigi.go.id/tdpse-detail/5382",
            "website": "plasamall.com"
        },
        {
            "id": "9cb1aba6-06d3-464e-b22b-a511e7089d6a",
            "nama_pse": "KREDIT UTAMA FINTECH INDONESIA",
            "nama_se": "RUPIAHCEPAT",
            "sektor": "Sektor Keuangan",
            "tanggal_terbit": "2022-07-12",
            "url_tdpse_detail": "https://pse.komdigi.go.id/tdpse-detail/5383",
            "website": "rupiahcepat.co.id"
        },
        {
            "id": "9cb1ab9b-334a-4325-8299-a1850ee3ddd9",
            "nama_pse": "SPORT GLOVE INDONESIA",
            "nama_se": "APLIKASI CHAT SPORT GLOVE INDONESIA",
            "sektor": "Sektor Teknologi Informasi dan Komunikasi",
            "tanggal_terbit": "2022-07-12",
            "url_tdpse_detail": "https://pse.komdigi.go.id/tdpse-detail/5384",
            "website": "chat.ptsgi.co.id"
        },
        {
            "id": "9cb1ab9b-3585-4da6-b954-b3413adcb7a6",
            "nama_pse": "BAHTERA ADI JAYA",
            "nama_se": "BAHTERA ADI JAYA",
            "sektor": "Sektor Perdagangan",
            "tanggal_terbit": "2022-07-12",
            "url_tdpse_detail": "https://pse.komdigi.go.id/tdpse-detail/5385",
            "website": "bahteraadijaya.com"
        },
        {
            "id": "9cb1abaf-e651-4ed5-bb5f-af920610857d",
            "nama_pse": "SURYA DIGITAL SAMANTHA",
            "nama_se": "WWW.SDSONLINE.CO.ID",
            "sektor": "Sektor Perdagangan",
            "tanggal_terbit": "2022-07-12",
            "url_tdpse_detail": "https://pse.komdigi.go.id/tdpse-detail/5386",
            "website": "sdsonline.co.id"
        },
        {
            "id": "9cb1ab9b-3984-4a93-bc6e-cfb7abcb0fd6",
            "nama_pse": "SPORT GLOVE INDONESIA",
            "nama_se": "ERP SPORT GLOVE INDONESIA",
            "sektor": "Sektor Teknologi Informasi dan Komunikasi",
            "tanggal_terbit": "2022-07-12",
            "url_tdpse_detail": "https://pse.komdigi.go.id/tdpse-detail/5389",
            "website": "-"
        },
        {
            "id": "9cb1ab9b-3da1-473e-80c0-4d9c74697559",
            "nama_pse": "NATA KARYABORA GEMILANG",
            "nama_se": "ASTROCLUB7",
            "sektor": "Sektor Perdagangan, Sektor Kesehatan",
            "tanggal_terbit": "2022-07-12",
            "url_tdpse_detail": "https://pse.komdigi.go.id/tdpse-detail/5390",
            "website": "astroclub7.com"
        },
        {
            "id": "9cb1ab9b-4070-43af-9d67-0b2dcb8eee25",
            "nama_pse": "BIMASAKTI MULTI SINERGI",
            "nama_se": "RAJA BILLER",
            "sektor": "Sektor Keuangan, Sektor Teknologi Informasi dan Komunikasi",
            "tanggal_terbit": "2022-07-12",
            "url_tdpse_detail": "https://pse.komdigi.go.id/tdpse-detail/5393",
            "website": "rajabiller.com"
        },
        {
            "id": "9cb1aba6-0f2e-46b6-ba89-830cbac9a6e3",
            "nama_pse": "SPORT GLOVE INDONESIA",
            "nama_se": "ACCOUNTING SPORT GLOVE INDONESIA",
            "sektor": "Sektor Teknologi Informasi dan Komunikasi",
            "tanggal_terbit": "2022-07-12",
            "url_tdpse_detail": "https://pse.komdigi.go.id/tdpse-detail/5395",
            "website": "-"
        },
        {
            "id": "9cb1ab9b-440d-403d-b382-ad06ba9b4fd3",
            "nama_pse": "MEDIA SUARA LINTAS INDONESIA GROUP",
            "nama_se": "SUARALINTASINDONESIA.COM",
            "sektor": "Sektor Teknologi Informasi dan Komunikasi",
            "tanggal_terbit": "2022-07-12",
            "url_tdpse_detail": "https://pse.komdigi.go.id/tdpse-detail/5422",
            "website": "suaralintasindonesia.com"
        },
        {
            "id": "9cb1aba6-1107-4294-8eef-5d61c52c438b",
            "nama_pse": "HALO BELANJA DOTCOM",
            "nama_se": "HALOBELANJA",
            "sektor": "Sektor Teknologi Informasi dan Komunikasi",
            "tanggal_terbit": "2022-07-12",
            "url_tdpse_detail": "https://pse.komdigi.go.id/tdpse-detail/5396",
            "website": "halobelanja.com"
        },
        {
            "id": "9cb1aba6-14c4-44ee-9f53-cf3119fd46a6",
            "nama_pse": "SEA MAKEUP BEAUTY",
            "nama_se": "SEA MAKEUP BEAUTY",
            "sektor": "Sektor Perdagangan",
            "tanggal_terbit": "2022-07-12",
            "url_tdpse_detail": "https://pse.komdigi.go.id/tdpse-detail/5397",
            "website": "-"
        },
        {
            "id": "9cb1ab9b-4909-4edd-8e55-e906252105ed",
            "nama_pse": "MAJU BERSAMA ALIA",
            "nama_se": "SRIBUU",
            "sektor": "Sektor Keuangan",
            "tanggal_terbit": "2022-07-12",
            "url_tdpse_detail": "https://pse.komdigi.go.id/tdpse-detail/5398",
            "website": "sribuu.id"
        },
        {
            "id": "9cb1ab9b-50a5-495d-b9e1-1c64bd6161d1",
            "nama_pse": "BANK CENTRAL ASIA",
            "nama_se": "VIRA",
            "sektor": "Sektor Keuangan",
            "tanggal_terbit": "2022-07-12",
            "url_tdpse_detail": "https://pse.komdigi.go.id/tdpse-detail/5399",
            "website": "vira.bca.co.id"
        },
        {
            "id": "9cb1aba6-170d-46f6-b6e8-bae4ad6b1c8b",
            "nama_pse": "PEMBAYARAN LINTAS USAHA SUKSES",
            "nama_se": "ESPAY",
            "sektor": "Sektor Keuangan, Sektor Teknologi Informasi dan Komunikasi",
            "tanggal_terbit": "2022-07-12",
            "url_tdpse_detail": "https://pse.komdigi.go.id/tdpse-detail/5401",
            "website": "espay.id"
        },
        {
            "id": "9cb1ab9b-5319-4323-8fb8-f42dff4223a2",
            "nama_pse": "BANK CENTRAL ASIA",
            "nama_se": "WEBSITE (PORTAL) API BCA",
            "sektor": "Sektor Keuangan",
            "tanggal_terbit": "2022-07-12",
            "url_tdpse_detail": "https://pse.komdigi.go.id/tdpse-detail/5400",
            "website": "developer.bca.co.id"
        },
        {
            "id": "9cb1aba6-1f17-4734-ad71-ca01e1c89484",
            "nama_pse": "MEDAN OJEK INDONESIA",
            "nama_se": "M-OJEK DRIVER",
            "sektor": "Sektor Transportasi",
            "tanggal_terbit": "2022-07-12",
            "url_tdpse_detail": "https://pse.komdigi.go.id/tdpse-detail/5402",
            "website": "m-ojek.com"
        },
        {
            "id": "9cb1aba6-21c4-439c-b043-bf1b287d2f5a",
            "nama_pse": "MEDAN OJEK INDONESIA",
            "nama_se": "M-OJEK MERCHANT",
            "sektor": "Sektor Transportasi",
            "tanggal_terbit": "2022-07-12",
            "url_tdpse_detail": "https://pse.komdigi.go.id/tdpse-detail/5403",
            "website": "m-ojek.com"
        },
        {
            "id": "9cb1abaf-e828-49f7-8966-3b13d142f4f7",
            "nama_pse": "NERS INTI PERSADA",
            "nama_se": "FIDS \u0026 AAS",
            "sektor": "Sektor Teknologi Informasi dan Komunikasi",
            "tanggal_terbit": "2022-07-12",
            "url_tdpse_detail": "https://pse.komdigi.go.id/tdpse-detail/5404",
            "website": "notifbox.com"
        },
        {
            "id": "9cb1abaf-e9f1-47ac-9b84-a58001cd59a5",
            "nama_pse": "FINTEK DIGITAL INDONESIA",
            "nama_se": "KREDITO",
            "sektor": "Sektor Keuangan",
            "tanggal_terbit": "2022-07-12",
            "url_tdpse_detail": "https://pse.komdigi.go.id/tdpse-detail/5406",
            "website": "-"
        },
        {
            "id": "9cb1abaf-ee45-4cff-b251-9e6666b6e948",
            "nama_pse": "NERS INTI PERSADA",
            "nama_se": "FLIGHT INFORMATION DISPLAY SYSTEM",
            "sektor": "Sektor Teknologi Informasi dan Komunikasi",
            "tanggal_terbit": "2022-07-12",
            "url_tdpse_detail": "https://pse.komdigi.go.id/tdpse-detail/5407",
            "website": "notifbox.com"
        },
        {
            "id": "9cb1aba6-27e8-45d6-bfee-9f3087be55c7",
            "nama_pse": "APLIKASI NIAGA INDONESIA",
            "nama_se": "APLIKASIR",
            "sektor": "Sektor Teknologi Informasi dan Komunikasi",
            "tanggal_terbit": "2022-07-12",
            "url_tdpse_detail": "https://pse.komdigi.go.id/tdpse-detail/5408",
            "website": "aplikasir.com"
        },
        {
            "id": "9cb1ab9b-571e-44db-9449-4dcc55d205b4",
            "nama_pse": "LAKU6 ONLINE INDONESIA",
            "nama_se": "TUKAR TAMBAH LITE",
            "sektor": "Sektor Teknologi Informasi dan Komunikasi",
            "tanggal_terbit": "2022-07-12",
            "url_tdpse_detail": "https://pse.komdigi.go.id/tdpse-detail/5409",
            "website": "-"
        },
        {
            "id": "9cb1aba6-29ae-47b0-a82d-dca6068c5d00",
            "nama_pse": "LAKU6 ONLINE INDONESIA",
            "nama_se": "TRADE IN MHI",
            "sektor": "Sektor Teknologi Informasi dan Komunikasi",
            "tanggal_terbit": "2022-07-12",
            "url_tdpse_detail": "https://pse.komdigi.go.id/tdpse-detail/5410",
            "website": "-"
        },
        {
            "id": "9cb1abaf-f116-49b1-9ea6-7d1008d3a794",
            "nama_pse": "LAKU6 ONLINE INDONESIA",
            "nama_se": "DISTRIBUTOR TRADE CENTER",
            "sektor": "Sektor Perdagangan",
            "tanggal_terbit": "2022-07-12",
            "url_tdpse_detail": "https://pse.komdigi.go.id/tdpse-detail/5411",
            "website": "-"
        },
        {
            "id": "9cb1abaf-f387-4c29-9617-303d651876c7",
            "nama_pse": "ADIRA DINAMIKA MULTI FINANCE",
            "nama_se": "ADIRAKU",
            "sektor": "Sektor Keuangan",
            "tanggal_terbit": "2022-07-12",
            "url_tdpse_detail": "https://pse.komdigi.go.id/tdpse-detail/5412",
            "website": "-"
        },
        {
            "id": "9cb1aba6-2bd6-4b65-86db-004f1f470e09",
            "nama_pse": "CEKINDO BUSINESS INTERNATIONAL",
            "nama_se": "HTTPS://CEKINDOBUSINESSCENTER.COM/",
            "sektor": "Sektor Perdagangan, Sektor Teknologi Informasi dan Komunikasi",
            "tanggal_terbit": "2022-07-12",
            "url_tdpse_detail": "https://pse.komdigi.go.id/tdpse-detail/5413",
            "website": "cekindobusinesscenter.com"
        },
        {
            "id": "9cb1aba6-2de0-435e-9928-4a801d03d15a",
            "nama_pse": "CEKINDO BUSINESS INTERNATIONAL",
            "nama_se": "HTTPS://USAHA.CO.ID/",
            "sektor": "Sektor Perdagangan",
            "tanggal_terbit": "2022-07-12",
            "url_tdpse_detail": "https://pse.komdigi.go.id/tdpse-detail/5414",
            "website": "usaha.co.id"
        },
        {
            "id": "9cb1aba6-3097-4229-b8f0-bc312616c103",
            "nama_pse": "BANK JABAR BANTEN SYARIAH",
            "nama_se": "VA WEB BANK BJB SYARIAH",
            "sektor": "Sektor Keuangan",
            "tanggal_terbit": "2022-07-12",
            "url_tdpse_detail": "https://pse.komdigi.go.id/tdpse-detail/5418",
            "website": "vaweb.bjbs.co.id"
        },
        {
            "id": "9cb1aba6-324d-4135-be96-6d4f96b98149",
            "nama_pse": "SMART SULTAN TRADE",
            "nama_se": "KLIKIN.ID",
            "sektor": "Sektor Perdagangan",
            "tanggal_terbit": "2022-07-12",
            "url_tdpse_detail": "https://pse.komdigi.go.id/tdpse-detail/5417",
            "website": "klikin.id"
        },
        {
            "id": "9cb1ab9b-59d5-4068-b135-8524239ef825",
            "nama_pse": "BANK JABAR BANTEN SYARIAH",
            "nama_se": "WAKAF IKHLAS",
            "sektor": "Sektor Keuangan",
            "tanggal_terbit": "2022-07-12",
            "url_tdpse_detail": "https://pse.komdigi.go.id/tdpse-detail/5420",
            "website": "wakaf.bjbsyariah.co.id"
        },
        {
            "id": "9cb1aba6-34a2-4531-af31-66e2eebf0f3f",
            "nama_pse": "GEMILANG CITRUS BERJAYA",
            "nama_se": "OURCITRUS",
            "sektor": "Sektor Perdagangan",
            "tanggal_terbit": "2022-07-12",
            "url_tdpse_detail": "https://pse.komdigi.go.id/tdpse-detail/5423",
            "website": "OURCITRUS.ID"
        },
        {
            "id": "9cb1aba6-3674-4e71-8f17-ed0a60a0b3d9",
            "nama_pse": "BUKIT BENDERA NATA",
            "nama_se": "PERDAGANGAN ONLINE",
            "sektor": "Sektor Perdagangan, Sektor Teknologi Informasi dan Komunikasi",
            "tanggal_terbit": "2022-07-12",
            "url_tdpse_detail": "https://pse.komdigi.go.id/tdpse-detail/5424",
            "website": "-"
        },
        {
            "id": "9cb1ab9b-5c25-46fe-8235-82a0980e7590",
            "nama_pse": "GAJAH MADA WIJAYA",
            "nama_se": "GMW",
            "sektor": "Sektor Perdagangan",
            "tanggal_terbit": "2022-07-12",
            "url_tdpse_detail": "https://pse.komdigi.go.id/tdpse-detail/5425",
            "website": "gmstation.renderforestsites.com"
        },
        {
            "id": "9cb1ab9b-5dfa-4d9f-898e-e8a8eb635b91",
            "nama_pse": "GARDATIPIKOR MEDIA PERSADA",
            "nama_se": "GARDATIPIKORNEWS.COM",
            "sektor": "Sektor Teknologi Informasi dan Komunikasi",
            "tanggal_terbit": "2022-07-12",
            "url_tdpse_detail": "https://pse.komdigi.go.id/tdpse-detail/5427",
            "website": "gardatipikornews.com"
        }
    ],
    "processingTimeMs": 3,
    "query": "",
    "totalHits": 19121,
    "hitsPerPage": 50,
    "page": 287,
    "totalPages": 383
}