{
    "hits": [
        {
            "id": "9cb1ac4b-490f-45b3-a6ae-04513d2c9ef8",
            "nama_pse": "KEDAI GRAFIKA INDONESIA",
            "nama_se": "KEDAI GRAFIKA INDONESIA",
            "sektor": "Sektor Perdagangan, Sektor Teknologi Informasi dan Komunikasi",
            "tanggal_terbit": "2023-09-16",
            "url_tdpse_detail": "https://pse.komdigi.go.id/tdpse-detail/15934",
            "website": "-"
        },
        {
            "id": "9cb1ac29-49f2-409c-9938-c36df5366e88",
            "nama_pse": "KEDAI GRAFIKA INDONESIA",
            "nama_se": "KEDAI GRAFIKA",
            "sektor": "Sektor Perdagangan, Sektor Teknologi Informasi dan Komunikasi",
            "tanggal_terbit": "2023-09-16",
            "url_tdpse_detail": "https://pse.komdigi.go.id/tdpse-detail/15935",
            "website": "-"
        },
        {
            "id": "9cb1ac5f-ce07-4d57-9c69-858d0f77017f",
            "nama_pse": "KITADATA QURAN INDONESIA",
            "nama_se": "KITADATA QURAN DIGITAL",
            "sektor": "Sektor Teknologi Informasi dan Komunikasi",
            "tanggal_terbit": "2023-09-16",
            "url_tdpse_detail": "https://pse.komdigi.go.id/tdpse-detail/15936",
            "website": "kitadata.or.id"
        },
        {
            "id": "9cb1ac29-258c-4110-94b5-64cc1cc76912",
            "nama_pse": "PUAN MALIKA IZZAH",
            "nama_se": "SIMRS KARAWACI",
            "sektor": "Sektor Kesehatan",
            "tanggal_terbit": "2023-09-15",
            "url_tdpse_detail": "https://pse.komdigi.go.id/tdpse-detail/15925",
            "website": "-"
        },
        {
            "id": "9cb1ac29-45bf-404d-9ddd-367c83403a3c",
            "nama_pse": "MEDIA CAKRA TEKNO",
            "nama_se": "CAKRA TEKNO (MCT)",
            "sektor": "Sektor Teknologi Informasi dan Komunikasi",
            "tanggal_terbit": "2023-09-15",
            "url_tdpse_detail": "https://pse.komdigi.go.id/tdpse-detail/15926",
            "website": "-"
        },
        {
            "id": "9cb1ac5f-b18f-42cb-b64d-6762807228b2",
            "nama_pse": "MANDAU GEMILANG TECH",
            "nama_se": "SIMRS MANDAU",
            "sektor": "Sektor Kesehatan",
            "tanggal_terbit": "2023-09-15",
            "url_tdpse_detail": "https://pse.komdigi.go.id/tdpse-detail/15928",
            "website": "mandau.co.id"
        },
        {
            "id": "9cb1ac4b-451b-4ac5-bc24-2aeeca042006",
            "nama_pse": "SYAKUR ABDULLAH",
            "nama_se": "PRODUCT DIGITAL STREAMING",
            "sektor": "Sektor Perdagangan",
            "tanggal_terbit": "2023-09-15",
            "url_tdpse_detail": "https://pse.komdigi.go.id/tdpse-detail/15929",
            "website": "-"
        },
        {
            "id": "9cb1ac7c-0985-4cf8-9c71-cbddd61a8c05",
            "nama_pse": "DES TEKNOLOGI INFORMASI",
            "nama_se": "DESMEDIC",
            "sektor": "Sektor Kesehatan, Sektor Teknologi Informasi dan Komunikasi",
            "tanggal_terbit": "2023-09-13",
            "url_tdpse_detail": "https://pse.komdigi.go.id/tdpse-detail/17526",
            "website": "desmedic.id"
        },
        {
            "id": "9cb1ac31-2147-41b7-85e8-64467a166127",
            "nama_pse": "RUMAH SAKIT PENYAKIT INFEKSI PROF.DR.SULIANTI SAROSO JAKARTA DITJEN PELAYANAN KESEHATAN KEMENTERIAN KESEHATAN",
            "nama_se": "SIMINTRO",
            "sektor": "Sektor Kesehatan",
            "tanggal_terbit": "2023-09-12",
            "url_tdpse_detail": "https://pse.komdigi.go.id/tdpse-detail/15921",
            "website": "rspiss.com"
        },
        {
            "id": "9cb1ac5f-a096-481b-b89f-7d80e6369c87",
            "nama_pse": "BARSELA DUA EMPAT",
            "nama_se": "BARSELA24NEWS.COM",
            "sektor": "Sektor Teknologi Informasi dan Komunikasi",
            "tanggal_terbit": "2023-09-12",
            "url_tdpse_detail": "https://pse.komdigi.go.id/tdpse-detail/15910",
            "website": "-"
        },
        {
            "id": "9cb1ac4b-2ca9-4134-a2ed-00feee22f62e",
            "nama_pse": "AIZEN TEKNOLOGI INDONESIA",
            "nama_se": "AIZEN MOBILITY",
            "sektor": "Sektor Transportasi",
            "tanggal_terbit": "2023-09-12",
            "url_tdpse_detail": "https://pse.komdigi.go.id/tdpse-detail/15915",
            "website": "aizenmobility.com"
        },
        {
            "id": "9cb1ac5f-a346-4289-b726-439b0d491e04",
            "nama_pse": "RIZQIA ADHYAKSA MEDIA",
            "nama_se": "ADHYAKSANEWS.ONLINE",
            "sektor": "Sektor Teknologi Informasi dan Komunikasi",
            "tanggal_terbit": "2023-09-12",
            "url_tdpse_detail": "https://pse.komdigi.go.id/tdpse-detail/15912",
            "website": "adhyaksanews.online"
        },
        {
            "id": "9cb1ac5f-a5d5-4da9-a798-142d9ccc5559",
            "nama_pse": "FITLINE NUTRITION AND COSMETICS",
            "nama_se": "WWW.FITLINE.COM",
            "sektor": "Sektor Perdagangan",
            "tanggal_terbit": "2023-09-12",
            "url_tdpse_detail": "https://pse.komdigi.go.id/tdpse-detail/15913",
            "website": "fitline.com"
        },
        {
            "id": "9cb1ac29-2b5a-42f8-bbd6-6f19f413c3b0",
            "nama_pse": "PERTAMINA BINA MEDIKA IHC",
            "nama_se": "SIM KLINIK PERTAMINA IHC RAWAMANGUN",
            "sektor": "Sektor Kesehatan",
            "tanggal_terbit": "2023-09-12",
            "url_tdpse_detail": "https://pse.komdigi.go.id/tdpse-detail/15917",
            "website": "-"
        },
        {
            "id": "9cb1ac29-2dcc-4e6d-8bc5-fc53f4396093",
            "nama_pse": "SANTARA ABADI MAKMUR",
            "nama_se": "JASA PERTAMBANGAN",
            "sektor": "Sektor Teknologi Informasi dan Komunikasi",
            "tanggal_terbit": "2023-09-12",
            "url_tdpse_detail": "https://pse.komdigi.go.id/tdpse-detail/15916",
            "website": "jasapertambangan.com"
        },
        {
            "id": "9cb1ac29-312e-40c4-8fac-db82e14f61f3",
            "nama_pse": "GAGAS ARIEF PRIBADI",
            "nama_se": "HANDY MEDICAL",
            "sektor": "Sektor Kesehatan",
            "tanggal_terbit": "2023-09-12",
            "url_tdpse_detail": "https://pse.komdigi.go.id/tdpse-detail/15918",
            "website": "-"
        },
        {
            "id": "9cb1ac5f-abd0-4897-983c-e1c13b22f5c3",
            "nama_pse": "INDONESIA LEGAL CENTER",
            "nama_se": "JASA PENGURUSAN PERIZINAN DAN LEGALITAS USAHA",
            "sektor": "Sektor Perdagangan, Sektor Teknologi Informasi dan Komunikasi",
            "tanggal_terbit": "2023-09-12",
            "url_tdpse_detail": "https://pse.komdigi.go.id/tdpse-detail/15922",
            "website": "indonesialegalcenter.com"
        },
        {
            "id": "9cb1ac4b-3d72-4ccb-ab96-1031821cb0da",
            "nama_pse": "BANK JTRUST INDONESIA",
            "nama_se": "WEBSITE J TRUST BANK",
            "sektor": "Sektor Teknologi Informasi dan Komunikasi",
            "tanggal_terbit": "2023-09-12",
            "url_tdpse_detail": "https://pse.komdigi.go.id/tdpse-detail/15923",
            "website": "Jtrustnet.com"
        },
        {
            "id": "9cb1ac29-42ef-4141-af1e-db15cb4a2783",
            "nama_pse": "RUMAH AREK KREATIF",
            "nama_se": "RAKJASA",
            "sektor": "Sektor Perdagangan, Sektor Teknologi Informasi dan Komunikasi",
            "tanggal_terbit": "2023-09-12",
            "url_tdpse_detail": "https://pse.komdigi.go.id/tdpse-detail/15924",
            "website": "rakjasa.co.id"
        },
        {
            "id": "9cb1ac38-5e97-4d12-a6e9-8e243ce2c251",
            "nama_pse": "RUMAH SAKIT ABDUL MALIK FADJAR PKU MUHAMMADIYAH SUMBAWA",
            "nama_se": "SISTEM INFORMASI RUMAH SAKIT SURYA MEDIKA PKU MUHAMMADIYAH SUMBAWA",
            "sektor": "Sektor Kesehatan, Sektor Teknologi Informasi dan Komunikasi",
            "tanggal_terbit": "2023-09-11",
            "url_tdpse_detail": "https://pse.komdigi.go.id/tdpse-detail/15899",
            "website": "kliniksuryamedika.com"
        },
        {
            "id": "9cb1ac4a-80b1-40bc-bfb2-2ad6027e7132",
            "nama_pse": "OLAH CIPTA BIMASENA CARAKA NUSANTARA",
            "nama_se": "SETIA",
            "sektor": "Sektor Teknologi Informasi dan Komunikasi",
            "tanggal_terbit": "2023-09-11",
            "url_tdpse_detail": "https://pse.komdigi.go.id/tdpse-detail/15895",
            "website": "setia.club"
        },
        {
            "id": "9cb1ac28-fe92-4a24-b95d-c81c554efae8",
            "nama_pse": "PERTAMINA BINA MEDIKA IHC",
            "nama_se": "SIM KLINIK PERTAMINA IHC CINERE",
            "sektor": "Sektor Kesehatan",
            "tanggal_terbit": "2023-09-11",
            "url_tdpse_detail": "https://pse.komdigi.go.id/tdpse-detail/15894",
            "website": "-"
        },
        {
            "id": "9cb1ac29-08e7-4e4d-8d94-5d5975238325",
            "nama_pse": "KONEKSI KARYA INDONESIA",
            "nama_se": "KONEKSEED",
            "sektor": "Sektor Teknologi Informasi dan Komunikasi",
            "tanggal_terbit": "2023-09-11",
            "url_tdpse_detail": "https://pse.komdigi.go.id/tdpse-detail/15893",
            "website": "konekseed.id"
        },
        {
            "id": "9cb1ac29-0bfa-4631-ba22-9d265b4fab1d",
            "nama_pse": "BINTANG RAHMAH TANGERANG",
            "nama_se": "SMART PLUS",
            "sektor": "Sektor Kesehatan",
            "tanggal_terbit": "2023-09-11",
            "url_tdpse_detail": "https://pse.komdigi.go.id/tdpse-detail/15896",
            "website": "arrahmah.sariasih.com"
        },
        {
            "id": "9cb1ac4b-1251-4fd3-a243-6dfa01c50f14",
            "nama_pse": "ICHSAN MEDICAL CENTRE",
            "nama_se": "SMART PLUS",
            "sektor": "Sektor Kesehatan",
            "tanggal_terbit": "2023-09-11",
            "url_tdpse_detail": "https://pse.komdigi.go.id/tdpse-detail/15897",
            "website": "imc.sariasih.com"
        },
        {
            "id": "9cb1ac3b-804a-44c1-998b-3b1e80587d92",
            "nama_pse": "SEJATI CIPTA BUANA",
            "nama_se": "SOLUSEE SEJATI SOFTWARE",
            "sektor": "Sektor Kesehatan, Sektor Teknologi Informasi dan Komunikasi",
            "tanggal_terbit": "2023-09-11",
            "url_tdpse_detail": "https://pse.komdigi.go.id/tdpse-detail/15907",
            "website": "sejatiapps.com"
        },
        {
            "id": "9cb1ac4b-1901-473c-a4a9-73b9bfa3b647",
            "nama_pse": "QUANTUM INFRA SOLUSINDO",
            "nama_se": "MEDINCARE - MEDINFIT",
            "sektor": "Sektor Kesehatan, Sektor Teknologi Informasi dan Komunikasi",
            "tanggal_terbit": "2023-09-11",
            "url_tdpse_detail": "https://pse.komdigi.go.id/tdpse-detail/15898",
            "website": "-"
        },
        {
            "id": "9cb1ac3b-8310-4c67-873a-2aa6ccebbd7f",
            "nama_pse": "TRI HUSADA SEJAHTERA",
            "nama_se": "SIMRS WATES HUSADA",
            "sektor": "Sektor Kesehatan, Sektor Teknologi Informasi dan Komunikasi",
            "tanggal_terbit": "2023-09-11",
            "url_tdpse_detail": "https://pse.komdigi.go.id/tdpse-detail/15900",
            "website": "-"
        },
        {
            "id": "9cb1ac5f-90ae-43a3-99d8-df221d55ccc9",
            "nama_pse": "RUMAH SAKIT UMUM DAERAH SETJONEGORO KABUPATEN WONOSOBO",
            "nama_se": "SIMRSUD KRT. SETJONEGORO WONOSOBO",
            "sektor": "Sektor Kesehatan",
            "tanggal_terbit": "2023-09-11",
            "url_tdpse_detail": "https://pse.komdigi.go.id/tdpse-detail/15901",
            "website": "setjonegoro.wonosobokab.go.id"
        },
        {
            "id": "9cb1ac4b-1c8b-4905-8b9b-fe38e2f8b5f4",
            "nama_pse": "BERKAH UTAMA GEMILANG",
            "nama_se": "BERKAH UTAMA GEMILANG",
            "sektor": "Sektor Teknologi Informasi dan Komunikasi",
            "tanggal_terbit": "2023-09-11",
            "url_tdpse_detail": "https://pse.komdigi.go.id/tdpse-detail/15902",
            "website": "-"
        },
        {
            "id": "9cb1ac29-1e3c-4714-bc3b-4d65b7f92401",
            "nama_pse": "RIZKIAH ARC AKRAM",
            "nama_se": "MARTIN LEGALITAS",
            "sektor": "Sektor Perdagangan",
            "tanggal_terbit": "2023-09-11",
            "url_tdpse_detail": "https://pse.komdigi.go.id/tdpse-detail/15904",
            "website": "martinlegalitas.com"
        },
        {
            "id": "9cb1ac4b-2300-4990-963b-e80ca450c657",
            "nama_pse": "MULTIDAYA DINAMIKA",
            "nama_se": "DOLAN",
            "sektor": "Sektor Perdagangan",
            "tanggal_terbit": "2023-09-11",
            "url_tdpse_detail": "https://pse.komdigi.go.id/tdpse-detail/15909",
            "website": "dolanapp.com"
        },
        {
            "id": "9cb1ac5f-99bc-462f-8d7b-0b98b5faae3a",
            "nama_pse": "SUKSES GENERATE",
            "nama_se": "MEDICAL RECORD INFORMATION SYSTEM",
            "sektor": "Sektor Kesehatan",
            "tanggal_terbit": "2023-09-11",
            "url_tdpse_detail": "https://pse.komdigi.go.id/tdpse-detail/15908",
            "website": "balkesmassmg.id"
        },
        {
            "id": "9cb1ac4b-0e88-4653-8ece-c3c246a8dc40",
            "nama_pse": "RSU MUHAMMADIYAH",
            "nama_se": "SIMRS RS MUHAMMADIYAH BANDUNG",
            "sektor": "Sektor Kesehatan",
            "tanggal_terbit": "2023-09-09",
            "url_tdpse_detail": "https://pse.komdigi.go.id/tdpse-detail/15891",
            "website": "rsmb.co.id"
        },
        {
            "id": "9cb1ac3b-763b-46c8-aa99-a460045c2a1b",
            "nama_pse": "TENTANG PENA MADANI",
            "nama_se": "PT  TENTANG PENA MADANI",
            "sektor": "Sektor Perdagangan",
            "tanggal_terbit": "2023-09-09",
            "url_tdpse_detail": "https://pse.komdigi.go.id/tdpse-detail/15892",
            "website": "tentangkita.co"
        },
        {
            "id": "9cb1ac3b-1030-4d4b-ac44-2d2d98d0a6bc",
            "nama_pse": "MIMPI KITA BERSAMA",
            "nama_se": "PRIMEVOUCHER.STORE",
            "sektor": "Sektor Perdagangan, Sektor Teknologi Informasi dan Komunikasi",
            "tanggal_terbit": "2023-09-08",
            "url_tdpse_detail": "https://pse.komdigi.go.id/tdpse-detail/15875",
            "website": "primevoucher.store"
        },
        {
            "id": "9cb1ac3b-504b-4052-a64b-75bb70cbe246",
            "nama_pse": "FATMA",
            "nama_se": "SIMRS FATMA",
            "sektor": "Sektor Kesehatan",
            "tanggal_terbit": "2023-09-08",
            "url_tdpse_detail": "https://pse.komdigi.go.id/tdpse-detail/15876",
            "website": "matafatma.com"
        },
        {
            "id": "9cb1ac3b-5e36-4da9-bd3c-14fb8dc1fdc7",
            "nama_pse": "OVERDRIVE IOT TEKNOLOGI",
            "nama_se": "PT OVERDRIVE IOT TEKNOLOGI",
            "sektor": "Sektor Teknologi Informasi dan Komunikasi",
            "tanggal_terbit": "2023-09-08",
            "url_tdpse_detail": "https://pse.komdigi.go.id/tdpse-detail/15878",
            "website": "overdriveiot.com"
        },
        {
            "id": "9cb1ac28-c2a7-4078-9111-f1a28753f762",
            "nama_pse": "MODI TEKNO SOLUSINDO",
            "nama_se": "MODIPAY.ID",
            "sektor": "Sektor Teknologi Informasi dan Komunikasi",
            "tanggal_terbit": "2023-09-08",
            "url_tdpse_detail": "https://pse.komdigi.go.id/tdpse-detail/15873",
            "website": "modipay.wlabel.id"
        },
        {
            "id": "9cb1ac28-cf14-4e9b-8e42-433030077ce1",
            "nama_pse": "REPUBLIK AZERO MANAGEMEN",
            "nama_se": "LINCAH.ID",
            "sektor": "Sektor Teknologi Informasi dan Komunikasi",
            "tanggal_terbit": "2023-09-08",
            "url_tdpse_detail": "https://pse.komdigi.go.id/tdpse-detail/15874",
            "website": "lincah.id"
        },
        {
            "id": "9cb1ac28-d23a-4c09-9f6a-1ed8c36f6359",
            "nama_pse": "SARI ASIH MANGUN PERSADA",
            "nama_se": "SMART PLUS",
            "sektor": "Sektor Kesehatan",
            "tanggal_terbit": "2023-09-08",
            "url_tdpse_detail": "https://pse.komdigi.go.id/tdpse-detail/15877",
            "website": "ciputat.sariasih.com"
        },
        {
            "id": "9cb1ac28-f032-44c9-9aba-4a21fcca8c4a",
            "nama_pse": "VOLTA INDONESIA SEMESTA",
            "nama_se": "VOLTA INDONESIA",
            "sektor": "Sektor Perdagangan",
            "tanggal_terbit": "2023-09-08",
            "url_tdpse_detail": "https://pse.komdigi.go.id/tdpse-detail/15883",
            "website": "voltaindonesia.id"
        },
        {
            "id": "9cb1ac3b-6725-43e3-a1ce-2bbe5a9cd896",
            "nama_pse": "RUMAH SAKIT UMUM UNIVERSITAS MUHAMMADIYAH MALANG",
            "nama_se": "SIMEDIS UMM HOSPITAL",
            "sektor": "Sektor Kesehatan",
            "tanggal_terbit": "2023-09-08",
            "url_tdpse_detail": "https://pse.komdigi.go.id/tdpse-detail/15879",
            "website": "ummhospital.com"
        },
        {
            "id": "9cb1ac28-f3d0-4ebd-8911-fdec8f3ac9ec",
            "nama_pse": "SARI ASIH INFIARDI",
            "nama_se": "SMART PLUS",
            "sektor": "Sektor Kesehatan",
            "tanggal_terbit": "2023-09-08",
            "url_tdpse_detail": "https://pse.komdigi.go.id/tdpse-detail/15881",
            "website": "sangiang.sariasih.com"
        },
        {
            "id": "9cb1ac28-f69f-45e7-a31e-67c68d9ac386",
            "nama_pse": "SWARANUSA MEDIA MANDIRI",
            "nama_se": "SWARANUSA.ID",
            "sektor": "Sektor Teknologi Informasi dan Komunikasi",
            "tanggal_terbit": "2023-09-08",
            "url_tdpse_detail": "https://pse.komdigi.go.id/tdpse-detail/15880",
            "website": "swaranusa.id"
        },
        {
            "id": "9cb1ac4a-fcab-4c80-9fd2-3abd42ac645e",
            "nama_pse": "SARI ASIH ADIFIARDITA",
            "nama_se": "SMART PLUS",
            "sektor": "Sektor Kesehatan",
            "tanggal_terbit": "2023-09-08",
            "url_tdpse_detail": "https://pse.komdigi.go.id/tdpse-detail/15882",
            "website": "cipondoh.sariasih.com"
        },
        {
            "id": "9cb1ac4b-005d-471a-bba5-c1c0a51dc7a4",
            "nama_pse": "S\u0026N PARTNERSHIP",
            "nama_se": "S\u0026N PARTNERSHIP",
            "sektor": "Sektor Perdagangan, Sektor Teknologi Informasi dan Komunikasi",
            "tanggal_terbit": "2023-09-08",
            "url_tdpse_detail": "https://pse.komdigi.go.id/tdpse-detail/15884",
            "website": "snlaw.id"
        },
        {
            "id": "9cb1ac4b-06a9-4824-995e-04b031021c21",
            "nama_pse": "SARI ASIH ARIA CEMERLANG",
            "nama_se": "SMART PLUS",
            "sektor": "Sektor Kesehatan",
            "tanggal_terbit": "2023-09-08",
            "url_tdpse_detail": "https://pse.komdigi.go.id/tdpse-detail/15885",
            "website": "serang.sariasih.com"
        },
        {
            "id": "9cb1ac3b-6a22-4f21-a280-c5f0fa68b936",
            "nama_pse": "SARI ASIH PUTRA MANDIRI",
            "nama_se": "SMART PLUS RS SARI ASIH CILEDUG",
            "sektor": "Sektor Kesehatan",
            "tanggal_terbit": "2023-09-08",
            "url_tdpse_detail": "https://pse.komdigi.go.id/tdpse-detail/15886",
            "website": "sariasihgroup.com"
        },
        {
            "id": "9cb1ac29-0553-4284-b7e1-2fb51dee96f9",
            "nama_pse": "BTASKEE TECHNOLOGY INDONESIA",
            "nama_se": "BTASKEE WEBSITE",
            "sektor": "Sektor Teknologi Informasi dan Komunikasi",
            "tanggal_terbit": "2023-09-08",
            "url_tdpse_detail": "https://pse.komdigi.go.id/tdpse-detail/15889",
            "website": "btaskee.com"
        }
    ],
    "processingTimeMs": 40,
    "query": "",
    "totalHits": 19131,
    "hitsPerPage": 50,
    "page": 120,
    "totalPages": 383
}