{
    "hits": [
        {
            "id": "9cb1abd1-b0fc-4408-8cae-a4ab11c9b11a",
            "nama_pse": "ESENSI SOLUSI BUANA",
            "nama_se": "APLIKASI KASIR ONLINE DAN ESB CORE",
            "sektor": "Sektor Perdagangan",
            "tanggal_terbit": "2022-07-31",
            "url_tdpse_detail": "https://pse.komdigi.go.id/tdpse-detail/9462",
            "website": "esb.id"
        },
        {
            "id": "9cb1abf8-499d-4116-8744-a5ea38bd74e3",
            "nama_pse": "HOTEL MURAH TRAVELINDO",
            "nama_se": "TIKETKERETAAPI.COM",
            "sektor": "Sektor Perdagangan",
            "tanggal_terbit": "2022-07-31",
            "url_tdpse_detail": "https://pse.komdigi.go.id/tdpse-detail/9467",
            "website": "tiketkeretaapi.com"
        },
        {
            "id": "9cb1abd1-b40e-4b74-92b0-78594c43d4a0",
            "nama_pse": "ESENSI SOLUSI BUANA",
            "nama_se": "APLIKASI ESB GOODS",
            "sektor": "Sektor Perdagangan",
            "tanggal_terbit": "2022-07-31",
            "url_tdpse_detail": "https://pse.komdigi.go.id/tdpse-detail/9463",
            "website": "esbgoods.co.id"
        },
        {
            "id": "9cb1abf7-2211-406a-9e9a-22126a71dee2",
            "nama_pse": "MUHAMAD ARIF FIRDAUS T",
            "nama_se": "CINEVERSE",
            "sektor": "Sektor Teknologi Informasi dan Komunikasi",
            "tanggal_terbit": "2022-07-31",
            "url_tdpse_detail": "https://pse.komdigi.go.id/tdpse-detail/9464",
            "website": "cineverse.id"
        },
        {
            "id": "9cb1abd1-b8de-4daf-bcc2-4a197c7ea761",
            "nama_pse": "DISTRIVE CREATIVE STUDIO",
            "nama_se": "CV DISTRIVE CREATIVE STUDIO",
            "sektor": "Sektor Perdagangan, Sektor Teknologi Informasi dan Komunikasi",
            "tanggal_terbit": "2022-07-31",
            "url_tdpse_detail": "https://pse.komdigi.go.id/tdpse-detail/9466",
            "website": "distrive.id"
        },
        {
            "id": "9cb1abf8-4d72-44ea-8cbb-abe4979b056f",
            "nama_pse": "OKA MAHENDRA",
            "nama_se": "VPSTRADING.NET",
            "sektor": "Sektor Teknologi Informasi dan Komunikasi",
            "tanggal_terbit": "2022-07-31",
            "url_tdpse_detail": "https://pse.komdigi.go.id/tdpse-detail/9468",
            "website": "VPSTrading.net"
        },
        {
            "id": "9cb1abf8-50aa-4ead-8958-fcb2e0624aba",
            "nama_pse": "NAMA CANTIK ABADI",
            "nama_se": "NAMA BEAUTY - NAMA",
            "sektor": "Sektor Perdagangan, Sektor Kesehatan, Sektor Pertahanan dan Keamanan",
            "tanggal_terbit": "2022-07-31",
            "url_tdpse_detail": "https://pse.komdigi.go.id/tdpse-detail/9469",
            "website": "namabeauty.co"
        },
        {
            "id": "9cb1abf7-27f8-4150-b590-84049d00c8c6",
            "nama_pse": "HARS GRUP KONSULTINDO",
            "nama_se": "HNG.CO.ID",
            "sektor": "Sektor Keuangan, Sektor Teknologi Informasi dan Komunikasi",
            "tanggal_terbit": "2022-07-31",
            "url_tdpse_detail": "https://pse.komdigi.go.id/tdpse-detail/9470",
            "website": "hng.co.id"
        },
        {
            "id": "9cb1abd1-bc77-45d1-a007-336e6c9db76a",
            "nama_pse": "RICKY GUNAWAN SANTOSA",
            "nama_se": "INTFIND",
            "sektor": "Sektor Perdagangan",
            "tanggal_terbit": "2022-07-31",
            "url_tdpse_detail": "https://pse.komdigi.go.id/tdpse-detail/9471",
            "website": "-"
        },
        {
            "id": "9cb1abf7-2b48-4bc3-b564-9a78af5261dc",
            "nama_pse": "TEKNOLOGIKA INTEGRATOR INDONESIA",
            "nama_se": "DUNIAMASAK.COM",
            "sektor": "Sektor Perdagangan",
            "tanggal_terbit": "2022-07-31",
            "url_tdpse_detail": "https://pse.komdigi.go.id/tdpse-detail/9472",
            "website": "duniamasak.com"
        },
        {
            "id": "9cb1abd1-c1a9-4ee0-a272-71bf5be59c77",
            "nama_pse": "INTEGRITAS MEDIA",
            "nama_se": "OFFICIAL WEBSITE CV INTEGRITAS MEDIA",
            "sektor": "Sektor Perdagangan",
            "tanggal_terbit": "2022-07-31",
            "url_tdpse_detail": "https://pse.komdigi.go.id/tdpse-detail/9473",
            "website": "integritasmedia.web.id"
        },
        {
            "id": "9cb1abf8-53c8-493b-b5a7-953dd1942340",
            "nama_pse": "USSI PINBUK GLOBAL SOLUSI",
            "nama_se": "IBSS CORE BANKING SYSTEM",
            "sektor": "Sektor Teknologi Informasi dan Komunikasi",
            "tanggal_terbit": "2022-07-31",
            "url_tdpse_detail": "https://pse.komdigi.go.id/tdpse-detail/9474",
            "website": "ussipgs.com"
        },
        {
            "id": "9cb1abf7-2eb6-4129-a87c-26937bdf5eb8",
            "nama_pse": "SMART ARENA INDONESIA",
            "nama_se": "LAST TRAINZ RAILWAYS",
            "sektor": "Sektor Teknologi Informasi dan Komunikasi",
            "tanggal_terbit": "2022-07-31",
            "url_tdpse_detail": "https://pse.komdigi.go.id/tdpse-detail/9475",
            "website": "lasttrainzrailways.id"
        },
        {
            "id": "9cb1abd1-c612-4c9c-b722-8ed1dc32c888",
            "nama_pse": "NIHKI CIPTA MANGGALA",
            "nama_se": "BASISHUKUM",
            "sektor": "Sektor Teknologi Informasi dan Komunikasi",
            "tanggal_terbit": "2022-07-31",
            "url_tdpse_detail": "https://pse.komdigi.go.id/tdpse-detail/9476",
            "website": "basishukum.com"
        },
        {
            "id": "9cb1abf7-3224-49e3-917c-db107b0df498",
            "nama_pse": "MEILITA VANIA RAHMAN",
            "nama_se": "THE MUFEED",
            "sektor": "Sektor Teknologi Informasi dan Komunikasi",
            "tanggal_terbit": "2022-07-31",
            "url_tdpse_detail": "https://pse.komdigi.go.id/tdpse-detail/9477",
            "website": "themufeed.asia"
        },
        {
            "id": "9cb1abd1-c9ae-4ffe-b25f-90d69644e258",
            "nama_pse": "MUHAMMAD AJI PANGESTU",
            "nama_se": "BANK SAMPAH POLNES",
            "sektor": "Sektor Teknologi Informasi dan Komunikasi",
            "tanggal_terbit": "2022-07-31",
            "url_tdpse_detail": "https://pse.komdigi.go.id/tdpse-detail/9478",
            "website": "banksampah.catpesut.online"
        },
        {
            "id": "9cb1abf7-3539-41bf-b8e3-0b7a3df25f9b",
            "nama_pse": "MUHAMMAD AJI PANGESTU",
            "nama_se": "APLIKASI BANKSAMPAH",
            "sektor": "Sektor Teknologi Informasi dan Komunikasi",
            "tanggal_terbit": "2022-07-31",
            "url_tdpse_detail": "https://pse.komdigi.go.id/tdpse-detail/9479",
            "website": "banksampah.catpesut.online"
        },
        {
            "id": "9cb1abf8-2f98-4739-8466-338003c08638",
            "nama_pse": "ANALISA TREND MEDIA",
            "nama_se": "ANALISAACEH.COM",
            "sektor": "Sektor Teknologi Informasi dan Komunikasi",
            "tanggal_terbit": "2022-07-30",
            "url_tdpse_detail": "https://pse.komdigi.go.id/tdpse-detail/9414",
            "website": "Analisaaceh.com"
        },
        {
            "id": "9cb1abf6-cb5a-4d8f-b953-563dd8d737f9",
            "nama_pse": "KHAIRUL ANUGRAH TEKNOLOGI",
            "nama_se": "IZIN PENYELENGGARA JASA AKSES INTERNET (INTERNET SERVICE PROVIDER/ISP)",
            "sektor": "Sektor Teknologi Informasi dan Komunikasi",
            "tanggal_terbit": "2022-07-30",
            "url_tdpse_detail": "https://pse.komdigi.go.id/tdpse-detail/9415",
            "website": "-"
        },
        {
            "id": "9cb1abf6-cecb-4f8c-8915-0a47b033703a",
            "nama_pse": "SOSIAL BERKAT KREATIF INDONESIA",
            "nama_se": "SOCIAL BREAD",
            "sektor": "Sektor Perdagangan",
            "tanggal_terbit": "2022-07-30",
            "url_tdpse_detail": "https://pse.komdigi.go.id/tdpse-detail/9416",
            "website": "socialbread.id"
        },
        {
            "id": "9cb1abd1-64b0-41fe-91cc-c732f74326d6",
            "nama_pse": "AGRES INFO TEKNOLOGI",
            "nama_se": "AGRES.ID",
            "sektor": "Sektor Perdagangan",
            "tanggal_terbit": "2022-07-30",
            "url_tdpse_detail": "https://pse.komdigi.go.id/tdpse-detail/9421",
            "website": "agres.id"
        },
        {
            "id": "9cb1abf8-32a8-4f07-a26a-71ac16a7f121",
            "nama_pse": "ANDALAN DOMPET PUTERA INDONESIA",
            "nama_se": "ADOPE INDONESIA",
            "sektor": "Sektor Perdagangan, Sektor Teknologi Informasi dan Komunikasi",
            "tanggal_terbit": "2022-07-30",
            "url_tdpse_detail": "https://pse.komdigi.go.id/tdpse-detail/9417",
            "website": "adope.co.id"
        },
        {
            "id": "9cb1abf6-d1ea-422a-a78d-9b45bfbef3ee",
            "nama_pse": "AGRES INFO TEKNOLOGI",
            "nama_se": "AGRES.CO.ID",
            "sektor": "Sektor Perdagangan",
            "tanggal_terbit": "2022-07-30",
            "url_tdpse_detail": "https://pse.komdigi.go.id/tdpse-detail/9422",
            "website": "agres.co.id"
        },
        {
            "id": "9cb1abf6-d49a-4870-9d26-7cc434da45bc",
            "nama_pse": "PERTAMINA PEDEVE INDONESIA",
            "nama_se": "WEBSITE PERUSAHAAN PT PERTAMINA PEDEVE INDONESIA",
            "sektor": "Sektor Perdagangan",
            "tanggal_terbit": "2022-07-30",
            "url_tdpse_detail": "https://pse.komdigi.go.id/tdpse-detail/9418",
            "website": "pdv.co.id"
        },
        {
            "id": "9cb1abf8-359a-4321-8088-1dc27a8be0bd",
            "nama_pse": "NIKO JULIUS",
            "nama_se": "NIKOJULIUS.COM",
            "sektor": "Sektor Teknologi Informasi dan Komunikasi",
            "tanggal_terbit": "2022-07-30",
            "url_tdpse_detail": "https://pse.komdigi.go.id/tdpse-detail/9419",
            "website": "nikojulius.com"
        },
        {
            "id": "9cb1abd1-67ff-4736-b024-3938df41be56",
            "nama_pse": "WIRA INDUSTRI KREATIF",
            "nama_se": "WIKREA.CO.ID",
            "sektor": "Sektor Teknologi Informasi dan Komunikasi",
            "tanggal_terbit": "2022-07-30",
            "url_tdpse_detail": "https://pse.komdigi.go.id/tdpse-detail/9423",
            "website": "wikrea.co.id"
        },
        {
            "id": "9cb1abd1-70c9-4faf-a536-f1d8d8184d82",
            "nama_pse": "TER SOLUSINDO",
            "nama_se": "AIMSIS",
            "sektor": "Sektor Teknologi Informasi dan Komunikasi",
            "tanggal_terbit": "2022-07-30",
            "url_tdpse_detail": "https://pse.komdigi.go.id/tdpse-detail/9424",
            "website": "aimsis.com"
        },
        {
            "id": "9cb1abf6-da44-4277-baef-8c857270c1d7",
            "nama_pse": "JAYA",
            "nama_se": "JOY TRONIK",
            "sektor": "Sektor Perdagangan",
            "tanggal_terbit": "2022-07-30",
            "url_tdpse_detail": "https://pse.komdigi.go.id/tdpse-detail/9425",
            "website": "joytronik.com"
        },
        {
            "id": "9cb1abf6-dd57-460f-9a10-399a3b722858",
            "nama_pse": "RIZKI JAYA MAKMUR ABADI",
            "nama_se": "PERDAGANGAN ALAT ALAT WIFI",
            "sektor": "Sektor Perdagangan, Sektor Teknologi Informasi dan Komunikasi",
            "tanggal_terbit": "2022-07-30",
            "url_tdpse_detail": "https://pse.komdigi.go.id/tdpse-detail/9427",
            "website": "-"
        },
        {
            "id": "9cb1abf6-e137-4d6e-b005-8f781f9a849b",
            "nama_pse": "AKSARA DIGITAL INDONESIA",
            "nama_se": "EHEALTH.CO.ID",
            "sektor": "Sektor Kesehatan, Sektor Teknologi Informasi dan Komunikasi",
            "tanggal_terbit": "2022-07-30",
            "url_tdpse_detail": "https://pse.komdigi.go.id/tdpse-detail/9426",
            "website": "ehealth.co.id"
        },
        {
            "id": "9cb1abf6-e4fb-4331-aa66-37a244f50384",
            "nama_pse": "RIZKI JAYA MAKMUR ABADI",
            "nama_se": "CV RIZKI JAYA MAKMUR ABADI",
            "sektor": "Sektor Perdagangan, Sektor Teknologi Informasi dan Komunikasi",
            "tanggal_terbit": "2022-07-30",
            "url_tdpse_detail": "https://pse.komdigi.go.id/tdpse-detail/9428",
            "website": "-"
        },
        {
            "id": "9cb1abf6-e837-47de-af54-3a541fe1f680",
            "nama_pse": "APLIKANUSA LINTASARTA",
            "nama_se": "LINTASARTA CLOUDEKA",
            "sektor": "Sektor Teknologi Informasi dan Komunikasi",
            "tanggal_terbit": "2022-07-30",
            "url_tdpse_detail": "https://pse.komdigi.go.id/tdpse-detail/9429",
            "website": "cloudeka.id"
        },
        {
            "id": "9cb1abd1-7644-49ed-a684-2cebcd2cc311",
            "nama_pse": "PALUGADA VISIONER JASA",
            "nama_se": "KOMPUTER",
            "sektor": "Sektor Perdagangan, Sektor Teknologi Informasi dan Komunikasi",
            "tanggal_terbit": "2022-07-30",
            "url_tdpse_detail": "https://pse.komdigi.go.id/tdpse-detail/9430",
            "website": "-"
        },
        {
            "id": "9cb1abf8-3c3b-4f71-a313-5da49025652a",
            "nama_pse": "RIAU MEDIA PERS",
            "nama_se": "BERITARIAU.COM",
            "sektor": "Sektor Teknologi Informasi dan Komunikasi",
            "tanggal_terbit": "2022-07-30",
            "url_tdpse_detail": "https://pse.komdigi.go.id/tdpse-detail/9431",
            "website": "beritariau.com"
        },
        {
            "id": "9cb1abd1-7b6c-4bd4-970f-17289262c2ee",
            "nama_pse": "BUMI PERTIWI MANDIRI",
            "nama_se": "PPA\u0026K",
            "sektor": "Sektor Teknologi Informasi dan Komunikasi",
            "tanggal_terbit": "2022-07-30",
            "url_tdpse_detail": "https://pse.komdigi.go.id/tdpse-detail/9432",
            "website": "ppak.co.id"
        },
        {
            "id": "9cb1abf6-f03c-4058-947e-1954f23c016f",
            "nama_pse": "RIZKI JAYA MAKMUR ABADI",
            "nama_se": "JAGO.NET",
            "sektor": "Sektor Teknologi Informasi dan Komunikasi",
            "tanggal_terbit": "2022-07-30",
            "url_tdpse_detail": "https://pse.komdigi.go.id/tdpse-detail/9433",
            "website": "-"
        },
        {
            "id": "9cb1abf6-f38f-4563-a89b-14fa893aa833",
            "nama_pse": "ALFATH TEKNOLOGI KREATIF",
            "nama_se": "KELOLA.NET",
            "sektor": "Sektor Teknologi Informasi dan Komunikasi",
            "tanggal_terbit": "2022-07-30",
            "url_tdpse_detail": "https://pse.komdigi.go.id/tdpse-detail/9434",
            "website": "kelola.net"
        },
        {
            "id": "9cb1abd1-7f68-4efb-8334-30edf23507b4",
            "nama_pse": "ABDUL RACHMAT",
            "nama_se": "BANTUKAWAN.ID",
            "sektor": "Sektor Perdagangan, Sektor Teknologi Informasi dan Komunikasi",
            "tanggal_terbit": "2022-07-30",
            "url_tdpse_detail": "https://pse.komdigi.go.id/tdpse-detail/9435",
            "website": "bantukawan.id"
        },
        {
            "id": "9cb1abd1-8649-41e5-8674-33e66b565670",
            "nama_pse": "MUHAMMAD IDRIS",
            "nama_se": "SHEHOSTER WEB HOSTING",
            "sektor": "Sektor Teknologi Informasi dan Komunikasi",
            "tanggal_terbit": "2022-07-30",
            "url_tdpse_detail": "https://pse.komdigi.go.id/tdpse-detail/9437",
            "website": "shehoster.com"
        },
        {
            "id": "9cb1abf8-4036-4897-a7eb-37a2ae5a77d7",
            "nama_pse": "HALEYORA POWER",
            "nama_se": "LISTRIQU",
            "sektor": "Sektor Perdagangan",
            "tanggal_terbit": "2022-07-30",
            "url_tdpse_detail": "https://pse.komdigi.go.id/tdpse-detail/9438",
            "website": "listriqu.com"
        },
        {
            "id": "9cb1abf8-4382-4b9e-89e1-b729f3b449e6",
            "nama_pse": "DIGITAL WAKALAH SEJAHTERA",
            "nama_se": "WAKALAHMU",
            "sektor": "Sektor Keuangan",
            "tanggal_terbit": "2022-07-30",
            "url_tdpse_detail": "https://pse.komdigi.go.id/tdpse-detail/9439",
            "website": "wakalahmu.com"
        },
        {
            "id": "9cb1abd1-8cd5-44a6-8856-5d6ce16e1285",
            "nama_pse": "MECCA MUDA PERSADA",
            "nama_se": "DIGITALITY INC",
            "sektor": "Sektor Teknologi Informasi dan Komunikasi",
            "tanggal_terbit": "2022-07-30",
            "url_tdpse_detail": "https://pse.komdigi.go.id/tdpse-detail/9440",
            "website": "womanvpn.apeka.xyz"
        },
        {
            "id": "9cb1abf8-468f-4d09-b188-98474162e254",
            "nama_pse": "KHOIRULLOH",
            "nama_se": "ORCAVAN STUDIO",
            "sektor": "Sektor Teknologi Informasi dan Komunikasi",
            "tanggal_terbit": "2022-07-30",
            "url_tdpse_detail": "https://pse.komdigi.go.id/tdpse-detail/9441",
            "website": "orcavan.net"
        },
        {
            "id": "9cb1abf7-058f-494c-a635-6bc51dd536ec",
            "nama_pse": "SUARA BERITA INDONESIA",
            "nama_se": "SUARABERITAINDONESIA.COM",
            "sektor": "Sektor Teknologi Informasi dan Komunikasi",
            "tanggal_terbit": "2022-07-30",
            "url_tdpse_detail": "https://pse.komdigi.go.id/tdpse-detail/9442",
            "website": "suaraberitaindonesia.com"
        },
        {
            "id": "9cb1aba4-fa8f-4c50-b10a-7e51bf2a58a2",
            "nama_pse": "BEAM MOBILITY INDONESIA",
            "nama_se": "BEAM MOBILITY",
            "sektor": "Sektor Perdagangan",
            "tanggal_terbit": "2022-07-29",
            "url_tdpse_detail": "https://pse.komdigi.go.id/tdpse-detail/9358",
            "website": "ridebeam.com"
        },
        {
            "id": "9cb1aba5-1482-4902-88fb-e7b710720052",
            "nama_pse": "UNINET BHAKTINUSA",
            "nama_se": "PASANG IKLAN",
            "sektor": "Sektor Perdagangan, Sektor Teknologi Informasi dan Komunikasi",
            "tanggal_terbit": "2022-07-29",
            "url_tdpse_detail": "https://pse.komdigi.go.id/tdpse-detail/9380",
            "website": "pasangiklan.com"
        },
        {
            "id": "9cb1abf6-457b-47f9-9035-5533a1522256",
            "nama_pse": "IZAUNET BERKAH MANDIRI",
            "nama_se": "HTTPS://IZAUNET,COM/",
            "sektor": "Sektor Perdagangan",
            "tanggal_terbit": "2022-07-29",
            "url_tdpse_detail": "https://pse.komdigi.go.id/tdpse-detail/9349",
            "website": "izaunet.com"
        },
        {
            "id": "9cb1abf6-4863-4934-887a-fc1c1b2ee67a",
            "nama_pse": "ASURANSI SINAR MAS",
            "nama_se": "APLIKASI PEGA TRAINING PEGATRAINING.SINARMAS.CO.ID",
            "sektor": "Sektor Keuangan",
            "tanggal_terbit": "2022-07-29",
            "url_tdpse_detail": "https://pse.komdigi.go.id/tdpse-detail/9345",
            "website": "sinarmas.co.id"
        },
        {
            "id": "9cb1abf6-4cca-4a62-a73b-dad5a75d2135",
            "nama_pse": "SEJUK ELEKTRONIK COM",
            "nama_se": "SELKA ID",
            "sektor": "Sektor Perdagangan",
            "tanggal_terbit": "2022-07-29",
            "url_tdpse_detail": "https://pse.komdigi.go.id/tdpse-detail/9346",
            "website": "selka.id"
        },
        {
            "id": "9cb1abf6-51da-4ae5-b116-06c45dac75b1",
            "nama_pse": "SOLUSI TEKNOLOGI KOMPUTER",
            "nama_se": "MY SPENTURA",
            "sektor": "Sektor Teknologi Informasi dan Komunikasi",
            "tanggal_terbit": "2022-07-29",
            "url_tdpse_detail": "https://pse.komdigi.go.id/tdpse-detail/9347",
            "website": "spentura.com"
        }
    ],
    "processingTimeMs": 3,
    "query": "",
    "totalHits": 19131,
    "hitsPerPage": 50,
    "page": 214,
    "totalPages": 383
}