{
    "hits": [
        {
            "id": "9cb1abc9-c06d-4eda-b3da-a31006dff67f",
            "nama_pse": "BANK PERKREDITAN RAKYAT CENTRAL ARTHA",
            "nama_se": "OFFICIAL WEBSITE BPR CENTRAL ARTHA",
            "sektor": "Sektor Teknologi Informasi dan Komunikasi",
            "tanggal_terbit": "2022-07-21",
            "url_tdpse_detail": "https://pse.komdigi.go.id/tdpse-detail/8396",
            "website": "bprcentralartha.com"
        },
        {
            "id": "9cb1abef-c2cc-43ac-b7fa-72dc5712c7fa",
            "nama_pse": "BANK PEREKONOMIAN RAKYAT NUSAMBA KUBUTAMBAHAN",
            "nama_se": "BPR NUSAMBA KUBUTAMBAHAN",
            "sektor": "Sektor Keuangan",
            "tanggal_terbit": "2022-07-21",
            "url_tdpse_detail": "https://pse.komdigi.go.id/tdpse-detail/8416",
            "website": "bprnusamba-kubutambahan.co.id"
        },
        {
            "id": "9cb1abef-c6f5-4d63-89d1-75807c0c173f",
            "nama_pse": "AKU CINTA MEMILES",
            "nama_se": "META WATER",
            "sektor": "Sektor Perdagangan",
            "tanggal_terbit": "2022-07-21",
            "url_tdpse_detail": "https://pse.komdigi.go.id/tdpse-detail/8398",
            "website": "metawater.id"
        },
        {
            "id": "9cb1abbb-7787-41dc-ad60-730aefda28f4",
            "nama_pse": "HARSA REVOLUSI NUSANTARA",
            "nama_se": "DENGER-IND",
            "sektor": "Sektor Kesehatan, Sektor Teknologi Informasi dan Komunikasi",
            "tanggal_terbit": "2022-07-21",
            "url_tdpse_detail": "https://pse.komdigi.go.id/tdpse-detail/8399",
            "website": "dengerind.com"
        },
        {
            "id": "9cb1abc9-c4b1-4628-8df9-58545c05805d",
            "nama_pse": "BANK PERKREDITAN RAKYAT TANJUNG TANI",
            "nama_se": "BPR TANJUNG TANI",
            "sektor": "Sektor Keuangan",
            "tanggal_terbit": "2022-07-21",
            "url_tdpse_detail": "https://pse.komdigi.go.id/tdpse-detail/8400",
            "website": "bprtanjungtani.co.id"
        },
        {
            "id": "9cb1abbb-79f9-4d5f-89ba-53d387e9b7e8",
            "nama_pse": "MAHADA GROUP INTERNASIONAL",
            "nama_se": "PT MAHADA GROUP INTERNASIONAL",
            "sektor": "Sektor Perdagangan",
            "tanggal_terbit": "2022-07-21",
            "url_tdpse_detail": "https://pse.komdigi.go.id/tdpse-detail/8412",
            "website": "mahada.co.id"
        },
        {
            "id": "9cb1abc9-c8f0-4798-974d-4eca5c020118",
            "nama_pse": "BANK PEREKONOMIAN RAKYAT PARO DANA",
            "nama_se": "PT. BPR PARO DANA",
            "sektor": "Sektor Keuangan",
            "tanggal_terbit": "2022-07-21",
            "url_tdpse_detail": "https://pse.komdigi.go.id/tdpse-detail/8401",
            "website": "-"
        },
        {
            "id": "9cb1abef-cb25-496b-ae0a-70c9e3a80bd5",
            "nama_pse": "BANK PERKREDITAN RAKYAT BADAN KREDIT KECAMATAN KOTA SEMARANG PERSERODA",
            "nama_se": "PT. BPR BKK KOTA SEMARANG (PERSERODA)",
            "sektor": "Sektor Keuangan",
            "tanggal_terbit": "2022-07-21",
            "url_tdpse_detail": "https://pse.komdigi.go.id/tdpse-detail/8402",
            "website": "kotasemarang.co.id"
        },
        {
            "id": "9cb1abc9-cdb8-4ec4-a6b5-34864fa57a41",
            "nama_pse": "BANK PERKREDITAN RAKYAT BANK DAERAH KUDUS PERSERODA",
            "nama_se": "PINTECH CORE BANKING SYSTEM",
            "sektor": "Sektor Keuangan",
            "tanggal_terbit": "2022-07-21",
            "url_tdpse_detail": "https://pse.komdigi.go.id/tdpse-detail/8404",
            "website": "-"
        },
        {
            "id": "9cb1abbb-7c0e-40c1-ac96-41b8197eb9e4",
            "nama_pse": "PERUMDA BPR BINTAN",
            "nama_se": "WEBSITE BPR BINTAN",
            "sektor": "Sektor Keuangan",
            "tanggal_terbit": "2022-07-21",
            "url_tdpse_detail": "https://pse.komdigi.go.id/tdpse-detail/8405",
            "website": "-"
        },
        {
            "id": "9cb1abbb-7dec-48e3-ac21-70ceb6976e4b",
            "nama_pse": "ALLPROPERTY MEDIA",
            "nama_se": "RUMAH.COM",
            "sektor": "Sektor Perdagangan",
            "tanggal_terbit": "2022-07-21",
            "url_tdpse_detail": "https://pse.komdigi.go.id/tdpse-detail/8425",
            "website": "rumah.com"
        },
        {
            "id": "9cb1abc9-d491-420f-88f3-c60dbafea75b",
            "nama_pse": "INDONUSA TELEMEDIA",
            "nama_se": "TRINVI",
            "sektor": "Sektor Perdagangan",
            "tanggal_terbit": "2022-07-21",
            "url_tdpse_detail": "https://pse.komdigi.go.id/tdpse-detail/8648",
            "website": "trinvi.com"
        },
        {
            "id": "9cb1abc9-db67-4b49-9446-9809e667d8af",
            "nama_pse": "BANK PEREKONOMIAN RAKYAT TATA ASIA",
            "nama_se": "CORE BANKING TATA ASIA",
            "sektor": "Sektor Keuangan",
            "tanggal_terbit": "2022-07-21",
            "url_tdpse_detail": "https://pse.komdigi.go.id/tdpse-detail/8408",
            "website": "datasolusi.net"
        },
        {
            "id": "9cb1abef-cfb4-4b8c-8bd8-85cc9a10a35e",
            "nama_pse": "MUHAMMAD LUQMAN AL HAKIM",
            "nama_se": "LUQMANTRONIK",
            "sektor": "Sektor Perdagangan",
            "tanggal_terbit": "2022-07-21",
            "url_tdpse_detail": "https://pse.komdigi.go.id/tdpse-detail/8407",
            "website": "luqmantronik.com"
        },
        {
            "id": "9cb1abc9-e968-440a-a85f-af5ec740ae76",
            "nama_pse": "ASURANSI ALLIANZ LIFE INDONESIA",
            "nama_se": "ALLIANZ SMART POINT",
            "sektor": "Sektor Keuangan",
            "tanggal_terbit": "2022-07-21",
            "url_tdpse_detail": "https://pse.komdigi.go.id/tdpse-detail/8414",
            "website": "alacards.id"
        },
        {
            "id": "9cb1abef-d3c8-4939-ad52-a62ab0adec09",
            "nama_pse": "BANK PERKREDITAN RAKYAT MANGUN PUNDIYASA",
            "nama_se": "BANK PERKREDITAN RAKYAT",
            "sektor": "Sektor Keuangan",
            "tanggal_terbit": "2022-07-21",
            "url_tdpse_detail": "https://pse.komdigi.go.id/tdpse-detail/8409",
            "website": "bprmangunpundiyasa.co.id"
        },
        {
            "id": "9cb1abf0-0ae4-4301-b6c4-b4797a54ca7b",
            "nama_pse": "PERUSAHAAN PERSEROAN (PERSERO) PT. BANK RAKYAT INDONESIA",
            "nama_se": "WEBSITE KORPORAT BRI",
            "sektor": "Sektor Keuangan, Sektor Teknologi Informasi dan Komunikasi",
            "tanggal_terbit": "2022-07-21",
            "url_tdpse_detail": "https://pse.komdigi.go.id/tdpse-detail/8410",
            "website": "bri.co.id"
        },
        {
            "id": "9cb1abc9-f10d-416d-8594-b0c9dceb7a1e",
            "nama_pse": "GAHAR INOVASI ABADI",
            "nama_se": "IZY SHOP - MALLTOGO",
            "sektor": "Sektor Teknologi Informasi dan Komunikasi",
            "tanggal_terbit": "2022-07-21",
            "url_tdpse_detail": "https://pse.komdigi.go.id/tdpse-detail/8411",
            "website": "malltogo.izy.ai"
        },
        {
            "id": "9cb1abf0-0e3c-4be9-a1d9-4120fcce44fc",
            "nama_pse": "BANK PERKREDITAN RAKYAT CAHAYA WIRAPUTRA",
            "nama_se": "SITUS BPR CAHAYA WIRAPUTRA",
            "sektor": "Sektor Keuangan",
            "tanggal_terbit": "2022-07-21",
            "url_tdpse_detail": "https://pse.komdigi.go.id/tdpse-detail/8413",
            "website": "bprcahayawiraputra.wordpress.com"
        },
        {
            "id": "9cb1abc9-f74f-4239-8d25-26dc8e528ac3",
            "nama_pse": "MYECO TEKNOLOGI NUSANTARA",
            "nama_se": "APLIKASI MYECO",
            "sektor": "Sektor Teknologi Informasi dan Komunikasi",
            "tanggal_terbit": "2022-07-21",
            "url_tdpse_detail": "https://pse.komdigi.go.id/tdpse-detail/8415",
            "website": "myeco.id"
        },
        {
            "id": "9cb1abbb-8025-46cd-be65-10efcbbf5028",
            "nama_pse": "ANEKA MEDIA",
            "nama_se": "MYMAGZ.NET",
            "sektor": "Sektor Teknologi Informasi dan Komunikasi",
            "tanggal_terbit": "2022-07-21",
            "url_tdpse_detail": "https://pse.komdigi.go.id/tdpse-detail/8417",
            "website": "mymagz.net"
        },
        {
            "id": "9cb1abf0-1168-42a9-9b40-185099a25786",
            "nama_pse": "FATAHUDDIN AL ISFAHANI",
            "nama_se": "VIX MEDIA",
            "sektor": "Sektor Teknologi Informasi dan Komunikasi",
            "tanggal_terbit": "2022-07-21",
            "url_tdpse_detail": "https://pse.komdigi.go.id/tdpse-detail/8418",
            "website": "vixmedia.id"
        },
        {
            "id": "9cb1abc9-fc3e-4b35-8360-006da7bc1ab0",
            "nama_pse": "BANK PERKREDITAN RAKYAT TANJUNG TANI",
            "nama_se": "BPRTANJUNGTANI.CO.ID",
            "sektor": "Sektor Keuangan",
            "tanggal_terbit": "2022-07-21",
            "url_tdpse_detail": "https://pse.komdigi.go.id/tdpse-detail/8419",
            "website": "bprtanjungtani.co.id"
        },
        {
            "id": "9cb1abca-00cc-40ab-9f9f-608a9ec0ec7b",
            "nama_pse": "ISTANA MITRA SENDANY",
            "nama_se": "HONDA MITRA MOJOKERTO",
            "sektor": "Sektor Perdagangan",
            "tanggal_terbit": "2022-07-21",
            "url_tdpse_detail": "https://pse.komdigi.go.id/tdpse-detail/8420",
            "website": "hondamitramojokerto.com"
        },
        {
            "id": "9cb1abf0-1688-432e-ae51-06892ad81e22",
            "nama_pse": "BANK PEREKONOMIAN RAKYAT TATA ANJUNG SARI",
            "nama_se": "PT. BANK PERKREDITAN RAKYAT TATA ANJUNG SARI",
            "sektor": "Sektor Keuangan",
            "tanggal_terbit": "2022-07-21",
            "url_tdpse_detail": "https://pse.komdigi.go.id/tdpse-detail/8423",
            "website": "bprtata.com"
        },
        {
            "id": "9cb1abbb-835d-43f4-af09-503db6c5975a",
            "nama_pse": "INCORE SYSTEMS SOLUTIONS",
            "nama_se": "ALAYKA",
            "sektor": "Sektor Teknologi Informasi dan Komunikasi",
            "tanggal_terbit": "2022-07-21",
            "url_tdpse_detail": "https://pse.komdigi.go.id/tdpse-detail/8421",
            "website": "alayka.com"
        },
        {
            "id": "9cb1abbb-8602-4634-884d-ded21e630db0",
            "nama_pse": "FATAHUDDIN AL ISFAHANI",
            "nama_se": "VERTIX",
            "sektor": "Sektor Teknologi Informasi dan Komunikasi",
            "tanggal_terbit": "2022-07-21",
            "url_tdpse_detail": "https://pse.komdigi.go.id/tdpse-detail/8422",
            "website": "vertix.id"
        },
        {
            "id": "9cb1abca-0589-48ba-924b-8181ca8e1107",
            "nama_pse": "BANK PEREKONOMIAN RAKYAT NUSAMBA MANGGIS",
            "nama_se": "PT BANK PERKEREDITAN RAKYAT NUSAMBA MANGGIS",
            "sektor": "Sektor Keuangan",
            "tanggal_terbit": "2022-07-21",
            "url_tdpse_detail": "https://pse.komdigi.go.id/tdpse-detail/8424",
            "website": "bprnusamba-manggis.com"
        },
        {
            "id": "9cb1abf0-1b76-4296-a958-096a072cffaa",
            "nama_pse": "POPULIX INFORMASI TEKNOLOGI",
            "nama_se": "POPULIX",
            "sektor": "Sektor Perdagangan, Sektor Teknologi Informasi dan Komunikasi",
            "tanggal_terbit": "2022-07-21",
            "url_tdpse_detail": "https://pse.komdigi.go.id/tdpse-detail/8452",
            "website": "populix.co"
        },
        {
            "id": "9cb1abbb-8843-4af7-8f4f-d7cb5983a65b",
            "nama_pse": "HURIJAYA KREASI DIGITAL",
            "nama_se": "PUSVO",
            "sektor": "Sektor Perdagangan",
            "tanggal_terbit": "2022-07-21",
            "url_tdpse_detail": "https://pse.komdigi.go.id/tdpse-detail/8427",
            "website": "pusvo.com"
        },
        {
            "id": "9cb1abca-145c-47d5-9477-4e168861a6c2",
            "nama_pse": "BANK PERKREDITAN RAKYAT RAKYAT MANDIRI",
            "nama_se": "IBS COREBANKING",
            "sektor": "Sektor Keuangan",
            "tanggal_terbit": "2022-07-21",
            "url_tdpse_detail": "https://pse.komdigi.go.id/tdpse-detail/8428",
            "website": "-"
        },
        {
            "id": "9cb1abca-1ade-4a41-a340-ee01cffd3c4a",
            "nama_pse": "BANK PERKREDITAN RAKYAT BUNGA SUTRA MAS",
            "nama_se": "BANKING SMART SYSTEM",
            "sektor": "Sektor Keuangan",
            "tanggal_terbit": "2022-07-21",
            "url_tdpse_detail": "https://pse.komdigi.go.id/tdpse-detail/8430",
            "website": "bprsutra.com"
        },
        {
            "id": "9cb1abbb-8a92-4a01-a34f-d8f9f3365189",
            "nama_pse": "BANK PERKREDITAN RAKYAT HARAPAN SAUDARA",
            "nama_se": "WEB BPR HARAPAN SAUDARA",
            "sektor": "Sektor Keuangan",
            "tanggal_terbit": "2022-07-21",
            "url_tdpse_detail": "https://pse.komdigi.go.id/tdpse-detail/8431",
            "website": "bprhs.co.id"
        },
        {
            "id": "9cb1abf0-2804-4235-a767-e7c105dc6b38",
            "nama_pse": "STUDIO KAMI MANDIRI",
            "nama_se": "SHUCADA",
            "sektor": "Sektor Teknologi Informasi dan Komunikasi",
            "tanggal_terbit": "2022-07-21",
            "url_tdpse_detail": "https://pse.komdigi.go.id/tdpse-detail/8495",
            "website": "shucada.com"
        },
        {
            "id": "9cb1abf0-2c36-4d55-8b08-0b94a4d9a623",
            "nama_pse": "BANK PEREKONOMIAN RAKYAT ENGGAL MAKMUR ADI SANTOSO",
            "nama_se": "EMAS MOBILE",
            "sektor": "Sektor Keuangan",
            "tanggal_terbit": "2022-07-21",
            "url_tdpse_detail": "https://pse.komdigi.go.id/tdpse-detail/8432",
            "website": "-"
        },
        {
            "id": "9cb1abbb-939f-4b41-8c50-2f02d1edd31d",
            "nama_pse": "BANK PERKREDITAN RAKYAT KUTA BUMI SIDOMUKTI",
            "nama_se": "WEBSITE BPR",
            "sektor": "Sektor Keuangan",
            "tanggal_terbit": "2022-07-21",
            "url_tdpse_detail": "https://pse.komdigi.go.id/tdpse-detail/8433",
            "website": "bprkutabumisidomukti.co.id"
        },
        {
            "id": "9cb1abbb-9671-4da8-9be6-d17abede8b22",
            "nama_pse": "BANK PERKREDITAN RAKYAT MITRA BALIJAYA MANDIRI",
            "nama_se": "PT. BPR MITRA BALIJAYA MANDIRI",
            "sektor": "Sektor Keuangan",
            "tanggal_terbit": "2022-07-21",
            "url_tdpse_detail": "https://pse.komdigi.go.id/tdpse-detail/8434",
            "website": "bprbalijayamandiri.com"
        },
        {
            "id": "9cb1abf0-3001-4166-95c6-84fa934a983f",
            "nama_pse": "RUANG RAYA INDONESIA",
            "nama_se": "SKILLACADEMY",
            "sektor": "Sektor Perdagangan, Sektor Teknologi Informasi dan Komunikasi",
            "tanggal_terbit": "2022-07-21",
            "url_tdpse_detail": "https://pse.komdigi.go.id/tdpse-detail/8436",
            "website": "skillacademy.com"
        },
        {
            "id": "9cb1abbb-995b-45ae-9b61-31bcd25ce948",
            "nama_pse": "BPR KARYA UTAMA JABAR",
            "nama_se": "WEBSITE PT BPR KARYA UTAMA JABAR",
            "sektor": "Sektor Keuangan",
            "tanggal_terbit": "2022-07-21",
            "url_tdpse_detail": "https://pse.komdigi.go.id/tdpse-detail/8435",
            "website": "bprku.com"
        },
        {
            "id": "9cb1abbb-9b7c-4e3a-95b6-d2ee65464f5e",
            "nama_pse": "SAMSUNG ELECTRONICS INDONESIA",
            "nama_se": "SALAAM",
            "sektor": "Sektor Teknologi Informasi dan Komunikasi",
            "tanggal_terbit": "2022-07-21",
            "url_tdpse_detail": "https://pse.komdigi.go.id/tdpse-detail/8438",
            "website": "-"
        },
        {
            "id": "9cb1abf0-3525-4954-83dc-a14557bd97a0",
            "nama_pse": "KASIR PINTAR INTERNASIONAL",
            "nama_se": "KASIR PINTAR",
            "sektor": "Sektor Perdagangan",
            "tanggal_terbit": "2022-07-21",
            "url_tdpse_detail": "https://pse.komdigi.go.id/tdpse-detail/8514",
            "website": "kasirpintar.co.id"
        },
        {
            "id": "9cb1abca-2166-40f6-b6e5-a26f90f43944",
            "nama_pse": "BANK PERKREDITAN RAKYAT BALI ARTHA ANUGRAH",
            "nama_se": "BPRANUGRAH.COM",
            "sektor": "Sektor Keuangan",
            "tanggal_terbit": "2022-07-21",
            "url_tdpse_detail": "https://pse.komdigi.go.id/tdpse-detail/8439",
            "website": "bpranugrah.com"
        },
        {
            "id": "9cb1abbb-9da1-4b3e-9545-26d1579b787d",
            "nama_pse": "SAMUEL SEKURITAS INDONESIA",
            "nama_se": "SAHAM RAKYAT (SUR)",
            "sektor": "Sektor Keuangan",
            "tanggal_terbit": "2022-07-21",
            "url_tdpse_detail": "https://pse.komdigi.go.id/tdpse-detail/8440",
            "website": "sahamrakyat.com"
        },
        {
            "id": "9cb1abf0-389f-4808-9723-f6ae9c50b035",
            "nama_pse": "BANK PERKREDITAN RAKYAT SARI SEDANA",
            "nama_se": "IBS CORE BANKING SYSTEM",
            "sektor": "Sektor Keuangan",
            "tanggal_terbit": "2022-07-21",
            "url_tdpse_detail": "https://pse.komdigi.go.id/tdpse-detail/8442",
            "website": "banksarisedana.com"
        },
        {
            "id": "9cb1abf0-3ccd-49f6-b87b-1d8ae97e5ced",
            "nama_pse": "BANK PERKREDITAN RAKYAT SURYAJAYA KUBUTAMBAHAN",
            "nama_se": "PT BPR SURYAJAYA KUBUTAMBAHAN",
            "sektor": "Sektor Keuangan",
            "tanggal_terbit": "2022-07-21",
            "url_tdpse_detail": "https://pse.komdigi.go.id/tdpse-detail/8441",
            "website": "bprsuryajaya.com"
        },
        {
            "id": "9cb1abbb-9fba-4704-8b88-45dada72c92b",
            "nama_pse": "BANK PERKREDITAN RAKYAT PRIMA MULTI MAKMUR",
            "nama_se": "WEBSITE",
            "sektor": "Sektor Keuangan, Sektor Teknologi Informasi dan Komunikasi",
            "tanggal_terbit": "2022-07-21",
            "url_tdpse_detail": "https://pse.komdigi.go.id/tdpse-detail/8443",
            "website": "bprprimamultimakmur.blogspot.com"
        },
        {
            "id": "9cb1abf0-4060-4944-8df3-89d94b326ad7",
            "nama_pse": "QEON INTERACTIVE",
            "nama_se": "RRQ",
            "sektor": "Sektor Teknologi Informasi dan Komunikasi",
            "tanggal_terbit": "2022-07-21",
            "url_tdpse_detail": "https://pse.komdigi.go.id/tdpse-detail/8445",
            "website": "teamrrq.com"
        },
        {
            "id": "9cb1abca-3371-4356-a48e-c949a7eb8eff",
            "nama_pse": "BANK PEREKONOMIAN RAKYAT LOPOKGANDA",
            "nama_se": "PT. BANK PERKREDITAN RAKYAT LOPOK GANDA",
            "sektor": "Sektor Keuangan",
            "tanggal_terbit": "2022-07-21",
            "url_tdpse_detail": "https://pse.komdigi.go.id/tdpse-detail/8444",
            "website": "-"
        },
        {
            "id": "9cb1abca-3be3-4f5a-bcbe-2e8234876e69",
            "nama_pse": "VEXANIUM TEKNOLOGI NUSANTARA",
            "nama_se": "VEXANIUM",
            "sektor": "Sektor Teknologi Informasi dan Komunikasi",
            "tanggal_terbit": "2022-07-21",
            "url_tdpse_detail": "https://pse.komdigi.go.id/tdpse-detail/8446",
            "website": "vexanium.com"
        },
        {
            "id": "9cb1abf0-4370-4773-9145-1472c0a9c823",
            "nama_pse": "BANK PERKREDITAN RAKYAT CITRA DARMA WANGSA",
            "nama_se": "BANK PERKREDITAN RAKYAT CITRA DARMA WANGSA",
            "sektor": "Sektor Keuangan",
            "tanggal_terbit": "2022-07-21",
            "url_tdpse_detail": "https://pse.komdigi.go.id/tdpse-detail/8448",
            "website": "bprcitradarmawangsa.com"
        }
    ],
    "processingTimeMs": 4,
    "query": "",
    "totalHits": 19121,
    "hitsPerPage": 50,
    "page": 227,
    "totalPages": 383
}