{
    "hits": [
        {
            "id": "9cb1ab69-0b8c-433c-8eb5-50a3ad7472ee",
            "nama_pse": "ZIPMEX EXCHANGE INDONESIA",
            "nama_se": "ZIPMEX EXCHANGE",
            "sektor": "Sektor Keuangan, Sektor Keuangan, Sektor Keuangan",
            "tanggal_terbit": "2021-07-27",
            "url_tdpse_detail": "https://pse.komdigi.go.id/tdpse-detail/1784",
            "website": "zipmex.com/id/"
        },
        {
            "id": "9cb1ab75-c9c7-4ecb-af3e-75c3664998d0",
            "nama_pse": "KARYA INDONESIA CERDAS",
            "nama_se": "KARYA INDONESIA CERDAS",
            "sektor": "Sektor Teknologi Informasi dan Komunikasi, Sektor Teknologi Informasi dan Komunikasi",
            "tanggal_terbit": "2021-07-27",
            "url_tdpse_detail": "https://pse.komdigi.go.id/tdpse-detail/1785",
            "website": "karya-indonesia-cerdas.com"
        },
        {
            "id": "9cb1ab69-2083-4cda-99c2-b333ac8da5bc",
            "nama_pse": "ROUTE MOBILE INDONESIA",
            "nama_se": "ROUTE MOBILE",
            "sektor": "Sektor Teknologi Informasi dan Komunikasi, Sektor Teknologi Informasi dan Komunikasi",
            "tanggal_terbit": "2021-07-27",
            "url_tdpse_detail": "https://pse.komdigi.go.id/tdpse-detail/1789",
            "website": "routemobile.com"
        },
        {
            "id": "9cb1ab7c-f0b8-437f-91ca-b7ec62fb47af",
            "nama_pse": "SMARTFREN TELECOM",
            "nama_se": "MYLINK",
            "sektor": "Sektor Perdagangan, Sektor Perdagangan, Sektor Perdagangan, Sektor Perdagangan, Sektor Teknologi Informasi dan Komunikasi, Sektor Teknologi Informasi dan Komunikasi, Sektor Teknologi Informasi dan Komunikasi, Sektor Teknologi Informasi dan Komunikasi",
            "tanggal_terbit": "2021-07-27",
            "url_tdpse_detail": "https://pse.komdigi.go.id/tdpse-detail/1779",
            "website": "-"
        },
        {
            "id": "9cb1ab84-f78c-40b0-a177-e73f34b727f8",
            "nama_pse": "SMARTFREN TELECOM",
            "nama_se": "SMARTMUSIC",
            "sektor": "Sektor Perdagangan, Sektor Perdagangan, Sektor Perdagangan, Sektor Perdagangan, Sektor Teknologi Informasi dan Komunikasi, Sektor Teknologi Informasi dan Komunikasi, Sektor Teknologi Informasi dan Komunikasi, Sektor Teknologi Informasi dan Komunikasi",
            "tanggal_terbit": "2021-07-27",
            "url_tdpse_detail": "https://pse.komdigi.go.id/tdpse-detail/1780",
            "website": "-"
        },
        {
            "id": "9cb1ab85-04d9-43c2-a965-c8426b4603ac",
            "nama_pse": "SMARTFREN TELECOM",
            "nama_se": "MYSF",
            "sektor": "Sektor Perdagangan, Sektor Perdagangan, Sektor Perdagangan, Sektor Perdagangan, Sektor Teknologi Informasi dan Komunikasi, Sektor Teknologi Informasi dan Komunikasi, Sektor Teknologi Informasi dan Komunikasi, Sektor Teknologi Informasi dan Komunikasi",
            "tanggal_terbit": "2021-07-27",
            "url_tdpse_detail": "https://pse.komdigi.go.id/tdpse-detail/1781",
            "website": "my.smartfren.com/"
        },
        {
            "id": "9cb1ab7c-f310-46b8-99b5-4a9b24f51562",
            "nama_pse": "SMARTFREN TELECOM",
            "nama_se": "UANGKU",
            "sektor": "Sektor Keuangan, Sektor Keuangan, Sektor Keuangan, Sektor Keuangan",
            "tanggal_terbit": "2021-07-27",
            "url_tdpse_detail": "https://pse.komdigi.go.id/tdpse-detail/1783",
            "website": "uangku.co.id/"
        },
        {
            "id": "9cb1ab7d-c451-484c-b1eb-00a6abc7a1c7",
            "nama_pse": "EBELAJAR SEMESTA RAYA",
            "nama_se": "E-BELAJAR",
            "sektor": "Sektor Perdagangan, Sektor Perdagangan, Sektor Teknologi Informasi dan Komunikasi, Sektor Teknologi Informasi dan Komunikasi",
            "tanggal_terbit": "2021-07-27",
            "url_tdpse_detail": "https://pse.komdigi.go.id/tdpse-detail/1768",
            "website": "http://e-belajar.id"
        },
        {
            "id": "9cb1aba9-61c7-4799-9215-84f883b6b0ea",
            "nama_pse": "TRIPUTRA TEKNO SOLUSINDO",
            "nama_se": "KEREM",
            "sektor": "Sektor Teknologi Informasi dan Komunikasi",
            "tanggal_terbit": "2021-07-27",
            "url_tdpse_detail": "https://pse.komdigi.go.id/tdpse-detail/1778",
            "website": "kerem.id"
        },
        {
            "id": "9cb1abae-0a75-475a-bd4c-9bb5ead1100a",
            "nama_pse": "Lumen Teknoindo",
            "nama_se": "ABDI DESA",
            "sektor": "Sektor Teknologi Informasi dan Komunikasi",
            "tanggal_terbit": "2021-07-27",
            "url_tdpse_detail": "https://pse.komdigi.go.id/tdpse-detail/4780",
            "website": "abdidesa.id"
        },
        {
            "id": "9cb1ab71-253b-4c31-826c-771b2f112331",
            "nama_pse": "PRIMACOM INTERBUANA",
            "nama_se": "EXPRESS WIFI BY PRIMACOM",
            "sektor": "Sektor Teknologi Informasi dan Komunikasi, Sektor Teknologi Informasi dan Komunikasi",
            "tanggal_terbit": "2021-07-22",
            "url_tdpse_detail": "https://pse.komdigi.go.id/tdpse-detail/1748",
            "website": "primacom-id.expresswifi.com"
        },
        {
            "id": "9cb1ab71-2dd4-4398-b329-9eb3ae0b19ae",
            "nama_pse": "SWADAYA REKSABUMI INVESTAMA",
            "nama_se": "SWADAYA",
            "sektor": "Sektor Keuangan, Sektor Keuangan",
            "tanggal_terbit": "2021-07-22",
            "url_tdpse_detail": "https://pse.komdigi.go.id/tdpse-detail/1740",
            "website": "swadaya.id"
        },
        {
            "id": "9cb1ab64-346b-4315-81a8-d12b604bb153",
            "nama_pse": "VISI TEKNO FARMA PERSADA",
            "nama_se": "FARMASEE",
            "sektor": "Sektor Kesehatan, Sektor Kesehatan",
            "tanggal_terbit": "2021-07-22",
            "url_tdpse_detail": "https://pse.komdigi.go.id/tdpse-detail/1742",
            "website": "farmasee.id"
        },
        {
            "id": "9cb1ab72-a001-48d2-a437-31016fa3cfde",
            "nama_pse": "KAGUM TEKNOLOGI INDONESIA",
            "nama_se": "KAGUM TEKNOLOGI INDONESIA",
            "sektor": "Sektor Perdagangan, Sektor Perdagangan, Sektor Perdagangan",
            "tanggal_terbit": "2021-07-22",
            "url_tdpse_detail": "https://pse.komdigi.go.id/tdpse-detail/1732",
            "website": "ptkagumteknologiindonesia.com"
        },
        {
            "id": "9cb1ab66-6807-4e2d-8d7e-8a1798f9cb3e",
            "nama_pse": "INA PRODUK INDONESIA",
            "nama_se": "INAPRODUCT",
            "sektor": "Sektor Perdagangan, Sektor Perdagangan",
            "tanggal_terbit": "2021-07-22",
            "url_tdpse_detail": "https://pse.komdigi.go.id/tdpse-detail/1730",
            "website": "inaproduct.com"
        },
        {
            "id": "9cb1ab74-890a-4000-ae72-1e10a2ecaac0",
            "nama_pse": "INVESNOW PRINCIPAL OPTIMA",
            "nama_se": "INVESNOW",
            "sektor": "Sektor Keuangan, Sektor Keuangan, Sektor Keuangan, Sektor Keuangan",
            "tanggal_terbit": "2021-07-22",
            "url_tdpse_detail": "https://pse.komdigi.go.id/tdpse-detail/1763",
            "website": "investamart.com"
        },
        {
            "id": "9cb1ab74-9a73-4268-814a-81b3fa051560",
            "nama_pse": "PERUSAHAAN PERSEROAN (PERSERO) PT. POS INDONESIA",
            "nama_se": "POSPAY",
            "sektor": "Sektor Keuangan, Sektor Keuangan, Sektor Teknologi Informasi dan Komunikasi, Sektor Teknologi Informasi dan Komunikasi",
            "tanggal_terbit": "2021-07-22",
            "url_tdpse_detail": "https://pse.komdigi.go.id/tdpse-detail/1735",
            "website": "posindonesia.co.id"
        },
        {
            "id": "9cb1ab68-4522-4655-821e-e7bc71f4dd47",
            "nama_pse": "SUMBER MEGA JAYA",
            "nama_se": "MEGAJAYA.CO.ID",
            "sektor": "Sektor Perdagangan, Sektor Perdagangan, Sektor Perdagangan",
            "tanggal_terbit": "2021-07-22",
            "url_tdpse_detail": "https://pse.komdigi.go.id/tdpse-detail/1734",
            "website": "megajaya.co.id"
        },
        {
            "id": "9cb1ab68-4e5d-4b26-b1ec-7703c0cdaf18",
            "nama_pse": "TRITAMA GEMILANG SUKSES",
            "nama_se": "ARSITAG",
            "sektor": "Sektor Teknologi Informasi dan Komunikasi, Sektor Teknologi Informasi dan Komunikasi, Sektor Teknologi Informasi dan Komunikasi",
            "tanggal_terbit": "2021-07-22",
            "url_tdpse_detail": "https://pse.komdigi.go.id/tdpse-detail/1741",
            "website": "arsitag.com"
        },
        {
            "id": "9cb1ab75-0ef6-4194-8c43-0c7d2b7dc372",
            "nama_pse": "TIGA BERUANG KALIFORNIA",
            "nama_se": "WARESIX TMS",
            "sektor": "Sektor Transportasi, Sektor Transportasi, Sektor Transportasi",
            "tanggal_terbit": "2021-07-22",
            "url_tdpse_detail": "https://pse.komdigi.go.id/tdpse-detail/1767",
            "website": "waresix.com"
        },
        {
            "id": "9cb1ab75-13f3-40aa-a25c-252ab8304cd6",
            "nama_pse": "MATCHMOVE INDONESIA",
            "nama_se": "MATCHMOVE",
            "sektor": "Sektor Perdagangan, Sektor Perdagangan, Sektor Perdagangan, Sektor Perdagangan",
            "tanggal_terbit": "2021-07-22",
            "url_tdpse_detail": "https://pse.komdigi.go.id/tdpse-detail/1737",
            "website": "-"
        },
        {
            "id": "9cb1ab68-64a4-4cd2-b814-ea5fe7f76d0b",
            "nama_pse": "SARIMODE FASHINDO ADIPERKASA",
            "nama_se": "ZARA.COM/ID/",
            "sektor": "Sektor Perdagangan, Sektor Perdagangan",
            "tanggal_terbit": "2021-07-22",
            "url_tdpse_detail": "https://pse.komdigi.go.id/tdpse-detail/1753",
            "website": "zara.com/id/"
        },
        {
            "id": "9cb1ab6e-c328-4898-94d0-c74be61107a7",
            "nama_pse": "MITRA FASHINDO ABADI",
            "nama_se": "SHOP.MANGO.COM/ID-ID",
            "sektor": "Sektor Perdagangan, Sektor Perdagangan, Sektor Perdagangan, Sektor Perdagangan",
            "tanggal_terbit": "2021-07-22",
            "url_tdpse_detail": "https://pse.komdigi.go.id/tdpse-detail/1755",
            "website": "shop.mango.com/id-id"
        },
        {
            "id": "9cb1ab75-27f3-4223-9bef-26535cfeb4fa",
            "nama_pse": "PRIMA BUANA PERKASA",
            "nama_se": "PULLANDBEAR.COM/ID",
            "sektor": "Sektor Perdagangan, Sektor Perdagangan, Sektor Perdagangan, Sektor Perdagangan",
            "tanggal_terbit": "2021-07-22",
            "url_tdpse_detail": "https://pse.komdigi.go.id/tdpse-detail/1756",
            "website": "pullandbear.com/id"
        },
        {
            "id": "9cb1ab75-2b29-43e7-9e8d-c07b70d63f65",
            "nama_pse": "SUKSES DIVA MANDIRI",
            "nama_se": "STRADIVARIUS.COM/ID",
            "sektor": "Sektor Perdagangan, Sektor Perdagangan, Sektor Perdagangan, Sektor Perdagangan",
            "tanggal_terbit": "2021-07-22",
            "url_tdpse_detail": "https://pse.komdigi.go.id/tdpse-detail/1757",
            "website": "stradivarius.com/id"
        },
        {
            "id": "9cb1ab6e-c62f-4c70-847b-997cec4ae767",
            "nama_pse": "MITRAMODE DUTA FASHINDO",
            "nama_se": "MASSIMODUTTI.COM/ID",
            "sektor": "Sektor Perdagangan, Sektor Perdagangan, Sektor Perdagangan, Sektor Perdagangan",
            "tanggal_terbit": "2021-07-22",
            "url_tdpse_detail": "https://pse.komdigi.go.id/tdpse-detail/1758",
            "website": "massimodutti.com/id"
        },
        {
            "id": "9cb1ab68-6767-4195-8f01-152a1586508c",
            "nama_pse": "SARIMODE GRIYA",
            "nama_se": "ZARAHOME.COM/ID/",
            "sektor": "Sektor Perdagangan, Sektor Perdagangan",
            "tanggal_terbit": "2021-07-22",
            "url_tdpse_detail": "https://pse.komdigi.go.id/tdpse-detail/1759",
            "website": "zarahome.com/id/"
        },
        {
            "id": "9cb1ab68-79f5-434f-8876-c581d8430919",
            "nama_pse": "TOKIO MARINE LIFE INSURANCE INDONESIA",
            "nama_se": "CUSTOMER PORTAL DANA PENSIUN LEMBAGA KEUANGAN TOKIO MARINE LIFE INDONESIA (DPLK TMLI)",
            "sektor": "Sektor Keuangan, Sektor Keuangan",
            "tanggal_terbit": "2021-07-22",
            "url_tdpse_detail": "https://pse.komdigi.go.id/tdpse-detail/1733",
            "website": "dplk.tokiomarine-life.co.id"
        },
        {
            "id": "9cb1ab75-3b5f-40d7-a924-b82b692e3691",
            "nama_pse": "TUNAS HIJAU DIGITAL RESOURCE",
            "nama_se": "TH-GO",
            "sektor": "Sektor Transportasi, Sektor Transportasi",
            "tanggal_terbit": "2021-07-22",
            "url_tdpse_detail": "https://pse.komdigi.go.id/tdpse-detail/1743",
            "website": "thgo.co.id"
        },
        {
            "id": "9cb1ab68-ab39-495a-bd41-525c4cc9085f",
            "nama_pse": "GUDANG KRIPTO INDONESIA",
            "nama_se": "GUDANGKRIPTO",
            "sektor": "Sektor Perdagangan, Sektor Perdagangan",
            "tanggal_terbit": "2021-07-22",
            "url_tdpse_detail": "https://pse.komdigi.go.id/tdpse-detail/1736",
            "website": "gudangkripto.id"
        },
        {
            "id": "9cb1ab6f-0afc-4898-98c4-3e3f3b8a03b6",
            "nama_pse": "EASYHELPS MULTI SOLUSINDO",
            "nama_se": "HTTPS://EASYHELPS.CO.ID",
            "sektor": "Sektor Teknologi Informasi dan Komunikasi, Sektor Teknologi Informasi dan Komunikasi",
            "tanggal_terbit": "2021-07-22",
            "url_tdpse_detail": "https://pse.komdigi.go.id/tdpse-detail/1738",
            "website": "easyhelps.co.id"
        },
        {
            "id": "9cb1ab68-b966-4de6-b0e4-6a8a0c526b72",
            "nama_pse": "LIPPO LIFE ASSURANCE",
            "nama_se": "VIDA",
            "sektor": "Sektor Keuangan, Sektor Keuangan, Sektor Keuangan, Sektor Kesehatan, Sektor Kesehatan, Sektor Kesehatan",
            "tanggal_terbit": "2021-07-22",
            "url_tdpse_detail": "https://pse.komdigi.go.id/tdpse-detail/1752",
            "website": "vida.co.id"
        },
        {
            "id": "9cb1ab68-bd42-4423-a155-71dfea14a6db",
            "nama_pse": "ODIN PERKASA INDONESIA",
            "nama_se": "ODINDEX",
            "sektor": "Sektor Perdagangan, Sektor Perdagangan, Sektor Perdagangan",
            "tanggal_terbit": "2021-07-22",
            "url_tdpse_detail": "https://pse.komdigi.go.id/tdpse-detail/1749",
            "website": "ODINDEX.COM"
        },
        {
            "id": "9cb1ab6f-1678-4e7a-8761-855803cc6782",
            "nama_pse": "PT SUN MAJU PIALANG ASURANSI",
            "nama_se": "E-SMARTPRENEUR",
            "sektor": "Sektor Keuangan, Sektor Keuangan, Sektor Teknologi Informasi dan Komunikasi, Sektor Teknologi Informasi dan Komunikasi",
            "tanggal_terbit": "2021-07-22",
            "url_tdpse_detail": "https://pse.komdigi.go.id/tdpse-detail/1739",
            "website": "e-smartpreneur.com"
        },
        {
            "id": "9cb1ab68-bf42-40a5-95c4-8ef3949e7686",
            "nama_pse": "PBKTL SAPTA INDONESIA",
            "nama_se": "PBKTL CLUB",
            "sektor": "Sektor Perdagangan, Sektor Perdagangan, Sektor Perdagangan",
            "tanggal_terbit": "2021-07-22",
            "url_tdpse_detail": "https://pse.komdigi.go.id/tdpse-detail/1745",
            "website": "pbktlclub.id"
        },
        {
            "id": "9cb1ab75-61d1-4f68-a88a-3cd4a00b5d4f",
            "nama_pse": "BITREXGO SOLUSI PRIMA",
            "nama_se": "BITREXGO",
            "sektor": "Sektor Perdagangan, Sektor Perdagangan",
            "tanggal_terbit": "2021-07-22",
            "url_tdpse_detail": "https://pse.komdigi.go.id/tdpse-detail/1744",
            "website": "bitrexgo.co.id"
        },
        {
            "id": "9cb1ab68-c747-4126-ab35-eac1b29c6663",
            "nama_pse": "KOMUNIKASI JAYA BERSAMA",
            "nama_se": "KOMUNIKASI JAYA BERSAMA",
            "sektor": "Sektor Keuangan, Sektor Keuangan, Sektor Teknologi Informasi dan Komunikasi, Sektor Teknologi Informasi dan Komunikasi",
            "tanggal_terbit": "2021-07-22",
            "url_tdpse_detail": "https://pse.komdigi.go.id/tdpse-detail/1746",
            "website": "komunikasijaya.id"
        },
        {
            "id": "9cb1ab6f-1be1-458f-8810-8ecda16b9f7b",
            "nama_pse": "BITHOUSE DIGITAL GROUP",
            "nama_se": "BITHOUSE",
            "sektor": "Sektor Perdagangan, Sektor Perdagangan, Sektor Perdagangan",
            "tanggal_terbit": "2021-07-22",
            "url_tdpse_detail": "https://pse.komdigi.go.id/tdpse-detail/1754",
            "website": "bithouse.co.id"
        },
        {
            "id": "9cb1ab68-ca5b-40bf-85cf-21eab3d51a0d",
            "nama_pse": "SMART EAGLE TELEMEDIA",
            "nama_se": "SMART EAGLE",
            "sektor": "Sektor Perdagangan, Sektor Perdagangan, Sektor Perdagangan, Sektor Teknologi Informasi dan Komunikasi, Sektor Teknologi Informasi dan Komunikasi, Sektor Teknologi Informasi dan Komunikasi",
            "tanggal_terbit": "2021-07-22",
            "url_tdpse_detail": "https://pse.komdigi.go.id/tdpse-detail/1764",
            "website": "smarteagle.id"
        },
        {
            "id": "9cb1ab68-de79-44b9-81e1-b5e443a4044a",
            "nama_pse": "KOP SIMPAN PINJAM SINAR MERAK SANTOSO",
            "nama_se": "KOSPIN SMS ECHANNEL",
            "sektor": "Sektor Keuangan, Sektor Keuangan",
            "tanggal_terbit": "2021-07-22",
            "url_tdpse_detail": "https://pse.komdigi.go.id/tdpse-detail/1760",
            "website": "kospinsms.co.id"
        },
        {
            "id": "9cb1ab75-64a6-4a81-b946-1e942a388ef6",
            "nama_pse": "SIFA APLIKASI INDONESIA",
            "nama_se": "SIFA.ID",
            "sektor": "Sektor Kesehatan",
            "tanggal_terbit": "2021-07-22",
            "url_tdpse_detail": "https://pse.komdigi.go.id/tdpse-detail/1761",
            "website": "Sifa.id"
        },
        {
            "id": "9cb1ab6f-30b4-4c97-a156-b8b0ade13a0e",
            "nama_pse": "SIMPAN PINJAM DANA TELAGA SWARA",
            "nama_se": "RUPIAH KURIR",
            "sektor": "Sektor Keuangan, Sektor Keuangan",
            "tanggal_terbit": "2021-07-22",
            "url_tdpse_detail": "https://pse.komdigi.go.id/tdpse-detail/1766",
            "website": "rupiahkurir.com"
        },
        {
            "id": "9cb1ab7b-ed81-43bc-b192-40ade466ed76",
            "nama_pse": "JELAJAH DATA SEMESTA",
            "nama_se": "MOLECOOL",
            "sektor": "Sektor Teknologi Informasi dan Komunikasi, Sektor Teknologi Informasi dan Komunikasi",
            "tanggal_terbit": "2021-07-22",
            "url_tdpse_detail": "https://pse.komdigi.go.id/tdpse-detail/1729",
            "website": "molecool.id"
        },
        {
            "id": "9cb1ab8f-dad8-45ff-99f6-cc601e44fe04",
            "nama_pse": "INETINDO INFOCOM",
            "nama_se": "STORY-I",
            "sektor": "Sektor Perdagangan, Sektor Perdagangan, Sektor Teknologi Informasi dan Komunikasi, Sektor Teknologi Informasi dan Komunikasi",
            "tanggal_terbit": "2021-07-22",
            "url_tdpse_detail": "https://pse.komdigi.go.id/tdpse-detail/1762",
            "website": "story-i.com"
        },
        {
            "id": "9cb1ab65-5a97-4481-b581-4e955260118b",
            "nama_pse": "SALVUS PRIMA TEKNOLOGI",
            "nama_se": "SALVUS RADIX",
            "sektor": "Sektor Teknologi Informasi dan Komunikasi, Sektor Teknologi Informasi dan Komunikasi",
            "tanggal_terbit": "2021-07-15",
            "url_tdpse_detail": "https://pse.komdigi.go.id/tdpse-detail/1717",
            "website": "salvusradix.id"
        },
        {
            "id": "9cb1ab62-916b-4b2f-8d51-fdc21c10bcc0",
            "nama_pse": "MATAHARI PUTRA PRIMA",
            "nama_se": "WWW.HYPERMART.CO.ID (WEBSITE HYPERMART)",
            "sektor": "Sektor Perdagangan, Sektor Perdagangan",
            "tanggal_terbit": "2021-07-15",
            "url_tdpse_detail": "https://pse.komdigi.go.id/tdpse-detail/1719",
            "website": "hypermart.co.id"
        },
        {
            "id": "9cb1ab71-59ff-4bd4-ab83-3cd53b4219a6",
            "nama_pse": "ARISTA LATINDO",
            "nama_se": "WEBSITE PERUSAHAAN",
            "sektor": "Sektor Perdagangan, Sektor Perdagangan, Sektor Kesehatan, Sektor Kesehatan",
            "tanggal_terbit": "2021-07-15",
            "url_tdpse_detail": "https://pse.komdigi.go.id/tdpse-detail/1706",
            "website": "aristagloves.com, sensi.co.id"
        },
        {
            "id": "9cb1ab63-2b15-49c6-bb61-bf3de6560d5d",
            "nama_pse": "INDI PLATFORM RAKSASA",
            "nama_se": "JAGI.ID",
            "sektor": "Sektor Teknologi Informasi dan Komunikasi",
            "tanggal_terbit": "2021-07-15",
            "url_tdpse_detail": "https://pse.komdigi.go.id/tdpse-detail/1696",
            "website": "Jagi.id"
        },
        {
            "id": "9cb1ab66-8bfc-445b-a820-9eeae6e75d9a",
            "nama_pse": "PERUSAHAAN PERSEROAN (PERSERO) BANK NEGARA INDONESIA",
            "nama_se": "BNI EDUPATROL GURU",
            "sektor": "Sektor Keuangan, Sektor Keuangan",
            "tanggal_terbit": "2021-07-15",
            "url_tdpse_detail": "https://pse.komdigi.go.id/tdpse-detail/1708",
            "website": "bni-edupatrol.com"
        },
        {
            "id": "9cb1ab6d-0277-4c41-8ec5-60dca5b81808",
            "nama_pse": "PERUSAHAAN PERSEROAN (PERSERO) BANK NEGARA INDONESIA",
            "nama_se": "INTERNET BANKING CORPORATE",
            "sektor": "Sektor Keuangan, Sektor Keuangan",
            "tanggal_terbit": "2021-07-15",
            "url_tdpse_detail": "https://pse.komdigi.go.id/tdpse-detail/1709",
            "website": "bnidirect.bni.co.id"
        }
    ],
    "processingTimeMs": 8,
    "query": "",
    "totalHits": 19131,
    "hitsPerPage": 50,
    "page": 350,
    "totalPages": 383
}