{
    "hits": [
        {
            "id": "9cb1ab7f-4682-42a3-9916-f32fc73573f9",
            "nama_pse": "ASURANSI JIWA INHEALTH INDONESIA",
            "nama_se": "WEBSITE",
            "sektor": "Sektor Kesehatan, Sektor Kesehatan",
            "tanggal_terbit": "2021-11-08",
            "url_tdpse_detail": "https://pse.komdigi.go.id/tdpse-detail/2296",
            "website": "MANDIRIINHEALTH.CO.ID"
        },
        {
            "id": "9cb1ab7f-510a-4c6e-9949-a73f3d034668",
            "nama_pse": "LIMA SATU TIGA GLOBAL TEL-ACCESS",
            "nama_se": "LAYANAN CLOUD COMMUNICATION - VOXNET",
            "sektor": "Sektor Teknologi Informasi dan Komunikasi, Sektor Teknologi Informasi dan Komunikasi",
            "tanggal_terbit": "2021-11-08",
            "url_tdpse_detail": "https://pse.komdigi.go.id/tdpse-detail/2276",
            "website": "voxnet.id"
        },
        {
            "id": "9cb1ab77-751d-484b-b810-b7afe32d346d",
            "nama_pse": "EZLINK SYSTEM SOLUTIONS",
            "nama_se": "DINEIN",
            "sektor": "Sektor Teknologi Informasi dan Komunikasi, Sektor Teknologi Informasi dan Komunikasi",
            "tanggal_terbit": "2021-11-08",
            "url_tdpse_detail": "https://pse.komdigi.go.id/tdpse-detail/2360",
            "website": "hostingceria.com"
        },
        {
            "id": "9cb1ab7f-6044-4492-9c65-c70d059593c4",
            "nama_pse": "EZLINK SYSTEM SOLUTIONS",
            "nama_se": "KTRIP",
            "sektor": "Sektor Teknologi Informasi dan Komunikasi, Sektor Teknologi Informasi dan Komunikasi",
            "tanggal_terbit": "2021-11-08",
            "url_tdpse_detail": "https://pse.komdigi.go.id/tdpse-detail/2361",
            "website": "hostingceria.com"
        },
        {
            "id": "9cb1ab76-b995-4041-aec6-6d031509cd36",
            "nama_pse": "EZLINK SYSTEM SOLUTIONS",
            "nama_se": "TOKOPO",
            "sektor": "Sektor Teknologi Informasi dan Komunikasi, Sektor Teknologi Informasi dan Komunikasi",
            "tanggal_terbit": "2021-11-08",
            "url_tdpse_detail": "https://pse.komdigi.go.id/tdpse-detail/2362",
            "website": "hostingceria.com"
        },
        {
            "id": "9cb1ab7f-64f4-42c4-b18b-0c59e7b66cc1",
            "nama_pse": "OMAH TEKNOLOGI INDONESIA",
            "nama_se": "BELANJA24",
            "sektor": "Sektor Perdagangan, Sektor Perdagangan",
            "tanggal_terbit": "2021-11-08",
            "url_tdpse_detail": "https://pse.komdigi.go.id/tdpse-detail/2344",
            "website": "omah-ti.com"
        },
        {
            "id": "9cb1ab7f-6adf-4eb0-abb6-e528489c7d8c",
            "nama_pse": "ADAM TEKNOLOGI INDONESIA",
            "nama_se": "GAJIANONDEMAND",
            "sektor": "Sektor Keuangan, Sektor Keuangan, Sektor Teknologi Informasi dan Komunikasi, Sektor Teknologi Informasi dan Komunikasi",
            "tanggal_terbit": "2021-11-08",
            "url_tdpse_detail": "https://pse.komdigi.go.id/tdpse-detail/2322",
            "website": "jojonomic.com"
        },
        {
            "id": "9cb1ab76-c742-453a-8a46-785df6c31fb5",
            "nama_pse": "SINAR12 BUKIT BARISAN",
            "nama_se": "SINAR12",
            "sektor": "Sektor Perdagangan, Sektor Perdagangan",
            "tanggal_terbit": "2021-11-08",
            "url_tdpse_detail": "https://pse.komdigi.go.id/tdpse-detail/2271",
            "website": "sinar12.co.id"
        },
        {
            "id": "9cb1ab7f-72ad-402e-83a8-8b5ef2c8efb4",
            "nama_pse": "INDO SEUNGLI MAKMUR",
            "nama_se": "ISTYLE.ID",
            "sektor": "Sektor Perdagangan, Sektor Perdagangan",
            "tanggal_terbit": "2021-11-08",
            "url_tdpse_detail": "https://pse.komdigi.go.id/tdpse-detail/2305",
            "website": "iStyle.id"
        },
        {
            "id": "9cb1ab76-cb97-4062-9933-fcb4cf5e5b27",
            "nama_pse": "COINBIT DIGITAL INDONESIA",
            "nama_se": "COINBIT",
            "sektor": "Sektor Keuangan, Sektor Keuangan",
            "tanggal_terbit": "2021-11-08",
            "url_tdpse_detail": "https://pse.komdigi.go.id/tdpse-detail/2310",
            "website": "coinbit.id/"
        },
        {
            "id": "9cb1ab77-821c-421f-9eed-c6e333f693b9",
            "nama_pse": "ESGI INDONESIA BERKELANJUTAN",
            "nama_se": "ESG INTELLIGENCE",
            "sektor": "Sektor Teknologi Informasi dan Komunikasi, Sektor Teknologi Informasi dan Komunikasi",
            "tanggal_terbit": "2021-11-08",
            "url_tdpse_detail": "https://pse.komdigi.go.id/tdpse-detail/2318",
            "website": "esgi.ai"
        },
        {
            "id": "9cb1ab8c-5549-458a-8644-e17557c73ae4",
            "nama_pse": "DUTA BLOK CHAININDO",
            "nama_se": "BLOB",
            "sektor": "Sektor Teknologi Informasi dan Komunikasi, Sektor Teknologi Informasi dan Komunikasi",
            "tanggal_terbit": "2021-11-08",
            "url_tdpse_detail": "https://pse.komdigi.go.id/tdpse-detail/2314",
            "website": "blob.id"
        },
        {
            "id": "9cb1ab85-3f2b-43ae-9227-c32ce2ade99c",
            "nama_pse": "BULLION ECOSYSTEM INTERNATIONAL",
            "nama_se": "METALPAY",
            "sektor": "Sektor Teknologi Informasi dan Komunikasi, Sektor Teknologi Informasi dan Komunikasi, Sektor Teknologi Informasi dan Komunikasi, Sektor Teknologi Informasi dan Komunikasi",
            "tanggal_terbit": "2021-11-08",
            "url_tdpse_detail": "https://pse.komdigi.go.id/tdpse-detail/2303",
            "website": "bullionecosystem.com/"
        },
        {
            "id": "9cb1ab8f-6a00-4570-a12b-6d1ff23dc796",
            "nama_pse": "DESKTOPIP TEKNOLOGI INDONESIA",
            "nama_se": "DIP WORKSPACE",
            "sektor": "Sektor Teknologi Informasi dan Komunikasi, Sektor Teknologi Informasi dan Komunikasi",
            "tanggal_terbit": "2021-11-08",
            "url_tdpse_detail": "https://pse.komdigi.go.id/tdpse-detail/2287",
            "website": "dipworkspace.com"
        },
        {
            "id": "9cb1ab90-5174-4486-ae4a-e8b3e64bf781",
            "nama_pse": "PT. Kerjasama Untuk Negeri",
            "nama_se": "KERJASAMA.CO.ID",
            "sektor": "Sektor Keuangan, Sektor Keuangan",
            "tanggal_terbit": "2021-11-08",
            "url_tdpse_detail": "https://pse.komdigi.go.id/tdpse-detail/2356",
            "website": "kerjasama.co.id"
        },
        {
            "id": "9cb1ab8f-8b88-493e-8f11-f058d84475f4",
            "nama_pse": "FINTEK DIGITAL NUSANTARA",
            "nama_se": "PAYUNI",
            "sektor": "Sektor Perdagangan, Sektor Perdagangan, Sektor Keuangan, Sektor Keuangan, Sektor Teknologi Informasi dan Komunikasi, Sektor Teknologi Informasi dan Komunikasi",
            "tanggal_terbit": "2021-11-08",
            "url_tdpse_detail": "https://pse.komdigi.go.id/tdpse-detail/2337",
            "website": "payuni.co.id"
        },
        {
            "id": "9cb1ab90-5fd9-4a04-b731-a3428d1e6b21",
            "nama_pse": "BANK JASA JAKARTA",
            "nama_se": "BJJ ONLINE",
            "sektor": "Sektor Keuangan, Sektor Keuangan",
            "tanggal_terbit": "2021-11-08",
            "url_tdpse_detail": "https://pse.komdigi.go.id/tdpse-detail/2284",
            "website": "bjj.co.id"
        },
        {
            "id": "9cb1ab8f-9105-408a-805f-fdebbc700c8f",
            "nama_pse": "BANK JASA JAKARTA",
            "nama_se": "BJJ MOBILE",
            "sektor": "Sektor Keuangan, Sektor Keuangan",
            "tanggal_terbit": "2021-11-08",
            "url_tdpse_detail": "https://pse.komdigi.go.id/tdpse-detail/2285",
            "website": "ibank.bjj.co.id"
        },
        {
            "id": "9cb1ab9e-0f36-4445-bb64-958ee034b73a",
            "nama_pse": "PT Admin Cerdas Indonesia",
            "nama_se": "ADMINCERDAS INDONESIA",
            "sektor": "Sektor Perdagangan, Sektor Perdagangan, Sektor Teknologi Informasi dan Komunikasi, Sektor Teknologi Informasi dan Komunikasi",
            "tanggal_terbit": "2021-11-08",
            "url_tdpse_detail": "https://pse.komdigi.go.id/tdpse-detail/2272",
            "website": "admincerdas.com"
        },
        {
            "id": "9cb1ab90-7140-4fe7-83af-9527081a0905",
            "nama_pse": "BIRO PERJALANAN WISATA APRILYA DARMA WISATA",
            "nama_se": "SHAFWAHHOLIDAYS.ID",
            "sektor": "Sektor Perdagangan, Sektor Perdagangan, Sektor Teknologi Informasi dan Komunikasi, Sektor Teknologi Informasi dan Komunikasi",
            "tanggal_terbit": "2021-11-08",
            "url_tdpse_detail": "https://pse.komdigi.go.id/tdpse-detail/2274",
            "website": "shafwahholidays.com"
        },
        {
            "id": "9cb1ab9e-1187-44bf-8dfa-7fb87f9cbd0e",
            "nama_pse": "Lajual Membangun Indonesia",
            "nama_se": "LAJUAL",
            "sektor": "Sektor Perdagangan, Sektor Perdagangan, Sektor Keuangan, Sektor Keuangan, Sektor Teknologi Informasi dan Komunikasi, Sektor Teknologi Informasi dan Komunikasi",
            "tanggal_terbit": "2021-11-08",
            "url_tdpse_detail": "https://pse.komdigi.go.id/tdpse-detail/2275",
            "website": "lajual.com"
        },
        {
            "id": "9cb1ab90-767c-419a-8a26-1a8fb0f89552",
            "nama_pse": "TJS USAHA DIGITAL",
            "nama_se": "WOOBIZ",
            "sektor": "Sektor Perdagangan, Sektor Perdagangan",
            "tanggal_terbit": "2021-11-08",
            "url_tdpse_detail": "https://pse.komdigi.go.id/tdpse-detail/2280",
            "website": "woobiz.id"
        },
        {
            "id": "9cb1ab8f-a902-487a-a402-c12b33950177",
            "nama_pse": "PT Maritim Digital Indonesia",
            "nama_se": "TONASE",
            "sektor": "Sektor Transportasi, Sektor Transportasi",
            "tanggal_terbit": "2021-11-08",
            "url_tdpse_detail": "https://pse.komdigi.go.id/tdpse-detail/2282",
            "website": "tonase.com"
        },
        {
            "id": "9cb1ab8f-ac00-44cd-b695-3b74d618c2fb",
            "nama_pse": "PT KAWAN CICIL TEKNOLOGI UTAMA",
            "nama_se": "KAWANCICIL",
            "sektor": "Sektor Keuangan, Sektor Keuangan",
            "tanggal_terbit": "2021-11-08",
            "url_tdpse_detail": "https://pse.komdigi.go.id/tdpse-detail/2283",
            "website": "kawancicil.co.id"
        },
        {
            "id": "9cb1ab9e-144b-4b58-b7b4-81d22cb74e80",
            "nama_pse": "PT Indonesia Hakiki Pertama",
            "nama_se": "PLATFORM DROPSHIP DAN RESELLER",
            "sektor": "Sektor Perdagangan, Sektor Perdagangan",
            "tanggal_terbit": "2021-11-08",
            "url_tdpse_detail": "https://pse.komdigi.go.id/tdpse-detail/2293",
            "website": "indohp.co.id"
        },
        {
            "id": "9cb1ab9e-16f5-492e-a7b7-fdf91a78ddf5",
            "nama_pse": "SABA SEMESTAPERKASA",
            "nama_se": "SABA",
            "sektor": "Sektor Perdagangan, Sektor Perdagangan",
            "tanggal_terbit": "2021-11-08",
            "url_tdpse_detail": "https://pse.komdigi.go.id/tdpse-detail/2297",
            "website": "Saba.id"
        },
        {
            "id": "9cb1ab8f-b0ca-4cdf-9355-642e8a5c2578",
            "nama_pse": "PT Merimen Technologies Indonesia",
            "nama_se": "MERIMEN",
            "sektor": "Sektor Teknologi Informasi dan Komunikasi, Sektor Teknologi Informasi dan Komunikasi",
            "tanggal_terbit": "2021-11-08",
            "url_tdpse_detail": "https://pse.komdigi.go.id/tdpse-detail/2298",
            "website": "indonesia.merimen.com"
        },
        {
            "id": "9cb1ab90-797e-43c4-b06b-479f7f6d083b",
            "nama_pse": "SARI BURGER INDONESIA",
            "nama_se": "BKDELIVERY.CO.ID",
            "sektor": "Sektor Perdagangan, Sektor Perdagangan",
            "tanggal_terbit": "2021-11-08",
            "url_tdpse_detail": "https://pse.komdigi.go.id/tdpse-detail/2299",
            "website": "bkdelivery.co.id"
        },
        {
            "id": "9cb1ab90-7cd7-46f0-80ad-04ca21f1ff39",
            "nama_pse": "RESANOMA INOVASI SEHAT",
            "nama_se": "WWW.HATIPLONG.COM",
            "sektor": "Sektor Kesehatan, Sektor Kesehatan",
            "tanggal_terbit": "2021-11-08",
            "url_tdpse_detail": "https://pse.komdigi.go.id/tdpse-detail/2300",
            "website": "hatiplong.com"
        },
        {
            "id": "9cb1ab9e-1993-493f-851d-bde1caf7b4bd",
            "nama_pse": "KIWOOM SEKURITAS INDONESIA",
            "nama_se": "HERO KIWOOM ONLINE TRADING DAN WEBSITE OPENING ACCOUNT ONLINE KIWOOM SEKURITAS INDONESIA",
            "sektor": "Sektor Keuangan, Sektor Keuangan",
            "tanggal_terbit": "2021-11-08",
            "url_tdpse_detail": "https://pse.komdigi.go.id/tdpse-detail/2302",
            "website": "http://kiwoom.co.id/main.html"
        },
        {
            "id": "9cb1ab9e-1b83-4df0-8b14-f0a88b08071d",
            "nama_pse": "INMOTION INOVASI TEKNOLOGI",
            "nama_se": "3DOLPHINS SRM",
            "sektor": "Sektor Teknologi Informasi dan Komunikasi, Sektor Teknologi Informasi dan Komunikasi",
            "tanggal_terbit": "2021-11-08",
            "url_tdpse_detail": "https://pse.komdigi.go.id/tdpse-detail/2304",
            "website": "3dolphins.ai"
        },
        {
            "id": "9cb1ab9e-1d76-418a-ad0c-d4160b924df9",
            "nama_pse": "PT MIDAS DWANI SADAYA",
            "nama_se": "MIDAS",
            "sektor": "Sektor Keuangan, Sektor Keuangan",
            "tanggal_terbit": "2021-11-08",
            "url_tdpse_detail": "https://pse.komdigi.go.id/tdpse-detail/2306",
            "website": "midas.id"
        },
        {
            "id": "9cb1ab9e-1fa0-439a-a405-21776c9aee83",
            "nama_pse": "Eden Pangan Indonesia",
            "nama_se": "EDEN FARM",
            "sektor": "Sektor Perdagangan, Sektor Perdagangan, Sektor Pangan, Sektor Pangan",
            "tanggal_terbit": "2021-11-08",
            "url_tdpse_detail": "https://pse.komdigi.go.id/tdpse-detail/2307",
            "website": "edenfarm.id"
        },
        {
            "id": "9cb1ab90-8227-4d0e-a877-a72bc92cb101",
            "nama_pse": "MITRA KRIPTO SUKSES",
            "nama_se": "MKS TRADING",
            "sektor": "Sektor Perdagangan, Sektor Perdagangan, Sektor Keuangan, Sektor Keuangan",
            "tanggal_terbit": "2021-11-08",
            "url_tdpse_detail": "https://pse.komdigi.go.id/tdpse-detail/2308",
            "website": "-"
        },
        {
            "id": "9cb1ab8f-b494-4082-a8d4-1658ebe4576e",
            "nama_pse": "KRIPTO MAKSIMA KOIN",
            "nama_se": "KMK TRADING",
            "sektor": "Sektor Perdagangan, Sektor Perdagangan, Sektor Keuangan, Sektor Keuangan",
            "tanggal_terbit": "2021-11-08",
            "url_tdpse_detail": "https://pse.komdigi.go.id/tdpse-detail/2309",
            "website": "-"
        },
        {
            "id": "9cb1ab90-856f-4d8f-85f0-21b81fe2a3c9",
            "nama_pse": "PT Bank KEB Hana Indonesia",
            "nama_se": "LINE BANK BY HANA BANK",
            "sektor": "Sektor Keuangan, Sektor Keuangan",
            "tanggal_terbit": "2021-11-08",
            "url_tdpse_detail": "https://pse.komdigi.go.id/tdpse-detail/2311",
            "website": "linebank.co.id"
        },
        {
            "id": "9cb1ab8f-b798-4808-8fa1-ca79da53b21a",
            "nama_pse": "PT Bank KEB Hana Indonesia",
            "nama_se": "INTERNET BANKING",
            "sektor": "Sektor Keuangan, Sektor Keuangan",
            "tanggal_terbit": "2021-11-08",
            "url_tdpse_detail": "https://pse.komdigi.go.id/tdpse-detail/2313",
            "website": "hanabank.co.id"
        },
        {
            "id": "9cb1ab8f-bab8-4dc0-a7e0-fe8d6a563ed0",
            "nama_pse": "PT Bank KEB Hana Indonesia",
            "nama_se": "MYHANA MOBILE BANKING",
            "sektor": "Sektor Keuangan, Sektor Keuangan",
            "tanggal_terbit": "2021-11-08",
            "url_tdpse_detail": "https://pse.komdigi.go.id/tdpse-detail/2315",
            "website": "hanabank.co.id"
        },
        {
            "id": "9cb1ab9e-2167-48e3-b118-d5604899aee1",
            "nama_pse": "PT Bank KEB Hana Indonesia",
            "nama_se": "CORPORATE BANKING SYSTEM (CBS)",
            "sektor": "Sektor Keuangan, Sektor Keuangan",
            "tanggal_terbit": "2021-11-08",
            "url_tdpse_detail": "https://pse.komdigi.go.id/tdpse-detail/2316",
            "website": "hanabank.co.id"
        },
        {
            "id": "9cb1ab90-8b01-4cf2-91ea-810e61025b6c",
            "nama_pse": "UTAMA ASET DIGITAL INDONESIA",
            "nama_se": "BITTIME",
            "sektor": "Sektor Keuangan, Sektor Keuangan, Sektor Teknologi Informasi dan Komunikasi, Sektor Teknologi Informasi dan Komunikasi",
            "tanggal_terbit": "2021-11-08",
            "url_tdpse_detail": "https://pse.komdigi.go.id/tdpse-detail/2317",
            "website": "bittime.com"
        },
        {
            "id": "9cb1ab9e-2311-40cb-8136-83f8172064bb",
            "nama_pse": "PT Elektronik Distribusi Otomatisasi Terkemuka",
            "nama_se": "EDOT",
            "sektor": "Sektor Perdagangan, Sektor Perdagangan, Sektor Teknologi Informasi dan Komunikasi, Sektor Teknologi Informasi dan Komunikasi",
            "tanggal_terbit": "2021-11-08",
            "url_tdpse_detail": "https://pse.komdigi.go.id/tdpse-detail/2319",
            "website": "edot.id"
        },
        {
            "id": "9cb1ab90-906c-421e-9163-f877e5388b49",
            "nama_pse": "NAVIN KUMAR TABUNGAN EMAS",
            "nama_se": "PT NK EMAS",
            "sektor": "Sektor Perdagangan, Sektor Perdagangan",
            "tanggal_terbit": "2021-11-08",
            "url_tdpse_detail": "https://pse.komdigi.go.id/tdpse-detail/2336",
            "website": "nkemas.com"
        },
        {
            "id": "9cb1ab9e-24dc-47b3-833f-5f99ee9f2720",
            "nama_pse": "PT MITRA JASA LIMA",
            "nama_se": "OPENBANK+",
            "sektor": "Sektor Teknologi Informasi dan Komunikasi, Sektor Teknologi Informasi dan Komunikasi",
            "tanggal_terbit": "2021-11-08",
            "url_tdpse_detail": "https://pse.komdigi.go.id/tdpse-detail/2339",
            "website": "mitrajasalima.id"
        },
        {
            "id": "9cb1ab9e-26bb-4506-8772-e60ca8c77bf7",
            "nama_pse": "PT Guardia Teknologi Indonesia",
            "nama_se": "JUBELIO",
            "sektor": "Sektor Teknologi Informasi dan Komunikasi, Sektor Teknologi Informasi dan Komunikasi",
            "tanggal_terbit": "2021-11-08",
            "url_tdpse_detail": "https://pse.komdigi.go.id/tdpse-detail/2345",
            "website": "jubelio.com"
        },
        {
            "id": "9cb1ab8f-bddd-4b23-854d-090fc5b4e84d",
            "nama_pse": "PT. Alfin Digital Indonesia",
            "nama_se": "ONESHAFPLUS",
            "sektor": "Sektor Keuangan, Sektor Keuangan",
            "tanggal_terbit": "2021-11-08",
            "url_tdpse_detail": "https://pse.komdigi.go.id/tdpse-detail/2346",
            "website": "oneshafplus.id"
        },
        {
            "id": "9cb1ab8f-c213-4860-a9b8-2aea463102dc",
            "nama_pse": "ksp",
            "nama_se": "DSDS",
            "sektor": "Sektor Perdagangan, Sektor Perdagangan",
            "tanggal_terbit": "2021-11-08",
            "url_tdpse_detail": "https://pse.komdigi.go.id/tdpse-detail/2348",
            "website": "kosongan.com"
        },
        {
            "id": "9cb1ab90-9507-4ed9-b444-9743c72592bc",
            "nama_pse": "Gemilang sentosa",
            "nama_se": "DSDS",
            "sektor": "Sektor Perdagangan, Sektor Perdagangan",
            "tanggal_terbit": "2021-11-08",
            "url_tdpse_detail": "https://pse.komdigi.go.id/tdpse-detail/2350",
            "website": "kosonganaja.com"
        },
        {
            "id": "9cb1ab9e-287a-48df-bf30-700a8896b790",
            "nama_pse": "TOKO MODAL MITRA USAHA",
            "nama_se": "TOKOMODAL",
            "sektor": "Sektor Keuangan, Sektor Keuangan",
            "tanggal_terbit": "2021-11-08",
            "url_tdpse_detail": "https://pse.komdigi.go.id/tdpse-detail/2352",
            "website": "tokomodal.co.id"
        },
        {
            "id": "9cb1ab8f-c51e-4d8e-b66f-56d62907080a",
            "nama_pse": "CV. Indomakers Cipta Makmur",
            "nama_se": "TOKOMEO.COM",
            "sektor": "Sektor Perdagangan, Sektor Perdagangan, Sektor Teknologi Informasi dan Komunikasi, Sektor Teknologi Informasi dan Komunikasi",
            "tanggal_terbit": "2021-11-08",
            "url_tdpse_detail": "https://pse.komdigi.go.id/tdpse-detail/2353",
            "website": "tokomeo.com"
        },
        {
            "id": "9cb1ab9e-2a74-4140-80af-066f8d1c8bf5",
            "nama_pse": "CITRA WIRA BAWANA",
            "nama_se": "CWB LAB APP",
            "sektor": "Sektor Kesehatan, Sektor Kesehatan",
            "tanggal_terbit": "2021-11-08",
            "url_tdpse_detail": "https://pse.komdigi.go.id/tdpse-detail/2358",
            "website": "cwbmedical.com"
        }
    ],
    "processingTimeMs": 9,
    "query": "",
    "totalHits": 19131,
    "hitsPerPage": 50,
    "page": 339,
    "totalPages": 383
}