{
    "hits": [
        {
            "id": "9cb1ac05-c7ef-4dec-9424-c190c946b855",
            "nama_pse": "MERSUDI MITRA SEJATI",
            "nama_se": "KOPERASI SIMPAN PINJAM MERSUDI MITRA SEJATI",
            "sektor": "Sektor Keuangan",
            "tanggal_terbit": "2022-11-02",
            "url_tdpse_detail": "https://pse.komdigi.go.id/tdpse-detail/12096",
            "website": "-"
        },
        {
            "id": "9cb1abe1-8836-4aea-830f-f9452e7b6c2c",
            "nama_pse": "MERSUDI MITRA SEJATI",
            "nama_se": "KOPERASI MERSUDI MITRA SEJATI",
            "sektor": "Sektor Keuangan",
            "tanggal_terbit": "2022-11-02",
            "url_tdpse_detail": "https://pse.komdigi.go.id/tdpse-detail/12097",
            "website": "-"
        },
        {
            "id": "9cb1abe1-8baf-4843-b6fa-1586fe9e30dd",
            "nama_pse": "COINJOSS DATA UTAMA",
            "nama_se": "COINJOSS",
            "sektor": "Sektor Perdagangan, Sektor Keuangan, Sektor Teknologi Informasi dan Komunikasi",
            "tanggal_terbit": "2022-11-02",
            "url_tdpse_detail": "https://pse.komdigi.go.id/tdpse-detail/12098",
            "website": "coinjoss.com"
        },
        {
            "id": "9cb1ac14-615c-40c6-8245-7db5f3a1cafa",
            "nama_pse": "ODDY OTO INOVASI",
            "nama_se": "PLANET",
            "sektor": "Sektor Transportasi",
            "tanggal_terbit": "2022-11-02",
            "url_tdpse_detail": "https://pse.komdigi.go.id/tdpse-detail/12099",
            "website": "planetaja.com"
        },
        {
            "id": "9cb1ac05-dd58-49f2-aa00-42db4cddb39e",
            "nama_pse": "RIB INDONESIA SOFTWARE",
            "nama_se": "MTWO BY RIB SOFTWARE",
            "sektor": "Sektor Teknologi Informasi dan Komunikasi",
            "tanggal_terbit": "2022-11-02",
            "url_tdpse_detail": "https://pse.komdigi.go.id/tdpse-detail/12100",
            "website": "rib-software.com"
        },
        {
            "id": "9cb1ac05-9e8e-4ca9-8d76-a6c8dd80a405",
            "nama_pse": "WINDOW INDONESIA GROUP",
            "nama_se": "2045.CO.ID",
            "sektor": "Sektor Teknologi Informasi dan Komunikasi",
            "tanggal_terbit": "2022-11-01",
            "url_tdpse_detail": "https://pse.komdigi.go.id/tdpse-detail/12059",
            "website": "2045.co.id"
        },
        {
            "id": "9cb1ac14-35b7-4335-8969-ab717bb43f61",
            "nama_pse": "WINDOW INDONESIA GROUP",
            "nama_se": "DIGITALMU.ID",
            "sektor": "Sektor Perdagangan, Sektor Teknologi Informasi dan Komunikasi",
            "tanggal_terbit": "2022-11-01",
            "url_tdpse_detail": "https://pse.komdigi.go.id/tdpse-detail/12060",
            "website": "digitalmu.id"
        },
        {
            "id": "9cb1abe1-629d-4d31-866c-6250ef361692",
            "nama_pse": "MINIGRAM INDONESIA SEJAHTERA",
            "nama_se": "MINIGRAM",
            "sektor": "Sektor Perdagangan",
            "tanggal_terbit": "2022-11-01",
            "url_tdpse_detail": "https://pse.komdigi.go.id/tdpse-detail/12061",
            "website": "minigram.co.id"
        },
        {
            "id": "9cb1abe1-65e6-4659-a977-55d928b4efab",
            "nama_pse": "MINIGRAM INDONESIA SEJAHTERA",
            "nama_se": "MINIGRAM SEJAHTERA",
            "sektor": "Sektor Perdagangan",
            "tanggal_terbit": "2022-11-01",
            "url_tdpse_detail": "https://pse.komdigi.go.id/tdpse-detail/12062",
            "website": "minigram.co.id"
        },
        {
            "id": "9cb1ac05-a329-4a55-990d-fe639cbb7382",
            "nama_pse": "BERKONTRIBUSI UNTUK NEGERI",
            "nama_se": "SATECHAINMEDIA",
            "sektor": "Sektor Teknologi Informasi dan Komunikasi",
            "tanggal_terbit": "2022-11-01",
            "url_tdpse_detail": "https://pse.komdigi.go.id/tdpse-detail/12063",
            "website": "satechainmedia.com"
        },
        {
            "id": "9cb1abe1-6bab-4a4c-ad83-507ef6e0c18e",
            "nama_pse": "MANUNGGAL GLOBAL NUSANTARA",
            "nama_se": "LISTRIKONE",
            "sektor": "Sektor Teknologi Informasi dan Komunikasi",
            "tanggal_terbit": "2022-11-01",
            "url_tdpse_detail": "https://pse.komdigi.go.id/tdpse-detail/12064",
            "website": "listrik1.com"
        },
        {
            "id": "9cb1abe1-6f1e-4dc8-9b0c-e2c9a936d9b0",
            "nama_pse": "KINARYATAMA RAHARJA",
            "nama_se": "SIMPUS J-CARE",
            "sektor": "Sektor Kesehatan",
            "tanggal_terbit": "2022-11-01",
            "url_tdpse_detail": "https://pse.komdigi.go.id/tdpse-detail/12065",
            "website": "-"
        },
        {
            "id": "9cb1ac14-3930-45f6-b87e-adad334ed24e",
            "nama_pse": "SURYA SUDECO",
            "nama_se": "SHOT",
            "sektor": "Sektor Transportasi, Sektor Teknologi Informasi dan Komunikasi",
            "tanggal_terbit": "2022-11-01",
            "url_tdpse_detail": "https://pse.komdigi.go.id/tdpse-detail/12066",
            "website": "-"
        },
        {
            "id": "9cb1ac05-a721-41a1-8a13-d9cf69871d04",
            "nama_pse": "GLOBAL GAME INTERNUSA",
            "nama_se": "INAGAME",
            "sektor": "Sektor Teknologi Informasi dan Komunikasi",
            "tanggal_terbit": "2022-11-01",
            "url_tdpse_detail": "https://pse.komdigi.go.id/tdpse-detail/12067",
            "website": "inagame.id"
        },
        {
            "id": "9cb1ac05-aad5-43e4-a92b-a77219d4a958",
            "nama_pse": "SURYA SUDECO",
            "nama_se": "SHOTT",
            "sektor": "Sektor Transportasi, Sektor Teknologi Informasi dan Komunikasi",
            "tanggal_terbit": "2022-11-01",
            "url_tdpse_detail": "https://pse.komdigi.go.id/tdpse-detail/12070",
            "website": "-"
        },
        {
            "id": "9cb1ac14-3c62-4630-92e3-788685bfdc25",
            "nama_pse": "ASTO SUKSES BERNIAGA",
            "nama_se": "WWW.SITOCASH.COM",
            "sektor": "Sektor Perdagangan",
            "tanggal_terbit": "2022-11-01",
            "url_tdpse_detail": "https://pse.komdigi.go.id/tdpse-detail/12068",
            "website": "sitocash.com"
        },
        {
            "id": "9cb1ac05-b66b-4a39-aaf9-fd368bda53f3",
            "nama_pse": "MANUNGGAL KHARISMA PUTRA",
            "nama_se": "PERIKLANAN",
            "sektor": "Sektor Perdagangan",
            "tanggal_terbit": "2022-11-01",
            "url_tdpse_detail": "https://pse.komdigi.go.id/tdpse-detail/12069",
            "website": "-"
        },
        {
            "id": "9cb1ac14-3f42-442e-8f16-dd88e08d05df",
            "nama_pse": "INOVASI PEMBAYARAN DIGITAL",
            "nama_se": "AYOLINX",
            "sektor": "Sektor Keuangan, Sektor Teknologi Informasi dan Komunikasi",
            "tanggal_terbit": "2022-11-01",
            "url_tdpse_detail": "https://pse.komdigi.go.id/tdpse-detail/12071",
            "website": "ayolinx.id"
        },
        {
            "id": "9cb1ac14-4696-4f2a-9e31-2199bdc5760d",
            "nama_pse": "DAEWIN NETWORKS INDONESIA",
            "nama_se": "NEWEST JOB INDONESIA",
            "sektor": "Sektor Teknologi Informasi dan Komunikasi",
            "tanggal_terbit": "2022-11-01",
            "url_tdpse_detail": "https://pse.komdigi.go.id/tdpse-detail/12075",
            "website": "Newestjob.id"
        },
        {
            "id": "9cb1abe1-76f2-4630-ab08-f8a76d1a47d4",
            "nama_pse": "DAEWIN NETWORKS INDONESIA",
            "nama_se": "NEWEST INDONESIA",
            "sektor": "Sektor Teknologi Informasi dan Komunikasi",
            "tanggal_terbit": "2022-11-01",
            "url_tdpse_detail": "https://pse.komdigi.go.id/tdpse-detail/12076",
            "website": "newestindonesia.com"
        },
        {
            "id": "9cb1ac14-52d7-499a-86c7-33b178791999",
            "nama_pse": "NUR BAROKAH AMIN",
            "nama_se": "CV. NUR BAROKAH AMIN",
            "sektor": "Sektor Perdagangan, Sektor Transportasi, Sektor Pangan",
            "tanggal_terbit": "2022-11-01",
            "url_tdpse_detail": "https://pse.komdigi.go.id/tdpse-detail/12077",
            "website": "-"
        },
        {
            "id": "9cb1ac14-5680-4735-be49-53cce3ec82a4",
            "nama_pse": "PAYDAY DIGITAL NUSANTARA",
            "nama_se": "KAMUNINGPAY",
            "sektor": "Sektor Perdagangan",
            "tanggal_terbit": "2022-11-01",
            "url_tdpse_detail": "https://pse.komdigi.go.id/tdpse-detail/12078",
            "website": "kamuningpay.com"
        },
        {
            "id": "9cb1ac05-bd93-4145-9214-cdc9d7084d4d",
            "nama_pse": "LINGGAU DIGITAL MARKET",
            "nama_se": "ONEPULSA",
            "sektor": "Sektor Teknologi Informasi dan Komunikasi",
            "tanggal_terbit": "2022-11-01",
            "url_tdpse_detail": "https://pse.komdigi.go.id/tdpse-detail/12079",
            "website": "onepulsa.com"
        },
        {
            "id": "9cb1abe1-585f-4d1a-a76d-35bb55d81e0d",
            "nama_pse": "INDOBEST ARTHA KREASI",
            "nama_se": "IAK.ID",
            "sektor": "Sektor Teknologi Informasi dan Komunikasi",
            "tanggal_terbit": "2022-10-31",
            "url_tdpse_detail": "https://pse.komdigi.go.id/tdpse-detail/12045",
            "website": "-"
        },
        {
            "id": "9cb1ac14-2f07-4a91-a3d4-eb9e912b780a",
            "nama_pse": "INDOBEST ARTHA KREASI",
            "nama_se": "MOBILEPULSA",
            "sektor": "Sektor Teknologi Informasi dan Komunikasi",
            "tanggal_terbit": "2022-10-31",
            "url_tdpse_detail": "https://pse.komdigi.go.id/tdpse-detail/12050",
            "website": "-"
        },
        {
            "id": "9cb1ac05-159f-4910-b351-b3c48f5bbd99",
            "nama_pse": "GAJI PINTAR INDONESIA",
            "nama_se": "WAGELY - FINANCIAL WELLNESS",
            "sektor": "Sektor Teknologi Informasi dan Komunikasi",
            "tanggal_terbit": "2022-10-31",
            "url_tdpse_detail": "https://pse.komdigi.go.id/tdpse-detail/12020",
            "website": "wagely.app"
        },
        {
            "id": "9cb1ac05-5b64-4f71-9d6f-2d80734c16b4",
            "nama_pse": "PINNACLE PERSADA INVESTAMA",
            "nama_se": "PIMO",
            "sektor": "Sektor Keuangan",
            "tanggal_terbit": "2022-10-31",
            "url_tdpse_detail": "https://pse.komdigi.go.id/tdpse-detail/12021",
            "website": "pimo.co.id"
        },
        {
            "id": "9cb1abe1-4e9f-499a-ad8c-0818298ad016",
            "nama_pse": "MANDJUR SEHAT ABADI",
            "nama_se": "MANDJUR",
            "sektor": "Sektor Perdagangan",
            "tanggal_terbit": "2022-10-31",
            "url_tdpse_detail": "https://pse.komdigi.go.id/tdpse-detail/12022",
            "website": "mandjur.co.id"
        },
        {
            "id": "9cb1ac14-250b-4ca8-8bab-e9e5724cefa3",
            "nama_pse": "DWIJAYA SENTOSA ABADI",
            "nama_se": "DJSA",
            "sektor": "Sektor Kesehatan",
            "tanggal_terbit": "2022-10-31",
            "url_tdpse_detail": "https://pse.komdigi.go.id/tdpse-detail/12046",
            "website": "-"
        },
        {
            "id": "9cb1ac14-285b-4062-86d2-ed82f3aa1a91",
            "nama_pse": "SUDAMI JAYA MEDIKA",
            "nama_se": "MEDICLOUD",
            "sektor": "Sektor Kesehatan",
            "tanggal_terbit": "2022-10-31",
            "url_tdpse_detail": "https://pse.komdigi.go.id/tdpse-detail/12047",
            "website": "medicloud.co.id"
        },
        {
            "id": "9cb1ac14-2b8f-4029-b85c-b1dc4f96c90f",
            "nama_pse": "THE TEEPEE GROUP",
            "nama_se": "TEEPEE",
            "sektor": "Sektor Perdagangan",
            "tanggal_terbit": "2022-10-31",
            "url_tdpse_detail": "https://pse.komdigi.go.id/tdpse-detail/12048",
            "website": "teepee.au"
        },
        {
            "id": "9cb1ac05-86f4-4f8d-91a6-914c557386d0",
            "nama_pse": "MUKHTAR HANIF MUHAMMAD",
            "nama_se": "SAGARA MOBILE",
            "sektor": "Sektor Teknologi Informasi dan Komunikasi",
            "tanggal_terbit": "2022-10-31",
            "url_tdpse_detail": "https://pse.komdigi.go.id/tdpse-detail/12049",
            "website": "-"
        },
        {
            "id": "9cb1abe1-5b5b-4e1a-860d-187bbade7ba5",
            "nama_pse": "SILIKON DIGITAL INDONESIA",
            "nama_se": "MEDICO",
            "sektor": "Sektor Perdagangan, Sektor Kesehatan",
            "tanggal_terbit": "2022-10-31",
            "url_tdpse_detail": "https://pse.komdigi.go.id/tdpse-detail/12051",
            "website": "medico.id"
        },
        {
            "id": "9cb1ac05-8ac5-4c59-9127-5254dbb8463b",
            "nama_pse": "SURYA TIMUR ALAM RAYA ASSET MANAGEMENT",
            "nama_se": "STARTRACK",
            "sektor": "Sektor Keuangan",
            "tanggal_terbit": "2022-10-31",
            "url_tdpse_detail": "https://pse.komdigi.go.id/tdpse-detail/12053",
            "website": "star-am.com"
        },
        {
            "id": "9cb1ac05-96a7-4c4d-b34f-572661005f3e",
            "nama_pse": "DIGITAL KITA INDONESIA",
            "nama_se": "LEGALKITA",
            "sektor": "Sektor Teknologi Informasi dan Komunikasi",
            "tanggal_terbit": "2022-10-31",
            "url_tdpse_detail": "https://pse.komdigi.go.id/tdpse-detail/12057",
            "website": "legalkita.id"
        },
        {
            "id": "9cb1ac05-9a7b-4f18-82ce-d85ce1fb4716",
            "nama_pse": "PROFASKES SOFTECH INDONESIA",
            "nama_se": "PROFASKES",
            "sektor": "Sektor Kesehatan",
            "tanggal_terbit": "2022-10-31",
            "url_tdpse_detail": "https://pse.komdigi.go.id/tdpse-detail/12058",
            "website": "profaskes.id"
        },
        {
            "id": "9cb1ac05-5319-4966-bcca-a609463fb839",
            "nama_pse": "DIGITECH SIBER WEB",
            "nama_se": "IDDIGITECH.ID",
            "sektor": "Sektor Teknologi Informasi dan Komunikasi",
            "tanggal_terbit": "2022-10-30",
            "url_tdpse_detail": "https://pse.komdigi.go.id/tdpse-detail/12018",
            "website": "iddigitech.id"
        },
        {
            "id": "9cb1ac14-05f3-4d4e-9daa-42bc39d54d03",
            "nama_pse": "NURSYAHIDAH",
            "nama_se": "APLIKASI SAMBAR",
            "sektor": "Sektor Transportasi",
            "tanggal_terbit": "2022-10-30",
            "url_tdpse_detail": "https://pse.komdigi.go.id/tdpse-detail/12019",
            "website": "-"
        },
        {
            "id": "9cb1abe1-497d-4a73-96c4-cc0a622c6bd8",
            "nama_pse": "RANDY SALUMAN ",
            "nama_se": "ADAJO",
            "sektor": "Sektor Perdagangan, Sektor Keuangan",
            "tanggal_terbit": "2022-10-29",
            "url_tdpse_detail": "https://pse.komdigi.go.id/tdpse-detail/12016",
            "website": "-"
        },
        {
            "id": "9cb1ac14-02d0-4898-abed-945cdb695d07",
            "nama_pse": "KOPDIT KARYA JASA",
            "nama_se": "KOPERASI KREDIT KARYA JASA",
            "sektor": "Sektor Keuangan",
            "tanggal_terbit": "2022-10-29",
            "url_tdpse_detail": "https://pse.komdigi.go.id/tdpse-detail/12017",
            "website": "karyajasa.com"
        },
        {
            "id": "9cb1ac13-e9b4-4ba1-8a09-c49657009fb8",
            "nama_pse": "TIGA MENARA JAYA",
            "nama_se": "BUKAPASAR",
            "sektor": "Sektor Perdagangan",
            "tanggal_terbit": "2022-10-28",
            "url_tdpse_detail": "https://pse.komdigi.go.id/tdpse-detail/12000",
            "website": "bukapasar.id"
        },
        {
            "id": "9cb1abe1-4242-4ec5-9e1e-f8229e44ed60",
            "nama_pse": "MEDIA LATAHZAN NUSANTARA",
            "nama_se": "MEDIA LATAHZAN",
            "sektor": "Sektor Teknologi Informasi dan Komunikasi",
            "tanggal_terbit": "2022-10-28",
            "url_tdpse_detail": "https://pse.komdigi.go.id/tdpse-detail/12001",
            "website": "medialatahzan.com"
        },
        {
            "id": "9cb1ac05-3d47-4211-afdc-48fc431b7cbb",
            "nama_pse": "BANK PERKREDITAN RAKYAT NUSAPANIDA KUTA",
            "nama_se": "BANKING SMART SYSTEM",
            "sektor": "Sektor Keuangan",
            "tanggal_terbit": "2022-10-28",
            "url_tdpse_detail": "https://pse.komdigi.go.id/tdpse-detail/12006",
            "website": "-"
        },
        {
            "id": "9cb1ac05-4018-4914-aec8-32ca0b8c4ad7",
            "nama_pse": "IVAN DESTIAN BUTAR BUTAR",
            "nama_se": "BENIH BELAJAR",
            "sektor": "Sektor Perdagangan",
            "tanggal_terbit": "2022-10-28",
            "url_tdpse_detail": "https://pse.komdigi.go.id/tdpse-detail/12002",
            "website": "benihbelajar.id"
        },
        {
            "id": "9cb1ac13-ec9e-4f3e-912e-7865107c9c7c",
            "nama_pse": "MECOINDO",
            "nama_se": "PJU MERAH PUTIH",
            "sektor": "Sektor Teknologi Informasi dan Komunikasi",
            "tanggal_terbit": "2022-10-28",
            "url_tdpse_detail": "https://pse.komdigi.go.id/tdpse-detail/12003",
            "website": "pjumerahputih.com"
        },
        {
            "id": "9cb1ac13-eff2-430b-968c-378d1c5025da",
            "nama_pse": "MEDIA KLATEN BERSINAR",
            "nama_se": "KILAS.CO",
            "sektor": "Sektor Teknologi Informasi dan Komunikasi",
            "tanggal_terbit": "2022-10-28",
            "url_tdpse_detail": "https://pse.komdigi.go.id/tdpse-detail/12004",
            "website": "kilas.co"
        },
        {
            "id": "9cb1ac13-f350-435a-9631-1078aa736778",
            "nama_pse": "FORTUNE GLOBAL FINANCE",
            "nama_se": "FORTUNE GLOBAL FINANCE",
            "sektor": "Sektor Teknologi Informasi dan Komunikasi",
            "tanggal_terbit": "2022-10-28",
            "url_tdpse_detail": "https://pse.komdigi.go.id/tdpse-detail/12005",
            "website": "-"
        },
        {
            "id": "9cb1ac05-4323-4e64-a6c5-707309053e5e",
            "nama_pse": "TOP NETWORK COM",
            "nama_se": "TOP NETWORK COM",
            "sektor": "Sektor Teknologi Informasi dan Komunikasi",
            "tanggal_terbit": "2022-10-28",
            "url_tdpse_detail": "https://pse.komdigi.go.id/tdpse-detail/12007",
            "website": "-"
        },
        {
            "id": "9cb1ac05-46cd-419a-8f8e-1c3678889aa3",
            "nama_pse": "TELEMARKETING INDONESIA",
            "nama_se": "TELEPERFORMANCE TP CLIENT",
            "sektor": "Sektor Perdagangan, Sektor Teknologi Informasi dan Komunikasi",
            "tanggal_terbit": "2022-10-28",
            "url_tdpse_detail": "https://pse.komdigi.go.id/tdpse-detail/12008",
            "website": "-"
        },
        {
            "id": "9cb1ac05-4e18-4cc3-b044-f737cd87b72b",
            "nama_pse": "DIGITAL AKSES NUSANTARA",
            "nama_se": "APLIKASI KEUANGAN INTERNAL",
            "sektor": "Sektor Teknologi Informasi dan Komunikasi",
            "tanggal_terbit": "2022-10-28",
            "url_tdpse_detail": "https://pse.komdigi.go.id/tdpse-detail/12013",
            "website": "apps.digta.net"
        }
    ],
    "processingTimeMs": 3,
    "query": "",
    "totalHits": 19121,
    "hitsPerPage": 50,
    "page": 173,
    "totalPages": 383
}