{
    "hits": [
        {
            "id": "9d5cc96e-73f1-4ab8-a209-db6c0eb55506",
            "nama_pse": "ANUGERAH MOTOR DELAPAN DELAPAN SEMBILAN INDONESIA",
            "nama_se": "PT. ANUGERAH MOTOR DELAPAN DELAPAN SEMBILAN INDONESIA",
            "sektor": "Sektor Perdagangan, Sektor Transportasi",
            "tanggal_terbit": "2024-10-29",
            "url_tdpse_detail": "https://pse.komdigi.go.id/tdpse-detail/20949",
            "website": "-"
        },
        {
            "id": "9d5cd17e-2900-49a9-8859-186634f71f3b",
            "nama_pse": "ANUGERAH MOTOR DELAPAN DELAPAN SEMBILAN INDONESIA",
            "nama_se": "PT ANUGERAH MOTOR DELAPAN DELAPAN SEMBILAN INDONESIA",
            "sektor": "Sektor Perdagangan, Sektor Transportasi",
            "tanggal_terbit": "2024-10-29",
            "url_tdpse_detail": "https://pse.komdigi.go.id/tdpse-detail/20950",
            "website": "-"
        },
        {
            "id": "9d5bbb42-52c4-47e8-b557-4de2cb407859",
            "nama_pse": "KREASI RAYA NUSANTARA",
            "nama_se": "METROBIT",
            "sektor": "Sektor Teknologi Informasi dan Komunikasi",
            "tanggal_terbit": "2024-10-29",
            "url_tdpse_detail": "https://pse.komdigi.go.id/tdpse-detail/20936",
            "website": "metrobit.id"
        },
        {
            "id": "9d5bc44f-82cc-4f64-a239-0dbe94e4b810",
            "nama_pse": "AL AMIN BERKAH SEJAHTERA",
            "nama_se": "KOPERASI MOBILE ON LINE",
            "sektor": "Sektor Teknologi Informasi dan Komunikasi",
            "tanggal_terbit": "2024-10-29",
            "url_tdpse_detail": "https://pse.komdigi.go.id/tdpse-detail/20938",
            "website": "-"
        },
        {
            "id": "9d5bbc7b-048a-462d-9dd0-d208caf98eab",
            "nama_pse": "AFA MENTARI",
            "nama_se": "SIM JGLOW",
            "sektor": "Sektor Kesehatan",
            "tanggal_terbit": "2024-10-29",
            "url_tdpse_detail": "https://pse.komdigi.go.id/tdpse-detail/20937",
            "website": "-"
        },
        {
            "id": "9d5bd235-eae2-4928-98dd-d2e9e5139ad3",
            "nama_pse": "MUHAMAD SULAEMAN",
            "nama_se": "PT FAJARNUSA MULYA ABADI",
            "sektor": "Sektor Teknologi Informasi dan Komunikasi",
            "tanggal_terbit": "2024-10-29",
            "url_tdpse_detail": "https://pse.komdigi.go.id/tdpse-detail/20940",
            "website": "www.fajarnusa.com"
        },
        {
            "id": "9d5bd678-a2b4-49b8-999e-5873cf748d24",
            "nama_pse": "EMAS KARYA ABADI",
            "nama_se": "MOMAPAN",
            "sektor": "Sektor Perdagangan",
            "tanggal_terbit": "2024-10-29",
            "url_tdpse_detail": "https://pse.komdigi.go.id/tdpse-detail/20941",
            "website": "momapan.id"
        },
        {
            "id": "9d5c168c-8984-4d26-8bc4-f96f7e5bae9d",
            "nama_pse": "PILAR SARANA INOVASI",
            "nama_se": "PASARINO",
            "sektor": "Sektor Teknologi Informasi dan Komunikasi",
            "tanggal_terbit": "2024-10-29",
            "url_tdpse_detail": "https://pse.komdigi.go.id/tdpse-detail/20943",
            "website": "pasarino.com"
        },
        {
            "id": "9d5c2029-8589-40b0-874f-a93daf9fb40b",
            "nama_pse": "GARANSI DIGITAL INDONESIA",
            "nama_se": "PT GARANSI DIGITAL INDONESIA",
            "sektor": "Sektor Teknologi Informasi dan Komunikasi",
            "tanggal_terbit": "2024-10-29",
            "url_tdpse_detail": "https://pse.komdigi.go.id/tdpse-detail/20944",
            "website": "garansidigital.com"
        },
        {
            "id": "9d5c2d94-e83c-4360-94d7-ba69c8977099",
            "nama_pse": "INOVASI JAYA DIGITAL",
            "nama_se": "NEEMA",
            "sektor": "Sektor Teknologi Informasi dan Komunikasi",
            "tanggal_terbit": "2024-10-29",
            "url_tdpse_detail": "https://pse.komdigi.go.id/tdpse-detail/20945",
            "website": "neema.asia"
        },
        {
            "id": "9d5c2f39-a7c9-4396-8178-5df5e2c43bf1",
            "nama_pse": "ESC JAYA GROUP",
            "nama_se": "ESEMKA PAY",
            "sektor": "Sektor Perdagangan",
            "tanggal_terbit": "2024-10-29",
            "url_tdpse_detail": "https://pse.komdigi.go.id/tdpse-detail/20946",
            "website": "smartnusaka.com"
        },
        {
            "id": "9d5c2f9d-364f-4a11-a25c-59664be8bf6d",
            "nama_pse": "SWEE LEE INDONESIA",
            "nama_se": "SWEE LEE",
            "sektor": "Sektor Perdagangan",
            "tanggal_terbit": "2024-10-29",
            "url_tdpse_detail": "https://pse.komdigi.go.id/tdpse-detail/20947",
            "website": "sweelee.co.id"
        },
        {
            "id": "9d5c465e-0f88-4303-8c03-f1c77970b359",
            "nama_pse": "TEKNOLOGI CERDAS FINANSIAL",
            "nama_se": "CASHCERDAS",
            "sektor": "Sektor Teknologi Informasi dan Komunikasi",
            "tanggal_terbit": "2024-10-29",
            "url_tdpse_detail": "https://pse.komdigi.go.id/tdpse-detail/20948",
            "website": "cashcerdas.id"
        },
        {
            "id": "9d5bdabd-4759-4254-9ef4-7fe255eb01ea",
            "nama_pse": "LAMIH RIZKI HULONDALO",
            "nama_se": "LARISKA",
            "sektor": "Sektor Perdagangan",
            "tanggal_terbit": "2024-10-29",
            "url_tdpse_detail": "https://pse.komdigi.go.id/tdpse-detail/20942",
            "website": "-"
        },
        {
            "id": "9cb1ac55-e96b-4512-8234-1fbfcf9f4768",
            "nama_pse": "BERSAMA BERAMAL SHOLEH",
            "nama_se": "AMALSHOLEH.COM",
            "sektor": "Sektor Teknologi Informasi dan Komunikasi",
            "tanggal_terbit": "2024-10-28",
            "url_tdpse_detail": "https://pse.komdigi.go.id/tdpse-detail/20933",
            "website": "amalsholeh.com"
        },
        {
            "id": "9d59d27e-8266-442a-b387-7d135214466d",
            "nama_pse": "BALABOOM TECHNOLOGY INDONESIA",
            "nama_se": "BILIBILI - HD ANIME, VIDEOS",
            "sektor": "Sektor Teknologi Informasi dan Komunikasi",
            "tanggal_terbit": "2024-10-28",
            "url_tdpse_detail": "https://pse.komdigi.go.id/tdpse-detail/20925",
            "website": "-"
        },
        {
            "id": "9d59aa0c-c75e-4957-b9c8-dabdeed36e00",
            "nama_pse": "SUGIHARTO TECHNOLOGY SOLUSINDO",
            "nama_se": "SIMRSSEHAT",
            "sektor": "Sektor Teknologi Informasi dan Komunikasi",
            "tanggal_terbit": "2024-10-28",
            "url_tdpse_detail": "https://pse.komdigi.go.id/tdpse-detail/20919",
            "website": "sutech.co.id"
        },
        {
            "id": "9d5e1f55-dade-4fb9-8f9c-e830f8442598",
            "nama_pse": "MITRA KRIPTO SUKSES",
            "nama_se": "PT MITRA KRIPTO SUKSES",
            "sektor": "Sektor Perdagangan",
            "tanggal_terbit": "2024-10-28",
            "url_tdpse_detail": "https://pse.komdigi.go.id/tdpse-detail/20973",
            "website": "kriptosukses.com"
        },
        {
            "id": "9d59d768-fe91-4bae-9c80-4f16ba13edbd",
            "nama_pse": "BALABOOM TECHNOLOGY INDONESIA",
            "nama_se": "tv.bilibili.tv",
            "sektor": "Sektor Teknologi Informasi dan Komunikasi",
            "tanggal_terbit": "2024-10-28",
            "url_tdpse_detail": "https://pse.komdigi.go.id/tdpse-detail/20926",
            "website": "tv.bilibili.tv"
        },
        {
            "id": "9d59dc38-6baa-4219-a822-89700796917b",
            "nama_pse": "LEGAL KEY SOLUTION",
            "nama_se": "CV. LEGAL KEY SOLUTION",
            "sektor": "Sektor Perdagangan, Sektor Teknologi Informasi dan Komunikasi",
            "tanggal_terbit": "2024-10-28",
            "url_tdpse_detail": "https://pse.komdigi.go.id/tdpse-detail/20929",
            "website": "legalkeysolution.com"
        },
        {
            "id": "9d58dc3c-343a-4636-b6de-956f5d5b4799",
            "nama_pse": "GANESHA MULTI KREATIF",
            "nama_se": "ganeshaconsulting.co.id",
            "sektor": "Sektor Perdagangan, Sektor Teknologi Informasi dan Komunikasi",
            "tanggal_terbit": "2024-10-28",
            "url_tdpse_detail": "https://pse.komdigi.go.id/tdpse-detail/20918",
            "website": "-"
        },
        {
            "id": "9d5a0a69-a520-40c1-b65e-fc6fd47c55da",
            "nama_pse": "CIPTA GRAHA SOFTWARE",
            "nama_se": "CIPTA GRAHA SOFTWARE",
            "sektor": "Sektor Teknologi Informasi dan Komunikasi",
            "tanggal_terbit": "2024-10-28",
            "url_tdpse_detail": "https://pse.komdigi.go.id/tdpse-detail/20931",
            "website": "ciptagrahasoftware.com"
        },
        {
            "id": "9d5a0f15-e595-46d2-8e4e-a4431f466c77",
            "nama_pse": "SLO ONLINE INDONESIA",
            "nama_se": "SLO ONLINE INDONESIA",
            "sektor": "Sektor Perdagangan",
            "tanggal_terbit": "2024-10-28",
            "url_tdpse_detail": "https://pse.komdigi.go.id/tdpse-detail/20932",
            "website": "-"
        },
        {
            "id": "9d5a0267-8e60-4f1e-a05d-75d488281923",
            "nama_pse": "MIDWEB SOLUSI DIGITAL ANAK BANGSA",
            "nama_se": "MIDWEB",
            "sektor": "Sektor Perdagangan, Sektor Teknologi Informasi dan Komunikasi",
            "tanggal_terbit": "2024-10-28",
            "url_tdpse_detail": "https://pse.komdigi.go.id/tdpse-detail/20930",
            "website": "midweb.co"
        },
        {
            "id": "9d59bfaf-3f8e-4408-ba58-a6583cb6be5c",
            "nama_pse": "ASSHOFA BAROKAH MEDISINA",
            "nama_se": "e-simklinik As-Shofa",
            "sektor": "Sektor Kesehatan",
            "tanggal_terbit": "2024-10-28",
            "url_tdpse_detail": "https://pse.komdigi.go.id/tdpse-detail/20922",
            "website": "asshofa.net"
        },
        {
            "id": "9d59d884-f459-4512-990a-4a7967b2731f",
            "nama_pse": "INOVASI JAYA INVESTAMA KARUNIA",
            "nama_se": "STREAMTALK",
            "sektor": "Sektor Teknologi Informasi dan Komunikasi",
            "tanggal_terbit": "2024-10-28",
            "url_tdpse_detail": "https://pse.komdigi.go.id/tdpse-detail/20927",
            "website": "streamtalk.live"
        },
        {
            "id": "9d59af73-afd3-4f15-b3ba-95c24c7cf89e",
            "nama_pse": "PERUSAHAAN PERSEROAN (PERSERO) BANK NEGARA INDONESIA",
            "nama_se": "wondr by BNI",
            "sektor": "Sektor Keuangan",
            "tanggal_terbit": "2024-10-28",
            "url_tdpse_detail": "https://pse.komdigi.go.id/tdpse-detail/20920",
            "website": "-"
        },
        {
            "id": "9d59af91-980a-469d-aaba-471b5fe0d887",
            "nama_pse": "PERUSAHAAN PERSEROAN (PERSERO) BANK NEGARA INDONESIA",
            "nama_se": "wondr by BNI.",
            "sektor": "Sektor Keuangan",
            "tanggal_terbit": "2024-10-28",
            "url_tdpse_detail": "https://pse.komdigi.go.id/tdpse-detail/20921",
            "website": "-"
        },
        {
            "id": "9d5a3d97-8c82-4857-9569-794c0dda82a1",
            "nama_pse": "BERSAMA SENYUMKAN INDONESIA",
            "nama_se": "siedental.id",
            "sektor": "Sektor Kesehatan",
            "tanggal_terbit": "2024-10-28",
            "url_tdpse_detail": "https://pse.komdigi.go.id/tdpse-detail/20934",
            "website": "siedental.id"
        },
        {
            "id": "9d57e773-ffa0-4001-8366-cf72a540bfac",
            "nama_pse": "JEJAK KASUS GROUP",
            "nama_se": "analisarakyat.com",
            "sektor": "Sektor Teknologi Informasi dan Komunikasi",
            "tanggal_terbit": "2024-10-27",
            "url_tdpse_detail": "https://pse.komdigi.go.id/tdpse-detail/20914",
            "website": "analisarakyat.com"
        },
        {
            "id": "9d580e09-11c5-491e-9439-9af88085dc7e",
            "nama_pse": "MENTARI ANUGERAH SOLUSI INFORMATIKA",
            "nama_se": "masit.co.id",
            "sektor": "Sektor Teknologi Informasi dan Komunikasi",
            "tanggal_terbit": "2024-10-27",
            "url_tdpse_detail": "https://pse.komdigi.go.id/tdpse-detail/20915",
            "website": "masit.co.id"
        },
        {
            "id": "9d58d194-8228-4a8b-9fe6-d5e2a33fef45",
            "nama_pse": "GANESHA MULTI KREATIF",
            "nama_se": "GANESHA CONSULTING",
            "sektor": "Sektor Perdagangan",
            "tanggal_terbit": "2024-10-27",
            "url_tdpse_detail": "https://pse.komdigi.go.id/tdpse-detail/20917",
            "website": "ganeshaconsulting.co.id"
        },
        {
            "id": "9d584cad-b8bd-481c-a9b6-082bd4995e51",
            "nama_pse": "PENA JURNALIS GROUP",
            "nama_se": "JURNALNASIONAL.NET",
            "sektor": "Sektor Teknologi Informasi dan Komunikasi",
            "tanggal_terbit": "2024-10-27",
            "url_tdpse_detail": "https://pse.komdigi.go.id/tdpse-detail/20916",
            "website": "jurnalnasional.net"
        },
        {
            "id": "9d5e0f69-0304-462f-9d0f-28bded10c064",
            "nama_pse": "GROWFOOD SUKSES MAKMUR",
            "nama_se": "GROFOOD MARKETPLACE",
            "sektor": "Sektor Perdagangan",
            "tanggal_terbit": "2024-10-26",
            "url_tdpse_detail": "https://pse.komdigi.go.id/tdpse-detail/20966",
            "website": "growfood.id"
        },
        {
            "id": "9d55e0a1-62a2-4bc7-b51d-c2a52ca0b1f4",
            "nama_pse": "SINDHY EKA PUNDHARIKA",
            "nama_se": "SINGO LANGIT SINDHY",
            "sektor": "Sektor Perdagangan, Sektor Teknologi Informasi dan Komunikasi",
            "tanggal_terbit": "2024-10-26",
            "url_tdpse_detail": "https://pse.komdigi.go.id/tdpse-detail/20913",
            "website": "-"
        },
        {
            "id": "9d922269-5980-4fb0-95e9-354528b7c79b",
            "nama_pse": "JINGDONG INDUSTRIALS INDONESIA",
            "nama_se": "JDI INDONESIA",
            "sektor": "Sektor Perdagangan",
            "tanggal_terbit": "2024-10-26",
            "url_tdpse_detail": "https://pse.komdigi.go.id/tdpse-detail/20912",
            "website": "buy.jdindustry.com"
        },
        {
            "id": "9d53eb3a-be73-4846-be25-23f4d4ae4e1a",
            "nama_pse": "SELAMAT LESTARI MANDIRI",
            "nama_se": "selamat-toyota.com",
            "sektor": "Sektor Perdagangan",
            "tanggal_terbit": "2024-10-25",
            "url_tdpse_detail": "https://pse.komdigi.go.id/tdpse-detail/20904",
            "website": "selamat-toyota.com"
        },
        {
            "id": "9d59c197-8a4f-491c-b670-4a2bb198394d",
            "nama_pse": "DELTA SUKSES TEKNOLOGI",
            "nama_se": "DJOY 9",
            "sektor": "Sektor Perdagangan",
            "tanggal_terbit": "2024-10-25",
            "url_tdpse_detail": "https://pse.komdigi.go.id/tdpse-detail/20923",
            "website": "djoy9.com"
        },
        {
            "id": "9d539612-f1cd-41cf-a020-6b8097275469",
            "nama_pse": "TRIPAYMU",
            "nama_se": "SEE CREATIVE",
            "sektor": "Sektor Teknologi Informasi dan Komunikasi",
            "tanggal_terbit": "2024-10-25",
            "url_tdpse_detail": "https://pse.komdigi.go.id/tdpse-detail/20899",
            "website": "seecreative.id"
        },
        {
            "id": "9d53beda-9d46-4dff-ae88-5a235b83f4f9",
            "nama_pse": "GOEDANG JASA INDONESIA",
            "nama_se": "GOEDANG JASA",
            "sektor": "Sektor Teknologi Informasi dan Komunikasi",
            "tanggal_terbit": "2024-10-25",
            "url_tdpse_detail": "https://pse.komdigi.go.id/tdpse-detail/20901",
            "website": "goedangjasa.web.id"
        },
        {
            "id": "9d53d3ba-996b-4e0c-bb5f-938c6e3d401b",
            "nama_pse": "VIVA ESTEMEDIKA INDONESIA",
            "nama_se": "MYVIVALDY",
            "sektor": "Sektor Kesehatan",
            "tanggal_terbit": "2024-10-25",
            "url_tdpse_detail": "https://pse.komdigi.go.id/tdpse-detail/20902",
            "website": "myvivaldy.com"
        },
        {
            "id": "9d540cec-316a-45d6-8c98-458a40948939",
            "nama_pse": "MAHA MEDIS INDONESIA",
            "nama_se": "FARMA MEDIS APPS",
            "sektor": "Sektor Kesehatan, Sektor Teknologi Informasi dan Komunikasi",
            "tanggal_terbit": "2024-10-25",
            "url_tdpse_detail": "https://pse.komdigi.go.id/tdpse-detail/20905",
            "website": "-"
        },
        {
            "id": "9d53a649-c19f-46a3-a7e7-f200e174728d",
            "nama_pse": "ARIYAH DUNAH GROUP NETWORK",
            "nama_se": "LAYNANA JASA AKTIFASI KOMPUTER \u0026 INTERNET LOKAL",
            "sektor": "Sektor Perdagangan, Sektor Teknologi Informasi dan Komunikasi, Sektor Pertahanan dan Keamanan",
            "tanggal_terbit": "2024-10-25",
            "url_tdpse_detail": "https://pse.komdigi.go.id/tdpse-detail/20900",
            "website": "-"
        },
        {
            "id": "9d54146e-5b7e-429a-a5fc-3a05cede2491",
            "nama_pse": "SEMESTA INTEGRASI DIGITAL",
            "nama_se": "KARIER.MU - PRAKERJA \u0026 PRO",
            "sektor": "Sektor Teknologi Informasi dan Komunikasi",
            "tanggal_terbit": "2024-10-25",
            "url_tdpse_detail": "https://pse.komdigi.go.id/tdpse-detail/20907",
            "website": "-"
        },
        {
            "id": "9d5415a3-fbdb-4445-a04c-b07d7f3f26c6",
            "nama_pse": "PRUDENTIAL LIFE ASSURANCE",
            "nama_se": "POLISKU",
            "sektor": "Sektor Keuangan",
            "tanggal_terbit": "2024-10-25",
            "url_tdpse_detail": "https://pse.komdigi.go.id/tdpse-detail/20908",
            "website": "polisku.prudential.co.id"
        },
        {
            "id": "9d540d1f-993c-4866-8928-b72f6cb368d3",
            "nama_pse": "SKYLINE SEMESTA",
            "nama_se": "BLUESKY",
            "sektor": "Sektor Perdagangan, Sektor Teknologi Informasi dan Komunikasi",
            "tanggal_terbit": "2024-10-25",
            "url_tdpse_detail": "https://pse.komdigi.go.id/tdpse-detail/20906",
            "website": "blueskynet.id"
        },
        {
            "id": "9d54ad28-5ebd-47b3-ae50-79c144ae44a8",
            "nama_pse": "TRIPAYMU",
            "nama_se": "ASKARA MEDIKA",
            "sektor": "Sektor Kesehatan",
            "tanggal_terbit": "2024-10-25",
            "url_tdpse_detail": "https://pse.komdigi.go.id/tdpse-detail/20910",
            "website": "askaramedika.com"
        },
        {
            "id": "9d53dfae-ca1d-49b3-9918-c232e7d3e133",
            "nama_pse": "SOLUSI IDENTITAS TANDA TANGAN",
            "nama_se": "SOLUSI IDENTITAS TANDA TANGAN",
            "sektor": "Sektor Teknologi Informasi dan Komunikasi",
            "tanggal_terbit": "2024-10-25",
            "url_tdpse_detail": "https://pse.komdigi.go.id/tdpse-detail/20903",
            "website": "solusittd.co.id"
        },
        {
            "id": "9d67e75e-a256-4583-9a47-9bf8ab1c6e72",
            "nama_pse": "TONGCHENG TRAVEL MOBILITY",
            "nama_se": "HOPEGOO",
            "sektor": "Sektor Teknologi Informasi dan Komunikasi",
            "tanggal_terbit": "2024-10-25",
            "url_tdpse_detail": "https://pse.komdigi.go.id/tdpse-detail/21035",
            "website": "hopegoo.com"
        },
        {
            "id": "9d764820-f5a8-47bd-96b8-59b6a288374f",
            "nama_pse": "GAJIAN SEKARANG TEKNOLOGI",
            "nama_se": "GAJIAN SEKARANG",
            "sektor": "Sektor Teknologi Informasi dan Komunikasi",
            "tanggal_terbit": "2024-10-24",
            "url_tdpse_detail": "https://pse.komdigi.go.id/tdpse-detail/21150",
            "website": "gajiansekarang.com"
        }
    ],
    "processingTimeMs": 9,
    "query": "",
    "totalHits": 19131,
    "hitsPerPage": 50,
    "page": 30,
    "totalPages": 383
}