{
    "hits": [
        {
            "id": "9cb1abab-3e31-4549-b5a9-d8074b0ec4f4",
            "nama_pse": "RETAIL KITA INDONESIA",
            "nama_se": "SISTEM ELEKTRONIK RETAIL KITA",
            "sektor": "Sektor Perdagangan, Sektor Teknologi Informasi dan Komunikasi",
            "tanggal_terbit": "2022-04-08",
            "url_tdpse_detail": "https://pse.komdigi.go.id/tdpse-detail/3813",
            "website": "retailkita.com"
        },
        {
            "id": "9cb1aba1-473a-419a-9fc9-eb7260e7c9d4",
            "nama_pse": "PUTRA MEKONGGA",
            "nama_se": "CV.PUTRA MEKONGGA",
            "sektor": "Sektor Perdagangan, Sektor Energi dan Sumber Daya Mineral, Sektor Transportasi, Sektor Teknologi Informasi dan Komunikasi",
            "tanggal_terbit": "2022-04-08",
            "url_tdpse_detail": "https://pse.komdigi.go.id/tdpse-detail/3818",
            "website": "-"
        },
        {
            "id": "9cb1aba1-556d-4a8d-8896-9539cd02a7bf",
            "nama_pse": "BANGUN CIPTA MASA DEPAN",
            "nama_se": "AZFORCE.",
            "sektor": "Sektor Teknologi Informasi dan Komunikasi",
            "tanggal_terbit": "2022-04-08",
            "url_tdpse_detail": "https://pse.komdigi.go.id/tdpse-detail/3812",
            "website": "-"
        },
        {
            "id": "9cb1abad-84ad-4458-9401-10d91ce411d7",
            "nama_pse": "BANK SAHABAT SAMPOERNA",
            "nama_se": "INTERNET BANKING BANK  SAHABAT SAMPOERNA",
            "sektor": "Sektor Keuangan",
            "tanggal_terbit": "2022-04-08",
            "url_tdpse_detail": "https://pse.komdigi.go.id/tdpse-detail/4589",
            "website": "ibank.banksampoerna.co.id"
        },
        {
            "id": "9cb1aba0-4d1f-40fe-9636-d3526c87bb02",
            "nama_pse": "MITRA SEMERU INDONESIA",
            "nama_se": "HALAL PLAZA",
            "sektor": "Sektor Perdagangan",
            "tanggal_terbit": "2022-04-07",
            "url_tdpse_detail": "https://pse.komdigi.go.id/tdpse-detail/3806",
            "website": "halalplaza.asia"
        },
        {
            "id": "9cb1aba0-85a8-4c64-bf2f-16bb95861b3e",
            "nama_pse": "NURLAILA",
            "nama_se": "PT WARTAMOTO INDONESIA",
            "sektor": "Sektor Perdagangan, Sektor Transportasi",
            "tanggal_terbit": "2022-04-07",
            "url_tdpse_detail": "https://pse.komdigi.go.id/tdpse-detail/3804",
            "website": "wartamoto.com"
        },
        {
            "id": "9cb1aba0-8f90-4b08-80cd-871092c7dadc",
            "nama_pse": "CENTRAL FINANSIAL X",
            "nama_se": "KRIPTOBERKAT",
            "sektor": "Sektor Keuangan",
            "tanggal_terbit": "2022-04-07",
            "url_tdpse_detail": "https://pse.komdigi.go.id/tdpse-detail/3811",
            "website": "kriptoberkat.com"
        },
        {
            "id": "9cb1aba0-992a-40a4-96c0-8321b7509baa",
            "nama_pse": "KRIPTO INOVASI NUSANTARA",
            "nama_se": "COINX",
            "sektor": "Sektor Perdagangan",
            "tanggal_terbit": "2022-04-07",
            "url_tdpse_detail": "https://pse.komdigi.go.id/tdpse-detail/3795",
            "website": "-"
        },
        {
            "id": "9cb1abab-40c7-4c42-af6b-84f8beebbb31",
            "nama_pse": "SOLUBIS SUKSES GEMILANG",
            "nama_se": "WWW.SOLUBIS.COM",
            "sektor": "Sektor Perdagangan, Sektor Teknologi Informasi dan Komunikasi",
            "tanggal_terbit": "2022-04-07",
            "url_tdpse_detail": "https://pse.komdigi.go.id/tdpse-detail/3799",
            "website": "solubis.com"
        },
        {
            "id": "9cb1abab-6fea-46af-892c-7cc0d2415b5f",
            "nama_pse": "BANANA NIAGA NATURA",
            "nama_se": "BANANAS",
            "sektor": "Sektor Perdagangan",
            "tanggal_terbit": "2022-04-07",
            "url_tdpse_detail": "https://pse.komdigi.go.id/tdpse-detail/3800",
            "website": "bananas.id"
        },
        {
            "id": "9cb1aba1-0f6a-4bc8-af14-072c162fcb10",
            "nama_pse": "HERBALIFE INDONESIA",
            "nama_se": "GOHERBALIFE.COM",
            "sektor": "Sektor Perdagangan",
            "tanggal_terbit": "2022-04-07",
            "url_tdpse_detail": "https://pse.komdigi.go.id/tdpse-detail/3796",
            "website": "goherbalife.com"
        },
        {
            "id": "9cb1aba1-11c0-4830-b86c-98f883272591",
            "nama_pse": "HERBALIFE INDONESIA",
            "nama_se": "MYHERBALIFE.COM",
            "sektor": "Sektor Perdagangan",
            "tanggal_terbit": "2022-04-07",
            "url_tdpse_detail": "https://pse.komdigi.go.id/tdpse-detail/3797",
            "website": "myHerbalife.com"
        },
        {
            "id": "9cb1aba1-1906-4db1-bced-652909edd711",
            "nama_pse": "HERBALIFE INDONESIA",
            "nama_se": "HERBALIFE DISTRIBUTOR ORDER",
            "sektor": "Sektor Perdagangan",
            "tanggal_terbit": "2022-04-07",
            "url_tdpse_detail": "https://pse.komdigi.go.id/tdpse-detail/3801",
            "website": "-"
        },
        {
            "id": "9cb1aba1-1b3c-4772-8279-c3b706a45e6c",
            "nama_pse": "HERBALIFE INDONESIA",
            "nama_se": "HERBALIFE NUTRITION POINT OF SALES",
            "sektor": "Sektor Perdagangan",
            "tanggal_terbit": "2022-04-07",
            "url_tdpse_detail": "https://pse.komdigi.go.id/tdpse-detail/3807",
            "website": "-"
        },
        {
            "id": "9cb1abab-b064-4b7a-bb27-70508a884f3f",
            "nama_pse": "PT INTI MEDICOM RETAILINDO",
            "nama_se": "ONEMED STORE",
            "sektor": "Sektor Perdagangan, Sektor Kesehatan",
            "tanggal_terbit": "2022-04-07",
            "url_tdpse_detail": "https://pse.komdigi.go.id/tdpse-detail/3798",
            "website": "onemedstore.id"
        },
        {
            "id": "9cb1ab94-cdf1-49a7-936b-c3c890abdcac",
            "nama_pse": "SERASI MITRA MOBIL",
            "nama_se": "MO88I",
            "sektor": "Sektor Perdagangan",
            "tanggal_terbit": "2022-04-07",
            "url_tdpse_detail": "https://pse.komdigi.go.id/tdpse-detail/3930",
            "website": "mo88i.com"
        },
        {
            "id": "9cb1ab94-d23f-496c-923b-59d94387b2de",
            "nama_pse": "PERUSAHAAN PERSEROAN (PERSERO) PT. BANK RAKYAT INDONESIA",
            "nama_se": "BRICAMS",
            "sektor": "Sektor Keuangan",
            "tanggal_terbit": "2022-04-07",
            "url_tdpse_detail": "https://pse.komdigi.go.id/tdpse-detail/3802",
            "website": "cms.bri.co.id"
        },
        {
            "id": "9cb1ab94-d48a-46b9-bbd5-2a180d0e6e61",
            "nama_pse": "PERUSAHAAN PERSEROAN (PERSERO) PT. BANK RAKYAT INDONESIA",
            "nama_se": "CASH MANAGEMENT SYSTEM BRI",
            "sektor": "Sektor Keuangan",
            "tanggal_terbit": "2022-04-07",
            "url_tdpse_detail": "https://pse.komdigi.go.id/tdpse-detail/3803",
            "website": "ibank.bri.co.id"
        },
        {
            "id": "9cb1ab94-e903-4237-87d9-c608a7aae3a9",
            "nama_pse": "ERHA CLINIC INDONESIA",
            "nama_se": "ERHA BUDDY",
            "sektor": "Sektor Perdagangan, Sektor Kesehatan, Sektor Teknologi Informasi dan Komunikasi",
            "tanggal_terbit": "2022-04-07",
            "url_tdpse_detail": "https://pse.komdigi.go.id/tdpse-detail/3809",
            "website": "-"
        },
        {
            "id": "9cb1ab94-eafb-4596-85ad-a58e5253c783",
            "nama_pse": "ARTHA TOTAL MANDIRI",
            "nama_se": "IDCASH",
            "sektor": "Sektor Teknologi Informasi dan Komunikasi",
            "tanggal_terbit": "2022-04-07",
            "url_tdpse_detail": "https://pse.komdigi.go.id/tdpse-detail/3808",
            "website": "idcash.id"
        },
        {
            "id": "9cb1ab93-8c7d-4245-9fd7-26cbe2f4749a",
            "nama_pse": "BANK SAHABAT SAMPOERNA",
            "nama_se": "SAMPOERNA MOBILE BANKING",
            "sektor": "Sektor Keuangan, Sektor Keuangan",
            "tanggal_terbit": "2022-04-06",
            "url_tdpse_detail": "https://pse.komdigi.go.id/tdpse-detail/3787",
            "website": "sampoernamobile.banksampoerna.com"
        },
        {
            "id": "9cb1ab93-afb9-4aaf-ab68-8c686689c4e9",
            "nama_pse": "CV. DAUN JATI",
            "nama_se": "BELA PENGADAAN",
            "sektor": "Sektor Perdagangan, Sektor Teknologi Informasi dan Komunikasi",
            "tanggal_terbit": "2022-04-06",
            "url_tdpse_detail": "https://pse.komdigi.go.id/tdpse-detail/3783",
            "website": "-"
        },
        {
            "id": "9cb1ab93-b522-462a-8862-01f9da221a5d",
            "nama_pse": "KONSULTAN MUTU INDONESIA",
            "nama_se": "TEKNOLOGI INFORMASI DAN JASA KOMPUTER LAINNYA",
            "sektor": "Sektor Teknologi Informasi dan Komunikasi",
            "tanggal_terbit": "2022-04-06",
            "url_tdpse_detail": "https://pse.komdigi.go.id/tdpse-detail/3784",
            "website": "-"
        },
        {
            "id": "9cb1ab93-b737-4b06-8727-f080e4865ca4",
            "nama_pse": "KONSULTAN MUTU INDONESIA",
            "nama_se": "JASA KONSULTANSIU MANAJEMEN DAN PIRANTI LUNAK",
            "sektor": "Sektor Perdagangan, Sektor Teknologi Informasi dan Komunikasi",
            "tanggal_terbit": "2022-04-06",
            "url_tdpse_detail": "https://pse.komdigi.go.id/tdpse-detail/3785",
            "website": "-"
        },
        {
            "id": "9cb1aba0-4ec7-45a2-8b3d-b98e29cab785",
            "nama_pse": "CIPTA SOLUSI DATARINDO",
            "nama_se": "RAVINTOLA ONLINE MARKETPLACE INTEGRATION",
            "sektor": "Sektor Teknologi Informasi dan Komunikasi",
            "tanggal_terbit": "2022-04-06",
            "url_tdpse_detail": "https://pse.komdigi.go.id/tdpse-detail/3786",
            "website": "romi.cs.co.id"
        },
        {
            "id": "9cb1ab93-eb56-4874-ab3c-9fdebb78ba57",
            "nama_pse": "ORANG SIBER INDONESIA",
            "nama_se": "ORANG SIBER",
            "sektor": "Sektor Teknologi Informasi dan Komunikasi",
            "tanggal_terbit": "2022-04-06",
            "url_tdpse_detail": "https://pse.komdigi.go.id/tdpse-detail/3788",
            "website": "orangsiber.com"
        },
        {
            "id": "9cb1aba0-7f85-4c1c-b5df-50c382f6835a",
            "nama_pse": "TEKNO DAYA BERSAMA",
            "nama_se": "WARUNG KITA MERCHANT",
            "sektor": "Sektor Perdagangan",
            "tanggal_terbit": "2022-04-06",
            "url_tdpse_detail": "https://pse.komdigi.go.id/tdpse-detail/3791",
            "website": "warungkita.info"
        },
        {
            "id": "9cb1abab-1725-4b37-a7e6-79f578961b87",
            "nama_pse": "INDOKRIPTO KOIN SEMESTA",
            "nama_se": "KRIPTOSEMESTA",
            "sektor": "Sektor Keuangan",
            "tanggal_terbit": "2022-04-06",
            "url_tdpse_detail": "https://pse.komdigi.go.id/tdpse-detail/3790",
            "website": "kriptosemesta.com"
        },
        {
            "id": "9cb1abab-86e7-4abd-82c3-e4b0ca79c833",
            "nama_pse": "NEXTCOOL TEKNOLOGY INDONESIA",
            "nama_se": "PT. NEXTCOOL TEKNOLOGY INDONESIA",
            "sektor": "Sektor Perdagangan, Sektor Teknologi Informasi dan Komunikasi",
            "tanggal_terbit": "2022-04-06",
            "url_tdpse_detail": "https://pse.komdigi.go.id/tdpse-detail/3792",
            "website": "nextcool.id"
        },
        {
            "id": "9cb1abab-b50d-4d08-bdc1-19d35f0854c9",
            "nama_pse": "FAST MARKT INDONESIA",
            "nama_se": "FAST MARKT",
            "sektor": "Sektor Perdagangan",
            "tanggal_terbit": "2022-04-06",
            "url_tdpse_detail": "https://pse.komdigi.go.id/tdpse-detail/3789",
            "website": "-"
        },
        {
            "id": "9cb1ab92-9c83-4446-ba6c-f022b6b5f9a8",
            "nama_pse": "SELALU SIAP SOLUSI",
            "nama_se": "APLIKASI KIRIMINAJA",
            "sektor": "Sektor Teknologi Informasi dan Komunikasi, Sektor Teknologi Informasi dan Komunikasi, Sektor Teknologi Informasi dan Komunikasi",
            "tanggal_terbit": "2022-04-05",
            "url_tdpse_detail": "https://pse.komdigi.go.id/tdpse-detail/3773",
            "website": "kiriminaja.com"
        },
        {
            "id": "9cb1aba0-44fd-410e-bb11-8156603bcfe8",
            "nama_pse": "GAMERTOGAMER GLOBAL GROUP",
            "nama_se": "WWW.G2G.COM",
            "sektor": "Sektor Perdagangan, Sektor Perdagangan",
            "tanggal_terbit": "2022-04-05",
            "url_tdpse_detail": "https://pse.komdigi.go.id/tdpse-detail/3778",
            "website": "g2g.com"
        },
        {
            "id": "9cb1aba0-4754-4006-ad69-0b87b2196c40",
            "nama_pse": "QONEX INDONESIA SOLUSI",
            "nama_se": "QONEX",
            "sektor": "Sektor Teknologi Informasi dan Komunikasi",
            "tanggal_terbit": "2022-04-05",
            "url_tdpse_detail": "https://pse.komdigi.go.id/tdpse-detail/3774",
            "website": "qonex.id"
        },
        {
            "id": "9cb1ab93-c320-4260-8d8a-1251b5a5481c",
            "nama_pse": "TIGA NADA WISA PERKASA",
            "nama_se": "MALANGGLEERRR.COM",
            "sektor": "Sektor Perdagangan",
            "tanggal_terbit": "2022-04-05",
            "url_tdpse_detail": "https://pse.komdigi.go.id/tdpse-detail/3782",
            "website": "malanggleerrr.com"
        },
        {
            "id": "9cb1abab-066e-4a16-a7f8-7b8a2c0a468d",
            "nama_pse": "SALVINA GRAPH KALIMANTAN",
            "nama_se": "SALVINA GRAPH",
            "sektor": "Sektor Perdagangan, Sektor Teknologi Informasi dan Komunikasi, Sektor Pangan",
            "tanggal_terbit": "2022-04-05",
            "url_tdpse_detail": "https://pse.komdigi.go.id/tdpse-detail/3772",
            "website": "-"
        },
        {
            "id": "9cb1ab93-e234-4d4f-9999-958c0af9f968",
            "nama_pse": "EWAN JAYA KASTARA",
            "nama_se": "EJ MEDIC",
            "sektor": "Sektor Perdagangan, Sektor Kesehatan",
            "tanggal_terbit": "2022-04-05",
            "url_tdpse_detail": "https://pse.komdigi.go.id/tdpse-detail/3777",
            "website": "-"
        },
        {
            "id": "9cb1ab94-240c-4bde-9c54-eb8d7292b997",
            "nama_pse": "TIRTA SUKSES SEJAHTERA",
            "nama_se": "ONLINE RETAIL",
            "sektor": "Sektor Perdagangan, Sektor Teknologi Informasi dan Komunikasi",
            "tanggal_terbit": "2022-04-05",
            "url_tdpse_detail": "https://pse.komdigi.go.id/tdpse-detail/3776",
            "website": "papermark.id"
        },
        {
            "id": "9cb1aba0-b971-4a79-ba1a-3040c3f58f85",
            "nama_pse": "INDONESIA PASTI BISA MAJU",
            "nama_se": "BISAMAJU",
            "sektor": "Sektor Perdagangan, Sektor Teknologi Informasi dan Komunikasi",
            "tanggal_terbit": "2022-04-05",
            "url_tdpse_detail": "https://pse.komdigi.go.id/tdpse-detail/3770",
            "website": "bisamaju.id"
        },
        {
            "id": "9cb1ab94-73b1-4895-84b2-54c0720c0a89",
            "nama_pse": "KENZIE MEDIA GROUP",
            "nama_se": "GK RELOAD",
            "sektor": "Sektor Perdagangan",
            "tanggal_terbit": "2022-04-05",
            "url_tdpse_detail": "https://pse.komdigi.go.id/tdpse-detail/3775",
            "website": "gkreload.co.id"
        },
        {
            "id": "9cb1abab-7194-49bf-85d4-40d486a8237d",
            "nama_pse": "INTERIOR KARYA NUSANTARA",
            "nama_se": "INTARA",
            "sektor": "Sektor Perdagangan, Sektor Teknologi Informasi dan Komunikasi",
            "tanggal_terbit": "2022-04-05",
            "url_tdpse_detail": "https://pse.komdigi.go.id/tdpse-detail/3771",
            "website": "intara.id"
        },
        {
            "id": "9cb1ab94-a8b8-48ed-9b3b-0ead74a135b5",
            "nama_pse": "SAKTI PERKAKAS NUSANTARA",
            "nama_se": "SAKTITOOLS.COM",
            "sektor": "Sektor Perdagangan, Sektor Teknologi Informasi dan Komunikasi",
            "tanggal_terbit": "2022-04-05",
            "url_tdpse_detail": "https://pse.komdigi.go.id/tdpse-detail/3779",
            "website": "saktitools.com"
        },
        {
            "id": "9cb1aba1-2a12-4340-a174-3ca8c5e4c66d",
            "nama_pse": "DIMO PAY INDONESIA",
            "nama_se": "VERIFICATION AND IDENTIFICATION AGGREGATOR SERVICE",
            "sektor": "Sektor Teknologi Informasi dan Komunikasi",
            "tanggal_terbit": "2022-04-05",
            "url_tdpse_detail": "https://pse.komdigi.go.id/tdpse-detail/3769",
            "website": "dimo.co.id"
        },
        {
            "id": "9cb1ab94-f88f-44c2-8b60-7989ddaaac8f",
            "nama_pse": "JATI NEGARA TEKNOLOGI INDONESIA",
            "nama_se": "PLATFORM ELECTRONIC PEER TO PEER OPERATIONAL",
            "sektor": "Sektor Perdagangan, Sektor Teknologi Informasi dan Komunikasi",
            "tanggal_terbit": "2022-04-05",
            "url_tdpse_detail": "https://pse.komdigi.go.id/tdpse-detail/3780",
            "website": "peppo.co.id"
        },
        {
            "id": "9cb1aba0-4975-4844-ba31-cee3dd9d0b42",
            "nama_pse": "SUMBER INFORMASI TERPERINCI",
            "nama_se": "SUMINTER.ID",
            "sektor": "Sektor Perdagangan",
            "tanggal_terbit": "2022-04-04",
            "url_tdpse_detail": "https://pse.komdigi.go.id/tdpse-detail/3767",
            "website": "suminter.id"
        },
        {
            "id": "9cb1ab93-dfbb-4c86-91ee-e45ea7682cb8",
            "nama_pse": "WIDIA EVA SARI",
            "nama_se": "WIDIA EVA SARI",
            "sektor": "Sektor Perdagangan",
            "tanggal_terbit": "2022-04-04",
            "url_tdpse_detail": "https://pse.komdigi.go.id/tdpse-detail/3762",
            "website": "-"
        },
        {
            "id": "9cb1ab94-0317-40d1-9c18-9f333690531f",
            "nama_pse": "MOTION CRYPTO TECHNOLOGY",
            "nama_se": "MOTION CRYPTO",
            "sektor": "Sektor Perdagangan",
            "tanggal_terbit": "2022-04-04",
            "url_tdpse_detail": "https://pse.komdigi.go.id/tdpse-detail/3768",
            "website": "motioncrypto.id"
        },
        {
            "id": "9cb1ab94-0608-4191-b857-713dfa19d799",
            "nama_pse": "TEKNOLOGI ASET DIGITAL",
            "nama_se": "SISTEM ELEKTRONIK BLOCKNOM",
            "sektor": "Sektor Teknologi Informasi dan Komunikasi",
            "tanggal_terbit": "2022-04-04",
            "url_tdpse_detail": "https://pse.komdigi.go.id/tdpse-detail/3763",
            "website": "blocknom.com"
        },
        {
            "id": "9cb1ab94-08ac-40f3-ad52-2134daefd296",
            "nama_pse": "GLOBAL CARS INDONESIA",
            "nama_se": "CAR24.CO.ID",
            "sektor": "Sektor Perdagangan",
            "tanggal_terbit": "2022-04-04",
            "url_tdpse_detail": "https://pse.komdigi.go.id/tdpse-detail/3764",
            "website": "car24.co.id"
        },
        {
            "id": "9cb1abab-3c79-46b9-8fb0-dd420901b267",
            "nama_pse": "PLUANG EMAS SEJAHTERA",
            "nama_se": "PLUANG",
            "sektor": "Sektor Perdagangan",
            "tanggal_terbit": "2022-04-04",
            "url_tdpse_detail": "https://pse.komdigi.go.id/tdpse-detail/3761",
            "website": "pluang.com"
        },
        {
            "id": "9cb1abab-5807-4db0-ac0e-3f811acdd0d3",
            "nama_pse": "GOPAPUA CARSTENZ SISTEGRA",
            "nama_se": "OPPA",
            "sektor": "Sektor Perdagangan, Sektor Transportasi, Sektor Teknologi Informasi dan Komunikasi",
            "tanggal_terbit": "2022-04-04",
            "url_tdpse_detail": "https://pse.komdigi.go.id/tdpse-detail/3765",
            "website": "-"
        }
    ],
    "processingTimeMs": 13,
    "query": "",
    "totalHits": 19121,
    "hitsPerPage": 50,
    "page": 311,
    "totalPages": 383
}