{
    "hits": [
        {
            "id": "9cb1ab90-5765-4e86-b6ef-cafe33b3e18f",
            "nama_pse": "PT. Indo Supply Chain",
            "nama_se": "PEMBAYARAN",
            "sektor": "Sektor Perdagangan, Sektor Perdagangan",
            "tanggal_terbit": "2021-11-01",
            "url_tdpse_detail": "https://pse.komdigi.go.id/tdpse-detail/2211",
            "website": "iscglobe.com"
        },
        {
            "id": "9cb1ab9e-027d-4e75-a0fb-730ad4abe6e4",
            "nama_pse": "PT UOB Asset Management Indonesia",
            "nama_se": "UOB ASSET MANAGEMENT INDONESIA OFFICIAL  WEBSITE",
            "sektor": "Sektor Keuangan, Sektor Keuangan",
            "tanggal_terbit": "2021-11-01",
            "url_tdpse_detail": "https://pse.komdigi.go.id/tdpse-detail/2217",
            "website": "uobam.co.id"
        },
        {
            "id": "9cb1ab9e-0599-43be-9492-3b72c41f2390",
            "nama_pse": "FINTEK DIGITAL NUSANTARA",
            "nama_se": "PAYUNI / PEMBAYARAN UNIVERSAL",
            "sektor": "Sektor Perdagangan, Sektor Perdagangan, Sektor Keuangan, Sektor Keuangan, Sektor Teknologi Informasi dan Komunikasi, Sektor Teknologi Informasi dan Komunikasi",
            "tanggal_terbit": "2021-11-01",
            "url_tdpse_detail": "https://pse.komdigi.go.id/tdpse-detail/2218",
            "website": "payuni.co.id"
        },
        {
            "id": "9cb1ab90-5b26-4f24-8b88-244b00588c33",
            "nama_pse": "BANK JASA JAKARTA",
            "nama_se": "WEB PT. BANK JASA JAKARTA",
            "sektor": "Sektor Keuangan, Sektor Keuangan",
            "tanggal_terbit": "2021-11-01",
            "url_tdpse_detail": "https://pse.komdigi.go.id/tdpse-detail/2245",
            "website": "bjj.co.id"
        },
        {
            "id": "9cb1ab8f-962e-4dd3-8be9-7fa5d97d8546",
            "nama_pse": "PT SIGMA SOLUSI SATU",
            "nama_se": "SARIGURU",
            "sektor": "Sektor Teknologi Informasi dan Komunikasi",
            "tanggal_terbit": "2021-11-01",
            "url_tdpse_detail": "https://pse.komdigi.go.id/tdpse-detail/2246",
            "website": "sariguru.com"
        },
        {
            "id": "9cb1ab90-62f3-4231-83e8-532d503717b0",
            "nama_pse": "PT. BANGUNAN JAYA PRIMA",
            "nama_se": "BJHOMEOFFICIAL",
            "sektor": "Sektor Perdagangan, Sektor Perdagangan",
            "tanggal_terbit": "2021-11-01",
            "url_tdpse_detail": "https://pse.komdigi.go.id/tdpse-detail/2247",
            "website": "bjhomeofficial.com"
        },
        {
            "id": "9cb1ab8f-9ca6-416a-92e7-a146e55966b6",
            "nama_pse": "PT AGUNG PRATAMA INDOARTHA",
            "nama_se": "API",
            "sektor": "Sektor Teknologi Informasi dan Komunikasi, Sektor Teknologi Informasi dan Komunikasi",
            "tanggal_terbit": "2021-11-01",
            "url_tdpse_detail": "https://pse.komdigi.go.id/tdpse-detail/2249",
            "website": "apindoartha.com"
        },
        {
            "id": "9cb1ab9e-092a-4b47-8cd6-f06676470244",
            "nama_pse": "BADA ROCK NUSANTARA",
            "nama_se": "KIDSLOOP",
            "sektor": "Sektor Teknologi Informasi dan Komunikasi, Sektor Teknologi Informasi dan Komunikasi",
            "tanggal_terbit": "2021-11-01",
            "url_tdpse_detail": "https://pse.komdigi.go.id/tdpse-detail/2251",
            "website": "kidsloop.co.id"
        },
        {
            "id": "9cb1ab8f-a12b-4917-9148-ddc8d9af8e3a",
            "nama_pse": "Berjoet Media Sipasna",
            "nama_se": "STATUSRAKYAT",
            "sektor": "Sektor Teknologi Informasi dan Komunikasi, Sektor Teknologi Informasi dan Komunikasi",
            "tanggal_terbit": "2021-11-01",
            "url_tdpse_detail": "https://pse.komdigi.go.id/tdpse-detail/2254",
            "website": "Statusrakyat.com"
        },
        {
            "id": "9cb1ab8f-a57d-4685-801b-9a2b47f02e38",
            "nama_pse": "PT ELANG SEJAHTERA NIAGA",
            "nama_se": "JURAGANCEMILAN.COM",
            "sektor": "Sektor Perdagangan, Sektor Perdagangan, Sektor Pangan, Sektor Pangan",
            "tanggal_terbit": "2021-11-01",
            "url_tdpse_detail": "https://pse.komdigi.go.id/tdpse-detail/2256",
            "website": "juragancemilan.com"
        },
        {
            "id": "9cb1ab9e-0c7c-4242-a849-db3b4ded70bc",
            "nama_pse": "TRADING WAKAF CORPORA",
            "nama_se": "PASAR SEDEKAH",
            "sektor": "Sektor Perdagangan, Sektor Perdagangan",
            "tanggal_terbit": "2021-11-01",
            "url_tdpse_detail": "https://pse.komdigi.go.id/tdpse-detail/2257",
            "website": "pasarsedekah.com"
        },
        {
            "id": "9cb1ab90-691d-402a-92b4-31fe97f01bdd",
            "nama_pse": "UNIONFAM AZARIA BERJAYA",
            "nama_se": "AZARIA",
            "sektor": "Sektor Perdagangan, Sektor Perdagangan",
            "tanggal_terbit": "2021-11-01",
            "url_tdpse_detail": "https://pse.komdigi.go.id/tdpse-detail/2268",
            "website": "myazaria.com"
        },
        {
            "id": "9cb1aba9-5213-478b-8eb9-c5f59f23226c",
            "nama_pse": "Satu Teknologi Bangsa",
            "nama_se": "RIUNG",
            "sektor": "Sektor Teknologi Informasi dan Komunikasi, Sektor Teknologi Informasi dan Komunikasi",
            "tanggal_terbit": "2021-11-01",
            "url_tdpse_detail": "https://pse.komdigi.go.id/tdpse-detail/2200",
            "website": "riung.id"
        },
        {
            "id": "9cb1aba9-546e-4326-b3e5-d099116cedaf",
            "nama_pse": "Rumah Sakit Mata Undaan",
            "nama_se": "RSMU EYE CARE",
            "sektor": "Sektor Kesehatan, Sektor Kesehatan",
            "tanggal_terbit": "2021-11-01",
            "url_tdpse_detail": "https://pse.komdigi.go.id/tdpse-detail/2260",
            "website": "rsmataundaan.co.id"
        },
        {
            "id": "9cb1ab91-da00-4b18-a132-b9f40fe2a466",
            "nama_pse": "ERAFONE DOTCOM",
            "nama_se": "HTTP://ERASPACE.COM/",
            "sektor": "Sektor Perdagangan, Sektor Teknologi Informasi dan Komunikasi",
            "tanggal_terbit": "2021-11-01",
            "url_tdpse_detail": "https://pse.komdigi.go.id/tdpse-detail/2253",
            "website": "eraspace.com"
        },
        {
            "id": "9cb1ab91-f4f1-4778-9602-b14ac864b763",
            "nama_pse": "AVRIST ASSURANCE",
            "nama_se": "CORPORATE WEBSITE",
            "sektor": "Sektor Keuangan",
            "tanggal_terbit": "2021-11-01",
            "url_tdpse_detail": "https://pse.komdigi.go.id/tdpse-detail/2204",
            "website": "avrist.com"
        },
        {
            "id": "9cb1aba9-7b8b-4481-9f3c-84d2ef5a4d76",
            "nama_pse": "JASA ASIA GROUP",
            "nama_se": "ICHOOSE",
            "sektor": "Sektor Perdagangan, Sektor Perdagangan, Sektor Teknologi Informasi dan Komunikasi, Sektor Teknologi Informasi dan Komunikasi",
            "tanggal_terbit": "2021-11-01",
            "url_tdpse_detail": "https://pse.komdigi.go.id/tdpse-detail/2186",
            "website": "ichooseasia.com/"
        },
        {
            "id": "9cb1ab9f-393c-4b23-8537-a889da97c94c",
            "nama_pse": "STARONE MITRA TELEKOMUNIKASI",
            "nama_se": "DATA CENTER \u0026  DATA RECOVERY CENTER",
            "sektor": "Sektor Teknologi Informasi dan Komunikasi",
            "tanggal_terbit": "2021-11-01",
            "url_tdpse_detail": "https://pse.komdigi.go.id/tdpse-detail/2199",
            "website": "-"
        },
        {
            "id": "9cb1aba1-8d44-4f71-9844-668b0651e622",
            "nama_pse": "GIM MENYATUKAN BANGSA",
            "nama_se": "MAENYO!",
            "sektor": "Sektor Teknologi Informasi dan Komunikasi",
            "tanggal_terbit": "2021-11-01",
            "url_tdpse_detail": "https://pse.komdigi.go.id/tdpse-detail/2269",
            "website": "maenyo.id"
        },
        {
            "id": "9cb1ab6f-918a-4480-9dd5-9fe5af827ff1",
            "nama_pse": "PERUSAHAAN PERSEROAN (PERSERO) PT. TELEKOMUNIKASI INDONESIA",
            "nama_se": "USEETV",
            "sektor": "Sektor Teknologi Informasi dan Komunikasi, Sektor Teknologi Informasi dan Komunikasi, Sektor Teknologi Informasi dan Komunikasi, Sektor Teknologi Informasi dan Komunikasi",
            "tanggal_terbit": "2021-10-27",
            "url_tdpse_detail": "https://pse.komdigi.go.id/tdpse-detail/2171",
            "website": "useetv.com"
        },
        {
            "id": "9cb1ab68-e0d3-4461-b00e-61a2a5d0c08c",
            "nama_pse": "PERUSAHAAN PERSEROAN (PERSERO) PT. TELEKOMUNIKASI INDONESIA",
            "nama_se": "INDIHOME SMART",
            "sektor": "Sektor Teknologi Informasi dan Komunikasi, Sektor Teknologi Informasi dan Komunikasi, Sektor Teknologi Informasi dan Komunikasi, Sektor Teknologi Informasi dan Komunikasi",
            "tanggal_terbit": "2021-10-27",
            "url_tdpse_detail": "https://pse.komdigi.go.id/tdpse-detail/2173",
            "website": "smart.indihome.co.id/smartcam-family"
        },
        {
            "id": "9cb1ab75-6ec7-4d3f-833c-b1a02fd02f36",
            "nama_pse": "PERUSAHAAN PERSEROAN (PERSERO) PT. TELEKOMUNIKASI INDONESIA",
            "nama_se": "INDIHOME STUDY",
            "sektor": "Sektor Teknologi Informasi dan Komunikasi, Sektor Teknologi Informasi dan Komunikasi, Sektor Teknologi Informasi dan Komunikasi, Sektor Teknologi Informasi dan Komunikasi",
            "tanggal_terbit": "2021-10-27",
            "url_tdpse_detail": "https://pse.komdigi.go.id/tdpse-detail/2174",
            "website": "indihomestudy.com"
        },
        {
            "id": "9cb1ab75-71e7-4222-919e-c7900d32ad00",
            "nama_pse": "PERUSAHAAN PERSEROAN (PERSERO) PT. TELEKOMUNIKASI INDONESIA",
            "nama_se": "GAMEQOO",
            "sektor": "Sektor Teknologi Informasi dan Komunikasi, Sektor Teknologi Informasi dan Komunikasi, Sektor Teknologi Informasi dan Komunikasi, Sektor Teknologi Informasi dan Komunikasi",
            "tanggal_terbit": "2021-10-27",
            "url_tdpse_detail": "https://pse.komdigi.go.id/tdpse-detail/2175",
            "website": "gameqoo.id"
        },
        {
            "id": "9cb1ab68-e3f9-4518-b495-3531f381da77",
            "nama_pse": "PERUSAHAAN PERSEROAN (PERSERO) PT. TELEKOMUNIKASI INDONESIA",
            "nama_se": "SOBAT INDIHOME",
            "sektor": "Sektor Teknologi Informasi dan Komunikasi, Sektor Teknologi Informasi dan Komunikasi, Sektor Teknologi Informasi dan Komunikasi, Sektor Teknologi Informasi dan Komunikasi",
            "tanggal_terbit": "2021-10-27",
            "url_tdpse_detail": "https://pse.komdigi.go.id/tdpse-detail/2176",
            "website": "sobat.indihome.co.id"
        },
        {
            "id": "9cb1ab75-7b97-460b-ac93-2f565c9dc419",
            "nama_pse": "PERUSAHAAN PERSEROAN (PERSERO) PT. TELEKOMUNIKASI INDONESIA",
            "nama_se": "CLOUDSTORAGE FOR INDIHOME",
            "sektor": "Sektor Teknologi Informasi dan Komunikasi, Sektor Teknologi Informasi dan Komunikasi, Sektor Teknologi Informasi dan Komunikasi, Sektor Teknologi Informasi dan Komunikasi",
            "tanggal_terbit": "2021-10-27",
            "url_tdpse_detail": "https://pse.komdigi.go.id/tdpse-detail/2177",
            "website": "cloudstorage.co.id"
        },
        {
            "id": "9cb1ab7f-70a3-4adf-8cd2-3eec322213ff",
            "nama_pse": "GUDANG SOLUSI ACOMMERCE",
            "nama_se": "PT. GUDANG SOLUSI ACOMMERCE",
            "sektor": "Sektor Perdagangan, Sektor Perdagangan, Sektor Teknologi Informasi dan Komunikasi, Sektor Teknologi Informasi dan Komunikasi",
            "tanggal_terbit": "2021-10-27",
            "url_tdpse_detail": "https://pse.komdigi.go.id/tdpse-detail/2169",
            "website": "gsacommerce.com"
        },
        {
            "id": "9cb1ab84-b576-4212-9bef-c52903c4ce00",
            "nama_pse": "UPBIT EXCHANGE INDONESIA",
            "nama_se": "PLATFORM PERDAGANGAN ASET KRIPTO PT. UPBIT EXCHANGE INDONESIA",
            "sektor": "Sektor Perdagangan, Sektor Perdagangan",
            "tanggal_terbit": "2021-10-27",
            "url_tdpse_detail": "https://pse.komdigi.go.id/tdpse-detail/2178",
            "website": "upbit.co.id"
        },
        {
            "id": "9cb1ab90-3edd-4569-a7cc-e1dafb7888ff",
            "nama_pse": "CEKAJA MERDEKA KEUANGAN",
            "nama_se": "ADMIN TOOL",
            "sektor": "Sektor Keuangan, Sektor Keuangan",
            "tanggal_terbit": "2021-10-27",
            "url_tdpse_detail": "https://pse.komdigi.go.id/tdpse-detail/2172",
            "website": "cekaja.com"
        },
        {
            "id": "9cb1ab90-41f1-4f7c-8b68-e04f682c9e49",
            "nama_pse": "PT SOLUSI ALLINDO MANDIRI",
            "nama_se": "TAXSAM.CO LEARNING CENTER",
            "sektor": "Sektor Teknologi Informasi dan Komunikasi, Sektor Teknologi Informasi dan Komunikasi",
            "tanggal_terbit": "2021-10-27",
            "url_tdpse_detail": "https://pse.komdigi.go.id/tdpse-detail/2179",
            "website": "edu.taxsam.co"
        },
        {
            "id": "9cb1aba9-8793-46ee-8ecd-74dbdf892196",
            "nama_pse": "ARAPUTRA FORTUNA PERKASA",
            "nama_se": "HTTPS://ARAPUTRA-STORE.CO.ID",
            "sektor": "Sektor Perdagangan, Sektor Keuangan",
            "tanggal_terbit": "2021-10-27",
            "url_tdpse_detail": "https://pse.komdigi.go.id/tdpse-detail/2180",
            "website": "araputra-store.co.id"
        },
        {
            "id": "9cb1ab93-c99e-44c5-a314-db8b692f9d6e",
            "nama_pse": "PT APLIKASI SINERGI ASIA",
            "nama_se": "APLIKASI SINERGI ASIA",
            "sektor": "Sektor Perdagangan, Sektor Perdagangan, Sektor Teknologi Informasi dan Komunikasi, Sektor Teknologi Informasi dan Komunikasi",
            "tanggal_terbit": "2021-10-27",
            "url_tdpse_detail": "https://pse.komdigi.go.id/tdpse-detail/2168",
            "website": "darmacorp.co.id"
        },
        {
            "id": "9cb1ab64-709a-425e-bec9-f59e206d84a0",
            "nama_pse": "SHARP TRADING INDONESIA",
            "nama_se": "SHARP E-COMMERCE",
            "sektor": "Sektor Perdagangan, Sektor Perdagangan",
            "tanggal_terbit": "2021-10-26",
            "url_tdpse_detail": "https://pse.komdigi.go.id/tdpse-detail/2053",
            "website": "sharp.id/estore "
        },
        {
            "id": "9cb1ab61-a9cd-40d3-b894-4650cad0528b",
            "nama_pse": "MANDIRI CITRA INFORMASI TEKNOLOGI",
            "nama_se": "PT. INSPIRE MULTI SOLUSINDO",
            "sektor": "Sektor Perdagangan, Sektor Perdagangan, Sektor Teknologi Informasi dan Komunikasi, Sektor Teknologi Informasi dan Komunikasi",
            "tanggal_terbit": "2021-10-26",
            "url_tdpse_detail": "https://pse.komdigi.go.id/tdpse-detail/2000",
            "website": "inspiremultisolusindo.com"
        },
        {
            "id": "9cb1ab64-9832-4029-be52-3a55b5907142",
            "nama_pse": "INTERMEDIA MULTIBAHASA INDONESIA",
            "nama_se": "LINGOTALK",
            "sektor": "Sektor Perdagangan, Sektor Perdagangan",
            "tanggal_terbit": "2021-10-26",
            "url_tdpse_detail": "https://pse.komdigi.go.id/tdpse-detail/2001",
            "website": "lingotalk.co/"
        },
        {
            "id": "9cb1ab61-d6d7-45d1-a6a3-81d690aa8613",
            "nama_pse": "SIMBIOTIK MULTITALENTA INDONESIA",
            "nama_se": "SMARTX EXPERT ANALYZER SOFTWARE FOR TRADING",
            "sektor": "Sektor Teknologi Informasi dan Komunikasi, Sektor Teknologi Informasi dan Komunikasi",
            "tanggal_terbit": "2021-10-26",
            "url_tdpse_detail": "https://pse.komdigi.go.id/tdpse-detail/2158",
            "website": "ptsmi.id"
        },
        {
            "id": "9cb1ab62-342d-4f2d-a891-cd696537a2e9",
            "nama_pse": "TEKNOLOGI KARTU INDONESIA",
            "nama_se": "KATALIS (APLIKASI DIGITAL BISNIS)",
            "sektor": "Sektor Teknologi Informasi dan Komunikasi, Sektor Teknologi Informasi dan Komunikasi",
            "tanggal_terbit": "2021-10-26",
            "url_tdpse_detail": "https://pse.komdigi.go.id/tdpse-detail/2037",
            "website": "solusinegeri.com"
        },
        {
            "id": "9cb1ab65-42e8-430a-af59-715fa8915cb0",
            "nama_pse": "HARRISMA DATA CITTA",
            "nama_se": "HARRISMA DATA CITTA",
            "sektor": "Sektor Teknologi Informasi dan Komunikasi, Sektor Teknologi Informasi dan Komunikasi",
            "tanggal_terbit": "2021-10-26",
            "url_tdpse_detail": "https://pse.komdigi.go.id/tdpse-detail/2129",
            "website": "hdc.co.id"
        },
        {
            "id": "9cb1ab71-1a95-4ad8-9353-1f9ed4dc25a6",
            "nama_pse": "AXA INSURANCE INDONESIA",
            "nama_se": "MERIMEN",
            "sektor": "Sektor Keuangan, Sektor Keuangan",
            "tanggal_terbit": "2021-10-26",
            "url_tdpse_detail": "https://pse.komdigi.go.id/tdpse-detail/2007",
            "website": "http://indonesia.merimen.com"
        },
        {
            "id": "9cb1ab71-6070-4fa9-92a6-c1a7177624b3",
            "nama_pse": "SEHAT DIGITAL NUSANTARA",
            "nama_se": "ALTEACARE",
            "sektor": "Sektor Kesehatan, Sektor Kesehatan",
            "tanggal_terbit": "2021-10-26",
            "url_tdpse_detail": "https://pse.komdigi.go.id/tdpse-detail/2002",
            "website": "alteacare.id"
        },
        {
            "id": "9cb1ab63-253c-4b30-a064-625543d8fef7",
            "nama_pse": "MITRA MAPAN SEJAHTERA",
            "nama_se": "MITRA MAPAN SEJAHTERA",
            "sektor": "Sektor Perdagangan, Sektor Perdagangan, Sektor Teknologi Informasi dan Komunikasi, Sektor Teknologi Informasi dan Komunikasi",
            "tanggal_terbit": "2021-10-26",
            "url_tdpse_detail": "https://pse.komdigi.go.id/tdpse-detail/2003",
            "website": "belionline.id"
        },
        {
            "id": "9cb1ab6a-ac4a-46fc-bff2-b576e4c596ae",
            "nama_pse": "AMARTHA MIKRO FINTEK",
            "nama_se": "BP APP",
            "sektor": "Sektor Keuangan, Sektor Keuangan, Sektor Teknologi Informasi dan Komunikasi, Sektor Teknologi Informasi dan Komunikasi",
            "tanggal_terbit": "2021-10-26",
            "url_tdpse_detail": "https://pse.komdigi.go.id/tdpse-detail/2004",
            "website": "-"
        },
        {
            "id": "9cb1ab63-5b86-44cd-9e8e-e4f045571270",
            "nama_pse": "BIRU SAMUDERA SELATAN",
            "nama_se": "TRUKU",
            "sektor": "Sektor Transportasi, Sektor Transportasi, Sektor Teknologi Informasi dan Komunikasi, Sektor Teknologi Informasi dan Komunikasi",
            "tanggal_terbit": "2021-10-26",
            "url_tdpse_detail": "https://pse.komdigi.go.id/tdpse-detail/2005",
            "website": "truku.id"
        },
        {
            "id": "9cb1ab71-fd8f-49bb-8453-f1bf5cef0df1",
            "nama_pse": "CODEBRICK INDONESIA",
            "nama_se": "TOKOTALK",
            "sektor": "Sektor Perdagangan, Sektor Perdagangan, Sektor Perdagangan, Sektor Teknologi Informasi dan Komunikasi, Sektor Teknologi Informasi dan Komunikasi, Sektor Teknologi Informasi dan Komunikasi",
            "tanggal_terbit": "2021-10-26",
            "url_tdpse_detail": "https://pse.komdigi.go.id/tdpse-detail/2079",
            "website": "tokotalk.com"
        },
        {
            "id": "9cb1ab63-a643-4c14-996d-1c1ba2e4930f",
            "nama_pse": "AKUR DANA ABADI",
            "nama_se": "PT AKUR DANA ABADI (JEMBATAN EMAS)",
            "sektor": "Sektor Keuangan, Sektor Keuangan",
            "tanggal_terbit": "2021-10-26",
            "url_tdpse_detail": "https://pse.komdigi.go.id/tdpse-detail/2006",
            "website": "www. jembatanemas.id"
        },
        {
            "id": "9cb1ab63-b169-42f5-87e6-c2777f4aa5ff",
            "nama_pse": "EZYHAUL TECHNOLOGIES INDONESIA",
            "nama_se": "EZYHAUL",
            "sektor": "Sektor Perdagangan, Sektor Perdagangan",
            "tanggal_terbit": "2021-10-26",
            "url_tdpse_detail": "https://pse.komdigi.go.id/tdpse-detail/2021",
            "website": "ezyhaul.com"
        },
        {
            "id": "9cb1ab6b-78b2-4801-9481-b752ff5bef5a",
            "nama_pse": "BANK SINARMAS",
            "nama_se": "SIMAS MERCHANT QRIS",
            "sektor": "Sektor Keuangan, Sektor Keuangan",
            "tanggal_terbit": "2021-10-26",
            "url_tdpse_detail": "https://pse.komdigi.go.id/tdpse-detail/2008",
            "website": "banksinarmas.com/QRManager"
        },
        {
            "id": "9cb1ab6b-80d5-4705-99b9-971cd9e75430",
            "nama_pse": "BANK SINARMAS",
            "nama_se": "APLIKASI MOBILE BANKING SYARIAH -  UNIT USAHA SYARIAH PT BANK SINARMAS TBK",
            "sektor": "Sektor Keuangan, Sektor Keuangan",
            "tanggal_terbit": "2021-10-26",
            "url_tdpse_detail": "https://pse.komdigi.go.id/tdpse-detail/2017",
            "website": "-"
        },
        {
            "id": "9cb1ab6c-32fa-4cde-b3ad-c2f38d3f3071",
            "nama_pse": "ALDMIC INDONESIA",
            "nama_se": "HTTPS://WWW.FLOWERADVISOR.CO.ID/",
            "sektor": "Sektor Perdagangan, Sektor Perdagangan",
            "tanggal_terbit": "2021-10-26",
            "url_tdpse_detail": "https://pse.komdigi.go.id/tdpse-detail/2010",
            "website": "floweradvisor.co.id/"
        },
        {
            "id": "9cb1ab66-4532-4737-a0d2-78fb30505740",
            "nama_pse": "TRICATHA SEMPITERNAL ASIA",
            "nama_se": "HELP RENAKTA",
            "sektor": "Sektor Teknologi Informasi dan Komunikasi, Sektor Teknologi Informasi dan Komunikasi, Sektor Teknologi Informasi dan Komunikasi",
            "tanggal_terbit": "2021-10-26",
            "url_tdpse_detail": "https://pse.komdigi.go.id/tdpse-detail/2013",
            "website": "https://play.google.com/store/apps/details?id=com.renakta.help"
        },
        {
            "id": "9cb1ab6c-ae35-41c1-bb64-167b188dcfd3",
            "nama_pse": "BANK QNB INDONESIA",
            "nama_se": "QNB INDONESIA MOBILE BANKING",
            "sektor": "Sektor Keuangan, Sektor Keuangan, Sektor Keuangan",
            "tanggal_terbit": "2021-10-26",
            "url_tdpse_detail": "https://pse.komdigi.go.id/tdpse-detail/2012",
            "website": "-"
        }
    ],
    "processingTimeMs": 8,
    "query": "",
    "totalHits": 19131,
    "hitsPerPage": 50,
    "page": 342,
    "totalPages": 383
}