{
    "hits": [
        {
            "id": "9cb1abb8-7011-4a82-85e6-1bb1e342af2c",
            "nama_pse": "BANK PERKREDITAN RAKYAT NUSANTARA BONA PASOGIT 11",
            "nama_se": "WEBSITE",
            "sektor": "Sektor Keuangan",
            "tanggal_terbit": "2022-07-20",
            "url_tdpse_detail": "https://pse.komdigi.go.id/tdpse-detail/7557",
            "website": "bprnbp11.co.id"
        },
        {
            "id": "9cb1abea-6a51-4336-8b76-28f236c54138",
            "nama_pse": "ASURANSI CAKRAWALA PROTEKSI INDONESIA",
            "nama_se": "CAKRAWALA PROTEKSI ONLINE",
            "sektor": "Sektor Keuangan",
            "tanggal_terbit": "2022-07-20",
            "url_tdpse_detail": "https://pse.komdigi.go.id/tdpse-detail/7558",
            "website": "cakrawalaproteksionline.com"
        },
        {
            "id": "9cb1abb8-71e5-48b6-89e4-830f7718f000",
            "nama_pse": "DIGITAL GAJI ASIA",
            "nama_se": "GETPAID",
            "sektor": "Sektor Keuangan",
            "tanggal_terbit": "2022-07-20",
            "url_tdpse_detail": "https://pse.komdigi.go.id/tdpse-detail/7567",
            "website": "getpaid.asia"
        },
        {
            "id": "9cb1abb8-7396-4c93-b2c5-d5823d72d9da",
            "nama_pse": "ASPIRASI HIDUP INDONESIA",
            "nama_se": "MOBILE APP MISS ACE",
            "sektor": "Sektor Perdagangan, Sektor Teknologi Informasi dan Komunikasi",
            "tanggal_terbit": "2022-07-20",
            "url_tdpse_detail": "https://pse.komdigi.go.id/tdpse-detail/7564",
            "website": "acehardware.co.id"
        },
        {
            "id": "9cb1abc4-1afa-462d-af58-a32fa8fb188f",
            "nama_pse": "BANK PERKREDITAN RAKYAT NUSANTARA BONA PASOGIT 4",
            "nama_se": "PT BANK PERKREDITAN RAKYAT NUSANTARA BONA PASOGIT 4",
            "sektor": "Sektor Keuangan",
            "tanggal_terbit": "2022-07-20",
            "url_tdpse_detail": "https://pse.komdigi.go.id/tdpse-detail/7559",
            "website": "-"
        },
        {
            "id": "9cb1abea-6ede-4789-a868-b1447ee329ba",
            "nama_pse": "BANK PEREKONOMIAN RAKYAT SUNGKUNANDHANA",
            "nama_se": "TIDAK ADA",
            "sektor": "Sektor Keuangan",
            "tanggal_terbit": "2022-07-20",
            "url_tdpse_detail": "https://pse.komdigi.go.id/tdpse-detail/7562",
            "website": "-"
        },
        {
            "id": "9cb1abc4-208d-4e10-b28d-a08e2174b2c3",
            "nama_pse": "BANK PERKREDITAN RAKYAT DESA SANGEH",
            "nama_se": "BANKING SMART SYSTEM",
            "sektor": "Sektor Keuangan",
            "tanggal_terbit": "2022-07-20",
            "url_tdpse_detail": "https://pse.komdigi.go.id/tdpse-detail/7560",
            "website": "-"
        },
        {
            "id": "9cb1abc4-2950-4e11-9cd0-1b6eb96b96f8",
            "nama_pse": "BANK PEMBIAYAAN RAKYAT SYARIAH ARTA LEKSANA",
            "nama_se": "ISLAMIC BANKING APLICATION",
            "sektor": "Sektor Keuangan",
            "tanggal_terbit": "2022-07-20",
            "url_tdpse_detail": "https://pse.komdigi.go.id/tdpse-detail/7568",
            "website": "artaleksana.com"
        },
        {
            "id": "9cb1abb8-7588-438c-80e1-c788dbfe9ec8",
            "nama_pse": "MITRANET SOFTWARE ONLINE",
            "nama_se": "MITRAPAY",
            "sektor": "Sektor Teknologi Informasi dan Komunikasi",
            "tanggal_terbit": "2022-07-20",
            "url_tdpse_detail": "https://pse.komdigi.go.id/tdpse-detail/7602",
            "website": "mitrapay.id"
        },
        {
            "id": "9cb1abea-7234-4893-9ac8-c377a13736f3",
            "nama_pse": "BANK PERKREDITAN RAKYAT UNIVERSAL KALBAR",
            "nama_se": "LENDING PAGE",
            "sektor": "Sektor Keuangan",
            "tanggal_terbit": "2022-07-20",
            "url_tdpse_detail": "https://pse.komdigi.go.id/tdpse-detail/7574",
            "website": "universalbpr.co.id"
        },
        {
            "id": "9cb1abb8-7793-4564-93c3-420a42eb22c6",
            "nama_pse": "BANK PEREKONOMIAN RAKYAT PATARU LABA",
            "nama_se": "BPR PATARU LABA",
            "sektor": "Sektor Keuangan",
            "tanggal_terbit": "2022-07-20",
            "url_tdpse_detail": "https://pse.komdigi.go.id/tdpse-detail/7563",
            "website": "-"
        },
        {
            "id": "9cb1abc4-2c67-4fea-a068-144bc02be0e7",
            "nama_pse": "NUSANTARA GLOBAL INOVASI",
            "nama_se": "TRANS JOGJA",
            "sektor": "Sektor Transportasi, Sektor Teknologi Informasi dan Komunikasi",
            "tanggal_terbit": "2022-07-20",
            "url_tdpse_detail": "https://pse.komdigi.go.id/tdpse-detail/7565",
            "website": "jogja.trans.my.id"
        },
        {
            "id": "9cb1abea-7628-467a-99b7-3641d757edc9",
            "nama_pse": "MENCETAK BANYAK GOL",
            "nama_se": "TOPSCORE.ID",
            "sektor": "Sektor Perdagangan",
            "tanggal_terbit": "2022-07-20",
            "url_tdpse_detail": "https://pse.komdigi.go.id/tdpse-detail/7569",
            "website": "topscore.id"
        },
        {
            "id": "9cb1abc4-320d-46b7-ab67-0105b66b97ca",
            "nama_pse": "BANK PERKREDITAN RAKYAT MODERN EXPRESS SULTRA",
            "nama_se": "SMS MACROKIOSK NOTIFIKASI DAN OTP - BPR MODERN EXPRESS SULTRA",
            "sektor": "Sektor Keuangan",
            "tanggal_terbit": "2022-07-20",
            "url_tdpse_detail": "https://pse.komdigi.go.id/tdpse-detail/7566",
            "website": "boldpass.com"
        },
        {
            "id": "9cb1abb8-7971-4b22-9e0a-7a4fb6aac108",
            "nama_pse": "BATAVIA PROSPERINDO FINANCE",
            "nama_se": "KREDIT BPF",
            "sektor": "Sektor Keuangan",
            "tanggal_terbit": "2022-07-20",
            "url_tdpse_detail": "https://pse.komdigi.go.id/tdpse-detail/7587",
            "website": "bpfi.co.id"
        },
        {
            "id": "9cb1abc4-3512-45e1-bf96-8bb5730c353c",
            "nama_pse": "RELIANCE MANAJER INVESTASI",
            "nama_se": "WEBSITE RMINVEST",
            "sektor": "Sektor Keuangan",
            "tanggal_terbit": "2022-07-20",
            "url_tdpse_detail": "https://pse.komdigi.go.id/tdpse-detail/7577",
            "website": "reliance-investasi.com"
        },
        {
            "id": "9cb1abea-7a13-46eb-9b75-19710d1ab77a",
            "nama_pse": "NARADA SAHARA KENCANA",
            "nama_se": "ADX ASIA THE STACKS",
            "sektor": "Sektor Teknologi Informasi dan Komunikasi",
            "tanggal_terbit": "2022-07-20",
            "url_tdpse_detail": "https://pse.komdigi.go.id/tdpse-detail/7597",
            "website": "thestacks.io"
        },
        {
            "id": "9cb1abb8-7b32-48ef-bd0e-a66025daf503",
            "nama_pse": "BANK SYARIAH INDONESIA",
            "nama_se": "WEB EMAIL BANK BSI",
            "sektor": "Sektor Keuangan",
            "tanggal_terbit": "2022-07-20",
            "url_tdpse_detail": "https://pse.komdigi.go.id/tdpse-detail/7572",
            "website": "email.bankbsi.co.id"
        },
        {
            "id": "9cb1abea-7daf-42c6-b66b-4589cb8107f5",
            "nama_pse": "BANK PEREKONOMIAN RAKYAT ARTHAMA CERAH",
            "nama_se": "PT BPR ARTHAMA CERAH",
            "sektor": "Sektor Keuangan",
            "tanggal_terbit": "2022-07-20",
            "url_tdpse_detail": "https://pse.komdigi.go.id/tdpse-detail/7573",
            "website": "arthamacerah.com"
        },
        {
            "id": "9cb1abc4-37e7-427d-828d-21e8d2d667cd",
            "nama_pse": "BANK PEREKONOMIAN RAKYAT LUGASGANDA",
            "nama_se": "BPR LUGASGANDA",
            "sektor": "Sektor Keuangan",
            "tanggal_terbit": "2022-07-20",
            "url_tdpse_detail": "https://pse.komdigi.go.id/tdpse-detail/7576",
            "website": "bprlugasganda.com"
        },
        {
            "id": "9cb1abea-829b-4607-8e0f-8548557c001a",
            "nama_pse": "BANK PEREKONOMIAN RAKYAT ARTHARINDO",
            "nama_se": "SITUS BPR ARTHARINDO",
            "sektor": "Sektor Keuangan",
            "tanggal_terbit": "2022-07-20",
            "url_tdpse_detail": "https://pse.komdigi.go.id/tdpse-detail/7588",
            "website": "bprartharindo.co.id"
        },
        {
            "id": "9cb1abc4-3ee2-4ac2-9c17-ceb773fb92fe",
            "nama_pse": "BANK PERKREDITAN RAKYAT JADIMANUNGGAL ABADI",
            "nama_se": "WEBSITE",
            "sektor": "Sektor Keuangan",
            "tanggal_terbit": "2022-07-20",
            "url_tdpse_detail": "https://pse.komdigi.go.id/tdpse-detail/7575",
            "website": "bprjma.com"
        },
        {
            "id": "9cb1abb8-8026-4a3e-b566-ee621af53c40",
            "nama_pse": "JOHANNES KOSIM",
            "nama_se": "CLOTHLYN",
            "sektor": "Sektor Perdagangan",
            "tanggal_terbit": "2022-07-20",
            "url_tdpse_detail": "https://pse.komdigi.go.id/tdpse-detail/7579",
            "website": "-"
        },
        {
            "id": "9cb1abc4-41da-4bdc-a8a4-1aec210b9c89",
            "nama_pse": "AHMAD JAENUDIN",
            "nama_se": "SANDRIANA RELOAD",
            "sektor": "Sektor Perdagangan",
            "tanggal_terbit": "2022-07-20",
            "url_tdpse_detail": "https://pse.komdigi.go.id/tdpse-detail/7580",
            "website": "sandrianareload.com"
        },
        {
            "id": "9cb1abc4-4583-4a71-a8d9-b95c7ffefdf0",
            "nama_pse": "WIDYA INFORMASI NUSANTARA",
            "nama_se": "PT WIDYA INFORMASI NUSANTARA",
            "sektor": "Sektor Teknologi Informasi dan Komunikasi",
            "tanggal_terbit": "2022-07-20",
            "url_tdpse_detail": "https://pse.komdigi.go.id/tdpse-detail/7581",
            "website": "widyawicara.com"
        },
        {
            "id": "9cb1abb8-8208-4219-8108-c4e128d1d37a",
            "nama_pse": "BANK PEREKONOMIAN RAKYAT KERTA ARTHAMANDIRI",
            "nama_se": "BPR KERTA ARTHAMANDIRI",
            "sektor": "Sektor Keuangan",
            "tanggal_terbit": "2022-07-20",
            "url_tdpse_detail": "https://pse.komdigi.go.id/tdpse-detail/7585",
            "website": "bprkertaarthamandiri.com"
        },
        {
            "id": "9cb1abb8-83c2-4f45-96ca-521e7a73d50f",
            "nama_pse": "DARO DATA TEKNOLOGI",
            "nama_se": "IBANKPOS",
            "sektor": "Sektor Teknologi Informasi dan Komunikasi",
            "tanggal_terbit": "2022-07-20",
            "url_tdpse_detail": "https://pse.komdigi.go.id/tdpse-detail/7640",
            "website": "ibankpos.id"
        },
        {
            "id": "9cb1abc4-48f2-411b-b8d7-6a4f7f2d13ac",
            "nama_pse": "NUSANTARA BONAPASOGIT",
            "nama_se": "SAVING MOBILE APLICATION (SMA)",
            "sektor": "Sektor Keuangan",
            "tanggal_terbit": "2022-07-20",
            "url_tdpse_detail": "https://pse.komdigi.go.id/tdpse-detail/7582",
            "website": "nbpholding.com"
        },
        {
            "id": "9cb1abc4-4cc9-41aa-809f-f4429c2851d1",
            "nama_pse": "BANK PERKREDITAN RAKYAT MULYO RAHARJO",
            "nama_se": "WEBSITE",
            "sektor": "Sektor Keuangan",
            "tanggal_terbit": "2022-07-20",
            "url_tdpse_detail": "https://pse.komdigi.go.id/tdpse-detail/7584",
            "website": "bprmulyoraharjo.co.id"
        },
        {
            "id": "9cb1abb8-859a-49a7-b59c-bddb5177c62a",
            "nama_pse": "BANK PEMBANGUNAN DAERAH JAWA TENGAH",
            "nama_se": "WEBSITE KORPORAT BANK JATENG",
            "sektor": "Sektor Keuangan",
            "tanggal_terbit": "2022-07-20",
            "url_tdpse_detail": "https://pse.komdigi.go.id/tdpse-detail/7881",
            "website": "bankjateng.co.id"
        },
        {
            "id": "9cb1abc4-4fc5-4069-8b17-4e517453ecf6",
            "nama_pse": "BANK PEREKONOMIAN RAKYAT KERTA ARTHAMANDIRI",
            "nama_se": "PT BPR KERTA ARTHAMANDIRI",
            "sektor": "Sektor Keuangan",
            "tanggal_terbit": "2022-07-20",
            "url_tdpse_detail": "https://pse.komdigi.go.id/tdpse-detail/7601",
            "website": "bprkertaarthamandiri.co.id"
        },
        {
            "id": "9cb1abea-9192-44a9-a5d3-fd929b2b5f9e",
            "nama_pse": "BANK BTPN SYARIAH",
            "nama_se": "TEPAT MOBILE",
            "sektor": "Sektor Keuangan",
            "tanggal_terbit": "2022-07-20",
            "url_tdpse_detail": "https://pse.komdigi.go.id/tdpse-detail/7586",
            "website": "btpnsyariah.com"
        },
        {
            "id": "9cb1abb8-8749-4868-a1a3-bc67abd213fe",
            "nama_pse": "MERDEKA KREASI TEKNOLOGI INDONESIA",
            "nama_se": "CROWDS.ID",
            "sektor": "Sektor Teknologi Informasi dan Komunikasi",
            "tanggal_terbit": "2022-07-20",
            "url_tdpse_detail": "https://pse.komdigi.go.id/tdpse-detail/7589",
            "website": "crowds.id"
        },
        {
            "id": "9cb1abc4-5302-485c-a54b-9c3d26905ab9",
            "nama_pse": "BINTANG TEKNOLOGI PRATAMA",
            "nama_se": "WEBSITE JUAL BELI ASET ( JUALASETKU )",
            "sektor": "Sektor Teknologi Informasi dan Komunikasi",
            "tanggal_terbit": "2022-07-20",
            "url_tdpse_detail": "https://pse.komdigi.go.id/tdpse-detail/7590",
            "website": "jualasetku.com"
        },
        {
            "id": "9cb1abc4-563a-4b23-b78f-46ea67290e89",
            "nama_pse": "PD BPR BANK WONOSOBO",
            "nama_se": "WEBSITE",
            "sektor": "Sektor Keuangan",
            "tanggal_terbit": "2022-07-20",
            "url_tdpse_detail": "https://pse.komdigi.go.id/tdpse-detail/7591",
            "website": "bankwonosobo.co.id"
        },
        {
            "id": "9cb1abea-9777-41e2-82e0-ddb77cbf194c",
            "nama_pse": "ASURANSI JIWA GENERALI INDONESIA",
            "nama_se": "BRAVO",
            "sektor": "Sektor Keuangan",
            "tanggal_terbit": "2022-07-20",
            "url_tdpse_detail": "https://pse.komdigi.go.id/tdpse-detail/7598",
            "website": "bravo.generali.co.id"
        },
        {
            "id": "9cb1abb8-8916-4385-a0cc-190a52c8bc85",
            "nama_pse": "BANK PERKREDITAN RAKYAT PAPUA MANDIRI MAKMUR",
            "nama_se": "DEJAYO",
            "sektor": "Sektor Keuangan",
            "tanggal_terbit": "2022-07-20",
            "url_tdpse_detail": "https://pse.komdigi.go.id/tdpse-detail/7593",
            "website": "-"
        },
        {
            "id": "9cb1abc4-5982-442e-ac0a-2169cda8cea4",
            "nama_pse": "PELITA TRANSFER NUSANTARA",
            "nama_se": "TRANSFREE",
            "sektor": "Sektor Teknologi Informasi dan Komunikasi",
            "tanggal_terbit": "2022-07-20",
            "url_tdpse_detail": "https://pse.komdigi.go.id/tdpse-detail/7592",
            "website": "transfree.id"
        },
        {
            "id": "9cb1abea-9b91-40c3-af95-077fc89b0fb7",
            "nama_pse": "BANK PEREKONOMIAN RAKYAT KARTADHANI MULYA",
            "nama_se": "BPR KARTADHANI MULYA",
            "sektor": "Sektor Perdagangan",
            "tanggal_terbit": "2022-07-20",
            "url_tdpse_detail": "https://pse.komdigi.go.id/tdpse-detail/7596",
            "website": "-"
        },
        {
            "id": "9cb1abea-9ebf-4a1c-a9f0-17bb2bd75a71",
            "nama_pse": "GDE PUTU ADIBAYUSANTIKA",
            "nama_se": "WASSTWJAYA.COM",
            "sektor": "Sektor Perdagangan",
            "tanggal_terbit": "2022-07-20",
            "url_tdpse_detail": "https://pse.komdigi.go.id/tdpse-detail/7594",
            "website": "wasstwjaya.com"
        },
        {
            "id": "9cb1abea-a407-4990-801a-48901753162c",
            "nama_pse": "AIA FINANCIAL",
            "nama_se": "AIA INDONESIA DPLK EACCESS",
            "sektor": "Sektor Keuangan",
            "tanggal_terbit": "2022-07-20",
            "url_tdpse_detail": "https://pse.komdigi.go.id/tdpse-detail/7600",
            "website": "aia-financial.co.id"
        },
        {
            "id": "9cb1abc4-5e35-42d2-8613-2595087edccb",
            "nama_pse": "SUZUKI INDOMOBIL SALES",
            "nama_se": "WEBSITE SUZUKI INDONESIA",
            "sektor": "Sektor Perdagangan",
            "tanggal_terbit": "2022-07-20",
            "url_tdpse_detail": "https://pse.komdigi.go.id/tdpse-detail/7611",
            "website": "Suzuki.co.id"
        },
        {
            "id": "9cb1abc4-6175-4a84-b6d4-ae9a31d03c40",
            "nama_pse": "BANK PERKREDITAN RAKYAT ARMINDO KENCANA",
            "nama_se": "PT BPR ARMINDO KENCANA",
            "sektor": "Sektor Keuangan",
            "tanggal_terbit": "2022-07-20",
            "url_tdpse_detail": "https://pse.komdigi.go.id/tdpse-detail/7599",
            "website": "bprarmindokencana.co.id"
        },
        {
            "id": "9cb1abea-a88a-4d82-860c-60593bba2169",
            "nama_pse": "BANK KB BUKOPIN",
            "nama_se": "VIOLA",
            "sektor": "Sektor Keuangan",
            "tanggal_terbit": "2022-07-20",
            "url_tdpse_detail": "https://pse.komdigi.go.id/tdpse-detail/8108",
            "website": "bukopin.co.id"
        },
        {
            "id": "9cb1abb8-8ace-4505-ab33-b5cbf094c8c4",
            "nama_pse": "BANK PEMBANGUNAN DAERAH JAWA TENGAH",
            "nama_se": "INTERNET BANKING PERSONAL DAN BUSINESS BANK JATENG",
            "sektor": "Sektor Keuangan",
            "tanggal_terbit": "2022-07-20",
            "url_tdpse_detail": "https://pse.komdigi.go.id/tdpse-detail/7882",
            "website": "ibanking.bankjateng.co.id"
        },
        {
            "id": "9cb1abb8-8cd1-4c29-a514-c2d25989b487",
            "nama_pse": "RUMAH JUARA INDONESIA",
            "nama_se": "RUMAH JUARA",
            "sektor": "Sektor Perdagangan, Sektor Teknologi Informasi dan Komunikasi",
            "tanggal_terbit": "2022-07-20",
            "url_tdpse_detail": "https://pse.komdigi.go.id/tdpse-detail/7603",
            "website": "rumahjuara.id"
        },
        {
            "id": "9cb1abb8-8ea2-454d-9f90-d029597e9183",
            "nama_pse": "BANK KB BUKOPIN",
            "nama_se": "KB BUKOPIN E-FORM LAYANAN NASBAH",
            "sektor": "Sektor Keuangan",
            "tanggal_terbit": "2022-07-20",
            "url_tdpse_detail": "https://pse.komdigi.go.id/tdpse-detail/7604",
            "website": "etf.bukopin.co.id"
        },
        {
            "id": "9cb1abc4-71c3-4e0e-ad9f-9ffd0be23d7f",
            "nama_pse": "MITLA ITLABORATORY INDONESIA",
            "nama_se": "HELLO BABY PROGRAM INDONESIA",
            "sektor": "Sektor Kesehatan",
            "tanggal_terbit": "2022-07-20",
            "url_tdpse_detail": "https://pse.komdigi.go.id/tdpse-detail/7606",
            "website": "mitla.co.id"
        },
        {
            "id": "9cb1abb8-9069-49c0-9f16-556912d6288b",
            "nama_pse": "RUMAH GADAI BANDUNG",
            "nama_se": "RUMAH GADAI BANDUNG",
            "sektor": "Sektor Keuangan",
            "tanggal_terbit": "2022-07-20",
            "url_tdpse_detail": "https://pse.komdigi.go.id/tdpse-detail/7605",
            "website": "rumahgadaibandung.com"
        },
        {
            "id": "9cb1abea-ac03-4d4c-acdd-fb811e86d8a2",
            "nama_pse": "BPR BANK PASAR KABUPATEN TEMANGGUNG",
            "nama_se": "WEBSITE",
            "sektor": "Sektor Keuangan",
            "tanggal_terbit": "2022-07-20",
            "url_tdpse_detail": "https://pse.komdigi.go.id/tdpse-detail/7613",
            "website": "bankpasartemanggung.co.id"
        }
    ],
    "processingTimeMs": 3,
    "query": "",
    "totalHits": 19121,
    "hitsPerPage": 50,
    "page": 238,
    "totalPages": 383
}