{
    "hits": [
        {
            "id": "9cb1ac79-b8d4-4b4a-84f6-c9a4212f8b04",
            "nama_pse": "TESENA INOVINDO",
            "nama_se": "KLIK IN THIS",
            "sektor": "Sektor Kesehatan, Sektor Teknologi Informasi dan Komunikasi",
            "tanggal_terbit": "2023-12-29",
            "url_tdpse_detail": "https://pse.komdigi.go.id/tdpse-detail/17089",
            "website": "klikinthis.id"
        },
        {
            "id": "9cb1ac79-bc6d-488a-bd66-ecf3e53a5869",
            "nama_pse": "KALS BERSAMA HAWA",
            "nama_se": "GERAI HAWA",
            "sektor": "Sektor Perdagangan",
            "tanggal_terbit": "2023-12-29",
            "url_tdpse_detail": "https://pse.komdigi.go.id/tdpse-detail/17093",
            "website": "geraihawa.co.id"
        },
        {
            "id": "9cb1ac65-c7c9-4b37-ace9-b90e8a6de664",
            "nama_pse": "MINDSET DIGITAL CORP",
            "nama_se": "MINDSET TECHNOLOGY",
            "sektor": "Sektor Kesehatan, Sektor Teknologi Informasi dan Komunikasi",
            "tanggal_terbit": "2023-12-29",
            "url_tdpse_detail": "https://pse.komdigi.go.id/tdpse-detail/17094",
            "website": "mindsetdigital.id"
        },
        {
            "id": "9cb1ac65-cb44-467f-a4b2-6af084b21537",
            "nama_pse": "MEVIN GIGANTEA HANDOYO",
            "nama_se": "SIMEDIK.NET",
            "sektor": "Sektor Kesehatan",
            "tanggal_terbit": "2023-12-29",
            "url_tdpse_detail": "https://pse.komdigi.go.id/tdpse-detail/17095",
            "website": "simedik.net"
        },
        {
            "id": "9cb1ac52-4bf0-49e7-8da7-84d5c453e368",
            "nama_pse": "INOVATIF TUJUH DELAPAN",
            "nama_se": "INOVATIF TUJUH DELAPAN",
            "sektor": "Sektor Perdagangan, Sektor Teknologi Informasi dan Komunikasi",
            "tanggal_terbit": "2023-12-29",
            "url_tdpse_detail": "https://pse.komdigi.go.id/tdpse-detail/17096",
            "website": "inovatif78.com"
        },
        {
            "id": "9cb1ac65-da0f-4d76-89d3-6375233bfe46",
            "nama_pse": "FERI ADI BURHANI",
            "nama_se": "DSS MEDIKA",
            "sektor": "Sektor Kesehatan",
            "tanggal_terbit": "2023-12-29",
            "url_tdpse_detail": "https://pse.komdigi.go.id/tdpse-detail/17098",
            "website": "-"
        },
        {
            "id": "9cb1ac65-dda9-4327-80de-d217abf0b921",
            "nama_pse": "HAMDAN BURHANUDDIN ST",
            "nama_se": "SISMEDIS",
            "sektor": "Sektor Kesehatan",
            "tanggal_terbit": "2023-12-29",
            "url_tdpse_detail": "https://pse.komdigi.go.id/tdpse-detail/17099",
            "website": "-"
        },
        {
            "id": "9cb1ac52-5014-45fd-aa59-ea16edec7d67",
            "nama_pse": "TEKNOLOGI JARINGAN PRIMA",
            "nama_se": "TUNNELKU",
            "sektor": "Sektor Teknologi Informasi dan Komunikasi",
            "tanggal_terbit": "2023-12-29",
            "url_tdpse_detail": "https://pse.komdigi.go.id/tdpse-detail/17100",
            "website": "tunnelku.com"
        },
        {
            "id": "9cb1ac79-cd86-46a5-94ee-f92f9357e5f8",
            "nama_pse": "DIAN NUR UTOMO",
            "nama_se": "LAYANAN INTERNET LOKAL ( RT RW NET )",
            "sektor": "Sektor Teknologi Informasi dan Komunikasi",
            "tanggal_terbit": "2023-12-29",
            "url_tdpse_detail": "https://pse.komdigi.go.id/tdpse-detail/17101",
            "website": "-"
        },
        {
            "id": "9cb1ac79-d07b-433c-a3fb-cf966a99e967",
            "nama_pse": "DARWIS MARHOKOM HUTAGAOL",
            "nama_se": "LAYANAN INTERNET LOKAL ( RT RW NET )",
            "sektor": "Sektor Teknologi Informasi dan Komunikasi",
            "tanggal_terbit": "2023-12-29",
            "url_tdpse_detail": "https://pse.komdigi.go.id/tdpse-detail/17102",
            "website": "-"
        },
        {
            "id": "9cb1ac65-e151-40b3-b4f6-962935f1018e",
            "nama_pse": "LADIA MEDIKA VISION",
            "nama_se": "SISTEM INFORMASI SILC LASIK CENTER",
            "sektor": "Sektor Kesehatan, Sektor Teknologi Informasi dan Komunikasi",
            "tanggal_terbit": "2023-12-29",
            "url_tdpse_detail": "https://pse.komdigi.go.id/tdpse-detail/17103",
            "website": "silclasikcenter.com"
        },
        {
            "id": "9cb1ac52-5477-4381-8baf-81952a8d6446",
            "nama_pse": "FEDORA CAKRA INFORMATIKA",
            "nama_se": "SISTEM INFORMASI RUMAH SAKIT FEDORA MEDIKA",
            "sektor": "Sektor Kesehatan",
            "tanggal_terbit": "2023-12-29",
            "url_tdpse_detail": "https://pse.komdigi.go.id/tdpse-detail/17104",
            "website": "fedoramedika.com"
        },
        {
            "id": "9cb1ac52-5d92-4462-a6a1-e235b19ccc79",
            "nama_pse": "AZIF KONSULTAN TEKNIK",
            "nama_se": "PRIANGAN NETWORK",
            "sektor": "Sektor Teknologi Informasi dan Komunikasi",
            "tanggal_terbit": "2023-12-29",
            "url_tdpse_detail": "https://pse.komdigi.go.id/tdpse-detail/17105",
            "website": "priangan.net"
        },
        {
            "id": "9cb1ac79-d5af-4043-955c-55d3c55f3d55",
            "nama_pse": "AZIF KONSULTAN TEKNIK",
            "nama_se": "PASAR ONLINE",
            "sektor": "Sektor Teknologi Informasi dan Komunikasi",
            "tanggal_terbit": "2023-12-29",
            "url_tdpse_detail": "https://pse.komdigi.go.id/tdpse-detail/17106",
            "website": "pasaronline.biz.id"
        },
        {
            "id": "9cb1ac52-628e-40a6-8b57-7ed143eb292d",
            "nama_pse": "INTERMEDIA MITRA NUSANTARA",
            "nama_se": "BANDUNG EXPRESS",
            "sektor": "Sektor Teknologi Informasi dan Komunikasi",
            "tanggal_terbit": "2023-12-29",
            "url_tdpse_detail": "https://pse.komdigi.go.id/tdpse-detail/17107",
            "website": "bandungexpress.com"
        },
        {
            "id": "9cb1ac52-65ab-466b-ba88-1a17829dec00",
            "nama_pse": "INTERMEDIA MITRA NUSANTARA",
            "nama_se": "PRIANGAN UPDATE",
            "sektor": "Sektor Teknologi Informasi dan Komunikasi",
            "tanggal_terbit": "2023-12-29",
            "url_tdpse_detail": "https://pse.komdigi.go.id/tdpse-detail/17108",
            "website": "prianganupdate.com"
        },
        {
            "id": "9cb1ac52-6957-4563-a529-3170ad2f18c3",
            "nama_pse": "INTERMEDIA MITRA NUSANTARA",
            "nama_se": "WISATA PRIANGAN",
            "sektor": "Sektor Teknologi Informasi dan Komunikasi",
            "tanggal_terbit": "2023-12-29",
            "url_tdpse_detail": "https://pse.komdigi.go.id/tdpse-detail/17109",
            "website": "wisatapriangan.com"
        },
        {
            "id": "9cb1ac52-6db0-4359-a33e-a230fbaeee34",
            "nama_pse": "INTERMEDIA MITRA NUSANTARA",
            "nama_se": "GARUT TERKINI",
            "sektor": "Sektor Teknologi Informasi dan Komunikasi",
            "tanggal_terbit": "2023-12-29",
            "url_tdpse_detail": "https://pse.komdigi.go.id/tdpse-detail/17110",
            "website": "garutterkini.com"
        },
        {
            "id": "9cb1ac79-d8c4-4ff0-b738-c7e1e6ba90c2",
            "nama_pse": "HERI SUGIONO",
            "nama_se": "SIECORE",
            "sektor": "Sektor Kesehatan, Sektor Teknologi Informasi dan Komunikasi",
            "tanggal_terbit": "2023-12-29",
            "url_tdpse_detail": "https://pse.komdigi.go.id/tdpse-detail/17111",
            "website": "rspantinugroho.purbalinggakab.go.id"
        },
        {
            "id": "9cb1ac52-70b3-4dfe-88ac-54bb238f09d0",
            "nama_pse": "INTERMEDIA MITRA NUSANTARA",
            "nama_se": "INFO KAB GARUT",
            "sektor": "Sektor Teknologi Informasi dan Komunikasi",
            "tanggal_terbit": "2023-12-29",
            "url_tdpse_detail": "https://pse.komdigi.go.id/tdpse-detail/17112",
            "website": "kabgarut.or.id"
        },
        {
            "id": "9cb1ac52-7379-4ac2-9e10-17eaa98a3870",
            "nama_pse": "TIGAHA SUKSES BERSAMA",
            "nama_se": "TIGA HA",
            "sektor": "Sektor Teknologi Informasi dan Komunikasi",
            "tanggal_terbit": "2023-12-29",
            "url_tdpse_detail": "https://pse.komdigi.go.id/tdpse-detail/17113",
            "website": "tigaha.biz.id"
        },
        {
            "id": "9cb1ac35-79cf-4963-9162-93515e1597dd",
            "nama_pse": "BAITUS SYIFA",
            "nama_se": "SIM RSBH",
            "sektor": "Sektor Kesehatan",
            "tanggal_terbit": "2023-12-28",
            "url_tdpse_detail": "https://pse.komdigi.go.id/tdpse-detail/17081",
            "website": "-"
        },
        {
            "id": "9cb1ac51-68bd-4986-98eb-1330ce26318a",
            "nama_pse": "TALENTVIS CONSULTING INDONESIA",
            "nama_se": "PERKS BY TALENTVIS",
            "sektor": "Sektor Teknologi Informasi dan Komunikasi",
            "tanggal_terbit": "2023-12-28",
            "url_tdpse_detail": "https://pse.komdigi.go.id/tdpse-detail/17079",
            "website": "PERKS.TALENTVIS.COM"
        },
        {
            "id": "9cb1ac65-b843-48ab-b8ff-b3f0bcea013e",
            "nama_pse": "I KOMANG JAYA",
            "nama_se": "MJCARE",
            "sektor": "Sektor Kesehatan",
            "tanggal_terbit": "2023-12-28",
            "url_tdpse_detail": "https://pse.komdigi.go.id/tdpse-detail/17069",
            "website": "cliniccare.like-mj.online"
        },
        {
            "id": "9cb1ac52-2fab-49b9-bde7-c4488cdacd0e",
            "nama_pse": "KUMALASIWI MIJEN",
            "nama_se": "REKAM MEDIK ELEKTRONIK KUMALA SIWI",
            "sektor": "Sektor Kesehatan",
            "tanggal_terbit": "2023-12-28",
            "url_tdpse_detail": "https://pse.komdigi.go.id/tdpse-detail/17070",
            "website": "rsukumalasiwi.com"
        },
        {
            "id": "9cb1ac52-32c3-416c-86c9-0464a0c27798",
            "nama_pse": "IKLIM MUDA SENTOSA",
            "nama_se": "CARBONETHICS",
            "sektor": "Sektor Perdagangan",
            "tanggal_terbit": "2023-12-28",
            "url_tdpse_detail": "https://pse.komdigi.go.id/tdpse-detail/17080",
            "website": "Carbonethics.org"
        },
        {
            "id": "9cb1ac52-358f-4eb4-b99e-d41c6224ae83",
            "nama_pse": "FRANIKSOFT INFOTAMA",
            "nama_se": "FRANIKSOFT SIM KLINIK",
            "sektor": "Sektor Kesehatan",
            "tanggal_terbit": "2023-12-28",
            "url_tdpse_detail": "https://pse.komdigi.go.id/tdpse-detail/17071",
            "website": "-"
        },
        {
            "id": "9cb1ac79-9ce5-4e68-b308-a35380f02025",
            "nama_pse": "SETIA MITRA LESTARI",
            "nama_se": "SMART HOSPITAL SYSTEM 4.0",
            "sektor": "Sektor Kesehatan",
            "tanggal_terbit": "2023-12-28",
            "url_tdpse_detail": "https://pse.komdigi.go.id/tdpse-detail/17072",
            "website": "rssetiamitra.co.id"
        },
        {
            "id": "9cb1ac65-bc0a-472a-9401-c166a595b333",
            "nama_pse": "KASIH BUNDA LESTARI",
            "nama_se": "ELECTRONIC MEDICAL RECORD (EMR) RSI KASIH BUNDA PARE",
            "sektor": "Sektor Kesehatan, Sektor Teknologi Informasi dan Komunikasi",
            "tanggal_terbit": "2023-12-28",
            "url_tdpse_detail": "https://pse.komdigi.go.id/tdpse-detail/17074",
            "website": "-"
        },
        {
            "id": "9cb1ac79-a028-47c6-8b0d-fdbc2b85e0b7",
            "nama_pse": "YAYASAN SANTA MARIA LOURDES LARANTUKA",
            "nama_se": "SIMRS KHANZA RS BUNDA PENGHARAPAN",
            "sektor": "Sektor Teknologi Informasi dan Komunikasi",
            "tanggal_terbit": "2023-12-28",
            "url_tdpse_detail": "https://pse.komdigi.go.id/tdpse-detail/17073",
            "website": "-"
        },
        {
            "id": "9cb1ac65-bf77-47ff-998c-80aab8b0ffd1",
            "nama_pse": "RULIA MEDIKA",
            "nama_se": "SIMKLINIK RULIA MEDIKA",
            "sektor": "Sektor Kesehatan",
            "tanggal_terbit": "2023-12-28",
            "url_tdpse_detail": "https://pse.komdigi.go.id/tdpse-detail/17075",
            "website": "-"
        },
        {
            "id": "9cb1ac52-3bd1-4f50-8b42-9f7d5d29414d",
            "nama_pse": "AULIA ROHMAN ROKHIM",
            "nama_se": "TIHUB",
            "sektor": "Sektor Kesehatan",
            "tanggal_terbit": "2023-12-28",
            "url_tdpse_detail": "https://pse.komdigi.go.id/tdpse-detail/17076",
            "website": "rsiatambak.com"
        },
        {
            "id": "9cb1ac65-c4c2-4314-93a5-f049f591e9bd",
            "nama_pse": "MEDIA SERVICE INVESTAMA",
            "nama_se": "SIMRS MSI",
            "sektor": "Sektor Kesehatan, Sektor Teknologi Informasi dan Komunikasi",
            "tanggal_terbit": "2023-12-28",
            "url_tdpse_detail": "https://pse.komdigi.go.id/tdpse-detail/17077",
            "website": "-"
        },
        {
            "id": "9cb1ac79-aecc-48b9-a32a-acd9d1a446f6",
            "nama_pse": "LVIORS JAYA SENTOSA",
            "nama_se": "MYL'VIORS",
            "sektor": "Sektor Kesehatan",
            "tanggal_terbit": "2023-12-28",
            "url_tdpse_detail": "https://pse.komdigi.go.id/tdpse-detail/17078",
            "website": "-"
        },
        {
            "id": "9cb1ac52-3ed7-4d92-8d73-2e048a17203d",
            "nama_pse": "MEDIKA GLOBAL HUSADA",
            "nama_se": "EMR-KSS",
            "sektor": "Sektor Kesehatan",
            "tanggal_terbit": "2023-12-28",
            "url_tdpse_detail": "https://pse.komdigi.go.id/tdpse-detail/17082",
            "website": "-"
        },
        {
            "id": "9cb1ac52-4179-4e62-b0d1-b06708084967",
            "nama_pse": "INDONESIA SMART SYSTEM",
            "nama_se": "BUENTAKA.ID",
            "sektor": "Sektor Kesehatan",
            "tanggal_terbit": "2023-12-28",
            "url_tdpse_detail": "https://pse.komdigi.go.id/tdpse-detail/17083",
            "website": "buentaka.id"
        },
        {
            "id": "9cb1ac79-3c22-4d11-b843-35973d542dfb",
            "nama_pse": "INNOCREATIVE",
            "nama_se": "ESIRYARSI EMR",
            "sektor": "Sektor Kesehatan",
            "tanggal_terbit": "2023-12-27",
            "url_tdpse_detail": "https://pse.komdigi.go.id/tdpse-detail/17051",
            "website": "-"
        },
        {
            "id": "9cb1ac52-19b0-4196-bc26-54eaf9a4a3fe",
            "nama_pse": "KLINIK RAWAT INAP UTAMA MUHAMMADIYAH KEDUNGADEM",
            "nama_se": "MYRSMK",
            "sektor": "Sektor Kesehatan",
            "tanggal_terbit": "2023-12-27",
            "url_tdpse_detail": "https://pse.komdigi.go.id/tdpse-detail/17046",
            "website": "-"
        },
        {
            "id": "9cb1ac79-80f4-486d-ac82-e146ef56e597",
            "nama_pse": "GOLDSTEP TEKNOLOGI INDONESIA",
            "nama_se": "GOLDSTEP INTEGRATED HEALTH MANAGEMENT SYSTEM",
            "sektor": "Sektor Kesehatan, Sektor Teknologi Informasi dan Komunikasi",
            "tanggal_terbit": "2023-12-27",
            "url_tdpse_detail": "https://pse.komdigi.go.id/tdpse-detail/17047",
            "website": "-"
        },
        {
            "id": "9cb1ac52-1d4d-454d-8524-c34758635ea6",
            "nama_pse": "INTERAKSI GLOBAL ONLINE",
            "nama_se": "IGO DIGITAL SHOPPING",
            "sektor": "Sektor Perdagangan",
            "tanggal_terbit": "2023-12-27",
            "url_tdpse_detail": "https://pse.komdigi.go.id/tdpse-detail/17048",
            "website": "shop.igodigital.id"
        },
        {
            "id": "9cb1ac79-8428-46fb-b36a-efa0a5784a66",
            "nama_pse": "RUMAH SAKIT UMUM DAERAH KELAS B DR. R. SOSODORO DJATIKOESOEMO",
            "nama_se": "ERM",
            "sektor": "Sektor Kesehatan",
            "tanggal_terbit": "2023-12-27",
            "url_tdpse_detail": "https://pse.komdigi.go.id/tdpse-detail/17049",
            "website": "-"
        },
        {
            "id": "9cb1ac65-8fec-430a-9a3e-dfa91e0a4c1b",
            "nama_pse": "ALDORA GLOBAL TRAVEL TERINTEGRASI",
            "nama_se": "PORTAL WEB",
            "sektor": "Sektor Teknologi Informasi dan Komunikasi",
            "tanggal_terbit": "2023-12-27",
            "url_tdpse_detail": "https://pse.komdigi.go.id/tdpse-detail/17052",
            "website": "aldora.id"
        },
        {
            "id": "9cb1ac79-87d8-47e2-9760-aed5d501d27b",
            "nama_pse": "NAJMUDDIN",
            "nama_se": "SENYUM SEHAT",
            "sektor": "Sektor Teknologi Informasi dan Komunikasi",
            "tanggal_terbit": "2023-12-27",
            "url_tdpse_detail": "https://pse.komdigi.go.id/tdpse-detail/17050",
            "website": "kliniksenyumsehat.com"
        },
        {
            "id": "9cb1ac65-9504-4837-b2e7-756050f0ec9d",
            "nama_pse": "YAYASAN PENGABDIAN HALMAHERA HUSADA",
            "nama_se": "SIMRS RSKB HALMAHERA SIAGA",
            "sektor": "Sektor Kesehatan",
            "tanggal_terbit": "2023-12-27",
            "url_tdpse_detail": "https://pse.komdigi.go.id/tdpse-detail/17053",
            "website": "-"
        },
        {
            "id": "9cb1ac52-209d-459e-8739-44f3727efb91",
            "nama_pse": "INTERMEDIA MITRA NUSANTARA",
            "nama_se": "GARUT PLUS",
            "sektor": "Sektor Teknologi Informasi dan Komunikasi",
            "tanggal_terbit": "2023-12-27",
            "url_tdpse_detail": "https://pse.komdigi.go.id/tdpse-detail/17054",
            "website": "garutplus.com"
        },
        {
            "id": "9cb1ac65-9915-405d-8774-8540e4e08611",
            "nama_pse": "KESDAM IV/DIP MARKAS BESAR TNI AD RS BHAKTI WIRA TAMTAMA",
            "nama_se": "SIMRS IMS RUMKIT TK.IV 04.07.01 TEGAL",
            "sektor": "Sektor Teknologi Informasi dan Komunikasi",
            "tanggal_terbit": "2023-12-27",
            "url_tdpse_detail": "https://pse.komdigi.go.id/tdpse-detail/17055",
            "website": "-"
        },
        {
            "id": "9cb1ac65-9c04-43a2-b900-be0e789ff78b",
            "nama_pse": "GUNA TEKNOLOGI NUSANTARA",
            "nama_se": "SIMRS RSGM SARASWATI DENPASAR",
            "sektor": "Sektor Kesehatan",
            "tanggal_terbit": "2023-12-27",
            "url_tdpse_detail": "https://pse.komdigi.go.id/tdpse-detail/17056",
            "website": "-"
        },
        {
            "id": "9cb1ac52-2570-4831-8e89-d2344b50ef4c",
            "nama_pse": "KREATIF MEDIKA NUSANTARA",
            "nama_se": "INTELLIGENCE CARE SOLUTION",
            "sektor": "Sektor Kesehatan",
            "tanggal_terbit": "2023-12-27",
            "url_tdpse_detail": "https://pse.komdigi.go.id/tdpse-detail/17057",
            "website": "kreatifmedikanusantara.com"
        },
        {
            "id": "9cb1ac65-9ea3-4d8f-b3cf-d18f33815e30",
            "nama_pse": "DWI OPTIMA SELARAS",
            "nama_se": "DOSISH (DOS INTEGRATED SYSTEM HOSPITAL)",
            "sektor": "Sektor Kesehatan, Sektor Teknologi Informasi dan Komunikasi",
            "tanggal_terbit": "2023-12-27",
            "url_tdpse_detail": "https://pse.komdigi.go.id/tdpse-detail/17058",
            "website": "-"
        },
        {
            "id": "9cb1ac79-8ef4-4e35-ab9e-4cf72890c99b",
            "nama_pse": "PUNOKAWAN MITRA ABADI",
            "nama_se": "PUNOKAWAN JOGJA",
            "sektor": "Sektor Transportasi, Sektor Teknologi Informasi dan Komunikasi",
            "tanggal_terbit": "2023-12-27",
            "url_tdpse_detail": "https://pse.komdigi.go.id/tdpse-detail/17063",
            "website": "mataramtour.com"
        }
    ],
    "processingTimeMs": 2,
    "query": "",
    "totalHits": 19131,
    "hitsPerPage": 50,
    "page": 98,
    "totalPages": 383
}