{
    "hits": [
        {
            "id": "9cb1ab6b-ae4a-448e-8876-3df4861e321c",
            "nama_pse": "RECOME TEKNOLOGI INDONESIA",
            "nama_se": "RECOME",
            "sektor": "Sektor Teknologi Informasi dan Komunikasi, Sektor Teknologi Informasi dan Komunikasi",
            "tanggal_terbit": "2021-05-11",
            "url_tdpse_detail": "https://pse.komdigi.go.id/tdpse-detail/933",
            "website": "recomeapp.com"
        },
        {
            "id": "9cb1ab72-91ed-4b8d-89f3-fcc761ca7466",
            "nama_pse": "BANGKIT SUKSES SEJAHTERA",
            "nama_se": "REVIVAL",
            "sektor": "Sektor Perdagangan, Sektor Perdagangan, Sektor Kesehatan, Sektor Kesehatan, Sektor Teknologi Informasi dan Komunikasi, Sektor Teknologi Informasi dan Komunikasi, Sektor Pangan, Sektor Pangan",
            "tanggal_terbit": "2021-05-11",
            "url_tdpse_detail": "https://pse.komdigi.go.id/tdpse-detail/935",
            "website": "revival.id"
        },
        {
            "id": "9cb1ab6b-c694-4004-bc9d-42449adf5dd5",
            "nama_pse": "SIMPAN PINJAM DANA KESUKSESAN INDONESIA",
            "nama_se": "MONEYGET",
            "sektor": "Sektor Teknologi Informasi dan Komunikasi, Sektor Teknologi Informasi dan Komunikasi",
            "tanggal_terbit": "2021-05-11",
            "url_tdpse_detail": "https://pse.komdigi.go.id/tdpse-detail/956",
            "website": "moneyget.com"
        },
        {
            "id": "9cb1ab6b-d7be-46ae-adb3-1519bc8cdc58",
            "nama_pse": "ALDIRACITA SEKURITAS INDONESIA",
            "nama_se": "SISTEM BROKERAGE OFFICE SYSTEM S21-PLUS ALDIRACITA",
            "sektor": "Sektor Keuangan, Sektor Keuangan",
            "tanggal_terbit": "2021-05-11",
            "url_tdpse_detail": "https://pse.komdigi.go.id/tdpse-detail/962",
            "website": "aldiracita.com"
        },
        {
            "id": "9cb1ab6b-e3a9-4792-9a0e-eb44f7b36420",
            "nama_pse": "AKUI APLIKASI NUSANTARA",
            "nama_se": "APLIKASI KORPRI UNTUK INDONESIA",
            "sektor": "Sektor Teknologi Informasi dan Komunikasi, Sektor Teknologi Informasi dan Komunikasi",
            "tanggal_terbit": "2021-05-11",
            "url_tdpse_detail": "https://pse.komdigi.go.id/tdpse-detail/973",
            "website": "akui.co.id"
        },
        {
            "id": "9cb1ab8b-463d-4f03-99c3-0c07e8c201a8",
            "nama_pse": "LENTERA DANA NUSANTARA",
            "nama_se": "LENTERA DANA NUSANTARA",
            "sektor": "Sektor Keuangan, Sektor Keuangan",
            "tanggal_terbit": "2021-05-11",
            "url_tdpse_detail": "https://pse.komdigi.go.id/tdpse-detail/864",
            "website": "lenteradana.co.id"
        },
        {
            "id": "9cb1ab8b-d865-40f5-9894-3cd403b7fa5f",
            "nama_pse": "DATASCRIP",
            "nama_se": "DATASCRIP ONLINE STORE",
            "sektor": "Sektor Perdagangan, Sektor Perdagangan",
            "tanggal_terbit": "2021-05-11",
            "url_tdpse_detail": "https://pse.komdigi.go.id/tdpse-detail/850",
            "website": "store.datascrip.id"
        },
        {
            "id": "9cb1ab7c-3f66-4c5a-9f2d-08252d730f1c",
            "nama_pse": "PANIN SEKURITAS",
            "nama_se": "POSTDANA.ID",
            "sektor": "Sektor Keuangan, Sektor Keuangan",
            "tanggal_terbit": "2021-05-11",
            "url_tdpse_detail": "https://pse.komdigi.go.id/tdpse-detail/906",
            "website": "postdana.id"
        },
        {
            "id": "9cb1ab84-07d2-472a-881a-63885cfefa5f",
            "nama_pse": "PANIN SEKURITAS",
            "nama_se": "POST PRO WEBSITE",
            "sektor": "Sektor Keuangan, Sektor Keuangan",
            "tanggal_terbit": "2021-05-11",
            "url_tdpse_detail": "https://pse.komdigi.go.id/tdpse-detail/941",
            "website": "post-pro.co.id"
        },
        {
            "id": "9cb1ab7c-437e-4f78-81b9-a73bd69b1bc3",
            "nama_pse": "PANIN SEKURITAS",
            "nama_se": "POST MOBILE 3",
            "sektor": "Sektor Keuangan, Sektor Keuangan",
            "tanggal_terbit": "2021-05-11",
            "url_tdpse_detail": "https://pse.komdigi.go.id/tdpse-detail/942",
            "website": "-"
        },
        {
            "id": "9cb1ab8b-fdd3-4b34-a115-6c764694bf91",
            "nama_pse": "PANIN SEKURITAS",
            "nama_se": "POST MOBILE 4",
            "sektor": "Sektor Keuangan, Sektor Keuangan",
            "tanggal_terbit": "2021-05-11",
            "url_tdpse_detail": "https://pse.komdigi.go.id/tdpse-detail/943",
            "website": "-"
        },
        {
            "id": "9cb1ab7c-48c1-4842-9168-5ef3344a38c8",
            "nama_pse": "PANIN SEKURITAS",
            "nama_se": "POST PRO DESKTOP",
            "sektor": "Sektor Keuangan, Sektor Keuangan",
            "tanggal_terbit": "2021-05-11",
            "url_tdpse_detail": "https://pse.komdigi.go.id/tdpse-detail/944",
            "website": "-"
        },
        {
            "id": "9cb1ab8c-009e-480d-80b5-1ff0cb08c407",
            "nama_pse": "PANIN SEKURITAS",
            "nama_se": "WEBSITE PT PANIN SEKURITAS TBK",
            "sektor": "Sektor Keuangan, Sektor Keuangan",
            "tanggal_terbit": "2021-05-11",
            "url_tdpse_detail": "https://pse.komdigi.go.id/tdpse-detail/945",
            "website": "pans.co.id"
        },
        {
            "id": "9cb1ab84-09fe-40e0-914f-cdba733b7b0d",
            "nama_pse": "PANIN SEKURITAS",
            "nama_se": "PANIN SEKURITAS OPENING ACCOUNT ONLINE",
            "sektor": "Sektor Keuangan, Sektor Keuangan",
            "tanggal_terbit": "2021-05-11",
            "url_tdpse_detail": "https://pse.komdigi.go.id/tdpse-detail/947",
            "website": "register.pans.co.id"
        },
        {
            "id": "9cb1ab84-7d51-4b3f-9af2-fce955e1009a",
            "nama_pse": "INOVASI KREDIT INDONESIA",
            "nama_se": "ITRUZZ",
            "sektor": "Sektor Keuangan, Sektor Keuangan, Sektor Teknologi Informasi dan Komunikasi, Sektor Teknologi Informasi dan Komunikasi",
            "tanggal_terbit": "2021-05-11",
            "url_tdpse_detail": "https://pse.komdigi.go.id/tdpse-detail/959",
            "website": "itruzz.com"
        },
        {
            "id": "9cb1ab84-92e7-46a2-a4cd-ab915a93c002",
            "nama_pse": "REZEKI BERSAMA TEKNOLOGI",
            "nama_se": "FINPLUS",
            "sektor": "Sektor Keuangan, Sektor Keuangan",
            "tanggal_terbit": "2021-05-11",
            "url_tdpse_detail": "https://pse.komdigi.go.id/tdpse-detail/957",
            "website": "finplus.co.id"
        },
        {
            "id": "9cb1ab8c-7108-4639-939c-3b64428607a6",
            "nama_pse": "ACURA LABS INDONESIA",
            "nama_se": "ACURA LABS",
            "sektor": "Sektor Teknologi Informasi dan Komunikasi, Sektor Teknologi Informasi dan Komunikasi",
            "tanggal_terbit": "2021-05-11",
            "url_tdpse_detail": "https://pse.komdigi.go.id/tdpse-detail/6445",
            "website": "acuralabs.ai"
        },
        {
            "id": "9cb1ab7d-0ac5-4e6f-a54b-8f9a0d340642",
            "nama_pse": "SOLUSI RUMAH TEKNOLOGI",
            "nama_se": "RENT TO OWN ONLINE",
            "sektor": "Sektor Teknologi Informasi dan Komunikasi, Sektor Teknologi Informasi dan Komunikasi",
            "tanggal_terbit": "2021-05-11",
            "url_tdpse_detail": "https://pse.komdigi.go.id/tdpse-detail/847",
            "website": "taphomes.co.id"
        },
        {
            "id": "9cb1ab8c-f321-465f-bedd-c22fa9fc53dc",
            "nama_pse": "AKU CINTA MEMILES",
            "nama_se": "MEMILES, MIMI, MEGAMES, MEBUY",
            "sektor": "Sektor Perdagangan, Sektor Perdagangan",
            "tanggal_terbit": "2021-05-11",
            "url_tdpse_detail": "https://pse.komdigi.go.id/tdpse-detail/928",
            "website": "memiles.com"
        },
        {
            "id": "9cb1ab7e-1f71-4d0a-925d-cc8a924144f4",
            "nama_pse": "AKULAKU FINANCE INDONESIA",
            "nama_se": "AKUCICIL",
            "sektor": "Sektor Keuangan, Sektor Keuangan",
            "tanggal_terbit": "2021-05-11",
            "url_tdpse_detail": "https://pse.komdigi.go.id/tdpse-detail/939",
            "website": "akulakufinance.co.id"
        },
        {
            "id": "9cb1aba9-06da-4d9f-a608-a938e11bd1b3",
            "nama_pse": "GLOBAL URBAN ESENSIAL",
            "nama_se": "TEMAN DIABETES",
            "sektor": "Sektor Kesehatan, Sektor Kesehatan, Sektor Kesehatan, Sektor Kesehatan, Sektor Kesehatan, Sektor Kesehatan",
            "tanggal_terbit": "2021-05-11",
            "url_tdpse_detail": "https://pse.komdigi.go.id/tdpse-detail/901",
            "website": "temandiabetes.com"
        },
        {
            "id": "9cb1aba9-08c0-46dc-a2dc-5aba202246d8",
            "nama_pse": "GLOBAL URBAN ESENSIAL",
            "nama_se": "D2D (DOCTOR TO DOCTOR)",
            "sektor": "Sektor Kesehatan, Sektor Kesehatan, Sektor Kesehatan, Sektor Kesehatan, Sektor Kesehatan, Sektor Kesehatan",
            "tanggal_terbit": "2021-05-11",
            "url_tdpse_detail": "https://pse.komdigi.go.id/tdpse-detail/902",
            "website": "d2d.co.id"
        },
        {
            "id": "9cb1aba9-0ae6-4c1a-99ea-0321d572d103",
            "nama_pse": "GLOBAL URBAN ESENSIAL",
            "nama_se": "GUESEHAT",
            "sektor": "Sektor Kesehatan, Sektor Kesehatan, Sektor Kesehatan, Sektor Kesehatan, Sektor Kesehatan, Sektor Kesehatan",
            "tanggal_terbit": "2021-05-11",
            "url_tdpse_detail": "https://pse.komdigi.go.id/tdpse-detail/964",
            "website": "guesehat.com, gueaehat.co.id, guesehat.id"
        },
        {
            "id": "9cb1ab9e-ccf7-4777-adbf-576cd85730f7",
            "nama_pse": "NUMED ANUGERAH SOLUSINDO",
            "nama_se": "NUMEDIKA.ID",
            "sektor": "Sektor Perdagangan, Sektor Perdagangan, Sektor Kesehatan, Sektor Kesehatan, Sektor Teknologi Informasi dan Komunikasi, Sektor Teknologi Informasi dan Komunikasi",
            "tanggal_terbit": "2021-05-11",
            "url_tdpse_detail": "https://pse.komdigi.go.id/tdpse-detail/853",
            "website": "numedika.id"
        },
        {
            "id": "9cb1ab9e-cfd3-4cea-9388-bd800cc7f8b1",
            "nama_pse": "AKSORO SABDA NUSANTARA",
            "nama_se": "WEBAPP \u0026 MOBILEAPP AKSORO YANG MENYEDIAKAN LAYANAN PEMBELIAN BUKU \u0026 KELAS ONLINE",
            "sektor": "Sektor Perdagangan, Sektor Perdagangan, Sektor Teknologi Informasi dan Komunikasi, Sektor Teknologi Informasi dan Komunikasi",
            "tanggal_terbit": "2021-05-11",
            "url_tdpse_detail": "https://pse.komdigi.go.id/tdpse-detail/866",
            "website": "aksoro.co.id"
        },
        {
            "id": "9cb1ab9e-d39d-4ad1-bcfa-3947bac81ab1",
            "nama_pse": "ANUGERAH LESTARI TEKNOKREASI",
            "nama_se": "ALTERNATE APPS",
            "sektor": "Sektor Teknologi Informasi dan Komunikasi, Sektor Teknologi Informasi dan Komunikasi",
            "tanggal_terbit": "2021-05-11",
            "url_tdpse_detail": "https://pse.komdigi.go.id/tdpse-detail/871",
            "website": "anugerahlestariteknokreasi.id"
        },
        {
            "id": "9cb1aba9-10f8-467e-8c05-3eb074aa7389",
            "nama_pse": "AMAAN INDONESIA SEJAHTERA",
            "nama_se": "AMAAN APPS",
            "sektor": "Sektor Perdagangan, Sektor Perdagangan",
            "tanggal_terbit": "2021-05-11",
            "url_tdpse_detail": "https://pse.komdigi.go.id/tdpse-detail/926",
            "website": "amaan.co.id"
        },
        {
            "id": "9cb1aba9-12e7-456c-ab7d-df03bfb25bc4",
            "nama_pse": "CERITA BAHAGIA",
            "nama_se": "BRIDESTORY",
            "sektor": "Sektor Teknologi Informasi dan Komunikasi, Sektor Teknologi Informasi dan Komunikasi",
            "tanggal_terbit": "2021-05-11",
            "url_tdpse_detail": "https://pse.komdigi.go.id/tdpse-detail/936",
            "website": "bridestory.com"
        },
        {
            "id": "9cb1aba9-1a3c-4ad1-98b8-6e273751d3e9",
            "nama_pse": "SELALU SIAP SOLUSI",
            "nama_se": "KIRIMIN AJA",
            "sektor": "Sektor Teknologi Informasi dan Komunikasi, Sektor Teknologi Informasi dan Komunikasi, Sektor Teknologi Informasi dan Komunikasi, Sektor Teknologi Informasi dan Komunikasi",
            "tanggal_terbit": "2021-05-11",
            "url_tdpse_detail": "https://pse.komdigi.go.id/tdpse-detail/938",
            "website": "kiriminaja.com"
        },
        {
            "id": "9cb1aba9-20d2-42fa-8b5d-0420aa56f56c",
            "nama_pse": "HOLLA GLOBAL INDONESIA",
            "nama_se": "HOLLA",
            "sektor": "Sektor Perdagangan, Sektor Perdagangan",
            "tanggal_terbit": "2021-05-11",
            "url_tdpse_detail": "https://pse.komdigi.go.id/tdpse-detail/958",
            "website": "Holla.co.id"
        },
        {
            "id": "9cb1aba9-256a-48d4-9044-9e418a73d20b",
            "nama_pse": "EDUKASI MASA DEPAN",
            "nama_se": "EDUKASI MASADEPAN",
            "sektor": "Sektor Perdagangan, Sektor Perdagangan",
            "tanggal_terbit": "2021-05-11",
            "url_tdpse_detail": "https://pse.komdigi.go.id/tdpse-detail/961",
            "website": "masadepan.com"
        },
        {
            "id": "9cb1ab91-6c1a-4073-a94a-46f0f33d07e1",
            "nama_pse": "KONSUMEN SINERGI MAJU MAKMUR",
            "nama_se": "MODAL UANG",
            "sektor": "Sektor Perdagangan, Sektor Perdagangan, Sektor Keuangan, Sektor Keuangan",
            "tanggal_terbit": "2021-05-11",
            "url_tdpse_detail": "https://pse.komdigi.go.id/tdpse-detail/963",
            "website": "kspsinergimaju.id"
        },
        {
            "id": "9cb1ab9e-d69c-401e-a585-69c2e38e2561",
            "nama_pse": "APEKA TECHNOLOGY",
            "nama_se": "APEKA.ID",
            "sektor": "Sektor Perdagangan, Sektor Perdagangan, Sektor Perdagangan, Sektor Perdagangan, Sektor Perdagangan",
            "tanggal_terbit": "2021-05-11",
            "url_tdpse_detail": "https://pse.komdigi.go.id/tdpse-detail/968",
            "website": "apeka.id"
        },
        {
            "id": "9cb1ab9e-df50-481b-97d1-7d91998a8d1d",
            "nama_pse": "CENTRAL ASIA FINANCIAL",
            "nama_se": "JAGADIRI",
            "sektor": "Sektor Keuangan, Sektor Keuangan",
            "tanggal_terbit": "2021-05-11",
            "url_tdpse_detail": "https://pse.komdigi.go.id/tdpse-detail/981",
            "website": "jagadiri.co.id"
        },
        {
            "id": "9cb1ab92-4eee-4c51-ad7b-34c43d16cdae",
            "nama_pse": "NYALA INOVASI PROPERTI",
            "nama_se": "KOALA",
            "sektor": "Sektor Perdagangan, Sektor Perdagangan, Sektor Perdagangan, Sektor Perdagangan, Sektor Perdagangan, Sektor Perdagangan, Sektor Perdagangan, Sektor Perdagangan, Sektor Perdagangan, Sektor Teknologi Informasi dan Komunikasi, Sektor Teknologi Informasi dan Komunikasi, Sektor Teknologi Informasi dan Komunikasi, Sektor Teknologi Informasi dan Komunikasi, Sektor Teknologi Informasi dan Komunikasi, Sektor Teknologi Informasi dan Komunikasi, Sektor Teknologi Informasi dan Komunikasi, Sektor Teknologi Informasi dan Komunikasi, Sektor Teknologi Informasi dan Komunikasi",
            "tanggal_terbit": "2021-05-11",
            "url_tdpse_detail": "https://pse.komdigi.go.id/tdpse-detail/920",
            "website": "koala.id"
        },
        {
            "id": "9cb1abaa-e1d5-4e76-9450-04ea4737f83b",
            "nama_pse": "BANK OCBC NISP",
            "nama_se": "ONBOARDING WEBSITE",
            "sektor": "Sektor Keuangan, Sektor Keuangan, Sektor Keuangan",
            "tanggal_terbit": "2021-05-11",
            "url_tdpse_detail": "https://pse.komdigi.go.id/tdpse-detail/875",
            "website": "onestore.ocbcnisp.com"
        },
        {
            "id": "9cb1ab93-9af6-465b-b30b-962975cf5a96",
            "nama_pse": "BANK OCBC NISP",
            "nama_se": "RAIH.ID",
            "sektor": "Sektor Keuangan, Sektor Keuangan, Sektor Keuangan, Sektor Teknologi Informasi dan Komunikasi, Sektor Teknologi Informasi dan Komunikasi, Sektor Teknologi Informasi dan Komunikasi",
            "tanggal_terbit": "2021-05-11",
            "url_tdpse_detail": "https://pse.komdigi.go.id/tdpse-detail/878",
            "website": "raih.id"
        },
        {
            "id": "9cb1abaa-ed8c-49b9-8ac1-b60724e6ceef",
            "nama_pse": "FATIHA SAKTI",
            "nama_se": "GADJIAN.COM",
            "sektor": "Sektor Teknologi Informasi dan Komunikasi, Sektor Teknologi Informasi dan Komunikasi, Sektor Teknologi Informasi dan Komunikasi",
            "tanggal_terbit": "2021-05-11",
            "url_tdpse_detail": "https://pse.komdigi.go.id/tdpse-detail/911",
            "website": "gadjian.com"
        },
        {
            "id": "9cb1ab95-5c97-4482-b5ef-fc2c94b73e3a",
            "nama_pse": "TELEKOMUNIKASI SELULAR",
            "nama_se": "CASCADE",
            "sektor": "Sektor Teknologi Informasi dan Komunikasi, Sektor Teknologi Informasi dan Komunikasi, Sektor Teknologi Informasi dan Komunikasi, Sektor Teknologi Informasi dan Komunikasi, Sektor Teknologi Informasi dan Komunikasi, Sektor Teknologi Informasi dan Komunikasi, Sektor Teknologi Informasi dan Komunikasi, Sektor Teknologi Informasi dan Komunikasi, Sektor Teknologi Informasi dan Komunikasi, Sektor Teknologi Informasi dan Komunikasi, Sektor Teknologi Informasi dan Komunikasi",
            "tanggal_terbit": "2021-05-11",
            "url_tdpse_detail": "https://pse.komdigi.go.id/tdpse-detail/860",
            "website": "cascade.telkomsel.com"
        },
        {
            "id": "9cb1abac-11ea-4102-8737-38bb3f73e428",
            "nama_pse": "TELEKOMUNIKASI SELULAR",
            "nama_se": "SMOOA",
            "sektor": "Sektor Teknologi Informasi dan Komunikasi, Sektor Teknologi Informasi dan Komunikasi, Sektor Teknologi Informasi dan Komunikasi, Sektor Teknologi Informasi dan Komunikasi, Sektor Teknologi Informasi dan Komunikasi, Sektor Teknologi Informasi dan Komunikasi, Sektor Teknologi Informasi dan Komunikasi, Sektor Teknologi Informasi dan Komunikasi, Sektor Teknologi Informasi dan Komunikasi, Sektor Teknologi Informasi dan Komunikasi, Sektor Teknologi Informasi dan Komunikasi",
            "tanggal_terbit": "2021-05-11",
            "url_tdpse_detail": "https://pse.komdigi.go.id/tdpse-detail/904",
            "website": "smooa.telkomsel.com"
        },
        {
            "id": "9cb1ab70-9846-48c3-b24c-04ab5f1fb05e",
            "nama_pse": "ASTRA INTERNATIONAL",
            "nama_se": "WEBSITE BMW ASTRA",
            "sektor": "Sektor Perdagangan, Sektor Perdagangan",
            "tanggal_terbit": "2021-05-10",
            "url_tdpse_detail": "https://pse.komdigi.go.id/tdpse-detail/838",
            "website": "bmw.astra.co.id"
        },
        {
            "id": "9cb1ab62-4ead-4fb7-a808-bf6ce267b771",
            "nama_pse": "ASTRA INTERNATIONAL",
            "nama_se": "AUTO2000 DIGIROOM",
            "sektor": "Sektor Perdagangan, Sektor Perdagangan",
            "tanggal_terbit": "2021-05-10",
            "url_tdpse_detail": "https://pse.komdigi.go.id/tdpse-detail/839",
            "website": "auto2000.co.id"
        },
        {
            "id": "9cb1ab65-3612-45c4-b1ee-f0651366246d",
            "nama_pse": "ASTRA INTERNATIONAL",
            "nama_se": "ANAVIGO",
            "sektor": "Sektor Perdagangan, Sektor Perdagangan",
            "tanggal_terbit": "2021-05-10",
            "url_tdpse_detail": "https://pse.komdigi.go.id/tdpse-detail/840",
            "website": "-"
        },
        {
            "id": "9cb1ab65-37cb-4932-ba7c-cdcd45a349b1",
            "nama_pse": "ASTRA INTERNATIONAL",
            "nama_se": "WEBSITE ASTRAWORLD",
            "sektor": "Sektor Perdagangan, Sektor Perdagangan",
            "tanggal_terbit": "2021-05-10",
            "url_tdpse_detail": "https://pse.komdigi.go.id/tdpse-detail/841",
            "website": "astraworld.com"
        },
        {
            "id": "9cb1ab62-55a6-4f53-9837-68e0895d8075",
            "nama_pse": "ASTRA INTERNATIONAL",
            "nama_se": "WEBSITE ASTRA MOTOR",
            "sektor": "Sektor Perdagangan, Sektor Perdagangan",
            "tanggal_terbit": "2021-05-10",
            "url_tdpse_detail": "https://pse.komdigi.go.id/tdpse-detail/842",
            "website": "astramotor.co.id"
        },
        {
            "id": "9cb1ab70-9a39-48a9-93ec-20713e68282d",
            "nama_pse": "ASTRA INTERNATIONAL",
            "nama_se": "WEBSITE ASTRA ISUZU",
            "sektor": "Sektor Perdagangan, Sektor Perdagangan",
            "tanggal_terbit": "2021-05-10",
            "url_tdpse_detail": "https://pse.komdigi.go.id/tdpse-detail/843",
            "website": "astraisuzu.co.id"
        },
        {
            "id": "9cb1ab65-f160-4f83-b31c-790086d50983",
            "nama_pse": "KRAMA YUDHA TIGA BERLIAN MOTORS",
            "nama_se": "KTB TELEMATICS",
            "sektor": "Sektor Teknologi Informasi dan Komunikasi, Sektor Teknologi Informasi dan Komunikasi",
            "tanggal_terbit": "2021-05-10",
            "url_tdpse_detail": "https://pse.komdigi.go.id/tdpse-detail/844",
            "website": "runner.ktbfuso.co.id"
        },
        {
            "id": "9cb1ab72-12cd-4100-96b1-d7e1da44d5ce",
            "nama_pse": "LOKAL ORANG INDONESIA",
            "nama_se": "LOOKIN",
            "sektor": "Sektor Teknologi Informasi dan Komunikasi, Sektor Teknologi Informasi dan Komunikasi",
            "tanggal_terbit": "2021-05-10",
            "url_tdpse_detail": "https://pse.komdigi.go.id/tdpse-detail/845",
            "website": "-"
        },
        {
            "id": "9cb1ab95-54e3-49dc-9ef9-5c3b8af06146",
            "nama_pse": "TELEKOMUNIKASI SELULAR",
            "nama_se": "API GATEWAY DIGICORE",
            "sektor": "Sektor Teknologi Informasi dan Komunikasi, Sektor Teknologi Informasi dan Komunikasi, Sektor Teknologi Informasi dan Komunikasi, Sektor Teknologi Informasi dan Komunikasi, Sektor Teknologi Informasi dan Komunikasi, Sektor Teknologi Informasi dan Komunikasi, Sektor Teknologi Informasi dan Komunikasi, Sektor Teknologi Informasi dan Komunikasi, Sektor Teknologi Informasi dan Komunikasi, Sektor Teknologi Informasi dan Komunikasi, Sektor Teknologi Informasi dan Komunikasi",
            "tanggal_terbit": "2021-05-10",
            "url_tdpse_detail": "https://pse.komdigi.go.id/tdpse-detail/834",
            "website": "-"
        },
        {
            "id": "9cb1ab95-58e6-421c-9567-7a070fe61223",
            "nama_pse": "TELEKOMUNIKASI SELULAR",
            "nama_se": "TELKOMSEL IOT",
            "sektor": "Sektor Teknologi Informasi dan Komunikasi, Sektor Teknologi Informasi dan Komunikasi, Sektor Teknologi Informasi dan Komunikasi, Sektor Teknologi Informasi dan Komunikasi, Sektor Teknologi Informasi dan Komunikasi, Sektor Teknologi Informasi dan Komunikasi, Sektor Teknologi Informasi dan Komunikasi, Sektor Teknologi Informasi dan Komunikasi, Sektor Teknologi Informasi dan Komunikasi, Sektor Teknologi Informasi dan Komunikasi, Sektor Teknologi Informasi dan Komunikasi",
            "tanggal_terbit": "2021-05-10",
            "url_tdpse_detail": "https://pse.komdigi.go.id/tdpse-detail/837",
            "website": "telkomseliot.com"
        }
    ],
    "processingTimeMs": 9,
    "query": "",
    "totalHits": 19131,
    "hitsPerPage": 50,
    "page": 367,
    "totalPages": 383
}