{
    "hits": [
        {
            "id": "9d925303-f2b8-43b3-b23e-04ad7b4ae0b4",
            "nama_pse": "MEDIA CHANNEL PRISTIWA",
            "nama_se": "pristiwa.com",
            "sektor": "Sektor Teknologi Informasi dan Komunikasi",
            "tanggal_terbit": "2024-11-25",
            "url_tdpse_detail": "https://pse.komdigi.go.id/tdpse-detail/21336",
            "website": "pristiwa.com"
        },
        {
            "id": "9d922b02-894e-4125-9753-1e814af86fea",
            "nama_pse": "VINTECH GAME ASIA",
            "nama_se": "GLORY OF WAR 2025",
            "sektor": "Sektor Perdagangan",
            "tanggal_terbit": "2024-11-25",
            "url_tdpse_detail": "https://pse.komdigi.go.id/tdpse-detail/21332",
            "website": "gow.indogow.com"
        },
        {
            "id": "9d9200f9-de66-434d-b72b-5c081bb413ed",
            "nama_pse": "PAGEANT STUDIO INTERNATIONAL",
            "nama_se": "WEBSITE PAGEANT STUDIO",
            "sektor": "Sektor Teknologi Informasi dan Komunikasi",
            "tanggal_terbit": "2024-11-25",
            "url_tdpse_detail": "https://pse.komdigi.go.id/tdpse-detail/21330",
            "website": "-"
        },
        {
            "id": "9d91dc78-6be8-4a16-affa-e6fa43e3b97b",
            "nama_pse": "BEDAH NUSANTARA GROUP",
            "nama_se": "hariannet.co.id",
            "sektor": "Sektor Teknologi Informasi dan Komunikasi",
            "tanggal_terbit": "2024-11-25",
            "url_tdpse_detail": "https://pse.komdigi.go.id/tdpse-detail/21328",
            "website": "hariannet.co.id"
        },
        {
            "id": "9d91f229-07d7-4e4f-bec6-27d3684130b6",
            "nama_pse": "OSO SEKURITAS INDONESIA",
            "nama_se": "OSO TRADER",
            "sektor": "Sektor Keuangan",
            "tanggal_terbit": "2024-11-25",
            "url_tdpse_detail": "https://pse.komdigi.go.id/tdpse-detail/21329",
            "website": "oso-securities.com"
        },
        {
            "id": "9d9252c9-5075-45c3-a822-513fe5c556b2",
            "nama_pse": "SHIFA HANIFAH",
            "nama_se": "caaszietwt",
            "sektor": "Sektor Perdagangan",
            "tanggal_terbit": "2024-11-25",
            "url_tdpse_detail": "https://pse.komdigi.go.id/tdpse-detail/21333",
            "website": "caaszietwt.biz.id"
        },
        {
            "id": "9d9252d5-f4ea-4dd4-a623-122539229f7c",
            "nama_pse": "KOPI BINTANG INDONESIA",
            "nama_se": "TOMORO COFFEE",
            "sektor": "Sektor Perdagangan",
            "tanggal_terbit": "2024-11-25",
            "url_tdpse_detail": "https://pse.komdigi.go.id/tdpse-detail/21334",
            "website": "tomoro-coffee.id"
        },
        {
            "id": "9d930182-1b34-497a-86a2-b0eaa098477c",
            "nama_pse": "TOKOPEDIA",
            "nama_se": "merchant-id.tokopedia.com",
            "sektor": "Sektor Perdagangan",
            "tanggal_terbit": "2024-11-25",
            "url_tdpse_detail": "https://pse.komdigi.go.id/tdpse-detail/21340",
            "website": "merchant-id.tokopedia.com"
        },
        {
            "id": "9d92abe7-138a-41a2-904a-e3d0fc37eac7",
            "nama_pse": "AHMAD AFIFUDIN",
            "nama_se": "WISNUFARMA REKAM MEDIS",
            "sektor": "Sektor Kesehatan",
            "tanggal_terbit": "2024-11-25",
            "url_tdpse_detail": "https://pse.komdigi.go.id/tdpse-detail/21338",
            "website": "rekmed.wisnu-farma.com"
        },
        {
            "id": "9d9252f0-682d-4633-90f3-5224911655f1",
            "nama_pse": "ACHMAD TARICH WIBOWO",
            "nama_se": "ABUWAFA",
            "sektor": "Sektor Teknologi Informasi dan Komunikasi",
            "tanggal_terbit": "2024-11-25",
            "url_tdpse_detail": "https://pse.komdigi.go.id/tdpse-detail/21335",
            "website": "abuwafa.id"
        },
        {
            "id": "9d92d91d-4667-4642-ab61-4501f6e4d9e6",
            "nama_pse": "ERPRODUCTION MEDIA KREATIF",
            "nama_se": "ER PRODUCTION",
            "sektor": "Sektor Teknologi Informasi dan Komunikasi",
            "tanggal_terbit": "2024-11-25",
            "url_tdpse_detail": "https://pse.komdigi.go.id/tdpse-detail/21339",
            "website": "erproduction.info"
        },
        {
            "id": "9d8f4f44-8393-4ad1-87c1-5a8f03be4419",
            "nama_pse": "KINGS MANDIRI GROUP",
            "nama_se": "PT KINGS MANDIRI GROUP",
            "sektor": "Sektor Perdagangan",
            "tanggal_terbit": "2024-11-24",
            "url_tdpse_detail": "https://pse.komdigi.go.id/tdpse-detail/21324",
            "website": "kingsvilla.co.id"
        },
        {
            "id": "9d903e36-afac-4548-9419-82fd3124e2ba",
            "nama_pse": "PUSAT USAHA BERSAMA",
            "nama_se": "E-PUBER",
            "sektor": "Sektor Teknologi Informasi dan Komunikasi",
            "tanggal_terbit": "2024-11-24",
            "url_tdpse_detail": "https://pse.komdigi.go.id/tdpse-detail/21325",
            "website": "puber.co.id"
        },
        {
            "id": "9d905ecb-52e4-4531-b4a0-993802b77cb6",
            "nama_pse": "LUGAS PRASETIYO",
            "nama_se": "GEMPAY TOPUP",
            "sektor": "Sektor Teknologi Informasi dan Komunikasi",
            "tanggal_terbit": "2024-11-24",
            "url_tdpse_detail": "https://pse.komdigi.go.id/tdpse-detail/21326",
            "website": "gempaytopup.com"
        },
        {
            "id": "9d90a8bc-b5fa-4939-9e26-cc7ce0b3f482",
            "nama_pse": "MEDIA PANCA PENA",
            "nama_se": "PANCAPENADOTCOM",
            "sektor": "Sektor Teknologi Informasi dan Komunikasi",
            "tanggal_terbit": "2024-11-24",
            "url_tdpse_detail": "https://pse.komdigi.go.id/tdpse-detail/21327",
            "website": "pancapena.com"
        },
        {
            "id": "9d8df982-6272-4851-a657-ea18f360d8b4",
            "nama_pse": "MEDIA ZONA CAKRAWALA",
            "nama_se": "ZONACAKRAWALA.COM",
            "sektor": "Sektor Teknologi Informasi dan Komunikasi",
            "tanggal_terbit": "2024-11-23",
            "url_tdpse_detail": "https://pse.komdigi.go.id/tdpse-detail/21321",
            "website": "zonacakrawala.com"
        },
        {
            "id": "9d8e0275-e7e1-4b4b-9626-5f897cdf2ba6",
            "nama_pse": "NAKULA CELLULER NIAGA SULAWESI",
            "nama_se": "NAKULAPAY RETAIL",
            "sektor": "Sektor Perdagangan",
            "tanggal_terbit": "2024-11-23",
            "url_tdpse_detail": "https://pse.komdigi.go.id/tdpse-detail/21322",
            "website": "-"
        },
        {
            "id": "9d8e676b-9514-4a2a-9b64-7b8cf82d8875",
            "nama_pse": "HELY",
            "nama_se": "FOX LITE HOTEL",
            "sektor": "Sektor Perdagangan",
            "tanggal_terbit": "2024-11-23",
            "url_tdpse_detail": "https://pse.komdigi.go.id/tdpse-detail/21323",
            "website": "-"
        },
        {
            "id": "9d8c870e-7d35-491d-a2e8-ade3fd01b305",
            "nama_pse": "NAYYARA ZHAGHA ARTHA",
            "nama_se": "NAYYARA SMARTHEALTH",
            "sektor": "Sektor Kesehatan",
            "tanggal_terbit": "2024-11-22",
            "url_tdpse_detail": "https://pse.komdigi.go.id/tdpse-detail/21314",
            "website": "nayyara.my.id"
        },
        {
            "id": "9d8c88ab-4f05-4576-b9c8-c1a153d65898",
            "nama_pse": "JOSAL OJEK EKSPRES",
            "nama_se": "JOSAL",
            "sektor": "Sektor Transportasi, Sektor Teknologi Informasi dan Komunikasi",
            "tanggal_terbit": "2024-11-22",
            "url_tdpse_detail": "https://pse.komdigi.go.id/tdpse-detail/21315",
            "website": "jojek.co.id"
        },
        {
            "id": "9d8c4c37-2d9e-41d8-98b3-0c9c17f1f331",
            "nama_pse": "PORTO KOMODITI BERJANGKA",
            "nama_se": "PT PORTO KOMODITI BERJANGKA",
            "sektor": "Sektor Perdagangan",
            "tanggal_terbit": "2024-11-22",
            "url_tdpse_detail": "https://pse.komdigi.go.id/tdpse-detail/21310",
            "website": "portoberjangka.com"
        },
        {
            "id": "9d8c695e-6d6c-447b-bb5f-ced843f53536",
            "nama_pse": "INOVASI TEKNOLOGI BRABO",
            "nama_se": "TAPPINTAR",
            "sektor": "Sektor Perdagangan, Sektor Kesehatan, Sektor Teknologi Informasi dan Komunikasi",
            "tanggal_terbit": "2024-11-22",
            "url_tdpse_detail": "https://pse.komdigi.go.id/tdpse-detail/21313",
            "website": "tappintar.com"
        },
        {
            "id": "9d8c5151-08e9-441d-bb53-82a8de27ac42",
            "nama_pse": "JOSAL OJEK EKSPRES",
            "nama_se": "JOSAL TRANSPORT ONLINE",
            "sektor": "Sektor Transportasi, Sektor Teknologi Informasi dan Komunikasi",
            "tanggal_terbit": "2024-11-22",
            "url_tdpse_detail": "https://pse.komdigi.go.id/tdpse-detail/21311",
            "website": "josal.co.id"
        },
        {
            "id": "9d8b74c3-9f33-44de-a813-49a7e6c34a04",
            "nama_pse": "PRIGUNA SEPTIA PUTRA",
            "nama_se": "SAHABAT KLINIK",
            "sektor": "Sektor Kesehatan",
            "tanggal_terbit": "2024-11-22",
            "url_tdpse_detail": "https://pse.komdigi.go.id/tdpse-detail/21305",
            "website": "-"
        },
        {
            "id": "9d8befb9-c371-4ecb-9bc4-6831e6a8892e",
            "nama_pse": "HIGEA MEDIKA INSURA SOLUSI INDONESIA",
            "nama_se": "igea.ai",
            "sektor": "Sektor Kesehatan",
            "tanggal_terbit": "2024-11-22",
            "url_tdpse_detail": "https://pse.komdigi.go.id/tdpse-detail/21306",
            "website": "igea.tech"
        },
        {
            "id": "9d8c02db-c52e-45c6-91cd-bbb15fd61d61",
            "nama_pse": "BANK SMBC INDONESIA",
            "nama_se": "JENIUS DAYA (APLIKASI)",
            "sektor": "Sektor Keuangan",
            "tanggal_terbit": "2024-11-22",
            "url_tdpse_detail": "https://pse.komdigi.go.id/tdpse-detail/21308",
            "website": "-"
        },
        {
            "id": "9d8c0243-16c0-4708-890f-fc2af47fdc42",
            "nama_pse": "MSIG LIFE INSURANCE INDONESIA",
            "nama_se": "FORTIFY BY MSIG LIFE",
            "sektor": "Sektor Keuangan",
            "tanggal_terbit": "2024-11-22",
            "url_tdpse_detail": "https://pse.komdigi.go.id/tdpse-detail/21307",
            "website": "fortify.msiglife.co.id"
        },
        {
            "id": "9d8c53cf-2015-475f-8c4e-b4a65fcf42ab",
            "nama_pse": "EVOLUSI TEKNOLOGI KREATIF",
            "nama_se": "GAJAH GAMING",
            "sektor": "Sektor Perdagangan",
            "tanggal_terbit": "2024-11-22",
            "url_tdpse_detail": "https://pse.komdigi.go.id/tdpse-detail/21312",
            "website": "gajahgaming.com"
        },
        {
            "id": "9d8cac50-3cbc-4503-85b9-49a926d691a9",
            "nama_pse": "GLOBAL MAKMUR MADANI",
            "nama_se": "iSalaam Connecting Ummah",
            "sektor": "Sektor Teknologi Informasi dan Komunikasi",
            "tanggal_terbit": "2024-11-22",
            "url_tdpse_detail": "https://pse.komdigi.go.id/tdpse-detail/21317",
            "website": "isalaam.id"
        },
        {
            "id": "9d8cb0e3-62c1-4d78-8de3-97b341673eb5",
            "nama_pse": "NAGARA MAHA PRASTAWA",
            "nama_se": "NAGARA MAHA PRASTAWA",
            "sektor": "Sektor Perdagangan",
            "tanggal_terbit": "2024-11-22",
            "url_tdpse_detail": "https://pse.komdigi.go.id/tdpse-detail/21318",
            "website": "captainbalitourism.com"
        },
        {
            "id": "9d8cf7a3-28fa-4506-8a14-99e9bc1054b6",
            "nama_pse": "SAROJA BUMI SENTOSA",
            "nama_se": "X-SENDERS",
            "sektor": "Sektor Teknologi Informasi dan Komunikasi",
            "tanggal_terbit": "2024-11-22",
            "url_tdpse_detail": "https://pse.komdigi.go.id/tdpse-detail/21320",
            "website": "x-senders.com"
        },
        {
            "id": "9d8ceb71-7835-45ff-81a6-28beebc332cf",
            "nama_pse": "CONTAINER LEDGER ACCOUNT",
            "nama_se": "CONTAINER LEDGER ACCOUNT",
            "sektor": "Sektor Teknologi Informasi dan Komunikasi",
            "tanggal_terbit": "2024-11-22",
            "url_tdpse_detail": "https://pse.komdigi.go.id/tdpse-detail/21319",
            "website": "clap.id"
        },
        {
            "id": "9d8c8dc4-2ef1-441f-a0f6-c453291f0fc3",
            "nama_pse": "UNTUNG KURNIAWAN HIDAYAT",
            "nama_se": "PT.CITRA MILENIAL PERKASA",
            "sektor": "Sektor Perdagangan, Sektor Kesehatan, Sektor Teknologi Informasi dan Komunikasi",
            "tanggal_terbit": "2024-11-22",
            "url_tdpse_detail": "https://pse.komdigi.go.id/tdpse-detail/21316",
            "website": "-"
        },
        {
            "id": "9d8c1c80-7292-42a1-9dd3-a27ee114b825",
            "nama_pse": "MITRA SENDANG KEMAKMURAN",
            "nama_se": "MOSKI (MOTOR SEDULUR KITE)",
            "sektor": "Sektor Perdagangan",
            "tanggal_terbit": "2024-11-22",
            "url_tdpse_detail": "https://pse.komdigi.go.id/tdpse-detail/21309",
            "website": "-"
        },
        {
            "id": "9d894ede-c118-4147-98be-b0fa82183584",
            "nama_pse": "MEDIA WARTA HUMPOL",
            "nama_se": "wartahumaspolri.com",
            "sektor": "Sektor Teknologi Informasi dan Komunikasi",
            "tanggal_terbit": "2024-11-21",
            "url_tdpse_detail": "https://pse.komdigi.go.id/tdpse-detail/21295",
            "website": "wartahumaspolri.com"
        },
        {
            "id": "9d8a100b-ad3b-48d4-8a2f-7ecb3c4881c0",
            "nama_pse": "MANDALA NUSANTARA GROUP",
            "nama_se": "tintaindependen.com",
            "sektor": "Sektor Teknologi Informasi dan Komunikasi",
            "tanggal_terbit": "2024-11-21",
            "url_tdpse_detail": "https://pse.komdigi.go.id/tdpse-detail/21299",
            "website": "tintaindependen.com"
        },
        {
            "id": "9d8947cb-fa7d-4c5e-a286-3d544ef2ad3c",
            "nama_pse": "HIBRA DIGITAL CORP",
            "nama_se": "HIBRADE.COM",
            "sektor": "Sektor Teknologi Informasi dan Komunikasi",
            "tanggal_terbit": "2024-11-21",
            "url_tdpse_detail": "https://pse.komdigi.go.id/tdpse-detail/21294",
            "website": "hibrade.com"
        },
        {
            "id": "9d89cdda-57c7-401d-89ee-91cf0f573426",
            "nama_pse": "AIA FINANCIAL",
            "nama_se": "AIA+",
            "sektor": "Sektor Keuangan",
            "tanggal_terbit": "2024-11-21",
            "url_tdpse_detail": "https://pse.komdigi.go.id/tdpse-detail/21296",
            "website": "-"
        },
        {
            "id": "9d8a67b7-ad3c-445e-b0e7-edd65b3372f3",
            "nama_pse": "AKRATAMA SADAWIRA GRUP",
            "nama_se": "CALATHEA COFFEE",
            "sektor": "Sektor Perdagangan",
            "tanggal_terbit": "2024-11-21",
            "url_tdpse_detail": "https://pse.komdigi.go.id/tdpse-detail/21301",
            "website": "calatheacoffee.com"
        },
        {
            "id": "9d89ff90-8fd9-4f69-9047-306ccaffb5a6",
            "nama_pse": "ABDI HAQQI AN NAZILLI",
            "nama_se": "WIRATAMA ONLINE",
            "sektor": "Sektor Kesehatan",
            "tanggal_terbit": "2024-11-21",
            "url_tdpse_detail": "https://pse.komdigi.go.id/tdpse-detail/21298",
            "website": "triwiratama.com"
        },
        {
            "id": "9d8a3dd3-c814-4322-8e24-0549c9f65f68",
            "nama_pse": "AJAIB FINANSIAL TEKNOLOGI",
            "nama_se": "AJAIB FINANSIAL TEKNOLOGI",
            "sektor": "Sektor Teknologi Informasi dan Komunikasi",
            "tanggal_terbit": "2024-11-21",
            "url_tdpse_detail": "https://pse.komdigi.go.id/tdpse-detail/21300",
            "website": "ajaibfinansialteknologi.co.id"
        },
        {
            "id": "9d8aa10d-9c1b-48d1-9e24-90f58d4d0fca",
            "nama_pse": "LIKUID MEGAH SEMESTA",
            "nama_se": "BULKY.ID",
            "sektor": "Sektor Perdagangan",
            "tanggal_terbit": "2024-11-21",
            "url_tdpse_detail": "https://pse.komdigi.go.id/tdpse-detail/21303",
            "website": "bulky.id"
        },
        {
            "id": "9d8a9a09-a0a6-4deb-8a27-1abcd60cfa8c",
            "nama_pse": "RANTAI DATA PINTAR",
            "nama_se": "SMARTSHIELD BTN",
            "sektor": "Sektor Teknologi Informasi dan Komunikasi",
            "tanggal_terbit": "2024-11-21",
            "url_tdpse_detail": "https://pse.komdigi.go.id/tdpse-detail/21302",
            "website": "btn.smartshield.chainsmart.id"
        },
        {
            "id": "9d89cece-bb0b-4477-b2d2-8cb9f41864dc",
            "nama_pse": "AMERTA JAYA REMITANSI",
            "nama_se": "REMITENS",
            "sektor": "Sektor Keuangan",
            "tanggal_terbit": "2024-11-21",
            "url_tdpse_detail": "https://pse.komdigi.go.id/tdpse-detail/21297",
            "website": "remitens.com"
        },
        {
            "id": "9d8877a8-2a47-4273-8518-7190dab18191",
            "nama_pse": "SATYA WIRAJATI",
            "nama_se": "WIRAJATI STUDIO",
            "sektor": "Sektor Teknologi Informasi dan Komunikasi",
            "tanggal_terbit": "2024-11-20",
            "url_tdpse_detail": "https://pse.komdigi.go.id/tdpse-detail/21283",
            "website": "wirajatistudio.com"
        },
        {
            "id": "9d88d98b-403b-4f76-87d4-28be6bd08798",
            "nama_pse": "ULUWATU DEWATA AGUNG",
            "nama_se": "ULUWATU DEWATA AGUNG",
            "sektor": "Sektor Perdagangan",
            "tanggal_terbit": "2024-11-20",
            "url_tdpse_detail": "https://pse.komdigi.go.id/tdpse-detail/21288",
            "website": "vinayakamoon.com"
        },
        {
            "id": "9d880f32-8856-4a6e-8440-d346e5dab5cc",
            "nama_pse": "ADECCO PERSONNEL INDONESIA",
            "nama_se": "SITECORE",
            "sektor": "Sektor Perdagangan",
            "tanggal_terbit": "2024-11-20",
            "url_tdpse_detail": "https://pse.komdigi.go.id/tdpse-detail/21279",
            "website": "adecco.com"
        },
        {
            "id": "9d88168b-b5d2-446b-9cb6-5ca9228330bb",
            "nama_pse": "BORNEO SARANA MULTIMEDIA",
            "nama_se": "portalkalimantan.com",
            "sektor": "Sektor Teknologi Informasi dan Komunikasi",
            "tanggal_terbit": "2024-11-20",
            "url_tdpse_detail": "https://pse.komdigi.go.id/tdpse-detail/21280",
            "website": "portalkalimantan.com"
        },
        {
            "id": "9d87d816-f057-44da-a51d-e2b9670b9fbe",
            "nama_pse": "JOEWANDEWA YULIANSYAH",
            "nama_se": "SISTEM INFORMASI KLINIK OMSA MEDIC ",
            "sektor": "Sektor Kesehatan",
            "tanggal_terbit": "2024-11-20",
            "url_tdpse_detail": "https://pse.komdigi.go.id/tdpse-detail/21278",
            "website": "omsamedic.co.id"
        },
        {
            "id": "9d871dbd-fdca-40b8-9011-7b9b6e1e1d0b",
            "nama_pse": "WENAS YANTI RUCHBAN",
            "nama_se": "IGNESIA PITABESAR.COM",
            "sektor": "Sektor Perdagangan",
            "tanggal_terbit": "2024-11-20",
            "url_tdpse_detail": "https://pse.komdigi.go.id/tdpse-detail/21277",
            "website": "pitabesar.com"
        }
    ],
    "processingTimeMs": 5,
    "query": "",
    "totalHits": 19131,
    "hitsPerPage": 50,
    "page": 23,
    "totalPages": 383
}