{
    "hits": [
        {
            "id": "9cb1abea-e8ba-4235-a861-ab02751955a5",
            "nama_pse": "BANK PEMBANGUNAN DAERAH KALIMANTAN TENGAH",
            "nama_se": "WEBSITE BANK KALTENG",
            "sektor": "Sektor Keuangan",
            "tanggal_terbit": "2022-07-20",
            "url_tdpse_detail": "https://pse.komdigi.go.id/tdpse-detail/7645",
            "website": "bankkalteng.co.id"
        },
        {
            "id": "9cb1abea-ec04-4614-a543-fa5d030a8994",
            "nama_pse": "BANK PERKREDITAN RAKYAT RINI BHAKTINUSA",
            "nama_se": "BPR RINI BHAKTINUSA",
            "sektor": "Sektor Keuangan",
            "tanggal_terbit": "2022-07-20",
            "url_tdpse_detail": "https://pse.komdigi.go.id/tdpse-detail/7650",
            "website": "-"
        },
        {
            "id": "9cb1abc4-badc-4403-82e3-9491e54bf9ce",
            "nama_pse": "BANK PEREKONOMIAN RAKYAT CELEBES MITRA PERDANA",
            "nama_se": "WEBSITE BPR",
            "sektor": "Sektor Keuangan",
            "tanggal_terbit": "2022-07-20",
            "url_tdpse_detail": "https://pse.komdigi.go.id/tdpse-detail/7646",
            "website": "bprcelebes.co.id"
        },
        {
            "id": "9cb1abc4-bf2f-4540-9e50-93116a9e5261",
            "nama_pse": "ASURANSI CENTRAL ASIA",
            "nama_se": "KLIKACA.COM",
            "sektor": "Sektor Keuangan",
            "tanggal_terbit": "2022-07-20",
            "url_tdpse_detail": "https://pse.komdigi.go.id/tdpse-detail/7647",
            "website": "klikaca.com"
        },
        {
            "id": "9cb1abea-eee5-4847-89b3-d1a54e74e988",
            "nama_pse": "AIA FINANCIAL",
            "nama_se": "AIA INDONESIA IPOS",
            "sektor": "Sektor Keuangan",
            "tanggal_terbit": "2022-07-20",
            "url_tdpse_detail": "https://pse.komdigi.go.id/tdpse-detail/7649",
            "website": "dc2.aia-financial.co.id"
        },
        {
            "id": "9cb1abea-f282-4370-8903-210eebab96f0",
            "nama_pse": "LANCAR SUKSES LANGGENG",
            "nama_se": "FOOD TRAVEL GALLERY (LANCAR SUKSES LANGGENG)",
            "sektor": "Sektor Teknologi Informasi dan Komunikasi",
            "tanggal_terbit": "2022-07-20",
            "url_tdpse_detail": "https://pse.komdigi.go.id/tdpse-detail/7648",
            "website": "lawrentechnologyindonesia.com"
        },
        {
            "id": "9cb1abea-f599-4992-8f3a-7852fb17371b",
            "nama_pse": "BANK PEREKONOMIAN RAKYAT DANA RAYA JAWA TIMUR",
            "nama_se": "PT. BPR DANA RAYA JAWA TIMUR",
            "sektor": "Sektor Keuangan",
            "tanggal_terbit": "2022-07-20",
            "url_tdpse_detail": "https://pse.komdigi.go.id/tdpse-detail/7651",
            "website": "danarayajatim.co.id"
        },
        {
            "id": "9cb1abea-f901-4910-9894-f0e4096e12c4",
            "nama_pse": "BANK SYARIAH INDONESIA",
            "nama_se": "SABI",
            "sektor": "Sektor Keuangan",
            "tanggal_terbit": "2022-07-20",
            "url_tdpse_detail": "https://pse.komdigi.go.id/tdpse-detail/7653",
            "website": "sabihasanahku.bankbsi.co.id"
        },
        {
            "id": "9cb1abb8-a6af-46c8-b301-283d213efe37",
            "nama_pse": "BANK PERKREDITAN RAKYAT MITRA PATI MANDIRI",
            "nama_se": "PT BPR MITRA PATI MANDIRI",
            "sektor": "Sektor Keuangan",
            "tanggal_terbit": "2022-07-20",
            "url_tdpse_detail": "https://pse.komdigi.go.id/tdpse-detail/7656",
            "website": "-"
        },
        {
            "id": "9cb1abb8-a9e5-4722-bed9-80def24160d2",
            "nama_pse": "BANK KB BUKOPIN",
            "nama_se": "BCONNECT",
            "sektor": "Sektor Keuangan",
            "tanggal_terbit": "2022-07-20",
            "url_tdpse_detail": "https://pse.komdigi.go.id/tdpse-detail/8080",
            "website": "bconnect.bukopin.co.id"
        },
        {
            "id": "9cb1abea-fc8e-4170-97aa-4c352f7fa981",
            "nama_pse": "BANK PEMBANGUNAN DAERAH JAWA TENGAH",
            "nama_se": "BIMA QR BANK JATENG",
            "sektor": "Sektor Keuangan",
            "tanggal_terbit": "2022-07-20",
            "url_tdpse_detail": "https://pse.komdigi.go.id/tdpse-detail/7884",
            "website": "bimaqris.bankjateng.co.id"
        },
        {
            "id": "9cb1abb8-ac1c-41af-8d15-20b6f9c59b03",
            "nama_pse": "KLINIK KERJA INDONESIA",
            "nama_se": "WEBSITE PT. KLINIK KERJA INDONESIA",
            "sektor": "Sektor Teknologi Informasi dan Komunikasi",
            "tanggal_terbit": "2022-07-20",
            "url_tdpse_detail": "https://pse.komdigi.go.id/tdpse-detail/7657",
            "website": "klinikkerja.id"
        },
        {
            "id": "9cb1abb8-b0c7-430a-8c8a-a03e5e908eec",
            "nama_pse": "PT. BANK PEMBANGUNAN DAERAH JAWA BARAT DAN BANTEN TBK (BANK BJB)",
            "nama_se": "SIBOS BANK BJB",
            "sektor": "Sektor Keuangan",
            "tanggal_terbit": "2022-07-20",
            "url_tdpse_detail": "https://pse.komdigi.go.id/tdpse-detail/7658",
            "website": "sibos.bankbjb.co.id"
        },
        {
            "id": "9cb1abb8-b36b-48f6-9694-174d0e9d5198",
            "nama_pse": "INFOMEDIA NUSANTARA",
            "nama_se": "INFOMEDIA NUSANTARA",
            "sektor": "Sektor Teknologi Informasi dan Komunikasi",
            "tanggal_terbit": "2022-07-20",
            "url_tdpse_detail": "https://pse.komdigi.go.id/tdpse-detail/7846",
            "website": "infomedia.co.id"
        },
        {
            "id": "9cb1abc4-c751-4f88-8898-9f95fb0954b1",
            "nama_pse": "HANWHA LIFE INSURANCE INDONESIA",
            "nama_se": "SUPER HEROES MOBILE APPLICATION (ANDROID \u0026 IOS)",
            "sektor": "Sektor Keuangan",
            "tanggal_terbit": "2022-07-20",
            "url_tdpse_detail": "https://pse.komdigi.go.id/tdpse-detail/7664",
            "website": "-"
        },
        {
            "id": "9cb1abc4-caf3-4d83-af42-1438062e0281",
            "nama_pse": "BANK PERKREDITAN RAKYAT KARPANA TASIA",
            "nama_se": "BPR KARPANA TASIA",
            "sektor": "Sektor Keuangan",
            "tanggal_terbit": "2022-07-20",
            "url_tdpse_detail": "https://pse.komdigi.go.id/tdpse-detail/7659",
            "website": "bprkarpanatasia.co.id"
        },
        {
            "id": "9cb1abc4-d08a-4f7b-b3f3-1d66a9205755",
            "nama_pse": "GRATIS ONGKIR",
            "nama_se": "APLIKASI BELANJA MADRASAH",
            "sektor": "Sektor Perdagangan, Sektor Teknologi Informasi dan Komunikasi",
            "tanggal_terbit": "2022-07-20",
            "url_tdpse_detail": "https://pse.komdigi.go.id/tdpse-detail/7660",
            "website": "absah.id"
        },
        {
            "id": "9cb1abeb-0075-4127-8389-84a118fdecfd",
            "nama_pse": "INVESTO MEDIKA ASIA",
            "nama_se": "MYHEALTH DIARY",
            "sektor": "Sektor Kesehatan",
            "tanggal_terbit": "2022-07-20",
            "url_tdpse_detail": "https://pse.komdigi.go.id/tdpse-detail/7666",
            "website": "medika.ai"
        },
        {
            "id": "9cb1abb8-b5a4-43b4-967e-7c42c9c132a9",
            "nama_pse": "INKA TOTO KRISMONO",
            "nama_se": "JASA IMPIAN - INKA TOTO KRISMONO",
            "sektor": "Sektor Teknologi Informasi dan Komunikasi",
            "tanggal_terbit": "2022-07-20",
            "url_tdpse_detail": "https://pse.komdigi.go.id/tdpse-detail/7669",
            "website": "jasaimpian.com"
        },
        {
            "id": "9cb1abeb-08b2-497a-800c-0605edeea210",
            "nama_pse": "VENTURA PRATAMA SEJATI",
            "nama_se": "VPS (VENTURA PAYMENT SYSTEM)",
            "sektor": "Sektor Perdagangan, Sektor Transportasi",
            "tanggal_terbit": "2022-07-20",
            "url_tdpse_detail": "https://pse.komdigi.go.id/tdpse-detail/7676",
            "website": "venturapratamasejati.com"
        },
        {
            "id": "9cb1abb8-ba33-4699-85ca-46d84d56ae3c",
            "nama_pse": "INDONESIA SATU TUJUH",
            "nama_se": "COMEDS",
            "sektor": "Sektor Teknologi Informasi dan Komunikasi",
            "tanggal_terbit": "2022-07-20",
            "url_tdpse_detail": "https://pse.komdigi.go.id/tdpse-detail/7734",
            "website": "comeds.id"
        },
        {
            "id": "9cb1abc4-d400-43bc-8843-2eddb004a89d",
            "nama_pse": "PANORAMA JTB TOURS INDONESIA",
            "nama_se": "PANORAMA-JTB.COM",
            "sektor": "Sektor Perdagangan",
            "tanggal_terbit": "2022-07-20",
            "url_tdpse_detail": "https://pse.komdigi.go.id/tdpse-detail/7880",
            "website": "panorama-jtb.com"
        },
        {
            "id": "9cb1abc4-d92b-40a3-ac78-0a487dd2bef2",
            "nama_pse": "NEO BAZAR INDONESIA",
            "nama_se": "KAKAOPAGE",
            "sektor": "Sektor Teknologi Informasi dan Komunikasi",
            "tanggal_terbit": "2022-07-20",
            "url_tdpse_detail": "https://pse.komdigi.go.id/tdpse-detail/7843",
            "website": "kakaopage.co.id"
        },
        {
            "id": "9cb1abb8-bc4f-4196-bf6c-101848e70d41",
            "nama_pse": "FESTIVAL DIGITAL NUSANTARA",
            "nama_se": "SUSHIROLL",
            "sektor": "Sektor Teknologi Informasi dan Komunikasi",
            "tanggal_terbit": "2022-07-20",
            "url_tdpse_detail": "https://pse.komdigi.go.id/tdpse-detail/7685",
            "website": "sushiroll.co.id"
        },
        {
            "id": "9cb1abb8-beb1-4f8d-a352-b488c275d96d",
            "nama_pse": "BANK PERKREDITAN RAKYAT BHASKARA PAKTO",
            "nama_se": "PT. BPR BHASKARA PAKTO",
            "sektor": "Sektor Keuangan",
            "tanggal_terbit": "2022-07-20",
            "url_tdpse_detail": "https://pse.komdigi.go.id/tdpse-detail/7668",
            "website": "bprbhaskarapakto.co.id"
        },
        {
            "id": "9cb1abb8-c10f-4e82-be04-5488cad394c8",
            "nama_pse": "BANK PEREKONOMIAN RAKYAT SWADAYA ANUGERAH UTAMA",
            "nama_se": "PT BPR SWADAYA ANUGERAH UTAMA",
            "sektor": "Sektor Keuangan",
            "tanggal_terbit": "2022-07-20",
            "url_tdpse_detail": "https://pse.komdigi.go.id/tdpse-detail/7667",
            "website": "bankswadaya.co.id"
        },
        {
            "id": "9cb1abb8-c53b-4f15-931d-5631fa690274",
            "nama_pse": "BANK PERKREDITAN RAKYAT EKA BUMI ARTHA",
            "nama_se": "SMART EDC BANK EKA",
            "sektor": "Sektor Keuangan",
            "tanggal_terbit": "2022-07-20",
            "url_tdpse_detail": "https://pse.komdigi.go.id/tdpse-detail/7670",
            "website": "-"
        },
        {
            "id": "9cb1abc4-dd6b-4688-8f6f-02a10727d2e8",
            "nama_pse": "BANK PERKREDITAN RAKYAT PASAR UMUM",
            "nama_se": "BANKING SMART SYSTEM (BSS)",
            "sektor": "Sektor Keuangan",
            "tanggal_terbit": "2022-07-20",
            "url_tdpse_detail": "https://pse.komdigi.go.id/tdpse-detail/7671",
            "website": "bankbpu.com"
        },
        {
            "id": "9cb1abb8-c7c4-460e-859c-b099aa93c51c",
            "nama_pse": "BANK PERKREDITAN RAKYAT SWADHANAMAS PAKTO",
            "nama_se": "PT. BPR SWADHANAMAS PAKTO",
            "sektor": "Sektor Keuangan",
            "tanggal_terbit": "2022-07-20",
            "url_tdpse_detail": "https://pse.komdigi.go.id/tdpse-detail/7673",
            "website": "bprswadhanamaspakto.co.id"
        },
        {
            "id": "9cb1abeb-280f-47ea-96d7-d75bfc148dbe",
            "nama_pse": "GDE PUTU ADIBAYUSANTIKA",
            "nama_se": "WASSTW JAYA",
            "sektor": "Sektor Perdagangan",
            "tanggal_terbit": "2022-07-20",
            "url_tdpse_detail": "https://pse.komdigi.go.id/tdpse-detail/7672",
            "website": "wasstwjaya.com"
        },
        {
            "id": "9cb1abc4-e0ff-4bae-9bac-7ef5b6dd6b00",
            "nama_pse": "BEON INTERMEDIA",
            "nama_se": "JAGOAN HOSTING INDONESIA",
            "sektor": "Sektor Teknologi Informasi dan Komunikasi",
            "tanggal_terbit": "2022-07-20",
            "url_tdpse_detail": "https://pse.komdigi.go.id/tdpse-detail/7675",
            "website": "jagoanhosting.com"
        },
        {
            "id": "9cb1abc4-e46d-41b2-9ebd-8edb85f50131",
            "nama_pse": "BANK PERKREDITAN RAKYAT MODERN EXPRESS JATENG",
            "nama_se": "WEB BPR MODERN EXPRESS JATENG",
            "sektor": "Sektor Keuangan",
            "tanggal_terbit": "2022-07-20",
            "url_tdpse_detail": "https://pse.komdigi.go.id/tdpse-detail/7679",
            "website": "bprmodex-jateng.com"
        },
        {
            "id": "9cb1abc4-e898-46e5-adc5-8463aa382bef",
            "nama_pse": "INDONESIA SATU TUJUH",
            "nama_se": "IOT RCS (CONDITIONING MONITORING SYSTEM)",
            "sektor": "Sektor Teknologi Informasi dan Komunikasi",
            "tanggal_terbit": "2022-07-20",
            "url_tdpse_detail": "https://pse.komdigi.go.id/tdpse-detail/7730",
            "website": "-"
        },
        {
            "id": "9cb1abb8-cc64-404a-96a9-a4543b46d52d",
            "nama_pse": "BANK BTPN SYARIAH",
            "nama_se": "APLIKASI AGENT BTPN SYARIAH",
            "sektor": "Sektor Keuangan",
            "tanggal_terbit": "2022-07-20",
            "url_tdpse_detail": "https://pse.komdigi.go.id/tdpse-detail/7677",
            "website": "-"
        },
        {
            "id": "9cb1abc4-ebfe-48af-90b8-27c61a473843",
            "nama_pse": "APLIKASI TEPAT GUNA",
            "nama_se": "PH INSTAN",
            "sektor": "Sektor Teknologi Informasi dan Komunikasi",
            "tanggal_terbit": "2022-07-20",
            "url_tdpse_detail": "https://pse.komdigi.go.id/tdpse-detail/7678",
            "website": "carirute.prahu-hub.com"
        },
        {
            "id": "9cb1abc4-ef16-453f-8407-411ef0f7a7cf",
            "nama_pse": "MITRANET SOFTWARE ONLINE",
            "nama_se": "PPOB MOBILE",
            "sektor": "Sektor Teknologi Informasi dan Komunikasi",
            "tanggal_terbit": "2022-07-20",
            "url_tdpse_detail": "https://pse.komdigi.go.id/tdpse-detail/7697",
            "website": "-"
        },
        {
            "id": "9cb1abb8-cedf-431f-ae2f-453945517867",
            "nama_pse": "BANK KB BUKOPIN",
            "nama_se": "VICA",
            "sektor": "Sektor Keuangan",
            "tanggal_terbit": "2022-07-20",
            "url_tdpse_detail": "https://pse.komdigi.go.id/tdpse-detail/8082",
            "website": "vica.bukopin.co.id"
        },
        {
            "id": "9cb1abc4-f266-4bdf-8370-7bd99520ff5e",
            "nama_pse": "CAHAYA WARGA NUSANTARA",
            "nama_se": "GTERA.ID",
            "sektor": "Sektor Perdagangan, Sektor Teknologi Informasi dan Komunikasi",
            "tanggal_terbit": "2022-07-20",
            "url_tdpse_detail": "https://pse.komdigi.go.id/tdpse-detail/7818",
            "website": "gtera.id"
        },
        {
            "id": "9cb1abeb-2c37-4fc5-8e55-495371c32bdf",
            "nama_pse": "BANK PERKREDITAN RAKYAT MITRA MULIA PERSADA",
            "nama_se": "WWW.BPRMITRAMULIAPERSADA.COM",
            "sektor": "Sektor Keuangan",
            "tanggal_terbit": "2022-07-20",
            "url_tdpse_detail": "https://pse.komdigi.go.id/tdpse-detail/7682",
            "website": "bprmitramuliapersada.com"
        },
        {
            "id": "9cb1abb8-d10e-44b4-b23a-c30c7b47da88",
            "nama_pse": "GORRY BUGAR ABADI",
            "nama_se": "GORRYWELL",
            "sektor": "Sektor Perdagangan, Sektor Kesehatan",
            "tanggal_terbit": "2022-07-20",
            "url_tdpse_detail": "https://pse.komdigi.go.id/tdpse-detail/7684",
            "website": "gorrywell.com"
        },
        {
            "id": "9cb1abeb-2fcd-4883-a288-a3c1c06e75a0",
            "nama_pse": "BINA MEDIA TENGGARA",
            "nama_se": "WEBSITE THE JAKARTA POST",
            "sektor": "Sektor Teknologi Informasi dan Komunikasi",
            "tanggal_terbit": "2022-07-20",
            "url_tdpse_detail": "https://pse.komdigi.go.id/tdpse-detail/7681",
            "website": "thejakartapost.com"
        },
        {
            "id": "9cb1abb8-d2f4-46ff-bfbd-ee82af2f8b3a",
            "nama_pse": "MITRANET SOFTWARE ONLINE",
            "nama_se": "APTIKNAS MALL",
            "sektor": "Sektor Teknologi Informasi dan Komunikasi",
            "tanggal_terbit": "2022-07-20",
            "url_tdpse_detail": "https://pse.komdigi.go.id/tdpse-detail/7694",
            "website": "malltik.com"
        },
        {
            "id": "9cb1abc4-f5f1-4b7f-8c6e-0c544d8142df",
            "nama_pse": "BANK PERKREDITAN RAKYAT HISOBHAN",
            "nama_se": "KREDIT HISOBHAN",
            "sektor": "Sektor Keuangan",
            "tanggal_terbit": "2022-07-20",
            "url_tdpse_detail": "https://pse.komdigi.go.id/tdpse-detail/7683",
            "website": "-"
        },
        {
            "id": "9cb1abc4-fa0d-4810-a8fa-db101c455a0f",
            "nama_pse": "APPSENSI TIGA RIBU",
            "nama_se": "APPSENSI",
            "sektor": "Sektor Perdagangan, Sektor Teknologi Informasi dan Komunikasi",
            "tanggal_terbit": "2022-07-20",
            "url_tdpse_detail": "https://pse.komdigi.go.id/tdpse-detail/7696",
            "website": "appsensi.com"
        },
        {
            "id": "9cb1abc4-fda0-4686-9f29-bb4367d87e5e",
            "nama_pse": "BANK PEREKONOMIAN RAKYAT INTI AMBARAWA SEJAHTERA",
            "nama_se": "PT BPR INTI AMBARAWA SEJAHTERA",
            "sektor": "Sektor Keuangan",
            "tanggal_terbit": "2022-07-20",
            "url_tdpse_detail": "https://pse.komdigi.go.id/tdpse-detail/7686",
            "website": "-"
        },
        {
            "id": "9cb1abc5-041f-47ac-9ae0-c3c8091e9140",
            "nama_pse": "BANK PERKREDITAN RAKYAT SIRAYA KARYA BAKTI",
            "nama_se": "WEBSITE BPR SIRAYA KARYA BAKTI",
            "sektor": "Sektor Keuangan",
            "tanggal_terbit": "2022-07-20",
            "url_tdpse_detail": "https://pse.komdigi.go.id/tdpse-detail/7687",
            "website": "bprsirayakaryabakti.com"
        },
        {
            "id": "9cb1abeb-3340-4d59-99a5-d9ef98cb284c",
            "nama_pse": "BANK PEREKONOMIAN RAKYAT SYARIAH TENGKU CHIEK DIPANTE",
            "nama_se": "ISLAMIC BANKING APPLICATION",
            "sektor": "Sektor Keuangan",
            "tanggal_terbit": "2022-07-20",
            "url_tdpse_detail": "https://pse.komdigi.go.id/tdpse-detail/7691",
            "website": "banktcdsyariah.co.id"
        },
        {
            "id": "9cb1abc5-06cf-4fbd-8c89-2328831c7655",
            "nama_pse": "BANK PEREKONOMIAN RAKYAT CEMARA ARTHA PRATAMA",
            "nama_se": "BPR TRISURYA MARGA ARTHA",
            "sektor": "Sektor Keuangan",
            "tanggal_terbit": "2022-07-20",
            "url_tdpse_detail": "https://pse.komdigi.go.id/tdpse-detail/7690",
            "website": "bprtma.id"
        },
        {
            "id": "9cb1abc5-15bc-4b98-8a76-31fb3f93687a",
            "nama_pse": "BANK PERKREDITAN RAKYAT DANAYASA",
            "nama_se": "SISTEM INFORMASI PERBANKAN TERPADU",
            "sektor": "Sektor Keuangan",
            "tanggal_terbit": "2022-07-20",
            "url_tdpse_detail": "https://pse.komdigi.go.id/tdpse-detail/7689",
            "website": "-"
        },
        {
            "id": "9cb1abb8-d53c-4cdb-8771-af39d0bba217",
            "nama_pse": "-",
            "nama_se": "LOVIT",
            "sektor": "Sektor Kesehatan",
            "tanggal_terbit": "2022-07-20",
            "url_tdpse_detail": "https://pse.komdigi.go.id/tdpse-detail/7688",
            "website": "-"
        }
    ],
    "processingTimeMs": 4,
    "query": "",
    "totalHits": 19131,
    "hitsPerPage": 50,
    "page": 240,
    "totalPages": 383
}