{
    "hits": [
        {
            "id": "9cb1ab8e-999a-4414-871e-de13bfabc60e",
            "nama_pse": "SARI PIZZA INDONESIA",
            "nama_se": "PIZZAMARZANO.CO.ID",
            "sektor": "Sektor Perdagangan, Sektor Perdagangan",
            "tanggal_terbit": "2022-03-08",
            "url_tdpse_detail": "https://pse.komdigi.go.id/tdpse-detail/3468",
            "website": "pizzamarzano.co.id"
        },
        {
            "id": "9cb1ab8e-a044-4615-b404-a36d8ee7b564",
            "nama_pse": "HATATA ECOMMERCE TECHNOLOGY",
            "nama_se": "HATATA",
            "sektor": "Sektor Perdagangan, Sektor Perdagangan",
            "tanggal_terbit": "2022-03-08",
            "url_tdpse_detail": "https://pse.komdigi.go.id/tdpse-detail/3470",
            "website": "sailors.id"
        },
        {
            "id": "9cb1ab90-05ba-430a-82f1-4276f53d3e17",
            "nama_pse": "KOLAM DATA INDONESIA",
            "nama_se": "DATAPOOL",
            "sektor": "Sektor Teknologi Informasi dan Komunikasi, Sektor Teknologi Informasi dan Komunikasi",
            "tanggal_terbit": "2022-03-08",
            "url_tdpse_detail": "https://pse.komdigi.go.id/tdpse-detail/3458",
            "website": "datapool.ai"
        },
        {
            "id": "9cb1ab90-0bab-4b3f-958c-5bd9bc5b91f2",
            "nama_pse": "HYUNDAI MOTORS INDONESIA",
            "nama_se": "HYUNDAI SERVICE POINT SYSTEM REGISTRATION",
            "sektor": "Sektor Teknologi Informasi dan Komunikasi, Sektor Teknologi Informasi dan Komunikasi",
            "tanggal_terbit": "2022-03-08",
            "url_tdpse_detail": "https://pse.komdigi.go.id/tdpse-detail/3464",
            "website": "hyundai-bs.com"
        },
        {
            "id": "9cb1ab9e-51ad-47b8-b907-8f01093f013c",
            "nama_pse": "TREEDOTS GROUP INDONESIA",
            "nama_se": "TREEDOTS PLATFORM SUITE",
            "sektor": "Sektor Perdagangan, Sektor Perdagangan, Sektor Perdagangan, Sektor Perdagangan, Sektor Transportasi, Sektor Transportasi, Sektor Transportasi, Sektor Transportasi, Sektor Teknologi Informasi dan Komunikasi, Sektor Teknologi Informasi dan Komunikasi, Sektor Teknologi Informasi dan Komunikasi, Sektor Teknologi Informasi dan Komunikasi, Sektor Pangan, Sektor Pangan, Sektor Pangan, Sektor Pangan",
            "tanggal_terbit": "2022-03-08",
            "url_tdpse_detail": "https://pse.komdigi.go.id/tdpse-detail/3466",
            "website": "thetreedots.com"
        },
        {
            "id": "9cb1ab9e-53ea-4e63-b349-83b22d457def",
            "nama_pse": "DROOM TECHNOLOGY INDONESIA",
            "nama_se": "DROOM",
            "sektor": "Sektor Perdagangan, Sektor Perdagangan",
            "tanggal_terbit": "2022-03-08",
            "url_tdpse_detail": "https://pse.komdigi.go.id/tdpse-detail/3467",
            "website": "-"
        },
        {
            "id": "9cb1ab86-8eb7-4fe8-b182-23ae9f7661ab",
            "nama_pse": "ARSATYA JAYA MEDIKA",
            "nama_se": "KAMIRAWAT",
            "sektor": "Sektor Kesehatan, Sektor Kesehatan, Sektor Teknologi Informasi dan Komunikasi, Sektor Teknologi Informasi dan Komunikasi",
            "tanggal_terbit": "2022-03-07",
            "url_tdpse_detail": "https://pse.komdigi.go.id/tdpse-detail/3440",
            "website": "kamirawat.com"
        },
        {
            "id": "9cb1ab8e-1901-4854-b267-bbcde7013419",
            "nama_pse": "ZEST HOTELS INDONESIA",
            "nama_se": "WEBSITE ONLINE BOOKING",
            "sektor": "Sektor Perdagangan, Sektor Perdagangan",
            "tanggal_terbit": "2022-03-07",
            "url_tdpse_detail": "https://pse.komdigi.go.id/tdpse-detail/3441",
            "website": "swiss-belhotel.com"
        },
        {
            "id": "9cb1ab86-92c3-455c-bbfb-cdf56e7172dd",
            "nama_pse": "ARTHA PERSADA KREATIF",
            "nama_se": "SATURDAYS LIFESTYLE",
            "sektor": "Sektor Perdagangan, Sektor Perdagangan",
            "tanggal_terbit": "2022-03-07",
            "url_tdpse_detail": "https://pse.komdigi.go.id/tdpse-detail/3451",
            "website": "-"
        },
        {
            "id": "9cb1ab8e-6187-4bf1-a2ee-ed7e42e2892f",
            "nama_pse": "DIGITAL TANDATANGAN ASLI",
            "nama_se": "TANDA TANGAN DIGITAL",
            "sektor": "Sektor Teknologi Informasi dan Komunikasi, Sektor Teknologi Informasi dan Komunikasi",
            "tanggal_terbit": "2022-03-07",
            "url_tdpse_detail": "https://pse.komdigi.go.id/tdpse-detail/3449",
            "website": "xignature.co.id"
        },
        {
            "id": "9cb1ab86-f719-4fa4-b94e-c92964ef7865",
            "nama_pse": "LALAMOVE LOGISTIK INDONESIA",
            "nama_se": "LALAMOVE",
            "sektor": "Sektor Transportasi, Sektor Transportasi, Sektor Teknologi Informasi dan Komunikasi, Sektor Teknologi Informasi dan Komunikasi",
            "tanggal_terbit": "2022-03-07",
            "url_tdpse_detail": "https://pse.komdigi.go.id/tdpse-detail/3445",
            "website": "lalamove.com"
        },
        {
            "id": "9cb1ab7e-a755-43de-bf51-5e14018e57fd",
            "nama_pse": "IMAJI GLOBAL MEDIA",
            "nama_se": "IGLO",
            "sektor": "Sektor Teknologi Informasi dan Komunikasi, Sektor Teknologi Informasi dan Komunikasi",
            "tanggal_terbit": "2022-03-07",
            "url_tdpse_detail": "https://pse.komdigi.go.id/tdpse-detail/3447",
            "website": "iglo.co.id"
        },
        {
            "id": "9cb1ab7e-a914-47a8-b980-a156f5edcf8c",
            "nama_pse": "IMAJI GLOBAL MEDIA",
            "nama_se": "IGLO.CO.ID",
            "sektor": "Sektor Teknologi Informasi dan Komunikasi, Sektor Teknologi Informasi dan Komunikasi",
            "tanggal_terbit": "2022-03-07",
            "url_tdpse_detail": "https://pse.komdigi.go.id/tdpse-detail/3448",
            "website": "iglo.co.id"
        },
        {
            "id": "9cb1ab87-013e-4589-8906-ff692a611679",
            "nama_pse": "SWISS-BELHOTEL INTERNATIONAL INDONESIA",
            "nama_se": "WEBSITE ONLINE BOOKING",
            "sektor": "Sektor Perdagangan",
            "tanggal_terbit": "2022-03-07",
            "url_tdpse_detail": "https://pse.komdigi.go.id/tdpse-detail/3446",
            "website": "swiss-belhotel.com"
        },
        {
            "id": "9cb1ab90-cd10-4058-a3eb-849b236f3597",
            "nama_pse": "PERUSAHAAN PERSEROAN (PERSERO) PT. BANK TABUNGAN NEGARA",
            "nama_se": "APLIKASI E-PROCUREMENT",
            "sektor": "Sektor Keuangan, Sektor Keuangan, Sektor Keuangan",
            "tanggal_terbit": "2022-03-07",
            "url_tdpse_detail": "https://pse.komdigi.go.id/tdpse-detail/3442",
            "website": "eproc.btn.co.id/webextranet/login.aspx"
        },
        {
            "id": "9cb1ab90-0950-4d9f-a2c3-d72795777ae9",
            "nama_pse": "PERUSAHAAN PERSEROAN (PERSERO) PT. BANK TABUNGAN NEGARA",
            "nama_se": "APLIKASI E-WR (ELEKTRONIK WORKNING REQUEST)",
            "sektor": "Sektor Keuangan, Sektor Keuangan, Sektor Keuangan",
            "tanggal_terbit": "2022-03-07",
            "url_tdpse_detail": "https://pse.komdigi.go.id/tdpse-detail/3443",
            "website": "ewr.btn.co.id"
        },
        {
            "id": "9cb1ab9e-4de2-4b6c-8b9a-9a46ad038318",
            "nama_pse": "IRFAN SOPIYAN",
            "nama_se": "MOTOSANS",
            "sektor": "Sektor Teknologi Informasi dan Komunikasi, Sektor Teknologi Informasi dan Komunikasi",
            "tanggal_terbit": "2022-03-07",
            "url_tdpse_detail": "https://pse.komdigi.go.id/tdpse-detail/3450",
            "website": "-"
        },
        {
            "id": "9cb1ab86-ecbe-4e11-9a4a-7b6f53e95fa9",
            "nama_pse": "DANA SYARIAH INDONESIA",
            "nama_se": "DANASYARIAH.ID",
            "sektor": "Sektor Keuangan, Sektor Keuangan",
            "tanggal_terbit": "2022-03-07",
            "url_tdpse_detail": "https://pse.komdigi.go.id/tdpse-detail/3444",
            "website": "danasyariah.id"
        },
        {
            "id": "9cb1ab7e-8b30-4b1d-91f1-37bcdcb9d89e",
            "nama_pse": "JUAL BARENG INDONESIA",
            "nama_se": "JUALBARENG",
            "sektor": "Sektor Perdagangan, Sektor Perdagangan",
            "tanggal_terbit": "2022-03-06",
            "url_tdpse_detail": "https://pse.komdigi.go.id/tdpse-detail/3439",
            "website": "jualbareng.com"
        },
        {
            "id": "9cb1ab7e-a297-4895-bcce-6c44b80f0a83",
            "nama_pse": "TEKNOWEB DIGITAL INDONESIA",
            "nama_se": "AKTIVITAS TEKNOLOGI INFORMASI DAN JASA KOMPUTER LAINNYA",
            "sektor": "Sektor Teknologi Informasi dan Komunikasi, Sektor Teknologi Informasi dan Komunikasi",
            "tanggal_terbit": "2022-03-06",
            "url_tdpse_detail": "https://pse.komdigi.go.id/tdpse-detail/3436",
            "website": "teknoweb.id"
        },
        {
            "id": "9cb1ab8e-67d4-4249-86c9-f7f8d52e13eb",
            "nama_pse": "ATOURIN TEKNOLOGI NUSANTARA",
            "nama_se": "ATOURIN",
            "sektor": "Sektor Teknologi Informasi dan Komunikasi, Sektor Teknologi Informasi dan Komunikasi",
            "tanggal_terbit": "2022-03-06",
            "url_tdpse_detail": "https://pse.komdigi.go.id/tdpse-detail/3437",
            "website": "atourin.com"
        },
        {
            "id": "9cb1ab7e-a4cd-425f-a4a5-e239ce077024",
            "nama_pse": "ATOURIN TEKNOLOGI NUSANTARA",
            "nama_se": "ATOURIN PORTAL",
            "sektor": "Sektor Teknologi Informasi dan Komunikasi, Sektor Teknologi Informasi dan Komunikasi",
            "tanggal_terbit": "2022-03-06",
            "url_tdpse_detail": "https://pse.komdigi.go.id/tdpse-detail/3438",
            "website": "atourin.com"
        },
        {
            "id": "9cb1ab86-90d5-4f6e-ad62-5c33f9ee7b5c",
            "nama_pse": "IMRON HADI GROUP",
            "nama_se": "IHG TECH",
            "sektor": "Sektor Teknologi Informasi dan Komunikasi, Sektor Teknologi Informasi dan Komunikasi",
            "tanggal_terbit": "2022-03-05",
            "url_tdpse_detail": "https://pse.komdigi.go.id/tdpse-detail/3434",
            "website": "Imronhadigroup.com"
        },
        {
            "id": "9cb1ab7e-90ba-4968-b4db-78d730491003",
            "nama_pse": "SISTEM ELEKTRONIKA ASIA",
            "nama_se": "SEEDER INDONESIA",
            "sektor": "Sektor Teknologi Informasi dan Komunikasi, Sektor Teknologi Informasi dan Komunikasi",
            "tanggal_terbit": "2022-03-05",
            "url_tdpse_detail": "https://pse.komdigi.go.id/tdpse-detail/3433",
            "website": "seederindonesia.com"
        },
        {
            "id": "9cb1ab86-f1d9-4ef5-b4d6-5f148ae5bf4c",
            "nama_pse": "UNA DARMA INDONESIA",
            "nama_se": "UNA INDONESIA",
            "sektor": "Sektor Teknologi Informasi dan Komunikasi, Sektor Teknologi Informasi dan Komunikasi",
            "tanggal_terbit": "2022-03-05",
            "url_tdpse_detail": "https://pse.komdigi.go.id/tdpse-detail/3435",
            "website": "una-community.com"
        },
        {
            "id": "9cb1ab7e-6e41-4c68-8d2f-261e829f6b27",
            "nama_pse": "SOKHI RANYA TEKNOLOGI",
            "nama_se": "RANYA TECH PORTAL",
            "sektor": "Sektor Teknologi Informasi dan Komunikasi, Sektor Teknologi Informasi dan Komunikasi",
            "tanggal_terbit": "2022-03-04",
            "url_tdpse_detail": "https://pse.komdigi.go.id/tdpse-detail/3423",
            "website": "Ranyatech.com"
        },
        {
            "id": "9cb1ab7e-715e-4238-9615-b38d636cfd1d",
            "nama_pse": "KOLAM DATA INDONESIA",
            "nama_se": "DIGIDATA",
            "sektor": "Sektor Teknologi Informasi dan Komunikasi, Sektor Teknologi Informasi dan Komunikasi, Sektor Teknologi Informasi dan Komunikasi",
            "tanggal_terbit": "2022-03-04",
            "url_tdpse_detail": "https://pse.komdigi.go.id/tdpse-detail/3424",
            "website": "digidata.ai"
        },
        {
            "id": "9cb1ab7e-75bb-4ecb-bb13-707af4d0eed9",
            "nama_pse": "NEOPOWER TEKNOLOGI INDONESIA",
            "nama_se": "SODDIGO",
            "sektor": "Sektor Perdagangan, Sektor Perdagangan, Sektor Teknologi Informasi dan Komunikasi, Sektor Teknologi Informasi dan Komunikasi",
            "tanggal_terbit": "2022-03-04",
            "url_tdpse_detail": "https://pse.komdigi.go.id/tdpse-detail/3425",
            "website": "pwa.soddigo.com/#/"
        },
        {
            "id": "9cb1ab7e-786b-4c51-bdbf-fd47601f66ef",
            "nama_pse": "IRFAN SOPIYAN",
            "nama_se": "FASTDOTNET",
            "sektor": "Sektor Teknologi Informasi dan Komunikasi, Sektor Teknologi Informasi dan Komunikasi, Sektor Teknologi Informasi dan Komunikasi",
            "tanggal_terbit": "2022-03-04",
            "url_tdpse_detail": "https://pse.komdigi.go.id/tdpse-detail/3427",
            "website": "home.cloudit.my.id"
        },
        {
            "id": "9cb1ab86-8759-4b2e-b080-6d45be071a13",
            "nama_pse": "IRFAN SOPIYAN",
            "nama_se": "FAST.NET",
            "sektor": "Sektor Perdagangan, Sektor Perdagangan, Sektor Perdagangan, Sektor Teknologi Informasi dan Komunikasi, Sektor Teknologi Informasi dan Komunikasi, Sektor Teknologi Informasi dan Komunikasi",
            "tanggal_terbit": "2022-03-04",
            "url_tdpse_detail": "https://pse.komdigi.go.id/tdpse-detail/3428",
            "website": "blibli.com"
        },
        {
            "id": "9cb1ab8e-34e0-4057-a541-133da2c08d00",
            "nama_pse": "SOLUSI TEKNIK INDUSTRI",
            "nama_se": "BELANJAPARTS",
            "sektor": "Sektor Transportasi, Sektor Transportasi",
            "tanggal_terbit": "2022-03-04",
            "url_tdpse_detail": "https://pse.komdigi.go.id/tdpse-detail/3432",
            "website": "belanjaparts.com"
        },
        {
            "id": "9cb1ab8e-647c-4304-82da-6c6e647e9bb7",
            "nama_pse": "SOLUBIS SUKSES GEMILANG",
            "nama_se": "SOLUBIS",
            "sektor": "Sektor Perdagangan, Sektor Perdagangan, Sektor Teknologi Informasi dan Komunikasi, Sektor Teknologi Informasi dan Komunikasi",
            "tanggal_terbit": "2022-03-04",
            "url_tdpse_detail": "https://pse.komdigi.go.id/tdpse-detail/3430",
            "website": "solubis.com"
        },
        {
            "id": "9cb1ab7e-9e7b-4af7-98ef-31d2e2ef3f96",
            "nama_pse": "NEWTON CIPTA INFORMATIKA",
            "nama_se": "NEWTON HOSTER",
            "sektor": "Sektor Teknologi Informasi dan Komunikasi, Sektor Teknologi Informasi dan Komunikasi",
            "tanggal_terbit": "2022-03-04",
            "url_tdpse_detail": "https://pse.komdigi.go.id/tdpse-detail/3431",
            "website": "member.newtonindonesia.co.id"
        },
        {
            "id": "9cb1ab90-c64c-4636-95ae-037b907f0156",
            "nama_pse": "PINTAR VENTURA PERTAMA",
            "nama_se": "KLIKOO",
            "sektor": "Sektor Perdagangan, Sektor Perdagangan",
            "tanggal_terbit": "2022-03-04",
            "url_tdpse_detail": "https://pse.komdigi.go.id/tdpse-detail/3429",
            "website": "klikoo.co.id"
        },
        {
            "id": "9cb1ab7e-3a55-452e-8fde-15c2dbd60a08",
            "nama_pse": "TRI USAHA BERKAT",
            "nama_se": "LINKQU!",
            "sektor": "Sektor Keuangan, Sektor Keuangan",
            "tanggal_terbit": "2022-03-03",
            "url_tdpse_detail": "https://pse.komdigi.go.id/tdpse-detail/3421",
            "website": "linkqu.id"
        },
        {
            "id": "9cb1ab7e-463b-4edc-be65-e98ede0453e1",
            "nama_pse": "ZAYDAN TEKNOLOGI INDONESIA",
            "nama_se": "ZAYDAN TECH",
            "sektor": "Sektor Teknologi Informasi dan Komunikasi, Sektor Teknologi Informasi dan Komunikasi",
            "tanggal_terbit": "2022-03-03",
            "url_tdpse_detail": "https://pse.komdigi.go.id/tdpse-detail/3420",
            "website": "-"
        },
        {
            "id": "9cb1ab8e-0ced-48f2-9cf7-3e55ce4abfc0",
            "nama_pse": "BERDIKARI PRIMA MANDIRI",
            "nama_se": "NUSAMART",
            "sektor": "Sektor Perdagangan, Sektor Perdagangan, Sektor Teknologi Informasi dan Komunikasi, Sektor Teknologi Informasi dan Komunikasi",
            "tanggal_terbit": "2022-03-03",
            "url_tdpse_detail": "https://pse.komdigi.go.id/tdpse-detail/3422",
            "website": "nusantaramarketplace.id"
        },
        {
            "id": "9cb1ab82-d60b-4e06-95e1-49db72916875",
            "nama_pse": "CAKRA SINAR GEMILANG",
            "nama_se": "CAKRA.COM",
            "sektor": "Sektor Perdagangan, Sektor Perdagangan, Sektor Perdagangan, Sektor Perdagangan, Sektor Teknologi Informasi dan Komunikasi, Sektor Teknologi Informasi dan Komunikasi, Sektor Teknologi Informasi dan Komunikasi, Sektor Teknologi Informasi dan Komunikasi",
            "tanggal_terbit": "2022-03-02",
            "url_tdpse_detail": "https://pse.komdigi.go.id/tdpse-detail/3413",
            "website": "biskori.com"
        },
        {
            "id": "9cb1ab7b-7e05-49f0-97ca-1aa23b582eb5",
            "nama_pse": "TEKNOLOGI BERTEMAN INDONESIA",
            "nama_se": "GFONLINE",
            "sektor": "Sektor Teknologi Informasi dan Komunikasi, Sektor Teknologi Informasi dan Komunikasi",
            "tanggal_terbit": "2022-03-02",
            "url_tdpse_detail": "https://pse.komdigi.go.id/tdpse-detail/3412",
            "website": "gfonline.id"
        },
        {
            "id": "9cb1ab8a-fd7c-4d39-bf5e-622b1fb647e6",
            "nama_pse": "MAP ZONA ADIPERKASA",
            "nama_se": "DIGIMAP.CO.ID",
            "sektor": "Sektor Perdagangan, Sektor Perdagangan",
            "tanggal_terbit": "2022-03-02",
            "url_tdpse_detail": "https://pse.komdigi.go.id/tdpse-detail/3414",
            "website": "digimap.co.id"
        },
        {
            "id": "9cb1ab83-b291-449d-a8c5-79c825d57c35",
            "nama_pse": "PAYQUEST NETWORK INDONESIA",
            "nama_se": "PAYQUEST NETWORK INDONESIA",
            "sektor": "Sektor Keuangan, Sektor Keuangan",
            "tanggal_terbit": "2022-03-02",
            "url_tdpse_detail": "https://pse.komdigi.go.id/tdpse-detail/3419",
            "website": "payquest.com"
        },
        {
            "id": "9cb1ab8d-eac3-4e79-b3b2-ca9e6fecf409",
            "nama_pse": "BIOGENOM TEKNOSAINS INDONESIA",
            "nama_se": "GEENOMS",
            "sektor": "Sektor Kesehatan, Sektor Kesehatan",
            "tanggal_terbit": "2022-03-02",
            "url_tdpse_detail": "https://pse.komdigi.go.id/tdpse-detail/3417",
            "website": "geenoms.id"
        },
        {
            "id": "9cb1ab7e-432e-4cef-9a2f-d6348b67c17d",
            "nama_pse": "MEGA RIANA",
            "nama_se": "MEGA_RIANA",
            "sektor": "Sektor Perdagangan, Sektor Perdagangan, Sektor Keuangan, Sektor Keuangan, Sektor Kesehatan, Sektor Kesehatan, Sektor Pangan, Sektor Pangan",
            "tanggal_terbit": "2022-03-02",
            "url_tdpse_detail": "https://pse.komdigi.go.id/tdpse-detail/3416",
            "website": "-"
        },
        {
            "id": "9cb1ab8d-ede0-4899-bd67-12af7ff607e5",
            "nama_pse": "MASJED INDONESIA DIGITAL",
            "nama_se": "USAHA SERAMBI",
            "sektor": "Sektor Teknologi Informasi dan Komunikasi, Sektor Teknologi Informasi dan Komunikasi",
            "tanggal_terbit": "2022-03-02",
            "url_tdpse_detail": "https://pse.komdigi.go.id/tdpse-detail/3415",
            "website": "admin.masjed.id"
        },
        {
            "id": "9cb1ab8e-118b-4be8-95f1-1c63c30f0ceb",
            "nama_pse": "GLOSYA INTI PERMATA",
            "nama_se": "GLOSYA",
            "sektor": "Sektor Perdagangan, Sektor Perdagangan",
            "tanggal_terbit": "2022-03-02",
            "url_tdpse_detail": "https://pse.komdigi.go.id/tdpse-detail/3418",
            "website": "glosya.co.id"
        },
        {
            "id": "9cb1ab82-c0b3-4a0e-a78e-8e217a3e4bda",
            "nama_pse": "LOTTE MART INDONESIA",
            "nama_se": "LOTTEMART MALL",
            "sektor": "Sektor Perdagangan, Sektor Perdagangan",
            "tanggal_terbit": "2022-03-01",
            "url_tdpse_detail": "https://pse.komdigi.go.id/tdpse-detail/3407",
            "website": "-"
        },
        {
            "id": "9cb1ab82-ea66-4876-a5d7-cf63f992b73c",
            "nama_pse": "HARUN H. EKSAN",
            "nama_se": "OSS",
            "sektor": "Sektor Pangan, Sektor Pangan",
            "tanggal_terbit": "2022-03-01",
            "url_tdpse_detail": "https://pse.komdigi.go.id/tdpse-detail/3410",
            "website": "http://oss.go.id/oss/."
        },
        {
            "id": "9cb1ab7b-34ce-439d-a836-0ddc93daac53",
            "nama_pse": "SIKLUS REFIL INDONESIA",
            "nama_se": "SIKLUS",
            "sektor": "Sektor Perdagangan, Sektor Perdagangan",
            "tanggal_terbit": "2022-03-01",
            "url_tdpse_detail": "https://pse.komdigi.go.id/tdpse-detail/3404",
            "website": "siklus.com"
        },
        {
            "id": "9cb1ab8a-ecf7-4055-ba2a-d50c1d6ee180",
            "nama_pse": "LUXEHOUZE GROUP INDONESIA",
            "nama_se": "LUXEHOUZE",
            "sektor": "Sektor Perdagangan, Sektor Perdagangan, Sektor Perdagangan, Sektor Teknologi Informasi dan Komunikasi, Sektor Teknologi Informasi dan Komunikasi, Sektor Teknologi Informasi dan Komunikasi",
            "tanggal_terbit": "2022-03-01",
            "url_tdpse_detail": "https://pse.komdigi.go.id/tdpse-detail/3409",
            "website": "luxehouze.com"
        },
        {
            "id": "9cb1ab83-34b7-40f7-ba3a-edfb0f6c24a4",
            "nama_pse": "CRAZZIE SMARTT INDONESIA",
            "nama_se": "DOCTOR MIGRANT",
            "sektor": "Sektor Perdagangan, Sektor Perdagangan, Sektor Kesehatan, Sektor Kesehatan",
            "tanggal_terbit": "2022-03-01",
            "url_tdpse_detail": "https://pse.komdigi.go.id/tdpse-detail/3403",
            "website": "doctormigrant.id"
        }
    ],
    "processingTimeMs": 6,
    "query": "",
    "totalHits": 19131,
    "hitsPerPage": 50,
    "page": 318,
    "totalPages": 383
}