{
    "hits": [
        {
            "id": "9cb1abe2-7fbc-4c63-9025-967e796582cf",
            "nama_pse": "UPBIT EXCHANGE INDONESIA",
            "nama_se": "PLATFORM PERDAGANGAN ASET KRIPTO PT UPBIT EXCHANGE INDONESIA",
            "sektor": "Sektor Perdagangan",
            "tanggal_terbit": "2022-11-15",
            "url_tdpse_detail": "https://pse.komdigi.go.id/tdpse-detail/12287",
            "website": "upbit.com"
        },
        {
            "id": "9cb1ac15-793b-49bd-8f01-438516ab1dba",
            "nama_pse": "MULIA BERKAT SENTOSA",
            "nama_se": "MBS-INDONESIA.ID",
            "sektor": "Sektor Perdagangan",
            "tanggal_terbit": "2022-11-15",
            "url_tdpse_detail": "https://pse.komdigi.go.id/tdpse-detail/12292",
            "website": "mbs-indonesia.id"
        },
        {
            "id": "9cb1ac15-7ca3-4aac-a8ec-a878faa59891",
            "nama_pse": "BIC PONSEL PERKASA",
            "nama_se": "DISPENSER PERTAMINI",
            "sektor": "Sektor Energi dan Sumber Daya Mineral",
            "tanggal_terbit": "2022-11-15",
            "url_tdpse_detail": "https://pse.komdigi.go.id/tdpse-detail/12295",
            "website": "-"
        },
        {
            "id": "9cb1ac07-198a-46ca-836b-b495a4838571",
            "nama_pse": "IDEXPRESS LOGISTIK INDONESIA",
            "nama_se": "IDEXPRESS LOGISTIK INDONESIA",
            "sektor": "Sektor Perdagangan",
            "tanggal_terbit": "2022-11-15",
            "url_tdpse_detail": "https://pse.komdigi.go.id/tdpse-detail/12296",
            "website": "idexpress.com"
        },
        {
            "id": "9cb1abe2-845d-4462-b249-18bd8b2cbf63",
            "nama_pse": "MULAI WEB INDONESIA",
            "nama_se": "RSSWEB.ID",
            "sektor": "Sektor Teknologi Informasi dan Komunikasi",
            "tanggal_terbit": "2022-11-15",
            "url_tdpse_detail": "https://pse.komdigi.go.id/tdpse-detail/12297",
            "website": "rssweb.id"
        },
        {
            "id": "9cb1abe2-8aca-4d0f-b6ad-f1baeb0a57f7",
            "nama_pse": "BOOURAC INTERNASIONAL INDONESIA",
            "nama_se": "WWW.BOOURAC.COM",
            "sektor": "Sektor Perdagangan",
            "tanggal_terbit": "2022-11-15",
            "url_tdpse_detail": "https://pse.komdigi.go.id/tdpse-detail/12298",
            "website": "boourac.com"
        },
        {
            "id": "9cb1ac07-2117-4e69-9693-e1142826ba12",
            "nama_pse": "ARAH SENTRAL SOLUSINDO",
            "nama_se": "WEBSITE SENTRE LEGAL",
            "sektor": "Sektor Perdagangan",
            "tanggal_terbit": "2022-11-15",
            "url_tdpse_detail": "https://pse.komdigi.go.id/tdpse-detail/12299",
            "website": "sentrelegal.com"
        },
        {
            "id": "9cb1abe2-95a5-4e01-8af9-c158bff448e8",
            "nama_pse": "BUANA CIPTA CHAHRA",
            "nama_se": "CHAHRA EVENT",
            "sektor": "Sektor Teknologi Informasi dan Komunikasi",
            "tanggal_terbit": "2022-11-15",
            "url_tdpse_detail": "https://pse.komdigi.go.id/tdpse-detail/12300",
            "website": "chahraevent.id"
        },
        {
            "id": "9cb1ac07-2558-48d5-9139-847c1d209384",
            "nama_pse": "QUIPPER EDUKASI INDONESIA",
            "nama_se": "QUIPPER VIDEO",
            "sektor": "Sektor Teknologi Informasi dan Komunikasi",
            "tanggal_terbit": "2022-11-15",
            "url_tdpse_detail": "https://pse.komdigi.go.id/tdpse-detail/12303",
            "website": "quipper.com"
        },
        {
            "id": "9cb1ac07-2bdb-4671-9609-04ca6e5c60c1",
            "nama_pse": "YRS GAMING SHOP",
            "nama_se": "YRS GAMING SHOP",
            "sektor": "Sektor Perdagangan",
            "tanggal_terbit": "2022-11-15",
            "url_tdpse_detail": "https://pse.komdigi.go.id/tdpse-detail/12302",
            "website": "-"
        },
        {
            "id": "9cb1ac15-804f-4f37-9a0f-d1994f79e9f8",
            "nama_pse": "QUIPPER EDUKASI INDONESIA",
            "nama_se": "QUIPPER SCHOOL",
            "sektor": "Sektor Teknologi Informasi dan Komunikasi",
            "tanggal_terbit": "2022-11-15",
            "url_tdpse_detail": "https://pse.komdigi.go.id/tdpse-detail/12304",
            "website": "quipper.com"
        },
        {
            "id": "9cb1ac07-2f96-455c-b14a-361be4e54737",
            "nama_pse": "AYOPOP TEKNOLOGI INDONESIA",
            "nama_se": "AYOPOP",
            "sektor": "Sektor Keuangan, Sektor Teknologi Informasi dan Komunikasi",
            "tanggal_terbit": "2022-11-15",
            "url_tdpse_detail": "https://pse.komdigi.go.id/tdpse-detail/12305",
            "website": "ayopop.id"
        },
        {
            "id": "9cb1ac07-32d7-47d6-91d5-0b173d37ce7b",
            "nama_pse": "OMIND NGANTOR ASEEK",
            "nama_se": "OMIND.CO.ID",
            "sektor": "Sektor Perdagangan",
            "tanggal_terbit": "2022-11-15",
            "url_tdpse_detail": "https://pse.komdigi.go.id/tdpse-detail/12306",
            "website": "omind.co.id"
        },
        {
            "id": "9cb1ac07-4528-4618-8187-4fe480771728",
            "nama_pse": "FAKTA INTERNUSA MEDIA INDO GROUP",
            "nama_se": "BICARA FAKTA",
            "sektor": "Sektor Teknologi Informasi dan Komunikasi",
            "tanggal_terbit": "2022-11-15",
            "url_tdpse_detail": "https://pse.komdigi.go.id/tdpse-detail/12311",
            "website": "bicarafakta.co.id"
        },
        {
            "id": "9cb1ac07-481d-42db-9643-dc1668749119",
            "nama_pse": "EVIUS TEKNOLOGI INDONESIA",
            "nama_se": "PARAS COMIC",
            "sektor": "Sektor Teknologi Informasi dan Komunikasi",
            "tanggal_terbit": "2022-11-15",
            "url_tdpse_detail": "https://pse.komdigi.go.id/tdpse-detail/12313",
            "website": "comic.paras.id"
        },
        {
            "id": "9cb1abe2-48a0-4fb5-80fd-63ac85e699e6",
            "nama_pse": "BTH UMMAT MANDIRI",
            "nama_se": "GERAI QRIS",
            "sektor": "Sektor Keuangan",
            "tanggal_terbit": "2022-11-14",
            "url_tdpse_detail": "https://pse.komdigi.go.id/tdpse-detail/12261",
            "website": "-"
        },
        {
            "id": "9cb1abe2-4e47-4b65-ac54-9fd828d63871",
            "nama_pse": "FIRST LUXURY INDONESIA",
            "nama_se": "PLATFORM JUAL BELI TAS, BAJU, ASESORIS, JAM BEKAS PT. FIRST LUXURY INDONESIA",
            "sektor": "Sektor Perdagangan",
            "tanggal_terbit": "2022-11-14",
            "url_tdpse_detail": "https://pse.komdigi.go.id/tdpse-detail/12262",
            "website": "firstluxury.sg"
        },
        {
            "id": "9cb1ac06-eda4-4a91-946c-87ce2f59c1fa",
            "nama_pse": "SKYE SAB INDONESIA",
            "nama_se": "ORIPAY",
            "sektor": "Sektor Keuangan",
            "tanggal_terbit": "2022-11-14",
            "url_tdpse_detail": "https://pse.komdigi.go.id/tdpse-detail/12264",
            "website": "oripay.id"
        },
        {
            "id": "9cb1abe2-5757-4f7b-bab0-67774679b38c",
            "nama_pse": "BANK PEMBIAYAAN RAKYAT SYARIAH MENTARI PASAMAN SAIYO",
            "nama_se": "PSE LINGKUP PRIVATE DOMESTIK",
            "sektor": "Sektor Keuangan",
            "tanggal_terbit": "2022-11-14",
            "url_tdpse_detail": "https://pse.komdigi.go.id/tdpse-detail/12266",
            "website": "-"
        },
        {
            "id": "9cb1abe2-5a9f-4eb9-b72c-493f27737d7d",
            "nama_pse": "MURNI SULAIMAN",
            "nama_se": "MADZ JAYA",
            "sektor": "Sektor Perdagangan, Sektor Teknologi Informasi dan Komunikasi",
            "tanggal_terbit": "2022-11-14",
            "url_tdpse_detail": "https://pse.komdigi.go.id/tdpse-detail/12267",
            "website": "-"
        },
        {
            "id": "9cb1ac06-f14f-41d6-a20b-4a3e37aadd2e",
            "nama_pse": "KARYA MARITIM BERKAH",
            "nama_se": "PT. KARYA MARITIM BERKAH",
            "sektor": "Sektor Transportasi, Sektor Teknologi Informasi dan Komunikasi",
            "tanggal_terbit": "2022-11-14",
            "url_tdpse_detail": "https://pse.komdigi.go.id/tdpse-detail/12268",
            "website": "-"
        },
        {
            "id": "9cb1abe2-624d-41b6-84df-49ec7f3215b4",
            "nama_pse": "PADAPRIMA NUSA TEKNOLOGI",
            "nama_se": "MERIDA",
            "sektor": "Sektor Teknologi Informasi dan Komunikasi",
            "tanggal_terbit": "2022-11-14",
            "url_tdpse_detail": "https://pse.komdigi.go.id/tdpse-detail/12273",
            "website": "-"
        },
        {
            "id": "9cb1ac06-fecd-4dbc-8d03-e64ac6117ea1",
            "nama_pse": "AKSELERASI KARIR NUSANTARA",
            "nama_se": "KARIRLAB",
            "sektor": "Sektor Teknologi Informasi dan Komunikasi",
            "tanggal_terbit": "2022-11-14",
            "url_tdpse_detail": "https://pse.komdigi.go.id/tdpse-detail/12281",
            "website": "Karirlab.co"
        },
        {
            "id": "9cb1ac07-02da-483e-b798-f26e633d40af",
            "nama_pse": "SUMBER WAHANA SEJAHTERA",
            "nama_se": "PT SUMBER WAHANA SEJAHTERA",
            "sektor": "Sektor Perdagangan",
            "tanggal_terbit": "2022-11-14",
            "url_tdpse_detail": "https://pse.komdigi.go.id/tdpse-detail/12280",
            "website": "alfatrex.id"
        },
        {
            "id": "9cb1ac15-67c7-4b76-89ce-df6560083442",
            "nama_pse": "TEKNOLOGI AGUS RAHMAN",
            "nama_se": "CTAR",
            "sektor": "Sektor Teknologi Informasi dan Komunikasi",
            "tanggal_terbit": "2022-11-14",
            "url_tdpse_detail": "https://pse.komdigi.go.id/tdpse-detail/12277",
            "website": "ctar.co.id"
        },
        {
            "id": "9cb1ac07-05ea-48d5-ac4a-ca27b8a0b029",
            "nama_pse": "TEKNOLOGI AGUS RAHMAN",
            "nama_se": "CAMAN",
            "sektor": "Sektor Teknologi Informasi dan Komunikasi",
            "tanggal_terbit": "2022-11-14",
            "url_tdpse_detail": "https://pse.komdigi.go.id/tdpse-detail/12278",
            "website": "ctar.co.id"
        },
        {
            "id": "9cb1ac07-122f-4990-baf2-43cbdd22f699",
            "nama_pse": "RUSLY CIPTIA",
            "nama_se": "NUCLEUS INVESTMENT",
            "sektor": "Sektor Perdagangan",
            "tanggal_terbit": "2022-11-14",
            "url_tdpse_detail": "https://pse.komdigi.go.id/tdpse-detail/12279",
            "website": "-"
        },
        {
            "id": "9cb1ac15-6edf-4027-93f6-7b6fe89d3a6a",
            "nama_pse": "TEKNOLOGI AGUS RAHMAN",
            "nama_se": "IOT SOLUTIONS",
            "sektor": "Sektor Teknologi Informasi dan Komunikasi",
            "tanggal_terbit": "2022-11-14",
            "url_tdpse_detail": "https://pse.komdigi.go.id/tdpse-detail/12283",
            "website": "caman.co.id"
        },
        {
            "id": "9cb1ac15-7266-4ab2-a73b-d2f1470aff92",
            "nama_pse": "VIA MEDIKA",
            "nama_se": "SIKDA-OPTIMA",
            "sektor": "Sektor Kesehatan",
            "tanggal_terbit": "2022-11-14",
            "url_tdpse_detail": "https://pse.komdigi.go.id/tdpse-detail/12284",
            "website": "sikda-optima.com"
        },
        {
            "id": "9cb1ac07-165d-44b6-9cd2-6c84b29204d4",
            "nama_pse": "JARINGAN LANGIT INTERNATIONAL",
            "nama_se": "JARINGAN LANGIT INTERNATIONAL",
            "sektor": "Sektor Teknologi Informasi dan Komunikasi",
            "tanggal_terbit": "2022-11-14",
            "url_tdpse_detail": "https://pse.komdigi.go.id/tdpse-detail/12285",
            "website": "jaringanlangit.com"
        },
        {
            "id": "9cb1ac14-e9fa-4184-a4ca-560f0329a21c",
            "nama_pse": "PERINTIS PERLINDUNGAN INSTALASI LISTRIK NASIONAL",
            "nama_se": "SI OMSIL (SISTEM ONLINE MANAJEMEN SERTIFIKASI INSTALASI LISTRIK)",
            "sektor": "Sektor Perdagangan, Sektor Energi dan Sumber Daya Mineral, Sektor Teknologi Informasi dan Komunikasi",
            "tanggal_terbit": "2022-11-14",
            "url_tdpse_detail": "https://pse.komdigi.go.id/tdpse-detail/12263",
            "website": "ppiln.id"
        },
        {
            "id": "9cb1ac06-7911-4a73-b8d5-b05360147837",
            "nama_pse": "MEDSENSE INDONESIA ABADI",
            "nama_se": "MEDSENSE",
            "sektor": "Sektor Kesehatan",
            "tanggal_terbit": "2022-11-12",
            "url_tdpse_detail": "https://pse.komdigi.go.id/tdpse-detail/12255",
            "website": "medsense.id"
        },
        {
            "id": "9cb1abe2-3e4e-4e22-9c64-46783f685777",
            "nama_pse": "VINEA DEI",
            "nama_se": "JALA KASIH",
            "sektor": "Sektor Teknologi Informasi dan Komunikasi",
            "tanggal_terbit": "2022-11-12",
            "url_tdpse_detail": "https://pse.komdigi.go.id/tdpse-detail/12256",
            "website": "jalakasih.com"
        },
        {
            "id": "9cb1ac15-51c0-4935-b5a9-a974d136ef46",
            "nama_pse": "CIPTA DIMENSI DIGITAL",
            "nama_se": "HYPE+",
            "sektor": "Sektor Teknologi Informasi dan Komunikasi",
            "tanggal_terbit": "2022-11-12",
            "url_tdpse_detail": "https://pse.komdigi.go.id/tdpse-detail/12257",
            "website": "hype-plus.com"
        },
        {
            "id": "9cb1ac06-e8bf-4a56-8b05-ca1f1a4516d1",
            "nama_pse": "DIGITAL MEDIATEK SOLUSINDO",
            "nama_se": "DMS SOFTWARE",
            "sektor": "Sektor Teknologi Informasi dan Komunikasi",
            "tanggal_terbit": "2022-11-12",
            "url_tdpse_detail": "https://pse.komdigi.go.id/tdpse-detail/12258",
            "website": "dmsgroup.co.id"
        },
        {
            "id": "9cb1abe2-4371-4c95-8188-63974fee2adb",
            "nama_pse": "DIGITAL MEDIATEK SOLUSINDO",
            "nama_se": "HUBME",
            "sektor": "Sektor Teknologi Informasi dan Komunikasi",
            "tanggal_terbit": "2022-11-12",
            "url_tdpse_detail": "https://pse.komdigi.go.id/tdpse-detail/12259",
            "website": "hubme.id"
        },
        {
            "id": "9cb1ac06-b3d9-4e6b-a098-53fc767f773f",
            "nama_pse": "GOLDEN RAMA EXPRESS",
            "nama_se": "GOLDEN RAMA WEBSITE \u0026 APPS",
            "sektor": "Sektor Perdagangan, Sektor Transportasi",
            "tanggal_terbit": "2022-11-11",
            "url_tdpse_detail": "https://pse.komdigi.go.id/tdpse-detail/12226",
            "website": "goldenrama.com"
        },
        {
            "id": "9cb1ac06-c02f-4fe9-83ce-39d2e709d5d6",
            "nama_pse": "AVATAR TIKET DIGITAL",
            "nama_se": "ATIX",
            "sektor": "Sektor Perdagangan",
            "tanggal_terbit": "2022-11-11",
            "url_tdpse_detail": "https://pse.komdigi.go.id/tdpse-detail/12224",
            "website": "atix.id"
        },
        {
            "id": "9cb1abe2-01c4-4608-96c8-df02b9d74933",
            "nama_pse": "SINERGI DIGITAL PUSAKA",
            "nama_se": "ENABLR LINK",
            "sektor": "Sektor Perdagangan",
            "tanggal_terbit": "2022-11-11",
            "url_tdpse_detail": "https://pse.komdigi.go.id/tdpse-detail/12228",
            "website": "enablr.id"
        },
        {
            "id": "9cb1ac06-c33e-426b-ac9f-69f0ed404d3a",
            "nama_pse": "WAQAF INFAQ ZAKAT DAN  SODAQOH PESANTREN INDONESIA (WIZSTREN)",
            "nama_se": "WIZSTREN.ID",
            "sektor": "Sektor Teknologi Informasi dan Komunikasi",
            "tanggal_terbit": "2022-11-11",
            "url_tdpse_detail": "https://pse.komdigi.go.id/tdpse-detail/12227",
            "website": "wizstren.id"
        },
        {
            "id": "9cb1ac06-c73f-4feb-aa01-251d966ad9f5",
            "nama_pse": "FITRIA ARYANI",
            "nama_se": "HP",
            "sektor": "Sektor Perdagangan",
            "tanggal_terbit": "2022-11-11",
            "url_tdpse_detail": "https://pse.komdigi.go.id/tdpse-detail/12229",
            "website": "-"
        },
        {
            "id": "9cb1ac15-2d40-4810-8f70-8e85b4ddd4af",
            "nama_pse": "AESTHETIC TEKNOLOGI INDONESIA",
            "nama_se": "AESTECH",
            "sektor": "Sektor Perdagangan, Sektor Kesehatan, Sektor Teknologi Informasi dan Komunikasi",
            "tanggal_terbit": "2022-11-11",
            "url_tdpse_detail": "https://pse.komdigi.go.id/tdpse-detail/12230",
            "website": "aestech.co.id"
        },
        {
            "id": "9cb1abe2-0536-4390-a957-e93a73e9fb4e",
            "nama_pse": "PONDOK PESANTREN MIFTAHUL WARITSIN",
            "nama_se": "YAYASAN PONDOK PESANTREN MIFTAHUL WARITSIN",
            "sektor": "Sektor Teknologi Informasi dan Komunikasi",
            "tanggal_terbit": "2022-11-11",
            "url_tdpse_detail": "https://pse.komdigi.go.id/tdpse-detail/12231",
            "website": "miftahulwaritsin.site"
        },
        {
            "id": "9cb1ac15-3163-44b9-9355-0b9170157ec6",
            "nama_pse": "FASILITAS TEKNOLOGI NUSANTARA",
            "nama_se": "FASTECHINDO",
            "sektor": "Sektor Perdagangan",
            "tanggal_terbit": "2022-11-11",
            "url_tdpse_detail": "https://pse.komdigi.go.id/tdpse-detail/12232",
            "website": "fastech-indonesia.id"
        },
        {
            "id": "9cb1ac06-cb0d-4a12-b851-d6b086b72407",
            "nama_pse": "INOVASI ANAK INDONESIA",
            "nama_se": "PARKEE INTEGRATED SYSTEM",
            "sektor": "Sektor Transportasi, Sektor Keuangan, Sektor Teknologi Informasi dan Komunikasi",
            "tanggal_terbit": "2022-11-11",
            "url_tdpse_detail": "https://pse.komdigi.go.id/tdpse-detail/12233",
            "website": "parkee.app"
        },
        {
            "id": "9cb1ac06-ceea-4051-b050-1ef4c4659e84",
            "nama_pse": "RENTIQUE TEKNOLOGI GLOBAL",
            "nama_se": "RENTIQUE",
            "sektor": "Sektor Perdagangan",
            "tanggal_terbit": "2022-11-11",
            "url_tdpse_detail": "https://pse.komdigi.go.id/tdpse-detail/12234",
            "website": "rentiqueid.com"
        },
        {
            "id": "9cb1ac15-3516-4a33-95cd-c833db85b03c",
            "nama_pse": "JAWA INTERNET FILM INDONESIA",
            "nama_se": "JAWA EYE",
            "sektor": "Sektor Teknologi Informasi dan Komunikasi",
            "tanggal_terbit": "2022-11-11",
            "url_tdpse_detail": "https://pse.komdigi.go.id/tdpse-detail/12235",
            "website": "-"
        },
        {
            "id": "9cb1ac15-394a-4db2-82a4-f4fbd719e6b0",
            "nama_pse": "EKONOMI SIRKULAR INDONESIA",
            "nama_se": "SURPLUS INDONESIA",
            "sektor": "Sektor Teknologi Informasi dan Komunikasi, Sektor Pangan",
            "tanggal_terbit": "2022-11-11",
            "url_tdpse_detail": "https://pse.komdigi.go.id/tdpse-detail/12237",
            "website": "surplus.id"
        },
        {
            "id": "9cb1abe2-0874-477a-9677-86cd6877c906",
            "nama_pse": "SIMPAN PINJAM DAN PEMBIAYAAN SYARIAH BMT ITQAN",
            "nama_se": "KSPPS BMT ITQAN",
            "sektor": "Sektor Keuangan",
            "tanggal_terbit": "2022-11-11",
            "url_tdpse_detail": "https://pse.komdigi.go.id/tdpse-detail/12238",
            "website": "bmtitqan.org"
        },
        {
            "id": "9cb1abe2-0bf7-4ea9-ad82-51536d1ad1b3",
            "nama_pse": "PRIMA INTERAKTIF",
            "nama_se": "PRIMA INTERAKTIF",
            "sektor": "Sektor Teknologi Informasi dan Komunikasi",
            "tanggal_terbit": "2022-11-11",
            "url_tdpse_detail": "https://pse.komdigi.go.id/tdpse-detail/12239",
            "website": "lari.id"
        }
    ],
    "processingTimeMs": 3,
    "query": "",
    "totalHits": 19131,
    "hitsPerPage": 50,
    "page": 170,
    "totalPages": 383
}