{
    "hits": [
        {
            "id": "9cb1ac32-1833-4c88-bc0c-acb607de589e",
            "nama_pse": "ASET INSTRUMEN DIGITAL",
            "nama_se": "ASTAL",
            "sektor": "Sektor Perdagangan",
            "tanggal_terbit": "2022-04-07",
            "url_tdpse_detail": "https://pse.komdigi.go.id/tdpse-detail/14427",
            "website": "astal.id"
        },
        {
            "id": "9cb1ab94-be4a-4092-a802-dd47eb8a885e",
            "nama_pse": "VALBURY ASIA FUTURES",
            "nama_se": "APLIKASI GOTRADE INDONESIA US STOCKS",
            "sektor": "Sektor Keuangan",
            "tanggal_terbit": "2022-04-07",
            "url_tdpse_detail": "https://pse.komdigi.go.id/tdpse-detail/3793",
            "website": "heygotrade.com"
        },
        {
            "id": "9cb1aba0-2d91-4660-b9a8-0de4316e1498",
            "nama_pse": "NALAGENETIK RISET INDONESIA",
            "nama_se": "NALAGENETICS CLINICAL DECISION SUPPORT™",
            "sektor": "Sektor Perdagangan, Sektor Perdagangan, Sektor Kesehatan, Sektor Kesehatan",
            "tanggal_terbit": "2022-03-30",
            "url_tdpse_detail": "https://pse.komdigi.go.id/tdpse-detail/3704",
            "website": "portal.nalagenetics.com"
        },
        {
            "id": "9cb1aba0-332c-42c2-872a-aa923fb4813a",
            "nama_pse": "SOTTA TEKNOLOGI INDONESIA",
            "nama_se": "HTTPS://VCGAMERS.COM/",
            "sektor": "Sektor Perdagangan, Sektor Perdagangan",
            "tanggal_terbit": "2022-03-28",
            "url_tdpse_detail": "https://pse.komdigi.go.id/tdpse-detail/3672",
            "website": "vcgamers.com"
        },
        {
            "id": "9cb1ab90-166d-404a-9650-27f2c3e9e7d2",
            "nama_pse": "SOLUSI SARANA SEHAT",
            "nama_se": "FARMAKU.COM",
            "sektor": "Sektor Perdagangan, Sektor Perdagangan, Sektor Kesehatan, Sektor Kesehatan",
            "tanggal_terbit": "2022-03-18",
            "url_tdpse_detail": "https://pse.komdigi.go.id/tdpse-detail/3577",
            "website": "farmaku.com"
        },
        {
            "id": "9cb1ab87-12e4-47db-89b2-f3168a11430b",
            "nama_pse": "SOLUSI SARANA SEHAT",
            "nama_se": "FARMAKU.COM",
            "sektor": "Sektor Perdagangan, Sektor Perdagangan, Sektor Perdagangan, Sektor Perdagangan, Sektor Kesehatan, Sektor Kesehatan, Sektor Kesehatan, Sektor Kesehatan",
            "tanggal_terbit": "2022-03-14",
            "url_tdpse_detail": "https://pse.komdigi.go.id/tdpse-detail/3532",
            "website": "farmaku.com"
        },
        {
            "id": "9cb1ab8e-d613-4ec2-8553-72c1b60d77c1",
            "nama_pse": "SABUK DIGITAL NUSANTARA",
            "nama_se": "BACKTOBALI",
            "sektor": "Sektor Teknologi Informasi dan Komunikasi, Sektor Teknologi Informasi dan Komunikasi",
            "tanggal_terbit": "2022-03-14",
            "url_tdpse_detail": "https://pse.komdigi.go.id/tdpse-detail/3522",
            "website": "backtobali.id"
        },
        {
            "id": "9cb1ab90-c11f-44cb-8389-a9b9141bf259",
            "nama_pse": "GLOBAL UNGGUL MANDIRI",
            "nama_se": "PAXELMARKET.CO",
            "sektor": "Sektor Perdagangan, Sektor Perdagangan",
            "tanggal_terbit": "2022-03-04",
            "url_tdpse_detail": "https://pse.komdigi.go.id/tdpse-detail/3426",
            "website": "paxelmarket.co"
        },
        {
            "id": "9cb1ab6b-3473-4595-b8da-3338d1090c35",
            "nama_pse": "ASTRA AUTO DIGITAL",
            "nama_se": "SEVA",
            "sektor": "Sektor Perdagangan, Sektor Perdagangan",
            "tanggal_terbit": "2022-02-17",
            "url_tdpse_detail": "https://pse.komdigi.go.id/tdpse-detail/3278",
            "website": "seva.id"
        },
        {
            "id": "9cb1ab8a-7fce-4b3c-9836-426624c36fac",
            "nama_pse": "GLOBAL DIGITAL INDOKREASI",
            "nama_se": "LAPAKGAMING",
            "sektor": "Sektor Teknologi Informasi dan Komunikasi, Sektor Teknologi Informasi dan Komunikasi",
            "tanggal_terbit": "2022-02-08",
            "url_tdpse_detail": "https://pse.komdigi.go.id/tdpse-detail/3195",
            "website": "lapakgaming.com"
        },
        {
            "id": "9cb1ab9e-4091-463f-a0ca-da5483f98730",
            "nama_pse": "DANADIPA SEJAHTERA FINANSIAL",
            "nama_se": "WEBSITE DANADIPA",
            "sektor": "Sektor Keuangan, Sektor Keuangan",
            "tanggal_terbit": "2022-02-03",
            "url_tdpse_detail": "https://pse.komdigi.go.id/tdpse-detail/6446",
            "website": "danadipa-finansial.co.id"
        },
        {
            "id": "9cb1ab89-69ee-4e21-bf5f-d4dd5316f35c",
            "nama_pse": "GLOBAL UNGGUL MANDIRI",
            "nama_se": "PAXEL",
            "sektor": "Sektor Perdagangan, Sektor Perdagangan, Sektor Perdagangan",
            "tanggal_terbit": "2022-01-07",
            "url_tdpse_detail": "https://pse.komdigi.go.id/tdpse-detail/2990",
            "website": "paxel.co"
        },
        {
            "id": "9cb1ab81-5fd7-4983-a332-cb126da5c6f9",
            "nama_pse": "GLOBAL UNGGUL MANDIRI",
            "nama_se": "PAXEL MARKET",
            "sektor": "Sektor Perdagangan, Sektor Perdagangan, Sektor Perdagangan",
            "tanggal_terbit": "2022-01-07",
            "url_tdpse_detail": "https://pse.komdigi.go.id/tdpse-detail/2995",
            "website": "paxelmarket.co"
        },
        {
            "id": "9cb1ab74-0a8d-4b4a-b8b9-534858bf8db5",
            "nama_pse": "TUNAS SUKSES MANDIRI",
            "nama_se": "WWW.NUSATRIP.COM",
            "sektor": "Sektor Perdagangan, Sektor Perdagangan, Sektor Perdagangan",
            "tanggal_terbit": "2021-12-22",
            "url_tdpse_detail": "https://pse.komdigi.go.id/tdpse-detail/2845",
            "website": "nusatrip.com"
        },
        {
            "id": "9cb1ab6f-af14-4e4c-9fc4-d0c2f3153c3f",
            "nama_pse": "PERUSAHAAN PERSEROAN (PERSERO) PT. TELEKOMUNIKASI INDONESIA",
            "nama_se": "SOOLTANPAY",
            "sektor": "Sektor Keuangan, Sektor Keuangan, Sektor Keuangan, Sektor Keuangan, Sektor Teknologi Informasi dan Komunikasi, Sektor Teknologi Informasi dan Komunikasi, Sektor Teknologi Informasi dan Komunikasi, Sektor Teknologi Informasi dan Komunikasi",
            "tanggal_terbit": "2021-12-20",
            "url_tdpse_detail": "https://pse.komdigi.go.id/tdpse-detail/2801",
            "website": "sooltanpay.id"
        },
        {
            "id": "9cb1ab6f-9e43-4394-afbd-cc421a47bc5b",
            "nama_pse": "PERUSAHAAN PERSEROAN (PERSERO) PT. TELEKOMUNIKASI INDONESIA",
            "nama_se": "INPOIN​",
            "sektor": "Sektor Teknologi Informasi dan Komunikasi, Sektor Teknologi Informasi dan Komunikasi, Sektor Teknologi Informasi dan Komunikasi, Sektor Teknologi Informasi dan Komunikasi",
            "tanggal_terbit": "2021-12-08",
            "url_tdpse_detail": "https://pse.komdigi.go.id/tdpse-detail/2667",
            "website": "inpoin.id"
        },
        {
            "id": "9cb1ab68-f7d9-4f39-a559-1f183bc403f9",
            "nama_pse": "PERUSAHAAN PERSEROAN (PERSERO) PT. TELEKOMUNIKASI INDONESIA",
            "nama_se": "MPS",
            "sektor": "Sektor Teknologi Informasi dan Komunikasi, Sektor Teknologi Informasi dan Komunikasi, Sektor Teknologi Informasi dan Komunikasi, Sektor Teknologi Informasi dan Komunikasi",
            "tanggal_terbit": "2021-12-08",
            "url_tdpse_detail": "https://pse.komdigi.go.id/tdpse-detail/2668",
            "website": "mpstelkom.id"
        },
        {
            "id": "9cb1ab68-f9f2-4f2f-9d88-7c60b71adbc7",
            "nama_pse": "PERUSAHAAN PERSEROAN (PERSERO) PT. TELEKOMUNIKASI INDONESIA",
            "nama_se": "QREN",
            "sektor": "Sektor Keuangan, Sektor Keuangan, Sektor Keuangan, Sektor Keuangan, Sektor Teknologi Informasi dan Komunikasi, Sektor Teknologi Informasi dan Komunikasi, Sektor Teknologi Informasi dan Komunikasi, Sektor Teknologi Informasi dan Komunikasi",
            "tanggal_terbit": "2021-12-08",
            "url_tdpse_detail": "https://pse.komdigi.go.id/tdpse-detail/2674",
            "website": "qren.id"
        },
        {
            "id": "9cb1ab75-ae1d-43d7-9213-fdf2629edc0b",
            "nama_pse": "PERUSAHAAN PERSEROAN (PERSERO) PT. TELEKOMUNIKASI INDONESIA",
            "nama_se": "TRAVELAJA",
            "sektor": "Sektor Teknologi Informasi dan Komunikasi, Sektor Teknologi Informasi dan Komunikasi, Sektor Teknologi Informasi dan Komunikasi, Sektor Teknologi Informasi dan Komunikasi",
            "tanggal_terbit": "2021-12-08",
            "url_tdpse_detail": "https://pse.komdigi.go.id/tdpse-detail/2676",
            "website": "travelaja.id"
        },
        {
            "id": "9cb1ab68-fc31-4b05-8420-1519f37c9f2d",
            "nama_pse": "PERUSAHAAN PERSEROAN (PERSERO) PT. TELEKOMUNIKASI INDONESIA",
            "nama_se": "VUTURA",
            "sektor": "Sektor Teknologi Informasi dan Komunikasi, Sektor Teknologi Informasi dan Komunikasi, Sektor Teknologi Informasi dan Komunikasi, Sektor Teknologi Informasi dan Komunikasi",
            "tanggal_terbit": "2021-12-08",
            "url_tdpse_detail": "https://pse.komdigi.go.id/tdpse-detail/2680",
            "website": "vuturo.io"
        },
        {
            "id": "9cb1ab95-6d8a-4a8e-a1bf-f5b2abc5aaba",
            "nama_pse": "TELEKOMUNIKASI SELULAR",
            "nama_se": "CLOUDX MEETING",
            "sektor": "Sektor Teknologi Informasi dan Komunikasi, Sektor Teknologi Informasi dan Komunikasi, Sektor Teknologi Informasi dan Komunikasi, Sektor Teknologi Informasi dan Komunikasi, Sektor Teknologi Informasi dan Komunikasi, Sektor Teknologi Informasi dan Komunikasi, Sektor Teknologi Informasi dan Komunikasi, Sektor Teknologi Informasi dan Komunikasi, Sektor Teknologi Informasi dan Komunikasi, Sektor Teknologi Informasi dan Komunikasi, Sektor Teknologi Informasi dan Komunikasi",
            "tanggal_terbit": "2021-12-07",
            "url_tdpse_detail": "https://pse.komdigi.go.id/tdpse-detail/2639",
            "website": "cloudxmeeting.com"
        },
        {
            "id": "9cb1ab87-976d-44ce-aefb-40fc35320de9",
            "nama_pse": "KURNIA CIPTAKARYA GEMILANG",
            "nama_se": "CHARLESKEITH.CO.ID",
            "sektor": "Sektor Perdagangan, Sektor Perdagangan, Sektor Perdagangan",
            "tanggal_terbit": "2021-12-01",
            "url_tdpse_detail": "https://pse.komdigi.go.id/tdpse-detail/2569",
            "website": "charleskeith.co.id"
        },
        {
            "id": "9cb1ab80-3726-4db3-ac33-66ef624f0964",
            "nama_pse": "WIZ TECHNOLOGY INDONESIA",
            "nama_se": "AI TALKBOT",
            "sektor": "Sektor Teknologi Informasi dan Komunikasi, Sektor Teknologi Informasi dan Komunikasi",
            "tanggal_terbit": "2021-11-30",
            "url_tdpse_detail": "https://pse.komdigi.go.id/tdpse-detail/2508",
            "website": "wiz.ai"
        },
        {
            "id": "9cb1ab87-8505-4b83-bd01-efd669cfe380",
            "nama_pse": "KURNIA CIPTAKARYA GEMILANG",
            "nama_se": "E-COMMERCE KCG",
            "sektor": "Sektor Perdagangan, Sektor Perdagangan, Sektor Perdagangan",
            "tanggal_terbit": "2021-11-25",
            "url_tdpse_detail": "https://pse.komdigi.go.id/tdpse-detail/2454",
            "website": "pedroshoes.co.id"
        },
        {
            "id": "9cb1ab77-01c6-427b-ba1e-f5a87d943777",
            "nama_pse": "BANK MASPION INDONESIA",
            "nama_se": "MOBILE BANKING | MASPION ELECTRONIC BANKING (MEB)",
            "sektor": "Sektor Keuangan, Sektor Keuangan",
            "tanggal_terbit": "2021-11-22",
            "url_tdpse_detail": "https://pse.komdigi.go.id/tdpse-detail/2418",
            "website": "-"
        },
        {
            "id": "9cb1ab77-04e8-48e9-8091-f2649da3c024",
            "nama_pse": "BANK MASPION INDONESIA",
            "nama_se": "INTERNET BANKING | MASPION ELECTRONIC BANKING (MEB)",
            "sektor": "Sektor Keuangan, Sektor Keuangan",
            "tanggal_terbit": "2021-11-22",
            "url_tdpse_detail": "https://pse.komdigi.go.id/tdpse-detail/2420",
            "website": "meb.bankmaspion.co.id"
        },
        {
            "id": "9cb1ab7f-8f45-4ed7-a361-c1a46e90303b",
            "nama_pse": "BANK MASPION INDONESIA",
            "nama_se": "INTERNET BANKING BISNIS | MASPION ELECTRONIC BANKING (MEB)",
            "sektor": "Sektor Keuangan, Sektor Keuangan",
            "tanggal_terbit": "2021-11-22",
            "url_tdpse_detail": "https://pse.komdigi.go.id/tdpse-detail/2422",
            "website": "meb.bankmaspion.co.id"
        },
        {
            "id": "9cb1ab75-84e2-4bd1-9f5b-a9f8086295f7",
            "nama_pse": "PERUSAHAAN PERSEROAN (PERSERO) PT. TELEKOMUNIKASI INDONESIA",
            "nama_se": "PIJAR CORPU",
            "sektor": "Sektor Teknologi Informasi dan Komunikasi, Sektor Teknologi Informasi dan Komunikasi, Sektor Teknologi Informasi dan Komunikasi, Sektor Teknologi Informasi dan Komunikasi",
            "tanggal_terbit": "2021-11-08",
            "url_tdpse_detail": "https://pse.komdigi.go.id/tdpse-detail/2329",
            "website": "pijarcorpu.id"
        },
        {
            "id": "9cb1ab6f-94af-44f0-9196-2aacb3f8695a",
            "nama_pse": "PERUSAHAAN PERSEROAN (PERSERO) PT. TELEKOMUNIKASI INDONESIA",
            "nama_se": "PIJAR KAMPUS",
            "sektor": "Sektor Teknologi Informasi dan Komunikasi, Sektor Teknologi Informasi dan Komunikasi, Sektor Teknologi Informasi dan Komunikasi, Sektor Teknologi Informasi dan Komunikasi",
            "tanggal_terbit": "2021-11-08",
            "url_tdpse_detail": "https://pse.komdigi.go.id/tdpse-detail/2330",
            "website": "pijarkampus.id"
        },
        {
            "id": "9cb1ab68-f54b-477d-8a7d-f87653eb99b4",
            "nama_pse": "PERUSAHAAN PERSEROAN (PERSERO) PT. TELEKOMUNIKASI INDONESIA",
            "nama_se": "MYSOOLTAN",
            "sektor": "Sektor Perdagangan, Sektor Perdagangan, Sektor Perdagangan, Sektor Perdagangan, Sektor Teknologi Informasi dan Komunikasi, Sektor Teknologi Informasi dan Komunikasi, Sektor Teknologi Informasi dan Komunikasi, Sektor Teknologi Informasi dan Komunikasi",
            "tanggal_terbit": "2021-11-08",
            "url_tdpse_detail": "https://pse.komdigi.go.id/tdpse-detail/2334",
            "website": "mysooltan.co.id"
        },
        {
            "id": "9cb1ab75-9439-476a-bec3-ca9db66d7eb1",
            "nama_pse": "PERUSAHAAN PERSEROAN (PERSERO) PT. TELEKOMUNIKASI INDONESIA",
            "nama_se": "WONDERIN​.ID",
            "sektor": "Sektor Perdagangan, Sektor Perdagangan, Sektor Perdagangan, Sektor Perdagangan, Sektor Teknologi Informasi dan Komunikasi, Sektor Teknologi Informasi dan Komunikasi, Sektor Teknologi Informasi dan Komunikasi, Sektor Teknologi Informasi dan Komunikasi",
            "tanggal_terbit": "2021-11-08",
            "url_tdpse_detail": "https://pse.komdigi.go.id/tdpse-detail/2335",
            "website": "wonderin.id"
        },
        {
            "id": "9cb1ab90-7fad-4ded-87ed-a9287e806a2f",
            "nama_pse": "SENTRA BITWEWE INDONESIA",
            "nama_se": "BITWEWE INDONESIA",
            "sektor": "Sektor Perdagangan, Sektor Perdagangan",
            "tanggal_terbit": "2021-11-08",
            "url_tdpse_detail": "https://pse.komdigi.go.id/tdpse-detail/2301",
            "website": "bitwewe.co.id"
        },
        {
            "id": "9cb1ab64-9653-474e-9e3a-dead7bc33a6d",
            "nama_pse": "ARCHOR TEKNOLOGI DIGITAL",
            "nama_se": "QOALA.APP",
            "sektor": "Sektor Keuangan, Sektor Keuangan",
            "tanggal_terbit": "2021-11-08",
            "url_tdpse_detail": "https://pse.komdigi.go.id/tdpse-detail/2343",
            "website": "qoala.app"
        },
        {
            "id": "9cb1ab87-50a7-4197-9bf0-67d6991e71da",
            "nama_pse": "AMAN CERMAT CEPAT",
            "nama_se": "WWW.KLIKA2C.CO.ID",
            "sektor": "Sektor Keuangan, Sektor Keuangan",
            "tanggal_terbit": "2021-10-26",
            "url_tdpse_detail": "https://pse.komdigi.go.id/tdpse-detail/2101",
            "website": "klika2c.co.id"
        },
        {
            "id": "9cb1ab7e-f776-437e-892f-3d9bbe6a1b26",
            "nama_pse": "SERASI AUTORAYA",
            "nama_se": "IBID",
            "sektor": "Sektor Perdagangan, Sektor Perdagangan",
            "tanggal_terbit": "2021-10-26",
            "url_tdpse_detail": "https://pse.komdigi.go.id/tdpse-detail/2096",
            "website": "ibid.astra.co.id"
        },
        {
            "id": "9cb1ab7f-00cd-446a-a26c-e4f711095fd4",
            "nama_pse": "PROGO PUNCAK GROUP",
            "nama_se": "PINJAMWINWIN",
            "sektor": "Sektor Keuangan, Sektor Keuangan",
            "tanggal_terbit": "2021-10-26",
            "url_tdpse_detail": "https://pse.komdigi.go.id/tdpse-detail/2114",
            "website": "pinjamwinwin.com"
        },
        {
            "id": "9cb1aba1-83aa-4821-b264-d27a65264b44",
            "nama_pse": "TELEKOMUNIKASI SELULAR",
            "nama_se": "FITA",
            "sektor": "Sektor Teknologi Informasi dan Komunikasi, Sektor Teknologi Informasi dan Komunikasi, Sektor Teknologi Informasi dan Komunikasi, Sektor Teknologi Informasi dan Komunikasi, Sektor Teknologi Informasi dan Komunikasi, Sektor Teknologi Informasi dan Komunikasi, Sektor Teknologi Informasi dan Komunikasi, Sektor Teknologi Informasi dan Komunikasi, Sektor Teknologi Informasi dan Komunikasi, Sektor Teknologi Informasi dan Komunikasi, Sektor Teknologi Informasi dan Komunikasi",
            "tanggal_terbit": "2021-10-26",
            "url_tdpse_detail": "https://pse.komdigi.go.id/tdpse-detail/2009",
            "website": "https://www.fitaapp.com/ dan https://www.myfita.com/ (new website, will redirect the traffic to this one)"
        },
        {
            "id": "9cb1ab69-9ac0-4d08-be09-a5b029d50006",
            "nama_pse": "BRINGIN INTI TEKNOLOGI",
            "nama_se": "PARI - PASAR RAKYAT INDONESIA",
            "sektor": "Sektor Perdagangan, Sektor Perdagangan, Sektor Perdagangan",
            "tanggal_terbit": "2021-10-26",
            "url_tdpse_detail": "https://pse.komdigi.go.id/tdpse-detail/2074",
            "website": "pari.co.id"
        },
        {
            "id": "9cb1ab6c-a596-471b-8a57-cf08027ed8c5",
            "nama_pse": "MEGA SHOPINTAR INDONESIA",
            "nama_se": "ATOME",
            "sektor": "Sektor Teknologi Informasi dan Komunikasi, Sektor Teknologi Informasi dan Komunikasi, Sektor Teknologi Informasi dan Komunikasi",
            "tanggal_terbit": "2021-08-09",
            "url_tdpse_detail": "https://pse.komdigi.go.id/tdpse-detail/1862",
            "website": "shop.atome.id"
        },
        {
            "id": "9cb1ab6f-d7de-444f-bd75-aa6a1cf9da03",
            "nama_pse": "MEDIGO TEKNOLOGI KESEHATAN",
            "nama_se": "KLINIK PINTAR",
            "sektor": "Sektor Kesehatan, Sektor Kesehatan, Sektor Kesehatan, Sektor Teknologi Informasi dan Komunikasi, Sektor Teknologi Informasi dan Komunikasi, Sektor Teknologi Informasi dan Komunikasi",
            "tanggal_terbit": "2021-07-29",
            "url_tdpse_detail": "https://pse.komdigi.go.id/tdpse-detail/1821",
            "website": "klinikpintar.id"
        },
        {
            "id": "9cb1ab95-2a02-487b-a7cc-b719fff106ba",
            "nama_pse": "SIMPAN PINJAM EKA SETIA NUSANTARA",
            "nama_se": "DANA RINGAN",
            "sektor": "Sektor Keuangan",
            "tanggal_terbit": "2021-07-22",
            "url_tdpse_detail": "https://pse.komdigi.go.id/tdpse-detail/1765",
            "website": "danaringan.com"
        },
        {
            "id": "9cb1ab95-2cfd-4543-bc8a-3ee0a5beb79f",
            "nama_pse": "SIMPAN PINJAM DANA SENJA INDONESIA",
            "nama_se": "RUPIAH EMAS",
            "sektor": "Sektor Keuangan",
            "tanggal_terbit": "2021-07-22",
            "url_tdpse_detail": "https://pse.komdigi.go.id/tdpse-detail/1751",
            "website": "rupiahemas.com"
        },
        {
            "id": "9cb1aba1-5867-4286-b630-96aa2d5cfb74",
            "nama_pse": "SIMPAN PINJAM DANA CEPAT CAIR",
            "nama_se": "KOTAK UANG",
            "sektor": "Sektor Keuangan",
            "tanggal_terbit": "2021-07-22",
            "url_tdpse_detail": "https://pse.komdigi.go.id/tdpse-detail/1750",
            "website": "kotakuang.com"
        },
        {
            "id": "9cb1aba1-5ab5-47b7-bd30-5e71330dbb56",
            "nama_pse": "SIMPAN PINJAM COINKU INDONESIA BERSAMA",
            "nama_se": "COINKU",
            "sektor": "Sektor Keuangan",
            "tanggal_terbit": "2021-07-15",
            "url_tdpse_detail": "https://pse.komdigi.go.id/tdpse-detail/1704",
            "website": "coinku.com"
        },
        {
            "id": "9cb1ab7e-7e71-422a-a484-e868db021c3f",
            "nama_pse": "WAHANA OTTOMITRA MULTIARTHA TBK",
            "nama_se": "KAWAN",
            "sektor": "Sektor Keuangan, Sektor Keuangan",
            "tanggal_terbit": "2021-07-08",
            "url_tdpse_detail": "https://pse.komdigi.go.id/tdpse-detail/1658",
            "website": "-"
        },
        {
            "id": "9cb1ab8d-ff8f-4ddb-aae7-21050aa342fd",
            "nama_pse": "WAHANA OTTOMITRA MULTIARTHA TBK",
            "nama_se": "KAWAN SUPPLIER \u0026 AGENT",
            "sektor": "Sektor Keuangan, Sektor Keuangan",
            "tanggal_terbit": "2021-07-08",
            "url_tdpse_detail": "https://pse.komdigi.go.id/tdpse-detail/1662",
            "website": "mitraku.wom.co.id"
        },
        {
            "id": "9cb1ab75-1ae0-45b1-9467-a378417bfe56",
            "nama_pse": "VERTIKA TECHNOLOGIES NUSANTARA",
            "nama_se": "REY",
            "sektor": "Sektor Keuangan, Sektor Keuangan, Sektor Kesehatan, Sektor Kesehatan, Sektor Teknologi Informasi dan Komunikasi, Sektor Teknologi Informasi dan Komunikasi",
            "tanggal_terbit": "2021-07-08",
            "url_tdpse_detail": "https://pse.komdigi.go.id/tdpse-detail/1665",
            "website": "rey.id"
        },
        {
            "id": "9cb1aba9-e733-460e-8b49-07aee3dc611e",
            "nama_pse": "SUPER SATU INDONESIA",
            "nama_se": "SUPERONE",
            "sektor": "Sektor Teknologi Informasi dan Komunikasi, Sektor Teknologi Informasi dan Komunikasi, Sektor Teknologi Informasi dan Komunikasi, Sektor Teknologi Informasi dan Komunikasi, Sektor Teknologi Informasi dan Komunikasi",
            "tanggal_terbit": "2021-07-05",
            "url_tdpse_detail": "https://pse.komdigi.go.id/tdpse-detail/1642",
            "website": "super.one"
        },
        {
            "id": "9cb1ab6e-6db1-42e2-858e-ff946c7dd2b3",
            "nama_pse": "COBAS PERKAKAS JAYA",
            "nama_se": "COBASSTORE.CO.ID",
            "sektor": "Sektor Perdagangan, Sektor Perdagangan",
            "tanggal_terbit": "2021-07-05",
            "url_tdpse_detail": "https://pse.komdigi.go.id/tdpse-detail/1643",
            "website": "Cobasstore.co.id"
        },
        {
            "id": "9cb1ab74-8083-43aa-a01d-70ef345ef958",
            "nama_pse": "SAMUEL KRIPTO INDONESIA",
            "nama_se": "VONIX",
            "sektor": "Sektor Perdagangan, Sektor Perdagangan, Sektor Teknologi Informasi dan Komunikasi, Sektor Teknologi Informasi dan Komunikasi",
            "tanggal_terbit": "2021-06-25",
            "url_tdpse_detail": "https://pse.komdigi.go.id/tdpse-detail/1597",
            "website": "-"
        }
    ],
    "processingTimeMs": 1,
    "query": "",
    "totalHits": 248,
    "hitsPerPage": 50,
    "page": 4,
    "totalPages": 5
}