{
    "hits": [
        {
            "id": "9cb1abfe-74f7-4c03-80b6-b4d53a8a426e",
            "nama_pse": "TRIBUN DIGITAL JATIM",
            "nama_se": "SURYAMALANG.COM",
            "sektor": "Sektor Teknologi Informasi dan Komunikasi",
            "tanggal_terbit": "2022-08-22",
            "url_tdpse_detail": "https://pse.komdigi.go.id/tdpse-detail/10650",
            "website": "suryamalang.com"
        },
        {
            "id": "9cb1abd8-c2cf-4aaf-9720-bf6669cccd5d",
            "nama_pse": "TRIBUN DIGITAL MALUKU",
            "nama_se": "TRIBUNAMBON.COM",
            "sektor": "Sektor Teknologi Informasi dan Komunikasi",
            "tanggal_terbit": "2022-08-22",
            "url_tdpse_detail": "https://pse.komdigi.go.id/tdpse-detail/10651",
            "website": "tribunambon.com"
        },
        {
            "id": "9cb1abfe-782a-4c19-b5f7-b1bb949c91aa",
            "nama_pse": "TRANSNUSA AVIATION MANDIRI",
            "nama_se": "INTERNET BOOKING ENGINE (IBE) TRANSNUSA",
            "sektor": "Sektor Transportasi",
            "tanggal_terbit": "2022-08-22",
            "url_tdpse_detail": "https://pse.komdigi.go.id/tdpse-detail/10652",
            "website": "transnusa.co.id"
        },
        {
            "id": "9cb1abfe-7b7a-4cb7-90f6-fb09a8251bb5",
            "nama_pse": "BANK PEMBIAYAAN RAKYAT SYARIAH ANNISA MUKTI",
            "nama_se": "AM CBS",
            "sektor": "Sektor Keuangan",
            "tanggal_terbit": "2022-08-22",
            "url_tdpse_detail": "https://pse.komdigi.go.id/tdpse-detail/10655",
            "website": "annisamukti.co.id"
        },
        {
            "id": "9cb1abfe-7eb6-4e61-b798-7ce10d773af1",
            "nama_pse": "BANK PEREKONOMIAN RAKYAT SYARIAH ARTHA MAS ABADI",
            "nama_se": "IBA BPRS ARTHA MAS ABADI",
            "sektor": "Sektor Keuangan",
            "tanggal_terbit": "2022-08-22",
            "url_tdpse_detail": "https://pse.komdigi.go.id/tdpse-detail/10656",
            "website": "bprsarthamasabadi.co.id"
        },
        {
            "id": "9cb1ac0d-6942-40d8-a4b7-9ff1cda43bbe",
            "nama_pse": "BANK PEMBIAYAAN RAKYAT SYARIAH RAHMAH HIJRAH AGUNG",
            "nama_se": "ALTERNATE APPS SYARIAH",
            "sektor": "Sektor Keuangan",
            "tanggal_terbit": "2022-08-22",
            "url_tdpse_detail": "https://pse.komdigi.go.id/tdpse-detail/10657",
            "website": "bprsrahmah.com"
        },
        {
            "id": "9cb1abd8-c5d5-4f81-9251-307fdad6db46",
            "nama_pse": "BANK PERKREDITAN RAKYAT MURIA HARTA NUSANTARA",
            "nama_se": "WEB SITE",
            "sektor": "Sektor Keuangan",
            "tanggal_terbit": "2022-08-22",
            "url_tdpse_detail": "https://pse.komdigi.go.id/tdpse-detail/10659",
            "website": "bprmhn.com"
        },
        {
            "id": "9cb1abfe-81f3-40bc-9aed-c5956ad2595e",
            "nama_pse": "DELIMA PANDU BERJAYA",
            "nama_se": "ECOMMERCE PERFECT HEALTH",
            "sektor": "Sektor Perdagangan",
            "tanggal_terbit": "2022-08-22",
            "url_tdpse_detail": "https://pse.komdigi.go.id/tdpse-detail/10662",
            "website": "perfecthealth.co.id"
        },
        {
            "id": "9cb1abd8-c8bf-44d8-9f6f-164ed971f15a",
            "nama_pse": "INTIMAP",
            "nama_se": "INTELLITRAC GPS",
            "sektor": "Sektor Perdagangan, Sektor Teknologi Informasi dan Komunikasi",
            "tanggal_terbit": "2022-08-22",
            "url_tdpse_detail": "https://pse.komdigi.go.id/tdpse-detail/10660",
            "website": "intellitrac.co.id"
        },
        {
            "id": "9cb1ac0d-6c53-425d-9141-1ef7fe8af698",
            "nama_pse": "BANK PEREKONOMIAN RAKYAT BALONGPANGGANG SENTOSA",
            "nama_se": "HTTPS://WWW.BPRBALONGPANGGANGSENTOSA.CO.ID/",
            "sektor": "Sektor Keuangan",
            "tanggal_terbit": "2022-08-22",
            "url_tdpse_detail": "https://pse.komdigi.go.id/tdpse-detail/10661",
            "website": "bprbalongpanggangsentosa.co.id"
        },
        {
            "id": "9cb1abd8-cc7d-46ee-89fa-fc8e591152f7",
            "nama_pse": "BANK PEREKONOMIAN RAKYAT SYARIAH ASAD ALIF",
            "nama_se": "BPRS ASAD ALIF",
            "sektor": "Sektor Keuangan",
            "tanggal_terbit": "2022-08-22",
            "url_tdpse_detail": "https://pse.komdigi.go.id/tdpse-detail/10663",
            "website": "bprsasadalif.com"
        },
        {
            "id": "9cb1abfe-86e9-4f86-b7ea-0980b2a58b38",
            "nama_pse": "BINTANG CAKRA KREASI",
            "nama_se": "CV BINTANG CAKRA KREASI",
            "sektor": "Sektor Perdagangan, Sektor Teknologi Informasi dan Komunikasi",
            "tanggal_terbit": "2022-08-22",
            "url_tdpse_detail": "https://pse.komdigi.go.id/tdpse-detail/10664",
            "website": "-"
        },
        {
            "id": "9cb1abfe-8a36-40d5-b4cf-42f6def1b191",
            "nama_pse": "KILAT HALILINTAR INDONESIA",
            "nama_se": "KILAT",
            "sektor": "Sektor Perdagangan, Sektor Transportasi, Sektor Teknologi Informasi dan Komunikasi",
            "tanggal_terbit": "2022-08-22",
            "url_tdpse_detail": "https://pse.komdigi.go.id/tdpse-detail/10666",
            "website": "-"
        },
        {
            "id": "9cb1abfe-8d43-4d06-8125-7eb1c2390bf4",
            "nama_pse": "PERUSAHAAN GAS NEGARA",
            "nama_se": "PGN OFFICIAL WEBSITE",
            "sektor": "Sektor Energi dan Sumber Daya Mineral",
            "tanggal_terbit": "2022-08-22",
            "url_tdpse_detail": "https://pse.komdigi.go.id/tdpse-detail/10677",
            "website": "pgn.co.id"
        },
        {
            "id": "9cb1ac0d-6f44-438d-9e05-205e78c508ec",
            "nama_pse": "PROSPERITA SISTEM INDONESIA",
            "nama_se": "SPAMCLEANER",
            "sektor": "Sektor Teknologi Informasi dan Komunikasi",
            "tanggal_terbit": "2022-08-22",
            "url_tdpse_detail": "https://pse.komdigi.go.id/tdpse-detail/10667",
            "website": "spamcleaner.id"
        },
        {
            "id": "9cb1ac0d-7236-4379-b905-d5d7a0dcf79d",
            "nama_pse": "BANK PEREKONOMIAN RAKYAT SYARIAH MITRA HARMONI KOTA BANDUNG",
            "nama_se": "BPRS MITRA HARMONI KOTA BANDUNG",
            "sektor": "Sektor Keuangan",
            "tanggal_terbit": "2022-08-22",
            "url_tdpse_detail": "https://pse.komdigi.go.id/tdpse-detail/10669",
            "website": "bprsmh-bandung.com"
        },
        {
            "id": "9cb1abd8-d06c-416c-a0ea-85a34aa35987",
            "nama_pse": "PROSPERITA SISTEM INDONESIA",
            "nama_se": "AWANPINTAR",
            "sektor": "Sektor Teknologi Informasi dan Komunikasi",
            "tanggal_terbit": "2022-08-22",
            "url_tdpse_detail": "https://pse.komdigi.go.id/tdpse-detail/10671",
            "website": "awanpintar.id"
        },
        {
            "id": "9cb1abd8-d693-4c51-9302-dccaa11bb31a",
            "nama_pse": "GENERASI PAHAM INVESTASI",
            "nama_se": "AYO VEST",
            "sektor": "Sektor Keuangan, Sektor Teknologi Informasi dan Komunikasi",
            "tanggal_terbit": "2022-08-22",
            "url_tdpse_detail": "https://pse.komdigi.go.id/tdpse-detail/10672",
            "website": "wayovest.id"
        },
        {
            "id": "9cb1abfe-9020-4f94-81b7-fd67d2727b09",
            "nama_pse": "SVARGA INDOMULIA MEDIATAMA",
            "nama_se": "VIUGRAPH",
            "sektor": "Sektor Teknologi Informasi dan Komunikasi",
            "tanggal_terbit": "2022-08-22",
            "url_tdpse_detail": "https://pse.komdigi.go.id/tdpse-detail/10673",
            "website": "viugraph.com"
        },
        {
            "id": "9cb1ac0d-755e-4c35-9f49-a4ce2abf445a",
            "nama_pse": "PROSPERITA SISTEM INDONESIA",
            "nama_se": "VIMANAMAIL",
            "sektor": "Sektor Teknologi Informasi dan Komunikasi",
            "tanggal_terbit": "2022-08-22",
            "url_tdpse_detail": "https://pse.komdigi.go.id/tdpse-detail/10674",
            "website": "vimanamail.id"
        },
        {
            "id": "9cb1ac0d-7c11-4958-8c75-05dc982608a8",
            "nama_pse": "GLOBAL BUANA KARYA",
            "nama_se": "META TRADE 5",
            "sektor": "Sektor Perdagangan",
            "tanggal_terbit": "2022-08-22",
            "url_tdpse_detail": "https://pse.komdigi.go.id/tdpse-detail/10675",
            "website": "globalbuanakarya.com"
        },
        {
            "id": "9cb1abd8-e079-499a-8316-29c42c803273",
            "nama_pse": "BINTANG NUSANTARA FAMILY",
            "nama_se": "WWW.BINNEWSTV.COM",
            "sektor": "Sektor Teknologi Informasi dan Komunikasi",
            "tanggal_terbit": "2022-08-22",
            "url_tdpse_detail": "https://pse.komdigi.go.id/tdpse-detail/10676",
            "website": "binnewstv.com"
        },
        {
            "id": "9cb1ac0d-7f6f-4977-8662-73c018bd4b39",
            "nama_pse": "BISMACINDO PERKASA",
            "nama_se": "ECKLIK",
            "sektor": "Sektor Perdagangan",
            "tanggal_terbit": "2022-08-22",
            "url_tdpse_detail": "https://pse.komdigi.go.id/tdpse-detail/10679",
            "website": "ecklik.com"
        },
        {
            "id": "9cb1abfe-9345-4e21-905b-2657a639e4a4",
            "nama_pse": "SPOT DIGI KRIPTO",
            "nama_se": "SPOT DIGI",
            "sektor": "Sektor Perdagangan",
            "tanggal_terbit": "2022-08-22",
            "url_tdpse_detail": "https://pse.komdigi.go.id/tdpse-detail/10678",
            "website": "spotdigi.id"
        },
        {
            "id": "9cb1abd8-e41e-4431-8e35-dd55d859231f",
            "nama_pse": "INFINESSE SEMPURNA ABADI",
            "nama_se": "INFINESSEGLOBAL.COM",
            "sektor": "Sektor Perdagangan",
            "tanggal_terbit": "2022-08-22",
            "url_tdpse_detail": "https://pse.komdigi.go.id/tdpse-detail/10680",
            "website": "infinesseglobal.com"
        },
        {
            "id": "9cb1abfe-a59f-4d27-94b9-2444b3962f15",
            "nama_pse": "RANARA CREATIVE STUDIO",
            "nama_se": "WEPOS",
            "sektor": "Sektor Perdagangan, Sektor Teknologi Informasi dan Komunikasi",
            "tanggal_terbit": "2022-08-22",
            "url_tdpse_detail": "https://pse.komdigi.go.id/tdpse-detail/10686",
            "website": "wepos.id"
        },
        {
            "id": "9cb1abe9-cb03-40b8-87b0-8c33357a0d49",
            "nama_pse": "BURSA EFEK INDONESIA",
            "nama_se": "WEBSITE PASAR MODAL SYARIAH",
            "sektor": "Sektor Keuangan",
            "tanggal_terbit": "2022-08-22",
            "url_tdpse_detail": "https://pse.komdigi.go.id/tdpse-detail/7448",
            "website": "idxislamic.idx.co.id"
        },
        {
            "id": "9cb1ac0d-5b89-48ba-a0e9-efad7e930686",
            "nama_pse": "BIG DEAL CREATIVE",
            "nama_se": "AKTIVITAS PEMROGRAMAN KOMPUTER LAINNYA",
            "sektor": "Sektor Teknologi Informasi dan Komunikasi",
            "tanggal_terbit": "2022-08-21",
            "url_tdpse_detail": "https://pse.komdigi.go.id/tdpse-detail/10642",
            "website": "-"
        },
        {
            "id": "9cb1abd8-ab0e-4249-b5a9-a6638034c137",
            "nama_pse": "MUHAMMAD FERDINANSYAH ARIGHI",
            "nama_se": "AURORASHINE DIGITAL INVITATION",
            "sektor": "Sektor Teknologi Informasi dan Komunikasi",
            "tanggal_terbit": "2022-08-21",
            "url_tdpse_detail": "https://pse.komdigi.go.id/tdpse-detail/10643",
            "website": "aurorashine.id"
        },
        {
            "id": "9cb1ac0d-5f0a-4745-9a3b-751b19489e74",
            "nama_pse": "DIEMASIN MAKMUR SENTOSA",
            "nama_se": "DIEMASIN MAKMUR SENTOSA",
            "sektor": "Sektor Perdagangan",
            "tanggal_terbit": "2022-08-21",
            "url_tdpse_detail": "https://pse.komdigi.go.id/tdpse-detail/10644",
            "website": "diemasin.com"
        },
        {
            "id": "9cb1abd8-b52f-49ef-8222-c1465cb9126e",
            "nama_pse": "MUHAMMAD FERDINANSYAH ARIGHI",
            "nama_se": "AURORASHINE DIGITAL INVITATION FOR BUSINESS",
            "sektor": "Sektor Teknologi Informasi dan Komunikasi",
            "tanggal_terbit": "2022-08-21",
            "url_tdpse_detail": "https://pse.komdigi.go.id/tdpse-detail/10645",
            "website": "aurorashine.biz"
        },
        {
            "id": "9cb1abd8-b915-423b-a605-713cb43fd180",
            "nama_pse": "SPEEDWORK SOLUSI UTAMA",
            "nama_se": "SPEEDWORK AUTOCARE",
            "sektor": "Sektor Perdagangan",
            "tanggal_terbit": "2022-08-21",
            "url_tdpse_detail": "https://pse.komdigi.go.id/tdpse-detail/10646",
            "website": "speedwork.id"
        },
        {
            "id": "9cb1abd8-8c9d-4a62-9b6e-65de0b0c2430",
            "nama_pse": "BUNYAMIN",
            "nama_se": "NAYA PRINTING",
            "sektor": "Sektor Perdagangan, Sektor Teknologi Informasi dan Komunikasi",
            "tanggal_terbit": "2022-08-20",
            "url_tdpse_detail": "https://pse.komdigi.go.id/tdpse-detail/10630",
            "website": "-"
        },
        {
            "id": "9cb1abfe-5e47-4453-992f-e31b15e56ff9",
            "nama_pse": "BANK PEMBIAYAAN RAKYAT SYARIAH LANTABUR TEBUIRENG",
            "nama_se": "LANTABUR MOBILE",
            "sektor": "Sektor Keuangan",
            "tanggal_terbit": "2022-08-20",
            "url_tdpse_detail": "https://pse.komdigi.go.id/tdpse-detail/10632",
            "website": "bprslantabur.id"
        },
        {
            "id": "9cb1ac0d-40c1-4e86-9888-14d8de03de26",
            "nama_pse": "CITRA MUTIARA CENDEKIA",
            "nama_se": "HALO-GURU",
            "sektor": "Sektor Teknologi Informasi dan Komunikasi",
            "tanggal_terbit": "2022-08-20",
            "url_tdpse_detail": "https://pse.komdigi.go.id/tdpse-detail/10633",
            "website": "halo-guru.com"
        },
        {
            "id": "9cb1ac0d-5881-4c67-8e9e-ddffd4dc6944",
            "nama_pse": "BANK PEMBIAYAAN RAKYAT SYARIAH BAROKAH DANA SEJAHTERA",
            "nama_se": "ISLAMIC BANKING APPLICATION (IBA)",
            "sektor": "Sektor Keuangan",
            "tanggal_terbit": "2022-08-20",
            "url_tdpse_detail": "https://pse.komdigi.go.id/tdpse-detail/10635",
            "website": "-"
        },
        {
            "id": "9cb1abfe-637c-4478-bc3d-bacf0bd2196b",
            "nama_pse": "MINARSIH SUMBER REJEKI",
            "nama_se": "MINARSIH TECH",
            "sektor": "Sektor Teknologi Informasi dan Komunikasi",
            "tanggal_terbit": "2022-08-20",
            "url_tdpse_detail": "https://pse.komdigi.go.id/tdpse-detail/10636",
            "website": "minarsih.com"
        },
        {
            "id": "9cb1abd8-95b9-4964-b402-1b36729cf337",
            "nama_pse": "SENI JULIA MUFIDAH",
            "nama_se": "SENI",
            "sektor": "Sektor Perdagangan",
            "tanggal_terbit": "2022-08-20",
            "url_tdpse_detail": "https://pse.komdigi.go.id/tdpse-detail/10637",
            "website": "-"
        },
        {
            "id": "9cb1abfe-66c1-4c6f-aae7-ce219ba2f6c2",
            "nama_pse": "MUHAMAD SYAEFUL BAHRI",
            "nama_se": "GOHAI",
            "sektor": "Sektor Teknologi Informasi dan Komunikasi",
            "tanggal_terbit": "2022-08-20",
            "url_tdpse_detail": "https://pse.komdigi.go.id/tdpse-detail/10638",
            "website": "klikgohai.com"
        },
        {
            "id": "9cb1abd8-9d10-47b3-bca9-73bed539818f",
            "nama_pse": "SAEFUL AMRON",
            "nama_se": "JEKSTAR",
            "sektor": "Sektor Perdagangan, Sektor Transportasi, Sektor Teknologi Informasi dan Komunikasi",
            "tanggal_terbit": "2022-08-20",
            "url_tdpse_detail": "https://pse.komdigi.go.id/tdpse-detail/10639",
            "website": "-"
        },
        {
            "id": "9cb1ac0c-775d-4b93-a58e-6bd7b5e2143f",
            "nama_pse": "Perum BULOG",
            "nama_se": "BOSS FOOD",
            "sektor": "Sektor Perdagangan",
            "tanggal_terbit": "2022-08-19",
            "url_tdpse_detail": "https://pse.komdigi.go.id/tdpse-detail/10610",
            "website": "bossfood.co.id"
        },
        {
            "id": "9cb1abd7-e192-4192-a3cd-769e7b9684aa",
            "nama_pse": "BANK PEMBANGUNAN DAERAH SUMATERA SELATAN DAN BANGKA BELITUNG",
            "nama_se": "LAYANAN CUSTOMER ON BOARDING",
            "sektor": "Sektor Keuangan",
            "tanggal_terbit": "2022-08-19",
            "url_tdpse_detail": "https://pse.komdigi.go.id/tdpse-detail/10489",
            "website": "banksumselbabel.com"
        },
        {
            "id": "9cb1abd7-faad-4d48-b41a-22fd926f5b7c",
            "nama_pse": "BANK PEMBANGUNAN DAERAH SUMATERA SELATAN DAN BANGKA BELITUNG",
            "nama_se": "LAYANAN SANDBOX OPEN API BANK SUMSELBABEL",
            "sektor": "Sektor Keuangan",
            "tanggal_terbit": "2022-08-19",
            "url_tdpse_detail": "https://pse.komdigi.go.id/tdpse-detail/10492",
            "website": "banksumselbabel.com"
        },
        {
            "id": "9cb1abfe-2521-410b-a7e3-2f05728d49e8",
            "nama_pse": "EDUKASI KALANANTI INDONESIA",
            "nama_se": "KALANANTI",
            "sektor": "Sektor Perdagangan, Sektor Teknologi Informasi dan Komunikasi",
            "tanggal_terbit": "2022-08-19",
            "url_tdpse_detail": "https://pse.komdigi.go.id/tdpse-detail/10550",
            "website": "kalananti.id"
        },
        {
            "id": "9cb1ac0c-ee70-4fdd-ac76-2d20beec8f5f",
            "nama_pse": "ASURANSI KERUGIAN JASA RAHARJA",
            "nama_se": "JR SAFETY ROAD",
            "sektor": "Sektor Keuangan",
            "tanggal_terbit": "2022-08-19",
            "url_tdpse_detail": "https://pse.komdigi.go.id/tdpse-detail/10548",
            "website": "-"
        },
        {
            "id": "9cb1abd8-384f-4380-9beb-7ecb9e7a503e",
            "nama_pse": "SELALU SIAP SOLUSI",
            "nama_se": "KIRIMINAJA APLIKASI MULTI EKSPEDISI",
            "sektor": "Sektor Teknologi Informasi dan Komunikasi",
            "tanggal_terbit": "2022-08-19",
            "url_tdpse_detail": "https://pse.komdigi.go.id/tdpse-detail/10549",
            "website": "kiriminaja.com"
        },
        {
            "id": "9cb1abd8-3dab-4511-b303-8c73e3f72967",
            "nama_pse": "PARTNER IMPIAN MILENIAL",
            "nama_se": "SCHOTERS",
            "sektor": "Sektor Perdagangan, Sektor Teknologi Informasi dan Komunikasi",
            "tanggal_terbit": "2022-08-19",
            "url_tdpse_detail": "https://pse.komdigi.go.id/tdpse-detail/10558",
            "website": "schoters.com"
        },
        {
            "id": "9cb1ac0c-f4d5-43f4-bc75-6835cd623b93",
            "nama_pse": "CENTRAL MEGA KENCANA",
            "nama_se": "FRANK \u0026 CO. E-STORE",
            "sektor": "Sektor Perdagangan",
            "tanggal_terbit": "2022-08-19",
            "url_tdpse_detail": "https://pse.komdigi.go.id/tdpse-detail/10551",
            "website": "frankncojewellery.com"
        },
        {
            "id": "9cb1ac0c-f80d-416c-be3a-46f959460158",
            "nama_pse": "CITRA WAHANA TEKNOLOGI",
            "nama_se": "MILLEALAB",
            "sektor": "Sektor Teknologi Informasi dan Komunikasi",
            "tanggal_terbit": "2022-08-19",
            "url_tdpse_detail": "https://pse.komdigi.go.id/tdpse-detail/10553",
            "website": "millealab.com"
        },
        {
            "id": "9cb1abd8-41eb-4251-b7bb-42de7a56e09d",
            "nama_pse": "CENTRAL MEGA KENCANA",
            "nama_se": "MONDIAL E-STORE",
            "sektor": "Sektor Perdagangan",
            "tanggal_terbit": "2022-08-19",
            "url_tdpse_detail": "https://pse.komdigi.go.id/tdpse-detail/10557",
            "website": "mondialjeweler.com"
        }
    ],
    "processingTimeMs": 2,
    "query": "",
    "totalHits": 19131,
    "hitsPerPage": 50,
    "page": 194,
    "totalPages": 383
}