{
    "hits": [
        {
            "id": "9cb1ac1a-0070-4961-9411-37f9a701999a",
            "nama_pse": "SARANA KALTIM VENTURA",
            "nama_se": "FLMS",
            "sektor": "Sektor Keuangan",
            "tanggal_terbit": "2022-12-30",
            "url_tdpse_detail": "https://pse.komdigi.go.id/tdpse-detail/13378",
            "website": "-"
        },
        {
            "id": "9cb1ac2a-fb81-4df3-9329-0338175c9c11",
            "nama_pse": "ONE ENERGY MULTI",
            "nama_se": "ONE ENERGY MULTI",
            "sektor": "Sektor Perdagangan",
            "tanggal_terbit": "2022-12-30",
            "url_tdpse_detail": "https://pse.komdigi.go.id/tdpse-detail/13379",
            "website": "aliglobalmart.com"
        },
        {
            "id": "9cb1ac18-4bbd-49f4-9457-042df6594bf8",
            "nama_pse": "CIPTAKARYA MEDIA ABADI",
            "nama_se": "SLTV.CO.ID",
            "sektor": "Sektor Teknologi Informasi dan Komunikasi",
            "tanggal_terbit": "2022-12-30",
            "url_tdpse_detail": "https://pse.komdigi.go.id/tdpse-detail/13380",
            "website": "sltv.co.id"
        },
        {
            "id": "9cb1ac1a-1fb4-48b7-a8bd-4fc6e52fc070",
            "nama_pse": "GIMSAK TEKNOLOGI INDONESIA",
            "nama_se": "GIMSAK",
            "sektor": "Sektor Teknologi Informasi dan Komunikasi",
            "tanggal_terbit": "2022-12-30",
            "url_tdpse_detail": "https://pse.komdigi.go.id/tdpse-detail/13381",
            "website": "gimsak.com"
        },
        {
            "id": "9cb1ac1a-22e0-4c64-bc9b-ad1c620e4998",
            "nama_pse": "JASALOKA KREATIVA MANDIRI",
            "nama_se": "EOLAPLUS.COM",
            "sektor": "Sektor Perdagangan",
            "tanggal_terbit": "2022-12-30",
            "url_tdpse_detail": "https://pse.komdigi.go.id/tdpse-detail/13382",
            "website": "eolaplus.com"
        },
        {
            "id": "9cb1ac2a-db69-4504-ba92-6fbe84332ce6",
            "nama_pse": "AGUNG REMITTANCE GLOBAL",
            "nama_se": "A-PAY",
            "sektor": "Sektor Keuangan",
            "tanggal_terbit": "2022-12-29",
            "url_tdpse_detail": "https://pse.komdigi.go.id/tdpse-detail/13366",
            "website": "arg.co.id"
        },
        {
            "id": "9cb1ac18-3bda-4496-8c0f-4a61d479cfcb",
            "nama_pse": "USAHA NURSERY APKASINDO SIJUNJUNG",
            "nama_se": "CV USAHA NURSERY APKASINDO SIJUNJUNG",
            "sektor": "Sektor Perdagangan",
            "tanggal_terbit": "2022-12-29",
            "url_tdpse_detail": "https://pse.komdigi.go.id/tdpse-detail/13360",
            "website": "-"
        },
        {
            "id": "9cb1ac19-ef3f-4c91-8949-5bcc7b614077",
            "nama_pse": "META PETA INDONESIA",
            "nama_se": "IDMETA EKYC",
            "sektor": "Sektor Teknologi Informasi dan Komunikasi",
            "tanggal_terbit": "2022-12-29",
            "url_tdpse_detail": "https://pse.komdigi.go.id/tdpse-detail/13365",
            "website": "-"
        },
        {
            "id": "9cb1ac18-455a-4253-8536-5c1c19f9d390",
            "nama_pse": "SINERGI TEKNO CIPTA",
            "nama_se": "JOB2GO CAREER",
            "sektor": "Sektor Teknologi Informasi dan Komunikasi",
            "tanggal_terbit": "2022-12-29",
            "url_tdpse_detail": "https://pse.komdigi.go.id/tdpse-detail/13367",
            "website": "job2go.net"
        },
        {
            "id": "9cb1ac2a-e867-464e-a376-e1af50a280cd",
            "nama_pse": "WALEPAY FINANSIAL TEKNOLOGI",
            "nama_se": "WALEPAY",
            "sektor": "Sektor Teknologi Informasi dan Komunikasi",
            "tanggal_terbit": "2022-12-29",
            "url_tdpse_detail": "https://pse.komdigi.go.id/tdpse-detail/13368",
            "website": "-"
        },
        {
            "id": "9cb1ac2a-ebec-4462-aa7c-00841742e1ea",
            "nama_pse": "PERTAMINA HULU ENERGI",
            "nama_se": "PORTAL PERTAMINA HULU ENERGI",
            "sektor": "Sektor Energi dan Sumber Daya Mineral",
            "tanggal_terbit": "2022-12-29",
            "url_tdpse_detail": "https://pse.komdigi.go.id/tdpse-detail/13369",
            "website": "phe.pertamina.com"
        },
        {
            "id": "9cb1ac18-484a-46da-bda3-c8a015e5bbc4",
            "nama_pse": "DOLLI",
            "nama_se": "BARU STATIONARY",
            "sektor": "Sektor Perdagangan",
            "tanggal_terbit": "2022-12-29",
            "url_tdpse_detail": "https://pse.komdigi.go.id/tdpse-detail/13370",
            "website": "-"
        },
        {
            "id": "9cb1ac2a-f0bb-4207-9149-66a60bd9d50e",
            "nama_pse": "SPRINT ASIA TECHNOLOGY",
            "nama_se": "JUMIENTEN SPRINT",
            "sektor": "Sektor Teknologi Informasi dan Komunikasi",
            "tanggal_terbit": "2022-12-29",
            "url_tdpse_detail": "https://pse.komdigi.go.id/tdpse-detail/13371",
            "website": "sprintasia.co.id"
        },
        {
            "id": "9cb1ac1a-0410-46b0-a12b-aecff838e9b8",
            "nama_pse": "IKANESIA NUSANTARA AKUAMARIN",
            "nama_se": "IKANESIA",
            "sektor": "Sektor Perdagangan",
            "tanggal_terbit": "2022-12-29",
            "url_tdpse_detail": "https://pse.komdigi.go.id/tdpse-detail/13372",
            "website": "ikanesia.com"
        },
        {
            "id": "9cb1ac2a-f54d-48dc-97f2-9a23ee4faba7",
            "nama_pse": "PARADISO MITRA WISATA",
            "nama_se": "PARADISO TOUR",
            "sektor": "Sektor Perdagangan, Sektor Transportasi",
            "tanggal_terbit": "2022-12-29",
            "url_tdpse_detail": "https://pse.komdigi.go.id/tdpse-detail/13373",
            "website": "paradisotour.co.id"
        },
        {
            "id": "9cb1ac1a-0785-40f1-92b8-f68393e85c41",
            "nama_pse": "PARADISO MITRA WISATA",
            "nama_se": "HIACESEMARANG.ID",
            "sektor": "Sektor Transportasi",
            "tanggal_terbit": "2022-12-29",
            "url_tdpse_detail": "https://pse.komdigi.go.id/tdpse-detail/13374",
            "website": "hiacesemarang.id"
        },
        {
            "id": "9cb1ac1a-0ade-42c3-8a7d-77a2ccb9f953",
            "nama_pse": "PARADISO MITRA WISATA",
            "nama_se": "KARIMUNJAWA.CO",
            "sektor": "Sektor Perdagangan, Sektor Transportasi",
            "tanggal_terbit": "2022-12-29",
            "url_tdpse_detail": "https://pse.komdigi.go.id/tdpse-detail/13375",
            "website": "karimunjawa.co"
        },
        {
            "id": "9cb1ac1a-0df7-48ae-9479-65984865750e",
            "nama_pse": "CIPTAKARYA MEDIA ABADI",
            "nama_se": "PT CIPTAKARYA MEDIA ABADI",
            "sektor": "Sektor Teknologi Informasi dan Komunikasi",
            "tanggal_terbit": "2022-12-29",
            "url_tdpse_detail": "https://pse.komdigi.go.id/tdpse-detail/13376",
            "website": "suaralampung.com"
        },
        {
            "id": "9cb1ac1a-10e9-471f-8f34-3c2515680ae1",
            "nama_pse": "EASY MOBILE INDONESIA",
            "nama_se": "EASY MOBILE INDONESIA",
            "sektor": "Sektor Perdagangan",
            "tanggal_terbit": "2022-12-29",
            "url_tdpse_detail": "https://pse.komdigi.go.id/tdpse-detail/13377",
            "website": "easymobile.com.tw"
        },
        {
            "id": "9cb1ac2a-7a29-41f1-bc4f-d987f3d42680",
            "nama_pse": "MUARA JUARA KREASI INDONESIA",
            "nama_se": "JUMPSTART.ID",
            "sektor": "Sektor Perdagangan",
            "tanggal_terbit": "2022-12-28",
            "url_tdpse_detail": "https://pse.komdigi.go.id/tdpse-detail/13353",
            "website": "jumpstart.id"
        },
        {
            "id": "9cb1ac19-92bd-4ac1-abae-3736844fa14b",
            "nama_pse": "TUMBUH DIMANA SADJA",
            "nama_se": "AKAR FARM",
            "sektor": "Sektor Perdagangan, Sektor Teknologi Informasi dan Komunikasi",
            "tanggal_terbit": "2022-12-28",
            "url_tdpse_detail": "https://pse.komdigi.go.id/tdpse-detail/13358",
            "website": "akar.farm"
        },
        {
            "id": "9cb1ac18-2141-4921-bbc3-7bd1c843f0b1",
            "nama_pse": "TROLIEE KARYA INDONESIA",
            "nama_se": "TROLIEE",
            "sektor": "Sektor Perdagangan",
            "tanggal_terbit": "2022-12-28",
            "url_tdpse_detail": "https://pse.komdigi.go.id/tdpse-detail/13356",
            "website": "troliee.com"
        },
        {
            "id": "9cb1ac18-2a73-4081-8646-2aab470024f7",
            "nama_pse": "TEADS INDONESIA ADVERTISING",
            "nama_se": "TEADS",
            "sektor": "Sektor Teknologi Informasi dan Komunikasi",
            "tanggal_terbit": "2022-12-28",
            "url_tdpse_detail": "https://pse.komdigi.go.id/tdpse-detail/13354",
            "website": "teads.com"
        },
        {
            "id": "9cb1ac18-2e3e-436a-9765-279be785bd9a",
            "nama_pse": "ELEKTRONIK VIRTUAL ASISTEN",
            "nama_se": "BOTEVA.ID",
            "sektor": "Sektor Teknologi Informasi dan Komunikasi",
            "tanggal_terbit": "2022-12-28",
            "url_tdpse_detail": "https://pse.komdigi.go.id/tdpse-detail/13355",
            "website": "boteva.id"
        },
        {
            "id": "9cb1ac19-dfaf-4c49-80db-7f531e5c1de3",
            "nama_pse": "META DIGITAL KREATIF",
            "nama_se": "META NEBULAS",
            "sektor": "Sektor Teknologi Informasi dan Komunikasi",
            "tanggal_terbit": "2022-12-28",
            "url_tdpse_detail": "https://pse.komdigi.go.id/tdpse-detail/13357",
            "website": "metanebulas.co.id"
        },
        {
            "id": "9cb1ac19-e322-457a-8f21-0352f7293f99",
            "nama_pse": "TITIK MUAT SEJAHTERA",
            "nama_se": "KOPRASI JASA MUAT TITIK SEJAHTERA",
            "sektor": "Sektor Perdagangan, Sektor Transportasi, Sektor Teknologi Informasi dan Komunikasi",
            "tanggal_terbit": "2022-12-28",
            "url_tdpse_detail": "https://pse.komdigi.go.id/tdpse-detail/13359",
            "website": "-"
        },
        {
            "id": "9cb1ac19-2e39-4d23-a2ba-a5c5b6f50690",
            "nama_pse": "PERSADA MAKMUR INDONESIA",
            "nama_se": "SHIRO.COM",
            "sektor": "Sektor Perdagangan",
            "tanggal_terbit": "2022-12-27",
            "url_tdpse_detail": "https://pse.komdigi.go.id/tdpse-detail/13351",
            "website": "shiro.com"
        },
        {
            "id": "9cb1ac18-1b11-4ee6-8220-88298a175d65",
            "nama_pse": "QUADRA BERKAH MAKSIMA",
            "nama_se": "MAXQUAD",
            "sektor": "Sektor Teknologi Informasi dan Komunikasi",
            "tanggal_terbit": "2022-12-27",
            "url_tdpse_detail": "https://pse.komdigi.go.id/tdpse-detail/13342",
            "website": "maxquad.id"
        },
        {
            "id": "9cb1ac19-d2a6-47f0-b040-a83eb444d2a1",
            "nama_pse": "PRIVASIA INTER DATA",
            "nama_se": "PRIVASIA API ENCRYPTOR CLIENT",
            "sektor": "Sektor Teknologi Informasi dan Komunikasi",
            "tanggal_terbit": "2022-12-27",
            "url_tdpse_detail": "https://pse.komdigi.go.id/tdpse-detail/13341",
            "website": "privasia.id"
        },
        {
            "id": "9cb1ac2a-c105-48ac-8619-c6164a5ccf4e",
            "nama_pse": "SAMPINGAN MITRA INDONESIA",
            "nama_se": "STAFFINC JOBS",
            "sektor": "Sektor Teknologi Informasi dan Komunikasi",
            "tanggal_terbit": "2022-12-27",
            "url_tdpse_detail": "https://pse.komdigi.go.id/tdpse-detail/13343",
            "website": "staffinc.co"
        },
        {
            "id": "9cb1ac2a-c8d8-462f-8e47-6cc860e2cf5d",
            "nama_pse": "SAMPINGAN MITRA INDONESIA",
            "nama_se": "STAFFINC WORK",
            "sektor": "Sektor Teknologi Informasi dan Komunikasi",
            "tanggal_terbit": "2022-12-27",
            "url_tdpse_detail": "https://pse.komdigi.go.id/tdpse-detail/13344",
            "website": "staffincsuite.co"
        },
        {
            "id": "9cb1ac19-d62b-41a6-a007-e21972c618f8",
            "nama_pse": "KSPPS BMT NUSA KARTIKA",
            "nama_se": "IBSS BRANCHLESS",
            "sektor": "Sektor Teknologi Informasi dan Komunikasi",
            "tanggal_terbit": "2022-12-27",
            "url_tdpse_detail": "https://pse.komdigi.go.id/tdpse-detail/13345",
            "website": "-"
        },
        {
            "id": "9cb1ac18-1e7a-47b8-97eb-05696392cd04",
            "nama_pse": "SAMPINGAN MITRA INDONESIA",
            "nama_se": "STAFFINC SUPERVISE",
            "sektor": "Sektor Teknologi Informasi dan Komunikasi",
            "tanggal_terbit": "2022-12-27",
            "url_tdpse_detail": "https://pse.komdigi.go.id/tdpse-detail/13346",
            "website": "-"
        },
        {
            "id": "9cb1ac2a-d061-4d6a-bbe0-1f9dfd0f2a58",
            "nama_pse": "SAMPINGAN MITRA INDONESIA",
            "nama_se": "STAFFINC SUITE",
            "sektor": "Sektor Teknologi Informasi dan Komunikasi",
            "tanggal_terbit": "2022-12-27",
            "url_tdpse_detail": "https://pse.komdigi.go.id/tdpse-detail/13347",
            "website": "-"
        },
        {
            "id": "9cb1ac2a-d469-424f-99be-69307fcb1e85",
            "nama_pse": "SHOPEE INTERNATIONAL INDONESIA",
            "nama_se": "SHOPEE LITE",
            "sektor": "Sektor Perdagangan",
            "tanggal_terbit": "2022-12-27",
            "url_tdpse_detail": "https://pse.komdigi.go.id/tdpse-detail/13348",
            "website": "lite.shopee.co.id"
        },
        {
            "id": "9cb1ac2a-d7da-4dc4-add0-9715f90fd0c0",
            "nama_pse": "META SINAR INTERNASIONAL",
            "nama_se": "PASPATH",
            "sektor": "Sektor Teknologi Informasi dan Komunikasi",
            "tanggal_terbit": "2022-12-27",
            "url_tdpse_detail": "https://pse.komdigi.go.id/tdpse-detail/13349",
            "website": "paspath.com"
        },
        {
            "id": "9cb1ac18-243a-4d5d-b5e1-789013571c4b",
            "nama_pse": "TARUNA MEGA NUSANTARA",
            "nama_se": "TMNSHOP",
            "sektor": "Sektor Perdagangan",
            "tanggal_terbit": "2022-12-27",
            "url_tdpse_detail": "https://pse.komdigi.go.id/tdpse-detail/13350",
            "website": "tarunameganusantara.shop"
        },
        {
            "id": "9cb1ac18-27a0-41dc-aaef-e77da2e9be0e",
            "nama_pse": "PERUSAHAAN PERSEROAN (PERSERO) PT. PELAYARAN NASIONAL INDONESIA",
            "nama_se": "PELNI MOBILE",
            "sektor": "Sektor Transportasi",
            "tanggal_terbit": "2022-12-27",
            "url_tdpse_detail": "https://pse.komdigi.go.id/tdpse-detail/13352",
            "website": "-"
        },
        {
            "id": "9cb1ac2a-5d71-481e-a0b3-874f5913b581",
            "nama_pse": "ZEN MULTIMEDIA INDONESIA",
            "nama_se": "SUARAKUNINGAN.COM",
            "sektor": "Sektor Teknologi Informasi dan Komunikasi",
            "tanggal_terbit": "2022-12-26",
            "url_tdpse_detail": "https://pse.komdigi.go.id/tdpse-detail/13337",
            "website": "suarakuningan.com"
        },
        {
            "id": "9cb1ac19-c8fa-45f1-9d98-c6d9f156c2f5",
            "nama_pse": "PERISAI SISTEM KEAMANAN",
            "nama_se": "PERISAI",
            "sektor": "Sektor Teknologi Informasi dan Komunikasi",
            "tanggal_terbit": "2022-12-26",
            "url_tdpse_detail": "https://pse.komdigi.go.id/tdpse-detail/13338",
            "website": "peris.ai"
        },
        {
            "id": "9cb1ac18-1782-4cf4-a420-d915d07d19f3",
            "nama_pse": "BANK PERKREDITAN RAKYAT DARBENI RIZKI",
            "nama_se": "BPR DARBENI RIZKI",
            "sektor": "Sektor Keuangan",
            "tanggal_terbit": "2022-12-26",
            "url_tdpse_detail": "https://pse.komdigi.go.id/tdpse-detail/13340",
            "website": "bprdarbenirizki.co.id"
        },
        {
            "id": "9cb1ac2a-bd87-475a-93d0-21c08dbeec5f",
            "nama_pse": "MEDUSSA MULTI BUSINESS CENTER TOUR \u0026 TRAVEL",
            "nama_se": "MMBC TOUR \u0026 TRAVEL",
            "sektor": "Sektor Perdagangan",
            "tanggal_terbit": "2022-12-26",
            "url_tdpse_detail": "https://pse.komdigi.go.id/tdpse-detail/13339",
            "website": "klikmbc.biz"
        },
        {
            "id": "9cb1ac18-1383-4601-9213-4ab524bc26ce",
            "nama_pse": "HEZTEK KREATIF INDONESIA",
            "nama_se": "HEZTEK INDONESIA",
            "sektor": "Sektor Teknologi Informasi dan Komunikasi",
            "tanggal_terbit": "2022-12-25",
            "url_tdpse_detail": "https://pse.komdigi.go.id/tdpse-detail/13336",
            "website": "-"
        },
        {
            "id": "9cb1ac19-b6d0-453d-8745-bb50a2db5820",
            "nama_pse": "TRAVELBOOK TRANS INTERNASIONAL",
            "nama_se": "TRAVELBOOK",
            "sektor": "Sektor Teknologi Informasi dan Komunikasi",
            "tanggal_terbit": "2022-12-24",
            "url_tdpse_detail": "https://pse.komdigi.go.id/tdpse-detail/14069",
            "website": "travelbook.co.id"
        },
        {
            "id": "9cb1ac17-20ef-49a0-b91c-cc6189ab2c76",
            "nama_pse": "MAKMUR KARYA ABADI",
            "nama_se": "ESHOP.SE.COM/ID",
            "sektor": "Sektor Perdagangan",
            "tanggal_terbit": "2022-12-23",
            "url_tdpse_detail": "https://pse.komdigi.go.id/tdpse-detail/13328",
            "website": "eshop.se.com"
        },
        {
            "id": "9cb1ac19-2168-4001-aaa3-c9efaa401002",
            "nama_pse": "PENDIDIKAN CENDEKIA MUSLIM",
            "nama_se": "QR CODE STANDARD BOOK NUMBER (QRSBN)",
            "sektor": "Sektor Teknologi Informasi dan Komunikasi",
            "tanggal_terbit": "2022-12-23",
            "url_tdpse_detail": "https://pse.komdigi.go.id/tdpse-detail/13330",
            "website": "qrsbn.org"
        },
        {
            "id": "9cb1ac17-807f-449b-a896-939578022eaa",
            "nama_pse": "SOGEH BARENG BERGUNA",
            "nama_se": "SOGEH BARENG",
            "sektor": "Sektor Perdagangan",
            "tanggal_terbit": "2022-12-23",
            "url_tdpse_detail": "https://pse.komdigi.go.id/tdpse-detail/13325",
            "website": "-"
        },
        {
            "id": "9cb1ac2a-a57e-4c06-bb53-a163b808ef19",
            "nama_pse": "I PUTU GDE MAHENDRA EKA PUTRA",
            "nama_se": "LOVNOMAD.COM",
            "sektor": "Sektor Teknologi Informasi dan Komunikasi",
            "tanggal_terbit": "2022-12-23",
            "url_tdpse_detail": "https://pse.komdigi.go.id/tdpse-detail/13335",
            "website": "lovnomad.com"
        },
        {
            "id": "9cb1ac17-f567-481e-a00a-e39df0d8191d",
            "nama_pse": "CHUBB GENERAL INSURANCE INDONESIA",
            "nama_se": "CUSTOMER SERVICE PORTAL (CSP)",
            "sektor": "Sektor Keuangan",
            "tanggal_terbit": "2022-12-23",
            "url_tdpse_detail": "https://pse.komdigi.go.id/tdpse-detail/13324",
            "website": "chubbclaims.id"
        },
        {
            "id": "9cb1ac19-b318-4807-bef7-beb6a4b697d5",
            "nama_pse": "LKP Master Course",
            "nama_se": "BIMBELMC BY MASTER COURSE",
            "sektor": "Sektor Perdagangan, Sektor Teknologi Informasi dan Komunikasi",
            "tanggal_terbit": "2022-12-23",
            "url_tdpse_detail": "https://pse.komdigi.go.id/tdpse-detail/13322",
            "website": "bimbelmc.id"
        }
    ],
    "processingTimeMs": 4,
    "query": "",
    "totalHits": 19131,
    "hitsPerPage": 50,
    "page": 163,
    "totalPages": 383
}