{
    "hits": [
        {
            "id": "9cb1abb7-836c-4af5-91b7-c2d887801416",
            "nama_pse": "KHAIRUL FAUZI",
            "nama_se": "ABYPAY",
            "sektor": "Sektor Perdagangan, Sektor Keuangan, Sektor Teknologi Informasi dan Komunikasi",
            "tanggal_terbit": "2022-07-19",
            "url_tdpse_detail": "https://pse.komdigi.go.id/tdpse-detail/7250",
            "website": "-"
        },
        {
            "id": "9cb1abe8-70fb-4a8d-b91c-589372abde03",
            "nama_pse": "FASTPAY MEDIA NUSANTARA",
            "nama_se": "FASTPAY",
            "sektor": "Sektor Perdagangan, Sektor Teknologi Informasi dan Komunikasi",
            "tanggal_terbit": "2022-07-19",
            "url_tdpse_detail": "https://pse.komdigi.go.id/tdpse-detail/7251",
            "website": "fastpay.co.id"
        },
        {
            "id": "9cb1abc2-b454-4d27-b1f7-b1b1ee86c939",
            "nama_pse": "SINERGI BESTAMA INDONESIA",
            "nama_se": "APLIKASI ULAR TENGGO",
            "sektor": "Sektor Teknologi Informasi dan Komunikasi",
            "tanggal_terbit": "2022-07-19",
            "url_tdpse_detail": "https://pse.komdigi.go.id/tdpse-detail/7259",
            "website": "-"
        },
        {
            "id": "9cb1abb7-8563-48fc-9c6c-469388f050f9",
            "nama_pse": "BANK PEREKONOMIAN RAKYAT PARO TUA",
            "nama_se": "WEBSITE BPR PARO TUA",
            "sektor": "Sektor Keuangan",
            "tanggal_terbit": "2022-07-19",
            "url_tdpse_detail": "https://pse.komdigi.go.id/tdpse-detail/7252",
            "website": "bprparotua.co.id"
        },
        {
            "id": "9cb1abb7-876c-4788-9387-dcd8d2cd9037",
            "nama_pse": "SINERGI BESTAMA INDONESIA",
            "nama_se": "APLIKASI MVICALL",
            "sektor": "Sektor Teknologi Informasi dan Komunikasi",
            "tanggal_terbit": "2022-07-19",
            "url_tdpse_detail": "https://pse.komdigi.go.id/tdpse-detail/7257",
            "website": "-"
        },
        {
            "id": "9cb1abe8-7c64-4467-a3ee-13ee3b1f6e73",
            "nama_pse": "AHMAD ANDY GALLIEN",
            "nama_se": "ANYMHOST ID",
            "sektor": "Sektor Perdagangan",
            "tanggal_terbit": "2022-07-19",
            "url_tdpse_detail": "https://pse.komdigi.go.id/tdpse-detail/7253",
            "website": "anymhost.id"
        },
        {
            "id": "9cb1abb7-897c-4867-9c30-8054a0120197",
            "nama_pse": "ANGGICHANGER",
            "nama_se": "ANGGICHANGER",
            "sektor": "Sektor Teknologi Informasi dan Komunikasi",
            "tanggal_terbit": "2022-07-19",
            "url_tdpse_detail": "https://pse.komdigi.go.id/tdpse-detail/7254",
            "website": "-"
        },
        {
            "id": "9cb1abc2-bc46-4b32-be1d-58c73410c622",
            "nama_pse": "Endah Sukro Pancawati",
            "nama_se": "DODOLANKUOTA",
            "sektor": "Sektor Perdagangan",
            "tanggal_terbit": "2022-07-19",
            "url_tdpse_detail": "https://pse.komdigi.go.id/tdpse-detail/7255",
            "website": "dodolankuota.com"
        },
        {
            "id": "9cb1abb7-8b65-4919-a103-768c86c93798",
            "nama_pse": "SINERGI BESTAMA INDONESIA",
            "nama_se": "FUN QUIZ",
            "sektor": "Sektor Teknologi Informasi dan Komunikasi",
            "tanggal_terbit": "2022-07-19",
            "url_tdpse_detail": "https://pse.komdigi.go.id/tdpse-detail/7258",
            "website": "funquiz.apaajadeh.com"
        },
        {
            "id": "9cb1abe8-817d-4ee1-8938-07d14d276b0a",
            "nama_pse": "ANDREW Y SUHADA",
            "nama_se": "SWIPEAPE",
            "sektor": "Sektor Teknologi Informasi dan Komunikasi",
            "tanggal_terbit": "2022-07-19",
            "url_tdpse_detail": "https://pse.komdigi.go.id/tdpse-detail/7256",
            "website": "Swipeape.com"
        },
        {
            "id": "9cb1abc2-be74-4a1c-8723-7df465df6cfc",
            "nama_pse": "SINERGI BESTAMA INDONESIA",
            "nama_se": "CUANTASTIC",
            "sektor": "Sektor Teknologi Informasi dan Komunikasi",
            "tanggal_terbit": "2022-07-19",
            "url_tdpse_detail": "https://pse.komdigi.go.id/tdpse-detail/7260",
            "website": "cuantastic.id"
        },
        {
            "id": "9cb1abc2-c216-4774-989a-f2b3defb8827",
            "nama_pse": "SINERGI BESTAMA INDONESIA",
            "nama_se": "WEBSITE PT.SINERGI BESTAMA INDONESIA",
            "sektor": "Sektor Teknologi Informasi dan Komunikasi",
            "tanggal_terbit": "2022-07-19",
            "url_tdpse_detail": "https://pse.komdigi.go.id/tdpse-detail/7261",
            "website": "sinergibest.com"
        },
        {
            "id": "9cb1abc2-c523-4d88-b37a-f4d9afa6ee3f",
            "nama_pse": "SUMARSARI",
            "nama_se": "TERUSEND",
            "sektor": "Sektor Transportasi, Sektor Teknologi Informasi dan Komunikasi",
            "tanggal_terbit": "2022-07-19",
            "url_tdpse_detail": "https://pse.komdigi.go.id/tdpse-detail/7262",
            "website": "-"
        },
        {
            "id": "9cb1abe8-84b0-49ad-b186-3502cf4aea5d",
            "nama_pse": "KADEK YUDHI WIRAMA",
            "nama_se": "TOP-UP STATION",
            "sektor": "Sektor Perdagangan, Sektor Teknologi Informasi dan Komunikasi",
            "tanggal_terbit": "2022-07-19",
            "url_tdpse_detail": "https://pse.komdigi.go.id/tdpse-detail/7263",
            "website": "topupstation.app"
        },
        {
            "id": "9cb1abb7-8d61-420c-9c1f-d51d9ed4eda8",
            "nama_pse": "YASSAR AHMAD SHIDQI",
            "nama_se": "JSTORE DIGITAL",
            "sektor": "Sektor Perdagangan",
            "tanggal_terbit": "2022-07-19",
            "url_tdpse_detail": "https://pse.komdigi.go.id/tdpse-detail/7264",
            "website": "JStoredg.com"
        },
        {
            "id": "9cb1abe8-8a4b-4fe9-a923-574e44b33ef5",
            "nama_pse": "INDOPRECAST MITRA KARYA",
            "nama_se": "WEB PENJUALAN BETON PRECAST",
            "sektor": "Sektor Perdagangan",
            "tanggal_terbit": "2022-07-19",
            "url_tdpse_detail": "https://pse.komdigi.go.id/tdpse-detail/7266",
            "website": "indoprecast.com"
        },
        {
            "id": "9cb1abc2-c84a-42dd-9438-3ca34b4c06c5",
            "nama_pse": "DIGITAL MUDA BERKARYA",
            "nama_se": "VIVAPAY",
            "sektor": "Sektor Perdagangan",
            "tanggal_terbit": "2022-07-19",
            "url_tdpse_detail": "https://pse.komdigi.go.id/tdpse-detail/7267",
            "website": "viva-pay.id"
        },
        {
            "id": "9cb1abb7-8f97-463f-ad32-5b6e11ebb570",
            "nama_pse": "KRISMANTO",
            "nama_se": "KIOSKU",
            "sektor": "Sektor Perdagangan, Sektor Keuangan",
            "tanggal_terbit": "2022-07-19",
            "url_tdpse_detail": "https://pse.komdigi.go.id/tdpse-detail/7268",
            "website": "-"
        },
        {
            "id": "9cb1abb7-91d3-4564-be07-b6c4e9f4860f",
            "nama_pse": "DIGITAL MUDA BERKARYA",
            "nama_se": "VIVAPAY - LANDING PAGE",
            "sektor": "Sektor Perdagangan",
            "tanggal_terbit": "2022-07-19",
            "url_tdpse_detail": "https://pse.komdigi.go.id/tdpse-detail/7269",
            "website": "vivapay.id"
        },
        {
            "id": "9cb1abe8-90b4-4970-acf2-cca9ce7a3a94",
            "nama_pse": "BANK PEREKONOMIAN RAKYAT LIPATGANDA",
            "nama_se": "PT. BPR LIPATGANDA",
            "sektor": "Sektor Keuangan",
            "tanggal_terbit": "2022-07-19",
            "url_tdpse_detail": "https://pse.komdigi.go.id/tdpse-detail/7270",
            "website": "-"
        },
        {
            "id": "9cb1abe8-949f-4ce5-8ad4-53c8df1216da",
            "nama_pse": "MOHAMMAD RAMDANI",
            "nama_se": "GOPUNCAK",
            "sektor": "Sektor Perdagangan",
            "tanggal_terbit": "2022-07-19",
            "url_tdpse_detail": "https://pse.komdigi.go.id/tdpse-detail/7271",
            "website": "gopuncak.com"
        },
        {
            "id": "9cb1abc2-cb63-47af-bd20-2020f672f8d0",
            "nama_pse": "MOHAMMAD SOFYANUS TSAURY",
            "nama_se": "KONTER PINTAR",
            "sektor": "Sektor Teknologi Informasi dan Komunikasi",
            "tanggal_terbit": "2022-07-19",
            "url_tdpse_detail": "https://pse.komdigi.go.id/tdpse-detail/7272",
            "website": "konterpintar.com"
        },
        {
            "id": "9cb1abe8-993c-4ae4-9557-144789d57d76",
            "nama_pse": "MITRA JASA PRATAMA",
            "nama_se": "MITRA JASA PRATAMA",
            "sektor": "Sektor Keuangan",
            "tanggal_terbit": "2022-07-19",
            "url_tdpse_detail": "https://pse.komdigi.go.id/tdpse-detail/7273",
            "website": "mitrajasa.id"
        },
        {
            "id": "9cb1abb7-93dc-4eed-a9af-f82ed41b4281",
            "nama_pse": "BANK SMBC INDONESIA",
            "nama_se": "BISNISKIT",
            "sektor": "Sektor Keuangan",
            "tanggal_terbit": "2022-07-19",
            "url_tdpse_detail": "https://pse.komdigi.go.id/tdpse-detail/7276",
            "website": "-"
        },
        {
            "id": "9cb1abc2-cdab-49b5-95f4-e026653046cb",
            "nama_pse": "BANK PERKREDITAN RAKYAT ARTHA HUDA ABADI",
            "nama_se": "BPR ARTHA HUDA ABADI",
            "sektor": "Sektor Keuangan",
            "tanggal_terbit": "2022-07-19",
            "url_tdpse_detail": "https://pse.komdigi.go.id/tdpse-detail/7277",
            "website": "arthahuda.co.id"
        },
        {
            "id": "9cb1abe8-9c53-4c2c-9846-6c63497fb141",
            "nama_pse": "BANK SMBC INDONESIA",
            "nama_se": "COCREATE.ID",
            "sektor": "Sektor Keuangan",
            "tanggal_terbit": "2022-07-19",
            "url_tdpse_detail": "https://pse.komdigi.go.id/tdpse-detail/7285",
            "website": "cocreate.id"
        },
        {
            "id": "9cb1abe8-9ff8-4632-b7be-478188a5415f",
            "nama_pse": "IQBAL ANDARU N. P",
            "nama_se": "PULSAKU",
            "sektor": "Sektor Teknologi Informasi dan Komunikasi",
            "tanggal_terbit": "2022-07-19",
            "url_tdpse_detail": "https://pse.komdigi.go.id/tdpse-detail/7278",
            "website": "pulsaku.co.id"
        },
        {
            "id": "9cb1abe8-a86b-41a6-8070-1e93600e0184",
            "nama_pse": "NARAYA TELEMATIKA",
            "nama_se": "KAPTEN NARATEL",
            "sektor": "Sektor Teknologi Informasi dan Komunikasi",
            "tanggal_terbit": "2022-07-19",
            "url_tdpse_detail": "https://pse.komdigi.go.id/tdpse-detail/7279",
            "website": "kaptenku.id"
        },
        {
            "id": "9cb1abe8-b666-4cb0-9fc8-3676e012a068",
            "nama_pse": "MILLIONAIRE DIGITAL INDONESIA",
            "nama_se": "MILLIONAIRE DIGITAL INDONESIA",
            "sektor": "Sektor Teknologi Informasi dan Komunikasi",
            "tanggal_terbit": "2022-07-19",
            "url_tdpse_detail": "https://pse.komdigi.go.id/tdpse-detail/7280",
            "website": "millionaire.id"
        },
        {
            "id": "9cb1abb7-95ce-4622-a577-c3fcd1e7bc56",
            "nama_pse": "BANK SMBC INDONESIA",
            "nama_se": "JENIUS (WEB APP)",
            "sektor": "Sektor Keuangan",
            "tanggal_terbit": "2022-07-19",
            "url_tdpse_detail": "https://pse.komdigi.go.id/tdpse-detail/7284",
            "website": "2secure.jenius.co.id"
        },
        {
            "id": "9cb1abb7-9817-4e97-9542-2dd2e4cd2329",
            "nama_pse": "BANK SMBC INDONESIA",
            "nama_se": "WEB APP - JENIUS",
            "sektor": "Sektor Keuangan",
            "tanggal_terbit": "2022-07-19",
            "url_tdpse_detail": "https://pse.komdigi.go.id/tdpse-detail/7283",
            "website": "2secure.jenius.co.id"
        },
        {
            "id": "9cb1abe8-c174-45ab-85b7-3221c9540299",
            "nama_pse": "BANK SMBC INDONESIA",
            "nama_se": "WOW APPS",
            "sektor": "Sektor Keuangan",
            "tanggal_terbit": "2022-07-19",
            "url_tdpse_detail": "https://pse.komdigi.go.id/tdpse-detail/7286",
            "website": "-"
        },
        {
            "id": "9cb1abb5-0963-4e7a-b740-049ad7b083c9",
            "nama_pse": "NUON DIGITAL INDONESIA",
            "nama_se": "IMSTORE",
            "sektor": "Sektor Perdagangan, Sektor Teknologi Informasi dan Komunikasi",
            "tanggal_terbit": "2022-07-18",
            "url_tdpse_detail": "https://pse.komdigi.go.id/tdpse-detail/6528",
            "website": "imstore.co.id"
        },
        {
            "id": "9cb1aba5-e286-42a6-a8f8-d7980b7e2e53",
            "nama_pse": "FAJAR MITRA INDAH",
            "nama_se": "FAMILYMART INDONESIA",
            "sektor": "Sektor Perdagangan",
            "tanggal_terbit": "2022-07-18",
            "url_tdpse_detail": "https://pse.komdigi.go.id/tdpse-detail/6054",
            "website": "familymartindonesia.com"
        },
        {
            "id": "9cb1abaf-bc78-415e-a72b-27d57863e467",
            "nama_pse": "KUAIKUAI TECH INDONESIA",
            "nama_se": "PINJAMYUK",
            "sektor": "Sektor Keuangan, Sektor Teknologi Informasi dan Komunikasi",
            "tanggal_terbit": "2022-07-18",
            "url_tdpse_detail": "https://pse.komdigi.go.id/tdpse-detail/6099",
            "website": "pinjamyuk.co.id"
        },
        {
            "id": "9cb1aba7-6ded-4482-9b41-1fd6cde7adb1",
            "nama_pse": "YDB KREATIF INDONESIA",
            "nama_se": "YDB",
            "sektor": "Sektor Teknologi Informasi dan Komunikasi",
            "tanggal_terbit": "2022-07-18",
            "url_tdpse_detail": "https://pse.komdigi.go.id/tdpse-detail/6038",
            "website": "youdeservebetter.id"
        },
        {
            "id": "9cb1ab9c-b412-4190-9ba3-352aae1a3c66",
            "nama_pse": "MEGA ARMADA SUDECO",
            "nama_se": "TUNAS AUCTION",
            "sektor": "Sektor Perdagangan",
            "tanggal_terbit": "2022-07-18",
            "url_tdpse_detail": "https://pse.komdigi.go.id/tdpse-detail/6260",
            "website": "tunasauction.tunasgroup.com"
        },
        {
            "id": "9cb1ab9c-beed-4d84-a314-f0ed7f6c63b2",
            "nama_pse": "BANK PERKREDITAN RAKYAT MAJESTY GOLDEN RAYA",
            "nama_se": "BPR MAJESTY GOLDEN RAYA",
            "sektor": "Sektor Keuangan",
            "tanggal_terbit": "2022-07-18",
            "url_tdpse_detail": "https://pse.komdigi.go.id/tdpse-detail/6036",
            "website": "bprmgr.co.id"
        },
        {
            "id": "9cb1abb1-5e60-4ad2-919b-64e52853876f",
            "nama_pse": "BANK MAYAPADA INTERNASIONAL",
            "nama_se": "MYREWARDS",
            "sektor": "Sektor Keuangan",
            "tanggal_terbit": "2022-07-18",
            "url_tdpse_detail": "https://pse.komdigi.go.id/tdpse-detail/6043",
            "website": "Bankmayapada.id"
        },
        {
            "id": "9cb1aba7-b418-49e3-9fec-34ee49fc3c19",
            "nama_pse": "BANK PEREKONOMIAN RAKYAT KARYAJATNIKA SADAYA",
            "nama_se": "EDC BPRKS",
            "sektor": "Sektor Keuangan",
            "tanggal_terbit": "2022-07-18",
            "url_tdpse_detail": "https://pse.komdigi.go.id/tdpse-detail/6366",
            "website": "-"
        },
        {
            "id": "9cb1aba7-dbf3-4a4f-a627-d544e3d6ac8d",
            "nama_pse": "SYARIAH KOIN INDONESIA",
            "nama_se": "SHARIACOIN",
            "sektor": "Sektor Perdagangan",
            "tanggal_terbit": "2022-07-18",
            "url_tdpse_detail": "https://pse.komdigi.go.id/tdpse-detail/6452",
            "website": "shariacoin.co.id"
        },
        {
            "id": "9cb1ab9d-16cc-4cf7-968f-b55d6fc53e77",
            "nama_pse": "INTI PRIMA MANDIRI UTAMA",
            "nama_se": "IPAYMU",
            "sektor": "Sektor Perdagangan, Sektor Keuangan, Sektor Teknologi Informasi dan Komunikasi",
            "tanggal_terbit": "2022-07-18",
            "url_tdpse_detail": "https://pse.komdigi.go.id/tdpse-detail/6076",
            "website": "ipaymu.com"
        },
        {
            "id": "9cb1abb1-b754-4354-9c9e-ead6c6d63a72",
            "nama_pse": "BANK PEMBANGUNAN DAERAH SULAWESI SELATAN DAN SULAWESI BARAT",
            "nama_se": "CPANEL BANK SULSELBAR",
            "sektor": "Sektor Teknologi Informasi dan Komunikasi",
            "tanggal_terbit": "2022-07-18",
            "url_tdpse_detail": "https://pse.komdigi.go.id/tdpse-detail/6029",
            "website": "cpanel.banksulselbar.co.id"
        },
        {
            "id": "9cb1aba7-fb0e-47ed-9b29-21e260142e4a",
            "nama_pse": "BANK PEMBANGUNAN DAERAH SULAWESI SELATAN DAN SULAWESI BARAT",
            "nama_se": "WHISTLEBLOWER SYSTEM BANK SULSELBAR",
            "sektor": "Sektor Teknologi Informasi dan Komunikasi",
            "tanggal_terbit": "2022-07-18",
            "url_tdpse_detail": "https://pse.komdigi.go.id/tdpse-detail/6030",
            "website": "wbs.banksulselbar.co.id"
        },
        {
            "id": "9cb1abb1-eb94-43b8-856e-4d7eb938b30d",
            "nama_pse": "BANK PEMBANGUNAN DAERAH SULAWESI UTARA GORONTALO",
            "nama_se": "WEBSITE BSG",
            "sektor": "Sektor Teknologi Informasi dan Komunikasi",
            "tanggal_terbit": "2022-07-18",
            "url_tdpse_detail": "https://pse.komdigi.go.id/tdpse-detail/6464",
            "website": "banksulutgo.co.id"
        },
        {
            "id": "9cb1aba8-1254-410a-a3e9-5388d58ab53e",
            "nama_pse": "BANK PEMBANGUNAN DAERAH SULAWESI UTARA GORONTALO",
            "nama_se": "PORTAL BANK SULUTGO",
            "sektor": "Sektor Teknologi Informasi dan Komunikasi",
            "tanggal_terbit": "2022-07-18",
            "url_tdpse_detail": "https://pse.komdigi.go.id/tdpse-detail/6463",
            "website": "banksulutgo.co.id"
        },
        {
            "id": "9cb1ab9d-5918-44f4-babc-0815cae59f57",
            "nama_pse": "BANK PEMBANGUNAN DAERAH SULAWESI UTARA GORONTALO",
            "nama_se": "KNOWLEDGE MANAGEMENT SYSTEM (KMS)",
            "sektor": "Sektor Teknologi Informasi dan Komunikasi",
            "tanggal_terbit": "2022-07-18",
            "url_tdpse_detail": "https://pse.komdigi.go.id/tdpse-detail/6462",
            "website": "banksulutgo.co.id"
        },
        {
            "id": "9cb1abb1-efc5-40ab-a0d9-3529e9fa357f",
            "nama_pse": "BANK PEMBANGUNAN DAERAH SULAWESI UTARA GORONTALO",
            "nama_se": "E-ABSEN BANK SULUTGO",
            "sektor": "Sektor Teknologi Informasi dan Komunikasi",
            "tanggal_terbit": "2022-07-18",
            "url_tdpse_detail": "https://pse.komdigi.go.id/tdpse-detail/6461",
            "website": "-"
        },
        {
            "id": "9cb1abb1-f315-4a73-8f86-4124a09de89c",
            "nama_pse": "BANK PEMBANGUNAN DAERAH SULAWESI UTARA GORONTALO",
            "nama_se": "E-LEARNING BSG",
            "sektor": "Sektor Teknologi Informasi dan Komunikasi",
            "tanggal_terbit": "2022-07-18",
            "url_tdpse_detail": "https://pse.komdigi.go.id/tdpse-detail/6460",
            "website": "banksulutgo.co.id"
        },
        {
            "id": "9cb1abb1-f50f-4bc2-82a2-f41421b7b091",
            "nama_pse": "BANK PEMBANGUNAN DAERAH SULAWESI UTARA GORONTALO",
            "nama_se": "E-SPTPD",
            "sektor": "Sektor Teknologi Informasi dan Komunikasi",
            "tanggal_terbit": "2022-07-18",
            "url_tdpse_detail": "https://pse.komdigi.go.id/tdpse-detail/6459",
            "website": "banksulutgo.co.id"
        }
    ],
    "processingTimeMs": 7,
    "query": "",
    "totalHits": 19121,
    "hitsPerPage": 50,
    "page": 266,
    "totalPages": 383
}