{
    "hits": [
        {
            "id": "9cb1ac7f-4323-4475-b988-d8332b4f7ab7",
            "nama_pse": "INDOPAY DIGITAL SERVICES",
            "nama_se": "PLATFORM DIGITAL TANPA TUJUAN KOMERSIAL",
            "sektor": "Sektor Teknologi Informasi dan Komunikasi",
            "tanggal_terbit": "2024-02-24",
            "url_tdpse_detail": "https://pse.komdigi.go.id/tdpse-detail/17970",
            "website": "-"
        },
        {
            "id": "9cb1ac56-33ca-4473-a8cd-a11f23eb76d4",
            "nama_pse": "TIGAER JAYA MANDIRI",
            "nama_se": "PENGEMBANGAN APLIKASI E-COMMERCE",
            "sektor": "Sektor Teknologi Informasi dan Komunikasi",
            "tanggal_terbit": "2024-02-24",
            "url_tdpse_detail": "https://pse.komdigi.go.id/tdpse-detail/17957",
            "website": "-"
        },
        {
            "id": "9cb1ac56-36fd-405f-824b-3145135951be",
            "nama_pse": "TIGAER JAYA MANDIRI",
            "nama_se": "PEMROGRAMAN KOMPUTER",
            "sektor": "Sektor Teknologi Informasi dan Komunikasi",
            "tanggal_terbit": "2024-02-24",
            "url_tdpse_detail": "https://pse.komdigi.go.id/tdpse-detail/17958",
            "website": "-"
        },
        {
            "id": "9cb1ac6b-359a-4524-9ba7-5521688e6fc5",
            "nama_pse": "TIGAER JAYA MANDIRI",
            "nama_se": "PLATFORM DIGITAL DENGAN TUJUAN KOMERSIAL",
            "sektor": "Sektor Perdagangan, Sektor Teknologi Informasi dan Komunikasi",
            "tanggal_terbit": "2024-02-24",
            "url_tdpse_detail": "https://pse.komdigi.go.id/tdpse-detail/17961",
            "website": "-"
        },
        {
            "id": "9cb1ac7f-3612-4615-89f5-6f96ecd2a7e3",
            "nama_pse": "TIGAER JAYA MANDIRI",
            "nama_se": "JASA INFORMASI LAINNYA",
            "sektor": "Sektor Teknologi Informasi dan Komunikasi",
            "tanggal_terbit": "2024-02-24",
            "url_tdpse_detail": "https://pse.komdigi.go.id/tdpse-detail/17962",
            "website": "-"
        },
        {
            "id": "9cb1ac7f-3020-4125-b1f9-c3f334a22397",
            "nama_pse": "TIGAER JAYA MANDIRI",
            "nama_se": "PLATFORM DIGITAL TANPA TUJUAN KOMERSIAL",
            "sektor": "Sektor Teknologi Informasi dan Komunikasi",
            "tanggal_terbit": "2024-02-24",
            "url_tdpse_detail": "https://pse.komdigi.go.id/tdpse-detail/17959",
            "website": "-"
        },
        {
            "id": "9cb1ac7f-3a76-40a1-83dd-0c9b7c70a27d",
            "nama_pse": "TIGAER JAYA MANDIRI",
            "nama_se": "PENYEDIA JASA PEMBAYARAN",
            "sektor": "Sektor Teknologi Informasi dan Komunikasi",
            "tanggal_terbit": "2024-02-24",
            "url_tdpse_detail": "https://pse.komdigi.go.id/tdpse-detail/17963",
            "website": "-"
        },
        {
            "id": "9cb1ac56-10f1-40d1-84cc-241cc6a86acf",
            "nama_pse": "KIOS TEKNOLOGI INDONESIA",
            "nama_se": "PERANTARA MONETER LAINNYA",
            "sektor": "Sektor Teknologi Informasi dan Komunikasi",
            "tanggal_terbit": "2024-02-23",
            "url_tdpse_detail": "https://pse.komdigi.go.id/tdpse-detail/17922",
            "website": "-"
        },
        {
            "id": "9cb1ac56-14f9-44c4-9699-39ecbee6ab35",
            "nama_pse": "KIOS TEKNOLOGI INDONESIA",
            "nama_se": "PENYEDIA JASA PEMBAYARAN (PJP)",
            "sektor": "Sektor Teknologi Informasi dan Komunikasi",
            "tanggal_terbit": "2024-02-23",
            "url_tdpse_detail": "https://pse.komdigi.go.id/tdpse-detail/17923",
            "website": "-"
        },
        {
            "id": "9cb1ac56-1a44-48d6-a349-e0a411e4caf4",
            "nama_pse": "KIOS TEKNOLOGI INDONESIA",
            "nama_se": "AKTIVITAS AGEN PERJALANAN LAINNYA",
            "sektor": "Sektor Perdagangan, Sektor Teknologi Informasi dan Komunikasi",
            "tanggal_terbit": "2024-02-23",
            "url_tdpse_detail": "https://pse.komdigi.go.id/tdpse-detail/17924",
            "website": "-"
        },
        {
            "id": "9cb1ac6b-0edd-4b55-90e8-7cd779f96c86",
            "nama_pse": "PALUGADA SUMBER SUKSES",
            "nama_se": "AKTIVITAS PENUNJANG TENAGA LISTRIK LAINNYA",
            "sektor": "Sektor Perdagangan, Sektor Teknologi Informasi dan Komunikasi",
            "tanggal_terbit": "2024-02-23",
            "url_tdpse_detail": "https://pse.komdigi.go.id/tdpse-detail/17925",
            "website": "-"
        },
        {
            "id": "9cb1ac56-1d88-4738-b706-6448620ccfa1",
            "nama_pse": "PALUGADA SUMBER SUKSES",
            "nama_se": "PERDAGANGAN ECERAN MELALUI MEDIA UNTUK BARANG CAMPURAN",
            "sektor": "Sektor Perdagangan",
            "tanggal_terbit": "2024-02-23",
            "url_tdpse_detail": "https://pse.komdigi.go.id/tdpse-detail/17926",
            "website": "-"
        },
        {
            "id": "9cb1ac56-20b2-4663-a038-0a2ee8406c1c",
            "nama_pse": "PALUGADA SUMBER SUKSES",
            "nama_se": "PERDAGANGAN ECERAN MELALUI MEDIA BARANG KEPERLUAN PRIBAD",
            "sektor": "Sektor Perdagangan",
            "tanggal_terbit": "2024-02-23",
            "url_tdpse_detail": "https://pse.komdigi.go.id/tdpse-detail/17928",
            "website": "-"
        },
        {
            "id": "9cb1ac7f-0123-4ccb-b1b8-6ec979fae0cd",
            "nama_pse": "PALUGADA SUMBER SUKSES",
            "nama_se": "PERDAGANGAN ECERAN MELALUI MEDIA BERBAGAI MACAM",
            "sektor": "Sektor Perdagangan, Sektor Teknologi Informasi dan Komunikasi",
            "tanggal_terbit": "2024-02-23",
            "url_tdpse_detail": "https://pse.komdigi.go.id/tdpse-detail/17932",
            "website": "-"
        },
        {
            "id": "9cb1ac6b-16a5-4860-85c5-4918efd07d66",
            "nama_pse": "PALUGADA SUMBER SUKSES",
            "nama_se": "PERDAGANGAN MELALUI INTERNET UNTUK MAKANAN, MINUMAN",
            "sektor": "Sektor Perdagangan",
            "tanggal_terbit": "2024-02-23",
            "url_tdpse_detail": "https://pse.komdigi.go.id/tdpse-detail/17929",
            "website": "-"
        },
        {
            "id": "9cb1ac7e-f15b-4e5f-800a-f5c3b3ef0407",
            "nama_pse": "PALUGADA SUMBER SUKSES",
            "nama_se": "PERDAGANGAN ECERAN ALAT TELEKOMUNIKASI",
            "sektor": "Sektor Perdagangan",
            "tanggal_terbit": "2024-02-23",
            "url_tdpse_detail": "https://pse.komdigi.go.id/tdpse-detail/17930",
            "website": "-"
        },
        {
            "id": "9cb1ac7f-0bbc-4d33-93b0-6b790231bd5d",
            "nama_pse": "PALUGADA SUMBER SUKSES",
            "nama_se": "PERDAGANGAN ECERAN ATAS DASAR BALAS JASA (FEE) ATAU KONTRAK",
            "sektor": "Sektor Perdagangan, Sektor Teknologi Informasi dan Komunikasi",
            "tanggal_terbit": "2024-02-23",
            "url_tdpse_detail": "https://pse.komdigi.go.id/tdpse-detail/17933",
            "website": "-"
        },
        {
            "id": "9cb1ac7f-1047-4f4f-8973-adae8a21f8c5",
            "nama_pse": "PALUGADA SUMBER SUKSES",
            "nama_se": "AKTIVITAS TELEKOMUNIKASI LAINNYA YTDL",
            "sektor": "Sektor Teknologi Informasi dan Komunikasi",
            "tanggal_terbit": "2024-02-23",
            "url_tdpse_detail": "https://pse.komdigi.go.id/tdpse-detail/17937",
            "website": "-"
        },
        {
            "id": "9cb1ac6b-1fdb-4ccc-8e44-58c30e3d3c08",
            "nama_pse": "PALUGADA SUMBER SUKSES",
            "nama_se": "PERANTARA MONETER LAINNYA",
            "sektor": "Sektor Teknologi Informasi dan Komunikasi",
            "tanggal_terbit": "2024-02-23",
            "url_tdpse_detail": "https://pse.komdigi.go.id/tdpse-detail/17941",
            "website": "-"
        },
        {
            "id": "9cb1ac7f-1b5d-4f29-810b-9aee9c3a152d",
            "nama_pse": "PALUGADA SUMBER SUKSES",
            "nama_se": "PENYEDIA JASA PEMBAYARAN (PJP)",
            "sektor": "Sektor Teknologi Informasi dan Komunikasi",
            "tanggal_terbit": "2024-02-23",
            "url_tdpse_detail": "https://pse.komdigi.go.id/tdpse-detail/17942",
            "website": "-"
        },
        {
            "id": "9cb1ac7f-1722-4f31-add0-fcd5dafdc4a1",
            "nama_pse": "TIGAER JAYA MANDIRI",
            "nama_se": "AKTIVITAS TELEKOMUNIKASI LAINNYA YTDL",
            "sektor": "Sektor Teknologi Informasi dan Komunikasi",
            "tanggal_terbit": "2024-02-23",
            "url_tdpse_detail": "https://pse.komdigi.go.id/tdpse-detail/17940",
            "website": "-"
        },
        {
            "id": "9cb1ac7f-1f2d-4f2d-a78a-1bd67de539b6",
            "nama_pse": "TIGAER JAYA MANDIRI",
            "nama_se": "PERDAGANGAN ECERAN PIRANTI LUNAK (SOFTWARE)",
            "sektor": "Sektor Perdagangan, Sektor Teknologi Informasi dan Komunikasi",
            "tanggal_terbit": "2024-02-23",
            "url_tdpse_detail": "https://pse.komdigi.go.id/tdpse-detail/17943",
            "website": "-"
        },
        {
            "id": "9cb1ac6b-2329-49f8-96b9-6d6dd4e05608",
            "nama_pse": "TIGAER JAYA MANDIRI",
            "nama_se": "PERDAGANGAN ECERAN ALAT TELEKOMUNIKASI",
            "sektor": "Sektor Teknologi Informasi dan Komunikasi",
            "tanggal_terbit": "2024-02-23",
            "url_tdpse_detail": "https://pse.komdigi.go.id/tdpse-detail/17944",
            "website": "-"
        },
        {
            "id": "9cb1ac6b-26c3-4aa2-8d8b-ff765a290091",
            "nama_pse": "TIGAER JAYA MANDIRI",
            "nama_se": "PERDAGANGAN ECERAN MELALUI MEDIA BERBAGAI BARANG",
            "sektor": "Sektor Perdagangan",
            "tanggal_terbit": "2024-02-23",
            "url_tdpse_detail": "https://pse.komdigi.go.id/tdpse-detail/17946",
            "website": "-"
        },
        {
            "id": "9cb1ac6b-2a4a-4955-99c8-b4dcf22e182f",
            "nama_pse": "TIGAER JAYA MANDIRI",
            "nama_se": "PERDAGANGAN ECERAN ATAS DASAR BALAS JASA (FEE) ATAU KONTRAK",
            "sektor": "Sektor Perdagangan, Sektor Teknologi Informasi dan Komunikasi",
            "tanggal_terbit": "2024-02-23",
            "url_tdpse_detail": "https://pse.komdigi.go.id/tdpse-detail/17947",
            "website": "-"
        },
        {
            "id": "9cb1ac56-26bb-4030-b16a-25d362ee264f",
            "nama_pse": "TIGAER JAYA MANDIRI",
            "nama_se": "PERDAGANGAN ECERAN MELALUI MEDIA UNTUK BARANG CAMPURAN",
            "sektor": "Sektor Perdagangan",
            "tanggal_terbit": "2024-02-23",
            "url_tdpse_detail": "https://pse.komdigi.go.id/tdpse-detail/17945",
            "website": "-"
        },
        {
            "id": "9cb1ac6a-e958-42d9-8db3-3b1f95a7c218",
            "nama_pse": "MEDIA ABRINA PERSADA",
            "nama_se": "ABRINAPERSADANEWS.COM",
            "sektor": "Sektor Teknologi Informasi dan Komunikasi",
            "tanggal_terbit": "2024-02-22",
            "url_tdpse_detail": "https://pse.komdigi.go.id/tdpse-detail/17899",
            "website": "abrinapersadanews.com"
        },
        {
            "id": "9cb1ac7e-d1b1-4ff6-ac68-3fff2070a3dc",
            "nama_pse": "KIOS TEKNOLOGI INDONESIA",
            "nama_se": "PERDAGANGAN ECERAN ATAS DASAR BALAS JASA (FEE) ATAU KONTRAK",
            "sektor": "Sektor Perdagangan, Sektor Teknologi Informasi dan Komunikasi",
            "tanggal_terbit": "2024-02-22",
            "url_tdpse_detail": "https://pse.komdigi.go.id/tdpse-detail/17910",
            "website": "-"
        },
        {
            "id": "9cb1ac6a-ecfb-4b3d-bd98-200294278f44",
            "nama_pse": "KIOS TEKNOLOGI INDONESIA",
            "nama_se": "PERDAGANGAN ECERAN MELALUI MEDIA UNTUK KOMODITI TEKSTIL, PAKAIAN, ALAS KAKI DAN BARANG KEPERLUAN PRIBADI",
            "sektor": "Sektor Perdagangan",
            "tanggal_terbit": "2024-02-22",
            "url_tdpse_detail": "https://pse.komdigi.go.id/tdpse-detail/17901",
            "website": "-"
        },
        {
            "id": "9cb1ac6a-f07d-4fa8-b0ab-6afb9f4ada44",
            "nama_pse": "KIOS TEKNOLOGI INDONESIA",
            "nama_se": "PERDAGANGAN ECERAN MELALUI MEDIA UNTUK KOMODITI MAKANAN, MINUMAN, TEMBAKAU, KIMIA, FARMASI, KOSMETIK DAN ALAT LABORATORIUM",
            "sektor": "Sektor Perdagangan",
            "tanggal_terbit": "2024-02-22",
            "url_tdpse_detail": "https://pse.komdigi.go.id/tdpse-detail/17902",
            "website": "-"
        },
        {
            "id": "9cb1ac7e-bf54-4a01-b0b6-a84600f0b312",
            "nama_pse": "KIOS TEKNOLOGI INDONESIA",
            "nama_se": "PERDAGANGAN ECERAN MELALUI MEDIA UNTUK BARANG PERLENGKAPAN RUMAH TANGGA DAN PERLENGKAPAN DAPUR",
            "sektor": "Sektor Perdagangan",
            "tanggal_terbit": "2024-02-22",
            "url_tdpse_detail": "https://pse.komdigi.go.id/tdpse-detail/17903",
            "website": "-"
        },
        {
            "id": "9cb1ac7e-c2d2-4f7a-a88a-0efd0af0e9bd",
            "nama_pse": "KIOS TEKNOLOGI INDONESIA",
            "nama_se": "PERDAGANGAN ECERAN MELALUI MEDIA UNTUK BARANG CAMPURAN",
            "sektor": "Sektor Perdagangan",
            "tanggal_terbit": "2024-02-22",
            "url_tdpse_detail": "https://pse.komdigi.go.id/tdpse-detail/17904",
            "website": "-"
        },
        {
            "id": "9cb1ac6a-f3f0-4dbb-a81e-c7393884bcb6",
            "nama_pse": "KIOS TEKNOLOGI INDONESIA",
            "nama_se": "PERDAGANGAN ECERAN MELALUI MEDIA UNTUK BERBAGAI MACAM BARANG LAINNYA",
            "sektor": "Sektor Perdagangan",
            "tanggal_terbit": "2024-02-22",
            "url_tdpse_detail": "https://pse.komdigi.go.id/tdpse-detail/17906",
            "website": "-"
        },
        {
            "id": "9cb1ac6a-f707-43fc-86c2-d7a5d5364f70",
            "nama_pse": "KIOS TEKNOLOGI INDONESIA",
            "nama_se": "PORTAL BERBASIS PLATFORM DIGITAL TANPA TUJUAN KOMERSIAL",
            "sektor": "Sektor Perdagangan",
            "tanggal_terbit": "2024-02-22",
            "url_tdpse_detail": "https://pse.komdigi.go.id/tdpse-detail/17909",
            "website": "-"
        },
        {
            "id": "9cb1ac6a-fdba-4100-902b-65476126cfe0",
            "nama_pse": "KIOS TEKNOLOGI INDONESIA",
            "nama_se": "INSTALASI PENDINGIN DAN VENTILASI UDARA",
            "sektor": "Sektor Perdagangan",
            "tanggal_terbit": "2024-02-22",
            "url_tdpse_detail": "https://pse.komdigi.go.id/tdpse-detail/17913",
            "website": "-"
        },
        {
            "id": "9cb1ac6a-c7a4-4ecf-bf7a-3bcb5217e49d",
            "nama_pse": "INDOPAY MULTISINERGI",
            "nama_se": "PERUSAHAAN PEMBIAYAAN KONVENSIONAL",
            "sektor": "Sektor Teknologi Informasi dan Komunikasi",
            "tanggal_terbit": "2024-02-21",
            "url_tdpse_detail": "https://pse.komdigi.go.id/tdpse-detail/17883",
            "website": "-"
        },
        {
            "id": "9cb1ac6a-c0d9-43cb-b228-f9d41a7f2af2",
            "nama_pse": "INDOPAY MULTISINERGI",
            "nama_se": "PERDAGANGAN ECERAN MELALUI MEDIA KOMODITI MAKANAN, MINUMAN",
            "sektor": "Sektor Perdagangan, Sektor Teknologi Informasi dan Komunikasi",
            "tanggal_terbit": "2024-02-21",
            "url_tdpse_detail": "https://pse.komdigi.go.id/tdpse-detail/17878",
            "website": "-"
        },
        {
            "id": "9cb1ac55-dfe2-4df8-8baf-b5e4fcd88521",
            "nama_pse": "INDOPAY MULTISINERGI",
            "nama_se": "PERDAGANGAN ECERAN MELALUI MEDIA UNTUK BARANG PERLENGKAPAN RUMAH TANGGA DAN PERLENGKAPAN DAPUR",
            "sektor": "Sektor Perdagangan, Sektor Teknologi Informasi dan Komunikasi",
            "tanggal_terbit": "2024-02-21",
            "url_tdpse_detail": "https://pse.komdigi.go.id/tdpse-detail/17882",
            "website": "-"
        },
        {
            "id": "9cb1ac6a-ce60-49bd-918e-af18eb3f35ec",
            "nama_pse": "INDOPAY MULTISINERGI",
            "nama_se": "PERDAGANGAN ECERAN ALAT TELEKOMUNIKASI",
            "sektor": "Sektor Perdagangan, Sektor Teknologi Informasi dan Komunikasi",
            "tanggal_terbit": "2024-02-21",
            "url_tdpse_detail": "https://pse.komdigi.go.id/tdpse-detail/17885",
            "website": "-"
        },
        {
            "id": "9cb1ac6a-d1bf-4462-8f47-912932f46100",
            "nama_pse": "INDOPAY MULTISINERGI",
            "nama_se": "PERDAGANGAN ECERAN IKAN HIAS",
            "sektor": "Sektor Perdagangan",
            "tanggal_terbit": "2024-02-21",
            "url_tdpse_detail": "https://pse.komdigi.go.id/tdpse-detail/17887",
            "website": "-"
        },
        {
            "id": "9cb1ac7e-8958-42a0-bdb0-0b29b393efcc",
            "nama_pse": "INDOPAY MULTISINERGI",
            "nama_se": "PERDAGANGAN ECERAN MELALUI MEDIA UNTUK KOMODITI TEKSTIL, PAKAIAN, ALAS KAKI DAN BARANG KEPERLUAN PRIBADI",
            "sektor": "Sektor Perdagangan, Sektor Teknologi Informasi dan Komunikasi",
            "tanggal_terbit": "2024-02-21",
            "url_tdpse_detail": "https://pse.komdigi.go.id/tdpse-detail/17881",
            "website": "-"
        },
        {
            "id": "9cb1ac7e-af89-4246-9384-cdbefc78f3f8",
            "nama_pse": "KIOS TEKNOLOGI INDONESIA",
            "nama_se": "PERDAGANGAN ECERAN ALAT TELEKOMUNIKASI",
            "sektor": "Sektor Perdagangan",
            "tanggal_terbit": "2024-02-21",
            "url_tdpse_detail": "https://pse.komdigi.go.id/tdpse-detail/17893",
            "website": "-"
        },
        {
            "id": "9cb1ac6a-9e14-472e-9f05-eef3ba1414a5",
            "nama_pse": "INDOPAY MULTISINERGI",
            "nama_se": "PERDAGANGAN ECERAN MELALUI MEDIA",
            "sektor": "Sektor Perdagangan, Sektor Teknologi Informasi dan Komunikasi",
            "tanggal_terbit": "2024-02-20",
            "url_tdpse_detail": "https://pse.komdigi.go.id/tdpse-detail/17853",
            "website": "-"
        },
        {
            "id": "9cb1ac7e-5d4c-4951-a98f-1aa86c2738ee",
            "nama_pse": "INDOPAY MULTISINERGI",
            "nama_se": "PERDAGANGAN BARANG CAMPURAN MELALUI MEDIA",
            "sektor": "Sektor Perdagangan, Sektor Teknologi Informasi dan Komunikasi",
            "tanggal_terbit": "2024-02-20",
            "url_tdpse_detail": "https://pse.komdigi.go.id/tdpse-detail/17855",
            "website": "-"
        },
        {
            "id": "9cb1ac7e-270b-4593-a379-3b089028f848",
            "nama_pse": "INDOPAY MULTISINERGI",
            "nama_se": "PERANTARA MONETER",
            "sektor": "Sektor Teknologi Informasi dan Komunikasi",
            "tanggal_terbit": "2024-02-17",
            "url_tdpse_detail": "https://pse.komdigi.go.id/tdpse-detail/17831",
            "website": "-"
        },
        {
            "id": "9cb1ac7e-2a69-42fc-a79f-b88c1e5c5841",
            "nama_pse": "INDOPAY MULTISINERGI",
            "nama_se": "PLATFORM DIGITAL",
            "sektor": "Sektor Teknologi Informasi dan Komunikasi",
            "tanggal_terbit": "2024-02-17",
            "url_tdpse_detail": "https://pse.komdigi.go.id/tdpse-detail/17832",
            "website": "-"
        },
        {
            "id": "9cb1ac55-b1eb-476b-a441-6a33c42d9f33",
            "nama_pse": "KIOS TEKNOLOGI INDONESIA",
            "nama_se": "PENGEMBANGAN APLIKASI PERDAGANGAN MELALUI INTERNET",
            "sektor": "Sektor Perdagangan, Sektor Teknologi Informasi dan Komunikasi",
            "tanggal_terbit": "2024-02-16",
            "url_tdpse_detail": "https://pse.komdigi.go.id/tdpse-detail/17822",
            "website": "-"
        },
        {
            "id": "9cb1ac55-ab26-4be1-86d6-163e89811b97",
            "nama_pse": "KIOS TEKNOLOGI INDONESIA",
            "nama_se": "PERDAGANGAN PULSA/TOKEN LISTRIK",
            "sektor": "Sektor Perdagangan, Sektor Teknologi Informasi dan Komunikasi",
            "tanggal_terbit": "2024-02-16",
            "url_tdpse_detail": "https://pse.komdigi.go.id/tdpse-detail/17821",
            "website": "-"
        },
        {
            "id": "9cb1ac6a-4095-45f3-8f6f-e2dd9ca5d44d",
            "nama_pse": "PATURE NUSANTARA",
            "nama_se": "PATURE HEALTH CARE",
            "sektor": "Sektor Kesehatan, Sektor Teknologi Informasi dan Komunikasi",
            "tanggal_terbit": "2024-02-15",
            "url_tdpse_detail": "https://pse.komdigi.go.id/tdpse-detail/17806",
            "website": "paturenusantara.com"
        },
        {
            "id": "9cb1ac55-95b1-4167-90bc-873d1fd31e4a",
            "nama_pse": "HENDRI. AM",
            "nama_se": "RME SEHAT KITA",
            "sektor": "Sektor Teknologi Informasi dan Komunikasi",
            "tanggal_terbit": "2024-02-15",
            "url_tdpse_detail": "https://pse.komdigi.go.id/tdpse-detail/17807",
            "website": "-"
        }
    ],
    "processingTimeMs": 0,
    "query": "",
    "totalHits": 414,
    "hitsPerPage": 50,
    "page": 3,
    "totalPages": 9
}