{
    "hits": [
        {
            "id": "9ccf2c46-010a-4aa2-a420-bb7615fd6150",
            "nama_pse": "CAHAYA GERBANG MUTIARA",
            "nama_se": "CAHAYA GERBANG MUTIARA",
            "sektor": "Sektor Perdagangan",
            "tanggal_terbit": "2024-08-20",
            "url_tdpse_detail": "https://pse.komdigi.go.id/tdpse-detail/20023",
            "website": "cahayagerbangmutiara.com"
        },
        {
            "id": "9cce3936-9c8f-4353-ba98-c8ad7e433923",
            "nama_pse": "PUNYA RETAIL BERSAMA",
            "nama_se": "SANCTUARY FOOTWEAR",
            "sektor": "Sektor Perdagangan",
            "tanggal_terbit": "2024-08-20",
            "url_tdpse_detail": "https://pse.komdigi.go.id/tdpse-detail/20014",
            "website": "sanctuaryfootwear.com"
        },
        {
            "id": "9cce1f36-468e-453c-b741-8ee9a91375d2",
            "nama_pse": "SINAR BINTANG RETAIL",
            "nama_se": "LILIE WEAR",
            "sektor": "Sektor Perdagangan",
            "tanggal_terbit": "2024-08-20",
            "url_tdpse_detail": "https://pse.komdigi.go.id/tdpse-detail/20010",
            "website": "liliewear.com"
        },
        {
            "id": "9cce3dda-d313-45d6-b0f6-8fb25f04de95",
            "nama_pse": "GAYA BARU KITA",
            "nama_se": "ELITE77",
            "sektor": "Sektor Perdagangan",
            "tanggal_terbit": "2024-08-20",
            "url_tdpse_detail": "https://pse.komdigi.go.id/tdpse-detail/20016",
            "website": "elite77sneakers.com"
        },
        {
            "id": "9cce3b4d-3e9f-4082-a835-ef9111b1b621",
            "nama_pse": "BERDUA KITA MAJU",
            "nama_se": "PARAMOUNT CLOTHES",
            "sektor": "Sektor Perdagangan",
            "tanggal_terbit": "2024-08-20",
            "url_tdpse_detail": "https://pse.komdigi.go.id/tdpse-detail/20015",
            "website": "paramountclothes.com"
        },
        {
            "id": "9cce2cea-0e38-4094-a207-ab8d3b53e7da",
            "nama_pse": "SINAR BARU KITA",
            "nama_se": "RINJANI APPAREL",
            "sektor": "Sektor Perdagangan",
            "tanggal_terbit": "2024-08-20",
            "url_tdpse_detail": "https://pse.komdigi.go.id/tdpse-detail/20011",
            "website": "rinjaniapparel.com"
        },
        {
            "id": "9cce313a-ff1f-4d4b-adf6-2418a3e9ed5b",
            "nama_pse": "BINTANG MAJU BERDUA",
            "nama_se": "37 Project",
            "sektor": "Sektor Perdagangan",
            "tanggal_terbit": "2024-08-20",
            "url_tdpse_detail": "https://pse.komdigi.go.id/tdpse-detail/20012",
            "website": "37project.com"
        },
        {
            "id": "9cce35c6-741c-4724-a81c-5b3ed6170755",
            "nama_pse": "INTINYA MANDIRI SUKSES",
            "nama_se": "tiramishoes",
            "sektor": "Sektor Perdagangan",
            "tanggal_terbit": "2024-08-20",
            "url_tdpse_detail": "https://pse.komdigi.go.id/tdpse-detail/20013",
            "website": "tiramishoes.com"
        },
        {
            "id": "9cce3fec-a417-4fdd-9935-ec69903fd0f5",
            "nama_pse": "BERSAMA CANTIK KITA",
            "nama_se": "STRIDE PUMPS",
            "sektor": "Sektor Perdagangan",
            "tanggal_terbit": "2024-08-20",
            "url_tdpse_detail": "https://pse.komdigi.go.id/tdpse-detail/20017",
            "website": "stridepumps.com"
        },
        {
            "id": "9ccf2daf-685a-4719-be78-78371a40fc50",
            "nama_pse": "CIPTA MULTI DANARTA",
            "nama_se": "SETLARY APPS",
            "sektor": "Sektor Teknologi Informasi dan Komunikasi",
            "tanggal_terbit": "2024-08-20",
            "url_tdpse_detail": "https://pse.komdigi.go.id/tdpse-detail/20024",
            "website": "-"
        },
        {
            "id": "9ccf62a9-8ca1-4054-a5a6-675c92e4fb18",
            "nama_pse": "DOMINIC DIGITAL TECHNOLOGY",
            "nama_se": "ONE STOP GPS",
            "sektor": "Sektor Teknologi Informasi dan Komunikasi",
            "tanggal_terbit": "2024-08-20",
            "url_tdpse_detail": "https://pse.komdigi.go.id/tdpse-detail/20030",
            "website": "onestopgps.id"
        },
        {
            "id": "9ccf4865-c412-4c97-afa0-37cd3f86776d",
            "nama_pse": "LEGAL JOGJA MULTI USAHA",
            "nama_se": "legaljogja",
            "sektor": "Sektor Perdagangan",
            "tanggal_terbit": "2024-08-20",
            "url_tdpse_detail": "https://pse.komdigi.go.id/tdpse-detail/20026",
            "website": "legaljogja.com"
        },
        {
            "id": "9cce4296-6b92-499d-bc40-4f2cb78cbae4",
            "nama_pse": "HIDUP MANDIRI RETAIL",
            "nama_se": "YOUR PERFECT HEELS",
            "sektor": "Sektor Perdagangan",
            "tanggal_terbit": "2024-08-20",
            "url_tdpse_detail": "https://pse.komdigi.go.id/tdpse-detail/20018",
            "website": "yourperfectheels.com"
        },
        {
            "id": "9ccee33c-b8ef-42e9-a60c-37032c187907",
            "nama_pse": "AKTIVO INDONESIA SUKSES",
            "nama_se": "SMART PATIENT INFOTAINMENT REMOTE ASSISTANT (SPIRA)",
            "sektor": "Sektor Kesehatan",
            "tanggal_terbit": "2024-08-20",
            "url_tdpse_detail": "https://pse.komdigi.go.id/tdpse-detail/20020",
            "website": "-"
        },
        {
            "id": "9ccef2bb-b53c-404e-952f-286a1bfeacdb",
            "nama_pse": "KONSULTASI TEKNOLOGI LEGAL",
            "nama_se": "LEXI LAW",
            "sektor": "Sektor Teknologi Informasi dan Komunikasi",
            "tanggal_terbit": "2024-08-20",
            "url_tdpse_detail": "https://pse.komdigi.go.id/tdpse-detail/20021",
            "website": "lexi-law.ai"
        },
        {
            "id": "9ccf0eae-6192-4d3c-84cc-a98f377de01c",
            "nama_pse": "RIA PILAR",
            "nama_se": "APLIKASI PELAYANAN KLINIK RB RIA PILAR",
            "sektor": "Sektor Kesehatan",
            "tanggal_terbit": "2024-08-20",
            "url_tdpse_detail": "https://pse.komdigi.go.id/tdpse-detail/20022",
            "website": "app.riapilarklinik-rb.com"
        },
        {
            "id": "9ccf4740-0e78-4049-b9f8-444bdca52778",
            "nama_pse": "TALKTIDE TECHNOLOGY INDONESIA",
            "nama_se": "talktideasia",
            "sektor": "Sektor Teknologi Informasi dan Komunikasi",
            "tanggal_terbit": "2024-08-20",
            "url_tdpse_detail": "https://pse.komdigi.go.id/tdpse-detail/20025",
            "website": "talktideasia.com"
        },
        {
            "id": "9ccf5381-6b94-47aa-b0b8-d1b6a48621bc",
            "nama_pse": "TURBIN INOVASI INDONESIA",
            "nama_se": "E-ASKEP",
            "sektor": "Sektor Kesehatan",
            "tanggal_terbit": "2024-08-20",
            "url_tdpse_detail": "https://pse.komdigi.go.id/tdpse-detail/20029",
            "website": "askep.turbin.id"
        },
        {
            "id": "9ccf6e8e-3499-42c6-94f1-a2a018cd7751",
            "nama_pse": "MUSTIKA DIGITAL DIGITAL",
            "nama_se": "ILENTOPUP.COM",
            "sektor": "Sektor Perdagangan",
            "tanggal_terbit": "2024-08-20",
            "url_tdpse_detail": "https://pse.komdigi.go.id/tdpse-detail/20031",
            "website": "ILENTOPUP.COM"
        },
        {
            "id": "9ccf8d6d-2f34-452c-8f2d-f47fa640cc4f",
            "nama_pse": "BAROUK RAYA TECHNOLOGY",
            "nama_se": "BARAOUK RAYA TECHNOLOGY",
            "sektor": "Sektor Teknologi Informasi dan Komunikasi",
            "tanggal_terbit": "2024-08-20",
            "url_tdpse_detail": "https://pse.komdigi.go.id/tdpse-detail/20035",
            "website": "-"
        },
        {
            "id": "9ccfb18d-1e98-4c5c-8338-e49f8f9173bf",
            "nama_pse": "MITRA LINTAS MULTIMEDIA",
            "nama_se": "FAZNET",
            "sektor": "Sektor Teknologi Informasi dan Komunikasi",
            "tanggal_terbit": "2024-08-20",
            "url_tdpse_detail": "https://pse.komdigi.go.id/tdpse-detail/20036",
            "website": "faznet.co.id"
        },
        {
            "id": "9ccf7938-1853-4131-aac2-b8658396e697",
            "nama_pse": "ALUMAK TEKNOLOGI INDONESIA",
            "nama_se": "ASPIRE",
            "sektor": "Sektor Keuangan, Sektor Teknologi Informasi dan Komunikasi",
            "tanggal_terbit": "2024-08-20",
            "url_tdpse_detail": "https://pse.komdigi.go.id/tdpse-detail/20033",
            "website": "aspireapp.com"
        },
        {
            "id": "9ccf4b1d-de39-4e08-94bf-21a709b70b2d",
            "nama_pse": "DIGI TEKNO INDONUSA",
            "nama_se": "PINCARE",
            "sektor": "Sektor Teknologi Informasi dan Komunikasi",
            "tanggal_terbit": "2024-08-20",
            "url_tdpse_detail": "https://pse.komdigi.go.id/tdpse-detail/20027",
            "website": "pincare.id"
        },
        {
            "id": "9cb1ac8a-8aa0-4abe-85a5-0018944b3251",
            "nama_pse": "ONOYSTORE TEKNOLOGI DIGITAL",
            "nama_se": "ONOY STORE",
            "sektor": "Sektor Perdagangan",
            "tanggal_terbit": "2024-08-19",
            "url_tdpse_detail": "https://pse.komdigi.go.id/tdpse-detail/19995",
            "website": "onoystore.id"
        },
        {
            "id": "9cccff8d-bb76-46fe-8c52-8636eebef255",
            "nama_pse": "LINTAS MALUKU NEWS",
            "nama_se": "lintasmalukunews.com",
            "sektor": "Sektor Teknologi Informasi dan Komunikasi",
            "tanggal_terbit": "2024-08-19",
            "url_tdpse_detail": "https://pse.komdigi.go.id/tdpse-detail/19996",
            "website": "lintasmalukunews.com"
        },
        {
            "id": "9ccd5206-6d20-49d6-8c6e-393f9f46e0f5",
            "nama_pse": "BANTENG EMAS SEJAHTERA",
            "nama_se": "BANTENG EMAS SEJAHTERA",
            "sektor": "Sektor Perdagangan, Sektor Teknologi Informasi dan Komunikasi",
            "tanggal_terbit": "2024-08-19",
            "url_tdpse_detail": "https://pse.komdigi.go.id/tdpse-detail/20004",
            "website": "bantengemas.com"
        },
        {
            "id": "9ccce0be-11ec-42a2-88d5-f5cba52dd1c2",
            "nama_pse": "KOMUNITAS HARAPAN BANGSA",
            "nama_se": "POPULEE",
            "sektor": "Sektor Teknologi Informasi dan Komunikasi",
            "tanggal_terbit": "2024-08-19",
            "url_tdpse_detail": "https://pse.komdigi.go.id/tdpse-detail/19991",
            "website": "-"
        },
        {
            "id": "9ccd023a-8775-439a-a8c8-4a7349b7273b",
            "nama_pse": "QORNI WANGSA WINATA",
            "nama_se": "abahsultan.com",
            "sektor": "Sektor Teknologi Informasi dan Komunikasi",
            "tanggal_terbit": "2024-08-19",
            "url_tdpse_detail": "https://pse.komdigi.go.id/tdpse-detail/19997",
            "website": "abahsultan.com"
        },
        {
            "id": "9cccf029-4139-4dcb-a826-833f9a6dcb68",
            "nama_pse": "MUHAMMAD MAHDI",
            "nama_se": "ONEMEDIC",
            "sektor": "Sektor Perdagangan, Sektor Kesehatan, Sektor Teknologi Informasi dan Komunikasi",
            "tanggal_terbit": "2024-08-19",
            "url_tdpse_detail": "https://pse.komdigi.go.id/tdpse-detail/19993",
            "website": "peugotweb.biz.id"
        },
        {
            "id": "9cccf0ba-e6d1-44ca-8c4f-29070f162325",
            "nama_pse": "CAHAYA SINERGI SENTOSA",
            "nama_se": "ENKRIP",
            "sektor": "Sektor Teknologi Informasi dan Komunikasi",
            "tanggal_terbit": "2024-08-19",
            "url_tdpse_detail": "https://pse.komdigi.go.id/tdpse-detail/19994",
            "website": "enkrip.com"
        },
        {
            "id": "9ccc3a61-5896-49ff-a340-58833a2dce69",
            "nama_pse": "HANSS BUSINESS INDONESIA",
            "nama_se": "SCHOOLTECH INDONESIA",
            "sektor": "Sektor Teknologi Informasi dan Komunikasi",
            "tanggal_terbit": "2024-08-19",
            "url_tdpse_detail": "https://pse.komdigi.go.id/tdpse-detail/19989",
            "website": "schooltech.biz.id"
        },
        {
            "id": "9ccd083a-07e1-4ffb-bf7e-f04767a8011d",
            "nama_pse": "MERIAL SMART TECH",
            "nama_se": "MULTIPAY",
            "sektor": "Sektor Perdagangan, Sektor Teknologi Informasi dan Komunikasi",
            "tanggal_terbit": "2024-08-19",
            "url_tdpse_detail": "https://pse.komdigi.go.id/tdpse-detail/19998",
            "website": "ppob.merialsmarttech.com"
        },
        {
            "id": "9ccd2180-b5da-4dd9-9a4b-975faa5e7927",
            "nama_pse": "PANDAWA DALLE ABADI",
            "nama_se": "SIMANKEST",
            "sektor": "Sektor Kesehatan, Sektor Teknologi Informasi dan Komunikasi",
            "tanggal_terbit": "2024-08-19",
            "url_tdpse_detail": "https://pse.komdigi.go.id/tdpse-detail/20001",
            "website": "-"
        },
        {
            "id": "9ccd1b3e-0dc4-457c-a7ca-f2a701b082fa",
            "nama_pse": "MILENIAL GLOBAL MEDIA",
            "nama_se": "PT MILENIAL GLOBAL MEDIA",
            "sektor": "Sektor Teknologi Informasi dan Komunikasi",
            "tanggal_terbit": "2024-08-19",
            "url_tdpse_detail": "https://pse.komdigi.go.id/tdpse-detail/20000",
            "website": "milenet.id"
        },
        {
            "id": "9ccd3685-e30c-4a0e-a44d-9bb878ee9e63",
            "nama_pse": "BENINGS PRATAMA GRUP",
            "nama_se": "BENING'S KONSUL SKINCARE",
            "sektor": "Sektor Kesehatan",
            "tanggal_terbit": "2024-08-19",
            "url_tdpse_detail": "https://pse.komdigi.go.id/tdpse-detail/20002",
            "website": "-"
        },
        {
            "id": "9ccd5db5-a21b-43bd-8f67-0793ae8b8d75",
            "nama_pse": "WIRYAMANTA SADINA",
            "nama_se": "MOBILE APPS WINGSTOP INDONESIA",
            "sektor": "Sektor Perdagangan",
            "tanggal_terbit": "2024-08-19",
            "url_tdpse_detail": "https://pse.komdigi.go.id/tdpse-detail/20005",
            "website": "wingstop.id"
        },
        {
            "id": "9ccd68eb-5d72-4223-b93c-6daedb854d0e",
            "nama_pse": "SARANA INOVATIF ADIDAYA GALA ALAMI",
            "nama_se": "siaga0724",
            "sektor": "Sektor Teknologi Informasi dan Komunikasi",
            "tanggal_terbit": "2024-08-19",
            "url_tdpse_detail": "https://pse.komdigi.go.id/tdpse-detail/20006",
            "website": "siaga0724.com"
        },
        {
            "id": "9ccdddd1-a0ab-42f1-81b0-7fcb24da9911",
            "nama_pse": "HAJARWATI",
            "nama_se": "UPTED",
            "sektor": "Sektor Teknologi Informasi dan Komunikasi",
            "tanggal_terbit": "2024-08-19",
            "url_tdpse_detail": "https://pse.komdigi.go.id/tdpse-detail/20007",
            "website": "upted.id"
        },
        {
            "id": "9ccdfe06-54cc-4b36-baef-1badfa4ccec6",
            "nama_pse": "CANECA GLOBAL SOLUTION",
            "nama_se": "MYMEDICA.ID",
            "sektor": "Sektor Kesehatan, Sektor Teknologi Informasi dan Komunikasi",
            "tanggal_terbit": "2024-08-19",
            "url_tdpse_detail": "https://pse.komdigi.go.id/tdpse-detail/20009",
            "website": "mymedica.id"
        },
        {
            "id": "9ccce90d-1989-4092-b41b-fda640aedaf7",
            "nama_pse": "BAGJA KAMULYAN INDONESIA",
            "nama_se": "SIK BAGJA",
            "sektor": "Sektor Kesehatan",
            "tanggal_terbit": "2024-08-19",
            "url_tdpse_detail": "https://pse.komdigi.go.id/tdpse-detail/19992",
            "website": "web.bagjakamulyan.com"
        },
        {
            "id": "9ccd1a15-3f89-4d4c-a6ce-2292621e39f3",
            "nama_pse": "STARLINK GLOBAL NETWORK",
            "nama_se": "STARLINK GLOBAL NETWORK",
            "sektor": "Sektor Teknologi Informasi dan Komunikasi",
            "tanggal_terbit": "2024-08-19",
            "url_tdpse_detail": "https://pse.komdigi.go.id/tdpse-detail/19999",
            "website": "sgnet.co.id"
        },
        {
            "id": "9ccd4f52-b387-4aab-a31a-66c6ff1769a3",
            "nama_pse": "LILI SOPIANDI",
            "nama_se": "PARAMEDIC",
            "sektor": "Sektor Kesehatan",
            "tanggal_terbit": "2024-08-19",
            "url_tdpse_detail": "https://pse.komdigi.go.id/tdpse-detail/20003",
            "website": "paramedic.id"
        },
        {
            "id": "9cccdfdb-be87-4ac4-80f2-c446dce19811",
            "nama_pse": "HANWHA LIFE INSURANCE INDONESIA",
            "nama_se": "WEBSITE MYVITAMINE.CO.ID",
            "sektor": "Sektor Keuangan",
            "tanggal_terbit": "2024-08-19",
            "url_tdpse_detail": "https://pse.komdigi.go.id/tdpse-detail/19990",
            "website": "myvitamine.co.id"
        },
        {
            "id": "9ccb6eb8-fe23-4d77-add3-cd43bbec970b",
            "nama_pse": "MULAI JAYA NUSANTARA",
            "nama_se": "LAYANAN INTERNET LOKAL",
            "sektor": "Sektor Teknologi Informasi dan Komunikasi",
            "tanggal_terbit": "2024-08-18",
            "url_tdpse_detail": "https://pse.komdigi.go.id/tdpse-detail/19987",
            "website": "-"
        },
        {
            "id": "9cca18ec-c0d8-409f-b472-65296d4eb6af",
            "nama_pse": "LABKLIN MEDLABTECH INDONESIA",
            "nama_se": "LABKLIN SYSTEMS",
            "sektor": "Sektor Kesehatan",
            "tanggal_terbit": "2024-08-18",
            "url_tdpse_detail": "https://pse.komdigi.go.id/tdpse-detail/19984",
            "website": "labklin.id"
        },
        {
            "id": "9cca6903-7ac6-4333-a87b-a905d2b314c9",
            "nama_pse": "ATHEOS NETWORK GROUP",
            "nama_se": "LAYANAN INTERNET LOKAL (RT RW NET)",
            "sektor": "Sektor Teknologi Informasi dan Komunikasi",
            "tanggal_terbit": "2024-08-18",
            "url_tdpse_detail": "https://pse.komdigi.go.id/tdpse-detail/19986",
            "website": "-"
        },
        {
            "id": "9ccbc638-eaec-4c20-a736-1c0c26f40d07",
            "nama_pse": "CIPTA UTAMA ADHIGUNA NUSANTARA",
            "nama_se": "KONKOIN.ID",
            "sektor": "Sektor Perdagangan",
            "tanggal_terbit": "2024-08-18",
            "url_tdpse_detail": "https://pse.komdigi.go.id/tdpse-detail/19988",
            "website": "konkoin.id"
        },
        {
            "id": "9cca3efa-5560-4360-bd7e-00010cbd7b15",
            "nama_pse": "DUTA TRAVELINDO PERKASA",
            "nama_se": "PENYEDIA JASA SEWA MOBIL",
            "sektor": "Sektor Perdagangan, Sektor Transportasi",
            "tanggal_terbit": "2024-08-18",
            "url_tdpse_detail": "https://pse.komdigi.go.id/tdpse-detail/19985",
            "website": "dutatravel.id"
        },
        {
            "id": "9cc896b9-0d23-4dd2-95eb-e02c5f22d1c9",
            "nama_pse": "SEMESTA SELARAS AYUBUDIMAN",
            "nama_se": "SEMESTA SELARAS AYU BUDIMAN",
            "sektor": "Sektor Perdagangan",
            "tanggal_terbit": "2024-08-17",
            "url_tdpse_detail": "https://pse.komdigi.go.id/tdpse-detail/19962",
            "website": "selarascraft.com"
        },
        {
            "id": "9cc87620-a808-484b-a865-e1657bd4fe72",
            "nama_pse": "JAWARA ABHIPRAYA SANTOSHA",
            "nama_se": "JAWARA PROPERTY",
            "sektor": "Sektor Perdagangan, Sektor Teknologi Informasi dan Komunikasi",
            "tanggal_terbit": "2024-08-17",
            "url_tdpse_detail": "https://pse.komdigi.go.id/tdpse-detail/19961",
            "website": "jawaraproperty.com"
        }
    ],
    "processingTimeMs": 1,
    "query": "",
    "totalHits": 19131,
    "hitsPerPage": 50,
    "page": 47,
    "totalPages": 383
}