{
    "hits": [
        {
            "id": "9cb1ac86-fde0-43fe-811e-a906f800ecc8",
            "nama_pse": "XANHSM GREEN AND SMART MOBILITY INDONESIA",
            "nama_se": "XANH SM ADMIN PORTAL",
            "sektor": "Sektor Transportasi",
            "tanggal_terbit": "2024-06-04",
            "url_tdpse_detail": "https://pse.komdigi.go.id/tdpse-detail/19136",
            "website": "id.xanhsm.com"
        },
        {
            "id": "9cb1ac5c-46d2-4e8f-a567-1aaf68404ee9",
            "nama_pse": "PATROLI GRUP INTERNASIONAL",
            "nama_se": "PATROLIGRUP.COM",
            "sektor": "Sektor Teknologi Informasi dan Komunikasi",
            "tanggal_terbit": "2024-06-03",
            "url_tdpse_detail": "https://pse.komdigi.go.id/tdpse-detail/19116",
            "website": "patroligrup.com"
        },
        {
            "id": "9cb1ac86-e31e-4128-893f-14098d120855",
            "nama_pse": "PATROLI GRUP INTERNASIONAL",
            "nama_se": "PATROLI86.COM",
            "sektor": "Sektor Teknologi Informasi dan Komunikasi",
            "tanggal_terbit": "2024-06-03",
            "url_tdpse_detail": "https://pse.komdigi.go.id/tdpse-detail/19117",
            "website": "patroli86.com"
        },
        {
            "id": "9cb1ac86-e67f-4c4a-b9f8-694a8412d4ac",
            "nama_pse": "MEDIA KOMUNIKASI INFORMASI",
            "nama_se": "KEPALADESA.ID",
            "sektor": "Sektor Teknologi Informasi dan Komunikasi",
            "tanggal_terbit": "2024-06-03",
            "url_tdpse_detail": "https://pse.komdigi.go.id/tdpse-detail/19118",
            "website": "kepaladesa.id"
        },
        {
            "id": "9cb1ac5c-4a4e-47d8-babd-29e7e80376a4",
            "nama_pse": "NUSANTARA MEDIKA UTAMA",
            "nama_se": "HIS SIMFONIA RS PERKEBUNAN JEMBER KLINIK",
            "sektor": "Sektor Kesehatan, Sektor Teknologi Informasi dan Komunikasi",
            "tanggal_terbit": "2024-06-03",
            "url_tdpse_detail": "https://pse.komdigi.go.id/tdpse-detail/19119",
            "website": "jemberklinik.co.id"
        },
        {
            "id": "9cb1ac86-ea29-4a16-a506-ef10d70b9913",
            "nama_pse": "MEDIA KOMUNIKASI INFORMASI",
            "nama_se": "TINTA.CO.ID",
            "sektor": "Sektor Teknologi Informasi dan Komunikasi",
            "tanggal_terbit": "2024-06-03",
            "url_tdpse_detail": "https://pse.komdigi.go.id/tdpse-detail/19120",
            "website": "tinta.co.id"
        },
        {
            "id": "9cb1ac5c-4d9c-4f4b-b5f1-2c424d89f3e8",
            "nama_pse": "NUSANTARA MEDIKA UTAMA",
            "nama_se": "HIS SIMFONIA RS GATOEL",
            "sektor": "Sektor Kesehatan, Sektor Teknologi Informasi dan Komunikasi",
            "tanggal_terbit": "2024-06-03",
            "url_tdpse_detail": "https://pse.komdigi.go.id/tdpse-detail/19121",
            "website": "-"
        },
        {
            "id": "9cb1ac71-3537-43f0-b617-8880c829ca41",
            "nama_pse": "NUSANTARA MEDIKA UTAMA",
            "nama_se": "HIS SIMFONIA RS TOELOENGREDJO",
            "sektor": "Sektor Kesehatan, Sektor Teknologi Informasi dan Komunikasi",
            "tanggal_terbit": "2024-06-03",
            "url_tdpse_detail": "https://pse.komdigi.go.id/tdpse-detail/19122",
            "website": "rshva.co.id"
        },
        {
            "id": "9cb1ac86-ef29-465f-b9da-efd10fb62fad",
            "nama_pse": "NUSANTARA MEDIKA UTAMA",
            "nama_se": "HIS SIMFONIA RS MEDIKA UTAMA",
            "sektor": "Sektor Kesehatan, Sektor Teknologi Informasi dan Komunikasi",
            "tanggal_terbit": "2024-06-03",
            "url_tdpse_detail": "https://pse.komdigi.go.id/tdpse-detail/19123",
            "website": "rsmublitar.co.id"
        },
        {
            "id": "9cb1ac86-f2ee-4502-b325-f15e535c4495",
            "nama_pse": "XANHSM GREEN AND SMART MOBILITY INDONESIA",
            "nama_se": "XANH SM DRIVER",
            "sektor": "Sektor Perdagangan",
            "tanggal_terbit": "2024-06-03",
            "url_tdpse_detail": "https://pse.komdigi.go.id/tdpse-detail/19125",
            "website": "-"
        },
        {
            "id": "9cb1ac5c-50ab-469e-93af-9b53e101ae0d",
            "nama_pse": "SARANA MEDIA NASIONAL",
            "nama_se": "PUBLIKASINASIONAL.COM",
            "sektor": "Sektor Teknologi Informasi dan Komunikasi",
            "tanggal_terbit": "2024-06-03",
            "url_tdpse_detail": "https://pse.komdigi.go.id/tdpse-detail/19126",
            "website": "publikasinasional.com"
        },
        {
            "id": "9cb1ac71-3910-499b-87ec-91611484abe3",
            "nama_pse": "TRIGGER SOLUSI INDONESIA",
            "nama_se": "GIGSCO",
            "sektor": "Sektor Teknologi Informasi dan Komunikasi",
            "tanggal_terbit": "2024-06-03",
            "url_tdpse_detail": "https://pse.komdigi.go.id/tdpse-detail/19127",
            "website": "Gigsco.Com"
        },
        {
            "id": "9cb1ac5c-546a-4b93-99a3-ddffead3630c",
            "nama_pse": "SARANA MEDIA NASIONAL",
            "nama_se": "JABAR UPDATE",
            "sektor": "Sektor Teknologi Informasi dan Komunikasi",
            "tanggal_terbit": "2024-06-03",
            "url_tdpse_detail": "https://pse.komdigi.go.id/tdpse-detail/19129",
            "website": "jabar-update.com"
        },
        {
            "id": "9cb1ac5c-5780-41a4-a669-a36626a3cca5",
            "nama_pse": "KEPRI WEBSITE MEDIA",
            "nama_se": "KEPRIWEBSITE.COM",
            "sektor": "Sektor Teknologi Informasi dan Komunikasi",
            "tanggal_terbit": "2024-06-03",
            "url_tdpse_detail": "https://pse.komdigi.go.id/tdpse-detail/19130",
            "website": "kepriwebsite.com"
        },
        {
            "id": "9cb1ac86-f9ec-4cbd-8ffe-138f2be084d2",
            "nama_pse": "LANGIT SELATAN MAJU",
            "nama_se": "COSMETICPRO",
            "sektor": "Sektor Perdagangan",
            "tanggal_terbit": "2024-06-03",
            "url_tdpse_detail": "https://pse.komdigi.go.id/tdpse-detail/19131",
            "website": "cosmeticpro.site"
        },
        {
            "id": "9cb1ac71-3c91-4285-98e0-364ad1335e4f",
            "nama_pse": "FANI ANGGITA",
            "nama_se": "DIVEDEV",
            "sektor": "Sektor Teknologi Informasi dan Komunikasi",
            "tanggal_terbit": "2024-06-03",
            "url_tdpse_detail": "https://pse.komdigi.go.id/tdpse-detail/19132",
            "website": "divedev.cloud"
        },
        {
            "id": "9cb1ac83-6340-4ed6-94ab-b5319546f284",
            "nama_pse": "RIYANTO WIBOWO",
            "nama_se": "PELATCHAT",
            "sektor": "Sektor Teknologi Informasi dan Komunikasi",
            "tanggal_terbit": "2024-06-03",
            "url_tdpse_detail": "https://pse.komdigi.go.id/tdpse-detail/19128",
            "website": "pelatchat.com"
        },
        {
            "id": "9cb1ac59-d519-444c-9746-1a33bb5d43ff",
            "nama_pse": "INDO SMART MEDIA",
            "nama_se": "PASARAYA",
            "sektor": "Sektor Perdagangan",
            "tanggal_terbit": "2024-06-03",
            "url_tdpse_detail": "https://pse.komdigi.go.id/tdpse-detail/19124",
            "website": "-"
        },
        {
            "id": "9cb1ac5c-3a70-4507-a295-ca57f9f8215c",
            "nama_pse": "KEBUN EMAS NUSANTARA",
            "nama_se": "KEEMASAN45",
            "sektor": "Sektor Perdagangan",
            "tanggal_terbit": "2024-06-02",
            "url_tdpse_detail": "https://pse.komdigi.go.id/tdpse-detail/19109",
            "website": "keemasan45.com"
        },
        {
            "id": "9cb1ac71-1c83-4fd3-b2db-719dcf8b39b9",
            "nama_pse": "SENYUM REJEKI DIGITAL",
            "nama_se": "SENYUM REJEKI",
            "sektor": "Sektor Perdagangan",
            "tanggal_terbit": "2024-06-02",
            "url_tdpse_detail": "https://pse.komdigi.go.id/tdpse-detail/19115",
            "website": "senyumrejeki.com"
        },
        {
            "id": "9cb1ac71-231d-4169-8c01-1d4cd35732c7",
            "nama_pse": "RENTALNESIA KREASI SOLUSINDO",
            "nama_se": "REKSAMEDIC",
            "sektor": "Sektor Teknologi Informasi dan Komunikasi",
            "tanggal_terbit": "2024-06-02",
            "url_tdpse_detail": "https://pse.komdigi.go.id/tdpse-detail/19108",
            "website": "simrsreksamedic.com"
        },
        {
            "id": "9cb1ac86-d1f1-424a-a06c-92b2241709f9",
            "nama_pse": "HARDXA ESA GLOBALINDO",
            "nama_se": "KONSULTAN BISNIS PERIZINAN USAHA",
            "sektor": "Sektor Perdagangan",
            "tanggal_terbit": "2024-06-02",
            "url_tdpse_detail": "https://pse.komdigi.go.id/tdpse-detail/19114",
            "website": "ptheg.com"
        },
        {
            "id": "9cb1ac71-269c-4cbd-af09-e4e833370093",
            "nama_pse": "MUHAMI MULTI JASA",
            "nama_se": "QONTRAK",
            "sektor": "Sektor Teknologi Informasi dan Komunikasi",
            "tanggal_terbit": "2024-06-02",
            "url_tdpse_detail": "https://pse.komdigi.go.id/tdpse-detail/19110",
            "website": "qontrak.com"
        },
        {
            "id": "9cb1ac86-d706-4984-85c4-18e144272cd5",
            "nama_pse": "MATARAM MEDIKA",
            "nama_se": "SISTEM INFORMASI PELAYANAN KLINIK MATARAM MEDIKA",
            "sektor": "Sektor Kesehatan",
            "tanggal_terbit": "2024-06-02",
            "url_tdpse_detail": "https://pse.komdigi.go.id/tdpse-detail/19111",
            "website": "-"
        },
        {
            "id": "9cb1ac71-2d96-46a0-a30d-97033f47b4a2",
            "nama_pse": "REKA CIPTA SOLUSI",
            "nama_se": "EAZE",
            "sektor": "Sektor Teknologi Informasi dan Komunikasi",
            "tanggal_terbit": "2024-06-02",
            "url_tdpse_detail": "https://pse.komdigi.go.id/tdpse-detail/19112",
            "website": "eaze.onbilling.id"
        },
        {
            "id": "9cb1ac71-3165-4690-9489-b38dbf175e26",
            "nama_pse": "TRI WAHYUDI",
            "nama_se": "PERWIRA  MEDIA NETWORK",
            "sektor": "Sektor Teknologi Informasi dan Komunikasi",
            "tanggal_terbit": "2024-06-02",
            "url_tdpse_detail": "https://pse.komdigi.go.id/tdpse-detail/19113",
            "website": "-"
        },
        {
            "id": "9cb1ac86-c037-4aa6-84dc-3749e5451be0",
            "nama_pse": "ARHAS TEKNOLOGI DIGITAL",
            "nama_se": "WEBSITE WWW.ONANOW.COM, APLIKASI ONA (UTAMA/ USER, MITRA USAHA, MITRA KURIR), APLIKASI LAFAR (UTAMA/ USER, MITRA USAHA, MITRA KURIR)",
            "sektor": "Sektor Perdagangan, Sektor Transportasi, Sektor Teknologi Informasi dan Komunikasi",
            "tanggal_terbit": "2024-06-01",
            "url_tdpse_detail": "https://pse.komdigi.go.id/tdpse-detail/19106",
            "website": "onanow.com"
        },
        {
            "id": "9cb1ac86-c8b6-4d01-8ffc-89855fa37f4b",
            "nama_pse": "MUHAMMAD AJIE PRASTYO",
            "nama_se": "MITRA FASKES",
            "sektor": "Sektor Teknologi Informasi dan Komunikasi",
            "tanggal_terbit": "2024-06-01",
            "url_tdpse_detail": "https://pse.komdigi.go.id/tdpse-detail/19107",
            "website": "-"
        },
        {
            "id": "9cb1ac86-9955-4423-b9a8-42f9d0bd089e",
            "nama_pse": "SOTTA TEKNOLOGI INDONESIA",
            "nama_se": "VCGAMERS",
            "sektor": "Sektor Teknologi Informasi dan Komunikasi",
            "tanggal_terbit": "2024-05-31",
            "url_tdpse_detail": "https://pse.komdigi.go.id/tdpse-detail/19103",
            "website": "vcgamers.com"
        },
        {
            "id": "9cb1ac71-001a-4540-905d-f4c93aecc20f",
            "nama_pse": "LENSUNG TECHNOLOGY INDONESIA",
            "nama_se": "SHOPCRAFT",
            "sektor": "Sektor Teknologi Informasi dan Komunikasi",
            "tanggal_terbit": "2024-05-31",
            "url_tdpse_detail": "https://pse.komdigi.go.id/tdpse-detail/19093",
            "website": "shopcraft.ai"
        },
        {
            "id": "9cb1ac5c-24e6-4459-b9ce-e17b37c5911e",
            "nama_pse": "WARDAH MEDICAL CENTER",
            "nama_se": "MLITE KLINIK UTAMA WARDA",
            "sektor": "Sektor Kesehatan",
            "tanggal_terbit": "2024-05-31",
            "url_tdpse_detail": "https://pse.komdigi.go.id/tdpse-detail/19101",
            "website": "-"
        },
        {
            "id": "9cb1ac71-0afd-4178-a515-a40665ef8ffe",
            "nama_pse": "LAWANG SEWU TEKNOLOGI",
            "nama_se": "REKAM MEDISKU",
            "sektor": "Sektor Teknologi Informasi dan Komunikasi",
            "tanggal_terbit": "2024-05-31",
            "url_tdpse_detail": "https://pse.komdigi.go.id/tdpse-detail/19094",
            "website": "rekammedisku.id"
        },
        {
            "id": "9cb1ac5c-28d6-4038-9e7e-39b39b5da27a",
            "nama_pse": "XANHSM GREEN AND SMART MOBILITY INDONESIA",
            "nama_se": "XANH SM",
            "sektor": "Sektor Perdagangan",
            "tanggal_terbit": "2024-05-31",
            "url_tdpse_detail": "https://pse.komdigi.go.id/tdpse-detail/19096",
            "website": "-"
        },
        {
            "id": "9cb1ac71-1562-4c44-b405-87bbe814f1d7",
            "nama_pse": "BANGKIT MEMBANGUN NEGERI",
            "nama_se": "BAITULLAH.CO.ID",
            "sektor": "Sektor Perdagangan",
            "tanggal_terbit": "2024-05-31",
            "url_tdpse_detail": "https://pse.komdigi.go.id/tdpse-detail/19095",
            "website": "-"
        },
        {
            "id": "9cb1ac86-b134-4db0-a127-923f4c46216a",
            "nama_pse": "BANGKIT MEMBANGUN NEGERI",
            "nama_se": "BAITULLAH.CO .ID",
            "sektor": "Sektor Perdagangan",
            "tanggal_terbit": "2024-05-31",
            "url_tdpse_detail": "https://pse.komdigi.go.id/tdpse-detail/19097",
            "website": "Baitullah.co.id"
        },
        {
            "id": "9cb1ac5c-2bb4-4f86-b546-030b95fa738c",
            "nama_pse": "MEGA LINTAS TEKNOLOGI",
            "nama_se": "PT MEGA LINTAS TEKNOLOGI",
            "sektor": "Sektor Teknologi Informasi dan Komunikasi",
            "tanggal_terbit": "2024-05-31",
            "url_tdpse_detail": "https://pse.komdigi.go.id/tdpse-detail/19102",
            "website": "metagooid.com"
        },
        {
            "id": "9cb1ac71-1908-4b0c-838d-04cb60bcb728",
            "nama_pse": "BANGKIT MEMBANGUN NEGERI",
            "nama_se": "WONDO.CO.ID",
            "sektor": "Sektor Perdagangan",
            "tanggal_terbit": "2024-05-31",
            "url_tdpse_detail": "https://pse.komdigi.go.id/tdpse-detail/19098",
            "website": "Wondo.co.id"
        },
        {
            "id": "9cb1ac5c-2ee8-4a33-a964-22b8da249173",
            "nama_pse": "LAWANG SEWU TEKNOLOGI",
            "nama_se": "DESA DIGI",
            "sektor": "Sektor Teknologi Informasi dan Komunikasi",
            "tanggal_terbit": "2024-05-31",
            "url_tdpse_detail": "https://pse.komdigi.go.id/tdpse-detail/19100",
            "website": "desadigi.id"
        },
        {
            "id": "9cb1ac5c-355c-440e-a7a4-5e040ce53b68",
            "nama_pse": "SINERGI ASIA KONSULTAN",
            "nama_se": "PROLINKS",
            "sektor": "Sektor Perdagangan, Sektor Teknologi Informasi dan Komunikasi",
            "tanggal_terbit": "2024-05-31",
            "url_tdpse_detail": "https://pse.komdigi.go.id/tdpse-detail/19104",
            "website": "Prolinks.id"
        },
        {
            "id": "9cb1ac86-91d8-49ed-9c21-f42b6489464d",
            "nama_pse": "RINALDI",
            "nama_se": "BUYFISHH",
            "sektor": "Sektor Perdagangan",
            "tanggal_terbit": "2024-05-30",
            "url_tdpse_detail": "https://pse.komdigi.go.id/tdpse-detail/19081",
            "website": "buyfishh.com"
        },
        {
            "id": "9cb1ac5c-0ec5-49a2-960e-82ef1696de08",
            "nama_pse": "AZRIFIRIZKI ANANDA",
            "nama_se": "BUYFFISH",
            "sektor": "Sektor Perdagangan",
            "tanggal_terbit": "2024-05-30",
            "url_tdpse_detail": "https://pse.komdigi.go.id/tdpse-detail/19082",
            "website": "buyyfish.id"
        },
        {
            "id": "9cb1ac70-f87f-4021-9ded-563114626246",
            "nama_pse": "YAMISOK PLATFORM INDONESIA",
            "nama_se": "YAMIPAY",
            "sektor": "Sektor Teknologi Informasi dan Komunikasi",
            "tanggal_terbit": "2024-05-30",
            "url_tdpse_detail": "https://pse.komdigi.go.id/tdpse-detail/19087",
            "website": "YAMISOK.COM"
        },
        {
            "id": "9cb1ac86-94ea-430a-8678-c56b0ec1fcc1",
            "nama_pse": "LAWANG SEWU TEKNOLOGI",
            "nama_se": "CARTU",
            "sektor": "Sektor Teknologi Informasi dan Komunikasi",
            "tanggal_terbit": "2024-05-30",
            "url_tdpse_detail": "https://pse.komdigi.go.id/tdpse-detail/19084",
            "website": "cartu.id"
        },
        {
            "id": "9cb1ac5c-1807-4ccf-a703-34ed672e571d",
            "nama_pse": "GLOBAL DIGITAL INDOKREASI",
            "nama_se": "LAPAKGAMING APLIKASI",
            "sektor": "Sektor Teknologi Informasi dan Komunikasi",
            "tanggal_terbit": "2024-05-30",
            "url_tdpse_detail": "https://pse.komdigi.go.id/tdpse-detail/19085",
            "website": "-"
        },
        {
            "id": "9cb1ac5c-1bab-48bb-9527-98d28090e52b",
            "nama_pse": "RIHLA INNOVATION INDONESIA",
            "nama_se": "RIHLA",
            "sektor": "Sektor Teknologi Informasi dan Komunikasi",
            "tanggal_terbit": "2024-05-30",
            "url_tdpse_detail": "https://pse.komdigi.go.id/tdpse-detail/19088",
            "website": "rihla.co.id"
        },
        {
            "id": "9cb1ac86-a454-4f1f-a323-718051b1689c",
            "nama_pse": "PANDUMU SUARSUA BARAKA",
            "nama_se": "MUNAJAT",
            "sektor": "Sektor Teknologi Informasi dan Komunikasi",
            "tanggal_terbit": "2024-05-30",
            "url_tdpse_detail": "https://pse.komdigi.go.id/tdpse-detail/19089",
            "website": "munajat.id"
        },
        {
            "id": "9cb1ac86-a741-4876-8332-32baceb28e91",
            "nama_pse": "TEUKU EDWARD",
            "nama_se": "KURSUS ONLINE TAMANALQURAN.ID",
            "sektor": "Sektor Perdagangan",
            "tanggal_terbit": "2024-05-30",
            "url_tdpse_detail": "https://pse.komdigi.go.id/tdpse-detail/19090",
            "website": "tamanalquran.id"
        },
        {
            "id": "9cb1ac71-0377-4856-97ba-c430cd98a77b",
            "nama_pse": "SUPERNOVA PALAPA NUSANTARA",
            "nama_se": "E-PUSKESMAS",
            "sektor": "Sektor Kesehatan",
            "tanggal_terbit": "2024-05-30",
            "url_tdpse_detail": "https://pse.komdigi.go.id/tdpse-detail/19091",
            "website": "dev.epuskesmas.supernovacorp.ltd"
        },
        {
            "id": "9cb1ac71-0731-4fa9-8ac1-a3b752248170",
            "nama_pse": "JENOVAC MOUNTAIN CORP",
            "nama_se": "INDOIZIN",
            "sektor": "Sektor Perdagangan",
            "tanggal_terbit": "2024-05-30",
            "url_tdpse_detail": "https://pse.komdigi.go.id/tdpse-detail/19092",
            "website": "indoizin.id"
        },
        {
            "id": "9cb1ac85-0cc9-4a48-9cb5-166de1d6acb7",
            "nama_pse": "JGM MEETQUEST DIGITECH",
            "nama_se": "MEETQUEST",
            "sektor": "Sektor Teknologi Informasi dan Komunikasi",
            "tanggal_terbit": "2024-05-30",
            "url_tdpse_detail": "https://pse.komdigi.go.id/tdpse-detail/19083",
            "website": "jgmmeetquest.com"
        }
    ],
    "processingTimeMs": 2,
    "query": "",
    "totalHits": 19121,
    "hitsPerPage": 50,
    "page": 63,
    "totalPages": 383
}