{
    "hits": [
        {
            "id": "9cb1ac7c-e0ab-403f-bd6e-b2dece310fd0",
            "nama_pse": "CVLID ONLINE DIGITAL",
            "nama_se": "CVLID.COM",
            "sektor": "Sektor Teknologi Informasi dan Komunikasi",
            "tanggal_terbit": "2024-02-03",
            "url_tdpse_detail": "https://pse.komdigi.go.id/tdpse-detail/17618",
            "website": "cvlid.com"
        },
        {
            "id": "9cb1ac54-d6a5-451f-bbc3-d233df884f62",
            "nama_pse": "WULAN WINDY",
            "nama_se": "SIMRS",
            "sektor": "Sektor Teknologi Informasi dan Komunikasi",
            "tanggal_terbit": "2024-02-03",
            "url_tdpse_detail": "https://pse.komdigi.go.id/tdpse-detail/17627",
            "website": "-"
        },
        {
            "id": "9cb1ac68-f0fe-4350-88c4-c6c3fb487c63",
            "nama_pse": "GERHANA MULTI PAYMENT",
            "nama_se": "GERHANA RELOAD",
            "sektor": "Sektor Teknologi Informasi dan Komunikasi",
            "tanggal_terbit": "2024-02-03",
            "url_tdpse_detail": "https://pse.komdigi.go.id/tdpse-detail/17628",
            "website": "-"
        },
        {
            "id": "9cb1ac68-f4ad-4ff5-8d9e-a425bfa6e718",
            "nama_pse": "MULTI GUNA INFOTAMA",
            "nama_se": "MULYOTRONIK",
            "sektor": "Sektor Perdagangan, Sektor Teknologi Informasi dan Komunikasi",
            "tanggal_terbit": "2024-02-03",
            "url_tdpse_detail": "https://pse.komdigi.go.id/tdpse-detail/17629",
            "website": "Mulyotronik.com"
        },
        {
            "id": "9cb1ac54-d98a-431e-bda8-72746a643b42",
            "nama_pse": "INDO GLOBAL SEJAHTERA",
            "nama_se": "VIE VOUCHER",
            "sektor": "Sektor Perdagangan, Sektor Teknologi Informasi dan Komunikasi",
            "tanggal_terbit": "2024-02-03",
            "url_tdpse_detail": "https://pse.komdigi.go.id/tdpse-detail/17630",
            "website": "vievoucher.com"
        },
        {
            "id": "9cb1ac68-f806-45f8-955e-287a6548586a",
            "nama_pse": "MEDIA MULTI AKSARA",
            "nama_se": "RIAUREALITA.COM",
            "sektor": "Sektor Teknologi Informasi dan Komunikasi",
            "tanggal_terbit": "2024-02-03",
            "url_tdpse_detail": "https://pse.komdigi.go.id/tdpse-detail/17632",
            "website": "riaurealita.com"
        },
        {
            "id": "9cb1ac7c-ee3a-4059-aa20-94a0eccdb7c7",
            "nama_pse": "ARTIKULA CIPTA NUSANTARA",
            "nama_se": "NARAWARTA.COM",
            "sektor": "Sektor Teknologi Informasi dan Komunikasi",
            "tanggal_terbit": "2024-02-03",
            "url_tdpse_detail": "https://pse.komdigi.go.id/tdpse-detail/17633",
            "website": "narawarta.com"
        },
        {
            "id": "9cb1ac54-df88-4cf1-b66b-f91f110e1f53",
            "nama_pse": "BALI CAKRA AMERTA",
            "nama_se": "KIOS KAYA",
            "sektor": "Sektor Perdagangan, Sektor Teknologi Informasi dan Komunikasi",
            "tanggal_terbit": "2024-02-03",
            "url_tdpse_detail": "https://pse.komdigi.go.id/tdpse-detail/17636",
            "website": "-"
        },
        {
            "id": "9cb1ac68-fee7-46e0-a39e-fad8a213c8fe",
            "nama_pse": "MITRA RETAIL NUSANTARA",
            "nama_se": "BENEFIT PULSA",
            "sektor": "Sektor Perdagangan, Sektor Teknologi Informasi dan Komunikasi",
            "tanggal_terbit": "2024-02-03",
            "url_tdpse_detail": "https://pse.komdigi.go.id/tdpse-detail/17635",
            "website": "-"
        },
        {
            "id": "9cb1ac7c-f1f1-438d-8c57-c9bc4c54d0fb",
            "nama_pse": "MOOPAY PULSA INDONESIA",
            "nama_se": "MOOPAY",
            "sektor": "Sektor Perdagangan, Sektor Teknologi Informasi dan Komunikasi",
            "tanggal_terbit": "2024-02-03",
            "url_tdpse_detail": "https://pse.komdigi.go.id/tdpse-detail/17637",
            "website": "moopaypulsa.com"
        },
        {
            "id": "9cb1ac54-e28f-4470-8bca-a1a04068354e",
            "nama_pse": "SOLINDO NUSANTARA INTERMEDIA",
            "nama_se": "SOLINDO NUSANTARA INTERMEDIA",
            "sektor": "Sektor Perdagangan, Sektor Teknologi Informasi dan Komunikasi",
            "tanggal_terbit": "2024-02-03",
            "url_tdpse_detail": "https://pse.komdigi.go.id/tdpse-detail/17638",
            "website": "solindointermedia.co.id"
        },
        {
            "id": "9cb1ac7c-c907-4139-98f2-2cdea3c94da1",
            "nama_pse": "REINAYA ANGKASA SUKSES",
            "nama_se": "RAS_DIGITAL",
            "sektor": "Sektor Perdagangan",
            "tanggal_terbit": "2024-02-02",
            "url_tdpse_detail": "https://pse.komdigi.go.id/tdpse-detail/17610",
            "website": "-"
        },
        {
            "id": "9cb1ac68-9bad-4c93-bdd9-241218e20e96",
            "nama_pse": "REINAYA ANGKASA SUKSES",
            "nama_se": "R.A.S_DIGITAL",
            "sektor": "Sektor Perdagangan, Sektor Transportasi, Sektor Teknologi Informasi dan Komunikasi",
            "tanggal_terbit": "2024-02-02",
            "url_tdpse_detail": "https://pse.komdigi.go.id/tdpse-detail/17611",
            "website": "-"
        },
        {
            "id": "9cb1ac54-ca5a-4beb-bec1-4c3c0d1a3074",
            "nama_pse": "IDE BAKTI KARYA",
            "nama_se": "XRELOAD",
            "sektor": "Sektor Perdagangan",
            "tanggal_terbit": "2024-02-02",
            "url_tdpse_detail": "https://pse.komdigi.go.id/tdpse-detail/17612",
            "website": "-"
        },
        {
            "id": "9cb1ac68-a4c0-4d42-bc94-5c9a789cb2cd",
            "nama_pse": "TATONAS",
            "nama_se": "ENVIRONMENTAL MONITORING",
            "sektor": "Sektor Teknologi Informasi dan Komunikasi",
            "tanggal_terbit": "2024-02-02",
            "url_tdpse_detail": "https://pse.komdigi.go.id/tdpse-detail/17613",
            "website": "-"
        },
        {
            "id": "9cb1ac68-a95f-40de-97a7-dafec9d3fc5b",
            "nama_pse": "YOSEP ADITYA WICAKSONO",
            "nama_se": "-\tHMT-SIMEDIS V1 ( HARAPAN MUDA TEKNOLOGI - SISTEM INFORMASI MEDIS V1 )",
            "sektor": "Sektor Kesehatan",
            "tanggal_terbit": "2024-02-02",
            "url_tdpse_detail": "https://pse.komdigi.go.id/tdpse-detail/17614",
            "website": "-"
        },
        {
            "id": "9cb1ac68-b8ff-445d-aca0-b5157a2b3a2d",
            "nama_pse": "MUJI BERKAH LESTARI",
            "nama_se": "ASP MOBILE",
            "sektor": "Sektor Perdagangan, Sektor Teknologi Informasi dan Komunikasi",
            "tanggal_terbit": "2024-02-02",
            "url_tdpse_detail": "https://pse.komdigi.go.id/tdpse-detail/17615",
            "website": "-"
        },
        {
            "id": "9cb1ac68-c2b6-418c-becf-5fb75fe4726a",
            "nama_pse": "BJHGROUP MULTI SOLUTION",
            "nama_se": "SATRIABJH",
            "sektor": "Sektor Perdagangan, Sektor Teknologi Informasi dan Komunikasi",
            "tanggal_terbit": "2024-02-02",
            "url_tdpse_detail": "https://pse.komdigi.go.id/tdpse-detail/17616",
            "website": "-"
        },
        {
            "id": "9cb1ac54-cd52-4549-a0c8-65695bed1347",
            "nama_pse": "SULIA PULSA",
            "nama_se": "SULIA PULSA",
            "sektor": "Sektor Perdagangan, Sektor Teknologi Informasi dan Komunikasi",
            "tanggal_terbit": "2024-02-02",
            "url_tdpse_detail": "https://pse.komdigi.go.id/tdpse-detail/17617",
            "website": "-"
        },
        {
            "id": "9cb1ac68-a0bc-4aa8-8338-c04983d3a6ed",
            "nama_pse": "ELISABETH",
            "nama_se": "MEDINFRAS",
            "sektor": "Sektor Kesehatan",
            "tanggal_terbit": "2024-02-02",
            "url_tdpse_detail": "https://pse.komdigi.go.id/tdpse-detail/18065",
            "website": "-"
        },
        {
            "id": "9cb1ac7c-b082-4050-b5d0-3c03080a3cee",
            "nama_pse": "INDODANA MULTI FINANCE",
            "nama_se": "PT INDODANA MULTI FINANCE (APLIKASI INDODANA)",
            "sektor": "Sektor Keuangan",
            "tanggal_terbit": "2024-02-01",
            "url_tdpse_detail": "https://pse.komdigi.go.id/tdpse-detail/17598",
            "website": "-"
        },
        {
            "id": "9cb1ac54-bdd0-4d56-a422-9e375f0a9f9f",
            "nama_pse": "INDODANA MULTI FINANCE",
            "nama_se": "PT INDODANA MULTI FINANCE (APLIKASI INDODANA MITRA)",
            "sektor": "Sektor Keuangan",
            "tanggal_terbit": "2024-02-01",
            "url_tdpse_detail": "https://pse.komdigi.go.id/tdpse-detail/17599",
            "website": "-"
        },
        {
            "id": "9cb1ac68-834c-49d5-b589-9ccd26f3bb28",
            "nama_pse": "WILLY CHANDRA NEGARA",
            "nama_se": "LYFT PAY",
            "sektor": "Sektor Teknologi Informasi dan Komunikasi",
            "tanggal_terbit": "2024-02-01",
            "url_tdpse_detail": "https://pse.komdigi.go.id/tdpse-detail/17597",
            "website": "-"
        },
        {
            "id": "9cb1ac54-c409-4dd1-a539-3f15c17bcffd",
            "nama_pse": "TANAM EMAS MURNI",
            "nama_se": "TANAM EMAS APPS (APLIKASI MOBILE)",
            "sektor": "Sektor Perdagangan, Sektor Teknologi Informasi dan Komunikasi",
            "tanggal_terbit": "2024-02-01",
            "url_tdpse_detail": "https://pse.komdigi.go.id/tdpse-detail/17601",
            "website": "-"
        },
        {
            "id": "9cb1ac7c-bd1d-4e46-a562-c13b5378e9cb",
            "nama_pse": "CONSISTECH SOLUTION",
            "nama_se": "SISTEM ELEKTRONIK REKAM MEDIK",
            "sektor": "Sektor Kesehatan",
            "tanggal_terbit": "2024-02-01",
            "url_tdpse_detail": "https://pse.komdigi.go.id/tdpse-detail/17602",
            "website": "-"
        },
        {
            "id": "9cb1ac68-86c6-415c-8f2c-8a7ffd4abbc2",
            "nama_pse": "SINERGI PROPERTI PRATAMA",
            "nama_se": "APLIKASI KLINIK DAN FARMASI",
            "sektor": "Sektor Kesehatan",
            "tanggal_terbit": "2024-02-01",
            "url_tdpse_detail": "https://pse.komdigi.go.id/tdpse-detail/17603",
            "website": "-"
        },
        {
            "id": "9cb1ac68-8b2d-43fe-9fc8-72f1005b8dc6",
            "nama_pse": "SCSK GLOBAL INDONESIA",
            "nama_se": "SSRI INVENTORY",
            "sektor": "Sektor Teknologi Informasi dan Komunikasi",
            "tanggal_terbit": "2024-02-01",
            "url_tdpse_detail": "https://pse.komdigi.go.id/tdpse-detail/17605",
            "website": "-"
        },
        {
            "id": "9cb1ac68-8ed6-4574-a02a-6a2ac788c244",
            "nama_pse": "SMARTSCORE GLOBAL INDONESIA",
            "nama_se": "SMARTSCORE",
            "sektor": "Sektor Teknologi Informasi dan Komunikasi",
            "tanggal_terbit": "2024-02-01",
            "url_tdpse_detail": "https://pse.komdigi.go.id/tdpse-detail/17604",
            "website": "-"
        },
        {
            "id": "9cb1ac7c-c17d-4674-8884-7e61c61d236e",
            "nama_pse": "INDOCEMENT TUNGGAL PRAKARSA",
            "nama_se": "RME INDOCEMENT CITEUREUP",
            "sektor": "Sektor Kesehatan",
            "tanggal_terbit": "2024-02-01",
            "url_tdpse_detail": "https://pse.komdigi.go.id/tdpse-detail/17606",
            "website": "-"
        },
        {
            "id": "9cb1ac54-c73d-4426-a04b-8a84ecdbed7e",
            "nama_pse": "MOBILITAS TRANSISI ENERGI",
            "nama_se": "APLIKASI MOTER.ID",
            "sektor": "Sektor Teknologi Informasi dan Komunikasi",
            "tanggal_terbit": "2024-02-01",
            "url_tdpse_detail": "https://pse.komdigi.go.id/tdpse-detail/17607",
            "website": "-"
        },
        {
            "id": "9cb1ac68-93be-404a-a779-3023cccd4f7a",
            "nama_pse": "INFOLOG SOLUTIONS INDONESIA",
            "nama_se": "INFOLOG",
            "sektor": "Sektor Teknologi Informasi dan Komunikasi",
            "tanggal_terbit": "2024-02-01",
            "url_tdpse_detail": "https://pse.komdigi.go.id/tdpse-detail/17608",
            "website": "-"
        },
        {
            "id": "9cb1ac68-9807-43af-9261-067f18cb28fe",
            "nama_pse": "SATYA ERLANGGA SEJAHTERA",
            "nama_se": "SIMFONIK",
            "sektor": "Sektor Perdagangan, Sektor Kesehatan, Sektor Teknologi Informasi dan Komunikasi",
            "tanggal_terbit": "2024-02-01",
            "url_tdpse_detail": "https://pse.komdigi.go.id/tdpse-detail/17609",
            "website": "-"
        },
        {
            "id": "9cb1ac68-7fea-4a43-a495-3c32630b0f30",
            "nama_pse": "INDODANA MULTI FINANCE",
            "nama_se": "PT INDODANA MULTI FINANCE (APLIKASI INDODANA MERCHANT)",
            "sektor": "Sektor Keuangan",
            "tanggal_terbit": "2024-02-01",
            "url_tdpse_detail": "https://pse.komdigi.go.id/tdpse-detail/17600",
            "website": "-"
        },
        {
            "id": "9cb1ac7c-9df1-42a6-b377-f9feec5b25f1",
            "nama_pse": "AUTHME TEKNOLOGI INDONESIA",
            "nama_se": "AUTHME TEKNOLOGI INDONESIA",
            "sektor": "Sektor Teknologi Informasi dan Komunikasi, Sektor Pertahanan dan Keamanan",
            "tanggal_terbit": "2024-01-31",
            "url_tdpse_detail": "https://pse.komdigi.go.id/tdpse-detail/17594",
            "website": "-"
        },
        {
            "id": "9cb1ac3a-588d-4678-8280-425ebe63cc12",
            "nama_pse": "BUKUAKU DIGITAL INDONESIA",
            "nama_se": "BUKUAKU DIGITAL LIBRARY APPLICATION",
            "sektor": "Sektor Teknologi Informasi dan Komunikasi",
            "tanggal_terbit": "2024-01-31",
            "url_tdpse_detail": "https://pse.komdigi.go.id/tdpse-detail/17587",
            "website": "bukuaku.id"
        },
        {
            "id": "9cb1ac54-b76f-48e4-aae1-9bf17aa8f75a",
            "nama_pse": "METRO SMART TECHNOLOGY",
            "nama_se": "SIKEMAS",
            "sektor": "Sektor Kesehatan, Sektor Teknologi Informasi dan Komunikasi",
            "tanggal_terbit": "2024-01-31",
            "url_tdpse_detail": "https://pse.komdigi.go.id/tdpse-detail/17585",
            "website": "-"
        },
        {
            "id": "9cb1ac54-ba91-40ea-bdaa-2f63497d2e80",
            "nama_pse": "GIGA SOLUSI KENCANA",
            "nama_se": "MEDIS ID",
            "sektor": "Sektor Kesehatan, Sektor Teknologi Informasi dan Komunikasi",
            "tanggal_terbit": "2024-01-31",
            "url_tdpse_detail": "https://pse.komdigi.go.id/tdpse-detail/17586",
            "website": "-"
        },
        {
            "id": "9cb1ac68-7502-4863-8067-2e747734522e",
            "nama_pse": "RS TK IV 12 07 02",
            "nama_se": "SISTEM INFORMASI RUMAH SAKIT",
            "sektor": "Sektor Kesehatan",
            "tanggal_terbit": "2024-01-31",
            "url_tdpse_detail": "https://pse.komdigi.go.id/tdpse-detail/17588",
            "website": "-"
        },
        {
            "id": "9cb1ac7c-8cfd-4a4c-9229-df43c195a023",
            "nama_pse": "DCREO MAKMUR ABADI",
            "nama_se": "KEGIATAN PENGOLAHAN \u0026 ENTRY DATA",
            "sektor": "Sektor Teknologi Informasi dan Komunikasi",
            "tanggal_terbit": "2024-01-31",
            "url_tdpse_detail": "https://pse.komdigi.go.id/tdpse-detail/17589",
            "website": "-"
        },
        {
            "id": "9cb1ac7c-916a-4586-bcbf-5812f3d7f30e",
            "nama_pse": "DCREO MAKMUR ABADI",
            "nama_se": "AKTIVITAS PEMOGRAMAN KOMPUTER",
            "sektor": "Sektor Teknologi Informasi dan Komunikasi",
            "tanggal_terbit": "2024-01-31",
            "url_tdpse_detail": "https://pse.komdigi.go.id/tdpse-detail/17590",
            "website": "-"
        },
        {
            "id": "9cb1ac7c-9560-4d8f-8f09-019d8afe5935",
            "nama_pse": "WILMAR CONSULTANCY SERVICES",
            "nama_se": "FARMER OPERATIONS MANAGEMENT SYSTEM",
            "sektor": "Sektor Pangan",
            "tanggal_terbit": "2024-01-31",
            "url_tdpse_detail": "https://pse.komdigi.go.id/tdpse-detail/17592",
            "website": "-"
        },
        {
            "id": "9cb1ac7c-98b0-40d1-8d29-9b34d610a2ea",
            "nama_pse": "DCREO MAKMUR ABADI",
            "nama_se": "AKTIVITAS KONSULTASI KOMPUTER \u0026 MANAJEMEN FASILITAS KOMPUTER",
            "sektor": "Sektor Teknologi Informasi dan Komunikasi",
            "tanggal_terbit": "2024-01-31",
            "url_tdpse_detail": "https://pse.komdigi.go.id/tdpse-detail/17591",
            "website": "-"
        },
        {
            "id": "9cb1ac68-782c-4153-84a7-b7ca24f7ecfd",
            "nama_pse": "DCREO MAKMUR ABADI",
            "nama_se": "KEGIATAN LAYANAN KONSULTASI, PERANCANGAN DAN PEMBUATAN SOLUSI SISTEM TERINTEGRASI",
            "sektor": "Sektor Teknologi Informasi dan Komunikasi",
            "tanggal_terbit": "2024-01-31",
            "url_tdpse_detail": "https://pse.komdigi.go.id/tdpse-detail/17593",
            "website": "-"
        },
        {
            "id": "9cb1ac7c-a668-4efa-8348-f8bb7e0c693c",
            "nama_pse": "KLINIK PRATAMA UNIMUS",
            "nama_se": "KLINIKPRATAMAMU",
            "sektor": "Sektor Kesehatan",
            "tanggal_terbit": "2024-01-31",
            "url_tdpse_detail": "https://pse.komdigi.go.id/tdpse-detail/17595",
            "website": "-"
        },
        {
            "id": "9cb1ac68-7bdf-4791-9829-f1dfd83496cb",
            "nama_pse": "ZIPPY INTER POLAR",
            "nama_se": "ZIPPY",
            "sektor": "Sektor Perdagangan",
            "tanggal_terbit": "2024-01-31",
            "url_tdpse_detail": "https://pse.komdigi.go.id/tdpse-detail/17596",
            "website": "-"
        },
        {
            "id": "9cb1ac54-9e08-44e4-80fc-039fee0a2d63",
            "nama_pse": "GRAHADHIKA SARANA PURNAJATI",
            "nama_se": "MIS : MIRACLE INFORMATION SYSTEM",
            "sektor": "Sektor Kesehatan",
            "tanggal_terbit": "2024-01-30",
            "url_tdpse_detail": "https://pse.komdigi.go.id/tdpse-detail/17564",
            "website": "-"
        },
        {
            "id": "9cb1ac7c-6319-4d8e-8859-8a598265bfeb",
            "nama_pse": "TRI NUSA TEKNOLOGI",
            "nama_se": "WWW.CLINIVE.COM",
            "sektor": "Sektor Kesehatan, Sektor Teknologi Informasi dan Komunikasi",
            "tanggal_terbit": "2024-01-30",
            "url_tdpse_detail": "https://pse.komdigi.go.id/tdpse-detail/17565",
            "website": "clinive.com"
        },
        {
            "id": "9cb1ac7c-6d4b-4e6a-9186-d08485a1d7a5",
            "nama_pse": "BIG MEDIA TECHNOLOGY",
            "nama_se": "MIMO LIVE",
            "sektor": "Sektor Teknologi Informasi dan Komunikasi",
            "tanggal_terbit": "2024-01-30",
            "url_tdpse_detail": "https://pse.komdigi.go.id/tdpse-detail/17566",
            "website": "app.mimolive.vip"
        },
        {
            "id": "9cb1ac7c-70a2-4310-8a1f-8d68fe02cac9",
            "nama_pse": "MASTER GROUP INDONESIA",
            "nama_se": "MORTGAGE MASTER",
            "sektor": "Sektor Teknologi Informasi dan Komunikasi",
            "tanggal_terbit": "2024-01-30",
            "url_tdpse_detail": "https://pse.komdigi.go.id/tdpse-detail/17569",
            "website": "mortgagemaster.co.id"
        },
        {
            "id": "9cb1ac7c-73c9-4cad-9264-f161eb484f1f",
            "nama_pse": "EXCITECH TEKNOLOGI INDONESIA",
            "nama_se": "MENU-KITA.COM",
            "sektor": "Sektor Teknologi Informasi dan Komunikasi",
            "tanggal_terbit": "2024-01-30",
            "url_tdpse_detail": "https://pse.komdigi.go.id/tdpse-detail/17567",
            "website": "menu-kita.com"
        }
    ],
    "processingTimeMs": 1,
    "query": "",
    "totalHits": 19121,
    "hitsPerPage": 50,
    "page": 88,
    "totalPages": 383
}