{
    "hits": [
        {
            "id": "9cb1ac78-1cf3-48a0-a91c-17b59e770e10",
            "nama_pse": "DUNIA VOUCHER GAME",
            "nama_se": "GOGOGOY",
            "sektor": "Sektor Perdagangan",
            "tanggal_terbit": "2023-12-11",
            "url_tdpse_detail": "https://pse.komdigi.go.id/tdpse-detail/16839",
            "website": "gogogoy.id"
        },
        {
            "id": "9cb1ac78-2a74-470d-aedc-30d7e47ef0f3",
            "nama_pse": "ANDI GLOBAL SOFT",
            "nama_se": "AGS REKAM MEDIS",
            "sektor": "Sektor Kesehatan",
            "tanggal_terbit": "2023-12-11",
            "url_tdpse_detail": "https://pse.komdigi.go.id/tdpse-detail/16840",
            "website": "-"
        },
        {
            "id": "9cb1ac64-8e1e-4d49-9c64-7ae448a2cacc",
            "nama_pse": "MEDIA PANGLIMA BERSINAR",
            "nama_se": "WEB BERITA ONLINE DAN IKLAN",
            "sektor": "Sektor Teknologi Informasi dan Komunikasi",
            "tanggal_terbit": "2023-12-11",
            "url_tdpse_detail": "https://pse.komdigi.go.id/tdpse-detail/16841",
            "website": "SBINEWS.ID"
        },
        {
            "id": "9cb1ac51-180c-494e-befe-f79e63040b60",
            "nama_pse": "JABARSOFT TEKNOLOGI INDONESIA",
            "nama_se": "DIGITAL REKAM MEDIK SISTEM",
            "sektor": "Sektor Kesehatan, Sektor Teknologi Informasi dan Komunikasi",
            "tanggal_terbit": "2023-12-11",
            "url_tdpse_detail": "https://pse.komdigi.go.id/tdpse-detail/16842",
            "website": "-"
        },
        {
            "id": "9cb1ac78-2d6d-47d4-9113-959fc289d3c9",
            "nama_pse": "MULTI ECHO PRADANA",
            "nama_se": "MULTIECHOPRADANA",
            "sektor": "Sektor Perdagangan",
            "tanggal_terbit": "2023-12-11",
            "url_tdpse_detail": "https://pse.komdigi.go.id/tdpse-detail/16843",
            "website": "-"
        },
        {
            "id": "9cb1ac51-2050-4d47-bf2a-75dc6e70d2e5",
            "nama_pse": "JAYA PULSA INDONESIA",
            "nama_se": "LEMAVO",
            "sektor": "Sektor Perdagangan",
            "tanggal_terbit": "2023-12-11",
            "url_tdpse_detail": "https://pse.komdigi.go.id/tdpse-detail/16846",
            "website": "lemavo.id"
        },
        {
            "id": "9cb1ac51-23dd-4de2-8375-7dbdafb27fa1",
            "nama_pse": "YANUANGGA GALAHARTLAMBANG",
            "nama_se": "SMARTMEDIS MITRAINDO",
            "sektor": "Sektor Perdagangan, Sektor Kesehatan, Sektor Teknologi Informasi dan Komunikasi",
            "tanggal_terbit": "2023-12-11",
            "url_tdpse_detail": "https://pse.komdigi.go.id/tdpse-detail/16848",
            "website": "-"
        },
        {
            "id": "9cb1ac51-14c6-4ab8-8616-97c7aa9ebd01",
            "nama_pse": "CAFELIN NETWORK MANDIRI",
            "nama_se": "LAYANAN INTERNET LOKAL",
            "sektor": "Sektor Teknologi Informasi dan Komunikasi",
            "tanggal_terbit": "2023-12-10",
            "url_tdpse_detail": "https://pse.komdigi.go.id/tdpse-detail/16836",
            "website": "-"
        },
        {
            "id": "9cb1ac78-0fd3-41c7-881a-83c4cc94905b",
            "nama_pse": "TIGA TITIK MEDIA",
            "nama_se": "3TITIK.COM",
            "sektor": "Sektor Teknologi Informasi dan Komunikasi",
            "tanggal_terbit": "2023-12-10",
            "url_tdpse_detail": "https://pse.komdigi.go.id/tdpse-detail/16837",
            "website": "3titik.com"
        },
        {
            "id": "9cb1ac78-18cb-4a0f-b18b-4deb6977d932",
            "nama_pse": "RSUD KABUPATEN BULELENG",
            "nama_se": "SIMRS RSUD BULELENG",
            "sektor": "Sektor Kesehatan",
            "tanggal_terbit": "2023-12-10",
            "url_tdpse_detail": "https://pse.komdigi.go.id/tdpse-detail/16838",
            "website": "rsudbuleleng.id"
        },
        {
            "id": "9cb1ac64-8431-41b2-b1a6-ff10280c6378",
            "nama_pse": "ROSITA",
            "nama_se": "HALOROSITA.ID",
            "sektor": "Sektor Perdagangan",
            "tanggal_terbit": "2023-12-09",
            "url_tdpse_detail": "https://pse.komdigi.go.id/tdpse-detail/16830",
            "website": "halorosita.id"
        },
        {
            "id": "9cb1ac51-04d9-4ec6-84f4-93c01aeaa240",
            "nama_pse": "TENGKU MOCHAMAD RIZKY INDRA KELANA",
            "nama_se": "MOKURINS",
            "sektor": "Sektor Perdagangan, Sektor Teknologi Informasi dan Komunikasi",
            "tanggal_terbit": "2023-12-09",
            "url_tdpse_detail": "https://pse.komdigi.go.id/tdpse-detail/16831",
            "website": "mokurins.com"
        },
        {
            "id": "9cb1ac51-0884-4d38-a254-cc9e115e9328",
            "nama_pse": "RSU FASTABIQ SEHAT PKU MUHAMMADIYAH",
            "nama_se": "SIMRS RSU FASTABIQ SEHAT PKU MUHAMMADIYAH",
            "sektor": "Sektor Kesehatan",
            "tanggal_terbit": "2023-12-09",
            "url_tdpse_detail": "https://pse.komdigi.go.id/tdpse-detail/16832",
            "website": "-"
        },
        {
            "id": "9cb1ac64-87de-43e5-a5b3-f358b6499372",
            "nama_pse": "PUSPA ANWAR MEDIKA",
            "nama_se": "E-HOS SYSTEM KLINIK PUSPA ANWAR MEDIKA",
            "sektor": "Sektor Kesehatan",
            "tanggal_terbit": "2023-12-09",
            "url_tdpse_detail": "https://pse.komdigi.go.id/tdpse-detail/16833",
            "website": "puspa.rsanwarmedika.com"
        },
        {
            "id": "9cb1ac64-8ab1-4759-a69b-bf2299783cd3",
            "nama_pse": "LIHM SUKSES BAROKAH",
            "nama_se": "LIHM",
            "sektor": "Sektor Kesehatan",
            "tanggal_terbit": "2023-12-09",
            "url_tdpse_detail": "https://pse.komdigi.go.id/tdpse-detail/16834",
            "website": "lihm.or.id"
        },
        {
            "id": "9cb1ac51-116a-4651-bf64-4a54187950bb",
            "nama_pse": "MEDIA CORETAN RAKYAT",
            "nama_se": "CORETANRAKYAT.COM",
            "sektor": "Sektor Teknologi Informasi dan Komunikasi",
            "tanggal_terbit": "2023-12-09",
            "url_tdpse_detail": "https://pse.komdigi.go.id/tdpse-detail/16835",
            "website": "CORETANRAKYAT.COM"
        },
        {
            "id": "9cb1ac62-e5f8-4ad0-9302-b3fd08956435",
            "nama_pse": "ZOOMCAR INDONESIA MOBILITY SERVICES",
            "nama_se": "ZOOMCAR - CAR SHARING PLATFORM",
            "sektor": "Sektor Transportasi",
            "tanggal_terbit": "2023-12-08",
            "url_tdpse_detail": "https://pse.komdigi.go.id/tdpse-detail/16551",
            "website": "-"
        },
        {
            "id": "9cb1ac50-bbbf-4ed9-b566-c4302cdc593c",
            "nama_pse": "HARAPAN BERSAMA SINGKAWANG",
            "nama_se": "SIMRS-RME HARAPAN BERSAMA",
            "sektor": "Sektor Kesehatan",
            "tanggal_terbit": "2023-12-08",
            "url_tdpse_detail": "https://pse.komdigi.go.id/tdpse-detail/16805",
            "website": "-"
        },
        {
            "id": "9cb1ac77-e969-4f2d-a7e7-84cbe93f241f",
            "nama_pse": "PERMATA HATI TANTYANA",
            "nama_se": "SISTEM INFORMASI MANAJEMEN RUMAH SAKIT PERMATA HATI",
            "sektor": "Sektor Kesehatan",
            "tanggal_terbit": "2023-12-08",
            "url_tdpse_detail": "https://pse.komdigi.go.id/tdpse-detail/16806",
            "website": "-"
        },
        {
            "id": "9cb1ac64-66dc-4030-b1e1-57d181b6c818",
            "nama_pse": "DETAK MEDIA PERSADA",
            "nama_se": "DETAK MEDIA",
            "sektor": "Sektor Teknologi Informasi dan Komunikasi",
            "tanggal_terbit": "2023-12-08",
            "url_tdpse_detail": "https://pse.komdigi.go.id/tdpse-detail/16807",
            "website": "detakmedia.com"
        },
        {
            "id": "9cb1ac64-69ad-417f-8773-064221bb19ff",
            "nama_pse": "GAMECHANGE SOLUTIONS INDONESIA",
            "nama_se": "GAMECHANGE",
            "sektor": "Sektor Teknologi Informasi dan Komunikasi",
            "tanggal_terbit": "2023-12-08",
            "url_tdpse_detail": "https://pse.komdigi.go.id/tdpse-detail/16809",
            "website": "-"
        },
        {
            "id": "9cb1ac77-ec1c-43ee-99d6-516b7fd4fb0f",
            "nama_pse": "GELORA RAGA NUSANTARA",
            "nama_se": "GELORA.ID",
            "sektor": "Sektor Perdagangan",
            "tanggal_terbit": "2023-12-08",
            "url_tdpse_detail": "https://pse.komdigi.go.id/tdpse-detail/16808",
            "website": "GELORA.ID"
        },
        {
            "id": "9cb1ac77-ef04-48de-97ba-8d0ac6ee353e",
            "nama_pse": "SINERGITAS MUDA KREASI",
            "nama_se": "SINERGI HEALTH APP",
            "sektor": "Sektor Kesehatan",
            "tanggal_terbit": "2023-12-08",
            "url_tdpse_detail": "https://pse.komdigi.go.id/tdpse-detail/16810",
            "website": "-"
        },
        {
            "id": "9cb1ac64-6c70-44b6-b39b-953d55a6e453",
            "nama_pse": "GRAHA SATWA PARAMITA",
            "nama_se": "WEBSITE PET KINGDOM (WWW.PETKINGDOM.CO.ID)",
            "sektor": "Sektor Teknologi Informasi dan Komunikasi",
            "tanggal_terbit": "2023-12-08",
            "url_tdpse_detail": "https://pse.komdigi.go.id/tdpse-detail/16812",
            "website": "petkingdom.co.id"
        },
        {
            "id": "9cb1ac50-e91f-447d-9311-38448d0c53bb",
            "nama_pse": "KARTIKA BINA MEDIKATAMA",
            "nama_se": "MP-ONE",
            "sektor": "Sektor Kesehatan",
            "tanggal_terbit": "2023-12-08",
            "url_tdpse_detail": "https://pse.komdigi.go.id/tdpse-detail/16811",
            "website": "medikaplaza.com"
        },
        {
            "id": "9cb1ac50-ec2a-4546-98f4-0e3861ec04a1",
            "nama_pse": "BINA DIGITAL SOLUSI",
            "nama_se": "BINADIGI",
            "sektor": "Sektor Perdagangan",
            "tanggal_terbit": "2023-12-08",
            "url_tdpse_detail": "https://pse.komdigi.go.id/tdpse-detail/16813",
            "website": "binadigi.com"
        },
        {
            "id": "9cb1ac64-6f33-4ac8-b578-29654ce7574c",
            "nama_pse": "INFORMASI VORTEX INDONESIA",
            "nama_se": "KIOSVORTEX",
            "sektor": "Sektor Perdagangan",
            "tanggal_terbit": "2023-12-08",
            "url_tdpse_detail": "https://pse.komdigi.go.id/tdpse-detail/16814",
            "website": "kiosvortex.com"
        },
        {
            "id": "9cb1ac50-f027-4252-9fe2-67d007892477",
            "nama_pse": "ARDANA TEKNOLOGI INDONESIA",
            "nama_se": "ARDANAGAMING",
            "sektor": "Sektor Perdagangan",
            "tanggal_terbit": "2023-12-08",
            "url_tdpse_detail": "https://pse.komdigi.go.id/tdpse-detail/16815",
            "website": "ardanagaming.com"
        },
        {
            "id": "9cb1ac77-f396-46e4-9810-d5b7519c7732",
            "nama_pse": "MULTIJAYA KENCANA KREASI",
            "nama_se": "MULTI JAYA KREASI",
            "sektor": "Sektor Perdagangan",
            "tanggal_terbit": "2023-12-08",
            "url_tdpse_detail": "https://pse.komdigi.go.id/tdpse-detail/16816",
            "website": "multijayakreasi.com"
        },
        {
            "id": "9cb1ac64-71f5-45f2-b5cc-9ada0d111d65",
            "nama_pse": "TIGAER JAYA MANDIRI",
            "nama_se": "TIGAER",
            "sektor": "Sektor Teknologi Informasi dan Komunikasi",
            "tanggal_terbit": "2023-12-08",
            "url_tdpse_detail": "https://pse.komdigi.go.id/tdpse-detail/16817",
            "website": "fazzbiller.com"
        },
        {
            "id": "9cb1ac50-f35b-4b0b-b575-8b894dd021b8",
            "nama_pse": "MUHAMAD ANBIYA NUR ISLAM",
            "nama_se": "KLIKNIK APP",
            "sektor": "Sektor Kesehatan",
            "tanggal_terbit": "2023-12-08",
            "url_tdpse_detail": "https://pse.komdigi.go.id/tdpse-detail/16818",
            "website": "klinik.tugutech.net"
        },
        {
            "id": "9cb1ac50-f606-432c-96ef-5ca3fcb491dc",
            "nama_pse": "CORE TEKNOLOGI REVOLUSI",
            "nama_se": "GAMINGTO",
            "sektor": "Sektor Perdagangan",
            "tanggal_terbit": "2023-12-08",
            "url_tdpse_detail": "https://pse.komdigi.go.id/tdpse-detail/16819",
            "website": "gamingto.net"
        },
        {
            "id": "9cb1ac50-fca4-47ba-9676-a1bba33c3ff2",
            "nama_pse": "DERA ASSYIFA SOMA WIJAYA",
            "nama_se": "SOACARE",
            "sektor": "Sektor Kesehatan",
            "tanggal_terbit": "2023-12-08",
            "url_tdpse_detail": "https://pse.komdigi.go.id/tdpse-detail/16820",
            "website": "-"
        },
        {
            "id": "9cb1ac64-75c5-457e-a959-89b5c85b1548",
            "nama_pse": "BRILLIANT FUTURE INDONESIA",
            "nama_se": "DIGIBFI",
            "sektor": "Sektor Perdagangan",
            "tanggal_terbit": "2023-12-08",
            "url_tdpse_detail": "https://pse.komdigi.go.id/tdpse-detail/16821",
            "website": "digibfi.com"
        },
        {
            "id": "9cb1ac64-786b-4775-b028-2ef7fd10040a",
            "nama_pse": "BULAT MEDIA INDONESIA",
            "nama_se": "PORTAL BERITA ONLINE",
            "sektor": "Sektor Teknologi Informasi dan Komunikasi",
            "tanggal_terbit": "2023-12-08",
            "url_tdpse_detail": "https://pse.komdigi.go.id/tdpse-detail/16823",
            "website": "bulat.co.id"
        },
        {
            "id": "9cb1ac64-7d78-45e5-885b-7922dc74ca9a",
            "nama_pse": "ANALISA FINANSIAL INTELEKTUAL",
            "nama_se": "FINTELITE",
            "sektor": "Sektor Teknologi Informasi dan Komunikasi",
            "tanggal_terbit": "2023-12-08",
            "url_tdpse_detail": "https://pse.komdigi.go.id/tdpse-detail/16825",
            "website": "fintelite.id"
        },
        {
            "id": "9cb1ac77-ffb6-4b84-8157-34597d505f28",
            "nama_pse": "DAFANDRA LOCALTECH",
            "nama_se": "WELLNEST",
            "sektor": "Sektor Kesehatan, Sektor Teknologi Informasi dan Komunikasi",
            "tanggal_terbit": "2023-12-08",
            "url_tdpse_detail": "https://pse.komdigi.go.id/tdpse-detail/16826",
            "website": "dafandralocaltech.co.id"
        },
        {
            "id": "9cb1ac78-0622-4c62-a437-684916f1996a",
            "nama_pse": "RANDY HERMAWAN",
            "nama_se": "KLINIK PRATAMA INDOSEHAT 2003 WARAKAS",
            "sektor": "Sektor Kesehatan",
            "tanggal_terbit": "2023-12-08",
            "url_tdpse_detail": "https://pse.komdigi.go.id/tdpse-detail/16827",
            "website": "-"
        },
        {
            "id": "9cb1ac78-0b25-4194-a16a-cabd108e3685",
            "nama_pse": "HEDIYANTO",
            "nama_se": "LAYANAN INTERNET LOKAL ( RT RW NET )",
            "sektor": "Sektor Teknologi Informasi dan Komunikasi",
            "tanggal_terbit": "2023-12-08",
            "url_tdpse_detail": "https://pse.komdigi.go.id/tdpse-detail/16828",
            "website": "-"
        },
        {
            "id": "9cb1ac64-80fc-496b-a384-d9bf78525cd1",
            "nama_pse": "ECOMEDIA BINTANIA",
            "nama_se": "MEDNEXT",
            "sektor": "Sektor Kesehatan",
            "tanggal_terbit": "2023-12-08",
            "url_tdpse_detail": "https://pse.komdigi.go.id/tdpse-detail/16829",
            "website": "-"
        },
        {
            "id": "9cb1ac25-519d-4fc0-a5b0-86cb41c9d7cc",
            "nama_pse": "AKBAR BERSAMA",
            "nama_se": "SIMNETRA",
            "sektor": "Sektor Kesehatan",
            "tanggal_terbit": "2023-12-07",
            "url_tdpse_detail": "https://pse.komdigi.go.id/tdpse-detail/16769",
            "website": "-"
        },
        {
            "id": "9cb1ac76-754d-48dd-bd69-d5f2f9f16a7a",
            "nama_pse": "SILOT TECHNOLOGY INDONESIA",
            "nama_se": "SILOT",
            "sektor": "Sektor Keuangan, Sektor Teknologi Informasi dan Komunikasi",
            "tanggal_terbit": "2023-12-07",
            "url_tdpse_detail": "https://pse.komdigi.go.id/tdpse-detail/16791",
            "website": "silot.id"
        },
        {
            "id": "9cb1ac76-d41c-483c-99f2-143686ab8b20",
            "nama_pse": "THE, STEVEN THEOPILOES, S.KOM",
            "nama_se": "SMILE ERP",
            "sektor": "Sektor Teknologi Informasi dan Komunikasi",
            "tanggal_terbit": "2023-12-07",
            "url_tdpse_detail": "https://pse.komdigi.go.id/tdpse-detail/16795",
            "website": "-"
        },
        {
            "id": "9cb1ac77-8212-44b9-a3dd-d4e83729a6e7",
            "nama_pse": "INFINITIUM SOLUTIONS",
            "nama_se": "INFINITIUM INTEGRATED MOBILE SECURE (IMS2.0)",
            "sektor": "Sektor Keuangan",
            "tanggal_terbit": "2023-12-07",
            "url_tdpse_detail": "https://pse.komdigi.go.id/tdpse-detail/16792",
            "website": "-"
        },
        {
            "id": "9cb1ac64-1c50-48a1-b8e9-23103f50da96",
            "nama_pse": "ASURANSI JIWA INHEALTH INDONESIA",
            "nama_se": "MEMBERSHIP MANAGEMENT SYSTEM (MEMS)",
            "sektor": "Sektor Keuangan, Sektor Kesehatan",
            "tanggal_terbit": "2023-12-07",
            "url_tdpse_detail": "https://pse.komdigi.go.id/tdpse-detail/16773",
            "website": "membership.inhealth.co.id"
        },
        {
            "id": "9cb1ac64-1f70-4b9d-8ebe-a579ebf18199",
            "nama_pse": "DASA USAHA JAYA",
            "nama_se": "SIMRS RS LAWANG MEDIKA",
            "sektor": "Sektor Kesehatan",
            "tanggal_terbit": "2023-12-07",
            "url_tdpse_detail": "https://pse.komdigi.go.id/tdpse-detail/16770",
            "website": "-"
        },
        {
            "id": "9cb1ac64-22de-4fb1-8f09-0bb1f77b0ca5",
            "nama_pse": "RSU RAJAWALI CITRA",
            "nama_se": "SIMRS RAJAWALI CITRA",
            "sektor": "Sektor Kesehatan",
            "tanggal_terbit": "2023-12-07",
            "url_tdpse_detail": "https://pse.komdigi.go.id/tdpse-detail/16771",
            "website": "rsrcjogja.com"
        },
        {
            "id": "9cb1ac77-d861-4eee-b231-49c2a9278666",
            "nama_pse": "MEDIA DIGIDO NUSANTARA",
            "nama_se": "PENYEDIAAN PRODUK DIGITAL",
            "sektor": "Sektor Perdagangan, Sektor Teknologi Informasi dan Komunikasi",
            "tanggal_terbit": "2023-12-07",
            "url_tdpse_detail": "https://pse.komdigi.go.id/tdpse-detail/16772",
            "website": "perpustakaan.co.id"
        },
        {
            "id": "9cb1ac77-dc3c-445e-b153-49bfa7a2c367",
            "nama_pse": "GLOBAL TALENTLYTICA INDONESIA",
            "nama_se": "TALENTLYTICA.NET TALENTLYTICA ONLINE PLATFORM ADMIN DASHBOARD",
            "sektor": "Sektor Teknologi Informasi dan Komunikasi",
            "tanggal_terbit": "2023-12-07",
            "url_tdpse_detail": "https://pse.komdigi.go.id/tdpse-detail/16774",
            "website": "talentlytica.net"
        },
        {
            "id": "9cb1ac64-25e9-4b8b-9a78-494b787c526a",
            "nama_pse": "EXPAT ROASTERS INDONESIA",
            "nama_se": "EXPAT ROASTERS",
            "sektor": "Sektor Perdagangan",
            "tanggal_terbit": "2023-12-07",
            "url_tdpse_detail": "https://pse.komdigi.go.id/tdpse-detail/16776",
            "website": "-"
        }
    ],
    "processingTimeMs": 2,
    "query": "",
    "totalHits": 19131,
    "hitsPerPage": 50,
    "page": 103,
    "totalPages": 383
}