{
    "hits": [
        {
            "id": "9cb1ac76-4d12-4fb4-88f4-c559f7949ad5",
            "nama_pse": "ARIF HIDAYAT",
            "nama_se": "SISTEM INFORMASI MANAJEMEN KLINIK MONICA",
            "sektor": "Sektor Kesehatan",
            "tanggal_terbit": "2023-11-13",
            "url_tdpse_detail": "https://pse.komdigi.go.id/tdpse-detail/16467",
            "website": "-"
        },
        {
            "id": "9cb1ac62-46f9-4408-ab00-b02fcd6da560",
            "nama_pse": "KHANA AINUR UTAMA",
            "nama_se": "KAHAN EXPOR",
            "sektor": "Sektor Perdagangan",
            "tanggal_terbit": "2023-11-13",
            "url_tdpse_detail": "https://pse.komdigi.go.id/tdpse-detail/16471",
            "website": "khanaexpor.online"
        },
        {
            "id": "9cb1ac62-49ab-4fbc-acac-06a872fb6be0",
            "nama_pse": "TELMARK INTEGRASI INDONESIA",
            "nama_se": "QONTACT",
            "sektor": "Sektor Teknologi Informasi dan Komunikasi",
            "tanggal_terbit": "2023-11-13",
            "url_tdpse_detail": "https://pse.komdigi.go.id/tdpse-detail/16472",
            "website": "qontact-cloud.telmark.co.id"
        },
        {
            "id": "9cb1ac76-50ec-4e7f-9d75-dc8c2bbaec98",
            "nama_pse": "ADIKARA TECHNO PERKASA",
            "nama_se": "SINGLE IDENTITY MANAGAMENT",
            "sektor": "Sektor Teknologi Informasi dan Komunikasi",
            "tanggal_terbit": "2023-11-13",
            "url_tdpse_detail": "https://pse.komdigi.go.id/tdpse-detail/16511",
            "website": "-"
        },
        {
            "id": "9cb1ac4f-304b-4e18-afd8-dd3a1dc79415",
            "nama_pse": "HUKUM ABDURRAHMAN",
            "nama_se": "ABDURRAHMANLAWFIRM.COM",
            "sektor": "Sektor Perdagangan",
            "tanggal_terbit": "2023-11-12",
            "url_tdpse_detail": "https://pse.komdigi.go.id/tdpse-detail/16466",
            "website": "abdurrahmanlawfirm.com"
        },
        {
            "id": "9cb1ac4f-2d5d-41a8-941b-90efd855cc69",
            "nama_pse": "CUTBOY INOVASI DIGITAL GROUP",
            "nama_se": "PT. CUTBOY INOVASI DIGITAL GROUP",
            "sektor": "Sektor Teknologi Informasi dan Komunikasi",
            "tanggal_terbit": "2023-11-11",
            "url_tdpse_detail": "https://pse.komdigi.go.id/tdpse-detail/18663",
            "website": "cutboy.id"
        },
        {
            "id": "9cb1ac62-4302-4986-922a-8d63c6c65e1e",
            "nama_pse": "RS MUHAMMADIYAH JOMBANG",
            "nama_se": "SIMRS KHANZA",
            "sektor": "Sektor Kesehatan",
            "tanggal_terbit": "2023-11-11",
            "url_tdpse_detail": "https://pse.komdigi.go.id/tdpse-detail/16465",
            "website": "rsmjombang.id"
        },
        {
            "id": "9cb1ac4e-ca8c-4b45-9048-fa1dbc358fab",
            "nama_pse": "AL - IKHLAS MADINAH",
            "nama_se": "SIRUS RSI MADINAH",
            "sektor": "Sektor Kesehatan",
            "tanggal_terbit": "2023-11-10",
            "url_tdpse_detail": "https://pse.komdigi.go.id/tdpse-detail/16459",
            "website": "rsimadinah.com"
        },
        {
            "id": "9cb1ac4f-29f3-4f53-b343-c3d2483a25b9",
            "nama_pse": "WILMAR CONSULTANCY SERVICES",
            "nama_se": "E-RECRUITMENT WILMAR GROUP",
            "sektor": "Sektor Teknologi Informasi dan Komunikasi",
            "tanggal_terbit": "2023-11-10",
            "url_tdpse_detail": "https://pse.komdigi.go.id/tdpse-detail/16460",
            "website": "e-recruitment.wilmar.co.id"
        },
        {
            "id": "9cb1ac62-2e90-414b-bc48-d82812556142",
            "nama_pse": "KRAKATAU MITRA HARMONI",
            "nama_se": "MHDC MNET",
            "sektor": "Sektor Kesehatan, Sektor Teknologi Informasi dan Komunikasi",
            "tanggal_terbit": "2023-11-10",
            "url_tdpse_detail": "https://pse.komdigi.go.id/tdpse-detail/16461",
            "website": "dashboard.mnet.web.id"
        },
        {
            "id": "9cb1ac62-37cf-45c4-9fb7-f0ab3037487a",
            "nama_pse": "GREENSOFT PUTRA SEJAHTERA",
            "nama_se": "SIMRS GREENSOFT",
            "sektor": "Sektor Kesehatan",
            "tanggal_terbit": "2023-11-10",
            "url_tdpse_detail": "https://pse.komdigi.go.id/tdpse-detail/16462",
            "website": "-"
        },
        {
            "id": "9cb1ac62-3ac3-462b-9808-8a1edabe3af1",
            "nama_pse": "CHICKIN SAHABAT PETERNAK",
            "nama_se": "CI-TOUCH",
            "sektor": "Sektor Teknologi Informasi dan Komunikasi, Sektor Pangan",
            "tanggal_terbit": "2023-11-10",
            "url_tdpse_detail": "https://pse.komdigi.go.id/tdpse-detail/16463",
            "website": "-"
        },
        {
            "id": "9cb1ac62-3d61-45f3-a241-b3a65435fe3e",
            "nama_pse": "CHICKIN SAHABAT PETERNAK",
            "nama_se": "CHICKIN APP",
            "sektor": "Sektor Teknologi Informasi dan Komunikasi, Sektor Pangan",
            "tanggal_terbit": "2023-11-10",
            "url_tdpse_detail": "https://pse.komdigi.go.id/tdpse-detail/16464",
            "website": "-"
        },
        {
            "id": "9cb1ac75-a02e-4869-9152-1b1dbc1f515b",
            "nama_pse": "ANANG FATCHURRACHMAN",
            "nama_se": "SIM-KLINIKDREKO",
            "sektor": "Sektor Kesehatan",
            "tanggal_terbit": "2023-11-09",
            "url_tdpse_detail": "https://pse.komdigi.go.id/tdpse-detail/16452",
            "website": "-"
        },
        {
            "id": "9cb1ac76-3e87-4b11-8a76-d11654a1b7a7",
            "nama_pse": "AWI KENALI INDUSTRI",
            "nama_se": "AWI KENALI INDUSTRI",
            "sektor": "Sektor Perdagangan",
            "tanggal_terbit": "2023-11-09",
            "url_tdpse_detail": "https://pse.komdigi.go.id/tdpse-detail/16450",
            "website": "-"
        },
        {
            "id": "9cb1ac76-42aa-47b0-8fee-55209ca69b10",
            "nama_pse": "INDOTECH SOLUSI NUSANTARA",
            "nama_se": "ENVILOG",
            "sektor": "Sektor Transportasi",
            "tanggal_terbit": "2023-11-09",
            "url_tdpse_detail": "https://pse.komdigi.go.id/tdpse-detail/16494",
            "website": "Envilog.co.id"
        },
        {
            "id": "9cb1ac62-219a-48ad-9414-7505b7fb97b4",
            "nama_pse": "KARTIKA PARAMA MEDIKA",
            "nama_se": "EMEDICAL",
            "sektor": "Sektor Kesehatan",
            "tanggal_terbit": "2023-11-09",
            "url_tdpse_detail": "https://pse.komdigi.go.id/tdpse-detail/16451",
            "website": "-"
        },
        {
            "id": "9cb1ac4f-1efc-4083-96df-0ca594f9def3",
            "nama_pse": "NALIKA WISAKA",
            "nama_se": "NALIKA WISAKA",
            "sektor": "Sektor Teknologi Informasi dan Komunikasi",
            "tanggal_terbit": "2023-11-09",
            "url_tdpse_detail": "https://pse.komdigi.go.id/tdpse-detail/16453",
            "website": "sihade.id"
        },
        {
            "id": "9cb1ac62-2491-46b1-8561-44af5d3fc249",
            "nama_pse": "SANTO ANTONIUS",
            "nama_se": "SIMRS KHANZA RSK ST.ANTONIUS AMPENAN",
            "sektor": "Sektor Kesehatan",
            "tanggal_terbit": "2023-11-09",
            "url_tdpse_detail": "https://pse.komdigi.go.id/tdpse-detail/16454",
            "website": "-"
        },
        {
            "id": "9cb1ac76-45e5-4fcf-892e-f2ddb4b44b43",
            "nama_pse": "GAMES KARYA NUSANTARA",
            "nama_se": "LUNA FANTASIA MOBILE",
            "sektor": "Sektor Teknologi Informasi dan Komunikasi",
            "tanggal_terbit": "2023-11-09",
            "url_tdpse_detail": "https://pse.komdigi.go.id/tdpse-detail/16455",
            "website": "-"
        },
        {
            "id": "9cb1ac4f-23ef-4ade-b1a2-7efffe090de3",
            "nama_pse": "LEZCASH INDONESIA BERDIKARI",
            "nama_se": "LEZCASH",
            "sektor": "Sektor Teknologi Informasi dan Komunikasi",
            "tanggal_terbit": "2023-11-09",
            "url_tdpse_detail": "https://pse.komdigi.go.id/tdpse-detail/16456",
            "website": "-"
        },
        {
            "id": "9cb1ac4f-26b2-4316-a1c3-92ce21520d07",
            "nama_pse": "SEPTI SUCI ANGGRAENI",
            "nama_se": "ARTNETWORK-SERVICES",
            "sektor": "Sektor Perdagangan",
            "tanggal_terbit": "2023-11-09",
            "url_tdpse_detail": "https://pse.komdigi.go.id/tdpse-detail/16457",
            "website": "-"
        },
        {
            "id": "9cb1ac62-2b55-478f-b044-62358faed66b",
            "nama_pse": "CONSULTA DIGITAL INDONESIA",
            "nama_se": "COPROJECTID",
            "sektor": "Sektor Teknologi Informasi dan Komunikasi",
            "tanggal_terbit": "2023-11-09",
            "url_tdpse_detail": "https://pse.komdigi.go.id/tdpse-detail/16458",
            "website": "coproject.id"
        },
        {
            "id": "9cb1ac75-f5d7-4722-bfb7-e30dea74fd23",
            "nama_pse": "KESUMA HUSADA",
            "nama_se": "EHEALTH SYS",
            "sektor": "Sektor Kesehatan",
            "tanggal_terbit": "2023-11-08",
            "url_tdpse_detail": "https://pse.komdigi.go.id/tdpse-detail/16442",
            "website": "-"
        },
        {
            "id": "9cb1ac4e-fb5c-4656-86cd-abb6d852e24e",
            "nama_pse": "RANAJAYA CITAPRASADA THANI INDONESIA",
            "nama_se": "GRABPAY",
            "sektor": "Sektor Perdagangan, Sektor Teknologi Informasi dan Komunikasi",
            "tanggal_terbit": "2023-11-08",
            "url_tdpse_detail": "https://pse.komdigi.go.id/tdpse-detail/16441",
            "website": "ranajaya.id"
        },
        {
            "id": "9cb1ac4f-13b5-4d8a-8b7a-18e9f2e8be59",
            "nama_pse": "SOMAI INDONESIA PINTAR",
            "nama_se": "SOM AI",
            "sektor": "Sektor Perdagangan, Sektor Teknologi Informasi dan Komunikasi",
            "tanggal_terbit": "2023-11-08",
            "url_tdpse_detail": "https://pse.komdigi.go.id/tdpse-detail/16438",
            "website": "somai.id"
        },
        {
            "id": "9cb1ac76-2c0c-4cfd-bda1-cea94b463f48",
            "nama_pse": "BUYAMIA VENTURES INDONESIA",
            "nama_se": "BUYAMIA.COM",
            "sektor": "Sektor Perdagangan",
            "tanggal_terbit": "2023-11-08",
            "url_tdpse_detail": "https://pse.komdigi.go.id/tdpse-detail/16439",
            "website": "buyamia.com"
        },
        {
            "id": "9cb1ac76-2ff4-446f-8740-94e5a3a5c09e",
            "nama_pse": "RUMAH SAKIT AISYIYAH SITI FATIMAH",
            "nama_se": "SIMRS KHANZA RSU AISYIYAH SITI FATIMAH",
            "sektor": "Sektor Kesehatan",
            "tanggal_terbit": "2023-11-08",
            "url_tdpse_detail": "https://pse.komdigi.go.id/tdpse-detail/16440",
            "website": "-"
        },
        {
            "id": "9cb1ac62-0579-4734-b465-e5860f9fd2bb",
            "nama_pse": "WANDA BEPA",
            "nama_se": "ELEVEN HOMESTORE",
            "sektor": "Sektor Perdagangan, Sektor Teknologi Informasi dan Komunikasi",
            "tanggal_terbit": "2023-11-08",
            "url_tdpse_detail": "https://pse.komdigi.go.id/tdpse-detail/16443",
            "website": "elevenhomestore.com"
        },
        {
            "id": "9cb1ac4f-1888-4445-9819-83dd8d2b7255",
            "nama_pse": "PERAWATI",
            "nama_se": "PROFIL BISNISKU INDONESIA - LAYANAN PEMBUATAN DOKUMEN PERIZINAN BERUSAHA NIB/SIUP/TDP/UD PIRT, PT PERORANGAN DAN BADAN HUKUM LAINNYA",
            "sektor": "Sektor Perdagangan, Sektor Teknologi Informasi dan Komunikasi",
            "tanggal_terbit": "2023-11-08",
            "url_tdpse_detail": "https://pse.komdigi.go.id/tdpse-detail/16444",
            "website": "profilbisnisku.co.id"
        },
        {
            "id": "9cb1ac62-080a-49b4-9cf2-d75d0f19c9f9",
            "nama_pse": "GAMES KARYA NUSANTARA",
            "nama_se": "DYNASTONES",
            "sektor": "Sektor Teknologi Informasi dan Komunikasi",
            "tanggal_terbit": "2023-11-08",
            "url_tdpse_detail": "https://pse.komdigi.go.id/tdpse-detail/16445",
            "website": "-"
        },
        {
            "id": "9cb1ac76-34a9-4b51-9740-d8b243ef0dc7",
            "nama_pse": "KAYYA INNOVASI DIGITAL",
            "nama_se": "RUANG MEDIS GIGI",
            "sektor": "Sektor Kesehatan, Sektor Teknologi Informasi dan Komunikasi",
            "tanggal_terbit": "2023-11-08",
            "url_tdpse_detail": "https://pse.komdigi.go.id/tdpse-detail/16446",
            "website": "ruangmedis.id"
        },
        {
            "id": "9cb1ac62-0d23-4304-8c4c-4bcafab6217d",
            "nama_pse": "MAFA BUILD TECHNOLOGY",
            "nama_se": "PERANGKAT LUNAK",
            "sektor": "Sektor Perdagangan, Sektor Transportasi, Sektor Teknologi Informasi dan Komunikasi",
            "tanggal_terbit": "2023-11-08",
            "url_tdpse_detail": "https://pse.komdigi.go.id/tdpse-detail/16447",
            "website": "-"
        },
        {
            "id": "9cb1ac76-3978-4cfd-9db1-18f138c33214",
            "nama_pse": "SHENDY HARLIM",
            "nama_se": "SIKIDU",
            "sektor": "Sektor Teknologi Informasi dan Komunikasi",
            "tanggal_terbit": "2023-11-08",
            "url_tdpse_detail": "https://pse.komdigi.go.id/tdpse-detail/16448",
            "website": "-"
        },
        {
            "id": "9cb1ac76-296e-48fb-808d-7f324bf1825d",
            "nama_pse": "SOLUSI MATA KITA",
            "nama_se": "SISTEM INFORMASI KLINIK INOV EYE",
            "sektor": "Sektor Kesehatan",
            "tanggal_terbit": "2023-11-04",
            "url_tdpse_detail": "https://pse.komdigi.go.id/tdpse-detail/16437",
            "website": "-"
        },
        {
            "id": "9cb1ac76-0ed8-484d-9589-5db0157856e2",
            "nama_pse": "INDO KOALA REMITTANCE",
            "nama_se": "TRANSFEZ",
            "sektor": "Sektor Keuangan",
            "tanggal_terbit": "2023-11-03",
            "url_tdpse_detail": "https://pse.komdigi.go.id/tdpse-detail/16422",
            "website": "transfez.com"
        },
        {
            "id": "9cb1ac76-15ce-4a87-b1d2-de0e0fb3ab92",
            "nama_pse": "ZULINDO PRATAMA BERKAH MEDIKA",
            "nama_se": "SISSMC",
            "sektor": "Sektor Kesehatan",
            "tanggal_terbit": "2023-11-03",
            "url_tdpse_detail": "https://pse.komdigi.go.id/tdpse-detail/16423",
            "website": "syifamedicalcenter.com"
        },
        {
            "id": "9cb1ac76-18b0-472e-85be-b8d52bb57306",
            "nama_pse": "BENAR BENAR BAGUS",
            "nama_se": "MILLON BLOOM",
            "sektor": "Sektor Perdagangan",
            "tanggal_terbit": "2023-11-03",
            "url_tdpse_detail": "https://pse.komdigi.go.id/tdpse-detail/16425",
            "website": "millionbloom.co.id"
        },
        {
            "id": "9cb1ac4f-09f2-445c-980b-25469fd8745c",
            "nama_pse": "IMOBILE TEKNOLOGI INDONESIA",
            "nama_se": "LATOIN",
            "sektor": "Sektor Teknologi Informasi dan Komunikasi",
            "tanggal_terbit": "2023-11-03",
            "url_tdpse_detail": "https://pse.komdigi.go.id/tdpse-detail/16424",
            "website": "-"
        },
        {
            "id": "9cb1ac61-f19c-4d3a-957d-bba3ad6e2d65",
            "nama_pse": "DESTINASI COMPUTINDO",
            "nama_se": "SISTEM INFORMASI MANAJEMEN RUMAH SAKIT (SIMRS) RSUD SUNAN KALIJAGA DEMAK",
            "sektor": "Sektor Kesehatan, Sektor Teknologi Informasi dan Komunikasi",
            "tanggal_terbit": "2023-11-03",
            "url_tdpse_detail": "https://pse.komdigi.go.id/tdpse-detail/16426",
            "website": "onlinersudsuka.demak.go.id"
        },
        {
            "id": "9cb1ac61-f44e-414b-9bf9-34a2fd73f120",
            "nama_pse": "GWS MEDIKA PRIMA",
            "nama_se": "GWS MEDIKA",
            "sektor": "Sektor Kesehatan",
            "tanggal_terbit": "2023-11-03",
            "url_tdpse_detail": "https://pse.komdigi.go.id/tdpse-detail/16435",
            "website": "gwsmedika.id"
        },
        {
            "id": "9cb1ac61-f701-45a9-8036-c9c9d78f9dda",
            "nama_pse": "BIMA BHAKTI UTAMA",
            "nama_se": "SISTEM INFORMASI DAN MANAJEMEN RUMAH SAKIT",
            "sektor": "Sektor Teknologi Informasi dan Komunikasi",
            "tanggal_terbit": "2023-11-03",
            "url_tdpse_detail": "https://pse.komdigi.go.id/tdpse-detail/16427",
            "website": "-"
        },
        {
            "id": "9cb1ac4f-0cb6-4480-865b-6b9e49609585",
            "nama_pse": "INDO SPHERA GROUP",
            "nama_se": "INDOSPHERA PT INDO SPHERA GROUP",
            "sektor": "Sektor Perdagangan",
            "tanggal_terbit": "2023-11-03",
            "url_tdpse_detail": "https://pse.komdigi.go.id/tdpse-detail/16431",
            "website": "indosphera.com"
        },
        {
            "id": "9cb1ac76-1edd-4c59-b130-282db474c016",
            "nama_pse": "SINAR KERJA KREATIF",
            "nama_se": "SINAR KERJA KREATIF",
            "sektor": "Sektor Perdagangan",
            "tanggal_terbit": "2023-11-03",
            "url_tdpse_detail": "https://pse.komdigi.go.id/tdpse-detail/16432",
            "website": "sinargaming.com"
        },
        {
            "id": "9cb1ac4f-0fd6-4b24-ae71-f43b2a0ee406",
            "nama_pse": "MURNI SADAR",
            "nama_se": "MTHIS",
            "sektor": "Sektor Kesehatan",
            "tanggal_terbit": "2023-11-03",
            "url_tdpse_detail": "https://pse.komdigi.go.id/tdpse-detail/16434",
            "website": "rsmurniteguh.com"
        },
        {
            "id": "9cb1ac76-2236-4564-8203-f69a87ba2d68",
            "nama_pse": "BEST ELECTRIC INDONESIA",
            "nama_se": "YAMADABESTID",
            "sektor": "Sektor Perdagangan",
            "tanggal_terbit": "2023-11-03",
            "url_tdpse_detail": "https://pse.komdigi.go.id/tdpse-detail/16436",
            "website": "yamadabestid.com"
        },
        {
            "id": "9cb1ac61-ef0c-4f1b-a8e4-ffb608660d85",
            "nama_pse": "ANAK INDIGO INDONESIA",
            "nama_se": "PT. AIC SUKSES MAKMUR",
            "sektor": "Sektor Perdagangan",
            "tanggal_terbit": "2023-11-01",
            "url_tdpse_detail": "https://pse.komdigi.go.id/tdpse-detail/16421",
            "website": "-"
        },
        {
            "id": "9cb1ac61-c4e6-401b-ad24-f85190ba1a27",
            "nama_pse": "BANK PEMBIAYAAN RAKYAT SYARIAH BHAKTI SUMEKAR PERSERODA",
            "nama_se": "BBS MOBILE",
            "sektor": "Sektor Keuangan",
            "tanggal_terbit": "2023-10-31",
            "url_tdpse_detail": "https://pse.komdigi.go.id/tdpse-detail/16407",
            "website": "bhaktisumekar.co.id"
        },
        {
            "id": "9cb1ac76-056b-4575-a350-3a4c1b8303e7",
            "nama_pse": "FOKUS SOLUSI PROTEKSI",
            "nama_se": "WEBSITE PROTECT.CERMATI.COM - PT FOKUS SOLUSI PROTEKSI",
            "sektor": "Sektor Keuangan",
            "tanggal_terbit": "2023-10-31",
            "url_tdpse_detail": "https://pse.komdigi.go.id/tdpse-detail/16408",
            "website": "protect.cermati.com"
        },
        {
            "id": "9cb1ac76-084e-41ef-8a8c-c374390677ae",
            "nama_pse": "BANK JAGO",
            "nama_se": "JAGO (INTERNET BANKING KORPORASI)",
            "sektor": "Sektor Keuangan",
            "tanggal_terbit": "2023-10-31",
            "url_tdpse_detail": "https://pse.komdigi.go.id/tdpse-detail/16409",
            "website": "bisnis.jago.com"
        }
    ],
    "processingTimeMs": 4,
    "query": "",
    "totalHits": 19131,
    "hitsPerPage": 50,
    "page": 110,
    "totalPages": 383
}