{
    "hits": [
        {
            "id": "9cb1ac35-bce3-4bde-b862-546c56146686",
            "nama_pse": "KREASI TANI LAKSMI",
            "nama_se": "SAYURBOX B2B WEBSHOP",
            "sektor": "Sektor Perdagangan",
            "tanggal_terbit": "2023-06-10",
            "url_tdpse_detail": "https://pse.komdigi.go.id/tdpse-detail/14987",
            "website": "merchant.sayurbox.com"
        },
        {
            "id": "9cb1ac23-7d6b-410a-a02a-299254b76b1b",
            "nama_pse": "BURSA KRIPTO INDONESIA",
            "nama_se": "BURSA KRIPTO INDONESIA",
            "sektor": "Sektor Perdagangan",
            "tanggal_terbit": "2023-06-10",
            "url_tdpse_detail": "https://pse.komdigi.go.id/tdpse-detail/14988",
            "website": "bursakriptoindonesia.com"
        },
        {
            "id": "9cb1ac35-d18d-4762-a502-39e78fcc1224",
            "nama_pse": "SARANA ESTETIKA INTERNASIONAL",
            "nama_se": "WWW.QDERMACLINIC.COM",
            "sektor": "Sektor Kesehatan",
            "tanggal_terbit": "2023-06-10",
            "url_tdpse_detail": "https://pse.komdigi.go.id/tdpse-detail/14990",
            "website": "qdermaclinic.com"
        },
        {
            "id": "9cb1ac45-6610-41f0-b57f-10fbad21defb",
            "nama_pse": "DIGITALISASI CARA SAHABAT",
            "nama_se": "WWW.DICAS.CO.ID",
            "sektor": "Sektor Perdagangan",
            "tanggal_terbit": "2023-06-10",
            "url_tdpse_detail": "https://pse.komdigi.go.id/tdpse-detail/14989",
            "website": "dicas.co.id"
        },
        {
            "id": "9cb1ac35-d5e7-4e34-b2f3-c8762fce58ed",
            "nama_pse": "ESTETIKA PRO INTERNATIONAL",
            "nama_se": "WWW.ESPRO.CO.ID",
            "sektor": "Sektor Perdagangan, Sektor Kesehatan",
            "tanggal_terbit": "2023-06-10",
            "url_tdpse_detail": "https://pse.komdigi.go.id/tdpse-detail/14992",
            "website": "ESPRO.CO.ID"
        },
        {
            "id": "9cb1ac45-6b02-40c9-ad34-34717ca9b5aa",
            "nama_pse": "FIKSDIA DIGITAL SOLUTION",
            "nama_se": "WWW.FIKSDIA.COM",
            "sektor": "Sektor Teknologi Informasi dan Komunikasi",
            "tanggal_terbit": "2023-06-10",
            "url_tdpse_detail": "https://pse.komdigi.go.id/tdpse-detail/14993",
            "website": "fiksdia.com"
        },
        {
            "id": "9cb1ac43-19bf-4c3d-bd54-334b48623298",
            "nama_pse": "MANDIRI TUNAS FINANCE",
            "nama_se": "BCC MTF",
            "sektor": "Sektor Keuangan, Sektor Teknologi Informasi dan Komunikasi",
            "tanggal_terbit": "2023-06-09",
            "url_tdpse_detail": "https://pse.komdigi.go.id/tdpse-detail/14968",
            "website": "bcc.mtf.co.id"
        },
        {
            "id": "9cb1ac43-1d08-4cf2-922c-8d560c884e0b",
            "nama_pse": "MANDIRI TUNAS FINANCE",
            "nama_se": "CAREER MTF",
            "sektor": "Sektor Keuangan",
            "tanggal_terbit": "2023-06-09",
            "url_tdpse_detail": "https://pse.komdigi.go.id/tdpse-detail/14969",
            "website": "-"
        },
        {
            "id": "9cb1ac43-2030-49c7-a467-4d8bc540aa9f",
            "nama_pse": "MANDIRI TUNAS FINANCE",
            "nama_se": "ASESMEN MTF",
            "sektor": "Sektor Keuangan",
            "tanggal_terbit": "2023-06-09",
            "url_tdpse_detail": "https://pse.komdigi.go.id/tdpse-detail/14970",
            "website": "asesmen.mtf.co.id"
        },
        {
            "id": "9cb1ac20-eb40-4877-8aff-d4a230bbfe27",
            "nama_pse": "MANDIRI TUNAS FINANCE",
            "nama_se": "MTF REPORT",
            "sektor": "Sektor Keuangan",
            "tanggal_terbit": "2023-06-09",
            "url_tdpse_detail": "https://pse.komdigi.go.id/tdpse-detail/14971",
            "website": "-"
        },
        {
            "id": "9cb1ac20-ef73-4734-94f0-b19738f54d67",
            "nama_pse": "MANDIRI TUNAS FINANCE",
            "nama_se": "MTF OSR",
            "sektor": "Sektor Keuangan",
            "tanggal_terbit": "2023-06-09",
            "url_tdpse_detail": "https://pse.komdigi.go.id/tdpse-detail/14972",
            "website": "-"
        },
        {
            "id": "9cb1ac20-f4b7-4320-af94-673571f3ae66",
            "nama_pse": "MANDIRI TUNAS FINANCE",
            "nama_se": "KEGEMBIRAAN HC",
            "sektor": "Sektor Keuangan, Sektor Teknologi Informasi dan Komunikasi",
            "tanggal_terbit": "2023-06-09",
            "url_tdpse_detail": "https://pse.komdigi.go.id/tdpse-detail/14973",
            "website": "kegembiraan.mtf.co.id"
        },
        {
            "id": "9cb1ac21-0444-4ac1-8a5e-6d15fd060389",
            "nama_pse": "MANDIRI TUNAS FINANCE",
            "nama_se": "E-PROCUREMENT",
            "sektor": "Sektor Keuangan",
            "tanggal_terbit": "2023-06-09",
            "url_tdpse_detail": "https://pse.komdigi.go.id/tdpse-detail/14974",
            "website": "idsrv-procurement.mtf.co.id"
        },
        {
            "id": "9cb1ac21-0e94-4714-ae69-400d3db85995",
            "nama_pse": "MANDIRI TUNAS FINANCE",
            "nama_se": "TOPUP MTF",
            "sektor": "Sektor Keuangan",
            "tanggal_terbit": "2023-06-09",
            "url_tdpse_detail": "https://pse.komdigi.go.id/tdpse-detail/14975",
            "website": "topup.mtf.co.id"
        },
        {
            "id": "9cb1ac33-4c9f-447e-8d14-76ea56c124d7",
            "nama_pse": "MANDIRI TUNAS FINANCE",
            "nama_se": "MOBILE SURVEY",
            "sektor": "Sektor Keuangan, Sektor Teknologi Informasi dan Komunikasi",
            "tanggal_terbit": "2023-06-09",
            "url_tdpse_detail": "https://pse.komdigi.go.id/tdpse-detail/14976",
            "website": "mobileapp.mtf.co.id"
        },
        {
            "id": "9cb1ac45-12ed-4df5-bc0b-da61f609a96a",
            "nama_pse": "TEKNO GLOBAL INFOTAMA",
            "nama_se": "MY CARE",
            "sektor": "Sektor Kesehatan",
            "tanggal_terbit": "2023-06-09",
            "url_tdpse_detail": "https://pse.komdigi.go.id/tdpse-detail/14986",
            "website": "mycare.id"
        },
        {
            "id": "9cb1ac45-449e-4300-ae97-2a8a93653893",
            "nama_pse": "MUSTIKA CITRA RASA",
            "nama_se": "WWW.HOLLANDBAKERY.CO.ID",
            "sektor": "Sektor Perdagangan",
            "tanggal_terbit": "2023-06-09",
            "url_tdpse_detail": "https://pse.komdigi.go.id/tdpse-detail/14977",
            "website": "hollandbakery.co.id"
        },
        {
            "id": "9cb1ac45-485c-4e31-8811-83131f147ca8",
            "nama_pse": "SAPTA KARYA JAYAMANDIRI",
            "nama_se": "CYBER-NASIONAL",
            "sektor": "Sektor Teknologi Informasi dan Komunikasi",
            "tanggal_terbit": "2023-06-09",
            "url_tdpse_detail": "https://pse.komdigi.go.id/tdpse-detail/14978",
            "website": "-"
        },
        {
            "id": "9cb1ac23-738c-48bd-a490-e886a8c22f8f",
            "nama_pse": "SEEKMONDAY BUMI ANTARA",
            "nama_se": "SEEKMONDAY",
            "sektor": "Sektor Teknologi Informasi dan Komunikasi",
            "tanggal_terbit": "2023-06-09",
            "url_tdpse_detail": "https://pse.komdigi.go.id/tdpse-detail/14979",
            "website": "seekmonday.com"
        },
        {
            "id": "9cb1ac35-c213-4f27-951c-4565eef1fe90",
            "nama_pse": "APPLEDORE MGILANGJANUAR LAB",
            "nama_se": "AUTOMIX.AI",
            "sektor": "Sektor Teknologi Informasi dan Komunikasi",
            "tanggal_terbit": "2023-06-09",
            "url_tdpse_detail": "https://pse.komdigi.go.id/tdpse-detail/14980",
            "website": "automix.ai"
        },
        {
            "id": "9cb1ac23-7a39-4daf-9781-af5b1f0612fa",
            "nama_pse": "QUCOPY SOLUSI KONTEN DIGITAL",
            "nama_se": "PAKEAPPS",
            "sektor": "Sektor Perdagangan, Sektor Teknologi Informasi dan Komunikasi",
            "tanggal_terbit": "2023-06-09",
            "url_tdpse_detail": "https://pse.komdigi.go.id/tdpse-detail/14982",
            "website": "pakeapps.com"
        },
        {
            "id": "9cb1ac35-c98a-4470-bdfa-08b82185300e",
            "nama_pse": "ALEXIA SOLUSI INOVATIF",
            "nama_se": "SAFIINAH - EKOSISTEM PENGELOLAAN PAKET, PRODUK DAN JASA PERJALANAN UMRAH HAJI WISATA",
            "sektor": "Sektor Teknologi Informasi dan Komunikasi",
            "tanggal_terbit": "2023-06-09",
            "url_tdpse_detail": "https://pse.komdigi.go.id/tdpse-detail/14984",
            "website": "safiinah.com"
        },
        {
            "id": "9cb1ac35-cd54-4198-86d5-3eff38e39436",
            "nama_pse": "BANGKIT MEMBANGUN NEGERI",
            "nama_se": "PT  BANGKIT MEMBANGUN NEGERI",
            "sektor": "Sektor Perdagangan",
            "tanggal_terbit": "2023-06-09",
            "url_tdpse_detail": "https://pse.komdigi.go.id/tdpse-detail/14985",
            "website": "-"
        },
        {
            "id": "9cb1ac43-2377-492b-90c0-09453e96890a",
            "nama_pse": "MANDIRI TUNAS FINANCE",
            "nama_se": "HC EAZY",
            "sektor": "Sektor Teknologi Informasi dan Komunikasi",
            "tanggal_terbit": "2023-06-08",
            "url_tdpse_detail": "https://pse.komdigi.go.id/tdpse-detail/14966",
            "website": "hceazy.mtf.co.id"
        },
        {
            "id": "9cb1ac44-e788-4f12-a830-c28c3e4fffa8",
            "nama_pse": "AWAN SOLUSI INFORMATIKA",
            "nama_se": "CLOUDMATIKA",
            "sektor": "Sektor Teknologi Informasi dan Komunikasi",
            "tanggal_terbit": "2023-06-08",
            "url_tdpse_detail": "https://pse.komdigi.go.id/tdpse-detail/14961",
            "website": "cloudmatika.co.id"
        },
        {
            "id": "9cb1ac35-ab05-4798-8729-5d00d5be7264",
            "nama_pse": "VISI JAYA INDONESIA",
            "nama_se": "EIDUPAY",
            "sektor": "Sektor Keuangan",
            "tanggal_terbit": "2023-06-08",
            "url_tdpse_detail": "https://pse.komdigi.go.id/tdpse-detail/14958",
            "website": "eidupay.com"
        },
        {
            "id": "9cb1ac35-ae44-41e3-a2a1-1e152850600a",
            "nama_pse": "TUMBUH TEKNOLOGI FINANSIAL",
            "nama_se": "TUMBUH.IN",
            "sektor": "Sektor Teknologi Informasi dan Komunikasi",
            "tanggal_terbit": "2023-06-08",
            "url_tdpse_detail": "https://pse.komdigi.go.id/tdpse-detail/14959",
            "website": "tumbuh.in"
        },
        {
            "id": "9cb1ac43-e0da-4d17-af10-e82e97a6d337",
            "nama_pse": "LEBAH HITAM BROTHERHOOD",
            "nama_se": "VAPESTORE.ID",
            "sektor": "Sektor Perdagangan",
            "tanggal_terbit": "2023-06-07",
            "url_tdpse_detail": "https://pse.komdigi.go.id/tdpse-detail/14956",
            "website": "vapestore.id"
        },
        {
            "id": "9cb1ac35-9a5b-409c-973d-f7559d6e4ecc",
            "nama_pse": "MUHAMMAD IQBAL",
            "nama_se": "BUSAM NUSANTARA MEDIA",
            "sektor": "Sektor Teknologi Informasi dan Komunikasi",
            "tanggal_terbit": "2023-06-07",
            "url_tdpse_detail": "https://pse.komdigi.go.id/tdpse-detail/14951",
            "website": "-"
        },
        {
            "id": "9cb1ac45-1c2b-4e2b-b15d-4ac01f4ed84d",
            "nama_pse": "AZIS ABDULLAH",
            "nama_se": "MOOBI",
            "sektor": "Sektor Teknologi Informasi dan Komunikasi",
            "tanggal_terbit": "2023-06-07",
            "url_tdpse_detail": "https://pse.komdigi.go.id/tdpse-detail/14954",
            "website": "moobi.id"
        },
        {
            "id": "9cb1ac45-1f8d-4bc6-901d-cdfaf3ef8038",
            "nama_pse": "TNP MATERNITY AND BABY TRADING",
            "nama_se": "MOOIMOM WEBSITE",
            "sektor": "Sektor Perdagangan",
            "tanggal_terbit": "2023-06-07",
            "url_tdpse_detail": "https://pse.komdigi.go.id/tdpse-detail/14948",
            "website": "mooimom.id"
        },
        {
            "id": "9cb1ac35-a516-4793-9559-cf63548f7da0",
            "nama_pse": "ASURANSI JIWA ASTRA",
            "nama_se": "MYASTRALIFE",
            "sektor": "Sektor Keuangan",
            "tanggal_terbit": "2023-06-07",
            "url_tdpse_detail": "https://pse.komdigi.go.id/tdpse-detail/14952",
            "website": "mndsvr2.net"
        },
        {
            "id": "9cb1ac45-2c62-41a0-aaa8-5ef7393536c3",
            "nama_pse": "INACASH LENTERA TEKNOLOGI",
            "nama_se": "INACASH",
            "sektor": "Sektor Perdagangan, Sektor Keuangan, Sektor Teknologi Informasi dan Komunikasi",
            "tanggal_terbit": "2023-06-07",
            "url_tdpse_detail": "https://pse.komdigi.go.id/tdpse-detail/14953",
            "website": "Inacash.com"
        },
        {
            "id": "9cb1ac23-6457-4352-934d-4054b3c2c232",
            "nama_pse": "MUHAMMAD IQBAL",
            "nama_se": "MMJERU ROCORDING",
            "sektor": "Sektor Teknologi Informasi dan Komunikasi",
            "tanggal_terbit": "2023-06-07",
            "url_tdpse_detail": "https://pse.komdigi.go.id/tdpse-detail/14957",
            "website": "-"
        },
        {
            "id": "9cb1ac42-7325-4755-ab6a-5a6a9e45ad03",
            "nama_pse": "BERKAH AMANAH SELALU",
            "nama_se": "APLIKASI MLM",
            "sektor": "Sektor Perdagangan",
            "tanggal_terbit": "2023-06-06",
            "url_tdpse_detail": "https://pse.komdigi.go.id/tdpse-detail/14940",
            "website": "berkahamanah.id"
        },
        {
            "id": "9cb1ac22-71dc-4d11-842c-c4c68c83db92",
            "nama_pse": "DESENTRA TEKNOLOGI INDONESIA",
            "nama_se": "SEASEED",
            "sektor": "Sektor Teknologi Informasi dan Komunikasi",
            "tanggal_terbit": "2023-06-06",
            "url_tdpse_detail": "https://pse.komdigi.go.id/tdpse-detail/14944",
            "website": "d3labs.io"
        },
        {
            "id": "9cb1ac44-d8d7-41c0-9f3c-d3ce950ecd74",
            "nama_pse": "NORMA DIAGNOSTIKA INDONESIA",
            "nama_se": "GEMSS GLOBAL HOSPITAL INFORMATION SYSTEM (GHIS)",
            "sektor": "Sektor Kesehatan",
            "tanggal_terbit": "2023-06-06",
            "url_tdpse_detail": "https://pse.komdigi.go.id/tdpse-detail/14943",
            "website": "normaindonesia.co.id"
        },
        {
            "id": "9cb1ac35-8b41-4dce-8419-96748e3fc45c",
            "nama_pse": "ANAK INDIGO INDONESIA",
            "nama_se": "ANAK INDIGO INDONESIA",
            "sektor": "Sektor Perdagangan",
            "tanggal_terbit": "2023-06-06",
            "url_tdpse_detail": "https://pse.komdigi.go.id/tdpse-detail/14936",
            "website": "-"
        },
        {
            "id": "9cb1ac23-2955-48c3-9d38-b4ba1da1f275",
            "nama_pse": "ANAK INDIGO INDONESIA",
            "nama_se": "PT ANAK INDIGO INDONESIA",
            "sektor": "Sektor Perdagangan",
            "tanggal_terbit": "2023-06-06",
            "url_tdpse_detail": "https://pse.komdigi.go.id/tdpse-detail/14937",
            "website": "anakindigo.co.id"
        },
        {
            "id": "9cb1ac23-301c-4586-a883-573a45d14592",
            "nama_pse": "METROPOLISTA MEDISTA CENTRO",
            "nama_se": "SIMRS KHANZA (RSU PERMATA BUNDA)",
            "sektor": "Sektor Kesehatan",
            "tanggal_terbit": "2023-06-06",
            "url_tdpse_detail": "https://pse.komdigi.go.id/tdpse-detail/14938",
            "website": "-"
        },
        {
            "id": "9cb1ac35-8e19-4297-9ab8-3b76ada7e6ea",
            "nama_pse": "RUMAH SAKIT AISYIYAH SITI FATIMAH",
            "nama_se": "SIMRS KHANZA RSASF",
            "sektor": "Sektor Kesehatan",
            "tanggal_terbit": "2023-06-06",
            "url_tdpse_detail": "https://pse.komdigi.go.id/tdpse-detail/14939",
            "website": "-"
        },
        {
            "id": "9cb1ac23-450b-464f-bd8a-097d2a4aa5f8",
            "nama_pse": "MODALKU SEJAHTERA MAKMUR",
            "nama_se": "ELEVATE",
            "sektor": "Sektor Teknologi Informasi dan Komunikasi",
            "tanggal_terbit": "2023-06-06",
            "url_tdpse_detail": "https://pse.komdigi.go.id/tdpse-detail/14945",
            "website": "timetoelevate.id"
        },
        {
            "id": "9cb1ac35-9421-4fbb-aa07-0ef1d402f6e9",
            "nama_pse": "SUWASA AJI HEMAS",
            "nama_se": "FILIGRANA",
            "sektor": "Sektor Perdagangan",
            "tanggal_terbit": "2023-06-06",
            "url_tdpse_detail": "https://pse.komdigi.go.id/tdpse-detail/14946",
            "website": "filigrana.id"
        },
        {
            "id": "9cb1ac44-d19b-4d50-a17c-07340c483128",
            "nama_pse": "KALIBESAR RAYA UTAMA",
            "nama_se": "JAGAIN.COM",
            "sektor": "Sektor Keuangan",
            "tanggal_terbit": "2023-06-05",
            "url_tdpse_detail": "https://pse.komdigi.go.id/tdpse-detail/14932",
            "website": "jagain.com"
        },
        {
            "id": "9cb1ac45-0786-44ca-8707-a736e0f5456d",
            "nama_pse": "HARRY PRAMANA",
            "nama_se": "APMEDIKA.COM",
            "sektor": "Sektor Kesehatan, Sektor Teknologi Informasi dan Komunikasi",
            "tanggal_terbit": "2023-06-05",
            "url_tdpse_detail": "https://pse.komdigi.go.id/tdpse-detail/14934",
            "website": "apmedika.com"
        },
        {
            "id": "9cb1ac35-723c-43e2-b462-779621381b65",
            "nama_pse": "Selamat Pagi Korea",
            "nama_se": "SELAMAT PAGI KOREA",
            "sektor": "Sektor Teknologi Informasi dan Komunikasi",
            "tanggal_terbit": "2023-06-05",
            "url_tdpse_detail": "https://pse.komdigi.go.id/tdpse-detail/14928",
            "website": "selamatpagikorea.com"
        },
        {
            "id": "9cb1ac23-18ef-453d-9335-444764ce805c",
            "nama_pse": "KAIA SEJAHTERA",
            "nama_se": "DAMIA  SKIN CARE",
            "sektor": "Sektor Perdagangan, Sektor Kesehatan",
            "tanggal_terbit": "2023-06-05",
            "url_tdpse_detail": "https://pse.komdigi.go.id/tdpse-detail/14929",
            "website": "damiaskincare.id"
        },
        {
            "id": "9cb1ac23-2650-4f58-921a-3a890334fb18",
            "nama_pse": "SHARSYS TEKNOLOGI HAKIKI",
            "nama_se": "SIMRS SHARSYS",
            "sektor": "Sektor Kesehatan, Sektor Teknologi Informasi dan Komunikasi",
            "tanggal_terbit": "2023-06-05",
            "url_tdpse_detail": "https://pse.komdigi.go.id/tdpse-detail/14930",
            "website": "-"
        },
        {
            "id": "9cb1ac45-0b40-40bd-a5c2-9b30f5ba7981",
            "nama_pse": "KUSUMA SAMPURNA MULIA",
            "nama_se": "KRISTIE CLINIC",
            "sektor": "Sektor Perdagangan, Sektor Kesehatan",
            "tanggal_terbit": "2023-06-05",
            "url_tdpse_detail": "https://pse.komdigi.go.id/tdpse-detail/14931",
            "website": "kristieclinic.id"
        },
        {
            "id": "9cb1ac35-7cbf-483d-8ffd-6d80c36204c8",
            "nama_pse": "MITRADA PRIMA NUSANTARA",
            "nama_se": "WWW.REX.GROCLOUD.ID",
            "sektor": "Sektor Perdagangan",
            "tanggal_terbit": "2023-06-05",
            "url_tdpse_detail": "https://pse.komdigi.go.id/tdpse-detail/14933",
            "website": "gromart.club"
        }
    ],
    "processingTimeMs": 2,
    "query": "",
    "totalHits": 19121,
    "hitsPerPage": 50,
    "page": 137,
    "totalPages": 383
}