{
    "hits": [
        {
            "id": "9cb1abfe-0255-4693-b4f4-ec8cb11cce3c",
            "nama_pse": "TRIBUN BERITA ONLINE",
            "nama_se": "TRIBUNHEALTH.COM",
            "sektor": "Sektor Teknologi Informasi dan Komunikasi",
            "tanggal_terbit": "2022-08-18",
            "url_tdpse_detail": "https://pse.komdigi.go.id/tdpse-detail/10529",
            "website": "tribunhealth.com"
        },
        {
            "id": "9cb1ac0c-d69e-40f7-a2ac-b937c22ce3ac",
            "nama_pse": "NATURAL FOODS SUKSES MAKMUR",
            "nama_se": "PT. NATR=URAL FOODS SUKSES MAKMUR",
            "sektor": "Sektor Perdagangan",
            "tanggal_terbit": "2022-08-18",
            "url_tdpse_detail": "https://pse.komdigi.go.id/tdpse-detail/10530",
            "website": "nswfood.co.id"
        },
        {
            "id": "9cb1abd8-2768-45fc-9270-ed96d51a27c0",
            "nama_pse": "SUPERNOVA FLEXIBLE PACKAGING",
            "nama_se": "SUPERNOVADIGIPACK",
            "sektor": "Sektor Perdagangan",
            "tanggal_terbit": "2022-08-18",
            "url_tdpse_detail": "https://pse.komdigi.go.id/tdpse-detail/10531",
            "website": "supernovadigipack.com"
        },
        {
            "id": "9cb1abd8-2a8f-4e57-9dad-eb773ae62464",
            "nama_pse": "TRIBUN BERITA ONLINE",
            "nama_se": "TRIBUNBELANJA.COM",
            "sektor": "Sektor Teknologi Informasi dan Komunikasi",
            "tanggal_terbit": "2022-08-18",
            "url_tdpse_detail": "https://pse.komdigi.go.id/tdpse-detail/10532",
            "website": "tribunbelanja.com"
        },
        {
            "id": "9cb1abfe-0596-44eb-aca0-a7da90e3378f",
            "nama_pse": "TRIBUN BERITA ONLINE",
            "nama_se": "TRIBUNSHOPPING.COM",
            "sektor": "Sektor Teknologi Informasi dan Komunikasi",
            "tanggal_terbit": "2022-08-18",
            "url_tdpse_detail": "https://pse.komdigi.go.id/tdpse-detail/10533",
            "website": "tribunshopping.com"
        },
        {
            "id": "9cb1ac0c-d9a3-4697-9aad-1309eeab7ca6",
            "nama_pse": "BANK PEMBIAYAAN RAKYAT SYARIAH ATTAQWA",
            "nama_se": "WEBSITE",
            "sektor": "Sektor Perdagangan, Sektor Keuangan",
            "tanggal_terbit": "2022-08-18",
            "url_tdpse_detail": "https://pse.komdigi.go.id/tdpse-detail/10535",
            "website": "bprsattaqwa.co.id"
        },
        {
            "id": "9cb1ac0c-dd6a-4a2f-a3a3-fcf12b0fb7c7",
            "nama_pse": "RIONG ADIL PRODUKSI",
            "nama_se": "SEKOLAH EMAK ONLINE",
            "sektor": "Sektor Teknologi Informasi dan Komunikasi",
            "tanggal_terbit": "2022-08-18",
            "url_tdpse_detail": "https://pse.komdigi.go.id/tdpse-detail/10536",
            "website": "sekolahemakonline.com"
        },
        {
            "id": "9cb1abfe-1e7d-4fcf-bfb3-16380d9c02c6",
            "nama_pse": "ALMEGA MANDIRI INDONESIA",
            "nama_se": "ALMEGA INDONESIA",
            "sektor": "Sektor Perdagangan",
            "tanggal_terbit": "2022-08-18",
            "url_tdpse_detail": "https://pse.komdigi.go.id/tdpse-detail/10546",
            "website": "almegaindonesia.id"
        },
        {
            "id": "9cb1ac0c-e3b6-424a-91dc-8e33b6f3b788",
            "nama_pse": "GEMILANG MAS",
            "nama_se": "PSE",
            "sektor": "Sektor Perdagangan",
            "tanggal_terbit": "2022-08-18",
            "url_tdpse_detail": "https://pse.komdigi.go.id/tdpse-detail/10543",
            "website": "-"
        },
        {
            "id": "9cb1abfe-21ab-4c9e-8fd2-5cb9df6a4b69",
            "nama_pse": "BIO INDONESIA BAROKAH SEJAHTERA",
            "nama_se": "BIO DIMA",
            "sektor": "Sektor Perdagangan",
            "tanggal_terbit": "2022-08-18",
            "url_tdpse_detail": "https://pse.komdigi.go.id/tdpse-detail/10544",
            "website": "bibs.co.id"
        },
        {
            "id": "9cb1abfd-94cf-477a-bdca-3b1cd253d903",
            "nama_pse": "JARVIS SOLUSINDO",
            "nama_se": "GTASS",
            "sektor": "Sektor Teknologi Informasi dan Komunikasi",
            "tanggal_terbit": "2022-08-17",
            "url_tdpse_detail": "https://pse.komdigi.go.id/tdpse-detail/10463",
            "website": "gtass.com"
        },
        {
            "id": "9cb1abfd-9892-457a-bec1-eecb86721451",
            "nama_pse": "WAHANA TRANSFORMASI DIGITAL INDONESIA",
            "nama_se": "WTDI SUPERAPPS",
            "sektor": "Sektor Teknologi Informasi dan Komunikasi",
            "tanggal_terbit": "2022-08-17",
            "url_tdpse_detail": "https://pse.komdigi.go.id/tdpse-detail/10464",
            "website": "wtdi.co.id"
        },
        {
            "id": "9cb1abfd-1488-4a00-866d-2a5d784dc257",
            "nama_pse": "SOLL MARINA",
            "nama_se": "WWW.SOLLMARINAHOTEL.COM",
            "sektor": "Sektor Perdagangan, Sektor Teknologi Informasi dan Komunikasi",
            "tanggal_terbit": "2022-08-16",
            "url_tdpse_detail": "https://pse.komdigi.go.id/tdpse-detail/10368",
            "website": "sollmarinahotel.com"
        },
        {
            "id": "9cb1abfd-314d-4c19-a878-0803e07c6649",
            "nama_pse": "PENJAMINAN JAMKRINDO SYARIAH",
            "nama_se": "MYJAMSYAR",
            "sektor": "Sektor Keuangan",
            "tanggal_terbit": "2022-08-16",
            "url_tdpse_detail": "https://pse.komdigi.go.id/tdpse-detail/10418",
            "website": "myjamsyar.id"
        },
        {
            "id": "9cb1abfd-3a1a-466e-a8ee-155f147164f5",
            "nama_pse": "BANK PEREKONOMIAN RAKYAT DANA RAYA JAKARTA",
            "nama_se": "BPR KARUNIA KANAKA",
            "sektor": "Sektor Keuangan",
            "tanggal_terbit": "2022-08-16",
            "url_tdpse_detail": "https://pse.komdigi.go.id/tdpse-detail/10392",
            "website": "bprkaruniakanaka.com"
        },
        {
            "id": "9cb1abfd-3cd6-4099-a130-82ddfd480054",
            "nama_pse": "KAPAN LAGI DOT COM NETWORKS",
            "nama_se": "WWW.KAPANLAGI.COM",
            "sektor": "Sektor Teknologi Informasi dan Komunikasi",
            "tanggal_terbit": "2022-08-16",
            "url_tdpse_detail": "https://pse.komdigi.go.id/tdpse-detail/10385",
            "website": "kapanlagi.com"
        },
        {
            "id": "9cb1ac0c-034f-4156-a964-8c40cad54b58",
            "nama_pse": "HEXPHARM JAYA LABORATORIES",
            "nama_se": "HTTPS://ALOCLAIR.ID/",
            "sektor": "Sektor Kesehatan",
            "tanggal_terbit": "2022-08-16",
            "url_tdpse_detail": "https://pse.komdigi.go.id/tdpse-detail/10382",
            "website": "aloclair.id"
        },
        {
            "id": "9cb1ac0c-0690-4df4-b76f-09481ace2425",
            "nama_pse": "BANK PEMBIAYAAN RAKYAT SYARIAH HAJI MISKIN",
            "nama_se": "RURAL BANKING SYSTEM",
            "sektor": "Sektor Keuangan",
            "tanggal_terbit": "2022-08-16",
            "url_tdpse_detail": "https://pse.komdigi.go.id/tdpse-detail/10383",
            "website": "bprshajimiskin.com"
        },
        {
            "id": "9cb1abd7-40ff-4d7c-9918-7196984ded7b",
            "nama_pse": "SARANA KALSEL VENTURA",
            "nama_se": "WEBSITE",
            "sektor": "Sektor Teknologi Informasi dan Komunikasi",
            "tanggal_terbit": "2022-08-16",
            "url_tdpse_detail": "https://pse.komdigi.go.id/tdpse-detail/10389",
            "website": "kalselventura.go.id"
        },
        {
            "id": "9cb1ac0c-09cc-401f-92c0-9d6344dd2bd4",
            "nama_pse": "KAPAN LAGI DOT COM NETWORKS",
            "nama_se": "WWW.OTOSIA.COM",
            "sektor": "Sektor Teknologi Informasi dan Komunikasi",
            "tanggal_terbit": "2022-08-16",
            "url_tdpse_detail": "https://pse.komdigi.go.id/tdpse-detail/10390",
            "website": "otosia.com"
        },
        {
            "id": "9cb1abfd-457d-409b-9d65-55c782ca799f",
            "nama_pse": "PENJAMINAN JAMKRINDO SYARIAH",
            "nama_se": "APLIKASI ONLINE SYSTEM",
            "sektor": "Sektor Teknologi Informasi dan Komunikasi",
            "tanggal_terbit": "2022-08-16",
            "url_tdpse_detail": "https://pse.komdigi.go.id/tdpse-detail/10391",
            "website": "online.jamkrindosyariah.co.id"
        },
        {
            "id": "9cb1ac0c-0cb6-472d-8998-6eaadb55e8dc",
            "nama_pse": "BANK PEMBIAYAAN RAKYAT SYARIAH BAROKAH DANA SEJAHTERA",
            "nama_se": "BPRS BAROKAH DANA SEJAHTERA",
            "sektor": "Sektor Keuangan",
            "tanggal_terbit": "2022-08-16",
            "url_tdpse_detail": "https://pse.komdigi.go.id/tdpse-detail/10393",
            "website": "bprsbds.co.id"
        },
        {
            "id": "9cb1abd7-4cdb-4ab3-9f89-b6d86b3f30b6",
            "nama_pse": "BANK PEMBIAYAAN RAKYAT SYARIAH DINAR ASHRI",
            "nama_se": "ISLAMIC BANKING APPLICATION",
            "sektor": "Sektor Keuangan",
            "tanggal_terbit": "2022-08-16",
            "url_tdpse_detail": "https://pse.komdigi.go.id/tdpse-detail/10394",
            "website": "bprsdinarashri.co.id"
        },
        {
            "id": "9cb1ac0c-0fab-4b45-afbc-72275bf9c425",
            "nama_pse": "ACCESS DIGITAL FRONTIER",
            "nama_se": "INDONESIA ACCESS",
            "sektor": "Sektor Perdagangan",
            "tanggal_terbit": "2022-08-16",
            "url_tdpse_detail": "https://pse.komdigi.go.id/tdpse-detail/10395",
            "website": "indonesiaaccess.id"
        },
        {
            "id": "9cb1ac0c-12d0-4339-92bb-99e620327187",
            "nama_pse": "HEXPHARM JAYA LABORATORIES",
            "nama_se": "WWW.HEXPHARMJAYA.COM",
            "sektor": "Sektor Kesehatan",
            "tanggal_terbit": "2022-08-16",
            "url_tdpse_detail": "https://pse.komdigi.go.id/tdpse-detail/10396",
            "website": "hexpharmjaya.com"
        },
        {
            "id": "9cb1ac0c-16a1-4700-aa46-52d73e74a5bb",
            "nama_pse": "BANK PEMBIAYAAN RAKYAT SYARIAH AMPEK ANGKEK CANDUNG",
            "nama_se": "ISLAMIC BANKING APLICATION (IBA)",
            "sektor": "Sektor Keuangan",
            "tanggal_terbit": "2022-08-16",
            "url_tdpse_detail": "https://pse.komdigi.go.id/tdpse-detail/10398",
            "website": "banksyariah-ampekangkekcandung.co.id"
        },
        {
            "id": "9cb1abd7-5e34-486d-844d-54c4daba1cfa",
            "nama_pse": "BANK PERKREDITAN RAKYAT SANDI RAYA UTAMA",
            "nama_se": "IBS CORE BANKING USSI",
            "sektor": "Sektor Keuangan",
            "tanggal_terbit": "2022-08-16",
            "url_tdpse_detail": "https://pse.komdigi.go.id/tdpse-detail/10399",
            "website": "-"
        },
        {
            "id": "9cb1abd7-6354-4181-a796-6e8163ad4f2f",
            "nama_pse": "OPTIMAL PARTNER NUSANTARA",
            "nama_se": "OPPNA",
            "sektor": "Sektor Teknologi Informasi dan Komunikasi",
            "tanggal_terbit": "2022-08-16",
            "url_tdpse_detail": "https://pse.komdigi.go.id/tdpse-detail/10409",
            "website": "oppna.id"
        },
        {
            "id": "9cb1abfd-4c1a-44a5-a116-38e188fdb128",
            "nama_pse": "MANUNGGAL CITRA LESTARI",
            "nama_se": "COSMED",
            "sektor": "Sektor Kesehatan",
            "tanggal_terbit": "2022-08-16",
            "url_tdpse_detail": "https://pse.komdigi.go.id/tdpse-detail/10402",
            "website": "cosmed.co.id"
        },
        {
            "id": "9cb1ac0c-23ee-475a-ac98-0a368c6872a2",
            "nama_pse": "CITIBANK, N.A.",
            "nama_se": "CITIDIRECT",
            "sektor": "Sektor Keuangan",
            "tanggal_terbit": "2022-08-16",
            "url_tdpse_detail": "https://pse.komdigi.go.id/tdpse-detail/10404",
            "website": "citicorp.com"
        },
        {
            "id": "9cb1abd7-6799-40aa-96ac-5b4e2956533e",
            "nama_pse": "BANK PEMBIAYAAN RAKYAT SYARIAH HARTA INSAN KARIMAH BAHARI",
            "nama_se": "HIK BAHARI",
            "sektor": "Sektor Keuangan",
            "tanggal_terbit": "2022-08-16",
            "url_tdpse_detail": "https://pse.komdigi.go.id/tdpse-detail/10403",
            "website": "HIKBahari.com"
        },
        {
            "id": "9cb1ac0c-2e5e-4c87-a7cb-94c69fbb5410",
            "nama_pse": "SINAR MAS VENTURA",
            "nama_se": "WEBSITE PT SINAR MAS VENTURA",
            "sektor": "Sektor Keuangan",
            "tanggal_terbit": "2022-08-16",
            "url_tdpse_detail": "https://pse.komdigi.go.id/tdpse-detail/10407",
            "website": "sinarmasventura.com"
        },
        {
            "id": "9cb1abd7-7b9a-4274-a9fb-ce7538e81413",
            "nama_pse": "BANK PEREKONOMIAN RAKYAT SYARIAH AMANAH UMMAH",
            "nama_se": "WEBSITE",
            "sektor": "Sektor Keuangan",
            "tanggal_terbit": "2022-08-16",
            "url_tdpse_detail": "https://pse.komdigi.go.id/tdpse-detail/10413",
            "website": "AMANAHUMMAH.CO.ID"
        },
        {
            "id": "9cb1abfd-556a-45e6-97c0-255365aff98d",
            "nama_pse": "BANK PEMBIAYAAN RAKYAT SYARIAH KOTABUMI",
            "nama_se": "IBS ONLINE - SYARI'AH VERSION",
            "sektor": "Sektor Keuangan",
            "tanggal_terbit": "2022-08-16",
            "url_tdpse_detail": "https://pse.komdigi.go.id/tdpse-detail/10412",
            "website": "bprskotabumi.co.id"
        },
        {
            "id": "9cb1ac0c-3768-443a-b46f-e3cc923b6a90",
            "nama_pse": "BANK PEMBIAYAAN RAKYAT SYARIAH SURIYAH",
            "nama_se": "ISLAMIC BANKING APLICATION",
            "sektor": "Sektor Keuangan",
            "tanggal_terbit": "2022-08-16",
            "url_tdpse_detail": "https://pse.komdigi.go.id/tdpse-detail/10414",
            "website": "banksuriyah.com"
        },
        {
            "id": "9cb1abd7-7f82-4b92-b782-e489b7083f94",
            "nama_pse": "BANK PEMBIAYAAN RAKYAT SYARIAH CARANA KIAT ANDALAS",
            "nama_se": "ISLAMIC BANKING APPLICATION",
            "sektor": "Sektor Keuangan",
            "tanggal_terbit": "2022-08-16",
            "url_tdpse_detail": "https://pse.komdigi.go.id/tdpse-detail/10415",
            "website": "-"
        },
        {
            "id": "9cb1abfd-5861-4de7-9df9-bf41e13e4757",
            "nama_pse": "AMAN TECHNOLOGIES INDONESIA",
            "nama_se": "AMAN",
            "sektor": "Sektor Teknologi Informasi dan Komunikasi",
            "tanggal_terbit": "2022-08-16",
            "url_tdpse_detail": "https://pse.komdigi.go.id/tdpse-detail/10417",
            "website": "liveaman.com"
        },
        {
            "id": "9cb1abd7-8418-4911-be86-04556bb4ff9d",
            "nama_pse": "TRIBUN DIGITAL ONLINE",
            "nama_se": "MURIA.TRIBUNNEWS.COM",
            "sektor": "Sektor Teknologi Informasi dan Komunikasi",
            "tanggal_terbit": "2022-08-16",
            "url_tdpse_detail": "https://pse.komdigi.go.id/tdpse-detail/10419",
            "website": "muria.tribunnews.com"
        },
        {
            "id": "9cb1ac0c-4471-4da6-af95-508ed21c389b",
            "nama_pse": "BANK PEMBIAYAAN RAKYAT SYARIAH BARAKAH NAWAITUL IKHLAS",
            "nama_se": "BPRS BARAKAH NAWAITUL IKHLAS",
            "sektor": "Sektor Keuangan",
            "tanggal_terbit": "2022-08-16",
            "url_tdpse_detail": "https://pse.komdigi.go.id/tdpse-detail/10424",
            "website": "-"
        },
        {
            "id": "9cb1abfd-5f07-4ee7-8b8c-31f5d2687ebb",
            "nama_pse": "IDEMAS SOLUSINDO SENTOSA",
            "nama_se": "SCANBARCODE EFAKTUR",
            "sektor": "Sektor Teknologi Informasi dan Komunikasi",
            "tanggal_terbit": "2022-08-16",
            "url_tdpse_detail": "https://pse.komdigi.go.id/tdpse-detail/10425",
            "website": "barcodefaktur.com"
        },
        {
            "id": "9cb1abfd-61eb-41d7-9391-320015736202",
            "nama_pse": "IDE DEF GHI",
            "nama_se": "RUANG ORTU BY ASIA",
            "sektor": "Sektor Teknologi Informasi dan Komunikasi",
            "tanggal_terbit": "2022-08-16",
            "url_tdpse_detail": "https://pse.komdigi.go.id/tdpse-detail/10426",
            "website": "asia.ruangortu.id"
        },
        {
            "id": "9cb1abfd-64c7-453f-bfbb-eb71275a73c3",
            "nama_pse": "BANK PEMBIAYAAN RAKYAT SYARI`AH TULEN AMANAH",
            "nama_se": "WEBSITE",
            "sektor": "Sektor Teknologi Informasi dan Komunikasi",
            "tanggal_terbit": "2022-08-16",
            "url_tdpse_detail": "https://pse.komdigi.go.id/tdpse-detail/10427",
            "website": "bprstulenamanah.co.id"
        },
        {
            "id": "9cb1abd7-904a-433f-b9c5-bce87e18fb30",
            "nama_pse": "MITRA MULTIDIMENSI SEJAHTERA",
            "nama_se": "WEBSITE PT SARANA MAJUKAN EKONOMI FINANCE INDONESIA",
            "sektor": "Sektor Keuangan",
            "tanggal_terbit": "2022-08-16",
            "url_tdpse_detail": "https://pse.komdigi.go.id/tdpse-detail/10428",
            "website": "smefinance.id"
        },
        {
            "id": "9cb1abfd-678d-4444-83b1-86792e0804db",
            "nama_pse": "BANK PEREKONOMIAN RAKYAT SYARIAH DANA AMANAH SURAKARTA",
            "nama_se": "CORE BANKING SYSTEM",
            "sektor": "Sektor Teknologi Informasi dan Komunikasi",
            "tanggal_terbit": "2022-08-16",
            "url_tdpse_detail": "https://pse.komdigi.go.id/tdpse-detail/10429",
            "website": "bprsdanaamanah.com"
        },
        {
            "id": "9cb1abfd-6b09-4f05-9a9c-cac503a1416b",
            "nama_pse": "GLOBAL DIGITAL SISTEMA",
            "nama_se": "NXTPUSH",
            "sektor": "Sektor Teknologi Informasi dan Komunikasi",
            "tanggal_terbit": "2022-08-16",
            "url_tdpse_detail": "https://pse.komdigi.go.id/tdpse-detail/10430",
            "website": "nxtpush.com"
        },
        {
            "id": "9cb1abfd-6fd2-481c-9212-b00348a2c9cf",
            "nama_pse": "CITIBANK, N.A.",
            "nama_se": "CITIVELOCITY",
            "sektor": "Sektor Keuangan",
            "tanggal_terbit": "2022-08-16",
            "url_tdpse_detail": "https://pse.komdigi.go.id/tdpse-detail/10431",
            "website": "citivelocity.com"
        },
        {
            "id": "9cb1ac0c-4798-4fa9-937f-5084a79f400c",
            "nama_pse": "IDE DEF GHI",
            "nama_se": "RUANG ORTU INDONESIA",
            "sektor": "Sektor Teknologi Informasi dan Komunikasi",
            "tanggal_terbit": "2022-08-16",
            "url_tdpse_detail": "https://pse.komdigi.go.id/tdpse-detail/10432",
            "website": "ROI.ruangortu.id"
        },
        {
            "id": "9cb1abd7-953c-4d8c-a11b-995f261ebccb",
            "nama_pse": "CITIBANK, N.A.",
            "nama_se": "CITIDIRECT SECURITIES",
            "sektor": "Sektor Keuangan",
            "tanggal_terbit": "2022-08-16",
            "url_tdpse_detail": "https://pse.komdigi.go.id/tdpse-detail/10433",
            "website": "citivelocity.com"
        },
        {
            "id": "9cb1abd7-9a0c-4028-bea1-3d5d2be141dd",
            "nama_pse": "BANK PEMBIAYAAN RAKYAT SYARIAH LAMPUNG TIMUR",
            "nama_se": "INTEGRATED BANKING SYSTEM SYARI'AH (IBSS)",
            "sektor": "Sektor Keuangan",
            "tanggal_terbit": "2022-08-16",
            "url_tdpse_detail": "https://pse.komdigi.go.id/tdpse-detail/10434",
            "website": "banksyariahlampungtimur.co.id"
        },
        {
            "id": "9cb1ac0c-4c02-4f6f-8f65-c3c74b49aace",
            "nama_pse": "CITIBANK, N.A.",
            "nama_se": "COMMERCIAL CARDS CITIMANAGER",
            "sektor": "Sektor Keuangan",
            "tanggal_terbit": "2022-08-16",
            "url_tdpse_detail": "https://pse.komdigi.go.id/tdpse-detail/10435",
            "website": "citidirect.com"
        }
    ],
    "processingTimeMs": 3,
    "query": "",
    "totalHits": 19131,
    "hitsPerPage": 50,
    "page": 197,
    "totalPages": 383
}