{
    "hits": [
        {
            "id": "9cf17e38-ec72-489b-920f-d54974b89be5",
            "nama_pse": "MELANGKAH BERSAMA TEKNOLOGI",
            "nama_se": "melangkahbersamateknologi.com",
            "sektor": "Sektor Perdagangan, Sektor Teknologi Informasi dan Komunikasi",
            "tanggal_terbit": "2024-09-06",
            "url_tdpse_detail": "https://pse.komdigi.go.id/tdpse-detail/20286",
            "website": "melangkahbersamateknologi.com"
        },
        {
            "id": "9cf153f9-e7c4-4c58-93ab-7b349c0f17af",
            "nama_pse": "VINFAST AUTOMOBILE INDONESIA",
            "nama_se": "DEALER MANAGEMENT SYSTEM",
            "sektor": "Sektor Perdagangan, Sektor Teknologi Informasi dan Komunikasi",
            "tanggal_terbit": "2024-09-06",
            "url_tdpse_detail": "https://pse.komdigi.go.id/tdpse-detail/20278",
            "website": "-"
        },
        {
            "id": "9cf10726-6c9d-4c60-9947-542e02a74116",
            "nama_pse": "DELI GROUP INDONESIA",
            "nama_se": "DELI HUB",
            "sektor": "Sektor Perdagangan",
            "tanggal_terbit": "2024-09-06",
            "url_tdpse_detail": "https://pse.komdigi.go.id/tdpse-detail/20273",
            "website": "-"
        },
        {
            "id": "9cf175e4-956a-4f0e-ac7b-4630e51f2e14",
            "nama_pse": "SRC INDONESIA SEMBILAN",
            "nama_se": "www.src.id",
            "sektor": "Sektor Perdagangan",
            "tanggal_terbit": "2024-09-06",
            "url_tdpse_detail": "https://pse.komdigi.go.id/tdpse-detail/20282",
            "website": "-"
        },
        {
            "id": "9cf0f432-d27b-49ea-8ba5-9a0a63734770",
            "nama_pse": "BLUE ORIGIN MANAGEMENT CONSULTANT",
            "nama_se": "MEMBERSON",
            "sektor": "Sektor Teknologi Informasi dan Komunikasi",
            "tanggal_terbit": "2024-09-06",
            "url_tdpse_detail": "https://pse.komdigi.go.id/tdpse-detail/20272",
            "website": "Blueorigin.co.id"
        },
        {
            "id": "9cf11389-de4f-423b-b57e-68f64f11946b",
            "nama_pse": "DAKSA PANGUPAKARA LARAS",
            "nama_se": "LMS EDUDAKSA.ID",
            "sektor": "Sektor Teknologi Informasi dan Komunikasi",
            "tanggal_terbit": "2024-09-06",
            "url_tdpse_detail": "https://pse.komdigi.go.id/tdpse-detail/20274",
            "website": "edudaksa.id"
        },
        {
            "id": "9cf149d9-3538-4669-acb0-9791c1c9d8bb",
            "nama_pse": "TEMAN TEKNOLOGI FINANSIAL",
            "nama_se": "HYPAY",
            "sektor": "Sektor Teknologi Informasi dan Komunikasi",
            "tanggal_terbit": "2024-09-06",
            "url_tdpse_detail": "https://pse.komdigi.go.id/tdpse-detail/20277",
            "website": "hypay.id"
        },
        {
            "id": "9cf0f026-a127-4734-8209-c9a1c1c5e425",
            "nama_pse": "Firman Kislew Tanjaya",
            "nama_se": "DIGITAL KREDENSIAL",
            "sektor": "Sektor Teknologi Informasi dan Komunikasi",
            "tanggal_terbit": "2024-09-06",
            "url_tdpse_detail": "https://pse.komdigi.go.id/tdpse-detail/20271",
            "website": "digitalkredensial.id"
        },
        {
            "id": "9cf16998-74f1-45a9-b089-0e4041b26b68",
            "nama_pse": "LEGENDA TIKET INDONESIA",
            "nama_se": "PT LEGENDA TIKET INDONESIA (IBUDIBJO.COM)",
            "sektor": "Sektor Perdagangan, Sektor Teknologi Informasi dan Komunikasi",
            "tanggal_terbit": "2024-09-06",
            "url_tdpse_detail": "https://pse.komdigi.go.id/tdpse-detail/20281",
            "website": "ibudibjo.com"
        },
        {
            "id": "9cf17824-8a8d-4c15-ab50-a6924ad27563",
            "nama_pse": "DELI GROUP INDONESIA",
            "nama_se": "PC MALL",
            "sektor": "Sektor Perdagangan",
            "tanggal_terbit": "2024-09-06",
            "url_tdpse_detail": "https://pse.komdigi.go.id/tdpse-detail/20284",
            "website": "portalid.deliworld.com"
        },
        {
            "id": "9cf098fe-d4e8-4b5c-8d1c-633c1ccb23dd",
            "nama_pse": "ATHEOS NETWORK GROUP",
            "nama_se": "LAYANAN JASA INTERNET LOKAL (RT/RW NET)",
            "sektor": "Sektor Teknologi Informasi dan Komunikasi",
            "tanggal_terbit": "2024-09-06",
            "url_tdpse_detail": "https://pse.komdigi.go.id/tdpse-detail/20270",
            "website": "-"
        },
        {
            "id": "9cf1b414-f87e-4c0b-ab0a-fb079a1de74f",
            "nama_pse": "JASNITA TELEKOMINDO",
            "nama_se": "TOSCHAT",
            "sektor": "Sektor Teknologi Informasi dan Komunikasi",
            "tanggal_terbit": "2024-09-06",
            "url_tdpse_detail": "https://pse.komdigi.go.id/tdpse-detail/20288",
            "website": "chatpanel.jasnita.co.id"
        },
        {
            "id": "9cf17d4d-fc59-43d6-949f-bf0f28ef6e50",
            "nama_pse": "BANUA CODER INDONESIA",
            "nama_se": "BANUA CODER",
            "sektor": "Sektor Teknologi Informasi dan Komunikasi",
            "tanggal_terbit": "2024-09-06",
            "url_tdpse_detail": "https://pse.komdigi.go.id/tdpse-detail/20285",
            "website": "banuacoder.com"
        },
        {
            "id": "9cf19119-a943-4431-bb0e-08b04f1651d6",
            "nama_pse": "HYPEFAST KARYA NUSANTARA",
            "nama_se": "HYPEFAST",
            "sektor": "Sektor Perdagangan",
            "tanggal_terbit": "2024-09-06",
            "url_tdpse_detail": "https://pse.komdigi.go.id/tdpse-detail/20287",
            "website": "hypefast.id"
        },
        {
            "id": "9cf13ad7-28e5-43e5-a6d7-daaf5a1be8d4",
            "nama_pse": "OCBC NISP VENTURA",
            "nama_se": "PT OCBC NISP VENTURA",
            "sektor": "Sektor Keuangan",
            "tanggal_terbit": "2024-09-06",
            "url_tdpse_detail": "https://pse.komdigi.go.id/tdpse-detail/20275",
            "website": "ocbcventura.com"
        },
        {
            "id": "9cf15ae6-4755-4ae3-8cc5-1abd226027fc",
            "nama_pse": "TELESAVE TELEKOMUNIKASI INDONESIA",
            "nama_se": "PT TELESAVE TELEKOMUNIKASI INDONESIA",
            "sektor": "Sektor Teknologi Informasi dan Komunikasi",
            "tanggal_terbit": "2024-09-06",
            "url_tdpse_detail": "https://pse.komdigi.go.id/tdpse-detail/20279",
            "website": "mkt.telesave.co.id"
        },
        {
            "id": "9cf1761a-ef98-49a7-ae00-449006abf593",
            "nama_pse": "SRC INDONESIA SEMBILAN",
            "nama_se": "kasir.src.id",
            "sektor": "Sektor Perdagangan",
            "tanggal_terbit": "2024-09-06",
            "url_tdpse_detail": "https://pse.komdigi.go.id/tdpse-detail/20283",
            "website": "kasir.src.id"
        },
        {
            "id": "9cef6d19-b018-48fc-95cc-c8f8013a8a8c",
            "nama_pse": "PARTNER PULSA INDONESIA",
            "nama_se": "PARTNER PULSA",
            "sektor": "Sektor Perdagangan",
            "tanggal_terbit": "2024-09-05",
            "url_tdpse_detail": "https://pse.komdigi.go.id/tdpse-detail/20253",
            "website": "-"
        },
        {
            "id": "9cef6ed2-7bd0-4c7a-b7d6-bdefa44398e3",
            "nama_pse": "MEDIKA INOVASI KREATIF",
            "nama_se": "READY 123",
            "sektor": "Sektor Kesehatan",
            "tanggal_terbit": "2024-09-05",
            "url_tdpse_detail": "https://pse.komdigi.go.id/tdpse-detail/20254",
            "website": "sunat123.com"
        },
        {
            "id": "9cef833f-81d0-4147-9f25-c4f777a42e85",
            "nama_pse": "UNIVERSAL COLLECTION",
            "nama_se": "UC AUCTION",
            "sektor": "Sektor Perdagangan",
            "tanggal_terbit": "2024-09-05",
            "url_tdpse_detail": "https://pse.komdigi.go.id/tdpse-detail/20262",
            "website": "ucauction.co.id"
        },
        {
            "id": "9cd35802-95ad-4f43-b859-71efa1a4bb76",
            "nama_pse": "VINFAST AUTOMOBILE INDONESIA",
            "nama_se": "ELECTRONIC MOBILITY PROVIDER",
            "sektor": "Sektor Teknologi Informasi dan Komunikasi",
            "tanggal_terbit": "2024-09-05",
            "url_tdpse_detail": "https://pse.komdigi.go.id/tdpse-detail/20247",
            "website": "-"
        },
        {
            "id": "9cef7578-9c8a-4051-a333-da5e442f825e",
            "nama_pse": "ROHANA MAULUDIANAH",
            "nama_se": "TPMB ROHANA MAULUDIANAH",
            "sektor": "Sektor Perdagangan, Sektor Kesehatan",
            "tanggal_terbit": "2024-09-05",
            "url_tdpse_detail": "https://pse.komdigi.go.id/tdpse-detail/20257",
            "website": "-"
        },
        {
            "id": "9cef6c68-10ab-4dcd-9b1c-cda920dab699",
            "nama_pse": "AGREGASI CERMAT INDONESIA",
            "nama_se": "PT AGREGASI CERMAT INDONESIA (WEBSITE CERMATI.COM)",
            "sektor": "Sektor Teknologi Informasi dan Komunikasi",
            "tanggal_terbit": "2024-09-05",
            "url_tdpse_detail": "https://pse.komdigi.go.id/tdpse-detail/20252",
            "website": "cermati.com"
        },
        {
            "id": "9cef7c67-6632-41e4-a2a1-fcf2ed1b5f93",
            "nama_pse": "FIKA APARTHOTELS INDONESIA",
            "nama_se": "FIKAROOMS APARTHOTELS",
            "sektor": "Sektor Perdagangan",
            "tanggal_terbit": "2024-09-05",
            "url_tdpse_detail": "https://pse.komdigi.go.id/tdpse-detail/20260",
            "website": "WWW.FIKAROOMS.COM"
        },
        {
            "id": "9cef7d90-e95e-49c1-bc87-7f67ad41db8f",
            "nama_pse": "GERBANG TEKNOLOGI NASIONAL",
            "nama_se": "GERBANG PULSA",
            "sektor": "Sektor Perdagangan, Sektor Teknologi Informasi dan Komunikasi",
            "tanggal_terbit": "2024-09-05",
            "url_tdpse_detail": "https://pse.komdigi.go.id/tdpse-detail/20261",
            "website": "gerbangpulsanasional.com"
        },
        {
            "id": "9cf0125d-e847-4923-87f9-085998844d03",
            "nama_pse": "SENGUNGLUNG ABINAWA RAHARJA",
            "nama_se": "PT. SENGUNGLUNG ABINAWA RAHARJA",
            "sektor": "Sektor Perdagangan",
            "tanggal_terbit": "2024-09-05",
            "url_tdpse_detail": "https://pse.komdigi.go.id/tdpse-detail/20267",
            "website": "skytripvacation.com"
        },
        {
            "id": "9cef7330-a4c0-4f86-80e4-f8ada67da865",
            "nama_pse": "AGREGASI CERMAT INDONESIA",
            "nama_se": "PT AGREGASI CERMAT INDONESIA (APLIKASI CERMATI.COM)",
            "sektor": "Sektor Teknologi Informasi dan Komunikasi",
            "tanggal_terbit": "2024-09-05",
            "url_tdpse_detail": "https://pse.komdigi.go.id/tdpse-detail/20256",
            "website": "-"
        },
        {
            "id": "9cef28b4-2955-4330-a53d-dbd630ac2ea4",
            "nama_pse": "SURYA SEMPOERNA JAYA",
            "nama_se": "DITUSI.CO.ID",
            "sektor": "Sektor Perdagangan",
            "tanggal_terbit": "2024-09-05",
            "url_tdpse_detail": "https://pse.komdigi.go.id/tdpse-detail/20248",
            "website": "-"
        },
        {
            "id": "9cef7599-2354-47db-97bb-455bf85d6a4e",
            "nama_pse": "ALKISAH PICTURES PLUS",
            "nama_se": "PT.ALKISAH PICTURES PLUS",
            "sektor": "Sektor Perdagangan",
            "tanggal_terbit": "2024-09-05",
            "url_tdpse_detail": "https://pse.komdigi.go.id/tdpse-detail/20258",
            "website": "alkisahcinema.com"
        },
        {
            "id": "9cef9237-4a50-4221-a738-8defbc201528",
            "nama_pse": "CENDIKIA NUSANTARA CIPTA",
            "nama_se": "ORACLEVOUCHER",
            "sektor": "Sektor Perdagangan",
            "tanggal_terbit": "2024-09-05",
            "url_tdpse_detail": "https://pse.komdigi.go.id/tdpse-detail/20264",
            "website": "oraclevoucher.com"
        },
        {
            "id": "9cef78e6-6282-49c4-bb1c-47f7ddde481e",
            "nama_pse": "SMART JAYA MAKMUR",
            "nama_se": "SMART - SULTAN MART",
            "sektor": "Sektor Perdagangan",
            "tanggal_terbit": "2024-09-05",
            "url_tdpse_detail": "https://pse.komdigi.go.id/tdpse-detail/20259",
            "website": "sultanmart.id"
        },
        {
            "id": "9cf02ce4-c81a-49cf-b391-2346756b51a5",
            "nama_pse": "TONARD PRO CONSULTANT",
            "nama_se": "PROIZINAN",
            "sektor": "Sektor Teknologi Informasi dan Komunikasi",
            "tanggal_terbit": "2024-09-05",
            "url_tdpse_detail": "https://pse.komdigi.go.id/tdpse-detail/20268",
            "website": "proizinan.com"
        },
        {
            "id": "9cefa5e1-17c6-42a4-a9c6-a6d4314636b5",
            "nama_pse": "EKSPERTIS GLOBAL INOVASI",
            "nama_se": "TOPOMOVO",
            "sektor": "Sektor Perdagangan",
            "tanggal_terbit": "2024-09-05",
            "url_tdpse_detail": "https://pse.komdigi.go.id/tdpse-detail/20265",
            "website": "topomovo.com"
        },
        {
            "id": "9cefafc9-e6cf-469e-8785-424018bfba0b",
            "nama_pse": "MAHA MEDIS INDONESIA",
            "nama_se": "FARMA MEDIS",
            "sektor": "Sektor Kesehatan, Sektor Teknologi Informasi dan Komunikasi",
            "tanggal_terbit": "2024-09-05",
            "url_tdpse_detail": "https://pse.komdigi.go.id/tdpse-detail/20266",
            "website": "farmamedis.id"
        },
        {
            "id": "9cf03476-a90f-4bc1-9ca6-24957ffce613",
            "nama_pse": "GLOBAL OTOMAT DIGITAL",
            "nama_se": "GOD",
            "sektor": "Sektor Teknologi Informasi dan Komunikasi",
            "tanggal_terbit": "2024-09-05",
            "url_tdpse_detail": "https://pse.komdigi.go.id/tdpse-detail/20269",
            "website": "god.co.id"
        },
        {
            "id": "9cef4fcd-8104-4a7f-91d8-8e1f5646cf65",
            "nama_pse": "EZDIGITAL LOGISTIK SANTARA",
            "nama_se": "ezpickup.id",
            "sektor": "Sektor Perdagangan, Sektor Teknologi Informasi dan Komunikasi",
            "tanggal_terbit": "2024-09-05",
            "url_tdpse_detail": "https://pse.komdigi.go.id/tdpse-detail/20249",
            "website": "ezpickup.id"
        },
        {
            "id": "9cef61da-ac22-4835-9dd7-ac14520f2598",
            "nama_pse": "WAWAN CELLULAR INDONESIA",
            "nama_se": "MY QUOTA",
            "sektor": "Sektor Perdagangan, Sektor Teknologi Informasi dan Komunikasi",
            "tanggal_terbit": "2024-09-05",
            "url_tdpse_detail": "https://pse.komdigi.go.id/tdpse-detail/20250",
            "website": "wawancellularindonesia.co.id"
        },
        {
            "id": "9ced6014-b198-484d-8431-f0f9c16a3a85",
            "nama_pse": "MALACCA TECHNOLOGY GROUP",
            "nama_se": "MALACCA MALL",
            "sektor": "Sektor Perdagangan",
            "tanggal_terbit": "2024-09-05",
            "url_tdpse_detail": "https://pse.komdigi.go.id/tdpse-detail/20251",
            "website": "malacca.id"
        },
        {
            "id": "9cef71c6-20da-4667-bfc1-8b106407d814",
            "nama_pse": "MULYO TRONIK INDONESIA",
            "nama_se": "RAJAPAKET",
            "sektor": "Sektor Perdagangan",
            "tanggal_terbit": "2024-09-05",
            "url_tdpse_detail": "https://pse.komdigi.go.id/tdpse-detail/20255",
            "website": "-"
        },
        {
            "id": "9ced6015-04e9-46f7-add9-fcd8188775ca",
            "nama_pse": "TOKOPEDIA",
            "nama_se": "GO|TOKOPEDIA",
            "sektor": "Sektor Perdagangan",
            "tanggal_terbit": "2024-09-05",
            "url_tdpse_detail": "https://pse.komdigi.go.id/tdpse-detail/20263",
            "website": "-"
        },
        {
            "id": "9ced8ce2-313a-474c-8c63-a9efb072f773",
            "nama_pse": "INTERNUSA TERUS JAYA",
            "nama_se": "WEBSITE (KLEANER INDONESIA)",
            "sektor": "Sektor Perdagangan",
            "tanggal_terbit": "2024-09-04",
            "url_tdpse_detail": "https://pse.komdigi.go.id/tdpse-detail/20233",
            "website": "kleaner.co.id"
        },
        {
            "id": "9cedbac3-47f0-4568-a3e5-99fe207ce4b0",
            "nama_pse": "ALRAFNA TELEMEDIA SULAWESI",
            "nama_se": "PT ALRAFNA TELEMEDIA SULAWESI",
            "sektor": "Sektor Teknologi Informasi dan Komunikasi",
            "tanggal_terbit": "2024-09-04",
            "url_tdpse_detail": "https://pse.komdigi.go.id/tdpse-detail/20240",
            "website": "-"
        },
        {
            "id": "9ced21b6-a301-4df8-8422-f75fcc3cff62",
            "nama_pse": "PERUSAHAAN PERSEROAN (PERSERO) PT. BANK TABUNGAN NEGARA",
            "nama_se": "VA HUB",
            "sektor": "Sektor Teknologi Informasi dan Komunikasi",
            "tanggal_terbit": "2024-09-04",
            "url_tdpse_detail": "https://pse.komdigi.go.id/tdpse-detail/20224",
            "website": "vahub.btn.co.id"
        },
        {
            "id": "9ced6014-909f-4151-aee5-660b1029dc28",
            "nama_pse": "NIUM MITRA INDONESIA",
            "nama_se": "MASSPAY",
            "sektor": "Sektor Keuangan",
            "tanggal_terbit": "2024-09-04",
            "url_tdpse_detail": "https://pse.komdigi.go.id/tdpse-detail/20231",
            "website": "masspay.instarem.com"
        },
        {
            "id": "9cecf651-a34b-48c3-af31-492f7ad19950",
            "nama_pse": "EUNOIA CIPTASEHAT INDONESIA",
            "nama_se": "EUNOIACARE",
            "sektor": "Sektor Perdagangan, Sektor Kesehatan",
            "tanggal_terbit": "2024-09-04",
            "url_tdpse_detail": "https://pse.komdigi.go.id/tdpse-detail/20221",
            "website": "eunoiacare.id"
        },
        {
            "id": "9ced112b-1802-4948-bf51-dfe49045bc2d",
            "nama_pse": "TELESAVE TELEKOMUNIKASI INDONESIA",
            "nama_se": "PT. TELESAVE TELEKOMUNIKASI INDONESIA",
            "sektor": "Sektor Teknologi Informasi dan Komunikasi",
            "tanggal_terbit": "2024-09-04",
            "url_tdpse_detail": "https://pse.komdigi.go.id/tdpse-detail/20222",
            "website": "telesave.co.id"
        },
        {
            "id": "9ced6014-b7ab-4d92-9032-fba5aa83e899",
            "nama_pse": "INDOPAY MERCHANT SERVICES",
            "nama_se": "PT INDOPAY MERCHANT SERVICES",
            "sektor": "Sektor Keuangan, Sektor Teknologi Informasi dan Komunikasi",
            "tanggal_terbit": "2024-09-04",
            "url_tdpse_detail": "https://pse.komdigi.go.id/tdpse-detail/20230",
            "website": "indopay.com"
        },
        {
            "id": "9ced2f1a-7bee-4705-8042-f99bd1dfeda0",
            "nama_pse": "FIRMAPPS PRIME INTELLIGENCE",
            "nama_se": "FIRMAPPS",
            "sektor": "Sektor Teknologi Informasi dan Komunikasi",
            "tanggal_terbit": "2024-09-04",
            "url_tdpse_detail": "https://pse.komdigi.go.id/tdpse-detail/20226",
            "website": "firmapps.ai"
        },
        {
            "id": "9ced280c-5d3b-4c3c-9578-4b9e2d229af1",
            "nama_pse": "MORA PRATAMA KREASINDO",
            "nama_se": "JARVIS STORE",
            "sektor": "Sektor Teknologi Informasi dan Komunikasi",
            "tanggal_terbit": "2024-09-04",
            "url_tdpse_detail": "https://pse.komdigi.go.id/tdpse-detail/20225",
            "website": "jarvis-store.com"
        },
        {
            "id": "9ced6014-7c79-4aa4-9400-2c659ada6a5e",
            "nama_pse": "MARGONO DIAN GRAHA",
            "nama_se": "margonopaper.com",
            "sektor": "Sektor Perdagangan",
            "tanggal_terbit": "2024-09-04",
            "url_tdpse_detail": "https://pse.komdigi.go.id/tdpse-detail/20232",
            "website": "margonopaper.com"
        }
    ],
    "processingTimeMs": 1,
    "query": "",
    "totalHits": 19121,
    "hitsPerPage": 50,
    "page": 42,
    "totalPages": 383
}