{
    "hits": [
        {
            "id": "9cb1aba0-a22f-4eed-a4e5-84d80c1b151d",
            "nama_pse": "ZAFIYYA UTAMA INDONESIA",
            "nama_se": "ZAFIYYA",
            "sektor": "Sektor Perdagangan, Sektor Kesehatan, Sektor Pangan, Sektor Pertahanan dan Keamanan",
            "tanggal_terbit": "2022-04-15",
            "url_tdpse_detail": "https://pse.komdigi.go.id/tdpse-detail/3877",
            "website": "tokodaring.lkpp.go.id"
        },
        {
            "id": "9cb1abab-793a-4718-af47-159af649b3ed",
            "nama_pse": "MOASIS ANTONIO",
            "nama_se": "PARLIN SOLUTIONS",
            "sektor": "Sektor Perdagangan, Sektor Teknologi Informasi dan Komunikasi",
            "tanggal_terbit": "2022-04-15",
            "url_tdpse_detail": "https://pse.komdigi.go.id/tdpse-detail/3876",
            "website": "-"
        },
        {
            "id": "9cb1aba0-50c0-474f-a37e-1825726e68db",
            "nama_pse": "BRICK TEKNOLOGI INDONESIA",
            "nama_se": "BOIVA",
            "sektor": "Sektor Keuangan",
            "tanggal_terbit": "2022-04-14",
            "url_tdpse_detail": "https://pse.komdigi.go.id/tdpse-detail/3874",
            "website": "boiva.id"
        },
        {
            "id": "9cb1ab94-2ece-4cff-a14d-5718b233ecb7",
            "nama_pse": "KINI TEKNOLOGI INDONESIA",
            "nama_se": "KINI",
            "sektor": "Sektor Teknologi Informasi dan Komunikasi",
            "tanggal_terbit": "2022-04-14",
            "url_tdpse_detail": "https://pse.komdigi.go.id/tdpse-detail/3870",
            "website": "kini.id"
        },
        {
            "id": "9cb1aba0-de46-43f8-b629-869c33f66003",
            "nama_pse": "WEB SUPER LITE",
            "nama_se": "AUTHENTIC CODE , APLIKASI WEBSITE \u0026 PERCETAKAN",
            "sektor": "Sektor Perdagangan, Sektor Teknologi Informasi dan Komunikasi",
            "tanggal_terbit": "2022-04-14",
            "url_tdpse_detail": "https://pse.komdigi.go.id/tdpse-detail/3872",
            "website": "websuperlite.co.id"
        },
        {
            "id": "9cb1abab-4fd2-436a-91ec-0492494721c4",
            "nama_pse": "SHANKA MANDALA GEMILANG",
            "nama_se": "ELZIVA (ELZIVANETWORK.CO.ID)",
            "sektor": "Sektor Perdagangan",
            "tanggal_terbit": "2022-04-14",
            "url_tdpse_detail": "https://pse.komdigi.go.id/tdpse-detail/3875",
            "website": "elzivanetwork.co.id"
        },
        {
            "id": "9cb1aba0-fc4c-4cb6-9c67-6cba61fcab29",
            "nama_pse": "CYBERINDO ADITAMA",
            "nama_se": "CBN.ID",
            "sektor": "Sektor Teknologi Informasi dan Komunikasi",
            "tanggal_terbit": "2022-04-14",
            "url_tdpse_detail": "https://pse.komdigi.go.id/tdpse-detail/3873",
            "website": "cbn.id"
        },
        {
            "id": "9cb1abad-8c8b-48bd-b001-0e1ef91e44b7",
            "nama_pse": "LION EXPRESS",
            "nama_se": "LION PARCEL",
            "sektor": "Sektor Perdagangan, Sektor Transportasi, Sektor Teknologi Informasi dan Komunikasi",
            "tanggal_terbit": "2022-04-14",
            "url_tdpse_detail": "https://pse.komdigi.go.id/tdpse-detail/4597",
            "website": "lionparcel.com"
        },
        {
            "id": "9cb1ab94-5e19-4be8-8904-ec9e3f32ede0",
            "nama_pse": "PENGGIAT EKOSISTEM KECERDASAN ARTIFISIAL DAN BLOCKCHAIN",
            "nama_se": "IAIE - INDONESIA ARTIFICIAL INTELLIGENCE ECOSYSTEM",
            "sektor": "Sektor Teknologi Informasi dan Komunikasi",
            "tanggal_terbit": "2022-04-13",
            "url_tdpse_detail": "https://pse.komdigi.go.id/tdpse-detail/3859",
            "website": "iaie-id.org"
        },
        {
            "id": "9cb1ab93-a63f-4970-a3b7-a76a8729cac5",
            "nama_pse": "TICKLED AUDIENCE PLATFORM",
            "nama_se": "THE ASIANTPARENT",
            "sektor": "Sektor Kesehatan",
            "tanggal_terbit": "2022-04-13",
            "url_tdpse_detail": "https://pse.komdigi.go.id/tdpse-detail/3865",
            "website": "id.theasianparent.com"
        },
        {
            "id": "9cb1abab-0bc5-40b2-a8cb-aba2a53c1249",
            "nama_pse": "ZAIRA ANUGRAH MANDIRI",
            "nama_se": "ANGGARAN",
            "sektor": "Sektor Perdagangan",
            "tanggal_terbit": "2022-04-13",
            "url_tdpse_detail": "https://pse.komdigi.go.id/tdpse-detail/3869",
            "website": "-"
        },
        {
            "id": "9cb1ab93-e523-47ca-997f-39c15eff3c35",
            "nama_pse": "TELAGA BENING",
            "nama_se": "THOSIBA",
            "sektor": "Sektor Perdagangan, Sektor Perdagangan, Sektor Keuangan, Sektor Keuangan, Sektor Teknologi Informasi dan Komunikasi, Sektor Teknologi Informasi dan Komunikasi",
            "tanggal_terbit": "2022-04-13",
            "url_tdpse_detail": "https://pse.komdigi.go.id/tdpse-detail/3861",
            "website": "-"
        },
        {
            "id": "9cb1ab93-e82a-4e36-866f-1306fbb4e5b5",
            "nama_pse": "TELAGA BENING",
            "nama_se": "TELAGABENING",
            "sektor": "Sektor Perdagangan, Sektor Energi dan Sumber Daya Mineral, Sektor Transportasi, Sektor Pangan",
            "tanggal_terbit": "2022-04-13",
            "url_tdpse_detail": "https://pse.komdigi.go.id/tdpse-detail/3863",
            "website": "-"
        },
        {
            "id": "9cb1aba0-9eb3-4d11-b941-3675a1d46e64",
            "nama_pse": "TREEDOTS GROUP INDONESIA",
            "nama_se": "WWW.THETREEDOTS.ID",
            "sektor": "Sektor Perdagangan, Sektor Transportasi, Sektor Teknologi Informasi dan Komunikasi, Sektor Pangan",
            "tanggal_terbit": "2022-04-13",
            "url_tdpse_detail": "https://pse.komdigi.go.id/tdpse-detail/3860",
            "website": "thetreedots.id"
        },
        {
            "id": "9cb1abab-354b-48e7-8be0-b6b9cef6e3f3",
            "nama_pse": "BANK SBI INDONESIA",
            "nama_se": "WEBSITE BANK SBI INDONESIA",
            "sektor": "Sektor Keuangan",
            "tanggal_terbit": "2022-04-13",
            "url_tdpse_detail": "https://pse.komdigi.go.id/tdpse-detail/3866",
            "website": "sbiindo.com"
        },
        {
            "id": "9cb1abab-44f2-43d1-ba11-b0a530c9aeb2",
            "nama_pse": "BATU KAJANG DELIVERY",
            "nama_se": "BK JEK",
            "sektor": "Sektor Perdagangan, Sektor Transportasi, Sektor Keuangan, Sektor Teknologi Informasi dan Komunikasi",
            "tanggal_terbit": "2022-04-13",
            "url_tdpse_detail": "https://pse.komdigi.go.id/tdpse-detail/3856",
            "website": "-"
        },
        {
            "id": "9cb1abab-5e6a-4727-9406-59842ff784b6",
            "nama_pse": "LEMBAGA LINGKUNGAN HIDUP DAN PEJUANG IKLIM INDONESIA",
            "nama_se": "WWW.KOMPINEWS.MY.ID",
            "sektor": "Sektor Teknologi Informasi dan Komunikasi",
            "tanggal_terbit": "2022-04-13",
            "url_tdpse_detail": "https://pse.komdigi.go.id/tdpse-detail/3854",
            "website": "kompinews.my.id"
        },
        {
            "id": "9cb1aba0-ec9b-4d24-906b-07bd4ff4807a",
            "nama_pse": "INFINITE WORLD ESPORTS",
            "nama_se": "KOHAI GAMER KOHAI PARTNER",
            "sektor": "Sektor Teknologi Informasi dan Komunikasi",
            "tanggal_terbit": "2022-04-13",
            "url_tdpse_detail": "https://pse.komdigi.go.id/tdpse-detail/3858",
            "website": "kohai.gg"
        },
        {
            "id": "9cb1abab-bee3-4ec7-9c70-bccd6b6d32f8",
            "nama_pse": "SARANA MAJU SEJAHTERA",
            "nama_se": "FANSLAB",
            "sektor": "Sektor Kesehatan",
            "tanggal_terbit": "2022-04-13",
            "url_tdpse_detail": "https://pse.komdigi.go.id/tdpse-detail/3864",
            "website": "-"
        },
        {
            "id": "9cb1aba1-2ca2-4ff3-be03-1645425b01e0",
            "nama_pse": "MAP BOGA ADIPERKASA",
            "nama_se": "MBAI.CO.ID",
            "sektor": "Sektor Perdagangan",
            "tanggal_terbit": "2022-04-13",
            "url_tdpse_detail": "https://pse.komdigi.go.id/tdpse-detail/3855",
            "website": "mbai.co.id"
        },
        {
            "id": "9cb1ab94-f669-42ca-8147-4ee24730468f",
            "nama_pse": "OMNI DIGITAMA INTERNUSA",
            "nama_se": "RUPARUPA",
            "sektor": "Sektor Perdagangan, Sektor Teknologi Informasi dan Komunikasi",
            "tanggal_terbit": "2022-04-13",
            "url_tdpse_detail": "https://pse.komdigi.go.id/tdpse-detail/3867",
            "website": "ruparupa.com"
        },
        {
            "id": "9cb1ab95-07da-48d3-aaf9-429f53142f9a",
            "nama_pse": "PATRIA INDOTECH",
            "nama_se": "LEGAL CARE",
            "sektor": "Sektor Perdagangan",
            "tanggal_terbit": "2022-04-13",
            "url_tdpse_detail": "https://pse.komdigi.go.id/tdpse-detail/3857",
            "website": "legalcare.my.id"
        },
        {
            "id": "9cb1ab93-b2e0-46b8-9a29-8c459c1afc7d",
            "nama_pse": "MULTILINK INTEGRA PERSADA",
            "nama_se": "M-LINK",
            "sektor": "Sektor Perdagangan",
            "tanggal_terbit": "2022-04-12",
            "url_tdpse_detail": "https://pse.komdigi.go.id/tdpse-detail/3850",
            "website": "m-link.id"
        },
        {
            "id": "9cb1abaa-f8da-4639-aca7-4b68f739bbb4",
            "nama_pse": "DOSNI ROHA LOGISTIK",
            "nama_se": "DPORT",
            "sektor": "Sektor Transportasi",
            "tanggal_terbit": "2022-04-12",
            "url_tdpse_detail": "https://pse.komdigi.go.id/tdpse-detail/3849",
            "website": "dport.id"
        },
        {
            "id": "9cb1ab93-fcb8-43ad-936d-46ff06daf5a1",
            "nama_pse": "SMP PAYMENT DIGITAL EVOLUSI",
            "nama_se": "SMP PAYMENT",
            "sektor": "Sektor Perdagangan",
            "tanggal_terbit": "2022-04-12",
            "url_tdpse_detail": "https://pse.komdigi.go.id/tdpse-detail/3851",
            "website": "solusimediapulsa.com"
        },
        {
            "id": "9cb1abab-32fc-4d95-ae20-98e0c45633b1",
            "nama_pse": "BANK SBI INDONESIA",
            "nama_se": "INTERNET BANKING RETAIL DAN CORPORATE",
            "sektor": "Sektor Keuangan",
            "tanggal_terbit": "2022-04-12",
            "url_tdpse_detail": "https://pse.komdigi.go.id/tdpse-detail/3852",
            "website": "onlinesbii.sbiindo.com"
        },
        {
            "id": "9cb1aba0-ce70-4785-85b3-5aba93b58144",
            "nama_pse": "SOLUBIS SUKSES GEMILANG",
            "nama_se": "HTTPS://WWW.SOLUBIS.COM",
            "sektor": "Sektor Perdagangan, Sektor Teknologi Informasi dan Komunikasi",
            "tanggal_terbit": "2022-04-12",
            "url_tdpse_detail": "https://pse.komdigi.go.id/tdpse-detail/3853",
            "website": "solubis.com"
        },
        {
            "id": "9cb1abab-ead0-463d-9b36-21a59312779e",
            "nama_pse": "LENTERA BANGSA BENDERANG",
            "nama_se": "BINAR ACADEMY PLATFORM",
            "sektor": "Sektor Teknologi Informasi dan Komunikasi",
            "tanggal_terbit": "2022-04-12",
            "url_tdpse_detail": "https://pse.komdigi.go.id/tdpse-detail/3848",
            "website": "binaracademy.com"
        },
        {
            "id": "9cb1abaa-e4d8-45ff-9548-aa84582c6134",
            "nama_pse": "JAYA ALAM SEMESTA",
            "nama_se": "CV JAYA ALAM SEMESTA",
            "sektor": "Sektor Perdagangan, Sektor Perdagangan, Sektor Perdagangan, Sektor Perdagangan",
            "tanggal_terbit": "2022-04-11",
            "url_tdpse_detail": "https://pse.komdigi.go.id/tdpse-detail/3844",
            "website": "anekasatwa.com"
        },
        {
            "id": "9cb1abaa-eb08-4101-8aad-03ce394f8201",
            "nama_pse": "SELFINC RETAIL INDONESIA",
            "nama_se": "THE SELFINC",
            "sektor": "Sektor Perdagangan, Sektor Perdagangan",
            "tanggal_terbit": "2022-04-11",
            "url_tdpse_detail": "https://pse.komdigi.go.id/tdpse-detail/3832",
            "website": "theselfinc.co"
        },
        {
            "id": "9cb1abaa-f101-4bf9-b7d4-63bec2ced941",
            "nama_pse": "MAMAS CHOICE MERCHANDISING",
            "nama_se": "MAMA’S CHOICE",
            "sektor": "Sektor Perdagangan, Sektor Perdagangan, Sektor Kesehatan, Sektor Kesehatan",
            "tanggal_terbit": "2022-04-11",
            "url_tdpse_detail": "https://pse.komdigi.go.id/tdpse-detail/3831",
            "website": "mamaschoice.id"
        },
        {
            "id": "9cb1abab-1472-4ed7-bb5a-66f1965d80aa",
            "nama_pse": "CAHAYA SILIWANGI GROUP",
            "nama_se": "CAHAYA SILIWANGI RELOAD",
            "sektor": "Sektor Perdagangan",
            "tanggal_terbit": "2022-04-11",
            "url_tdpse_detail": "https://pse.komdigi.go.id/tdpse-detail/3847",
            "website": "-"
        },
        {
            "id": "9cb1aba0-89ff-44de-843d-d3c68fdb6499",
            "nama_pse": "MITRA INVESTASI ANDA",
            "nama_se": "KOINREKSA",
            "sektor": "Sektor Perdagangan",
            "tanggal_terbit": "2022-04-11",
            "url_tdpse_detail": "https://pse.komdigi.go.id/tdpse-detail/3830",
            "website": "koinreksa.com"
        },
        {
            "id": "9cb1abab-2834-477d-a39b-75a3476a7817",
            "nama_pse": "ASISTENSI MEDIKA INDONESIA",
            "nama_se": "FH INDONESIA",
            "sektor": "Sektor Kesehatan",
            "tanggal_terbit": "2022-04-11",
            "url_tdpse_detail": "https://pse.komdigi.go.id/tdpse-detail/3840",
            "website": "fullertonhealth.co.id"
        },
        {
            "id": "9cb1aba0-a453-4907-b886-2f3995f565cf",
            "nama_pse": "KRIPTO ANAK BANGSA",
            "nama_se": "KOPI TOKEN",
            "sektor": "Sektor Teknologi Informasi dan Komunikasi",
            "tanggal_terbit": "2022-04-11",
            "url_tdpse_detail": "https://pse.komdigi.go.id/tdpse-detail/3846",
            "website": "kopitoken.com"
        },
        {
            "id": "9cb1aba0-a6bd-4943-8fe8-cfd674f656bf",
            "nama_pse": "ORBIT TANAH AIRKU",
            "nama_se": "OTAQU",
            "sektor": "Sektor Transportasi",
            "tanggal_terbit": "2022-04-11",
            "url_tdpse_detail": "https://pse.komdigi.go.id/tdpse-detail/3833",
            "website": "otaqu.id"
        },
        {
            "id": "9cb1abab-307a-4fac-af37-3b6ad000823e",
            "nama_pse": "VENTENY FORTUNA INTERNATIONAL",
            "nama_se": "VENTENY EMPLOYEE SUPER-APP",
            "sektor": "Sektor Perdagangan, Sektor Teknologi Informasi dan Komunikasi",
            "tanggal_terbit": "2022-04-11",
            "url_tdpse_detail": "https://pse.komdigi.go.id/tdpse-detail/3839",
            "website": "venteny.com"
        },
        {
            "id": "9cb1abab-3995-4143-9ddb-17f8341158d4",
            "nama_pse": "TIRA SATRIA NIAGA",
            "nama_se": "TIRA SMART FAMILY APPS",
            "sektor": "Sektor Perdagangan",
            "tanggal_terbit": "2022-04-11",
            "url_tdpse_detail": "https://pse.komdigi.go.id/tdpse-detail/3836",
            "website": "tira-sf.id"
        },
        {
            "id": "9cb1aba0-caad-456c-baa9-16cf37743aee",
            "nama_pse": "HANDAL RVAC INDONESIA",
            "nama_se": "PT. HANDAL RVAC INDONESIA",
            "sektor": "Sektor Perdagangan, Sektor Energi dan Sumber Daya Mineral, Sektor Kesehatan, Sektor Teknologi Informasi dan Komunikasi",
            "tanggal_terbit": "2022-04-11",
            "url_tdpse_detail": "https://pse.komdigi.go.id/tdpse-detail/3834",
            "website": "-"
        },
        {
            "id": "9cb1abab-46ed-4275-a7d1-6e205f32b674",
            "nama_pse": "EPAYU DIGITAL KREATIF",
            "nama_se": "PULSASELULER.COM",
            "sektor": "Sektor Perdagangan, Sektor Teknologi Informasi dan Komunikasi",
            "tanggal_terbit": "2022-04-11",
            "url_tdpse_detail": "https://pse.komdigi.go.id/tdpse-detail/3827",
            "website": "pulsaseluler.com"
        },
        {
            "id": "9cb1ab94-4ff6-4a57-bb9f-6142b3e28fcd",
            "nama_pse": "EPAYU DIGITAL KREATIF",
            "nama_se": "PT EPAYU DIGITAL KREATIF",
            "sektor": "Sektor Perdagangan, Sektor Teknologi Informasi dan Komunikasi",
            "tanggal_terbit": "2022-04-11",
            "url_tdpse_detail": "https://pse.komdigi.go.id/tdpse-detail/3828",
            "website": "epayu.co.id"
        },
        {
            "id": "9cb1ab94-827c-4c67-a2ca-ae45d6d7bd25",
            "nama_pse": "GLOBAL KARYA WISESA",
            "nama_se": "WWW.SHOPMEINDO.ID",
            "sektor": "Sektor Perdagangan, Sektor Teknologi Informasi dan Komunikasi",
            "tanggal_terbit": "2022-04-11",
            "url_tdpse_detail": "https://pse.komdigi.go.id/tdpse-detail/3829",
            "website": "shopmeindo.id"
        },
        {
            "id": "9cb1ab94-8f53-469f-a9af-1e4c28865569",
            "nama_pse": "SCRB GLOBAL INDONESIA",
            "nama_se": "WWW.THESCRB.COM",
            "sektor": "Sektor Perdagangan",
            "tanggal_terbit": "2022-04-11",
            "url_tdpse_detail": "https://pse.komdigi.go.id/tdpse-detail/3843",
            "website": "thescrb.com"
        },
        {
            "id": "9cb1ab94-a1c9-4dab-816e-49f958b4ec74",
            "nama_pse": "HEWANIA SOLUSI DIGITAL",
            "nama_se": "HEWANIA",
            "sektor": "Sektor Perdagangan, Sektor Teknologi Informasi dan Komunikasi",
            "tanggal_terbit": "2022-04-11",
            "url_tdpse_detail": "https://pse.komdigi.go.id/tdpse-detail/3841",
            "website": "hewania.com"
        },
        {
            "id": "9cb1ab94-affa-4fb8-95b6-792f09fb1f2e",
            "nama_pse": "ELANG SUARA INDONESIA",
            "nama_se": "PT. ELANGSUARAINDONESIA",
            "sektor": "Sektor Teknologi Informasi dan Komunikasi",
            "tanggal_terbit": "2022-04-11",
            "url_tdpse_detail": "https://pse.komdigi.go.id/tdpse-detail/3838",
            "website": "elsindo.id"
        },
        {
            "id": "9cb1aba0-f86f-4665-8b8f-4790dccf7e9a",
            "nama_pse": "BALAI LELANG ASTA NARA JAYA",
            "nama_se": "AUKSI LELANG",
            "sektor": "Sektor Perdagangan",
            "tanggal_terbit": "2022-04-11",
            "url_tdpse_detail": "https://pse.komdigi.go.id/tdpse-detail/3835",
            "website": "auksi.co.id"
        },
        {
            "id": "9cb1ab94-b7c8-4f26-8da4-eaa4ae09b14d",
            "nama_pse": "CYBERINDO ADITAMA",
            "nama_se": "CBN",
            "sektor": "Sektor Teknologi Informasi dan Komunikasi",
            "tanggal_terbit": "2022-04-11",
            "url_tdpse_detail": "https://pse.komdigi.go.id/tdpse-detail/3837",
            "website": "cbn.net.id"
        },
        {
            "id": "9cb1abab-d613-40e9-89b4-2fb53f81434a",
            "nama_pse": "INTEGRA LOYALTI NUSANTARA",
            "nama_se": "GOODIE LOYALTY SYSTEM",
            "sektor": "Sektor Perdagangan, Sektor Teknologi Informasi dan Komunikasi",
            "tanggal_terbit": "2022-04-11",
            "url_tdpse_detail": "https://pse.komdigi.go.id/tdpse-detail/3845",
            "website": "goodie.id"
        },
        {
            "id": "9cb1aba1-424d-48d1-b141-24513e494adb",
            "nama_pse": "FINTEK INTEGRASI DIGITAL",
            "nama_se": "PAJAK.IO",
            "sektor": "Sektor Teknologi Informasi dan Komunikasi",
            "tanggal_terbit": "2022-04-11",
            "url_tdpse_detail": "https://pse.komdigi.go.id/tdpse-detail/3842",
            "website": "pajak.io"
        },
        {
            "id": "9cb1ab93-bc60-46aa-985d-d64091fb6cd8",
            "nama_pse": "GLOBAL ORBIT BERSAMA",
            "nama_se": "GLOBER MART",
            "sektor": "Sektor Perdagangan, Sektor Transportasi",
            "tanggal_terbit": "2022-04-10",
            "url_tdpse_detail": "https://pse.komdigi.go.id/tdpse-detail/3824",
            "website": "globermart.co.id"
        }
    ],
    "processingTimeMs": 13,
    "query": "",
    "totalHits": 19131,
    "hitsPerPage": 50,
    "page": 310,
    "totalPages": 383
}