{
    "hits": [
        {
            "id": "9cb1abbb-4933-4303-8d0b-12fda4d414f0",
            "nama_pse": "HEXA MAJU SAMASTA",
            "nama_se": "DIGITAL SIGNATURE SYSTEM",
            "sektor": "Sektor Teknologi Informasi dan Komunikasi",
            "tanggal_terbit": "2022-07-20",
            "url_tdpse_detail": "https://pse.komdigi.go.id/tdpse-detail/8340",
            "website": "-"
        },
        {
            "id": "9cb1abc9-6fe7-4a46-b0ad-872b3ff313f3",
            "nama_pse": "FISABIL MAHARDIKA PUTRA",
            "nama_se": "PULSA QRIS CATAT UANG - ALEENA",
            "sektor": "Sektor Perdagangan",
            "tanggal_terbit": "2022-07-20",
            "url_tdpse_detail": "https://pse.komdigi.go.id/tdpse-detail/8342",
            "website": "aleena.bukaolshop.site"
        },
        {
            "id": "9cb1abef-6d2f-4cd0-80aa-5b920d3b5193",
            "nama_pse": "AKU CINTA INDONESIA RAYA",
            "nama_se": "WINMARKET",
            "sektor": "Sektor Perdagangan, Sektor Teknologi Informasi dan Komunikasi",
            "tanggal_terbit": "2022-07-20",
            "url_tdpse_detail": "https://pse.komdigi.go.id/tdpse-detail/8343",
            "website": "winmarket.id"
        },
        {
            "id": "9cb1abbb-4b09-4adf-b6bd-a93e607a2257",
            "nama_pse": "BANK MANDIRI TASPEN",
            "nama_se": "MILEA (MANTAP INTELLIGENCE E-ASSISTANT)",
            "sektor": "Sektor Keuangan",
            "tanggal_terbit": "2022-07-20",
            "url_tdpse_detail": "https://pse.komdigi.go.id/tdpse-detail/8344",
            "website": "milea.bankmantap.co.id"
        },
        {
            "id": "9cb1abc9-73b1-413c-8378-1558f7698e1f",
            "nama_pse": "INDOPAY MULTISINERGI",
            "nama_se": "WEBSITE INDOPAY",
            "sektor": "Sektor Perdagangan, Sektor Teknologi Informasi dan Komunikasi",
            "tanggal_terbit": "2022-07-20",
            "url_tdpse_detail": "https://pse.komdigi.go.id/tdpse-detail/8346",
            "website": "Indopay.net"
        },
        {
            "id": "9cb1abbb-4f28-4d7f-8f59-01f47a2f7aed",
            "nama_pse": "BP PARTNERSHIP",
            "nama_se": "WEBSITE BIMOPRASETIO.COM",
            "sektor": "Sektor Perdagangan",
            "tanggal_terbit": "2022-07-20",
            "url_tdpse_detail": "https://pse.komdigi.go.id/tdpse-detail/8347",
            "website": "bimoprasetio.com"
        },
        {
            "id": "9cb1abbb-5123-47d2-964e-aba816b80369",
            "nama_pse": "GARENA INDONESIA",
            "nama_se": "GAME CONTRA RETURNS",
            "sektor": "Sektor Teknologi Informasi dan Komunikasi",
            "tanggal_terbit": "2022-07-20",
            "url_tdpse_detail": "https://pse.komdigi.go.id/tdpse-detail/8349",
            "website": "-"
        },
        {
            "id": "9cb1abbb-52e6-496d-89bb-a5d8dbe80d07",
            "nama_pse": "INDOPAY MULTISINERGI",
            "nama_se": "WEBSITE INDOPULSATRONIK",
            "sektor": "Sektor Perdagangan, Sektor Teknologi Informasi dan Komunikasi",
            "tanggal_terbit": "2022-07-20",
            "url_tdpse_detail": "https://pse.komdigi.go.id/tdpse-detail/8348",
            "website": "Indopulsatronik.com"
        },
        {
            "id": "9cb1abc9-7742-4bfd-bde9-a73ec3a2eb80",
            "nama_pse": "INDOPAY MULTISINERGI",
            "nama_se": "WEBSITE OTOREPORT INDOPULSATRONIK",
            "sektor": "Sektor Perdagangan, Sektor Teknologi Informasi dan Komunikasi",
            "tanggal_terbit": "2022-07-20",
            "url_tdpse_detail": "https://pse.komdigi.go.id/tdpse-detail/8350",
            "website": "Otoreport.indopulsatronik.com"
        },
        {
            "id": "9cb1abef-713f-4d02-8319-e92c46299b98",
            "nama_pse": "SATRIA MEDIA TEKNOLOGI",
            "nama_se": "SATRIATECH",
            "sektor": "Sektor Perdagangan",
            "tanggal_terbit": "2022-07-20",
            "url_tdpse_detail": "https://pse.komdigi.go.id/tdpse-detail/8351",
            "website": "satriacorp.id"
        },
        {
            "id": "9cb1abc9-7aa5-4f71-afa1-951dc468905f",
            "nama_pse": "INDOPAY MULTISINERGI",
            "nama_se": "WEBSITE IPJABBER",
            "sektor": "Sektor Perdagangan, Sektor Teknologi Informasi dan Komunikasi",
            "tanggal_terbit": "2022-07-20",
            "url_tdpse_detail": "https://pse.komdigi.go.id/tdpse-detail/8352",
            "website": "Ipjabber.com"
        },
        {
            "id": "9cb1abef-8b76-4635-b53d-d8d3f735c70f",
            "nama_pse": "CENTRAL MEDIA DIGITAL INDONESIA",
            "nama_se": "CMD-INDONESIA",
            "sektor": "Sektor Teknologi Informasi dan Komunikasi",
            "tanggal_terbit": "2022-07-20",
            "url_tdpse_detail": "https://pse.komdigi.go.id/tdpse-detail/8353",
            "website": "media-online.co.id"
        },
        {
            "id": "9cb1abbb-5593-4011-956a-b82143eb93a4",
            "nama_pse": "INDOPAY MULTISINERGI",
            "nama_se": "APLIKASI INDOPAY",
            "sektor": "Sektor Perdagangan, Sektor Teknologi Informasi dan Komunikasi",
            "tanggal_terbit": "2022-07-20",
            "url_tdpse_detail": "https://pse.komdigi.go.id/tdpse-detail/8355",
            "website": "Indopay.net"
        },
        {
            "id": "9cb1abc9-7e6e-4ba3-a583-5e992c1c2f35",
            "nama_pse": "SATRIA MEDIA TEKNOLOGI",
            "nama_se": "SATRIACORP",
            "sektor": "Sektor Perdagangan, Sektor Teknologi Informasi dan Komunikasi",
            "tanggal_terbit": "2022-07-20",
            "url_tdpse_detail": "https://pse.komdigi.go.id/tdpse-detail/8356",
            "website": "satriacorp.id"
        },
        {
            "id": "9cb1abbb-5765-4eec-8e81-e18058ec82db",
            "nama_pse": "MUDA RANGGA DJATI",
            "nama_se": "KORAN SAMUDRA",
            "sektor": "Sektor Teknologi Informasi dan Komunikasi",
            "tanggal_terbit": "2022-07-20",
            "url_tdpse_detail": "https://pse.komdigi.go.id/tdpse-detail/8358",
            "website": "Koran-samudra.com"
        },
        {
            "id": "9cb1abbb-5923-4878-9867-7b65e5359187",
            "nama_pse": "INDOPAY MULTISINERGI",
            "nama_se": "APLIKASI MITRA INDOPAY",
            "sektor": "Sektor Perdagangan, Sektor Teknologi Informasi dan Komunikasi",
            "tanggal_terbit": "2022-07-20",
            "url_tdpse_detail": "https://pse.komdigi.go.id/tdpse-detail/8357",
            "website": "Indopay.net"
        },
        {
            "id": "9cb1abbb-5ae1-4932-9438-6d1b232afbe2",
            "nama_pse": "MUQIET EFADLINUR BAKTIMY",
            "nama_se": "PILKADA NETWORK",
            "sektor": "Sektor Teknologi Informasi dan Komunikasi",
            "tanggal_terbit": "2022-07-20",
            "url_tdpse_detail": "https://pse.komdigi.go.id/tdpse-detail/8359",
            "website": "pilkada.net"
        },
        {
            "id": "9cb1abbb-5c9f-4af7-b904-e29757c8cc9e",
            "nama_pse": "SATRIA MEDIA TEKNOLOGI",
            "nama_se": "SATRIACORP - COMMUNICATIONS",
            "sektor": "Sektor Perdagangan",
            "tanggal_terbit": "2022-07-20",
            "url_tdpse_detail": "https://pse.komdigi.go.id/tdpse-detail/8360",
            "website": "satriacorp.id"
        },
        {
            "id": "9cb1abef-97f9-4cf0-8b55-bb73f7be5125",
            "nama_pse": "DELEGASI TEKNOLOGI INDONESIA",
            "nama_se": "DELEGASI",
            "sektor": "Sektor Teknologi Informasi dan Komunikasi",
            "tanggal_terbit": "2022-07-20",
            "url_tdpse_detail": "https://pse.komdigi.go.id/tdpse-detail/8361",
            "website": "delegasi.co"
        },
        {
            "id": "9cb1abef-9ae9-4f3b-bc92-452c880edbe6",
            "nama_pse": "INDOPAY MULTISINERGI",
            "nama_se": "APLIKASI MMPPAYMENT,NTRONIK",
            "sektor": "Sektor Perdagangan, Sektor Teknologi Informasi dan Komunikasi",
            "tanggal_terbit": "2022-07-20",
            "url_tdpse_detail": "https://pse.komdigi.go.id/tdpse-detail/8362",
            "website": "Indopay.net"
        },
        {
            "id": "9cb1abc9-8558-45e0-a944-2bd989fd8eec",
            "nama_pse": "HABIBURRAHMAN",
            "nama_se": "remorac",
            "sektor": "Sektor Teknologi Informasi dan Komunikasi",
            "tanggal_terbit": "2022-07-20",
            "url_tdpse_detail": "https://pse.komdigi.go.id/tdpse-detail/8363",
            "website": "remorac.com"
        },
        {
            "id": "9cb1abc9-8cc3-4b7d-bdce-413acfc26e3f",
            "nama_pse": "MUQIET EFADLINUR BAKTIMY",
            "nama_se": "MARKETHINK",
            "sektor": "Sektor Perdagangan, Sektor Teknologi Informasi dan Komunikasi",
            "tanggal_terbit": "2022-07-20",
            "url_tdpse_detail": "https://pse.komdigi.go.id/tdpse-detail/8364",
            "website": "marketh.ink"
        },
        {
            "id": "9cb1abef-9db7-4137-802b-21ce09609ec8",
            "nama_pse": "MUQIET EFADLINUR BAKTIMY",
            "nama_se": "COACH.ID",
            "sektor": "Sektor Teknologi Informasi dan Komunikasi",
            "tanggal_terbit": "2022-07-20",
            "url_tdpse_detail": "https://pse.komdigi.go.id/tdpse-detail/8365",
            "website": "coach.id"
        },
        {
            "id": "9cb1abbb-614b-435c-bc64-80ff8b7dc629",
            "nama_pse": "BANK PERKREDITAN RAKYAT GRACIA MANDIRI",
            "nama_se": "WEBSITE BPR GRACIA MANDIRI",
            "sektor": "Sektor Keuangan",
            "tanggal_terbit": "2022-07-20",
            "url_tdpse_detail": "https://pse.komdigi.go.id/tdpse-detail/8366",
            "website": "bankgraciamandiri.com"
        },
        {
            "id": "9cb1abef-a0ac-4f86-aae8-a81fbb3f3831",
            "nama_pse": "NURMALIK WIJAYA",
            "nama_se": "ABIBEY ID",
            "sektor": "Sektor Perdagangan",
            "tanggal_terbit": "2022-07-20",
            "url_tdpse_detail": "https://pse.komdigi.go.id/tdpse-detail/8367",
            "website": "abibey.net"
        },
        {
            "id": "9cb1abc9-902b-42c0-be18-23748fcc16ab",
            "nama_pse": "MUQIET EFADLINUR BAKTIMY",
            "nama_se": "PILEG NETWORK",
            "sektor": "Sektor Teknologi Informasi dan Komunikasi",
            "tanggal_terbit": "2022-07-20",
            "url_tdpse_detail": "https://pse.komdigi.go.id/tdpse-detail/8368",
            "website": "pileg.net"
        },
        {
            "id": "9cb1abc9-93eb-44d8-a1f0-3beb7b489f68",
            "nama_pse": "MUQIET EFADLINUR BAKTIMY",
            "nama_se": "TOKOH",
            "sektor": "Sektor Teknologi Informasi dan Komunikasi",
            "tanggal_terbit": "2022-07-20",
            "url_tdpse_detail": "https://pse.komdigi.go.id/tdpse-detail/8369",
            "website": "tokoh.org"
        },
        {
            "id": "9cb1abc9-9794-4c1a-843a-b969fc2307f3",
            "nama_pse": "KAKA ADE BASODARA",
            "nama_se": "STEFANUSADE.WEB.ID",
            "sektor": "Sektor Teknologi Informasi dan Komunikasi",
            "tanggal_terbit": "2022-07-20",
            "url_tdpse_detail": "https://pse.komdigi.go.id/tdpse-detail/8370",
            "website": "stefanusade.web.id"
        },
        {
            "id": "9cb1abef-a49c-4d17-b42b-9c1ee109891d",
            "nama_pse": "LIHUM",
            "nama_se": "FOTOKOPI LIHUM",
            "sektor": "Sektor Perdagangan, Sektor Teknologi Informasi dan Komunikasi",
            "tanggal_terbit": "2022-07-20",
            "url_tdpse_detail": "https://pse.komdigi.go.id/tdpse-detail/8371",
            "website": "lihum.id"
        },
        {
            "id": "9cb1abbb-6388-4143-82fa-4b37a4d6e90f",
            "nama_pse": "MUHAMMAD YULIAN NOOR",
            "nama_se": "FASTEST BOT",
            "sektor": "Sektor Teknologi Informasi dan Komunikasi",
            "tanggal_terbit": "2022-07-20",
            "url_tdpse_detail": "https://pse.komdigi.go.id/tdpse-detail/8373",
            "website": "fastestbot.io"
        },
        {
            "id": "9cb1abc9-9b1d-4a78-b909-1a9f03eb4e05",
            "nama_pse": "DIKRI NALENDRA AMINADIN",
            "nama_se": "4NEOWEB",
            "sektor": "Sektor Perdagangan",
            "tanggal_terbit": "2022-07-20",
            "url_tdpse_detail": "https://pse.komdigi.go.id/tdpse-detail/8374",
            "website": "4neoweb.online"
        },
        {
            "id": "9cb1abbb-6dba-4430-b7c2-14442fc45998",
            "nama_pse": "FORTUNA JAYA ABADI",
            "nama_se": "CV. FORTUNA JAYA ABADI",
            "sektor": "Sektor Perdagangan",
            "tanggal_terbit": "2022-07-20",
            "url_tdpse_detail": "https://pse.komdigi.go.id/tdpse-detail/8375",
            "website": "-"
        },
        {
            "id": "9cb1abb9-24c0-4381-becb-2f5dbba65087",
            "nama_pse": "PRODUK KEUANGAN DIGITAL",
            "nama_se": "KREDIT LIST",
            "sektor": "Sektor Keuangan",
            "tanggal_terbit": "2022-07-20",
            "url_tdpse_detail": "https://pse.komdigi.go.id/tdpse-detail/7793",
            "website": "kreditlist.com"
        },
        {
            "id": "9cb1abc6-7581-42f2-bbc2-5b7f2a758c05",
            "nama_pse": "BANK PEREKONOMIAN RAKYAT BANK PURA ARTHA",
            "nama_se": "WEBSITE BPR BANK PURA ARTHA",
            "sektor": "Sektor Keuangan, Sektor Teknologi Informasi dan Komunikasi",
            "tanggal_terbit": "2022-07-20",
            "url_tdpse_detail": "https://pse.komdigi.go.id/tdpse-detail/7909",
            "website": "bankpuraartha.co.id"
        },
        {
            "id": "9cb1abe9-4bc5-407b-9f3a-9ca909de7fbc",
            "nama_pse": "BANK PEREKONOMIAN RAKYAT SADHU ARTHA",
            "nama_se": "IBS CORE BANKING USSI",
            "sektor": "Sektor Keuangan",
            "tanggal_terbit": "2022-07-20",
            "url_tdpse_detail": "https://pse.komdigi.go.id/tdpse-detail/7366",
            "website": "bprsadhuartha.com"
        },
        {
            "id": "9cb1abc1-8b97-41d1-9d25-737c97631c2d",
            "nama_pse": "NUSANTARA SURYA SAKTI",
            "nama_se": "HTTPS://WWW.KLIKNSS.CO.ID/",
            "sektor": "Sektor Perdagangan, Sektor Keuangan",
            "tanggal_terbit": "2022-07-19",
            "url_tdpse_detail": "https://pse.komdigi.go.id/tdpse-detail/6966",
            "website": "kliknss.co.id"
        },
        {
            "id": "9cb1abbf-be64-48b5-a0c4-68796b2a6593",
            "nama_pse": "NUON DIGITAL INDONESIA",
            "nama_se": "LANGITKU",
            "sektor": "Sektor Perdagangan, Sektor Teknologi Informasi dan Komunikasi",
            "tanggal_terbit": "2022-07-19",
            "url_tdpse_detail": "https://pse.komdigi.go.id/tdpse-detail/6533",
            "website": "langitku.id"
        },
        {
            "id": "9cb1ab9b-2a43-4f10-9765-a8e553a5b809",
            "nama_pse": "TJS USAHA DIGITAL",
            "nama_se": "RINTIZ BY WOOBIZ",
            "sektor": "Sektor Teknologi Informasi dan Komunikasi",
            "tanggal_terbit": "2022-07-19",
            "url_tdpse_detail": "https://pse.komdigi.go.id/tdpse-detail/6732",
            "website": "rintiz.id"
        },
        {
            "id": "9cb1abb0-7fad-48e4-94eb-36c3658f6ba7",
            "nama_pse": "BIGENMI GEMILANG INDONESIA",
            "nama_se": "BIGENMI",
            "sektor": "Sektor Perdagangan, Sektor Kesehatan",
            "tanggal_terbit": "2022-07-19",
            "url_tdpse_detail": "https://pse.komdigi.go.id/tdpse-detail/6591",
            "website": "bigenmi.co.id"
        },
        {
            "id": "9cb1ab9c-7208-4369-b87e-2210ce2ccb4b",
            "nama_pse": "YUANTA SEKURITAS INDONESIA",
            "nama_se": "YUANTA CONNECT",
            "sektor": "Sektor Keuangan",
            "tanggal_terbit": "2022-07-19",
            "url_tdpse_detail": "https://pse.komdigi.go.id/tdpse-detail/6574",
            "website": "fstrade.yuantaconnect.co.id"
        },
        {
            "id": "9cb1ab9c-f395-461e-ac93-a0ba44e8eebe",
            "nama_pse": "MITRANET SOFTWARE ONLINE",
            "nama_se": "JOIN BPR",
            "sektor": "Sektor Teknologi Informasi dan Komunikasi",
            "tanggal_terbit": "2022-07-19",
            "url_tdpse_detail": "https://pse.komdigi.go.id/tdpse-detail/6541",
            "website": "joinbpr.id"
        },
        {
            "id": "9cb1aba7-e55a-47bb-b94f-067d9874719c",
            "nama_pse": "PRASETYA HERU TAMA",
            "nama_se": "KIOSPAY TEKNOLOGI INDONESIA",
            "sektor": "Sektor Perdagangan, Sektor Teknologi Informasi dan Komunikasi",
            "tanggal_terbit": "2022-07-19",
            "url_tdpse_detail": "https://pse.komdigi.go.id/tdpse-detail/6619",
            "website": "kiospay.id"
        },
        {
            "id": "9cb1aba7-ef20-4a00-b246-7199431181e5",
            "nama_pse": "TJS USAHA DIGITAL",
            "nama_se": "MITRA KELILING",
            "sektor": "Sektor Perdagangan",
            "tanggal_terbit": "2022-07-19",
            "url_tdpse_detail": "https://pse.komdigi.go.id/tdpse-detail/6709",
            "website": "mitrakeliling.id"
        },
        {
            "id": "9cb1abc0-7919-4ece-9f89-45993adb585b",
            "nama_pse": "OKEJEK KREASI INDONESIA",
            "nama_se": "OKEJEK",
            "sektor": "Sektor Teknologi Informasi dan Komunikasi",
            "tanggal_terbit": "2022-07-19",
            "url_tdpse_detail": "https://pse.komdigi.go.id/tdpse-detail/6725",
            "website": "OKEJEK.ID"
        },
        {
            "id": "9cb1abb3-fda2-4e75-905e-d51aedb07f47",
            "nama_pse": "SEINO INDOMOBIL LOGISTICS SERVICES",
            "nama_se": "SILTRACK",
            "sektor": "Sektor Transportasi",
            "tanggal_terbit": "2022-07-19",
            "url_tdpse_detail": "https://pse.komdigi.go.id/tdpse-detail/6700",
            "website": "siltrack.co.id"
        },
        {
            "id": "9cb1abb2-ed00-4139-90e6-00b27eb502c4",
            "nama_pse": "DIGITAL SYNERGY TECHNOLOGY",
            "nama_se": "PYXIS",
            "sektor": "Sektor Keuangan",
            "tanggal_terbit": "2022-07-19",
            "url_tdpse_detail": "https://pse.komdigi.go.id/tdpse-detail/6652",
            "website": "pyxis.world"
        },
        {
            "id": "9cb1abbe-c028-4a9f-b733-0ddbb1704360",
            "nama_pse": "SPORTIVA BAKTI NUSA",
            "nama_se": "SPORTIVA GAMES",
            "sektor": "Sektor Teknologi Informasi dan Komunikasi",
            "tanggal_terbit": "2022-07-19",
            "url_tdpse_detail": "https://pse.komdigi.go.id/tdpse-detail/6718",
            "website": "sportivagames.com"
        },
        {
            "id": "9cb1abbe-f339-4b65-81ae-93f565f8de62",
            "nama_pse": "TANAKU NUSANTARA INTERNASIONAL",
            "nama_se": "TANAKU",
            "sektor": "Sektor Perdagangan",
            "tanggal_terbit": "2022-07-19",
            "url_tdpse_detail": "https://pse.komdigi.go.id/tdpse-detail/6592",
            "website": "tanaku.co"
        },
        {
            "id": "9cb1abb3-43e0-4b03-95fc-2e7e55550d34",
            "nama_pse": "SEINO INDOMOBIL LOGISTICS SERVICES",
            "nama_se": "CROM",
            "sektor": "Sektor Transportasi",
            "tanggal_terbit": "2022-07-19",
            "url_tdpse_detail": "https://pse.komdigi.go.id/tdpse-detail/6701",
            "website": "monitoring.seinoindomobil.co.id"
        },
        {
            "id": "9cb1abb4-7d22-4367-b038-92fc3b2ba18c",
            "nama_pse": "BANK CENTRAL ASIA",
            "nama_se": "SYNRGY",
            "sektor": "Sektor Keuangan",
            "tanggal_terbit": "2022-07-19",
            "url_tdpse_detail": "https://pse.komdigi.go.id/tdpse-detail/6549",
            "website": "synrgy.id"
        }
    ],
    "processingTimeMs": 7,
    "query": "",
    "totalHits": 19131,
    "hitsPerPage": 50,
    "page": 252,
    "totalPages": 383
}