{
    "hits": [
        {
            "id": "9cb1ac2e-7bc3-42bb-aa85-534dd60651a6",
            "nama_pse": "GROUP BUMI MINERAL",
            "nama_se": "PT. GROUP BUMI MINERAL",
            "sektor": "Sektor Energi dan Sumber Daya Mineral",
            "tanggal_terbit": "2023-02-18",
            "url_tdpse_detail": "https://pse.komdigi.go.id/tdpse-detail/13840",
            "website": "-"
        },
        {
            "id": "9cb1ac1c-4511-4312-a0e7-8dfc32216170",
            "nama_pse": "OURA STORE INDONESIA",
            "nama_se": "OURA STORE",
            "sektor": "Sektor Perdagangan",
            "tanggal_terbit": "2023-02-18",
            "url_tdpse_detail": "https://pse.komdigi.go.id/tdpse-detail/13841",
            "website": "ourastore.com"
        },
        {
            "id": "9cb1ac1c-1e7b-480a-b7a1-0bb757570441",
            "nama_pse": "GRAHADI DIGITAL TECHNOLOGY",
            "nama_se": "IDTRUST.ID",
            "sektor": "Sektor Teknologi Informasi dan Komunikasi",
            "tanggal_terbit": "2023-02-17",
            "url_tdpse_detail": "https://pse.komdigi.go.id/tdpse-detail/13833",
            "website": "idtrust.id"
        },
        {
            "id": "9cb1ac1c-2b86-4bca-9704-c0842fb682be",
            "nama_pse": "DIGITAL DAYA TEKNOLOGI",
            "nama_se": "HTTPS://WWW.DDT.ID/",
            "sektor": "Sektor Teknologi Informasi dan Komunikasi",
            "tanggal_terbit": "2023-02-17",
            "url_tdpse_detail": "https://pse.komdigi.go.id/tdpse-detail/13835",
            "website": "ddt.id"
        },
        {
            "id": "9cb1ac3d-ed7f-43c6-a709-94979e1a649c",
            "nama_pse": "PHILLIP FUTURES",
            "nama_se": "NOVA RMS",
            "sektor": "Sektor Perdagangan",
            "tanggal_terbit": "2023-02-17",
            "url_tdpse_detail": "https://pse.komdigi.go.id/tdpse-detail/13831",
            "website": "liveweb.phillipmobile.com"
        },
        {
            "id": "9cb1ac1c-32c0-4bc2-bc35-57ff09734c59",
            "nama_pse": "POLARIS TECHNOLOGIES INDONESIA",
            "nama_se": "NFTALPHA",
            "sektor": "Sektor Teknologi Informasi dan Komunikasi",
            "tanggal_terbit": "2023-02-17",
            "url_tdpse_detail": "https://pse.komdigi.go.id/tdpse-detail/13832",
            "website": "antalpha.io"
        },
        {
            "id": "9cb1ac1c-3605-4504-9476-d3398656ddeb",
            "nama_pse": "PHILLIP FUTURES",
            "nama_se": "NOVA ADMIN",
            "sektor": "Sektor Perdagangan",
            "tanggal_terbit": "2023-02-17",
            "url_tdpse_detail": "https://pse.komdigi.go.id/tdpse-detail/13834",
            "website": "subadmin.phillipmobile.com"
        },
        {
            "id": "9cb1ac3d-f418-4667-8951-8cbeed16c1b5",
            "nama_pse": "PHILLIP FUTURES",
            "nama_se": "CQ BACKOFFICE",
            "sektor": "Sektor Perdagangan",
            "tanggal_terbit": "2023-02-17",
            "url_tdpse_detail": "https://pse.komdigi.go.id/tdpse-detail/13836",
            "website": "cqfutures.com"
        },
        {
            "id": "9cb1ac1c-3d73-4d6b-b074-3143bd093c06",
            "nama_pse": "EZMART ELECTRONIC COMMERCE INDONESIA",
            "nama_se": "APLIKASI POLIBELI",
            "sektor": "Sektor Perdagangan",
            "tanggal_terbit": "2023-02-17",
            "url_tdpse_detail": "https://pse.komdigi.go.id/tdpse-detail/13838",
            "website": "-"
        },
        {
            "id": "9cb1ac2e-7623-4930-8286-7fc44514a2ca",
            "nama_pse": "SELALU SUKSES SEJAHTERA",
            "nama_se": "NIRWANA5",
            "sektor": "Sektor Teknologi Informasi dan Komunikasi",
            "tanggal_terbit": "2023-02-17",
            "url_tdpse_detail": "https://pse.komdigi.go.id/tdpse-detail/13839",
            "website": "-"
        },
        {
            "id": "9cb1ab7e-4979-416d-b667-270d13446b9d",
            "nama_pse": "LANDMARK RETAIL TRADING",
            "nama_se": "MAXFASHIONS",
            "sektor": "Sektor Perdagangan, Sektor Perdagangan, Sektor Perdagangan",
            "tanggal_terbit": "2023-02-16",
            "url_tdpse_detail": "https://pse.komdigi.go.id/tdpse-detail/50",
            "website": "maxfashions.id"
        },
        {
            "id": "9cb1ac1a-d132-443f-b8bd-29a4eb33732d",
            "nama_pse": "METROTARA",
            "nama_se": "MPS",
            "sektor": "Sektor Transportasi",
            "tanggal_terbit": "2023-02-16",
            "url_tdpse_detail": "https://pse.komdigi.go.id/tdpse-detail/13826",
            "website": "mpsku.com"
        },
        {
            "id": "9cb1ac2e-644a-44aa-bacd-6f206c08dce1",
            "nama_pse": "BANK HSBC INDONESIA",
            "nama_se": "HSBC MOBILE BANKING",
            "sektor": "Sektor Keuangan",
            "tanggal_terbit": "2023-02-16",
            "url_tdpse_detail": "https://pse.komdigi.go.id/tdpse-detail/13824",
            "website": "-"
        },
        {
            "id": "9cb1ac1c-24dd-475a-a166-811a152d5a0f",
            "nama_pse": "ABATI TECHNOLOGY INDONESIA",
            "nama_se": "JUANG TECH DIGITAL MENU",
            "sektor": "Sektor Teknologi Informasi dan Komunikasi",
            "tanggal_terbit": "2023-02-16",
            "url_tdpse_detail": "https://pse.komdigi.go.id/tdpse-detail/13823",
            "website": "-"
        },
        {
            "id": "9cb1ac3d-de9a-4b18-b435-103c52ed0f1c",
            "nama_pse": "NETURMERIC INTERNASIONAL",
            "nama_se": "MASTER KOI",
            "sektor": "Sektor Perdagangan, Sektor Teknologi Informasi dan Komunikasi",
            "tanggal_terbit": "2023-02-16",
            "url_tdpse_detail": "https://pse.komdigi.go.id/tdpse-detail/13825",
            "website": "masterkoi.bid"
        },
        {
            "id": "9cb1ac2e-6b0e-4d42-899e-30fd0cd6c69f",
            "nama_pse": "SURUI ARSHAKA GROUP",
            "nama_se": "SURUI GARAGE",
            "sektor": "Sektor Perdagangan, Sektor Teknologi Informasi dan Komunikasi",
            "tanggal_terbit": "2023-02-16",
            "url_tdpse_detail": "https://pse.komdigi.go.id/tdpse-detail/13828",
            "website": "suruimotorgarage.com"
        },
        {
            "id": "9cb1ac3d-e356-4e92-a43c-dda8ccfe6fcc",
            "nama_pse": "KAWAN SOLUSI TEKNOLOGI",
            "nama_se": "DIGIPDAM",
            "sektor": "Sektor Teknologi Informasi dan Komunikasi",
            "tanggal_terbit": "2023-02-16",
            "url_tdpse_detail": "https://pse.komdigi.go.id/tdpse-detail/13829",
            "website": "digipdam.com"
        },
        {
            "id": "9cb1ac3d-e8ef-494f-a72b-6437a8705832",
            "nama_pse": "BANGJEFF",
            "nama_se": "BANGJEFF",
            "sektor": "Sektor Perdagangan, Sektor Teknologi Informasi dan Komunikasi",
            "tanggal_terbit": "2023-02-16",
            "url_tdpse_detail": "https://pse.komdigi.go.id/tdpse-detail/13830",
            "website": "bangjeff.com"
        },
        {
            "id": "9cb1ac3d-b463-44c8-b4be-75c84c3cd143",
            "nama_pse": "STAR MAJU SENTOSA",
            "nama_se": "RAMBLA.ID",
            "sektor": "Sektor Perdagangan",
            "tanggal_terbit": "2023-02-15",
            "url_tdpse_detail": "https://pse.komdigi.go.id/tdpse-detail/13814",
            "website": "Rambla.id"
        },
        {
            "id": "9cb1ac2e-5c1e-4f6f-a9b1-2741aefb4cbb",
            "nama_pse": "TRIDIAMANT BENITA ABADI",
            "nama_se": "PHAMCY",
            "sektor": "Sektor Perdagangan, Sektor Kesehatan",
            "tanggal_terbit": "2023-02-15",
            "url_tdpse_detail": "https://pse.komdigi.go.id/tdpse-detail/13815",
            "website": "phamcy.online"
        },
        {
            "id": "9cb1ac2e-5f7f-4a5c-8ea3-86708deb0a44",
            "nama_pse": "SAKA BHUMI AURUM",
            "nama_se": "MICROGOLD.FUND",
            "sektor": "Sektor Perdagangan",
            "tanggal_terbit": "2023-02-15",
            "url_tdpse_detail": "https://pse.komdigi.go.id/tdpse-detail/13816",
            "website": "microgold.fund"
        },
        {
            "id": "9cb1ac3d-b8ac-4b5d-8060-ba4cd7d03780",
            "nama_pse": "PRIMA BERSAMA BERKAT",
            "nama_se": "BOSSHIRE",
            "sektor": "Sektor Teknologi Informasi dan Komunikasi",
            "tanggal_terbit": "2023-02-15",
            "url_tdpse_detail": "https://pse.komdigi.go.id/tdpse-detail/13817",
            "website": "-"
        },
        {
            "id": "9cb1ac3d-c78b-4365-9ddc-60edfc5b3604",
            "nama_pse": "INTEGRA TEKNOLOGI SOLUSI",
            "nama_se": "INOFFICE",
            "sektor": "Sektor Teknologi Informasi dan Komunikasi",
            "tanggal_terbit": "2023-02-15",
            "url_tdpse_detail": "https://pse.komdigi.go.id/tdpse-detail/13819",
            "website": "persuratan.integrasolusi.com"
        },
        {
            "id": "9cb1ac3d-cb0c-4588-913e-934f2e388386",
            "nama_pse": "RUMAH SAKIT PUSAT OTAK NASIONAL PROF. DR. DR. MAHAR MARDJONO JAKARTA",
            "nama_se": "EHR RS PUSAT OTAK NASIONAL PROF. DR. DR. MAHAR MARDJONO JAKARTA",
            "sektor": "Sektor Kesehatan",
            "tanggal_terbit": "2023-02-15",
            "url_tdpse_detail": "https://pse.komdigi.go.id/tdpse-detail/13818",
            "website": "rspon.co.id"
        },
        {
            "id": "9cb1ac1c-2111-408e-acce-24220e26109c",
            "nama_pse": "INTI INDAH",
            "nama_se": "JARINGAN DOKUMENTASI DAN INFORMASI HUKUM (JDIH) INTI INDAH GROUP",
            "sektor": "Sektor Teknologi Informasi dan Komunikasi",
            "tanggal_terbit": "2023-02-15",
            "url_tdpse_detail": "https://pse.komdigi.go.id/tdpse-detail/13820",
            "website": "jdih-intiindah.com"
        },
        {
            "id": "9cb1ac3d-cefe-44c8-9102-02673575b03f",
            "nama_pse": "INTI INDAH",
            "nama_se": "E-LEGAL SMARTAPP",
            "sektor": "Sektor Teknologi Informasi dan Komunikasi",
            "tanggal_terbit": "2023-02-15",
            "url_tdpse_detail": "https://pse.komdigi.go.id/tdpse-detail/13821",
            "website": "-"
        },
        {
            "id": "9cb1ac3d-d94e-4606-bccc-321922d72099",
            "nama_pse": "RUMAH CIPTA KERJA",
            "nama_se": "RUMAH CIPTA KERJA",
            "sektor": "Sektor Perdagangan, Sektor Teknologi Informasi dan Komunikasi",
            "tanggal_terbit": "2023-02-15",
            "url_tdpse_detail": "https://pse.komdigi.go.id/tdpse-detail/13822",
            "website": "rumahciptakerja.org"
        },
        {
            "id": "9cb1ac2c-55d6-4ebf-ab91-c1cddc2b5c50",
            "nama_pse": "XL AXIATA",
            "nama_se": "XL CLOUD PBX",
            "sektor": "Sektor Teknologi Informasi dan Komunikasi",
            "tanggal_terbit": "2023-02-14",
            "url_tdpse_detail": "https://pse.komdigi.go.id/tdpse-detail/13805",
            "website": "cloudpbx.xl.co.id"
        },
        {
            "id": "9cb1ac1b-2e9a-437e-aff0-f28356bcd820",
            "nama_pse": "BANK PERKREDITAN RAKYAT BADAN KREDIT KECAMATAN KARANGMALANG PERSERODA",
            "nama_se": "WEBSITE BPR BKK KARANGMALANG",
            "sektor": "Sektor Keuangan, Sektor Teknologi Informasi dan Komunikasi",
            "tanggal_terbit": "2023-02-14",
            "url_tdpse_detail": "https://pse.komdigi.go.id/tdpse-detail/13807",
            "website": "bprbkk-karangmalang.com"
        },
        {
            "id": "9cb1ac3c-8ef4-49a6-8613-642e194a7e52",
            "nama_pse": "BANK PEMBIAYAAN RAKYAT SYARIAH PUDUARTA INSANI",
            "nama_se": "PT. BPRS PUDUARTA INSANI",
            "sektor": "Sektor Keuangan",
            "tanggal_terbit": "2023-02-14",
            "url_tdpse_detail": "https://pse.komdigi.go.id/tdpse-detail/13798",
            "website": "ptbprspuduartainsani.com"
        },
        {
            "id": "9cb1ac3d-8bc1-4cb1-b62c-163179056f6c",
            "nama_pse": "BAHANA TCW INVESTMENT MANAGEMENT",
            "nama_se": "BAHANA ONTRACK",
            "sektor": "Sektor Keuangan",
            "tanggal_terbit": "2023-02-14",
            "url_tdpse_detail": "https://pse.komdigi.go.id/tdpse-detail/13799",
            "website": "ontrack.bahanatcw.com"
        },
        {
            "id": "9cb1ac3d-aa85-4668-9e03-be6f10221644",
            "nama_pse": "INFLUENCER MARKETING INDONESIA",
            "nama_se": "INFLUENCE ID",
            "sektor": "Sektor Perdagangan, Sektor Teknologi Informasi dan Komunikasi",
            "tanggal_terbit": "2023-02-14",
            "url_tdpse_detail": "https://pse.komdigi.go.id/tdpse-detail/13797",
            "website": "influence.id"
        },
        {
            "id": "9cb1ac1c-0e9a-4818-b433-8b1a33a00078",
            "nama_pse": "SOLUSI BRILIAN DIGITAL NUSANTARA",
            "nama_se": "RECOMPOUND",
            "sektor": "Sektor Teknologi Informasi dan Komunikasi",
            "tanggal_terbit": "2023-02-14",
            "url_tdpse_detail": "https://pse.komdigi.go.id/tdpse-detail/13800",
            "website": "recompound.id"
        },
        {
            "id": "9cb1ac1c-1140-43ac-bcf0-3ccde4ba402f",
            "nama_pse": "SOETI PRATIWI",
            "nama_se": "ASHA",
            "sektor": "Sektor Kesehatan",
            "tanggal_terbit": "2023-02-14",
            "url_tdpse_detail": "https://pse.komdigi.go.id/tdpse-detail/13801",
            "website": "-"
        },
        {
            "id": "9cb1ac1c-1466-467c-a451-9583514c2e3d",
            "nama_pse": "BORNEO MEDIA SIBER NUSANTARA",
            "nama_se": "BORNEOTERKINI.COM",
            "sektor": "Sektor Teknologi Informasi dan Komunikasi",
            "tanggal_terbit": "2023-02-14",
            "url_tdpse_detail": "https://pse.komdigi.go.id/tdpse-detail/13802",
            "website": "borneoterkini.com"
        },
        {
            "id": "9cb1ac1c-16f7-4703-9413-9ddb9386a262",
            "nama_pse": "SHALOKAL MEDIATAMA INDONESIA",
            "nama_se": "SHALOKALINDONESIA.COM",
            "sektor": "Sektor Teknologi Informasi dan Komunikasi",
            "tanggal_terbit": "2023-02-14",
            "url_tdpse_detail": "https://pse.komdigi.go.id/tdpse-detail/13803",
            "website": "shalokalindonesia.com"
        },
        {
            "id": "9cb1ac2e-4e9f-4998-b53f-759abdc47be0",
            "nama_pse": "AGREGO KREASIDIGITAL INDONESIA",
            "nama_se": "AGREGO COMMERCE",
            "sektor": "Sektor Perdagangan",
            "tanggal_terbit": "2023-02-14",
            "url_tdpse_detail": "https://pse.komdigi.go.id/tdpse-detail/13804",
            "website": "tokokami.agrego.id"
        },
        {
            "id": "9cb1ac3d-ae16-4c60-bbae-7817ea0cec90",
            "nama_pse": "XL AXIATA",
            "nama_se": "BIZ CARE",
            "sektor": "Sektor Teknologi Informasi dan Komunikasi",
            "tanggal_terbit": "2023-02-14",
            "url_tdpse_detail": "https://pse.komdigi.go.id/tdpse-detail/13806",
            "website": "bizcare.xl.co.id"
        },
        {
            "id": "9cb1ac2e-55cf-4f76-b095-f8161236624f",
            "nama_pse": "ASURANSI JIWA BCA",
            "nama_se": "NOW BY BCA LIFE",
            "sektor": "Sektor Keuangan",
            "tanggal_terbit": "2023-02-14",
            "url_tdpse_detail": "https://pse.komdigi.go.id/tdpse-detail/13808",
            "website": "-"
        },
        {
            "id": "9cb1ac2e-591a-4081-aff2-8f96b6a3b246",
            "nama_pse": "SOLUSI KEAMANAN SEJAHTERA",
            "nama_se": "SHIELD DEVICE RISK INTELLIGENCE",
            "sektor": "Sektor Teknologi Informasi dan Komunikasi",
            "tanggal_terbit": "2023-02-14",
            "url_tdpse_detail": "https://pse.komdigi.go.id/tdpse-detail/13810",
            "website": "shield.com"
        },
        {
            "id": "9cb1ac1c-1942-41f5-b0f9-34f4febdff61",
            "nama_pse": "SOLUSINDO INTEGRASI INFORMATIKA",
            "nama_se": "HEXSYS",
            "sektor": "Sektor Kesehatan",
            "tanggal_terbit": "2023-02-14",
            "url_tdpse_detail": "https://pse.komdigi.go.id/tdpse-detail/13811",
            "website": "-"
        },
        {
            "id": "9cb1ac3d-b0de-43d1-864b-a09bfbb43df1",
            "nama_pse": "GROUP MEDIA CENTER",
            "nama_se": "PT. GROUP MEDIA CENTER",
            "sektor": "Sektor Teknologi Informasi dan Komunikasi",
            "tanggal_terbit": "2023-02-14",
            "url_tdpse_detail": "https://pse.komdigi.go.id/tdpse-detail/13812",
            "website": "sidikkasus.com"
        },
        {
            "id": "9cb1ac1c-1c2a-48e6-94a0-afd4b84d639f",
            "nama_pse": "SUKMA UMKM DIGITAL",
            "nama_se": "PT. SUKMA UMKM DIGITAL",
            "sektor": "Sektor Teknologi Informasi dan Komunikasi",
            "tanggal_terbit": "2023-02-14",
            "url_tdpse_detail": "https://pse.komdigi.go.id/tdpse-detail/13813",
            "website": "onenews.co.id"
        },
        {
            "id": "9cb1ac1b-efaa-4fab-883b-4ac1aa8f52d3",
            "nama_pse": "TOKO MODAL MITRA USAHA",
            "nama_se": "VIRGOFLEX",
            "sektor": "Sektor Keuangan",
            "tanggal_terbit": "2023-02-13",
            "url_tdpse_detail": "https://pse.komdigi.go.id/tdpse-detail/13791",
            "website": "virgoflex.co.id"
        },
        {
            "id": "9cb1ac1c-03ca-4ff9-8b8c-4e834da3dc25",
            "nama_pse": "JUAL MOBIL BAGUS",
            "nama_se": "OLX AUTOS",
            "sektor": "Sektor Perdagangan",
            "tanggal_terbit": "2023-02-13",
            "url_tdpse_detail": "https://pse.komdigi.go.id/tdpse-detail/13784",
            "website": "-"
        },
        {
            "id": "9cb1ac3d-9f6c-4196-8d2d-11beae6639b3",
            "nama_pse": "KALIMANTAN TERKINI GROUP",
            "nama_se": "MELAWI TERKINI",
            "sektor": "Sektor Teknologi Informasi dan Komunikasi",
            "tanggal_terbit": "2023-02-13",
            "url_tdpse_detail": "https://pse.komdigi.go.id/tdpse-detail/13785",
            "website": "harianberkat.com"
        },
        {
            "id": "9cb1ac2e-311f-4b76-acd7-d790d8004174",
            "nama_pse": "KIMSTELLA NETWORK SEJAHTERA",
            "nama_se": "E-COMMERCE (KIMSTELLA NETWORK SEJAHTERA)",
            "sektor": "Sektor Perdagangan",
            "tanggal_terbit": "2023-02-13",
            "url_tdpse_detail": "https://pse.komdigi.go.id/tdpse-detail/13788",
            "website": "kimstella.co.id"
        },
        {
            "id": "9cb1ac2e-3409-49a8-9fd3-9dbe01f43838",
            "nama_pse": "RUMAH SAKIT KANKER DHARMAIS",
            "nama_se": "SIMRSKD",
            "sektor": "Sektor Kesehatan",
            "tanggal_terbit": "2023-02-13",
            "url_tdpse_detail": "https://pse.komdigi.go.id/tdpse-detail/13786",
            "website": "-"
        },
        {
            "id": "9cb1ac2e-37ca-425c-9da5-b5d18abf71eb",
            "nama_pse": "CAKRA ADHIPERKASA OPTIMA",
            "nama_se": "VOUCHERGAME.ID",
            "sektor": "Sektor Teknologi Informasi dan Komunikasi",
            "tanggal_terbit": "2023-02-13",
            "url_tdpse_detail": "https://pse.komdigi.go.id/tdpse-detail/13794",
            "website": "vouchergame.id"
        },
        {
            "id": "9cb1ac2e-3a69-44f0-afdf-7211f05c29b9",
            "nama_pse": "CAPTCHA MEDIA NETWORK",
            "nama_se": "CAPTCHA MEDIA NETWORK",
            "sektor": "Sektor Teknologi Informasi dan Komunikasi",
            "tanggal_terbit": "2023-02-13",
            "url_tdpse_detail": "https://pse.komdigi.go.id/tdpse-detail/13787",
            "website": "ptc.my.id"
        }
    ],
    "processingTimeMs": 18,
    "query": "",
    "totalHits": 19121,
    "hitsPerPage": 50,
    "page": 155,
    "totalPages": 383
}