{
    "hits": [
        {
            "id": "9cb1ac05-04e1-4c2e-a041-325d3983c678",
            "nama_pse": "TOKO VOUCHER INDONESIA",
            "nama_se": "TOKO VOUCHER INDONESIA",
            "sektor": "Sektor Teknologi Informasi dan Komunikasi",
            "tanggal_terbit": "2022-10-25",
            "url_tdpse_detail": "https://pse.komdigi.go.id/tdpse-detail/11954",
            "website": "member.tokovoucher.id"
        },
        {
            "id": "9cb1ac13-a710-48e4-8864-3640cdebe78a",
            "nama_pse": "BUKAKIOS TEKNOLOGI INDONESIA",
            "nama_se": "BUKAKIOS TEKNOLOGI INDONESIA",
            "sektor": "Sektor Teknologi Informasi dan Komunikasi",
            "tanggal_terbit": "2022-10-25",
            "url_tdpse_detail": "https://pse.komdigi.go.id/tdpse-detail/11955",
            "website": "-"
        },
        {
            "id": "9cb1ac13-aac7-4ffe-ac9b-83b50aee4bd3",
            "nama_pse": "BANK PERKREDITAN RAKYAT HASA MITRA JAWA BARAT",
            "nama_se": "WEBSITE : HASAMITRAJABAR.COM, INSTAGRAM : @HASAMITRA.JABAR, FACEBOOK : HASAMITRA JABAR",
            "sektor": "Sektor Keuangan",
            "tanggal_terbit": "2022-10-25",
            "url_tdpse_detail": "https://pse.komdigi.go.id/tdpse-detail/11956",
            "website": "hasamitrajabar.com"
        },
        {
            "id": "9cb1ac13-afc3-4f7a-b977-4fe1782d96b9",
            "nama_pse": "MAJU SELARAS KOMPUTER",
            "nama_se": "VOGAME",
            "sektor": "Sektor Perdagangan",
            "tanggal_terbit": "2022-10-25",
            "url_tdpse_detail": "https://pse.komdigi.go.id/tdpse-detail/11958",
            "website": "vogame.id"
        },
        {
            "id": "9cb1ac05-0c9e-420f-83b4-3b3715121e88",
            "nama_pse": "XEON TECHNOLOGY INDONESIA",
            "nama_se": "RUMAHHOST",
            "sektor": "Sektor Perdagangan, Sektor Teknologi Informasi dan Komunikasi",
            "tanggal_terbit": "2022-10-25",
            "url_tdpse_detail": "https://pse.komdigi.go.id/tdpse-detail/11959",
            "website": "rumahhost.com"
        },
        {
            "id": "9cb1ac05-0f80-4389-982c-831bdff3117a",
            "nama_pse": "TRUKTOP TEKNOLOGI GLOBAL",
            "nama_se": "TRUKTOP.COM",
            "sektor": "Sektor Perdagangan, Sektor Teknologi Informasi dan Komunikasi",
            "tanggal_terbit": "2022-10-25",
            "url_tdpse_detail": "https://pse.komdigi.go.id/tdpse-detail/11960",
            "website": "truktop.com"
        },
        {
            "id": "9cb1abe0-edbc-4ecd-891d-d17efb5daf0d",
            "nama_pse": "DIGITAL SOLUSI PRATAMA",
            "nama_se": "NÜPAY",
            "sektor": "Sektor Perdagangan, Sektor Keuangan",
            "tanggal_terbit": "2022-10-25",
            "url_tdpse_detail": "https://pse.komdigi.go.id/tdpse-detail/11962",
            "website": "dspratama.co.id"
        },
        {
            "id": "9cb1ac13-b645-4d52-afe8-d5cc934393d5",
            "nama_pse": "FINETIKS INOVASI INDONESIA",
            "nama_se": "FINETIKS",
            "sektor": "Sektor Teknologi Informasi dan Komunikasi",
            "tanggal_terbit": "2022-10-25",
            "url_tdpse_detail": "https://pse.komdigi.go.id/tdpse-detail/11961",
            "website": "finetiks.com"
        },
        {
            "id": "9cb1abf5-1138-4813-8c54-6c2df1ede39f",
            "nama_pse": "PERUSAHAAN PERSEROAN (PERSERO) PT. TELEKOMUNIKASI INDONESIA",
            "nama_se": "AGREE MART",
            "sektor": "Sektor Perdagangan",
            "tanggal_terbit": "2022-10-24",
            "url_tdpse_detail": "https://pse.komdigi.go.id/tdpse-detail/9155",
            "website": "agreeculture.id"
        },
        {
            "id": "9cb1abbe-48fd-433e-b934-9e55af8b1ce6",
            "nama_pse": "PERUSAHAAN PERSEROAN (PERSERO) PT. TELEKOMUNIKASI INDONESIA",
            "nama_se": "PICASO E-KYC",
            "sektor": "Sektor Perdagangan, Sektor Teknologi Informasi dan Komunikasi",
            "tanggal_terbit": "2022-10-24",
            "url_tdpse_detail": "https://pse.komdigi.go.id/tdpse-detail/9156",
            "website": "picaso.id"
        },
        {
            "id": "9cb1abce-ccbb-4af0-a136-eba86454c9d4",
            "nama_pse": "PERUSAHAAN PERSEROAN (PERSERO) PT. TELEKOMUNIKASI INDONESIA",
            "nama_se": "AGREE MARKET",
            "sektor": "Sektor Perdagangan",
            "tanggal_terbit": "2022-10-24",
            "url_tdpse_detail": "https://pse.komdigi.go.id/tdpse-detail/9157",
            "website": "market.agreeculture.id"
        },
        {
            "id": "9cb1ac04-e9ef-4fdc-b207-f3dd63826f28",
            "nama_pse": "BISA KITA BANTU OFFICIAL",
            "nama_se": "MALLEE",
            "sektor": "Sektor Perdagangan, Sektor Teknologi Informasi dan Komunikasi",
            "tanggal_terbit": "2022-10-24",
            "url_tdpse_detail": "https://pse.komdigi.go.id/tdpse-detail/11933",
            "website": "mallee.id"
        },
        {
            "id": "9cb1abe0-c062-40dd-a4ae-c4134f0c459b",
            "nama_pse": "WARUNG DIGITAL NUSANTARA",
            "nama_se": "PIKPAK",
            "sektor": "Sektor Perdagangan",
            "tanggal_terbit": "2022-10-24",
            "url_tdpse_detail": "https://pse.komdigi.go.id/tdpse-detail/11934",
            "website": "pikpak.co.id"
        },
        {
            "id": "9cb1ac04-edf8-4af1-967a-f48ecbf297c1",
            "nama_pse": "ASLAMINDO ELTAMA RAYA",
            "nama_se": "JAVAPAY",
            "sektor": "Sektor Perdagangan, Sektor Teknologi Informasi dan Komunikasi",
            "tanggal_terbit": "2022-10-24",
            "url_tdpse_detail": "https://pse.komdigi.go.id/tdpse-detail/11935",
            "website": "Javapay.co.id"
        },
        {
            "id": "9cb1abe0-c3b1-4e3d-b5dc-3808af148441",
            "nama_pse": "AVERIN INFORMATIKA TEKNOLOGI",
            "nama_se": "SIRS ( SISTEM INFORMASI RUMAH SAKIT )",
            "sektor": "Sektor Kesehatan",
            "tanggal_terbit": "2022-10-24",
            "url_tdpse_detail": "https://pse.komdigi.go.id/tdpse-detail/11936",
            "website": "sirs.co.id"
        },
        {
            "id": "9cb1ac13-87da-47bd-8878-15992d6b4bf5",
            "nama_pse": "GLOBAL BARAT DIGITAL",
            "nama_se": "GE-EDUCATION",
            "sektor": "Sektor Keuangan",
            "tanggal_terbit": "2022-10-24",
            "url_tdpse_detail": "https://pse.komdigi.go.id/tdpse-detail/11937",
            "website": "ge-education.id"
        },
        {
            "id": "9cb1ac04-f192-4abf-9814-0319fc8a794a",
            "nama_pse": "YELOOO INTEGRA DATANET",
            "nama_se": "PASSPOD.COM",
            "sektor": "Sektor Perdagangan",
            "tanggal_terbit": "2022-10-24",
            "url_tdpse_detail": "https://pse.komdigi.go.id/tdpse-detail/11938",
            "website": "passpod.com"
        },
        {
            "id": "9cb1abe0-cec5-4431-90a2-6f1660528c12",
            "nama_pse": "NUSANTARA APLIKASI SERTIMEDIA",
            "nama_se": "NAS COMMERCE",
            "sektor": "Sektor Perdagangan, Sektor Teknologi Informasi dan Komunikasi",
            "tanggal_terbit": "2022-10-24",
            "url_tdpse_detail": "https://pse.komdigi.go.id/tdpse-detail/11939",
            "website": "nasonline.id"
        },
        {
            "id": "9cb1abe0-d88f-4426-9621-a9808664c7a3",
            "nama_pse": "CITRAWEB DIGITAL MULTISOLUSI",
            "nama_se": "HTTPS://WWW.CITRAHOST.COM/",
            "sektor": "Sektor Teknologi Informasi dan Komunikasi",
            "tanggal_terbit": "2022-10-24",
            "url_tdpse_detail": "https://pse.komdigi.go.id/tdpse-detail/11941",
            "website": "citrahost.com"
        },
        {
            "id": "9cb1ac04-f524-4cdd-9c53-26907bc29231",
            "nama_pse": "ANEKA KULINER RAYA",
            "nama_se": "TRIDI",
            "sektor": "Sektor Transportasi, Sektor Teknologi Informasi dan Komunikasi",
            "tanggal_terbit": "2022-10-24",
            "url_tdpse_detail": "https://pse.komdigi.go.id/tdpse-detail/11942",
            "website": "trukes.id"
        },
        {
            "id": "9cb1ac04-f877-49ab-af76-ef967c470c53",
            "nama_pse": "ANUGRAH PEMBIAYAAN DIGITAL",
            "nama_se": "APAMFIN",
            "sektor": "Sektor Keuangan",
            "tanggal_terbit": "2022-10-24",
            "url_tdpse_detail": "https://pse.komdigi.go.id/tdpse-detail/11943",
            "website": "apamfin.com"
        },
        {
            "id": "9cb1ac13-7cff-42c6-82e3-ec76013b075e",
            "nama_pse": "JAYA TUNGGAL",
            "nama_se": "CV. JAYA TUNGGAL",
            "sektor": "Sektor Perdagangan, Sektor Kesehatan",
            "tanggal_terbit": "2022-10-23",
            "url_tdpse_detail": "https://pse.komdigi.go.id/tdpse-detail/11930",
            "website": "-"
        },
        {
            "id": "9cb1abe0-bcda-478a-9a41-f72932e2ce51",
            "nama_pse": "MUHAMMAD ARIYANSAH",
            "nama_se": "ARINEXT RELOAD",
            "sektor": "Sektor Perdagangan",
            "tanggal_terbit": "2022-10-23",
            "url_tdpse_detail": "https://pse.komdigi.go.id/tdpse-detail/11931",
            "website": "arinextreload.com"
        },
        {
            "id": "9cb1ac13-82ef-46aa-a2fd-710f4ef557ef",
            "nama_pse": "SELEBGRAMSMM ALVA GROUP",
            "nama_se": "SELEBGRAMSMM",
            "sektor": "Sektor Teknologi Informasi dan Komunikasi",
            "tanggal_terbit": "2022-10-23",
            "url_tdpse_detail": "https://pse.komdigi.go.id/tdpse-detail/11932",
            "website": "selebgramsmm.com"
        },
        {
            "id": "9cb1ac13-75c1-44b9-88b4-75c75684c7d5",
            "nama_pse": "ANUGRAH PEMBAYARAN DIGITAL",
            "nama_se": "APAMPAY",
            "sektor": "Sektor Keuangan",
            "tanggal_terbit": "2022-10-22",
            "url_tdpse_detail": "https://pse.komdigi.go.id/tdpse-detail/11927",
            "website": "apampay.com"
        },
        {
            "id": "9cb1ac13-7973-4df4-b041-3b995f3bff19",
            "nama_pse": "ARTHA LINTAS NEGARA",
            "nama_se": "ALINAPAY",
            "sektor": "Sektor Keuangan",
            "tanggal_terbit": "2022-10-22",
            "url_tdpse_detail": "https://pse.komdigi.go.id/tdpse-detail/11928",
            "website": "arthanegara.com"
        },
        {
            "id": "9cb1abeb-18f4-4a6d-9826-cbded47e6040",
            "nama_pse": "KOPERASI SIMPAN PINJAM SAHABAT MITRA SEJATI",
            "nama_se": "SIMPANAN ONLINE SAHABATKU (SOBATKU)",
            "sektor": "Sektor Keuangan",
            "tanggal_terbit": "2022-10-21",
            "url_tdpse_detail": "https://pse.komdigi.go.id/tdpse-detail/11915",
            "website": "sobatku.co.id"
        },
        {
            "id": "9cb1abe0-9523-4e55-92ce-33a7aa7bcbb1",
            "nama_pse": "PUTERA SAMPOERNA",
            "nama_se": "GURU BINAR",
            "sektor": "Sektor Teknologi Informasi dan Komunikasi",
            "tanggal_terbit": "2022-10-21",
            "url_tdpse_detail": "https://pse.komdigi.go.id/tdpse-detail/11911",
            "website": "gurubinar.id"
        },
        {
            "id": "9cb1abe0-9948-4477-9af4-44dae244feeb",
            "nama_pse": "BANGUN GAMA TEKNOLOGI",
            "nama_se": "KIOSKHUB",
            "sektor": "Sektor Perdagangan, Sektor Teknologi Informasi dan Komunikasi",
            "tanggal_terbit": "2022-10-21",
            "url_tdpse_detail": "https://pse.komdigi.go.id/tdpse-detail/11912",
            "website": "kioskhub.live"
        },
        {
            "id": "9cb1abe0-a538-4a26-bc8c-78ebd440a944",
            "nama_pse": "TEKNOLOGI ORBIT PERKASA",
            "nama_se": "PULSATOP",
            "sektor": "Sektor Perdagangan, Sektor Teknologi Informasi dan Komunikasi",
            "tanggal_terbit": "2022-10-21",
            "url_tdpse_detail": "https://pse.komdigi.go.id/tdpse-detail/11913",
            "website": "pulsatop.online"
        },
        {
            "id": "9cb1ac13-61be-43b2-82c1-812c24c3cb92",
            "nama_pse": "DOKTERNET",
            "nama_se": "PRACPITAL",
            "sektor": "Sektor Teknologi Informasi dan Komunikasi",
            "tanggal_terbit": "2022-10-21",
            "url_tdpse_detail": "https://pse.komdigi.go.id/tdpse-detail/11917",
            "website": "pracpital.com"
        },
        {
            "id": "9cb1ac04-d531-4351-b2c4-344bc6d7bc7b",
            "nama_pse": "FINTECH BINA BANGSA",
            "nama_se": "EDUFUND",
            "sektor": "Sektor Keuangan",
            "tanggal_terbit": "2022-10-21",
            "url_tdpse_detail": "https://pse.komdigi.go.id/tdpse-detail/11924",
            "website": "edufund.co.id"
        },
        {
            "id": "9cb1ac04-d8a8-444e-853c-d1106862131c",
            "nama_pse": "BINTANG BERKAH INDONESIA",
            "nama_se": "DIGITOPUP",
            "sektor": "Sektor Perdagangan, Sektor Teknologi Informasi dan Komunikasi",
            "tanggal_terbit": "2022-10-21",
            "url_tdpse_detail": "https://pse.komdigi.go.id/tdpse-detail/11918",
            "website": "digitopup.id"
        },
        {
            "id": "9cb1ac13-650a-4742-9868-5fa9de98d8a1",
            "nama_pse": "IKON MEDIA INDONESIA",
            "nama_se": "TAGIHANPULSA",
            "sektor": "Sektor Keuangan, Sektor Teknologi Informasi dan Komunikasi",
            "tanggal_terbit": "2022-10-21",
            "url_tdpse_detail": "https://pse.komdigi.go.id/tdpse-detail/11919",
            "website": "tagihanpulsa.com"
        },
        {
            "id": "9cb1ac04-dc6d-48ca-be8f-a1410ea542a4",
            "nama_pse": "PERMATA KREASI JAYA",
            "nama_se": "TOKOGAMING.ID",
            "sektor": "Sektor Perdagangan, Sektor Teknologi Informasi dan Komunikasi",
            "tanggal_terbit": "2022-10-21",
            "url_tdpse_detail": "https://pse.komdigi.go.id/tdpse-detail/11920",
            "website": "tokogaming.id"
        },
        {
            "id": "9cb1abe0-b5ca-49b5-bc79-a44ded173929",
            "nama_pse": "AN-NISA UTAMA",
            "nama_se": "ASHA",
            "sektor": "Sektor Kesehatan",
            "tanggal_terbit": "2022-10-21",
            "url_tdpse_detail": "https://pse.komdigi.go.id/tdpse-detail/11926",
            "website": "rsannisa.co.id"
        },
        {
            "id": "9cb1ac04-e1ed-4505-afee-59056a4dd105",
            "nama_pse": "PEMENANG BILYUNER INDONESIA",
            "nama_se": "WWW.LIVING4U.CO.ID",
            "sektor": "Sektor Perdagangan",
            "tanggal_terbit": "2022-10-21",
            "url_tdpse_detail": "https://pse.komdigi.go.id/tdpse-detail/11921",
            "website": "living4u.co.id"
        },
        {
            "id": "9cb1ac13-696e-47be-9522-0e80906bcfd9",
            "nama_pse": "LESTARI KARYA INVESTAMA",
            "nama_se": "ETHEREAL",
            "sektor": "Sektor Perdagangan",
            "tanggal_terbit": "2022-10-21",
            "url_tdpse_detail": "https://pse.komdigi.go.id/tdpse-detail/11922",
            "website": "lkiethereal.com"
        },
        {
            "id": "9cb1ac04-e617-4010-b8ed-07fe7a626db6",
            "nama_pse": "SARANA PEMBAYARAN DIGITAL",
            "nama_se": "KLUWYPAY",
            "sektor": "Sektor Keuangan",
            "tanggal_terbit": "2022-10-21",
            "url_tdpse_detail": "https://pse.komdigi.go.id/tdpse-detail/11925",
            "website": "kluwypay.com"
        },
        {
            "id": "9cb1abd3-e9b9-4b99-a4ae-cb494f0b9ac4",
            "nama_pse": "MITRA PEMBAYARAN INDONESIA",
            "nama_se": "DIGIPPOB",
            "sektor": "Sektor Teknologi Informasi dan Komunikasi",
            "tanggal_terbit": "2022-10-20",
            "url_tdpse_detail": "https://pse.komdigi.go.id/tdpse-detail/9849",
            "website": "digippob.com"
        },
        {
            "id": "9cb1ac09-46f9-4078-8fb2-2ebfea5b2b8f",
            "nama_pse": "DANA KIRTI CEMERLANG",
            "nama_se": "DIGIPPOB",
            "sektor": "Sektor Teknologi Informasi dan Komunikasi",
            "tanggal_terbit": "2022-10-20",
            "url_tdpse_detail": "https://pse.komdigi.go.id/tdpse-detail/9863",
            "website": "digippob.com"
        },
        {
            "id": "9cb1abe0-73f2-4fd6-923d-837582d3a38c",
            "nama_pse": "SAMDEN CIPTA DIGITAL",
            "nama_se": "SALONIAL",
            "sektor": "Sektor Perdagangan, Sektor Teknologi Informasi dan Komunikasi",
            "tanggal_terbit": "2022-10-20",
            "url_tdpse_detail": "https://pse.komdigi.go.id/tdpse-detail/11888",
            "website": "salonial.com"
        },
        {
            "id": "9cb1ac13-42a3-487b-98ab-84dfc82e577a",
            "nama_pse": "DATACELL INFOMEDIA",
            "nama_se": "PAYDIA",
            "sektor": "Sektor Keuangan",
            "tanggal_terbit": "2022-10-20",
            "url_tdpse_detail": "https://pse.komdigi.go.id/tdpse-detail/11889",
            "website": "paydia.id"
        },
        {
            "id": "9cb1ac13-45c0-4a7b-bac9-1c4a00eed087",
            "nama_pse": "DOMPET YATIM DAN MESJID",
            "nama_se": "YDYM.ORG",
            "sektor": "Sektor Teknologi Informasi dan Komunikasi",
            "tanggal_terbit": "2022-10-20",
            "url_tdpse_detail": "https://pse.komdigi.go.id/tdpse-detail/11890",
            "website": "ydym.org"
        },
        {
            "id": "9cb1abe0-778b-45a1-91ea-598d2e71bd02",
            "nama_pse": "ULTRA SUKSES BERSAMA",
            "nama_se": "PRIZEPLAY",
            "sektor": "Sektor Teknologi Informasi dan Komunikasi",
            "tanggal_terbit": "2022-10-20",
            "url_tdpse_detail": "https://pse.komdigi.go.id/tdpse-detail/11906",
            "website": "prizeplay.io"
        },
        {
            "id": "9cb1abe0-7bb4-41df-b6d6-dc77827210a3",
            "nama_pse": "DUMBWAYS INDONESIA TEKNOLOGI",
            "nama_se": "DUMBWAYS CODING BOOTCAMP",
            "sektor": "Sektor Teknologi Informasi dan Komunikasi",
            "tanggal_terbit": "2022-10-20",
            "url_tdpse_detail": "https://pse.komdigi.go.id/tdpse-detail/11891",
            "website": "dumbways.id"
        },
        {
            "id": "9cb1ac13-4911-4b3f-9702-a2587583a2e9",
            "nama_pse": "MULAI WEB INDONESIA",
            "nama_se": "DONASIIN.COM",
            "sektor": "Sektor Teknologi Informasi dan Komunikasi",
            "tanggal_terbit": "2022-10-20",
            "url_tdpse_detail": "https://pse.komdigi.go.id/tdpse-detail/11892",
            "website": "donasiin.com"
        },
        {
            "id": "9cb1abe0-7f3b-4cba-8e8a-9d65fd61ecce",
            "nama_pse": "HEAPTALK MEDIA INDONESIA",
            "nama_se": "HEAPTALK",
            "sektor": "Sektor Teknologi Informasi dan Komunikasi",
            "tanggal_terbit": "2022-10-20",
            "url_tdpse_detail": "https://pse.komdigi.go.id/tdpse-detail/11894",
            "website": "heaptalk.com"
        },
        {
            "id": "9cb1abe0-8467-488b-8d10-8dadf2708874",
            "nama_pse": "COMMEASURE SOLUTIONS INDONESIA",
            "nama_se": "REDDOORZ",
            "sektor": "Sektor Perdagangan",
            "tanggal_terbit": "2022-10-20",
            "url_tdpse_detail": "https://pse.komdigi.go.id/tdpse-detail/11893",
            "website": "RedDoorz.com"
        },
        {
            "id": "9cb1ac04-b75b-4695-916f-da002ec060e7",
            "nama_pse": "BANK PERKREDITAN RAKYAT SURYAJAYA UBUD",
            "nama_se": "QRIS PT. BPR SURYAJAYA UBUD",
            "sektor": "Sektor Teknologi Informasi dan Komunikasi",
            "tanggal_terbit": "2022-10-20",
            "url_tdpse_detail": "https://pse.komdigi.go.id/tdpse-detail/11895",
            "website": "qris.mikropay.co.id"
        }
    ],
    "processingTimeMs": 37,
    "query": "",
    "totalHits": 19131,
    "hitsPerPage": 50,
    "page": 175,
    "totalPages": 383
}