{
    "hits": [
        {
            "id": "9cb1ab8d-7f5f-4216-b8ef-ec2393383969",
            "nama_pse": "SINERGI INFORMATIKA SEMEN INDONESIA",
            "nama_se": "AKSESTOKO",
            "sektor": "Sektor Perdagangan, Sektor Perdagangan",
            "tanggal_terbit": "2021-07-08",
            "url_tdpse_detail": "https://pse.komdigi.go.id/tdpse-detail/1678",
            "website": "aksestoko.id"
        },
        {
            "id": "9cb1ab7d-d7ff-4223-9dca-994a785884ab",
            "nama_pse": "SINERGI INFORMATIKA SEMEN INDONESIA",
            "nama_se": "SOBAT BANGUN",
            "sektor": "Sektor Perdagangan, Sektor Perdagangan",
            "tanggal_terbit": "2021-07-08",
            "url_tdpse_detail": "https://pse.komdigi.go.id/tdpse-detail/1680",
            "website": "sobatbangun.com"
        },
        {
            "id": "9cb1abaa-1b93-4483-98e1-c1a1b3b84758",
            "nama_pse": "ADIJAYA SAKTI WICAKSANA",
            "nama_se": "LAPAK SEKOLAH",
            "sektor": "Sektor Perdagangan, Sektor Perdagangan, Sektor Perdagangan, Sektor Perdagangan, Sektor Perdagangan, Sektor Perdagangan, Sektor Perdagangan",
            "tanggal_terbit": "2021-07-08",
            "url_tdpse_detail": "https://pse.komdigi.go.id/tdpse-detail/1661",
            "website": "lapaksekolah.id"
        },
        {
            "id": "9cb1ab92-aa2d-4943-b3e0-61c39deeb9ec",
            "nama_pse": "ADIJAYA SAKTI WICAKSANA",
            "nama_se": "PASAR ELEKTRONIK RAKYAT",
            "sektor": "Sektor Perdagangan, Sektor Perdagangan, Sektor Perdagangan, Sektor Perdagangan, Sektor Perdagangan, Sektor Perdagangan, Sektor Perdagangan",
            "tanggal_terbit": "2021-07-08",
            "url_tdpse_detail": "https://pse.komdigi.go.id/tdpse-detail/1664",
            "website": "pasarerakyat.co.id"
        },
        {
            "id": "9cb1ab67-30dd-4975-8a35-ed55e441f4fb",
            "nama_pse": "SOMPO INSURANCE INDONESIA",
            "nama_se": "SOMPO GO",
            "sektor": "Sektor Keuangan, Sektor Keuangan",
            "tanggal_terbit": "2021-07-05",
            "url_tdpse_detail": "https://pse.komdigi.go.id/tdpse-detail/1650",
            "website": "mobile.sompo.co.id"
        },
        {
            "id": "9cb1ab67-c1cf-4a78-85aa-7de74806cf08",
            "nama_pse": "IDE PICUP GROUP",
            "nama_se": "THEFEPI",
            "sektor": "Sektor Perdagangan, Sektor Perdagangan",
            "tanggal_terbit": "2021-07-05",
            "url_tdpse_detail": "https://pse.komdigi.go.id/tdpse-detail/1646",
            "website": "thefepi.co.id"
        },
        {
            "id": "9cb1ab74-dfef-40c2-899f-4fbf2014df7f",
            "nama_pse": "WAHYU KARTUMASINDO INTERNATIONAL",
            "nama_se": "WAHYUKARTU",
            "sektor": "Sektor Teknologi Informasi dan Komunikasi, Sektor Teknologi Informasi dan Komunikasi, Sektor Teknologi Informasi dan Komunikasi",
            "tanggal_terbit": "2021-07-05",
            "url_tdpse_detail": "https://pse.komdigi.go.id/tdpse-detail/1651",
            "website": "wahyukartu.com"
        },
        {
            "id": "9cb1ab68-5046-48fd-8e2e-383b0f746881",
            "nama_pse": "SUPRA SEKURITAS INDONESIA",
            "nama_se": "SAS BACK OFFICE DAN SAS FRONT OFFICE",
            "sektor": "Sektor Keuangan, Sektor Keuangan",
            "tanggal_terbit": "2021-07-05",
            "url_tdpse_detail": "https://pse.komdigi.go.id/tdpse-detail/1647",
            "website": "suprasekuritas.co.id"
        },
        {
            "id": "9cb1ab6e-7afd-4911-bbae-25184062651f",
            "nama_pse": "TAMBANG ARTHA WISESA",
            "nama_se": "CASFER.IO",
            "sektor": "Sektor Keuangan, Sektor Keuangan, Sektor Teknologi Informasi dan Komunikasi, Sektor Teknologi Informasi dan Komunikasi",
            "tanggal_terbit": "2021-07-05",
            "url_tdpse_detail": "https://pse.komdigi.go.id/tdpse-detail/1648",
            "website": "casfer.io"
        },
        {
            "id": "9cb1ab6e-9afe-46c9-9c22-29ad3b44fd1e",
            "nama_pse": "IMORTEK DIGICOM APLIKASI",
            "nama_se": "HALOPINJAM",
            "sektor": "Sektor Keuangan, Sektor Keuangan, Sektor Keuangan, Sektor Teknologi Informasi dan Komunikasi, Sektor Teknologi Informasi dan Komunikasi, Sektor Teknologi Informasi dan Komunikasi",
            "tanggal_terbit": "2021-07-05",
            "url_tdpse_detail": "https://pse.komdigi.go.id/tdpse-detail/1653",
            "website": "halopinjam.id"
        },
        {
            "id": "9cb1ab6e-b054-4ff0-9836-c460ba30c4ee",
            "nama_pse": "VARASH SADDAN NUSANTARA",
            "nama_se": "VARASH",
            "sektor": "Sektor Perdagangan, Sektor Perdagangan, Sektor Perdagangan",
            "tanggal_terbit": "2021-07-05",
            "url_tdpse_detail": "https://pse.komdigi.go.id/tdpse-detail/1652",
            "website": "saddannusantara.com"
        },
        {
            "id": "9cb1ab83-6500-4b03-a133-2c0b64f93149",
            "nama_pse": "KOLTIVA",
            "nama_se": "SEAWEEDTRACE",
            "sektor": "Sektor Perdagangan, Sektor Perdagangan, Sektor Teknologi Informasi dan Komunikasi, Sektor Teknologi Informasi dan Komunikasi",
            "tanggal_terbit": "2021-07-05",
            "url_tdpse_detail": "https://pse.komdigi.go.id/tdpse-detail/1645",
            "website": "app.seaweedtrace.com/system/login/index/#"
        },
        {
            "id": "9cb1ab7c-5b24-4f5a-8f61-b5d7bef1ca44",
            "nama_pse": "ASURANSI JIWA SEQUIS LIFE",
            "nama_se": "SEQUIS APP",
            "sektor": "Sektor Keuangan, Sektor Keuangan",
            "tanggal_terbit": "2021-07-05",
            "url_tdpse_detail": "https://pse.komdigi.go.id/tdpse-detail/1640",
            "website": "polisku.sequis.co.id"
        },
        {
            "id": "9cb1ab84-133d-44b9-a8cb-3648d32d1056",
            "nama_pse": "ASURANSI JIWA SEQUIS LIFE",
            "nama_se": "SEQUIS PRO",
            "sektor": "Sektor Keuangan, Sektor Keuangan",
            "tanggal_terbit": "2021-07-05",
            "url_tdpse_detail": "https://pse.komdigi.go.id/tdpse-detail/1641",
            "website": "-"
        },
        {
            "id": "9cb1ab85-f009-431f-bd49-bed517306c81",
            "nama_pse": "BANK CIMB NIAGA",
            "nama_se": "CIMB NIAGA TRADE CLUB",
            "sektor": "Sektor Keuangan, Sektor Keuangan, Sektor Keuangan, Sektor Keuangan, Sektor Keuangan",
            "tanggal_terbit": "2021-07-05",
            "url_tdpse_detail": "https://pse.komdigi.go.id/tdpse-detail/1644",
            "website": "tradeclub.cimbniaga.co.id/en/"
        },
        {
            "id": "9cb1ab62-ca2d-4559-ba7b-a70ab5511fc2",
            "nama_pse": "KLIKCAIR MAGGA JAYA",
            "nama_se": "SISTEM PENERIMA PINJAMAN KLIKCAIR",
            "sektor": "Sektor Keuangan, Sektor Keuangan",
            "tanggal_terbit": "2021-07-01",
            "url_tdpse_detail": "https://pse.komdigi.go.id/tdpse-detail/1625",
            "website": "borrower.klikcair.com"
        },
        {
            "id": "9cb1ab62-cd02-49b8-ba26-475743fcc9f2",
            "nama_pse": "KLIKCAIR MAGGA JAYA",
            "nama_se": "SISTEM PEMBERI PINJAMAN KLIKCAIR",
            "sektor": "Sektor Keuangan, Sektor Keuangan",
            "tanggal_terbit": "2021-07-01",
            "url_tdpse_detail": "https://pse.komdigi.go.id/tdpse-detail/1626",
            "website": "lender.klikcair.com"
        },
        {
            "id": "9cb1ab64-1d91-4ffb-bea7-9f73e2464c14",
            "nama_pse": "RAKSASA LAJU LINTANG",
            "nama_se": "RALALI.COM",
            "sektor": "Sektor Perdagangan, Sektor Perdagangan, Sektor Teknologi Informasi dan Komunikasi, Sektor Teknologi Informasi dan Komunikasi",
            "tanggal_terbit": "2021-07-01",
            "url_tdpse_detail": "https://pse.komdigi.go.id/tdpse-detail/1636",
            "website": "ralali.com"
        },
        {
            "id": "9cb1ab64-55ea-43ff-9b98-166641cc5755",
            "nama_pse": "HAI CIPTA INOVASI",
            "nama_se": "HI-COMMERCE",
            "sektor": "Sektor Perdagangan, Sektor Perdagangan, Sektor Teknologi Informasi dan Komunikasi, Sektor Teknologi Informasi dan Komunikasi",
            "tanggal_terbit": "2021-07-01",
            "url_tdpse_detail": "https://pse.komdigi.go.id/tdpse-detail/1616",
            "website": "hicommerce.co.id"
        },
        {
            "id": "9cb1ab6d-ab6d-48a7-918d-2752a3bd5f6e",
            "nama_pse": "JUST KIDDING INDONESIA",
            "nama_se": "JUST KIDDING",
            "sektor": "Sektor Perdagangan, Sektor Perdagangan, Sektor Perdagangan, Sektor Perdagangan",
            "tanggal_terbit": "2021-07-01",
            "url_tdpse_detail": "https://pse.komdigi.go.id/tdpse-detail/1615",
            "website": "-"
        },
        {
            "id": "9cb1ab6d-d852-4b1f-bd74-9c7b5724b3e3",
            "nama_pse": "BANK MULTIARTA SENTOSA",
            "nama_se": "INTERNET BANKING",
            "sektor": "Sektor Keuangan, Sektor Keuangan, Sektor Teknologi Informasi dan Komunikasi, Sektor Teknologi Informasi dan Komunikasi",
            "tanggal_terbit": "2021-07-01",
            "url_tdpse_detail": "https://pse.komdigi.go.id/tdpse-detail/1617",
            "website": "https:/www.bankmas.co.id"
        },
        {
            "id": "9cb1ab6d-e60c-4978-8f89-48ce51102eb3",
            "nama_pse": "SAKURA SYSTEM SOLUTIONS",
            "nama_se": "SPISY SAAS",
            "sektor": "Sektor Teknologi Informasi dan Komunikasi, Sektor Teknologi Informasi dan Komunikasi, Sektor Teknologi Informasi dan Komunikasi",
            "tanggal_terbit": "2021-07-01",
            "url_tdpse_detail": "https://pse.komdigi.go.id/tdpse-detail/1622",
            "website": "spisy.co.id"
        },
        {
            "id": "9cb1ab74-702c-44b2-a76d-87269147d39c",
            "nama_pse": "ALUMAK TEKNOLOGI INDONESIA",
            "nama_se": "ALUMAK",
            "sektor": "Sektor Keuangan, Sektor Keuangan",
            "tanggal_terbit": "2021-07-01",
            "url_tdpse_detail": "https://pse.komdigi.go.id/tdpse-detail/1635",
            "website": "alumak.id"
        },
        {
            "id": "9cb1ab67-f948-4880-b357-daac26ab9586",
            "nama_pse": "MATHPRESSO QANDA INDONESIA",
            "nama_se": "QANDAINDONESIA.COM",
            "sektor": "Sektor Teknologi Informasi dan Komunikasi, Sektor Teknologi Informasi dan Komunikasi",
            "tanggal_terbit": "2021-07-01",
            "url_tdpse_detail": "https://pse.komdigi.go.id/tdpse-detail/1614",
            "website": "Qandaindonesia.com"
        },
        {
            "id": "9cb1ab68-026e-443d-9018-da5d2fc2a985",
            "nama_pse": "BANK MEGA",
            "nama_se": "BANK MEGA MEGAFIRST",
            "sektor": "Sektor Keuangan, Sektor Keuangan, Sektor Keuangan, Sektor Keuangan",
            "tanggal_terbit": "2021-07-01",
            "url_tdpse_detail": "https://pse.komdigi.go.id/tdpse-detail/1606",
            "website": "bankmega.com/id/megafirst/"
        },
        {
            "id": "9cb1ab74-b178-4972-8178-fa315776b9e9",
            "nama_pse": "BANK MEGA",
            "nama_se": "BANK MEGA MOBILE ON BOARDING",
            "sektor": "Sektor Keuangan, Sektor Keuangan, Sektor Keuangan, Sektor Keuangan",
            "tanggal_terbit": "2021-07-01",
            "url_tdpse_detail": "https://pse.komdigi.go.id/tdpse-detail/1607",
            "website": "mobonboarding.bankmega.com/index.php/login"
        },
        {
            "id": "9cb1ab68-057a-4493-a78c-88fbbc4adf75",
            "nama_pse": "BANK MEGA",
            "nama_se": "BANK MEGA MOBILE ACQUITITIONS TOOLS",
            "sektor": "Sektor Keuangan, Sektor Keuangan, Sektor Keuangan, Sektor Keuangan",
            "tanggal_terbit": "2021-07-01",
            "url_tdpse_detail": "https://pse.komdigi.go.id/tdpse-detail/1609",
            "website": "mauto.bankmega.com/mauto/index.php/login"
        },
        {
            "id": "9cb1ab74-bdaa-4feb-bc20-e31df5e59ea5",
            "nama_pse": "BANK MEGA",
            "nama_se": "BANK MEGA ESBN",
            "sektor": "Sektor Keuangan, Sektor Keuangan, Sektor Keuangan, Sektor Keuangan",
            "tanggal_terbit": "2021-07-01",
            "url_tdpse_detail": "https://pse.komdigi.go.id/tdpse-detail/1610",
            "website": "sbnonline.bankmega.com"
        },
        {
            "id": "9cb1ab68-07ec-4248-98a7-29801754f0a7",
            "nama_pse": "BANK MEGA",
            "nama_se": "BANK MEGA UBAH PIN CREDIT CARD",
            "sektor": "Sektor Keuangan, Sektor Keuangan, Sektor Keuangan, Sektor Keuangan",
            "tanggal_terbit": "2021-07-01",
            "url_tdpse_detail": "https://pse.komdigi.go.id/tdpse-detail/1621",
            "website": "ubahpin.bankmega.com"
        },
        {
            "id": "9cb1ab68-10c4-49ed-8f15-a071f36259d6",
            "nama_pse": "BANK MEGA",
            "nama_se": "BANK MEGA MICROSITE CICILAN",
            "sektor": "Sektor Keuangan, Sektor Keuangan, Sektor Keuangan, Sektor Keuangan",
            "tanggal_terbit": "2021-07-01",
            "url_tdpse_detail": "https://pse.komdigi.go.id/tdpse-detail/1629",
            "website": "mp.bankmega.com"
        },
        {
            "id": "9cb1ab74-c0c1-4ffc-b577-5fb8befc1dcd",
            "nama_pse": "BANK MEGA",
            "nama_se": "BANK MEGA MICROSITE PENGAJUAN CREDIT CARD",
            "sektor": "Sektor Keuangan, Sektor Keuangan, Sektor Keuangan, Sektor Keuangan",
            "tanggal_terbit": "2021-07-01",
            "url_tdpse_detail": "https://pse.komdigi.go.id/tdpse-detail/1631",
            "website": "ms.bankmega.com"
        },
        {
            "id": "9cb1ab68-1489-486b-9119-c48914df6ea9",
            "nama_pse": "BANK MEGA",
            "nama_se": "BANK MEGA DOCUMENT COURIER TRACKING CREDIT CARD",
            "sektor": "Sektor Keuangan, Sektor Keuangan, Sektor Keuangan, Sektor Keuangan",
            "tanggal_terbit": "2021-07-01",
            "url_tdpse_detail": "https://pse.komdigi.go.id/tdpse-detail/1632",
            "website": "doctrack.bankmega.com"
        },
        {
            "id": "9cb1ab74-c48b-4a1f-ab7e-28a5070bf6d6",
            "nama_pse": "BANK MEGA",
            "nama_se": "BANK MEGA REGISTRASI/UBAH PIN CREDIT CARD",
            "sektor": "Sektor Keuangan, Sektor Keuangan, Sektor Keuangan, Sektor Keuangan",
            "tanggal_terbit": "2021-07-01",
            "url_tdpse_detail": "https://pse.komdigi.go.id/tdpse-detail/1638",
            "website": "ibank.bankmega.com/regpin/index.php"
        },
        {
            "id": "9cb1ab6e-5295-435f-9add-33f55cb985c3",
            "nama_pse": "SICEPAT EKSPRES INDONESIA",
            "nama_se": "SICEPAT.COM",
            "sektor": "Sektor Teknologi Informasi dan Komunikasi, Sektor Teknologi Informasi dan Komunikasi",
            "tanggal_terbit": "2021-07-01",
            "url_tdpse_detail": "https://pse.komdigi.go.id/tdpse-detail/1620",
            "website": "sicepat.com"
        },
        {
            "id": "9cb1ab74-f22c-451b-b407-4ee98e72ff83",
            "nama_pse": "DARIS TRANSFORMASI DIGITAL",
            "nama_se": "TANYAI",
            "sektor": "Sektor Teknologi Informasi dan Komunikasi, Sektor Teknologi Informasi dan Komunikasi",
            "tanggal_terbit": "2021-07-01",
            "url_tdpse_detail": "https://pse.komdigi.go.id/tdpse-detail/1639",
            "website": "tanyai.id"
        },
        {
            "id": "9cb1ab68-2e31-49ab-92da-352613a43e00",
            "nama_pse": "XARDRIANO KERUB BEJANA",
            "nama_se": "XARDRIANO KERUB BEJANA",
            "sektor": "Sektor Teknologi Informasi dan Komunikasi, Sektor Teknologi Informasi dan Komunikasi, Sektor Teknologi Informasi dan Komunikasi, Sektor Teknologi Informasi dan Komunikasi",
            "tanggal_terbit": "2021-07-01",
            "url_tdpse_detail": "https://pse.komdigi.go.id/tdpse-detail/1611",
            "website": "kickstox.com"
        },
        {
            "id": "9cb1ab68-3114-430a-8c73-61fca7d654e8",
            "nama_pse": "VISI MEDIA TARA",
            "nama_se": "WEBSITE",
            "sektor": "Sektor Perdagangan, Sektor Perdagangan, Sektor Perdagangan, Sektor Perdagangan, Sektor Teknologi Informasi dan Komunikasi, Sektor Teknologi Informasi dan Komunikasi, Sektor Teknologi Informasi dan Komunikasi, Sektor Teknologi Informasi dan Komunikasi",
            "tanggal_terbit": "2021-07-01",
            "url_tdpse_detail": "https://pse.komdigi.go.id/tdpse-detail/1613",
            "website": "expresoo.org"
        },
        {
            "id": "9cb1ab68-3e41-4210-a339-6a0f725d3fc5",
            "nama_pse": "SOLUSI BIJAK INDONESIA",
            "nama_se": "SAKUCERIA",
            "sektor": "Sektor Keuangan, Sektor Keuangan",
            "tanggal_terbit": "2021-07-01",
            "url_tdpse_detail": "https://pse.komdigi.go.id/tdpse-detail/1608",
            "website": "sakuceria.id"
        },
        {
            "id": "9cb1ab6e-7372-4fc1-b8ec-b9a109a15f7f",
            "nama_pse": "RIAU BISA MEDIA",
            "nama_se": "RIAUBISA.COM",
            "sektor": "Sektor Teknologi Informasi dan Komunikasi, Sektor Teknologi Informasi dan Komunikasi, Sektor Teknologi Informasi dan Komunikasi",
            "tanggal_terbit": "2021-07-01",
            "url_tdpse_detail": "https://pse.komdigi.go.id/tdpse-detail/1612",
            "website": "riaubisa.com"
        },
        {
            "id": "9cb1ab6e-77d2-4eb0-b9ee-6baf791554f2",
            "nama_pse": "INDOTAMA SENTOSA LESTARI",
            "nama_se": "MAGICALLADIN.COM",
            "sektor": "Sektor Perdagangan, Sektor Perdagangan, Sektor Perdagangan, Sektor Perdagangan",
            "tanggal_terbit": "2021-07-01",
            "url_tdpse_detail": "https://pse.komdigi.go.id/tdpse-detail/1618",
            "website": "magicalladin.com"
        },
        {
            "id": "9cb1ab68-52a0-428c-afa1-1aeda83d5443",
            "nama_pse": "PACIFIC CAPITAL INVESTMENT",
            "nama_se": "WWW.PCINVESTMENT.CO.ID, WW.PCINV.CO.ID",
            "sektor": "Sektor Keuangan, Sektor Keuangan",
            "tanggal_terbit": "2021-07-01",
            "url_tdpse_detail": "https://pse.komdigi.go.id/tdpse-detail/1630",
            "website": "pcinvestment.co.id"
        },
        {
            "id": "9cb1ab75-023d-44e1-9bc8-532ef24d2abb",
            "nama_pse": "SAHABAT MIKRO FINTEK",
            "nama_se": "SAMIR",
            "sektor": "Sektor Keuangan, Sektor Keuangan",
            "tanggal_terbit": "2021-07-01",
            "url_tdpse_detail": "https://pse.komdigi.go.id/tdpse-detail/1628",
            "website": "samir.co.id"
        },
        {
            "id": "9cb1ab6e-7dcc-467a-b7a5-e6c57412c372",
            "nama_pse": "INDO CAPITAL SEKURITAS",
            "nama_se": "OTIS - ONLINE TRADING INDOCAPITAL SEKURITAS",
            "sektor": "Sektor Keuangan, Sektor Keuangan",
            "tanggal_terbit": "2021-07-01",
            "url_tdpse_detail": "https://pse.komdigi.go.id/tdpse-detail/1627",
            "website": "indocapital.co.id"
        },
        {
            "id": "9cb1ab6e-83e8-45dd-985b-0450143c53f0",
            "nama_pse": "BNI SEKURITAS",
            "nama_se": "BIONS - BNI SEKURITAS INNOVATIVE ONLINE TRADING SYSTEM",
            "sektor": "Sektor Keuangan, Sektor Keuangan",
            "tanggal_terbit": "2021-07-01",
            "url_tdpse_detail": "https://pse.komdigi.go.id/tdpse-detail/1623",
            "website": "bions.id"
        },
        {
            "id": "9cb1ab6e-89b2-4701-926a-a91b4eef302d",
            "nama_pse": "BNI SEKURITAS",
            "nama_se": "BIONS - BNI SEKURITAS INNOVATIVE ONLINE TRADING SYSTEM",
            "sektor": "Sektor Keuangan, Sektor Keuangan",
            "tanggal_terbit": "2021-07-01",
            "url_tdpse_detail": "https://pse.komdigi.go.id/tdpse-detail/1624",
            "website": "bions.id"
        },
        {
            "id": "9cb1ab6e-94c4-4f8a-abcf-854386da4206",
            "nama_pse": "MAHAKARYA INTI TECHNOLOGY",
            "nama_se": "YOLORI",
            "sektor": "Sektor Perdagangan, Sektor Perdagangan, Sektor Perdagangan, Sektor Perdagangan, Sektor Teknologi Informasi dan Komunikasi, Sektor Teknologi Informasi dan Komunikasi, Sektor Teknologi Informasi dan Komunikasi, Sektor Teknologi Informasi dan Komunikasi",
            "tanggal_terbit": "2021-07-01",
            "url_tdpse_detail": "https://pse.komdigi.go.id/tdpse-detail/1633",
            "website": "yolori.com"
        },
        {
            "id": "9cb1ab83-9b9b-4a68-baff-5dda295ec2e3",
            "nama_pse": "MSIG LIFE INSURANCE INDONESIA",
            "nama_se": "ORION BY PT ASURANSI JIWA SINARMAS MSIG TBK.",
            "sektor": "Sektor Keuangan, Sektor Keuangan",
            "tanggal_terbit": "2021-07-01",
            "url_tdpse_detail": "https://pse.komdigi.go.id/tdpse-detail/1637",
            "website": "-"
        },
        {
            "id": "9cb1aba9-b407-409b-9924-6315ddd7b922",
            "nama_pse": "MASA DEPAN SIBER INDONESIA",
            "nama_se": "JAGEL.ID",
            "sektor": "Sektor Teknologi Informasi dan Komunikasi, Sektor Teknologi Informasi dan Komunikasi, Sektor Teknologi Informasi dan Komunikasi",
            "tanggal_terbit": "2021-07-01",
            "url_tdpse_detail": "https://pse.komdigi.go.id/tdpse-detail/1605",
            "website": "web.jagel.id/id/cara-membuat-aplikasi"
        },
        {
            "id": "9cb1ab65-c6b2-4342-9fe8-6d21eb8fbac3",
            "nama_pse": "VELA INOVASI TEKNOLOGI",
            "nama_se": "CREDINEX",
            "sektor": "Sektor Perdagangan, Sektor Perdagangan, Sektor Teknologi Informasi dan Komunikasi, Sektor Teknologi Informasi dan Komunikasi",
            "tanggal_terbit": "2021-06-25",
            "url_tdpse_detail": "https://pse.komdigi.go.id/tdpse-detail/1601",
            "website": "credinex.id"
        },
        {
            "id": "9cb1ab6c-7a10-42bd-bae9-1b9c0f2a7a81",
            "nama_pse": "TEKNOLOGI INDONESIA SENTOSA",
            "nama_se": "ONE HOPE",
            "sektor": "Sektor Keuangan, Sektor Keuangan, Sektor Keuangan",
            "tanggal_terbit": "2021-06-25",
            "url_tdpse_detail": "https://pse.komdigi.go.id/tdpse-detail/1600",
            "website": "onehope.co.id"
        }
    ],
    "processingTimeMs": 10,
    "query": "",
    "totalHits": 19121,
    "hitsPerPage": 50,
    "page": 352,
    "totalPages": 383
}