{
    "hits": [
        {
            "id": "9cb1ab86-b244-4ab7-95e4-30e8bf7b10e0",
            "nama_pse": "BHINNEKA LIFE INDONESIA",
            "nama_se": "CORPORATE WEBSITE",
            "sektor": "Sektor Keuangan, Sektor Keuangan",
            "tanggal_terbit": "2021-02-23",
            "url_tdpse_detail": "https://pse.komdigi.go.id/tdpse-detail/44",
            "website": "bhinnekalife.com"
        },
        {
            "id": "9cb1ab86-babb-4586-9d7c-73e1f57ef5fa",
            "nama_pse": "BHINNEKA LIFE INDONESIA",
            "nama_se": "BHINNEKA LIFE AGENCY TOOLS (BLAT)",
            "sektor": "Sektor Keuangan, Sektor Keuangan",
            "tanggal_terbit": "2021-02-23",
            "url_tdpse_detail": "https://pse.komdigi.go.id/tdpse-detail/45",
            "website": "blat.bhinnekalife.com"
        },
        {
            "id": "9cb1ab8e-3fa5-4c67-a718-e2a71f350a4c",
            "nama_pse": "BHINNEKA LIFE INDONESIA",
            "nama_se": "B-STAR",
            "sektor": "Sektor Keuangan, Sektor Keuangan",
            "tanggal_terbit": "2021-02-23",
            "url_tdpse_detail": "https://pse.komdigi.go.id/tdpse-detail/46",
            "website": "bstar.bhinnekalife.com"
        },
        {
            "id": "9cb1ab8e-42cf-4359-a957-1d45aacd1df3",
            "nama_pse": "BHINNEKA LIFE INDONESIA",
            "nama_se": "BFLASH",
            "sektor": "Sektor Keuangan, Sektor Keuangan",
            "tanggal_terbit": "2021-02-23",
            "url_tdpse_detail": "https://pse.komdigi.go.id/tdpse-detail/47",
            "website": "-"
        },
        {
            "id": "9cb1aba9-c450-454f-8e77-cf71a086a95a",
            "nama_pse": "AUSTINDO INFORMATIKA DEWATA",
            "nama_se": "WEBSITE",
            "sektor": "Sektor Perdagangan, Sektor Perdagangan",
            "tanggal_terbit": "2021-02-23",
            "url_tdpse_detail": "https://pse.komdigi.go.id/tdpse-detail/55",
            "website": "geonet.me"
        },
        {
            "id": "9cb1ab8c-7e25-4183-adfc-4bc62dd1b7b0",
            "nama_pse": "FINTEK ANDALAN SOLUSI TEKNOLOGI",
            "nama_se": "FULUSME",
            "sektor": "Sektor Keuangan, Sektor Keuangan, Sektor Keuangan, Sektor Teknologi Informasi dan Komunikasi, Sektor Teknologi Informasi dan Komunikasi, Sektor Teknologi Informasi dan Komunikasi",
            "tanggal_terbit": "2021-02-23",
            "url_tdpse_detail": "https://pse.komdigi.go.id/tdpse-detail/124",
            "website": "fulusme.id"
        },
        {
            "id": "9cb1ab7e-5230-4772-8e11-e544ecee55c8",
            "nama_pse": "CHUBB GENERAL INSURANCE INDONESIA",
            "nama_se": "CHUBB TRAVEL",
            "sektor": "Sektor Keuangan, Sektor Keuangan",
            "tanggal_terbit": "2021-02-23",
            "url_tdpse_detail": "https://pse.komdigi.go.id/tdpse-detail/31",
            "website": "chubbtravelinsurance.co.id"
        },
        {
            "id": "9cb1ab8b-ada5-460a-8629-591e6308964b",
            "nama_pse": "LEHOLEH RASA NUSANTARA JAYA",
            "nama_se": "LEHOLEH INDONESIA",
            "sektor": "Sektor Perdagangan, Sektor Perdagangan, Sektor Teknologi Informasi dan Komunikasi, Sektor Teknologi Informasi dan Komunikasi",
            "tanggal_terbit": "2021-02-22",
            "url_tdpse_detail": "https://pse.komdigi.go.id/tdpse-detail/25",
            "website": "leholeh.co.id"
        },
        {
            "id": "9cb1ab7b-dbf6-4f15-bd59-a8c509653562",
            "nama_pse": "RUPIAH TOKEN INDONESIA",
            "nama_se": "RUPIAH TOKEN",
            "sektor": "Sektor Teknologi Informasi dan Komunikasi, Sektor Teknologi Informasi dan Komunikasi",
            "tanggal_terbit": "2021-02-22",
            "url_tdpse_detail": "https://pse.komdigi.go.id/tdpse-detail/24",
            "website": "rupiahtoken.com"
        },
        {
            "id": "9cb1ab8b-b857-4ea1-b6da-814559e74a0d",
            "nama_pse": "PEMASOK MITRA PEMBELI",
            "nama_se": "APLIKASI PEMPEM",
            "sektor": "Sektor Perdagangan, Sektor Perdagangan",
            "tanggal_terbit": "2021-02-22",
            "url_tdpse_detail": "https://pse.komdigi.go.id/tdpse-detail/27",
            "website": "pempem.org"
        },
        {
            "id": "9cb1aba9-c247-4d8d-979c-e09db5dc57ae",
            "nama_pse": "ASLI RANCANGAN INDONESIA",
            "nama_se": "ASLI RI",
            "sektor": "Sektor Teknologi Informasi dan Komunikasi, Sektor Teknologi Informasi dan Komunikasi",
            "tanggal_terbit": "2021-02-22",
            "url_tdpse_detail": "https://pse.komdigi.go.id/tdpse-detail/26",
            "website": "asliri.id"
        },
        {
            "id": "9cb1ab8b-245a-4494-90b6-df8a725c4f9b",
            "nama_pse": "DOMPET HARAPAN BANGSA",
            "nama_se": "OY! INDONESIA",
            "sektor": "Sektor Keuangan, Sektor Keuangan, Sektor Keuangan, Sektor Keuangan",
            "tanggal_terbit": "2021-02-21",
            "url_tdpse_detail": "https://pse.komdigi.go.id/tdpse-detail/20",
            "website": "oyindonesia.com/id/"
        },
        {
            "id": "9cb1ab8b-27e4-49b2-8836-eb265f3c19d6",
            "nama_pse": "INTRAJASA TEKNOSOLUSI",
            "nama_se": "LAYANAN PENGIRIMAN UANG/TRANSFER DANA  DAN SISTEM  PEMBAYARAN YANG TERAUTOMASI",
            "sektor": "Sektor Keuangan, Sektor Keuangan, Sektor Keuangan",
            "tanggal_terbit": "2021-02-21",
            "url_tdpse_detail": "https://pse.komdigi.go.id/tdpse-detail/19",
            "website": "intrajasa.id"
        },
        {
            "id": "9cb1ab8b-8078-4a50-bb89-5a73352f2c22",
            "nama_pse": "ETHES KELUARGA SEJAHTERA INDONESIA",
            "nama_se": "EKSI",
            "sektor": "Sektor Perdagangan, Sektor Perdagangan, Sektor Teknologi Informasi dan Komunikasi, Sektor Teknologi Informasi dan Komunikasi",
            "tanggal_terbit": "2021-02-21",
            "url_tdpse_detail": "https://pse.komdigi.go.id/tdpse-detail/21",
            "website": "eksiku.com"
        },
        {
            "id": "9cb1ab8b-9147-490d-81ef-4c27a3c75749",
            "nama_pse": "POTRET MEDIATAMA INDONESIA",
            "nama_se": "PORTAL BERITA WEB",
            "sektor": "Sektor Perdagangan, Sektor Perdagangan, Sektor Teknologi Informasi dan Komunikasi, Sektor Teknologi Informasi dan Komunikasi",
            "tanggal_terbit": "2021-02-21",
            "url_tdpse_detail": "https://pse.komdigi.go.id/tdpse-detail/22",
            "website": "potretwarta.co.id"
        },
        {
            "id": "9cb1ab83-8ff7-458b-ad9b-118453b2d042",
            "nama_pse": "JAFRA COSMETICS INDONESIA",
            "nama_se": "PENDAFTARAN KONSULTAN/MEMBER DAN PEMESANAN \u0026 PEMBELIAN BARANG ONLINE",
            "sektor": "Sektor Perdagangan, Sektor Perdagangan",
            "tanggal_terbit": "2021-02-20",
            "url_tdpse_detail": "https://pse.komdigi.go.id/tdpse-detail/17",
            "website": "jafra.co.id"
        },
        {
            "id": "9cb1ab83-95a4-4efd-8335-fcd7bf843d21",
            "nama_pse": "LEMONILO INDONESIA HEBAT",
            "nama_se": "LEMONILO",
            "sektor": "Sektor Perdagangan, Sektor Perdagangan",
            "tanggal_terbit": "2021-02-20",
            "url_tdpse_detail": "https://pse.komdigi.go.id/tdpse-detail/18",
            "website": "lemonilo.com"
        },
        {
            "id": "9cb1ab83-a65b-4747-a14d-623ff3970019",
            "nama_pse": "USAHA KARYA BINA MANDIRI",
            "nama_se": "BEEZZ",
            "sektor": "Sektor Teknologi Informasi dan Komunikasi",
            "tanggal_terbit": "2021-02-20",
            "url_tdpse_detail": "https://pse.komdigi.go.id/tdpse-detail/15",
            "website": "ukabima.id"
        },
        {
            "id": "9cb1ab8b-36db-41a6-aeb4-6fc34a566b9f",
            "nama_pse": "ZONA EDUKASI NUSANTARA",
            "nama_se": "ZENIUS.NET DAN APLIKASI MOBILE ZENIUS BELAJAR ONLINE",
            "sektor": "Sektor Perdagangan, Sektor Perdagangan, Sektor Perdagangan",
            "tanggal_terbit": "2021-02-19",
            "url_tdpse_detail": "https://pse.komdigi.go.id/tdpse-detail/13",
            "website": "zenius.net"
        },
        {
            "id": "9cb1ab83-9292-4488-a0bc-852f6c09e3a0",
            "nama_pse": "AMALAN INTERNATIONAL INDONESIA",
            "nama_se": "AMALAN.COM",
            "sektor": "Sektor Keuangan, Sektor Keuangan",
            "tanggal_terbit": "2021-02-19",
            "url_tdpse_detail": "https://pse.komdigi.go.id/tdpse-detail/14",
            "website": "amalan.com"
        },
        {
            "id": "9cb1ab83-3e58-4f94-98cc-c79057df79d2",
            "nama_pse": "JEJARING TIGA ARTHA",
            "nama_se": "ZI.CARE",
            "sektor": "Sektor Kesehatan, Sektor Kesehatan, Sektor Teknologi Informasi dan Komunikasi, Sektor Teknologi Informasi dan Komunikasi",
            "tanggal_terbit": "2021-02-18",
            "url_tdpse_detail": "https://pse.komdigi.go.id/tdpse-detail/6",
            "website": "zicare.id"
        },
        {
            "id": "9cb1ab7b-9b8c-45fe-a895-571555b60b4f",
            "nama_pse": "PROGRESSIVMEDIA INDONESIA",
            "nama_se": "TEMAN SEHAT (COM.TEMANSEHAT.PERSON, CO.ACHIKO.TEMANSEHAT-PERSON)",
            "sektor": "Sektor Perdagangan, Sektor Perdagangan, Sektor Perdagangan, Sektor Kesehatan, Sektor Kesehatan, Sektor Kesehatan, Sektor Teknologi Informasi dan Komunikasi, Sektor Teknologi Informasi dan Komunikasi, Sektor Teknologi Informasi dan Komunikasi",
            "tanggal_terbit": "2021-02-18",
            "url_tdpse_detail": "https://pse.komdigi.go.id/tdpse-detail/9",
            "website": "person-app.teman-sehat.co.id"
        },
        {
            "id": "9cb1ab83-6b05-41ca-9d79-a9292eaea0cc",
            "nama_pse": "KIOCHA MITRA ABADI",
            "nama_se": "KIOCHA",
            "sektor": "Sektor Perdagangan, Sektor Perdagangan",
            "tanggal_terbit": "2021-02-18",
            "url_tdpse_detail": "https://pse.komdigi.go.id/tdpse-detail/7",
            "website": "kiocha.com"
        },
        {
            "id": "9cb1ab83-7712-4ea9-9a1e-0008bd69326d",
            "nama_pse": "AIA FINANCIAL",
            "nama_se": "AIA VITALITY",
            "sektor": "Sektor Keuangan, Sektor Keuangan",
            "tanggal_terbit": "2021-02-18",
            "url_tdpse_detail": "https://pse.komdigi.go.id/tdpse-detail/8",
            "website": "Vitality.co.id"
        },
        {
            "id": "9cb1ab8b-5e41-41fc-94a8-355e640587e8",
            "nama_pse": "LEO NETWORK TECH",
            "nama_se": "PRIVATE ZONE",
            "sektor": "Sektor Teknologi Informasi dan Komunikasi, Sektor Teknologi Informasi dan Komunikasi",
            "tanggal_terbit": "2021-02-18",
            "url_tdpse_detail": "https://pse.komdigi.go.id/tdpse-detail/10",
            "website": "id.leomaster.com"
        },
        {
            "id": "9cb1ab8b-65e0-4e80-a527-d7736ed7e939",
            "nama_pse": "CTRIP TECHNOLOGY INDONESIA",
            "nama_se": "CTRIP360.COM",
            "sektor": "Sektor Teknologi Informasi dan Komunikasi, Sektor Teknologi Informasi dan Komunikasi",
            "tanggal_terbit": "2021-02-18",
            "url_tdpse_detail": "https://pse.komdigi.go.id/tdpse-detail/12",
            "website": "ctrip360.com"
        },
        {
            "id": "9cb1ab8b-0583-41da-9618-d461b98a83f3",
            "nama_pse": "ADA AJA BUAT KAMU",
            "nama_se": "ADJEK",
            "sektor": "Sektor Perdagangan, Sektor Perdagangan, Sektor Transportasi, Sektor Transportasi, Sektor Teknologi Informasi dan Komunikasi, Sektor Teknologi Informasi dan Komunikasi",
            "tanggal_terbit": "2021-02-17",
            "url_tdpse_detail": "https://pse.komdigi.go.id/tdpse-detail/1",
            "website": "adjek.id"
        },
        {
            "id": "9cb1ab83-3b4b-4b2a-994c-ec5b6a771c93",
            "nama_pse": "KREDITKU TEKNOLOGI INDONESIA",
            "nama_se": "KREDINESIA",
            "sektor": "Sektor Keuangan, Sektor Keuangan",
            "tanggal_terbit": "2021-02-17",
            "url_tdpse_detail": "https://pse.komdigi.go.id/tdpse-detail/3",
            "website": "kredinesia.id"
        },
        {
            "id": "9cb1ab7b-b6c3-4a9e-9834-5ce6b6271a7e",
            "nama_pse": "KENCANA MADANI INVESTAMA",
            "nama_se": "KKMI MOBILE",
            "sektor": "Sektor Keuangan, Sektor Keuangan, Sektor Teknologi Informasi dan Komunikasi, Sektor Teknologi Informasi dan Komunikasi",
            "tanggal_terbit": "2021-02-17",
            "url_tdpse_detail": "https://pse.komdigi.go.id/tdpse-detail/4",
            "website": "koperasikencanamadani.co.id"
        },
        {
            "id": "9cb1ab8b-3caf-4d6e-a01d-e56989ad192a",
            "nama_pse": "KENCANA MADANI INVESTAMA",
            "nama_se": "KKMI MOBILE",
            "sektor": "Sektor Keuangan, Sektor Keuangan",
            "tanggal_terbit": "2021-02-17",
            "url_tdpse_detail": "https://pse.komdigi.go.id/tdpse-detail/5",
            "website": "koperasikencanamadani.co.id"
        },
        {
            "id": "9cb1ab8d-f192-4b1a-805f-80f6219c99cb",
            "nama_pse": "ASURANSI CIPUTRA INDONESIA",
            "nama_se": "EBUY (E-COMMERCE)",
            "sektor": "Sektor Keuangan, Sektor Keuangan, Sektor Keuangan",
            "tanggal_terbit": "2021-02-17",
            "url_tdpse_detail": "https://pse.komdigi.go.id/tdpse-detail/2",
            "website": "asuransireceh.co.id"
        }
    ],
    "processingTimeMs": 10,
    "query": "",
    "totalHits": 19131,
    "hitsPerPage": 50,
    "page": 383,
    "totalPages": 383
}