{
    "hits": [
        {
            "id": "9ce2c198-8461-4127-814c-0710b960daab",
            "nama_pse": "KOLEGA JASA LEGAL",
            "nama_se": "kolegajasa legal",
            "sektor": "Sektor Perdagangan",
            "tanggal_terbit": "2024-08-30",
            "url_tdpse_detail": "https://pse.komdigi.go.id/tdpse-detail/20178",
            "website": "kolegajasalegal.com"
        },
        {
            "id": "9ce3b0bf-16e9-42da-b7c7-0d291e9b25b6",
            "nama_pse": "AGROBISNIS KOMODITAS INDONESIA",
            "nama_se": "SIPORI",
            "sektor": "Sektor Pangan",
            "tanggal_terbit": "2024-08-30",
            "url_tdpse_detail": "https://pse.komdigi.go.id/tdpse-detail/20190",
            "website": "agrasi.id"
        },
        {
            "id": "9ce362c7-9efd-427a-9198-6e5a2c220c91",
            "nama_pse": "AURIGA ENERGI",
            "nama_se": "PROMIS",
            "sektor": "Sektor Energi dan Sumber Daya Mineral",
            "tanggal_terbit": "2024-08-30",
            "url_tdpse_detail": "https://pse.komdigi.go.id/tdpse-detail/20188",
            "website": "app.promis.co.id"
        },
        {
            "id": "9ce35dba-eb9a-4f7d-bdf6-1a964a4000d1",
            "nama_pse": "INDO SUKSES MANDIRI",
            "nama_se": "YOOPAY",
            "sektor": "Sektor Keuangan",
            "tanggal_terbit": "2024-08-30",
            "url_tdpse_detail": "https://pse.komdigi.go.id/tdpse-detail/20187",
            "website": "yoopay.co.id"
        },
        {
            "id": "9ce3a9f6-723e-4186-9b23-12a3627efa0c",
            "nama_pse": "MITRA JAYA ARYA SANIKA",
            "nama_se": "bedasudutpandang.id",
            "sektor": "Sektor Teknologi Informasi dan Komunikasi",
            "tanggal_terbit": "2024-08-30",
            "url_tdpse_detail": "https://pse.komdigi.go.id/tdpse-detail/20189",
            "website": "bedasudutpandang.id"
        },
        {
            "id": "9ce3f22a-78f9-413f-8ee5-47ae85fd9d99",
            "nama_pse": "ASRO DOT NET",
            "nama_se": "ASRO",
            "sektor": "Sektor Teknologi Informasi dan Komunikasi",
            "tanggal_terbit": "2024-08-30",
            "url_tdpse_detail": "https://pse.komdigi.go.id/tdpse-detail/20191",
            "website": "asro.net"
        },
        {
            "id": "9ce2ff77-b9c3-48cd-8586-4cbf43fead30",
            "nama_pse": "SUNDAY INS INDONESIA",
            "nama_se": "BACKOFFICE EASY SUNDAY",
            "sektor": "Sektor Teknologi Informasi dan Komunikasi",
            "tanggal_terbit": "2024-08-30",
            "url_tdpse_detail": "https://pse.komdigi.go.id/tdpse-detail/20183",
            "website": "back-office.id.easysunday.tech"
        },
        {
            "id": "9ce1bfcd-88ec-453d-a2c7-e3e7dcb65e7e",
            "nama_pse": "ARSA GEMA NUSANTARA",
            "nama_se": "PUSHBIKE EVENT AND RANKING SYSTEM",
            "sektor": "Sektor Teknologi Informasi dan Komunikasi",
            "tanggal_terbit": "2024-08-29",
            "url_tdpse_detail": "https://pse.komdigi.go.id/tdpse-detail/20174",
            "website": "pears.co.id"
        },
        {
            "id": "9ce0ed29-d688-4e09-84b8-9016f015a42c",
            "nama_pse": "TEKNOLOGI KONSTRUKSI BANGSA",
            "nama_se": "KONSTRUKSI.AI",
            "sektor": "Sektor Teknologi Informasi dan Komunikasi",
            "tanggal_terbit": "2024-08-29",
            "url_tdpse_detail": "https://pse.komdigi.go.id/tdpse-detail/20165",
            "website": "konstruksi.ai"
        },
        {
            "id": "9ce0e540-88fb-4251-a095-5b530ab90fd6",
            "nama_pse": "MNC ASURANSI INDONESIA",
            "nama_se": "MOTION SAFE WEB APPLICATION",
            "sektor": "Sektor Keuangan",
            "tanggal_terbit": "2024-08-29",
            "url_tdpse_detail": "https://pse.komdigi.go.id/tdpse-detail/20164",
            "website": "motionsafe.id"
        },
        {
            "id": "9ce0a747-e73b-4807-847a-98504211d3d5",
            "nama_pse": "SAKA JAYA NUSANTARA",
            "nama_se": "perizinan legal",
            "sektor": "Sektor Perdagangan",
            "tanggal_terbit": "2024-08-29",
            "url_tdpse_detail": "https://pse.komdigi.go.id/tdpse-detail/20163",
            "website": "perizinan-legal.com"
        },
        {
            "id": "9ce05e25-c2f8-4122-b2cf-88620c167a56",
            "nama_pse": "HENDRIK SUHERLAN",
            "nama_se": "intani fashions ifstore",
            "sektor": "Sektor Perdagangan",
            "tanggal_terbit": "2024-08-29",
            "url_tdpse_detail": "https://pse.komdigi.go.id/tdpse-detail/20162",
            "website": "intanifashionsifstore.com"
        },
        {
            "id": "9ce127eb-fb5c-407c-9c7d-f234488edfae",
            "nama_pse": "JULO TEKNOLOGI PERDANA",
            "nama_se": "JULO 360 (APLIKASI)",
            "sektor": "Sektor Perdagangan, Sektor Teknologi Informasi dan Komunikasi",
            "tanggal_terbit": "2024-08-29",
            "url_tdpse_detail": "https://pse.komdigi.go.id/tdpse-detail/20169",
            "website": "-"
        },
        {
            "id": "9ce13745-ef8d-45bb-a0d6-c283c62c7424",
            "nama_pse": "KITA SOLUSI PINTAR",
            "nama_se": "pasarkpr.id",
            "sektor": "Sektor Teknologi Informasi dan Komunikasi",
            "tanggal_terbit": "2024-08-29",
            "url_tdpse_detail": "https://pse.komdigi.go.id/tdpse-detail/20170",
            "website": "pasarkpr.id"
        },
        {
            "id": "9ce1545e-7530-4dfb-8daa-123e21240a1f",
            "nama_pse": "TIGA PUTRA BANGKA BERSATU",
            "nama_se": "3 Putra Tour dan Hotel",
            "sektor": "Sektor Transportasi",
            "tanggal_terbit": "2024-08-29",
            "url_tdpse_detail": "https://pse.komdigi.go.id/tdpse-detail/20171",
            "website": "web.3putrahoteltour.com"
        },
        {
            "id": "9ce1a6bd-4278-480f-a50c-3d983bd91178",
            "nama_pse": "ROFITA HERU",
            "nama_se": "WAAICRM",
            "sektor": "Sektor Teknologi Informasi dan Komunikasi",
            "tanggal_terbit": "2024-08-29",
            "url_tdpse_detail": "https://pse.komdigi.go.id/tdpse-detail/20172",
            "website": "waaicrm.com"
        },
        {
            "id": "9ce1033d-ad10-42e0-bc08-123668a501c9",
            "nama_pse": "PRO INT DINAMIKA",
            "nama_se": "PRO INT ERP",
            "sektor": "Sektor Teknologi Informasi dan Komunikasi",
            "tanggal_terbit": "2024-08-29",
            "url_tdpse_detail": "https://pse.komdigi.go.id/tdpse-detail/20166",
            "website": "erp.pro-int.com"
        },
        {
            "id": "9ce1ab67-1fbc-4241-a368-18b8ab915c1f",
            "nama_pse": "ISACHAN MICHAEL",
            "nama_se": "HIPOTALAMUS",
            "sektor": "Sektor Kesehatan",
            "tanggal_terbit": "2024-08-29",
            "url_tdpse_detail": "https://pse.komdigi.go.id/tdpse-detail/20173",
            "website": "-"
        },
        {
            "id": "9ce1d4c1-0d65-41d3-b439-a934915a667c",
            "nama_pse": "GEMA CENDEKIA GEMILANG",
            "nama_se": "GCGSALUS",
            "sektor": "Sektor Kesehatan",
            "tanggal_terbit": "2024-08-29",
            "url_tdpse_detail": "https://pse.komdigi.go.id/tdpse-detail/20175",
            "website": "gcgsalus.id"
        },
        {
            "id": "9ce11fdc-befd-46da-878a-f91d5457b32b",
            "nama_pse": "JULO TEKNOLOGI PERDANA",
            "nama_se": "JULO 360 (WEBSITE)",
            "sektor": "Sektor Perdagangan, Sektor Teknologi Informasi dan Komunikasi",
            "tanggal_terbit": "2024-08-29",
            "url_tdpse_detail": "https://pse.komdigi.go.id/tdpse-detail/20167",
            "website": "juloperdana.co.id"
        },
        {
            "id": "9cdefb4f-d304-4384-88e1-fef77e6e2046",
            "nama_pse": "PRAKOSO AJI SASMITO",
            "nama_se": "SIMRS AZURA",
            "sektor": "Sektor Kesehatan",
            "tanggal_terbit": "2024-08-28",
            "url_tdpse_detail": "https://pse.komdigi.go.id/tdpse-detail/20147",
            "website": "-"
        },
        {
            "id": "9cdf673a-a65f-4116-95ca-02ab6b32e89d",
            "nama_pse": "VINFAST AUTOMOBILE INDONESIA",
            "nama_se": "LOYALTY PLATFORM",
            "sektor": "Sektor Teknologi Informasi dan Komunikasi",
            "tanggal_terbit": "2024-08-28",
            "url_tdpse_detail": "https://pse.komdigi.go.id/tdpse-detail/20154",
            "website": "-"
        },
        {
            "id": "9cdee409-b382-4fb5-a028-05e4ec8ba87a",
            "nama_pse": "KEDAIMU LUMBUNG NUSANTARA",
            "nama_se": "KOOPERASI",
            "sektor": "Sektor Teknologi Informasi dan Komunikasi",
            "tanggal_terbit": "2024-08-28",
            "url_tdpse_detail": "https://pse.komdigi.go.id/tdpse-detail/20146",
            "website": "Kooperasi.com"
        },
        {
            "id": "9cdf132b-54f2-4dc8-b2fd-fedb7e4203a9",
            "nama_pse": "SOLUSI WISATA KREATIF",
            "nama_se": "APLIKASI LAYANAN HAJI DAN UMRAH JUMAT",
            "sektor": "Sektor Teknologi Informasi dan Komunikasi",
            "tanggal_terbit": "2024-08-28",
            "url_tdpse_detail": "https://pse.komdigi.go.id/tdpse-detail/20149",
            "website": "jumat.co.id"
        },
        {
            "id": "9cdf70e9-4176-429a-b243-0d08deff8879",
            "nama_pse": "MARITS MAHAKA INDONESIA",
            "nama_se": "MASTERKLINIK",
            "sektor": "Sektor Kesehatan",
            "tanggal_terbit": "2024-08-28",
            "url_tdpse_detail": "https://pse.komdigi.go.id/tdpse-detail/20155",
            "website": "masterklinik.com"
        },
        {
            "id": "9cdf4a09-349f-4caa-b71a-7b7ec96c6d3d",
            "nama_pse": "SALSABILA SAUSAN WINANDA",
            "nama_se": "PELITA CONNECT",
            "sektor": "Sektor Teknologi Informasi dan Komunikasi",
            "tanggal_terbit": "2024-08-28",
            "url_tdpse_detail": "https://pse.komdigi.go.id/tdpse-detail/20153",
            "website": "-"
        },
        {
            "id": "9cdf00fb-15ae-4d37-846f-655872a91a27",
            "nama_pse": "JANTRA GRUPO INDONESIA",
            "nama_se": "JANTRA ROYALE",
            "sektor": "Sektor Transportasi",
            "tanggal_terbit": "2024-08-28",
            "url_tdpse_detail": "https://pse.komdigi.go.id/tdpse-detail/20148",
            "website": "-"
        },
        {
            "id": "9cdf1ab3-2cd4-4522-a5b8-4de59415e779",
            "nama_pse": "BERUANG HARMONI SUKSES",
            "nama_se": "BERUANG HARMONI SUKSES",
            "sektor": "Sektor Teknologi Informasi dan Komunikasi",
            "tanggal_terbit": "2024-08-28",
            "url_tdpse_detail": "https://pse.komdigi.go.id/tdpse-detail/20150",
            "website": "beruangharmonisukses.com"
        },
        {
            "id": "9cdf43b1-4c25-4f12-9579-1e624428b910",
            "nama_pse": "RIZKI NURYULI",
            "nama_se": "ANGGARA NET",
            "sektor": "Sektor Teknologi Informasi dan Komunikasi",
            "tanggal_terbit": "2024-08-28",
            "url_tdpse_detail": "https://pse.komdigi.go.id/tdpse-detail/20151",
            "website": "-"
        },
        {
            "id": "9cdf44aa-f3cc-4671-b317-62a67ac61b97",
            "nama_pse": "BISNIS DIGITAL EKONOMI",
            "nama_se": "PT BISNIS DIGITAL EKONOMI",
            "sektor": "Sektor Teknologi Informasi dan Komunikasi",
            "tanggal_terbit": "2024-08-28",
            "url_tdpse_detail": "https://pse.komdigi.go.id/tdpse-detail/20152",
            "website": "ptbdee.com"
        },
        {
            "id": "9cdf7bde-a6fa-4379-b95c-010ac7140bd5",
            "nama_pse": "MATARAM ARTHA SENTOSA",
            "nama_se": "mataramartha",
            "sektor": "Sektor Perdagangan",
            "tanggal_terbit": "2024-08-28",
            "url_tdpse_detail": "https://pse.komdigi.go.id/tdpse-detail/20158",
            "website": "mataramartha.com"
        },
        {
            "id": "9cdf7bb0-62fd-443c-b385-eedf0936c34d",
            "nama_pse": "DHARMA MITRA SOLUSI",
            "nama_se": "PANGGIL AKU",
            "sektor": "Sektor Perdagangan, Sektor Teknologi Informasi dan Komunikasi",
            "tanggal_terbit": "2024-08-28",
            "url_tdpse_detail": "https://pse.komdigi.go.id/tdpse-detail/20157",
            "website": "panggilaku.com"
        },
        {
            "id": "9cd35802-aa2e-4360-9ea4-5d00fe682652",
            "nama_pse": "MULAI CIPTA SOLUSI",
            "nama_se": "EZSOLUSI",
            "sektor": "Sektor Teknologi Informasi dan Komunikasi",
            "tanggal_terbit": "2024-08-28",
            "url_tdpse_detail": "https://pse.komdigi.go.id/tdpse-detail/20161",
            "website": "ezsolusi.co.id"
        },
        {
            "id": "9cdf7490-a131-4200-a479-796d1bfb6001",
            "nama_pse": "D. HIDAYAT",
            "nama_se": "CITRA NET",
            "sektor": "Sektor Perdagangan",
            "tanggal_terbit": "2024-08-28",
            "url_tdpse_detail": "https://pse.komdigi.go.id/tdpse-detail/20156",
            "website": "-"
        },
        {
            "id": "9cdf7e89-6ba4-4dbb-adc6-c23383b8b2d3",
            "nama_pse": "ANNARINDO MULIA ABADI",
            "nama_se": "NEXASELLER",
            "sektor": "Sektor Teknologi Informasi dan Komunikasi",
            "tanggal_terbit": "2024-08-28",
            "url_tdpse_detail": "https://pse.komdigi.go.id/tdpse-detail/20159",
            "website": "nexaseller.com"
        },
        {
            "id": "9cdf847f-ac96-467f-b97c-0620da7502de",
            "nama_pse": "DAVIENA MANDIRI INDONESIA",
            "nama_se": "DAVIENA CLINIC RME",
            "sektor": "Sektor Kesehatan",
            "tanggal_terbit": "2024-08-28",
            "url_tdpse_detail": "https://pse.komdigi.go.id/tdpse-detail/20160",
            "website": "daviena.id"
        },
        {
            "id": "9cdcd2d3-bad3-440d-9cd0-3e3bcb647e92",
            "nama_pse": "KOMARUDIN",
            "nama_se": "BE-SPOT",
            "sektor": "Sektor Teknologi Informasi dan Komunikasi",
            "tanggal_terbit": "2024-08-27",
            "url_tdpse_detail": "https://pse.komdigi.go.id/tdpse-detail/20127",
            "website": "-"
        },
        {
            "id": "9cdd1ec0-bb10-400d-bbb6-cc3c535f6706",
            "nama_pse": "PSLOVE FEMHEALTH INDO",
            "nama_se": "BLOOD",
            "sektor": "Sektor Perdagangan",
            "tanggal_terbit": "2024-08-27",
            "url_tdpse_detail": "https://pse.komdigi.go.id/tdpse-detail/20133",
            "website": "id.getblood.com"
        },
        {
            "id": "9cdce0ca-7345-4679-af74-a27d5af1a997",
            "nama_pse": "CLOUD HOSTINGIN INDONESIA",
            "nama_se": "HOSTINGIN INDONESIA",
            "sektor": "Sektor Teknologi Informasi dan Komunikasi",
            "tanggal_terbit": "2024-08-27",
            "url_tdpse_detail": "https://pse.komdigi.go.id/tdpse-detail/20129",
            "website": "hostingin.co.id"
        },
        {
            "id": "9cb1ac5f-349a-4d19-865f-d6925834f8da",
            "nama_pse": "PASARPOLIS INSURANCE BROKER",
            "nama_se": "MITRA APP",
            "sektor": "Sektor Keuangan",
            "tanggal_terbit": "2024-08-27",
            "url_tdpse_detail": "https://pse.komdigi.go.id/tdpse-detail/20134",
            "website": "-"
        },
        {
            "id": "9cdd21d6-b167-4fe5-8bd2-3c46303bc5ad",
            "nama_pse": "MNC ASURANSI INDONESIA",
            "nama_se": "MOTION SAFE",
            "sektor": "Sektor Keuangan",
            "tanggal_terbit": "2024-08-27",
            "url_tdpse_detail": "https://pse.komdigi.go.id/tdpse-detail/20136",
            "website": "-"
        },
        {
            "id": "9cdcde24-796d-47b1-935f-d325e432d563",
            "nama_pse": "MARADEKATECH",
            "nama_se": "simkemas",
            "sektor": "Sektor Teknologi Informasi dan Komunikasi",
            "tanggal_terbit": "2024-08-27",
            "url_tdpse_detail": "https://pse.komdigi.go.id/tdpse-detail/20128",
            "website": "simkemas.maradekatech.com"
        },
        {
            "id": "9cdd00a3-5448-4ff7-b8de-c75e0d8d30c2",
            "nama_pse": "ARIEL",
            "nama_se": "GRAPHIE",
            "sektor": "Sektor Teknologi Informasi dan Komunikasi",
            "tanggal_terbit": "2024-08-27",
            "url_tdpse_detail": "https://pse.komdigi.go.id/tdpse-detail/20131",
            "website": "graphie.co.id"
        },
        {
            "id": "9cdce93b-9279-4d03-88f6-9f9ceb09f9ba",
            "nama_pse": "ASTRA HONDA MOTOR",
            "nama_se": "HONDA ROADSYNC",
            "sektor": "Sektor Perdagangan, Sektor Transportasi",
            "tanggal_terbit": "2024-08-27",
            "url_tdpse_detail": "https://pse.komdigi.go.id/tdpse-detail/20130",
            "website": "-"
        },
        {
            "id": "9cdd06aa-2118-4b1f-ae2e-0d9ccef7979d",
            "nama_pse": "MAJELIS PENDIDIKAN TINGGI KAHMI",
            "nama_se": "AICLASS (LEARNING MANAGEMENT SYSTEM – FEATURING ARTIFICIAL INTELLIGENCE)",
            "sektor": "Sektor Teknologi Informasi dan Komunikasi",
            "tanggal_terbit": "2024-08-27",
            "url_tdpse_detail": "https://pse.komdigi.go.id/tdpse-detail/20132",
            "website": "uici.ac.id"
        },
        {
            "id": "9cdd219c-9ba3-4959-a65c-e7af23d00453",
            "nama_pse": "ASURANSI JIWA SYARIAH KITABISA",
            "nama_se": "asuransikitabisa.com",
            "sektor": "Sektor Keuangan",
            "tanggal_terbit": "2024-08-27",
            "url_tdpse_detail": "https://pse.komdigi.go.id/tdpse-detail/20135",
            "website": "asuransikitabisa.com"
        },
        {
            "id": "9cdd3a47-4c3b-4292-bf1e-012d0c5e63d2",
            "nama_pse": "TYMY TEH INDONESIA",
            "nama_se": "TYMYS",
            "sektor": "Sektor Teknologi Informasi dan Komunikasi",
            "tanggal_terbit": "2024-08-27",
            "url_tdpse_detail": "https://pse.komdigi.go.id/tdpse-detail/20137",
            "website": "ctid.tymys.com"
        },
        {
            "id": "9cdd7490-8219-4763-ab10-5f30f8a2f12d",
            "nama_pse": "TIGA PUTRA BANGKA BERSATU",
            "nama_se": "3Putra Hotel Tour",
            "sektor": "Sektor Transportasi",
            "tanggal_terbit": "2024-08-27",
            "url_tdpse_detail": "https://pse.komdigi.go.id/tdpse-detail/20143",
            "website": "3putrahoteltour.com"
        },
        {
            "id": "9cdd4c17-7536-4153-af1b-ec8f1d735b21",
            "nama_pse": "SOLUSI KEUANGAN BERSAMA",
            "nama_se": "BISALUNAS",
            "sektor": "Sektor Perdagangan",
            "tanggal_terbit": "2024-08-27",
            "url_tdpse_detail": "https://pse.komdigi.go.id/tdpse-detail/20138",
            "website": "bisalunas.id"
        },
        {
            "id": "9cdd67f8-56c7-4be7-a3c7-081de6b117f0",
            "nama_pse": "BESARINDO JAYA SUKSES",
            "nama_se": "BESA IINDO JAYA SUKSES",
            "sektor": "Sektor Perdagangan",
            "tanggal_terbit": "2024-08-27",
            "url_tdpse_detail": "https://pse.komdigi.go.id/tdpse-detail/20140",
            "website": "besarindojayasukses.web.id"
        }
    ],
    "processingTimeMs": 1,
    "query": "",
    "totalHits": 19121,
    "hitsPerPage": 50,
    "page": 44,
    "totalPages": 383
}