{
    "hits": [
        {
            "id": "9cb1ac27-39a3-4524-b669-ce7b300d9d3e",
            "nama_pse": "JURNAL INDONESIA GROUP",
            "nama_se": "JURNALRIAU.COM",
            "sektor": "Sektor Teknologi Informasi dan Komunikasi",
            "tanggal_terbit": "2023-08-19",
            "url_tdpse_detail": "https://pse.komdigi.go.id/tdpse-detail/15611",
            "website": "jurnalriau.com"
        },
        {
            "id": "9cb1ac39-ec00-47eb-825e-788d8253916a",
            "nama_pse": "Sorsawo Digital",
            "nama_se": "SORSAWO DIGITAL",
            "sektor": "Sektor Teknologi Informasi dan Komunikasi",
            "tanggal_terbit": "2023-08-19",
            "url_tdpse_detail": "https://pse.komdigi.go.id/tdpse-detail/15612",
            "website": "sorsawo.com"
        },
        {
            "id": "9cb1ac27-3d78-41d4-93e8-2398df872a6b",
            "nama_pse": "JASA JAGO CORP",
            "nama_se": "JASA JAGO",
            "sektor": "Sektor Perdagangan, Sektor Teknologi Informasi dan Komunikasi",
            "tanggal_terbit": "2023-08-19",
            "url_tdpse_detail": "https://pse.komdigi.go.id/tdpse-detail/15613",
            "website": "jasajago.my.id"
        },
        {
            "id": "9cb1ac27-4754-42d8-af26-b8f7004ced0c",
            "nama_pse": "SUARA MASSA MEDIA",
            "nama_se": "SUARAMASSA.CO.ID",
            "sektor": "Sektor Teknologi Informasi dan Komunikasi",
            "tanggal_terbit": "2023-08-19",
            "url_tdpse_detail": "https://pse.komdigi.go.id/tdpse-detail/15614",
            "website": "suaramassa.co.id"
        },
        {
            "id": "9cb1ac26-b285-4ee6-8e5f-4c11179f4f61",
            "nama_pse": "BENSAE KREASI INDONESIA",
            "nama_se": "MEDISAE SIMRS",
            "sektor": "Sektor Kesehatan, Sektor Teknologi Informasi dan Komunikasi",
            "tanggal_terbit": "2023-08-18",
            "url_tdpse_detail": "https://pse.komdigi.go.id/tdpse-detail/15606",
            "website": "simrs.bensae.id"
        },
        {
            "id": "9cb1ac27-0d01-47c2-a448-6487206b5ed3",
            "nama_pse": "SATRIA ANTARAN PRIMA",
            "nama_se": "CORESYS",
            "sektor": "Sektor Transportasi, Sektor Teknologi Informasi dan Komunikasi",
            "tanggal_terbit": "2023-08-18",
            "url_tdpse_detail": "https://pse.komdigi.go.id/tdpse-detail/15602",
            "website": "ONLINE.CORESYSSAP.COM"
        },
        {
            "id": "9cb1ac27-0fb5-4783-be82-ac4185b9e50e",
            "nama_pse": "KUY DIGITAL TECHNOLOGY",
            "nama_se": "TOPUPKUY.ID",
            "sektor": "Sektor Perdagangan, Sektor Teknologi Informasi dan Komunikasi",
            "tanggal_terbit": "2023-08-18",
            "url_tdpse_detail": "https://pse.komdigi.go.id/tdpse-detail/15601",
            "website": "topupkuy.id"
        },
        {
            "id": "9cb1ac27-1e05-4a64-a3c4-8a1237ad9b80",
            "nama_pse": "ORISUL DIGITAL AGENSI",
            "nama_se": "LIHAI",
            "sektor": "Sektor Teknologi Informasi dan Komunikasi",
            "tanggal_terbit": "2023-08-18",
            "url_tdpse_detail": "https://pse.komdigi.go.id/tdpse-detail/15603",
            "website": "lih.ai"
        },
        {
            "id": "9cb1ac39-ce84-478b-9b1a-247ff0720a50",
            "nama_pse": "PANTI RAPIH",
            "nama_se": "SISTEM INFORMASI MANAJEMEN \u0026 ARTIFISIAN INTELLIGIENCE PANTI NUGROHO (SIMLENUG)",
            "sektor": "Sektor Kesehatan",
            "tanggal_terbit": "2023-08-18",
            "url_tdpse_detail": "https://pse.komdigi.go.id/tdpse-detail/15604",
            "website": "pantinugroho.or.id"
        },
        {
            "id": "9cb1ac27-2529-4a64-bde0-c949d8a9ab07",
            "nama_pse": "SYSTEM DESIGN CENTER",
            "nama_se": "XPRESSO WEB APPLIKASI",
            "sektor": "Sektor Teknologi Informasi dan Komunikasi",
            "tanggal_terbit": "2023-08-18",
            "url_tdpse_detail": "https://pse.komdigi.go.id/tdpse-detail/15605",
            "website": "sdc-soft.com"
        },
        {
            "id": "9cb1ac39-da29-41b2-9737-59031e7b777e",
            "nama_pse": "KEAMANAN DATA INDONESIA",
            "nama_se": "COMPLY",
            "sektor": "Sektor Teknologi Informasi dan Komunikasi",
            "tanggal_terbit": "2023-08-18",
            "url_tdpse_detail": "https://pse.komdigi.go.id/tdpse-detail/15607",
            "website": "comply.id"
        },
        {
            "id": "9cb1ac39-e0a2-4910-9fd9-5675db6c1dad",
            "nama_pse": "POSKOMEDIA MITRA KREASI",
            "nama_se": "APLIKASI",
            "sektor": "Sektor Perdagangan, Sektor Transportasi, Sektor Teknologi Informasi dan Komunikasi",
            "tanggal_terbit": "2023-08-18",
            "url_tdpse_detail": "https://pse.komdigi.go.id/tdpse-detail/15608",
            "website": "-"
        },
        {
            "id": "9cb1ac49-2d03-406b-8eee-d2111d5d8229",
            "nama_pse": "SIGMA INDONESIA TECHNOLOGY",
            "nama_se": "FIRSTMEDIS",
            "sektor": "Sektor Kesehatan",
            "tanggal_terbit": "2023-08-17",
            "url_tdpse_detail": "https://pse.komdigi.go.id/tdpse-detail/15595",
            "website": "firstmedis.co.id"
        },
        {
            "id": "9cb1ac27-05c1-4f63-85aa-8800c987ebf2",
            "nama_pse": "DIGIKREATIF TEKNOLOGI INDONESIA",
            "nama_se": "ASN INSTITUTE",
            "sektor": "Sektor Teknologi Informasi dan Komunikasi",
            "tanggal_terbit": "2023-08-17",
            "url_tdpse_detail": "https://pse.komdigi.go.id/tdpse-detail/15596",
            "website": "asninstitute.id"
        },
        {
            "id": "9cb1ac49-31ee-4685-8052-450b3b275bb8",
            "nama_pse": "SIGMA INDONESIA TECHNOLOGY",
            "nama_se": "SIMASTER",
            "sektor": "Sektor Teknologi Informasi dan Komunikasi",
            "tanggal_terbit": "2023-08-17",
            "url_tdpse_detail": "https://pse.komdigi.go.id/tdpse-detail/15597",
            "website": "-"
        },
        {
            "id": "9cb1ac39-c22a-4363-9f4f-620391b1f083",
            "nama_pse": "IMRON HADI GROUP",
            "nama_se": "METROPAGI.ID",
            "sektor": "Sektor Teknologi Informasi dan Komunikasi",
            "tanggal_terbit": "2023-08-17",
            "url_tdpse_detail": "https://pse.komdigi.go.id/tdpse-detail/15599",
            "website": "Metropagi.id"
        },
        {
            "id": "9cb1ac49-35ad-48bf-88fd-e8b142c84f4f",
            "nama_pse": "JEMBAR REJEKI",
            "nama_se": "SEHATI - SISTEM INFORMASI SEHAT INTEGRASI",
            "sektor": "Sektor Kesehatan, Sektor Teknologi Informasi dan Komunikasi",
            "tanggal_terbit": "2023-08-17",
            "url_tdpse_detail": "https://pse.komdigi.go.id/tdpse-detail/15600",
            "website": "-"
        },
        {
            "id": "9cb1ac37-d123-4df1-b3c2-deeb8d61bdbd",
            "nama_pse": "CAKRA HUSADA",
            "nama_se": "SIMRS-CAKRA HUSADA",
            "sektor": "Sektor Kesehatan",
            "tanggal_terbit": "2023-08-16",
            "url_tdpse_detail": "https://pse.komdigi.go.id/tdpse-detail/15579",
            "website": "rscakrahusada.com"
        },
        {
            "id": "9cb1ac39-5253-4428-9151-1ca5422de90e",
            "nama_pse": "SOLUSI NUSANTARA BERDIKARI",
            "nama_se": "SNB SIMRS",
            "sektor": "Sektor Teknologi Informasi dan Komunikasi",
            "tanggal_terbit": "2023-08-16",
            "url_tdpse_detail": "https://pse.komdigi.go.id/tdpse-detail/15584",
            "website": "-"
        },
        {
            "id": "9cb1ac39-6897-4f5f-b3ce-4531554184b6",
            "nama_pse": "ASURANSI JIWA CENTRAL ASIA RAYA",
            "nama_se": "DPLK CENTRAL ASIA RAYA",
            "sektor": "Sektor Keuangan",
            "tanggal_terbit": "2023-08-16",
            "url_tdpse_detail": "https://pse.komdigi.go.id/tdpse-detail/15578",
            "website": "danapensiun.car.co.id"
        },
        {
            "id": "9cb1ac49-1929-4e57-8f3a-8d1617461a63",
            "nama_pse": "EXINDO INFORMATION TECHNOLOGY",
            "nama_se": "SISTEM INFORMASI MANAJEMEN RUMAH SAKIT TERINTEGRASI",
            "sektor": "Sektor Teknologi Informasi dan Komunikasi",
            "tanggal_terbit": "2023-08-16",
            "url_tdpse_detail": "https://pse.komdigi.go.id/tdpse-detail/15577",
            "website": "-"
        },
        {
            "id": "9cb1ac39-7508-4e11-8a9d-69574d897579",
            "nama_pse": "ABKREATOR PRATAMA",
            "nama_se": "ABHEALTH",
            "sektor": "Sektor Kesehatan",
            "tanggal_terbit": "2023-08-16",
            "url_tdpse_detail": "https://pse.komdigi.go.id/tdpse-detail/15580",
            "website": "-"
        },
        {
            "id": "9cb1ac39-79d3-4203-9c39-91f3e01794df",
            "nama_pse": "PAYWATCH SOLUTIONS INDONESIA",
            "nama_se": "paywatch.co.id",
            "sektor": "Sektor Teknologi Informasi dan Komunikasi",
            "tanggal_terbit": "2023-08-16",
            "url_tdpse_detail": "https://pse.komdigi.go.id/tdpse-detail/15588",
            "website": "paywatch.com"
        },
        {
            "id": "9cb1ac39-7d45-4479-951e-948d855d4ed2",
            "nama_pse": "EXINDO INFORMATION TECHNOLOGY",
            "nama_se": "CYBERHOSPITAL ( SIMRS TERINTEGRASI)",
            "sektor": "Sektor Teknologi Informasi dan Komunikasi",
            "tanggal_terbit": "2023-08-16",
            "url_tdpse_detail": "https://pse.komdigi.go.id/tdpse-detail/15583",
            "website": "-"
        },
        {
            "id": "9cb1ac49-1fdd-4c9f-aa0c-2ed946d2bbee",
            "nama_pse": "SRIBOGA MARUGAME INDONESIA",
            "nama_se": "MARUGAME UDON",
            "sektor": "Sektor Perdagangan",
            "tanggal_terbit": "2023-08-16",
            "url_tdpse_detail": "https://pse.komdigi.go.id/tdpse-detail/15581",
            "website": "-"
        },
        {
            "id": "9cb1ac39-8537-40c8-b687-f2124a023cfa",
            "nama_pse": "HARTA INTERNATIONAL INVESTAMA",
            "nama_se": "METATRADER 5",
            "sektor": "Sektor Perdagangan",
            "tanggal_terbit": "2023-08-16",
            "url_tdpse_detail": "https://pse.komdigi.go.id/tdpse-detail/15582",
            "website": "-"
        },
        {
            "id": "9cb1ac39-8887-46af-a5e8-2eb99b613f89",
            "nama_pse": "HARTA INTERNATIONAL INVESTAMA",
            "nama_se": "METATRADER 4",
            "sektor": "Sektor Perdagangan",
            "tanggal_terbit": "2023-08-16",
            "url_tdpse_detail": "https://pse.komdigi.go.id/tdpse-detail/15585",
            "website": "-"
        },
        {
            "id": "9cb1ac49-22cf-4d3d-ae4e-333b4acd13e8",
            "nama_pse": "YULIANTO",
            "nama_se": "MURNI JAYA SOFTWARE",
            "sektor": "Sektor Teknologi Informasi dan Komunikasi",
            "tanggal_terbit": "2023-08-16",
            "url_tdpse_detail": "https://pse.komdigi.go.id/tdpse-detail/15586",
            "website": "murnijaya.net"
        },
        {
            "id": "9cb1ac39-8be6-47e7-810b-5a23d64b2a82",
            "nama_pse": "PANGAN NUTRISI SEJAHTERA",
            "nama_se": "HEPIMEAL.COM",
            "sektor": "Sektor Perdagangan, Sektor Teknologi Informasi dan Komunikasi",
            "tanggal_terbit": "2023-08-16",
            "url_tdpse_detail": "https://pse.komdigi.go.id/tdpse-detail/15587",
            "website": "hepimeal.com"
        },
        {
            "id": "9cb1ac39-945e-4060-8cf0-8727a8989c71",
            "nama_pse": "PANGAN NUTRISI SEJAHTERA",
            "nama_se": "KLIKHEPIMEAL.COM",
            "sektor": "Sektor Perdagangan, Sektor Teknologi Informasi dan Komunikasi",
            "tanggal_terbit": "2023-08-16",
            "url_tdpse_detail": "https://pse.komdigi.go.id/tdpse-detail/15589",
            "website": "klikhepimeal.com"
        },
        {
            "id": "9cb1ac26-f74a-4044-9970-9b65f29dc1fd",
            "nama_pse": "PANGAN NUTRISI SEJAHTERA",
            "nama_se": "KLIKHEPIMEAL.ID",
            "sektor": "Sektor Perdagangan, Sektor Teknologi Informasi dan Komunikasi",
            "tanggal_terbit": "2023-08-16",
            "url_tdpse_detail": "https://pse.komdigi.go.id/tdpse-detail/15590",
            "website": "klikhepimeal.id"
        },
        {
            "id": "9cb1ac26-fa72-4fa3-9132-0c14e133884a",
            "nama_pse": "DATACOMM DIANGRAHA",
            "nama_se": "DTRUST",
            "sektor": "Sektor Teknologi Informasi dan Komunikasi",
            "tanggal_terbit": "2023-08-16",
            "url_tdpse_detail": "https://pse.komdigi.go.id/tdpse-detail/15591",
            "website": "dtrust.co.id"
        },
        {
            "id": "9cb1ac49-25cd-4cf8-885a-b93e7f8828fe",
            "nama_pse": "PANGAN NUTRISI SEJAHTERA",
            "nama_se": "KLIKHEPIMEAL.CO.ID",
            "sektor": "Sektor Perdagangan, Sektor Teknologi Informasi dan Komunikasi",
            "tanggal_terbit": "2023-08-16",
            "url_tdpse_detail": "https://pse.komdigi.go.id/tdpse-detail/15592",
            "website": "-"
        },
        {
            "id": "9cb1ac26-fe67-46de-9ac2-ebd1b99aa736",
            "nama_pse": "9TO9 ONLINE INDONESIA",
            "nama_se": "9TO9 ONLINE",
            "sektor": "Sektor Perdagangan",
            "tanggal_terbit": "2023-08-16",
            "url_tdpse_detail": "https://pse.komdigi.go.id/tdpse-detail/15594",
            "website": "9to9.co.id"
        },
        {
            "id": "9cb1ac27-021e-4b07-bac0-fad2d6d2ba56",
            "nama_pse": "LEGAL PRIMA HUKUM",
            "nama_se": "LEGAL MAKER",
            "sektor": "Sektor Perdagangan",
            "tanggal_terbit": "2023-08-16",
            "url_tdpse_detail": "https://pse.komdigi.go.id/tdpse-detail/15593",
            "website": "WWW.LEGALMAKEROFFICIAL.COM"
        },
        {
            "id": "9cb1ac22-da02-4f35-b725-d7d812e538d4",
            "nama_pse": "ELITSER IT SOLUTIONS INDONESIA",
            "nama_se": "MEDISMARTPLUS",
            "sektor": "Sektor Kesehatan",
            "tanggal_terbit": "2023-08-15",
            "url_tdpse_detail": "https://pse.komdigi.go.id/tdpse-detail/15570",
            "website": "-"
        },
        {
            "id": "9cb1ac39-55a3-4b3e-9589-59207d770775",
            "nama_pse": "KERETA API PARIWISATA",
            "nama_se": "KAI WISATA",
            "sektor": "Sektor Transportasi",
            "tanggal_terbit": "2023-08-15",
            "url_tdpse_detail": "https://pse.komdigi.go.id/tdpse-detail/15561",
            "website": "-"
        },
        {
            "id": "9cb1ac48-ec9c-4934-a9a2-13eca382445b",
            "nama_pse": "RUMAH SAKIT MUHAMMADIYAH KALIKAPAS LAMONGAN",
            "nama_se": "SIMRS KHANZA",
            "sektor": "Sektor Kesehatan",
            "tanggal_terbit": "2023-08-15",
            "url_tdpse_detail": "https://pse.komdigi.go.id/tdpse-detail/15560",
            "website": "rsmkalikapas.co.id"
        },
        {
            "id": "9cb1ac39-5b59-466d-b7a7-afa16864cdbb",
            "nama_pse": "GLINTS PLATFORM TALENTA",
            "nama_se": "GLINTS FOR EMPLOYERS",
            "sektor": "Sektor Perdagangan, Sektor Teknologi Informasi dan Komunikasi",
            "tanggal_terbit": "2023-08-15",
            "url_tdpse_detail": "https://pse.komdigi.go.id/tdpse-detail/15562",
            "website": "employers.glints.id"
        },
        {
            "id": "9cb1ac26-df74-4a1c-9f64-e5328f4e704b",
            "nama_pse": "EXINDO INFORMATION TECHNOLOGY",
            "nama_se": "INTEGRATED HEALTH INFORMATION SYSTEMS (IHIS)",
            "sektor": "Sektor Teknologi Informasi dan Komunikasi",
            "tanggal_terbit": "2023-08-15",
            "url_tdpse_detail": "https://pse.komdigi.go.id/tdpse-detail/15563",
            "website": "exindo.com"
        },
        {
            "id": "9cb1ac26-e2a7-401b-b43a-7f6b4345f655",
            "nama_pse": "DANA RINTIS INDONESIA",
            "nama_se": "UDANA.ID",
            "sektor": "Sektor Teknologi Informasi dan Komunikasi",
            "tanggal_terbit": "2023-08-15",
            "url_tdpse_detail": "https://pse.komdigi.go.id/tdpse-detail/15564",
            "website": "udana.co.id"
        },
        {
            "id": "9cb1ac39-5ee4-4fb4-bf78-f183d891fa41",
            "nama_pse": "HYUNDAI MOTORS INDONESIA",
            "nama_se": "WEBSITE KORPORAT HYUNDAI MOTOR ASEAN",
            "sektor": "Sektor Teknologi Informasi dan Komunikasi",
            "tanggal_terbit": "2023-08-15",
            "url_tdpse_detail": "https://pse.komdigi.go.id/tdpse-detail/15565",
            "website": "hyundaimotor-asean.com"
        },
        {
            "id": "9cb1ac48-f459-4043-98b2-7cc42e384eb2",
            "nama_pse": "DANA RINTIS INDONESIA",
            "nama_se": "MD DANA",
            "sektor": "Sektor Teknologi Informasi dan Komunikasi",
            "tanggal_terbit": "2023-08-15",
            "url_tdpse_detail": "https://pse.komdigi.go.id/tdpse-detail/15566",
            "website": "mddana.co.id"
        },
        {
            "id": "9cb1ac48-f9f5-47a5-a1c8-d16ef037c1b6",
            "nama_pse": "DIGINVI KREASI INDONESIA",
            "nama_se": "DIGINVI KREASI INDONESIA",
            "sektor": "Sektor Teknologi Informasi dan Komunikasi",
            "tanggal_terbit": "2023-08-15",
            "url_tdpse_detail": "https://pse.komdigi.go.id/tdpse-detail/15567",
            "website": "diginvi.id"
        },
        {
            "id": "9cb1ac26-e789-4268-87a6-1649d8a4020d",
            "nama_pse": "RECURRENT ARTIFICIAL INTELLIGENCE",
            "nama_se": "RCRAI",
            "sektor": "Sektor Teknologi Informasi dan Komunikasi",
            "tanggal_terbit": "2023-08-15",
            "url_tdpse_detail": "https://pse.komdigi.go.id/tdpse-detail/15568",
            "website": "sg.rcrai.com"
        },
        {
            "id": "9cb1ac39-624a-4abc-90a7-628d70ce2749",
            "nama_pse": "SINAR ANUGRAH DIGITAL INDONESIA",
            "nama_se": "PAYRICH",
            "sektor": "Sektor Perdagangan, Sektor Teknologi Informasi dan Komunikasi",
            "tanggal_terbit": "2023-08-15",
            "url_tdpse_detail": "https://pse.komdigi.go.id/tdpse-detail/15569",
            "website": "payrich.co.id"
        },
        {
            "id": "9cb1ac26-edb6-4c24-af7a-ab0cec6ac30e",
            "nama_pse": "PICOS TEKNOLOGI GLOBAL",
            "nama_se": "PICOS UNIVERSAL MESSAGING ENGINE",
            "sektor": "Sektor Perdagangan",
            "tanggal_terbit": "2023-08-15",
            "url_tdpse_detail": "https://pse.komdigi.go.id/tdpse-detail/15571",
            "website": "-"
        },
        {
            "id": "9cb1ac49-00b4-4d8d-b73f-a72de42d79ca",
            "nama_pse": "MULTIDATA RANCANA PRIMA",
            "nama_se": "M|CARE",
            "sektor": "Sektor Kesehatan, Sektor Teknologi Informasi dan Komunikasi",
            "tanggal_terbit": "2023-08-15",
            "url_tdpse_detail": "https://pse.komdigi.go.id/tdpse-detail/15572",
            "website": "multidata.net.id"
        },
        {
            "id": "9cb1ac39-6edd-4f63-afc9-14e225d363b0",
            "nama_pse": "HARMONIX SOLUSI 360",
            "nama_se": "ONECARE",
            "sektor": "Sektor Kesehatan, Sektor Teknologi Informasi dan Komunikasi",
            "tanggal_terbit": "2023-08-15",
            "url_tdpse_detail": "https://pse.komdigi.go.id/tdpse-detail/15573",
            "website": "harmonix360.id"
        },
        {
            "id": "9cb1ac49-0c0b-4d65-be6c-ef732b76710a",
            "nama_pse": "SCHNEIDER INDONESIA",
            "nama_se": "WEBSITE PERUSAHAAN SCHNEIDER ELECTRIC INDONESIA",
            "sektor": "Sektor Perdagangan",
            "tanggal_terbit": "2023-08-15",
            "url_tdpse_detail": "https://pse.komdigi.go.id/tdpse-detail/15574",
            "website": "Se.com"
        }
    ],
    "processingTimeMs": 2,
    "query": "",
    "totalHits": 19131,
    "hitsPerPage": 50,
    "page": 126,
    "totalPages": 383
}