{
    "hits": [
        {
            "id": "9cb1ab6a-f8c3-4ec0-ac7d-4f94b757a083",
            "nama_pse": "JASA BMT EL AMANAH",
            "nama_se": "BMT EL-AMANAH",
            "sektor": "Sektor Keuangan, Sektor Keuangan, Sektor Keuangan",
            "tanggal_terbit": "2021-05-07",
            "url_tdpse_detail": "https://pse.komdigi.go.id/tdpse-detail/810",
            "website": "-"
        },
        {
            "id": "9cb1ab63-8cd6-41b1-9f7c-0d2cb136ab2d",
            "nama_pse": "DIGITAL NET ASET",
            "nama_se": "HTTPS://WWW.DIGITALNETASET.COM/",
            "sektor": "Sektor Perdagangan, Sektor Perdagangan, Sektor Perdagangan",
            "tanggal_terbit": "2021-05-07",
            "url_tdpse_detail": "https://pse.komdigi.go.id/tdpse-detail/753",
            "website": "digitalnetaset.com/"
        },
        {
            "id": "9cb1ab72-001e-4ee3-a933-708487f94ba3",
            "nama_pse": "JCO DONUT \u0026 COFFEE",
            "nama_se": "JCO DELIVERY",
            "sektor": "Sektor Perdagangan, Sektor Perdagangan, Sektor Pangan, Sektor Pangan",
            "tanggal_terbit": "2021-05-07",
            "url_tdpse_detail": "https://pse.komdigi.go.id/tdpse-detail/794",
            "website": "jcodelivery.com"
        },
        {
            "id": "9cb1ab6b-1567-4dad-8e36-19a65eac05a8",
            "nama_pse": "NUSACIPTA MEDIA INDONESIA",
            "nama_se": "BALIKPAPANUPDATE.COM",
            "sektor": "Sektor Teknologi Informasi dan Komunikasi, Sektor Teknologi Informasi dan Komunikasi, Sektor Teknologi Informasi dan Komunikasi",
            "tanggal_terbit": "2021-05-07",
            "url_tdpse_detail": "https://pse.komdigi.go.id/tdpse-detail/783",
            "website": "balikpapanupdate.com"
        },
        {
            "id": "9cb1ab6b-1c4b-4f4f-9e0d-9b351227917a",
            "nama_pse": "MNC GUNA USAHA INDONESIA",
            "nama_se": "APLIKASI MOBILE MNC LEASING",
            "sektor": "Sektor Keuangan, Sektor Keuangan",
            "tanggal_terbit": "2021-05-07",
            "url_tdpse_detail": "https://pse.komdigi.go.id/tdpse-detail/807",
            "website": "-"
        },
        {
            "id": "9cb1ab72-0eb6-412a-bd7a-4216954b0a56",
            "nama_pse": "MNC GUNA USAHA INDONESIA",
            "nama_se": "SIAPHAJI.COM",
            "sektor": "Sektor Keuangan, Sektor Keuangan",
            "tanggal_terbit": "2021-05-07",
            "url_tdpse_detail": "https://pse.komdigi.go.id/tdpse-detail/809",
            "website": "siaphaji.com"
        },
        {
            "id": "9cb1ab72-1744-4977-a33a-112d680d7075",
            "nama_pse": "AKUR DANA ABADI",
            "nama_se": "PT AKUR DANA ABADI (JEMBATAN EMAS)",
            "sektor": "Sektor Keuangan, Sektor Keuangan",
            "tanggal_terbit": "2021-05-07",
            "url_tdpse_detail": "https://pse.komdigi.go.id/tdpse-detail/770",
            "website": "www. jembatanemas.id"
        },
        {
            "id": "9cb1ab72-1b36-4fab-bb6b-b5b980422c29",
            "nama_pse": "TRUST TEKNOLOGI FINANSIAL",
            "nama_se": "TRUSTIQ",
            "sektor": "Sektor Keuangan, Sektor Keuangan",
            "tanggal_terbit": "2021-05-07",
            "url_tdpse_detail": "https://pse.komdigi.go.id/tdpse-detail/771",
            "website": "trustiq.id"
        },
        {
            "id": "9cb1ab72-1e13-4262-aec4-be09b452d8eb",
            "nama_pse": "LULU GROUP RETAIL",
            "nama_se": "SAP HYBRIS",
            "sektor": "Sektor Perdagangan, Sektor Perdagangan",
            "tanggal_terbit": "2021-05-07",
            "url_tdpse_detail": "https://pse.komdigi.go.id/tdpse-detail/814",
            "website": "luluhypermarket.com"
        },
        {
            "id": "9cb1ab6b-294f-4877-a53f-de084778294e",
            "nama_pse": "FIVE JACK",
            "nama_se": "ITEMKU",
            "sektor": "Sektor Perdagangan, Sektor Perdagangan, Sektor Teknologi Informasi dan Komunikasi, Sektor Teknologi Informasi dan Komunikasi",
            "tanggal_terbit": "2021-05-07",
            "url_tdpse_detail": "https://pse.komdigi.go.id/tdpse-detail/803",
            "website": "itemku.com"
        },
        {
            "id": "9cb1ab72-311a-4c4e-bbdc-aab63e90f3e9",
            "nama_pse": "PIONIR REVOLUSI DIGITAL",
            "nama_se": "PESAT",
            "sektor": "Sektor Perdagangan, Sektor Perdagangan, Sektor Teknologi Informasi dan Komunikasi, Sektor Teknologi Informasi dan Komunikasi",
            "tanggal_terbit": "2021-05-07",
            "url_tdpse_detail": "https://pse.komdigi.go.id/tdpse-detail/811",
            "website": "desapesat.id"
        },
        {
            "id": "9cb1ab72-339a-4e76-9865-83b3d6ecd432",
            "nama_pse": "SIMPAN PINJAM DANA BERKAH NIAGA",
            "nama_se": "CASHBIRD",
            "sektor": "Sektor Teknologi Informasi dan Komunikasi, Sektor Teknologi Informasi dan Komunikasi",
            "tanggal_terbit": "2021-05-07",
            "url_tdpse_detail": "https://pse.komdigi.go.id/tdpse-detail/802",
            "website": "cashbird.cn"
        },
        {
            "id": "9cb1ab7b-b8c4-4fb0-8fd3-9cef57e12aff",
            "nama_pse": "ALDMIC COOPN DIGITAL",
            "nama_se": "HTTPS://WWW.FLOWERADVISOR.CO.ID/",
            "sektor": "Sektor Perdagangan, Sektor Perdagangan",
            "tanggal_terbit": "2021-05-07",
            "url_tdpse_detail": "https://pse.komdigi.go.id/tdpse-detail/755",
            "website": "floweradvisor.co.id/"
        },
        {
            "id": "9cb1ab8b-c1a5-4abc-9c41-9ea3b799ad16",
            "nama_pse": "DAVID SISTEM GROUP",
            "nama_se": "PT DAVID SISTEM GROUP",
            "sektor": "Sektor Teknologi Informasi dan Komunikasi, Sektor Teknologi Informasi dan Komunikasi",
            "tanggal_terbit": "2021-05-07",
            "url_tdpse_detail": "https://pse.komdigi.go.id/tdpse-detail/775",
            "website": "davidgroup.co.id"
        },
        {
            "id": "9cb1ab8b-c4bf-4089-b390-72ee38149711",
            "nama_pse": "SYAILENDRA CAPITAL",
            "nama_se": "YO! INVES",
            "sektor": "Sektor Keuangan, Sektor Keuangan, Sektor Keuangan, Sektor Keuangan",
            "tanggal_terbit": "2021-05-07",
            "url_tdpse_detail": "https://pse.komdigi.go.id/tdpse-detail/733",
            "website": "yoinves.id"
        },
        {
            "id": "9cb1ab84-daba-4b65-8c89-802e5bdd98cc",
            "nama_pse": "ASURANSI ASTRA BUANA",
            "nama_se": "GARDAOTO.COM",
            "sektor": "Sektor Keuangan, Sektor Keuangan",
            "tanggal_terbit": "2021-05-07",
            "url_tdpse_detail": "https://pse.komdigi.go.id/tdpse-detail/767",
            "website": "gardaoto.com"
        },
        {
            "id": "9cb1ab7c-c916-47f2-87dd-961c21a42bf6",
            "nama_pse": "ASURANSI ASTRA BUANA",
            "nama_se": "GARDA MOBILE MEDCARE",
            "sektor": "Sektor Keuangan, Sektor Keuangan",
            "tanggal_terbit": "2021-05-07",
            "url_tdpse_detail": "https://pse.komdigi.go.id/tdpse-detail/776",
            "website": "-"
        },
        {
            "id": "9cb1ab84-ddfd-4a78-9129-2486a5294a00",
            "nama_pse": "ASURANSI ASTRA BUANA",
            "nama_se": "GARDA MOBILE OTOCARE",
            "sektor": "Sektor Keuangan, Sektor Keuangan",
            "tanggal_terbit": "2021-05-07",
            "url_tdpse_detail": "https://pse.komdigi.go.id/tdpse-detail/780",
            "website": "-"
        },
        {
            "id": "9cb1ab8c-8747-407d-922b-91d9e5506f8e",
            "nama_pse": "ASURANSI ASTRA BUANA",
            "nama_se": "ASURANSI ASTRA CORPORATE WEBSITE",
            "sektor": "Sektor Keuangan, Sektor Keuangan",
            "tanggal_terbit": "2021-05-07",
            "url_tdpse_detail": "https://pse.komdigi.go.id/tdpse-detail/782",
            "website": "asuransiastra.com"
        },
        {
            "id": "9cb1ab7c-d8f9-4e15-9827-03d23448e8ba",
            "nama_pse": "ASURANSI ASTRA BUANA",
            "nama_se": "SITUS MITRA GARDA OTO",
            "sektor": "Sektor Keuangan, Sektor Keuangan",
            "tanggal_terbit": "2021-05-07",
            "url_tdpse_detail": "https://pse.komdigi.go.id/tdpse-detail/793",
            "website": "gomitra.com"
        },
        {
            "id": "9cb1ab7c-dbbf-4ed5-9dd3-f31fa187eb91",
            "nama_pse": "ASURANSI ASTRA BUANA",
            "nama_se": "GARDA MARINE",
            "sektor": "Sektor Keuangan, Sektor Keuangan",
            "tanggal_terbit": "2021-05-07",
            "url_tdpse_detail": "https://pse.komdigi.go.id/tdpse-detail/795",
            "website": "gardamarine.com"
        },
        {
            "id": "9cb1ab7c-de6d-471b-89b4-240e65c0cc12",
            "nama_pse": "ASURANSI ASTRA BUANA",
            "nama_se": "CR-AKSES",
            "sektor": "Sektor Keuangan, Sektor Keuangan",
            "tanggal_terbit": "2021-05-07",
            "url_tdpse_detail": "https://pse.komdigi.go.id/tdpse-detail/796",
            "website": "-"
        },
        {
            "id": "9cb1ab8c-8b87-496f-92f7-62f416fb05d4",
            "nama_pse": "ASURANSI ASTRA BUANA",
            "nama_se": "HR-AKSES",
            "sektor": "Sektor Keuangan, Sektor Keuangan",
            "tanggal_terbit": "2021-05-07",
            "url_tdpse_detail": "https://pse.komdigi.go.id/tdpse-detail/798",
            "website": "-"
        },
        {
            "id": "9cb1ab85-aa17-4bb1-8da8-1c0aa4a5dbb7",
            "nama_pse": "ASURANSI JIWA ASTRA",
            "nama_se": "ILOVELIFE.CO.ID",
            "sektor": "Sektor Keuangan, Sektor Keuangan",
            "tanggal_terbit": "2021-05-07",
            "url_tdpse_detail": "https://pse.komdigi.go.id/tdpse-detail/745",
            "website": "ilovelife.co.id"
        },
        {
            "id": "9cb1ab8d-1ceb-4d90-8483-90db62546a22",
            "nama_pse": "ASURANSI JIWA ASTRA",
            "nama_se": "BUDDIES",
            "sektor": "Sektor Keuangan, Sektor Keuangan",
            "tanggal_terbit": "2021-05-07",
            "url_tdpse_detail": "https://pse.komdigi.go.id/tdpse-detail/746",
            "website": "mndsvr2.net/buddies/auth"
        },
        {
            "id": "9cb1ab7d-ac7a-4a9f-ab28-f702c0e645ef",
            "nama_pse": "HYUNDAI MOTORS INDONESIA",
            "nama_se": "CLICK TO BUY",
            "sektor": "Sektor Perdagangan, Sektor Perdagangan, Sektor Perdagangan",
            "tanggal_terbit": "2021-05-07",
            "url_tdpse_detail": "https://pse.komdigi.go.id/tdpse-detail/791",
            "website": "clicktobuy.hyundai.com"
        },
        {
            "id": "9cb1ab8d-4d9e-41ae-be1c-e3a222161186",
            "nama_pse": "LIPUTAN ENAM DOT COM",
            "nama_se": "WWW.LIPUTAN6.COM",
            "sektor": "Sektor Perdagangan, Sektor Perdagangan, Sektor Teknologi Informasi dan Komunikasi, Sektor Teknologi Informasi dan Komunikasi",
            "tanggal_terbit": "2021-05-07",
            "url_tdpse_detail": "https://pse.komdigi.go.id/tdpse-detail/732",
            "website": "liputan6.com"
        },
        {
            "id": "9cb1ab7d-cb98-423e-895e-a51cca253818",
            "nama_pse": "BANK CIMB NIAGA",
            "nama_se": "BIZCHANNEL@CIMB",
            "sektor": "Sektor Keuangan, Sektor Keuangan, Sektor Keuangan, Sektor Keuangan, Sektor Keuangan",
            "tanggal_terbit": "2021-05-07",
            "url_tdpse_detail": "https://pse.komdigi.go.id/tdpse-detail/772",
            "website": "bizchannel.cimbniaga.co.id/corp/"
        },
        {
            "id": "9cb1ab8d-77fb-42ec-8c27-5f10858c037b",
            "nama_pse": "BANK CIMB NIAGA",
            "nama_se": "BIZCHANNEL@CIMB MOBILE BANKING",
            "sektor": "Sektor Keuangan, Sektor Keuangan, Sektor Keuangan, Sektor Keuangan, Sektor Keuangan",
            "tanggal_terbit": "2021-05-07",
            "url_tdpse_detail": "https://pse.komdigi.go.id/tdpse-detail/774",
            "website": "-"
        },
        {
            "id": "9cb1ab85-dc3f-4ae8-b3ac-11a6a1491788",
            "nama_pse": "BANK CIMB NIAGA",
            "nama_se": "GATEWAY@CIMB",
            "sektor": "Sektor Keuangan, Sektor Keuangan, Sektor Keuangan, Sektor Keuangan, Sektor Keuangan",
            "tanggal_terbit": "2021-05-07",
            "url_tdpse_detail": "https://pse.komdigi.go.id/tdpse-detail/779",
            "website": "-"
        },
        {
            "id": "9cb1abac-0e2d-45e4-8707-4aad7b8af3db",
            "nama_pse": "TELEKOMUNIKASI SELULAR",
            "nama_se": "MYORBIT",
            "sektor": "Sektor Teknologi Informasi dan Komunikasi, Sektor Teknologi Informasi dan Komunikasi, Sektor Teknologi Informasi dan Komunikasi, Sektor Teknologi Informasi dan Komunikasi, Sektor Teknologi Informasi dan Komunikasi, Sektor Teknologi Informasi dan Komunikasi, Sektor Teknologi Informasi dan Komunikasi, Sektor Teknologi Informasi dan Komunikasi, Sektor Teknologi Informasi dan Komunikasi, Sektor Teknologi Informasi dan Komunikasi, Sektor Teknologi Informasi dan Komunikasi",
            "tanggal_terbit": "2021-05-07",
            "url_tdpse_detail": "https://pse.komdigi.go.id/tdpse-detail/827",
            "website": "myorbit.id"
        },
        {
            "id": "9cb1aba1-6396-4d45-b77f-d180cda4a7b7",
            "nama_pse": "TELEKOMUNIKASI SELULAR",
            "nama_se": "ROLI",
            "sektor": "Sektor Teknologi Informasi dan Komunikasi, Sektor Teknologi Informasi dan Komunikasi, Sektor Teknologi Informasi dan Komunikasi, Sektor Teknologi Informasi dan Komunikasi, Sektor Teknologi Informasi dan Komunikasi, Sektor Teknologi Informasi dan Komunikasi, Sektor Teknologi Informasi dan Komunikasi, Sektor Teknologi Informasi dan Komunikasi, Sektor Teknologi Informasi dan Komunikasi, Sektor Teknologi Informasi dan Komunikasi, Sektor Teknologi Informasi dan Komunikasi",
            "tanggal_terbit": "2021-05-07",
            "url_tdpse_detail": "https://pse.komdigi.go.id/tdpse-detail/817",
            "website": "roli.telkomsel.com"
        },
        {
            "id": "9cb1abac-08ba-4f9c-b4c0-781b8329c0f4",
            "nama_pse": "TELEKOMUNIKASI SELULAR",
            "nama_se": "MYENTERPRISE",
            "sektor": "Sektor Teknologi Informasi dan Komunikasi, Sektor Teknologi Informasi dan Komunikasi, Sektor Teknologi Informasi dan Komunikasi, Sektor Teknologi Informasi dan Komunikasi, Sektor Teknologi Informasi dan Komunikasi, Sektor Teknologi Informasi dan Komunikasi, Sektor Teknologi Informasi dan Komunikasi, Sektor Teknologi Informasi dan Komunikasi, Sektor Teknologi Informasi dan Komunikasi, Sektor Teknologi Informasi dan Komunikasi, Sektor Teknologi Informasi dan Komunikasi",
            "tanggal_terbit": "2021-05-07",
            "url_tdpse_detail": "https://pse.komdigi.go.id/tdpse-detail/821",
            "website": "myenterprise.telkomsel.com"
        },
        {
            "id": "9cb1ab9e-35d5-4bf6-9148-eced8b2f1505",
            "nama_pse": "INCLUSIVE FINANCE GROUP",
            "nama_se": "DANACITA",
            "sektor": "Sektor Keuangan, Sektor Keuangan",
            "tanggal_terbit": "2021-05-07",
            "url_tdpse_detail": "https://pse.komdigi.go.id/tdpse-detail/813",
            "website": "danacita.co.id/"
        },
        {
            "id": "9cb1ab9e-c20c-4e6a-8351-143f7d037f3d",
            "nama_pse": "SYIRKAH DANA INVESTAMA",
            "nama_se": "ESYIRKAH",
            "sektor": "Sektor Keuangan, Sektor Keuangan, Sektor Teknologi Informasi dan Komunikasi, Sektor Teknologi Informasi dan Komunikasi",
            "tanggal_terbit": "2021-05-07",
            "url_tdpse_detail": "https://pse.komdigi.go.id/tdpse-detail/742",
            "website": "esyirkah.id"
        },
        {
            "id": "9cb1ab91-5ec2-4c7b-9f22-963769f1dbd4",
            "nama_pse": "KOPERASI SIMPAN PINJAM SUKSES INTI TERDEPAN INDONESIA",
            "nama_se": "PAHLAWAN PINJAMAN",
            "sektor": "Sektor Keuangan, Sektor Keuangan, Sektor Keuangan, Sektor Keuangan",
            "tanggal_terbit": "2021-05-07",
            "url_tdpse_detail": "https://pse.komdigi.go.id/tdpse-detail/799",
            "website": "-"
        },
        {
            "id": "9cb1ab9e-c4dc-4d64-aaad-e03720366658",
            "nama_pse": "EDRUS STRATEGI DIGITAL",
            "nama_se": "IMPORTIR.COM",
            "sektor": "Sektor Perdagangan, Sektor Perdagangan",
            "tanggal_terbit": "2021-05-07",
            "url_tdpse_detail": "https://pse.komdigi.go.id/tdpse-detail/800",
            "website": "Importir.com"
        },
        {
            "id": "9cb1ab9e-c794-422b-8d8c-9773183ef0df",
            "nama_pse": "GLOBAL URBAN ESENSIAL",
            "nama_se": "TEMAN BUMIL",
            "sektor": "Sektor Kesehatan, Sektor Kesehatan, Sektor Kesehatan, Sektor Kesehatan, Sektor Kesehatan, Sektor Kesehatan",
            "tanggal_terbit": "2021-05-07",
            "url_tdpse_detail": "https://pse.komdigi.go.id/tdpse-detail/804",
            "website": "temanbumil.com"
        },
        {
            "id": "9cb1ab9e-ca72-4b19-b15f-b0de2467f968",
            "nama_pse": "CIPAS QUINDO PRATAMA",
            "nama_se": "E-SALAAM",
            "sektor": "Sektor Perdagangan, Sektor Perdagangan",
            "tanggal_terbit": "2021-05-07",
            "url_tdpse_detail": "https://pse.komdigi.go.id/tdpse-detail/812",
            "website": "e-salaam.co.id"
        },
        {
            "id": "9cb1aba9-7da6-4b01-88f7-0df83d35c430",
            "nama_pse": "KOPERASI SIMPAN PINJAM SUKSES ANUGERAH BERSAMA INDONESIA",
            "nama_se": "KUNCI DANA",
            "sektor": "Sektor Keuangan",
            "tanggal_terbit": "2021-05-07",
            "url_tdpse_detail": "https://pse.komdigi.go.id/tdpse-detail/797",
            "website": "-"
        },
        {
            "id": "9cb1ab9f-31ff-4b96-a693-824c7111d4e0",
            "nama_pse": "KOPERASI SIMPAN PINJAM MAKMUR INTI SEJAHTERA UTAMA",
            "nama_se": "PINJAMAN TEMAN",
            "sektor": "Sektor Keuangan, Sektor Keuangan, Sektor Keuangan",
            "tanggal_terbit": "2021-05-07",
            "url_tdpse_detail": "https://pse.komdigi.go.id/tdpse-detail/781",
            "website": "-"
        },
        {
            "id": "9cb1ab92-1a76-4d26-8a1c-c1d2929e2961",
            "nama_pse": "PULAU MAS",
            "nama_se": "SIGAP",
            "sektor": "Sektor Transportasi, Sektor Transportasi, Sektor Transportasi, Sektor Transportasi",
            "tanggal_terbit": "2021-05-07",
            "url_tdpse_detail": "https://pse.komdigi.go.id/tdpse-detail/792",
            "website": "sigap.sigesitpro.com"
        },
        {
            "id": "9cb1ab9f-71ff-4e20-a403-74ff56c269e3",
            "nama_pse": "JAKARTA DIGITAL NUSANTARA",
            "nama_se": "JAKARTANOTEBOOK.COM",
            "sektor": "Sektor Perdagangan, Sektor Perdagangan, Sektor Perdagangan",
            "tanggal_terbit": "2021-05-07",
            "url_tdpse_detail": "https://pse.komdigi.go.id/tdpse-detail/741",
            "website": "jakartanotebook.com"
        },
        {
            "id": "9cb1ab9f-cdcf-4624-919a-f72538c4d465",
            "nama_pse": "KARYA KARSA INDONESIA",
            "nama_se": "KARYAKARSA",
            "sektor": "Sektor Teknologi Informasi dan Komunikasi, Sektor Teknologi Informasi dan Komunikasi",
            "tanggal_terbit": "2021-05-07",
            "url_tdpse_detail": "https://pse.komdigi.go.id/tdpse-detail/768",
            "website": "karyakarsa.com"
        },
        {
            "id": "9cb1abac-0460-491b-bca9-53e1526e42c1",
            "nama_pse": "TELEKOMUNIKASI SELULAR",
            "nama_se": "DIGIPOS",
            "sektor": "Sektor Teknologi Informasi dan Komunikasi, Sektor Teknologi Informasi dan Komunikasi, Sektor Teknologi Informasi dan Komunikasi, Sektor Teknologi Informasi dan Komunikasi, Sektor Teknologi Informasi dan Komunikasi, Sektor Teknologi Informasi dan Komunikasi, Sektor Teknologi Informasi dan Komunikasi, Sektor Teknologi Informasi dan Komunikasi, Sektor Teknologi Informasi dan Komunikasi, Sektor Teknologi Informasi dan Komunikasi, Sektor Teknologi Informasi dan Komunikasi",
            "tanggal_terbit": "2021-05-07",
            "url_tdpse_detail": "https://pse.komdigi.go.id/tdpse-detail/816",
            "website": "digipos.telkomsel.com"
        },
        {
            "id": "9cb1ab95-46d9-41e3-be05-9529cd4091c5",
            "nama_pse": "TELEKOMUNIKASI SELULAR",
            "nama_se": "MAXSTREAM",
            "sektor": "Sektor Teknologi Informasi dan Komunikasi, Sektor Teknologi Informasi dan Komunikasi, Sektor Teknologi Informasi dan Komunikasi, Sektor Teknologi Informasi dan Komunikasi, Sektor Teknologi Informasi dan Komunikasi, Sektor Teknologi Informasi dan Komunikasi, Sektor Teknologi Informasi dan Komunikasi, Sektor Teknologi Informasi dan Komunikasi, Sektor Teknologi Informasi dan Komunikasi, Sektor Teknologi Informasi dan Komunikasi, Sektor Teknologi Informasi dan Komunikasi",
            "tanggal_terbit": "2021-05-07",
            "url_tdpse_detail": "https://pse.komdigi.go.id/tdpse-detail/820",
            "website": "maxstream.tv"
        },
        {
            "id": "9cb1abac-0a96-4412-8bef-f49597986952",
            "nama_pse": "TELEKOMUNIKASI SELULAR",
            "nama_se": "DUNIA GAMES",
            "sektor": "Sektor Teknologi Informasi dan Komunikasi, Sektor Teknologi Informasi dan Komunikasi, Sektor Teknologi Informasi dan Komunikasi, Sektor Teknologi Informasi dan Komunikasi, Sektor Teknologi Informasi dan Komunikasi, Sektor Teknologi Informasi dan Komunikasi, Sektor Teknologi Informasi dan Komunikasi, Sektor Teknologi Informasi dan Komunikasi, Sektor Teknologi Informasi dan Komunikasi, Sektor Teknologi Informasi dan Komunikasi, Sektor Teknologi Informasi dan Komunikasi",
            "tanggal_terbit": "2021-05-07",
            "url_tdpse_detail": "https://pse.komdigi.go.id/tdpse-detail/824",
            "website": "duniagames.co.id"
        },
        {
            "id": "9cb1abac-0c69-4877-9541-07e7fe024725",
            "nama_pse": "TELEKOMUNIKASI SELULAR",
            "nama_se": "MYADS",
            "sektor": "Sektor Teknologi Informasi dan Komunikasi, Sektor Teknologi Informasi dan Komunikasi, Sektor Teknologi Informasi dan Komunikasi, Sektor Teknologi Informasi dan Komunikasi, Sektor Teknologi Informasi dan Komunikasi, Sektor Teknologi Informasi dan Komunikasi, Sektor Teknologi Informasi dan Komunikasi, Sektor Teknologi Informasi dan Komunikasi, Sektor Teknologi Informasi dan Komunikasi, Sektor Teknologi Informasi dan Komunikasi, Sektor Teknologi Informasi dan Komunikasi",
            "tanggal_terbit": "2021-05-07",
            "url_tdpse_detail": "https://pse.komdigi.go.id/tdpse-detail/825",
            "website": "myads.telkomsel.com"
        },
        {
            "id": "9cb1aba1-707d-4686-a06c-089a56b694ab",
            "nama_pse": "TELEKOMUNIKASI SELULAR",
            "nama_se": "DIGIHUB",
            "sektor": "Sektor Teknologi Informasi dan Komunikasi, Sektor Teknologi Informasi dan Komunikasi, Sektor Teknologi Informasi dan Komunikasi, Sektor Teknologi Informasi dan Komunikasi, Sektor Teknologi Informasi dan Komunikasi, Sektor Teknologi Informasi dan Komunikasi, Sektor Teknologi Informasi dan Komunikasi, Sektor Teknologi Informasi dan Komunikasi, Sektor Teknologi Informasi dan Komunikasi, Sektor Teknologi Informasi dan Komunikasi, Sektor Teknologi Informasi dan Komunikasi",
            "tanggal_terbit": "2021-05-07",
            "url_tdpse_detail": "https://pse.komdigi.go.id/tdpse-detail/826",
            "website": "digihub.telkomsel.com"
        },
        {
            "id": "9cb1aba1-7b5d-4ffd-8dbc-52cb7c0edcfd",
            "nama_pse": "TELEKOMUNIKASI SELULAR",
            "nama_se": "TADEX",
            "sektor": "Sektor Teknologi Informasi dan Komunikasi, Sektor Teknologi Informasi dan Komunikasi, Sektor Teknologi Informasi dan Komunikasi, Sektor Teknologi Informasi dan Komunikasi, Sektor Teknologi Informasi dan Komunikasi, Sektor Teknologi Informasi dan Komunikasi, Sektor Teknologi Informasi dan Komunikasi, Sektor Teknologi Informasi dan Komunikasi, Sektor Teknologi Informasi dan Komunikasi, Sektor Teknologi Informasi dan Komunikasi, Sektor Teknologi Informasi dan Komunikasi",
            "tanggal_terbit": "2021-05-07",
            "url_tdpse_detail": "https://pse.komdigi.go.id/tdpse-detail/831",
            "website": "tadex.id"
        }
    ],
    "processingTimeMs": 9,
    "query": "",
    "totalHits": 19131,
    "hitsPerPage": 50,
    "page": 369,
    "totalPages": 383
}