{
    "hits": [
        {
            "id": "9d3585c4-6047-4b52-992d-b03c79e8b553",
            "nama_pse": "SERAYA MAKMUR INDONESIA",
            "nama_se": "SMI",
            "sektor": "Sektor Perdagangan",
            "tanggal_terbit": "2024-10-10",
            "url_tdpse_detail": "https://pse.komdigi.go.id/tdpse-detail/20715",
            "website": "-"
        },
        {
            "id": "9d358ac7-5d4f-4102-9699-60c3610ba8b5",
            "nama_pse": "RIZKISTA ICHSAN HARNANTO",
            "nama_se": "EMR RIVVANA",
            "sektor": "Sektor Kesehatan",
            "tanggal_terbit": "2024-10-10",
            "url_tdpse_detail": "https://pse.komdigi.go.id/tdpse-detail/20717",
            "website": "-"
        },
        {
            "id": "9d35826f-6e71-4939-8106-5f524cda53a4",
            "nama_pse": "MUSTIKA MEDIA NUSANTARA",
            "nama_se": "ontv.co.id",
            "sektor": "Sektor Teknologi Informasi dan Komunikasi",
            "tanggal_terbit": "2024-10-10",
            "url_tdpse_detail": "https://pse.komdigi.go.id/tdpse-detail/20712",
            "website": "ontv.co.id"
        },
        {
            "id": "9d355831-b435-46c4-a976-cc5c7551ba7d",
            "nama_pse": "DANA KINI FINANCE",
            "nama_se": "MOBILE APPS DANAKINI FINANCE BERBASIS IOS",
            "sektor": "Sektor Keuangan",
            "tanggal_terbit": "2024-10-10",
            "url_tdpse_detail": "https://pse.komdigi.go.id/tdpse-detail/20711",
            "website": "-"
        },
        {
            "id": "9d35e7cf-b75c-4dde-97aa-5b37cc496f4a",
            "nama_pse": "TRANSFORMASI RUMAH DIGITAL",
            "nama_se": "VOLGY",
            "sektor": "Sektor Perdagangan, Sektor Teknologi Informasi dan Komunikasi",
            "tanggal_terbit": "2024-10-10",
            "url_tdpse_detail": "https://pse.komdigi.go.id/tdpse-detail/20724",
            "website": "volgy.ai"
        },
        {
            "id": "9d35dcf6-81e1-41dd-83fd-09d182d3fcbe",
            "nama_pse": "PARAMA TRIPTA RAKSA",
            "nama_se": "ORBAN TELEMEDICINE",
            "sektor": "Sektor Kesehatan",
            "tanggal_terbit": "2024-10-10",
            "url_tdpse_detail": "https://pse.komdigi.go.id/tdpse-detail/20723",
            "website": "-"
        },
        {
            "id": "9d35f9fc-2a84-4197-9628-46e732d681b2",
            "nama_pse": "EBIZ PRIMA NUSA",
            "nama_se": "WEBSITE EBIZMARK",
            "sektor": "Sektor Perdagangan, Sektor Teknologi Informasi dan Komunikasi",
            "tanggal_terbit": "2024-10-10",
            "url_tdpse_detail": "https://pse.komdigi.go.id/tdpse-detail/20725",
            "website": "ebizmark.id"
        },
        {
            "id": "9d35fcb3-fc1f-4157-8510-5c82606bfd53",
            "nama_pse": "HYBRID LEARNING OCEAN",
            "nama_se": "iBlooming.ai",
            "sektor": "Sektor Teknologi Informasi dan Komunikasi",
            "tanggal_terbit": "2024-10-10",
            "url_tdpse_detail": "https://pse.komdigi.go.id/tdpse-detail/20726",
            "website": "iblooming.ai"
        },
        {
            "id": "9d3584e2-8f43-470d-8c66-8510d394a7a8",
            "nama_pse": "RANDEGANSARI HUSADA BAROKAH",
            "nama_se": "SIMRS KHANZA",
            "sektor": "Sektor Kesehatan",
            "tanggal_terbit": "2024-10-10",
            "url_tdpse_detail": "https://pse.komdigi.go.id/tdpse-detail/20714",
            "website": "rsrandegansari.com"
        },
        {
            "id": "9d358286-a48d-44fb-a8d8-590986bdb9b0",
            "nama_pse": "NALAGENETIK RISET INDONESIA",
            "nama_se": "NALA CLINICAL DECISION SUPPORT™ CORE",
            "sektor": "Sektor Perdagangan, Sektor Kesehatan",
            "tanggal_terbit": "2024-10-10",
            "url_tdpse_detail": "https://pse.komdigi.go.id/tdpse-detail/20713",
            "website": "portal.nalagenetics.com"
        },
        {
            "id": "9d35fce8-e962-4648-905a-52c8a8c964d9",
            "nama_pse": "INDOSOFT DIGITAL ENIGMA",
            "nama_se": "IDEBILLING",
            "sektor": "Sektor Teknologi Informasi dan Komunikasi",
            "tanggal_terbit": "2024-10-10",
            "url_tdpse_detail": "https://pse.komdigi.go.id/tdpse-detail/20727",
            "website": "idebilling.id"
        },
        {
            "id": "9d355819-e0ec-4d31-9050-403e2462d21c",
            "nama_pse": "DANA KINI FINANCE",
            "nama_se": "WEBSITE PT DANA KINI FINANCE",
            "sektor": "Sektor Keuangan",
            "tanggal_terbit": "2024-10-10",
            "url_tdpse_detail": "https://pse.komdigi.go.id/tdpse-detail/20710",
            "website": "danakinifinance.co.id"
        },
        {
            "id": "9d35b129-4a32-4675-8d63-053ea9f6a5d7",
            "nama_pse": "LUVIA DARMABAKTI MEDIKA",
            "nama_se": "APLIKASI LUVIA",
            "sektor": "Sektor Kesehatan",
            "tanggal_terbit": "2024-10-10",
            "url_tdpse_detail": "https://pse.komdigi.go.id/tdpse-detail/20721",
            "website": "-"
        },
        {
            "id": "9d0d67f7-ddc7-4b56-b3ee-017feec8a17f",
            "nama_pse": "BRIGHTCOLLAR SELALU DIPAKAI",
            "nama_se": "BRIGHTCOLLAR",
            "sektor": "Sektor Teknologi Informasi dan Komunikasi",
            "tanggal_terbit": "2024-10-10",
            "url_tdpse_detail": "https://pse.komdigi.go.id/tdpse-detail/20729",
            "website": "brightcollar.id"
        },
        {
            "id": "9d33f904-bdc1-4dc0-b4df-a71b51d3612f",
            "nama_pse": "PANASONIC GOBEL INDONESIA",
            "nama_se": "PANASONIC GOBEL INDONESIA",
            "sektor": "Sektor Perdagangan",
            "tanggal_terbit": "2024-10-09",
            "url_tdpse_detail": "https://pse.komdigi.go.id/tdpse-detail/20703",
            "website": "-"
        },
        {
            "id": "9d33c354-8acc-4b43-af69-a8af947118ea",
            "nama_pse": "TEKNOLOGI PEMBAYARAN INTERNASIONAL",
            "nama_se": "TPI PPOB",
            "sektor": "Sektor Perdagangan, Sektor Teknologi Informasi dan Komunikasi",
            "tanggal_terbit": "2024-10-09",
            "url_tdpse_detail": "https://pse.komdigi.go.id/tdpse-detail/20697",
            "website": "-"
        },
        {
            "id": "9d3357ca-e6c2-4bda-977f-441839eb32b5",
            "nama_pse": "ASURANSI BINAGRIYA UPAKARA",
            "nama_se": "BIMO",
            "sektor": "Sektor Keuangan",
            "tanggal_terbit": "2024-10-09",
            "url_tdpse_detail": "https://pse.komdigi.go.id/tdpse-detail/20687",
            "website": "bimo.binagriyaupakara.com"
        },
        {
            "id": "9d339849-bbb4-43d6-9343-d36b75bdf066",
            "nama_pse": "INOVASI NEXUSTEK INDONESIA",
            "nama_se": "nexustek.shop",
            "sektor": "Sektor Perdagangan",
            "tanggal_terbit": "2024-10-09",
            "url_tdpse_detail": "https://pse.komdigi.go.id/tdpse-detail/20692",
            "website": "nexustek.shop"
        },
        {
            "id": "9d338baf-38b5-4e11-bd8b-9177be289910",
            "nama_pse": "BUMAME CAHAYA MEDIKA",
            "nama_se": "BUMAME",
            "sektor": "Sektor Kesehatan",
            "tanggal_terbit": "2024-10-09",
            "url_tdpse_detail": "https://pse.komdigi.go.id/tdpse-detail/20691",
            "website": "bumame.com"
        },
        {
            "id": "9d33ac80-19a4-47ea-9300-5e08e15b408b",
            "nama_pse": "KOMODITI BARTER INTEGRA",
            "nama_se": "TRUSTEDITY",
            "sektor": "Sektor Teknologi Informasi dan Komunikasi",
            "tanggal_terbit": "2024-10-09",
            "url_tdpse_detail": "https://pse.komdigi.go.id/tdpse-detail/20693",
            "website": "trustedity.com"
        },
        {
            "id": "9d33b4a6-ed99-4f07-9f52-e1d9f30d5c8d",
            "nama_pse": "KOMODITI BARTER INTEGRA",
            "nama_se": "MARKET TRUSTEDITY",
            "sektor": "Sektor Perdagangan",
            "tanggal_terbit": "2024-10-09",
            "url_tdpse_detail": "https://pse.komdigi.go.id/tdpse-detail/20694",
            "website": "market.trustedity.com"
        },
        {
            "id": "9d335811-468c-4f65-97ea-59cfc2a09e43",
            "nama_pse": "PASARPOLIS INSURANCE BROKER",
            "nama_se": "WEBSITE PPIBROKER",
            "sektor": "Sektor Keuangan",
            "tanggal_terbit": "2024-10-09",
            "url_tdpse_detail": "https://pse.komdigi.go.id/tdpse-detail/20688",
            "website": "ppibroker.co.id"
        },
        {
            "id": "9d33ba13-7d33-46af-9c1a-c29d936241eb",
            "nama_pse": "KOMODITI BARTER INTEGRA",
            "nama_se": "PASS TRUSTEDITY",
            "sektor": "Sektor Perdagangan, Sektor Teknologi Informasi dan Komunikasi",
            "tanggal_terbit": "2024-10-09",
            "url_tdpse_detail": "https://pse.komdigi.go.id/tdpse-detail/20696",
            "website": "-"
        },
        {
            "id": "9d34078d-9211-4a73-ba7a-2294bedef647",
            "nama_pse": "BIGDATA MEDIA TEKNOLOGI",
            "nama_se": "KABTOUR",
            "sektor": "Sektor Teknologi Informasi dan Komunikasi",
            "tanggal_terbit": "2024-10-09",
            "url_tdpse_detail": "https://pse.komdigi.go.id/tdpse-detail/20707",
            "website": "kabtour.com"
        },
        {
            "id": "9d33d447-49c6-4a98-9df0-3a4c7a5070f9",
            "nama_pse": "OFFICIUM NOVEM NOVEM",
            "nama_se": "OFFICE 99",
            "sektor": "Sektor Perdagangan",
            "tanggal_terbit": "2024-10-09",
            "url_tdpse_detail": "https://pse.komdigi.go.id/tdpse-detail/20699",
            "website": "office99.com"
        },
        {
            "id": "9d33e79e-b67b-4ec6-8856-6ef5d9b65efa",
            "nama_pse": "MUHAMAD DANANG PRIAMBODO",
            "nama_se": "TEMAN SEJATI",
            "sektor": "Sektor Teknologi Informasi dan Komunikasi",
            "tanggal_terbit": "2024-10-09",
            "url_tdpse_detail": "https://pse.komdigi.go.id/tdpse-detail/20701",
            "website": "teman-sejati.com"
        },
        {
            "id": "9d32c136-b7cd-4d0e-975c-67656ed5e37b",
            "nama_pse": "SADEWA MULTI MEDIA",
            "nama_se": "klikwartanews.id",
            "sektor": "Sektor Teknologi Informasi dan Komunikasi",
            "tanggal_terbit": "2024-10-09",
            "url_tdpse_detail": "https://pse.komdigi.go.id/tdpse-detail/20686",
            "website": "klikwartanews.id"
        },
        {
            "id": "9d337f11-d8e9-4553-8a57-c709f6b0404f",
            "nama_pse": "INDUSTRI FURNITURE INDONESIA",
            "nama_se": "WEBSITE E-RETAIL FURNITURE",
            "sektor": "Sektor Perdagangan, Sektor Teknologi Informasi dan Komunikasi",
            "tanggal_terbit": "2024-10-09",
            "url_tdpse_detail": "https://pse.komdigi.go.id/tdpse-detail/20689",
            "website": "sapporo.co.id"
        },
        {
            "id": "9d33fd1d-67e2-4b58-b541-04003a438155",
            "nama_pse": "INOVASI FINANSIAL UNTUK INDONESIA",
            "nama_se": "TANAHKU",
            "sektor": "Sektor Teknologi Informasi dan Komunikasi",
            "tanggal_terbit": "2024-10-09",
            "url_tdpse_detail": "https://pse.komdigi.go.id/tdpse-detail/20704",
            "website": "tanahku.id"
        },
        {
            "id": "9d34479c-db05-4a3a-ae64-6db6be585725",
            "nama_pse": "ANTON WIBOWO",
            "nama_se": "JAGOKLINIK",
            "sektor": "Sektor Kesehatan",
            "tanggal_terbit": "2024-10-09",
            "url_tdpse_detail": "https://pse.komdigi.go.id/tdpse-detail/20708",
            "website": "jagokarya.id"
        },
        {
            "id": "9d33b897-fa28-47bc-8d09-92137129a1ef",
            "nama_pse": "MITRA NIAGA UTAMA",
            "nama_se": "WUSH",
            "sektor": "Sektor Keuangan",
            "tanggal_terbit": "2024-10-09",
            "url_tdpse_detail": "https://pse.komdigi.go.id/tdpse-detail/20695",
            "website": "kspmitraniagautama.com"
        },
        {
            "id": "9d0d67f8-26e4-4902-9644-6fed5862a77a",
            "nama_pse": "VINFAST AUTOMOBILE INDONESIA",
            "nama_se": "VINFAST INDONESIA WEBISTE",
            "sektor": "Sektor Perdagangan, Sektor Teknologi Informasi dan Komunikasi",
            "tanggal_terbit": "2024-10-09",
            "url_tdpse_detail": "https://pse.komdigi.go.id/tdpse-detail/20690",
            "website": "vinfastauto.id"
        },
        {
            "id": "9d321b9b-df99-48b8-afc9-9454795e276f",
            "nama_pse": "KREASI SANDY DIGITAL",
            "nama_se": "PT KREASI SANDY DIGITAL",
            "sektor": "Sektor Perdagangan",
            "tanggal_terbit": "2024-10-08",
            "url_tdpse_detail": "https://pse.komdigi.go.id/tdpse-detail/20685",
            "website": "sandyholiday.com"
        },
        {
            "id": "9d30a464-f6e0-4dc3-8c55-6e0ee0ea9160",
            "nama_pse": "ABDIEL WILYAR GONI",
            "nama_se": "byteRims Data Insight (BDI)",
            "sektor": "Sektor Teknologi Informasi dan Komunikasi",
            "tanggal_terbit": "2024-10-08",
            "url_tdpse_detail": "https://pse.komdigi.go.id/tdpse-detail/20679",
            "website": "byterimsdatains.cloud"
        },
        {
            "id": "9d3196ac-94b2-4507-9aaa-7f1b3da135a7",
            "nama_pse": "REZEKI MAKMUR ARIJAYA",
            "nama_se": "TASCORP",
            "sektor": "Sektor Perdagangan, Sektor Teknologi Informasi dan Komunikasi",
            "tanggal_terbit": "2024-10-08",
            "url_tdpse_detail": "https://pse.komdigi.go.id/tdpse-detail/20681",
            "website": "tascorp.id"
        },
        {
            "id": "9d31c9e8-ab28-49ab-9fbf-fd025e7e1a51",
            "nama_pse": "DJOGJA NETWORK",
            "nama_se": "CUSTOMER SERVICE ONLINE",
            "sektor": "Sektor Perdagangan, Sektor Teknologi Informasi dan Komunikasi",
            "tanggal_terbit": "2024-10-08",
            "url_tdpse_detail": "https://pse.komdigi.go.id/tdpse-detail/20682",
            "website": "customerservice.co.id"
        },
        {
            "id": "9d31db08-af0c-46d8-96e4-c2052791a7ae",
            "nama_pse": "DAILY DINAMIKA KREASI",
            "nama_se": "MOMMIES DAILY",
            "sektor": "Sektor Teknologi Informasi dan Komunikasi",
            "tanggal_terbit": "2024-10-08",
            "url_tdpse_detail": "https://pse.komdigi.go.id/tdpse-detail/20683",
            "website": "mommiesdaily.com"
        },
        {
            "id": "9d318844-55ab-4157-8a64-07216c87f3a0",
            "nama_pse": "DJOGJA NETWORK",
            "nama_se": "MARKETPLACES.CO.ID",
            "sektor": "Sektor Perdagangan, Sektor Teknologi Informasi dan Komunikasi",
            "tanggal_terbit": "2024-10-08",
            "url_tdpse_detail": "https://pse.komdigi.go.id/tdpse-detail/20680",
            "website": "marketplaces.co.id"
        },
        {
            "id": "9d31fc9e-aa03-402c-82f5-504d24679689",
            "nama_pse": "COBAS PERKAKAS SEJAHTERA",
            "nama_se": "cobasstore.co.id",
            "sektor": "Sektor Perdagangan",
            "tanggal_terbit": "2024-10-08",
            "url_tdpse_detail": "https://pse.komdigi.go.id/tdpse-detail/20684",
            "website": "cobasstore.co.id"
        },
        {
            "id": "9d2ff594-4e94-4863-82a2-acfa51c2a6fe",
            "nama_pse": "RONISAH PUTRA BUTARBUTAR",
            "nama_se": "BLANJAPULSA",
            "sektor": "Sektor Perdagangan",
            "tanggal_terbit": "2024-10-07",
            "url_tdpse_detail": "https://pse.komdigi.go.id/tdpse-detail/20677",
            "website": "blanjapulsa.com"
        },
        {
            "id": "9d2f444f-8d36-4e30-87ed-9137e42a61ed",
            "nama_pse": "PEMUKASAKTI MANISINDAH",
            "nama_se": "MOBILE FARMER",
            "sektor": "Sektor Teknologi Informasi dan Komunikasi",
            "tanggal_terbit": "2024-10-07",
            "url_tdpse_detail": "https://pse.komdigi.go.id/tdpse-detail/20658",
            "website": "-"
        },
        {
            "id": "9d2f7e77-641c-4cb6-bdb7-4cf5ee32dcb5",
            "nama_pse": "PEMUKASAKTI MANISINDAH",
            "nama_se": "MOBILE WO",
            "sektor": "Sektor Teknologi Informasi dan Komunikasi",
            "tanggal_terbit": "2024-10-07",
            "url_tdpse_detail": "https://pse.komdigi.go.id/tdpse-detail/20663",
            "website": "-"
        },
        {
            "id": "9d2ff205-279e-4afc-9db1-7b25854d1942",
            "nama_pse": "SUN MOTOR JAKARTA",
            "nama_se": "SUN MOTOR",
            "sektor": "Sektor Perdagangan",
            "tanggal_terbit": "2024-10-07",
            "url_tdpse_detail": "https://pse.komdigi.go.id/tdpse-detail/20676",
            "website": "sunmotor.com"
        },
        {
            "id": "9d2f390b-6715-4b48-832a-1c2c9961dfc4",
            "nama_pse": "DARMAWANI MITRA SOLUSINDO",
            "nama_se": "DEJOBS",
            "sektor": "Sektor Perdagangan, Sektor Teknologi Informasi dan Komunikasi",
            "tanggal_terbit": "2024-10-07",
            "url_tdpse_detail": "https://pse.komdigi.go.id/tdpse-detail/20657",
            "website": "dejobs.id"
        },
        {
            "id": "9d2fd8b2-9f90-423f-a322-5a0d3cc7ca84",
            "nama_pse": "WETHEPETS KAWAN INDONESIA",
            "nama_se": "SMOLJOY",
            "sektor": "Sektor Perdagangan, Sektor Teknologi Informasi dan Komunikasi",
            "tanggal_terbit": "2024-10-07",
            "url_tdpse_detail": "https://pse.komdigi.go.id/tdpse-detail/20674",
            "website": "smoljoy.com"
        },
        {
            "id": "9d2f493f-9e6f-4f33-8b38-4462b25baea3",
            "nama_pse": "JAMES NOVI LONTOH",
            "nama_se": "xbornet digtro technology",
            "sektor": "Sektor Perdagangan, Sektor Teknologi Informasi dan Komunikasi",
            "tanggal_terbit": "2024-10-07",
            "url_tdpse_detail": "https://pse.komdigi.go.id/tdpse-detail/20659",
            "website": "xbornet.biz.id"
        },
        {
            "id": "9d2f94a5-4621-4c6b-b287-8033b07b0d97",
            "nama_pse": "PEMUKASAKTI MANISINDAH",
            "nama_se": "portal-gis.psmi.co.id",
            "sektor": "Sektor Teknologi Informasi dan Komunikasi",
            "tanggal_terbit": "2024-10-07",
            "url_tdpse_detail": "https://pse.komdigi.go.id/tdpse-detail/20667",
            "website": "portal-gis.psmi.co.id"
        },
        {
            "id": "9d2f73c2-3616-4188-b486-ba9e16aabf10",
            "nama_pse": "PEMUKASAKTI MANISINDAH",
            "nama_se": "HR MOBILE",
            "sektor": "Sektor Teknologi Informasi dan Komunikasi",
            "tanggal_terbit": "2024-10-07",
            "url_tdpse_detail": "https://pse.komdigi.go.id/tdpse-detail/20662",
            "website": "-"
        },
        {
            "id": "9d2fd32d-a669-4fe6-950c-ec293031c4c6",
            "nama_pse": "CGS International Sekuritas Indonesia",
            "nama_se": "CGS ITRADE MOBILE APPS",
            "sektor": "Sektor Keuangan",
            "tanggal_terbit": "2024-10-07",
            "url_tdpse_detail": "https://pse.komdigi.go.id/tdpse-detail/20671",
            "website": "-"
        },
        {
            "id": "9d2f8690-6972-40ab-814e-4bae777272ad",
            "nama_pse": "PEMUKASAKTI MANISINDAH",
            "nama_se": "appcloud.psmi.co.id",
            "sektor": "Sektor Teknologi Informasi dan Komunikasi",
            "tanggal_terbit": "2024-10-07",
            "url_tdpse_detail": "https://pse.komdigi.go.id/tdpse-detail/20664",
            "website": "appcloud.psmi.co.id"
        }
    ],
    "processingTimeMs": 2,
    "query": "",
    "totalHits": 19131,
    "hitsPerPage": 50,
    "page": 34,
    "totalPages": 383
}