{
    "hits": [
        {
            "id": "9cb1ac2e-3d56-4a9e-9f2b-78a1ddcbd9eb",
            "nama_pse": "DIGITAL KREASI GROUP",
            "nama_se": "PT. DIGITAL KREASI GROUP",
            "sektor": "Sektor Teknologi Informasi dan Komunikasi",
            "tanggal_terbit": "2023-02-13",
            "url_tdpse_detail": "https://pse.komdigi.go.id/tdpse-detail/13789",
            "website": "digitalkreasigroup.com"
        },
        {
            "id": "9cb1ac3d-a5af-4bdc-a8ab-1fc12b60e55d",
            "nama_pse": "INDO TEKNOLOGI CEMERLANG",
            "nama_se": "BOOKINGTOGO.COM",
            "sektor": "Sektor Teknologi Informasi dan Komunikasi",
            "tanggal_terbit": "2023-02-13",
            "url_tdpse_detail": "https://pse.komdigi.go.id/tdpse-detail/13790",
            "website": "bookingtogo.com"
        },
        {
            "id": "9cb1ac2e-402b-43cb-87d6-153022a9f805",
            "nama_pse": "BANGKIT TEKNOLOGI INDONESIA",
            "nama_se": "CITRA CINTA",
            "sektor": "Sektor Perdagangan",
            "tanggal_terbit": "2023-02-13",
            "url_tdpse_detail": "https://pse.komdigi.go.id/tdpse-detail/13792",
            "website": "ClTRAClNTA.COM"
        },
        {
            "id": "9cb1ac1c-0638-4720-bba6-62c1165672b6",
            "nama_pse": "BANGKIT TEKNOLOGI INDONESIA",
            "nama_se": "KAPAS HIJAU",
            "sektor": "Sektor Perdagangan",
            "tanggal_terbit": "2023-02-13",
            "url_tdpse_detail": "https://pse.komdigi.go.id/tdpse-detail/13793",
            "website": "kapashijau.com"
        },
        {
            "id": "9cb1ac2e-43b0-4040-b701-47919631dcc7",
            "nama_pse": "IMPIAN SUKSES ANAK BANGSA",
            "nama_se": "KAMPI",
            "sektor": "Sektor Teknologi Informasi dan Komunikasi",
            "tanggal_terbit": "2023-02-13",
            "url_tdpse_detail": "https://pse.komdigi.go.id/tdpse-detail/13795",
            "website": "kampi.site"
        },
        {
            "id": "9cb1ac2e-4872-4b3c-a056-c7e37688e5aa",
            "nama_pse": "NETRA FUTURA TEKNOLOGI",
            "nama_se": "NETRA",
            "sektor": "Sektor Perdagangan, Sektor Teknologi Informasi dan Komunikasi",
            "tanggal_terbit": "2023-02-13",
            "url_tdpse_detail": "https://pse.komdigi.go.id/tdpse-detail/13796",
            "website": "netra.live"
        },
        {
            "id": "9cb1ac1c-0162-4a7a-a14c-592e894d110b",
            "nama_pse": "CEMERLANG DAYA SUKSES",
            "nama_se": "HTTPS://SOLUSI60.COM",
            "sektor": "Sektor Perdagangan",
            "tanggal_terbit": "2023-02-12",
            "url_tdpse_detail": "https://pse.komdigi.go.id/tdpse-detail/13783",
            "website": "-"
        },
        {
            "id": "9cb1ac1b-fe5c-4816-8956-14f82fdc3355",
            "nama_pse": "PT INOVASI IDE UTAMA",
            "nama_se": "SIMRS IDEPLEX",
            "sektor": "Sektor Kesehatan, Sektor Teknologi Informasi dan Komunikasi",
            "tanggal_terbit": "2023-02-11",
            "url_tdpse_detail": "https://pse.komdigi.go.id/tdpse-detail/13778",
            "website": "ideplex.com"
        },
        {
            "id": "9cb1ac2e-2953-40e1-a85d-98c5cd3e13be",
            "nama_pse": "GARTA TRI PUTRA",
            "nama_se": "QIMARA NEWS",
            "sektor": "Sektor Teknologi Informasi dan Komunikasi",
            "tanggal_terbit": "2023-02-11",
            "url_tdpse_detail": "https://pse.komdigi.go.id/tdpse-detail/13779",
            "website": "qimaranews.com"
        },
        {
            "id": "9cb1ac2e-2beb-459c-9278-c2019d3eeab0",
            "nama_pse": "RUANG ANDA NUSANTARA",
            "nama_se": "ANDA WELLNESS",
            "sektor": "Sektor Kesehatan",
            "tanggal_terbit": "2023-02-11",
            "url_tdpse_detail": "https://pse.komdigi.go.id/tdpse-detail/13780",
            "website": "andawellnes.co.id"
        },
        {
            "id": "9cb1ac3d-97eb-48e0-8ae3-cd862a385edc",
            "nama_pse": "GIRI BUDIYANTO",
            "nama_se": "OCTOPUS LABORATORY",
            "sektor": "Sektor Teknologi Informasi dan Komunikasi",
            "tanggal_terbit": "2023-02-11",
            "url_tdpse_detail": "https://pse.komdigi.go.id/tdpse-detail/13781",
            "website": "octopuslab.net"
        },
        {
            "id": "9cb1ac3d-9b8d-484c-9a50-112e41747bc1",
            "nama_pse": "MITRA CSR INDONESIA",
            "nama_se": "MITRA CSR INDONESIA",
            "sektor": "Sektor Teknologi Informasi dan Komunikasi",
            "tanggal_terbit": "2023-02-11",
            "url_tdpse_detail": "https://pse.komdigi.go.id/tdpse-detail/13782",
            "website": "-"
        },
        {
            "id": "9cb1ac3d-7cf2-45a4-854e-fced58bfa8a5",
            "nama_pse": "ANDALAN GEMA SEMESTA",
            "nama_se": "LENSASUMATERA.ID",
            "sektor": "Sektor Teknologi Informasi dan Komunikasi",
            "tanggal_terbit": "2023-02-10",
            "url_tdpse_detail": "https://pse.komdigi.go.id/tdpse-detail/13766",
            "website": "lensasumatera.id"
        },
        {
            "id": "9cb1ac3d-7fc2-42f7-85b3-f6a7a8cf7f23",
            "nama_pse": "TIMUR PERKASA ABADI",
            "nama_se": "HALAL STORE",
            "sektor": "Sektor Teknologi Informasi dan Komunikasi",
            "tanggal_terbit": "2023-02-10",
            "url_tdpse_detail": "https://pse.komdigi.go.id/tdpse-detail/13767",
            "website": "halalstore.asia"
        },
        {
            "id": "9cb1ac2e-2136-42a7-9758-82349e54c9ab",
            "nama_pse": "AGARISTA GLOBAL NUSANTARA",
            "nama_se": "AGARISTA",
            "sektor": "Sektor Teknologi Informasi dan Komunikasi",
            "tanggal_terbit": "2023-02-10",
            "url_tdpse_detail": "https://pse.komdigi.go.id/tdpse-detail/13768",
            "website": "agarista.co.id"
        },
        {
            "id": "9cb1ac2e-23d2-4a9b-9638-e4dc83486368",
            "nama_pse": "KOPERASI UNIT DESA MAKARTI",
            "nama_se": "KOPERASI PRODUSEN UNIT DESA MAKARTI TAMA",
            "sektor": "Sektor Perdagangan",
            "tanggal_terbit": "2023-02-10",
            "url_tdpse_detail": "https://pse.komdigi.go.id/tdpse-detail/13769",
            "website": "-"
        },
        {
            "id": "9cb1ac3d-83b8-40e6-96e7-df49581b47c0",
            "nama_pse": "ASCLEPIO EDUKASI MEDIKA INDONESIA",
            "nama_se": "ASCLEPIO",
            "sektor": "Sektor Kesehatan",
            "tanggal_terbit": "2023-02-10",
            "url_tdpse_detail": "https://pse.komdigi.go.id/tdpse-detail/13770",
            "website": "asclepio.id"
        },
        {
            "id": "9cb1ac3d-868b-43f2-bafd-b4c0d9e2abb0",
            "nama_pse": "BRILIAN NEWS SOTYA",
            "nama_se": "BRILIAN NEWS SOTYA",
            "sektor": "Sektor Teknologi Informasi dan Komunikasi",
            "tanggal_terbit": "2023-02-10",
            "url_tdpse_detail": "https://pse.komdigi.go.id/tdpse-detail/13771",
            "website": "Brilian-news.id"
        },
        {
            "id": "9cb1ac1b-f3fa-459d-b668-eba659509d4f",
            "nama_pse": "AGATE INTERNATIONAL",
            "nama_se": "MEMORIES: MY STORY, MY CHOICE",
            "sektor": "Sektor Teknologi Informasi dan Komunikasi",
            "tanggal_terbit": "2023-02-10",
            "url_tdpse_detail": "https://pse.komdigi.go.id/tdpse-detail/13772",
            "website": "memoriesinteractive.com"
        },
        {
            "id": "9cb1ac1b-f838-4783-9138-63f767e28e55",
            "nama_pse": "HANDAL SELARAS MATERNAL",
            "nama_se": "SIM KMNC",
            "sektor": "Sektor Kesehatan, Sektor Teknologi Informasi dan Komunikasi",
            "tanggal_terbit": "2023-02-10",
            "url_tdpse_detail": "https://pse.komdigi.go.id/tdpse-detail/13773",
            "website": "-"
        },
        {
            "id": "9cb1ac3d-8e89-468b-94a8-70307df4202a",
            "nama_pse": "RUMAH SAKIT KETERGANTUNGAN OBAT JAKARTA DITJEN PELAYANAN",
            "nama_se": "SIMRSKO (SIMRS KETERGANTUNGAN OBAT)",
            "sektor": "Sektor Kesehatan, Sektor Teknologi Informasi dan Komunikasi",
            "tanggal_terbit": "2023-02-10",
            "url_tdpse_detail": "https://pse.komdigi.go.id/tdpse-detail/13774",
            "website": "rskojakarta.id"
        },
        {
            "id": "9cb1ac3d-9294-4481-b2d8-2bd31764702b",
            "nama_pse": "BMT ARTHA BAROKAH",
            "nama_se": "BMT MOBILE ON LINE",
            "sektor": "Sektor Teknologi Informasi dan Komunikasi",
            "tanggal_terbit": "2023-02-10",
            "url_tdpse_detail": "https://pse.komdigi.go.id/tdpse-detail/13775",
            "website": "-"
        },
        {
            "id": "9cb1ac1b-fbbf-468f-9d8d-258371904e9a",
            "nama_pse": "TAUFIK",
            "nama_se": "EKRAF",
            "sektor": "Sektor Teknologi Informasi dan Komunikasi",
            "tanggal_terbit": "2023-02-10",
            "url_tdpse_detail": "https://pse.komdigi.go.id/tdpse-detail/13776",
            "website": "ekraf.my.id"
        },
        {
            "id": "9cb1ac3d-954c-4096-952b-4cd4646f6712",
            "nama_pse": "BEDA KREATIVA CORPORA",
            "nama_se": "SENSEBIZ INDONESIA",
            "sektor": "Sektor Perdagangan, Sektor Teknologi Informasi dan Komunikasi",
            "tanggal_terbit": "2023-02-10",
            "url_tdpse_detail": "https://pse.komdigi.go.id/tdpse-detail/13777",
            "website": "sense.biz.id"
        },
        {
            "id": "9cb1ac1b-5d1e-4e7e-ab9f-a4a62235f447",
            "nama_pse": "QUKERJA MITRA SOLUSI",
            "nama_se": "QUKERJA",
            "sektor": "Sektor Teknologi Informasi dan Komunikasi",
            "tanggal_terbit": "2023-02-09",
            "url_tdpse_detail": "https://pse.komdigi.go.id/tdpse-detail/13761",
            "website": "qukerja.id"
        },
        {
            "id": "9cb1ac1b-e09f-4263-9ae3-8fcd1459b60e",
            "nama_pse": "RUMAH SAKIT UMUM DAERAH CENGKARENG  PROVINSI DKI  JAKARTA",
            "nama_se": "MERSI",
            "sektor": "Sektor Kesehatan",
            "tanggal_terbit": "2023-02-09",
            "url_tdpse_detail": "https://pse.komdigi.go.id/tdpse-detail/13758",
            "website": "rsudcengkareng.jakarta.go.id"
        },
        {
            "id": "9cb1ac2e-1618-4ecf-be33-4a76e838c905",
            "nama_pse": "CAKRA YASA INFINITEK",
            "nama_se": "SUREPLUS",
            "sektor": "Sektor Perdagangan, Sektor Teknologi Informasi dan Komunikasi",
            "tanggal_terbit": "2023-02-09",
            "url_tdpse_detail": "https://pse.komdigi.go.id/tdpse-detail/13759",
            "website": "sureplus.co.id"
        },
        {
            "id": "9cb1ac3d-7662-4998-81ba-5907a2c3bebd",
            "nama_pse": "BALI LINTAS MEDIA",
            "nama_se": "WWW.KEN-KENKHABARE.COM",
            "sektor": "Sektor Teknologi Informasi dan Komunikasi",
            "tanggal_terbit": "2023-02-09",
            "url_tdpse_detail": "https://pse.komdigi.go.id/tdpse-detail/13760",
            "website": "ken-kenkhabare.com"
        },
        {
            "id": "9cb1ac2e-18e7-4bb2-bc77-f2e3690fee5b",
            "nama_pse": "AHMAD SYAFRIE SYAMSUDIN",
            "nama_se": "SPEKTRUM DESAIN \u0026 FASHION",
            "sektor": "Sektor Teknologi Informasi dan Komunikasi",
            "tanggal_terbit": "2023-02-09",
            "url_tdpse_detail": "https://pse.komdigi.go.id/tdpse-detail/13762",
            "website": "spektrum.biz.id"
        },
        {
            "id": "9cb1ac3d-79e7-4f7d-bb5f-51d3ce36abed",
            "nama_pse": "BERSAMA BERSATU MANDIRI DAN SEJAHTERA",
            "nama_se": "KOPERASI MOBILE ONLINE",
            "sektor": "Sektor Teknologi Informasi dan Komunikasi",
            "tanggal_terbit": "2023-02-09",
            "url_tdpse_detail": "https://pse.komdigi.go.id/tdpse-detail/13763",
            "website": "-"
        },
        {
            "id": "9cb1ac2e-1b77-4476-9bec-097d4a244702",
            "nama_pse": "ORIENTAL INCHAWAY INTERNATIONAL",
            "nama_se": "INCHAWAY",
            "sektor": "Sektor Teknologi Informasi dan Komunikasi",
            "tanggal_terbit": "2023-02-09",
            "url_tdpse_detail": "https://pse.komdigi.go.id/tdpse-detail/13765",
            "website": "inchaway.id"
        },
        {
            "id": "9cb1ac2e-1e58-4bd4-9fde-3b721b6deded",
            "nama_pse": "TRIBUN LINTAS MEDIA",
            "nama_se": "TRIBUN-MALUKU.COM",
            "sektor": "Sektor Teknologi Informasi dan Komunikasi",
            "tanggal_terbit": "2023-02-09",
            "url_tdpse_detail": "https://pse.komdigi.go.id/tdpse-detail/13764",
            "website": "tribun-maluku.com"
        },
        {
            "id": "9cb1ac3d-26d0-40c7-a4c0-d4d09ed2a947",
            "nama_pse": "GMX TIGA DIMENSI",
            "nama_se": "GMX3D.COM",
            "sektor": "Sektor Teknologi Informasi dan Komunikasi",
            "tanggal_terbit": "2023-02-08",
            "url_tdpse_detail": "https://pse.komdigi.go.id/tdpse-detail/13727",
            "website": "gmx3d.com"
        },
        {
            "id": "9cb1ac1b-c986-4650-bda0-47fdf1bd877a",
            "nama_pse": "DANA PERSIUN PERTAMINA",
            "nama_se": "PORTAL.DP-PERTAMINA.COM",
            "sektor": "Sektor Keuangan",
            "tanggal_terbit": "2023-02-08",
            "url_tdpse_detail": "https://pse.komdigi.go.id/tdpse-detail/13734",
            "website": "dp-pertamina.com"
        },
        {
            "id": "9cb1ac1b-cc25-4ef2-b41d-643879885144",
            "nama_pse": "RSUP DR. SITANALA TANGERANG",
            "nama_se": "APLIKASI SIMRS RUMAH SAKIT",
            "sektor": "Sektor Kesehatan",
            "tanggal_terbit": "2023-02-08",
            "url_tdpse_detail": "https://pse.komdigi.go.id/tdpse-detail/13729",
            "website": "-"
        },
        {
            "id": "9cb1ac2d-f3a6-4212-a1b0-431f07f4f1b2",
            "nama_pse": "USSI PINBUK PRIMA SOFTWARE",
            "nama_se": "IBS BRANCHLESS",
            "sektor": "Sektor Teknologi Informasi dan Komunikasi",
            "tanggal_terbit": "2023-02-08",
            "url_tdpse_detail": "https://pse.komdigi.go.id/tdpse-detail/13731",
            "website": "-"
        },
        {
            "id": "9cb1ac1b-d283-4d55-9cc4-38538448c0f6",
            "nama_pse": "PETSKITA TEKNOLOGI INDONESIA",
            "nama_se": "PETSKITA",
            "sektor": "Sektor Perdagangan",
            "tanggal_terbit": "2023-02-08",
            "url_tdpse_detail": "https://pse.komdigi.go.id/tdpse-detail/13733",
            "website": "-"
        },
        {
            "id": "9cb1ac1b-d56f-4de9-aeff-cd797f6bc0f2",
            "nama_pse": "RUMAH SAKIT UMUM DR M DJAMIL PADANG DITJEN PELAYANAN KESEHATAN KEMENTERIAN KESEHATAN",
            "nama_se": "SIMRS RSMDJ",
            "sektor": "Sektor Kesehatan, Sektor Teknologi Informasi dan Komunikasi",
            "tanggal_terbit": "2023-02-08",
            "url_tdpse_detail": "https://pse.komdigi.go.id/tdpse-detail/13732",
            "website": "rsdjamil.co.id"
        },
        {
            "id": "9cb1ac3d-2aeb-4bef-8fc9-b488383db9a9",
            "nama_pse": "ATOMICA ISVARA RITELINDO",
            "nama_se": "WEBSITE ATMOS INDONESIA",
            "sektor": "Sektor Perdagangan",
            "tanggal_terbit": "2023-02-08",
            "url_tdpse_detail": "https://pse.komdigi.go.id/tdpse-detail/13735",
            "website": "atmos.co.id"
        },
        {
            "id": "9cb1ac1b-d83b-4f55-98e8-5ce5be54f8e4",
            "nama_pse": "PILIH TALENTA INDONESIA",
            "nama_se": "PITAL",
            "sektor": "Sektor Perdagangan",
            "tanggal_terbit": "2023-02-08",
            "url_tdpse_detail": "https://pse.komdigi.go.id/tdpse-detail/13737",
            "website": "-"
        },
        {
            "id": "9cb1ac3d-2dfe-4564-9b2c-17bc8e903128",
            "nama_pse": "AGATE INTERNATIONAL",
            "nama_se": "HEALTH HEROES NUTRIHUNT",
            "sektor": "Sektor Kesehatan, Sektor Teknologi Informasi dan Komunikasi",
            "tanggal_terbit": "2023-02-08",
            "url_tdpse_detail": "https://pse.komdigi.go.id/tdpse-detail/13736",
            "website": "-"
        },
        {
            "id": "9cb1ac3d-3231-493c-b592-325df3f6a6ec",
            "nama_pse": "SEMBILAN OHM SEMBILAN",
            "nama_se": "WWW.MELISSA.CO.ID",
            "sektor": "Sektor Perdagangan",
            "tanggal_terbit": "2023-02-08",
            "url_tdpse_detail": "https://pse.komdigi.go.id/tdpse-detail/13738",
            "website": "melissa.co.id"
        },
        {
            "id": "9cb1ac3d-354c-4f96-a2ff-96414689f8d1",
            "nama_pse": "SEMBILAN OHM SEMBILAN",
            "nama_se": "WWW.707.CO.ID",
            "sektor": "Sektor Perdagangan",
            "tanggal_terbit": "2023-02-08",
            "url_tdpse_detail": "https://pse.komdigi.go.id/tdpse-detail/13739",
            "website": "707.co.id"
        },
        {
            "id": "9cb1ac2d-fe64-451a-b620-f7e8c2fe0f38",
            "nama_pse": "SEMBILAN OHM SEMBILAN",
            "nama_se": "WWW.SUPERGA.ID",
            "sektor": "Sektor Perdagangan",
            "tanggal_terbit": "2023-02-08",
            "url_tdpse_detail": "https://pse.komdigi.go.id/tdpse-detail/13740",
            "website": "superga.id"
        },
        {
            "id": "9cb1ac1b-db0f-42c2-baf8-9c35d01e3492",
            "nama_pse": "SEMBILAN OHM SEMBILAN",
            "nama_se": "WWW.ZAXY.ID",
            "sektor": "Sektor Perdagangan",
            "tanggal_terbit": "2023-02-08",
            "url_tdpse_detail": "https://pse.komdigi.go.id/tdpse-detail/13741",
            "website": "zaxy.id"
        },
        {
            "id": "9cb1ac1b-ddad-47a1-8292-bcf2eba4ba6a",
            "nama_pse": "SEMBILAN OHM SEMBILAN",
            "nama_se": "WWW.ARTANDSCIENCE.ID",
            "sektor": "Sektor Perdagangan",
            "tanggal_terbit": "2023-02-08",
            "url_tdpse_detail": "https://pse.komdigi.go.id/tdpse-detail/13742",
            "website": "artandscience.id"
        },
        {
            "id": "9cb1ac2e-01aa-4077-956f-250a251cea0f",
            "nama_pse": "NIRWANA MEDIATAMA KREASI",
            "nama_se": "REDAKSITA",
            "sektor": "Sektor Teknologi Informasi dan Komunikasi",
            "tanggal_terbit": "2023-02-08",
            "url_tdpse_detail": "https://pse.komdigi.go.id/tdpse-detail/13743",
            "website": "redaksita.com"
        },
        {
            "id": "9cb1ac1b-e32f-4f17-8c32-26ef59df6cdd",
            "nama_pse": "PANCAR JAYA PUTRA",
            "nama_se": "ASB INDONESIA",
            "sektor": "Sektor Perdagangan, Sektor Transportasi, Sektor Teknologi Informasi dan Komunikasi",
            "tanggal_terbit": "2023-02-08",
            "url_tdpse_detail": "https://pse.komdigi.go.id/tdpse-detail/13744",
            "website": "-"
        },
        {
            "id": "9cb1ac2e-0505-4b95-a411-fcde5a1b3cf7",
            "nama_pse": "MEDIA PERSADA GROUP",
            "nama_se": "TAPIS POST",
            "sektor": "Sektor Teknologi Informasi dan Komunikasi",
            "tanggal_terbit": "2023-02-08",
            "url_tdpse_detail": "https://pse.komdigi.go.id/tdpse-detail/13745",
            "website": "tapispost.com"
        },
        {
            "id": "9cb1ac2e-0879-4284-97b8-de19f275fc59",
            "nama_pse": "SOBAT JASA INDONESIA",
            "nama_se": "SOBATIZIN.COM",
            "sektor": "Sektor Perdagangan",
            "tanggal_terbit": "2023-02-08",
            "url_tdpse_detail": "https://pse.komdigi.go.id/tdpse-detail/13746",
            "website": "-"
        }
    ],
    "processingTimeMs": 4,
    "query": "",
    "totalHits": 19121,
    "hitsPerPage": 50,
    "page": 156,
    "totalPages": 383
}