{
    "hits": [
        {
            "id": "9cb1ac5e-f7ea-489a-bd55-630d543d6020",
            "nama_pse": "MTLINK TRANS MEDIA",
            "nama_se": "MTLINK INDONESIA",
            "sektor": "Sektor Perdagangan",
            "tanggal_terbit": "2024-07-27",
            "url_tdpse_detail": "https://pse.komdigi.go.id/tdpse-detail/19639",
            "website": "mtlinkindonesia.com"
        },
        {
            "id": "9cb1ac6f-83ca-4ba5-84f2-ef676f1b13bd",
            "nama_pse": "DOCTORX KREASI INDONESIA",
            "nama_se": "DERMATECH",
            "sektor": "Sektor Kesehatan, Sektor Teknologi Informasi dan Komunikasi",
            "tanggal_terbit": "2024-07-27",
            "url_tdpse_detail": "https://pse.komdigi.go.id/tdpse-detail/19640",
            "website": "dermatech.id"
        },
        {
            "id": "9cb1ac5e-db46-495d-bb4c-55940badc27f",
            "nama_pse": "KLINIK NISA",
            "nama_se": "REKAM MEDIS ELEKTRONIK",
            "sektor": "Sektor Kesehatan",
            "tanggal_terbit": "2024-07-26",
            "url_tdpse_detail": "https://pse.komdigi.go.id/tdpse-detail/19626",
            "website": "-"
        },
        {
            "id": "9cb1ac8a-bba5-472c-8688-b7dcbd65c0f9",
            "nama_pse": "TRANS LINK INTERNASIONAL",
            "nama_se": "PT.TRANS LINK INTERNASIONAL",
            "sektor": "Sektor Teknologi Informasi dan Komunikasi",
            "tanggal_terbit": "2024-07-26",
            "url_tdpse_detail": "https://pse.komdigi.go.id/tdpse-detail/19621",
            "website": "wwww.translinkinternasional.com"
        },
        {
            "id": "9cb1ac5e-ed2a-4dff-a565-aba1da9d4f6f",
            "nama_pse": "ANDRIANSYAH",
            "nama_se": "WILDJORDANCAFE",
            "sektor": "Sektor Perdagangan",
            "tanggal_terbit": "2024-07-26",
            "url_tdpse_detail": "https://pse.komdigi.go.id/tdpse-detail/19620",
            "website": "wildjordancafe.com"
        },
        {
            "id": "9cb1ac8a-cc71-4471-aea0-adb523460b2d",
            "nama_pse": "VEINSTORE DIGITAL TEKNOLOGI",
            "nama_se": "VEINSTORE",
            "sektor": "Sektor Perdagangan, Sektor Teknologi Informasi dan Komunikasi",
            "tanggal_terbit": "2024-07-26",
            "url_tdpse_detail": "https://pse.komdigi.go.id/tdpse-detail/19627",
            "website": "veinstore.id"
        },
        {
            "id": "9cb1ac74-3931-4154-bdc1-a7b593d1c2aa",
            "nama_pse": "ADI EKA AMAN",
            "nama_se": "AEAMEDCLINIC",
            "sektor": "Sektor Kesehatan",
            "tanggal_terbit": "2024-07-26",
            "url_tdpse_detail": "https://pse.komdigi.go.id/tdpse-detail/19622",
            "website": "-"
        },
        {
            "id": "9cb1ac5e-efc9-4e33-8254-5782d06f8918",
            "nama_pse": "TUKAR PULSA INDONESIA",
            "nama_se": "TUKAR PULSA",
            "sektor": "Sektor Perdagangan, Sektor Teknologi Informasi dan Komunikasi",
            "tanggal_terbit": "2024-07-26",
            "url_tdpse_detail": "https://pse.komdigi.go.id/tdpse-detail/19623",
            "website": "tukarpulsa.co.id"
        },
        {
            "id": "9cb1ac5e-f262-4761-8adc-44ec8cd5354b",
            "nama_pse": "INDONESIA PAYMENT INCORPORATED",
            "nama_se": "BUKU KOPERASI - BUKO",
            "sektor": "Sektor Teknologi Informasi dan Komunikasi",
            "tanggal_terbit": "2024-07-26",
            "url_tdpse_detail": "https://pse.komdigi.go.id/tdpse-detail/19625",
            "website": "bukukoperasi.id"
        },
        {
            "id": "9cb1ac8a-d3f5-42f6-a185-f186a7e34b80",
            "nama_pse": "INDONESIA PAYMENT INCORPORATED",
            "nama_se": "COOPKASIR",
            "sektor": "Sektor Teknologi Informasi dan Komunikasi",
            "tanggal_terbit": "2024-07-26",
            "url_tdpse_detail": "https://pse.komdigi.go.id/tdpse-detail/19632",
            "website": "payment-inc.co.id"
        },
        {
            "id": "9cb1ac8a-c311-431a-8b36-17e81c6ff485",
            "nama_pse": "TIGA INTI UTAMA",
            "nama_se": "TRIVEXCHANGE",
            "sektor": "Sektor Perdagangan, Sektor Teknologi Informasi dan Komunikasi",
            "tanggal_terbit": "2024-07-26",
            "url_tdpse_detail": "https://pse.komdigi.go.id/tdpse-detail/19707",
            "website": "trivexchange.com"
        },
        {
            "id": "9cb1ac8a-d86e-4162-8ef6-2cdafc784989",
            "nama_pse": "MERDEKA BERSAMA INDONESIA",
            "nama_se": "MERDEKA BERSAMA INDONESIA",
            "sektor": "Sektor Perdagangan, Sektor Teknologi Informasi dan Komunikasi",
            "tanggal_terbit": "2024-07-26",
            "url_tdpse_detail": "https://pse.komdigi.go.id/tdpse-detail/19636",
            "website": "merdekabersama.id"
        },
        {
            "id": "9cb1ac74-54aa-4431-96f4-c99677987852",
            "nama_pse": "DAVID SATYA WIBISONO",
            "nama_se": "DARAYA",
            "sektor": "Sektor Teknologi Informasi dan Komunikasi",
            "tanggal_terbit": "2024-07-26",
            "url_tdpse_detail": "https://pse.komdigi.go.id/tdpse-detail/19635",
            "website": "darayastr.my.id"
        },
        {
            "id": "9cb1ac74-57d2-4a4d-a9ff-fc7bf3d670a7",
            "nama_pse": "TRI FIRDAUS NASIR JABAR",
            "nama_se": "SMART CLINIC SYSTEM",
            "sektor": "Sektor Kesehatan",
            "tanggal_terbit": "2024-07-26",
            "url_tdpse_detail": "https://pse.komdigi.go.id/tdpse-detail/19634",
            "website": "papandigital.com"
        },
        {
            "id": "9cb1ac8a-c783-44ea-9cae-638e0fc258ad",
            "nama_pse": "HANDISH STORE INDONESIA",
            "nama_se": "HANDISH",
            "sektor": "Sektor Perdagangan, Sektor Teknologi Informasi dan Komunikasi",
            "tanggal_terbit": "2024-07-26",
            "url_tdpse_detail": "https://pse.komdigi.go.id/tdpse-detail/19624",
            "website": "handish.co.id"
        },
        {
            "id": "9cb1ac74-44dc-4118-a397-e519fbf79a1d",
            "nama_pse": "HIKMAT RIZAL",
            "nama_se": "IAI SATU DATA",
            "sektor": "Sektor Teknologi Informasi dan Komunikasi",
            "tanggal_terbit": "2024-07-26",
            "url_tdpse_detail": "https://pse.komdigi.go.id/tdpse-detail/19631",
            "website": "iai.or.id"
        },
        {
            "id": "9cb1ac74-3f11-473f-9f57-cd095f9ede77",
            "nama_pse": "PENSIEVE TANDA TANGAN DIGITAL",
            "nama_se": "PENSIGN",
            "sektor": "Sektor Teknologi Informasi dan Komunikasi",
            "tanggal_terbit": "2024-07-26",
            "url_tdpse_detail": "https://pse.komdigi.go.id/tdpse-detail/19629",
            "website": "-"
        },
        {
            "id": "9cb1ac6d-d2bd-4889-b07e-43bcc6325934",
            "nama_pse": "INSTITUT TEKNOLOGI BANDUNG",
            "nama_se": "YANKES ITB",
            "sektor": "Sektor Kesehatan",
            "tanggal_terbit": "2024-07-26",
            "url_tdpse_detail": "https://pse.komdigi.go.id/tdpse-detail/19633",
            "website": "-"
        },
        {
            "id": "9cb1ac74-41f5-4bd7-87d7-517190aef2b1",
            "nama_pse": "TOKOPEDIA",
            "nama_se": "TOKOPEDIA APP",
            "sektor": "Sektor Perdagangan",
            "tanggal_terbit": "2024-07-26",
            "url_tdpse_detail": "https://pse.komdigi.go.id/tdpse-detail/19630",
            "website": "-"
        },
        {
            "id": "9cb1ac8a-9c34-4fe4-ba70-4f7d861453ef",
            "nama_pse": "ROYAL AGRO SUKSES GEMILANG",
            "nama_se": "SIMITRASUMUT",
            "sektor": "Sektor Perdagangan, Sektor Teknologi Informasi dan Komunikasi",
            "tanggal_terbit": "2024-07-25",
            "url_tdpse_detail": "https://pse.komdigi.go.id/tdpse-detail/19602",
            "website": "-"
        },
        {
            "id": "9cb1ac8a-aa9a-4610-a520-e4af7059cdec",
            "nama_pse": "ROYAL AGRO SUKSES GEMILANG",
            "nama_se": "SIMITRA SUMUT E-COMMERCE FEE",
            "sektor": "Sektor Perdagangan, Sektor Teknologi Informasi dan Komunikasi",
            "tanggal_terbit": "2024-07-25",
            "url_tdpse_detail": "https://pse.komdigi.go.id/tdpse-detail/19613",
            "website": "-"
        },
        {
            "id": "9cb1ac5e-d2de-4906-9d5e-788a80c5ba78",
            "nama_pse": "SAPTA KURNIA ABADI",
            "nama_se": "SIMRS NUHA",
            "sektor": "Sektor Kesehatan",
            "tanggal_terbit": "2024-07-25",
            "url_tdpse_detail": "https://pse.komdigi.go.id/tdpse-detail/19618",
            "website": "-"
        },
        {
            "id": "9cb1ac5e-d882-4731-8d23-740dacbc2694",
            "nama_pse": "BUPA SEKAWAN MAJU",
            "nama_se": "BUPA SEKAWAN MAJU",
            "sektor": "Sektor Perdagangan",
            "tanggal_terbit": "2024-07-25",
            "url_tdpse_detail": "https://pse.komdigi.go.id/tdpse-detail/19604",
            "website": "-"
        },
        {
            "id": "9cb1ac8a-a0a0-410f-8473-458f9ec50e15",
            "nama_pse": "BINTANG PHOENIX SAKTI",
            "nama_se": "DJUBLILELANG",
            "sektor": "Sektor Teknologi Informasi dan Komunikasi",
            "tanggal_terbit": "2024-07-25",
            "url_tdpse_detail": "https://pse.komdigi.go.id/tdpse-detail/19603",
            "website": "-"
        },
        {
            "id": "9cb1ac8a-a6b8-4a06-8c95-a4d91083228e",
            "nama_pse": "BUOL MILLENIA",
            "nama_se": "SATU FASKES",
            "sektor": "Sektor Kesehatan",
            "tanggal_terbit": "2024-07-25",
            "url_tdpse_detail": "https://pse.komdigi.go.id/tdpse-detail/19608",
            "website": "buolmillenia.com"
        },
        {
            "id": "9cb1ac5e-df02-48d9-8ce7-6d5664becb71",
            "nama_pse": "OPSI UTAMA INDONESIA",
            "nama_se": "OUI CLOUD",
            "sektor": "Sektor Teknologi Informasi dan Komunikasi",
            "tanggal_terbit": "2024-07-25",
            "url_tdpse_detail": "https://pse.komdigi.go.id/tdpse-detail/19605",
            "website": "-"
        },
        {
            "id": "9cb1ac5e-e1a5-4ea1-9a00-7d08151efafe",
            "nama_pse": "Klinik Pratama Rawat Jalan CIPANAS",
            "nama_se": "ELCLINIC KLINIK CIPANAS",
            "sektor": "Sektor Kesehatan",
            "tanggal_terbit": "2024-07-25",
            "url_tdpse_detail": "https://pse.komdigi.go.id/tdpse-detail/19606",
            "website": "-"
        },
        {
            "id": "9cb1ac8a-b62e-427a-82da-d65f96f5b182",
            "nama_pse": "TAUFIK KADAFIK NAMAKULE",
            "nama_se": "PULSE",
            "sektor": "Sektor Kesehatan",
            "tanggal_terbit": "2024-07-25",
            "url_tdpse_detail": "https://pse.komdigi.go.id/tdpse-detail/19617",
            "website": "-"
        },
        {
            "id": "9cb1ac74-32f1-46e0-9ff2-647fed806ca1",
            "nama_pse": "ASIA SPORT RETAIL",
            "nama_se": "K-SWISS INDONESIA",
            "sektor": "Sektor Perdagangan",
            "tanggal_terbit": "2024-07-25",
            "url_tdpse_detail": "https://pse.komdigi.go.id/tdpse-detail/19609",
            "website": "kswiss.co.id"
        },
        {
            "id": "9cb1ac5e-e483-40a9-94e3-3c0c9aa90ea4",
            "nama_pse": "ROYAL AGRO SUKSES GEMILANG",
            "nama_se": "SIMITRA SUMUT E-COMMERCE",
            "sektor": "Sektor Perdagangan, Sektor Teknologi Informasi dan Komunikasi",
            "tanggal_terbit": "2024-07-25",
            "url_tdpse_detail": "https://pse.komdigi.go.id/tdpse-detail/19610",
            "website": "simitrasumut.com"
        },
        {
            "id": "9cb1ac5e-e7a8-4ed1-b071-79ab7b4a6792",
            "nama_pse": "ASIA SPORT RETAIL",
            "nama_se": "PALLADIUM INDONESIA",
            "sektor": "Sektor Perdagangan",
            "tanggal_terbit": "2024-07-25",
            "url_tdpse_detail": "https://pse.komdigi.go.id/tdpse-detail/19611",
            "website": "palladiumboots.co.id"
        },
        {
            "id": "9cb1ac5e-ea71-45ac-8d09-9b13db2a3dd9",
            "nama_pse": "OPSI UTAMA INDONESIA",
            "nama_se": "PEONI MABAR",
            "sektor": "Sektor Teknologi Informasi dan Komunikasi",
            "tanggal_terbit": "2024-07-25",
            "url_tdpse_detail": "https://pse.komdigi.go.id/tdpse-detail/19612",
            "website": "mabar.peoni.id"
        },
        {
            "id": "9cb1ac8a-aea8-4ec0-aac8-dca4cea9b718",
            "nama_pse": "BUKA MITRA INDONESIA",
            "nama_se": "SERVERX",
            "sektor": "Sektor Teknologi Informasi dan Komunikasi",
            "tanggal_terbit": "2024-07-25",
            "url_tdpse_detail": "https://pse.komdigi.go.id/tdpse-detail/19614",
            "website": "SERVERX.ID"
        },
        {
            "id": "9cb1ac8a-b250-4ba0-a0fc-b31a091b39b7",
            "nama_pse": "ATEP ODIH",
            "nama_se": "LAYANAN INTERNET LOKAL RT/RW.NET",
            "sektor": "Sektor Teknologi Informasi dan Komunikasi",
            "tanggal_terbit": "2024-07-25",
            "url_tdpse_detail": "https://pse.komdigi.go.id/tdpse-detail/19616",
            "website": "-"
        },
        {
            "id": "9cb1ac8a-9912-476a-86a0-9cf02e9baade",
            "nama_pse": "NEFRISA ADLINA MAARUF",
            "nama_se": "DARIZA DENTAL",
            "sektor": "Sektor Kesehatan",
            "tanggal_terbit": "2024-07-25",
            "url_tdpse_detail": "https://pse.komdigi.go.id/tdpse-detail/19601",
            "website": "-"
        },
        {
            "id": "9cb1ac74-20cd-4c12-bdd8-e1ca719f6680",
            "nama_pse": "VISI INSAN INDONESIA PRIMA",
            "nama_se": "SIMRS EYE HOSPITAL",
            "sektor": "Sektor Kesehatan",
            "tanggal_terbit": "2024-07-24",
            "url_tdpse_detail": "https://pse.komdigi.go.id/tdpse-detail/19588",
            "website": "-"
        },
        {
            "id": "9cb1ac8a-785a-4a77-aea5-519b1334e853",
            "nama_pse": "BANK PEMBANGUNAN DAERAH SULAWESI SELATAN DAN SULAWESI BARAT",
            "nama_se": "APLIKASI INVENTORY PT BANK SULSELBAR",
            "sektor": "Sektor Teknologi Informasi dan Komunikasi",
            "tanggal_terbit": "2024-07-24",
            "url_tdpse_detail": "https://pse.komdigi.go.id/tdpse-detail/19582",
            "website": "inventory.banksulselbar.co.id"
        },
        {
            "id": "9cb1ac5e-a4ea-4ab5-ab62-666b1cf56c43",
            "nama_pse": "EKA BAKTI AMERTA YOGA SEJAHTERA",
            "nama_se": "EBAYS",
            "sektor": "Sektor Keuangan",
            "tanggal_terbit": "2024-07-24",
            "url_tdpse_detail": "https://pse.komdigi.go.id/tdpse-detail/19587",
            "website": "transaksi.ebays.co.id"
        },
        {
            "id": "9cb1ac73-9c9d-4a5d-a712-b8952c8fb95f",
            "nama_pse": "PERUSAHAAN PERSEROAN (PERSERO) PT JASA MARGA (INDONESIA HIGHWAY CORPORATAMA) Tbk",
            "nama_se": "E-TENDER",
            "sektor": "Sektor Teknologi Informasi dan Komunikasi",
            "tanggal_terbit": "2024-07-24",
            "url_tdpse_detail": "https://pse.komdigi.go.id/tdpse-detail/19597",
            "website": "e-tender.jasamarga.co.id"
        },
        {
            "id": "9cb1ac74-1216-40f2-ac37-21f5312b3ad7",
            "nama_pse": "TUNTUN SEKURITAS INDONESIA",
            "nama_se": "TUNTUN",
            "sektor": "Sektor Keuangan",
            "tanggal_terbit": "2024-07-24",
            "url_tdpse_detail": "https://pse.komdigi.go.id/tdpse-detail/19586",
            "website": "tuntun.co.id"
        },
        {
            "id": "9cb1ac8a-95c0-42b6-b395-849838402124",
            "nama_pse": "TRANS LINK INTERNASIONAL",
            "nama_se": "ANITA.NET",
            "sektor": "Sektor Teknologi Informasi dan Komunikasi",
            "tanggal_terbit": "2024-07-24",
            "url_tdpse_detail": "https://pse.komdigi.go.id/tdpse-detail/19600",
            "website": "-"
        },
        {
            "id": "9cb1ac5e-bcd5-40cf-b5d0-b79d56b522b3",
            "nama_pse": "ASTRA AUTO DIGITAL",
            "nama_se": "APLIKASI SEVA",
            "sektor": "Sektor Perdagangan",
            "tanggal_terbit": "2024-07-24",
            "url_tdpse_detail": "https://pse.komdigi.go.id/tdpse-detail/19585",
            "website": "-"
        },
        {
            "id": "9cb1ac74-280e-4753-b494-13457ecbb646",
            "nama_pse": "WIDURINI SAYANG BUNDA",
            "nama_se": "SIMKES KHANZA - RSIA BUNDA FATHIA",
            "sektor": "Sektor Kesehatan",
            "tanggal_terbit": "2024-07-24",
            "url_tdpse_detail": "https://pse.komdigi.go.id/tdpse-detail/19593",
            "website": "-"
        },
        {
            "id": "9cb1ac5e-c04d-4711-a2da-248048cbd0e6",
            "nama_pse": "OAK TECHNOLOGY INDONESIA",
            "nama_se": "OAKVIP",
            "sektor": "Sektor Teknologi Informasi dan Komunikasi",
            "tanggal_terbit": "2024-07-24",
            "url_tdpse_detail": "https://pse.komdigi.go.id/tdpse-detail/19591",
            "website": "oakvip.id"
        },
        {
            "id": "9cb1ac5e-c634-429b-b1b8-7d3f65527969",
            "nama_pse": "ANEKA TAMBANG",
            "nama_se": "ANTAMLOGAMMULIA",
            "sektor": "Sektor Perdagangan",
            "tanggal_terbit": "2024-07-24",
            "url_tdpse_detail": "https://pse.komdigi.go.id/tdpse-detail/19589",
            "website": "-"
        },
        {
            "id": "9cb1ac5e-ccc5-4561-bb5e-2845e5da05bc",
            "nama_pse": "TRANS LINK INTERNASIONAL",
            "nama_se": "SANGERANG.NET.ID",
            "sektor": "Sektor Teknologi Informasi dan Komunikasi",
            "tanggal_terbit": "2024-07-24",
            "url_tdpse_detail": "https://pse.komdigi.go.id/tdpse-detail/19592",
            "website": "-"
        },
        {
            "id": "9cb1ac73-f03f-41c8-bdc0-ed25c905a9a0",
            "nama_pse": "NITORI RETAIL INDONESIA",
            "nama_se": "NITORI INDONESIA",
            "sektor": "Sektor Perdagangan",
            "tanggal_terbit": "2024-07-24",
            "url_tdpse_detail": "https://pse.komdigi.go.id/tdpse-detail/19594",
            "website": "nitori.co.id"
        },
        {
            "id": "9cb1ac74-2b50-4e33-8fa7-5557aa6a9ec5",
            "nama_pse": "HIJRAH MAJU MANDIRI",
            "nama_se": "HIJRAH MAJU MANDIRI",
            "sektor": "Sektor Kesehatan",
            "tanggal_terbit": "2024-07-24",
            "url_tdpse_detail": "https://pse.komdigi.go.id/tdpse-detail/19595",
            "website": "-"
        },
        {
            "id": "9cb1ac5e-cfae-4b57-84a2-651ea7e7a9a0",
            "nama_pse": "SINGA BERKAH MAKMUR",
            "nama_se": "SINGA BERKAH MAKMUR",
            "sektor": "Sektor Perdagangan, Sektor Teknologi Informasi dan Komunikasi",
            "tanggal_terbit": "2024-07-24",
            "url_tdpse_detail": "https://pse.komdigi.go.id/tdpse-detail/19596",
            "website": "singaberkahmakmur.com"
        },
        {
            "id": "9cb1ac8a-92a4-4e00-99e7-8af049eec913",
            "nama_pse": "YOBELINDO GRAHA MANDIRI",
            "nama_se": "BRIGHTON",
            "sektor": "Sektor Perdagangan",
            "tanggal_terbit": "2024-07-24",
            "url_tdpse_detail": "https://pse.komdigi.go.id/tdpse-detail/19599",
            "website": "brighton.co.id"
        }
    ],
    "processingTimeMs": 1,
    "query": "",
    "totalHits": 19131,
    "hitsPerPage": 50,
    "page": 54,
    "totalPages": 383
}