{
    "hits": [
        {
            "id": "9cb1ac2d-a77e-4f8d-a16e-1d2f2fd12a4d",
            "nama_pse": "SHUICUP CEMERLANG JAYA",
            "nama_se": "JASAUSAHA.BIZ.ID",
            "sektor": "Sektor Teknologi Informasi dan Komunikasi",
            "tanggal_terbit": "2023-02-03",
            "url_tdpse_detail": "https://pse.komdigi.go.id/tdpse-detail/13696",
            "website": "jasausaha.biz.id"
        },
        {
            "id": "9cb1ac3c-f956-4085-9717-56e73869dd60",
            "nama_pse": "RSO PROF. DR. R. SOEHARSO SURAKARTA",
            "nama_se": "SISTEM INFORMASI MANAJEMEN TERINTEGRASI - SIMETRIS",
            "sektor": "Sektor Kesehatan",
            "tanggal_terbit": "2023-02-03",
            "url_tdpse_detail": "https://pse.komdigi.go.id/tdpse-detail/13697",
            "website": "-"
        },
        {
            "id": "9cb1ac3c-9249-4ed1-8b33-9822c7e66b0e",
            "nama_pse": "RUMAH SAKIT UMUM PUSAT PROF.DR.R.D. KANDOU MANADO DITJEN PELAYANAN KESEHATAN KEMENTERIAN KESEHATAN",
            "nama_se": "PARIPURNA",
            "sektor": "Sektor Kesehatan",
            "tanggal_terbit": "2023-02-02",
            "url_tdpse_detail": "https://pse.komdigi.go.id/tdpse-detail/13658",
            "website": "rsupkandou.com"
        },
        {
            "id": "9cb1ac3c-b5ef-46b4-ad92-0baa6f47210f",
            "nama_pse": "RSU PUSAT DR. SOERADJI TIRTONEGORO DITJEN PELAYANAN KESEHATAN",
            "nama_se": "SINERGIS",
            "sektor": "Sektor Kesehatan",
            "tanggal_terbit": "2023-02-02",
            "url_tdpse_detail": "https://pse.komdigi.go.id/tdpse-detail/13652",
            "website": "rsupsoeradji.id"
        },
        {
            "id": "9cb1ac3c-bce3-4687-8a86-e5ba4eda1b95",
            "nama_pse": "UJKS BMT AMANAH",
            "nama_se": "UJKS BMT AMANAH",
            "sektor": "Sektor Keuangan",
            "tanggal_terbit": "2023-02-02",
            "url_tdpse_detail": "https://pse.komdigi.go.id/tdpse-detail/13653",
            "website": "-"
        },
        {
            "id": "9cb1ac2d-4793-416a-8d59-9f6bf5c6b4c3",
            "nama_pse": "MITRA DISTRIBUSI UTAMA",
            "nama_se": "JEMPOL KIOS1",
            "sektor": "Sektor Teknologi Informasi dan Komunikasi",
            "tanggal_terbit": "2023-02-02",
            "url_tdpse_detail": "https://pse.komdigi.go.id/tdpse-detail/13654",
            "website": "-"
        },
        {
            "id": "9cb1ac3c-cdc2-4fc1-bfa7-f8d191cc4054",
            "nama_pse": "ABDUL MURAD PURBA",
            "nama_se": "HAMZ TECH",
            "sektor": "Sektor Perdagangan, Sektor Teknologi Informasi dan Komunikasi",
            "tanggal_terbit": "2023-02-02",
            "url_tdpse_detail": "https://pse.komdigi.go.id/tdpse-detail/13651",
            "website": "-"
        },
        {
            "id": "9cb1ac2d-531a-4c9a-b13a-f07ea430da8e",
            "nama_pse": "IDEA SOLUSI INDONESIA",
            "nama_se": "ERIGO OFFICIAL WEBSTORE",
            "sektor": "Sektor Perdagangan",
            "tanggal_terbit": "2023-02-02",
            "url_tdpse_detail": "https://pse.komdigi.go.id/tdpse-detail/13655",
            "website": "erigostore.co.id"
        },
        {
            "id": "9cb1ac1b-7acc-437a-a6ca-6cbbe57201d4",
            "nama_pse": "SOLUSI DIAGNOSTIK INDONESIA",
            "nama_se": "PLEBO",
            "sektor": "Sektor Kesehatan, Sektor Teknologi Informasi dan Komunikasi",
            "tanggal_terbit": "2023-02-02",
            "url_tdpse_detail": "https://pse.komdigi.go.id/tdpse-detail/13656",
            "website": "plebo.id"
        },
        {
            "id": "9cb1ac3c-d159-4f16-bed4-91c217f631d0",
            "nama_pse": "REALITA NEWS GROUP",
            "nama_se": "PT. REALITA NEWS GROUP",
            "sektor": "Sektor Teknologi Informasi dan Komunikasi",
            "tanggal_terbit": "2023-02-02",
            "url_tdpse_detail": "https://pse.komdigi.go.id/tdpse-detail/13657",
            "website": "realita.co.id"
        },
        {
            "id": "9cb1ac1b-7d90-42da-814b-ea81ce6bf0be",
            "nama_pse": "FREEDOM SUCCESS NETWORK",
            "nama_se": "MUHAMMAD FAISOLLAH",
            "sektor": "Sektor Teknologi Informasi dan Komunikasi",
            "tanggal_terbit": "2023-02-02",
            "url_tdpse_detail": "https://pse.komdigi.go.id/tdpse-detail/13659",
            "website": "-"
        },
        {
            "id": "9cb1ac3c-d50a-47a9-9fcd-b3d802200f0f",
            "nama_pse": "KSPPS BMT TA'AWUN SUMEDANG",
            "nama_se": "BMT MOBILE ON LINE",
            "sektor": "Sektor Teknologi Informasi dan Komunikasi",
            "tanggal_terbit": "2023-02-02",
            "url_tdpse_detail": "https://pse.komdigi.go.id/tdpse-detail/13660",
            "website": "-"
        },
        {
            "id": "9cb1ac3c-d926-4d6a-adba-d7765284c60b",
            "nama_pse": "MEDIA GATRA DAILY",
            "nama_se": "GATRADAILY.COM",
            "sektor": "Sektor Teknologi Informasi dan Komunikasi",
            "tanggal_terbit": "2023-02-02",
            "url_tdpse_detail": "https://pse.komdigi.go.id/tdpse-detail/13661",
            "website": "Gatradaily.com"
        },
        {
            "id": "9cb1ac2d-5648-415d-9a3b-c2141e7dbc2e",
            "nama_pse": "MADTIVE STUDIO INDONESIA",
            "nama_se": "MEDISY",
            "sektor": "Sektor Kesehatan, Sektor Teknologi Informasi dan Komunikasi",
            "tanggal_terbit": "2023-02-02",
            "url_tdpse_detail": "https://pse.komdigi.go.id/tdpse-detail/13662",
            "website": "medisy.id"
        },
        {
            "id": "9cb1ac3c-dc7a-4996-9cd7-3ac1e57f89e6",
            "nama_pse": "PERTAMINA MAINTENANCE AND CONSTRUCTION",
            "nama_se": "WEBSITE PT PATRA BADAK ARUN SOLUSI",
            "sektor": "Sektor Teknologi Informasi dan Komunikasi",
            "tanggal_terbit": "2023-02-02",
            "url_tdpse_detail": "https://pse.komdigi.go.id/tdpse-detail/13663",
            "website": "pbasolusi.com"
        },
        {
            "id": "9cb1ac1b-805e-4024-aae5-08cc3e2c0357",
            "nama_pse": "INOVASI KARYA INTERNATIONAL",
            "nama_se": "ALLTREKOUTDOOR.COM",
            "sektor": "Sektor Perdagangan",
            "tanggal_terbit": "2023-02-02",
            "url_tdpse_detail": "https://pse.komdigi.go.id/tdpse-detail/13664",
            "website": "alltrekoutdoor.com"
        },
        {
            "id": "9cb1ac2d-6637-4e6a-a08b-c27fec6b377c",
            "nama_pse": "WREDATAMA MANDIRI NUSANTARA",
            "nama_se": "DIGIKOP PWRI",
            "sektor": "Sektor Perdagangan",
            "tanggal_terbit": "2023-02-02",
            "url_tdpse_detail": "https://pse.komdigi.go.id/tdpse-detail/13665",
            "website": "-"
        },
        {
            "id": "9cb1ac1b-82db-406c-9073-883813900d0d",
            "nama_pse": "RILIV PSIKOLOGI INDONESIA",
            "nama_se": "RILIV",
            "sektor": "Sektor Teknologi Informasi dan Komunikasi",
            "tanggal_terbit": "2023-02-02",
            "url_tdpse_detail": "https://pse.komdigi.go.id/tdpse-detail/13666",
            "website": "riliv.co"
        },
        {
            "id": "9cb1ac3c-e44e-42e2-8aed-6261ee6bdb7b",
            "nama_pse": "SMARTHUB TECHNOLOGIES",
            "nama_se": "SMARTRS",
            "sektor": "Sektor Kesehatan, Sektor Teknologi Informasi dan Komunikasi",
            "tanggal_terbit": "2023-02-02",
            "url_tdpse_detail": "https://pse.komdigi.go.id/tdpse-detail/13667",
            "website": "smarthubtech.co.id"
        },
        {
            "id": "9cb1ac2d-6e1b-4139-9beb-3c6a838ad4f6",
            "nama_pse": "FREEDOM SUCCESS NETWORK",
            "nama_se": "REZA ZAKARIA BALAZAD",
            "sektor": "Sektor Teknologi Informasi dan Komunikasi",
            "tanggal_terbit": "2023-02-02",
            "url_tdpse_detail": "https://pse.komdigi.go.id/tdpse-detail/13668",
            "website": "-"
        },
        {
            "id": "9cb1ac1b-6cd6-4e3f-b2f9-6f6cc14a4f47",
            "nama_pse": "EDUMU CIPTA UTAMA",
            "nama_se": "SISMART",
            "sektor": "Sektor Perdagangan, Sektor Teknologi Informasi dan Komunikasi",
            "tanggal_terbit": "2023-02-01",
            "url_tdpse_detail": "https://pse.komdigi.go.id/tdpse-detail/13646",
            "website": "sismart.id"
        },
        {
            "id": "9cb1ac3c-c8e2-46fb-824a-82f70aa2e682",
            "nama_pse": "EKAJAYA PUTRA FATIMA",
            "nama_se": "MESSI OJOL",
            "sektor": "Sektor Transportasi",
            "tanggal_terbit": "2023-02-01",
            "url_tdpse_detail": "https://pse.komdigi.go.id/tdpse-detail/13647",
            "website": "messiojol.com"
        },
        {
            "id": "9cb1ac1b-6fea-4981-863b-b218eedc98c3",
            "nama_pse": "Syamsul Arifin",
            "nama_se": "SERIBUJASA.CO.ID",
            "sektor": "Sektor Teknologi Informasi dan Komunikasi",
            "tanggal_terbit": "2023-02-01",
            "url_tdpse_detail": "https://pse.komdigi.go.id/tdpse-detail/13648",
            "website": "seribujasa.co.id"
        },
        {
            "id": "9cb1ac1b-729a-4a25-90b6-fbabb5953312",
            "nama_pse": "WEB THREE ZERO",
            "nama_se": "PT WEB THREE ZERO",
            "sektor": "Sektor Teknologi Informasi dan Komunikasi",
            "tanggal_terbit": "2023-02-01",
            "url_tdpse_detail": "https://pse.komdigi.go.id/tdpse-detail/13649",
            "website": "-"
        },
        {
            "id": "9cb1ac1b-7581-4e86-ba3b-8d9ba6ee2765",
            "nama_pse": "SUMBER SOLUSI BERSAMA",
            "nama_se": "SISTEM INFORMASI MANAJEMEN RUMAH SAKIT DAN ELEKTRONIK REKAM MEDIS HEALTH MEDIKA",
            "sektor": "Sektor Kesehatan",
            "tanggal_terbit": "2023-02-01",
            "url_tdpse_detail": "https://pse.komdigi.go.id/tdpse-detail/13650",
            "website": "healthmedika.id"
        },
        {
            "id": "9cb1ac1b-6907-4dc2-ba3d-1d0b4e4cd967",
            "nama_pse": "KHANZA PERDANA MANDIRI",
            "nama_se": "KHANZA PERDANA MANDIRI",
            "sektor": "Sektor Perdagangan",
            "tanggal_terbit": "2023-01-31",
            "url_tdpse_detail": "https://pse.komdigi.go.id/tdpse-detail/13644",
            "website": "khanzaperdanamandiri.odoo.com"
        },
        {
            "id": "9cb1ac2d-417c-4887-bd36-4efcf35b89bc",
            "nama_pse": "RUMAH SAKIT JIWA DR. RADJIMAN WEDIODININGRAT LAWANG DITJEN",
            "nama_se": "SIMRS RSJ DR.RADJIMAN WEDIODININGRAT LAWANG",
            "sektor": "Sektor Kesehatan",
            "tanggal_terbit": "2023-01-31",
            "url_tdpse_detail": "https://pse.komdigi.go.id/tdpse-detail/13645",
            "website": "rsjrw.id"
        },
        {
            "id": "9cb1ac3c-aedd-46f0-b91f-ad49dbdbe33c",
            "nama_pse": "DWIDAYA WISATA INDONESIA",
            "nama_se": "DWITOURS.COM",
            "sektor": "Sektor Perdagangan",
            "tanggal_terbit": "2023-01-30",
            "url_tdpse_detail": "https://pse.komdigi.go.id/tdpse-detail/13640",
            "website": "dwitours.com"
        },
        {
            "id": "9cb1ac1b-60c2-48e7-a49f-653fc98dfb7a",
            "nama_pse": "ZEE AULIA MANDIRI",
            "nama_se": "ZEE AULIA MANDIRI",
            "sektor": "Sektor Perdagangan",
            "tanggal_terbit": "2023-01-30",
            "url_tdpse_detail": "https://pse.komdigi.go.id/tdpse-detail/13642",
            "website": "-"
        },
        {
            "id": "9cb1ac2d-3e67-45ee-945d-bbcabe5ae18a",
            "nama_pse": "NUSANTARA INNOVATIVE SOLUTION",
            "nama_se": "NUSANTARA INNOVATIVE SOLUTION",
            "sektor": "Sektor Teknologi Informasi dan Komunikasi",
            "tanggal_terbit": "2023-01-30",
            "url_tdpse_detail": "https://pse.komdigi.go.id/tdpse-detail/13643",
            "website": "tdnmarketing.com"
        },
        {
            "id": "9cb1ac3c-a299-4b57-9fa9-27f93bcc055e",
            "nama_pse": "MALANESIA MULTI MEDIA",
            "nama_se": "PT MALANESIA MULTI MEDIA",
            "sektor": "Sektor Teknologi Informasi dan Komunikasi",
            "tanggal_terbit": "2023-01-29",
            "url_tdpse_detail": "https://pse.komdigi.go.id/tdpse-detail/13637",
            "website": "malanesia.news"
        },
        {
            "id": "9cb1ac1b-56fe-4138-9cb5-cd6a2a166ac2",
            "nama_pse": "DAN PEMBIAYAAN SYARIAH BAITUL MAAL  WAT TAMWIL AS SALAM",
            "nama_se": "BMT MOBILE ONLINE",
            "sektor": "Sektor Teknologi Informasi dan Komunikasi",
            "tanggal_terbit": "2023-01-29",
            "url_tdpse_detail": "https://pse.komdigi.go.id/tdpse-detail/13635",
            "website": "-"
        },
        {
            "id": "9cb1ac2d-32a7-4119-83c6-db886b9f732a",
            "nama_pse": "CAHAYA GALAKSI BIMASAKTI",
            "nama_se": "SHIPIOO",
            "sektor": "Sektor Teknologi Informasi dan Komunikasi",
            "tanggal_terbit": "2023-01-29",
            "url_tdpse_detail": "https://pse.komdigi.go.id/tdpse-detail/13636",
            "website": "shipioo.com"
        },
        {
            "id": "9cb1ac3c-9899-44a5-a034-82c2f5851216",
            "nama_pse": "DIGITAL LASKAR PELANGI",
            "nama_se": "ORDERFAZ",
            "sektor": "Sektor Perdagangan",
            "tanggal_terbit": "2023-01-28",
            "url_tdpse_detail": "https://pse.komdigi.go.id/tdpse-detail/13631",
            "website": "orderfaz.com"
        },
        {
            "id": "9cb1ac2d-2e7e-493a-9130-faacc94a8675",
            "nama_pse": "BIRO PERJALANAN UMUM NUSATOVEL",
            "nama_se": "NUSANTARA TOUR",
            "sektor": "Sektor Perdagangan",
            "tanggal_terbit": "2023-01-28",
            "url_tdpse_detail": "https://pse.komdigi.go.id/tdpse-detail/13632",
            "website": "-"
        },
        {
            "id": "9cb1ac1b-4db4-4ef5-a698-6b91ac7ba3c9",
            "nama_pse": "BERLIAN MAKMUR JAYA",
            "nama_se": "KOPERASI MOBILE ON LINE",
            "sektor": "Sektor Teknologi Informasi dan Komunikasi",
            "tanggal_terbit": "2023-01-28",
            "url_tdpse_detail": "https://pse.komdigi.go.id/tdpse-detail/13633",
            "website": "-"
        },
        {
            "id": "9cb1ac1b-510b-4a6c-8726-5112f24ecc77",
            "nama_pse": "BERLIAN MAKMUR JAYA",
            "nama_se": "KOPERASI BMJ MOBILE ON LINE",
            "sektor": "Sektor Teknologi Informasi dan Komunikasi",
            "tanggal_terbit": "2023-01-28",
            "url_tdpse_detail": "https://pse.komdigi.go.id/tdpse-detail/13634",
            "website": "-"
        },
        {
            "id": "9cb1ac2c-cd5e-43d2-902d-d44c9f9556f8",
            "nama_pse": "KLIK DATA INDONESIA",
            "nama_se": "KLIKMEDIC RSTOTO KABILA",
            "sektor": "Sektor Kesehatan",
            "tanggal_terbit": "2023-01-27",
            "url_tdpse_detail": "https://pse.komdigi.go.id/tdpse-detail/13623",
            "website": "klikmedic.klikdata.co.id"
        },
        {
            "id": "9cb1ac2d-140e-4a5e-8c9f-b42608c93605",
            "nama_pse": "BANK UOB INDONESIA",
            "nama_se": "UOB INFINITY WEBSITE",
            "sektor": "Sektor Keuangan",
            "tanggal_terbit": "2023-01-27",
            "url_tdpse_detail": "https://pse.komdigi.go.id/tdpse-detail/13624",
            "website": "infinity.uob.co.id"
        },
        {
            "id": "9cb1ac2d-1b2d-452c-95b6-990821d09197",
            "nama_pse": "XENO PERSADA TEKNOLOGI",
            "nama_se": "XENOHR.ID",
            "sektor": "Sektor Teknologi Informasi dan Komunikasi",
            "tanggal_terbit": "2023-01-27",
            "url_tdpse_detail": "https://pse.komdigi.go.id/tdpse-detail/13625",
            "website": "xenohr.id"
        },
        {
            "id": "9cb1ac1b-42be-4e27-9801-4c0722c7f001",
            "nama_pse": "BADAN LAYANAN UMUM (BLU) RUMAH SAKIT UMUM DR SARDJITO YOGYAKARTA DITJEN PELAYANAN KESEHATAN KEMENTERIAN KESEHATAN",
            "nama_se": "SIMETRIS",
            "sektor": "Sektor Kesehatan",
            "tanggal_terbit": "2023-01-27",
            "url_tdpse_detail": "https://pse.komdigi.go.id/tdpse-detail/13626",
            "website": "sardjito.co.id"
        },
        {
            "id": "9cb1ac1b-464b-473b-9842-fd7a8fe85a78",
            "nama_pse": "PAINT PROFESSIONALE INDONESIA",
            "nama_se": "WEBSITE PAINTPRO",
            "sektor": "Sektor Perdagangan",
            "tanggal_terbit": "2023-01-27",
            "url_tdpse_detail": "https://pse.komdigi.go.id/tdpse-detail/13627",
            "website": "Paintpro.co.id"
        },
        {
            "id": "9cb1ac2d-1fcb-488d-9a41-31afeb6948a9",
            "nama_pse": "YEKAPE KARYA PRIMA",
            "nama_se": "SIMRS-MEDICALAPPS",
            "sektor": "Sektor Kesehatan",
            "tanggal_terbit": "2023-01-27",
            "url_tdpse_detail": "https://pse.komdigi.go.id/tdpse-detail/13628",
            "website": "yekaprima.co.id"
        },
        {
            "id": "9cb1ac2d-23ac-45b5-835e-29a3fb68d723",
            "nama_pse": "ARINOFA VISI KARYA INDONESIA",
            "nama_se": "BAQOEL.COM",
            "sektor": "Sektor Perdagangan",
            "tanggal_terbit": "2023-01-27",
            "url_tdpse_detail": "https://pse.komdigi.go.id/tdpse-detail/13629",
            "website": "-"
        },
        {
            "id": "9cb1ac1b-49b4-473b-ab51-251c286dc3ad",
            "nama_pse": "SERTIFIKAT DUA DIMENSI",
            "nama_se": "SERTIFIKAT DUA DIMENSI",
            "sektor": "Sektor Teknologi Informasi dan Komunikasi",
            "tanggal_terbit": "2023-01-27",
            "url_tdpse_detail": "https://pse.komdigi.go.id/tdpse-detail/13630",
            "website": "sddidn.com"
        },
        {
            "id": "9cb1ac3b-a4a9-4cea-aa60-45e24ad3fff0",
            "nama_pse": "FORMASI AGUNG SELARAS",
            "nama_se": "ALLSTARS",
            "sektor": "Sektor Teknologi Informasi dan Komunikasi",
            "tanggal_terbit": "2023-01-26",
            "url_tdpse_detail": "https://pse.komdigi.go.id/tdpse-detail/13620",
            "website": "allstars.id"
        },
        {
            "id": "9cb1ac2b-c4b5-41c4-b877-38cef5e27e6d",
            "nama_pse": "FORMASI AGUNG SELARAS",
            "nama_se": "ALLSTARS.ID",
            "sektor": "Sektor Teknologi Informasi dan Komunikasi",
            "tanggal_terbit": "2023-01-26",
            "url_tdpse_detail": "https://pse.komdigi.go.id/tdpse-detail/13621",
            "website": "-"
        },
        {
            "id": "9cb1ac3c-69eb-45c2-8757-8a513eb9d69d",
            "nama_pse": "BANK PERKREDITAN RAKYAT TIMOR RAYA MAKMUR",
            "nama_se": "PT. BANK PERKREDITAN RAKYAT TIMOR RAYA MAKMUR",
            "sektor": "Sektor Keuangan",
            "tanggal_terbit": "2023-01-26",
            "url_tdpse_detail": "https://pse.komdigi.go.id/tdpse-detail/13615",
            "website": "bprtimorraya.co.id"
        },
        {
            "id": "9cb1ac3c-7ba6-4df2-8059-bfd82c48466a",
            "nama_pse": "BANK PERKREDITAN RAKYAT DANA SANGGAU MANDIRI",
            "nama_se": "WEBSITE BPR DANA SANGGAU MANDIRI",
            "sektor": "Sektor Keuangan",
            "tanggal_terbit": "2023-01-26",
            "url_tdpse_detail": "https://pse.komdigi.go.id/tdpse-detail/13616",
            "website": "bprdanasanggaumandiri.wordpress.com"
        },
        {
            "id": "9cb1ac2d-0775-445a-a28b-4a80db5de209",
            "nama_pse": "DR. ELLIS ZARNI DEWI",
            "nama_se": "ELLIS ESTETIKA",
            "sektor": "Sektor Perdagangan, Sektor Kesehatan",
            "tanggal_terbit": "2023-01-26",
            "url_tdpse_detail": "https://pse.komdigi.go.id/tdpse-detail/13618",
            "website": "ellisestetika.com"
        }
    ],
    "processingTimeMs": 2,
    "query": "",
    "totalHits": 19131,
    "hitsPerPage": 50,
    "page": 158,
    "totalPages": 383
}