{
    "hits": [
        {
            "id": "9cb1ac7e-6581-4bdb-a38e-69ade629d570",
            "nama_pse": "REGENT TEKNOLOGI GUNALOKA",
            "nama_se": "BUNGKOES",
            "sektor": "Sektor Perdagangan, Sektor Transportasi, Sektor Pangan",
            "tanggal_terbit": "2024-02-20",
            "url_tdpse_detail": "https://pse.komdigi.go.id/tdpse-detail/17859",
            "website": "bungkoes.id"
        },
        {
            "id": "9cb1ac55-ccd9-4974-b64e-a9f3d2e1a703",
            "nama_pse": "ILLUSTRINDO MEDIKA INDONESIA",
            "nama_se": "CARE.ONEKLINIK.COM",
            "sektor": "Sektor Kesehatan",
            "tanggal_terbit": "2024-02-20",
            "url_tdpse_detail": "https://pse.komdigi.go.id/tdpse-detail/17861",
            "website": "care.oneklinik.com"
        },
        {
            "id": "9cb1ac7e-72e2-45a3-bd08-63eb6a0b8598",
            "nama_pse": "ZEN MULTIMEDIA INDONESIA",
            "nama_se": "OLVIA DENTAL CARE",
            "sektor": "Sektor Kesehatan, Sektor Teknologi Informasi dan Komunikasi",
            "tanggal_terbit": "2024-02-20",
            "url_tdpse_detail": "https://pse.komdigi.go.id/tdpse-detail/17860",
            "website": "klinik.olviadental.id"
        },
        {
            "id": "9cb1ac55-d060-422d-b9ae-8b66bfa2b12b",
            "nama_pse": "GAMESKII GEN ETERNAL",
            "nama_se": "GAMESKII",
            "sektor": "Sektor Teknologi Informasi dan Komunikasi",
            "tanggal_terbit": "2024-02-20",
            "url_tdpse_detail": "https://pse.komdigi.go.id/tdpse-detail/17862",
            "website": "gameskii.com"
        },
        {
            "id": "9cb1ac55-d32e-4674-94a2-3117839a4e88",
            "nama_pse": "PERCETAKAN NEGARA RI",
            "nama_se": "AUTOGRAF",
            "sektor": "Sektor Teknologi Informasi dan Komunikasi",
            "tanggal_terbit": "2024-02-20",
            "url_tdpse_detail": "https://pse.komdigi.go.id/tdpse-detail/17863",
            "website": "-"
        },
        {
            "id": "9cb1ac6a-a47a-4cbf-bb45-2f9872f4ebd8",
            "nama_pse": "AGRO DIGITAL TEKNOLOGI",
            "nama_se": "MUSHGROW",
            "sektor": "Sektor Teknologi Informasi dan Komunikasi, Sektor Pangan",
            "tanggal_terbit": "2024-02-20",
            "url_tdpse_detail": "https://pse.komdigi.go.id/tdpse-detail/17864",
            "website": "mushgrow.co.id"
        },
        {
            "id": "9cb1ac7e-7ae5-4d75-9644-bf133b7fd410",
            "nama_pse": "ALTERNATIF SOLUSI BERSAMA",
            "nama_se": "VACABA",
            "sektor": "Sektor Teknologi Informasi dan Komunikasi",
            "tanggal_terbit": "2024-02-20",
            "url_tdpse_detail": "https://pse.komdigi.go.id/tdpse-detail/17865",
            "website": "vacaba.id"
        },
        {
            "id": "9cb1ac7e-3606-4252-a48c-0f693f978ece",
            "nama_pse": "TEMPO DIGITAL NUSANTARA",
            "nama_se": "TEMPOMART",
            "sektor": "Sektor Perdagangan",
            "tanggal_terbit": "2024-02-19",
            "url_tdpse_detail": "https://pse.komdigi.go.id/tdpse-detail/17842",
            "website": "Tempomart.com"
        },
        {
            "id": "9cb1ac53-4f46-48b3-bd94-ff40ab13754d",
            "nama_pse": "WAHYU DYHAS PUTRI",
            "nama_se": "SIMRS RSU AULIA",
            "sektor": "Sektor Kesehatan",
            "tanggal_terbit": "2024-02-19",
            "url_tdpse_detail": "https://pse.komdigi.go.id/tdpse-detail/17839",
            "website": "-"
        },
        {
            "id": "9cb1ac6a-4d95-493f-9650-2d46705c36d4",
            "nama_pse": "KSPPS BMT BAHTERA",
            "nama_se": "VIRTUAL ACCOUNT",
            "sektor": "Sektor Keuangan",
            "tanggal_terbit": "2024-02-19",
            "url_tdpse_detail": "https://pse.komdigi.go.id/tdpse-detail/17836",
            "website": "-"
        },
        {
            "id": "9cb1ac55-a369-4c8d-b2a4-625dba9c56bc",
            "nama_pse": "KSPPS BMT BAHTERA",
            "nama_se": "LAYANAN KEUANGAN SEKOLAH",
            "sektor": "Sektor Keuangan",
            "tanggal_terbit": "2024-02-19",
            "url_tdpse_detail": "https://pse.komdigi.go.id/tdpse-detail/17837",
            "website": "-"
        },
        {
            "id": "9cb1ac6a-7d62-43bd-9684-d7d1f4b53cf5",
            "nama_pse": "INFINITI PUTERA OMEGA",
            "nama_se": "DASHBOARD BI",
            "sektor": "Sektor Kesehatan, Sektor Teknologi Informasi dan Komunikasi",
            "tanggal_terbit": "2024-02-19",
            "url_tdpse_detail": "https://pse.komdigi.go.id/tdpse-detail/17838",
            "website": "dashboardbi.id"
        },
        {
            "id": "9cb1ac6a-8fbf-452c-95a8-591ee72d45b1",
            "nama_pse": "ARTHA DANA TEKNOLOGI",
            "nama_se": "PT ARTHA DANA TEKNOLOGI (APLIKASI INDODANA FINTECH)",
            "sektor": "Sektor Keuangan",
            "tanggal_terbit": "2024-02-19",
            "url_tdpse_detail": "https://pse.komdigi.go.id/tdpse-detail/17845",
            "website": "-"
        },
        {
            "id": "9cb1ac6a-937c-4348-a496-2bdcc73913cf",
            "nama_pse": "INSAN MEMBANGUN BANGSA",
            "nama_se": "SIM RS DAN SERVICE AZURA LABS",
            "sektor": "Sektor Kesehatan",
            "tanggal_terbit": "2024-02-19",
            "url_tdpse_detail": "https://pse.komdigi.go.id/tdpse-detail/17843",
            "website": "simrs.azuralabs.id"
        },
        {
            "id": "9cb1ac7e-54a4-47bf-848b-bcc2e51312a0",
            "nama_pse": "POPJASA SOLUSI BISNIS",
            "nama_se": "POPJASA SOLUSI BISNIS",
            "sektor": "Sektor Perdagangan",
            "tanggal_terbit": "2024-02-19",
            "url_tdpse_detail": "https://pse.komdigi.go.id/tdpse-detail/17844",
            "website": "jasapengurusanperizinan.com"
        },
        {
            "id": "9cb1ac55-be1f-42ca-9355-8c73386946f3",
            "nama_pse": "ITC AUTO MULTI FINANCE",
            "nama_se": "PAYKU MOBILE",
            "sektor": "Sektor Keuangan",
            "tanggal_terbit": "2024-02-19",
            "url_tdpse_detail": "https://pse.komdigi.go.id/tdpse-detail/17846",
            "website": "payku.co.id"
        },
        {
            "id": "9cb1ac7e-5926-442c-af36-8b66fb1efdba",
            "nama_pse": "PEEBA GLOBAL INDONESIA",
            "nama_se": "PEEBA WHOLESALE",
            "sektor": "Sektor Teknologi Informasi dan Komunikasi",
            "tanggal_terbit": "2024-02-19",
            "url_tdpse_detail": "https://pse.komdigi.go.id/tdpse-detail/17847",
            "website": "-"
        },
        {
            "id": "9cb1ac7e-41fe-44cf-887c-19ded24c63f5",
            "nama_pse": "SERAPHIM LIFE CENTER",
            "nama_se": "HIS 2.5 CRM",
            "sektor": "Sektor Kesehatan",
            "tanggal_terbit": "2024-02-19",
            "url_tdpse_detail": "https://pse.komdigi.go.id/tdpse-detail/17848",
            "website": "cms.seraphim-center.com"
        },
        {
            "id": "9cb1ac7e-3283-40da-8ed1-5d205d524063",
            "nama_pse": "PUTRA DWI MUKTI",
            "nama_se": "RELASI ERP KMC",
            "sektor": "Sektor Kesehatan",
            "tanggal_terbit": "2024-02-19",
            "url_tdpse_detail": "https://pse.komdigi.go.id/tdpse-detail/17841",
            "website": "-"
        },
        {
            "id": "9cb1ac55-bb09-4130-b24e-3d2339c61d00",
            "nama_pse": "INDONESIA DIGITAL GOLDSTAR",
            "nama_se": "ID LAB",
            "sektor": "Sektor Kesehatan",
            "tanggal_terbit": "2024-02-18",
            "url_tdpse_detail": "https://pse.komdigi.go.id/tdpse-detail/17835",
            "website": "admin.idlab-asia.com"
        },
        {
            "id": "9cb1ac7e-1c69-4ce1-8203-0988b85b9bee",
            "nama_pse": "ZEN MULTIMEDIA INDONESIA",
            "nama_se": "KLINIK ALMA KASITA",
            "sektor": "Sektor Kesehatan, Sektor Teknologi Informasi dan Komunikasi",
            "tanggal_terbit": "2024-02-17",
            "url_tdpse_detail": "https://pse.komdigi.go.id/tdpse-detail/17828",
            "website": "klinik.drgalmakasita.com"
        },
        {
            "id": "9cb1ac6a-5b5f-43f2-bc40-963542aeb536",
            "nama_pse": "ARIF HIDAYAT",
            "nama_se": "ARDANIS",
            "sektor": "Sektor Teknologi Informasi dan Komunikasi",
            "tanggal_terbit": "2024-02-17",
            "url_tdpse_detail": "https://pse.komdigi.go.id/tdpse-detail/17829",
            "website": "puskwarureja.com"
        },
        {
            "id": "9cb1ac7e-18f1-478c-b101-06b26f6180d4",
            "nama_pse": "FACHRI SYAHPUTRA",
            "nama_se": "ASISSA HEALTH CARE SYSTEM",
            "sektor": "Sektor Teknologi Informasi dan Komunikasi",
            "tanggal_terbit": "2024-02-17",
            "url_tdpse_detail": "https://pse.komdigi.go.id/tdpse-detail/17827",
            "website": "-"
        },
        {
            "id": "9cb1ac7e-22d8-418b-ba4f-41e4c798cac8",
            "nama_pse": "DUA PUTRA JAYA INDONESIA",
            "nama_se": "DUA PUTRA JAYA",
            "sektor": "Sektor Perdagangan",
            "tanggal_terbit": "2024-02-17",
            "url_tdpse_detail": "https://pse.komdigi.go.id/tdpse-detail/17830",
            "website": "2putrajaya.com"
        },
        {
            "id": "9cb1ac6a-5e96-41f7-93c3-71cdbb1b2eda",
            "nama_pse": "PULSA BALAP GROUP",
            "nama_se": "PULSA BALAP",
            "sektor": "Sektor Perdagangan, Sektor Teknologi Informasi dan Komunikasi",
            "tanggal_terbit": "2024-02-17",
            "url_tdpse_detail": "https://pse.komdigi.go.id/tdpse-detail/17833",
            "website": "pulsabalap.otoreport.com"
        },
        {
            "id": "9cb1ac6a-7013-481b-90a7-7154e9997d0c",
            "nama_pse": "FACHZAM MEDIA NUSANTARA",
            "nama_se": "PT FACHZAM MEDIA NUSANTARA",
            "sektor": "Sektor Teknologi Informasi dan Komunikasi",
            "tanggal_terbit": "2024-02-17",
            "url_tdpse_detail": "https://pse.komdigi.go.id/tdpse-detail/17834",
            "website": "-"
        },
        {
            "id": "9cb1ac69-92b8-4a70-a37d-51d95eb2dd08",
            "nama_pse": "GEMILANG ANANTA",
            "nama_se": "KUBICLOUD",
            "sektor": "Sektor Teknologi Informasi dan Komunikasi",
            "tanggal_terbit": "2024-02-16",
            "url_tdpse_detail": "https://pse.komdigi.go.id/tdpse-detail/17825",
            "website": "cloud.psn.co.id"
        },
        {
            "id": "9cb1ac55-8f17-4469-83c4-9ec369b80d3b",
            "nama_pse": "WAHANA OTTOMITRA MULTIARTHA TBK",
            "nama_se": "KAWAN",
            "sektor": "Sektor Keuangan",
            "tanggal_terbit": "2024-02-16",
            "url_tdpse_detail": "https://pse.komdigi.go.id/tdpse-detail/17814",
            "website": "-"
        },
        {
            "id": "9cb1ac7d-fa8f-4ca9-b91a-a935a0b6554b",
            "nama_pse": "WAHANA OTTOMITRA MULTIARTHA TBK",
            "nama_se": "KAWAN AGENTS \u0026 DEALERS",
            "sektor": "Sektor Keuangan",
            "tanggal_terbit": "2024-02-16",
            "url_tdpse_detail": "https://pse.komdigi.go.id/tdpse-detail/17815",
            "website": "-"
        },
        {
            "id": "9cb1ac6a-5093-42a4-9021-f551aa70d7a7",
            "nama_pse": "NANCY SINERGI GRUP",
            "nama_se": "SISTEM INFORMASI MANAJEMEN KLINIK GIGI 9C ORTHODONTICS",
            "sektor": "Sektor Kesehatan",
            "tanggal_terbit": "2024-02-16",
            "url_tdpse_detail": "https://pse.komdigi.go.id/tdpse-detail/17818",
            "website": "app9corthodontics.com"
        },
        {
            "id": "9cb1ac55-a62a-4fae-ad16-92508b1c031f",
            "nama_pse": "LEGALKU GLOBAL DOCUMENTA",
            "nama_se": "LEGALDOC",
            "sektor": "Sektor Teknologi Informasi dan Komunikasi",
            "tanggal_terbit": "2024-02-16",
            "url_tdpse_detail": "https://pse.komdigi.go.id/tdpse-detail/17819",
            "website": "legaldoc.id"
        },
        {
            "id": "9cb1ac55-b827-4734-bc0e-ba4f98c29350",
            "nama_pse": "YAYASAN SAFIRA KELURAHAN ARDIREJO KECAMATAN KEPANJEN",
            "nama_se": "SIMRS KLINIK SAFIRA MEDICAL CENTRE",
            "sektor": "Sektor Kesehatan",
            "tanggal_terbit": "2024-02-16",
            "url_tdpse_detail": "https://pse.komdigi.go.id/tdpse-detail/17823",
            "website": "-"
        },
        {
            "id": "9cb1ac7e-15cf-4505-b983-4d631dbe3318",
            "nama_pse": "TAMAN SEMESTA SISWA",
            "nama_se": "HTTPS://WWW.TAMANSCHOOL.COM/",
            "sektor": "Sektor Teknologi Informasi dan Komunikasi",
            "tanggal_terbit": "2024-02-16",
            "url_tdpse_detail": "https://pse.komdigi.go.id/tdpse-detail/17824",
            "website": "tamanschool.com"
        },
        {
            "id": "9cb1ac6a-585e-4902-8cae-b45efbf6963f",
            "nama_pse": "TUJUH NET MEDIATAMA",
            "nama_se": "NEWS TUJUH NET",
            "sektor": "Sektor Teknologi Informasi dan Komunikasi",
            "tanggal_terbit": "2024-02-16",
            "url_tdpse_detail": "https://pse.komdigi.go.id/tdpse-detail/17826",
            "website": "-"
        },
        {
            "id": "9cb1ac7e-1149-4fcd-9f68-cbb08fc29285",
            "nama_pse": "BANK CENTRAL ASIA",
            "nama_se": "J-OBLIG",
            "sektor": "Sektor Keuangan",
            "tanggal_terbit": "2024-02-16",
            "url_tdpse_detail": "https://pse.komdigi.go.id/tdpse-detail/17816",
            "website": "j-oblig.bca.co.id"
        },
        {
            "id": "9cb1ac55-a029-4516-b294-01f5171d2344",
            "nama_pse": "TILIKGRAM ADIKARA IDN",
            "nama_se": "ADIKARASOFT SUITE PLATFORM",
            "sektor": "Sektor Teknologi Informasi dan Komunikasi",
            "tanggal_terbit": "2024-02-16",
            "url_tdpse_detail": "https://pse.komdigi.go.id/tdpse-detail/17817",
            "website": "-"
        },
        {
            "id": "9cb1ac68-41be-477e-a6e7-f0c9c00d5caf",
            "nama_pse": "OMNI HOTELIER INTERNASIONAL",
            "nama_se": "OMNI HOTELIER BOOKING ENGINE",
            "sektor": "Sektor Teknologi Informasi dan Komunikasi",
            "tanggal_terbit": "2024-02-15",
            "url_tdpse_detail": "https://pse.komdigi.go.id/tdpse-detail/17797",
            "website": "omnihotelier.id"
        },
        {
            "id": "9cb1ac68-ece2-4cf8-9c66-ca5416d9968e",
            "nama_pse": "RUMAH SAKIT UMUM DAERAH DRS. H. AMRI TAMBUNAN",
            "nama_se": "SIMRS DELI SERDANG SEHAT",
            "sektor": "Sektor Kesehatan",
            "tanggal_terbit": "2024-02-15",
            "url_tdpse_detail": "https://pse.komdigi.go.id/tdpse-detail/17801",
            "website": "simrshat.deliserdangkab.go.id"
        },
        {
            "id": "9cb1ac7d-c826-4a35-9b14-0d012f1e2afd",
            "nama_pse": "KSPPS BMT BAHTERA",
            "nama_se": "QRIS BAHTERA",
            "sektor": "Sektor Keuangan",
            "tanggal_terbit": "2024-02-15",
            "url_tdpse_detail": "https://pse.komdigi.go.id/tdpse-detail/17794",
            "website": "-"
        },
        {
            "id": "9cb1ac55-7781-42bb-a14b-cb6a0208991c",
            "nama_pse": "KSPPS BMT BAHTERA",
            "nama_se": "IBS BRANCHLESS",
            "sektor": "Sektor Keuangan",
            "tanggal_terbit": "2024-02-15",
            "url_tdpse_detail": "https://pse.komdigi.go.id/tdpse-detail/17795",
            "website": "-"
        },
        {
            "id": "9cb1ac55-7a28-4237-8165-9536c189d7d6",
            "nama_pse": "MIRAE ASSET SEKURITAS INDONESIA",
            "nama_se": "M-STOCK",
            "sektor": "Sektor Keuangan",
            "tanggal_terbit": "2024-02-15",
            "url_tdpse_detail": "https://pse.komdigi.go.id/tdpse-detail/17796",
            "website": "-"
        },
        {
            "id": "9cb1ac6a-4a5f-4808-8831-efcf0b2687e2",
            "nama_pse": "BUGIS MITRA DISTRIBUSI",
            "nama_se": "BUGIS PAY",
            "sektor": "Sektor Perdagangan, Sektor Teknologi Informasi dan Komunikasi",
            "tanggal_terbit": "2024-02-15",
            "url_tdpse_detail": "https://pse.komdigi.go.id/tdpse-detail/17811",
            "website": "bugisstore.id"
        },
        {
            "id": "9cb1ac6a-3961-4022-97bd-2a6dc08b10de",
            "nama_pse": "DIA PERKASA TEKNOLOGI",
            "nama_se": "AIANDYOU.IO",
            "sektor": "Sektor Teknologi Informasi dan Komunikasi",
            "tanggal_terbit": "2024-02-15",
            "url_tdpse_detail": "https://pse.komdigi.go.id/tdpse-detail/17798",
            "website": "aiandyou.io"
        },
        {
            "id": "9cb1ac7d-f14e-4d2d-ac9f-3dff3020b565",
            "nama_pse": "BOEDI PRIJATNO",
            "nama_se": "SIMRS RS KHUSUS BEDAH HASTA HUSADA",
            "sektor": "Sektor Kesehatan",
            "tanggal_terbit": "2024-02-15",
            "url_tdpse_detail": "https://pse.komdigi.go.id/tdpse-detail/17799",
            "website": "rs-hastahusada.com"
        },
        {
            "id": "9cb1ac55-8600-4ffe-a72a-ef4901ece400",
            "nama_pse": "EMIRA RELOAD PAYMENT",
            "nama_se": "SAHABAT TRONIK AUTOREFILL",
            "sektor": "Sektor Perdagangan, Sektor Teknologi Informasi dan Komunikasi",
            "tanggal_terbit": "2024-02-15",
            "url_tdpse_detail": "https://pse.komdigi.go.id/tdpse-detail/17800",
            "website": "sahabattronik.cekreport.com"
        },
        {
            "id": "9cb1ac7d-f435-437e-8e58-9f5e4c2ff72c",
            "nama_pse": "MEDIA DETIK KALBAR",
            "nama_se": "DETIKKALBAR.ID",
            "sektor": "Sektor Teknologi Informasi dan Komunikasi",
            "tanggal_terbit": "2024-02-15",
            "url_tdpse_detail": "https://pse.komdigi.go.id/tdpse-detail/17802",
            "website": "detikkalbar.id"
        },
        {
            "id": "9cb1ac55-8bfe-40ca-9362-2d3464c2c470",
            "nama_pse": "PRIMERA DELTA NIAGA",
            "nama_se": "TOKENKU-POWER MANAGER",
            "sektor": "Sektor Teknologi Informasi dan Komunikasi",
            "tanggal_terbit": "2024-02-15",
            "url_tdpse_detail": "https://pse.komdigi.go.id/tdpse-detail/17803",
            "website": "powermanager.my.id"
        },
        {
            "id": "9cb1ac7d-f795-49f0-92b7-14f803e3b681",
            "nama_pse": "SUGIYONO",
            "nama_se": "PROLADI",
            "sektor": "Sektor Teknologi Informasi dan Komunikasi",
            "tanggal_terbit": "2024-02-15",
            "url_tdpse_detail": "https://pse.komdigi.go.id/tdpse-detail/17804",
            "website": "proladi.com"
        },
        {
            "id": "9cb1ac6a-3cff-4841-b872-88a6e4ce065d",
            "nama_pse": "INFINITI PUTERA OMEGA",
            "nama_se": "DASBOARD BI",
            "sektor": "Sektor Kesehatan, Sektor Teknologi Informasi dan Komunikasi",
            "tanggal_terbit": "2024-02-15",
            "url_tdpse_detail": "https://pse.komdigi.go.id/tdpse-detail/17805",
            "website": "dasboardbi.id"
        },
        {
            "id": "9cb1ac6a-43aa-4fd0-82de-762824606f26",
            "nama_pse": "JELAJAH INOVASI TEKNOLOGI",
            "nama_se": "MARKET PLACE KALIKAN",
            "sektor": "Sektor Perdagangan, Sektor Teknologi Informasi dan Komunikasi",
            "tanggal_terbit": "2024-02-15",
            "url_tdpse_detail": "https://pse.komdigi.go.id/tdpse-detail/17810",
            "website": "kalikan.id"
        }
    ],
    "processingTimeMs": 2,
    "query": "",
    "totalHits": 19121,
    "hitsPerPage": 50,
    "page": 84,
    "totalPages": 383
}