{
    "hits": [
        {
            "id": "9d0d67f7-a534-4701-b682-3366a5662b1d",
            "nama_pse": "HERDINA METATECH SINERGI",
            "nama_se": "INTANS CLUB",
            "sektor": "Sektor Perdagangan",
            "tanggal_terbit": "2024-09-30",
            "url_tdpse_detail": "https://pse.komdigi.go.id/tdpse-detail/20534",
            "website": "intansc.com"
        },
        {
            "id": "9d21667d-ee18-4a46-b51a-86a8d9760e1e",
            "nama_pse": "DAN PEMBIAYAAN SYARIAH BMT ALHIKMAH SEMESTA",
            "nama_se": "BMT ALHIKMAH MOBILE",
            "sektor": "Sektor Teknologi Informasi dan Komunikasi",
            "tanggal_terbit": "2024-09-30",
            "url_tdpse_detail": "https://pse.komdigi.go.id/tdpse-detail/20530",
            "website": "-"
        },
        {
            "id": "9d216f7f-48fe-4085-8922-d9a59ee7bff3",
            "nama_pse": "APPLEDORE MGILANGJANUAR LAB",
            "nama_se": "VOICETAKING",
            "sektor": "Sektor Teknologi Informasi dan Komunikasi",
            "tanggal_terbit": "2024-09-30",
            "url_tdpse_detail": "https://pse.komdigi.go.id/tdpse-detail/20535",
            "website": "voicetaking.com"
        },
        {
            "id": "9d217b0f-2ca7-4963-a36f-ce87431f6a18",
            "nama_pse": "KBN GRAHA MEDIKA",
            "nama_se": "ESTES CARE",
            "sektor": "Sektor Kesehatan",
            "tanggal_terbit": "2024-09-30",
            "url_tdpse_detail": "https://pse.komdigi.go.id/tdpse-detail/20539",
            "website": "-"
        },
        {
            "id": "9d0d67f7-fab8-45df-9b4a-a1b072338ebd",
            "nama_pse": "DIGITAL OTOMOTIF INDONESIA",
            "nama_se": "KLIKGARASI.COM",
            "sektor": "Sektor Perdagangan",
            "tanggal_terbit": "2024-09-30",
            "url_tdpse_detail": "https://pse.komdigi.go.id/tdpse-detail/20544",
            "website": "klikgarasi.com"
        },
        {
            "id": "9d217265-a0bd-4853-849c-01a3d9a6adef",
            "nama_pse": "BANDUNG ECO SINERGI TEKNOLOGI",
            "nama_se": "BEST CORP",
            "sektor": "Sektor Perdagangan",
            "tanggal_terbit": "2024-09-30",
            "url_tdpse_detail": "https://pse.komdigi.go.id/tdpse-detail/20537",
            "website": "api.best-world.id"
        },
        {
            "id": "9d21a605-1674-4694-8386-407d02c92e1a",
            "nama_pse": "TRIMEGAH KARYA PRATAMA",
            "nama_se": "ULTRA VOUCHER",
            "sektor": "Sektor Perdagangan",
            "tanggal_terbit": "2024-09-30",
            "url_tdpse_detail": "https://pse.komdigi.go.id/tdpse-detail/20543",
            "website": "-"
        },
        {
            "id": "9d21a391-505d-4e9c-9b8c-1d218e033881",
            "nama_pse": "TVS MOTOR COMPANY INDONESIA",
            "nama_se": "OFFICIAL WEBSITE TVS MOTOR INDONESIA",
            "sektor": "Sektor Perdagangan",
            "tanggal_terbit": "2024-09-30",
            "url_tdpse_detail": "https://pse.komdigi.go.id/tdpse-detail/20542",
            "website": "indonesia.tvsmotor.com"
        },
        {
            "id": "9d21c17d-0e5b-4a19-8f6a-6647333b62a6",
            "nama_pse": "ANDALAN FLORA FAUNA",
            "nama_se": "ANABUL",
            "sektor": "Sektor Perdagangan",
            "tanggal_terbit": "2024-09-30",
            "url_tdpse_detail": "https://pse.komdigi.go.id/tdpse-detail/20546",
            "website": "anabul.co.id"
        },
        {
            "id": "9d21b1da-6e35-44c0-bfc8-709830ea60af",
            "nama_pse": "SIAGA ABDI UTAMA",
            "nama_se": "talentabrilian.id",
            "sektor": "Sektor Teknologi Informasi dan Komunikasi",
            "tanggal_terbit": "2024-09-30",
            "url_tdpse_detail": "https://pse.komdigi.go.id/tdpse-detail/20545",
            "website": "talentabrilian.id"
        },
        {
            "id": "9d21c36c-0fc3-4f2f-a07d-b43d82f282ac",
            "nama_pse": "QAF INTERNATIONAL DIGIPRENEUR",
            "nama_se": "AI DATA FINDER",
            "sektor": "Sektor Teknologi Informasi dan Komunikasi",
            "tanggal_terbit": "2024-09-30",
            "url_tdpse_detail": "https://pse.komdigi.go.id/tdpse-detail/20547",
            "website": "ptqid.com"
        },
        {
            "id": "9d21f2a6-8fa3-4652-b021-328cd1b1da98",
            "nama_pse": "TRAVEL GLOBALINDO JAYA",
            "nama_se": "locaguide.com",
            "sektor": "Sektor Perdagangan, Sektor Transportasi, Sektor Teknologi Informasi dan Komunikasi",
            "tanggal_terbit": "2024-09-30",
            "url_tdpse_detail": "https://pse.komdigi.go.id/tdpse-detail/20552",
            "website": "locaguide.com"
        },
        {
            "id": "9d21c55b-9072-48a0-b1c1-3cb48624f865",
            "nama_pse": "MUHAMMAD AZKI DARMAWAN",
            "nama_se": "LAPAKITA",
            "sektor": "Sektor Teknologi Informasi dan Komunikasi",
            "tanggal_terbit": "2024-09-30",
            "url_tdpse_detail": "https://pse.komdigi.go.id/tdpse-detail/20548",
            "website": "-"
        },
        {
            "id": "9d21cdcc-d742-4e75-bf72-0766d6424b26",
            "nama_pse": "CTXG INDONESIA BERKARYA",
            "nama_se": "MOBEE",
            "sektor": "Sektor Perdagangan",
            "tanggal_terbit": "2024-09-30",
            "url_tdpse_detail": "https://pse.komdigi.go.id/tdpse-detail/20549",
            "website": "mobee.io"
        },
        {
            "id": "9d222f02-baa0-4d0e-aa2d-df1202846e67",
            "nama_pse": "NACONDA JAYA ABADI",
            "nama_se": "siberpatroli.co.id",
            "sektor": "Sektor Teknologi Informasi dan Komunikasi",
            "tanggal_terbit": "2024-09-30",
            "url_tdpse_detail": "https://pse.komdigi.go.id/tdpse-detail/20554",
            "website": "siberpatroli.co.id"
        },
        {
            "id": "9d222ba2-4ca5-4116-b36a-4748f671cccf",
            "nama_pse": "CAPELLA DINAMIK NUSANTARA",
            "nama_se": "MY CAPELLA",
            "sektor": "Sektor Perdagangan",
            "tanggal_terbit": "2024-09-30",
            "url_tdpse_detail": "https://pse.komdigi.go.id/tdpse-detail/20553",
            "website": "-"
        },
        {
            "id": "9d224bef-8431-4546-ab8b-0f8fc47fec56",
            "nama_pse": "SESA BUSER MEDIA",
            "nama_se": "busernews24.com",
            "sektor": "Sektor Teknologi Informasi dan Komunikasi",
            "tanggal_terbit": "2024-09-30",
            "url_tdpse_detail": "https://pse.komdigi.go.id/tdpse-detail/20560",
            "website": "busernews24.com"
        },
        {
            "id": "9d2131a9-2f96-4e9b-a857-8577b5df7b7c",
            "nama_pse": "HUMANSCAPE TECHNOLOGY INDONESIA",
            "nama_se": "MOMITALK",
            "sektor": "Sektor Kesehatan",
            "tanggal_terbit": "2024-09-30",
            "url_tdpse_detail": "https://pse.komdigi.go.id/tdpse-detail/20526",
            "website": "stream.id.mmtalkbox.com"
        },
        {
            "id": "9d223b3e-dfe0-4139-a001-f7f04202e8e8",
            "nama_pse": "MEDIA SWARA INDONESIA",
            "nama_se": "MEDIA ONLINE SWARA KONSUMEN INDONESIA",
            "sektor": "Sektor Teknologi Informasi dan Komunikasi",
            "tanggal_terbit": "2024-09-30",
            "url_tdpse_detail": "https://pse.komdigi.go.id/tdpse-detail/20555",
            "website": "swarakonsumenindonesia.com"
        },
        {
            "id": "9d2257bc-170c-4a3b-8773-6d1b11246a3b",
            "nama_pse": "HAFIDZ GAMBARU SEJAHTERA",
            "nama_se": "PEMANTAU NEWS",
            "sektor": "Sektor Teknologi Informasi dan Komunikasi",
            "tanggal_terbit": "2024-09-30",
            "url_tdpse_detail": "https://pse.komdigi.go.id/tdpse-detail/20561",
            "website": "-"
        },
        {
            "id": "9d223ff9-c766-4d22-ae19-ea95425b29a7",
            "nama_pse": "KILAS INFO GROUP",
            "nama_se": "kilasrespon.com",
            "sektor": "Sektor Teknologi Informasi dan Komunikasi",
            "tanggal_terbit": "2024-09-30",
            "url_tdpse_detail": "https://pse.komdigi.go.id/tdpse-detail/20557",
            "website": "kilasrespon.com"
        },
        {
            "id": "9d2271f5-1a13-4f8b-87d8-742be7f96c6c",
            "nama_pse": "LANGKAH VISIONER ZILENIAL",
            "nama_se": "PERANCANGAN SISTEM APLIKASI BERBASIS WEB DAN MOBILE",
            "sektor": "Sektor Perdagangan, Sektor Energi dan Sumber Daya Mineral, Sektor Transportasi, Sektor Kesehatan, Sektor Teknologi Informasi dan Komunikasi",
            "tanggal_terbit": "2024-09-30",
            "url_tdpse_detail": "https://pse.komdigi.go.id/tdpse-detail/20562",
            "website": "-"
        },
        {
            "id": "9d227907-fcde-43ed-a957-f01a7ef9a1f9",
            "nama_pse": "LANGKAH VISIONER ZILENIAL",
            "nama_se": "PERANCANGAN SISTEM INFORMASI BERBASIS AI",
            "sektor": "Sektor Perdagangan, Sektor Energi dan Sumber Daya Mineral, Sektor Transportasi, Sektor Kesehatan, Sektor Teknologi Informasi dan Komunikasi, Sektor Pertahanan dan Keamanan",
            "tanggal_terbit": "2024-09-30",
            "url_tdpse_detail": "https://pse.komdigi.go.id/tdpse-detail/20563",
            "website": "-"
        },
        {
            "id": "9d227a4b-beaa-451b-bec1-268c980c99f7",
            "nama_pse": "WAHYU PILAR JAYA",
            "nama_se": "WAHYU PILAR JAYA",
            "sektor": "Sektor Teknologi Informasi dan Komunikasi",
            "tanggal_terbit": "2024-09-30",
            "url_tdpse_detail": "https://pse.komdigi.go.id/tdpse-detail/20564",
            "website": "wahyupilarjaya.my.id"
        },
        {
            "id": "9d19f8d7-19e0-4f4b-8590-9d82148c647c",
            "nama_pse": "PNM INVESTMENT MANAGEMENT",
            "nama_se": "groovest PNMIM",
            "sektor": "Sektor Keuangan",
            "tanggal_terbit": "2024-09-30",
            "url_tdpse_detail": "https://pse.komdigi.go.id/tdpse-detail/20531",
            "website": "groovest.pnmim.com"
        },
        {
            "id": "9d216849-d20a-4ad9-acbb-4d0ed62c1887",
            "nama_pse": "MIRAE ASSET SEKURITAS INDONESIA",
            "nama_se": "WEBSITE RESMI PT MIRAE ASSET SEKURITAS INDONESIA",
            "sektor": "Sektor Keuangan",
            "tanggal_terbit": "2024-09-30",
            "url_tdpse_detail": "https://pse.komdigi.go.id/tdpse-detail/20533",
            "website": "sekuritas.miraeasset.co.id"
        },
        {
            "id": "9d218650-951b-478b-9f4a-549eafbbf9d6",
            "nama_pse": "RAENA RUMA INDONESIA",
            "nama_se": "RAENA BEAUTY",
            "sektor": "Sektor Perdagangan",
            "tanggal_terbit": "2024-09-30",
            "url_tdpse_detail": "https://pse.komdigi.go.id/tdpse-detail/20540",
            "website": "raenabeauty.com"
        },
        {
            "id": "9d204291-a4be-4d44-a525-a689451f6190",
            "nama_pse": "WAHID HASYIM",
            "nama_se": "LAYANAN PENYEDIA INTERNET LOKAL (SHANUMNET)",
            "sektor": "Sektor Teknologi Informasi dan Komunikasi",
            "tanggal_terbit": "2024-09-29",
            "url_tdpse_detail": "https://pse.komdigi.go.id/tdpse-detail/20524",
            "website": "-"
        },
        {
            "id": "9d1f7406-8b21-495a-9727-a56154bb85a6",
            "nama_pse": "IMAJI CAKRA REVOLUSI",
            "nama_se": "APKITA",
            "sektor": "Sektor Teknologi Informasi dan Komunikasi",
            "tanggal_terbit": "2024-09-29",
            "url_tdpse_detail": "https://pse.komdigi.go.id/tdpse-detail/20523",
            "website": "apkita.id"
        },
        {
            "id": "9d1d4399-6ef8-4a9e-be10-3d1a2ca241ce",
            "nama_pse": "POTRET PUBLIK MEDIATAMA",
            "nama_se": "POTRET PUBLIK",
            "sektor": "Sektor Teknologi Informasi dan Komunikasi",
            "tanggal_terbit": "2024-09-28",
            "url_tdpse_detail": "https://pse.komdigi.go.id/tdpse-detail/20520",
            "website": "potretpublik.co.id"
        },
        {
            "id": "9d1ca347-a317-4107-96ba-597aa8481c65",
            "nama_pse": "HANDRI SUYANTO",
            "nama_se": "LAYANAN PENYEDIA INTERNET LOKAL (RT/RW NET)",
            "sektor": "Sektor Teknologi Informasi dan Komunikasi",
            "tanggal_terbit": "2024-09-28",
            "url_tdpse_detail": "https://pse.komdigi.go.id/tdpse-detail/20519",
            "website": "-"
        },
        {
            "id": "9d1d878e-05b7-42bf-84da-f3d5c325f328",
            "nama_pse": "ALGORITMA INOVASI",
            "nama_se": "JITU EDUCATION",
            "sektor": "Sektor Perdagangan",
            "tanggal_terbit": "2024-09-28",
            "url_tdpse_detail": "https://pse.komdigi.go.id/tdpse-detail/20521",
            "website": "jitueducation.id"
        },
        {
            "id": "9d1da5f3-c1d6-42a5-9055-964150d8ca35",
            "nama_pse": "MOHAMMAD YASER ARAFAT",
            "nama_se": "SISTEM INFORMASI POLI KLINIK",
            "sektor": "Sektor Kesehatan",
            "tanggal_terbit": "2024-09-28",
            "url_tdpse_detail": "https://pse.komdigi.go.id/tdpse-detail/20522",
            "website": "-"
        },
        {
            "id": "9d1b6706-f6aa-41aa-82c7-71947bfce9b0",
            "nama_pse": "ARMY NUTRITION INDONESIA",
            "nama_se": "ARMY NUTRITION INDONESIA",
            "sektor": "Sektor Perdagangan",
            "tanggal_terbit": "2024-09-27",
            "url_tdpse_detail": "https://pse.komdigi.go.id/tdpse-detail/20505",
            "website": "armynutrition.id"
        },
        {
            "id": "9d1c3f26-922d-4487-85f0-d08e278601b8",
            "nama_pse": "DZULKIFLI ADRIAN PUTRA POLAPA",
            "nama_se": "ANALISA SIBER",
            "sektor": "Sektor Teknologi Informasi dan Komunikasi",
            "tanggal_terbit": "2024-09-27",
            "url_tdpse_detail": "https://pse.komdigi.go.id/tdpse-detail/20516",
            "website": "analisasiber.com"
        },
        {
            "id": "9d1be51e-d85f-4770-a25e-856949cc97b7",
            "nama_pse": "MENSA MEDIKA INVESTAMA",
            "nama_se": "MEDISEND",
            "sektor": "Sektor Perdagangan",
            "tanggal_terbit": "2024-09-27",
            "url_tdpse_detail": "https://pse.komdigi.go.id/tdpse-detail/20514",
            "website": "-"
        },
        {
            "id": "9d1c0346-ad7a-4c25-a33e-900c21448400",
            "nama_pse": "FILOSOFI TEKNOLOGI INDONESIA",
            "nama_se": "FILOTECH",
            "sektor": "Sektor Teknologi Informasi dan Komunikasi",
            "tanggal_terbit": "2024-09-27",
            "url_tdpse_detail": "https://pse.komdigi.go.id/tdpse-detail/20515",
            "website": "filotech.id"
        },
        {
            "id": "9d1c6d06-fd25-48e8-b258-fdadf272ad1e",
            "nama_pse": "MAHHAKA MEDIA UTAMA",
            "nama_se": "senenk news",
            "sektor": "Sektor Teknologi Informasi dan Komunikasi",
            "tanggal_terbit": "2024-09-27",
            "url_tdpse_detail": "https://pse.komdigi.go.id/tdpse-detail/20518",
            "website": "senenknews.com"
        },
        {
            "id": "9d1b75ce-4728-48f3-93c3-8424c4f30f4d",
            "nama_pse": "ARMY NUTRITION INDONESIA",
            "nama_se": "PT ARMY NUTRITION INDONESIA",
            "sektor": "Sektor Perdagangan",
            "tanggal_terbit": "2024-09-27",
            "url_tdpse_detail": "https://pse.komdigi.go.id/tdpse-detail/20506",
            "website": "-"
        },
        {
            "id": "9d1c6c25-7773-44b8-939f-600a0a8bb071",
            "nama_pse": "BYTE FORGE INDONESIA",
            "nama_se": "iuran.org",
            "sektor": "Sektor Teknologi Informasi dan Komunikasi",
            "tanggal_terbit": "2024-09-27",
            "url_tdpse_detail": "https://pse.komdigi.go.id/tdpse-detail/20517",
            "website": "-"
        },
        {
            "id": "9d1bcfd5-694d-4fdf-ac7b-3ac3821a6a7c",
            "nama_pse": "BOLTTECH DEVICE PROTECTION INDONESIA",
            "nama_se": "PORTAL LAYANAN PERBAIKAN BOLTTECH",
            "sektor": "Sektor Teknologi Informasi dan Komunikasi",
            "tanggal_terbit": "2024-09-27",
            "url_tdpse_detail": "https://pse.komdigi.go.id/tdpse-detail/20512",
            "website": "device.bolttech.id"
        },
        {
            "id": "9d1b99c1-e00a-466e-84ad-8f4368164701",
            "nama_pse": "PALLAV TEKNOLOGI RESOLUSINDO",
            "nama_se": "COLLECTION SYSTEM PT PALLAV TEKNOLOGI RESOLUSINDO",
            "sektor": "Sektor Teknologi Informasi dan Komunikasi",
            "tanggal_terbit": "2024-09-27",
            "url_tdpse_detail": "https://pse.komdigi.go.id/tdpse-detail/20508",
            "website": "pallav-collections.com"
        },
        {
            "id": "9d1ba527-f1bb-4db0-ae49-c176247730a3",
            "nama_pse": "TRANS LINK INTERNASIONAL",
            "nama_se": "MR.SURYA PROJECT",
            "sektor": "Sektor Teknologi Informasi dan Komunikasi",
            "tanggal_terbit": "2024-09-27",
            "url_tdpse_detail": "https://pse.komdigi.go.id/tdpse-detail/20510",
            "website": "-"
        },
        {
            "id": "9d19f8d7-1f8c-4150-8ae8-3911872d9826",
            "nama_pse": "MIELS SEJAHTERA SENTOSA",
            "nama_se": "BORONG BARENG",
            "sektor": "Sektor Perdagangan, Sektor Teknologi Informasi dan Komunikasi",
            "tanggal_terbit": "2024-09-27",
            "url_tdpse_detail": "https://pse.komdigi.go.id/tdpse-detail/20509",
            "website": "borongbareng.com"
        },
        {
            "id": "9d1bd3b0-e29e-4f54-96d6-93db9ac97bef",
            "nama_pse": "ANNARINDO MULIA ABADI",
            "nama_se": "KONSULDONG",
            "sektor": "Sektor Kesehatan",
            "tanggal_terbit": "2024-09-27",
            "url_tdpse_detail": "https://pse.komdigi.go.id/tdpse-detail/20513",
            "website": "konsuldong.com"
        },
        {
            "id": "9d1b8ee4-e635-45e4-9f17-41acb1a8a22d",
            "nama_pse": "SALAM SEJAHTERA NUSANTARA",
            "nama_se": "SALAM HOMECARE",
            "sektor": "Sektor Kesehatan, Sektor Teknologi Informasi dan Komunikasi",
            "tanggal_terbit": "2024-09-27",
            "url_tdpse_detail": "https://pse.komdigi.go.id/tdpse-detail/20507",
            "website": "salam-homecare.com"
        },
        {
            "id": "9d0ef505-bacc-4e83-83bf-e7cac1ad7d2e",
            "nama_pse": "ZETTA INTI PRANALA",
            "nama_se": "EASYCARD",
            "sektor": "Sektor Perdagangan, Sektor Teknologi Informasi dan Komunikasi",
            "tanggal_terbit": "2024-09-21",
            "url_tdpse_detail": "https://pse.komdigi.go.id/tdpse-detail/20493",
            "website": "easycard.amazone.id"
        },
        {
            "id": "9d0f4c5b-3030-4ca4-b22d-a62c8711c09b",
            "nama_pse": "SIHALAL BERKAH TEKNOLOGI",
            "nama_se": "sihalal.net",
            "sektor": "Sektor Teknologi Informasi dan Komunikasi",
            "tanggal_terbit": "2024-09-21",
            "url_tdpse_detail": "https://pse.komdigi.go.id/tdpse-detail/20496",
            "website": "sihalal.net"
        },
        {
            "id": "9d0f5adb-0d97-49f5-8044-f5db28458b59",
            "nama_pse": "WINARTI",
            "nama_se": "ISTERI SAH NET",
            "sektor": "Sektor Teknologi Informasi dan Komunikasi",
            "tanggal_terbit": "2024-09-21",
            "url_tdpse_detail": "https://pse.komdigi.go.id/tdpse-detail/20499",
            "website": "-"
        },
        {
            "id": "9d0f0afa-aacc-4c7f-9828-137d507777ae",
            "nama_pse": "IDEA MEDIA DIGITAL",
            "nama_se": "HARESA PROFILES",
            "sektor": "Sektor Teknologi Informasi dan Komunikasi",
            "tanggal_terbit": "2024-09-21",
            "url_tdpse_detail": "https://pse.komdigi.go.id/tdpse-detail/20495",
            "website": "haressa.id"
        }
    ],
    "processingTimeMs": 1,
    "query": "",
    "totalHits": 19121,
    "hitsPerPage": 50,
    "page": 37,
    "totalPages": 383
}