{
    "hits": [
        {
            "id": "9cc93130-457f-4bd4-8938-ae0ead20c79f",
            "nama_pse": "MOH. MUFLIKH ARDIAN",
            "nama_se": "JUBER",
            "sektor": "Sektor Perdagangan, Sektor Teknologi Informasi dan Komunikasi",
            "tanggal_terbit": "2024-08-17",
            "url_tdpse_detail": "https://pse.komdigi.go.id/tdpse-detail/19965",
            "website": "Juber.co.id"
        },
        {
            "id": "9cc9267e-9575-4258-b836-a16314156886",
            "nama_pse": "MEDIA DETIK HARIAN",
            "nama_se": "detikhariannews.com",
            "sektor": "Sektor Teknologi Informasi dan Komunikasi",
            "tanggal_terbit": "2024-08-17",
            "url_tdpse_detail": "https://pse.komdigi.go.id/tdpse-detail/19964",
            "website": "detikhariannews.com"
        },
        {
            "id": "9cc8eb64-ddb5-453b-a2b1-441520665bb2",
            "nama_pse": "TRISULA YUDHA MEDIA",
            "nama_se": "detikharianpos.com",
            "sektor": "Sektor Teknologi Informasi dan Komunikasi",
            "tanggal_terbit": "2024-08-17",
            "url_tdpse_detail": "https://pse.komdigi.go.id/tdpse-detail/19963",
            "website": "detikharianpos.com"
        },
        {
            "id": "9cc9ceac-c318-402c-9e0e-12daf96395c0",
            "nama_pse": "JEJAK KASUS GROUP",
            "nama_se": "jejakkasusindonesia.id",
            "sektor": "Sektor Teknologi Informasi dan Komunikasi",
            "tanggal_terbit": "2024-08-17",
            "url_tdpse_detail": "https://pse.komdigi.go.id/tdpse-detail/19978",
            "website": "jejakkasusindonesia.id"
        },
        {
            "id": "9cc9d890-2c6b-4139-9694-e014f694e1ab",
            "nama_pse": "MEDIA KOMUNIKASI INFORMASI",
            "nama_se": "siaplapor.com",
            "sektor": "Sektor Teknologi Informasi dan Komunikasi",
            "tanggal_terbit": "2024-08-17",
            "url_tdpse_detail": "https://pse.komdigi.go.id/tdpse-detail/19980",
            "website": "siaplapor.com"
        },
        {
            "id": "9cc9f09d-dd52-4be5-a139-4f4738043376",
            "nama_pse": "MEDIA KOMUNIKASI INFORMASI",
            "nama_se": "siaptayang.com",
            "sektor": "Sektor Teknologi Informasi dan Komunikasi",
            "tanggal_terbit": "2024-08-17",
            "url_tdpse_detail": "https://pse.komdigi.go.id/tdpse-detail/19983",
            "website": "siaptayang.com"
        },
        {
            "id": "9cc9d657-5373-43d9-b126-eede6048da5a",
            "nama_pse": "SOLUSI DIGITAL GRESINDO",
            "nama_se": "CVPULSA",
            "sektor": "Sektor Perdagangan",
            "tanggal_terbit": "2024-08-17",
            "url_tdpse_detail": "https://pse.komdigi.go.id/tdpse-detail/19979",
            "website": "cvpulsa.id"
        },
        {
            "id": "9cc794b1-6994-48c0-8638-bdeb18736680",
            "nama_pse": "JEJAK KASUS GROUP",
            "nama_se": "jejakkasusgroup.co.id",
            "sektor": "Sektor Teknologi Informasi dan Komunikasi",
            "tanggal_terbit": "2024-08-16",
            "url_tdpse_detail": "https://pse.komdigi.go.id/tdpse-detail/19947",
            "website": "jejakkasusgroup.co.id"
        },
        {
            "id": "9cc79fa7-3f45-4c42-a974-da732da6855e",
            "nama_pse": "JEJAK KASUS GROUP",
            "nama_se": "007news.id",
            "sektor": "Sektor Teknologi Informasi dan Komunikasi",
            "tanggal_terbit": "2024-08-16",
            "url_tdpse_detail": "https://pse.komdigi.go.id/tdpse-detail/19949",
            "website": "007news.id"
        },
        {
            "id": "9cc76d2b-e0cf-4093-b21e-acc655eb7d24",
            "nama_pse": "UEMKAEM GLOBAL MANDIRI",
            "nama_se": "digitalnexus.id",
            "sektor": "Sektor Perdagangan, Sektor Kesehatan, Sektor Teknologi Informasi dan Komunikasi",
            "tanggal_terbit": "2024-08-16",
            "url_tdpse_detail": "https://pse.komdigi.go.id/tdpse-detail/19946",
            "website": "digitalnexus.id"
        },
        {
            "id": "9cc6e070-9880-4aa3-9967-5cc9b751fade",
            "nama_pse": "MOLOME DALOME EDUTECH KIDKIDS",
            "nama_se": "BIGS MOM",
            "sektor": "Sektor Teknologi Informasi dan Komunikasi",
            "tanggal_terbit": "2024-08-16",
            "url_tdpse_detail": "https://pse.komdigi.go.id/tdpse-detail/19941",
            "website": "bigsmom.co.id"
        },
        {
            "id": "9cc6d4b2-cb84-409e-be8b-f87afa29745f",
            "nama_pse": "BILQIST TRAVEL INDONESIA",
            "nama_se": "GOBAL DISTRIBUTION SISTEM TRAVEL \u0026 UMRAH",
            "sektor": "Sektor Teknologi Informasi dan Komunikasi",
            "tanggal_terbit": "2024-08-16",
            "url_tdpse_detail": "https://pse.komdigi.go.id/tdpse-detail/19940",
            "website": "bilqist-travel.com"
        },
        {
            "id": "9cc7af10-8f7e-41c4-8b12-ec7bb2a13465",
            "nama_pse": "JEJAK KASUS GROUP",
            "nama_se": "republikpers.id",
            "sektor": "Sektor Teknologi Informasi dan Komunikasi",
            "tanggal_terbit": "2024-08-16",
            "url_tdpse_detail": "https://pse.komdigi.go.id/tdpse-detail/19952",
            "website": "republikpers.id"
        },
        {
            "id": "9cc722fe-6ae1-41a7-9e4d-fe8e0f424b8c",
            "nama_pse": "MILENIAL GLOBAL PERKASA",
            "nama_se": "MILENIAL GLOBAL STORE",
            "sektor": "Sektor Perdagangan",
            "tanggal_terbit": "2024-08-16",
            "url_tdpse_detail": "https://pse.komdigi.go.id/tdpse-detail/19943",
            "website": "-"
        },
        {
            "id": "9cc7e75d-3006-4bc9-b079-62d7e75c1e05",
            "nama_pse": "DARINOL INOVASI INDONESIA",
            "nama_se": "WKWK JAPANESE",
            "sektor": "Sektor Teknologi Informasi dan Komunikasi",
            "tanggal_terbit": "2024-08-16",
            "url_tdpse_detail": "https://pse.komdigi.go.id/tdpse-detail/19960",
            "website": "wkwk-japanese.com"
        },
        {
            "id": "9cc75549-0d83-42df-b589-85cfe81a2cb3",
            "nama_pse": "HAZANA SHARIA AMANA",
            "nama_se": "HAZANA SHARIA AMANA",
            "sektor": "Sektor Perdagangan",
            "tanggal_terbit": "2024-08-16",
            "url_tdpse_detail": "https://pse.komdigi.go.id/tdpse-detail/19944",
            "website": "hazana.id"
        },
        {
            "id": "9cc75f95-b0e7-462e-ae00-e7cf4980b769",
            "nama_pse": "ESA HUSADA",
            "nama_se": "ESATECH MEDICOLOGY",
            "sektor": "Sektor Kesehatan",
            "tanggal_terbit": "2024-08-16",
            "url_tdpse_detail": "https://pse.komdigi.go.id/tdpse-detail/19945",
            "website": "-"
        },
        {
            "id": "9cc7d550-ab27-4c20-8530-eabacd39db6f",
            "nama_pse": "JEJAK KASUS GROUP",
            "nama_se": "24jamindonesia.id",
            "sektor": "Sektor Teknologi Informasi dan Komunikasi",
            "tanggal_terbit": "2024-08-16",
            "url_tdpse_detail": "https://pse.komdigi.go.id/tdpse-detail/19958",
            "website": "24jamindonesia.id"
        },
        {
            "id": "9cc79ef6-c02a-4e25-8166-5003be46858b",
            "nama_pse": "PEDULI KESEHATAN",
            "nama_se": "ONE MEDIC",
            "sektor": "Sektor Kesehatan",
            "tanggal_terbit": "2024-08-16",
            "url_tdpse_detail": "https://pse.komdigi.go.id/tdpse-detail/19948",
            "website": "-"
        },
        {
            "id": "9cc7a752-654a-43f8-9c7c-57fb2da28516",
            "nama_pse": "JEJAK KASUS GROUP",
            "nama_se": "opinirakyat.id",
            "sektor": "Sektor Teknologi Informasi dan Komunikasi",
            "tanggal_terbit": "2024-08-16",
            "url_tdpse_detail": "https://pse.komdigi.go.id/tdpse-detail/19950",
            "website": "opinirakyat.id"
        },
        {
            "id": "9cc7ac9c-e890-4a8e-9e94-fc31c1285f7a",
            "nama_pse": "RUSDIYANTO PATUKE",
            "nama_se": "LAYANAN INTERNET LOKAL (RT RW NET)",
            "sektor": "Sektor Teknologi Informasi dan Komunikasi",
            "tanggal_terbit": "2024-08-16",
            "url_tdpse_detail": "https://pse.komdigi.go.id/tdpse-detail/19951",
            "website": "tiyo.my.id"
        },
        {
            "id": "9cc7b923-f883-4dbb-a417-156c91d88653",
            "nama_pse": "JEJAK KASUS GROUP",
            "nama_se": "kabarharianindonesia.com",
            "sektor": "Sektor Teknologi Informasi dan Komunikasi",
            "tanggal_terbit": "2024-08-16",
            "url_tdpse_detail": "https://pse.komdigi.go.id/tdpse-detail/19954",
            "website": "kabarharianindonesia.com"
        },
        {
            "id": "9cc7b3d6-1a5f-43df-878e-14da2d59e45f",
            "nama_pse": "JEJAK KASUS GROUP",
            "nama_se": "mashukum.id",
            "sektor": "Sektor Teknologi Informasi dan Komunikasi",
            "tanggal_terbit": "2024-08-16",
            "url_tdpse_detail": "https://pse.komdigi.go.id/tdpse-detail/19953",
            "website": "mashukum.id"
        },
        {
            "id": "9cc7c2ea-9b17-4e43-adb2-f2764064ca30",
            "nama_pse": "JEJAK KASUS GROUP",
            "nama_se": "suaramitraindonesia.com",
            "sektor": "Sektor Teknologi Informasi dan Komunikasi",
            "tanggal_terbit": "2024-08-16",
            "url_tdpse_detail": "https://pse.komdigi.go.id/tdpse-detail/19955",
            "website": "suaramitraindonesia.com"
        },
        {
            "id": "9cc7c932-2b35-487a-b665-5d16299418ce",
            "nama_pse": "JEJAK KASUS GROUP",
            "nama_se": "klikviralkan.com",
            "sektor": "Sektor Teknologi Informasi dan Komunikasi",
            "tanggal_terbit": "2024-08-16",
            "url_tdpse_detail": "https://pse.komdigi.go.id/tdpse-detail/19956",
            "website": "klikviralkan.com"
        },
        {
            "id": "9cc7cf49-50f1-4d2f-98d1-317bfe0ec4b5",
            "nama_pse": "JEJAK KASUS GROUP",
            "nama_se": "911responce.id",
            "sektor": "Sektor Teknologi Informasi dan Komunikasi",
            "tanggal_terbit": "2024-08-16",
            "url_tdpse_detail": "https://pse.komdigi.go.id/tdpse-detail/19957",
            "website": "911responce.id"
        },
        {
            "id": "9cb1ac73-f71d-4773-a9ad-67fc48d79d57",
            "nama_pse": "MUTIARA SUKSES",
            "nama_se": "SIRSPRO KLINIK",
            "sektor": "Sektor Kesehatan",
            "tanggal_terbit": "2024-08-16",
            "url_tdpse_detail": "https://pse.komdigi.go.id/tdpse-detail/19939",
            "website": "-"
        },
        {
            "id": "9cc7d6c8-d05a-4dc3-a246-d98734039182",
            "nama_pse": "GOOGLE INDONESIA",
            "nama_se": "GOOGLE MENYEDIAKAN LAYANAN DARING TERMASUK APLIKASI MOBILE YOUTUBE. PT GOOGLE INDONESIA ADALAH PERUSAHAAN LOKAL GOOGLE UNTUK KEGIATAN YANG DILAKUKAN DI INDONESIA YG MENCAKUP PENYEDIAAN LAYANAN PEMASARAN \u0026 DUKUNGAN DI INDONESIA UTK LAYANAN DARING DI ATAS.",
            "sektor": "Sektor Energi dan Sumber Daya Mineral, Sektor Transportasi, Sektor Teknologi Informasi dan Komunikasi",
            "tanggal_terbit": "2024-08-16",
            "url_tdpse_detail": "https://pse.komdigi.go.id/tdpse-detail/19959",
            "website": "-"
        },
        {
            "id": "9cc6e1a6-6be8-40ef-b4dd-f8b12f141284",
            "nama_pse": "RAJOWEB MITRA UTAMA",
            "nama_se": "RAJOWEB",
            "sektor": "Sektor Teknologi Informasi dan Komunikasi",
            "tanggal_terbit": "2024-08-16",
            "url_tdpse_detail": "https://pse.komdigi.go.id/tdpse-detail/19942",
            "website": "portal.rajoweb.co.id"
        },
        {
            "id": "9cc54d40-56d9-44d5-8402-eb30c586dec5",
            "nama_pse": "VICALTA GRACIAS INDONESIA",
            "nama_se": "trapo.co.id",
            "sektor": "Sektor Perdagangan",
            "tanggal_terbit": "2024-08-15",
            "url_tdpse_detail": "https://pse.komdigi.go.id/tdpse-detail/19935",
            "website": "id.trapo.asia"
        },
        {
            "id": "9cc53325-9738-47ee-a7bd-ab5ec0730a6a",
            "nama_pse": "SAFELOCK MEDICAL",
            "nama_se": "https://www.safelockmedical.com/",
            "sektor": "Sektor Kesehatan, Sektor Teknologi Informasi dan Komunikasi",
            "tanggal_terbit": "2024-08-15",
            "url_tdpse_detail": "https://pse.komdigi.go.id/tdpse-detail/19931",
            "website": "safelockmedical.com"
        },
        {
            "id": "9cc51e97-d67a-4757-a1b3-8c0ecc371452",
            "nama_pse": "VENDY DYAN DWI SAPUTRA",
            "nama_se": "VENDYID.COM",
            "sektor": "Sektor Perdagangan, Sektor Teknologi Informasi dan Komunikasi",
            "tanggal_terbit": "2024-08-15",
            "url_tdpse_detail": "https://pse.komdigi.go.id/tdpse-detail/19929",
            "website": "vendyid.com"
        },
        {
            "id": "9cc5428f-93c5-4e54-b23a-5a7c4e5db51c",
            "nama_pse": "LEGION NAGA INDONESIA",
            "nama_se": "GLOW BIRD NEST",
            "sektor": "Sektor Perdagangan",
            "tanggal_terbit": "2024-08-15",
            "url_tdpse_detail": "https://pse.komdigi.go.id/tdpse-detail/19933",
            "website": "glowbirdnest.com"
        },
        {
            "id": "9cc41dcf-1ea7-4912-a71d-220c768d7bfe",
            "nama_pse": "ULTRA DIGITAL INDONESIA",
            "nama_se": "UDIN",
            "sektor": "Sektor Teknologi Informasi dan Komunikasi",
            "tanggal_terbit": "2024-08-15",
            "url_tdpse_detail": "https://pse.komdigi.go.id/tdpse-detail/19919",
            "website": "ultradigitalindonesia.co.id"
        },
        {
            "id": "9cc3f8f2-79bf-4a40-ba6d-d7faf8461783",
            "nama_pse": "CAHAYA SINERGI SENTOSA",
            "nama_se": "ENKRIP APP",
            "sektor": "Sektor Teknologi Informasi dan Komunikasi",
            "tanggal_terbit": "2024-08-15",
            "url_tdpse_detail": "https://pse.komdigi.go.id/tdpse-detail/19918",
            "website": "-"
        },
        {
            "id": "9cc4f960-877e-4bfb-87e8-7623ae3f0788",
            "nama_pse": "HARIMAU MAJU SEJAHTERA",
            "nama_se": "HARIMAU MAJU SEJAHTERA",
            "sektor": "Sektor Teknologi Informasi dan Komunikasi",
            "tanggal_terbit": "2024-08-15",
            "url_tdpse_detail": "https://pse.komdigi.go.id/tdpse-detail/19926",
            "website": "harimaumajusejahtera.com"
        },
        {
            "id": "9cc487bd-82f2-40ba-91cd-7e7fb21f84fa",
            "nama_pse": "MUSTIKA DIGITAL DIGITAL",
            "nama_se": "TUKAR.CO.ID",
            "sektor": "Sektor Perdagangan, Sektor Teknologi Informasi dan Komunikasi",
            "tanggal_terbit": "2024-08-15",
            "url_tdpse_detail": "https://pse.komdigi.go.id/tdpse-detail/19920",
            "website": "tukar.co.id"
        },
        {
            "id": "9cc4cbe6-9e49-40e1-9bfe-1b5887fe6b35",
            "nama_pse": "REACT RADIOLOGI SOLUSI DIGITAL",
            "nama_se": "REACT RADIOLOGI SOLUSI DIGITAL",
            "sektor": "Sektor Teknologi Informasi dan Komunikasi",
            "tanggal_terbit": "2024-08-15",
            "url_tdpse_detail": "https://pse.komdigi.go.id/tdpse-detail/19923",
            "website": "Www.react.co.id"
        },
        {
            "id": "9cc5499b-130f-47a0-a6ae-ea2a4ce55c5c",
            "nama_pse": "Lorensius Diaz Viera Mukin",
            "nama_se": "AKUPTI",
            "sektor": "Sektor Kesehatan",
            "tanggal_terbit": "2024-08-15",
            "url_tdpse_detail": "https://pse.komdigi.go.id/tdpse-detail/19934",
            "website": "akupti.com"
        },
        {
            "id": "9cc4cbd5-b4bf-4690-8439-66fa5d0e2d93",
            "nama_pse": "RAILINK",
            "nama_se": "KA BANDARA",
            "sektor": "Sektor Transportasi",
            "tanggal_terbit": "2024-08-15",
            "url_tdpse_detail": "https://pse.komdigi.go.id/tdpse-detail/19922",
            "website": "reservation.railink.co.id"
        },
        {
            "id": "9cc4d8cb-138e-4078-89b1-653a1ad0a32b",
            "nama_pse": "ARA DENTAL AMANAH",
            "nama_se": "ARADENT",
            "sektor": "Sektor Kesehatan",
            "tanggal_terbit": "2024-08-15",
            "url_tdpse_detail": "https://pse.komdigi.go.id/tdpse-detail/19924",
            "website": "-"
        },
        {
            "id": "9cb3bdde-c35f-45a7-beac-b0517567f60d",
            "nama_pse": "DESA DIGITAL TERBUKA",
            "nama_se": "OPENSID",
            "sektor": "Sektor Teknologi Informasi dan Komunikasi",
            "tanggal_terbit": "2024-08-15",
            "url_tdpse_detail": "https://pse.komdigi.go.id/tdpse-detail/19928",
            "website": "berputar.opendesa.id"
        },
        {
            "id": "9cc50306-7fc2-4e91-ac65-1d6cfb039a76",
            "nama_pse": "KARYA PUTRA GANESHA",
            "nama_se": "UANGKLIK.COM",
            "sektor": "Sektor Perdagangan",
            "tanggal_terbit": "2024-08-15",
            "url_tdpse_detail": "https://pse.komdigi.go.id/tdpse-detail/19927",
            "website": "uangklik.com"
        },
        {
            "id": "9cc53f86-4a96-4513-ae83-53418308b9b4",
            "nama_pse": "BERSAMA RUBAH INDONESIA",
            "nama_se": "RUBAH PULSA",
            "sektor": "Sektor Perdagangan, Sektor Teknologi Informasi dan Komunikasi",
            "tanggal_terbit": "2024-08-15",
            "url_tdpse_detail": "https://pse.komdigi.go.id/tdpse-detail/19932",
            "website": "rubahpulsa.id"
        },
        {
            "id": "9cc4f956-68d4-4915-856c-7e7f4370f135",
            "nama_pse": "KOLABORASI TRANSPORTASI DIGITAL",
            "nama_se": "KOTAKOTA",
            "sektor": "Sektor Transportasi",
            "tanggal_terbit": "2024-08-15",
            "url_tdpse_detail": "https://pse.komdigi.go.id/tdpse-detail/19925",
            "website": "kotakota.id"
        },
        {
            "id": "9cc528d3-b248-48ed-8fb3-ab6a34af8c58",
            "nama_pse": "RIPIT PROFIT MELEJIT",
            "nama_se": "RIPIT",
            "sektor": "Sektor Perdagangan, Sektor Teknologi Informasi dan Komunikasi",
            "tanggal_terbit": "2024-08-15",
            "url_tdpse_detail": "https://pse.komdigi.go.id/tdpse-detail/19930",
            "website": "ripit.id"
        },
        {
            "id": "9cc5a164-5fde-4ab0-b8f3-40e532686a1b",
            "nama_pse": "SABUA LIMATUJUH NETWORK",
            "nama_se": "LAYANAN INTERNET LOKAL (RT RW NET)",
            "sektor": "Sektor Teknologi Informasi dan Komunikasi",
            "tanggal_terbit": "2024-08-15",
            "url_tdpse_detail": "https://pse.komdigi.go.id/tdpse-detail/19937",
            "website": "-"
        },
        {
            "id": "9cc58399-2210-4760-8610-085a94fa3390",
            "nama_pse": "FORMASI INTI SERASI",
            "nama_se": "tacticpoints",
            "sektor": "Sektor Perdagangan",
            "tanggal_terbit": "2024-08-15",
            "url_tdpse_detail": "https://pse.komdigi.go.id/tdpse-detail/19936",
            "website": "tacticpoints.com"
        },
        {
            "id": "9cc5b6cc-9aad-49d1-b69d-fb090883ef76",
            "nama_pse": "KANGEAN SMART TECH",
            "nama_se": "LAYANAN INTERNET LOKAL",
            "sektor": "Sektor Teknologi Informasi dan Komunikasi",
            "tanggal_terbit": "2024-08-15",
            "url_tdpse_detail": "https://pse.komdigi.go.id/tdpse-detail/19938",
            "website": "-"
        },
        {
            "id": "9cc4b8b7-1bca-4145-92ea-2659de8773ab",
            "nama_pse": "ASTRA AUTO DIGITAL",
            "nama_se": "SEVA",
            "sektor": "Sektor Perdagangan",
            "tanggal_terbit": "2024-08-15",
            "url_tdpse_detail": "https://pse.komdigi.go.id/tdpse-detail/19921",
            "website": "seva.id"
        }
    ],
    "processingTimeMs": 1,
    "query": "",
    "totalHits": 19131,
    "hitsPerPage": 50,
    "page": 48,
    "totalPages": 383
}