{
    "hits": [
        {
            "id": "9cb1abe7-0c9f-4d7d-ac61-983de6c05f1d",
            "nama_pse": "SOLUSI IDENTITAS GLOBAL NET",
            "nama_se": "ESIGN",
            "sektor": "Sektor Perdagangan",
            "tanggal_terbit": "2022-07-20",
            "url_tdpse_detail": "https://pse.komdigi.go.id/tdpse-detail/7295",
            "website": "esign.id"
        },
        {
            "id": "9cb1abb6-ef75-4f6d-8b1e-f78d4a5116ca",
            "nama_pse": "CIMB NIAGA AUTO FINANCE",
            "nama_se": "PORTAL PERUSAHAAN",
            "sektor": "Sektor Keuangan",
            "tanggal_terbit": "2022-07-20",
            "url_tdpse_detail": "https://pse.komdigi.go.id/tdpse-detail/7317",
            "website": "cnaf.co.id"
        },
        {
            "id": "9cb1abb7-445d-442c-899a-abb6de7d832b",
            "nama_pse": "WEB MEDIA TECHNOLOGY INDONESIA",
            "nama_se": "WWW.NIAGAHOSTER.OC.ID",
            "sektor": "Sektor Teknologi Informasi dan Komunikasi",
            "tanggal_terbit": "2022-07-20",
            "url_tdpse_detail": "https://pse.komdigi.go.id/tdpse-detail/7288",
            "website": "niagahoster.co.id"
        },
        {
            "id": "9cb1abe8-252b-4fea-bab6-879c65d3294a",
            "nama_pse": "BANK PERKREDITAN RAKYAT BAYUDHANA",
            "nama_se": "BANKING SMART SYSTEM",
            "sektor": "Sektor Keuangan",
            "tanggal_terbit": "2022-07-20",
            "url_tdpse_detail": "https://pse.komdigi.go.id/tdpse-detail/7289",
            "website": "BPRBAYUDHANA.COM"
        },
        {
            "id": "9cb1abb7-5218-4710-8ebd-12ba942054e1",
            "nama_pse": "GARENA INDONESIA",
            "nama_se": "LEAGUE OF LEGENDS PC",
            "sektor": "Sektor Teknologi Informasi dan Komunikasi",
            "tanggal_terbit": "2022-07-20",
            "url_tdpse_detail": "https://pse.komdigi.go.id/tdpse-detail/7388",
            "website": "lol.garena.co.id"
        },
        {
            "id": "9cb1abe8-4c9c-423a-a558-d409ea2b92f5",
            "nama_pse": "GARENA INDONESIA",
            "nama_se": "ARENA OF VALOR",
            "sektor": "Sektor Teknologi Informasi dan Komunikasi",
            "tanggal_terbit": "2022-07-20",
            "url_tdpse_detail": "https://pse.komdigi.go.id/tdpse-detail/7389",
            "website": "aov.garena.co.id"
        },
        {
            "id": "9cb1abc2-abf2-416d-9f69-47aa72f3e9d7",
            "nama_pse": "INTERSOLUSI CIPTA SOFTINDO",
            "nama_se": "HIDOK DAN MYHOSPITAL",
            "sektor": "Sektor Teknologi Informasi dan Komunikasi",
            "tanggal_terbit": "2022-07-20",
            "url_tdpse_detail": "https://pse.komdigi.go.id/tdpse-detail/7548",
            "website": "-"
        },
        {
            "id": "9cb1abe8-ba80-4e2f-a82f-e31aa8a05526",
            "nama_pse": "AXA MANDIRI FINANCIAL SERVICES",
            "nama_se": "AMFS AGEN LAKU PANDAI",
            "sektor": "Sektor Keuangan, Sektor Teknologi Informasi dan Komunikasi",
            "tanggal_terbit": "2022-07-20",
            "url_tdpse_detail": "https://pse.komdigi.go.id/tdpse-detail/7482",
            "website": "lakupandai.axa-mandiri.co.id"
        },
        {
            "id": "9cb1abe8-be91-4c57-926c-b3fc5fca887e",
            "nama_pse": "AXA MANDIRI FINANCIAL SERVICES",
            "nama_se": "ASMIK",
            "sektor": "Sektor Keuangan",
            "tanggal_terbit": "2022-07-20",
            "url_tdpse_detail": "https://pse.komdigi.go.id/tdpse-detail/7492",
            "website": "layanan.axa-mandiri.co.id"
        },
        {
            "id": "9cb1abc2-cfcc-41da-bebe-94241a41c5ff",
            "nama_pse": "BANK SMBC INDONESIA",
            "nama_se": "TOUCHBIZ",
            "sektor": "Sektor Keuangan",
            "tanggal_terbit": "2022-07-20",
            "url_tdpse_detail": "https://pse.komdigi.go.id/tdpse-detail/7290",
            "website": "-"
        },
        {
            "id": "9cb1abe8-c4c1-4d31-b86e-38c60143ea06",
            "nama_pse": "PERUSAHAAN PERSEROAN (PERSERO) PT. BANK RAKYAT INDONESIA",
            "nama_se": "E-RECRUITMENT BRI",
            "sektor": "Sektor Teknologi Informasi dan Komunikasi",
            "tanggal_terbit": "2022-07-20",
            "url_tdpse_detail": "https://pse.komdigi.go.id/tdpse-detail/7291",
            "website": "e-recruitment.bri.co.id"
        },
        {
            "id": "9cb1abc2-d20a-493e-9c00-a59a9d7585d8",
            "nama_pse": "ASURANSI UMUM BCA",
            "nama_se": "E-POLIS",
            "sektor": "Sektor Keuangan",
            "tanggal_terbit": "2022-07-20",
            "url_tdpse_detail": "https://pse.komdigi.go.id/tdpse-detail/7292",
            "website": "e-polis.bcainsurance.co.id"
        },
        {
            "id": "9cb1abb7-99fc-4cd3-b68a-6474a0e278ab",
            "nama_pse": "SURYA ARTHA NUSANTARA FINANCE",
            "nama_se": "SANF.CO.ID",
            "sektor": "Sektor Keuangan",
            "tanggal_terbit": "2022-07-20",
            "url_tdpse_detail": "https://pse.komdigi.go.id/tdpse-detail/7293",
            "website": "sanf.co.id"
        },
        {
            "id": "9cb1abe8-c7db-43de-822d-eea1cfb34cba",
            "nama_pse": "AMAN DEVLOOP INDONESIA",
            "nama_se": "MILOV APPS",
            "sektor": "Sektor Teknologi Informasi dan Komunikasi",
            "tanggal_terbit": "2022-07-20",
            "url_tdpse_detail": "https://pse.komdigi.go.id/tdpse-detail/7994",
            "website": "-"
        },
        {
            "id": "9cb1abc2-d50b-4b44-b033-caca88cab680",
            "nama_pse": "BANK PERKREDITAN RAKYAT NUSAMBA TEGALLALANG",
            "nama_se": "PT. BPR NUSAMBA TEGALLALANG",
            "sektor": "Sektor Keuangan",
            "tanggal_terbit": "2022-07-20",
            "url_tdpse_detail": "https://pse.komdigi.go.id/tdpse-detail/7294",
            "website": "bprnusamba-tegallalang.com"
        },
        {
            "id": "9cb1abe8-cdcf-4d05-8d95-e23bc6d66b7c",
            "nama_pse": "ASURANSI UMUM BCA",
            "nama_se": "E-MARINE",
            "sektor": "Sektor Keuangan",
            "tanggal_terbit": "2022-07-20",
            "url_tdpse_detail": "https://pse.komdigi.go.id/tdpse-detail/7297",
            "website": "emarine.bcainsurance.co.id"
        },
        {
            "id": "9cb1abc2-d860-4e6b-a918-5256c5d61dd8",
            "nama_pse": "BANK PERKREDITAN RAKYAT ARTHA WARINGIN JAYA",
            "nama_se": "BPR ARTHA WARINGIN JAYA",
            "sektor": "Sektor Keuangan",
            "tanggal_terbit": "2022-07-20",
            "url_tdpse_detail": "https://pse.komdigi.go.id/tdpse-detail/7302",
            "website": "-"
        },
        {
            "id": "9cb1abc2-db11-4ea4-8ad1-d52efbd1570a",
            "nama_pse": "BANK PERKREDITAN RAKYAT LAMPUNG BINA SEJAHTERA",
            "nama_se": "PT BPR LAMPUNG BINA SEJAHTERA",
            "sektor": "Sektor Keuangan",
            "tanggal_terbit": "2022-07-20",
            "url_tdpse_detail": "https://pse.komdigi.go.id/tdpse-detail/7300",
            "website": "-"
        },
        {
            "id": "9cb1abc2-dfac-4320-b4cc-861d94068eba",
            "nama_pse": "KAWANUA DIGITAL INDONESIA",
            "nama_se": "BURSAOTOMANADO.COM",
            "sektor": "Sektor Perdagangan",
            "tanggal_terbit": "2022-07-20",
            "url_tdpse_detail": "https://pse.komdigi.go.id/tdpse-detail/7298",
            "website": "Bursaotomanado.com"
        },
        {
            "id": "9cb1abc2-e273-4d3d-bb69-b50a81e264ee",
            "nama_pse": "BANK PERKREDITAN RAKYAT GUNUNG SLAMET",
            "nama_se": "WEBSITE",
            "sektor": "Sektor Keuangan",
            "tanggal_terbit": "2022-07-20",
            "url_tdpse_detail": "https://pse.komdigi.go.id/tdpse-detail/7299",
            "website": "bprgunungslamet.com"
        },
        {
            "id": "9cb1abe8-d121-4de8-9e1d-9eb57809bdf9",
            "nama_pse": "BANK PEREKONOMIAN RAKYAT KARYAJATNIKA SADAYA",
            "nama_se": "CANVASSER BPRKS",
            "sektor": "Sektor Keuangan",
            "tanggal_terbit": "2022-07-20",
            "url_tdpse_detail": "https://pse.komdigi.go.id/tdpse-detail/7304",
            "website": "-"
        },
        {
            "id": "9cb1abe8-d47a-4dc1-a108-d834638c41d4",
            "nama_pse": "BANK PEREKONOMIAN RAKYAT GONJONG LIMO",
            "nama_se": "PT BPR GONJONG LIMO",
            "sektor": "Sektor Keuangan",
            "tanggal_terbit": "2022-07-20",
            "url_tdpse_detail": "https://pse.komdigi.go.id/tdpse-detail/7301",
            "website": "-"
        },
        {
            "id": "9cb1abc2-f440-4721-9719-3f498422c389",
            "nama_pse": "BPR LPN KAMPUNG DALAM",
            "nama_se": "PT BPR LPN KAMPUNG DALAM",
            "sektor": "Sektor Keuangan",
            "tanggal_terbit": "2022-07-20",
            "url_tdpse_detail": "https://pse.komdigi.go.id/tdpse-detail/7307",
            "website": "-"
        },
        {
            "id": "9cb1abc2-fe88-434e-ae44-2bc24bed77a4",
            "nama_pse": "BANK PERKREDITAN RAKYAT RAGA SURYA NUANSA",
            "nama_se": "CORE BANKING SISTEM",
            "sektor": "Sektor Keuangan",
            "tanggal_terbit": "2022-07-20",
            "url_tdpse_detail": "https://pse.komdigi.go.id/tdpse-detail/7303",
            "website": "bankrasuna.com"
        },
        {
            "id": "9cb1abe8-d815-4c66-b9f2-26299166e4cc",
            "nama_pse": "ASURANSI SINAR MAS",
            "nama_se": "WEBSITE SINARMAS.CO.ID",
            "sektor": "Sektor Keuangan",
            "tanggal_terbit": "2022-07-20",
            "url_tdpse_detail": "https://pse.komdigi.go.id/tdpse-detail/7305",
            "website": "sinarmas.co.id"
        },
        {
            "id": "9cb1abc3-02fc-4761-b28e-c0832da0e56e",
            "nama_pse": "BURSA EFEK INDONESIA",
            "nama_se": "DATAFEED",
            "sektor": "Sektor Keuangan",
            "tanggal_terbit": "2022-07-20",
            "url_tdpse_detail": "https://pse.komdigi.go.id/tdpse-detail/7306",
            "website": "-"
        },
        {
            "id": "9cb1abc3-05e2-438e-9a93-780628380d6e",
            "nama_pse": "BANK PERKREDITAN RAKYAT GURU JATENG",
            "nama_se": "WWW.BPRGURUJATENG.COM",
            "sektor": "Sektor Keuangan",
            "tanggal_terbit": "2022-07-20",
            "url_tdpse_detail": "https://pse.komdigi.go.id/tdpse-detail/7318",
            "website": "bprgurujateng.com"
        },
        {
            "id": "9cb1abc3-085d-4a45-86e2-200811d8647d",
            "nama_pse": "BANK PEREKONOMIAN RAKYAT DANAFLASH KALIMANTAN TIMUR",
            "nama_se": "WEB PT BPR DANAFLASH KALIMANTAN TIMUR",
            "sektor": "Sektor Keuangan",
            "tanggal_terbit": "2022-07-20",
            "url_tdpse_detail": "https://pse.komdigi.go.id/tdpse-detail/7313",
            "website": "bankdanaflash.co.id"
        },
        {
            "id": "9cb1abb7-9ded-4d9c-809e-95d6a8d7c3ef",
            "nama_pse": "BANK PEREKONOMIAN RAKYAT CIBITUNG PERMAI",
            "nama_se": "PT. BPR CIBITUNG PERMAI",
            "sektor": "Sektor Keuangan",
            "tanggal_terbit": "2022-07-20",
            "url_tdpse_detail": "https://pse.komdigi.go.id/tdpse-detail/7308",
            "website": "bprcibitungpermai.co.id"
        },
        {
            "id": "9cb1abe8-dc9e-4493-bdff-305cb9b6e10b",
            "nama_pse": "BANK PERKREDITAN RAKYAT DUTA ARTHA SEJAHTERA",
            "nama_se": "WEBSITE BPR DAS",
            "sektor": "Sektor Keuangan",
            "tanggal_terbit": "2022-07-20",
            "url_tdpse_detail": "https://pse.komdigi.go.id/tdpse-detail/7309",
            "website": "bpr-das.co.id"
        },
        {
            "id": "9cb1abe8-e21d-4482-9f7e-6ae1d42c22b4",
            "nama_pse": "BANK PEREKONOMIAN RAKYAT KARYAJATNIKA SADAYA",
            "nama_se": "DASHBOARD AKSES",
            "sektor": "Sektor Keuangan",
            "tanggal_terbit": "2022-07-20",
            "url_tdpse_detail": "https://pse.komdigi.go.id/tdpse-detail/7314",
            "website": "-"
        },
        {
            "id": "9cb1abc3-0ba9-4cf8-b6e0-5df7aba1412c",
            "nama_pse": "BANK PEREKONOMIAN RAKYAT ARTANAWA",
            "nama_se": "CORE BANKING SYSTEM BPR",
            "sektor": "Sektor Keuangan",
            "tanggal_terbit": "2022-07-20",
            "url_tdpse_detail": "https://pse.komdigi.go.id/tdpse-detail/7311",
            "website": "-"
        },
        {
            "id": "9cb1abe8-e8e5-407d-b5ed-219ed299f1c5",
            "nama_pse": "BANK PERKREDITAN RAKYAT NUSANTARA BONA PASOGIT 9",
            "nama_se": "PT BPR NUSANTARA BONA PASOGIT 9",
            "sektor": "Sektor Keuangan",
            "tanggal_terbit": "2022-07-20",
            "url_tdpse_detail": "https://pse.komdigi.go.id/tdpse-detail/7310",
            "website": "-"
        },
        {
            "id": "9cb1abc3-1319-4ba8-a538-b2053a2001dd",
            "nama_pse": "EDUCA SISFOMEDIA INDONESIA",
            "nama_se": "EDUCA STUDIO",
            "sektor": "Sektor Teknologi Informasi dan Komunikasi",
            "tanggal_terbit": "2022-07-20",
            "url_tdpse_detail": "https://pse.komdigi.go.id/tdpse-detail/7312",
            "website": "educastudio.com"
        },
        {
            "id": "9cb1abe8-ec03-421a-a535-d1af699c06a6",
            "nama_pse": "BANK PEREKONOMIAN RAKYAT CANDI AGUNG AMUNTAI",
            "nama_se": "BANK BPR CANDI AGUNG AMUNTAI",
            "sektor": "Sektor Keuangan",
            "tanggal_terbit": "2022-07-20",
            "url_tdpse_detail": "https://pse.komdigi.go.id/tdpse-detail/7315",
            "website": "bprcandiagungamt.com"
        },
        {
            "id": "9cb1abc3-15ae-4342-9990-e58384730b24",
            "nama_pse": "PERUSAHAAN PERSEROAN (PERSERO) PT. POS INDONESIA",
            "nama_se": "RS POS",
            "sektor": "Sektor Teknologi Informasi dan Komunikasi",
            "tanggal_terbit": "2022-07-20",
            "url_tdpse_detail": "https://pse.komdigi.go.id/tdpse-detail/7325",
            "website": "rspos.posindonesia.co.id"
        },
        {
            "id": "9cb1abc3-17c3-48ee-8972-2c6e9d0c4db0",
            "nama_pse": "BANK PERKREDITAN RAKYAT CHRISTA JAYA PERDANA",
            "nama_se": "PT. BPR CHRISTA JAYA PERDANA",
            "sektor": "Sektor Keuangan",
            "tanggal_terbit": "2022-07-20",
            "url_tdpse_detail": "https://pse.komdigi.go.id/tdpse-detail/7327",
            "website": "bprchristajaya.com"
        },
        {
            "id": "9cb1abb7-a382-4184-ac79-ae0fa4180751",
            "nama_pse": "BANK PEREKONOMIAN RAKYAT KARYAJATNIKA SADAYA",
            "nama_se": "SALESTRACKING BPRKS",
            "sektor": "Sektor Keuangan",
            "tanggal_terbit": "2022-07-20",
            "url_tdpse_detail": "https://pse.komdigi.go.id/tdpse-detail/7316",
            "website": "salestracking.bprks.co.id"
        },
        {
            "id": "9cb1abc3-198c-4f38-9f1c-3464f3911aa5",
            "nama_pse": "BANK PEREKONOMIAN RAKYAT SOLOK SELATAN",
            "nama_se": "PT BANK PERKREDITAN RAKYAT SOLOK SELATAN",
            "sektor": "Sektor Keuangan",
            "tanggal_terbit": "2022-07-20",
            "url_tdpse_detail": "https://pse.komdigi.go.id/tdpse-detail/7319",
            "website": "-"
        },
        {
            "id": "9cb1abb7-a65d-48c4-b2a1-e9ecc1fc0428",
            "nama_pse": "BANK PERKREDITAN RAKYAT HARAPAN BUNDA BATAM",
            "nama_se": "PT BPR HARAPAN BUNDA BATAM",
            "sektor": "Sektor Keuangan",
            "tanggal_terbit": "2022-07-20",
            "url_tdpse_detail": "https://pse.komdigi.go.id/tdpse-detail/7321",
            "website": "sibprhbb.my.id"
        },
        {
            "id": "9cb1abe8-ef93-49ff-b766-5791bb911fea",
            "nama_pse": "BANK PEMBANGUNAN DAERAH KALIMANTAN TENGAH",
            "nama_se": "CASH MANAGEMENT SYSTEM (CMS) CORPORATE",
            "sektor": "Sektor Keuangan",
            "tanggal_terbit": "2022-07-20",
            "url_tdpse_detail": "https://pse.komdigi.go.id/tdpse-detail/7320",
            "website": "cmscorp.bankkalteng.co.id"
        },
        {
            "id": "9cb1abe8-f3ca-49cc-a9f6-9d8b4e7ef6ef",
            "nama_pse": "PERUSAHAAN PERSEROAN (PERSERO) PT. BANK MANDIRI",
            "nama_se": "KOPRA BY MANDIRI",
            "sektor": "Sektor Keuangan",
            "tanggal_terbit": "2022-07-20",
            "url_tdpse_detail": "https://pse.komdigi.go.id/tdpse-detail/7330",
            "website": "kopra.bankmandiri.co.id"
        },
        {
            "id": "9cb1abc3-1bdf-4a6c-ad37-9fc1ba54d89c",
            "nama_pse": "INVESNOW PRINCIPAL OPTIMA",
            "nama_se": "INVESNOW.ID",
            "sektor": "Sektor Keuangan",
            "tanggal_terbit": "2022-07-20",
            "url_tdpse_detail": "https://pse.komdigi.go.id/tdpse-detail/7326",
            "website": "invesnow.id"
        },
        {
            "id": "9cb1abc3-1dce-421c-903e-c86b6a2d8a5d",
            "nama_pse": "BANK PEREKONOMIAN RAKYAT RAMOT GANDA",
            "nama_se": "BPR RAMOT GANDA",
            "sektor": "Sektor Keuangan",
            "tanggal_terbit": "2022-07-20",
            "url_tdpse_detail": "https://pse.komdigi.go.id/tdpse-detail/7323",
            "website": "bprramotganda.com"
        },
        {
            "id": "9cb1abb7-a854-422b-8fd7-00382b84cdf5",
            "nama_pse": "BANK PERKREDITAN RAKYAT NUSANTARA BONA PASOGIT 8",
            "nama_se": "BANK PERKREDITAN RAKYAT NUSANTARA BONA PASOGIT 8",
            "sektor": "Sektor Keuangan",
            "tanggal_terbit": "2022-07-20",
            "url_tdpse_detail": "https://pse.komdigi.go.id/tdpse-detail/7340",
            "website": "bprnbp8.id"
        },
        {
            "id": "9cb1abe8-f73d-429e-a9b5-579b0cb60b4f",
            "nama_pse": "BANK PEREKONOMIAN RAKYAT NAGA",
            "nama_se": "WEBSITE PT. BPR NAGA",
            "sektor": "Sektor Keuangan",
            "tanggal_terbit": "2022-07-20",
            "url_tdpse_detail": "https://pse.komdigi.go.id/tdpse-detail/7324",
            "website": "bprnaga.com"
        },
        {
            "id": "9cb1abb7-aad3-4cb8-8a1e-f443bb42fec7",
            "nama_pse": "BANK PERKREDITAN RAKYAT EKA PRASETYA",
            "nama_se": "BPR EKA PRASETYA",
            "sektor": "Sektor Keuangan",
            "tanggal_terbit": "2022-07-20",
            "url_tdpse_detail": "https://pse.komdigi.go.id/tdpse-detail/7329",
            "website": "bprekaprasetya.com"
        },
        {
            "id": "9cb1abc3-20d6-49c1-a57f-373b11d62e13",
            "nama_pse": "FUSI LIBERTI INFOSINDO",
            "nama_se": "MONALISA",
            "sektor": "Sektor Energi dan Sumber Daya Mineral, Sektor Teknologi Informasi dan Komunikasi",
            "tanggal_terbit": "2022-07-20",
            "url_tdpse_detail": "https://pse.komdigi.go.id/tdpse-detail/7401",
            "website": "monalisa.fulindo.co.id"
        },
        {
            "id": "9cb1abe8-fdd9-4f12-879f-75dca6b6259a",
            "nama_pse": "BANK PERKREDITAN RAKYAT UKABIMA LESTARI",
            "nama_se": "WEBSITE PT BPR UKABIMA LESTARI",
            "sektor": "Sektor Keuangan",
            "tanggal_terbit": "2022-07-20",
            "url_tdpse_detail": "https://pse.komdigi.go.id/tdpse-detail/7415",
            "website": "ukabima-lestari.co.id"
        },
        {
            "id": "9cb1abc3-2338-4b64-b0bb-f3b3305db453",
            "nama_pse": "BANK PERKREDITAN RAKYAT MITRA BALI MANDIRI",
            "nama_se": "WEBSITE BPR MITRA BALI MANDIRI",
            "sektor": "Sektor Keuangan",
            "tanggal_terbit": "2022-07-20",
            "url_tdpse_detail": "https://pse.komdigi.go.id/tdpse-detail/7331",
            "website": "bprmitrabalimandiri.com"
        }
    ],
    "processingTimeMs": 4,
    "query": "",
    "totalHits": 19131,
    "hitsPerPage": 50,
    "page": 233,
    "totalPages": 383
}