{
    "hits": [
        {
            "id": "9cb1ac01-0233-460e-b959-9c0b439a134b",
            "nama_pse": "JAMAN MEMBANGUN MANDIRI",
            "nama_se": "PT. JAMAN MEMBANGUN MANDIRI",
            "sektor": "Sektor Energi dan Sumber Daya Mineral",
            "tanggal_terbit": "2022-09-14",
            "url_tdpse_detail": "https://pse.komdigi.go.id/tdpse-detail/11183",
            "website": "-"
        },
        {
            "id": "9cb1ac0f-c7b0-4e8f-9a43-46df6fc11843",
            "nama_pse": "ASAH SUMBER REJEKI",
            "nama_se": "PUSH NOTIFX",
            "sektor": "Sektor Teknologi Informasi dan Komunikasi",
            "tanggal_terbit": "2022-09-14",
            "url_tdpse_detail": "https://pse.komdigi.go.id/tdpse-detail/11184",
            "website": "blackboxmedia.id"
        },
        {
            "id": "9cb1abdb-c606-4b0b-9d79-df4288a494c8",
            "nama_pse": "RUMKIT BHAYANGKARA LUMAJANG KEPOLISIAN NEGARA REPUBLIK INDONESIA",
            "nama_se": "SIMRS KHANZA RS BHAYANGKARA LUMAJANG",
            "sektor": "Sektor Kesehatan",
            "tanggal_terbit": "2022-09-14",
            "url_tdpse_detail": "https://pse.komdigi.go.id/tdpse-detail/11185",
            "website": "rumkitbhayangkaralumajang.com"
        },
        {
            "id": "9cb1ac01-06db-4036-8d5c-09eb4a68c82a",
            "nama_pse": "MEDIA INNITY",
            "nama_se": "PASSIONATION.CO",
            "sektor": "Sektor Teknologi Informasi dan Komunikasi",
            "tanggal_terbit": "2022-09-14",
            "url_tdpse_detail": "https://pse.komdigi.go.id/tdpse-detail/11186",
            "website": "passionation.co"
        },
        {
            "id": "9cb1abdb-cdba-4f3d-b794-97ec24d247a0",
            "nama_pse": "EKRUT TEKNOLOGI PASIFIK",
            "nama_se": "EKRUT",
            "sektor": "Sektor Perdagangan",
            "tanggal_terbit": "2022-09-14",
            "url_tdpse_detail": "https://pse.komdigi.go.id/tdpse-detail/11187",
            "website": "ekrut.com"
        },
        {
            "id": "9cb1abdb-d330-4871-a647-c2ba91325941",
            "nama_pse": "EKRUT TEKNOLOGI PASIFIK",
            "nama_se": "GAWEYUK!",
            "sektor": "Sektor Perdagangan",
            "tanggal_terbit": "2022-09-14",
            "url_tdpse_detail": "https://pse.komdigi.go.id/tdpse-detail/11188",
            "website": "gaweyuk.com"
        },
        {
            "id": "9cb1abdb-db23-482b-8660-1a0d8379d057",
            "nama_pse": "BULLION ECOSYSTEM INTERNATIONAL",
            "nama_se": "GOLDTOMECCA",
            "sektor": "Sektor Perdagangan",
            "tanggal_terbit": "2022-09-14",
            "url_tdpse_detail": "https://pse.komdigi.go.id/tdpse-detail/11189",
            "website": "goldtomecca.com"
        },
        {
            "id": "9cb1ac0f-cac9-47de-bae8-52184beaf797",
            "nama_pse": "GLOBAL MEDIKA DIGITAMA",
            "nama_se": "MEDIFY",
            "sektor": "Sektor Kesehatan",
            "tanggal_terbit": "2022-09-14",
            "url_tdpse_detail": "https://pse.komdigi.go.id/tdpse-detail/11190",
            "website": "medify.id"
        },
        {
            "id": "9cb1ac01-0ebe-4b09-89fb-6540dce89960",
            "nama_pse": "AULIA PRATAMA",
            "nama_se": "LAPAKITA",
            "sektor": "Sektor Perdagangan",
            "tanggal_terbit": "2022-09-14",
            "url_tdpse_detail": "https://pse.komdigi.go.id/tdpse-detail/11191",
            "website": "-"
        },
        {
            "id": "9cb1ac0f-cd87-4c4d-92c0-11d2e1cf200e",
            "nama_pse": "DANA PENSIUN BANK INDONESIA IURAN PASTI",
            "nama_se": "WEBSITE DAN MOBILE APPS DAPENBI IP",
            "sektor": "Sektor Keuangan, Sektor Teknologi Informasi dan Komunikasi",
            "tanggal_terbit": "2022-09-14",
            "url_tdpse_detail": "https://pse.komdigi.go.id/tdpse-detail/11192",
            "website": "dapenbiip.co.id"
        },
        {
            "id": "9cb1ac0f-d05b-4215-8024-e8961e9eb383",
            "nama_pse": "LSEG TRANSACTION SERVICES INDONESIA",
            "nama_se": "REFINITIV FX TRANSACTIONS",
            "sektor": "Sektor Teknologi Informasi dan Komunikasi",
            "tanggal_terbit": "2022-09-14",
            "url_tdpse_detail": "https://pse.komdigi.go.id/tdpse-detail/11196",
            "website": "refinitiv.com"
        },
        {
            "id": "9cb1ac0f-d3f1-4413-8134-10c66ad95a81",
            "nama_pse": "MAHKOTA MAS INSAN PERSADA",
            "nama_se": "MAHKOTA MAS INSAN PERSADA",
            "sektor": "Sektor Teknologi Informasi dan Komunikasi",
            "tanggal_terbit": "2022-09-14",
            "url_tdpse_detail": "https://pse.komdigi.go.id/tdpse-detail/11193",
            "website": "-"
        },
        {
            "id": "9cb1ac0f-d6b3-4757-a533-bbb7fb03f90b",
            "nama_pse": "ANUGERAH KASIH PUTERA",
            "nama_se": "OTOBITZ",
            "sektor": "Sektor Perdagangan",
            "tanggal_terbit": "2022-09-14",
            "url_tdpse_detail": "https://pse.komdigi.go.id/tdpse-detail/11194",
            "website": "honda-anugerah.com"
        },
        {
            "id": "9cb1ac0f-dc54-4b77-9a32-d8e5e892ab0c",
            "nama_pse": "KOLABORASI KERJA INDONESIA",
            "nama_se": "ENEVTI.COM",
            "sektor": "Sektor Teknologi Informasi dan Komunikasi",
            "tanggal_terbit": "2022-09-14",
            "url_tdpse_detail": "https://pse.komdigi.go.id/tdpse-detail/11197",
            "website": "enevti.com"
        },
        {
            "id": "9cb1ac01-135e-412d-9f70-6ec6abbc61ae",
            "nama_pse": "VICTOR NOVELLO KELPITNA",
            "nama_se": "TAXIJEK OL1416",
            "sektor": "Sektor Transportasi, Sektor Teknologi Informasi dan Komunikasi",
            "tanggal_terbit": "2022-09-14",
            "url_tdpse_detail": "https://pse.komdigi.go.id/tdpse-detail/11198",
            "website": "-"
        },
        {
            "id": "9cb1abdb-e421-4eff-b785-dbfa997f1c09",
            "nama_pse": "SIMRS KHANZA INDONESIA",
            "nama_se": "SIMKES KHANZA",
            "sektor": "Sektor Kesehatan",
            "tanggal_terbit": "2022-09-14",
            "url_tdpse_detail": "https://pse.komdigi.go.id/tdpse-detail/11200",
            "website": "yaski.or.id"
        },
        {
            "id": "9cb1ab99-a41e-4934-8836-ef1b4e66cd0b",
            "nama_pse": "ASURANSI BRI LIFE",
            "nama_se": "MY LIFE",
            "sektor": "Sektor Keuangan",
            "tanggal_terbit": "2022-09-14",
            "url_tdpse_detail": "https://pse.komdigi.go.id/tdpse-detail/5007",
            "website": "-"
        },
        {
            "id": "9cb1ac0f-ae8d-494e-8917-5f4e7986565b",
            "nama_pse": "SOLUSI INVESTASI ANAK BANGSA",
            "nama_se": "INVESDOOR.ID",
            "sektor": "Sektor Keuangan, Sektor Teknologi Informasi dan Komunikasi",
            "tanggal_terbit": "2022-09-13",
            "url_tdpse_detail": "https://pse.komdigi.go.id/tdpse-detail/11171",
            "website": "invesdoor.id"
        },
        {
            "id": "9cb1ac0f-16cb-4795-b3a9-57f839fe232d",
            "nama_pse": "BERTRAND PRAYOGA AMALO",
            "nama_se": "ESHOP UNAPIN",
            "sektor": "Sektor Perdagangan",
            "tanggal_terbit": "2022-09-13",
            "url_tdpse_detail": "https://pse.komdigi.go.id/tdpse-detail/11045",
            "website": "eshop.unapin.com"
        },
        {
            "id": "9cb1ac0f-8fa1-4c08-a602-9f0391a87c06",
            "nama_pse": "BERTRAND PRAYOGA AMALO",
            "nama_se": "SUPERBIZ INDONESIA",
            "sektor": "Sektor Perdagangan, Sektor Teknologi Informasi dan Komunikasi",
            "tanggal_terbit": "2022-09-13",
            "url_tdpse_detail": "https://pse.komdigi.go.id/tdpse-detail/11135",
            "website": "superbiz.my.id"
        },
        {
            "id": "9cb1ac0f-9c57-4dab-a5fa-c20b7cb897e9",
            "nama_pse": "KERETA COMMUTER INDONESIA",
            "nama_se": "C-ACCESS",
            "sektor": "Sektor Transportasi",
            "tanggal_terbit": "2022-09-13",
            "url_tdpse_detail": "https://pse.komdigi.go.id/tdpse-detail/11156",
            "website": "krl.co.id"
        },
        {
            "id": "9cb1abdb-7ee8-44ab-adb4-cf7bdcf7e56b",
            "nama_pse": "YUSFIKA UTAMI",
            "nama_se": "REDBY JEK",
            "sektor": "Sektor Transportasi",
            "tanggal_terbit": "2022-09-13",
            "url_tdpse_detail": "https://pse.komdigi.go.id/tdpse-detail/11159",
            "website": "-"
        },
        {
            "id": "9cb1ac0f-9fbf-4ad6-9048-6e7a118c1635",
            "nama_pse": "KITA PASTI BERHASIL",
            "nama_se": "ARTPEDIA",
            "sektor": "Sektor Teknologi Informasi dan Komunikasi",
            "tanggal_terbit": "2022-09-13",
            "url_tdpse_detail": "https://pse.komdigi.go.id/tdpse-detail/11160",
            "website": "artpedia.io"
        },
        {
            "id": "9cb1ac0f-a2a2-481c-8d34-6d0e89b0d9b4",
            "nama_pse": "AFFAN TECHNOLOGY INDONESIA",
            "nama_se": "PARTO",
            "sektor": "Sektor Perdagangan",
            "tanggal_terbit": "2022-09-13",
            "url_tdpse_detail": "https://pse.komdigi.go.id/tdpse-detail/11161",
            "website": "partojambe.com"
        },
        {
            "id": "9cb1ac0f-a564-4096-b144-50d7053d0135",
            "nama_pse": "CAIH INFOTECH INDONESIA",
            "nama_se": "ELINKINGINDONESIA",
            "sektor": "Sektor Perdagangan",
            "tanggal_terbit": "2022-09-13",
            "url_tdpse_detail": "https://pse.komdigi.go.id/tdpse-detail/11166",
            "website": "-"
        },
        {
            "id": "9cb1ac0f-a88e-4fdd-a2a0-ea087b5d5cd5",
            "nama_pse": "MUSTHAFA KAMAL",
            "nama_se": "EXPAY",
            "sektor": "Sektor Perdagangan",
            "tanggal_terbit": "2022-09-13",
            "url_tdpse_detail": "https://pse.komdigi.go.id/tdpse-detail/11162",
            "website": "expay.id"
        },
        {
            "id": "9cb1abdb-836e-481c-a18f-e19fffcbf161",
            "nama_pse": "RUMAH SAKIT BHAYANGKARA NGANJUK",
            "nama_se": "SIMRS KHANZA RS BHAYANGKARA TK. III NGANJUK",
            "sektor": "Sektor Kesehatan, Sektor Teknologi Informasi dan Komunikasi",
            "tanggal_terbit": "2022-09-13",
            "url_tdpse_detail": "https://pse.komdigi.go.id/tdpse-detail/11164",
            "website": "rsbhayangkaranganjuk.com"
        },
        {
            "id": "9cb1ac00-f191-4caf-9e3e-440c9c9c01e5",
            "nama_pse": "NATURAL FOODS SUKSES MAKMUR",
            "nama_se": "NATURAL SEASONING WELL",
            "sektor": "Sektor Perdagangan",
            "tanggal_terbit": "2022-09-13",
            "url_tdpse_detail": "https://pse.komdigi.go.id/tdpse-detail/11163",
            "website": "nswfood.co.id"
        },
        {
            "id": "9cb1ac00-f58e-4645-b894-98e83d69a5f4",
            "nama_pse": "SOLUSI KEMASAN DIGITAL",
            "nama_se": "FLEXYPACK.COM",
            "sektor": "Sektor Perdagangan",
            "tanggal_terbit": "2022-09-13",
            "url_tdpse_detail": "https://pse.komdigi.go.id/tdpse-detail/11165",
            "website": "flexypack.com"
        },
        {
            "id": "9cb1abdb-889d-4884-a4fb-f6416dedf89c",
            "nama_pse": "RUKUN SEJAHTERA TEKNIK",
            "nama_se": "RUKUN.ID",
            "sektor": "Sektor Perdagangan",
            "tanggal_terbit": "2022-09-13",
            "url_tdpse_detail": "https://pse.komdigi.go.id/tdpse-detail/11167",
            "website": "rukun.id"
        },
        {
            "id": "9cb1abdb-8fe0-4ebf-b536-d9ddfcda5e4b",
            "nama_pse": "BIGO INFORMATION INDONESIA",
            "nama_se": "FUNKIE",
            "sektor": "Sektor Teknologi Informasi dan Komunikasi",
            "tanggal_terbit": "2022-09-13",
            "url_tdpse_detail": "https://pse.komdigi.go.id/tdpse-detail/11173",
            "website": "-"
        },
        {
            "id": "9cb1abdb-94ea-4b7d-9c2c-345dd3a27ee0",
            "nama_pse": "SKYREX AVIASI SINERGI",
            "nama_se": "AVEA - AVIATION MANAGEMENT SYSTEM",
            "sektor": "Sektor Transportasi, Sektor Teknologi Informasi dan Komunikasi",
            "tanggal_terbit": "2022-09-13",
            "url_tdpse_detail": "https://pse.komdigi.go.id/tdpse-detail/11168",
            "website": "skyrexas.com"
        },
        {
            "id": "9cb1ac0f-ab61-434c-8fd1-31fc4f349eb4",
            "nama_pse": "PARAGON PRATAMA TEKNOLOGI",
            "nama_se": "STICKEARN PORTAL CORE3",
            "sektor": "Sektor Perdagangan, Sektor Teknologi Informasi dan Komunikasi",
            "tanggal_terbit": "2022-09-13",
            "url_tdpse_detail": "https://pse.komdigi.go.id/tdpse-detail/11170",
            "website": "STICKEARN.COM"
        },
        {
            "id": "9cb1ac0f-b1bf-4415-b6fc-455ea5d26c3c",
            "nama_pse": "VIPAS INOVASI TEKNOLOGI",
            "nama_se": "VINOTEK",
            "sektor": "Sektor Teknologi Informasi dan Komunikasi",
            "tanggal_terbit": "2022-09-13",
            "url_tdpse_detail": "https://pse.komdigi.go.id/tdpse-detail/11174",
            "website": "Vinotek.id"
        },
        {
            "id": "9cb1ac0f-b49a-4018-8233-102126d3e62a",
            "nama_pse": "ADWA INFO MANDIRI",
            "nama_se": "ICHA BACKUP",
            "sektor": "Sektor Kesehatan, Sektor Teknologi Informasi dan Komunikasi",
            "tanggal_terbit": "2022-09-13",
            "url_tdpse_detail": "https://pse.komdigi.go.id/tdpse-detail/11175",
            "website": "icha.co.id"
        },
        {
            "id": "9cb1abdb-9cc9-42e8-b355-ceff3d10a5aa",
            "nama_pse": "DUNSANAK KHATULISTIWA RIAU",
            "nama_se": "MITRA NEGRI",
            "sektor": "Sektor Teknologi Informasi dan Komunikasi",
            "tanggal_terbit": "2022-09-13",
            "url_tdpse_detail": "https://pse.komdigi.go.id/tdpse-detail/11177",
            "website": "mitranegeri.com"
        },
        {
            "id": "9cb1ac00-fb8e-44a8-863e-ee60c47c4a7c",
            "nama_pse": "GERAKAN INDONESIA EMAS",
            "nama_se": "GIEPAY",
            "sektor": "Sektor Perdagangan",
            "tanggal_terbit": "2022-09-13",
            "url_tdpse_detail": "https://pse.komdigi.go.id/tdpse-detail/11176",
            "website": "gerakanindonesiaemas.com"
        },
        {
            "id": "9cb1ac00-ff0e-4948-988e-95980425672e",
            "nama_pse": "ADWA INFO MANDIRI",
            "nama_se": "ICHA MOBILE",
            "sektor": "Sektor Kesehatan, Sektor Teknologi Informasi dan Komunikasi",
            "tanggal_terbit": "2022-09-13",
            "url_tdpse_detail": "https://pse.komdigi.go.id/tdpse-detail/11178",
            "website": "icha.co.id"
        },
        {
            "id": "9cb1abdb-a1a1-43ce-a6ff-746abbaedbd1",
            "nama_pse": "DIGITAL ACCESS INDONESIA",
            "nama_se": "TUNTAZ.COM",
            "sektor": "Sektor Perdagangan",
            "tanggal_terbit": "2022-09-13",
            "url_tdpse_detail": "https://pse.komdigi.go.id/tdpse-detail/11179",
            "website": "tuntaz.com"
        },
        {
            "id": "9cb1ac0f-bc86-4ea0-8d50-5e294961616f",
            "nama_pse": "ADWA INFO MANDIRI",
            "nama_se": "ICHA",
            "sektor": "Sektor Kesehatan, Sektor Teknologi Informasi dan Komunikasi",
            "tanggal_terbit": "2022-09-13",
            "url_tdpse_detail": "https://pse.komdigi.go.id/tdpse-detail/11180",
            "website": "icha.co.id"
        },
        {
            "id": "9cb1abdb-a6d8-43ad-9f14-b918bd89e320",
            "nama_pse": "PUSAT LITERASI DUNIA",
            "nama_se": "LITERATUR.ID",
            "sektor": "Sektor Teknologi Informasi dan Komunikasi",
            "tanggal_terbit": "2022-09-13",
            "url_tdpse_detail": "https://pse.komdigi.go.id/tdpse-detail/11181",
            "website": "literatur.id"
        },
        {
            "id": "9cb1abae-7086-4a09-a6f7-3d42823a511f",
            "nama_pse": "TOKOFANS SMM INDONESIA",
            "nama_se": "TOKOFANS",
            "sektor": "Sektor Perdagangan",
            "tanggal_terbit": "2022-09-13",
            "url_tdpse_detail": "https://pse.komdigi.go.id/tdpse-detail/5002",
            "website": "tokofans.co.id"
        },
        {
            "id": "9cb1ac0b-54dc-4bd5-ad9a-a37107cfecdc",
            "nama_pse": "ERA INDONESIA DIGITAL",
            "nama_se": "ERA.ID",
            "sektor": "Sektor Teknologi Informasi dan Komunikasi",
            "tanggal_terbit": "2022-09-12",
            "url_tdpse_detail": "https://pse.komdigi.go.id/tdpse-detail/11153",
            "website": "era.id"
        },
        {
            "id": "9cb1ac0b-6ab0-41ac-9d19-d56abc4b98e8",
            "nama_pse": "DIGITAL SIBER INDONESIA",
            "nama_se": "PARAGRAM.ID",
            "sektor": "Sektor Teknologi Informasi dan Komunikasi",
            "tanggal_terbit": "2022-09-12",
            "url_tdpse_detail": "https://pse.komdigi.go.id/tdpse-detail/11152",
            "website": "paragram.id"
        },
        {
            "id": "9cb1abfc-f130-4b71-8242-3f8f7f5cd00d",
            "nama_pse": "VOI MEDIA INFORMASI",
            "nama_se": "VOI.ID",
            "sektor": "Sektor Teknologi Informasi dan Komunikasi",
            "tanggal_terbit": "2022-09-12",
            "url_tdpse_detail": "https://pse.komdigi.go.id/tdpse-detail/11151",
            "website": "-"
        },
        {
            "id": "9cb1ac0f-2950-473c-9755-bf8a4a8af766",
            "nama_pse": "NINJA LOGISTICS INDONESIA",
            "nama_se": "SISTIM APLIKASI MANAJEMEN LOGISTIK",
            "sektor": "Sektor Teknologi Informasi dan Komunikasi",
            "tanggal_terbit": "2022-09-12",
            "url_tdpse_detail": "https://pse.komdigi.go.id/tdpse-detail/11155",
            "website": "ninjaxpress.co"
        },
        {
            "id": "9cb1abdb-5f80-4c65-9eda-e537ac9a3638",
            "nama_pse": "KARUNIA SEGAR KEDUA",
            "nama_se": "MEATNFRESH.CO.ID",
            "sektor": "Sektor Perdagangan",
            "tanggal_terbit": "2022-09-12",
            "url_tdpse_detail": "https://pse.komdigi.go.id/tdpse-detail/11150",
            "website": "meatnfresh.co.id"
        },
        {
            "id": "9cb1ac00-ca81-4ecd-a47d-677b54e7ad01",
            "nama_pse": "KARUNIA SEGAR TIGA",
            "nama_se": "MEATNFRESH.CO.ID",
            "sektor": "Sektor Perdagangan",
            "tanggal_terbit": "2022-09-12",
            "url_tdpse_detail": "https://pse.komdigi.go.id/tdpse-detail/11148",
            "website": "meatnfresh.co.id"
        },
        {
            "id": "9cb1abdb-6647-4e44-ae84-b7e9956585ed",
            "nama_pse": "BANK PEMBIAYAAN RAKYAT SYARIAH AL MAKMUR",
            "nama_se": "RURAL BANKING SISTEM",
            "sektor": "Sektor Keuangan",
            "tanggal_terbit": "2022-09-12",
            "url_tdpse_detail": "https://pse.komdigi.go.id/tdpse-detail/11137",
            "website": "-"
        },
        {
            "id": "9cb1ac0f-9310-4df4-854b-7c46f402c6b9",
            "nama_pse": "KARUNIA SEGAR EMPAT",
            "nama_se": "MEATNFRESH.CO.ID",
            "sektor": "Sektor Perdagangan",
            "tanggal_terbit": "2022-09-12",
            "url_tdpse_detail": "https://pse.komdigi.go.id/tdpse-detail/11149",
            "website": "meatnfresh.co.id"
        }
    ],
    "processingTimeMs": 2,
    "query": "",
    "totalHits": 19121,
    "hitsPerPage": 50,
    "page": 185,
    "totalPages": 383
}