{
    "hits": [
        {
            "id": "9cb1abf7-7ce5-4ed0-8716-48d64a1706a2",
            "nama_pse": "ARKANA MAJU SEJAHTERA",
            "nama_se": "IRACE",
            "sektor": "Sektor Perdagangan, Sektor Teknologi Informasi dan Komunikasi",
            "tanggal_terbit": "2022-08-02",
            "url_tdpse_detail": "https://pse.komdigi.go.id/tdpse-detail/9548",
            "website": "iraceindonesia.com"
        },
        {
            "id": "9cb1abf8-d15d-44d5-a0c5-935c35b95108",
            "nama_pse": "QERJA AKADEMI INDONESIA",
            "nama_se": "QOURSE.ID",
            "sektor": "Sektor Teknologi Informasi dan Komunikasi",
            "tanggal_terbit": "2022-08-02",
            "url_tdpse_detail": "https://pse.komdigi.go.id/tdpse-detail/9550",
            "website": "qourse.id"
        },
        {
            "id": "9cb1abf8-f0e4-4de8-8392-4450a79bdb6e",
            "nama_pse": "NYCTOUS MEDIA TEKNOLOGI",
            "nama_se": "NUVOPLAY",
            "sektor": "Sektor Teknologi Informasi dan Komunikasi",
            "tanggal_terbit": "2022-08-02",
            "url_tdpse_detail": "https://pse.komdigi.go.id/tdpse-detail/9553",
            "website": "nuvoplay.com"
        },
        {
            "id": "9cb1abd2-6a86-458a-a7e8-29fffab24805",
            "nama_pse": "MULTIMEDIA CAKRA INDONESIA",
            "nama_se": "MINYAKU",
            "sektor": "Sektor Perdagangan",
            "tanggal_terbit": "2022-08-02",
            "url_tdpse_detail": "https://pse.komdigi.go.id/tdpse-detail/9551",
            "website": "minyaku.id"
        },
        {
            "id": "9cb1abf7-82bf-4d63-aab5-3e60dd453c2a",
            "nama_pse": "MULTIMEDIA CAKRA INDONESIA",
            "nama_se": "MYCLUB",
            "sektor": "Sektor Perdagangan",
            "tanggal_terbit": "2022-08-02",
            "url_tdpse_detail": "https://pse.komdigi.go.id/tdpse-detail/9556",
            "website": "myclub.id"
        },
        {
            "id": "9cb1abf8-f8cd-4ce3-af57-d670ef212734",
            "nama_pse": "ALNA BERSAMA MEDIA",
            "nama_se": "TABENGAN.CO.ID",
            "sektor": "Sektor Teknologi Informasi dan Komunikasi",
            "tanggal_terbit": "2022-08-02",
            "url_tdpse_detail": "https://pse.komdigi.go.id/tdpse-detail/9557",
            "website": "tabengan.co.id"
        },
        {
            "id": "9cb1abf8-fc1a-4400-959f-ab3492ed8783",
            "nama_pse": "OBSIDO WIENS INVESTAMA",
            "nama_se": "OBSIDO PORTAL",
            "sektor": "Sektor Keuangan, Sektor Teknologi Informasi dan Komunikasi",
            "tanggal_terbit": "2022-08-02",
            "url_tdpse_detail": "https://pse.komdigi.go.id/tdpse-detail/9558",
            "website": "obsido.co.id"
        },
        {
            "id": "9cb1abf8-ff76-4b47-a215-d4b6b0de8ce6",
            "nama_pse": "MANAJEMEN PEMESANAN INDONESIA",
            "nama_se": "PASAR PEMESANAN",
            "sektor": "Sektor Teknologi Informasi dan Komunikasi",
            "tanggal_terbit": "2022-08-02",
            "url_tdpse_detail": "https://pse.komdigi.go.id/tdpse-detail/9572",
            "website": "pasarpemesanan.com"
        },
        {
            "id": "9cb1abf7-8a0f-471d-8109-8c054329534b",
            "nama_pse": "BANK PERKREDITAN RAKYAT NUSANTARA BONA PASOGIT 2",
            "nama_se": "NBP SYS, SISCHA, CAS, SAVING MOBILE APPLICATION",
            "sektor": "Sektor Keuangan",
            "tanggal_terbit": "2022-08-02",
            "url_tdpse_detail": "https://pse.komdigi.go.id/tdpse-detail/9569",
            "website": "bprnbp2.com"
        },
        {
            "id": "9cb1abd2-77da-4371-a811-c3ebbe37519c",
            "nama_pse": "SYSNETSOFT",
            "nama_se": "MYHOMESCHOOL",
            "sektor": "Sektor Teknologi Informasi dan Komunikasi",
            "tanggal_terbit": "2022-08-02",
            "url_tdpse_detail": "https://pse.komdigi.go.id/tdpse-detail/9577",
            "website": "demo.myhomeschool.co.id"
        },
        {
            "id": "9cb1abf9-036e-46ba-82ea-3cf259671e42",
            "nama_pse": "GALERI MUSLIMAH INDONESIA",
            "nama_se": "HUMAIRAA GALLERY TELEGRAM GROUP \u0026 CHANNEL",
            "sektor": "Sektor Perdagangan",
            "tanggal_terbit": "2022-08-02",
            "url_tdpse_detail": "https://pse.komdigi.go.id/tdpse-detail/9578",
            "website": "-"
        },
        {
            "id": "9cb1abf9-071f-420f-83b2-acec591654c2",
            "nama_pse": "ELEVASI TEKNOLOGI CAKRAWALA",
            "nama_se": "AMTISS",
            "sektor": "Sektor Teknologi Informasi dan Komunikasi",
            "tanggal_terbit": "2022-08-02",
            "url_tdpse_detail": "https://pse.komdigi.go.id/tdpse-detail/9579",
            "website": "amtiss.com"
        },
        {
            "id": "9cb1abf7-8d8b-40b5-a005-a176ded01671",
            "nama_pse": "INOVASI KARYA BANUA",
            "nama_se": "OPSDAKALIMANTAN3.COM",
            "sektor": "Sektor Teknologi Informasi dan Komunikasi",
            "tanggal_terbit": "2022-08-02",
            "url_tdpse_detail": "https://pse.komdigi.go.id/tdpse-detail/9580",
            "website": "opsdakalimantan3.com"
        },
        {
            "id": "9cb1abd2-7af1-4a53-91ec-8ce813cb4c78",
            "nama_pse": "GITA KREASI BANGSA",
            "nama_se": "DJUBLI",
            "sektor": "Sektor Teknologi Informasi dan Komunikasi",
            "tanggal_terbit": "2022-08-02",
            "url_tdpse_detail": "https://pse.komdigi.go.id/tdpse-detail/9585",
            "website": "djubli.com"
        },
        {
            "id": "9cb1abf7-90a5-4368-861d-c3f7a129e805",
            "nama_pse": "INDONESIA SEJAHTERA GRUP",
            "nama_se": "ISGROUP HEALTH\t( ISHEALTH )",
            "sektor": "Sektor Kesehatan",
            "tanggal_terbit": "2022-08-02",
            "url_tdpse_detail": "https://pse.komdigi.go.id/tdpse-detail/9582",
            "website": "-"
        },
        {
            "id": "9cb1abf9-0a69-4910-a3c9-07ac2f6896dc",
            "nama_pse": "GALERI MUSLIMAH INDONESIA",
            "nama_se": "HUMAIRAA GALLERY GROUP \u0026 CHANNEL BIMBINGAN",
            "sektor": "Sektor Teknologi Informasi dan Komunikasi",
            "tanggal_terbit": "2022-08-02",
            "url_tdpse_detail": "https://pse.komdigi.go.id/tdpse-detail/9581",
            "website": "-"
        },
        {
            "id": "9cb1abd2-7f3a-4086-afac-8014a429c023",
            "nama_pse": "PEMUDA INOVASI TEKNOLOGI",
            "nama_se": "ORDERDULU",
            "sektor": "Sektor Teknologi Informasi dan Komunikasi",
            "tanggal_terbit": "2022-08-02",
            "url_tdpse_detail": "https://pse.komdigi.go.id/tdpse-detail/9584",
            "website": "orderdulu.com"
        },
        {
            "id": "9cb1abd2-869c-4989-89e3-59fed006296c",
            "nama_pse": "INDONESIA SEJAHTERA GRUP",
            "nama_se": "ISGROUP LOGISTIC ( ISLOG )",
            "sektor": "Sektor Transportasi",
            "tanggal_terbit": "2022-08-02",
            "url_tdpse_detail": "https://pse.komdigi.go.id/tdpse-detail/9586",
            "website": "isgroupconsulting.com"
        },
        {
            "id": "9cb1abf9-0d7b-4b82-8638-eb628ab20c6a",
            "nama_pse": "KASIR PINTAR INTERNASIONAL",
            "nama_se": "OLSHOPIN",
            "sektor": "Sektor Perdagangan",
            "tanggal_terbit": "2022-08-02",
            "url_tdpse_detail": "https://pse.komdigi.go.id/tdpse-detail/9591",
            "website": "olshopin.co.id"
        },
        {
            "id": "9cb1abd2-8b17-4f56-a762-80bc6bbee0f7",
            "nama_pse": "INDONESIA SEJAHTERA GRUP",
            "nama_se": "ISGROUP_CONSULTING",
            "sektor": "Sektor Perdagangan",
            "tanggal_terbit": "2022-08-02",
            "url_tdpse_detail": "https://pse.komdigi.go.id/tdpse-detail/9593",
            "website": "isgroupconsulting.com"
        },
        {
            "id": "9cb1abf7-9901-42c8-9b08-4d69adfe5a94",
            "nama_pse": "GALERI MUSLIMAH INDONESIA",
            "nama_se": "LP.HUMAIRAAGALLERY.COM LANDING PAGE HUMAIRAA GALLERY",
            "sektor": "Sektor Teknologi Informasi dan Komunikasi",
            "tanggal_terbit": "2022-08-02",
            "url_tdpse_detail": "https://pse.komdigi.go.id/tdpse-detail/9592",
            "website": "humairaagallery.com"
        },
        {
            "id": "9cb1abf9-1119-4c5d-8450-0b3ea72f3e72",
            "nama_pse": "INTEGRITAS TAMA SOLUSINDO",
            "nama_se": "LEGISKA CONSULTING",
            "sektor": "Sektor Perdagangan",
            "tanggal_terbit": "2022-08-02",
            "url_tdpse_detail": "https://pse.komdigi.go.id/tdpse-detail/9594",
            "website": "legiska.co.id"
        },
        {
            "id": "9cb1abd2-924a-4df4-a125-1565e9012910",
            "nama_pse": "BANK PERKREDITAN RAKYAT MOS MUARA PANAS",
            "nama_se": "CV  FOKUS SOLUSI UTAMA",
            "sektor": "Sektor Keuangan",
            "tanggal_terbit": "2022-08-02",
            "url_tdpse_detail": "https://pse.komdigi.go.id/tdpse-detail/9596",
            "website": "-"
        },
        {
            "id": "9cb1abf9-1422-4fb0-bb06-03b150ce1dbe",
            "nama_pse": "KREDENSIA CIPTA UTAMA",
            "nama_se": "CREDENTIAL MANAGEMENT PLATFORM",
            "sektor": "Sektor Teknologi Informasi dan Komunikasi",
            "tanggal_terbit": "2022-08-02",
            "url_tdpse_detail": "https://pse.komdigi.go.id/tdpse-detail/9595",
            "website": "arvie.io"
        },
        {
            "id": "9cb1abd2-9b9a-4a70-b4f6-429d9951c1e5",
            "nama_pse": "ACHMAD DADANG NUR HIDAYANTO",
            "nama_se": "PAJAK",
            "sektor": "Sektor Keuangan, Sektor Teknologi Informasi dan Komunikasi",
            "tanggal_terbit": "2022-08-02",
            "url_tdpse_detail": "https://pse.komdigi.go.id/tdpse-detail/9598",
            "website": "pajak.or.id"
        },
        {
            "id": "9cb1abd2-a237-4cbf-810c-47350964dcef",
            "nama_pse": "GLOBAL SUKSES SOLUSI",
            "nama_se": "RUN IPROBE",
            "sektor": "Sektor Teknologi Informasi dan Komunikasi",
            "tanggal_terbit": "2022-08-02",
            "url_tdpse_detail": "https://pse.komdigi.go.id/tdpse-detail/9601",
            "website": "runiprobe.id"
        },
        {
            "id": "9cb1abd2-a650-425a-9a85-e706606a39cc",
            "nama_pse": "ACHMAD DADANG NUR HIDAYANTO",
            "nama_se": "TAX",
            "sektor": "Sektor Keuangan, Sektor Teknologi Informasi dan Komunikasi",
            "tanggal_terbit": "2022-08-02",
            "url_tdpse_detail": "https://pse.komdigi.go.id/tdpse-detail/9599",
            "website": "tax.or.id"
        },
        {
            "id": "9cb1abf9-1723-4e66-ae9d-1298ba6f0fd1",
            "nama_pse": "SUKSES BERKAH MELIMPAH",
            "nama_se": "SUKSES BERKAH MELIMPAH",
            "sektor": "Sektor Perdagangan",
            "tanggal_terbit": "2022-08-02",
            "url_tdpse_detail": "https://pse.komdigi.go.id/tdpse-detail/9600",
            "website": "sbm2u.com"
        },
        {
            "id": "9cb1abf9-1a15-4756-85fb-085ef34d486e",
            "nama_pse": "ELANG TEKNOLOGI NUSANTARA",
            "nama_se": "ELANG TEKNOLOGI",
            "sektor": "Sektor Teknologi Informasi dan Komunikasi",
            "tanggal_terbit": "2022-08-02",
            "url_tdpse_detail": "https://pse.komdigi.go.id/tdpse-detail/9608",
            "website": "elangtekno.com"
        },
        {
            "id": "9cb1abd2-a93d-427d-acd5-037214825882",
            "nama_pse": "BERITAJATIM CYBER MEDIA",
            "nama_se": "BERITAJATIM.COM",
            "sektor": "Sektor Teknologi Informasi dan Komunikasi",
            "tanggal_terbit": "2022-08-02",
            "url_tdpse_detail": "https://pse.komdigi.go.id/tdpse-detail/9609",
            "website": "beritajatim.com"
        },
        {
            "id": "9cb1abf9-1cd5-432c-a909-a5895bf94d03",
            "nama_pse": "ASURANSI JIWA MANULIFE INDONESIA",
            "nama_se": "PUBLIC WEBSITE (PWS) MANULIFE INDONESIA",
            "sektor": "Sektor Keuangan",
            "tanggal_terbit": "2022-08-02",
            "url_tdpse_detail": "https://pse.komdigi.go.id/tdpse-detail/9610",
            "website": "manulife.co.id"
        },
        {
            "id": "9cb1abf7-ac8e-4080-ae5e-2d27a90a5c31",
            "nama_pse": "ASURANSI JIWA MANULIFE INDONESIA",
            "nama_se": "PARTNERLINK",
            "sektor": "Sektor Keuangan",
            "tanggal_terbit": "2022-08-02",
            "url_tdpse_detail": "https://pse.komdigi.go.id/tdpse-detail/9611",
            "website": "partnerlink.manulife.co.id"
        },
        {
            "id": "9cb1abf9-235b-422c-9553-12d948e3dbe2",
            "nama_pse": "ASURANSI JIWA MANULIFE INDONESIA",
            "nama_se": "AGENCYLINK",
            "sektor": "Sektor Keuangan",
            "tanggal_terbit": "2022-08-02",
            "url_tdpse_detail": "https://pse.komdigi.go.id/tdpse-detail/9613",
            "website": "agencylink.manulife.co.id"
        },
        {
            "id": "9cb1abf9-26aa-450a-a024-200e9aecf0df",
            "nama_pse": "ASURANSI JIWA MANULIFE INDONESIA",
            "nama_se": "MANULIFE DIRECT ACCESS DPLK",
            "sektor": "Sektor Keuangan",
            "tanggal_terbit": "2022-08-02",
            "url_tdpse_detail": "https://pse.komdigi.go.id/tdpse-detail/9614",
            "website": "webapp.manulife.co.id"
        },
        {
            "id": "9cb1abf7-af96-43e7-9a0c-f6510cdb7044",
            "nama_pse": "ASURANSI JIWA MANULIFE INDONESIA",
            "nama_se": "MANULIFE DIRECT ACCESS",
            "sektor": "Sektor Keuangan",
            "tanggal_terbit": "2022-08-02",
            "url_tdpse_detail": "https://pse.komdigi.go.id/tdpse-detail/9615",
            "website": "webapp.manulife.co.id"
        },
        {
            "id": "9cb1abf7-b685-4521-bed1-de8e09fb6ade",
            "nama_pse": "JETORBIT TEKNOLOGI INDONESIA",
            "nama_se": "JETORBIT",
            "sektor": "Sektor Teknologi Informasi dan Komunikasi",
            "tanggal_terbit": "2022-08-02",
            "url_tdpse_detail": "https://pse.komdigi.go.id/tdpse-detail/9617",
            "website": "jetorbit.com"
        },
        {
            "id": "9cb1abd2-b2ba-4b26-8409-10225a6a87da",
            "nama_pse": "ASURANSI JIWA MANULIFE INDONESIA",
            "nama_se": "EBCLICK  DANA PENSIUN LEMBAGA KEUANGAN",
            "sektor": "Sektor Keuangan",
            "tanggal_terbit": "2022-08-02",
            "url_tdpse_detail": "https://pse.komdigi.go.id/tdpse-detail/9618",
            "website": "ebclick.manulife.co.id"
        },
        {
            "id": "9cb1abf7-b9a2-44b5-b494-59aa4a10ae5e",
            "nama_pse": "ASURANSI JIWA MANULIFE INDONESIA",
            "nama_se": "EBCLICK GROUP SAVING",
            "sektor": "Sektor Keuangan",
            "tanggal_terbit": "2022-08-02",
            "url_tdpse_detail": "https://pse.komdigi.go.id/tdpse-detail/9619",
            "website": "ebclick.manulife.co.id"
        },
        {
            "id": "9cb1abf9-2e48-42bd-bcad-95e1f553eed1",
            "nama_pse": "BINA TARUNA WIRATAMA",
            "nama_se": "SMARTBTW",
            "sektor": "Sektor Perdagangan",
            "tanggal_terbit": "2022-08-02",
            "url_tdpse_detail": "https://pse.komdigi.go.id/tdpse-detail/9620",
            "website": "btwedutech.com"
        },
        {
            "id": "9cb1abf9-3327-4630-9674-de91ee4ee0c5",
            "nama_pse": "PG BERJANGKA",
            "nama_se": "PG BERJANGKA",
            "sektor": "Sektor Perdagangan",
            "tanggal_terbit": "2022-08-02",
            "url_tdpse_detail": "https://pse.komdigi.go.id/tdpse-detail/9621",
            "website": "pg-b.com"
        },
        {
            "id": "9cb1abf7-bce5-44a5-8a7d-26f11db5cfb5",
            "nama_pse": "ROY ROYESTA PAMPEY",
            "nama_se": "JURAGAN SOSMED",
            "sektor": "Sektor Perdagangan",
            "tanggal_terbit": "2022-08-02",
            "url_tdpse_detail": "https://pse.komdigi.go.id/tdpse-detail/9622",
            "website": "juragansosmed.com"
        },
        {
            "id": "9cb1abf9-38f5-46a9-964e-6b70ef7f413b",
            "nama_pse": "PENDIDIKAN CENDEKIA MUSLIM",
            "nama_se": "HALALCENTER.ID",
            "sektor": "Sektor Perdagangan, Sektor Teknologi Informasi dan Komunikasi",
            "tanggal_terbit": "2022-08-02",
            "url_tdpse_detail": "https://pse.komdigi.go.id/tdpse-detail/9623",
            "website": "halalcenter.id"
        },
        {
            "id": "9cb1abd2-b5e1-4890-ae57-090c27608650",
            "nama_pse": "DIANATA ADIKARYA SENTOSA",
            "nama_se": "DASAPP",
            "sektor": "Sektor Perdagangan",
            "tanggal_terbit": "2022-08-02",
            "url_tdpse_detail": "https://pse.komdigi.go.id/tdpse-detail/9624",
            "website": "dasbior.com"
        },
        {
            "id": "9cb1abf7-bfc1-4359-b95e-c19d6ce16ac3",
            "nama_pse": "EXCHANGER UNEXT INDONESIA",
            "nama_se": "EXUPAY",
            "sektor": "Sektor Perdagangan, Sektor Transportasi, Sektor Teknologi Informasi dan Komunikasi",
            "tanggal_terbit": "2022-08-02",
            "url_tdpse_detail": "https://pse.komdigi.go.id/tdpse-detail/9625",
            "website": "expayindo.id"
        },
        {
            "id": "9cb1abd2-b97e-4176-b1bf-b09924fc8702",
            "nama_pse": "SOLUSI TEKNOLOGI PERTAMA",
            "nama_se": "SOLUSITECH",
            "sektor": "Sektor Teknologi Informasi dan Komunikasi",
            "tanggal_terbit": "2022-08-02",
            "url_tdpse_detail": "https://pse.komdigi.go.id/tdpse-detail/9626",
            "website": "solusitech.com"
        },
        {
            "id": "9cb1abf9-3c4c-4673-8048-95dab9efa7cb",
            "nama_pse": "BANK PERKREDITAN RAKYAT BINA DANA CAKRAWALA",
            "nama_se": "WEBSITE",
            "sektor": "Sektor Keuangan",
            "tanggal_terbit": "2022-08-02",
            "url_tdpse_detail": "https://pse.komdigi.go.id/tdpse-detail/9627",
            "website": "bprcakrawala.co.id"
        },
        {
            "id": "9cb1abf9-3f46-4a6a-a8f5-f2d7962170e9",
            "nama_pse": "PFI MEGA LIFE INSURANCE",
            "nama_se": "WAY",
            "sektor": "Sektor Keuangan",
            "tanggal_terbit": "2022-08-02",
            "url_tdpse_detail": "https://pse.komdigi.go.id/tdpse-detail/9628",
            "website": "way.id"
        },
        {
            "id": "9cb1abf7-c29c-448f-a496-52e273f4cbde",
            "nama_pse": "STARLA EDU TECH",
            "nama_se": "STARLA EDUCATION",
            "sektor": "Sektor Perdagangan, Sektor Teknologi Informasi dan Komunikasi",
            "tanggal_terbit": "2022-08-02",
            "url_tdpse_detail": "https://pse.komdigi.go.id/tdpse-detail/9629",
            "website": "starlaeducation.com"
        },
        {
            "id": "9cb1abf9-4253-4657-825b-f614b8b4d98c",
            "nama_pse": "RADIOSTAR KREASI MEDIA",
            "nama_se": "RADIOSTAR NETWORK",
            "sektor": "Sektor Teknologi Informasi dan Komunikasi",
            "tanggal_terbit": "2022-08-02",
            "url_tdpse_detail": "https://pse.komdigi.go.id/tdpse-detail/9630",
            "website": "radiostar.co.id"
        },
        {
            "id": "9cb1abf9-457b-49f2-a38c-c956c79fca57",
            "nama_pse": "PFI MEGA LIFE INSURANCE",
            "nama_se": "WAY.ID",
            "sektor": "Sektor Keuangan",
            "tanggal_terbit": "2022-08-02",
            "url_tdpse_detail": "https://pse.komdigi.go.id/tdpse-detail/9631",
            "website": "way.id"
        }
    ],
    "processingTimeMs": 2,
    "query": "",
    "totalHits": 19131,
    "hitsPerPage": 50,
    "page": 210,
    "totalPages": 383
}