{
    "hits": [
        {
            "id": "9cb1ac00-0e63-4d85-9793-5838cc2e8f4c",
            "nama_pse": "FUSINDO SOKA",
            "nama_se": "PLATFORM INFRASTRUKTUR TRANSFER DANA (REMITANSI)",
            "sektor": "Sektor Teknologi Informasi dan Komunikasi",
            "tanggal_terbit": "2022-09-02",
            "url_tdpse_detail": "https://pse.komdigi.go.id/tdpse-detail/10993",
            "website": "-"
        },
        {
            "id": "9cb1ac0e-c4f7-47d7-839b-15310760e989",
            "nama_pse": "DIKRI NALENDRA AMINADIN",
            "nama_se": "PT. DIKRI NALENDRA AMINADIN",
            "sektor": "Sektor Perdagangan",
            "tanggal_terbit": "2022-09-02",
            "url_tdpse_detail": "https://pse.komdigi.go.id/tdpse-detail/10994",
            "website": "onlineshopdna.com"
        },
        {
            "id": "9cb1ac0e-c7d7-4c00-b64d-5b03c6af4d40",
            "nama_pse": "INDONESIA DEVELOPMENT CORNER",
            "nama_se": "IDEVCORNER.CO.ID",
            "sektor": "Sektor Teknologi Informasi dan Komunikasi",
            "tanggal_terbit": "2022-09-02",
            "url_tdpse_detail": "https://pse.komdigi.go.id/tdpse-detail/10995",
            "website": "idevcorner.co.id"
        },
        {
            "id": "9cb1ac00-1691-4d41-9c21-4c57bd11cf86",
            "nama_pse": "INTERNUSA OKULUS TAMA",
            "nama_se": "POLAKATA DIGITAL MEDIA DAN EKATA INTERACTIVE MEDIA",
            "sektor": "Sektor Teknologi Informasi dan Komunikasi",
            "tanggal_terbit": "2022-09-02",
            "url_tdpse_detail": "https://pse.komdigi.go.id/tdpse-detail/10999",
            "website": "polakata.com"
        },
        {
            "id": "9cb1ac0e-cdf0-4418-83d8-52f747c3dc33",
            "nama_pse": "SOLARNET ANTAR NETWORK",
            "nama_se": "TAKEME",
            "sektor": "Sektor Perdagangan, Sektor Keuangan, Sektor Kesehatan, Sektor Teknologi Informasi dan Komunikasi",
            "tanggal_terbit": "2022-09-02",
            "url_tdpse_detail": "https://pse.komdigi.go.id/tdpse-detail/11000",
            "website": "-"
        },
        {
            "id": "9cb1abda-95d4-48b7-8016-c95da93b190a",
            "nama_pse": "VIRTU INOVASI DIGITAL",
            "nama_se": "MONSTER PRO",
            "sektor": "Sektor Perdagangan",
            "tanggal_terbit": "2022-09-02",
            "url_tdpse_detail": "https://pse.komdigi.go.id/tdpse-detail/11001",
            "website": "monsterpro.id"
        },
        {
            "id": "9cb1ac0e-9b01-49fb-9f52-ef883c17bdf4",
            "nama_pse": "RUMAH YATIM ARROHMAN INDONESIA",
            "nama_se": "DONASI ONLINE",
            "sektor": "Sektor Perdagangan",
            "tanggal_terbit": "2022-09-01",
            "url_tdpse_detail": "https://pse.komdigi.go.id/tdpse-detail/10951",
            "website": "donasionline.id"
        },
        {
            "id": "9cb1abfe-e7e2-4c33-84d6-c7d3767a69f8",
            "nama_pse": "META NUSANTARA VICTORI",
            "nama_se": "ASIX PLUS",
            "sektor": "Sektor Perdagangan",
            "tanggal_terbit": "2022-09-01",
            "url_tdpse_detail": "https://pse.komdigi.go.id/tdpse-detail/10758",
            "website": "ASIXPLUS.IO"
        },
        {
            "id": "9cb1abd9-eb86-4e7c-ab52-6cbcb7d3b72e",
            "nama_pse": "META NUSANTARA VICTORI",
            "nama_se": "ASIX CONNECT",
            "sektor": "Sektor Perdagangan",
            "tanggal_terbit": "2022-09-01",
            "url_tdpse_detail": "https://pse.komdigi.go.id/tdpse-detail/10864",
            "website": "ASIXPLUS.IO"
        },
        {
            "id": "9cb1abd9-f644-4110-b08d-9ac005e5d307",
            "nama_pse": "ARUNA JAYA NUSWANTARA",
            "nama_se": "ARUNA.ID",
            "sektor": "Sektor Perdagangan",
            "tanggal_terbit": "2022-09-01",
            "url_tdpse_detail": "https://pse.komdigi.go.id/tdpse-detail/10890",
            "website": "aruna.id"
        },
        {
            "id": "9cb1abda-5330-4381-ac7c-e812d43ceb7d",
            "nama_pse": "HMD MOBILE INDONESIA",
            "nama_se": "HMD SOFTLOCK",
            "sektor": "Sektor Teknologi Informasi dan Komunikasi",
            "tanggal_terbit": "2022-09-01",
            "url_tdpse_detail": "https://pse.komdigi.go.id/tdpse-detail/10944",
            "website": "-"
        },
        {
            "id": "9cb1abff-cfcc-4959-884c-97dd252779eb",
            "nama_pse": "HELPSTER SOLUTIONS INDONESIA",
            "nama_se": "WWW.WORKMATE.ASIA",
            "sektor": "Sektor Teknologi Informasi dan Komunikasi",
            "tanggal_terbit": "2022-09-01",
            "url_tdpse_detail": "https://pse.komdigi.go.id/tdpse-detail/10945",
            "website": "workmate.asia"
        },
        {
            "id": "9cb1ac0e-944f-4d1b-8833-5fb102dadaad",
            "nama_pse": "GENERASI MILENIAL INDONESIA",
            "nama_se": "NUSANTARAHOST",
            "sektor": "Sektor Teknologi Informasi dan Komunikasi",
            "tanggal_terbit": "2022-09-01",
            "url_tdpse_detail": "https://pse.komdigi.go.id/tdpse-detail/10946",
            "website": "nusantarahost.co.id"
        },
        {
            "id": "9cb1abda-56e6-4b74-b903-5afe23529a03",
            "nama_pse": "GENERASI MILENIAL INDONESIA",
            "nama_se": "LAUTANHOST",
            "sektor": "Sektor Teknologi Informasi dan Komunikasi",
            "tanggal_terbit": "2022-09-01",
            "url_tdpse_detail": "https://pse.komdigi.go.id/tdpse-detail/10947",
            "website": "lautanhost.com"
        },
        {
            "id": "9cb1ac0e-979f-4bb5-99b2-a1f4427d1b15",
            "nama_pse": "GENERASI MILENIAL INDONESIA",
            "nama_se": "RACKROCK",
            "sektor": "Sektor Teknologi Informasi dan Komunikasi",
            "tanggal_terbit": "2022-09-01",
            "url_tdpse_detail": "https://pse.komdigi.go.id/tdpse-detail/10948",
            "website": "rackrock.co.id"
        },
        {
            "id": "9cb1abda-5aee-4e56-a187-5802bb2b905a",
            "nama_pse": "ROBERT BOSCH",
            "nama_se": "BOCSH BECONNECTED",
            "sektor": "Sektor Perdagangan, Sektor Teknologi Informasi dan Komunikasi",
            "tanggal_terbit": "2022-09-01",
            "url_tdpse_detail": "https://pse.komdigi.go.id/tdpse-detail/10949",
            "website": "-"
        },
        {
            "id": "9cb1abff-d2d8-4231-8333-33f8b39d2f57",
            "nama_pse": "GENERASI MILENIAL INDONESIA",
            "nama_se": "DOBELHOST",
            "sektor": "Sektor Teknologi Informasi dan Komunikasi",
            "tanggal_terbit": "2022-09-01",
            "url_tdpse_detail": "https://pse.komdigi.go.id/tdpse-detail/10950",
            "website": "dobelhost.com"
        },
        {
            "id": "9cb1abda-5d78-4719-a8f7-257c2a4ef128",
            "nama_pse": "REAL ESTATE DEVELOPER INDONESIA",
            "nama_se": "PT REAL ESTATE DEVELOPER INDONESIA",
            "sektor": "Sektor Perdagangan",
            "tanggal_terbit": "2022-09-01",
            "url_tdpse_detail": "https://pse.komdigi.go.id/tdpse-detail/10952",
            "website": "reper.id"
        },
        {
            "id": "9cb1abff-d5f1-4873-908d-b7500d433e2b",
            "nama_pse": "REAL ESTATE DEVELOPER INDONESIA",
            "nama_se": "GRIYA PADASUKA",
            "sektor": "Sektor Perdagangan",
            "tanggal_terbit": "2022-09-01",
            "url_tdpse_detail": "https://pse.komdigi.go.id/tdpse-detail/10953",
            "website": "griyapadasuka.com"
        },
        {
            "id": "9cb1abda-6170-463f-a387-0dcc599dc741",
            "nama_pse": "HONDA PROSPECT MOTOR",
            "nama_se": "WEBSITE DREAMS CAFE",
            "sektor": "Sektor Perdagangan",
            "tanggal_terbit": "2022-09-01",
            "url_tdpse_detail": "https://pse.komdigi.go.id/tdpse-detail/10956",
            "website": "dreams-cafe.com"
        },
        {
            "id": "9cb1abda-6581-4f4a-93cf-15b12998b70d",
            "nama_pse": "REAL ESTATE DEVELOPER INDONESIA",
            "nama_se": "SULAEMAN SEJAHTERA MANDIRI",
            "sektor": "Sektor Perdagangan, Sektor Keuangan",
            "tanggal_terbit": "2022-09-01",
            "url_tdpse_detail": "https://pse.komdigi.go.id/tdpse-detail/10954",
            "website": "sulaemansejahteramandiri.com"
        },
        {
            "id": "9cb1abff-d8eb-4475-b8e5-6ac7d426830c",
            "nama_pse": "MULTIDAYA TEKNOLOGI NUSANTARA",
            "nama_se": "APLIKASI EFARM",
            "sektor": "Sektor Perdagangan",
            "tanggal_terbit": "2022-09-01",
            "url_tdpse_detail": "https://pse.komdigi.go.id/tdpse-detail/10957",
            "website": "efishery.com"
        },
        {
            "id": "9cb1abda-6a17-45dd-9c06-a702a5a26842",
            "nama_pse": "PROSPERO OPTIMA SOLUSINDO",
            "nama_se": "PROSPERO ERMS",
            "sektor": "Sektor Teknologi Informasi dan Komunikasi",
            "tanggal_terbit": "2022-09-01",
            "url_tdpse_detail": "https://pse.komdigi.go.id/tdpse-detail/10961",
            "website": "prosperosolutions.co.id"
        },
        {
            "id": "9cb1ac0e-a16a-4e26-a0ed-c216db55a4d4",
            "nama_pse": "MULTIDAYA TEKNOLOGI NUSANTARA",
            "nama_se": "EFISHERY FRESH",
            "sektor": "Sektor Perdagangan, Sektor Pangan",
            "tanggal_terbit": "2022-09-01",
            "url_tdpse_detail": "https://pse.komdigi.go.id/tdpse-detail/10958",
            "website": "efishery.com"
        },
        {
            "id": "9cb1abff-dbdb-465d-b038-04f95e265ea2",
            "nama_pse": "MULTIDAYA TEKNOLOGI NUSANTARA",
            "nama_se": "APLIKASI EFISHERYKU",
            "sektor": "Sektor Perdagangan",
            "tanggal_terbit": "2022-09-01",
            "url_tdpse_detail": "https://pse.komdigi.go.id/tdpse-detail/10959",
            "website": "efishery.com"
        },
        {
            "id": "9cb1abff-e242-4a32-97c0-370283b28cd6",
            "nama_pse": "MULTIDAYA TEKNOLOGI NUSANTARA",
            "nama_se": "EFISHERY SMART FEEDER",
            "sektor": "Sektor Pangan",
            "tanggal_terbit": "2022-09-01",
            "url_tdpse_detail": "https://pse.komdigi.go.id/tdpse-detail/10960",
            "website": "efishery.com"
        },
        {
            "id": "9cb1ac0e-a535-4283-9bce-301f2e897e7c",
            "nama_pse": "ASIANTRUST ASSET MANAGEMENT",
            "nama_se": "SIMPAN",
            "sektor": "Sektor Keuangan",
            "tanggal_terbit": "2022-09-01",
            "url_tdpse_detail": "https://pse.komdigi.go.id/tdpse-detail/10962",
            "website": "asiantrust.am"
        },
        {
            "id": "9cb1abff-f073-4f62-93e4-c5be37a771ef",
            "nama_pse": "RUMAH YATIM ARROHMAN INDONESIA",
            "nama_se": "RUMAH YATIM",
            "sektor": "Sektor Perdagangan",
            "tanggal_terbit": "2022-09-01",
            "url_tdpse_detail": "https://pse.komdigi.go.id/tdpse-detail/10964",
            "website": "berkahyatim.com"
        },
        {
            "id": "9cb1abff-f970-444a-b26b-a8186a3aabeb",
            "nama_pse": "BEEGROUP FINANCIAL INDONESIA",
            "nama_se": "DONUT.CX",
            "sektor": "Sektor Teknologi Informasi dan Komunikasi",
            "tanggal_terbit": "2022-09-01",
            "url_tdpse_detail": "https://pse.komdigi.go.id/tdpse-detail/10965",
            "website": "donut.cx"
        },
        {
            "id": "9cb1abda-6ed8-4d16-b433-10a3a0ab6677",
            "nama_pse": "ANDALAN DOMPET PUTERA INDONESIA",
            "nama_se": "PT. ADOPE INDONESIA",
            "sektor": "Sektor Teknologi Informasi dan Komunikasi",
            "tanggal_terbit": "2022-09-01",
            "url_tdpse_detail": "https://pse.komdigi.go.id/tdpse-detail/10966",
            "website": "-"
        },
        {
            "id": "9cb1abda-731f-4873-82e5-bd6472a77da8",
            "nama_pse": "ANDALAN DOMPET PUTERA INDONESIA",
            "nama_se": "ADOPE HOSTING",
            "sektor": "Sektor Teknologi Informasi dan Komunikasi",
            "tanggal_terbit": "2022-09-01",
            "url_tdpse_detail": "https://pse.komdigi.go.id/tdpse-detail/10967",
            "website": "-"
        },
        {
            "id": "9cb1abda-7625-4166-b324-776e2ed3550a",
            "nama_pse": "ASADEL LIAMSINDO TEKNOLOGI",
            "nama_se": "UNDA QUEST",
            "sektor": "Sektor Teknologi Informasi dan Komunikasi",
            "tanggal_terbit": "2022-09-01",
            "url_tdpse_detail": "https://pse.komdigi.go.id/tdpse-detail/10968",
            "website": "unda.quest"
        },
        {
            "id": "9cb1abda-7c1e-492d-bab4-922d92f58471",
            "nama_pse": "SIMPLI INOVATIF MANDIRI",
            "nama_se": "SIMPLIDOTS.COM",
            "sektor": "Sektor Perdagangan, Sektor Transportasi, Sektor Teknologi Informasi dan Komunikasi",
            "tanggal_terbit": "2022-09-01",
            "url_tdpse_detail": "https://pse.komdigi.go.id/tdpse-detail/10970",
            "website": "-"
        },
        {
            "id": "9cb1ac0e-abf1-467a-864b-4b44d9af9694",
            "nama_pse": "ASURANSI JIWA SYARIAH JASA MITRA ABADI",
            "nama_se": "JMASYARIAH.COM",
            "sektor": "Sektor Keuangan",
            "tanggal_terbit": "2022-09-01",
            "url_tdpse_detail": "https://pse.komdigi.go.id/tdpse-detail/10971",
            "website": "jmasyariah.com"
        },
        {
            "id": "9cb1ac0e-af49-40fd-a532-7bff5ed626b7",
            "nama_pse": "MULTIDAYA TEKNOLOGI NUSANTARA",
            "nama_se": "APLIKASI EFEEDER",
            "sektor": "Sektor Pangan",
            "tanggal_terbit": "2022-09-01",
            "url_tdpse_detail": "https://pse.komdigi.go.id/tdpse-detail/10972",
            "website": "efishery.com"
        },
        {
            "id": "9cb1ac0e-b2cf-435d-8ce1-a1c620e47c6c",
            "nama_pse": "ASURANSI JIWA SYARIAH JASA MITRA ABADI",
            "nama_se": "KLIKJMA.COM",
            "sektor": "Sektor Keuangan",
            "tanggal_terbit": "2022-09-01",
            "url_tdpse_detail": "https://pse.komdigi.go.id/tdpse-detail/10973",
            "website": "jmasyariah.com"
        },
        {
            "id": "9cb1ac0e-b5f6-40c9-a4c2-34473cb6e975",
            "nama_pse": "ASA REN GLOBAL NUSANTARA",
            "nama_se": "ASA REN",
            "sektor": "Sektor Kesehatan, Sektor Teknologi Informasi dan Komunikasi",
            "tanggal_terbit": "2022-09-01",
            "url_tdpse_detail": "https://pse.komdigi.go.id/tdpse-detail/10974",
            "website": "asaren.ai"
        },
        {
            "id": "9cb1abff-fc98-46b6-be93-0b4fa19ba651",
            "nama_pse": "TERAKORP INDONESIA",
            "nama_se": "TERAMEDIKCE",
            "sektor": "Sektor Kesehatan",
            "tanggal_terbit": "2022-09-01",
            "url_tdpse_detail": "https://pse.komdigi.go.id/tdpse-detail/10975",
            "website": "teramedik.com"
        },
        {
            "id": "9cb1abda-816f-47f6-b4b0-5d13b7595027",
            "nama_pse": "SANGKEK",
            "nama_se": "TRAVELNETSIA",
            "sektor": "Sektor Perdagangan, Sektor Transportasi, Sektor Teknologi Informasi dan Komunikasi",
            "tanggal_terbit": "2022-09-01",
            "url_tdpse_detail": "https://pse.komdigi.go.id/tdpse-detail/10976",
            "website": "travelnetsia.com"
        },
        {
            "id": "9cb1ac0e-2248-4c9a-88a8-8c9add437837",
            "nama_pse": "HIBRA GLOBAL PERKASA",
            "nama_se": "QONUN INDONESIA",
            "sektor": "Sektor Teknologi Informasi dan Komunikasi",
            "tanggal_terbit": "2022-08-31",
            "url_tdpse_detail": "https://pse.komdigi.go.id/tdpse-detail/10936",
            "website": "qonunindonesia.com"
        },
        {
            "id": "9cb1abd9-d618-44b5-b420-75acaa67d67e",
            "nama_pse": "SCHAEFFLER BEARINGS INDONESIA",
            "nama_se": "SCHAEFFLER ANALYTIC",
            "sektor": "Sektor Teknologi Informasi dan Komunikasi",
            "tanggal_terbit": "2022-08-31",
            "url_tdpse_detail": "https://pse.komdigi.go.id/tdpse-detail/10873",
            "website": "-"
        },
        {
            "id": "9cb1ac0e-6724-4146-8e9f-ce304b4af78b",
            "nama_pse": "SHARP TRADING INDONESIA",
            "nama_se": "SHARP INDONESIA OFFICIAL WEBSITE",
            "sektor": "Sektor Perdagangan",
            "tanggal_terbit": "2022-08-31",
            "url_tdpse_detail": "https://pse.komdigi.go.id/tdpse-detail/10893",
            "website": "id.sharp"
        },
        {
            "id": "9cb1ac0e-8059-43a7-82e6-7cb6fc622a39",
            "nama_pse": "CROWDDANA TEKNOLOGI INDONUSA",
            "nama_se": "CROWDDANA APLIKASI",
            "sektor": "Sektor Keuangan",
            "tanggal_terbit": "2022-08-31",
            "url_tdpse_detail": "https://pse.komdigi.go.id/tdpse-detail/10920",
            "website": "crowddana.id"
        },
        {
            "id": "9cb1abff-b6ea-4340-b21e-8dfd0ce5db4b",
            "nama_pse": "MOBILITAS DIGITAL INDONESIA",
            "nama_se": "MOVIC",
            "sektor": "Sektor Perdagangan",
            "tanggal_terbit": "2022-08-31",
            "url_tdpse_detail": "https://pse.komdigi.go.id/tdpse-detail/10926",
            "website": "-"
        },
        {
            "id": "9cb1ac0e-836f-4210-892b-3bfe08408785",
            "nama_pse": "BENGKEL ROBOT FOREX",
            "nama_se": "BENGKEL ROBOT FOREX",
            "sektor": "Sektor Teknologi Informasi dan Komunikasi",
            "tanggal_terbit": "2022-08-31",
            "url_tdpse_detail": "https://pse.komdigi.go.id/tdpse-detail/10925",
            "website": "-"
        },
        {
            "id": "9cb1ac0e-8d8b-4ee0-aa59-6ebc5c1049e4",
            "nama_pse": "BANK PEREKONOMIAN RAKYAT DANA PRIMA MANDIRI",
            "nama_se": "PT BPR DANA PRIMA MANDIRI",
            "sektor": "Sektor Keuangan",
            "tanggal_terbit": "2022-08-31",
            "url_tdpse_detail": "https://pse.komdigi.go.id/tdpse-detail/10935",
            "website": "bprdanaprimamandiri.com"
        },
        {
            "id": "9cb1abff-c1e3-47e7-b1f6-6b60161b7016",
            "nama_pse": "BANK PERKREDITAN RAKYAT KARINAMAS PERMAI",
            "nama_se": "PT. BPR KARINAMAS PERMAI",
            "sektor": "Sektor Keuangan",
            "tanggal_terbit": "2022-08-31",
            "url_tdpse_detail": "https://pse.komdigi.go.id/tdpse-detail/10937",
            "website": "bankkarinamas.com"
        },
        {
            "id": "9cb1abff-c578-4a19-8bc9-99d79b2c0913",
            "nama_pse": "REINHART PREVIANO KOENTJORO",
            "nama_se": "OPEN IN MAPS...",
            "sektor": "Sektor Teknologi Informasi dan Komunikasi",
            "tanggal_terbit": "2022-08-31",
            "url_tdpse_detail": "https://pse.komdigi.go.id/tdpse-detail/10939",
            "website": "maps.reinhart1010.id"
        },
        {
            "id": "9cb1abff-c95c-421f-be56-ad08040e2833",
            "nama_pse": "ISTANA DELI KENCANA",
            "nama_se": "WEBSITE RESMI HONDA IDK GROUP",
            "sektor": "Sektor Perdagangan",
            "tanggal_terbit": "2022-08-31",
            "url_tdpse_detail": "https://pse.komdigi.go.id/tdpse-detail/10940",
            "website": "honda-idkgroup.com"
        },
        {
            "id": "9cb1abda-4b4f-44d2-bba3-9e8f1edec564",
            "nama_pse": "MANJOO DARI NOL",
            "nama_se": "MANJOO",
            "sektor": "Sektor Transportasi, Sektor Teknologi Informasi dan Komunikasi",
            "tanggal_terbit": "2022-08-31",
            "url_tdpse_detail": "https://pse.komdigi.go.id/tdpse-detail/10942",
            "website": "manjoo.co.id"
        }
    ],
    "processingTimeMs": 4,
    "query": "",
    "totalHits": 19131,
    "hitsPerPage": 50,
    "page": 189,
    "totalPages": 383
}