{
    "hits": [
        {
            "id": "9cb1abfb-0ddc-4fae-8793-96a6981649de",
            "nama_pse": "ADHI SYAHNUR INDONESIA",
            "nama_se": "PPOBNESIA",
            "sektor": "Sektor Perdagangan, Sektor Keuangan, Sektor Teknologi Informasi dan Komunikasi",
            "tanggal_terbit": "2022-08-06",
            "url_tdpse_detail": "https://pse.komdigi.go.id/tdpse-detail/9986",
            "website": "sp4201.serpul.co.id"
        },
        {
            "id": "9cb1abfb-1177-4ffd-b3df-8df7bfe28a66",
            "nama_pse": "BINTANG WANGI INDOTRANS",
            "nama_se": "BINTANG WANGI TRANS",
            "sektor": "Sektor Perdagangan, Sektor Transportasi",
            "tanggal_terbit": "2022-08-06",
            "url_tdpse_detail": "https://pse.komdigi.go.id/tdpse-detail/9987",
            "website": "pariwisatabanyuwangi.com"
        },
        {
            "id": "9cb1abd4-d916-4efa-9591-48ec6d44831a",
            "nama_pse": "JAENUDIN",
            "nama_se": "LOKER CIREBON",
            "sektor": "Sektor Perdagangan, Sektor Teknologi Informasi dan Komunikasi",
            "tanggal_terbit": "2022-08-06",
            "url_tdpse_detail": "https://pse.komdigi.go.id/tdpse-detail/9988",
            "website": "lokercirebon.com"
        },
        {
            "id": "9cb1ac0a-5a9a-4836-9590-c4a5dbf2996c",
            "nama_pse": "KREDIT RUKUN",
            "nama_se": "SISTEM INFORMASI KEUANGAN KOPERASI KREDIT (SIKOPDIT) ONLINE",
            "sektor": "Sektor Keuangan",
            "tanggal_terbit": "2022-08-06",
            "url_tdpse_detail": "https://pse.komdigi.go.id/tdpse-detail/9989",
            "website": "kopditrukun.com"
        },
        {
            "id": "9cb1abd4-e73d-4a87-8b45-7891c81439e0",
            "nama_pse": "ALTHAF MEDIA GROUP",
            "nama_se": "HEADLINE MEDIA INDONESIA",
            "sektor": "Sektor Teknologi Informasi dan Komunikasi",
            "tanggal_terbit": "2022-08-06",
            "url_tdpse_detail": "https://pse.komdigi.go.id/tdpse-detail/9990",
            "website": "headline.co.id"
        },
        {
            "id": "9cb1abd4-eb64-42f9-a9dd-15da35690ec8",
            "nama_pse": "ALTHAF MEDIA GROUP",
            "nama_se": "EKO.CO.ID | PAKAR IT CONSULTANT JOGJA",
            "sektor": "Sektor Teknologi Informasi dan Komunikasi",
            "tanggal_terbit": "2022-08-06",
            "url_tdpse_detail": "https://pse.komdigi.go.id/tdpse-detail/9991",
            "website": "eko.co.id"
        },
        {
            "id": "9cb1abfb-14c3-46d8-accc-c56ed963ab46",
            "nama_pse": "SEPTIAN PUTRA PRATAMA",
            "nama_se": "JENUI DIGITAL",
            "sektor": "Sektor Perdagangan, Sektor Teknologi Informasi dan Komunikasi",
            "tanggal_terbit": "2022-08-06",
            "url_tdpse_detail": "https://pse.komdigi.go.id/tdpse-detail/9992",
            "website": "jenuist.com"
        },
        {
            "id": "9cb1abd4-eeb2-445f-b16c-0289ec460db8",
            "nama_pse": "LEGALINDO JAYA MAKMUR",
            "nama_se": "LEGALVERSE",
            "sektor": "Sektor Teknologi Informasi dan Komunikasi",
            "tanggal_terbit": "2022-08-06",
            "url_tdpse_detail": "https://pse.komdigi.go.id/tdpse-detail/9993",
            "website": "legalverse.id"
        },
        {
            "id": "9cb1abd4-f23e-4505-8e08-255da43e6b6a",
            "nama_pse": "SOLUSI MITRA APLIKASI",
            "nama_se": "SMAL PLATFOM",
            "sektor": "Sektor Perdagangan",
            "tanggal_terbit": "2022-08-06",
            "url_tdpse_detail": "https://pse.komdigi.go.id/tdpse-detail/9994",
            "website": "simasrim.com"
        },
        {
            "id": "9cb1abd4-f5fc-4815-bc9a-813ec19bb1df",
            "nama_pse": "KIOSER TEKNOLOGI INDONESIA",
            "nama_se": "KIOSER TEKNOLOGI INDONESIA",
            "sektor": "Sektor Perdagangan",
            "tanggal_terbit": "2022-08-06",
            "url_tdpse_detail": "https://pse.komdigi.go.id/tdpse-detail/9995",
            "website": "kioser.com"
        },
        {
            "id": "9cb1abfb-17ae-40d9-aa94-1f76b88268f8",
            "nama_pse": "ERWIN POHAN",
            "nama_se": "INVITASI",
            "sektor": "Sektor Teknologi Informasi dan Komunikasi",
            "tanggal_terbit": "2022-08-06",
            "url_tdpse_detail": "https://pse.komdigi.go.id/tdpse-detail/9996",
            "website": "invitasi.us"
        },
        {
            "id": "9cb1abfb-1aa5-4a3a-8817-44c937db05b2",
            "nama_pse": "EVANDRUCE FILBERT",
            "nama_se": "BERKATA AAC",
            "sektor": "Sektor Teknologi Informasi dan Komunikasi",
            "tanggal_terbit": "2022-08-06",
            "url_tdpse_detail": "https://pse.komdigi.go.id/tdpse-detail/9997",
            "website": "-"
        },
        {
            "id": "9cb1abd5-0441-4850-8137-19191ef4df9f",
            "nama_pse": "AMAN TECHNOLOGIES INDONESIA",
            "nama_se": "LIVEAMAN.COM",
            "sektor": "Sektor Teknologi Informasi dan Komunikasi",
            "tanggal_terbit": "2022-08-06",
            "url_tdpse_detail": "https://pse.komdigi.go.id/tdpse-detail/9998",
            "website": "liveaman.com"
        },
        {
            "id": "9cb1abd4-477d-482e-b25f-bfa048ff9737",
            "nama_pse": "RADIO SONORA",
            "nama_se": "PT RADIO SONORA",
            "sektor": "Sektor Teknologi Informasi dan Komunikasi",
            "tanggal_terbit": "2022-08-05",
            "url_tdpse_detail": "https://pse.komdigi.go.id/tdpse-detail/9928",
            "website": "sonora.id"
        },
        {
            "id": "9cb1abd4-6619-4c3c-8ac2-8ef2dcf6cf6e",
            "nama_pse": "PHILIP FASTER EKA ADIPRAJA",
            "nama_se": "INDOWHIZ",
            "sektor": "Sektor Teknologi Informasi dan Komunikasi",
            "tanggal_terbit": "2022-08-05",
            "url_tdpse_detail": "https://pse.komdigi.go.id/tdpse-detail/9914",
            "website": "indowhiz.com"
        },
        {
            "id": "9cb1ac09-8b9f-47cd-a48f-41f7f11c3625",
            "nama_pse": "BANK PERKREDITAN RAKYAT PALEMBANG",
            "nama_se": "BISMO",
            "sektor": "Sektor Keuangan",
            "tanggal_terbit": "2022-08-05",
            "url_tdpse_detail": "https://pse.komdigi.go.id/tdpse-detail/9915",
            "website": "BANKBPRPALEMBANG.COM"
        },
        {
            "id": "9cb1abd4-6a48-40b9-8292-da08184bbf69",
            "nama_pse": "FORIS DAX INDONESIA",
            "nama_se": "PT FORIS DAX INDONESIA SERVER SYSTEM",
            "sektor": "Sektor Teknologi Informasi dan Komunikasi",
            "tanggal_terbit": "2022-08-05",
            "url_tdpse_detail": "https://pse.komdigi.go.id/tdpse-detail/9916",
            "website": "crypto.com"
        },
        {
            "id": "9cb1abfa-ae06-4613-a4de-3cbf215d347b",
            "nama_pse": "DAPANEL MEDIA INDONESIA",
            "nama_se": "DAPANEL MEDIA INDONESIA",
            "sektor": "Sektor Teknologi Informasi dan Komunikasi",
            "tanggal_terbit": "2022-08-05",
            "url_tdpse_detail": "https://pse.komdigi.go.id/tdpse-detail/9918",
            "website": "dapanel.id"
        },
        {
            "id": "9cb1abd4-6efd-40a2-8e65-352bb95a4d46",
            "nama_pse": "MANDALA MULTIFINANCE",
            "nama_se": "WEBSITE MANDALA FINANCE",
            "sektor": "Sektor Keuangan",
            "tanggal_terbit": "2022-08-05",
            "url_tdpse_detail": "https://pse.komdigi.go.id/tdpse-detail/9919",
            "website": "mandalafinance.com"
        },
        {
            "id": "9cb1abd4-7265-4db7-861c-a132b2f354ee",
            "nama_pse": "MULTIMEDIA CAKRA INDONESIA",
            "nama_se": "KLIKBENGKEL",
            "sektor": "Sektor Perdagangan",
            "tanggal_terbit": "2022-08-05",
            "url_tdpse_detail": "https://pse.komdigi.go.id/tdpse-detail/9920",
            "website": "klikbengkel.id"
        },
        {
            "id": "9cb1abfa-b159-48b3-8449-fbaacffd05f1",
            "nama_pse": "VICTORIA ALIFE INDONESIA",
            "nama_se": "VICTORIA LIFE RETAIL",
            "sektor": "Sektor Keuangan",
            "tanggal_terbit": "2022-08-05",
            "url_tdpse_detail": "https://pse.komdigi.go.id/tdpse-detail/9921",
            "website": "vlife.id"
        },
        {
            "id": "9cb1abfa-b563-4242-b946-ba16de40589a",
            "nama_pse": "MULTIMEDIA CAKRA INDONESIA",
            "nama_se": "KOPIPITU",
            "sektor": "Sektor Perdagangan",
            "tanggal_terbit": "2022-08-05",
            "url_tdpse_detail": "https://pse.komdigi.go.id/tdpse-detail/9922",
            "website": "backoffice.kopipitu.id"
        },
        {
            "id": "9cb1ac09-8f14-4e85-bf47-d56b6e17a511",
            "nama_pse": "SAVE DIGITAL UTAMA",
            "nama_se": "SAVE GAME",
            "sektor": "Sektor Teknologi Informasi dan Komunikasi",
            "tanggal_terbit": "2022-08-05",
            "url_tdpse_detail": "https://pse.komdigi.go.id/tdpse-detail/9923",
            "website": "savegame.id"
        },
        {
            "id": "9cb1ac09-921f-4940-a934-4dfddede3624",
            "nama_pse": "MASJED INDONESIA DIGITAL",
            "nama_se": "MASJED",
            "sektor": "Sektor Teknologi Informasi dan Komunikasi",
            "tanggal_terbit": "2022-08-05",
            "url_tdpse_detail": "https://pse.komdigi.go.id/tdpse-detail/9925",
            "website": "ziswaf.masjed.id"
        },
        {
            "id": "9cb1ac09-96aa-462d-b073-8061bd8e5580",
            "nama_pse": "BANK PERKREDITAN RAKYAT SENTRA DANA MAKMUR",
            "nama_se": "PT. BPR SENTRA DANA MAKMUR",
            "sektor": "Sektor Keuangan",
            "tanggal_terbit": "2022-08-05",
            "url_tdpse_detail": "https://pse.komdigi.go.id/tdpse-detail/9924",
            "website": "bprsentradanamakmur.com"
        },
        {
            "id": "9cb1abd4-7678-4c50-8a10-5330d81f1e1f",
            "nama_pse": "MIGUNANI MILI ARTHA",
            "nama_se": "KLIKWA.NET",
            "sektor": "Sektor Teknologi Informasi dan Komunikasi",
            "tanggal_terbit": "2022-08-05",
            "url_tdpse_detail": "https://pse.komdigi.go.id/tdpse-detail/9926",
            "website": "klikwa.net"
        },
        {
            "id": "9cb1abfa-b8a1-464e-9f6a-c11eade5d3f3",
            "nama_pse": "MULTIMEDIA CAKRA INDONESIA",
            "nama_se": "MYMONALISA",
            "sektor": "Sektor Perdagangan",
            "tanggal_terbit": "2022-08-05",
            "url_tdpse_detail": "https://pse.komdigi.go.id/tdpse-detail/9927",
            "website": "mymonalisa.id"
        },
        {
            "id": "9cb1abfa-bc49-42a2-a012-bebb145fe8ff",
            "nama_pse": "ARYA AURA ABADI",
            "nama_se": "ARYA FARMA",
            "sektor": "Sektor Kesehatan",
            "tanggal_terbit": "2022-08-05",
            "url_tdpse_detail": "https://pse.komdigi.go.id/tdpse-detail/9929",
            "website": "-"
        },
        {
            "id": "9cb1abd4-7fee-42e0-b542-bc65f32bb1b9",
            "nama_pse": "ADHI SYAHNUR INDONESIA",
            "nama_se": "TOKODROPSHIP",
            "sektor": "Sektor Perdagangan",
            "tanggal_terbit": "2022-08-05",
            "url_tdpse_detail": "https://pse.komdigi.go.id/tdpse-detail/9930",
            "website": "tokodropship.my.id"
        },
        {
            "id": "9cb1ac09-9a07-484b-a90a-57a3a322264f",
            "nama_pse": "CELLINI DESIGN CENTER",
            "nama_se": "ECOMMERCE",
            "sektor": "Sektor Perdagangan",
            "tanggal_terbit": "2022-08-05",
            "url_tdpse_detail": "https://pse.komdigi.go.id/tdpse-detail/9932",
            "website": "cellini.co.id"
        },
        {
            "id": "9cb1ac09-9d28-46b1-9fe4-503914b7f964",
            "nama_pse": "MAGENTA KAPITAL SEKURITAS INDONESIA",
            "nama_se": "PT MAGENTA KAPITAL SEKURITAS INDONESIA",
            "sektor": "Sektor Keuangan",
            "tanggal_terbit": "2022-08-05",
            "url_tdpse_detail": "https://pse.komdigi.go.id/tdpse-detail/9934",
            "website": "-"
        },
        {
            "id": "9cb1ac09-a148-417b-9e4e-e19ad9f96298",
            "nama_pse": "ADHI SYAHNUR INDONESIA",
            "nama_se": "PPOB NESIA",
            "sektor": "Sektor Perdagangan, Sektor Keuangan, Sektor Teknologi Informasi dan Komunikasi",
            "tanggal_terbit": "2022-08-05",
            "url_tdpse_detail": "https://pse.komdigi.go.id/tdpse-detail/9931",
            "website": "ppobnesia.my.id"
        },
        {
            "id": "9cb1ac09-a466-4f4d-8c8d-d86760aa11b6",
            "nama_pse": "INTRU NUSANTARA",
            "nama_se": "WEBSITE PT INTRU NUSANTARA",
            "sektor": "Sektor Keuangan",
            "tanggal_terbit": "2022-08-05",
            "url_tdpse_detail": "https://pse.komdigi.go.id/tdpse-detail/9933",
            "website": "ptintrunusantara.com"
        },
        {
            "id": "9cb1abfa-bfe3-4048-8a27-270ccb08e5e2",
            "nama_pse": "KOMUNITAS JAYA BERSAMA",
            "nama_se": "UNITYPUMP",
            "sektor": "Sektor Perdagangan",
            "tanggal_terbit": "2022-08-05",
            "url_tdpse_detail": "https://pse.komdigi.go.id/tdpse-detail/9935",
            "website": "unitypump.co.id"
        },
        {
            "id": "9cb1ac09-a7e2-45c7-98ec-c6fb0e3afabc",
            "nama_pse": "MISTER MULTI JASA",
            "nama_se": "MISTER JASA LEGALITAS",
            "sektor": "Sektor Perdagangan, Sektor Teknologi Informasi dan Komunikasi",
            "tanggal_terbit": "2022-08-05",
            "url_tdpse_detail": "https://pse.komdigi.go.id/tdpse-detail/9936",
            "website": "-"
        },
        {
            "id": "9cb1abfa-c319-4fa7-ab8c-14b77bfe6ac5",
            "nama_pse": "QIWARY SOLUSI FINANSIAKU",
            "nama_se": "QISOFI",
            "sektor": "Sektor Teknologi Informasi dan Komunikasi",
            "tanggal_terbit": "2022-08-05",
            "url_tdpse_detail": "https://pse.komdigi.go.id/tdpse-detail/9938",
            "website": "qisofi.com"
        },
        {
            "id": "9cb1ac09-ab84-40c5-ae44-3274b857e419",
            "nama_pse": "ADHI SYAHNUR INDONESIA",
            "nama_se": "TOKO DROPSHIP",
            "sektor": "Sektor Perdagangan",
            "tanggal_terbit": "2022-08-05",
            "url_tdpse_detail": "https://pse.komdigi.go.id/tdpse-detail/9937",
            "website": "toko-dropship.my.id"
        },
        {
            "id": "9cb1abd4-8c6d-4635-88e6-11de54c28535",
            "nama_pse": "SIHOL CHRISTIAN ROBIROSA SIMANIHURUK",
            "nama_se": "DIUNDUHAJA.COM",
            "sektor": "Sektor Teknologi Informasi dan Komunikasi",
            "tanggal_terbit": "2022-08-05",
            "url_tdpse_detail": "https://pse.komdigi.go.id/tdpse-detail/9939",
            "website": "diunduhaja.com"
        },
        {
            "id": "9cb1ac09-aee9-4105-8468-409b9d6945d0",
            "nama_pse": "BANK OF CHINA (HONGKONG) LIMITED JAKARTA",
            "nama_se": "BOC MOBILE BANKING",
            "sektor": "Sektor Keuangan",
            "tanggal_terbit": "2022-08-05",
            "url_tdpse_detail": "https://pse.komdigi.go.id/tdpse-detail/9960",
            "website": "-"
        },
        {
            "id": "9cb1ac09-b20f-4336-978a-9a07ba44b36f",
            "nama_pse": "ARTHA MITRA INTERNASIONAL",
            "nama_se": "ARTHA MITRA INTERNASIONAL",
            "sektor": "Sektor Perdagangan",
            "tanggal_terbit": "2022-08-05",
            "url_tdpse_detail": "https://pse.komdigi.go.id/tdpse-detail/9959",
            "website": "klik4it.com"
        },
        {
            "id": "9cb1abfa-c669-4881-93af-a05a38a50d23",
            "nama_pse": "BANK PERKREDITAN RAKYAT JAYA KERTI",
            "nama_se": "PENTA COREBANKING SYSTEM",
            "sektor": "Sektor Keuangan",
            "tanggal_terbit": "2022-08-05",
            "url_tdpse_detail": "https://pse.komdigi.go.id/tdpse-detail/9940",
            "website": "-"
        },
        {
            "id": "9cb1abd4-90fe-44ea-b0bb-fde2c16f440e",
            "nama_pse": "DWI YOGA PRASETYO",
            "nama_se": "WEBAJAR.COM",
            "sektor": "Sektor Teknologi Informasi dan Komunikasi",
            "tanggal_terbit": "2022-08-05",
            "url_tdpse_detail": "https://pse.komdigi.go.id/tdpse-detail/9941",
            "website": "webajar.com"
        },
        {
            "id": "9cb1ac09-b565-440f-b7dd-a54a0b7e56bf",
            "nama_pse": "DWI YOGA PRASETYO",
            "nama_se": "WEBMEREK.COM",
            "sektor": "Sektor Teknologi Informasi dan Komunikasi",
            "tanggal_terbit": "2022-08-05",
            "url_tdpse_detail": "https://pse.komdigi.go.id/tdpse-detail/9942",
            "website": "webmerek.com"
        },
        {
            "id": "9cb1ac09-b8ab-4e65-84cd-52d0724af1e8",
            "nama_pse": "DWI YOGA PRASETYO",
            "nama_se": "WEBDAGANG.COM",
            "sektor": "Sektor Teknologi Informasi dan Komunikasi",
            "tanggal_terbit": "2022-08-05",
            "url_tdpse_detail": "https://pse.komdigi.go.id/tdpse-detail/9943",
            "website": "webdagang.com"
        },
        {
            "id": "9cb1abd4-9431-4e09-a280-cc700bc55ac1",
            "nama_pse": "BANK PERKREDITAN RAKYAT CENTRALDJAJA PRATAMA",
            "nama_se": "CENTRALDJAJA PRATAMA",
            "sektor": "Sektor Keuangan",
            "tanggal_terbit": "2022-08-05",
            "url_tdpse_detail": "https://pse.komdigi.go.id/tdpse-detail/9944",
            "website": "centraldjaja.com"
        },
        {
            "id": "9cb1abfa-ca51-4bd1-bf6c-dc313002c40f",
            "nama_pse": "DWI YOGA PRASETYO",
            "nama_se": "WEBISASI.COM",
            "sektor": "Sektor Teknologi Informasi dan Komunikasi",
            "tanggal_terbit": "2022-08-05",
            "url_tdpse_detail": "https://pse.komdigi.go.id/tdpse-detail/9945",
            "website": "webisasi.com"
        },
        {
            "id": "9cb1ac09-bc37-4cce-b575-148f337e60ff",
            "nama_pse": "DWI YOGA PRASETYO",
            "nama_se": "WEBIFY.ID",
            "sektor": "Sektor Teknologi Informasi dan Komunikasi",
            "tanggal_terbit": "2022-08-05",
            "url_tdpse_detail": "https://pse.komdigi.go.id/tdpse-detail/9946",
            "website": "webify.id"
        },
        {
            "id": "9cb1abfa-cd9f-418f-bf32-09b4b7c86972",
            "nama_pse": "DWI YOGA PRASETYO",
            "nama_se": "KOTAPELAJAR.COM",
            "sektor": "Sektor Teknologi Informasi dan Komunikasi",
            "tanggal_terbit": "2022-08-05",
            "url_tdpse_detail": "https://pse.komdigi.go.id/tdpse-detail/9947",
            "website": "kotapelajar.com"
        },
        {
            "id": "9cb1ac09-bf77-4607-a559-348e33a35e5b",
            "nama_pse": "DEPOTEKNIK DUTA PERKAKAS",
            "nama_se": "WEBSITE PT DEPOTEKNIK DUTA PERKAKAS (WWW.DEPOTEKNIK.COM)",
            "sektor": "Sektor Perdagangan, Sektor Teknologi Informasi dan Komunikasi",
            "tanggal_terbit": "2022-08-05",
            "url_tdpse_detail": "https://pse.komdigi.go.id/tdpse-detail/9952",
            "website": "depoteknik.com"
        },
        {
            "id": "9cb1abd4-9888-472c-9a2b-13dc56537ba3",
            "nama_pse": "PERTAMINA PATRA NIAGA",
            "nama_se": "MYPERTAMINA FOR BUSINESS",
            "sektor": "Sektor Perdagangan, Sektor Teknologi Informasi dan Komunikasi",
            "tanggal_terbit": "2022-08-05",
            "url_tdpse_detail": "https://pse.komdigi.go.id/tdpse-detail/9948",
            "website": "-"
        }
    ],
    "processingTimeMs": 4,
    "query": "",
    "totalHits": 19121,
    "hitsPerPage": 50,
    "page": 205,
    "totalPages": 383
}