{
    "hits": [
        {
            "id": "9cb1aba7-d953-44cf-8e3e-97f47a1582e9",
            "nama_pse": "BANK PERKREDITAN RAKYAT ARTHA KRAMAT",
            "nama_se": "BPR ARTHA KRAMAT",
            "sektor": "Sektor Keuangan",
            "tanggal_terbit": "2022-07-16",
            "url_tdpse_detail": "https://pse.komdigi.go.id/tdpse-detail/5947",
            "website": "bprarthakramat.com"
        },
        {
            "id": "9cb1abb1-97ee-40e1-a341-a68ca0d43b13",
            "nama_pse": "KONSULTAN LEGALITAS MILENIAL",
            "nama_se": "PARTNERKITA",
            "sektor": "Sektor Perdagangan, Sektor Teknologi Informasi dan Komunikasi",
            "tanggal_terbit": "2022-07-16",
            "url_tdpse_detail": "https://pse.komdigi.go.id/tdpse-detail/5948",
            "website": "partnerkita.id"
        },
        {
            "id": "9cb1abb1-9aec-4629-a614-e0172377612e",
            "nama_pse": "BANK PERKREDITAN RAKYAT DURIAN MANDIRI",
            "nama_se": "BPR DURIAN MANDIRI",
            "sektor": "Sektor Teknologi Informasi dan Komunikasi",
            "tanggal_terbit": "2022-07-16",
            "url_tdpse_detail": "https://pse.komdigi.go.id/tdpse-detail/5950",
            "website": "-"
        },
        {
            "id": "9cb1aba7-ddf0-4ab1-aa2e-53115e461ea9",
            "nama_pse": "BANK PANIN DUBAI SYARIAH",
            "nama_se": "WEBSITE BANK",
            "sektor": "Sektor Keuangan",
            "tanggal_terbit": "2022-07-16",
            "url_tdpse_detail": "https://pse.komdigi.go.id/tdpse-detail/5951",
            "website": "panindubaisyariah.co.id"
        },
        {
            "id": "9cb1abb1-9dde-40db-9330-571316582ebf",
            "nama_pse": "BANK PANIN DUBAI SYARIAH",
            "nama_se": "MOBILE BANKING",
            "sektor": "Sektor Keuangan",
            "tanggal_terbit": "2022-07-16",
            "url_tdpse_detail": "https://pse.komdigi.go.id/tdpse-detail/5957",
            "website": "-"
        },
        {
            "id": "9cb1aba7-e0d4-41b3-8088-231e15c2c275",
            "nama_pse": "PERTAMINA PATRA NIAGA",
            "nama_se": "WEB REGISTRASI SUBSIDI TEPAT MYPERTAMINA",
            "sektor": "Sektor Perdagangan, Sektor Teknologi Informasi dan Komunikasi",
            "tanggal_terbit": "2022-07-16",
            "url_tdpse_detail": "https://pse.komdigi.go.id/tdpse-detail/5954",
            "website": "subsiditepat.mypertamina.id"
        },
        {
            "id": "9cb1abb1-a0ea-48db-bb39-17768298375f",
            "nama_pse": "SAI INSPIRASI KOLABORASI",
            "nama_se": "SAI COWORK",
            "sektor": "Sektor Teknologi Informasi dan Komunikasi",
            "tanggal_terbit": "2022-07-16",
            "url_tdpse_detail": "https://pse.komdigi.go.id/tdpse-detail/5956",
            "website": "-"
        },
        {
            "id": "9cb1aba7-e2da-4e8a-8a9e-2fa98ecfd2d3",
            "nama_pse": "PERTAMINA PATRA NIAGA",
            "nama_se": "APLIKASI MYPERTAMINA",
            "sektor": "Sektor Perdagangan, Sektor Teknologi Informasi dan Komunikasi",
            "tanggal_terbit": "2022-07-16",
            "url_tdpse_detail": "https://pse.komdigi.go.id/tdpse-detail/5958",
            "website": "-"
        },
        {
            "id": "9cb1aba7-e77c-44a8-ae98-a1db7bd07645",
            "nama_pse": "KONSUMEN PEDAMI",
            "nama_se": "SASIRANGAN",
            "sektor": "Sektor Perdagangan",
            "tanggal_terbit": "2022-07-16",
            "url_tdpse_detail": "https://pse.komdigi.go.id/tdpse-detail/5960",
            "website": "-"
        },
        {
            "id": "9cb1aba7-e963-4eda-8b25-8571c49e5710",
            "nama_pse": "SERVER NUSANTARA SOLUSINDO",
            "nama_se": "FP MOBILE TOPUP",
            "sektor": "Sektor Perdagangan",
            "tanggal_terbit": "2022-07-16",
            "url_tdpse_detail": "https://pse.komdigi.go.id/tdpse-detail/5962",
            "website": "familypulsa.co"
        },
        {
            "id": "9cb1ab9d-026e-48ab-ad95-860be11d4e84",
            "nama_pse": "RAHMAT RAMADHAN PUTRA",
            "nama_se": "SISDA.ID",
            "sektor": "Sektor Teknologi Informasi dan Komunikasi",
            "tanggal_terbit": "2022-07-16",
            "url_tdpse_detail": "https://pse.komdigi.go.id/tdpse-detail/5963",
            "website": "sisda.id"
        },
        {
            "id": "9cb1abb1-a393-4d0b-bade-fca21f9590a3",
            "nama_pse": "RAHMAT RAMADHAN PUTRA",
            "nama_se": "DIGITAL INVITATIONS INDONESIA",
            "sektor": "Sektor Teknologi Informasi dan Komunikasi",
            "tanggal_terbit": "2022-07-16",
            "url_tdpse_detail": "https://pse.komdigi.go.id/tdpse-detail/5964",
            "website": "digitalinvitations.id"
        },
        {
            "id": "9cb1abb1-a714-48be-b725-e46deb3281c5",
            "nama_pse": "BANK PANIN DUBAI SYARIAH",
            "nama_se": "CASH MANAGEMENT SYSTEM",
            "sektor": "Sektor Keuangan",
            "tanggal_terbit": "2022-07-16",
            "url_tdpse_detail": "https://pse.komdigi.go.id/tdpse-detail/5971",
            "website": "apps.paninbanksyariah.co.id"
        },
        {
            "id": "9cb1aba7-eb4d-4691-ad8c-ff705e9aa9ae",
            "nama_pse": "BAGUS ANJARI SUWITO",
            "nama_se": "BUKAOLSHOP",
            "sektor": "Sektor Teknologi Informasi dan Komunikasi",
            "tanggal_terbit": "2022-07-16",
            "url_tdpse_detail": "https://pse.komdigi.go.id/tdpse-detail/5965",
            "website": "bukaolshop.com"
        },
        {
            "id": "9cb1aba7-f143-47e4-a5b5-2cc32b1df471",
            "nama_pse": "KIOS TEKNOLOGI INDONESIA",
            "nama_se": "APLIKASI KIOSIN",
            "sektor": "Sektor Perdagangan, Sektor Teknologi Informasi dan Komunikasi",
            "tanggal_terbit": "2022-07-16",
            "url_tdpse_detail": "https://pse.komdigi.go.id/tdpse-detail/5967",
            "website": "kiosindonesia.com"
        },
        {
            "id": "9cb1aba7-f353-4587-a925-024258137d65",
            "nama_pse": "INOVASI BERDAYAKAN BANGSA",
            "nama_se": "ATURKULINER",
            "sektor": "Sektor Teknologi Informasi dan Komunikasi, Sektor Pangan",
            "tanggal_terbit": "2022-07-16",
            "url_tdpse_detail": "https://pse.komdigi.go.id/tdpse-detail/5968",
            "website": "aturkuliner.id"
        },
        {
            "id": "9cb1ab9d-05e1-405d-8af7-57b510470e24",
            "nama_pse": "WADAH INOVASI NEUROSAINS",
            "nama_se": "BRAFO",
            "sektor": "Sektor Teknologi Informasi dan Komunikasi",
            "tanggal_terbit": "2022-07-16",
            "url_tdpse_detail": "https://pse.komdigi.go.id/tdpse-detail/5970",
            "website": "-"
        },
        {
            "id": "9cb1ab9d-0893-40b2-9d4e-a25bb032c5a6",
            "nama_pse": "KLIRING PENJAMINAN EFEK INDONESIA",
            "nama_se": "PORTAL AK DAN PARTISIPAN",
            "sektor": "Sektor Keuangan",
            "tanggal_terbit": "2022-07-16",
            "url_tdpse_detail": "https://pse.komdigi.go.id/tdpse-detail/5972",
            "website": "membership.kpei.co.id"
        },
        {
            "id": "9cb1ab9d-0b1a-4604-8a68-b0cb61e24e53",
            "nama_pse": "KLIRING PENJAMINAN EFEK INDONESIA",
            "nama_se": "M-CLEARS",
            "sektor": "Sektor Keuangan",
            "tanggal_terbit": "2022-07-16",
            "url_tdpse_detail": "https://pse.komdigi.go.id/tdpse-detail/5973",
            "website": "cmsmclears.idclear.co.id"
        },
        {
            "id": "9cb1ab9d-0d67-4875-b5e2-64934752e836",
            "nama_pse": "KLIRING PENJAMINAN EFEK INDONESIA",
            "nama_se": "E-CLEARS",
            "sektor": "Sektor Keuangan",
            "tanggal_terbit": "2022-07-16",
            "url_tdpse_detail": "https://pse.komdigi.go.id/tdpse-detail/5974",
            "website": "-"
        },
        {
            "id": "9cb1ab9d-10ba-4974-879a-978fe9a393c5",
            "nama_pse": "KLIRING PENJAMINAN EFEK INDONESIA",
            "nama_se": "C-GUARDS",
            "sektor": "Sektor Keuangan",
            "tanggal_terbit": "2022-07-16",
            "url_tdpse_detail": "https://pse.komdigi.go.id/tdpse-detail/5975",
            "website": "cguards.idclear.co.id"
        },
        {
            "id": "9cb1ab9d-12f8-4b16-af42-92e05d77658a",
            "nama_pse": "TIANGE TEKNOLOGI INDONESIA",
            "nama_se": "PEAR LIVE",
            "sektor": "Sektor Teknologi Informasi dan Komunikasi",
            "tanggal_terbit": "2022-07-16",
            "url_tdpse_detail": "https://pse.komdigi.go.id/tdpse-detail/5977",
            "website": "hellocherry.com"
        },
        {
            "id": "9cb1abb1-aacb-4dce-93d4-b37979093f7a",
            "nama_pse": "BEKTI DWI HARTANTI",
            "nama_se": "PENAMPUNGAN, PENJERNIHAN DAN PENYALURAN AIR MINUM",
            "sektor": "Sektor Energi dan Sumber Daya Mineral, Sektor Pangan",
            "tanggal_terbit": "2022-07-16",
            "url_tdpse_detail": "https://pse.komdigi.go.id/tdpse-detail/5976",
            "website": "-"
        },
        {
            "id": "9cb1aba6-02dd-4ccb-89d5-d19177aa2330",
            "nama_pse": "TUGU INSURANCE BROKERS",
            "nama_se": "TUGUBRO APP",
            "sektor": "Sektor Keuangan",
            "tanggal_terbit": "2022-07-15",
            "url_tdpse_detail": "https://pse.komdigi.go.id/tdpse-detail/5770",
            "website": "askredbni.tib.co.id"
        },
        {
            "id": "9cb1ab9b-9214-466b-b393-f001bf3883a3",
            "nama_pse": "SEDANA PASIFIK SERVISTAMA",
            "nama_se": "ONPREMI",
            "sektor": "Sektor Perdagangan, Sektor Keuangan",
            "tanggal_terbit": "2022-07-15",
            "url_tdpse_detail": "https://pse.komdigi.go.id/tdpse-detail/5727",
            "website": "onpremi.com"
        },
        {
            "id": "9cb1abb0-b02c-4674-ad92-97b0bad8e465",
            "nama_pse": "ORDER KUOTA EVOLUSI DIGITAL",
            "nama_se": "ORDER KUOTA",
            "sektor": "Sektor Perdagangan, Sektor Teknologi Informasi dan Komunikasi",
            "tanggal_terbit": "2022-07-15",
            "url_tdpse_detail": "https://pse.komdigi.go.id/tdpse-detail/5677",
            "website": "orderkuota.com"
        },
        {
            "id": "9cb1aba6-e32b-40ef-9b69-10a44178299b",
            "nama_pse": "BANK PEMBANGUNAN DAERAH SULAWESI SELATAN DAN SULAWESI BARAT",
            "nama_se": "CMS BANKSULSELBAR SYARIAH",
            "sektor": "Sektor Teknologi Informasi dan Komunikasi",
            "tanggal_terbit": "2022-07-15",
            "url_tdpse_detail": "https://pse.komdigi.go.id/tdpse-detail/5675",
            "website": "cmsya.banksulselbar.co.id"
        },
        {
            "id": "9cb1ab9c-3cdb-45ae-8cbc-1bcf9173f8ec",
            "nama_pse": "BANK PEMBANGUNAN DAERAH SULAWESI SELATAN DAN SULAWESI BARAT",
            "nama_se": "API BANKSULSELBAR",
            "sektor": "Sektor Teknologi Informasi dan Komunikasi",
            "tanggal_terbit": "2022-07-15",
            "url_tdpse_detail": "https://pse.komdigi.go.id/tdpse-detail/5676",
            "website": "api.banksulselbar.co.id"
        },
        {
            "id": "9cb1aba6-e53c-4709-a481-433d43a596b4",
            "nama_pse": "BANK PEMBANGUNAN DAERAH SULAWESI SELATAN DAN SULAWESI BARAT",
            "nama_se": "API DEVELOPMENT BANKSULSELBAR",
            "sektor": "Sektor Teknologi Informasi dan Komunikasi",
            "tanggal_terbit": "2022-07-15",
            "url_tdpse_detail": "https://pse.komdigi.go.id/tdpse-detail/5678",
            "website": "apidev.banksulselbar.co.id"
        },
        {
            "id": "9cb1aba6-e70c-40a6-8480-7180e8b08ecf",
            "nama_pse": "BANK PEMBANGUNAN DAERAH SULAWESI SELATAN DAN SULAWESI BARAT",
            "nama_se": "HOSPITAL BILLING BANKSULSELBAR",
            "sektor": "Sektor Teknologi Informasi dan Komunikasi",
            "tanggal_terbit": "2022-07-15",
            "url_tdpse_detail": "https://pse.komdigi.go.id/tdpse-detail/5679",
            "website": "hospital.banksulselbar.co.id"
        },
        {
            "id": "9cb1abb0-b1e2-49ce-ad8a-a8c8b6936873",
            "nama_pse": "BANK PERKREDITAN RAKYAT PRISMA DANA",
            "nama_se": "WEBSITE",
            "sektor": "Sektor Teknologi Informasi dan Komunikasi",
            "tanggal_terbit": "2022-07-15",
            "url_tdpse_detail": "https://pse.komdigi.go.id/tdpse-detail/5680",
            "website": "bankprismadana.co.id"
        },
        {
            "id": "9cb1abb0-b3d0-4c24-b533-f05ec3db371d",
            "nama_pse": "BANK PEMBANGUNAN DAERAH SULAWESI SELATAN DAN SULAWESI BARAT",
            "nama_se": "HOSPITAL BILLING  BANKSULSELBAR SYARIAH",
            "sektor": "Sektor Teknologi Informasi dan Komunikasi",
            "tanggal_terbit": "2022-07-15",
            "url_tdpse_detail": "https://pse.komdigi.go.id/tdpse-detail/5681",
            "website": "hospital-syariah.banksulselbar.co.id"
        },
        {
            "id": "9cb1aba6-e8fd-43b6-a781-e74ffe1f9ff1",
            "nama_pse": "BANK PEMBANGUNAN DAERAH SULAWESI SELATAN DAN SULAWESI BARAT",
            "nama_se": "KAMPUS BILLING BANKSULSELBAR",
            "sektor": "Sektor Teknologi Informasi dan Komunikasi",
            "tanggal_terbit": "2022-07-15",
            "url_tdpse_detail": "https://pse.komdigi.go.id/tdpse-detail/5682",
            "website": "kampus.banksulselbar.co.id"
        },
        {
            "id": "9cb1aba6-eade-424f-91c0-f63dab00bf3e",
            "nama_pse": "TIARA MERCUSIANA PRATIWI",
            "nama_se": "PULSA GENGGAM",
            "sektor": "Sektor Perdagangan",
            "tanggal_terbit": "2022-07-15",
            "url_tdpse_detail": "https://pse.komdigi.go.id/tdpse-detail/5683",
            "website": "pulsagenggam.co.id"
        },
        {
            "id": "9cb1ab9c-3f5d-44c4-b1da-76b0a119808b",
            "nama_pse": "BANK PEMBANGUNAN DAERAH SULAWESI SELATAN DAN SULAWESI BARAT",
            "nama_se": "TNT BANKSULSELBAR",
            "sektor": "Sektor Teknologi Informasi dan Komunikasi",
            "tanggal_terbit": "2022-07-15",
            "url_tdpse_detail": "https://pse.komdigi.go.id/tdpse-detail/5684",
            "website": "tnt.banksulselbar.co.id"
        },
        {
            "id": "9cb1abb0-b582-4a39-8199-9c979a3819e6",
            "nama_pse": "BANK PEMBANGUNAN DAERAH SULAWESI SELATAN DAN SULAWESI BARAT",
            "nama_se": "TNT DEVELOPMENT BANKSULSELBAR",
            "sektor": "Sektor Teknologi Informasi dan Komunikasi",
            "tanggal_terbit": "2022-07-15",
            "url_tdpse_detail": "https://pse.komdigi.go.id/tdpse-detail/5685",
            "website": "tnt-dev.banksulselbar.co.id"
        },
        {
            "id": "9cb1ab9c-4281-459d-a7cc-eebc60f43009",
            "nama_pse": "BANK PERKREDITAN RAKYAT BUANA MANDIRI",
            "nama_se": "WEBSITE COMPANY PROFILE PT. BANK PERKREDITAN RAKYAT BUANA MANDIRI",
            "sektor": "Sektor Keuangan",
            "tanggal_terbit": "2022-07-15",
            "url_tdpse_detail": "https://pse.komdigi.go.id/tdpse-detail/5686",
            "website": "bpr-buanamandiri.com"
        },
        {
            "id": "9cb1aba6-ecb9-402a-a74d-ab604f99abee",
            "nama_pse": "TOYOTA-ASTRA MOTOR",
            "nama_se": "NEW TPM",
            "sektor": "Sektor Perdagangan, Sektor Teknologi Informasi dan Komunikasi",
            "tanggal_terbit": "2022-07-15",
            "url_tdpse_detail": "https://pse.komdigi.go.id/tdpse-detail/5687",
            "website": "toyotaprospectmanagement.id"
        },
        {
            "id": "9cb1aba6-eeac-46ff-aa2b-f80158ff22aa",
            "nama_pse": "BANK PEMBANGUNAN DAERAH SULAWESI SELATAN DAN SULAWESI BARAT",
            "nama_se": "VIRTUAL ACCOUNT BANKSULSELBAR",
            "sektor": "Sektor Teknologi Informasi dan Komunikasi",
            "tanggal_terbit": "2022-07-15",
            "url_tdpse_detail": "https://pse.komdigi.go.id/tdpse-detail/5688",
            "website": "va.banksulselbar.co.id"
        },
        {
            "id": "9cb1ab9c-48ec-46b5-ab56-3c8b1628190f",
            "nama_pse": "PUNDI MAS BERJAYA",
            "nama_se": "DEXTION",
            "sektor": "Sektor Teknologi Informasi dan Komunikasi",
            "tanggal_terbit": "2022-07-15",
            "url_tdpse_detail": "https://pse.komdigi.go.id/tdpse-detail/5701",
            "website": "Dextion.com"
        },
        {
            "id": "9cb1ab9c-4c23-4d70-9d36-9ad4b20b40dd",
            "nama_pse": "BANK PEMBANGUNAN DAERAH SULAWESI SELATAN DAN SULAWESI BARAT",
            "nama_se": "QRIS BANK SULSELBAR",
            "sektor": "Sektor Teknologi Informasi dan Komunikasi",
            "tanggal_terbit": "2022-07-15",
            "url_tdpse_detail": "https://pse.komdigi.go.id/tdpse-detail/5690",
            "website": "qris.banksulsebar.co.id"
        },
        {
            "id": "9cb1ab9c-4fb4-4292-b635-f18f6d0fe935",
            "nama_pse": "SINAR SOSRO",
            "nama_se": "SKY ORDER",
            "sektor": "Sektor Perdagangan",
            "tanggal_terbit": "2022-07-15",
            "url_tdpse_detail": "https://pse.komdigi.go.id/tdpse-detail/5691",
            "website": "-"
        },
        {
            "id": "9cb1ab9c-5390-4d03-ba74-71c4b129b93b",
            "nama_pse": "BANK MULTIARTA SENTOSA",
            "nama_se": "WWW.BANKMAS.CO.ID",
            "sektor": "Sektor Keuangan",
            "tanggal_terbit": "2022-07-15",
            "url_tdpse_detail": "https://pse.komdigi.go.id/tdpse-detail/5745",
            "website": "bankmas.co.id"
        },
        {
            "id": "9cb1aba6-f08d-4b74-aed9-29535bb30e6a",
            "nama_pse": "ISAN TECHNOLOGY INDONESIA",
            "nama_se": "AGRION MILL",
            "sektor": "Sektor Keuangan, Sektor Teknologi Informasi dan Komunikasi",
            "tanggal_terbit": "2022-07-15",
            "url_tdpse_detail": "https://pse.komdigi.go.id/tdpse-detail/5692",
            "website": "-"
        },
        {
            "id": "9cb1abb0-b77c-44af-82fd-3d7fb9dcc65b",
            "nama_pse": "BANK PEMBANGUNAN DAERAH SULAWESI SELATAN DAN SULAWESI BARAT",
            "nama_se": "APLIKASI E-PROCUREMENT BANK SULSELBAR",
            "sektor": "Sektor Perdagangan, Sektor Teknologi Informasi dan Komunikasi",
            "tanggal_terbit": "2022-07-15",
            "url_tdpse_detail": "https://pse.komdigi.go.id/tdpse-detail/5693",
            "website": "eproc.banksulselbar.co.id"
        },
        {
            "id": "9cb1aba6-f28b-4fa0-b00b-d54c696b3e88",
            "nama_pse": "PAYID DIGITAL SOLUTION",
            "nama_se": "AGEN PULSA",
            "sektor": "Sektor Perdagangan",
            "tanggal_terbit": "2022-07-15",
            "url_tdpse_detail": "https://pse.komdigi.go.id/tdpse-detail/5694",
            "website": "isipulsa.web.id"
        },
        {
            "id": "9cb1abb0-b92f-4e98-8707-67ee4ddb565c",
            "nama_pse": "BANK PEMBANGUNAN DAERAH KALIMANTAN SELATAN PERSERODA",
            "nama_se": "BANK KALSEL ONLINE",
            "sektor": "Sektor Keuangan",
            "tanggal_terbit": "2022-07-15",
            "url_tdpse_detail": "https://pse.komdigi.go.id/tdpse-detail/5696",
            "website": "-"
        },
        {
            "id": "9cb1abb0-bad4-4034-a298-00c1dc8c3488",
            "nama_pse": "LAMPUNG BERKAH FINANSIAL TEKNOLOGI",
            "nama_se": "LAHAN SIKAM",
            "sektor": "Sektor Keuangan",
            "tanggal_terbit": "2022-07-15",
            "url_tdpse_detail": "https://pse.komdigi.go.id/tdpse-detail/5695",
            "website": "lahansikam.co.id"
        },
        {
            "id": "9cb1ab9c-55ee-4894-868b-5fe7edd88c22",
            "nama_pse": "MNC LIFE ASSURANCE",
            "nama_se": "MNCLIFE.COM",
            "sektor": "Sektor Keuangan",
            "tanggal_terbit": "2022-07-15",
            "url_tdpse_detail": "https://pse.komdigi.go.id/tdpse-detail/5697",
            "website": "mnclife.com"
        },
        {
            "id": "9cb1aba6-f4b8-4ed6-ad23-710871ee87b2",
            "nama_pse": "SERVER NUSANTARA SOLUSINDO",
            "nama_se": "FAMILY PULSA",
            "sektor": "Sektor Perdagangan",
            "tanggal_terbit": "2022-07-15",
            "url_tdpse_detail": "https://pse.komdigi.go.id/tdpse-detail/5698",
            "website": "familypulsa.net"
        }
    ],
    "processingTimeMs": 17,
    "query": "",
    "totalHits": 19121,
    "hitsPerPage": 50,
    "page": 277,
    "totalPages": 383
}