{
    "hits": [
        {
            "id": "9cb1aba5-4fde-4b05-b58f-250628eec183",
            "nama_pse": "USAHA PEMBIAYAAN RELIANCEINDONESIA",
            "nama_se": "RELI-HOME",
            "sektor": "Sektor Keuangan",
            "tanggal_terbit": "2022-07-07",
            "url_tdpse_detail": "https://pse.komdigi.go.id/tdpse-detail/5183",
            "website": "-"
        },
        {
            "id": "9cb1abaf-3d06-45d9-88c5-51bc0760aeca",
            "nama_pse": "TAMADUN TEKNOLOGI INTERNASIONAL",
            "nama_se": "NEUROVI MEDICAL SYSTEM",
            "sektor": "Sektor Teknologi Informasi dan Komunikasi",
            "tanggal_terbit": "2022-07-07",
            "url_tdpse_detail": "https://pse.komdigi.go.id/tdpse-detail/5190",
            "website": "-"
        },
        {
            "id": "9cb1aba5-53f3-43d2-9f2a-5dd9dc1d651a",
            "nama_pse": "MUSLIMINA INDO PERSADA",
            "nama_se": "MUSLIMPERGI",
            "sektor": "Sektor Teknologi Informasi dan Komunikasi",
            "tanggal_terbit": "2022-07-07",
            "url_tdpse_detail": "https://pse.komdigi.go.id/tdpse-detail/5189",
            "website": "muslimpergi.com"
        },
        {
            "id": "9cb1aba5-55f0-476a-bdd6-8dfa66eb7796",
            "nama_pse": "ANILO ADIKARYA SENTOSA",
            "nama_se": "AAS1",
            "sektor": "Sektor Perdagangan",
            "tanggal_terbit": "2022-07-07",
            "url_tdpse_detail": "https://pse.komdigi.go.id/tdpse-detail/5185",
            "website": "aas1.id"
        },
        {
            "id": "9cb1aba5-59ba-4a2c-9420-3fa706e40e3c",
            "nama_pse": "MIDAZPAY DIGITAL INDONESIA",
            "nama_se": "ROCKET POCKET",
            "sektor": "Sektor Keuangan, Sektor Teknologi Informasi dan Komunikasi",
            "tanggal_terbit": "2022-07-07",
            "url_tdpse_detail": "https://pse.komdigi.go.id/tdpse-detail/5187",
            "website": "rocketpocket.id"
        },
        {
            "id": "9cb1abaf-43f0-469f-96bd-a12a5fdb286c",
            "nama_pse": "MEGATAMA ADIKARYA",
            "nama_se": "WEBSITE RESMI INDO MEDIKA INTERNATIONAL",
            "sektor": "Sektor Kesehatan",
            "tanggal_terbit": "2022-07-07",
            "url_tdpse_detail": "https://pse.komdigi.go.id/tdpse-detail/5191",
            "website": "indomedika.co.id"
        },
        {
            "id": "9cb1ab9a-5a5e-445b-b4e8-1615280179ab",
            "nama_pse": "ISAN TECHNOLOGY INDONESIA",
            "nama_se": "AGRION FARMER",
            "sektor": "Sektor Keuangan, Sektor Teknologi Informasi dan Komunikasi",
            "tanggal_terbit": "2022-07-07",
            "url_tdpse_detail": "https://pse.komdigi.go.id/tdpse-detail/5192",
            "website": "-"
        },
        {
            "id": "9cb1aba5-6197-434f-a554-536af42e3b72",
            "nama_pse": "RAJAWALI INTI SELULAR",
            "nama_se": "RISE",
            "sektor": "Sektor Perdagangan",
            "tanggal_terbit": "2022-07-07",
            "url_tdpse_detail": "https://pse.komdigi.go.id/tdpse-detail/5193",
            "website": "corpsolution.riseteknologi.app"
        },
        {
            "id": "9cb1aba5-647b-4d22-8700-4455aaaab57f",
            "nama_pse": "D \u0026 W INTERNASIONAL",
            "nama_se": "TERRAMIX.ID",
            "sektor": "Sektor Perdagangan, Sektor Teknologi Informasi dan Komunikasi",
            "tanggal_terbit": "2022-07-07",
            "url_tdpse_detail": "https://pse.komdigi.go.id/tdpse-detail/5195",
            "website": "terramix.id"
        },
        {
            "id": "9cb1ab9a-62a8-4cec-a709-6f48577eeec7",
            "nama_pse": "ALFIE RENALDY",
            "nama_se": "JAGOSELEB.COM",
            "sektor": "Sektor Teknologi Informasi dan Komunikasi",
            "tanggal_terbit": "2022-07-07",
            "url_tdpse_detail": "https://pse.komdigi.go.id/tdpse-detail/5196",
            "website": "jagoseleb.com"
        },
        {
            "id": "9cb1abaf-4650-46a7-8820-750df912850e",
            "nama_pse": "CHRIST BOLUNG NGANTUNG",
            "nama_se": "KRIST.ID",
            "sektor": "Sektor Teknologi Informasi dan Komunikasi",
            "tanggal_terbit": "2022-07-07",
            "url_tdpse_detail": "https://pse.komdigi.go.id/tdpse-detail/5197",
            "website": "krist.id"
        },
        {
            "id": "9cb1aba5-717d-4fc1-891c-1f8b40105c17",
            "nama_pse": "CHRIST BOLUNG NGANTUNG",
            "nama_se": "SOFTWARE.KRIST.ID",
            "sektor": "Sektor Teknologi Informasi dan Komunikasi",
            "tanggal_terbit": "2022-07-07",
            "url_tdpse_detail": "https://pse.komdigi.go.id/tdpse-detail/5198",
            "website": "krist.id"
        },
        {
            "id": "9cb1abaf-48e6-4ee8-a89b-da37a578b40f",
            "nama_pse": "CHRIST BOLUNG NGANTUNG",
            "nama_se": "SHOP.KRIST.ID",
            "sektor": "Sektor Teknologi Informasi dan Komunikasi",
            "tanggal_terbit": "2022-07-07",
            "url_tdpse_detail": "https://pse.komdigi.go.id/tdpse-detail/5199",
            "website": "krist.id"
        },
        {
            "id": "9cb1ab9a-6ee1-4b26-9989-65f010b56f09",
            "nama_pse": "CHRIST BOLUNG NGANTUNG",
            "nama_se": "PORTAL.KRIST.ID",
            "sektor": "Sektor Teknologi Informasi dan Komunikasi",
            "tanggal_terbit": "2022-07-07",
            "url_tdpse_detail": "https://pse.komdigi.go.id/tdpse-detail/5200",
            "website": "krist.id"
        },
        {
            "id": "9cb1ab9a-7387-497d-9c8a-b015e2f63a0b",
            "nama_pse": "JUS BIANTORO",
            "nama_se": "AKSATA WISATA",
            "sektor": "Sektor Perdagangan, Sektor Transportasi",
            "tanggal_terbit": "2022-07-07",
            "url_tdpse_detail": "https://pse.komdigi.go.id/tdpse-detail/5201",
            "website": "aksatawisata.com"
        },
        {
            "id": "9cb1abae-fa86-40d4-a1da-3cba057c1e39",
            "nama_pse": "QUINTAL EDUTAMA SOLUSINDO",
            "nama_se": "QUINTAL",
            "sektor": "Sektor Teknologi Informasi dan Komunikasi",
            "tanggal_terbit": "2022-07-06",
            "url_tdpse_detail": "https://pse.komdigi.go.id/tdpse-detail/5132",
            "website": "quintal.id"
        },
        {
            "id": "9cb1abae-fe65-42d0-a91c-0b94e89b4313",
            "nama_pse": "CASTELLUM DIGITAL INDONESIA",
            "nama_se": "SILACAK",
            "sektor": "Sektor Kesehatan, Sektor Teknologi Informasi dan Komunikasi",
            "tanggal_terbit": "2022-07-06",
            "url_tdpse_detail": "https://pse.komdigi.go.id/tdpse-detail/5106",
            "website": "silacak.kemkes.go.id"
        },
        {
            "id": "9cb1ab9a-0399-4265-9a90-c8562aa4b4e3",
            "nama_pse": "CASTELLUM DIGITAL INDONESIA",
            "nama_se": "JUMPA DOKTER",
            "sektor": "Sektor Kesehatan, Sektor Teknologi Informasi dan Komunikasi",
            "tanggal_terbit": "2022-07-06",
            "url_tdpse_detail": "https://pse.komdigi.go.id/tdpse-detail/5107",
            "website": "jumpadokter.castellumdigital.org"
        },
        {
            "id": "9cb1aba4-ffe1-4b3d-b710-e0024431d456",
            "nama_pse": "MEGA FINANCE",
            "nama_se": "MEGA FINANCE WEBSITE",
            "sektor": "Sektor Keuangan",
            "tanggal_terbit": "2022-07-06",
            "url_tdpse_detail": "https://pse.komdigi.go.id/tdpse-detail/5103",
            "website": "megafinance.co.id"
        },
        {
            "id": "9cb1ab9a-0581-484c-96bf-876e9d51da52",
            "nama_pse": "MEGA FINANCE",
            "nama_se": "APLIKASI EMAS MEGA FINANCE",
            "sektor": "Sektor Keuangan",
            "tanggal_terbit": "2022-07-06",
            "url_tdpse_detail": "https://pse.komdigi.go.id/tdpse-detail/5104",
            "website": "megafinance.co.id"
        },
        {
            "id": "9cb1abaf-0095-468b-acc9-a72124724288",
            "nama_pse": "MOCHAMAD RIZALDI KUSUMO",
            "nama_se": "JASA DIGITAL INDONESIA",
            "sektor": "Sektor Teknologi Informasi dan Komunikasi",
            "tanggal_terbit": "2022-07-06",
            "url_tdpse_detail": "https://pse.komdigi.go.id/tdpse-detail/5105",
            "website": "-"
        },
        {
            "id": "9cb1ab9a-079e-4231-883b-6b33972fae05",
            "nama_pse": "INDONUSA TELEMEDIA",
            "nama_se": "XGO",
            "sektor": "Sektor Teknologi Informasi dan Komunikasi",
            "tanggal_terbit": "2022-07-06",
            "url_tdpse_detail": "https://pse.komdigi.go.id/tdpse-detail/5108",
            "website": "XGO.co.id"
        },
        {
            "id": "9cb1ab9a-0986-4ac9-af95-db19b7318cd4",
            "nama_pse": "SURYA PUTERA SEJAHTERA",
            "nama_se": "SMILE STORE",
            "sektor": "Sektor Perdagangan",
            "tanggal_terbit": "2022-07-06",
            "url_tdpse_detail": "https://pse.komdigi.go.id/tdpse-detail/5109",
            "website": "smilestore.id"
        },
        {
            "id": "9cb1aba5-02f0-499b-a09f-12b7666a6c40",
            "nama_pse": "VICTORIA SEKURITAS INDONESIA",
            "nama_se": "WEBSITE PT. VICTORIA SEKURITAS INDONESIA",
            "sektor": "Sektor Keuangan",
            "tanggal_terbit": "2022-07-06",
            "url_tdpse_detail": "https://pse.komdigi.go.id/tdpse-detail/5110",
            "website": "victoria-sekuritas.co.id"
        },
        {
            "id": "9cb1ab9a-0dd4-4bb1-9ecd-6a69d814aa1e",
            "nama_pse": "ADIRA DINAMIKA MULTI FINANCE",
            "nama_se": "MOMOTOR.ID",
            "sektor": "Sektor Keuangan",
            "tanggal_terbit": "2022-07-06",
            "url_tdpse_detail": "https://pse.komdigi.go.id/tdpse-detail/5111",
            "website": "momotor.id"
        },
        {
            "id": "9cb1aba5-05ab-403a-a8f0-d1a5db5787a8",
            "nama_pse": "BRI MULTIFINANCE INDONESIA",
            "nama_se": "MY BRIF",
            "sektor": "Sektor Keuangan",
            "tanggal_terbit": "2022-07-06",
            "url_tdpse_detail": "https://pse.komdigi.go.id/tdpse-detail/5114",
            "website": "brifinance.co.id"
        },
        {
            "id": "9cb1abaf-030c-45e5-9a80-d5a5dddd51bc",
            "nama_pse": "ABINARA SOLUSINDO",
            "nama_se": "JOBFAIR VIRTUAL",
            "sektor": "Sektor Teknologi Informasi dan Komunikasi",
            "tanggal_terbit": "2022-07-06",
            "url_tdpse_detail": "https://pse.komdigi.go.id/tdpse-detail/5112",
            "website": "jobfairvirtual.id"
        },
        {
            "id": "9cb1aba5-0ff7-4b83-8b85-d7208e33b213",
            "nama_pse": "CELLULAR OF JOY",
            "nama_se": "CV. CELLULAR OF JOY",
            "sektor": "Sektor Perdagangan",
            "tanggal_terbit": "2022-07-06",
            "url_tdpse_detail": "https://pse.komdigi.go.id/tdpse-detail/5113",
            "website": "-"
        },
        {
            "id": "9cb1aba5-186b-499e-9230-61c46ab1fe1c",
            "nama_pse": "GEOHETRANDS",
            "nama_se": "SISTEM INFORMASI",
            "sektor": "Sektor Transportasi, Sektor Teknologi Informasi dan Komunikasi",
            "tanggal_terbit": "2022-07-06",
            "url_tdpse_detail": "https://pse.komdigi.go.id/tdpse-detail/5115",
            "website": "-"
        },
        {
            "id": "9cb1aba5-1a5a-4004-9ccd-46dbd27567f3",
            "nama_pse": "INDONUSA TELEMEDIA",
            "nama_se": "TRANSVISIONPLUS",
            "sektor": "Sektor Perdagangan",
            "tanggal_terbit": "2022-07-06",
            "url_tdpse_detail": "https://pse.komdigi.go.id/tdpse-detail/5116",
            "website": "transvisionplus.com"
        },
        {
            "id": "9cb1abaf-0540-4a44-82c6-18bb8229d82f",
            "nama_pse": "BULLION ECOSYSTEM INTERNATIONAL",
            "nama_se": "GOLDEX",
            "sektor": "Sektor Perdagangan",
            "tanggal_terbit": "2022-07-06",
            "url_tdpse_detail": "https://pse.komdigi.go.id/tdpse-detail/5117",
            "website": "goldex.icdx.co.id"
        },
        {
            "id": "9cb1ab9a-0fd0-43d3-ace5-2dd8fe921815",
            "nama_pse": "KREDIT PINTAR INDONESIA",
            "nama_se": "KREDIT PINTAR",
            "sektor": "Sektor Keuangan",
            "tanggal_terbit": "2022-07-06",
            "url_tdpse_detail": "https://pse.komdigi.go.id/tdpse-detail/5118",
            "website": "kreditpintar.com"
        },
        {
            "id": "9cb1ab9a-1271-4ae5-bb8d-ae472d830a05",
            "nama_pse": "DUA PULUH EMPAT JAM ONLINE",
            "nama_se": "HTTPS://WWW.UNIPIN.COM/",
            "sektor": "Sektor Perdagangan",
            "tanggal_terbit": "2022-07-06",
            "url_tdpse_detail": "https://pse.komdigi.go.id/tdpse-detail/5119",
            "website": "unipin.com"
        },
        {
            "id": "9cb1ab9a-1a84-4c7d-a4f1-a070c4081419",
            "nama_pse": "MITRA ERA TEKNOLOGI",
            "nama_se": "MOMOFINGO",
            "sektor": "Sektor Teknologi Informasi dan Komunikasi",
            "tanggal_terbit": "2022-07-06",
            "url_tdpse_detail": "https://pse.komdigi.go.id/tdpse-detail/5120",
            "website": "momofingo.com"
        },
        {
            "id": "9cb1aba5-1c86-40c7-802f-8ea8fb8f5790",
            "nama_pse": "AB SINAR MAS MULTIFINANCE",
            "nama_se": "ABSIMASFINANCE.CO.ID",
            "sektor": "Sektor Keuangan",
            "tanggal_terbit": "2022-07-06",
            "url_tdpse_detail": "https://pse.komdigi.go.id/tdpse-detail/5121",
            "website": "absimasfinance.co.id"
        },
        {
            "id": "9cb1ab9a-1ee8-46f0-b647-8c5c3611e7d0",
            "nama_pse": "OMEGA KREASI BERSAMA",
            "nama_se": "VBOTDIGITAL",
            "sektor": "Sektor Perdagangan, Sektor Teknologi Informasi dan Komunikasi",
            "tanggal_terbit": "2022-07-06",
            "url_tdpse_detail": "https://pse.komdigi.go.id/tdpse-detail/5122",
            "website": "vbotdigital.com"
        },
        {
            "id": "9cb1aba5-1f0f-410f-bb25-8eeca48052fa",
            "nama_pse": "MACQUARIE SEKURITAS INDONESIA",
            "nama_se": "FIS TRADING SERVER",
            "sektor": "Sektor Keuangan",
            "tanggal_terbit": "2022-07-06",
            "url_tdpse_detail": "https://pse.komdigi.go.id/tdpse-detail/5124",
            "website": "-"
        },
        {
            "id": "9cb1ab9a-2108-48b1-9b6f-cc60f57290ec",
            "nama_pse": "KELOLA ASET DIGITAL",
            "nama_se": "KOLEKTIBEL.COM",
            "sektor": "Sektor Teknologi Informasi dan Komunikasi",
            "tanggal_terbit": "2022-07-06",
            "url_tdpse_detail": "https://pse.komdigi.go.id/tdpse-detail/5125",
            "website": "kolektibel.com"
        },
        {
            "id": "9cb1abaf-0754-47cc-a545-c0750d7fde56",
            "nama_pse": "PROSPERA ASSET MANAGEMENT",
            "nama_se": "KLIKPROSPERA.COM",
            "sektor": "Sektor Keuangan",
            "tanggal_terbit": "2022-07-06",
            "url_tdpse_detail": "https://pse.komdigi.go.id/tdpse-detail/5134",
            "website": "prosperaasset.com"
        },
        {
            "id": "9cb1ab9a-23e0-4c07-b648-430d40ff7b90",
            "nama_pse": "ASURANSI JIWA CENTRAL ASIA RAYA",
            "nama_se": "EPOS",
            "sektor": "Sektor Keuangan",
            "tanggal_terbit": "2022-07-06",
            "url_tdpse_detail": "https://pse.komdigi.go.id/tdpse-detail/5126",
            "website": "eposv3.car.co.id"
        },
        {
            "id": "9cb1abaf-0926-411a-a2eb-2bc052312191",
            "nama_pse": "BURSA AKSELERASI INDONESIA",
            "nama_se": "INDOFUND.ID",
            "sektor": "Sektor Keuangan",
            "tanggal_terbit": "2022-07-06",
            "url_tdpse_detail": "https://pse.komdigi.go.id/tdpse-detail/5128",
            "website": "indofund.id"
        },
        {
            "id": "9cb1aba5-2172-4704-8273-ded368e8c523",
            "nama_pse": "MINISO INTERNASIONAL COMPANI",
            "nama_se": "MINISO APP",
            "sektor": "Sektor Perdagangan",
            "tanggal_terbit": "2022-07-06",
            "url_tdpse_detail": "https://pse.komdigi.go.id/tdpse-detail/5127",
            "website": "miniso.co.id"
        },
        {
            "id": "9cb1abaf-0af5-4acb-b4f3-fbd8b907b436",
            "nama_pse": "ASURANSI JIWA CENTRAL ASIA RAYA",
            "nama_se": "ECLIS",
            "sektor": "Sektor Keuangan",
            "tanggal_terbit": "2022-07-06",
            "url_tdpse_detail": "https://pse.komdigi.go.id/tdpse-detail/5129",
            "website": "client.car.co.id"
        },
        {
            "id": "9cb1abaf-0ced-4e94-960a-1a8be83d952b",
            "nama_pse": "OMEGA KREASI BERSAMA",
            "nama_se": "V BOT DIGITAL BY PT OMEGA KREASI BERSAMA",
            "sektor": "Sektor Perdagangan, Sektor Teknologi Informasi dan Komunikasi",
            "tanggal_terbit": "2022-07-06",
            "url_tdpse_detail": "https://pse.komdigi.go.id/tdpse-detail/5130",
            "website": "vbotdigital.com"
        },
        {
            "id": "9cb1ab9a-287c-4d9d-a94b-f542e0d4aa12",
            "nama_pse": "MINISO INTERNASIONAL COMPANI",
            "nama_se": "MINISO APPLICATION",
            "sektor": "Sektor Perdagangan",
            "tanggal_terbit": "2022-07-06",
            "url_tdpse_detail": "https://pse.komdigi.go.id/tdpse-detail/5131",
            "website": "miniso.co.id"
        },
        {
            "id": "9cb1ab9a-2ae9-4039-a39f-dec0a809b283",
            "nama_pse": "IZIN DOT COM",
            "nama_se": "PT. TIM LEGAL CORP",
            "sektor": "Sektor Perdagangan",
            "tanggal_terbit": "2022-07-06",
            "url_tdpse_detail": "https://pse.komdigi.go.id/tdpse-detail/5133",
            "website": "jasakulegalitas.com"
        },
        {
            "id": "9cb1aba5-2380-41da-80bf-a363c5b6d9d6",
            "nama_pse": "ANUGERAH SEKURITAS INDONESIA",
            "nama_se": "ASSIST",
            "sektor": "Sektor Keuangan",
            "tanggal_terbit": "2022-07-06",
            "url_tdpse_detail": "https://pse.komdigi.go.id/tdpse-detail/5135",
            "website": "anugerahsekuritas.co.id"
        },
        {
            "id": "9cb1ab9a-2ea6-4d68-a99a-17513d25f92b",
            "nama_pse": "TANAH AIR TEKNOLOGI",
            "nama_se": "SISTEM INFORMASI PENGADAAN DI SEKOLAH",
            "sektor": "Sektor Perdagangan, Sektor Teknologi Informasi dan Komunikasi",
            "tanggal_terbit": "2022-07-06",
            "url_tdpse_detail": "https://pse.komdigi.go.id/tdpse-detail/5136",
            "website": "siplah.kemdikbud.go.id"
        },
        {
            "id": "9cb1ab9a-30e5-400a-a4f7-b795953b6379",
            "nama_pse": "RELABS NET DAYACIPTA",
            "nama_se": "PT RELABS NET DAYACIPTA",
            "sektor": "Sektor Teknologi Informasi dan Komunikasi",
            "tanggal_terbit": "2022-07-06",
            "url_tdpse_detail": "https://pse.komdigi.go.id/tdpse-detail/5137",
            "website": "relabs.id"
        },
        {
            "id": "9cb1ab9a-32e2-4a2a-89b7-17269b7bbc02",
            "nama_pse": "BURSA INTERAKTIF GEMILANG",
            "nama_se": "BRAMBANG",
            "sektor": "Sektor Perdagangan",
            "tanggal_terbit": "2022-07-06",
            "url_tdpse_detail": "https://pse.komdigi.go.id/tdpse-detail/5138",
            "website": "brambang.com"
        }
    ],
    "processingTimeMs": 4,
    "query": "",
    "totalHits": 19131,
    "hitsPerPage": 50,
    "page": 291,
    "totalPages": 383
}