{
    "hits": [
        {
            "id": "9cb1ac50-8fef-45e9-95c5-be79895c82e6",
            "nama_pse": "MUHAMMAD AJI PANGESTU",
            "nama_se": "EAMPLANG (SINARTERANG)",
            "sektor": "Sektor Perdagangan, Sektor Teknologi Informasi dan Komunikasi",
            "tanggal_terbit": "2023-12-02",
            "url_tdpse_detail": "https://pse.komdigi.go.id/tdpse-detail/16734",
            "website": "sinarterang.minat.store"
        },
        {
            "id": "9cb1ac62-ba24-4529-8cbc-dee5bdded413",
            "nama_pse": "POLISEA TECHNOLOGY INDONESIA",
            "nama_se": "POLICYSTREET",
            "sektor": "Sektor Teknologi Informasi dan Komunikasi",
            "tanggal_terbit": "2023-12-01",
            "url_tdpse_detail": "https://pse.komdigi.go.id/tdpse-detail/16721",
            "website": "policystreet.co.id"
        },
        {
            "id": "9cb1ac77-9649-4a76-96f8-32f5e3324ef9",
            "nama_pse": "BIMA JAYA",
            "nama_se": "B-SMART CLOUD",
            "sektor": "Sektor Teknologi Informasi dan Komunikasi",
            "tanggal_terbit": "2023-12-01",
            "url_tdpse_detail": "https://pse.komdigi.go.id/tdpse-detail/16717",
            "website": "bimajaya.co.id"
        },
        {
            "id": "9cb1ac50-6802-4c7c-9fec-7189b5d5d642",
            "nama_pse": "RSUD PATUT PATUH PATJU",
            "nama_se": "SIMRS RSUD TRIPAT GERUNG",
            "sektor": "Sektor Kesehatan, Sektor Teknologi Informasi dan Komunikasi",
            "tanggal_terbit": "2023-12-01",
            "url_tdpse_detail": "https://pse.komdigi.go.id/tdpse-detail/16718",
            "website": "rsudtripat.lombokbaratkab.go.id"
        },
        {
            "id": "9cb1ac77-9916-486c-aba2-469a05f98e25",
            "nama_pse": "PERSEK. PPMT BANK MATA INDONESIA",
            "nama_se": "SIRSAINUNHABIBIE",
            "sektor": "Sektor Kesehatan",
            "tanggal_terbit": "2023-12-01",
            "url_tdpse_detail": "https://pse.komdigi.go.id/tdpse-detail/16719",
            "website": "-"
        },
        {
            "id": "9cb1ac50-823c-4969-9b6f-90d06aa8d510",
            "nama_pse": "STOPIRA RICAMBI",
            "nama_se": "DESTINY APPLICATION",
            "sektor": "Sektor Kesehatan",
            "tanggal_terbit": "2023-12-01",
            "url_tdpse_detail": "https://pse.komdigi.go.id/tdpse-detail/16722",
            "website": "-"
        },
        {
            "id": "9cb1ac63-e9d9-4413-a830-012c103e6cac",
            "nama_pse": "KRISTEN UNTUK KESEHATAN UMUM",
            "nama_se": "SIM RS PANTI WILASA CITARUM",
            "sektor": "Sektor Kesehatan",
            "tanggal_terbit": "2023-12-01",
            "url_tdpse_detail": "https://pse.komdigi.go.id/tdpse-detail/16723",
            "website": "daftar.pantiwilasa-citarum.co.id"
        },
        {
            "id": "9cb1ac77-9d63-4387-824e-f912968510fe",
            "nama_pse": "SIAP INTEGRASI",
            "nama_se": "SIAPSOFT - DATABASE SOLUTION",
            "sektor": "Sektor Teknologi Informasi dan Komunikasi",
            "tanggal_terbit": "2023-12-01",
            "url_tdpse_detail": "https://pse.komdigi.go.id/tdpse-detail/16724",
            "website": "-"
        },
        {
            "id": "9cb1ac50-862f-47ea-8bba-3972d78dcee7",
            "nama_pse": "WARUNG PULSA INDONESIA",
            "nama_se": "WARUNG PULSA",
            "sektor": "Sektor Perdagangan",
            "tanggal_terbit": "2023-12-01",
            "url_tdpse_detail": "https://pse.komdigi.go.id/tdpse-detail/16725",
            "website": "-"
        },
        {
            "id": "9cb1ac50-89ab-4785-888a-c2726cbcb1ab",
            "nama_pse": "ISKANDAR A KOWARA",
            "nama_se": "AKAR",
            "sektor": "Sektor Kesehatan",
            "tanggal_terbit": "2023-12-01",
            "url_tdpse_detail": "https://pse.komdigi.go.id/tdpse-detail/16726",
            "website": "-"
        },
        {
            "id": "9cb1ac77-a941-4a1a-98ea-35e1816d28ed",
            "nama_pse": "RAJAWALI TUNGGAL ABADI",
            "nama_se": "SERTIFIKASI ISO",
            "sektor": "Sektor Perdagangan, Sektor Teknologi Informasi dan Komunikasi",
            "tanggal_terbit": "2023-12-01",
            "url_tdpse_detail": "https://pse.komdigi.go.id/tdpse-detail/16727",
            "website": "rmicertification.co.id"
        },
        {
            "id": "9cb1ac63-f074-4417-b3f8-f604a6bd2efa",
            "nama_pse": "NARASI JAYA SEJAHTERA",
            "nama_se": "NARASIKALTENG.COM",
            "sektor": "Sektor Teknologi Informasi dan Komunikasi",
            "tanggal_terbit": "2023-12-01",
            "url_tdpse_detail": "https://pse.komdigi.go.id/tdpse-detail/16728",
            "website": "narasikalteng.com"
        },
        {
            "id": "9cb1ac77-ad30-432f-bf81-0ab338da4fa7",
            "nama_pse": "DIMENSI TEKNOLOGI INFORMATIKA",
            "nama_se": "APLIKASI MEDICLINK - INTEGRASI PELAYANAN SEHAT DAN SAKIT MENJADI KESATUAN",
            "sektor": "Sektor Kesehatan",
            "tanggal_terbit": "2023-12-01",
            "url_tdpse_detail": "https://pse.komdigi.go.id/tdpse-detail/16729",
            "website": "mediclink.dimensitekno.id"
        },
        {
            "id": "9cb1ac50-8cd4-41c3-9866-396add144829",
            "nama_pse": "PROTIGAMAS DANA DYAKSA",
            "nama_se": "PROTIGAMAS PI TRADE CENTER",
            "sektor": "Sektor Perdagangan",
            "tanggal_terbit": "2023-12-01",
            "url_tdpse_detail": "https://pse.komdigi.go.id/tdpse-detail/16730",
            "website": "-"
        },
        {
            "id": "9cb1ac63-f38e-48a1-aacc-6114351c7f59",
            "nama_pse": "EMANUEL",
            "nama_se": "JASA LAYANAN INTERNET LOKAL ( RT/ RW NET )",
            "sektor": "Sektor Teknologi Informasi dan Komunikasi",
            "tanggal_terbit": "2023-12-01",
            "url_tdpse_detail": "https://pse.komdigi.go.id/tdpse-detail/16731",
            "website": "cafelinet.my.id"
        },
        {
            "id": "9cb1ac62-0a89-49d7-a15b-e579c8912881",
            "nama_pse": "HANWHA LIFE INSURANCE INDONESIA",
            "nama_se": "ORANGETOPIA",
            "sektor": "Sektor Keuangan",
            "tanggal_terbit": "2023-11-30",
            "url_tdpse_detail": "https://pse.komdigi.go.id/tdpse-detail/16699",
            "website": "-"
        },
        {
            "id": "9cb1ac50-415c-4a85-87e9-092acb0d41d8",
            "nama_pse": "AGRODANA FUTURES",
            "nama_se": "WEBSITE RESMI PT AGRODANA FUTURES",
            "sektor": "Sektor Keuangan",
            "tanggal_terbit": "2023-11-30",
            "url_tdpse_detail": "https://pse.komdigi.go.id/tdpse-detail/16700",
            "website": "agrodana-futures.com"
        },
        {
            "id": "9cb1ac50-44f9-43b0-9ab2-ad28e5569d2e",
            "nama_pse": "USANA HEALTH SCIENCES INDONESIA",
            "nama_se": "USANA WEBSITE",
            "sektor": "Sektor Perdagangan",
            "tanggal_terbit": "2023-11-30",
            "url_tdpse_detail": "https://pse.komdigi.go.id/tdpse-detail/16707",
            "website": "USANA.COM"
        },
        {
            "id": "9cb1ac63-d8e7-479a-8ac1-c442c099b906",
            "nama_pse": "LISTRIK SENTRAL SELURUH INDONESIA",
            "nama_se": "LISENSI",
            "sektor": "Sektor Teknologi Informasi dan Komunikasi",
            "tanggal_terbit": "2023-11-30",
            "url_tdpse_detail": "https://pse.komdigi.go.id/tdpse-detail/16696",
            "website": "lisensi.co.id"
        },
        {
            "id": "9cb1ac50-4862-4fed-a2fe-f2d7bd7e0ddf",
            "nama_pse": "BIDS INOVASI PRODIGITAL",
            "nama_se": "AYORENANG.ID",
            "sektor": "Sektor Teknologi Informasi dan Komunikasi",
            "tanggal_terbit": "2023-11-30",
            "url_tdpse_detail": "https://pse.komdigi.go.id/tdpse-detail/16697",
            "website": "ayorenang.id"
        },
        {
            "id": "9cb1ac77-7dc5-458f-961a-f4b6a5525064",
            "nama_pse": "INTI JASA KREATIF",
            "nama_se": "INTI JASA KREATIF",
            "sektor": "Sektor Perdagangan",
            "tanggal_terbit": "2023-11-30",
            "url_tdpse_detail": "https://pse.komdigi.go.id/tdpse-detail/16698",
            "website": "intijasakreatif.com"
        },
        {
            "id": "9cb1ac50-4b70-4c5a-be6b-8707421babb7",
            "nama_pse": "DIGITAL SOLUSI BERJAYA",
            "nama_se": "WEBSITE",
            "sektor": "Sektor Perdagangan",
            "tanggal_terbit": "2023-11-30",
            "url_tdpse_detail": "https://pse.komdigi.go.id/tdpse-detail/16701",
            "website": "-"
        },
        {
            "id": "9cb1ac50-4e32-4b6d-a31a-ebfce7a35134",
            "nama_pse": "YAYASAN AL IRSYAD AL ISLAMIYYAH",
            "nama_se": "SIMRS RS SITI KHODIJAH",
            "sektor": "Sektor Kesehatan",
            "tanggal_terbit": "2023-11-30",
            "url_tdpse_detail": "https://pse.komdigi.go.id/tdpse-detail/16702",
            "website": "-"
        },
        {
            "id": "9cb1ac77-84fe-443d-a352-211d2de237e1",
            "nama_pse": "RUMKIT TK.II DUSTIRA KESDAM III/SLW MARKAS BESAR TNI AD KEMENTERIAN",
            "nama_se": "D'TIRA REKAM MEDIS ELEKTRONIK",
            "sektor": "Sektor Kesehatan",
            "tanggal_terbit": "2023-11-30",
            "url_tdpse_detail": "https://pse.komdigi.go.id/tdpse-detail/16703",
            "website": "-"
        },
        {
            "id": "9cb1ac77-8801-4dd8-8af9-1cf15056d5b5",
            "nama_pse": "SATYA DHARMA KARDIA",
            "nama_se": "JHC-HIS",
            "sektor": "Sektor Kesehatan, Sektor Teknologi Informasi dan Komunikasi",
            "tanggal_terbit": "2023-11-30",
            "url_tdpse_detail": "https://pse.komdigi.go.id/tdpse-detail/16704",
            "website": "jakartaheartcenter.com"
        },
        {
            "id": "9cb1ac50-517c-4c76-937b-49da317a5d61",
            "nama_pse": "BHAKTI MITRA SOLUTIONS",
            "nama_se": "OTOMEDI",
            "sektor": "Sektor Kesehatan",
            "tanggal_terbit": "2023-11-30",
            "url_tdpse_detail": "https://pse.komdigi.go.id/tdpse-detail/16705",
            "website": "otomedi.com"
        },
        {
            "id": "9cb1ac77-8b95-4083-9056-b94db187c4ab",
            "nama_pse": "AIRIN INTEGRASI SOLUSI",
            "nama_se": "AIRIN",
            "sektor": "Sektor Transportasi",
            "tanggal_terbit": "2023-11-30",
            "url_tdpse_detail": "https://pse.komdigi.go.id/tdpse-detail/16706",
            "website": "airin.id"
        },
        {
            "id": "9cb1ac63-dc08-479c-8f3a-f1599737691c",
            "nama_pse": "KLINIK UTAMA SAPTO ARGO",
            "nama_se": "KLINIK SAPTO ARGO",
            "sektor": "Sektor Kesehatan",
            "tanggal_terbit": "2023-11-30",
            "url_tdpse_detail": "https://pse.komdigi.go.id/tdpse-detail/16708",
            "website": "saptoargo.id"
        },
        {
            "id": "9cb1ac50-549b-4b40-9a32-3fe1267eb2f4",
            "nama_pse": "REVATA JAYA PROMOSINDO",
            "nama_se": "WWW.INFOTOURNEY.COM",
            "sektor": "Sektor Teknologi Informasi dan Komunikasi",
            "tanggal_terbit": "2023-11-30",
            "url_tdpse_detail": "https://pse.komdigi.go.id/tdpse-detail/16709",
            "website": "INFOTOURNEY.COM"
        },
        {
            "id": "9cb1ac63-df1a-4e90-8867-7eb6daa1dbf4",
            "nama_pse": "RUMAHWEB INDONESIA",
            "nama_se": "MEDICHUB",
            "sektor": "Sektor Kesehatan",
            "tanggal_terbit": "2023-11-30",
            "url_tdpse_detail": "https://pse.komdigi.go.id/tdpse-detail/16710",
            "website": "MEDICHUB.ID"
        },
        {
            "id": "9cb1ac50-5772-4bb3-aade-74ce723227d9",
            "nama_pse": "MULTIMEDIA NUSANTARA",
            "nama_se": "E-PROCUREMENT METRA GROUP",
            "sektor": "Sektor Teknologi Informasi dan Komunikasi",
            "tanggal_terbit": "2023-11-30",
            "url_tdpse_detail": "https://pse.komdigi.go.id/tdpse-detail/16711",
            "website": "e-proc.metragroup.co.id"
        },
        {
            "id": "9cb1ac50-5a4b-455f-8d29-5cf2136c4b2b",
            "nama_pse": "OKI WAHYU HANDOKO",
            "nama_se": "CDENTAL SOFTWARE",
            "sektor": "Sektor Teknologi Informasi dan Komunikasi",
            "tanggal_terbit": "2023-11-30",
            "url_tdpse_detail": "https://pse.komdigi.go.id/tdpse-detail/16712",
            "website": "-"
        },
        {
            "id": "9cb1ac63-e1b2-454f-bf8e-e1c17d1ae87b",
            "nama_pse": "MULTIMEDIA NUSANTARA",
            "nama_se": "EMETRA",
            "sektor": "Sektor Teknologi Informasi dan Komunikasi",
            "tanggal_terbit": "2023-11-30",
            "url_tdpse_detail": "https://pse.komdigi.go.id/tdpse-detail/16713",
            "website": "emeterai.digitax.co.id"
        },
        {
            "id": "9cb1ac63-e43c-4a8d-80cd-97c9de5b7c1f",
            "nama_pse": "DJAVACA SELARAS BERJAYA",
            "nama_se": "SIRSAINUN",
            "sektor": "Sektor Kesehatan",
            "tanggal_terbit": "2023-11-30",
            "url_tdpse_detail": "https://pse.komdigi.go.id/tdpse-detail/16714",
            "website": "-"
        },
        {
            "id": "9cb1ac50-5f42-45c5-8334-4103684e8646",
            "nama_pse": "VENUS MEDIA TEKNOLOGI",
            "nama_se": "SISTEM INFORMASI MANAJEMEN RUMAH SAKIT IMEDIS",
            "sektor": "Sektor Kesehatan, Sektor Teknologi Informasi dan Komunikasi",
            "tanggal_terbit": "2023-11-30",
            "url_tdpse_detail": "https://pse.komdigi.go.id/tdpse-detail/16715",
            "website": "imedis.co.id"
        },
        {
            "id": "9cb1ac63-9a25-4234-ac3b-b48e0fc0b529",
            "nama_pse": "RUMAH SAKIT ISLAM SURABAYA",
            "nama_se": "SIMRS (RSI NYAI AGENG PINATIH)",
            "sektor": "Sektor Teknologi Informasi dan Komunikasi",
            "tanggal_terbit": "2023-11-29",
            "url_tdpse_detail": "https://pse.komdigi.go.id/tdpse-detail/16671",
            "website": "rsinyaiagengpinatih.com"
        },
        {
            "id": "9cb1ac50-3012-4e93-8f1b-3aa28546423c",
            "nama_pse": "BENGKEL APLIKASI NUSANTARA",
            "nama_se": "BPAY",
            "sektor": "Sektor Perdagangan",
            "tanggal_terbit": "2023-11-29",
            "url_tdpse_detail": "https://pse.komdigi.go.id/tdpse-detail/16669",
            "website": "bapli-pay.net"
        },
        {
            "id": "9cb1ac63-ad81-4b35-bf44-229d311b741a",
            "nama_pse": "HASNA MEDIKA BHAKTI BANDUNG",
            "nama_se": "HAMIS BANDUNG",
            "sektor": "Sektor Kesehatan",
            "tanggal_terbit": "2023-11-29",
            "url_tdpse_detail": "https://pse.komdigi.go.id/tdpse-detail/16673",
            "website": "-"
        },
        {
            "id": "9cb1ac77-5afa-4567-8bae-376318a30fa8",
            "nama_pse": "BERKAT HARMONI TEKNOLOGI",
            "nama_se": "ASRI",
            "sektor": "Sektor Kesehatan",
            "tanggal_terbit": "2023-11-29",
            "url_tdpse_detail": "https://pse.komdigi.go.id/tdpse-detail/16670",
            "website": "-"
        },
        {
            "id": "9cb1ac77-5d93-4245-9ea5-2f5d5d9d632b",
            "nama_pse": "HASNA MEDIKA BHAKTI GARUT",
            "nama_se": "HAMIS GARUT",
            "sektor": "Sektor Kesehatan",
            "tanggal_terbit": "2023-11-29",
            "url_tdpse_detail": "https://pse.komdigi.go.id/tdpse-detail/16676",
            "website": "-"
        },
        {
            "id": "9cb1ac77-605b-4900-9860-9db95fa4be23",
            "nama_pse": "MEBISO EKOSISTEM RAIH KESUKSESAN",
            "nama_se": "MEBISO.COM",
            "sektor": "Sektor Perdagangan, Sektor Teknologi Informasi dan Komunikasi",
            "tanggal_terbit": "2023-11-29",
            "url_tdpse_detail": "https://pse.komdigi.go.id/tdpse-detail/16672",
            "website": "MEBISO.COM"
        },
        {
            "id": "9cb1ac63-b11f-4f6d-a79b-6af77cd30550",
            "nama_pse": "BENGKEL APLIKASI NUSANTARA",
            "nama_se": "SIMAKDIS",
            "sektor": "Sektor Teknologi Informasi dan Komunikasi",
            "tanggal_terbit": "2023-11-29",
            "url_tdpse_detail": "https://pse.komdigi.go.id/tdpse-detail/16674",
            "website": "simakdis.id"
        },
        {
            "id": "9cb1ac50-3345-475b-acd1-f7c7d4bd9417",
            "nama_pse": "JANTUNG SEHAT MADYOPURO",
            "nama_se": "HAMIS MALANG",
            "sektor": "Sektor Kesehatan",
            "tanggal_terbit": "2023-11-29",
            "url_tdpse_detail": "https://pse.komdigi.go.id/tdpse-detail/16675",
            "website": "-"
        },
        {
            "id": "9cb1ac63-b50f-4778-9fb7-7365682fa0f4",
            "nama_pse": "BENGKEL APLIKASI NUSANTARA",
            "nama_se": "HIJRAH CORE BANKING",
            "sektor": "Sektor Teknologi Informasi dan Komunikasi",
            "tanggal_terbit": "2023-11-29",
            "url_tdpse_detail": "https://pse.komdigi.go.id/tdpse-detail/16677",
            "website": "hijrah.tech"
        },
        {
            "id": "9cb1ac63-c067-4540-8e94-646447787063",
            "nama_pse": "WIFKAIN TEKNOLOGI INDONESIA",
            "nama_se": "WIFKAIN",
            "sektor": "Sektor Perdagangan, Sektor Teknologi Informasi dan Komunikasi",
            "tanggal_terbit": "2023-11-29",
            "url_tdpse_detail": "https://pse.komdigi.go.id/tdpse-detail/16684",
            "website": "wifkain.co.id"
        },
        {
            "id": "9cb1ac50-368a-47b7-b211-f157a8a81783",
            "nama_pse": "HASNA MEDIKA CIANJUR",
            "nama_se": "HAMIS CIANJUR",
            "sektor": "Sektor Kesehatan",
            "tanggal_terbit": "2023-11-29",
            "url_tdpse_detail": "https://pse.komdigi.go.id/tdpse-detail/16679",
            "website": "-"
        },
        {
            "id": "9cb1ac50-3abc-4534-81de-6016368e13bd",
            "nama_pse": "BENGKEL APLIKASI NUSANTARA",
            "nama_se": "DIGITREN",
            "sektor": "Sektor Teknologi Informasi dan Komunikasi",
            "tanggal_terbit": "2023-11-29",
            "url_tdpse_detail": "https://pse.komdigi.go.id/tdpse-detail/16678",
            "website": "-"
        },
        {
            "id": "9cb1ac50-3e57-49fb-8eac-30859449c7f9",
            "nama_pse": "ERRY DEWANTO CERIA",
            "nama_se": "ESYST EDC",
            "sektor": "Sektor Kesehatan",
            "tanggal_terbit": "2023-11-29",
            "url_tdpse_detail": "https://pse.komdigi.go.id/tdpse-detail/16680",
            "website": "-"
        },
        {
            "id": "9cb1ac63-c4b8-48de-8ab4-007742d0707d",
            "nama_pse": "ALVI DIGITAL SOLUTIONS",
            "nama_se": "SIMPEL",
            "sektor": "Sektor Kesehatan, Sektor Teknologi Informasi dan Komunikasi",
            "tanggal_terbit": "2023-11-29",
            "url_tdpse_detail": "https://pse.komdigi.go.id/tdpse-detail/16681",
            "website": "simpelon.id"
        },
        {
            "id": "9cb1ac77-67d2-44dd-812f-f7efae3dc377",
            "nama_pse": "HASNA MEDIKA BAKTI MAJALENGKA",
            "nama_se": "HAMIS MAJALENGKA",
            "sektor": "Sektor Kesehatan",
            "tanggal_terbit": "2023-11-29",
            "url_tdpse_detail": "https://pse.komdigi.go.id/tdpse-detail/16683",
            "website": "-"
        }
    ],
    "processingTimeMs": 3,
    "query": "",
    "totalHits": 19121,
    "hitsPerPage": 50,
    "page": 105,
    "totalPages": 383
}