{
    "hits": [
        {
            "id": "9cfae8b1-a1ce-4471-b5c6-c496f486d87e",
            "nama_pse": "IMTIYAZ RIHLAH WISATA",
            "nama_se": "IMTIYAZ UMRAH",
            "sektor": "Sektor Teknologi Informasi dan Komunikasi",
            "tanggal_terbit": "2024-09-11",
            "url_tdpse_detail": "https://pse.komdigi.go.id/tdpse-detail/20335",
            "website": "imtiyazumrah.com"
        },
        {
            "id": "9ced6014-84f9-406d-b793-b47a182c3648",
            "nama_pse": "PERUSAHAAN PERSEROAN (PERSERO) PT. TELEKOMUNIKASI INDONESIA",
            "nama_se": "SATUNADI HIX",
            "sektor": "Sektor Teknologi Informasi dan Komunikasi",
            "tanggal_terbit": "2024-09-11",
            "url_tdpse_detail": "https://pse.komdigi.go.id/tdpse-detail/20348",
            "website": "hix.satunadi.id"
        },
        {
            "id": "9cfc3fcc-fef8-4f28-af40-9e8825361cd2",
            "nama_pse": "RINDI NURIS VELAROSDELA",
            "nama_se": "BERITAKOREA.ID",
            "sektor": "Sektor Teknologi Informasi dan Komunikasi",
            "tanggal_terbit": "2024-09-11",
            "url_tdpse_detail": "https://pse.komdigi.go.id/tdpse-detail/20352",
            "website": "-"
        },
        {
            "id": "9cb3bdde-cce9-416d-83ed-d0c01b7803cf",
            "nama_pse": "CERAH TEKNOLOGI BERSAMA",
            "nama_se": "TOPUPLEGEND",
            "sektor": "Sektor Perdagangan",
            "tanggal_terbit": "2024-09-11",
            "url_tdpse_detail": "https://pse.komdigi.go.id/tdpse-detail/20350",
            "website": "topuplegend.com"
        },
        {
            "id": "9cfaf20a-67e6-4380-bb75-fe9f90626f57",
            "nama_pse": "ANUGERAH BERSAMA TEKNOLOGI",
            "nama_se": "OPET",
            "sektor": "Sektor Teknologi Informasi dan Komunikasi",
            "tanggal_terbit": "2024-09-11",
            "url_tdpse_detail": "https://pse.komdigi.go.id/tdpse-detail/20336",
            "website": "-"
        },
        {
            "id": "9cfb4b1c-4da7-46e7-97fb-550c6c63a693",
            "nama_pse": "RESERVASI MULTI TEKNOLOGI",
            "nama_se": "ADDTIX.ID",
            "sektor": "Sektor Teknologi Informasi dan Komunikasi",
            "tanggal_terbit": "2024-09-11",
            "url_tdpse_detail": "https://pse.komdigi.go.id/tdpse-detail/20338",
            "website": "addtix.id"
        },
        {
            "id": "9cfb6411-e565-4b34-8285-3a4bad5b3fde",
            "nama_pse": "RADIO BOSS KARYA MANDIRI",
            "nama_se": "RADIO BOSS",
            "sektor": "Sektor Teknologi Informasi dan Komunikasi",
            "tanggal_terbit": "2024-09-11",
            "url_tdpse_detail": "https://pse.komdigi.go.id/tdpse-detail/20344",
            "website": "radiobossfm.com"
        },
        {
            "id": "9cfb6448-2c6e-4699-bb15-8c5f2ed96ed8",
            "nama_pse": "SATRIA KENCANA MEDIKA",
            "nama_se": "emedic.id",
            "sektor": "Sektor Kesehatan",
            "tanggal_terbit": "2024-09-11",
            "url_tdpse_detail": "https://pse.komdigi.go.id/tdpse-detail/20345",
            "website": "emedic.id"
        },
        {
            "id": "9cfb685f-18e0-499f-9dca-de504a180e36",
            "nama_pse": "GOOD DOCTOR TECHNOLOGY INDONESIA",
            "nama_se": "APLIKASI GOOD DOCTOR",
            "sektor": "Sektor Kesehatan, Sektor Teknologi Informasi dan Komunikasi",
            "tanggal_terbit": "2024-09-11",
            "url_tdpse_detail": "https://pse.komdigi.go.id/tdpse-detail/20346",
            "website": "-"
        },
        {
            "id": "9cfb8712-9553-4eee-ac52-dc35300b7760",
            "nama_pse": "INTAN SOLUSI NUSANTARA",
            "nama_se": "GP PAYMENT",
            "sektor": "Sektor Perdagangan",
            "tanggal_terbit": "2024-09-11",
            "url_tdpse_detail": "https://pse.komdigi.go.id/tdpse-detail/20347",
            "website": "garutprospectindonesia.com"
        },
        {
            "id": "9cfbc150-2dc5-4556-afd8-2887d22923c1",
            "nama_pse": "ANTACIO TABALIEN JAYA",
            "nama_se": "TABALIEN.COM",
            "sektor": "Sektor Teknologi Informasi dan Komunikasi",
            "tanggal_terbit": "2024-09-11",
            "url_tdpse_detail": "https://pse.komdigi.go.id/tdpse-detail/20351",
            "website": "tabalien.com"
        },
        {
            "id": "9cfb5166-291c-40cd-bcb5-6bf730da9cda",
            "nama_pse": "SIYU SOFTWARE TECHNOLOGY INDONESIA",
            "nama_se": "PT SIYU SOFTWARE TECHNOLOGY INDONESIA",
            "sektor": "Sektor Perdagangan",
            "tanggal_terbit": "2024-09-11",
            "url_tdpse_detail": "https://pse.komdigi.go.id/tdpse-detail/20339",
            "website": "-"
        },
        {
            "id": "9cfb2921-78c4-4ae8-9447-df99ce44f97d",
            "nama_pse": "MITRA BERKAH GLOBALINDO",
            "nama_se": "ONECARE",
            "sektor": "Sektor Kesehatan, Sektor Teknologi Informasi dan Komunikasi",
            "tanggal_terbit": "2024-09-11",
            "url_tdpse_detail": "https://pse.komdigi.go.id/tdpse-detail/20337",
            "website": "mitraberkah.id"
        },
        {
            "id": "9cf8f85c-bb79-4184-8976-160fe15a904a",
            "nama_pse": "PRISMALINK INTERNATIONAL",
            "nama_se": "PT PRISMALINK INTERNATIONAL",
            "sektor": "Sektor Keuangan",
            "tanggal_terbit": "2024-09-10",
            "url_tdpse_detail": "https://pse.komdigi.go.id/tdpse-detail/20313",
            "website": "dashboard.plink.co.id"
        },
        {
            "id": "9cf8f922-b7e6-4acf-b975-53b40352b7c3",
            "nama_pse": "PENYELESAIAN TRANSAKSI ELEKTRONIK NASIONAL",
            "nama_se": "WEB CORPORATE HTTPS://PTEN-INDONESIA.CO.ID",
            "sektor": "Sektor Keuangan",
            "tanggal_terbit": "2024-09-10",
            "url_tdpse_detail": "https://pse.komdigi.go.id/tdpse-detail/20314",
            "website": "pten-indonesia.co.id"
        },
        {
            "id": "9cf8f80c-cf79-40e6-a9f7-34fadfe9abb3",
            "nama_pse": "KUSTODIAN KOIN INDONESIA",
            "nama_se": "SISTEM PELAPORAN TRANSAKSI ICC (EREPORTING)",
            "sektor": "Sektor Keuangan",
            "tanggal_terbit": "2024-09-10",
            "url_tdpse_detail": "https://pse.komdigi.go.id/tdpse-detail/20312",
            "website": "coincustodian.id"
        },
        {
            "id": "9cf93497-e62d-4f86-9fda-76549d8357a9",
            "nama_pse": "LEGAL TEKNOLOGI BANGSA",
            "nama_se": "LEGAL PLUS",
            "sektor": "Sektor Teknologi Informasi dan Komunikasi",
            "tanggal_terbit": "2024-09-10",
            "url_tdpse_detail": "https://pse.komdigi.go.id/tdpse-detail/20319",
            "website": "legalplus.co.id"
        },
        {
            "id": "9cf8fae2-f553-4101-af97-21028ecbb9a2",
            "nama_pse": "PENYELESAIAN TRANSAKSI ELEKTRONIK NASIONAL",
            "nama_se": "WEB SAM PORTAL PTEN",
            "sektor": "Sektor Keuangan",
            "tanggal_terbit": "2024-09-10",
            "url_tdpse_detail": "https://pse.komdigi.go.id/tdpse-detail/20316",
            "website": "samportal.pten-indonesia.co.id"
        },
        {
            "id": "9cf85608-66d1-4e7e-96be-e7fa27bf35a2",
            "nama_pse": "BERKAH JENIUS KREATIF",
            "nama_se": "BJKREATIF",
            "sektor": "Sektor Teknologi Informasi dan Komunikasi",
            "tanggal_terbit": "2024-09-10",
            "url_tdpse_detail": "https://pse.komdigi.go.id/tdpse-detail/20311",
            "website": "bjkreatif.co.id"
        },
        {
            "id": "9cf91c9c-ae35-4b4c-9f5f-3b9c2805546d",
            "nama_pse": "BILI GRIM",
            "nama_se": "SILPAY",
            "sektor": "Sektor Perdagangan",
            "tanggal_terbit": "2024-09-10",
            "url_tdpse_detail": "https://pse.komdigi.go.id/tdpse-detail/20318",
            "website": "silpay.my.id"
        },
        {
            "id": "9cf91907-805f-4610-af66-b816bb4e4cab",
            "nama_pse": "BERNIAGA BERKAH BERSAMA",
            "nama_se": "BERKANIAGA",
            "sektor": "Sektor Perdagangan",
            "tanggal_terbit": "2024-09-10",
            "url_tdpse_detail": "https://pse.komdigi.go.id/tdpse-detail/20317",
            "website": "berkaniaga.id"
        },
        {
            "id": "9cf9b298-194c-4bb0-aad5-84ad3d47ba98",
            "nama_pse": "SUTAN INDO ANEKA MOBIL",
            "nama_se": "TOYOTA SUTAN",
            "sektor": "Sektor Perdagangan",
            "tanggal_terbit": "2024-09-10",
            "url_tdpse_detail": "https://pse.komdigi.go.id/tdpse-detail/20333",
            "website": "toyotasutan.com"
        },
        {
            "id": "9cf9396c-fac7-47fd-bc72-bfbf6a4be6c1",
            "nama_pse": "SELALU CUAN BERSAMA",
            "nama_se": "HYPAY",
            "sektor": "Sektor Teknologi Informasi dan Komunikasi",
            "tanggal_terbit": "2024-09-10",
            "url_tdpse_detail": "https://pse.komdigi.go.id/tdpse-detail/20320",
            "website": "paypob.id"
        },
        {
            "id": "9cf93e8b-77e8-499b-be4a-989e7582b64d",
            "nama_pse": "INDORAYA SEHATI REMITTANCE",
            "nama_se": "DOITPAY",
            "sektor": "Sektor Perdagangan",
            "tanggal_terbit": "2024-09-10",
            "url_tdpse_detail": "https://pse.komdigi.go.id/tdpse-detail/20321",
            "website": "-"
        },
        {
            "id": "9cf95583-3480-48d0-b1ca-d9be8ac234fb",
            "nama_pse": "GRAHA IMARAH PERSADA",
            "nama_se": "PERSADAEKSPRES",
            "sektor": "Sektor Teknologi Informasi dan Komunikasi",
            "tanggal_terbit": "2024-09-10",
            "url_tdpse_detail": "https://pse.komdigi.go.id/tdpse-detail/20322",
            "website": "persadaekspres.com"
        },
        {
            "id": "9cf9611c-4c6e-40bb-bdfe-89d1312cb778",
            "nama_pse": "CIPTA BAHAGIA SEJAHTERA",
            "nama_se": "HYPAY",
            "sektor": "Sektor Teknologi Informasi dan Komunikasi",
            "tanggal_terbit": "2024-09-10",
            "url_tdpse_detail": "https://pse.komdigi.go.id/tdpse-detail/20323",
            "website": "24pay.id"
        },
        {
            "id": "9cf98bfc-f258-4d6a-b49d-8c313dbb4bf3",
            "nama_pse": "REFORMASI UANG PEMBAYARAN INDONESIA",
            "nama_se": "RUPICASH",
            "sektor": "Sektor Keuangan",
            "tanggal_terbit": "2024-09-10",
            "url_tdpse_detail": "https://pse.komdigi.go.id/tdpse-detail/20326",
            "website": "rupi.id"
        },
        {
            "id": "9cf972dc-eb93-4407-bdd9-7cc1022ac385",
            "nama_pse": "MEDIA CIPTA INFORMASI",
            "nama_se": "LABORATORIUMINFORMASIMANAJEMENSISTEM",
            "sektor": "Sektor Kesehatan",
            "tanggal_terbit": "2024-09-10",
            "url_tdpse_detail": "https://pse.komdigi.go.id/tdpse-detail/20324",
            "website": "wgs.kemkes.go.id"
        },
        {
            "id": "9cf97eab-78d6-48e2-9f5d-2c5a8a43fe10",
            "nama_pse": "SARANA PERFORMA SEJAHTERA",
            "nama_se": "SPARKPAY",
            "sektor": "Sektor Teknologi Informasi dan Komunikasi",
            "tanggal_terbit": "2024-09-10",
            "url_tdpse_detail": "https://pse.komdigi.go.id/tdpse-detail/20325",
            "website": "sparkpay.id"
        },
        {
            "id": "9cf98c38-2bfe-4a67-9e50-174474ecfbb9",
            "nama_pse": "PAPRIKA MULTI MEDIA",
            "nama_se": "APLIKASI PAPRIKA",
            "sektor": "Sektor Keuangan",
            "tanggal_terbit": "2024-09-10",
            "url_tdpse_detail": "https://pse.komdigi.go.id/tdpse-detail/20327",
            "website": "-"
        },
        {
            "id": "9cf9933e-0322-4d21-a645-e3e6467b55d6",
            "nama_pse": "DARMAWISATA INDONESIA",
            "nama_se": "DARMAWISATA IND",
            "sektor": "Sektor Transportasi",
            "tanggal_terbit": "2024-09-10",
            "url_tdpse_detail": "https://pse.komdigi.go.id/tdpse-detail/20328",
            "website": "-"
        },
        {
            "id": "9cf99d4f-286e-4c96-85d4-de46e12e9cc5",
            "nama_pse": "WAWAN HENDRAWAN",
            "nama_se": "APPLIKASI SENOPATI AESTHETIC CLINIC",
            "sektor": "Sektor Teknologi Informasi dan Komunikasi",
            "tanggal_terbit": "2024-09-10",
            "url_tdpse_detail": "https://pse.komdigi.go.id/tdpse-detail/20329",
            "website": "senopati-aesthetic.com"
        },
        {
            "id": "9cf9a301-afd7-47e3-9dc0-fc97d6620b77",
            "nama_pse": "SATU NUSA TEKNOLOGI",
            "nama_se": "AKU ANTAR",
            "sektor": "Sektor Transportasi",
            "tanggal_terbit": "2024-09-10",
            "url_tdpse_detail": "https://pse.komdigi.go.id/tdpse-detail/20330",
            "website": "akuantar.com"
        },
        {
            "id": "9cf9a393-1e3c-4728-8761-c5c0d13643b3",
            "nama_pse": "DIGITAL JADI MUDAH",
            "nama_se": "BAYARMUDAH.ID",
            "sektor": "Sektor Perdagangan",
            "tanggal_terbit": "2024-09-10",
            "url_tdpse_detail": "https://pse.komdigi.go.id/tdpse-detail/20331",
            "website": "bayarmudah.id"
        },
        {
            "id": "9cf9c952-4a21-4e16-973d-c0f884d5a57f",
            "nama_pse": "INDAKO TRADING COY",
            "nama_se": "KERETAKU",
            "sektor": "Sektor Perdagangan",
            "tanggal_terbit": "2024-09-10",
            "url_tdpse_detail": "https://pse.komdigi.go.id/tdpse-detail/20334",
            "website": "keretaku.id"
        },
        {
            "id": "9cf8fa51-7c70-494a-b532-a18b6f8bdf07",
            "nama_pse": "BFI FINANCE INDONESIA",
            "nama_se": "BFI MOBILE",
            "sektor": "Sektor Keuangan",
            "tanggal_terbit": "2024-09-10",
            "url_tdpse_detail": "https://pse.komdigi.go.id/tdpse-detail/20315",
            "website": "microservices.prod.bravo.bfi.co.id"
        },
        {
            "id": "9cf7bcaf-8056-4ce1-adb7-dbed5f81ea7a",
            "nama_pse": "HANA LINK OYLAM",
            "nama_se": "PT HANA LINK OYLAM",
            "sektor": "Sektor Teknologi Informasi dan Komunikasi",
            "tanggal_terbit": "2024-09-09",
            "url_tdpse_detail": "https://pse.komdigi.go.id/tdpse-detail/20309",
            "website": "-"
        },
        {
            "id": "9cf77932-132b-4e17-ae85-39a868d69212",
            "nama_pse": "ADMIRALS INVEST INDONESIA",
            "nama_se": "akademiadmirals.com",
            "sektor": "Sektor Teknologi Informasi dan Komunikasi",
            "tanggal_terbit": "2024-09-09",
            "url_tdpse_detail": "https://pse.komdigi.go.id/tdpse-detail/20306",
            "website": "akademiadmirals.com"
        },
        {
            "id": "9cd35802-8639-4986-b452-37c78231e480",
            "nama_pse": "SATU SUMMARECON SUKSES",
            "nama_se": "SUMMARECON MALL APPS",
            "sektor": "Sektor Teknologi Informasi dan Komunikasi",
            "tanggal_terbit": "2024-09-09",
            "url_tdpse_detail": "https://pse.komdigi.go.id/tdpse-detail/20298",
            "website": "satusummarecon.co.id"
        },
        {
            "id": "9cf74064-0b21-4338-9b52-9bcbd67aa70c",
            "nama_pse": "TRIA BERKAH MULIA",
            "nama_se": "PT TRIA BERKAH MULIA",
            "sektor": "Sektor Perdagangan, Sektor Kesehatan",
            "tanggal_terbit": "2024-09-09",
            "url_tdpse_detail": "https://pse.komdigi.go.id/tdpse-detail/20300",
            "website": "-"
        },
        {
            "id": "9cf6493b-3af0-41ac-8b70-f039827cfeec",
            "nama_pse": "GENERASI RUMAH PRODUKTIF",
            "nama_se": "E-TKSK.COM",
            "sektor": "Sektor Teknologi Informasi dan Komunikasi",
            "tanggal_terbit": "2024-09-09",
            "url_tdpse_detail": "https://pse.komdigi.go.id/tdpse-detail/20296",
            "website": "e-tksk.com"
        },
        {
            "id": "9cf70712-9df5-4813-9dd4-f66ffeeeaa81",
            "nama_pse": "TELEANJAR MITRA GLOBAL",
            "nama_se": "SIPOINT",
            "sektor": "Sektor Teknologi Informasi dan Komunikasi",
            "tanggal_terbit": "2024-09-09",
            "url_tdpse_detail": "https://pse.komdigi.go.id/tdpse-detail/20297",
            "website": "teleanjarmitraglobal.co.id"
        },
        {
            "id": "9cf7612d-510f-47e6-85ae-90bcfdd260df",
            "nama_pse": "Perusahaan Perseroan (Persero) PT. Pupuk Indonesia",
            "nama_se": "iPubers",
            "sektor": "Sektor Teknologi Informasi dan Komunikasi, Sektor Pangan",
            "tanggal_terbit": "2024-09-09",
            "url_tdpse_detail": "https://pse.komdigi.go.id/tdpse-detail/20302",
            "website": "ipubers.pupuk-indonesia.com"
        },
        {
            "id": "9cf74a8d-e193-40c9-9b33-d7ce3b3ab708",
            "nama_pse": "DIGITAL AXIS INDONESIA",
            "nama_se": "TEMAN MUSLIM",
            "sektor": "Sektor Teknologi Informasi dan Komunikasi",
            "tanggal_terbit": "2024-09-09",
            "url_tdpse_detail": "https://pse.komdigi.go.id/tdpse-detail/20301",
            "website": "temanmuslim.com"
        },
        {
            "id": "9cf77d47-87e2-4628-9468-372e0123c7f9",
            "nama_pse": "FARI INDONESIA SEJAHTERA",
            "nama_se": "faritech.id",
            "sektor": "Sektor Teknologi Informasi dan Komunikasi",
            "tanggal_terbit": "2024-09-09",
            "url_tdpse_detail": "https://pse.komdigi.go.id/tdpse-detail/20307",
            "website": "faritech.id"
        },
        {
            "id": "9cf7651c-dbde-4424-a615-fa06fb8326ae",
            "nama_pse": "HADI KUSUMAH",
            "nama_se": "jasabikinsticker.com",
            "sektor": "Sektor Perdagangan",
            "tanggal_terbit": "2024-09-09",
            "url_tdpse_detail": "https://pse.komdigi.go.id/tdpse-detail/20303",
            "website": "jasabikinsticker.com"
        },
        {
            "id": "9cf76bc8-c10e-43ee-852c-87ff312e18a9",
            "nama_pse": "AMAN AMANAH TERPERCAYA",
            "nama_se": "BOS EMAS",
            "sektor": "Sektor Perdagangan",
            "tanggal_terbit": "2024-09-09",
            "url_tdpse_detail": "https://pse.komdigi.go.id/tdpse-detail/20305",
            "website": "-"
        },
        {
            "id": "9cf7a7fe-64c5-4fd6-9cd9-e5951fce0768",
            "nama_pse": "NURDIANI RAHMAWATI",
            "nama_se": "SIAP BOS",
            "sektor": "Sektor Perdagangan, Sektor Teknologi Informasi dan Komunikasi",
            "tanggal_terbit": "2024-09-09",
            "url_tdpse_detail": "https://pse.komdigi.go.id/tdpse-detail/20308",
            "website": "-"
        },
        {
            "id": "9cf7c058-df23-447f-b9ba-d2c415fb02c8",
            "nama_pse": "CYBERINDO ADITAMA",
            "nama_se": "diCBN",
            "sektor": "Sektor Teknologi Informasi dan Komunikasi",
            "tanggal_terbit": "2024-09-09",
            "url_tdpse_detail": "https://pse.komdigi.go.id/tdpse-detail/20310",
            "website": "-"
        },
        {
            "id": "9cf70ed3-a618-415b-ba00-162390e31cbd",
            "nama_pse": "TEKNOLOGI CERDAS JAYA",
            "nama_se": "teknodas.biz.id",
            "sektor": "Sektor Perdagangan",
            "tanggal_terbit": "2024-09-09",
            "url_tdpse_detail": "https://pse.komdigi.go.id/tdpse-detail/20299",
            "website": "teknodas.biz.id"
        }
    ],
    "processingTimeMs": 1,
    "query": "",
    "totalHits": 19131,
    "hitsPerPage": 50,
    "page": 41,
    "totalPages": 383
}